t,s,e,i,r,c,o,n,reff,coal,reportr
5.,8924.,1.,37.,1038.,0.,0.,10000.,0.892308912086,46.4000634285,13.
5.02,8891.,26.,14.,1065.,0.,0.,9996.,0.889364994917,1.77872998983,338.
5.04,8880.,26.,18.,1074.,0.,0.,9998.,0.888086978593,1.77617395719,338.
5.06,8867.,27.,8.,1092.,0.,0.,9994.,0.887141778956,1.70856935206,351.
5.08,8855.,29.,17.,1095.,0.,0.,9996.,0.885763921942,1.58826634279,377.
5.1,8837.,34.,17.,1106.,0.,0.,9994.,0.884140284272,1.35221455242,442.
5.12,8830.,36.,11.,1118.,0.,0.,9995.,0.883351547324,1.27595223502,468.
5.14,8818.,33.,13.,1138.,0.,0.,10002.,0.881533687298,1.38908338605,429.
5.16,8806.,34.,15.,1143.,0.,0.,9998.,0.880686253771,1.34693191753,442.
5.18,8800.,27.,19.,1150.,0.,0.,9996.,0.880262282676,1.69531995182,351.
5.2,8783.,30.,15.,1168.,0.,0.,9996.,0.878561775993,1.52284041172,390.
5.22,8761.,36.,21.,1178.,0.,0.,9996.,0.876361120287,1.26585495153,468.
5.24,8754.,31.,6.,1203.,0.,0.,9994.,0.875836148977,1.46914450796,403.
5.26,8742.,29.,12.,1206.,0.,0.,9989.,0.875073350458,1.5690970422,377.
5.28,8738.,25.,13.,1214.,0.,0.,9990.,0.874585395997,1.81913762367,325.
5.3,8730.,23.,14.,1224.,0.,0.,9991.,0.873697219756,1.97531545336,299.
5.32,8717.,23.,14.,1234.,0.,0.,9988.,0.872658214807,1.9729663987,299.
5.34,8710.,18.,14.,1244.,0.,0.,9986.,0.872132081313,2.51949267935,234.
5.36,8703.,17.,10.,1254.,0.,0.,9984.,0.871605737028,2.66608813679,221.
5.38,8701.,18.,3.,1266.,0.,0.,9988.,0.87105645601,2.51638531736,234.
5.4,8703.,13.,4.,1268.,0.,0.,9988.,0.87125667586,3.48502670344,169.
5.42,8698.,14.,4.,1269.,0.,0.,9985.,0.871017745502,3.23520876901,182.
5.44,8700.,13.,5.,1268.,0.,0.,9986.,0.871130781564,3.48452312626,169.
5.46,8700.,7.,5.,1273.,0.,0.,9985.,0.871218025508,6.47190533235,91.
5.48,8700.,7.,4.,1277.,0.,0.,9988.,0.870956346085,6.46996142806,91.
5.5,8701.,6.,1.,1282.,0.,0.,9990.,0.870882070333,7.54764460955,78.
5.52,8700.,3.,3.,1281.,0.,0.,9987.,0.871043555092,15.0980882883,39.
5.54,8702.,2.,0.,1284.,0.,0.,9988.,0.871156565935,22.6500707143,26.
5.56,8704.,0.,2.,1282.,0.,0.,9988.,0.871356785785,inf,0.
5.58,8706.,0.,1.,1282.,0.,0.,9989.,0.871469753957,inf,0.
5.6,8707.,0.,0.,1280.,0.,0.,9987.,0.871744394734,inf,0.
5.62,8711.,0.,0.,1278.,0.,0.,9989.,0.871970253471,inf,0.
5.64,8713.,0.,0.,1274.,0.,0.,9987.,0.872345114427,inf,0.
5.66,8717.,0.,0.,1272.,0.,0.,9989.,0.872570852888,inf,0.
5.68,8723.,1.,0.,1268.,0.,0.,9992.,0.87290929114,45.3912831393,13.
5.7,8726.,1.,0.,1264.,0.,0.,9991.,0.873296900296,45.4114388154,13.
5.72,8727.,0.,1.,1260.,0.,0.,9988.,0.873659314056,inf,0.
5.74,8732.,0.,0.,1255.,0.,0.,9987.,0.874247393455,inf,0.
5.76,8734.,0.,0.,1253.,0.,0.,9987.,0.874447633353,inf,0.
5.78,8735.,0.,0.,1251.,0.,0.,9986.,0.874635330685,inf,0.
5.8,8739.,1.,0.,1248.,0.,0.,9988.,0.874860633154,45.492752924,13.
5.82,8743.,0.,0.,1247.,0.,0.,9990.,0.875085845411,inf,0.
5.84,8744.,3.,0.,1246.,0.,0.,9993.,0.874923195596,15.1653353903,39.
5.86,8752.,3.,1.,1239.,0.,0.,9995.,0.875548441923,15.1761729933,39.
5.88,8750.,3.,3.,1238.,0.,0.,9994.,0.875435949686,15.1742231279,39.
5.9,8750.,5.,4.,1236.,0.,0.,9995.,0.875348362297,9.10362296789,65.
5.92,8740.,7.,7.,1236.,0.,0.,9990.,0.874785575763,6.49840713424,91.
5.94,8740.,9.,5.,1236.,0.,0.,9990.,0.874785575763,5.05431665996,117.
5.96,8737.,11.,6.,1235.,0.,0.,9989.,0.874572850944,4.13434438628,143.
5.98,8732.,12.,8.,1236.,0.,0.,9988.,0.87415986368,3.78802607595,156.
6.,8722.,14.,13.,1239.,0.,0.,9988.,0.873158764432,3.24316112503,182.
6.02,8714.,25.,11.,1241.,0.,0.,9991.,0.872095941919,1.81395955919,325.
6.04,8703.,26.,8.,1254.,0.,0.,9991.,0.870995063406,1.74199012681,338.
6.06,8693.,17.,20.,1257.,0.,0.,9987.,0.87034271545,2.66222477667,221.
6.08,8677.,23.,16.,1270.,0.,0.,9986.,0.868827792142,1.96430631267,299.
6.1,8656.,28.,18.,1279.,0.,0.,9981.,0.867159250156,1.61043860743,364.
6.12,8640.,34.,18.,1291.,0.,0.,9983.,0.86538296193,1.32352688295,442.
6.14,8626.,44.,13.,1302.,0.,0.,9985.,0.863807665291,1.02086360444,572.
6.16,8617.,28.,18.,1319.,0.,0.,9982.,0.863165743996,1.60302209599,364.
6.18,8601.,28.,9.,1340.,0.,0.,9978.,0.861908407467,1.60068704244,364.
6.2,8586.,27.,21.,1344.,0.,0.,9978.,0.860405253634,1.65707678478,351.
6.22,8571.,24.,23.,1358.,0.,0.,9976.,0.859074293487,1.86132763589,312.
6.24,8553.,36.,10.,1376.,0.,0.,9975.,0.857356089132,1.23840323986,468.
6.26,8546.,28.,13.,1388.,0.,0.,9975.,0.856654406375,1.59092961184,364.
6.28,8531.,31.,19.,1397.,0.,0.,9978.,0.854893689582,1.43401522123,403.
6.3,8518.,37.,11.,1412.,0.,0.,9978.,0.853590956261,1.19964134393,481.
6.32,8514.,23.,16.,1424.,0.,0.,9977.,0.853275630937,1.92914490473,299.
6.34,8507.,26.,12.,1433.,0.,0.,9978.,0.85248864345,1.7049772869,338.
6.36,8492.,24.,11.,1452.,0.,0.,9979.,0.850900211986,1.84361712597,312.
6.38,8478.,20.,11.,1464.,0.,0.,9973.,0.850008487356,2.21002206713,260.
6.4,8472.,19.,10.,1472.,0.,0.,9973.,0.849406924378,2.32469263514,247.
6.42,8463.,15.,16.,1478.,0.,0.,9972.,0.848589668618,2.94177751788,195.
6.44,8457.,15.,9.,1489.,0.,0.,9970.,0.848158153248,2.94028159793,195.
6.46,8460.,14.,4.,1497.,0.,0.,9975.,0.848033732499,3.14983957785,182.
6.48,8459.,11.,0.,1505.,0.,0.,9975.,0.847933492105,4.00841287177,143.
6.5,8458.,8.,3.,1503.,0.,0.,9972.,0.848088315866,5.51257405313,104.
6.52,8462.,4.,2.,1506.,0.,0.,9974.,0.848319257823,11.0281503517,52.
6.54,8467.,2.,0.,1506.,0.,0.,9975.,0.848735415256,22.0671207967,26.
6.56,8466.,2.,1.,1505.,0.,0.,9974.,0.8487202596,22.0667267496,26.
6.58,8466.,2.,1.,1503.,0.,0.,9972.,0.84889048027,22.071152487,26.
6.6,8466.,1.,2.,1502.,0.,0.,9971.,0.848975616212,44.146732043,13.
6.62,8466.,2.,1.,1502.,0.,0.,9971.,0.848975616212,22.0733660215,26.
6.64,8470.,0.,1.,1497.,0.,0.,9968.,0.84963236968,inf,0.
6.66,8471.,1.,1.,1495.,0.,0.,9968.,0.849732680467,44.1860993843,13.
6.68,8472.,1.,0.,1494.,0.,0.,9967.,0.849918255927,44.1957493082,13.
6.7,8474.,2.,0.,1491.,0.,0.,9967.,0.85011889763,22.1030913384,26.
6.72,8477.,1.,0.,1490.,0.,0.,9968.,0.850334545192,44.21739635,13.
6.74,8479.,1.,0.,1491.,0.,0.,9971.,0.850279264099,44.2145217331,13.
6.76,8482.,1.,2.,1487.,0.,0.,9972.,0.850494809077,44.225730072,13.
6.78,8484.,1.,0.,1487.,0.,0.,9972.,0.850695350178,44.2361582093,13.
6.8,8487.,1.,0.,1485.,0.,0.,9973.,0.850910831822,44.2473632548,13.
6.82,8488.,1.,1.,1484.,0.,0.,9974.,0.85092576937,44.2481400072,13.
6.84,8489.,3.,1.,1478.,0.,0.,9971.,0.851282070166,14.7555558829,39.
6.86,8489.,4.,3.,1474.,0.,0.,9970.,0.851367454526,11.0677769088,52.
6.88,8488.,7.,2.,1474.,0.,0.,9971.,0.851181789559,6.32306472244,91.
6.9,8488.,4.,7.,1473.,0.,0.,9972.,0.85109643238,11.0642536209,52.
6.92,8483.,10.,6.,1473.,0.,0.,9972.,0.850595079628,4.42309441406,130.
6.94,8485.,11.,0.,1475.,0.,0.,9971.,0.850880947739,4.0223462984,143.
6.96,8482.,13.,2.,1472.,0.,0.,9969.,0.85075075094,3.40300300376,169.
6.98,8481.,11.,6.,1471.,0.,0.,9969.,0.850650450214,4.02125667374,143.
7.,8476.,11.,10.,1471.,0.,0.,9968.,0.850234234404,4.01928910809,143.
7.02,8464.,18.,8.,1477.,0.,0.,9967.,0.849115689113,2.45300087966,234.
7.04,8463.,18.,4.,1486.,0.,0.,9971.,0.848674774392,2.45172712602,234.
7.06,8472.,15.,8.,1483.,0.,0.,9978.,0.848981284508,2.94313511963,195.
7.08,8463.,22.,7.,1485.,0.,0.,9977.,0.848164395656,2.00475220791,286.
7.1,8452.,18.,11.,1492.,0.,0.,9973.,0.847401714453,2.44804939731,234.
7.12,8438.,24.,14.,1498.,0.,0.,9974.,0.845913247166,1.83281203553,312.
7.14,8417.,32.,13.,1508.,0.,0.,9970.,0.844146526651,1.37173810581,416.
7.16,8402.,35.,13.,1519.,0.,0.,9969.,0.842726692926,1.25205108663,455.
7.18,8390.,28.,19.,1532.,0.,0.,9969.,0.841523084223,1.56282858499,364.
7.2,8367.,38.,12.,1551.,0.,0.,9968.,0.839300358572,1.14851628015,494.
7.22,8357.,33.,15.,1561.,0.,0.,9966.,0.838465482135,1.32121833549,429.
7.24,8350.,28.,13.,1577.,0.,0.,9968.,0.837595075186,1.55553371106,364.
7.26,8337.,25.,16.,1588.,0.,0.,9966.,0.836458863774,1.73983443665,325.
7.28,8332.,24.,14.,1597.,0.,0.,9967.,0.835873336684,1.81105889615,312.
7.3,8323.,26.,11.,1604.,0.,0.,9964.,0.835221845179,1.67044369036,338.
7.32,8314.,23.,9.,1615.,0.,0.,9961.,0.834569961249,1.88685382543,299.
7.34,8305.,26.,9.,1622.,0.,0.,9962.,0.833582845075,1.66716569015,338.
7.36,8298.,19.,8.,1638.,0.,0.,9963.,0.832796649315,2.27923293497,247.
7.38,8290.,14.,13.,1643.,0.,0.,9960.,0.832244360813,3.09119334016,182.
7.4,8284.,14.,10.,1654.,0.,0.,9962.,0.831475049801,3.08833589926,182.
7.42,8272.,16.,10.,1660.,0.,0.,9958.,0.830604104335,2.69946333909,208.
7.44,8270.,14.,6.,1667.,0.,0.,9957.,0.830486680236,3.08466481231,182.
7.46,8267.,5.,15.,1667.,0.,0.,9954.,0.830435621993,8.63653046873,65.
7.48,8268.,7.,3.,1677.,0.,0.,9955.,0.830452644827,6.16907679014,91.
7.5,8268.,7.,2.,1679.,0.,0.,9956.,0.830369232548,6.16845715607,91.
7.52,8270.,6.,1.,1680.,0.,0.,9957.,0.830486680236,7.19755122871,78.
7.54,8276.,4.,5.,1675.,0.,0.,9960.,0.830838881796,10.8009054633,52.
7.56,8275.,6.,0.,1677.,0.,0.,9958.,0.830905338899,7.20117960379,78.
7.58,8282.,1.,0.,1677.,0.,0.,9960.,0.831441229946,43.2349439572,13.
7.6,8288.,1.,0.,1672.,0.,0.,9961.,0.831960047971,43.2619224945,13.
7.62,8291.,2.,0.,1670.,0.,0.,9963.,0.832094121412,21.6344471567,26.
7.64,8292.,2.,1.,1669.,0.,0.,9964.,0.83211096242,21.6348850229,26.
7.66,8298.,3.,0.,1666.,0.,0.,9967.,0.832462427725,14.4293487472,39.
7.68,8299.,1.,3.,1665.,0.,0.,9968.,0.832479225026,43.2889197014,13.
7.7,8300.,2.,0.,1665.,0.,0.,9967.,0.832663069428,21.6492398051,26.
7.72,8303.,0.,0.,1664.,0.,0.,9967.,0.832964031983,inf,0.
7.74,8305.,0.,0.,1661.,0.,0.,9966.,0.833248274396,inf,0.
7.76,8305.,2.,0.,1660.,0.,0.,9967.,0.833164673687,21.6622815159,26.
7.78,8311.,2.,0.,1656.,0.,0.,9969.,0.833599326935,21.6735825003,26.
7.8,8312.,3.,0.,1653.,0.,0.,9968.,0.833783265263,14.4522432646,39.
7.82,8312.,1.,2.,1653.,0.,0.,9968.,0.833783265263,43.3567297937,13.
7.84,8308.,2.,2.,1648.,0.,0.,9960.,0.834051405263,21.6853365368,26.
7.86,8305.,6.,1.,1648.,0.,0.,9960.,0.833750231188,7.22583533697,78.
7.88,8305.,6.,1.,1648.,0.,0.,9960.,0.833750231188,7.22583533697,78.
7.9,8308.,6.,0.,1646.,0.,0.,9960.,0.834051405263,7.22844551228,78.
7.92,8308.,5.,3.,1644.,0.,0.,9960.,0.834051405263,8.67413461474,65.
7.94,8306.,10.,4.,1641.,0.,0.,9961.,0.833766911009,4.33558793725,130.
7.96,8303.,9.,6.,1643.,0.,0.,9961.,0.83346576717,4.81557998809,117.
7.98,8295.,15.,9.,1643.,0.,0.,9962.,0.83257913304,2.88627432787,195.
8.,8288.,17.,6.,1650.,0.,0.,9961.,0.831960047971,2.54481897026,221.
8.02,8286.,16.,10.,1648.,0.,0.,9960.,0.831842795379,2.70348908498,208.
8.04,8277.,20.,12.,1654.,0.,0.,9963.,0.830689065604,2.15979157057,260.
8.06,8267.,23.,12.,1660.,0.,0.,9962.,0.829768739342,1.87599888895,299.
8.08,8261.,19.,16.,1669.,0.,0.,9965.,0.828916888484,2.26861464217,247.
8.1,8251.,27.,10.,1678.,0.,0.,9966.,0.827830404822,1.59434003892,351.
8.12,8236.,28.,14.,1690.,0.,0.,9968.,0.826159645417,1.53429648435,364.
8.14,8225.,23.,24.,1697.,0.,0.,9969.,0.824973464569,1.86515739816,299.
8.16,8206.,33.,10.,1719.,0.,0.,9968.,0.823150321793,1.29708535555,429.
8.18,8189.,31.,15.,1727.,0.,0.,9962.,0.821939785469,1.37873770466,403.
8.2,8184.,31.,17.,1734.,0.,0.,9966.,0.821108233313,1.37734284298,403.
8.22,8170.,27.,17.,1749.,0.,0.,9963.,0.81995042479,1.57916378108,351.
8.24,8163.,28.,14.,1758.,0.,0.,9963.,0.819247896886,1.52146037993,364.
8.26,8148.,28.,20.,1766.,0.,0.,9962.,0.817824566125,1.51881705138,364.
8.28,8132.,31.,14.,1786.,0.,0.,9963.,0.816136701884,1.36900349993,403.
8.3,8129.,26.,11.,1800.,0.,0.,9966.,0.81559003282,1.63118006564,338.
8.32,8131.,18.,14.,1806.,0.,0.,9969.,0.815545196403,2.35601945628,234.
8.34,8125.,19.,7.,1818.,0.,0.,9969.,0.814943392052,2.23037138877,247.
8.36,8118.,19.,10.,1822.,0.,0.,9969.,0.814241286976,2.22844983804,247.
8.38,8115.,20.,8.,1828.,0.,0.,9971.,0.813777123265,2.11582052049,260.
8.4,8119.,12.,5.,1836.,0.,0.,9972.,0.814096599257,3.52775193011,156.
8.42,8115.,5.,5.,1843.,0.,0.,9968.,0.814022040136,8.46582921741,65.
8.44,8114.,7.,3.,1843.,0.,0.,9967.,0.814003391005,6.04688233318,91.
8.46,8114.,6.,1.,1845.,0.,0.,9966.,0.814085069049,7.05540393176,78.
8.48,8119.,7.,3.,1840.,0.,0.,9969.,0.814341587701,6.04939465149,91.
8.5,8122.,7.,3.,1838.,0.,0.,9970.,0.814560780499,6.05102294085,91.
8.52,8126.,5.,1.,1838.,0.,0.,9970.,0.814961943159,8.47560420885,65.
8.54,8129.,2.,0.,1840.,0.,0.,9971.,0.815181051758,21.1947073457,26.
8.56,8131.,1.,1.,1838.,0.,0.,9971.,0.815381612972,42.3998438745,13.
8.58,8135.,1.,1.,1832.,0.,0.,9969.,0.815946399304,42.4292127638,13.
8.6,8138.,1.,0.,1833.,0.,0.,9972.,0.816001739716,42.4320904652,13.
8.62,8145.,0.,0.,1830.,0.,0.,9975.,0.816458008416,inf,0.
8.64,8147.,0.,0.,1827.,0.,0.,9974.,0.816740367938,inf,0.
8.66,8151.,2.,0.,1822.,0.,0.,9975.,0.81705945078,21.2435457203,26.
8.68,8153.,1.,1.,1818.,0.,0.,9973.,0.817423826069,42.5060389556,13.
8.7,8153.,5.,2.,1815.,0.,0.,9975.,0.817259931567,8.4995032883,65.
8.72,8157.,2.,1.,1814.,0.,0.,9974.,0.817742872378,21.2613146818,26.
8.74,8159.,3.,2.,1808.,0.,0.,9972.,0.818107421276,14.1805286354,39.
8.76,8162.,3.,0.,1807.,0.,0.,9972.,0.818408232927,14.1857427041,39.
8.78,8158.,6.,1.,1805.,0.,0.,9970.,0.818171244436,7.09081745178,78.
8.8,8161.,4.,3.,1803.,0.,0.,9971.,0.818390031172,10.6390704052,52.
8.82,8163.,3.,5.,1800.,0.,0.,9971.,0.818590592386,14.1889036014,39.
8.84,8163.,4.,2.,1800.,0.,0.,9969.,0.818754819609,10.6438126549,52.
8.86,8160.,7.,1.,1801.,0.,0.,9969.,0.818453917433,6.07994338665,91.
8.88,8165.,5.,6.,1800.,0.,0.,9976.,0.818380773109,8.51116004033,65.
8.9,8159.,8.,5.,1803.,0.,0.,9975.,0.817861373931,5.31609893055,104.
8.92,8166.,8.,1.,1801.,0.,0.,9976.,0.818481003455,5.32012652246,104.
8.94,8168.,5.,4.,1797.,0.,0.,9974.,0.818845627263,8.51599452354,65.
8.96,8163.,8.,4.,1799.,0.,0.,9974.,0.818344375043,5.31923843778,104.
8.98,8154.,18.,7.,1796.,0.,0.,9975.,0.817360171961,2.361262719,234.
9.,8150.,19.,10.,1797.,0.,0.,9976.,0.816877317923,2.23566423853,247.
9.02,8146.,19.,11.,1800.,0.,0.,9976.,0.81647639654,2.23456698,247.
9.04,8127.,30.,11.,1807.,0.,0.,9975.,0.814653681326,1.41206638096,390.
9.06,8113.,33.,11.,1815.,0.,0.,9972.,0.813494975954,1.2818708712,429.
9.08,8106.,23.,21.,1823.,0.,0.,9973.,0.812711582744,1.83743488273,299.
9.1,8082.,37.,20.,1837.,0.,0.,9976.,0.810061654411,1.13846502782,481.
9.12,8068.,41.,18.,1852.,0.,0.,9979.,0.808415321515,1.02530723704,533.
9.14,8057.,37.,21.,1867.,0.,0.,9982.,0.807070488497,1.13426122708,481.
9.16,8049.,35.,18.,1880.,0.,0.,9982.,0.806269127704,1.19788556116,455.
9.18,8037.,31.,19.,1893.,0.,0.,9980.,0.805228422604,1.35070574114,403.
9.2,8019.,34.,15.,1910.,0.,0.,9978.,0.803586038772,1.22901394165,442.
9.22,8018.,31.,15.,1920.,0.,0.,9984.,0.803002964436,1.34697271454,403.
9.24,8009.,32.,12.,1931.,0.,0.,9984.,0.80210161414,1.30341512298,416.
9.26,8004.,30.,11.,1942.,0.,0.,9987.,0.801360070684,1.38902412252,390.
9.28,8001.,20.,18.,1942.,0.,0.,9981.,0.801541261611,2.08400728019,260.
9.3,7991.,28.,7.,1954.,0.,0.,9980.,0.800619674634,1.48686511003,364.
9.32,7987.,26.,8.,1961.,0.,0.,9982.,0.800058581559,1.60011716312,338.
9.34,7985.,16.,14.,1968.,0.,0.,9983.,0.79977811933,2.59927888782,208.
9.36,7986.,19.,3.,1976.,0.,0.,9984.,0.799798163381,2.18892128925,247.
9.38,7987.,14.,7.,1976.,0.,0.,9984.,0.799898313414,2.97105087839,182.
9.4,7977.,14.,9.,1982.,0.,0.,9982.,0.799056880568,2.9679255564,182.
9.42,7974.,10.,0.,1993.,0.,0.,9977.,0.799156669144,4.15561467955,130.
9.44,7978.,9.,1.,1989.,0.,0.,9977.,0.799557550342,4.61966584642,117.
9.46,7979.,10.,1.,1987.,0.,0.,9977.,0.799657770642,4.15822040734,130.
9.48,7986.,3.,3.,1991.,0.,0.,9983.,0.799878279395,13.8645568428,39.
9.5,7988.,3.,4.,1985.,0.,0.,9980.,0.800319104114,13.8721978046,39.
9.52,7992.,4.,2.,1984.,0.,0.,9982.,0.800559432055,10.4072726167,52.
9.54,7992.,2.,1.,1985.,0.,0.,9980.,0.800719864807,20.818716485,26.
9.56,7997.,1.,0.,1979.,0.,0.,9977.,0.801461736035,41.6760102738,13.
9.58,8005.,1.,0.,1972.,0.,0.,9978.,0.802183095195,41.7135209501,13.
9.6,8004.,1.,0.,1971.,0.,0.,9976.,0.802243687442,41.716671747,13.
9.62,8003.,1.,0.,1969.,0.,0.,9973.,0.802384751629,41.7240070847,13.
9.64,8006.,0.,0.,1968.,0.,0.,9974.,0.802605055322,inf,0.
9.66,8011.,0.,0.,1964.,0.,0.,9975.,0.803025795632,inf,0.
9.68,8013.,0.,0.,1962.,0.,0.,9975.,0.80322627642,inf,0.
9.7,8019.,0.,0.,1959.,0.,0.,9978.,0.803586038772,inf,0.
9.72,8022.,0.,0.,1956.,0.,0.,9978.,0.803886669538,inf,0.
9.74,8027.,0.,0.,1953.,0.,0.,9980.,0.804226520871,inf,0.
9.76,8028.,0.,0.,1950.,0.,0.,9978.,0.804487931071,inf,0.
9.78,8030.,0.,0.,1948.,0.,0.,9978.,0.804688351582,inf,0.
9.8,8040.,3.,0.,1935.,0.,0.,9978.,0.805690454137,13.965301205,39.
9.82,8047.,4.,1.,1930.,0.,0.,9982.,0.806068787506,10.4788942376,52.
9.84,8044.,9.,2.,1927.,0.,0.,9982.,0.805768277208,4.65555004609,117.
9.86,8051.,7.,3.,1923.,0.,0.,9984.,0.806307915525,5.9897159439,91.
9.88,8057.,7.,2.,1922.,0.,0.,9988.,0.806585664415,5.99177922137,91.
9.9,8060.,5.,3.,1921.,0.,0.,9989.,0.806805216735,8.39077425404,65.
9.92,8065.,7.,2.,1916.,0.,0.,9990.,0.807224904866,5.99652786472,91.
9.94,8066.,8.,3.,1913.,0.,0.,9990.,0.807324994749,5.24761246587,104.
9.96,8063.,10.,4.,1911.,0.,0.,9988.,0.807186323964,4.19736888461,130.
9.98,8059.,8.,1.,1915.,0.,0.,9983.,0.807189964142,5.24673476693,104.
10.,8063.,5.,6.,1910.,0.,0.,9984.,0.807509715921,8.39810104557,65.
