t,cases
5.01,4.615
5.02,4.615
5.03,4.55
5.04,4.55
5.05,4.03
5.06,4.03
5.07,3.77
5.08,3.77
5.09,4.485
5.1,4.485
5.11,5.07
5.12,5.07
5.13,4.42
5.14,4.42
5.15,4.615
5.16,4.615
5.17,5.07
5.18,5.07
5.19,4.81
5.2,4.81
5.21,4.42
5.22,4.42
5.23,3.835
5.24,3.835
5.25,3.055
5.26,3.055
5.27,3.12
5.28,3.12
5.29,3.51
5.3,3.51
5.31,3.055
5.32,3.055
5.33,2.34
5.34,2.34
5.35,2.21
5.36,2.21
5.37,2.275
5.38,2.275
5.39,1.885
5.4,1.885
5.41,1.495
5.42,1.495
5.43,1.235
5.44,1.235
5.45,1.105
5.46,1.105
5.47,0.91
5.48,0.91
5.49,0.715
5.5,0.715
5.51,0.715
5.52,0.715
5.53,0.455
5.54,0.455
5.55,0.195
5.56,0.195
5.57,0.26
5.58,0.26
5.59,0.26
5.6,0.26
5.61,0.26
5.62,0.26
5.63,0.195
5.64,0.195
5.65,0.195
5.66,0.195
5.67,0.325
5.68,0.325
5.69,0.39
5.7,0.39
5.71,0.195
5.72,0.195
5.73,0.13
5.74,0.13
5.75,0.26
5.76,0.26
5.77,0.39
5.78,0.39
5.79,0.39
5.8,0.39
5.81,0.195
5.82,0.195
5.83,0.325
5.84,0.325
5.85,0.715
5.86,0.715
5.87,0.975
5.88,0.975
5.89,0.975
5.9,0.975
5.91,0.91
5.92,0.91
5.93,0.91
5.94,0.91
5.95,1.105
5.96,1.105
5.97,1.69
5.98,1.69
5.99,2.47
6.,2.47
6.01,2.73
6.02,2.73
6.03,2.795
6.04,2.795
6.05,2.925
6.06,2.925
6.07,2.795
6.08,2.795
6.09,2.405
6.1,2.405
6.11,2.73
6.12,2.73
6.13,3.185
6.14,3.185
6.15,3.25
6.16,3.25
6.17,3.9
6.18,3.9
6.19,3.835
6.2,3.835
6.21,3.38
6.22,3.38
6.23,3.38
6.24,3.38
6.25,3.64
6.26,3.64
6.27,3.835
6.28,3.835
6.29,3.51
6.3,3.51
6.31,3.185
6.32,3.185
6.33,2.6
6.34,2.6
6.35,2.34
6.36,2.34
6.37,2.535
6.38,2.535
6.39,2.015
6.4,2.015
6.41,1.56
6.42,1.56
6.43,1.495
6.44,1.495
6.45,1.365
6.46,1.365
6.47,1.365
6.48,1.365
6.49,1.17
6.5,1.17
6.51,0.845
6.52,0.845
6.53,0.65
6.54,0.65
6.55,0.39
6.56,0.39
6.57,0.325
6.58,0.325
6.59,0.325
6.6,0.325
6.61,0.195
6.62,0.195
6.63,0.065
6.64,0.065
6.65,0.065
6.66,0.065
6.67,0.13
6.68,0.13
6.69,0.065
6.7,0.065
6.71,0.065
6.72,0.065
6.73,0.13
6.74,0.13
6.75,0.13
6.76,0.13
6.77,0.13
6.78,0.13
6.79,0.13
6.8,0.13
6.81,0.26
6.82,0.26
6.83,0.455
6.84,0.455
6.85,0.78
6.86,0.78
6.87,0.91
6.88,0.91
6.89,1.04
6.9,1.04
6.91,1.495
6.92,1.495
6.93,1.625
6.94,1.625
6.95,1.755
6.96,1.755
6.97,2.34
6.98,2.34
6.99,2.6
7.,2.6
7.01,2.73
7.02,2.73
7.03,3.055
7.04,3.055
7.05,2.73
7.06,2.73
7.07,2.47
7.08,2.47
7.09,3.185
7.1,3.185
7.11,3.705
7.12,3.705
7.13,3.51
7.14,3.51
7.15,3.575
7.16,3.575
7.17,3.705
7.18,3.705
7.19,3.835
7.2,3.835
7.21,3.705
7.22,3.705
7.23,4.095
7.24,4.095
7.25,4.745
7.26,4.745
7.27,3.77
7.28,3.77
7.29,3.64
7.3,3.64
7.31,4.225
7.32,4.225
7.33,3.9
7.34,3.9
7.35,3.965
7.36,3.965
7.37,3.835
7.38,3.835
7.39,3.445
7.4,3.445
7.41,2.99
7.42,2.99
7.43,2.015
7.44,2.015
7.45,1.495
7.46,1.495
7.47,1.235
7.48,1.235
7.49,0.78
7.5,0.78
7.51,0.585
7.52,0.585
7.53,0.26
7.54,0.26
7.55,0.
7.56,0.
7.57,0.
7.58,0.
7.59,0.
7.6,0.
7.61,0.
7.62,0.
7.63,0.
7.64,0.
7.65,0.0650000000001
7.66,0.0649999999999
7.67,0.0649999999999
7.68,0.0650000000001
7.69,0.0650000000001
7.7,0.0649999999999
7.71,0.0649999999999
7.72,0.0650000000001
7.73,0.0650000000001
7.74,0.0649999999999
7.75,0.13
7.76,0.13
7.77,0.0649999999999
7.78,0.0650000000001
7.79,0.13
7.8,0.13
7.81,0.455
7.82,0.455
7.83,0.845
7.84,0.845
7.85,0.975
7.86,0.975
7.87,0.845
7.88,0.845
7.89,0.845
7.9,0.845
7.91,0.78
7.92,0.78
7.93,0.52
7.94,0.52
7.95,0.91
7.96,0.91
7.97,1.755
7.98,1.755
7.99,2.21
8.,2.21
8.01,2.47
8.02,2.47
8.03,2.665
8.04,2.665
8.05,2.86
8.06,2.86
8.07,2.47
8.08,2.47
8.09,2.145
8.1,2.145
8.11,2.665
8.12,2.665
8.13,2.86
8.14,2.86
8.15,2.795
8.16,2.795
8.17,2.6
8.18,2.6
8.19,2.535
8.2,2.535
8.21,2.86
8.22,2.86
8.23,3.445
8.24,3.445
8.25,4.03
8.26,4.03
8.27,3.575
8.28,3.575
8.29,3.185
8.3,3.185
8.31,3.25
8.32,3.25
8.33,2.86
8.34,2.86
8.35,2.6
8.36,2.6
8.37,2.34
8.38,2.34
8.39,1.885
8.4,1.885
8.41,1.17
8.42,1.17
8.43,0.455
8.44,0.455
8.45,0.39
8.46,0.39
8.47,0.39
8.48,0.39
8.49,0.325
8.5,0.325
8.51,0.325
8.52,0.325
8.53,0.195
8.54,0.195
8.55,0.13
8.56,0.13
8.57,0.195
8.58,0.195
8.59,0.26
8.6,0.26
8.61,0.13
8.62,0.13
8.63,0.13
8.64,0.13
8.65,0.195
8.66,0.195
8.67,0.325
8.68,0.325
8.69,0.455
8.7,0.455
8.71,0.325
8.72,0.325
8.73,0.26
8.74,0.26
8.75,0.195
8.76,0.195
8.77,0.13
8.78,0.13
8.79,0.13
8.8,0.13
8.81,0.13
8.82,0.13
8.83,0.325
8.84,0.325
8.85,0.715
8.86,0.715
8.87,1.04
8.88,1.04
8.89,1.105
8.9,1.105
8.91,1.43
8.92,1.43
8.93,1.755
8.94,1.755
8.95,1.885
8.96,1.885
8.97,1.755
8.98,1.755
8.99,1.625
9.,1.625
9.01,1.95
9.02,1.95
9.03,2.34
9.04,2.34
9.05,2.6
9.06,2.6
9.07,2.86
9.08,2.86
9.09,3.055
9.1,3.055
9.11,3.055
9.12,3.055
9.13,3.38
9.14,3.38
9.15,3.315
9.16,3.315
9.17,3.055
9.18,3.055
9.19,4.095
9.2,4.095
9.21,4.42
9.22,4.42
9.23,3.77
9.24,3.77
9.25,4.29
9.26,4.29
9.27,4.29
9.28,4.29
9.29,3.51
9.3,3.51
9.31,3.51
9.32,3.51
9.33,3.38
9.34,3.38
9.35,3.12
9.36,3.12
9.37,2.99
9.38,2.99
9.39,2.34
9.4,2.34
9.41,2.145
9.42,2.145
9.43,1.82
9.44,1.82
9.45,1.235
9.46,1.235
9.47,0.975
9.48,0.975
9.49,0.65
9.5,0.65
9.51,0.52
9.52,0.52
9.53,0.52
9.54,0.52
9.55,0.455
9.56,0.455
9.57,0.26
9.58,0.26
9.59,0.13
9.6,0.13
9.61,0.26
9.62,0.26
9.63,0.39
9.64,0.39
9.65,0.39
9.66,0.39
9.67,0.325
9.68,0.325
9.69,0.195
9.7,0.195
9.71,0.0650000000001
9.72,0.0649999999999
9.73,0.0650000000001
9.74,0.0649999999999
9.75,0.26
9.76,0.26
9.77,0.325
9.78,0.325
9.79,0.26
9.8,0.26
9.81,0.26
9.82,0.26
9.83,0.26
9.84,0.26
9.85,0.65
9.86,0.65
9.87,0.91
9.88,0.91
9.89,0.845
9.9,0.845
9.91,0.91
9.92,0.91
9.93,0.91
9.94,0.91
9.95,1.04
9.96,1.04
9.97,1.17
9.98,1.17
9.99,1.17
10.,1.17
