t,s,e,i,r,c,o,n,reff,coal,reportr
5.,7345.,31.,15.,2609.,0.,0.,10000.,0.878641797129,1.47385075647,403.
5.02,7334.,25.,21.,2618.,0.,0.,9998.,0.877501428147,1.82520297055,325.
5.04,7325.,25.,12.,2636.,0.,0.,9998.,0.87642459247,1.82296315234,325.
5.06,7312.,27.,20.,2639.,0.,0.,9998.,0.874869163159,1.68493320312,351.
5.08,7305.,29.,23.,2642.,0.,0.,9999.,0.873944212396,1.56707238085,377.
5.1,7289.,25.,22.,2661.,0.,0.,9997.,0.872204487659,1.81418533433,325.
5.12,7276.,35.,15.,2674.,0.,0.,10000.,0.870387708088,1.29314745202,455.
5.14,7270.,28.,15.,2689.,0.,0.,10002.,0.869496062003,1.61477840086,364.
5.16,7265.,27.,18.,2692.,0.,0.,10002.,0.868898059209,1.67343329922,351.
5.18,7248.,34.,16.,2702.,0.,0.,10000.,0.86703822268,1.32605845822,442.
5.2,7242.,28.,19.,2708.,0.,0.,9997.,0.866580449942,1.60936369275,364.
5.22,7234.,36.,6.,2722.,0.,0.,9998.,0.865536587294,1.25021951498,468.
5.24,7228.,30.,11.,2725.,0.,0.,9994.,0.865164832003,1.49961904214,390.
5.26,7222.,23.,16.,2731.,0.,0.,9992.,0.864619681976,1.95479232447,299.
5.28,7216.,22.,14.,2738.,0.,0.,9990.,0.864074313671,2.04235746868,286.
5.3,7207.,24.,10.,2745.,0.,0.,9986.,0.863342298265,1.87057497957,312.
5.32,7202.,22.,12.,2748.,0.,0.,9984.,0.862916162513,2.03962002049,286.
5.34,7202.,25.,10.,2748.,0.,0.,9985.,0.862829741265,1.79468586183,325.
5.36,7203.,19.,11.,2750.,0.,0.,9983.,0.863122429262,2.3622298064,247.
5.38,7206.,17.,7.,2755.,0.,0.,9985.,0.863308958006,2.6407097539,221.
5.4,7207.,10.,8.,2759.,0.,0.,9984.,0.863515243437,4.49027926587,130.
5.42,7204.,11.,5.,2762.,0.,0.,9982.,0.863328737338,4.08119039469,143.
5.44,7204.,9.,6.,2762.,0.,0.,9981.,0.863415234557,4.98862135522,117.
5.46,7213.,9.,4.,2760.,0.,0.,9986.,0.864061051393,4.99235274138,117.
5.48,7219.,6.,3.,2758.,0.,0.,9986.,0.86477980452,7.49475830584,78.
5.5,7229.,4.,1.,2757.,0.,0.,9991.,0.865544347495,11.2520765174,52.
5.52,7234.,2.,0.,2754.,0.,0.,9990.,0.866229709686,22.5219724518,26.
5.54,7245.,0.,2.,2746.,0.,0.,9993.,0.867286449759,inf,0.
5.56,7250.,0.,2.,2742.,0.,0.,9994.,0.867798150528,inf,0.
5.58,7250.,0.,0.,2743.,0.,0.,9993.,0.867884991132,inf,0.
5.6,7256.,1.,0.,2736.,0.,0.,9993.,0.86860324078,45.1673685205,13.
5.62,7263.,0.,1.,2729.,0.,0.,9993.,0.869441198702,inf,0.
5.64,7266.,0.,0.,2726.,0.,0.,9992.,0.869887373198,inf,0.
5.66,7272.,1.,0.,2720.,0.,0.,9993.,0.870518573174,45.266965805,13.
5.68,7276.,1.,0.,2718.,0.,0.,9995.,0.870823119648,45.2828022217,13.
5.7,7286.,1.,0.,2709.,0.,0.,9996.,0.871932725967,45.3405017503,13.
5.72,7293.,1.,0.,2704.,0.,0.,9998.,0.872595843397,45.3749838567,13.
5.74,7297.,1.,0.,2700.,0.,0.,9998.,0.873074437031,45.3998707256,13.
5.76,7302.,0.,0.,2699.,0.,0.,10001.,0.873410603478,inf,0.
5.78,7307.,0.,0.,2692.,0.,0.,9999.,0.874183485281,inf,0.
5.8,7309.,1.,0.,2688.,0.,0.,9998.,0.874510217934,45.4745313325,13.
5.82,7316.,3.,0.,2681.,0.,0.,10000.,0.875172687242,15.1696599122,39.
5.84,7322.,2.,2.,2677.,0.,0.,10003.,0.875627745791,22.7663213906,26.
5.86,7327.,5.,1.,2675.,0.,0.,10008.,0.875787926168,9.10819443215,65.
5.88,7322.,9.,3.,2669.,0.,0.,10003.,0.875627745791,5.05918253124,117.
5.9,7321.,11.,3.,2670.,0.,0.,10005.,0.875333143065,4.13793849449,143.
5.92,7317.,10.,5.,2669.,0.,0.,10001.,0.875204791242,4.55106491446,130.
5.94,7316.,10.,11.,2662.,0.,0.,9999.,0.875260213263,4.55135310897,130.
5.96,7314.,12.,7.,2667.,0.,0.,10000.,0.874933438284,3.79137823257,156.
5.98,7309.,14.,7.,2670.,0.,0.,10000.,0.87433531589,3.24753117331,182.
6.,7291.,17.,19.,2671.,0.,0.,9998.,0.87235654658,2.66838473072,221.
6.02,7284.,31.,7.,2679.,0.,0.,10001.,0.871257578161,1.46146432466,403.
6.04,7278.,30.,10.,2680.,0.,0.,9998.,0.870801117269,1.50938860327,390.
6.06,7266.,26.,17.,2688.,0.,0.,9997.,0.869452298989,1.73890459798,338.
6.08,7254.,25.,21.,2696.,0.,0.,9996.,0.868103210838,1.80565467854,325.
6.1,7244.,37.,18.,2701.,0.,0.,10000.,0.866559724765,1.21786772129,481.
6.12,7226.,46.,16.,2713.,0.,0.,10001.,0.864320052141,0.977057450246,598.
6.14,7217.,37.,32.,2713.,0.,0.,9999.,0.863416205457,1.21344980226,481.
6.16,7194.,36.,28.,2741.,0.,0.,9999.,0.860664567279,1.24318215274,468.
6.18,7174.,46.,16.,2765.,0.,0.,10001.,0.858100201226,0.970026314429,598.
6.2,7160.,41.,22.,2782.,0.,0.,10005.,0.856083226928,1.08576409269,533.
6.22,7160.,34.,18.,2796.,0.,0.,10008.,0.855826607256,1.30891128169,442.
6.24,7146.,39.,14.,2811.,0.,0.,10010.,0.853982543295,1.13864339106,507.
6.26,7143.,30.,21.,2819.,0.,0.,10013.,0.853368273646,1.47917167432,390.
6.28,7141.,32.,14.,2829.,0.,0.,10016.,0.852873805355,1.3859199337,416.
6.3,7139.,30.,9.,2841.,0.,0.,10019.,0.852379633183,1.47745803085,390.
6.32,7144.,19.,16.,2843.,0.,0.,10022.,0.852721290042,2.33376353064,247.
6.34,7140.,22.,11.,2852.,0.,0.,10025.,0.851988806948,2.01379172551,286.
6.36,7139.,18.,4.,2864.,0.,0.,10025.,0.851869480784,2.46095627782,234.
6.38,7139.,13.,10.,2864.,0.,0.,10026.,0.851784514748,3.40713805899,169.
6.4,7136.,13.,7.,2870.,0.,0.,10026.,0.851426571962,3.40570628785,169.
6.42,7141.,13.,4.,2870.,0.,0.,10028.,0.851853214443,3.40741285777,169.
6.44,7139.,10.,6.,2871.,0.,0.,10026.,0.851784514748,4.42927947669,130.
6.46,7143.,11.,1.,2875.,0.,0.,10030.,0.851921886741,4.02726710096,143.
6.48,7151.,11.,4.,2866.,0.,0.,10032.,0.852705989067,4.0309737665,143.
6.5,7155.,6.,3.,2867.,0.,0.,10031.,0.8532680153,7.39498946594,78.
6.52,7157.,4.,2.,2867.,0.,0.,10030.,0.853591620245,11.0966910632,52.
6.54,7155.,2.,2.,2865.,0.,0.,10024.,0.853863872853,22.2004606942,26.
6.56,7163.,2.,1.,2861.,0.,0.,10027.,0.854562822358,22.2186333813,26.
6.58,7173.,0.,3.,2852.,0.,0.,10028.,0.855670509341,inf,0.
6.6,7178.,0.,1.,2850.,0.,0.,10029.,0.856181582572,inf,0.
6.62,7188.,0.,1.,2844.,0.,0.,10033.,0.857032546546,inf,0.
6.64,7195.,0.,1.,2840.,0.,0.,10036.,0.857610726685,inf,0.
6.66,7200.,0.,0.,2835.,0.,0.,10035.,0.858292224909,inf,0.
6.68,7209.,1.,0.,2825.,0.,0.,10035.,0.85936509019,44.6869846899,13.
6.7,7212.,1.,0.,2821.,0.,0.,10034.,0.859808392906,44.7100364311,13.
6.72,7215.,1.,1.,2816.,0.,0.,10033.,0.860251783991,44.7330927675,13.
6.74,7220.,0.,1.,2812.,0.,0.,10033.,0.860847939074,inf,0.
6.76,7224.,1.,1.,2806.,0.,0.,10032.,0.861410720881,44.7933574858,13.
6.78,7225.,4.,1.,2802.,0.,0.,10032.,0.861529963783,11.1998895292,52.
6.8,7227.,7.,1.,2796.,0.,0.,10031.,0.861854360108,6.40234667509,91.
6.82,7229.,6.,2.,2792.,0.,0.,10029.,0.862264789692,7.47296151067,78.
6.84,7230.,10.,3.,2789.,0.,0.,10032.,0.862126178291,4.48305612711,130.
6.86,7231.,8.,7.,2786.,0.,0.,10032.,0.862245421192,5.60459523775,104.
6.88,7226.,16.,0.,2787.,0.,0.,10029.,0.861906953979,2.80119760043,208.
6.9,7237.,8.,9.,2781.,0.,0.,10035.,0.862702893287,5.60756880636,104.
6.92,7231.,13.,5.,2784.,0.,0.,10033.,0.862159480255,3.44863792102,169.
6.94,7240.,9.,7.,2779.,0.,0.,10035.,0.863060515047,4.98657186472,117.
6.96,7239.,13.,5.,2780.,0.,0.,10037.,0.862769355754,3.45107742302,169.
6.98,7238.,18.,5.,2779.,0.,0.,10040.,0.862392408259,2.49135584608,234.
7.,7235.,11.,14.,2777.,0.,0.,10037.,0.862292621755,4.07629239375,143.
7.02,7227.,17.,12.,2781.,0.,0.,10037.,0.861339153756,2.63468447031,221.
7.04,7220.,22.,6.,2790.,0.,0.,10038.,0.860419144524,2.03371797796,286.
7.06,7219.,21.,5.,2794.,0.,0.,10039.,0.860214277113,2.13005440047,273.
7.08,7212.,24.,5.,2796.,0.,0.,10037.,0.859551401257,1.86236136939,312.
7.1,7208.,21.,11.,2797.,0.,0.,10037.,0.859074667258,2.1272325094,273.
7.12,7208.,27.,5.,2800.,0.,0.,10040.,0.85881797164,1.65401979723,351.
7.14,7208.,27.,8.,2801.,0.,0.,10044.,0.858475949349,1.65336108764,351.
7.16,7207.,23.,18.,2799.,0.,0.,10047.,0.858100546479,1.94005340943,299.
7.18,7195.,18.,16.,2814.,0.,0.,10043.,0.857012969533,2.47581524532,234.
7.2,7187.,27.,13.,2823.,0.,0.,10050.,0.855463810419,1.64755993118,351.
7.22,7174.,36.,13.,2827.,0.,0.,10050.,0.8539164291,1.23343484203,468.
7.24,7174.,27.,20.,2832.,0.,0.,10053.,0.853661604741,1.64408901654,351.
7.26,7161.,24.,16.,2851.,0.,0.,10052.,0.85219945585,1.84643215434,312.
7.28,7150.,21.,16.,2865.,0.,0.,10052.,0.850890393706,2.10696668918,273.
7.3,7140.,23.,15.,2872.,0.,0.,10050.,0.849869431806,1.92144393278,299.
7.32,7140.,20.,12.,2878.,0.,0.,10050.,0.849869431806,2.2096605227,260.
7.34,7132.,23.,10.,2885.,0.,0.,10050.,0.848917197148,1.91929105442,299.
7.36,7130.,18.,11.,2891.,0.,0.,10050.,0.848679138484,2.4517397334,234.
7.38,7133.,15.,8.,2894.,0.,0.,10050.,0.849036226481,2.94332558513,195.
7.4,7133.,13.,6.,2901.,0.,0.,10053.,0.848782858463,3.39513143385,169.
7.42,7126.,10.,10.,2904.,0.,0.,10050.,0.848203021155,4.41065571001,130.
7.44,7129.,9.,2.,2910.,0.,0.,10050.,0.848560109152,4.90279174177,117.
7.46,7132.,9.,0.,2907.,0.,0.,10048.,0.849086169521,4.90583120167,117.
7.48,7137.,7.,0.,2905.,0.,0.,10049.,0.849596880812,6.31129111461,91.
7.5,7141.,4.,3.,2899.,0.,0.,10047.,0.850242264799,11.0531494424,52.
7.52,7150.,3.,1.,2897.,0.,0.,10051.,0.850975050993,14.7502342172,39.
7.54,7153.,4.,2.,2890.,0.,0.,10049.,0.851501539646,11.0695200154,52.
7.56,7154.,2.,4.,2885.,0.,0.,10045.,0.851959703005,22.1509522781,26.
7.58,7153.,4.,3.,2886.,0.,0.,10046.,0.851755820416,11.0728256654,52.
7.6,7160.,0.,4.,2880.,0.,0.,10044.,0.852759128377,inf,0.
7.62,7164.,0.,1.,2878.,0.,0.,10043.,0.853320488357,inf,0.
7.64,7171.,1.,1.,2872.,0.,0.,10045.,0.853984208869,44.4071788612,13.
7.66,7178.,1.,0.,2867.,0.,0.,10046.,0.854732738564,44.4461024053,13.
7.68,7186.,1.,0.,2858.,0.,0.,10045.,0.855770537573,44.5000679538,13.
7.7,7190.,2.,0.,2854.,0.,0.,10046.,0.856161659275,22.2602031411,26.
7.72,7200.,1.,0.,2848.,0.,0.,10049.,0.857096474968,44.5690166984,13.
7.74,7201.,1.,0.,2846.,0.,0.,10048.,0.857300828199,44.5796430664,13.
7.76,7201.,1.,0.,2843.,0.,0.,10045.,0.857556866276,44.5929570464,13.
7.78,7206.,1.,0.,2839.,0.,0.,10046.,0.858066886889,44.6194781182,13.
7.8,7213.,0.,2.,2834.,0.,0.,10049.,0.85864401027,inf,0.
7.82,7221.,2.,2.,2826.,0.,0.,10051.,0.859425292758,22.3450576117,26.
7.84,7223.,6.,0.,2820.,0.,0.,10049.,0.859834422041,7.45189832436,78.
7.86,7227.,7.,1.,2813.,0.,0.,10048.,0.860396206832,6.39151467932,91.
7.88,7223.,5.,5.,2809.,0.,0.,10042.,0.860433788796,8.94851140348,65.
7.9,7225.,5.,9.,2805.,0.,0.,10044.,0.860500656777,8.94920683048,65.
7.92,7218.,10.,5.,2811.,0.,0.,10044.,0.859666953719,4.47026815934,130.
7.94,7216.,12.,7.,2809.,0.,0.,10044.,0.859428752845,3.72419126233,156.
7.96,7221.,11.,5.,2812.,0.,0.,10049.,0.859596339687,4.06354633307,143.
7.98,7222.,13.,9.,2803.,0.,0.,10047.,0.859886519588,3.43954607835,169.
8.,7228.,11.,6.,2808.,0.,0.,10053.,0.860087270569,4.06586709724,143.
8.02,7237.,11.,8.,2800.,0.,0.,10056.,0.860901306099,4.0697152652,143.
8.04,7237.,11.,6.,2801.,0.,0.,10055.,0.860986925324,4.07012001062,143.
8.06,7238.,12.,9.,2797.,0.,0.,10056.,0.861020264411,3.73108781245,156.
8.08,7241.,13.,8.,2796.,0.,0.,10058.,0.861205857356,3.44482342942,169.
8.1,7227.,21.,12.,2796.,0.,0.,10056.,0.859711722976,2.1288099807,273.
8.12,7229.,23.,14.,2793.,0.,0.,10059.,0.859693167892,1.94365411871,299.
8.14,7210.,30.,19.,2801.,0.,0.,10060.,0.857348402072,1.48607056359,390.
8.16,7203.,30.,15.,2810.,0.,0.,10058.,0.856686340358,1.48492298995,390.
8.18,7186.,41.,21.,2810.,0.,0.,10058.,0.854664451175,1.08396466978,533.
8.2,7176.,44.,16.,2821.,0.,0.,10057.,0.853559968384,1.00875268991,572.
8.22,7171.,31.,10.,2841.,0.,0.,10053.,0.853304623306,1.43134969071,403.
8.24,7162.,24.,13.,2851.,0.,0.,10050.,0.852488077114,1.84705750041,312.
8.26,7162.,23.,14.,2848.,0.,0.,10047.,0.852742627152,1.92793985269,299.
8.28,7150.,33.,7.,2858.,0.,0.,10048.,0.851229123958,1.34133074078,429.
8.3,7151.,26.,11.,2864.,0.,0.,10052.,0.851009399356,1.70201879871,338.
8.32,7156.,24.,10.,2863.,0.,0.,10053.,0.851519716131,1.84495938495,312.
8.34,7151.,21.,11.,2872.,0.,0.,10055.,0.850755493021,2.10663264938,273.
8.36,7148.,24.,6.,2878.,0.,0.,10056.,0.850314016304,1.84234703533,312.
8.38,7148.,24.,12.,2872.,0.,0.,10056.,0.850314016304,1.84234703533,312.
8.4,7141.,25.,9.,2882.,0.,0.,10057.,0.849396841448,1.76674543021,325.
8.42,7137.,21.,7.,2889.,0.,0.,10054.,0.849174363963,2.10271747267,273.
8.44,7146.,12.,10.,2891.,0.,0.,10059.,0.849822572659,3.68256448152,156.
8.46,7143.,13.,8.,2895.,0.,0.,10059.,0.849465804157,3.39786321663,169.
8.48,7150.,7.,8.,2894.,0.,0.,10059.,0.850298263996,6.31650138968,91.
8.5,7147.,3.,2.,2904.,0.,0.,10056.,0.850195057992,14.7367143385,39.
8.52,7151.,5.,1.,2898.,0.,0.,10055.,0.850755493021,8.84785712741,65.
8.54,7156.,3.,1.,2895.,0.,0.,10055.,0.851350343736,14.7567392914,39.
8.56,7162.,3.,2.,2891.,0.,0.,10058.,0.851810019387,14.7647070027,39.
8.58,7165.,1.,2.,2887.,0.,0.,10055.,0.852421075024,44.3258959012,13.
8.6,7171.,0.,2.,2879.,0.,0.,10052.,0.853389512345,inf,0.
8.62,7178.,0.,0.,2876.,0.,0.,10054.,0.854052624986,inf,0.
8.64,7184.,0.,0.,2869.,0.,0.,10053.,0.854851542857,inf,0.
8.66,7189.,0.,0.,2862.,0.,0.,10051.,0.85561673309,inf,0.
8.68,7191.,1.,0.,2858.,0.,0.,10050.,0.855939927747,44.5088762429,13.
8.7,7199.,1.,0.,2851.,0.,0.,10051.,0.856806907986,44.5539592153,13.
8.72,7207.,1.,0.,2849.,0.,0.,10057.,0.857247309384,44.576860088,13.
8.74,7214.,1.,0.,2843.,0.,0.,10058.,0.857994621594,44.6157203229,13.
8.76,7216.,5.,0.,2836.,0.,0.,10057.,0.858317827739,8.92650540849,65.
8.78,7220.,4.,1.,2830.,0.,0.,10055.,0.858964432892,11.1665376276,52.
8.8,7233.,2.,3.,2822.,0.,0.,10060.,0.860083355366,22.3621672395,26.
8.82,7239.,5.,0.,2817.,0.,0.,10061.,0.860711263662,8.95139714209,65.
8.84,7241.,3.,4.,2810.,0.,0.,10058.,0.861205857356,14.9275681942,39.
8.86,7244.,6.,1.,2808.,0.,0.,10059.,0.861477010404,7.46613409016,78.
8.88,7244.,10.,3.,2800.,0.,0.,10057.,0.861648329288,4.4805713123,130.
8.9,7250.,3.,10.,2794.,0.,0.,10057.,0.862362008191,14.947608142,39.
8.92,7254.,6.,8.,2792.,0.,0.,10060.,0.862580486634,7.47569755083,78.
8.94,7255.,7.,9.,2789.,0.,0.,10060.,0.862699397646,6.4086240968,91.
8.96,7250.,9.,9.,2791.,0.,0.,10059.,0.862190547408,4.98154538503,117.
8.98,7246.,14.,8.,2791.,0.,0.,10059.,0.861714856072,3.2006551797,182.
9.,7237.,19.,8.,2795.,0.,0.,10059.,0.860644550565,2.35544824365,247.
9.02,7231.,20.,11.,2797.,0.,0.,10059.,0.85993101356,2.23582063526,260.
9.04,7224.,24.,11.,2802.,0.,0.,10061.,0.858927775756,1.8610101808,312.
9.06,7225.,23.,10.,2803.,0.,0.,10061.,0.85904667495,1.9421924825,299.
9.08,7215.,26.,8.,2807.,0.,0.,10056.,0.858284223228,1.71656844646,338.
9.1,7204.,31.,18.,2799.,0.,0.,10052.,0.857316698778,1.43807962376,403.
9.12,7196.,25.,23.,2809.,0.,0.,10053.,0.856279468597,1.78106129468,325.
9.14,7182.,33.,19.,2820.,0.,0.,10054.,0.854528552891,1.34652984092,429.
9.16,7179.,29.,12.,2833.,0.,0.,10053.,0.854256573799,1.53177040819,377.
9.18,7173.,23.,14.,2844.,0.,0.,10054.,0.853457715105,1.92955657328,299.
9.2,7162.,32.,8.,2850.,0.,0.,10052.,0.8523184615,1.38501749994,416.
9.22,7155.,28.,8.,2860.,0.,0.,10051.,0.851570138442,1.58148739996,364.
9.24,7154.,26.,10.,2862.,0.,0.,10052.,0.851366416304,1.70273283261,338.
9.26,7149.,20.,17.,2867.,0.,0.,10053.,0.85068675945,2.21178557457,260.
9.28,7144.,32.,9.,2872.,0.,0.,10057.,0.849753680899,1.38084973146,416.
9.3,7143.,29.,11.,2872.,0.,0.,10055.,0.849803731876,1.52378600198,377.
9.32,7142.,31.,10.,2872.,0.,0.,10055.,0.849684761733,1.42527766484,403.
9.34,7144.,22.,13.,2875.,0.,0.,10054.,0.850007237796,2.00910801661,286.
9.36,7147.,22.,11.,2877.,0.,0.,10057.,0.850110520351,2.00935213901,286.
9.38,7139.,25.,7.,2883.,0.,0.,10054.,0.849412327915,1.76677764206,325.
9.4,7136.,18.,11.,2885.,0.,0.,10050.,0.849393314477,2.45380290849,234.
9.42,7140.,15.,4.,2891.,0.,0.,10050.,0.849869431806,2.94621403026,195.
9.44,7140.,14.,3.,2895.,0.,0.,10052.,0.849700337211,3.15602982393,182.
9.46,7152.,12.,5.,2884.,0.,0.,10053.,0.851043740884,3.6878562105,156.
9.48,7151.,11.,5.,2881.,0.,0.,10048.,0.851348176983,4.02455501846,143.
9.5,7150.,7.,5.,2886.,0.,0.,10048.,0.851229123958,6.32341634941,91.
9.52,7156.,3.,6.,2883.,0.,0.,10048.,0.851943442104,14.7670196631,39.
9.54,7164.,4.,1.,2882.,0.,0.,10051.,0.852641295848,11.084336846,52.
9.56,7168.,1.,3.,2878.,0.,0.,10050.,0.853202253107,44.3665171616,13.
9.58,7171.,2.,2.,2875.,0.,0.,10050.,0.853559341104,22.1925428687,26.
9.6,7173.,2.,0.,2874.,0.,0.,10049.,0.853882363187,22.2009414429,26.
9.62,7179.,0.,2.,2866.,0.,0.,10047.,0.854766730009,inf,0.
9.64,7189.,1.,1.,2860.,0.,0.,10051.,0.85561673309,44.4920701207,13.
9.66,7193.,2.,0.,2857.,0.,0.,10052.,0.856007636633,22.2561985525,26.
9.68,7195.,2.,0.,2851.,0.,0.,10048.,0.856586510053,22.2712492614,26.
9.7,7197.,1.,0.,2846.,0.,0.,10044.,0.857165844543,44.5726239162,13.
9.72,7202.,1.,0.,2842.,0.,0.,10045.,0.857675954857,44.5991496525,13.
9.74,7206.,1.,0.,2835.,0.,0.,10042.,0.858408678121,44.6372512623,13.
9.76,7206.,0.,2.,2831.,0.,0.,10039.,0.858665200288,inf,0.
9.78,7211.,3.,0.,2828.,0.,0.,10042.,0.859004298908,14.8894078477,39.
9.8,7214.,3.,0.,2826.,0.,0.,10043.,0.859276103156,14.8941191214,39.
9.82,7214.,3.,1.,2822.,0.,0.,10040.,0.859532858964,14.8985695554,39.
9.84,7223.,1.,4.,2817.,0.,0.,10045.,0.860176815042,44.7291943822,13.
9.86,7222.,7.,3.,2815.,0.,0.,10047.,0.859886519588,6.38772843123,91.
9.88,7225.,10.,0.,2814.,0.,0.,10049.,0.860072504395,4.47237702286,130.
9.9,7227.,6.,5.,2810.,0.,0.,10048.,0.860396206832,7.45676712588,78.
9.92,7229.,9.,3.,2810.,0.,0.,10051.,0.860377432676,4.97106961102,117.
9.94,7235.,8.,2.,2803.,0.,0.,10048.,0.861348631026,5.59876610167,104.
9.96,7233.,9.,3.,2802.,0.,0.,10047.,0.861196233202,4.9758004585,117.
9.98,7231.,9.,4.,2803.,0.,0.,10047.,0.860958103454,4.97442459773,117.
10.,7234.,7.,8.,2798.,0.,0.,10047.,0.861315298076,6.39834221428,91.
