t,cases
5.01,2.86
5.02,2.86
5.03,2.86
5.04,2.86
5.05,2.275
5.06,2.275
5.07,2.145
5.08,2.145
5.09,2.665
5.1,2.665
5.11,3.315
5.12,3.315
5.13,3.25
5.14,3.25
5.15,3.315
5.16,3.315
5.17,3.575
5.18,3.575
5.19,3.315
5.2,3.315
5.21,4.16
5.22,4.16
5.23,4.29
5.24,4.29
5.25,3.64
5.26,3.64
5.27,3.38
5.28,3.38
5.29,2.73
5.3,2.73
5.31,2.6
5.32,2.6
5.33,3.185
5.34,3.185
5.35,2.925
5.36,2.925
5.37,2.73
5.38,2.73
5.39,2.405
5.4,2.405
5.41,1.69
5.42,1.69
5.43,1.495
5.44,1.495
5.45,1.3
5.46,1.3
5.47,1.3
5.48,1.3
5.49,0.975
5.5,0.975
5.51,0.585
5.52,0.585
5.53,0.325
5.54,0.325
5.55,0.195
5.56,0.195
5.57,0.26
5.58,0.26
5.59,0.195
5.6,0.195
5.61,0.13
5.62,0.13
5.63,0.065
5.64,0.065
5.65,0.
5.66,0.
5.67,0.
5.68,0.
5.69,0.065
5.7,0.065
5.71,0.13
5.72,0.13
5.73,0.13
5.74,0.13
5.75,0.13
5.76,0.13
5.77,0.13
5.78,0.13
5.79,0.13
5.8,0.13
5.81,0.13
5.82,0.13
5.83,0.26
5.84,0.26
5.85,0.39
5.86,0.39
5.87,0.585
5.88,0.585
5.89,0.845
5.9,0.845
5.91,0.845
5.92,0.845
5.93,0.91
5.94,0.91
5.95,1.3
5.96,1.3
5.97,1.56
5.98,1.56
5.99,1.82
6.,1.82
6.01,2.08
6.02,2.08
6.03,2.665
6.04,2.665
6.05,3.25
6.06,3.25
6.07,3.38
6.08,3.38
6.09,3.705
6.1,3.705
6.11,3.51
6.12,3.51
6.13,3.835
6.14,3.835
6.15,4.225
6.16,4.225
6.17,4.03
6.18,4.03
6.19,4.355
6.2,4.355
6.21,3.965
6.22,3.965
6.23,3.25
6.24,3.25
6.25,3.12
6.26,3.12
6.27,3.12
6.28,3.12
6.29,3.315
6.3,3.315
6.31,3.055
6.32,3.055
6.33,2.665
6.34,2.665
6.35,2.47
6.36,2.47
6.37,2.275
6.38,2.275
6.39,2.34
6.4,2.34
6.41,2.275
6.42,2.275
6.43,1.625
6.44,1.625
6.45,1.04
6.46,1.04
6.47,0.91
6.48,0.91
6.49,0.715
6.5,0.715
6.51,0.52
6.52,0.52
6.53,0.39
6.54,0.39
6.55,0.39
6.56,0.39
6.57,0.39
6.58,0.39
6.59,0.325
6.6,0.325
6.61,0.13
6.62,0.13
6.63,0.065
6.64,0.065
6.65,0.13
6.66,0.13
6.67,0.13
6.68,0.13
6.69,0.065
6.7,0.065
6.71,0.
6.72,0.
6.73,0.065
6.74,0.065
6.75,0.065
6.76,0.065
6.77,0.
6.78,0.
6.79,0.13
6.8,0.13
6.81,0.195
6.82,0.195
6.83,0.26
6.84,0.26
6.85,0.325
6.86,0.325
6.87,0.65
6.88,0.65
6.89,1.04
6.9,1.04
6.91,1.235
6.92,1.235
6.93,1.495
6.94,1.495
6.95,1.625
6.96,1.625
6.97,1.95
6.98,1.95
6.99,2.08
7.,2.08
7.01,2.275
7.02,2.275
7.03,2.34
7.04,2.34
7.05,2.275
7.06,2.275
7.07,2.86
7.08,2.86
7.09,3.705
7.1,3.705
7.11,4.095
7.12,4.095
7.13,4.42
7.14,4.42
7.15,5.005
7.16,5.005
7.17,5.005
7.18,5.005
7.19,4.94
7.2,4.94
7.21,4.81
7.22,4.81
7.23,4.42
7.24,4.42
7.25,4.485
7.26,4.485
7.27,4.16
7.28,4.16
7.29,4.16
7.3,4.16
7.31,4.42
7.32,4.42
7.33,3.9
7.34,3.9
7.35,2.925
7.36,2.925
7.37,2.275
7.38,2.275
7.39,2.275
7.4,2.275
7.41,2.275
7.42,2.275
7.43,1.95
7.44,1.95
7.45,1.3
7.46,1.3
7.47,1.04
7.48,1.04
7.49,0.975
7.5,0.975
7.51,0.715
7.52,0.715
7.53,0.455
7.54,0.455
7.55,0.325
7.56,0.325
7.57,0.195
7.58,0.195
7.59,0.065
7.6,0.065
7.61,0.
7.62,0.
7.63,0.065
7.64,0.065
7.65,0.065
7.66,0.065
7.67,0.
7.68,0.
7.69,0.065
7.7,0.065
7.71,0.195
7.72,0.195
7.73,0.195
7.74,0.195
7.75,0.13
7.76,0.13
7.77,0.195
7.78,0.195
7.79,0.26
7.8,0.26
7.81,0.195
7.82,0.195
7.83,0.325
7.84,0.325
7.85,0.78
7.86,0.78
7.87,1.105
7.88,1.105
7.89,1.365
7.9,1.365
7.91,1.69
7.92,1.69
7.93,1.95
7.94,1.95
7.95,1.82
7.96,1.82
7.97,1.56
7.98,1.56
7.99,1.69
8.,1.69
8.01,2.535
8.02,2.535
8.03,3.12
8.04,3.12
8.05,2.99
8.06,2.99
8.07,3.38
8.08,3.38
8.09,3.315
8.1,3.315
8.11,3.055
8.12,3.055
8.13,3.965
8.14,3.965
8.15,4.94
8.16,4.94
8.17,4.875
8.18,4.875
8.19,4.485
8.2,4.485
8.21,4.225
8.22,4.225
8.23,4.29
8.24,4.29
8.25,4.29
8.26,4.29
8.27,3.835
8.28,3.835
8.29,3.575
8.3,3.575
8.31,3.38
8.32,3.38
8.33,3.185
8.34,3.185
8.35,3.055
8.36,3.055
8.37,2.795
8.38,2.795
8.39,2.145
8.4,2.145
8.41,1.43
8.42,1.43
8.43,0.975
8.44,0.975
8.45,0.65
8.46,0.65
8.47,0.65
8.48,0.65
8.49,0.65
8.5,0.65
8.51,0.455
8.52,0.455
8.53,0.52
8.54,0.52
8.55,0.455
8.56,0.455
8.57,0.26
8.58,0.26
8.59,0.26
8.6,0.26
8.61,0.26
8.62,0.26
8.63,0.195
8.64,0.195
8.65,0.0649999999999
8.66,0.0650000000001
8.67,0.0650000000001
8.68,0.0649999999999
8.69,0.13
8.7,0.13
8.71,0.13
8.72,0.13
8.73,0.26
8.74,0.26
8.75,0.455
8.76,0.455
8.77,0.52
8.78,0.52
8.79,0.52
8.8,0.52
8.81,0.65
8.82,0.65
8.83,0.52
8.84,0.52
8.85,0.325
8.86,0.325
8.87,0.455
8.88,0.455
8.89,0.715
8.9,0.715
8.91,1.105
8.92,1.105
8.93,1.56
8.94,1.56
8.95,1.82
8.96,1.82
8.97,1.625
8.98,1.625
8.99,1.69
9.,1.69
9.01,2.47
9.02,2.47
9.03,3.51
9.04,3.51
9.05,3.9
9.06,3.9
9.07,3.705
9.08,3.705
9.09,4.095
9.1,4.095
9.11,4.81
9.12,4.81
9.13,4.81
9.14,4.81
9.15,5.07
9.16,5.07
9.17,5.33
9.18,5.33
9.19,4.875
9.2,4.875
9.21,4.29
9.22,4.29
9.23,3.705
9.24,3.705
9.25,3.835
9.26,3.835
9.27,3.835
9.28,3.835
9.29,3.445
9.3,3.445
9.31,2.99
9.32,2.99
9.33,2.925
9.34,2.925
9.35,3.055
9.36,3.055
9.37,2.275
9.38,2.275
9.39,1.885
9.4,1.885
9.41,1.82
9.42,1.82
9.43,1.365
9.44,1.365
9.45,1.04
9.46,1.04
9.47,0.975
9.48,0.975
9.49,0.975
9.5,0.975
9.51,0.455
9.52,0.455
9.53,0.
9.54,0.
9.55,0.
9.56,0.
9.57,0.
9.58,0.
9.59,0.
9.6,0.
9.61,0.
9.62,0.
9.63,0.
9.64,0.
9.65,0.
9.66,0.
9.67,0.0649999999999
9.68,0.0650000000001
9.69,0.13
9.7,0.13
9.71,0.195
9.72,0.195
9.73,0.26
9.74,0.26
9.75,0.325
9.76,0.325
9.77,0.39
9.78,0.39
9.79,0.39
9.8,0.39
9.81,0.52
9.82,0.52
9.83,0.585
9.84,0.585
9.85,0.455
9.86,0.455
9.87,0.65
9.88,0.65
9.89,0.975
9.9,0.975
9.91,1.04
9.92,1.04
9.93,1.105
9.94,1.105
9.95,1.495
9.96,1.495
9.97,1.755
9.98,1.755
9.99,1.56
10.,1.56
