t,cases
5.01,3.25
5.02,3.25
5.03,3.445
5.04,3.445
5.05,3.51
5.06,3.51
5.07,3.185
5.08,3.185
5.09,2.925
5.1,2.925
5.11,3.64
5.12,3.64
5.13,4.16
5.14,4.16
5.15,4.355
5.16,4.355
5.17,4.42
5.18,4.42
5.19,4.095
5.2,4.095
5.21,4.615
5.22,4.615
5.23,4.94
5.24,4.94
5.25,4.16
5.26,4.16
5.27,3.51
5.28,3.51
5.29,3.055
5.3,3.055
5.31,3.055
5.32,3.055
5.33,3.64
5.34,3.64
5.35,3.055
5.36,3.055
5.37,2.405
5.38,2.405
5.39,2.145
5.4,2.145
5.41,1.495
5.42,1.495
5.43,1.235
5.44,1.235
5.45,1.105
5.46,1.105
5.47,1.04
5.48,1.04
5.49,0.845
5.5,0.845
5.51,0.52
5.52,0.52
5.53,0.26
5.54,0.26
5.55,0.065
5.56,0.065
5.57,0.
5.58,0.
5.59,0.
5.6,0.
5.61,0.
5.62,0.
5.63,0.
5.64,0.
5.65,0.
5.66,0.
5.67,0.065
5.68,0.065
5.69,0.065
5.7,0.065
5.71,0.
5.72,0.
5.73,0.065
5.74,0.065
5.75,0.26
5.76,0.26
5.77,0.325
5.78,0.325
5.79,0.26
5.8,0.26
5.81,0.325
5.82,0.325
5.83,0.78
5.84,0.78
5.85,0.975
5.86,0.975
5.87,1.235
5.88,1.235
5.89,1.625
5.9,1.625
5.91,1.235
5.92,1.235
5.93,1.105
5.94,1.105
5.95,1.495
5.96,1.495
5.97,1.69
5.98,1.69
5.99,1.885
6.,1.885
6.01,2.08
6.02,2.08
6.03,2.6
6.04,2.6
6.05,3.315
6.06,3.315
6.07,2.99
6.08,2.99
6.09,3.315
6.1,3.315
6.11,4.29
6.12,4.29
6.13,4.225
6.14,4.225
6.15,3.64
6.16,3.64
6.17,3.25
6.18,3.25
6.19,3.315
6.2,3.315
6.21,3.185
6.22,3.185
6.23,2.99
6.24,2.99
6.25,2.99
6.26,2.99
6.27,2.665
6.28,2.665
6.29,2.665
6.3,2.665
6.31,2.6
6.32,2.6
6.33,2.015
6.34,2.015
6.35,2.015
6.36,2.015
6.37,2.21
6.38,2.21
6.39,1.95
6.4,1.95
6.41,1.69
6.42,1.69
6.43,1.43
6.44,1.43
6.45,0.91
6.46,0.91
6.47,0.65
6.48,0.65
6.49,0.715
6.5,0.715
6.51,0.52
6.52,0.52
6.53,0.195
6.54,0.195
6.55,0.13
6.56,0.13
6.57,0.065
6.58,0.065
6.59,0.13
6.6,0.13
6.61,0.13
6.62,0.13
6.63,0.065
6.64,0.065
6.65,0.065
6.66,0.065
6.67,0.
6.68,0.
6.69,0.
6.7,0.
6.71,0.
6.72,0.
6.73,0.065
6.74,0.065
6.75,0.065
6.76,0.065
6.77,0.
6.78,0.
6.79,0.065
6.8,0.065
6.81,0.13
6.82,0.13
6.83,0.26
6.84,0.26
6.85,0.455
6.86,0.455
6.87,0.65
6.88,0.65
6.89,0.91
6.9,0.91
6.91,1.17
6.92,1.17
6.93,1.365
6.94,1.365
6.95,1.56
6.96,1.56
6.97,1.95
6.98,1.95
6.99,1.95
7.,1.95
7.01,1.69
7.02,1.69
7.03,1.365
7.04,1.365
7.05,1.625
7.06,1.625
7.07,2.34
7.08,2.34
7.09,2.6
7.1,2.6
7.11,2.86
7.12,2.86
7.13,3.38
7.14,3.38
7.15,4.095
7.16,4.095
7.17,4.355
7.18,4.355
7.19,4.55
7.2,4.55
7.21,4.55
7.22,4.55
7.23,3.835
7.24,3.835
7.25,3.835
7.26,3.835
7.27,3.835
7.28,3.835
7.29,3.51
7.3,3.51
7.31,3.315
7.32,3.315
7.33,2.86
7.34,2.86
7.35,2.6
7.36,2.6
7.37,2.47
7.38,2.47
7.39,2.34
7.4,2.34
7.41,2.405
7.42,2.405
7.43,2.665
7.44,2.665
7.45,2.015
7.46,2.015
7.47,1.235
7.48,1.235
7.49,1.04
7.5,1.04
7.51,0.78
7.52,0.78
7.53,0.585
7.54,0.585
7.55,0.585
7.56,0.585
7.57,0.39
7.58,0.39
7.59,0.13
7.6,0.13
7.61,0.065
7.62,0.065
7.63,0.
7.64,0.
7.65,0.
7.66,0.
7.67,0.
7.68,0.
7.69,0.065
7.7,0.065
7.71,0.195
7.72,0.195
7.73,0.26
7.74,0.26
7.75,0.325
7.76,0.325
7.77,0.39
7.78,0.39
7.79,0.325
7.8,0.325
7.81,0.26
7.82,0.26
7.83,0.455
7.84,0.455
7.85,0.715
7.86,0.715
7.87,1.105
7.88,1.105
7.89,1.625
7.9,1.625
7.91,1.95
7.92,1.95
7.93,2.08
7.94,2.08
7.95,1.95
7.96,1.95
7.97,1.56
7.98,1.56
7.99,1.625
8.,1.625
8.01,2.275
8.02,2.275
8.03,2.34
8.04,2.34
8.05,2.34
8.06,2.34
8.07,3.055
8.08,3.055
8.09,3.315
8.1,3.315
8.11,3.38
8.12,3.38
8.13,3.9
8.14,3.9
8.15,4.42
8.16,4.42
8.17,4.55
8.18,4.55
8.19,4.29
8.2,4.29
8.21,4.095
8.22,4.095
8.23,4.355
8.24,4.355
8.25,4.615
8.26,4.615
8.27,4.615
8.28,4.615
8.29,4.095
8.3,4.095
8.31,3.445
8.32,3.445
8.33,3.38
8.34,3.38
8.35,3.445
8.36,3.445
8.37,3.445
8.38,3.445
8.39,2.925
8.4,2.925
8.41,2.015
8.42,2.015
8.43,0.975
8.44,0.975
8.45,0.65
8.46,0.65
8.47,1.04
8.48,1.04
8.49,0.91
8.5,0.91
8.51,0.52
8.52,0.52
8.53,0.39
8.54,0.39
8.55,0.195
8.56,0.195
8.57,0.
8.58,0.
8.59,0.
8.6,0.
8.61,0.
8.62,0.
8.63,0.
8.64,0.
8.65,0.
8.66,0.
8.67,0.
8.68,0.
8.69,0.0649999999999
8.7,0.0650000000001
8.71,0.13
8.72,0.13
8.73,0.195
8.74,0.195
8.75,0.39
8.76,0.39
8.77,0.325
8.78,0.325
8.79,0.13
8.8,0.13
8.81,0.26
8.82,0.26
8.83,0.325
8.84,0.325
8.85,0.585
8.86,0.585
8.87,0.845
8.88,0.845
8.89,0.91
8.9,0.91
8.91,1.105
8.92,1.105
8.93,1.755
8.94,1.755
8.95,2.405
8.96,2.405
8.97,1.82
8.98,1.82
8.99,1.3
9.,1.3
9.01,1.82
9.02,1.82
9.03,2.47
9.04,2.47
9.05,2.795
9.06,2.795
9.07,2.795
9.08,2.795
9.09,3.25
9.1,3.25
9.11,3.835
9.12,3.835
9.13,3.9
9.14,3.9
9.15,4.355
9.16,4.355
9.17,4.745
9.18,4.745
9.19,4.745
9.2,4.745
9.21,4.55
9.22,4.55
9.23,4.095
9.24,4.095
9.25,4.095
9.26,4.095
9.27,3.835
9.28,3.835
9.29,3.12
9.3,3.12
9.31,2.73
9.32,2.73
9.33,2.86
9.34,2.86
9.35,2.99
9.36,2.99
9.37,2.405
9.38,2.405
9.39,2.015
9.4,2.015
9.41,1.95
9.42,1.95
9.43,1.69
9.44,1.69
9.45,1.3
9.46,1.3
9.47,0.91
9.48,0.91
9.49,0.78
9.5,0.78
9.51,0.39
9.52,0.39
9.53,0.
9.54,0.
9.55,0.
9.56,0.
9.57,0.0649999999999
9.58,0.0650000000001
9.59,0.26
9.6,0.26
9.61,0.39
9.62,0.39
9.63,0.325
9.64,0.325
9.65,0.195
9.66,0.195
9.67,0.195
9.68,0.195
9.69,0.195
9.7,0.195
9.71,0.13
9.72,0.13
9.73,0.13
9.74,0.13
9.75,0.195
9.76,0.195
9.77,0.39
9.78,0.39
9.79,0.455
9.8,0.455
9.81,0.52
9.82,0.52
9.83,0.52
9.84,0.52
9.85,0.91
9.86,0.91
9.87,1.56
9.88,1.56
9.89,1.56
9.9,1.56
9.91,1.495
9.92,1.495
9.93,1.3
9.94,1.3
9.95,1.3
9.96,1.3
9.97,1.69
9.98,1.69
9.99,2.08
10.,2.08
