t,s,e,i,r,c,o,n,reff,coal,reportr
5.,5309.,2.,72.,4617.,0.,0.,10000.,0.76412960277,19.867369672,26.
5.02,5276.,33.,22.,4670.,0.,0.,10001.,0.759303949848,1.19647895128,429.
5.04,5281.,28.,10.,4680.,0.,0.,9999.,0.760175552727,1.41175459792,364.
5.06,5284.,25.,10.,4679.,0.,0.,9998.,0.760683464822,1.58222160683,325.
5.08,5286.,27.,11.,4675.,0.,0.,9999.,0.760895279628,1.46542794595,351.
5.1,5292.,22.,13.,4669.,0.,0.,9996.,0.761987571042,1.80106153155,286.
5.12,5284.,32.,9.,4672.,0.,0.,9997.,0.760759555995,1.23623427849,416.
5.14,5274.,25.,19.,4676.,0.,0.,9994.,0.75954774692,1.57985931359,325.
5.16,5268.,29.,18.,4679.,0.,0.,9994.,0.758683642544,1.3603982556,377.
5.18,5268.,31.,16.,4681.,0.,0.,9996.,0.758531845096,1.27237599823,403.
5.2,5269.,37.,11.,4682.,0.,0.,9999.,0.758448208165,1.06592721147,481.
5.22,5268.,26.,16.,4691.,0.,0.,10001.,0.758152617097,1.51630523419,338.
5.24,5262.,30.,17.,4693.,0.,0.,10002.,0.757213403764,1.31250323319,390.
5.26,5256.,27.,12.,4707.,0.,0.,10002.,0.756349990533,1.45667405584,351.
5.28,5256.,25.,14.,4710.,0.,0.,10005.,0.756123198931,1.57273625378,325.
5.3,5257.,19.,13.,4716.,0.,0.,10005.,0.756267057987,2.06978352712,247.
5.32,5254.,18.,13.,4719.,0.,0.,10004.,0.755911034146,2.18374298753,234.
5.34,5259.,17.,11.,4717.,0.,0.,10004.,0.756630401327,2.31439887465,221.
5.36,5260.,20.,10.,4718.,0.,0.,10008.,0.756471807028,1.96682669827,260.
5.38,5269.,21.,7.,4711.,0.,0.,10008.,0.757766150424,1.87637332486,273.
5.4,5273.,17.,6.,4712.,0.,0.,10008.,0.758341414155,2.31963256095,221.
5.42,5277.,17.,6.,4704.,0.,0.,10004.,0.75922012318,2.32232037679,221.
5.44,5291.,9.,8.,4699.,0.,0.,10007.,0.76100614073,4.39692436866,117.
5.46,5300.,9.,8.,4691.,0.,0.,10008.,0.762224444343,4.40396345621,117.
5.48,5299.,7.,2.,4694.,0.,0.,10002.,0.762537785356,5.6645664055,91.
5.5,5310.,5.,3.,4686.,0.,0.,10004.,0.763967946577,7.9452666444,65.
5.52,5323.,4.,2.,4677.,0.,0.,10006.,0.765685225433,9.95390793063,52.
5.54,5327.,1.,0.,4679.,0.,0.,10007.,0.766184031689,39.8415696478,13.
5.56,5341.,1.,0.,4666.,0.,0.,10008.,0.768120897592,39.9422866748,13.
5.58,5350.,2.,0.,4656.,0.,0.,10008.,0.769415240988,20.0047962657,26.
5.6,5362.,1.,1.,4646.,0.,0.,10010.,0.770986958051,40.0913218186,13.
5.62,5367.,1.,1.,4636.,0.,0.,10005.,0.77209155416,40.1487608163,13.
5.64,5375.,1.,0.,4629.,0.,0.,10005.,0.773242426609,40.2086061837,13.
5.66,5380.,1.,0.,4622.,0.,0.,10003.,0.77411646781,40.2540563261,13.
5.68,5390.,3.,0.,4607.,0.,0.,10000.,0.775788012607,13.4469922185,39.
5.7,5398.,3.,0.,4597.,0.,0.,9998.,0.777094879468,13.4696445774,39.
5.72,5405.,4.,1.,4592.,0.,0.,10002.,0.777791419107,10.1112884484,52.
5.74,5411.,2.,0.,4589.,0.,0.,10002.,0.778654832339,20.2450256408,26.
5.76,5418.,2.,3.,4578.,0.,0.,10001.,0.779740106194,20.273242761,26.
5.78,5425.,2.,2.,4570.,0.,0.,9999.,0.780903687473,20.3034958743,26.
5.8,5428.,3.,3.,4562.,0.,0.,9996.,0.781570018068,13.5472136465,39.
5.82,5436.,2.,2.,4555.,0.,0.,9995.,0.782800238065,20.3528061897,26.
5.84,5440.,4.,3.,4545.,0.,0.,9992.,0.783611451049,10.1869488636,52.
5.86,5449.,7.,3.,4536.,0.,0.,9995.,0.784672276898,5.82899405696,91.
5.88,5457.,6.,5.,4528.,0.,0.,9996.,0.785745686919,6.8097959533,78.
5.9,5462.,9.,3.,4517.,0.,0.,9991.,0.786859216868,4.54629769746,117.
5.92,5463.,10.,7.,4510.,0.,0.,9990.,0.787082056615,4.0928266944,130.
5.94,5467.,12.,8.,4502.,0.,0.,9989.,0.787737209431,3.41352790754,156.
5.96,5473.,16.,7.,4494.,0.,0.,9990.,0.788522807222,2.56269912347,208.
5.98,5477.,16.,11.,4490.,0.,0.,9994.,0.788783278324,2.56354565455,208.
6.,5479.,17.,9.,4491.,0.,0.,9996.,0.788913435703,2.4131469798,221.
6.02,5486.,16.,10.,4485.,0.,0.,9997.,0.78984233993,2.56698760477,208.
6.04,5484.,22.,7.,4483.,0.,0.,9996.,0.789633378608,1.86640616762,286.
6.06,5469.,33.,10.,4480.,0.,0.,9992.,0.787788791505,1.24136415631,429.
6.08,5468.,27.,10.,4486.,0.,0.,9991.,0.787723580709,1.51709726655,351.
6.1,5474.,21.,12.,4484.,0.,0.,9991.,0.788587944551,1.95269395793,273.
6.12,5475.,17.,19.,4482.,0.,0.,9993.,0.78857414829,2.41210915948,221.
6.14,5470.,24.,17.,4479.,0.,0.,9990.,0.78809058204,1.70752959442,312.
6.16,5471.,23.,21.,4480.,0.,0.,9995.,0.787840342615,1.78120425287,299.
6.18,5465.,25.,18.,4484.,0.,0.,9992.,0.787212606615,1.63740222176,325.
6.2,5460.,27.,22.,4484.,0.,0.,9993.,0.786413671171,1.51457447781,351.
6.22,5463.,26.,19.,4486.,0.,0.,9994.,0.786767034779,1.57353406956,338.
6.24,5466.,27.,15.,4490.,0.,0.,9998.,0.786884144344,1.51548057429,351.
6.26,5476.,21.,9.,4490.,0.,0.,9996.,0.78848146996,1.95243030657,273.
6.28,5472.,20.,12.,4490.,0.,0.,9994.,0.788063191344,2.04896429749,260.
6.3,5478.,17.,15.,4482.,0.,0.,9992.,0.789085207509,2.41367239944,221.
6.32,5476.,25.,2.,4488.,0.,0.,9991.,0.788876065831,1.64086221693,325.
6.34,5490.,17.,9.,4476.,0.,0.,9992.,0.79081376218,2.41895974314,221.
6.36,5494.,15.,6.,4478.,0.,0.,9993.,0.79131075264,2.74321060915,195.
6.38,5501.,16.,3.,4479.,0.,0.,9999.,0.791843536366,2.57349149319,208.
6.4,5512.,14.,2.,4473.,0.,0.,10001.,0.793268266028,2.9464249881,182.
6.42,5522.,10.,2.,4468.,0.,0.,10002.,0.794627977116,4.132065481,130.
6.44,5531.,6.,5.,4457.,0.,0.,9999.,0.796161897772,6.90006978069,78.
6.46,5535.,5.,3.,4455.,0.,0.,9998.,0.796817368998,8.28690063758,65.
6.48,5546.,6.,2.,4449.,0.,0.,10003.,0.798001845813,6.91601599705,78.
6.5,5552.,4.,3.,4444.,0.,0.,10003.,0.798865172729,10.3852472455,52.
6.52,5565.,2.,3.,4437.,0.,0.,10007.,0.800415644143,20.8108067477,26.
6.54,5571.,3.,1.,4431.,0.,0.,10006.,0.801358705784,13.8902175669,39.
6.56,5579.,2.,1.,4422.,0.,0.,10004.,0.802669900932,20.8694174242,26.
6.58,5586.,0.,0.,4417.,0.,0.,10003.,0.803757358585,inf,0.
6.6,5597.,0.,0.,4405.,0.,0.,10002.,0.805420642506,inf,0.
6.62,5609.,0.,0.,4392.,0.,0.,10001.,0.807228175644,inf,0.
6.64,5616.,0.,0.,4386.,0.,0.,10002.,0.808154784405,inf,0.
6.66,5626.,0.,0.,4376.,0.,0.,10002.,0.809593806457,inf,0.
6.68,5635.,1.,0.,4367.,0.,0.,10003.,0.81080786173,42.16200881,13.
6.7,5644.,1.,0.,4356.,0.,0.,10001.,0.812265256434,42.2377933346,13.
6.72,5655.,1.,1.,4345.,0.,0.,10002.,0.813766970407,42.3158824612,13.
6.74,5662.,1.,0.,4338.,0.,0.,10001.,0.814855755126,42.3724992665,13.
6.76,5667.,1.,1.,4333.,0.,0.,10002.,0.81549379687,42.4056774372,13.
6.78,5675.,5.,1.,4326.,0.,0.,10007.,0.81623697763,8.48886456735,65.
6.8,5680.,5.,2.,4320.,0.,0.,10007.,0.816956129152,8.49634374318,65.
6.82,5695.,5.,2.,4308.,0.,0.,10010.,0.818868095132,8.51622818937,65.
6.84,5701.,2.,3.,4301.,0.,0.,10007.,0.819976565545,21.3193907042,26.
6.86,5706.,5.,3.,4293.,0.,0.,10007.,0.820695717067,8.5352354575,65.
6.88,5710.,11.,3.,4284.,0.,0.,10008.,0.82118897683,3.88198425411,143.
6.9,5715.,11.,6.,4281.,0.,0.,10013.,0.821497636013,3.88344337024,143.
6.92,5721.,8.,6.,4278.,0.,0.,10013.,0.822360100723,5.3453406547,104.
6.94,5725.,11.,7.,4267.,0.,0.,10010.,0.823181711085,3.8914044524,143.
6.96,5728.,18.,7.,4260.,0.,0.,10013.,0.823366309551,2.37861378315,234.
6.98,5729.,18.,8.,4253.,0.,0.,10008.,0.823921479555,2.3802176076,234.
7.,5727.,23.,10.,4252.,0.,0.,10012.,0.823304789021,1.8613847404,299.
7.02,5718.,24.,14.,4251.,0.,0.,10007.,0.82242168072,1.78191364156,312.
7.04,5716.,28.,12.,4250.,0.,0.,10006.,0.822216184215,1.52697291354,364.
7.06,5707.,31.,10.,4254.,0.,0.,10002.,0.821249885078,1.37758045239,403.
7.08,5709.,25.,17.,4250.,0.,0.,10001.,0.821619835043,1.70896925689,325.
7.1,5697.,35.,14.,4254.,0.,0.,10000.,0.819974825198,1.21824831172,455.
7.12,5693.,32.,15.,4259.,0.,0.,9999.,0.819481049361,1.33165670521,416.
7.14,5685.,28.,16.,4268.,0.,0.,9997.,0.818493201331,1.52005880247,364.
7.16,5671.,34.,6.,4285.,0.,0.,9996.,0.816559243269,1.24885531324,442.
7.18,5671.,34.,12.,4279.,0.,0.,9996.,0.816559243269,1.24885531324,442.
7.2,5664.,34.,5.,4290.,0.,0.,9993.,0.815796159984,1.24768824468,442.
7.22,5669.,25.,14.,4289.,0.,0.,9997.,0.816189614485,1.69767439813,325.
7.24,5655.,36.,12.,4293.,0.,0.,9996.,0.814255425972,1.1761467264,468.
7.26,5659.,38.,7.,4294.,0.,0.,9998.,0.81466838142,1.11480936405,494.
7.28,5658.,29.,15.,4296.,0.,0.,9998.,0.814524421643,1.46052654915,377.
7.3,5656.,25.,10.,4300.,0.,0.,9991.,0.81480698107,1.69479852063,325.
7.32,5653.,21.,9.,4305.,0.,0.,9988.,0.814619405116,2.01715281267,273.
7.34,5661.,18.,5.,4303.,0.,0.,9987.,0.815853919811,2.3569113239,234.
7.36,5660.,13.,8.,4304.,0.,0.,9985.,0.815873188513,3.26349275405,169.
7.38,5664.,10.,11.,4298.,0.,0.,9983.,0.816613345359,4.24638939587,130.
7.4,5664.,15.,3.,4300.,0.,0.,9982.,0.816695153949,2.83120986702,195.
7.42,5671.,13.,10.,4286.,0.,0.,9980.,0.817868356284,3.27147342514,169.
7.44,5680.,12.,8.,4286.,0.,0.,9986.,0.818674142242,3.54758794971,156.
7.46,5682.,12.,3.,4287.,0.,0.,9984.,0.819126462754,3.54954800527,156.
7.48,5685.,6.,5.,4291.,0.,0.,9987.,0.819312759959,7.10071058631,78.
7.5,5691.,8.,0.,4291.,0.,0.,9990.,0.819931170455,5.32955260796,104.
7.52,5694.,5.,3.,4285.,0.,0.,9987.,0.820609825014,8.53434218015,65.
7.54,5693.,4.,0.,4285.,0.,0.,9982.,0.820876679279,10.6713968306,52.
7.56,5702.,3.,2.,4276.,0.,0.,9983.,0.822092036589,14.2495953009,39.
7.58,5713.,2.,0.,4271.,0.,0.,9986.,0.823430523702,21.4091936162,26.
7.6,5722.,2.,0.,4257.,0.,0.,9981.,0.825140867488,21.4536625547,26.
7.62,5738.,0.,2.,4248.,0.,0.,9988.,0.826868237495,inf,0.
7.64,5746.,0.,1.,4243.,0.,0.,9990.,0.827855298794,inf,0.
7.66,5755.,0.,1.,4233.,0.,0.,9989.,0.829234980845,inf,0.
7.68,5757.,1.,0.,4229.,0.,0.,9987.,0.829689280401,43.1438425809,13.
7.7,5767.,0.,0.,4220.,0.,0.,9987.,0.831130463796,inf,0.
7.72,5777.,0.,0.,4211.,0.,0.,9988.,0.832488289998,inf,0.
7.74,5785.,0.,0.,4203.,0.,0.,9988.,0.83364112128,inf,0.
7.76,5795.,0.,0.,4194.,0.,0.,9989.,0.834998560208,inf,0.
7.78,5809.,1.,0.,4179.,0.,0.,9989.,0.837015812985,43.5248222752,13.
7.8,5816.,3.,0.,4170.,0.,0.,9989.,0.838024439373,14.5257569491,39.
7.82,5822.,3.,1.,4162.,0.,0.,9988.,0.838972965963,14.5421980767,39.
7.84,5823.,4.,0.,4155.,0.,0.,9982.,0.839621447996,10.9150788239,52.
7.86,5829.,5.,2.,4148.,0.,0.,9984.,0.840318224462,8.73930953441,65.
7.88,5842.,6.,2.,4136.,0.,0.,9986.,0.842023651228,7.29753831064,78.
7.9,5845.,10.,2.,4131.,0.,0.,9988.,0.8422873559,4.37989425068,130.
7.92,5844.,9.,10.,4126.,0.,0.,9989.,0.842058944927,4.86522945958,117.
7.94,5846.,12.,8.,4123.,0.,0.,9989.,0.842347123895,3.65017087021,156.
7.96,5855.,11.,11.,4119.,0.,0.,9996.,0.843053142187,3.9853421267,143.
7.98,5861.,13.,5.,4121.,0.,0.,10000.,0.843579506844,3.37431802737,169.
8.,5859.,16.,6.,4117.,0.,0.,9998.,0.84346033694,2.74124609505,208.
8.02,5863.,14.,8.,4113.,0.,0.,9998.,0.84403617605,3.13499151104,182.
8.04,5868.,15.,4.,4113.,0.,0.,10000.,0.844587023743,2.92790168231,195.
8.06,5868.,15.,9.,4112.,0.,0.,10004.,0.844249324014,2.92673098991,195.
8.08,5858.,24.,6.,4115.,0.,0.,10003.,0.842894845433,1.82627216511,312.
8.1,5855.,24.,8.,4114.,0.,0.,10001.,0.842631657764,1.82570192516,312.
8.12,5850.,19.,16.,4118.,0.,0.,10003.,0.841743742879,2.30371971735,247.
8.14,5848.,23.,11.,4123.,0.,0.,10005.,0.84128776015,1.90204189251,299.
8.16,5847.,22.,18.,4118.,0.,0.,10005.,0.841143901094,1.98815831168,286.
8.18,5840.,30.,12.,4122.,0.,0.,10004.,0.840220867798,1.45638283752,390.
8.2,5842.,34.,9.,4120.,0.,0.,10005.,0.840424605814,1.28535527948,442.
8.22,5846.,27.,11.,4121.,0.,0.,10005.,0.841000042038,1.61970378467,351.
8.24,5847.,18.,15.,4124.,0.,0.,10004.,0.841227981852,2.43021416979,234.
8.26,5848.,22.,13.,4125.,0.,0.,10008.,0.84103557557,1.98790226953,286.
8.28,5843.,23.,8.,4134.,0.,0.,10008.,0.840316495905,1.89984599074,299.
8.3,5835.,27.,12.,4133.,0.,0.,10007.,0.839249826339,1.61633299887,351.
8.32,5829.,30.,11.,4133.,0.,0.,10003.,0.838722098674,1.45378497103,390.
8.34,5839.,19.,15.,4132.,0.,0.,10005.,0.839993028645,2.29892828892,247.
8.36,5837.,18.,12.,4139.,0.,0.,10006.,0.839621390354,2.42557290547,234.
8.38,5832.,21.,9.,4145.,0.,0.,10007.,0.838818335425,2.07707397343,273.
8.4,5827.,14.,6.,4158.,0.,0.,10005.,0.838266719972,3.11356210275,182.
8.42,5825.,14.,3.,4159.,0.,0.,10001.,0.838314159945,3.11373830837,182.
8.44,5830.,8.,5.,4158.,0.,0.,10001.,0.839033742914,5.45371932894,104.
8.46,5833.,7.,1.,4157.,0.,0.,9998.,0.839717382722,6.23790055737,91.
8.48,5842.,5.,2.,4148.,0.,0.,9997.,0.841097147261,8.74741033151,65.
8.5,5843.,6.,3.,4147.,0.,0.,9999.,0.841072856388,7.28929808869,78.
8.52,5845.,5.,4.,4144.,0.,0.,9998.,0.841444900053,8.75102696056,65.
8.54,5849.,6.,2.,4141.,0.,0.,9998.,0.842020739164,7.29751307275,78.
8.56,5853.,6.,3.,4136.,0.,0.,9998.,0.842596578274,7.30250367838,78.
8.58,5862.,2.,6.,4129.,0.,0.,9999.,0.843807818611,21.9390032839,26.
8.6,5868.,3.,3.,4125.,0.,0.,9999.,0.844671490892,14.6409725088,39.
8.62,5870.,3.,0.,4125.,0.,0.,9998.,0.845043894493,14.6474275046,39.
8.64,5877.,4.,0.,4115.,0.,0.,9996.,0.84622089097,11.0008715826,52.
8.66,5881.,2.,1.,4110.,0.,0.,9994.,0.84696630634,22.0211239648,26.
8.68,5890.,1.,1.,4103.,0.,0.,9995.,0.848177594224,44.1052348997,13.
8.7,5897.,0.,2.,4097.,0.,0.,9996.,0.849100662592,inf,0.
8.72,5901.,2.,4.,4090.,0.,0.,9997.,0.849591623756,22.0893822177,26.
8.74,5916.,2.,0.,4080.,0.,0.,9998.,0.851666044263,22.1433171508,26.
8.76,5925.,3.,0.,4076.,0.,0.,10004.,0.852450109881,14.7758019046,39.
8.78,5932.,1.,1.,4067.,0.,0.,10001.,0.853713235501,44.393088246,13.
8.8,5941.,0.,2.,4065.,0.,0.,10008.,0.854410457329,inf,0.
8.82,5952.,2.,1.,4057.,0.,0.,10012.,0.855650446002,22.246911596,26.
8.84,5960.,3.,1.,4047.,0.,0.,10011.,0.856886099712,14.852692395,39.
8.86,5966.,3.,2.,4043.,0.,0.,10014.,0.857491771855,14.8631907122,39.
8.88,5975.,5.,4.,4030.,0.,0.,10014.,0.858785339731,8.9313675332,65.
8.9,5984.,7.,1.,4024.,0.,0.,10016.,0.859907166611,6.38788180911,91.
8.92,5991.,8.,1.,4016.,0.,0.,10016.,0.860913074059,5.59593498138,104.
8.94,5996.,8.,3.,4007.,0.,0.,10014.,0.861803664775,5.60172382103,104.
8.96,5997.,11.,8.,3995.,0.,0.,10011.,0.862205694627,4.07588146551,143.
8.98,5989.,18.,12.,3991.,0.,0.,10010.,0.861141531474,2.48774220204,234.
9.,5981.,26.,8.,3996.,0.,0.,10011.,0.859905329258,1.71981065852,338.
9.02,5982.,25.,15.,3988.,0.,0.,10010.,0.860135021085,1.78908084386,325.
9.04,5976.,27.,11.,3994.,0.,0.,10008.,0.85944401498,1.65522551033,351.
9.06,5971.,25.,15.,3997.,0.,0.,10008.,0.858724935316,1.78614786546,325.
9.08,5967.,35.,8.,3996.,0.,0.,10006.,0.858321198602,1.2752200665,455.
9.1,5968.,33.,10.,3998.,0.,0.,10009.,0.858207735345,1.35232734054,429.
9.12,5962.,28.,15.,4002.,0.,0.,10007.,0.857516275001,1.592530225,364.
9.14,5961.,23.,17.,4005.,0.,0.,10006.,0.857458130529,1.93860099076,299.
9.16,5953.,27.,13.,4011.,0.,0.,10004.,0.856478566096,1.64951427544,351.
9.18,5940.,29.,19.,4017.,0.,0.,10005.,0.854522793313,1.53224776732,377.
9.2,5936.,29.,14.,4029.,0.,0.,10008.,0.853691377665,1.53075695305,377.
9.22,5923.,31.,19.,4029.,0.,0.,10002.,0.852332761401,1.42971947074,403.
9.24,5914.,33.,14.,4040.,0.,0.,10001.,0.851122736809,1.34116310043,429.
9.26,5909.,29.,15.,4049.,0.,0.,10002.,0.850318130528,1.52470837198,377.
9.28,5901.,35.,12.,4051.,0.,0.,9999.,0.849421688438,1.26199793711,455.
9.3,5903.,27.,16.,4054.,0.,0.,10000.,0.849624608241,1.63631406032,351.
9.32,5901.,23.,13.,4064.,0.,0.,10001.,0.849251821087,1.9200475955,299.
9.34,5903.,19.,13.,4068.,0.,0.,10003.,0.849369797301,2.32459102419,247.
9.36,5907.,13.,13.,4072.,0.,0.,10005.,0.849775444461,3.39910177784,169.
9.38,5904.,14.,7.,4081.,0.,0.,10006.,0.849258983836,3.15439051139,182.
9.4,5899.,16.,9.,4083.,0.,0.,10007.,0.848454965822,2.75747863892,208.
9.42,5902.,14.,7.,4086.,0.,0.,10009.,0.848716832106,3.15237680497,182.
9.44,5907.,14.,6.,4081.,0.,0.,10008.,0.849520715611,3.15536265798,182.
9.46,5912.,9.,6.,4086.,0.,0.,10013.,0.849815227316,4.9100435356,117.
9.48,5919.,8.,7.,4076.,0.,0.,10010.,0.851076427583,5.53199677929,104.
9.5,5933.,3.,7.,4068.,0.,0.,10011.,0.853004233153,14.785406708,39.
9.52,5941.,3.,1.,4064.,0.,0.,10009.,0.854325093111,14.8083016139,39.
9.54,5951.,1.,1.,4055.,0.,0.,10008.,0.855848616658,44.5041280662,13.
9.56,5957.,0.,0.,4049.,0.,0.,10006.,0.856882751814,inf,0.
9.58,5963.,0.,0.,4038.,0.,0.,10001.,0.858174649914,inf,0.
9.6,5971.,0.,0.,4029.,0.,0.,10000.,0.859411915264,inf,0.
9.62,5977.,0.,0.,4021.,0.,0.,9998.,0.860447590696,inf,0.
9.64,5979.,2.,0.,4014.,0.,0.,9995.,0.860993860079,22.3858403621,26.
9.66,5994.,0.,2.,4000.,0.,0.,9996.,0.863067554956,inf,0.
9.68,6002.,1.,1.,3996.,0.,0.,10000.,0.863873775819,44.9214363426,13.
9.7,6013.,2.,1.,3988.,0.,0.,10004.,0.865110972272,22.4928852791,26.
9.72,6016.,2.,1.,3980.,0.,0.,9999.,0.865975407159,22.5153605861,26.
9.74,6029.,2.,1.,3970.,0.,0.,10002.,0.867586395152,22.557246274,26.
9.76,6035.,4.,0.,3964.,0.,0.,10003.,0.868362989448,11.2887188628,52.
9.78,6042.,2.,3.,3952.,0.,0.,9999.,0.869717987043,22.6126676631,26.
9.8,6049.,4.,3.,3942.,0.,0.,9998.,0.870812694683,11.3205650309,52.
9.82,6053.,2.,1.,3938.,0.,0.,9994.,0.871737298466,22.6651697601,26.
9.84,6058.,5.,1.,3928.,0.,0.,9992.,0.872632016628,9.07537297293,65.
9.86,6068.,6.,2.,3917.,0.,0.,9993.,0.873985010379,7.57453675662,78.
9.88,6081.,6.,4.,3905.,0.,0.,9996.,0.875594561509,7.58848619975,78.
9.9,6081.,10.,3.,3902.,0.,0.,9996.,0.875594561509,4.55309171985,130.
9.92,6077.,10.,2.,3904.,0.,0.,9993.,0.87528129665,4.55146274258,130.
9.94,6080.,9.,5.,3899.,0.,0.,9993.,0.875713392074,5.05967737642,117.
9.96,6077.,11.,5.,3897.,0.,0.,9990.,0.875544143886,4.13893595292,143.
9.98,6081.,17.,3.,3887.,0.,0.,9988.,0.876295878739,2.68043445261,221.
10.,6083.,13.,4.,3891.,0.,0.,9991.,0.876320874443,3.50528349777,169.
