t,s,e,i,r,c,o,n,reff,coal,reportr
5.,9938.,4.,40.,18.,0.,0.,10000.,0.859963006861,11.1795190892,52.
5.02,9915.,19.,13.,50.,0.,0.,9997.,0.858230221434,2.34884060603,247.
5.04,9898.,28.,9.,63.,0.,0.,9998.,0.856673029304,1.59096419728,364.
5.06,9887.,29.,11.,70.,0.,0.,9997.,0.855806575826,1.53454972217,377.
5.08,9877.,24.,15.,80.,0.,0.,9996.,0.85502651642,1.85255745224,312.
5.1,9849.,32.,16.,93.,0.,0.,9990.,0.853114702001,1.38631139075,416.
5.12,9833.,27.,21.,111.,0.,0.,9992.,0.851558309081,1.6400382249,351.
5.14,9817.,28.,19.,128.,0.,0.,9992.,0.850172675709,1.57889211203,364.
5.16,9799.,30.,13.,148.,0.,0.,9990.,0.848783730826,1.47122513343,390.
5.18,9783.,29.,18.,161.,0.,0.,9991.,0.847313003934,1.51931986912,377.
5.2,9765.,37.,20.,174.,0.,0.,9996.,0.845330964143,1.18803270636,481.
5.22,9747.,40.,20.,189.,0.,0.,9996.,0.843772750384,1.0969045755,520.
5.24,9725.,42.,16.,217.,0.,0.,10000.,0.841531519594,1.04189616712,546.
5.26,9710.,39.,14.,238.,0.,0.,10001.,0.840149512582,1.12019935011,507.
5.28,9707.,35.,15.,248.,0.,0.,10005.,0.839554152045,1.24733759732,455.
5.3,9700.,28.,15.,264.,0.,0.,10007.,0.838781052755,1.55773624083,364.
5.32,9689.,26.,16.,275.,0.,0.,10006.,0.837913590493,1.67582718099,338.
5.34,9681.,25.,1.,297.,0.,0.,10004.,0.837389120567,1.74176937078,325.
5.36,9677.,18.,11.,299.,0.,0.,10005.,0.836959465266,2.41788289966,234.
5.38,9663.,14.,13.,311.,0.,0.,10001.,0.836082877454,3.10545068769,182.
5.4,9661.,14.,5.,325.,0.,0.,10005.,0.835575632317,3.10356663432,182.
5.42,9658.,14.,0.,334.,0.,0.,10006.,0.835232682112,3.10229281927,182.
5.44,9657.,12.,4.,334.,0.,0.,10007.,0.835062744996,3.61860522832,156.
5.46,9652.,11.,3.,342.,0.,0.,10008.,0.834546987307,3.94513121272,143.
5.48,9648.,12.,4.,343.,0.,0.,10007.,0.834284494534,3.61523280965,156.
5.5,9647.,7.,6.,348.,0.,0.,10008.,0.834114669141,6.19628039933,91.
5.52,9648.,8.,2.,353.,0.,0.,10011.,0.833951147418,5.42068245822,104.
5.54,9650.,3.,5.,355.,0.,0.,10013.,0.83395741465,14.4552618539,39.
5.56,9645.,6.,1.,360.,0.,0.,10012.,0.83360856499,7.22460756325,78.
5.58,9647.,3.,2.,361.,0.,0.,10013.,0.833698153277,14.4507679901,39.
5.6,9645.,1.,0.,365.,0.,0.,10011.,0.833691834251,43.351975381,13.
5.62,9647.,1.,0.,363.,0.,0.,10011.,0.833864709696,43.3609649042,13.
5.64,9650.,1.,0.,360.,0.,0.,10011.,0.834124022864,43.3744491889,13.
5.66,9651.,1.,0.,360.,0.,0.,10012.,0.834127139525,43.3746112553,13.
5.68,9652.,1.,0.,358.,0.,0.,10011.,0.834296898309,43.3834387121,13.
5.7,9659.,0.,1.,355.,0.,0.,10015.,0.834568501773,inf,0.
5.72,9661.,0.,1.,353.,0.,0.,10015.,0.834741308171,inf,0.
5.74,9667.,0.,0.,352.,0.,0.,10019.,0.83492625707,inf,0.
5.76,9665.,2.,0.,350.,0.,0.,10017.,0.834920187032,21.7079248628,26.
5.78,9668.,0.,2.,348.,0.,0.,10018.,0.835095977003,inf,0.
5.8,9665.,3.,3.,345.,0.,0.,10016.,0.835003545677,14.4733947917,39.
5.82,9666.,4.,2.,346.,0.,0.,10018.,0.834923222354,10.8540018906,52.
5.84,9658.,3.,4.,348.,0.,0.,10013.,0.83464877831,14.4672454907,39.
5.86,9655.,5.,5.,351.,0.,0.,10016.,0.834139599949,8.67505183947,65.
5.88,9653.,4.,8.,357.,0.,0.,10022.,0.833467529137,10.8350778788,52.
5.9,9648.,6.,9.,360.,0.,0.,10023.,0.832952702465,7.21892342136,78.
5.92,9635.,11.,11.,365.,0.,0.,10022.,0.83191335784,3.93268132797,143.
5.94,9625.,15.,10.,369.,0.,0.,10019.,0.831298771521,2.88183574127,195.
5.96,9610.,22.,11.,375.,0.,0.,10018.,0.83008609216,1.96202167238,286.
5.98,9608.,18.,9.,384.,0.,0.,10019.,0.829830503561,2.3972881214,234.
6.,9601.,14.,13.,390.,0.,0.,10018.,0.829308696236,3.08028944316,182.
6.02,9592.,20.,5.,403.,0.,0.,10020.,0.828365924803,2.15375140449,260.
6.04,9578.,20.,13.,408.,0.,0.,10019.,0.827239442455,2.15082255038,260.
6.06,9566.,21.,17.,418.,0.,0.,10022.,0.825955701204,2.04522364108,273.
6.08,9547.,24.,13.,436.,0.,0.,10020.,0.824479721027,1.78637272889,312.
6.1,9529.,26.,19.,445.,0.,0.,10019.,0.823007375982,1.64601475196,338.
6.12,9509.,35.,8.,466.,0.,0.,10018.,0.821361982346,1.22030923091,455.
6.14,9500.,23.,15.,477.,0.,0.,10015.,0.820830393088,1.85579045394,299.
6.16,9484.,25.,17.,486.,0.,0.,10012.,0.819693481635,1.7049624418,325.
6.18,9467.,28.,16.,502.,0.,0.,10013.,0.818142470931,1.51940744602,364.
6.2,9450.,33.,18.,509.,0.,0.,10010.,0.816918080394,1.28726485395,429.
6.22,9436.,30.,15.,527.,0.,0.,10008.,0.815870842543,1.41417612708,390.
6.24,9418.,32.,16.,545.,0.,0.,10011.,0.814070471226,1.32286451574,416.
6.26,9407.,28.,13.,561.,0.,0.,10009.,0.813282133979,1.51038110596,364.
6.28,9394.,30.,11.,572.,0.,0.,10007.,0.812320537071,1.40802226426,390.
6.3,9386.,26.,12.,582.,0.,0.,10006.,0.81170987309,1.62341974618,338.
6.32,9370.,27.,14.,595.,0.,0.,10006.,0.810326178442,1.56062819552,351.
6.34,9357.,24.,11.,612.,0.,0.,10004.,0.809363702215,1.7536213548,312.
6.36,9347.,16.,12.,627.,0.,0.,10002.,0.808660387578,2.62814625963,208.
6.38,9338.,15.,10.,636.,0.,0.,9999.,0.808124136832,2.80149700768,195.
6.4,9329.,13.,9.,646.,0.,0.,9997.,0.807506781216,3.23002712486,169.
6.42,9328.,12.,3.,654.,0.,0.,9997.,0.807420222445,3.49882096393,156.
6.44,9326.,14.,3.,654.,0.,0.,9997.,0.807247104901,2.99834638963,182.
6.46,9330.,13.,2.,653.,0.,0.,9998.,0.807512564499,3.230050258,169.
6.48,9327.,7.,8.,655.,0.,0.,9997.,0.807333663673,5.99733578728,91.
6.5,9321.,6.,9.,659.,0.,0.,9995.,0.806975754627,6.99378987343,78.
6.52,9318.,5.,4.,668.,0.,0.,9995.,0.80671602635,8.38984667404,65.
6.54,9316.,6.,0.,672.,0.,0.,9994.,0.806623576875,6.99073766625,78.
6.56,9319.,3.,0.,676.,0.,0.,9998.,0.806560513244,13.9803822296,39.
6.58,9322.,3.,0.,677.,0.,0.,10002.,0.806497500053,13.9792900009,39.
6.6,9324.,2.,1.,678.,0.,0.,10005.,0.806428650836,20.9671449217,26.
6.62,9325.,0.,3.,677.,0.,0.,10005.,0.806515140395,inf,0.
6.64,9322.,5.,0.,680.,0.,0.,10007.,0.80609453338,8.38338314715,65.
6.66,9321.,3.,2.,676.,0.,0.,10002.,0.806410984552,13.9777903989,39.
6.68,9320.,3.,4.,676.,0.,0.,10003.,0.806243860787,13.974893587,39.
6.7,9318.,3.,4.,677.,0.,0.,10002.,0.806151438049,13.9732915929,39.
6.72,9316.,3.,0.,679.,0.,0.,9998.,0.806300862902,13.9758816236,39.
6.74,9310.,3.,0.,682.,0.,0.,9995.,0.806023417613,13.971072572,39.
6.76,9310.,2.,2.,681.,0.,0.,9995.,0.806023417613,20.9566088579,26.
6.78,9307.,5.,2.,679.,0.,0.,9993.,0.805924954961,8.38161953159,65.
6.8,9308.,6.,4.,677.,0.,0.,9995.,0.805850265429,6.98403563372,78.
6.82,9305.,4.,2.,683.,0.,0.,9994.,0.805671144571,10.4737248794,52.
6.84,9302.,5.,5.,683.,0.,0.,9995.,0.805330808876,8.37544041231,65.
6.86,9292.,9.,5.,687.,0.,0.,9993.,0.804626053669,4.64895053231,117.
6.88,9287.,10.,5.,694.,0.,0.,9996.,0.803951732104,4.18054900694,130.
6.9,9283.,15.,6.,695.,0.,0.,9999.,0.80336435663,2.78499643632,195.
6.92,9285.,12.,8.,697.,0.,0.,10002.,0.803296426517,3.48095118158,156.
6.94,9283.,13.,5.,703.,0.,0.,10004.,0.802962835061,3.21185134024,169.
6.96,9280.,9.,9.,702.,0.,0.,10000.,0.803024421782,4.63969665919,117.
6.98,9272.,14.,9.,705.,0.,0.,10000.,0.80233215935,2.98009087758,182.
7.,9273.,10.,11.,708.,0.,0.,10002.,0.802258240506,4.17174285063,130.
7.02,9270.,12.,4.,718.,0.,0.,10004.,0.801838358398,3.47463288639,156.
7.04,9258.,14.,8.,721.,0.,0.,10001.,0.801040596033,2.97529364241,182.
7.06,9250.,21.,10.,722.,0.,0.,10003.,0.800188381146,1.98141884855,273.
7.08,9238.,30.,7.,728.,0.,0.,10003.,0.799150298922,1.38519385146,390.
7.1,9225.,31.,11.,735.,0.,0.,10002.,0.798105496459,1.33875760696,403.
7.12,9219.,25.,19.,743.,0.,0.,10006.,0.797267560198,1.65831652521,325.
7.14,9202.,31.,16.,758.,0.,0.,10007.,0.795717860562,1.3347525403,403.
7.16,9189.,33.,16.,768.,0.,0.,10006.,0.794673132732,1.25221220915,429.
7.18,9176.,28.,21.,780.,0.,0.,10005.,0.793628196061,1.47388093554,364.
7.2,9168.,29.,18.,793.,0.,0.,10008.,0.792698588855,1.42139057312,377.
7.22,9154.,26.,13.,808.,0.,0.,10001.,0.792042084261,1.58408416852,338.
7.24,9144.,26.,10.,823.,0.,0.,10003.,0.791018654832,1.58203730966,338.
7.26,9132.,26.,10.,831.,0.,0.,9999.,0.790296596439,1.58059319288,338.
7.28,9119.,22.,19.,837.,0.,0.,9997.,0.789329439159,1.86568776528,286.
7.3,9110.,19.,15.,853.,0.,0.,9997.,0.788550410213,2.15813796479,247.
7.32,9092.,26.,9.,869.,0.,0.,9996.,0.78707108305,1.5741421661,338.
7.34,9079.,24.,11.,877.,0.,0.,9991.,0.786339033294,1.70373457214,312.
7.36,9078.,16.,13.,884.,0.,0.,9991.,0.78625242254,2.55532037326,208.
7.38,9072.,15.,3.,900.,0.,0.,9990.,0.785811409945,2.72414622114,195.
7.4,9069.,9.,5.,907.,0.,0.,9990.,0.785551551675,4.53874229857,117.
7.42,9069.,9.,3.,910.,0.,0.,9991.,0.785472925756,4.53828801548,117.
7.44,9067.,7.,4.,913.,0.,0.,9991.,0.785299704249,5.83365494585,91.
7.46,9068.,5.,4.,914.,0.,0.,9991.,0.785386315003,8.16801767603,65.
7.48,9062.,8.,2.,918.,0.,0.,9990.,0.784945215711,5.10214390212,104.
7.5,9065.,4.,1.,920.,0.,0.,9990.,0.785205073981,10.2076659618,52.
7.52,9065.,2.,4.,919.,0.,0.,9990.,0.785205073981,20.4153319235,26.
7.54,9062.,3.,0.,921.,0.,0.,9986.,0.785259633982,13.611166989,39.
7.56,9062.,3.,0.,920.,0.,0.,9985.,0.785338277912,13.6125301505,39.
7.58,9065.,3.,0.,917.,0.,0.,9985.,0.785598266306,13.617036616,39.
7.6,9067.,1.,1.,917.,0.,0.,9986.,0.785692904582,40.8560310382,13.
7.62,9068.,1.,2.,917.,0.,0.,9988.,0.785622213976,40.8523551268,13.
7.64,9073.,1.,1.,916.,0.,0.,9991.,0.785819368771,40.8626071761,13.
7.66,9077.,0.,0.,918.,0.,0.,9995.,0.78585118815,inf,0.
7.68,9077.,0.,0.,917.,0.,0.,9994.,0.785929820448,inf,0.
7.7,9082.,0.,0.,917.,0.,0.,9999.,0.785969523529,inf,0.
7.72,9081.,0.,1.,916.,0.,0.,9998.,0.785961586089,inf,0.
7.74,9084.,0.,1.,914.,0.,0.,9999.,0.786142606445,inf,0.
7.76,9082.,0.,0.,916.,0.,0.,9998.,0.786048136203,inf,0.
7.78,9086.,1.,0.,916.,0.,0.,10003.,0.786001257415,40.8720653856,13.
7.8,9082.,2.,1.,914.,0.,0.,9999.,0.785969523529,20.4352076117,26.
7.82,9084.,4.,1.,911.,0.,0.,10000.,0.786063992184,10.2188318984,52.
7.84,9085.,3.,4.,907.,0.,0.,9999.,0.786229147903,13.627971897,39.
7.86,9080.,9.,2.,908.,0.,0.,9999.,0.785796440612,4.54015721243,117.
7.88,9077.,7.,4.,907.,0.,0.,9995.,0.78585118815,5.8377516834,91.
7.9,9076.,10.,5.,906.,0.,0.,9997.,0.785607411975,4.08515854227,130.
7.92,9069.,7.,5.,911.,0.,0.,9992.,0.785394315576,5.83435777285,91.
7.94,9064.,12.,4.,910.,0.,0.,9990.,0.785118454558,3.40217996975,156.
7.96,9054.,15.,6.,913.,0.,0.,9988.,0.784409299221,2.71928557063,195.
7.98,9049.,16.,8.,917.,0.,0.,9990.,0.783819163205,2.54741228042,208.
8.,9046.,14.,10.,920.,0.,0.,9990.,0.783559304935,2.91036313261,182.
8.02,9040.,17.,8.,922.,0.,0.,9987.,0.783274806053,2.39589940675,221.
8.04,9029.,21.,8.,930.,0.,0.,9988.,0.782243380016,1.93698360766,273.
8.06,9020.,23.,8.,936.,0.,0.,9987.,0.78154189719,1.7669642893,299.
8.08,9006.,27.,9.,944.,0.,0.,9986.,0.780407003271,1.50300608037,351.
8.1,9002.,22.,11.,950.,0.,0.,9985.,0.780138510016,1.84396375095,286.
8.12,8991.,21.,18.,954.,0.,0.,9984.,0.779263262626,1.92960426936,273.
8.14,8968.,34.,13.,967.,0.,0.,9982.,0.777425552907,1.1890037868,442.
8.16,8955.,37.,18.,972.,0.,0.,9982.,0.776298597935,1.09101424575,481.
8.18,8941.,33.,23.,982.,0.,0.,9979.,0.775317968937,1.22171316317,429.
8.2,8928.,31.,25.,997.,0.,0.,9981.,0.77403554228,1.29838219995,403.
8.22,8903.,41.,18.,1019.,0.,0.,9981.,0.771868104045,0.978954668545,533.
8.24,8889.,36.,19.,1041.,0.,0.,9985.,0.770345613811,1.11272144217,468.
8.26,8875.,26.,26.,1057.,0.,0.,9984.,0.769209371127,1.53841874225,338.
8.28,8864.,23.,14.,1084.,0.,0.,9985.,0.768179043854,1.73675262089,299.
8.3,8857.,23.,11.,1097.,0.,0.,9988.,0.767341855887,1.73485984809,299.
8.32,8853.,17.,11.,1106.,0.,0.,9987.,0.767072108185,2.34633821327,221.
8.34,8849.,21.,6.,1113.,0.,0.,9989.,0.766572012441,1.89817831652,273.
8.36,8842.,16.,7.,1122.,0.,0.,9987.,0.76611900831,2.48988677701,208.
8.38,8835.,16.,4.,1130.,0.,0.,9985.,0.765665822705,2.48841392379,208.
8.4,8840.,10.,6.,1130.,0.,0.,9986.,0.766022419378,3.98331658077,130.
8.42,8835.,10.,7.,1132.,0.,0.,9984.,0.76574251199,3.98186106235,130.
8.44,8832.,11.,3.,1136.,0.,0.,9982.,0.765635870125,3.61936956786,143.
8.46,8832.,7.,4.,1139.,0.,0.,9982.,0.765635870125,5.6875807495,91.
8.48,8834.,6.,2.,1143.,0.,0.,9985.,0.765579159906,6.63501938586,78.
8.5,8834.,6.,4.,1142.,0.,0.,9986.,0.765502494659,6.63435495371,78.
8.52,8834.,4.,4.,1144.,0.,0.,9986.,0.765502494659,9.95153243057,52.
8.54,8833.,4.,1.,1146.,0.,0.,9984.,0.765569169033,9.95239919743,52.
8.56,8836.,3.,2.,1144.,0.,0.,9985.,0.765752485503,13.2730430821,39.
8.58,8842.,0.,2.,1146.,0.,0.,9990.,0.765888942542,inf,0.
8.6,8841.,1.,0.,1147.,0.,0.,9989.,0.765878987681,39.8257073594,13.
8.62,8842.,1.,0.,1146.,0.,0.,9989.,0.765965615776,39.8302120204,13.
8.64,8842.,0.,2.,1146.,0.,0.,9990.,0.765888942542,inf,0.
8.66,8843.,0.,0.,1148.,0.,0.,9991.,0.765898895409,inf,0.
8.68,8844.,0.,0.,1147.,0.,0.,9991.,0.765985506163,inf,0.
8.7,8845.,2.,0.,1145.,0.,0.,9992.,0.76599544837,19.9158816576,26.
8.72,8848.,1.,1.,1144.,0.,0.,9994.,0.76610191157,39.8372994017,13.
8.74,8850.,0.,2.,1141.,0.,0.,9993.,0.766351762265,inf,0.
8.76,8854.,2.,0.,1140.,0.,0.,9996.,0.766468034462,19.928168896,26.
8.78,8857.,2.,0.,1136.,0.,0.,9995.,0.766804447884,19.936915645,26.
8.8,8857.,1.,2.,1134.,0.,0.,9994.,0.766881174365,39.877821067,13.
8.82,8855.,3.,1.,1135.,0.,0.,9994.,0.766708004855,13.2896054175,39.
8.84,8849.,7.,2.,1134.,0.,0.,9992.,0.766341856713,5.6928252213,91.
8.86,8841.,14.,3.,1131.,0.,0.,9989.,0.765878987681,2.84469338282,182.
8.88,8842.,9.,6.,1130.,0.,0.,9987.,0.76611900831,4.42646538135,117.
8.9,8840.,10.,5.,1133.,0.,0.,9988.,0.765869030828,3.98251896031,130.
8.92,8836.,9.,7.,1134.,0.,0.,9986.,0.765675802899,4.42390463897,117.
8.94,8837.,10.,3.,1139.,0.,0.,9989.,0.765532475302,3.98076887157,130.
8.96,8833.,9.,4.,1143.,0.,0.,9989.,0.765185962922,4.42107445244,117.
8.98,8829.,10.,5.,1141.,0.,0.,9985.,0.765145845915,3.97875839876,130.
9.,8822.,11.,8.,1143.,0.,0.,9984.,0.76461578277,3.61454733673,143.
9.02,8807.,14.,11.,1147.,0.,0.,9979.,0.763698171617,2.83659320886,182.
9.04,8795.,21.,7.,1154.,0.,0.,9977.,0.762810475902,1.88886403557,273.
9.06,8780.,27.,13.,1156.,0.,0.,9976.,0.761585825728,1.46675788659,351.
9.08,8758.,32.,16.,1166.,0.,0.,9972.,0.759982248352,1.23497115357,416.
9.1,8741.,37.,14.,1180.,0.,0.,9972.,0.758507060156,1.06600992238,481.
9.12,8734.,34.,10.,1194.,0.,0.,9972.,0.757899629723,1.15914061016,442.
9.14,8721.,23.,22.,1205.,0.,0.,9971.,0.756847441888,1.71113334688,299.
9.16,8704.,30.,16.,1219.,0.,0.,9969.,0.755523649952,1.30957432658,390.
9.18,8691.,34.,9.,1230.,0.,0.,9964.,0.754773785813,1.15435990771,442.
9.2,8685.,31.,6.,1243.,0.,0.,9965.,0.75417702294,1.26507113525,403.
9.22,8676.,29.,10.,1248.,0.,0.,9963.,0.753546731028,1.35118724184,377.
9.24,8673.,22.,16.,1255.,0.,0.,9966.,0.753059411711,1.7799586095,286.
9.26,8669.,23.,11.,1266.,0.,0.,9969.,0.752485583805,1.70127175469,299.
9.28,8661.,28.,11.,1269.,0.,0.,9969.,0.751791168685,1.39618359899,364.
9.3,8658.,21.,11.,1277.,0.,0.,9967.,0.75168156682,1.86130673689,273.
9.32,8650.,21.,6.,1291.,0.,0.,9968.,0.75091167257,1.85940033208,273.
9.34,8648.,20.,8.,1293.,0.,0.,9969.,0.750662744116,1.9517231347,260.
9.36,8648.,19.,8.,1293.,0.,0.,9968.,0.750738051374,2.05465150902,247.
9.38,8648.,18.,7.,1294.,0.,0.,9967.,0.750813373743,2.16901641303,234.
9.4,8646.,13.,8.,1303.,0.,0.,9970.,0.750413865598,3.00165546239,169.
9.42,8646.,9.,8.,1310.,0.,0.,9973.,0.750188131957,4.33442031798,117.
9.44,8640.,6.,5.,1317.,0.,0.,9968.,0.75004356659,6.50037757711,78.
9.46,8635.,10.,2.,1319.,0.,0.,9966.,0.749759946976,3.89875172428,130.
9.48,8628.,7.,6.,1320.,0.,0.,9961.,0.749528193482,5.56792372301,91.
9.5,8629.,6.,2.,1323.,0.,0.,9960.,0.749690327642,6.4973161729,78.
9.52,8628.,4.,2.,1326.,0.,0.,9960.,0.749603447317,9.74484481512,52.
9.54,8634.,1.,4.,1321.,0.,0.,9960.,0.750124729269,39.006485922,13.
9.56,8634.,2.,3.,1319.,0.,0.,9958.,0.750275386978,19.5071600614,26.
9.58,8639.,2.,0.,1317.,0.,0.,9958.,0.750709875851,19.5184567721,26.
9.6,8643.,2.,0.,1316.,0.,0.,9961.,0.750831267532,19.5216129558,26.
9.62,8642.,3.,1.,1313.,0.,0.,9959.,0.750895162953,13.0155161579,39.
9.64,8642.,1.,3.,1311.,0.,0.,9957.,0.751045990544,39.0543915083,13.
9.66,8646.,3.,0.,1311.,0.,0.,9960.,0.751167293174,13.0202330817,39.
9.68,8643.,3.,1.,1310.,0.,0.,9957.,0.751132897046,13.0196368821,39.
9.7,8645.,0.,3.,1310.,0.,0.,9958.,0.7512312625,inf,0.
9.72,8651.,2.,2.,1309.,0.,0.,9964.,0.751299967906,19.5337991656,26.
9.74,8651.,3.,2.,1305.,0.,0.,9961.,0.751526240359,13.0264548329,39.
9.76,8651.,1.,4.,1306.,0.,0.,9962.,0.751450801066,39.0754416554,13.
9.78,8652.,3.,0.,1311.,0.,0.,9966.,0.751236023305,13.0214244039,39.
9.8,8648.,2.,1.,1310.,0.,0.,9961.,0.751265625549,19.5329062643,26.
9.82,8646.,3.,0.,1312.,0.,0.,9961.,0.751091882342,13.0189259606,39.
9.84,8642.,4.,2.,1311.,0.,0.,9959.,0.750895162953,9.76163711839,52.
9.86,8639.,6.,2.,1312.,0.,0.,9959.,0.750634495805,6.50549896365,78.
9.88,8633.,6.,4.,1312.,0.,0.,9955.,0.750414563082,6.50359288004,78.
9.9,8630.,6.,1.,1313.,0.,0.,9950.,0.7505307529,6.50459985847,78.
9.92,8632.,5.,2.,1312.,0.,0.,9951.,0.75062924806,7.80654417982,65.
9.94,8632.,6.,4.,1308.,0.,0.,9950.,0.750704688185,6.5061072976,78.
9.96,8626.,11.,2.,1309.,0.,0.,9948.,0.750333703176,3.54703205138,143.
9.98,8628.,11.,3.,1304.,0.,0.,9946.,0.750658589913,3.54856787959,143.
10.,8628.,11.,7.,1304.,0.,0.,9950.,0.750356817616,3.54714131964,143.
