t,s,e,i,r,c,o,n,reff,coal,reportr
5.,6805.,4.,54.,3136.,0.,0.,9999.,0.841077052999,10.934001689,52.
5.02,6775.,32.,13.,3177.,0.,0.,9997.,0.837536669431,1.36099708783,416.
5.04,6769.,25.,20.,3184.,0.,0.,9998.,0.836711243306,1.74035938608,325.
5.06,6758.,32.,12.,3197.,0.,0.,9999.,0.835267997674,1.35731049622,416.
5.08,6759.,26.,19.,3197.,0.,0.,10001.,0.835224532983,1.67044906597,338.
5.1,6750.,37.,7.,3207.,0.,0.,10001.,0.834112383139,1.17226605198,481.
5.12,6748.,27.,14.,3210.,0.,0.,9999.,0.834032028456,1.60628390666,351.
5.14,6746.,25.,17.,3213.,0.,0.,10001.,0.833618094319,1.73392563618,325.
5.16,6746.,22.,14.,3218.,0.,0.,10000.,0.833701456128,1.97056707812,286.
5.18,6740.,26.,11.,3224.,0.,0.,10001.,0.83287666109,1.66575332218,338.
5.2,6735.,27.,8.,3229.,0.,0.,9999.,0.832425268472,1.60318940595,351.
5.22,6721.,29.,14.,3235.,0.,0.,9999.,0.830694911566,1.48952191039,377.
5.24,6708.,34.,14.,3241.,0.,0.,9997.,0.829254018973,1.26827085255,442.
5.26,6694.,31.,22.,3244.,0.,0.,9991.,0.828020277147,1.38893723909,403.
5.28,6687.,34.,11.,3261.,0.,0.,9993.,0.826988859164,1.26480649049,442.
5.3,6688.,30.,14.,3262.,0.,0.,9994.,0.827029769387,1.43351826694,390.
5.32,6675.,26.,14.,3277.,0.,0.,9992.,0.825587422155,1.65117484431,338.
5.34,6667.,27.,8.,3290.,0.,0.,9992.,0.824597954083,1.58811457823,351.
5.36,6665.,22.,12.,3293.,0.,0.,9992.,0.824350587066,1.94846502397,286.
5.38,6666.,17.,4.,3307.,0.,0.,9994.,0.824309276724,2.52141661116,221.
5.4,6678.,16.,2.,3297.,0.,0.,9993.,0.825875818977,2.68409641167,208.
5.42,6682.,11.,4.,3295.,0.,0.,9992.,0.826453206717,3.90686970448,143.
5.44,6692.,12.,3.,3289.,0.,0.,9996.,0.827358833307,3.585221611,156.
5.46,6702.,8.,3.,3283.,0.,0.,9996.,0.828595173464,5.38586862752,104.
5.48,6703.,6.,2.,3282.,0.,0.,9993.,0.828967597275,7.18438584305,78.
5.5,6703.,5.,1.,3283.,0.,0.,9992.,0.829050560405,8.62212582821,65.
5.52,6710.,5.,0.,3276.,0.,0.,9991.,0.829999411362,8.63199387816,65.
5.54,6710.,2.,0.,3277.,0.,0.,9989.,0.830165594045,21.5843054452,26.
5.56,6714.,1.,1.,3272.,0.,0.,9988.,0.830743642511,43.1986694106,13.
5.58,6727.,2.,1.,3260.,0.,0.,9990.,0.832185534983,21.6368239096,26.
5.6,6730.,1.,2.,3253.,0.,0.,9986.,0.832890149343,43.3102877659,13.
5.62,6735.,0.,2.,3248.,0.,0.,9985.,0.833592414567,inf,0.
5.64,6746.,0.,0.,3240.,0.,0.,9986.,0.834870274513,inf,0.
5.66,6755.,0.,0.,3235.,0.,0.,9990.,0.835649366554,inf,0.
5.68,6759.,0.,0.,3229.,0.,0.,9988.,0.836311629391,inf,0.
5.7,6765.,0.,0.,3222.,0.,0.,9987.,0.837137842003,inf,0.
5.72,6765.,0.,0.,3221.,0.,0.,9986.,0.837221673151,inf,0.
5.74,6769.,0.,0.,3215.,0.,0.,9984.,0.837884516283,inf,0.
5.76,6772.,3.,0.,3208.,0.,0.,9983.,0.838339832459,14.5312237626,39.
5.78,6781.,1.,0.,3205.,0.,0.,9987.,0.839117768903,43.6341239829,13.
5.8,6784.,1.,0.,3198.,0.,0.,9983.,0.839825372623,43.6709193764,13.
5.82,6791.,1.,1.,3190.,0.,0.,9983.,0.840691937718,43.7159807614,13.
5.84,6795.,3.,2.,3180.,0.,0.,9980.,0.841439979632,14.584959647,39.
5.86,6797.,4.,2.,3177.,0.,0.,9980.,0.841687644085,10.9419393731,52.
5.88,6802.,7.,3.,3171.,0.,0.,9983.,0.842053682869,6.25525592988,91.
5.9,6808.,9.,3.,3163.,0.,0.,9983.,0.84279645295,4.86949061705,117.
5.92,6803.,12.,8.,3160.,0.,0.,9983.,0.842177477882,3.64943573749,156.
5.94,6811.,14.,3.,3155.,0.,0.,9983.,0.843167837991,3.1317662554,182.
5.96,6806.,16.,10.,3150.,0.,0.,9982.,0.842633269742,2.73855812666,208.
5.98,6804.,23.,8.,3150.,0.,0.,9985.,0.842132559571,1.90395187381,299.
6.,6797.,22.,15.,3148.,0.,0.,9982.,0.841519003002,1.98904491619,286.
6.02,6791.,24.,13.,3159.,0.,0.,9987.,0.840355223214,1.8207696503,312.
6.04,6786.,27.,10.,3164.,0.,0.,9987.,0.839736496058,1.61727028871,351.
6.06,6782.,24.,19.,3161.,0.,0.,9986.,0.839325556144,1.81853870498,312.
6.08,6769.,34.,9.,3175.,0.,0.,9987.,0.837632823728,1.28108549511,442.
6.1,6770.,26.,15.,3177.,0.,0.,9988.,0.837672692851,1.6753453857,338.
6.12,6754.,27.,22.,3183.,0.,0.,9986.,0.835860337097,1.60980509367,351.
6.14,6738.,34.,17.,3200.,0.,0.,9989.,0.833629772381,1.27496318129,442.
6.16,6729.,33.,13.,3212.,0.,0.,9987.,0.832683006481,1.31210655567,429.
6.18,6722.,34.,16.,3214.,0.,0.,9986.,0.831900086759,1.27231777975,442.
6.2,6710.,34.,17.,3223.,0.,0.,9984.,0.830581342039,1.27030087606,442.
6.22,6698.,32.,15.,3236.,0.,0.,9981.,0.829345152937,1.34768587352,416.
6.24,6699.,27.,14.,3244.,0.,0.,9984.,0.829219733282,1.59701578262,351.
6.26,6689.,29.,12.,3247.,0.,0.,9977.,0.828562830597,1.48569886866,377.
6.28,6688.,26.,16.,3249.,0.,0.,9979.,0.828272924667,1.65654584933,338.
6.3,6690.,22.,13.,3253.,0.,0.,9978.,0.828603648676,1.95851771505,286.
6.32,6688.,18.,15.,3255.,0.,0.,9976.,0.828522004335,2.39350801252,234.
6.34,6693.,20.,12.,3254.,0.,0.,9979.,0.828892147846,2.1551195844,260.
6.36,6685.,20.,8.,3265.,0.,0.,9978.,0.827984363438,2.15275934494,260.
6.38,6692.,14.,10.,3264.,0.,0.,9980.,0.828685260294,3.07797382395,182.
6.4,6690.,12.,4.,3274.,0.,0.,9980.,0.828437595841,3.58989624864,156.
6.42,6694.,7.,6.,3271.,0.,0.,9978.,0.829099076867,6.15902171387,91.
6.44,6697.,7.,5.,3272.,0.,0.,9981.,0.829221333117,6.15992990315,91.
6.46,6699.,3.,5.,3271.,0.,0.,9978.,0.829718362105,14.3817849432,39.
6.48,6705.,7.,2.,3267.,0.,0.,9981.,0.830211891675,6.16728833816,91.
6.5,6714.,8.,2.,3258.,0.,0.,9982.,0.831242987518,5.40307941887,104.
6.52,6724.,6.,1.,3251.,0.,0.,9982.,0.832481061673,7.21483586783,78.
6.54,6733.,4.,4.,3241.,0.,0.,9982.,0.833595328412,10.8367392694,52.
6.56,6737.,1.,1.,3241.,0.,0.,9980.,0.83425771049,43.3814009455,13.
6.58,6743.,2.,0.,3233.,0.,0.,9978.,0.835168072201,21.7143698772,26.
6.6,6744.,1.,1.,3228.,0.,0.,9974.,0.835626916988,43.4525996834,13.
6.62,6753.,1.,1.,3220.,0.,0.,9975.,0.836658193547,43.5062260645,13.
6.64,6760.,0.,2.,3211.,0.,0.,9973.,0.837693412211,inf,0.
6.66,6771.,0.,1.,3203.,0.,0.,9975.,0.838888290909,inf,0.
6.68,6770.,2.,2.,3195.,0.,0.,9969.,0.839269220202,21.8209997253,26.
6.7,6777.,1.,2.,3191.,0.,0.,9971.,0.839968486164,43.6783612805,13.
6.72,6784.,1.,0.,3184.,0.,0.,9969.,0.841004784321,43.7322487847,13.
6.74,6788.,0.,0.,3180.,0.,0.,9968.,0.841585079994,inf,0.
6.76,6795.,0.,0.,3173.,0.,0.,9968.,0.84245294911,inf,0.
6.78,6803.,0.,0.,3165.,0.,0.,9968.,0.843444799528,inf,0.
6.8,6811.,0.,0.,3161.,0.,0.,9972.,0.844097926862,inf,0.
6.82,6819.,3.,0.,3148.,0.,0.,9970.,0.845258905882,14.6511543686,39.
6.84,6820.,4.,2.,3144.,0.,0.,9970.,0.845382862313,10.9899772101,52.
6.86,6827.,7.,3.,3132.,0.,0.,9969.,0.846335445542,6.28706330974,91.
6.88,6828.,9.,6.,3126.,0.,0.,9969.,0.846459414408,4.89065439436,117.
6.9,6824.,13.,6.,3124.,0.,0.,9967.,0.846133291838,3.38453316735,169.
6.92,6829.,11.,10.,3123.,0.,0.,9973.,0.846243833135,4.000425393,143.
6.94,6817.,13.,12.,3126.,0.,0.,9968.,0.84518053776,3.38072215104,169.
6.96,6817.,17.,11.,3126.,0.,0.,9971.,0.844926246153,2.58448028235,221.
6.98,6819.,14.,10.,3129.,0.,0.,9972.,0.845089379426,3.1389034093,182.
7.,6813.,16.,12.,3130.,0.,0.,9971.,0.844430470155,2.744399028,208.
7.02,6810.,18.,8.,3134.,0.,0.,9970.,0.844143297999,2.43863619422,234.
7.04,6811.,18.,7.,3133.,0.,0.,9969.,0.844351943692,2.43923894844,234.
7.06,6808.,20.,13.,3130.,0.,0.,9971.,0.843810750156,2.19390795041,260.
7.08,6804.,23.,9.,3135.,0.,0.,9971.,0.843314974157,1.90662515896,299.
7.1,6794.,31.,11.,3134.,0.,0.,9970.,0.842159995096,1.41265547564,403.
7.12,6778.,35.,18.,3135.,0.,0.,9966.,0.840513909409,1.24876352255,455.
7.14,6770.,37.,19.,3138.,0.,0.,9964.,0.839690370955,1.18010538621,481.
7.16,6776.,29.,17.,3149.,0.,0.,9971.,0.839844542165,1.50592814457,377.
7.18,6763.,29.,25.,3154.,0.,0.,9971.,0.838233270168,1.5030389672,377.
7.2,6735.,42.,18.,3173.,0.,0.,9968.,0.835014070972,1.03382694501,546.
7.22,6716.,42.,21.,3187.,0.,0.,9966.,0.832825526053,1.03111731797,546.
7.24,6702.,39.,19.,3206.,0.,0.,9966.,0.831089439489,1.10811925265,507.
7.26,6705.,33.,17.,3215.,0.,0.,9970.,0.831127872699,1.30965604183,429.
7.28,6699.,26.,17.,3224.,0.,0.,9966.,0.830717420939,1.66143484188,338.
7.3,6698.,21.,13.,3236.,0.,0.,9968.,0.830426762787,2.05629484119,273.
7.32,6695.,22.,10.,3240.,0.,0.,9967.,0.830138099187,1.96214459808,286.
7.34,6693.,13.,10.,3250.,0.,0.,9966.,0.829973383841,3.31989353536,169.
7.36,6699.,12.,7.,3251.,0.,0.,9969.,0.830467430744,3.59869219989,156.
7.38,6709.,12.,8.,3242.,0.,0.,9971.,0.831540294183,3.60334127479,156.
7.4,6711.,13.,5.,3244.,0.,0.,9973.,0.831621374164,3.32648549666,169.
7.42,6717.,8.,5.,3243.,0.,0.,9973.,0.832364889027,5.41037177868,104.
7.44,6719.,7.,3.,3243.,0.,0.,9972.,0.832696222374,6.1857433662,91.
7.46,6720.,9.,3.,3238.,0.,0.,9970.,0.832987219171,4.8128150441,117.
7.48,6727.,8.,4.,3233.,0.,0.,9972.,0.833687674938,5.4189698871,104.
7.5,6730.,4.,2.,3235.,0.,0.,9971.,0.834143118177,10.8438605363,52.
7.52,6735.,1.,0.,3237.,0.,0.,9973.,0.834595433616,43.398962548,13.
7.54,6745.,2.,0.,3229.,0.,0.,9976.,0.835583271418,21.7251650569,26.
7.56,6750.,1.,0.,3225.,0.,0.,9976.,0.836202680811,43.4825394022,13.
7.58,6756.,2.,0.,3217.,0.,0.,9975.,0.837029876441,21.7627767875,26.
7.6,6769.,1.,2.,3208.,0.,0.,9980.,0.838220341741,43.5874577705,13.
7.62,6777.,1.,1.,3204.,0.,0.,9983.,0.838958807527,43.6258579914,13.
7.64,6785.,0.,1.,3196.,0.,0.,9982.,0.840033314017,inf,0.
7.66,6791.,1.,1.,3190.,0.,0.,9983.,0.840691937718,43.7159807614,13.
7.68,6791.,3.,0.,3185.,0.,0.,9979.,0.841028922161,14.5778346508,39.
7.7,6800.,2.,1.,3174.,0.,0.,9977.,0.842312340867,21.9001208626,26.
7.72,6805.,2.,1.,3170.,0.,0.,9978.,0.842847209154,21.914027438,26.
7.74,6811.,1.,1.,3163.,0.,0.,9976.,0.843759475408,43.8754927212,13.
7.76,6816.,0.,1.,3160.,0.,0.,9977.,0.844294252258,inf,0.
7.78,6826.,1.,0.,3150.,0.,0.,9977.,0.845532946877,43.9677132376,13.
7.8,6831.,1.,1.,3145.,0.,0.,9978.,0.846067492393,43.9955096044,13.
7.82,6839.,3.,1.,3138.,0.,0.,9981.,0.846803747527,14.6779316238,39.
7.84,6841.,5.,2.,3135.,0.,0.,9983.,0.846881688401,8.80756955937,65.
7.86,6844.,5.,3.,3129.,0.,0.,9981.,0.847422846626,8.81319760491,65.
7.88,6851.,9.,3.,3118.,0.,0.,9981.,0.848289585364,4.90122871544,117.
7.9,6852.,9.,4.,3115.,0.,0.,9980.,0.848498416547,4.90243529561,117.
7.92,6854.,6.,5.,3114.,0.,0.,9979.,0.84883113422,7.35653649658,78.
7.94,6854.,9.,6.,3109.,0.,0.,9978.,0.848916204488,4.90484918149,117.
7.96,6842.,19.,4.,3109.,0.,0.,9974.,0.847769775509,2.32021201718,247.
7.98,6843.,14.,8.,3106.,0.,0.,9971.,0.848148790146,3.15026693483,182.
8.,6850.,12.,8.,3107.,0.,0.,9977.,0.848505813962,3.67685852717,156.
8.02,6853.,13.,7.,3107.,0.,0.,9980.,0.848622248774,3.3944889951,169.
8.04,6850.,17.,7.,3104.,0.,0.,9978.,0.848420776298,2.59516943338,221.
8.06,6846.,21.,7.,3102.,0.,0.,9976.,0.84809534116,2.10004560668,273.
8.08,6837.,26.,8.,3107.,0.,0.,9978.,0.846810634679,1.69362126936,338.
8.1,6831.,30.,11.,3110.,0.,0.,9982.,0.845728455129,1.46592932222,390.
8.12,6826.,30.,12.,3112.,0.,0.,9980.,0.845278778656,1.465149883,390.
8.14,6819.,27.,22.,3111.,0.,0.,9979.,0.844496571965,1.6264378423,351.
8.16,6809.,26.,20.,3122.,0.,0.,9977.,0.843427166024,1.68685433205,338.
8.18,6804.,29.,14.,3130.,0.,0.,9977.,0.842807818715,1.51124160597,377.
8.2,6802.,28.,13.,3137.,0.,0.,9980.,0.842306805218,1.56428406683,364.
8.22,6788.,32.,16.,3142.,0.,0.,9978.,0.840741639344,1.36620516393,416.
8.24,6782.,36.,13.,3151.,0.,0.,9982.,0.83966189177,1.21284495478,468.
8.26,6775.,28.,20.,3157.,0.,0.,9980.,0.8389633351,1.55807476519,364.
8.28,6761.,30.,17.,3172.,0.,0.,9980.,0.837229683928,1.45119811881,390.
8.3,6757.,29.,16.,3183.,0.,0.,9985.,0.836315359351,1.4995999547,377.
8.32,6749.,25.,16.,3194.,0.,0.,9984.,0.835408863997,1.73765043711,325.
8.34,6743.,23.,18.,3203.,0.,0.,9987.,0.834415442517,1.88650447873,299.
8.36,6739.,19.,10.,3219.,0.,0.,9987.,0.833920460793,2.28230862954,247.
8.38,6733.,20.,6.,3229.,0.,0.,9988.,0.833094570305,2.16604588279,260.
8.4,6737.,18.,3.,3233.,0.,0.,9991.,0.83333920035,2.40742435657,234.
8.42,6746.,14.,7.,3230.,0.,0.,9997.,0.833951641621,3.09753466888,182.
8.44,6756.,8.,8.,3227.,0.,0.,9999.,0.83502080383,5.4276352249,104.
8.46,6761.,8.,4.,3231.,0.,0.,10004.,0.835221136106,5.42893738469,104.
8.48,6758.,7.,6.,3231.,0.,0.,10002.,0.83501746738,6.20298690054,91.
8.5,6756.,11.,1.,3233.,0.,0.,10001.,0.834853816368,3.94658167738,143.
8.52,6766.,4.,2.,3229.,0.,0.,10001.,0.836089538417,10.8691639994,52.
8.54,6768.,3.,2.,3222.,0.,0.,9995.,0.836838735863,14.505204755,39.
8.56,6775.,1.,3.,3217.,0.,0.,9996.,0.837620456613,43.5562637439,13.
8.58,6783.,1.,1.,3214.,0.,0.,9999.,0.838357920719,43.5946118774,13.
8.6,6787.,5.,1.,3204.,0.,0.,9997.,0.839020129214,8.72580934383,65.
8.62,6792.,3.,4.,3199.,0.,0.,9998.,0.839554256838,14.5522737852,39.
8.64,6795.,2.,2.,3194.,0.,0.,9993.,0.840345341412,21.8489788767,26.
8.66,6800.,3.,0.,3190.,0.,0.,9993.,0.840963697071,14.5767040826,39.
8.68,6805.,0.,0.,3191.,0.,0.,9996.,0.841329477085,inf,0.
8.7,6823.,0.,0.,3174.,0.,0.,9997.,0.843470508565,inf,0.
8.72,6833.,0.,0.,3165.,0.,0.,9998.,0.844622237481,inf,0.
8.74,6839.,0.,0.,3160.,0.,0.,9999.,0.845279348341,inf,0.
8.76,6847.,1.,0.,3150.,0.,0.,9998.,0.846352767457,44.0103439078,13.
8.78,6851.,2.,0.,3141.,0.,0.,9994.,0.84718614684,22.0268398178,26.
8.8,6859.,0.,2.,3132.,0.,0.,9993.,0.848260293855,inf,0.
8.82,6861.,2.,3.,3130.,0.,0.,9996.,0.848252981966,22.0545775311,26.
8.84,6862.,5.,2.,3123.,0.,0.,9992.,0.848716238326,8.82664887859,65.
8.86,6869.,7.,3.,3117.,0.,0.,9996.,0.849242054092,6.30865525897,91.
8.88,6874.,8.,4.,3111.,0.,0.,9997.,0.849775212645,5.52353888219,104.
8.9,6878.,7.,5.,3105.,0.,0.,9995.,0.850439838249,6.31755308413,91.
8.92,6882.,7.,5.,3102.,0.,0.,9996.,0.850849296297,6.32059477249,91.
8.94,6881.,9.,4.,3102.,0.,0.,9996.,0.850725662281,4.91530382651,117.
8.96,6879.,7.,13.,3100.,0.,0.,9999.,0.850223225214,6.31594395873,91.
8.98,6872.,14.,12.,3101.,0.,0.,9999.,0.849358046761,3.1547584594,182.
9.,6870.,18.,14.,3101.,0.,0.,10003.,0.848771310439,2.45200600794,234.
9.02,6859.,26.,10.,3106.,0.,0.,10001.,0.847581753474,1.69516350695,338.
9.04,6852.,23.,13.,3109.,0.,0.,9997.,0.847055536375,1.91508208224,299.
9.06,6846.,26.,10.,3113.,0.,0.,9995.,0.846483153918,1.69296630784,338.
9.08,6843.,23.,13.,3116.,0.,0.,9995.,0.846112214762,1.91294935511,299.
9.1,6833.,28.,20.,3115.,0.,0.,9996.,0.844791229526,1.56889799769,364.
9.12,6824.,27.,20.,3126.,0.,0.,9997.,0.843594130214,1.62469980634,351.
9.14,6823.,35.,16.,3125.,0.,0.,9999.,0.843301797592,1.25290552785,455.
9.16,6815.,41.,13.,3133.,0.,0.,10002.,0.84206037884,1.06797901706,533.
9.18,6810.,35.,18.,3141.,0.,0.,10004.,0.841274358361,1.24989333242,455.
9.2,6791.,42.,6.,3167.,0.,0.,10006.,0.838759505721,1.03846414994,546.
9.22,6787.,36.,12.,3169.,0.,0.,10004.,0.838433049956,1.21106996105,468.
9.24,6772.,39.,13.,3177.,0.,0.,10001.,0.836830971647,1.11577462886,507.
9.26,6770.,31.,11.,3191.,0.,0.,10003.,0.836416560651,1.40302132754,403.
9.28,6770.,26.,17.,3188.,0.,0.,10001.,0.836583827237,1.67316765447,338.
9.3,6761.,23.,14.,3203.,0.,0.,10001.,0.835471677393,1.88889248802,299.
9.32,6759.,21.,9.,3214.,0.,0.,10003.,0.835057538175,2.0677615231,273.
9.34,6765.,19.,4.,3214.,0.,0.,10002.,0.835882386332,2.28767810996,247.
9.36,6757.,27.,5.,3212.,0.,0.,10001.,0.834977388573,1.60810460021,351.
9.38,6766.,17.,10.,3211.,0.,0.,10004.,0.835838811846,2.55668342447,221.
9.4,6766.,15.,9.,3214.,0.,0.,10004.,0.835838811846,2.89757454773,195.
9.42,6764.,12.,17.,3214.,0.,0.,10007.,0.835341239379,3.61981203731,156.
9.44,6765.,13.,8.,3223.,0.,0.,10009.,0.835297794794,3.34119117917,169.
9.46,6770.,10.,11.,3214.,0.,0.,10005.,0.836249360939,4.34849667688,130.
9.48,6769.,11.,4.,3218.,0.,0.,10002.,0.836376625732,3.95378041255,143.
9.5,6767.,4.,3.,3223.,0.,0.,9997.,0.836547696242,10.8751200511,52.
9.52,6771.,4.,1.,3221.,0.,0.,9997.,0.837042182837,10.8815483769,52.
9.54,6775.,4.,1.,3217.,0.,0.,9997.,0.837536669431,10.8879767026,52.
9.56,6783.,2.,2.,3211.,0.,0.,9998.,0.838441773282,21.7994861053,26.
9.58,6788.,1.,0.,3205.,0.,0.,9994.,0.839395645125,43.6485735465,13.
9.6,6797.,0.,0.,3199.,0.,0.,9996.,0.840340404959,inf,0.
9.62,6800.,0.,0.,3196.,0.,0.,9996.,0.840711307006,inf,0.
9.64,6810.,0.,0.,3189.,0.,0.,9999.,0.841695037608,inf,0.
9.66,6822.,0.,0.,3174.,0.,0.,9996.,0.843431255352,inf,0.
9.68,6826.,1.,0.,3168.,0.,0.,9995.,0.844010226212,43.888531763,13.
9.7,6833.,2.,0.,3164.,0.,0.,9999.,0.84453776681,21.9579819371,26.
9.72,6841.,2.,0.,3158.,0.,0.,10001.,0.845357453785,21.9792937984,26.
9.74,6845.,2.,0.,3154.,0.,0.,10001.,0.845851742605,21.9921453077,26.
9.76,6849.,1.,0.,3156.,0.,0.,10006.,0.84592311216,43.9880018323,13.
9.78,6855.,0.,1.,3151.,0.,0.,10007.,0.846579567703,inf,0.
9.8,6858.,1.,0.,3146.,0.,0.,10005.,0.847119367403,44.050207105,13.
9.82,6862.,2.,1.,3142.,0.,0.,10007.,0.847444054497,22.0335454169,26.
9.84,6864.,3.,4.,3134.,0.,0.,10005.,0.847860504208,14.6962487396,39.
9.86,6869.,7.,3.,3130.,0.,0.,10009.,0.848139032141,6.30046138162,91.
9.88,6873.,2.,7.,3130.,0.,0.,10012.,0.84837864115,22.0578446699,26.
9.9,6875.,8.,2.,3128.,0.,0.,10013.,0.848540761653,5.51551495074,104.
9.92,6881.,6.,3.,3123.,0.,0.,10013.,0.849281306318,7.36043798809,78.
9.94,6884.,5.,5.,3120.,0.,0.,10014.,0.849566732277,8.83549401568,65.
9.96,6886.,12.,0.,3117.,0.,0.,10015.,0.849728701774,3.68215770769,156.
9.98,6895.,10.,4.,3107.,0.,0.,10016.,0.850754348927,4.42392261442,130.
10.,6899.,3.,7.,3107.,0.,0.,10016.,0.851247897498,14.7549635566,39.
