t,prevalence
5.,9
5.02,7
5.04,5
5.06,7
5.08,10
5.1,9
5.12,4
5.14,2
5.16,8
5.18,6
5.2,5
5.22,14
5.24,10
5.26,11
5.28,5
5.3,2
5.32,6
5.34,7
5.36,8
5.38,4
5.4,3
5.42,3
5.44,3
5.46,3
5.48,1
5.5,2
5.52,2
5.54,5
5.56,2
5.58,1
5.6,0
5.62,1
5.64,0
5.66,0
5.68,1
5.7,0
5.72,0
5.74,0
5.76,0
5.78,0
5.8,0
5.82,1
5.84,2
5.86,2
5.88,3
5.9,2
5.92,1
5.94,1
5.96,5
5.98,2
6.,6
6.02,4
6.04,5
6.06,10
6.08,4
6.1,5
6.12,8
6.14,8
6.16,9
6.18,9
6.2,7
6.22,10
6.24,14
6.26,10
6.28,6
6.3,5
6.32,2
6.34,7
6.36,6
6.38,5
6.4,4
6.42,4
6.44,6
6.46,4
6.48,1
6.5,5
6.52,1
6.54,0
6.56,0
6.58,1
6.6,0
6.62,0
6.64,0
6.66,1
6.68,0
6.7,0
6.72,1
6.74,0
6.76,0
6.78,0
6.8,0
6.82,0
6.84,0
6.86,2
6.88,3
6.9,2
6.92,2
6.94,1
6.96,1
6.98,5
7.,5
7.02,2
7.04,4
7.06,6
7.08,5
7.1,12
7.12,6
7.14,9
7.16,9
7.18,8
7.2,4
7.22,6
7.24,9
7.26,9
7.28,5
7.3,2
7.32,3
7.34,3
7.36,6
7.38,5
7.4,4
7.42,5
7.44,3
7.46,0
7.48,0
7.5,1
7.52,3
7.54,1
7.56,0
7.58,0
7.6,0
7.62,0
7.64,0
7.66,0
7.68,0
7.7,0
7.72,0
7.74,0
7.76,0
7.78,1
7.8,1
7.82,0
7.84,1
7.86,2
7.88,1
7.9,3
7.92,3
7.94,5
7.96,2
7.98,3
8.,7
8.02,3
8.04,3
8.06,6
8.08,4
8.1,7
8.12,3
8.14,4
8.16,8
8.18,11
8.2,3
8.22,7
8.24,9
8.26,8
8.28,8
8.3,9
8.32,8
8.34,6
8.36,6
8.38,3
8.4,1
8.42,2
8.44,1
8.46,1
8.48,4
8.5,1
8.52,1
8.54,0
8.56,0
8.58,0
8.6,0
8.62,0
8.64,0
8.66,0
8.68,0
8.7,0
8.72,1
8.74,0
8.76,0
8.78,1
8.8,1
8.82,1
8.84,0
8.86,0
8.88,1
8.9,1
8.92,2
8.94,1
8.96,0
8.98,6
9.,6
9.02,5
9.04,3
9.06,7
9.08,12
9.1,3
9.12,12
9.14,9
9.16,6
9.18,9
9.2,3
9.22,5
9.24,4
9.26,6
9.28,10
9.3,5
9.32,5
9.34,7
9.36,5
9.38,6
9.4,0
9.42,5
9.44,1
9.46,1
9.48,1
9.5,1
9.52,1
9.54,1
9.56,0
9.58,0
9.6,0
9.62,0
9.64,0
9.66,0
9.68,0
9.7,0
9.72,1
9.74,0
9.76,0
9.78,0
9.8,1
9.82,0
9.84,1
9.86,0
9.88,1
9.9,1
9.92,3
9.94,1
9.96,3
9.98,4
10.,3
