t,s,e,i,r,c,o,n,reff,coal,reportr
5.,4820.,13.,23.,5144.,0.,0.,10000.,0.782290957671,3.12916383069,169.
5.02,4827.,21.,10.,5152.,0.,0.,10010.,0.782644420451,1.93797666016,273.
5.04,4819.,20.,15.,5154.,0.,0.,10008.,0.78150345388,2.03190898009,260.
5.06,4814.,27.,10.,5157.,0.,0.,10008.,0.780692597422,1.50355611355,351.
5.08,4814.,22.,13.,5156.,0.,0.,10005.,0.780926688156,1.84582671746,286.
5.1,4805.,27.,16.,5152.,0.,0.,10000.,0.779856442243,1.50194574062,351.
5.12,4808.,22.,17.,5152.,0.,0.,9999.,0.780421387467,1.84463237038,286.
5.14,4800.,29.,13.,5154.,0.,0.,9996.,0.779356679772,1.39746714994,377.
5.16,4795.,25.,24.,5152.,0.,0.,9996.,0.778544849897,1.61937328779,325.
5.18,4786.,28.,19.,5163.,0.,0.,9996.,0.777083556123,1.44315517566,364.
5.2,4770.,31.,16.,5176.,0.,0.,9993.,0.774718208989,1.2995273183,403.
5.22,4768.,30.,17.,5180.,0.,0.,9995.,0.774238423398,1.34201326722,390.
5.24,4765.,29.,17.,5185.,0.,0.,9996.,0.773673870649,1.3872772853,377.
5.26,4770.,26.,15.,5189.,0.,0.,10000.,0.774175906243,1.54835181249,338.
5.28,4773.,21.,12.,5192.,0.,0.,9998.,0.774817772883,1.91859639,273.
5.3,4778.,23.,9.,5193.,0.,0.,10003.,0.775241741949,1.75272046006,299.
5.32,4796.,20.,7.,5184.,0.,0.,10007.,0.77785123712,2.02241321651,260.
5.34,4799.,19.,6.,5182.,0.,0.,10006.,0.778415586719,2.13040055313,247.
5.36,4816.,13.,4.,5174.,0.,0.,10007.,0.781094987066,3.12437994826,169.
5.38,4820.,13.,3.,5172.,0.,0.,10008.,0.781665625171,3.12666250068,169.
5.4,4825.,11.,8.,5163.,0.,0.,10007.,0.782554674542,3.69934937056,143.
5.42,4829.,12.,2.,5161.,0.,0.,10004.,0.783438291612,3.39489926365,156.
5.44,4837.,8.,6.,5154.,0.,0.,10005.,0.784657746284,5.10027535084,104.
5.46,4844.,7.,8.,5147.,0.,0.,10006.,0.785714753505,5.83673816889,91.
5.48,4849.,5.,5.,5148.,0.,0.,10007.,0.786447174477,8.17905061457,65.
5.5,4861.,4.,3.,5142.,0.,0.,10010.,0.7881571427,10.2460428551,52.
5.52,4871.,2.,2.,5135.,0.,0.,10010.,0.789778531596,20.5342418215,26.
5.54,4881.,1.,2.,5124.,0.,0.,10008.,0.791558073954,41.1610198456,13.
5.56,4896.,1.,1.,5115.,0.,0.,10013.,0.79359416343,41.2668964983,13.
5.58,4906.,1.,1.,5101.,0.,0.,10009.,0.795532866548,41.3677090605,13.
5.6,4911.,3.,0.,5095.,0.,0.,10009.,0.796343641993,13.8032897945,39.
5.62,4925.,4.,1.,5083.,0.,0.,10013.,0.798294782453,10.3778321719,52.
5.64,4934.,2.,0.,5074.,0.,0.,10010.,0.799993281646,20.7998253228,26.
5.66,4938.,1.,0.,5068.,0.,0.,10007.,0.800881861738,41.6458568104,13.
5.68,4954.,0.,1.,5054.,0.,0.,10009.,0.803316310819,inf,0.
5.7,4964.,0.,1.,5045.,0.,0.,10010.,0.804857448336,inf,0.
5.72,4976.,1.,0.,5034.,0.,0.,10011.,0.806722523351,41.9495712143,13.
5.74,4993.,2.,0.,5020.,0.,0.,10015.,0.809155302659,21.0380378691,26.
5.76,4999.,0.,2.,5011.,0.,0.,10012.,0.810370397307,inf,0.
5.78,5015.,1.,1.,5000.,0.,0.,10017.,0.812558309115,42.253032074,13.
5.8,5031.,1.,1.,4990.,0.,0.,10023.,0.814662750372,42.3624630193,13.
5.82,5041.,2.,1.,4979.,0.,0.,10023.,0.8162820363,21.2233329438,26.
5.84,5044.,3.,3.,4977.,0.,0.,10027.,0.816441994684,14.1516612412,39.
5.86,5051.,7.,0.,4972.,0.,0.,10030.,0.817330503758,6.07159802792,91.
5.88,5066.,6.,3.,4954.,0.,0.,10029.,0.819839476217,7.10527546054,78.
5.9,5068.,10.,3.,4947.,0.,0.,10028.,0.820244926959,4.26527362019,130.
5.92,5074.,6.,9.,4937.,0.,0.,10026.,0.821379831365,7.11862520516,78.
5.94,5068.,15.,7.,4933.,0.,0.,10023.,0.820654108306,2.84493424213,195.
5.96,5069.,18.,9.,4923.,0.,0.,10019.,0.821143740676,2.37219302862,234.
5.98,5067.,17.,4.,4928.,0.,0.,10016.,0.821065606755,2.51149479713,221.
6.,5076.,14.,5.,4924.,0.,0.,10019.,0.822277693366,3.05417428964,182.
6.02,5079.,13.,11.,4914.,0.,0.,10017.,0.82292794656,3.29171178624,169.
6.04,5073.,23.,8.,4912.,0.,0.,10016.,0.822037857326,1.85852037308,299.
6.06,5073.,19.,9.,4914.,0.,0.,10015.,0.822119937991,2.25001246187,247.
6.08,5074.,21.,12.,4904.,0.,0.,10011.,0.822610547324,2.0369404029,273.
6.1,5077.,22.,9.,4907.,0.,0.,10015.,0.822768169757,1.94472476488,286.
6.12,5087.,21.,13.,4899.,0.,0.,10020.,0.823977377542,2.04032493487,273.
6.14,5091.,26.,12.,4891.,0.,0.,10020.,0.82462528584,1.64925057168,338.
6.16,5097.,25.,14.,4883.,0.,0.,10019.,0.825679551435,1.71741346699,325.
6.18,5104.,22.,11.,4881.,0.,0.,10018.,0.826896036917,1.9544815418,286.
6.2,5102.,27.,11.,4878.,0.,0.,10018.,0.826572018093,1.59191647929,351.
6.22,5098.,27.,18.,4873.,0.,0.,10016.,0.826088901369,1.59098603227,351.
6.24,5087.,36.,12.,4882.,0.,0.,10017.,0.82422415124,1.19054599624,468.
6.26,5088.,29.,16.,4884.,0.,0.,10017.,0.824386176825,1.47820969638,377.
6.28,5080.,30.,19.,4887.,0.,0.,10016.,0.823172149658,1.42683172607,390.
6.3,5078.,30.,9.,4901.,0.,0.,10018.,0.822683792214,1.42598523984,390.
6.32,5072.,27.,11.,4907.,0.,0.,10017.,0.821793767464,1.58271392252,351.
6.34,5065.,31.,9.,4910.,0.,0.,10015.,0.820823474457,1.37686518296,403.
6.36,5073.,30.,6.,4904.,0.,0.,10013.,0.822284148505,1.42529252407,390.
6.38,5082.,21.,11.,4900.,0.,0.,10014.,0.823660702172,2.03954078633,273.
6.4,5083.,21.,5.,4906.,0.,0.,10015.,0.823740517407,2.03973842406,273.
6.42,5090.,18.,10.,4898.,0.,0.,10016.,0.824792567276,2.38273408324,234.
6.44,5093.,17.,3.,4902.,0.,0.,10015.,0.825361096824,2.52463394323,221.
6.46,5101.,12.,6.,4895.,0.,0.,10014.,0.826740110543,3.58254047902,156.
6.48,5102.,11.,7.,4897.,0.,0.,10017.,0.826654535016,3.90782143826,143.
6.5,5114.,7.,2.,4894.,0.,0.,10017.,0.828598842037,6.1553056837,91.
6.52,5127.,7.,1.,4885.,0.,0.,10020.,0.830456460519,6.16910513528,91.
6.54,5144.,4.,0.,4874.,0.,0.,10022.,0.833043794577,10.8295693295,52.
6.56,5147.,1.,2.,4871.,0.,0.,10021.,0.833612807116,43.34786597,13.
6.58,5160.,2.,0.,4859.,0.,0.,10021.,0.835718298955,21.7286757728,26.
6.6,5169.,0.,1.,4849.,0.,0.,10019.,0.837343064816,inf,0.
6.62,5174.,1.,0.,4844.,0.,0.,10019.,0.838153031023,43.5839576132,13.
6.64,5185.,0.,1.,4835.,0.,0.,10021.,0.839767321721,inf,0.
6.66,5192.,1.,0.,4826.,0.,0.,10019.,0.841068909369,43.7355832872,13.
6.68,5204.,1.,0.,4816.,0.,0.,10021.,0.842844579023,43.8279181092,13.
6.7,5218.,0.,1.,4804.,0.,0.,10023.,0.844943397226,inf,0.
6.72,5224.,0.,1.,4796.,0.,0.,10021.,0.846083797236,inf,0.
6.74,5231.,2.,0.,4789.,0.,0.,10022.,0.847132987837,22.0254576838,26.
6.76,5246.,1.,0.,4779.,0.,0.,10026.,0.849223215479,44.1596072049,13.
6.78,5256.,0.,1.,4769.,0.,0.,10026.,0.850842016881,inf,0.
6.8,5265.,2.,1.,4757.,0.,0.,10025.,0.852383955493,22.1619828428,26.
6.82,5280.,2.,0.,4745.,0.,0.,10027.,0.854641897686,22.2206893398,26.
6.84,5290.,3.,0.,4734.,0.,0.,10027.,0.856260537644,14.8418493192,39.
6.86,5295.,2.,2.,4730.,0.,0.,10029.,0.856898939314,22.2793724222,26.
6.88,5296.,6.,4.,4724.,0.,0.,10030.,0.856975321303,7.42711945129,78.
6.9,5299.,11.,1.,4720.,0.,0.,10031.,0.857375286963,4.0530468111,143.
6.92,5311.,8.,4.,4712.,0.,0.,10035.,0.858974352462,5.583333291,104.
6.94,5319.,11.,7.,4701.,0.,0.,10038.,0.860011128635,4.06550715355,143.
6.96,5323.,15.,9.,4691.,0.,0.,10038.,0.860657875113,2.98361396706,195.
6.98,5321.,13.,13.,4694.,0.,0.,10041.,0.860077455414,3.44030982166,169.
7.,5319.,16.,9.,4700.,0.,0.,10044.,0.859497382441,2.79336649293,208.
7.02,5318.,20.,12.,4692.,0.,0.,10042.,0.859506940744,2.23471804594,260.
7.04,5309.,30.,5.,4698.,0.,0.,10042.,0.858052340807,1.48729072407,390.
7.06,5319.,29.,7.,4686.,0.,0.,10041.,0.859754178791,1.54162818266,377.
7.08,5330.,25.,13.,4672.,0.,0.,10040.,0.861618010197,1.79216546121,325.
7.1,5330.,25.,11.,4676.,0.,0.,10042.,0.861446407327,1.79180852724,325.
7.12,5315.,26.,16.,4682.,0.,0.,10039.,0.859278779569,1.71855755914,338.
7.14,5304.,32.,13.,4691.,0.,0.,10040.,0.857414995513,1.39329936771,416.
7.16,5285.,39.,21.,4697.,0.,0.,10042.,0.854173407641,1.13889787685,507.
7.18,5259.,43.,22.,4714.,0.,0.,10038.,0.850309931471,1.02828177759,559.
7.2,5240.,50.,22.,4726.,0.,0.,10038.,0.847237885702,0.88112740113,650.
7.22,5235.,38.,27.,4740.,0.,0.,10040.,0.84626084116,1.15804115106,494.
7.24,5241.,30.,10.,4765.,0.,0.,10046.,0.846724756815,1.46765624515,390.
7.26,5239.,25.,15.,4765.,0.,0.,10044.,0.846570179848,1.76086597408,325.
7.28,5231.,30.,12.,4772.,0.,0.,10045.,0.845193310513,1.46500173822,390.
7.3,5228.,26.,14.,4778.,0.,0.,10046.,0.844624504604,1.68924900921,338.
7.32,5231.,28.,11.,4777.,0.,0.,10047.,0.845025062616,1.56933225914,364.
7.34,5229.,26.,15.,4774.,0.,0.,10044.,0.844954279523,1.68990855905,338.
7.36,5232.,24.,10.,4779.,0.,0.,10045.,0.845354884459,1.83160224966,312.
7.38,5234.,27.,5.,4775.,0.,0.,10041.,0.846014922315,1.62936207261,351.
7.4,5239.,20.,11.,4775.,0.,0.,10045.,0.84648590208,2.20086334541,260.
7.42,5242.,18.,3.,4783.,0.,0.,10046.,0.846886314677,2.44656046462,234.
7.44,5250.,9.,10.,4778.,0.,0.,10047.,0.848094356478,4.90010072632,117.
7.46,5263.,5.,9.,4775.,0.,0.,10052.,0.849771501517,8.83762361577,65.
7.48,5264.,9.,2.,4777.,0.,0.,10052.,0.849932962946,4.91072378591,117.
7.5,5276.,6.,0.,4769.,0.,0.,10051.,0.851955254896,7.3836122091,78.
7.52,5288.,2.,3.,4759.,0.,0.,10052.,0.853808037245,22.1990089684,26.
7.54,5293.,2.,2.,4758.,0.,0.,10055.,0.854360362189,22.2133694169,26.
7.56,5306.,3.,0.,4746.,0.,0.,10055.,0.856458734513,14.8452847316,39.
7.58,5321.,3.,0.,4735.,0.,0.,10059.,0.858538396442,14.881332205,39.
7.6,5332.,0.,0.,4728.,0.,0.,10060.,0.860227717987,inf,0.
7.62,5341.,0.,0.,4720.,0.,0.,10061.,0.861594069727,inf,0.
7.64,5351.,0.,0.,4711.,0.,0.,10062.,0.863121450843,inf,0.
7.66,5361.,0.,0.,4702.,0.,0.,10063.,0.864648528395,inf,0.
7.68,5369.,0.,1.,4692.,0.,0.,10062.,0.866024868169,inf,0.
7.7,5380.,1.,0.,4678.,0.,0.,10059.,0.868057991516,45.1390155588,13.
7.72,5386.,1.,0.,4674.,0.,0.,10061.,0.868853334497,45.1803733939,13.
7.74,5394.,0.,1.,4668.,0.,0.,10063.,0.8699709312,inf,0.
7.76,5405.,1.,0.,4660.,0.,0.,10066.,0.871485256686,45.3172333477,13.
7.78,5420.,1.,0.,4647.,0.,0.,10068.,0.873730209385,45.433970888,13.
7.8,5433.,2.,0.,4637.,0.,0.,10072.,0.875478046247,22.7624292024,26.
7.82,5449.,0.,2.,4626.,0.,0.,10077.,0.877620625818,inf,0.
7.84,5455.,2.,3.,4619.,0.,0.,10079.,0.878412650867,22.8387289225,26.
7.86,5457.,4.,5.,4613.,0.,0.,10079.,0.878734708667,11.4235512127,52.
7.88,5470.,5.,2.,4603.,0.,0.,10080.,0.880740700632,9.15970328657,65.
7.9,5475.,9.,5.,4595.,0.,0.,10084.,0.881196084272,5.09135515357,117.
7.92,5484.,8.,6.,4588.,0.,0.,10086.,0.882469602059,5.73605241338,104.
7.94,5486.,16.,5.,4577.,0.,0.,10084.,0.882966523893,2.86964120265,208.
7.96,5480.,15.,10.,4574.,0.,0.,10079.,0.882438373373,3.05911969436,195.
7.98,5482.,18.,5.,4572.,0.,0.,10077.,0.882935634196,2.55070294323,234.
8.,5488.,18.,2.,4572.,0.,0.,10080.,0.883638933285,2.55273469616,234.
8.02,5495.,13.,10.,4563.,0.,0.,10081.,0.884678258061,3.53871303224,169.
8.04,5499.,18.,6.,4558.,0.,0.,10081.,0.885322245874,2.55759759919,234.
8.06,5496.,21.,13.,4549.,0.,0.,10079.,0.885014835777,2.19146530764,273.
8.08,5478.,24.,18.,4555.,0.,0.,10075.,0.88246653545,1.91201082681,312.
8.1,5462.,33.,18.,4555.,0.,0.,10068.,0.880500812484,1.38745582573,429.
8.12,5455.,35.,15.,4560.,0.,0.,10065.,0.879634486645,1.30688552302,455.
8.14,5455.,29.,19.,4564.,0.,0.,10067.,0.879459730613,1.57696227558,377.
8.16,5448.,30.,20.,4567.,0.,0.,10065.,0.878505716452,1.52274324185,390.
8.18,5441.,29.,15.,4580.,0.,0.,10065.,0.877376946258,1.57322762777,377.
8.2,5436.,35.,15.,4575.,0.,0.,10061.,0.876919184242,1.30285135945,455.
8.22,5430.,32.,22.,4575.,0.,0.,10059.,0.876125444969,1.42370384807,416.
8.24,5426.,32.,19.,4584.,0.,0.,10061.,0.875306014293,1.42237227323,416.
8.26,5423.,28.,15.,4598.,0.,0.,10064.,0.874561285666,1.62418524481,364.
8.28,5424.,28.,10.,4598.,0.,0.,10060.,0.875070356782,1.6251306626,364.
8.3,5424.,24.,11.,4603.,0.,0.,10062.,0.874896421112,1.89560891241,312.
8.32,5422.,24.,18.,4598.,0.,0.,10062.,0.874573819187,1.89490994157,312.
8.34,5410.,24.,17.,4607.,0.,0.,10058.,0.872985250073,1.89146804182,312.
8.36,5404.,18.,19.,4614.,0.,0.,10055.,0.872277233567,2.51991200808,234.
8.38,5396.,28.,9.,4622.,0.,0.,10055.,0.870985927522,1.61754529397,364.
8.4,5399.,14.,16.,4625.,0.,0.,10054.,0.871556846239,3.23721114317,182.
8.42,5400.,15.,5.,4631.,0.,0.,10051.,0.871978464071,3.02285867545,195.
8.44,5404.,10.,8.,4628.,0.,0.,10050.,0.87271120234,4.53809825217,130.
8.46,5413.,8.,2.,4626.,0.,0.,10049.,0.874251634599,5.6826356249,104.
8.48,5416.,7.,4.,4619.,0.,0.,10046.,0.874997382734,6.49998055745,91.
8.5,5428.,4.,3.,4611.,0.,0.,10046.,0.876936077083,11.4001690021,52.
8.52,5433.,4.,0.,4606.,0.,0.,10043.,0.878006062113,11.4140788075,52.
8.54,5444.,1.,3.,4595.,0.,0.,10043.,0.879783729458,45.7487539318,13.
8.56,5459.,1.,2.,4586.,0.,0.,10048.,0.881768824565,45.8519788774,13.
8.58,5478.,0.,2.,4569.,0.,0.,10049.,0.884749760638,inf,0.
8.6,5485.,0.,0.,4563.,0.,0.,10048.,0.885968492899,inf,0.
8.62,5498.,1.,1.,4551.,0.,0.,10051.,0.887803258419,46.1657694378,13.
8.64,5515.,1.,0.,4534.,0.,0.,10050.,0.890636987584,46.3131233544,13.
8.66,5527.,1.,0.,4525.,0.,0.,10053.,0.892308549552,46.4000445767,13.
8.68,5531.,0.,1.,4517.,0.,0.,10049.,0.893309771101,inf,0.
8.7,5535.,1.,2.,4510.,0.,0.,10048.,0.894044778158,46.4903284642,13.
8.72,5545.,2.,0.,4505.,0.,0.,10052.,0.895303624532,23.2778942378,26.
8.74,5555.,2.,1.,4494.,0.,0.,10052.,0.896918238823,23.3198742094,26.
8.76,5573.,4.,0.,4478.,0.,0.,10055.,0.899556073773,11.6942289591,52.
8.78,5576.,2.,2.,4470.,0.,0.,10050.,0.900488094791,23.4126904646,26.
8.8,5582.,2.,1.,4461.,0.,0.,10046.,0.901815987892,23.4472156852,26.
8.82,5588.,4.,0.,4455.,0.,0.,10047.,0.902695478857,11.7350412251,52.
8.84,5597.,3.,3.,4444.,0.,0.,10047.,0.904149354896,15.6719221515,39.
8.86,5601.,9.,3.,4434.,0.,0.,10047.,0.904795522025,5.22770746059,117.
8.88,5615.,10.,2.,4419.,0.,0.,10046.,0.907147397351,4.71716646622,130.
8.9,5623.,2.,11.,4409.,0.,0.,10045.,0.908530297269,23.621787729,26.
8.92,5631.,6.,3.,4405.,0.,0.,10045.,0.909822888836,7.88513170324,78.
8.94,5637.,6.,5.,4394.,0.,0.,10042.,0.911064427412,7.89589170423,78.
8.96,5647.,6.,7.,4389.,0.,0.,10049.,0.91204488834,7.90438903228,78.
8.98,5650.,9.,7.,4380.,0.,0.,10046.,0.912801922534,5.27396666353,117.
9.,5654.,16.,5.,4369.,0.,0.,10044.,0.913630043302,2.96929764073,208.
9.02,5664.,15.,5.,4363.,0.,0.,10047.,0.914972654303,3.17190520158,195.
9.04,5660.,17.,9.,4358.,0.,0.,10044.,0.914599583496,2.79759872599,221.
9.06,5655.,20.,11.,4360.,0.,0.,10046.,0.913609711846,2.3753852508,260.
9.08,5653.,22.,14.,4356.,0.,0.,10045.,0.913377515643,2.1588923097,286.
9.1,5644.,26.,15.,4363.,0.,0.,10048.,0.911651080023,1.82330216005,338.
9.12,5649.,30.,14.,4360.,0.,0.,10053.,0.912004884462,1.5808084664,390.
9.14,5643.,30.,20.,4362.,0.,0.,10055.,0.910855001669,1.57881533623,390.
9.16,5631.,39.,10.,4375.,0.,0.,10055.,0.908918042601,1.21189072347,507.
9.18,5622.,34.,21.,4376.,0.,0.,10053.,0.907645859523,1.38816425574,442.
9.2,5613.,32.,18.,4390.,0.,0.,10053.,0.90619285121,1.47256338322,416.
9.22,5600.,34.,21.,4401.,0.,0.,10056.,0.903824343626,1.38231958437,442.
9.24,5594.,34.,24.,4406.,0.,0.,10058.,0.902676430482,1.3805639525,442.
9.26,5599.,22.,25.,4412.,0.,0.,10058.,0.903483256036,2.1355058779,286.
9.28,5587.,26.,18.,4428.,0.,0.,10059.,0.901457248811,1.80291449762,338.
9.3,5582.,32.,9.,4436.,0.,0.,10059.,0.900650503465,1.46355706813,416.
9.32,5581.,24.,17.,4435.,0.,0.,10057.,0.900668231488,1.95144783489,312.
9.34,5585.,20.,8.,4443.,0.,0.,10056.,0.901403385562,2.34364880246,260.
9.36,5582.,20.,4.,4449.,0.,0.,10055.,0.901008793074,2.34262286199,260.
9.38,5584.,18.,7.,4448.,0.,0.,10057.,0.901152374956,2.60332908321,234.
9.4,5590.,16.,3.,4448.,0.,0.,10057.,0.902120661892,2.93189215115,208.
9.42,5598.,10.,9.,4440.,0.,0.,10057.,0.903411711139,4.69774089792,130.
9.44,5605.,8.,2.,4444.,0.,0.,10059.,0.904361532054,5.87834995835,104.
9.46,5617.,10.,2.,4435.,0.,0.,10064.,0.905847453732,4.7104067594,130.
9.48,5632.,8.,2.,4424.,0.,0.,10066.,0.908086025098,5.90255916314,104.
9.5,5646.,5.,4.,4413.,0.,0.,10068.,0.910162502249,9.46569002339,65.
9.52,5655.,3.,4.,4405.,0.,0.,10067.,0.911703900388,15.8028676067,39.
9.54,5654.,2.,5.,4404.,0.,0.,10065.,0.911723810723,23.7048190788,26.
9.56,5663.,3.,1.,4403.,0.,0.,10070.,0.912721673038,15.8205089993,39.
9.58,5675.,3.,1.,4393.,0.,0.,10072.,0.914474123404,15.8508848057,39.
9.6,5684.,2.,1.,4386.,0.,0.,10073.,0.915833462076,23.811670014,26.
9.62,5695.,3.,0.,4373.,0.,0.,10071.,0.91778806242,15.9083264153,39.
9.64,5709.,1.,0.,4363.,0.,0.,10073.,0.919861582511,47.8328022906,13.
9.66,5723.,0.,1.,4352.,0.,0.,10076.,0.921842781325,inf,0.
9.68,5730.,0.,0.,4346.,0.,0.,10076.,0.922970319237,inf,0.
9.7,5736.,0.,0.,4338.,0.,0.,10074.,0.924120210278,inf,0.
9.72,5750.,0.,0.,4326.,0.,0.,10076.,0.926191856128,inf,0.
9.74,5758.,0.,0.,4317.,0.,0.,10075.,0.927572528499,inf,0.
9.76,5769.,0.,0.,4308.,0.,0.,10077.,0.929160100999,inf,0.
9.78,5776.,1.,0.,4300.,0.,0.,10077.,0.930287527019,48.374951405,13.
9.8,5787.,1.,0.,4289.,0.,0.,10077.,0.932059196478,48.4670782169,13.
9.82,5802.,2.,0.,4277.,0.,0.,10081.,0.934104322706,24.2867123903,26.
9.84,5808.,5.,0.,4269.,0.,0.,10082.,0.934977557916,9.72376660233,65.
9.86,5818.,6.,1.,4257.,0.,0.,10082.,0.936587367761,8.1170905206,78.
9.88,5826.,8.,1.,4246.,0.,0.,10081.,0.937968249584,6.09679362229,104.
9.9,5823.,8.,5.,4245.,0.,0.,10081.,0.937485258724,6.0936541817,104.
9.92,5827.,11.,0.,4244.,0.,0.,10082.,0.938036196621,4.43435292948,143.
9.94,5831.,11.,3.,4237.,0.,0.,10082.,0.938680120559,4.43739693355,143.
9.96,5833.,12.,1.,4235.,0.,0.,10081.,0.939095228256,4.06941265578,156.
9.98,5839.,7.,4.,4231.,0.,0.,10081.,0.940061209976,6.98331184553,91.
10.,5845.,9.,6.,4221.,0.,0.,10081.,0.941027191695,5.43704599646,117.
