t,cases
5.01,4.55
5.02,4.55
5.03,3.64
5.04,3.64
5.05,3.055
5.06,3.055
5.07,3.315
5.08,3.315
5.09,3.705
5.1,3.705
5.11,4.29
5.12,4.29
5.13,4.355
5.14,4.355
5.15,3.835
5.16,3.835
5.17,4.485
5.18,4.485
5.19,5.265
5.2,5.265
5.21,5.395
5.22,5.395
5.23,4.615
5.24,4.615
5.25,3.575
5.26,3.575
5.27,3.055
5.28,3.055
5.29,2.73
5.3,2.73
5.31,2.47
5.32,2.47
5.33,2.015
5.34,2.015
5.35,1.56
5.36,1.56
5.37,1.43
5.38,1.43
5.39,1.625
5.4,1.625
5.41,1.365
5.42,1.365
5.43,1.3
5.44,1.3
5.45,1.625
5.46,1.625
5.47,1.56
5.48,1.56
5.49,1.365
5.5,1.365
5.51,0.845
5.52,0.845
5.53,0.325
5.54,0.325
5.55,0.065
5.56,0.065
5.57,0.065
5.58,0.065
5.59,0.065
5.6,0.065
5.61,0.
5.62,0.
5.63,0.
5.64,0.
5.65,0.
5.66,0.
5.67,0.
5.68,0.
5.69,0.
5.7,0.
5.71,0.
5.72,0.
5.73,0.065
5.74,0.065
5.75,0.13
5.76,0.13
5.77,0.13
5.78,0.13
5.79,0.195
5.8,0.195
5.81,0.26
5.82,0.26
5.83,0.325
5.84,0.325
5.85,0.39
5.86,0.39
5.87,0.455
5.88,0.455
5.89,0.52
5.9,0.52
5.91,1.04
5.92,1.04
5.93,1.495
5.94,1.495
5.95,1.625
5.96,1.625
5.97,2.21
5.98,2.21
5.99,2.6
6.,2.6
6.01,2.535
6.02,2.535
6.03,2.925
6.04,2.925
6.05,3.185
6.06,3.185
6.07,3.38
6.08,3.38
6.09,3.51
6.1,3.51
6.11,3.705
6.12,3.705
6.13,4.03
6.14,4.03
6.15,4.29
6.16,4.29
6.17,4.355
6.18,4.355
6.19,3.51
6.2,3.51
6.21,3.12
6.22,3.12
6.23,3.445
6.24,3.445
6.25,3.575
6.26,3.575
6.27,3.705
6.28,3.705
6.29,3.705
6.3,3.705
6.31,3.12
6.32,3.12
6.33,2.535
6.34,2.535
6.35,2.145
6.36,2.145
6.37,1.82
6.38,1.82
6.39,1.365
6.4,1.365
6.41,1.04
6.42,1.04
6.43,0.91
6.44,0.91
6.45,0.65
6.46,0.65
6.47,0.52
6.48,0.52
6.49,0.585
6.5,0.585
6.51,0.65
6.52,0.65
6.53,0.585
6.54,0.585
6.55,0.455
6.56,0.455
6.57,0.455
6.58,0.455
6.59,0.585
6.6,0.585
6.61,0.455
6.62,0.455
6.63,0.13
6.64,0.13
6.65,0.13
6.66,0.13
6.67,0.13
6.68,0.13
6.69,0.
6.7,0.
6.71,0.
6.72,0.
6.73,0.
6.74,0.
6.75,0.
6.76,0.
6.77,0.
6.78,0.
6.79,0.065
6.8,0.065
6.81,0.065
6.82,0.065
6.83,0.195
6.84,0.195
6.85,0.52
6.86,0.52
6.87,0.65
6.88,0.65
6.89,0.715
6.9,0.715
6.91,0.975
6.92,0.975
6.93,1.3
6.94,1.3
6.95,1.3
6.96,1.3
6.97,1.235
6.98,1.235
6.99,1.495
7.,1.495
7.01,1.56
7.02,1.56
7.03,1.495
7.04,1.495
7.05,1.82
7.06,1.82
7.07,2.47
7.08,2.47
7.09,3.315
7.1,3.315
7.11,3.575
7.12,3.575
7.13,2.99
7.14,2.99
7.15,2.795
7.16,2.795
7.17,3.055
7.18,3.055
7.19,2.99
7.2,2.99
7.21,3.51
7.22,3.51
7.23,3.64
7.24,3.64
7.25,3.64
7.26,3.64
7.27,3.965
7.28,3.965
7.29,3.835
7.3,3.835
7.31,3.64
7.32,3.64
7.33,3.12
7.34,3.12
7.35,2.535
7.36,2.535
7.37,2.275
7.38,2.275
7.39,2.21
7.4,2.21
7.41,2.145
7.42,2.145
7.43,2.145
7.44,2.145
7.45,1.56
7.46,1.56
7.47,0.975
7.48,0.975
7.49,0.715
7.5,0.715
7.51,0.26
7.52,0.26
7.53,0.
7.54,0.
7.55,0.
7.56,0.
7.57,0.
7.58,0.
7.59,0.
7.6,0.
7.61,0.
7.62,0.
7.63,0.065
7.64,0.065
7.65,0.13
7.66,0.13
7.67,0.13
7.68,0.13
7.69,0.065
7.7,0.065
7.71,0.065
7.72,0.065
7.73,0.065
7.74,0.065
7.75,0.065
7.76,0.065
7.77,0.195
7.78,0.195
7.79,0.325
7.8,0.325
7.81,0.195
7.82,0.195
7.83,0.065
7.84,0.065
7.85,0.26
7.86,0.26
7.87,0.65
7.88,0.65
7.89,0.91
7.9,0.91
7.91,0.91
7.92,0.91
7.93,1.04
7.94,1.04
7.95,1.235
7.96,1.235
7.97,1.105
7.98,1.105
7.99,1.105
8.,1.105
8.01,1.3
8.02,1.3
8.03,2.405
8.04,2.405
8.05,3.445
8.06,3.445
8.07,3.185
8.08,3.185
8.09,3.64
8.1,3.64
8.11,3.9
8.12,3.9
8.13,3.64
8.14,3.64
8.15,3.835
8.16,3.835
8.17,4.29
8.18,4.29
8.19,4.03
8.2,4.03
8.21,2.925
8.22,2.925
8.23,2.73
8.24,2.73
8.25,2.925
8.26,2.925
8.27,2.73
8.28,2.73
8.29,2.73
8.3,2.73
8.31,2.665
8.32,2.665
8.33,2.47
8.34,2.47
8.35,2.665
8.36,2.665
8.37,2.405
8.38,2.405
8.39,1.82
8.4,1.82
8.41,1.625
8.42,1.625
8.43,1.105
8.44,1.105
8.45,0.65
8.46,0.65
8.47,0.52
8.48,0.52
8.49,0.325
8.5,0.325
8.51,0.195
8.52,0.195
8.53,0.195
8.54,0.195
8.55,0.26
8.56,0.26
8.57,0.26
8.58,0.26
8.59,0.195
8.6,0.195
8.61,0.0649999999999
8.62,0.0650000000001
8.63,0.0649999999999
8.64,0.0650000000001
8.65,0.13
8.66,0.13
8.67,0.13
8.68,0.13
8.69,0.0650000000001
8.7,0.0649999999999
8.71,0.0650000000001
8.72,0.0649999999999
8.73,0.0650000000001
8.74,0.0649999999999
8.75,0.0649999999999
8.76,0.0650000000001
8.77,0.195
8.78,0.195
8.79,0.13
8.8,0.13
8.81,0.195
8.82,0.195
8.83,0.455
8.84,0.455
8.85,0.52
8.86,0.52
8.87,0.52
8.88,0.52
8.89,0.78
8.9,0.78
8.91,1.105
8.92,1.105
8.93,1.495
8.94,1.495
8.95,1.82
8.96,1.82
8.97,1.885
8.98,1.885
8.99,1.69
9.,1.69
9.01,1.56
9.02,1.56
9.03,2.08
9.04,2.08
9.05,2.47
9.06,2.47
9.07,2.73
9.08,2.73
9.09,3.055
9.1,3.055
9.11,2.99
9.12,2.99
9.13,3.51
9.14,3.51
9.15,4.03
9.16,4.03
9.17,4.095
9.18,4.095
9.19,4.16
9.2,4.16
9.21,4.485
9.22,4.485
9.23,4.94
9.24,4.94
9.25,4.615
9.26,4.615
9.27,3.64
9.28,3.64
9.29,3.25
9.3,3.25
9.31,2.86
9.32,2.86
9.33,2.73
9.34,2.73
9.35,3.12
9.36,3.12
9.37,2.665
9.38,2.665
9.39,2.47
9.4,2.47
9.41,1.755
9.42,1.755
9.43,0.975
9.44,0.975
9.45,1.04
9.46,1.04
9.47,0.845
9.48,0.845
9.49,0.52
9.5,0.52
9.51,0.26
9.52,0.26
9.53,0.195
9.54,0.195
9.55,0.195
9.56,0.195
9.57,0.13
9.58,0.13
9.59,0.0649999999999
9.6,0.0650000000001
9.61,0.
9.62,0.
9.63,0.
9.64,0.
9.65,0.
9.66,0.
9.67,0.
9.68,0.
9.69,0.
9.7,0.
9.71,0.0650000000001
9.72,0.0649999999999
9.73,0.13
9.74,0.13
9.75,0.0650000000001
9.76,0.0649999999999
9.77,0.
9.78,0.
9.79,0.0649999999999
9.8,0.0650000000001
9.81,0.195
9.82,0.195
9.83,0.325
9.84,0.325
9.85,0.52
9.86,0.52
9.87,0.715
9.88,0.715
9.89,0.65
9.9,0.65
9.91,0.91
9.92,0.91
9.93,1.235
9.94,1.235
9.95,1.43
9.96,1.43
9.97,1.56
9.98,1.56
9.99,1.365
10.,1.365
