t,s,e,i,r,c,o,n,reff,coal,reportr
5.,8904.,22.,23.,1051.,0.,0.,10000.,0.91754788908,2.16874955601,286.
5.02,8881.,27.,16.,1075.,0.,0.,9999.,0.91526929006,1.76274085493,351.
5.04,8868.,30.,13.,1091.,0.,0.,10002.,0.913655395646,1.58366935245,390.
5.06,8859.,27.,17.,1098.,0.,0.,10001.,0.912819404196,1.75802255623,351.
5.08,8852.,29.,3.,1115.,0.,0.,9999.,0.912280571514,1.63581343858,377.
5.1,8849.,20.,13.,1118.,0.,0.,10000.,0.911880196594,2.37088851114,260.
5.12,8840.,25.,11.,1126.,0.,0.,10002.,0.910770601885,1.89440285192,325.
5.14,8830.,21.,17.,1134.,0.,0.,10002.,0.909740318399,2.25269031222,273.
5.16,8821.,21.,13.,1146.,0.,0.,10001.,0.90890393548,2.25061926881,273.
5.18,8808.,24.,17.,1153.,0.,0.,10002.,0.907473694729,1.96619300525,312.
5.2,8793.,29.,13.,1168.,0.,0.,10003.,0.905837703842,1.62426071034,377.
5.22,8777.,29.,16.,1179.,0.,0.,10001.,0.904370234861,1.62162938665,377.
5.24,8764.,38.,10.,1193.,0.,0.,10005.,0.902669700628,1.23523222191,494.
5.26,8758.,30.,19.,1198.,0.,0.,10005.,0.902051715895,1.56355630755,390.
5.28,8748.,34.,13.,1211.,0.,0.,10006.,0.900931693194,1.37789553077,442.
5.3,8742.,30.,14.,1223.,0.,0.,10009.,0.900043918957,1.56007612619,390.
5.32,8727.,27.,16.,1237.,0.,0.,10007.,0.898679148765,1.7307894717,351.
5.34,8721.,27.,14.,1246.,0.,0.,10008.,0.897971553201,1.72942669505,351.
5.36,8713.,18.,11.,1264.,0.,0.,10006.,0.897327142524,2.59227841174,234.
5.38,8705.,20.,4.,1276.,0.,0.,10005.,0.896592850749,2.33114141195,260.
5.4,8704.,14.,3.,1281.,0.,0.,10002.,0.896758746471,3.33081820118,182.
5.42,8700.,13.,4.,1281.,0.,0.,9998.,0.896705243452,3.58682097381,169.
5.44,8701.,12.,5.,1284.,0.,0.,10002.,0.896449661425,3.88461519951,156.
5.46,8702.,11.,5.,1288.,0.,0.,10006.,0.896194283742,4.23655479587,143.
5.48,8698.,4.,3.,1298.,0.,0.,10003.,0.896050989198,11.6486628596,52.
5.5,8693.,4.,3.,1299.,0.,0.,9999.,0.895894149138,11.6466239388,52.
5.52,8697.,2.,1.,1302.,0.,0.,10002.,0.896037548031,23.2969762488,26.
5.54,8701.,0.,1.,1298.,0.,0.,10000.,0.896628951358,inf,0.
5.56,8706.,0.,0.,1297.,0.,0.,10003.,0.896875133589,inf,0.
5.58,8709.,1.,0.,1293.,0.,0.,10003.,0.897184187736,46.6535777623,13.
5.6,8711.,1.,1.,1294.,0.,0.,10007.,0.897031518837,46.6456389795,13.
5.62,8711.,0.,1.,1294.,0.,0.,10006.,0.8971211682,inf,0.
5.64,8713.,0.,0.,1293.,0.,0.,10006.,0.897327142524,inf,0.
5.66,8711.,0.,0.,1292.,0.,0.,10003.,0.897390223833,inf,0.
5.68,8712.,0.,0.,1289.,0.,0.,10001.,0.897672722583,inf,0.
5.7,8714.,0.,0.,1286.,0.,0.,10000.,0.897968587764,inf,0.
5.72,8711.,0.,1.,1285.,0.,0.,9997.,0.897928819546,inf,0.
5.74,8712.,1.,0.,1284.,0.,0.,9997.,0.898031899425,46.6976587701,13.
5.76,8713.,2.,2.,1283.,0.,0.,10000.,0.897865538809,23.344504009,26.
5.78,8713.,2.,1.,1281.,0.,0.,9997.,0.898134979303,23.3515094619,26.
5.8,8711.,3.,2.,1280.,0.,0.,9996.,0.89801864836,15.5656565716,39.
5.82,8711.,3.,2.,1279.,0.,0.,9995.,0.898108495148,15.5672139159,39.
5.84,8714.,5.,0.,1280.,0.,0.,9999.,0.898058393603,9.33980729347,65.
5.86,8717.,4.,2.,1274.,0.,0.,9997.,0.898547298816,11.6811148846,52.
5.88,8721.,7.,0.,1270.,0.,0.,9998.,0.898869704384,6.677317804,91.
5.9,8720.,4.,3.,1272.,0.,0.,9999.,0.898676749164,11.6827977391,52.
5.92,8720.,6.,1.,1272.,0.,0.,9999.,0.898676749164,7.78853182609,78.
5.94,8716.,7.,3.,1269.,0.,0.,9995.,0.898623997671,6.67549255413,91.
5.96,8709.,9.,4.,1271.,0.,0.,9993.,0.898082000392,5.18891822449,117.
5.98,8701.,12.,4.,1275.,0.,0.,9992.,0.897346828821,3.88850292489,156.
6.,8695.,16.,3.,1278.,0.,0.,9992.,0.896728040064,2.91436613021,208.
6.02,8697.,11.,6.,1278.,0.,0.,9992.,0.896934302983,4.24005306865,143.
6.04,8686.,11.,12.,1280.,0.,0.,9989.,0.896068892825,4.23596203881,143.
6.06,8669.,25.,12.,1285.,0.,0.,9991.,0.894136107317,1.85980310322,325.
6.08,8663.,28.,11.,1292.,0.,0.,9994.,0.893249040519,1.65889107525,364.
6.1,8653.,27.,12.,1301.,0.,0.,9993.,0.892307216603,1.71851760235,351.
6.12,8649.,21.,15.,1312.,0.,0.,9997.,0.891537867094,2.20761757566,273.
6.14,8624.,28.,18.,1325.,0.,0.,9995.,0.889138751252,1.6512576809,364.
6.16,8606.,31.,7.,1350.,0.,0.,9994.,0.887371723733,1.48849450433,403.
6.18,8594.,28.,16.,1354.,0.,0.,9992.,0.886311762658,1.64600755922,364.
6.2,8587.,31.,15.,1364.,0.,0.,9997.,0.885146914642,1.4847625665,403.
6.22,8575.,31.,15.,1372.,0.,0.,9993.,0.884263767753,1.48328115881,403.
6.24,8568.,31.,15.,1381.,0.,0.,9995.,0.883365122997,1.48177375471,403.
6.26,8546.,31.,19.,1398.,0.,0.,9994.,0.881185074486,1.47811689914,403.
6.28,8530.,32.,16.,1417.,0.,0.,9995.,0.879447303824,1.42910186871,416.
6.3,8519.,26.,12.,1435.,0.,0.,9992.,0.878576903198,1.7571538064,338.
6.32,8508.,18.,19.,1447.,0.,0.,9992.,0.877442457144,2.53483376508,234.
6.34,8499.,23.,11.,1456.,0.,0.,9989.,0.876777517859,1.98227960559,299.
6.36,8493.,19.,8.,1468.,0.,0.,9988.,0.876246264381,2.39814767094,247.
6.38,8485.,19.,9.,1474.,0.,0.,9987.,0.875508538329,2.39612863122,247.
6.4,8480.,19.,8.,1479.,0.,0.,9986.,0.8750802448,2.39495645945,247.
6.42,8476.,14.,11.,1488.,0.,0.,9989.,0.8744047819,3.24778918992,182.
6.44,8474.,11.,7.,1497.,0.,0.,9989.,0.874198457034,4.13257452416,143.
6.46,8463.,11.,8.,1500.,0.,0.,9982.,0.873675916885,4.13010433436,143.
6.48,8458.,12.,5.,1506.,0.,0.,9981.,0.873247225191,3.78407130916,156.
6.5,8461.,7.,7.,1506.,0.,0.,9981.,0.873556960551,6.48928027838,91.
6.52,8464.,4.,6.,1510.,0.,0.,9984.,0.873604115774,11.3568535051,52.
6.54,8471.,4.,4.,1507.,0.,0.,9986.,0.874151503974,11.3639695517,52.
6.56,8472.,1.,0.,1512.,0.,0.,9985.,0.874342254204,45.4657972186,13.
6.58,8474.,1.,2.,1506.,0.,0.,9983.,0.87472386931,45.4856412041,13.
6.6,8476.,1.,2.,1504.,0.,0.,9983.,0.874930318181,45.4963765454,13.
6.62,8474.,1.,0.,1503.,0.,0.,9978.,0.875162195562,45.5084341692,13.
6.64,8477.,0.,1.,1500.,0.,0.,9978.,0.875472024047,inf,0.
6.66,8482.,0.,0.,1498.,0.,0.,9980.,0.875812856078,inf,0.
6.68,8486.,1.,0.,1495.,0.,0.,9982.,0.876050316753,45.5546164712,13.
6.7,8486.,1.,0.,1494.,0.,0.,9981.,0.876138088552,45.5591806047,13.
6.72,8493.,0.,0.,1490.,0.,0.,9983.,0.87668513359,inf,0.
6.74,8497.,0.,0.,1487.,0.,0.,9984.,0.87701018097,inf,0.
6.76,8501.,1.,0.,1483.,0.,0.,9985.,0.877335163243,45.6214284886,13.
6.78,8503.,1.,1.,1480.,0.,0.,9985.,0.877541570763,45.6321616797,13.
6.8,8504.,2.,1.,1476.,0.,0.,9983.,0.877820602385,22.823335662,26.
6.82,8501.,7.,0.,1475.,0.,0.,9983.,0.877510929077,6.518652616,91.
6.84,8505.,5.,3.,1471.,0.,0.,9984.,0.877835893745,9.12949329495,65.
6.86,8499.,9.,2.,1472.,0.,0.,9982.,0.877392368853,5.06937813115,117.
6.88,8503.,7.,6.,1470.,0.,0.,9986.,0.877453693577,6.518227438,91.
6.9,8502.,8.,6.,1473.,0.,0.,9989.,0.877087005158,5.70106553353,104.
6.92,8497.,12.,6.,1474.,0.,0.,9989.,0.876571192993,3.79847516964,156.
6.94,8491.,9.,13.,1477.,0.,0.,9990.,0.87586453549,5.0605506495,117.
6.96,8482.,16.,9.,1480.,0.,0.,9987.,0.875198989052,2.84439671442,208.
6.98,8469.,16.,9.,1490.,0.,0.,9984.,0.874120186258,2.84089060534,208.
7.,8465.,13.,14.,1491.,0.,0.,9983.,0.873794849387,3.49517939755,169.
7.02,8455.,17.,13.,1501.,0.,0.,9986.,0.872500409173,2.668824781,221.
7.04,8446.,13.,15.,1507.,0.,0.,9981.,0.87200828375,3.488033135,169.
7.06,8435.,21.,14.,1515.,0.,0.,9985.,0.870523715087,2.1555825326,273.
7.08,8423.,30.,9.,1522.,0.,0.,9984.,0.869372337803,1.50691205219,390.
7.1,8414.,27.,16.,1526.,0.,0.,9983.,0.868530403159,1.6727252209,351.
7.12,8400.,27.,20.,1536.,0.,0.,9983.,0.867085261057,1.66994198426,351.
7.14,8383.,33.,23.,1544.,0.,0.,9983.,0.865330445648,1.36355100526,429.
7.16,8369.,32.,23.,1561.,0.,0.,9985.,0.863712266931,1.40353243376,416.
7.18,8366.,22.,19.,1582.,0.,0.,9989.,0.863056914273,2.03995270646,286.
7.2,8345.,31.,14.,1596.,0.,0.,9986.,0.861149132412,1.44450822211,403.
7.22,8333.,32.,15.,1607.,0.,0.,9987.,0.859824708296,1.39721515098,416.
7.24,8321.,32.,17.,1616.,0.,0.,9986.,0.85867249021,1.39534279659,416.
7.26,8312.,27.,19.,1628.,0.,0.,9986.,0.857743749384,1.65195092474,351.
7.28,8301.,35.,8.,1644.,0.,0.,9988.,0.856437094151,1.2724208256,455.
7.3,8290.,31.,13.,1652.,0.,0.,9986.,0.855473494032,1.43498779644,403.
7.32,8278.,34.,13.,1660.,0.,0.,9985.,0.854320724776,1.3066081673,442.
7.34,8264.,28.,16.,1675.,0.,0.,9983.,0.853046737783,1.58422965588,364.
7.36,8262.,17.,14.,1688.,0.,0.,9981.,0.853011181665,2.60921067333,221.
7.38,8253.,18.,9.,1705.,0.,0.,9985.,0.851740630778,2.46058404447,234.
7.4,8245.,17.,6.,1713.,0.,0.,9981.,0.851256014625,2.60384192709,221.
7.42,8249.,10.,12.,1713.,0.,0.,9984.,0.85141308495,4.42734804174,130.
7.44,8244.,11.,3.,1725.,0.,0.,9983.,0.850982249066,4.0228251774,143.
7.46,8252.,8.,1.,1722.,0.,0.,9983.,0.851808044553,5.53675228959,104.
7.48,8254.,6.,2.,1721.,0.,0.,9983.,0.852014493425,7.38412560968,78.
7.5,8251.,4.,3.,1721.,0.,0.,9979.,0.852046218983,11.0766008468,52.
7.52,8248.,5.,2.,1723.,0.,0.,9978.,0.851821782983,8.85894654302,65.
7.54,8255.,1.,2.,1723.,0.,0.,9981.,0.852288465825,44.3190002229,13.
7.56,8260.,1.,1.,1719.,0.,0.,9981.,0.852804691425,44.3458439541,13.
7.58,8261.,1.,0.,1719.,0.,0.,9981.,0.852907936545,44.3512127004,13.
7.6,8263.,0.,2.,1714.,0.,0.,9979.,0.853285408733,inf,0.
7.62,8265.,1.,1.,1711.,0.,0.,9978.,0.853577477734,44.3860288422,13.
7.64,8266.,1.,0.,1711.,0.,0.,9978.,0.853680753896,44.3913992026,13.
7.66,8274.,1.,0.,1705.,0.,0.,9980.,0.85433571931,44.4254574041,13.
7.68,8277.,1.,1.,1701.,0.,0.,9980.,0.854645485706,44.4415652567,13.
7.7,8280.,2.,0.,1697.,0.,0.,9979.,0.855040927545,22.2310641162,26.
7.72,8281.,3.,0.,1693.,0.,0.,9977.,0.85531561647,14.8254706855,39.
7.74,8285.,3.,1.,1689.,0.,0.,9978.,0.855643000971,14.8311453502,39.
7.76,8287.,1.,1.,1689.,0.,0.,9978.,0.855849553295,44.5041767713,13.
7.78,8289.,2.,1.,1688.,0.,0.,9980.,0.855884551289,22.2529983335,26.
7.8,8296.,3.,0.,1684.,0.,0.,9983.,0.85634991973,14.8433986087,39.
7.82,8299.,4.,1.,1682.,0.,0.,9986.,0.856402234858,11.1332290532,52.
7.84,8297.,5.,3.,1681.,0.,0.,9986.,0.856195848008,8.90443681928,65.
7.86,8300.,7.,3.,1676.,0.,0.,9986.,0.856505428283,6.36261175296,91.
7.88,8296.,9.,5.,1678.,0.,0.,9988.,0.855921230343,4.9453226642,117.
7.9,8300.,6.,9.,1677.,0.,0.,9992.,0.855991113574,7.41858965098,78.
7.92,8297.,8.,10.,1677.,0.,0.,9992.,0.855681719196,5.56193117477,104.
7.94,8288.,11.,9.,1684.,0.,0.,9992.,0.854753536061,4.04065307956,143.
7.96,8279.,19.,9.,1688.,0.,0.,9995.,0.853569077182,2.33608379018,247.
7.98,8269.,18.,11.,1699.,0.,0.,9997.,0.852367513354,2.46239503858,234.
8.,8260.,22.,6.,1709.,0.,0.,9997.,0.85143979445,2.01249405961,286.
8.02,8253.,18.,12.,1714.,0.,0.,9997.,0.850718235302,2.45763045754,234.
8.04,8243.,23.,11.,1717.,0.,0.,9994.,0.849942495786,1.92160912091,299.
8.06,8234.,24.,11.,1719.,0.,0.,9988.,0.849524519123,1.8406364581,312.
8.08,8226.,22.,8.,1733.,0.,0.,9989.,0.848614173657,2.00581531955,286.
8.1,8215.,28.,11.,1734.,0.,0.,9988.,0.847564236652,1.57404786807,364.
8.12,8212.,25.,12.,1740.,0.,0.,9989.,0.847169899595,1.76211339116,325.
8.14,8196.,35.,12.,1749.,0.,0.,9992.,0.84526544179,1.25582294209,455.
8.16,8187.,29.,19.,1757.,0.,0.,9992.,0.844337258655,1.51398405,377.
8.18,8172.,28.,16.,1776.,0.,0.,9992.,0.842790286763,1.56518196113,364.
8.2,8165.,29.,10.,1793.,0.,0.,9997.,0.841647206015,1.50916050734,377.
8.22,8161.,22.,16.,1801.,0.,0.,10000.,0.840982516036,1.98777685609,286.
8.24,8145.,32.,13.,1810.,0.,0.,10000.,0.839333732767,1.36391731575,416.
8.26,8140.,24.,17.,1818.,0.,0.,9999.,0.838902378234,1.81762181951,312.
8.28,8134.,21.,15.,1834.,0.,0.,10004.,0.837865048251,2.07471345281,273.
8.3,8125.,22.,16.,1842.,0.,0.,10005.,0.836854326518,1.97801931722,286.
8.32,8122.,17.,15.,1853.,0.,0.,10007.,0.836378142119,2.5583331406,221.
8.34,8118.,19.,8.,1861.,0.,0.,10006.,0.836049781132,2.2881362431,247.
8.36,8120.,14.,7.,1868.,0.,0.,10009.,0.836005104316,3.10516181603,182.
8.38,8107.,15.,1.,1882.,0.,0.,10005.,0.835000372318,2.89466795737,195.
8.4,8110.,8.,6.,1882.,0.,0.,10006.,0.835225883836,5.42896824494,104.
8.42,8108.,8.,9.,1883.,0.,0.,10008.,0.834853039027,5.42654475368,104.
8.44,8102.,11.,7.,1885.,0.,0.,10005.,0.83448538504,3.94484000201,143.
8.46,8099.,8.,3.,1896.,0.,0.,10006.,0.834093025054,5.42160466285,104.
8.48,8093.,8.,6.,1896.,0.,0.,10003.,0.833725069623,5.41921295255,104.
8.5,8089.,9.,0.,1901.,0.,0.,9999.,0.833646355962,4.81662339,117.
8.52,8091.,4.,1.,1902.,0.,0.,9998.,0.83393587641,10.8411663933,52.
8.54,8088.,8.,1.,1898.,0.,0.,9995.,0.833876880813,5.42019972528,104.
8.56,8089.,5.,2.,1898.,0.,0.,9994.,0.834063429384,8.67425966559,65.
8.58,8097.,2.,3.,1895.,0.,0.,9997.,0.834637774293,21.7005821316,26.
8.6,8101.,1.,2.,1896.,0.,0.,10000.,0.834799578778,43.4095780965,13.
8.62,8105.,0.,0.,1895.,0.,0.,10000.,0.835211774595,inf,0.
8.64,8109.,0.,0.,1890.,0.,0.,9999.,0.835707541167,inf,0.
8.66,8110.,0.,0.,1886.,0.,0.,9996.,0.836061443944,inf,0.
8.68,8109.,1.,0.,1884.,0.,0.,9994.,0.8361256458,43.4785335816,13.
8.7,8124.,1.,1.,1869.,0.,0.,9995.,0.837588498976,43.5546019468,13.
8.72,8129.,2.,0.,1868.,0.,0.,9999.,0.837768726371,21.7819868856,26.
8.74,8139.,0.,2.,1862.,0.,0.,10003.,0.838463899871,inf,0.
8.76,8144.,0.,0.,1860.,0.,0.,10004.,0.838895125763,inf,0.
8.78,8146.,1.,0.,1858.,0.,0.,10005.,0.839017273085,43.6288982004,13.
8.8,8146.,0.,2.,1854.,0.,0.,10002.,0.839268927936,inf,0.
8.82,8141.,4.,2.,1854.,0.,0.,10001.,0.838837653185,10.9048894914,52.
8.84,8140.,6.,2.,1852.,0.,0.,10000.,0.838818487996,7.2697602293,78.
8.86,8144.,9.,5.,1846.,0.,0.,10004.,0.838895125763,4.84694961552,117.
8.88,8140.,13.,5.,1845.,0.,0.,10003.,0.83856691792,3.35426767168,169.
8.9,8140.,13.,5.,1847.,0.,0.,10005.,0.838399288352,3.35359715341,169.
8.92,8138.,13.,4.,1847.,0.,0.,10002.,0.838444701147,3.35377880459,169.
8.94,8139.,10.,8.,1845.,0.,0.,10002.,0.838547729496,4.36044819338,130.
8.96,8134.,16.,7.,1847.,0.,0.,10004.,0.837865048251,2.72306140681,208.
8.98,8132.,19.,12.,1846.,0.,0.,10009.,0.837240579839,2.29139527114,247.
9.,8118.,20.,15.,1855.,0.,0.,10008.,0.835882704837,2.17329503258,260.
9.02,8109.,21.,14.,1866.,0.,0.,10010.,0.834789181231,2.06709702019,273.
9.04,8097.,24.,14.,1873.,0.,0.,10008.,0.833720406636,1.80639421438,312.
9.06,8085.,24.,10.,1884.,0.,0.,10003.,0.832900925232,1.80461867134,312.
9.08,8072.,26.,11.,1893.,0.,0.,10002.,0.831644830137,1.66328966027,338.
9.1,8054.,32.,15.,1898.,0.,0.,9999.,0.830039281854,1.34881383301,416.
9.12,8043.,36.,12.,1909.,0.,0.,10000.,0.828822739429,1.1971884014,468.
9.14,8033.,25.,23.,1918.,0.,0.,9999.,0.827875037389,1.72198007777,325.
9.16,8024.,27.,21.,1925.,0.,0.,9997.,0.82711294318,1.59295826094,351.
9.18,8008.,33.,17.,1943.,0.,0.,10001.,0.825133512677,1.30021038361,429.
9.2,7990.,34.,12.,1963.,0.,0.,9999.,0.8234434892,1.25938415995,442.
9.22,7982.,31.,17.,1971.,0.,0.,10001.,0.822454507766,1.3796011098,403.
9.24,7970.,29.,19.,1984.,0.,0.,10002.,0.821135938577,1.47238168297,377.
9.26,7956.,32.,16.,1999.,0.,0.,10003.,0.819611596926,1.331868845,416.
9.28,7945.,23.,25.,2011.,0.,0.,10004.,0.818396583274,1.8502879274,299.
9.3,7929.,35.,6.,2039.,0.,0.,10009.,0.816340452232,1.21284867189,455.
9.32,7918.,29.,17.,2044.,0.,0.,10008.,0.81528938863,1.4618982141,377.
9.34,7906.,30.,15.,2061.,0.,0.,10012.,0.81372855842,1.41046283459,390.
9.36,7905.,26.,11.,2073.,0.,0.,10015.,0.813381910869,1.62676382174,338.
9.38,7902.,18.,14.,2080.,0.,0.,10014.,0.813154420684,2.34911277086,234.
9.4,7895.,22.,3.,2095.,0.,0.,10015.,0.812352964745,1.92010700758,286.
9.42,7899.,8.,13.,2097.,0.,0.,10017.,0.812602266157,5.28191473002,104.
9.44,7899.,6.,7.,2106.,0.,0.,10018.,0.812521151936,7.04184998345,78.
9.46,7895.,7.,8.,2108.,0.,0.,10018.,0.812109696738,6.03281489006,91.
9.48,7894.,5.,3.,2115.,0.,0.,10017.,0.812087895815,8.44571411648,65.
9.5,7896.,4.,5.,2114.,0.,0.,10019.,0.812131493309,10.557709413,52.
9.52,7897.,3.,2.,2116.,0.,0.,10018.,0.812315424337,14.0801340218,39.
9.54,7907.,3.,0.,2113.,0.,0.,10023.,0.8129383235,14.0909309407,39.
9.56,7909.,0.,0.,2110.,0.,0.,10019.,0.813468589233,inf,0.
9.58,7911.,0.,0.,2108.,0.,0.,10019.,0.813674296298,inf,0.
9.6,7922.,0.,0.,2099.,0.,0.,10021.,0.814643065521,inf,0.
9.62,7924.,0.,0.,2097.,0.,0.,10021.,0.814848731531,inf,0.
9.64,7929.,0.,0.,2096.,0.,0.,10025.,0.815037564727,inf,0.
9.66,7936.,1.,0.,2088.,0.,0.,10025.,0.815757108547,42.4193696445,13.
9.68,7944.,2.,0.,2081.,0.,0.,10027.,0.816416568219,21.2268307737,26.
9.7,7946.,2.,2.,2078.,0.,0.,10028.,0.816540676966,21.2300576011,26.
9.72,7952.,2.,0.,2071.,0.,0.,10025.,0.817401780137,21.2524462836,26.
9.74,7959.,2.,0.,2067.,0.,0.,10028.,0.817876572864,21.2647908945,26.
9.76,7962.,1.,3.,2064.,0.,0.,10030.,0.818021709003,42.5371288682,13.
9.78,7967.,0.,2.,2061.,0.,0.,10030.,0.818535412664,inf,0.
9.8,7967.,1.,1.,2059.,0.,0.,10028.,0.818698662647,42.5723304576,13.
9.82,7967.,1.,1.,2058.,0.,0.,10027.,0.818780312059,42.5765762271,13.
9.84,7965.,5.,4.,2051.,0.,0.,10025.,0.818738075804,8.51487598836,65.
9.86,7962.,10.,3.,2048.,0.,0.,10023.,0.818593010207,4.25668365308,130.
9.88,7963.,9.,2.,2050.,0.,0.,10024.,0.818614149127,4.7297706394,117.
9.9,7965.,9.,3.,2048.,0.,0.,10025.,0.818738075804,4.7304866602,117.
9.92,7971.,8.,7.,2041.,0.,0.,10027.,0.819191397945,5.32474408664,104.
9.94,7971.,7.,6.,2044.,0.,0.,10028.,0.819109707538,6.08481497028,91.
9.96,7969.,8.,5.,2046.,0.,0.,10028.,0.818904185092,5.3228772031,104.
9.98,7968.,8.,6.,2043.,0.,0.,10025.,0.819046451727,5.32380193623,104.
10.,7967.,2.,13.,2045.,0.,0.,10027.,0.818780312059,21.2882881135,26.
