t,s,e,i,r,c,o,n,reff,coal,reportr
5.,6839.,11.,7.,3143.,0.,0.,10000.,0.835913053324,3.95158897935,143.
5.02,6832.,19.,14.,3135.,0.,0.,10000.,0.835057461663,2.28542042139,247.
5.04,6819.,22.,12.,3145.,0.,0.,9998.,0.833635232766,1.97041055018,286.
5.06,6819.,23.,9.,3151.,0.,0.,10002.,0.833301845351,1.88398678079,299.
5.08,6810.,28.,12.,3150.,0.,0.,10000.,0.832368459298,1.5458271387,364.
5.1,6804.,24.,18.,3153.,0.,0.,9999.,0.831718266843,1.80205624483,312.
5.12,6805.,23.,16.,3152.,0.,0.,9996.,0.83209015846,1.88124731478,299.
5.14,6789.,27.,17.,3162.,0.,0.,9995.,0.83021679271,1.59893604522,351.
5.16,6778.,31.,26.,3161.,0.,0.,9996.,0.82878869861,1.39022620412,403.
5.18,6763.,36.,22.,3180.,0.,0.,10001.,0.826541118316,1.19389272646,468.
5.2,6748.,45.,21.,3188.,0.,0.,10002.,0.824625436637,0.952900504558,585.
5.22,6726.,46.,18.,3211.,0.,0.,10001.,0.822019157444,0.929239047545,598.
5.24,6725.,37.,6.,3235.,0.,0.,10003.,0.821732612196,1.15486745498,481.
5.26,6731.,27.,11.,3237.,0.,0.,10006.,0.822219164762,1.58353320621,351.
5.28,6727.,27.,14.,3241.,0.,0.,10009.,0.821484250914,1.58211781657,351.
5.3,6722.,26.,21.,3241.,0.,0.,10010.,0.82079165818,1.64158331636,338.
5.32,6722.,26.,11.,3250.,0.,0.,10009.,0.820873663541,1.64174732708,338.
5.34,6716.,28.,11.,3256.,0.,0.,10011.,0.819977110735,1.52281463422,364.
5.36,6710.,29.,6.,3266.,0.,0.,10011.,0.819244552268,1.46899023165,377.
5.38,6707.,24.,15.,3268.,0.,0.,10014.,0.818632953001,1.7737047315,312.
5.4,6690.,28.,12.,3281.,0.,0.,10011.,0.816802690712,1.51691928275,364.
5.42,6695.,17.,6.,3294.,0.,0.,10012.,0.817331512757,2.50007286255,221.
5.44,6696.,13.,5.,3301.,0.,0.,10015.,0.817208724865,3.26883489946,169.
5.46,6694.,9.,5.,3305.,0.,0.,10013.,0.81712781703,4.72118294284,117.
5.48,6696.,10.,2.,3309.,0.,0.,10017.,0.8170455605,4.2486369146,130.
5.5,6701.,8.,5.,3304.,0.,0.,10018.,0.817574041579,5.31423127026,104.
5.52,6703.,8.,5.,3302.,0.,0.,10018.,0.817818057112,5.31581737122,104.
5.54,6704.,5.,8.,3300.,0.,0.,10017.,0.81802172007,8.50742588873,65.
5.56,6717.,3.,5.,3294.,0.,0.,10019.,0.819444368637,14.2037023897,39.
5.58,6722.,2.,2.,3294.,0.,0.,10020.,0.819972504829,21.3192851256,26.
5.6,6728.,2.,0.,3289.,0.,0.,10019.,0.820786320112,21.3404443229,26.
5.62,6736.,2.,0.,3281.,0.,0.,10019.,0.82176228482,21.3658194053,26.
5.64,6739.,2.,1.,3273.,0.,0.,10015.,0.822456630357,21.3838723893,26.
5.66,6751.,1.,1.,3261.,0.,0.,10014.,0.82400343905,42.8481788306,13.
5.68,6757.,1.,0.,3252.,0.,0.,10010.,0.825065342803,42.9033978258,13.
5.7,6764.,2.,0.,3247.,0.,0.,10013.,0.825672625395,21.4674882603,26.
5.72,6774.,3.,0.,3240.,0.,0.,10017.,0.826563116312,14.3270940161,39.
5.74,6784.,1.,1.,3233.,0.,0.,10019.,0.827618073073,43.0361397998,13.
5.76,6787.,1.,1.,3230.,0.,0.,10019.,0.827984059839,43.0551711116,13.
5.78,6796.,3.,1.,3218.,0.,0.,10018.,0.829164779372,14.3721895091,39.
5.8,6796.,2.,1.,3214.,0.,0.,10013.,0.829578823504,21.5690494111,26.
5.82,6802.,2.,2.,3207.,0.,0.,10013.,0.83031123565,21.5880921269,26.
5.84,6806.,5.,2.,3198.,0.,0.,10011.,0.83096548774,8.6420410725,65.
5.86,6814.,7.,0.,3189.,0.,0.,10010.,0.832025343475,6.18075969439,91.
5.88,6826.,5.,4.,3179.,0.,0.,10014.,0.833157676634,8.66483983699,65.
5.9,6825.,8.,3.,3179.,0.,0.,10015.,0.832952441339,5.4141908687,104.
5.92,6825.,8.,2.,3180.,0.,0.,10015.,0.832952441339,5.4141908687,104.
5.94,6832.,10.,5.,3165.,0.,0.,10012.,0.83405659375,4.3370942875,130.
5.96,6829.,10.,7.,3162.,0.,0.,10008.,0.834023560674,4.3369225155,130.
5.98,6824.,17.,5.,3165.,0.,0.,10011.,0.833163163141,2.54849908726,221.
6.,6833.,9.,14.,3161.,0.,0.,10017.,0.833762293145,4.81729324928,117.
6.02,6834.,12.,6.,3164.,0.,0.,10016.,0.833967568314,3.61385946269,156.
6.04,6834.,14.,10.,3160.,0.,0.,10018.,0.833801074489,3.09697541953,182.
6.06,6832.,22.,6.,3158.,0.,0.,10018.,0.833557058957,1.97022577572,286.
6.08,6829.,21.,12.,3155.,0.,0.,10017.,0.833274213359,2.06334567118,273.
6.1,6826.,23.,12.,3159.,0.,0.,10020.,0.832658779822,1.88253289351,299.
6.12,6827.,22.,12.,3156.,0.,0.,10017.,0.833030173467,1.96898041001,286.
6.14,6824.,26.,10.,3159.,0.,0.,10019.,0.832497896617,1.66499579323,338.
6.16,6826.,27.,9.,3157.,0.,0.,10019.,0.832741887795,1.60379919131,351.
6.18,6820.,31.,7.,3154.,0.,0.,10012.,0.832591623152,1.39660530335,403.
6.2,6812.,25.,19.,3151.,0.,0.,10007.,0.832030492713,1.73062342484,325.
6.22,6794.,28.,14.,3171.,0.,0.,10007.,0.829831938857,1.54111645788,364.
6.24,6783.,26.,13.,3182.,0.,0.,10004.,0.828736825302,1.6574736506,338.
6.26,6774.,29.,14.,3185.,0.,0.,10002.,0.827802713067,1.48433589929,377.
6.28,6778.,29.,8.,3191.,0.,0.,10006.,0.827960406887,1.48461866062,377.
6.3,6788.,24.,6.,3188.,0.,0.,10006.,0.829181947764,1.79656088682,312.
6.32,6784.,21.,10.,3192.,0.,0.,10007.,0.828610520048,2.05179747821,273.
6.34,6778.,24.,7.,3194.,0.,0.,10003.,0.828208720515,1.79445222778,312.
6.36,6774.,20.,12.,3195.,0.,0.,10001.,0.827885485061,2.15250226116,260.
6.38,6778.,21.,5.,3199.,0.,0.,10003.,0.828208720515,2.05080254604,273.
6.4,6775.,15.,6.,3205.,0.,0.,10001.,0.82800770022,2.8704266941,195.
6.42,6778.,9.,7.,3207.,0.,0.,10001.,0.828374345696,4.78616288625,117.
6.44,6782.,9.,5.,3207.,0.,0.,10003.,0.828697483407,4.78802990413,117.
6.46,6785.,8.,9.,3202.,0.,0.,10004.,0.828981182319,5.38837768508,104.
6.48,6784.,8.,6.,3205.,0.,0.,10003.,0.828941864853,5.38812212154,104.
6.5,6791.,6.,1.,3206.,0.,0.,10004.,0.829714253372,7.19085686256,78.
6.52,6798.,4.,2.,3204.,0.,0.,10008.,0.830237540703,10.7930880291,52.
6.54,6800.,5.,2.,3198.,0.,0.,10005.,0.830730820086,8.63960052889,65.
6.56,6799.,1.,6.,3197.,0.,0.,10003.,0.830774725698,43.2002857363,13.
6.58,6818.,1.,1.,3187.,0.,0.,10007.,0.832763343999,43.3036938879,13.
6.6,6829.,1.,0.,3181.,0.,0.,10011.,0.833773628531,43.3562286836,13.
6.62,6840.,0.,1.,3168.,0.,0.,10009.,0.835283525531,inf,0.
6.64,6846.,0.,0.,3163.,0.,0.,10009.,0.836016230378,inf,0.
6.66,6848.,0.,0.,3158.,0.,0.,10006.,0.83651119303,inf,0.
6.68,6852.,1.,0.,3153.,0.,0.,10006.,0.836999809381,43.5239900878,13.
6.7,6858.,0.,1.,3147.,0.,0.,10006.,0.837732733908,inf,0.
6.72,6864.,0.,1.,3140.,0.,0.,10005.,0.838549463098,inf,0.
6.74,6869.,0.,1.,3130.,0.,0.,10000.,0.839579874731,inf,0.
6.76,6874.,1.,0.,3124.,0.,0.,9999.,0.840275039136,43.6943020351,13.
6.78,6875.,2.,0.,3119.,0.,0.,9996.,0.840649498812,21.8568869691,26.
6.8,6880.,1.,1.,3115.,0.,0.,9997.,0.841176728932,43.7411899045,13.
6.82,6890.,2.,0.,3107.,0.,0.,9999.,0.842230872803,21.8980026929,26.
6.84,6894.,3.,0.,3099.,0.,0.,9996.,0.842972748336,14.6115276378,39.
6.86,6906.,2.,0.,3088.,0.,0.,9996.,0.844440063825,21.9554416594,26.
6.88,6912.,3.,1.,3080.,0.,0.,9996.,0.845173721569,14.6496778405,39.
6.9,6915.,4.,3.,3076.,0.,0.,9998.,0.845371408503,10.9898283105,52.
6.92,6916.,5.,4.,3075.,0.,0.,10000.,0.845324561601,8.79137544065,65.
6.94,6920.,8.,4.,3068.,0.,0.,10000.,0.845813471122,5.49778756229,104.
6.96,6922.,10.,7.,3063.,0.,0.,10002.,0.845888748133,4.39862149029,130.
6.98,6922.,9.,12.,3062.,0.,0.,10005.,0.845635108328,4.88589173701,117.
7.,6915.,15.,7.,3065.,0.,0.,10002.,0.845033327555,2.92944886886,195.
7.02,6919.,11.,7.,3068.,0.,0.,10005.,0.845268609437,3.99581524461,143.
7.04,6918.,15.,7.,3068.,0.,0.,10008.,0.84489310188,2.92896275318,195.
7.06,6910.,18.,8.,3072.,0.,0.,10008.,0.843916064468,2.4379797418,234.
7.08,6910.,16.,13.,3068.,0.,0.,10007.,0.844000397042,2.74300129039,208.
7.1,6911.,17.,9.,3070.,0.,0.,10007.,0.844122538923,2.58202188376,221.
7.12,6904.,19.,10.,3076.,0.,0.,10009.,0.843099043899,2.30742896225,247.
7.14,6886.,23.,22.,3079.,0.,0.,10010.,0.840816923271,1.90097739174,299.
7.16,6874.,28.,17.,3090.,0.,0.,10009.,0.839435519664,1.55895167938,364.
7.18,6864.,31.,12.,3101.,0.,0.,10008.,0.83829809935,1.40617745697,403.
7.2,6858.,31.,12.,3109.,0.,0.,10010.,0.837397975573,1.40466757193,403.
7.22,6847.,32.,14.,3119.,0.,0.,10012.,0.835887806998,1.35831768637,416.
7.24,6835.,32.,19.,3122.,0.,0.,10008.,0.834756338732,1.35647905044,416.
7.26,6829.,31.,16.,3135.,0.,0.,10011.,0.833773628531,1.39858802205,403.
7.28,6817.,34.,12.,3150.,0.,0.,10013.,0.832142266014,1.27268817155,442.
7.3,6813.,30.,16.,3150.,0.,0.,10009.,0.83198635372,1.44210967978,390.
7.32,6813.,25.,13.,3153.,0.,0.,10004.,0.832402180566,1.73139653558,325.
7.34,6804.,26.,14.,3159.,0.,0.,10003.,0.831385679313,1.66277135863,338.
7.36,6797.,17.,16.,3172.,0.,0.,10002.,0.830613380679,2.54069975266,221.
7.38,6802.,16.,11.,3175.,0.,0.,10004.,0.831058216969,2.70093920515,208.
7.4,6800.,21.,5.,3181.,0.,0.,10007.,0.830564790143,2.05663662321,273.
7.42,6802.,14.,8.,3182.,0.,0.,10006.,0.830892104993,3.08617067569,182.
7.44,6800.,17.,3.,3183.,0.,0.,10003.,0.830896916421,2.54156703846,221.
7.46,6808.,12.,8.,3175.,0.,0.,10003.,0.831874442205,3.60478924955,156.
7.48,6819.,6.,7.,3172.,0.,0.,10004.,0.833135251619,7.22050551403,78.
7.5,6820.,5.,4.,3173.,0.,0.,10002.,0.83342404829,8.66761010222,65.
7.52,6833.,4.,1.,3168.,0.,0.,10006.,0.834678881714,10.8508254623,52.
7.54,6845.,2.,0.,3158.,0.,0.,10005.,0.836228303454,21.7419358898,26.
7.56,6847.,2.,1.,3154.,0.,0.,10004.,0.836556249866,21.7504624965,26.
7.58,6850.,1.,1.,3153.,0.,0.,10005.,0.836839134939,43.5156350168,13.
7.6,6849.,0.,0.,3151.,0.,0.,10000.,0.837135327126,inf,0.
7.62,6854.,0.,0.,3147.,0.,0.,10001.,0.837662697758,inf,0.
7.64,6861.,0.,0.,3137.,0.,0.,9998.,0.838769809651,inf,0.
7.66,6872.,0.,0.,3127.,0.,0.,9999.,0.840030559927,inf,0.
7.68,6875.,0.,0.,3120.,0.,0.,9995.,0.840733605815,inf,0.
7.7,6874.,0.,0.,3116.,0.,0.,9990.,0.841032043676,inf,0.
7.72,6880.,0.,0.,3110.,0.,0.,9990.,0.841766142055,inf,0.
7.74,6888.,0.,0.,3103.,0.,0.,9991.,0.842660589486,inf,0.
7.76,6894.,0.,0.,3095.,0.,0.,9989.,0.843563479063,inf,0.
7.78,6904.,2.,0.,3088.,0.,0.,9994.,0.84436445171,21.9534757444,26.
7.8,6909.,3.,1.,3081.,0.,0.,9994.,0.844975955513,14.6462498956,39.
7.82,6917.,3.,0.,3076.,0.,0.,9996.,0.845785103023,14.6602751191,39.
7.84,6924.,1.,2.,3065.,0.,0.,9992.,0.846979964615,44.04295816,13.
7.86,6930.,5.,1.,3059.,0.,0.,9995.,0.847459474662,8.81357853648,65.
7.88,6934.,3.,4.,3052.,0.,0.,9993.,0.848118337281,14.7007178462,39.
7.9,6938.,4.,0.,3049.,0.,0.,9991.,0.848777463683,11.0341070279,52.
7.92,6944.,6.,1.,3039.,0.,0.,9990.,0.849596524772,7.36316988136,78.
7.94,6951.,9.,2.,3029.,0.,0.,9991.,0.850367850975,4.9132364723,117.
7.96,6949.,12.,5.,3026.,0.,0.,9992.,0.850038095625,3.68349841437,156.
7.98,6948.,12.,8.,3020.,0.,0.,9988.,0.850256145142,3.68444329562,156.
8.,6946.,17.,10.,3018.,0.,0.,9991.,0.849756163555,2.59925414734,221.
8.02,6945.,20.,14.,3012.,0.,0.,9991.,0.849633826071,2.20904794778,260.
8.04,6941.,25.,10.,3019.,0.,0.,9995.,0.848804648431,1.76551366874,325.
8.06,6925.,27.,16.,3024.,0.,0.,9992.,0.847102289855,1.63145626194,351.
8.08,6924.,24.,9.,3039.,0.,0.,9996.,0.846641037058,1.83438891363,312.
8.1,6919.,27.,7.,3043.,0.,0.,9996.,0.846029655604,1.62939044783,351.
8.12,6914.,28.,13.,3040.,0.,0.,9995.,0.84550285827,1.57021959393,364.
8.14,6913.,29.,11.,3041.,0.,0.,9994.,0.845465158556,1.5160064912,377.
8.16,6898.,34.,16.,3043.,0.,0.,9991.,0.843883964325,1.29064606309,442.
8.18,6888.,30.,19.,3057.,0.,0.,9994.,0.842407639539,1.46017324187,390.
8.2,6885.,28.,19.,3062.,0.,0.,9994.,0.842040737257,1.56378994062,364.
8.22,6877.,33.,14.,3070.,0.,0.,9994.,0.841062331171,1.32531034003,429.
8.24,6867.,30.,17.,3080.,0.,0.,9994.,0.839839323565,1.45572149418,390.
8.26,6853.,34.,19.,3087.,0.,0.,9993.,0.838210984336,1.28196974075,442.
8.28,6854.,32.,16.,3095.,0.,0.,9997.,0.837997863387,1.361746528,416.
8.3,6842.,36.,14.,3105.,0.,0.,9997.,0.836530694673,1.20832211453,468.
8.32,6837.,29.,13.,3119.,0.,0.,9998.,0.835835765717,1.4987399937,377.
8.34,6833.,26.,14.,3121.,0.,0.,9994.,0.835681097702,1.6713621954,338.
8.36,6835.,22.,7.,3130.,0.,0.,9994.,0.835925699223,1.97582437998,286.
8.38,6843.,17.,7.,3124.,0.,0.,9991.,0.837155402708,2.56071064358,221.
8.4,6839.,12.,4.,3132.,0.,0.,9987.,0.837001154826,3.62700500424,156.
8.42,6843.,12.,4.,3128.,0.,0.,9987.,0.837490700756,3.62912636994,156.
8.44,6844.,9.,4.,3131.,0.,0.,9988.,0.837529225296,4.83905774615,117.
8.46,6854.,6.,1.,3129.,0.,0.,9990.,0.838585049077,7.267737092,78.
8.48,6862.,6.,0.,3122.,0.,0.,9990.,0.839563846916,7.27622000661,78.
8.5,6867.,5.,0.,3115.,0.,0.,9987.,0.84042797634,8.74045095393,65.
8.52,6871.,3.,1.,3110.,0.,0.,9985.,0.841085958429,14.5788232794,39.
8.54,6876.,3.,1.,3107.,0.,0.,9987.,0.841529454683,14.5865105478,39.
8.56,6881.,1.,2.,3105.,0.,0.,9989.,0.841972773344,43.7825842139,13.
8.58,6881.,2.,0.,3104.,0.,0.,9987.,0.842141387097,21.8956760645,26.
8.6,6886.,2.,0.,3099.,0.,0.,9987.,0.84275331951,21.9115863073,26.
8.62,6893.,2.,1.,3093.,0.,0.,9989.,0.843441117085,21.9294690442,26.
8.64,6901.,2.,1.,3083.,0.,0.,9987.,0.84458911675,21.9593170355,26.
8.66,6904.,1.,3.,3079.,0.,0.,9987.,0.844956276198,43.9377263623,13.
8.68,6909.,3.,0.,3075.,0.,0.,9987.,0.845568208611,14.6565156159,39.
8.7,6918.,0.,3.,3065.,0.,0.,9986.,0.846754472623,inf,0.
8.72,6927.,0.,0.,3061.,0.,0.,9988.,0.847686286327,inf,0.
8.74,6934.,1.,0.,3055.,0.,0.,9990.,0.848373027473,44.1153974286,13.
8.76,6944.,1.,1.,3047.,0.,0.,9993.,0.849341467274,44.1657562983,13.
8.78,6946.,1.,2.,3044.,0.,0.,9993.,0.849586093273,44.1784768502,13.
8.8,6949.,2.,2.,3039.,0.,0.,9992.,0.850038095625,22.1009904862,26.
8.82,6957.,2.,2.,3031.,0.,0.,9992.,0.851016697548,22.1264341363,26.
8.84,6959.,5.,3.,3024.,0.,0.,9991.,0.851346550846,8.8540041288,65.
8.86,6964.,9.,0.,3023.,0.,0.,9996.,0.851532088687,4.91996317908,117.
8.88,6968.,6.,3.,3018.,0.,0.,9995.,0.852106438592,7.3849224678,78.
8.9,6972.,6.,7.,3010.,0.,0.,9995.,0.85259559269,7.38916180331,78.
8.92,6974.,9.,8.,2999.,0.,0.,9990.,0.853267016671,4.92998720743,117.
8.94,6976.,10.,5.,2999.,0.,0.,9990.,0.853511716131,4.43826092388,130.
8.96,6977.,17.,5.,2993.,0.,0.,9992.,0.853463202356,2.61059332486,221.
8.98,6977.,14.,9.,2991.,0.,0.,9991.,0.853548625558,3.17032346636,182.
9.,6973.,8.,11.,2998.,0.,0.,9990.,0.853144666941,5.54544033511,104.
9.02,6969.,18.,6.,3001.,0.,0.,9994.,0.852314001154,2.46224044778,234.
9.04,6969.,13.,10.,3001.,0.,0.,9993.,0.852399292257,3.40959716903,169.
9.06,6965.,18.,11.,3002.,0.,0.,9996.,0.851654364978,2.46033483216,234.
9.08,6956.,19.,12.,3005.,0.,0.,9992.,0.850894372308,2.32876354526,247.
9.1,6948.,28.,9.,3004.,0.,0.,9989.,0.850171025897,1.57888904809,364.
9.12,6940.,27.,8.,3016.,0.,0.,9991.,0.849022138651,1.63515374851,351.
9.14,6930.,26.,22.,3011.,0.,0.,9989.,0.847968510286,1.69593702057,338.
9.16,6910.,36.,14.,3030.,0.,0.,9990.,0.845436633954,1.22118624904,468.
9.18,6896.,34.,22.,3035.,0.,0.,9987.,0.843977184336,1.29078863487,442.
9.2,6882.,40.,14.,3046.,0.,0.,9982.,0.84268566487,1.09549136433,520.
9.22,6876.,33.,20.,3053.,0.,0.,9982.,0.841950978153,1.32671063224,429.
9.24,6862.,36.,19.,3063.,0.,0.,9980.,0.840405093256,1.21391846804,468.
9.26,6852.,38.,14.,3081.,0.,0.,9985.,0.838760149491,1.14777704667,494.
9.28,6849.,29.,14.,3089.,0.,0.,9981.,0.838728912059,1.50392770438,377.
9.3,6837.,28.,17.,3101.,0.,0.,9983.,0.837091654376,1.5545987867,364.
9.32,6841.,21.,10.,3108.,0.,0.,9980.,0.837833174434,2.07463452717,273.
9.34,6843.,17.,5.,3115.,0.,0.,9980.,0.838078119083,2.56353307014,221.
9.36,6847.,17.,4.,3111.,0.,0.,9979.,0.838652041653,2.565288598,221.
9.38,6847.,14.,0.,3119.,0.,0.,9980.,0.838568008383,3.11468117399,182.
9.4,6851.,9.,4.,3114.,0.,0.,9978.,0.839226079261,4.84886179129,117.
9.42,6852.,7.,3.,3114.,0.,0.,9976.,0.839516849706,6.23641088353,91.
9.44,6862.,6.,4.,3105.,0.,0.,9977.,0.840657796,7.28570089867,78.
9.46,6865.,7.,7.,3099.,0.,0.,9978.,0.840941035488,6.24699054934,91.
9.48,6871.,6.,4.,3098.,0.,0.,9979.,0.841591672002,7.29379449069,78.
9.5,6877.,5.,5.,3094.,0.,0.,9981.,0.84215779358,8.75844105324,65.
9.52,6878.,7.,0.,3093.,0.,0.,9978.,0.842533494841,6.25882024739,91.
9.54,6877.,3.,3.,3090.,0.,0.,9973.,0.842833343801,14.6091112925,39.
9.56,6876.,2.,6.,3089.,0.,0.,9973.,0.842710785513,21.9104804233,26.
9.58,6881.,2.,0.,3091.,0.,0.,9974.,0.843239024758,21.9242146437,26.
9.6,6894.,0.,2.,3078.,0.,0.,9974.,0.844832122756,inf,0.
9.62,6900.,2.,0.,3071.,0.,0.,9973.,0.845652184416,21.9869567948,26.
9.64,6902.,1.,0.,3070.,0.,0.,9973.,0.845897300991,43.9866596515,13.
9.66,6910.,1.,0.,3065.,0.,0.,9976.,0.846623092742,44.0244008226,13.
9.68,6920.,1.,0.,3057.,0.,0.,9978.,0.847678363522,44.0792749031,13.
9.7,6924.,2.,0.,3049.,0.,0.,9975.,0.848423439241,22.0590094203,26.
9.72,6932.,1.,1.,3043.,0.,0.,9977.,0.849233436589,44.1601387026,13.
9.74,6943.,2.,2.,3034.,0.,0.,9981.,0.850240157166,22.1062440863,26.
9.76,6949.,2.,2.,3028.,0.,0.,9981.,0.850974917492,22.1253478548,26.
9.78,6955.,3.,1.,3025.,0.,0.,9984.,0.851453755438,14.7585317609,39.
9.8,6957.,4.,0.,3022.,0.,0.,9983.,0.851783916849,11.073190919,52.
9.82,6964.,1.,4.,3016.,0.,0.,9985.,0.852470181123,44.3284494184,13.
9.84,6964.,6.,1.,3013.,0.,0.,9984.,0.852555564755,7.38881489455,78.
9.86,6966.,5.,5.,3007.,0.,0.,9983.,0.852885836534,8.87001269996,65.
9.88,6966.,10.,2.,3005.,0.,0.,9983.,0.852885836534,4.43500634998,130.
9.9,6970.,8.,5.,3003.,0.,0.,9986.,0.853119207023,5.54527484565,104.
9.92,6974.,7.,2.,3002.,0.,0.,9985.,0.853694291091,6.34172901953,91.
9.94,6981.,9.,3.,2993.,0.,0.,9986.,0.854465593146,4.93691231595,117.
9.96,6988.,7.,2.,2989.,0.,0.,9986.,0.855322384315,6.35382342634,91.
9.98,6993.,7.,1.,2986.,0.,0.,9987.,0.855848673153,6.35773300057,91.
10.,6997.,5.,4.,2982.,0.,0.,9988.,0.856252482378,8.90502581673,65.
