t,neff
5.,0.776544429782
5.02,0.708789421224
5.04,0.594806601166
5.06,0.480509289407
5.08,0.549903812164
5.1,0.757076926838
5.12,0.758061211574
5.14,0.690201084262
5.16,0.783932723986
5.18,0.853934484498
5.2,0.785598114784
5.22,0.671003316831
5.24,0.671738452669
5.26,0.510204875897
5.28,0.67382089396
5.3,0.627287752428
5.32,0.511293671497
5.34,0.628341499816
5.36,0.558924045835
5.38,0.209374981844
5.4,0.372383744714
5.42,0.232693269193
5.44,0.139615961516
5.46,0.162696981743
5.48,0.185638266821
5.5,0.115928716488
5.52,0.138960360826
5.54,0.0462960632333
5.56,0.0694041557586
5.58,0.0462142627204
5.6,0.046163238493
5.62,0.0691991505594
5.64,0.023035990545
5.66,0.0230294003603
5.68,0.0230228139452
5.7,0.0460239053721
5.72,0.022983705294
5.74,0.0229656652687
5.76,0.0459005426617
5.78,0.0458619962737
5.8,0.0458052192043
5.82,0.0686365800423
5.84,0.0685809895884
5.86,0.0685157553358
5.88,0.137023548589
5.9,0.0684631981642
5.92,0.205355277958
5.94,0.365222036326
5.96,0.342438606857
5.98,0.342418695888
6.,0.525533193552
6.02,0.548795082074
6.04,0.549147533134
6.06,0.709800910363
6.08,0.618591577033
6.1,0.573234921871
6.12,0.827342626571
6.14,0.851660972088
6.16,0.829354186163
6.18,0.738185817335
6.2,0.878219614167
6.22,0.647675097597
6.24,0.787741617298
6.26,0.672448117274
6.28,0.789751833383
6.3,0.62709319597
6.32,0.510942205688
6.34,0.581202793088
6.36,0.534498835336
6.38,0.348315473632
6.4,0.371994586115
6.42,0.301923438362
6.44,0.255422568546
6.46,0.208912545762
6.48,0.139196330821
6.5,0.069560295928
6.52,0.0695241110906
6.54,0.0463319872802
6.56,0.0462812961093
6.58,0.0924735724468
6.6,0.0461586207838
6.62,0.0230584648563
6.64,0.
6.66,0.
6.68,0.
6.7,0.
6.72,0.0229653293553
6.74,0.0458959526074
6.76,0.0916636910068
6.78,0.11449498991
6.8,0.0457803877076
6.82,0.114406973668
6.84,0.137245005077
6.86,0.137039865701
6.88,0.136950543126
6.9,0.182571800584
6.92,0.159605003816
6.94,0.113994061189
6.96,0.36499415363
6.98,0.365119052149
7.,0.296622022934
7.02,0.296735898253
7.04,0.319639070115
7.06,0.617374874464
7.08,0.75571918121
7.1,0.618589367752
7.12,0.642524248062
7.14,0.597191878019
7.16,0.620754867948
7.18,0.714076396801
7.2,0.553126371938
7.22,0.64612800298
7.24,0.646898431145
7.26,0.577696030353
7.28,0.578053434682
7.3,0.578360717286
7.32,0.416779370727
7.34,0.463494073936
7.36,0.394066128994
7.38,0.301261520629
7.4,0.231852733178
7.42,0.27799866719
7.44,0.185191114555
7.46,0.161770249108
7.48,0.161600883166
7.5,0.138358237679
7.52,0.069137489563
7.54,0.0460251972849
7.56,0.0229928932633
7.58,0.0459484050402
7.6,0.0458940900431
7.62,0.
7.64,0.
7.66,0.
7.68,0.0228569891316
7.7,0.091315284326
7.72,0.
7.74,0.
7.76,0.0455756518086
7.78,0.0227639709395
7.8,0.0227433655337
7.82,0.0681956049454
7.84,0.0681587555503
7.86,0.0908580623946
7.88,0.090819660846
7.9,0.136166361473
7.92,0.227045100191
7.94,0.295241843847
7.96,0.363594544947
7.98,0.363566769278
8.,0.38643737655
8.02,0.500660827491
8.04,0.592108460925
8.06,0.45552130092
8.08,0.593208829912
8.1,0.434070275515
8.12,0.685792007076
8.14,0.640581091566
8.16,0.779143980498
8.18,0.687959157667
8.2,0.619702060316
8.22,0.597798151728
8.24,0.529108440453
8.26,0.575742967951
8.28,0.738355537329
8.3,0.716012623307
8.32,0.623631997767
8.34,0.462301458691
8.36,0.509065632205
8.38,0.486614225759
8.4,0.393755614966
8.42,0.48680319016
8.44,0.394214447479
8.46,0.208542296933
8.48,0.0926691697576
8.5,0.138953255388
8.52,0.0462558638771
8.54,0.
8.56,0.
8.58,0.
8.6,0.0230683067918
8.62,0.
8.64,0.0230564059068
8.66,0.0230336468191
8.68,0.0230224640034
8.7,0.0230122757566
8.72,0.0460048323394
8.74,0.0229715731768
8.76,0.0459103999913
8.78,0.0458803355704
8.8,0.0458229991958
8.82,0.0687012356971
8.84,0.0457878085029
8.86,0.137371349486
8.88,0.137326540639
8.9,0.0914250393828
8.92,0.137112363417
8.94,0.251465076552
8.96,0.205718250709
8.98,0.274357293855
9.,0.411875533524
9.02,0.366408061052
9.04,0.573571295782
9.06,0.41310641245
9.08,0.689521344029
9.1,0.713054149971
9.12,0.805807579189
9.14,0.877079867112
9.16,0.761902576733
9.18,0.785518331054
9.2,0.716422152509
9.22,0.763745623702
9.24,0.532636159413
9.26,0.533011969975
9.28,0.672683295003
9.3,0.602975169554
9.32,0.440611142476
9.34,0.534345576116
9.36,0.698302193039
9.38,0.559125566573
9.4,0.395932976966
9.42,0.48950740049
9.44,0.326106077473
9.46,0.256197939656
9.48,0.139657440173
9.5,0.13958307951
9.52,0.0929883242284
9.54,0.0696948898722
9.56,0.0696208266365
9.58,0.0463743988071
9.6,0.0695577159979
9.62,0.0463370347453
9.64,0.0462945576613
9.66,0.
9.68,0.0693017394902
9.7,0.0923758581756
9.72,0.138419058981
9.74,0.115217388142
9.76,0.0690929709893
9.78,0.069022985251
9.8,0.0919584623516
9.82,0.137892489348
9.84,0.0688912904303
9.86,0.13773953217
9.88,0.160666438404
9.9,0.183488320081
9.92,0.206424360091
9.94,0.137487384189
9.96,0.114535470081
9.98,0.0915960724431
10.,0.206044604539
