t,neff
5.,0.551843277034
5.02,0.507522944731
5.04,0.530162207165
5.06,0.66304783565
5.08,0.530481318616
5.1,0.575738876387
5.12,0.620662737731
5.14,0.598519644111
5.16,0.532563988586
5.18,0.711591346408
5.2,0.778913901763
5.22,0.690968650571
5.24,0.66861246464
5.26,0.646131446084
5.28,0.647113571192
5.3,0.603930079377
5.32,0.694016999707
5.34,0.672242816769
5.36,0.583106377812
5.38,0.605753257662
5.4,0.380904149588
5.42,0.358265043109
5.44,0.358309826128
5.46,0.223711531073
5.48,0.268012271611
5.5,0.223243533504
5.52,0.0892107449322
5.54,0.0891852983366
5.56,0.0667969125602
5.58,0.0444496361805
5.6,0.
5.62,0.
5.64,0.
5.66,0.0221325944823
5.68,0.0442517979686
5.7,0.0220935617567
5.72,0.0220547330015
5.74,0.0440786572434
5.76,0.
5.78,0.
5.8,0.0219932626816
5.82,0.
5.84,0.
5.86,0.1095372232
5.88,0.153263929823
5.9,0.196835299372
5.92,0.0655179382079
5.94,0.262242165724
5.96,0.262412902697
5.98,0.306105172328
6.,0.284072175984
6.02,0.459694795284
6.04,0.437987329558
6.06,0.372385540055
6.08,0.548671214103
6.1,0.725992357642
6.12,0.572805037038
6.14,0.773353168432
6.16,0.863448286312
6.18,0.843002065829
6.2,0.755509844798
6.22,0.868520164567
6.24,0.668308261267
6.26,0.8712800168
6.28,0.648149574511
6.3,0.694173241386
6.32,0.627183133963
6.34,0.358546945081
6.36,0.336263950458
6.38,0.335860931608
6.4,0.246089069718
6.42,0.246018540728
6.44,0.178904704262
6.46,0.156465526656
6.48,0.268209954391
6.5,0.133858158126
6.52,0.0890878920157
6.54,0.044543946008
6.56,0.0444803183621
6.58,0.
6.6,0.
6.62,0.
6.64,0.
6.66,0.
6.68,0.
6.7,0.
6.72,0.
6.74,0.0220001924832
6.76,0.0658639520506
6.78,0.0657789577983
6.8,0.0656718464469
6.82,0.0218719694771
6.84,0.0655354745708
6.86,0.065443278084
6.88,0.109113015426
6.9,0.152622169798
6.92,0.152453393307
6.94,0.217747021171
6.96,0.261461646035
6.98,0.30500315412
7.,0.32639537103
7.02,0.173977739857
7.04,0.369724068819
7.06,0.347710605321
7.08,0.457326308519
7.1,0.610651594338
7.12,0.699143857885
7.14,0.787442122486
7.16,0.78798798351
7.18,0.94245938686
7.2,0.81171220252
7.22,0.812842174718
7.24,0.703292789118
7.26,0.593911555242
7.28,0.439829771726
7.3,0.572143299897
7.32,0.505935333523
7.34,0.439812952199
7.36,0.307557019045
7.38,0.219509039041
7.4,0.24141176658
7.42,0.153528083064
7.44,0.109626106093
7.46,0.0875465066771
7.48,0.131202766412
7.5,0.0873528197154
7.52,0.0654525548419
7.54,0.0435919228677
7.56,0.0435189223181
7.58,0.0651449947653
7.6,0.0650557345384
7.62,0.0866630766076
7.64,0.0649158954532
7.66,0.064828222419
7.68,0.0215940344331
7.7,0.0431359973554
7.72,0.0215560288759
7.74,0.0430760198466
7.76,0.0645765747423
7.78,0.0214884404897
7.8,0.0214705517197
7.82,0.128821820138
7.84,0.107277696116
7.86,0.128646274806
7.88,0.150103950444
7.9,0.149787049211
7.92,0.171035798907
7.94,0.299421715091
7.96,0.299326028575
7.98,0.406627773853
8.,0.363632200491
8.02,0.620883175077
8.04,0.621721475896
8.06,0.644022630038
8.08,0.666110169118
8.1,0.775527509338
8.12,0.907558167698
8.14,0.735912827596
8.16,0.605735548772
8.18,0.497625007847
8.2,0.715540704383
8.22,0.629822399368
8.24,0.608355966379
8.26,0.696616825671
8.28,0.763594219847
8.3,0.698583825154
8.32,0.349704451491
8.34,0.503746481345
8.36,0.460396245952
8.38,0.504024425413
8.4,0.525969456627
8.42,0.35036063083
8.44,0.262641061875
8.46,0.0655887400099
8.48,0.109234579102
8.5,0.131008526582
8.52,0.0436531716424
8.54,0.043597377266
8.56,0.
8.58,0.0217494201575
8.6,0.
8.62,0.
8.64,0.
8.66,0.
8.68,0.
8.7,0.0431599444342
8.72,0.0215453945728
8.74,0.0430639329354
8.76,0.0215087683168
8.78,0.0429678039545
8.8,0.0429011148285
8.82,0.0642782771896
8.84,0.0856389093021
8.86,0.128465457489
8.88,0.128424291237
8.9,0.128410127896
8.92,0.14964963173
8.94,0.042741469566
8.96,0.192296333715
8.98,0.277703225618
9.,0.192259923807
9.02,0.42783504389
9.04,0.320808980455
9.06,0.363635982743
9.08,0.428270750082
9.1,0.535919334995
9.12,0.773608688514
9.14,0.666540224182
9.16,0.710055178414
9.18,0.796876379888
9.2,0.603177007345
9.22,0.625916917467
9.24,0.561988501238
9.26,0.584085222593
9.28,0.519756237558
9.3,0.519889501638
9.32,0.454521343577
9.34,0.303014229051
9.36,0.36777313206
9.38,0.38957304654
9.4,0.389589723066
9.42,0.367642294363
9.44,0.194675664859
9.46,0.194537139512
9.48,0.215977004031
9.5,0.151074306069
9.52,0.107893355014
9.54,0.0430991525259
9.56,0.0645600739688
9.58,0.0214801207618
9.6,0.0429025681986
9.62,0.
9.64,0.
9.66,0.0427749741318
9.68,0.
9.7,0.0213093113428
9.72,0.0212938647684
9.74,0.0851615799458
9.76,0.127729641504
9.78,0.0850783862602
9.8,0.0850137378246
9.82,0.0637377977459
9.84,0.148636964374
9.86,0.212317358632
9.88,0.148485340225
9.9,0.169671500465
9.92,0.233369909982
9.94,0.148485340225
9.96,0.212165873712
9.98,0.148462562907
10.,0.233285780719
