t,s,e,i,r,c,o,n,reff,coal,reportr
5.,8738.,15.,7.,1240.,0.,0.,10000.,0.878570921904,3.04571252927,195.
5.02,8731.,20.,8.,1244.,0.,0.,10003.,0.877603818779,2.28176992883,260.
5.04,8727.,16.,11.,1248.,0.,0.,10002.,0.877289458045,2.85119073865,208.
5.06,8725.,16.,14.,1249.,0.,0.,10004.,0.876913058719,2.84996744084,208.
5.08,8703.,25.,10.,1265.,0.,0.,10003.,0.874789375196,1.81956190041,325.
5.1,8693.,25.,15.,1273.,0.,0.,10006.,0.873522238695,1.81692625649,325.
5.12,8687.,34.,7.,1283.,0.,0.,10011.,0.872483344377,1.3343862914,442.
5.14,8674.,33.,6.,1297.,0.,0.,10010.,0.871264713382,1.3729019726,429.
5.16,8671.,25.,14.,1298.,0.,0.,10008.,0.87113743016,1.81196585473,325.
5.18,8659.,27.,14.,1307.,0.,0.,10007.,0.870018774997,1.67559171481,351.
5.2,8651.,26.,18.,1310.,0.,0.,10005.,0.869388725801,1.7387774516,338.
5.22,8643.,25.,9.,1328.,0.,0.,10005.,0.868584759808,1.8066563004,325.
5.24,8631.,26.,5.,1342.,0.,0.,10004.,0.867465514018,1.73493102804,338.
5.26,8625.,20.,11.,1345.,0.,0.,10001.,0.86712251199,2.25451853117,260.
5.28,8612.,26.,6.,1354.,0.,0.,9998.,0.866075341349,1.7321506827,338.
5.3,8607.,24.,4.,1364.,0.,0.,9999.,0.86548594489,1.87521954726,312.
5.32,8604.,19.,7.,1368.,0.,0.,9998.,0.865270812467,2.36810959201,247.
5.34,8604.,15.,13.,1370.,0.,0.,10002.,0.864924773349,2.99840588094,195.
5.36,8591.,18.,13.,1376.,0.,0.,9998.,0.863963453034,2.49589441987,234.
5.38,8584.,17.,9.,1390.,0.,0.,10000.,0.863086838364,2.64003032911,221.
5.4,8576.,16.,4.,1403.,0.,0.,9999.,0.862368707258,2.80269829859,208.
5.42,8574.,12.,5.,1409.,0.,0.,10000.,0.862081378394,3.73568597304,156.
5.44,8565.,11.,6.,1415.,0.,0.,9997.,0.861434894889,4.07223768493,143.
5.46,8565.,6.,6.,1417.,0.,0.,9994.,0.861693480509,7.46801016441,78.
5.48,8563.,6.,2.,1421.,0.,0.,9992.,0.86166470419,7.46776076965,78.
5.5,8564.,6.,5.,1421.,0.,0.,9996.,0.861420486618,7.46564421736,78.
5.52,8564.,6.,3.,1422.,0.,0.,9995.,0.861506671759,7.46639115525,78.
5.54,8561.,2.,6.,1425.,0.,0.,9994.,0.861291055066,22.3935674317,26.
5.56,8556.,3.,2.,1431.,0.,0.,9992.,0.860960318702,14.9233121908,39.
5.58,8560.,4.,0.,1432.,0.,0.,9996.,0.861018141692,11.193235842,52.
5.6,8562.,0.,3.,1429.,0.,0.,9994.,0.861391661426,inf,0.
5.62,8565.,2.,0.,1431.,0.,0.,9998.,0.861348734167,22.3950670884,26.
5.64,8569.,0.,2.,1427.,0.,0.,9998.,0.861750998608,inf,0.
5.66,8567.,1.,1.,1426.,0.,0.,9995.,0.861808460645,44.8140399535,13.
5.68,8571.,2.,0.,1427.,0.,0.,10000.,0.861779740403,22.4062732505,26.
5.7,8571.,3.,0.,1424.,0.,0.,9998.,0.861952130829,14.940503601,39.
5.72,8578.,3.,0.,1417.,0.,0.,9998.,0.8626560936,14.9527056224,39.
5.74,8577.,2.,1.,1415.,0.,0.,9995.,0.862814423597,22.4331750135,26.
5.76,8578.,3.,1.,1415.,0.,0.,9997.,0.862742385097,14.9542013417,39.
5.78,8583.,1.,2.,1411.,0.,0.,9997.,0.863245265947,44.8887538292,13.
5.8,8581.,3.,2.,1409.,0.,0.,9995.,0.863216808777,14.9624246855,39.
5.82,8584.,4.,2.,1407.,0.,0.,9997.,0.863345842116,11.2234959475,52.
5.84,8587.,4.,3.,1406.,0.,0.,10000.,0.863388476355,11.2240501926,52.
5.86,8583.,13.,2.,1402.,0.,0.,10000.,0.862986292367,3.45194516947,169.
5.88,8579.,13.,5.,1402.,0.,0.,9999.,0.862670375416,3.45068150167,169.
5.9,8578.,16.,5.,1403.,0.,0.,10002.,0.862311100162,2.80251107553,208.
5.92,8576.,14.,6.,1405.,0.,0.,10001.,0.862196250763,3.20244321712,182.
5.94,8574.,11.,9.,1409.,0.,0.,10003.,0.861822831544,4.0740715673,143.
5.96,8556.,22.,10.,1412.,0.,0.,10000.,0.860271550447,2.03336911924,286.
5.98,8560.,15.,12.,1418.,0.,0.,10005.,0.860243612629,2.98217785711,195.
6.,8539.,21.,16.,1425.,0.,0.,10001.,0.858476420856,2.12575113736,273.
6.02,8530.,21.,9.,1439.,0.,0.,9999.,0.857743128838,2.12393536665,273.
6.04,8528.,16.,8.,1445.,0.,0.,9997.,0.857713576604,2.78756912396,208.
6.06,8510.,23.,10.,1450.,0.,0.,9993.,0.85624580665,1.9358600846,299.
6.08,8498.,20.,15.,1459.,0.,0.,9992.,0.855123981806,2.2233223527,260.
6.1,8488.,28.,12.,1464.,0.,0.,9992.,0.854117716824,1.58621861696,364.
6.12,8483.,26.,13.,1470.,0.,0.,9992.,0.853614584333,1.70722916867,338.
6.14,8469.,13.,32.,1474.,0.,0.,9988.,0.852547105234,3.41018842093,169.
6.16,8453.,22.,27.,1488.,0.,0.,9990.,0.850766078834,2.01090164088,286.
6.18,8426.,44.,14.,1506.,0.,0.,9990.,0.848048619455,1.00223927754,572.
6.2,8418.,43.,14.,1515.,0.,0.,9990.,0.847243446306,1.02457346995,559.
6.22,8407.,40.,19.,1525.,0.,0.,9991.,0.846051643371,1.09986713638,520.
6.24,8403.,29.,15.,1544.,0.,0.,9991.,0.845649097092,1.51633631203,377.
6.26,8386.,32.,22.,1553.,0.,0.,9993.,0.843769369514,1.37112522546,416.
6.28,8371.,37.,16.,1568.,0.,0.,9992.,0.842344416533,1.18383539621,481.
6.3,8364.,33.,17.,1579.,0.,0.,9993.,0.841555808087,1.32608794002,429.
6.32,8359.,27.,9.,1599.,0.,0.,9994.,0.840968570178,1.61964317219,351.
6.34,8357.,21.,12.,1603.,0.,0.,9993.,0.840851493087,2.08210845907,273.
6.36,8347.,19.,2.,1623.,0.,0.,9991.,0.840013449176,2.29898417669,247.
6.38,8348.,13.,7.,1620.,0.,0.,9988.,0.840366422776,3.3614656911,169.
6.4,8347.,12.,5.,1623.,0.,0.,9987.,0.840349891931,3.64151619837,156.
6.42,8352.,8.,1.,1629.,0.,0.,9990.,0.840600767825,5.46390499086,104.
6.44,8360.,7.,1.,1625.,0.,0.,9993.,0.841153342372,6.2485676862,91.
6.46,8355.,9.,1.,1625.,0.,0.,9990.,0.840902707756,4.85854897814,117.
6.48,8356.,6.,2.,1627.,0.,0.,9991.,0.840919178305,7.28796621198,78.
6.5,8357.,3.,2.,1629.,0.,0.,9991.,0.841019814875,14.5776767912,39.
6.52,8360.,2.,1.,1629.,0.,0.,9992.,0.841237525053,21.8721756514,26.
6.54,8362.,1.,0.,1628.,0.,0.,9991.,0.841522997725,43.7591958817,13.
6.56,8365.,1.,1.,1624.,0.,0.,9991.,0.841824907435,43.7748951866,13.
6.58,8365.,1.,1.,1622.,0.,0.,9989.,0.841993457822,43.7836598067,13.
6.6,8368.,1.,1.,1619.,0.,0.,9989.,0.84229542798,43.7993622549,13.
6.62,8376.,0.,1.,1615.,0.,0.,9992.,0.842847549024,inf,0.
6.64,8375.,1.,0.,1614.,0.,0.,9990.,0.842915640629,43.8316133127,13.
6.66,8375.,0.,1.,1612.,0.,0.,9988.,0.8430844263,inf,0.
6.68,8382.,0.,0.,1607.,0.,0.,9989.,0.843704622051,inf,0.
6.7,8387.,0.,0.,1604.,0.,0.,9991.,0.844038911973,inf,0.
6.72,8387.,1.,0.,1604.,0.,0.,9992.,0.843954440505,43.8856309062,13.
6.74,8390.,1.,0.,1601.,0.,0.,9992.,0.844256319999,43.90132864,13.
6.76,8391.,2.,0.,1598.,0.,0.,9991.,0.844441458253,21.9554779146,26.
6.78,8392.,1.,1.,1596.,0.,0.,9990.,0.844626633571,43.9205849457,13.
6.8,8399.,0.,3.,1590.,0.,0.,9992.,0.845161958483,inf,0.
6.82,8401.,3.,1.,1587.,0.,0.,9992.,0.84536321148,14.6529623323,39.
6.84,8397.,3.,3.,1587.,0.,0.,9990.,0.845129866789,14.648917691,39.
6.86,8398.,3.,5.,1582.,0.,0.,9988.,0.845399762635,14.6535958857,39.
6.88,8389.,9.,2.,1583.,0.,0.,9983.,0.844916727383,4.88174109154,117.
6.9,8389.,6.,7.,1581.,0.,0.,9983.,0.844916727383,7.32261163732,78.
6.92,8384.,8.,7.,1583.,0.,0.,9982.,0.844497734884,5.48923527675,104.
6.94,8385.,9.,5.,1584.,0.,0.,9983.,0.844513858518,4.87941340477,117.
6.96,8383.,12.,6.,1581.,0.,0.,9982.,0.844397007578,3.6590536995,156.
6.98,8378.,15.,8.,1583.,0.,0.,9984.,0.843724321894,2.92491098257,195.
7.,8379.,14.,13.,1583.,0.,0.,9989.,0.843402651893,3.13263842132,182.
7.02,8371.,17.,11.,1590.,0.,0.,9989.,0.842597398138,2.57735674725,221.
7.04,8370.,17.,12.,1588.,0.,0.,9987.,0.842665460101,2.57756493678,221.
7.06,8361.,16.,15.,1597.,0.,0.,9989.,0.841590830944,2.73517020057,208.
7.08,8346.,21.,9.,1611.,0.,0.,9987.,0.840249215054,2.08061710394,273.
7.1,8331.,26.,9.,1621.,0.,0.,9987.,0.8387390619,1.6774781238,338.
7.12,8329.,29.,7.,1623.,0.,0.,9988.,0.83845375363,1.50343431685,377.
7.14,8325.,22.,11.,1630.,0.,0.,9988.,0.838051086441,1.9808480225,286.
7.16,8321.,23.,13.,1634.,0.,0.,9991.,0.837396898358,1.8932451615,299.
7.18,8307.,32.,8.,1644.,0.,0.,9991.,0.835987986379,1.35848047787,416.
7.2,8298.,28.,15.,1651.,0.,0.,9992.,0.834998682164,1.5507118383,364.
7.22,8288.,28.,15.,1665.,0.,0.,9996.,0.833658686723,1.54822327534,364.
7.24,8281.,30.,10.,1675.,0.,0.,9996.,0.832954583102,1.44378794404,390.
7.26,8272.,29.,12.,1681.,0.,0.,9994.,0.832215816786,1.49224905079,377.
7.28,8262.,28.,9.,1697.,0.,0.,9996.,0.831043444703,1.54336639731,364.
7.3,8262.,24.,8.,1701.,0.,0.,9995.,0.831126590621,1.80077427968,312.
7.32,8258.,20.,12.,1707.,0.,0.,9997.,0.830558010741,2.15945082793,260.
7.34,8250.,21.,7.,1716.,0.,0.,9994.,0.830002476847,2.05524422838,273.
7.36,8246.,17.,9.,1720.,0.,0.,9992.,0.829766104257,2.53810808361,221.
7.38,8246.,16.,5.,1724.,0.,0.,9991.,0.829849155613,2.69700975574,208.
7.4,8242.,11.,11.,1728.,0.,0.,9992.,0.829363598264,3.92062791907,143.
7.42,8240.,13.,5.,1733.,0.,0.,9991.,0.829245336194,3.31698134478,169.
7.44,8241.,8.,9.,1732.,0.,0.,9990.,0.829428990379,5.39128843746,104.
7.46,8241.,8.,0.,1739.,0.,0.,9988.,0.829595075479,5.39236799061,104.
7.48,8246.,7.,1.,1738.,0.,0.,9992.,0.829766104257,6.16397677448,91.
7.5,8249.,6.,2.,1733.,0.,0.,9990.,0.830234163528,7.19536275057,78.
7.52,8255.,3.,5.,1728.,0.,0.,9991.,0.830754884743,14.3997513355,39.
7.54,8259.,1.,4.,1731.,0.,0.,9995.,0.830824801735,43.2028896902,13.
7.56,8259.,4.,0.,1729.,0.,0.,9992.,0.831074248733,10.8039652335,52.
7.58,8263.,0.,0.,1735.,0.,0.,9998.,0.830977768876,inf,0.
7.6,8268.,0.,0.,1730.,0.,0.,9998.,0.831480599427,inf,0.
7.62,8271.,0.,0.,1728.,0.,0.,9999.,0.83169911121,inf,0.
7.64,8279.,0.,0.,1722.,0.,0.,10001.,0.832337075567,inf,0.
7.66,8281.,1.,0.,1718.,0.,0.,10000.,0.832621401269,43.296312866,13.
7.68,8283.,1.,0.,1716.,0.,0.,10000.,0.832822493263,43.3067696497,13.
7.7,8289.,1.,0.,1709.,0.,0.,9999.,0.833509120157,43.3424742482,13.
7.72,8295.,0.,0.,1705.,0.,0.,10000.,0.834029045227,inf,0.
7.74,8293.,0.,1.,1703.,0.,0.,9997.,0.834078176686,inf,0.
7.76,8294.,0.,1.,1701.,0.,0.,9996.,0.834262204112,inf,0.
7.78,8293.,2.,1.,1699.,0.,0.,9995.,0.834245075771,21.69037197,26.
7.8,8296.,2.,0.,1698.,0.,0.,9996.,0.834463376575,21.6960477909,26.
7.82,8293.,2.,0.,1697.,0.,0.,9992.,0.834495549673,21.6968842915,26.
7.84,8296.,4.,0.,1694.,0.,0.,9994.,0.834630369446,10.8501948028,52.
7.86,8305.,4.,1.,1689.,0.,0.,9999.,0.835118016999,10.856534221,52.
7.88,8306.,4.,1.,1687.,0.,0.,9998.,0.835302111616,10.858927451,52.
7.9,8302.,3.,4.,1686.,0.,0.,9995.,0.835150442427,14.4759410021,39.
7.92,8295.,8.,3.,1689.,0.,0.,9995.,0.834446268361,5.42390074435,104.
7.94,8297.,9.,4.,1683.,0.,0.,9993.,0.834814507376,4.82337270928,117.
7.96,8292.,14.,6.,1681.,0.,0.,9993.,0.834311425234,3.09887100801,182.
7.98,8292.,14.,2.,1686.,0.,0.,9994.,0.834227944002,3.09856093487,182.
8.,8287.,14.,7.,1685.,0.,0.,9993.,0.833808343091,3.0970024172,182.
8.02,8279.,15.,10.,1686.,0.,0.,9990.,0.833253562838,2.88861235117,195.
8.04,8268.,27.,12.,1685.,0.,0.,9992.,0.831979887217,1.60233163464,351.
8.06,8254.,30.,13.,1693.,0.,0.,9990.,0.830737396746,1.43994482103,390.
8.08,8246.,31.,11.,1704.,0.,0.,9992.,0.829766104257,1.39186572327,403.
8.1,8240.,29.,18.,1706.,0.,0.,9993.,0.829079370951,1.48662507895,377.
8.12,8227.,33.,9.,1727.,0.,0.,9996.,0.827522926601,1.3039755207,429.
8.14,8209.,37.,15.,1733.,0.,0.,9994.,0.825877616053,1.1606928658,481.
8.16,8198.,30.,18.,1745.,0.,0.,9991.,0.825018600257,1.43003224045,390.
8.18,8184.,34.,13.,1758.,0.,0.,9989.,0.823774591609,1.25989055187,442.
8.2,8177.,27.,19.,1766.,0.,0.,9989.,0.823069994573,1.5851718414,351.
8.22,8167.,33.,13.,1781.,0.,0.,9994.,0.821652148899,1.29472459826,429.
8.24,8159.,24.,18.,1792.,0.,0.,9993.,0.820929440241,1.77868045386,312.
8.26,8160.,21.,21.,1793.,0.,0.,9995.,0.820865768514,2.03261999823,273.
8.28,8139.,28.,10.,1815.,0.,0.,9992.,0.818999068948,1.5209982709,364.
8.3,8137.,25.,7.,1824.,0.,0.,9993.,0.818715878814,1.70292902793,325.
8.32,8132.,22.,5.,1831.,0.,0.,9990.,0.81845850622,1.93453828743,286.
8.34,8136.,13.,12.,1832.,0.,0.,9993.,0.818615262385,3.27446104954,169.
8.36,8134.,16.,7.,1836.,0.,0.,9993.,0.818414029528,2.65984559597,208.
8.38,8132.,14.,8.,1841.,0.,0.,9995.,0.81804907225,3.03846798264,182.
8.4,8127.,11.,7.,1851.,0.,0.,9996.,0.81746430345,3.86437670722,143.
8.42,8125.,12.,9.,1849.,0.,0.,9995.,0.817344898184,3.54182789213,156.
8.44,8119.,14.,7.,1851.,0.,0.,9991.,0.817068311233,3.03482515601,182.
8.46,8119.,12.,4.,1855.,0.,0.,9990.,0.817150099852,3.54098376603,156.
8.48,8121.,3.,11.,1858.,0.,0.,9993.,0.817106015958,14.1631709433,39.
8.5,8124.,5.,0.,1865.,0.,0.,9994.,0.817326075383,8.50019118398,65.
8.52,8130.,1.,3.,1860.,0.,0.,9994.,0.817929713548,42.5323451045,13.
8.54,8137.,1.,0.,1858.,0.,0.,9996.,0.818470165765,42.5604486198,13.
8.56,8144.,1.,0.,1853.,0.,0.,9998.,0.819010401758,42.5885408914,13.
8.58,8148.,1.,0.,1848.,0.,0.,9997.,0.819494632056,42.6137208669,13.
8.6,8146.,1.,1.,1847.,0.,0.,9995.,0.819457420382,42.6117858599,13.
8.62,8146.,3.,0.,1847.,0.,0.,9996.,0.819375441849,14.2025076587,39.
8.64,8150.,2.,1.,1843.,0.,0.,9996.,0.819777786775,21.3142224561,26.
8.66,8150.,4.,0.,1842.,0.,0.,9996.,0.819777786775,10.6571112281,52.
8.68,8150.,3.,1.,1842.,0.,0.,9996.,0.819777786775,14.2094816374,39.
8.7,8152.,1.,0.,1843.,0.,0.,9996.,0.819978959238,42.6389058804,13.
8.72,8159.,1.,4.,1835.,0.,0.,9999.,0.820436833316,42.6627153325,13.
8.74,8158.,1.,1.,1835.,0.,0.,9995.,0.820664575924,42.6745579481,13.
8.76,8159.,2.,0.,1835.,0.,0.,9996.,0.820683062858,21.3377596343,26.
8.78,8162.,2.,1.,1831.,0.,0.,9996.,0.820984821553,21.3456053604,26.
8.8,8163.,1.,2.,1828.,0.,0.,9994.,0.821249723455,42.7049856197,13.
8.82,8166.,2.,2.,1825.,0.,0.,9995.,0.821469346285,21.3582030034,26.
8.84,8168.,4.,3.,1822.,0.,0.,9997.,0.821506155453,10.6795800209,52.
8.86,8163.,5.,4.,1822.,0.,0.,9994.,0.821249723455,8.54099712393,65.
8.88,8164.,7.,5.,1818.,0.,0.,9994.,0.821350329816,6.10145959292,91.
8.9,8159.,11.,5.,1819.,0.,0.,9994.,0.820847298012,3.88036904515,143.
8.92,8158.,13.,5.,1819.,0.,0.,9995.,0.820664575924,3.2826583037,169.
8.94,8158.,12.,3.,1822.,0.,0.,9995.,0.820664575924,3.55621316234,156.
8.96,8151.,14.,5.,1821.,0.,0.,9991.,0.82028868147,3.04678653118,182.
8.98,8152.,18.,4.,1819.,0.,0.,9993.,0.820225125242,2.3695392507,234.
9.,8145.,14.,12.,1820.,0.,0.,9991.,0.819684862051,3.04454377333,182.
9.02,8131.,21.,7.,1829.,0.,0.,9988.,0.81852172779,2.02681570691,273.
9.04,8113.,27.,12.,1835.,0.,0.,9987.,0.816791502724,1.57307993117,351.
9.06,8098.,35.,14.,1842.,0.,0.,9989.,0.81511811374,1.21103262613,455.
9.08,8087.,25.,25.,1850.,0.,0.,9987.,0.814173903923,1.69348172016,325.
9.1,8063.,36.,11.,1874.,0.,0.,9984.,0.812001576442,1.17289116597,468.
9.12,8054.,34.,12.,1888.,0.,0.,9988.,0.810770384408,1.24000176439,442.
9.14,8043.,32.,18.,1896.,0.,0.,9989.,0.809581994173,1.31557074053,416.
9.16,8021.,44.,13.,1911.,0.,0.,9989.,0.807367546346,0.954161645682,572.
9.18,8013.,35.,24.,1916.,0.,0.,9988.,0.806643045724,1.1984410965,455.
9.2,7998.,41.,12.,1940.,0.,0.,9991.,0.804891286272,1.02083772893,533.
9.22,7990.,35.,14.,1954.,0.,0.,9993.,0.803925263823,1.19440324911,455.
9.24,7988.,23.,20.,1961.,0.,0.,9992.,0.803804467718,1.81729705745,299.
9.26,7990.,23.,18.,1965.,0.,0.,9996.,0.803683989734,1.81702467244,299.
9.28,7976.,27.,6.,1986.,0.,0.,9995.,0.802356050205,1.54527831891,351.
9.3,7975.,26.,9.,1981.,0.,0.,9991.,0.802576645163,1.60515329033,338.
9.32,7968.,28.,5.,1989.,0.,0.,9990.,0.80195245666,1.48934027665,364.
9.34,7969.,19.,12.,1994.,0.,0.,9994.,0.801732089454,2.19421413956,247.
9.36,7964.,23.,9.,2000.,0.,0.,9996.,0.801068747715,1.81111195135,299.
9.38,7964.,19.,8.,2006.,0.,0.,9997.,0.800988616801,2.1921793723,247.
9.4,7963.,20.,5.,2013.,0.,0.,10001.,0.800567717447,2.08147606536,260.
9.42,7964.,19.,8.,2015.,0.,0.,10006.,0.80026815932,2.19020759393,247.
9.44,7965.,14.,10.,2019.,0.,0.,10008.,0.800208699253,2.97220374008,182.
9.46,7963.,11.,12.,2021.,0.,0.,10007.,0.800087712819,3.78223282424,143.
9.48,7958.,12.,5.,2028.,0.,0.,10003.,0.799905072712,3.46625531508,156.
9.5,7958.,8.,3.,2034.,0.,0.,10003.,0.799905072712,5.19938297263,104.
9.52,7963.,9.,4.,2030.,0.,0.,10006.,0.800167673614,4.6231910031,117.
9.54,7963.,5.,3.,2031.,0.,0.,10002.,0.800487676683,8.3250718375,65.
9.56,7963.,4.,1.,2032.,0.,0.,10000.,0.800647774218,10.4084210648,52.
9.58,7969.,1.,3.,2028.,0.,0.,10001.,0.801170933107,41.6608885216,13.
9.6,7973.,1.,2.,2026.,0.,0.,10002.,0.801492935601,41.6776326513,13.
9.62,7979.,1.,2.,2024.,0.,0.,10006.,0.801775444904,41.692323135,13.
9.64,7984.,2.,0.,2020.,0.,0.,10006.,0.802277873432,20.8592247092,26.
9.66,7990.,0.,1.,2014.,0.,0.,10005.,0.80296103562,inf,0.
9.68,7997.,2.,0.,2006.,0.,0.,10005.,0.803664505864,20.8952771525,26.
9.7,8004.,1.,1.,2003.,0.,0.,10009.,0.80404651823,41.8104189479,13.
9.72,8004.,1.,0.,2002.,0.,0.,10007.,0.804207215045,41.8187751824,13.
9.74,8012.,1.,0.,1996.,0.,0.,10009.,0.804850162926,41.8522084721,13.
9.76,8012.,1.,1.,1993.,0.,0.,10007.,0.805011020358,41.8605730586,13.
9.78,8019.,3.,0.,1988.,0.,0.,10010.,0.805472877174,13.961529871,39.
9.8,8021.,1.,2.,1985.,0.,0.,10009.,0.805754263208,41.8992216868,13.
9.82,8022.,3.,1.,1982.,0.,0.,10008.,0.80593523985,13.9695441574,39.
9.84,8023.,3.,2.,1980.,0.,0.,10008.,0.806035705475,13.9712855616,39.
9.86,8023.,5.,1.,1979.,0.,0.,10008.,0.806035705475,8.38277133694,65.
9.88,8025.,4.,4.,1973.,0.,0.,10006.,0.806397787361,10.4831712357,52.
9.9,8025.,7.,3.,1971.,0.,0.,10006.,0.806397787361,5.99038356325,91.
9.92,8020.,8.,6.,1971.,0.,0.,10005.,0.805975908094,5.23884340261,104.
9.94,8013.,11.,8.,1971.,0.,0.,10003.,0.805433444036,3.80750355362,143.
9.96,8012.,9.,9.,1973.,0.,0.,10003.,0.805332928194,4.65303469623,117.
9.98,8008.,11.,9.,1973.,0.,0.,10001.,0.805091834901,3.80588867408,143.
10.,8002.,15.,11.,1976.,0.,0.,10004.,0.804247369154,2.7880575464,195.
