t,s,e,i,r,c,o,n,reff,coal,reportr
5.,6007.,5.,56.,3931.,0.,0.,9999.,0.840315948339,8.73928586273,65.
5.02,5991.,26.,18.,3965.,0.,0.,10000.,0.837993909308,1.67598781862,338.
5.04,5973.,29.,19.,3974.,0.,0.,9995.,0.835894097992,1.4988445895,377.
5.06,5969.,29.,22.,3976.,0.,0.,9996.,0.835250749384,1.49769099889,377.
5.08,5965.,27.,22.,3985.,0.,0.,9999.,0.834440591284,1.6070707684,351.
5.1,5951.,39.,15.,3994.,0.,0.,9999.,0.832482138932,1.10997618524,507.
5.12,5944.,38.,13.,4005.,0.,0.,10000.,0.831419762465,1.13773230653,494.
5.14,5942.,33.,14.,4011.,0.,0.,10000.,0.831140011536,1.30967516969,429.
5.16,5942.,27.,14.,4018.,0.,0.,10001.,0.831056905845,1.60055404089,351.
5.18,5925.,31.,23.,4022.,0.,0.,10001.,0.828679260709,1.39004263087,403.
5.2,5923.,30.,17.,4033.,0.,0.,10003.,0.828233907533,1.43560543972,390.
5.22,5920.,31.,11.,4044.,0.,0.,10006.,0.827566211584,1.38817558072,403.
5.24,5911.,26.,20.,4049.,0.,0.,10006.,0.826308087276,1.65261617455,338.
5.26,5903.,26.,17.,4059.,0.,0.,10005.,0.825272232294,1.65054446459,338.
5.28,5894.,36.,11.,4066.,0.,0.,10007.,0.823849294721,1.19000453682,468.
5.3,5895.,26.,14.,4076.,0.,0.,10011.,0.82365983887,1.64731967774,338.
5.32,5895.,25.,13.,4080.,0.,0.,10013.,0.823495320776,1.71287026721,325.
5.34,5888.,30.,7.,4088.,0.,0.,10013.,0.822517463736,1.42569693714,390.
5.36,5893.,21.,14.,4088.,0.,0.,10016.,0.822969362783,2.03782889832,273.
5.38,5888.,15.,15.,4098.,0.,0.,10016.,0.822271102675,2.85053982261,195.
5.4,5897.,19.,5.,4096.,0.,0.,10017.,0.823445757834,2.25364102144,247.
5.42,5899.,11.,8.,4100.,0.,0.,10018.,0.823642809494,3.89358419034,143.
5.44,5906.,9.,5.,4095.,0.,0.,10015.,0.824867194014,4.76589934319,117.
5.46,5910.,6.,5.,4095.,0.,0.,10016.,0.825343447148,7.15297654195,78.
5.48,5917.,3.,5.,4089.,0.,0.,10014.,0.826486044455,14.3257581039,39.
5.5,5915.,6.,3.,4091.,0.,0.,10015.,0.826124187706,7.15974296012,78.
5.52,5922.,2.,6.,4085.,0.,0.,10015.,0.827101849467,21.5046480861,26.
5.54,5931.,3.,2.,4080.,0.,0.,10016.,0.8282761396,14.3567864197,39.
5.56,5940.,2.,2.,4069.,0.,0.,10013.,0.829781544598,21.5743201596,26.
5.58,5949.,4.,2.,4056.,0.,0.,10011.,0.831204814493,10.8056625884,52.
5.6,5956.,1.,3.,4051.,0.,0.,10011.,0.832182866889,43.2735090782,13.
5.62,5968.,0.,1.,4043.,0.,0.,10012.,0.833776242129,inf,0.
5.64,5979.,0.,0.,4037.,0.,0.,10016.,0.834979436633,inf,0.
5.66,5987.,0.,0.,4032.,0.,0.,10019.,0.83584629948,inf,0.
5.68,5992.,0.,0.,4026.,0.,0.,10018.,0.836627854635,inf,0.
5.7,6000.,2.,0.,4019.,0.,0.,10021.,0.837494050984,21.7748453256,26.
5.72,6001.,1.,1.,4015.,0.,0.,10018.,0.837884471906,43.5699925391,13.
5.74,6014.,1.,0.,4008.,0.,0.,10023.,0.839280699389,43.6425963682,13.
5.76,6017.,0.,0.,4004.,0.,0.,10021.,0.839866950795,inf,0.
5.78,6025.,2.,0.,3996.,0.,0.,10023.,0.840815798773,21.8612107681,26.
5.8,6035.,0.,3.,3984.,0.,0.,10022.,0.842295379922,inf,0.
5.82,6038.,3.,4.,3974.,0.,0.,10019.,0.842966419954,14.6114179459,39.
5.84,6045.,5.,4.,3969.,0.,0.,10023.,0.843606888561,8.77351164104,65.
5.86,6039.,12.,5.,3968.,0.,0.,10024.,0.842685486449,3.65163710795,156.
5.88,6043.,8.,4.,3973.,0.,0.,10028.,0.842907293055,5.47889740486,104.
5.9,6036.,12.,6.,3973.,0.,0.,10027.,0.842014865086,3.64873108204,156.
5.92,6041.,8.,8.,3972.,0.,0.,10029.,0.842544304064,5.47653797642,104.
5.94,6038.,11.,12.,3971.,0.,0.,10032.,0.841874059162,3.97976827968,143.
5.96,6041.,9.,7.,3968.,0.,0.,10025.,0.842880481342,4.86997611442,117.
5.98,6046.,10.,2.,3966.,0.,0.,10024.,0.843662270421,4.38704380619,130.
6.,6053.,7.,7.,3958.,0.,0.,10025.,0.84455480112,6.27383566546,91.
6.02,6052.,7.,7.,3960.,0.,0.,10026.,0.844331051923,6.27217352857,91.
6.04,6042.,16.,5.,3964.,0.,0.,10027.,0.842851857994,2.73926853848,208.
6.06,6040.,16.,12.,3958.,0.,0.,10026.,0.842656899143,2.73863492222,208.
6.08,6036.,18.,17.,3957.,0.,0.,10028.,0.841930898706,2.43224481848,234.
6.1,6027.,21.,12.,3965.,0.,0.,10025.,0.840927108269,2.08229569667,273.
6.12,6024.,27.,9.,3963.,0.,0.,10023.,0.840676244283,1.61908017418,351.
6.14,6015.,34.,13.,3963.,0.,0.,10025.,0.839252788491,1.28356308828,442.
6.16,6008.,33.,12.,3972.,0.,0.,10025.,0.838276101954,1.32091991823,429.
6.18,6012.,25.,17.,3974.,0.,0.,10028.,0.838583260938,1.74425318275,325.
6.2,6003.,25.,15.,3986.,0.,0.,10029.,0.837244406108,1.7414683647,325.
6.22,6007.,30.,14.,3981.,0.,0.,10032.,0.837551751141,1.45175636864,390.
6.24,5996.,29.,21.,3987.,0.,0.,10033.,0.835934702115,1.4989173969,377.
6.26,5991.,35.,13.,3992.,0.,0.,10031.,0.835404156423,1.24117188954,455.
6.28,5984.,26.,19.,4000.,0.,0.,10029.,0.834594457129,1.66918891426,338.
6.3,5975.,23.,15.,4013.,0.,0.,10026.,0.833588571586,1.88463503141,299.
6.32,5971.,25.,11.,4018.,0.,0.,10025.,0.833113615974,1.73287632122,325.
6.34,5965.,27.,8.,4027.,0.,0.,10027.,0.832110449013,1.60258308699,351.
6.36,5965.,22.,9.,4031.,0.,0.,10027.,0.832110449013,1.96680651585,286.
6.38,5976.,15.,6.,4032.,0.,0.,10029.,0.833478689139,2.88939278901,195.
6.4,5977.,13.,6.,4034.,0.,0.,10030.,0.833535047659,3.33414019064,169.
6.42,5980.,11.,4.,4036.,0.,0.,10031.,0.833870281324,3.94193223899,143.
6.44,5984.,12.,4.,4028.,0.,0.,10028.,0.834677683541,3.61693662868,156.
6.46,5990.,8.,2.,4027.,0.,0.,10027.,0.835597919461,5.4313864765,104.
6.48,6004.,3.,5.,4018.,0.,0.,10030.,0.837300389183,14.5132067458,39.
6.5,6008.,4.,4.,4013.,0.,0.,10029.,0.837941761102,10.8932428943,52.
6.52,6012.,4.,0.,4011.,0.,0.,10027.,0.838666893456,10.9026696149,52.
6.54,6020.,2.,1.,4004.,0.,0.,10027.,0.839782883999,21.834354984,26.
6.56,6031.,2.,0.,3989.,0.,0.,10022.,0.841737106265,21.8851647629,26.
6.58,6041.,2.,1.,3978.,0.,0.,10022.,0.843132790407,21.9214525506,26.
6.6,6055.,1.,0.,3968.,0.,0.,10024.,0.844918135527,43.9357430474,13.
6.62,6061.,1.,2.,3962.,0.,0.,10026.,0.845586666508,43.9705066584,13.
6.64,6068.,1.,0.,3958.,0.,0.,10027.,0.84647882726,44.0168990175,13.
6.66,6077.,2.,0.,3949.,0.,0.,10028.,0.847649779893,22.0388942772,26.
6.68,6079.,0.,0.,3945.,0.,0.,10024.,0.848267109144,inf,0.
6.7,6088.,0.,0.,3938.,0.,0.,10026.,0.849353510262,inf,0.
6.72,6098.,0.,0.,3926.,0.,0.,10024.,0.850918379925,inf,0.
6.74,6109.,0.,0.,3916.,0.,0.,10025.,0.852368293415,inf,0.
6.76,6122.,1.,0.,3899.,0.,0.,10022.,0.85443783196,44.4307672619,13.
6.78,6128.,0.,0.,3891.,0.,0.,10019.,0.855531338436,inf,0.
6.8,6136.,1.,0.,3884.,0.,0.,10021.,0.856477249473,44.5368169726,13.
6.82,6149.,2.,0.,3875.,0.,0.,10026.,0.857863786893,22.3044584592,26.
6.84,6154.,4.,0.,3870.,0.,0.,10028.,0.858390117733,11.1590715305,52.
6.86,6162.,5.,1.,3862.,0.,0.,10030.,0.859334609951,8.93707994349,65.
6.88,6168.,7.,5.,3853.,0.,0.,10033.,0.859914149874,6.38793368478,91.
6.9,6171.,8.,6.,3848.,0.,0.,10033.,0.860332396056,5.59216057437,104.
6.92,6168.,10.,6.,3848.,0.,0.,10032.,0.859999866995,4.47199930837,130.
6.94,6171.,15.,4.,3842.,0.,0.,10032.,0.860418154868,2.98278293687,195.
6.96,6173.,13.,6.,3839.,0.,0.,10031.,0.860782817159,3.44313126864,169.
6.98,6167.,19.,6.,3839.,0.,0.,10031.,0.859946158014,2.35353685351,247.
7.,6167.,17.,8.,3837.,0.,0.,10029.,0.860117649919,2.63094810564,221.
7.02,6169.,15.,11.,3835.,0.,0.,10030.,0.860310809605,2.98241080663,195.
7.04,6163.,18.,5.,3841.,0.,0.,10027.,0.859731214965,2.48366795434,234.
7.06,6158.,19.,9.,3842.,0.,0.,10028.,0.858948057361,2.35080520962,247.
7.08,6151.,24.,13.,3839.,0.,0.,10027.,0.858057229149,1.85912399649,312.
7.1,6144.,29.,16.,3838.,0.,0.,10027.,0.857080737424,1.53683442573,377.
7.12,6142.,34.,17.,3835.,0.,0.,10028.,0.856716298849,1.31027198647,442.
7.14,6132.,34.,17.,3845.,0.,0.,10028.,0.855321449779,1.3081386879,442.
7.16,6126.,34.,15.,3853.,0.,0.,10028.,0.854484540337,1.30685870875,442.
7.18,6117.,34.,20.,3855.,0.,0.,10026.,0.85339937948,1.30519905097,442.
7.2,6115.,32.,15.,3865.,0.,0.,10027.,0.853035271704,1.38618231652,416.
7.22,6104.,36.,12.,3876.,0.,0.,10028.,0.851415872382,1.22982292677,468.
7.24,6105.,31.,15.,3874.,0.,0.,10025.,0.851810186823,1.42884289403,403.
7.26,6098.,32.,17.,3877.,0.,0.,10024.,0.850918379925,1.38274236738,416.
7.28,6095.,28.,18.,3884.,0.,0.,10025.,0.850414920341,1.57934199492,364.
7.3,6099.,18.,8.,3901.,0.,0.,10026.,0.85088815031,2.45812132312,234.
7.32,6103.,15.,11.,3895.,0.,0.,10024.,0.851616082762,2.95226908691,195.
7.34,6102.,17.,10.,3897.,0.,0.,10026.,0.851306688505,2.60399692955,221.
7.36,6104.,16.,1.,3902.,0.,0.,10023.,0.851840603437,2.76848196117,208.
7.38,6113.,12.,4.,3892.,0.,0.,10021.,0.853266855611,3.69748970765,156.
7.4,6119.,15.,1.,3885.,0.,0.,10020.,0.854189589617,2.96119057734,195.
7.42,6124.,10.,8.,3875.,0.,0.,10017.,0.855143601997,4.44674673038,130.
7.44,6128.,13.,2.,3880.,0.,0.,10023.,0.855189911183,3.42075964473,169.
7.46,6131.,9.,4.,3874.,0.,0.,10018.,0.856035610275,4.94598352603,117.
7.48,6132.,6.,4.,3875.,0.,0.,10017.,0.856260706637,7.42092612418,78.
7.5,6138.,3.,1.,3876.,0.,0.,10018.,0.857012979264,14.8548916406,39.
7.52,6153.,0.,2.,3868.,0.,0.,10023.,0.858678773419,inf,0.
7.54,6170.,1.,1.,3854.,0.,0.,10026.,0.860793554257,44.7612648214,13.
7.56,6176.,0.,1.,3848.,0.,0.,10025.,0.86171657884,inf,0.
7.58,6187.,1.,1.,3835.,0.,0.,10024.,0.863337490422,44.8935495019,13.
7.6,6195.,0.,0.,3828.,0.,0.,10023.,0.864540061975,inf,0.
7.62,6209.,0.,1.,3816.,0.,0.,10026.,0.866234550792,inf,0.
7.64,6218.,0.,0.,3811.,0.,0.,10029.,0.867230670861,inf,0.
7.66,6231.,0.,0.,3797.,0.,0.,10028.,0.869130455572,inf,0.
7.68,6238.,0.,0.,3789.,0.,0.,10027.,0.87019362631,inf,0.
7.7,6245.,0.,0.,3784.,0.,0.,10029.,0.87099638783,inf,0.
7.72,6252.,0.,0.,3775.,0.,0.,10027.,0.872146609761,inf,0.
7.74,6266.,1.,0.,3764.,0.,0.,10031.,0.873751033909,45.4350537633,13.
7.76,6273.,0.,2.,3755.,0.,0.,10030.,0.874814347326,inf,0.
7.78,6273.,3.,2.,3748.,0.,0.,10026.,0.875163365617,15.1694983374,39.
7.8,6275.,6.,3.,3740.,0.,0.,10024.,0.875617060352,7.58868118972,78.
7.82,6281.,5.,5.,3731.,0.,0.,10022.,0.876629209824,9.11694378217,65.
7.84,6281.,5.,8.,3726.,0.,0.,10020.,0.876804185714,9.11876353143,65.
7.86,6285.,4.,8.,3724.,0.,0.,10021.,0.877275018406,11.4045752393,52.
7.88,6285.,5.,6.,3722.,0.,0.,10018.,0.877537728034,9.12639237155,65.
7.9,6288.,16.,2.,3717.,0.,0.,10023.,0.877518629491,2.85193554585,208.
7.92,6305.,7.,6.,3709.,0.,0.,10027.,0.879540047112,6.53372606426,91.
7.94,6301.,12.,5.,3707.,0.,0.,10025.,0.879157409856,3.80968210938,156.
7.96,6303.,13.,8.,3707.,0.,0.,10031.,0.878910431971,3.51564172788,169.
7.98,6300.,16.,11.,3706.,0.,0.,10033.,0.878316981876,2.8545301911,208.
8.,6295.,22.,13.,3704.,0.,0.,10034.,0.877532440295,2.07416758615,286.
8.02,6290.,26.,8.,3706.,0.,0.,10030.,0.877185117914,1.75437023583,338.
8.04,6291.,21.,6.,3711.,0.,0.,10029.,0.877412053777,2.17263937126,273.
8.06,6291.,15.,13.,3706.,0.,0.,10025.,0.877762143375,3.0429087637,195.
8.08,6281.,25.,9.,3710.,0.,0.,10025.,0.876366876893,1.82284310394,325.
8.1,6268.,22.,18.,3718.,0.,0.,10026.,0.874465801959,2.06691916827,286.
8.12,6261.,30.,9.,3722.,0.,0.,10022.,0.873837841539,1.51465225867,390.
8.14,6253.,26.,17.,3727.,0.,0.,10023.,0.872634222361,1.74526844472,338.
8.16,6248.,27.,14.,3737.,0.,0.,10026.,0.871675547326,1.67878253559,351.
8.18,6240.,22.,21.,3743.,0.,0.,10026.,0.870559445473,2.05768596203,286.
8.2,6225.,32.,11.,3758.,0.,0.,10026.,0.868466754498,1.41125847606,416.
8.22,6223.,29.,14.,3759.,0.,0.,10025.,0.868274331302,1.55690569751,377.
8.24,6218.,26.,22.,3763.,0.,0.,10029.,0.867230670861,1.73446134172,338.
8.26,6211.,25.,16.,3780.,0.,0.,10032.,0.865995326508,1.80127027914,325.
8.28,6204.,31.,5.,3786.,0.,0.,10026.,0.865536987133,1.45186849455,403.
8.3,6208.,26.,7.,3786.,0.,0.,10027.,0.866008661772,1.73201732354,338.
8.32,6208.,27.,4.,3789.,0.,0.,10028.,0.865922302711,1.66770221263,351.
8.34,6209.,16.,19.,3785.,0.,0.,10029.,0.865975431871,2.81442015358,208.
8.36,6200.,22.,8.,3797.,0.,0.,10027.,0.864892671229,2.04429176836,286.
8.38,6205.,18.,5.,3799.,0.,0.,10027.,0.865590165318,2.50059381092,234.
8.4,6199.,19.,7.,3801.,0.,0.,10026.,0.864839423475,2.36692894846,247.
8.42,6201.,19.,6.,3799.,0.,0.,10025.,0.865204745043,2.36792877591,247.
8.44,6203.,15.,7.,3801.,0.,0.,10026.,0.865397474402,3.00004457793,195.
8.46,6206.,15.,6.,3796.,0.,0.,10023.,0.866075161358,3.00239389271,195.
8.48,6218.,13.,4.,3788.,0.,0.,10023.,0.867749815231,3.47099926093,169.
8.5,6229.,8.,6.,3777.,0.,0.,10020.,0.869545179559,5.65204366714,104.
8.52,6240.,4.,3.,3773.,0.,0.,10020.,0.871080738554,11.3240496012,52.
8.54,6249.,2.,3.,3766.,0.,0.,10020.,0.872337105004,22.6807647301,26.
8.56,6262.,1.,0.,3756.,0.,0.,10019.,0.874239105954,45.4604335096,13.
8.58,6271.,2.,0.,3748.,0.,0.,10021.,0.87532086562,22.7583425061,26.
8.6,6284.,0.,0.,3739.,0.,0.,10023.,0.876960411533,inf,0.
8.62,6293.,0.,0.,3728.,0.,0.,10021.,0.87839167714,inf,0.
8.64,6302.,0.,0.,3722.,0.,0.,10024.,0.879384655672,inf,0.
8.66,6309.,0.,0.,3717.,0.,0.,10026.,0.880185823956,inf,0.
8.68,6318.,1.,0.,3707.,0.,0.,10026.,0.881441438541,45.8349548041,13.
8.7,6330.,2.,0.,3695.,0.,0.,10027.,0.883027517561,22.9587154566,26.
8.72,6334.,3.,0.,3686.,0.,0.,10023.,0.883938136004,15.3215943574,39.
8.74,6344.,2.,1.,3677.,0.,0.,10024.,0.885245359502,23.016379347,26.
8.76,6350.,5.,0.,3673.,0.,0.,10028.,0.885729159507,9.21158325887,65.
8.78,6355.,4.,3.,3664.,0.,0.,10026.,0.886603409612,11.525844325,52.
8.8,6360.,6.,1.,3658.,0.,0.,10025.,0.887389482095,7.69070884483,78.
8.82,6364.,2.,5.,3651.,0.,0.,10022.,0.888213388206,23.0935480933,26.
8.84,6370.,3.,5.,3646.,0.,0.,10024.,0.888873414254,15.4071391804,39.
8.86,6372.,8.,3.,3642.,0.,0.,10025.,0.889063801873,5.77891471217,104.
8.88,6374.,12.,3.,3636.,0.,0.,10025.,0.889342855169,3.85381903907,156.
8.9,6377.,14.,2.,3635.,0.,0.,10028.,0.889495251996,3.30383950741,182.
8.92,6384.,12.,4.,3630.,0.,0.,10030.,0.8902940847,3.8579410337,156.
8.94,6388.,16.,4.,3623.,0.,0.,10031.,0.890763103194,2.89498008538,208.
8.96,6391.,14.,5.,3621.,0.,0.,10031.,0.891181432766,3.31010246456,182.
8.98,6392.,13.,6.,3620.,0.,0.,10031.,0.891320875957,3.56528350383,169.
9.,6392.,11.,10.,3620.,0.,0.,10033.,0.891143198119,4.21267693656,143.
9.02,6387.,21.,8.,3617.,0.,0.,10033.,0.890446121149,2.20491420475,273.
9.04,6391.,19.,15.,3606.,0.,0.,10031.,0.891181432766,2.43902286862,247.
9.06,6383.,24.,14.,3610.,0.,0.,10031.,0.890065887239,1.92847608902,312.
9.08,6371.,28.,12.,3620.,0.,0.,10031.,0.888392568949,1.64987191376,364.
9.1,6357.,34.,17.,3621.,0.,0.,10029.,0.886617139701,1.35600268425,442.
9.12,6349.,32.,20.,3626.,0.,0.,10027.,0.885677995102,1.43922674204,416.
9.14,6343.,27.,13.,3645.,0.,0.,10028.,0.884752765157,1.70396828845,351.
9.16,6339.,27.,19.,3643.,0.,0.,10028.,0.884194825529,1.70289373806,351.
9.18,6326.,33.,17.,3650.,0.,0.,10026.,0.882557540394,1.39069673032,429.
9.2,6324.,28.,23.,3652.,0.,0.,10027.,0.882190524653,1.6383538315,364.
9.22,6302.,35.,23.,3664.,0.,0.,10024.,0.879384655672,1.30651434557,455.
9.24,6291.,37.,15.,3681.,0.,0.,10024.,0.87784970943,1.23373472677,481.
9.26,6284.,39.,10.,3690.,0.,0.,10023.,0.876960411533,1.16928054871,507.
9.28,6283.,36.,15.,3693.,0.,0.,10027.,0.876471073118,1.26601377228,468.
9.3,6277.,28.,12.,3707.,0.,0.,10024.,0.875896141487,1.62666426276,364.
9.32,6274.,19.,13.,3714.,0.,0.,10020.,0.875827011809,2.39700024284,247.
9.34,6277.,23.,4.,3717.,0.,0.,10021.,0.876158359671,1.98087976969,299.
9.36,6282.,17.,6.,3715.,0.,0.,10020.,0.876943781986,2.68241627431,221.
9.38,6287.,14.,11.,3711.,0.,0.,10023.,0.877379075001,3.25883656429,182.
9.4,6288.,18.,7.,3712.,0.,0.,10025.,0.87734356343,2.53454807213,234.
9.42,6288.,16.,8.,3712.,0.,0.,10024.,0.877431087728,2.85165103512,208.
9.44,6299.,12.,9.,3705.,0.,0.,10025.,0.87887835656,3.80847287842,156.
9.46,6299.,13.,4.,3714.,0.,0.,10030.,0.878440231756,3.51376092702,169.
9.48,6299.,9.,7.,3712.,0.,0.,10027.,0.878703054205,5.07695097985,117.
9.5,6308.,3.,7.,3708.,0.,0.,10026.,0.880046311225,15.2541360612,39.
9.52,6314.,1.,4.,3709.,0.,0.,10028.,0.880707702854,45.7968005484,13.
9.54,6324.,2.,0.,3704.,0.,0.,10030.,0.881926659092,22.9300931364,26.
9.56,6338.,2.,0.,3693.,0.,0.,10033.,0.883614766846,22.973983938,26.
9.58,6347.,2.,1.,3684.,0.,0.,10034.,0.884781318277,23.0043142752,26.
9.6,6352.,1.,2.,3678.,0.,0.,10033.,0.885566582361,46.0494622828,13.
9.62,6367.,0.,2.,3668.,0.,0.,10037.,0.887304059035,inf,0.
9.64,6375.,0.,0.,3663.,0.,0.,10038.,0.88833043213,inf,0.
9.66,6386.,1.,0.,3651.,0.,0.,10038.,0.889863237581,46.2728883542,13.
9.68,6392.,0.,1.,3642.,0.,0.,10035.,0.890965591104,inf,0.
9.7,6404.,0.,0.,3630.,0.,0.,10034.,0.892727203757,inf,0.
9.72,6409.,0.,0.,3625.,0.,0.,10034.,0.893424211255,inf,0.
9.74,6415.,1.,0.,3617.,0.,0.,10033.,0.89434975218,46.5061871133,13.
9.76,6420.,2.,1.,3610.,0.,0.,10033.,0.895046829149,23.2712175579,26.
9.78,6424.,1.,4.,3606.,0.,0.,10035.,0.895425994564,46.5621517173,13.
9.8,6430.,2.,3.,3600.,0.,0.,10035.,0.896262320212,23.3028203255,26.
9.82,6440.,4.,2.,3593.,0.,0.,10039.,0.897298528718,11.6648808733,52.
9.84,6449.,5.,2.,3584.,0.,0.,10040.,0.898463020083,9.34401540886,65.
9.86,6444.,6.,4.,3577.,0.,0.,10031.,0.898571921882,7.78762332297,78.
9.88,6455.,8.,3.,3565.,0.,0.,10031.,0.900105796981,5.85068768038,104.
9.9,6451.,10.,3.,3566.,0.,0.,10030.,0.899637709963,4.67811609181,130.
9.92,6450.,12.,5.,3561.,0.,0.,10028.,0.899677650207,3.8986031509,156.
9.94,6452.,10.,5.,3558.,0.,0.,10025.,0.900225933723,4.68117485536,130.
9.96,6453.,10.,4.,3557.,0.,0.,10024.,0.900455281347,4.682367463,130.
9.98,6448.,12.,7.,3553.,0.,0.,10020.,0.900116763172,3.90050597375,156.
10.,6446.,16.,4.,3554.,0.,0.,10020.,0.899837570628,2.92447210454,208.
