t,prevalence
5.,6
5.02,7
5.04,4
5.06,6
5.08,7
5.1,5
5.12,4
5.14,6
5.16,9
5.18,12
5.2,9
5.22,6
5.24,10
5.26,9
5.28,4
5.3,4
5.32,6
5.34,11
5.36,4
5.38,2
5.4,7
5.42,6
5.44,4
5.46,0
5.48,2
5.5,1
5.52,0
5.54,1
5.56,0
5.58,0
5.6,0
5.62,1
5.64,0
5.66,2
5.68,0
5.7,0
5.72,0
5.74,0
5.76,0
5.78,0
5.8,0
5.82,0
5.84,0
5.86,0
5.88,1
5.9,0
5.92,3
5.94,2
5.96,3
5.98,3
6.,1
6.02,3
6.04,0
6.06,4
6.08,10
6.1,8
6.12,12
6.14,11
6.16,8
6.18,11
6.2,11
6.22,8
6.24,9
6.26,7
6.28,5
6.3,1
6.32,5
6.34,3
6.36,1
6.38,3
6.4,3
6.42,5
6.44,2
6.46,2
6.48,1
6.5,0
6.52,1
6.54,2
6.56,1
6.58,1
6.6,1
6.62,1
6.64,0
6.66,0
6.68,0
6.7,0
6.72,0
6.74,0
6.76,0
6.78,0
6.8,0
6.82,0
6.84,0
6.86,0
6.88,2
6.9,0
6.92,0
6.94,1
6.96,3
6.98,4
7.,2
7.02,6
7.04,1
7.06,2
7.08,8
7.1,9
7.12,9
7.14,10
7.16,9
7.18,10
7.2,8
7.22,7
7.24,2
7.26,1
7.28,8
7.3,6
7.32,6
7.34,5
7.36,7
7.38,3
7.4,5
7.42,4
7.44,3
7.46,2
7.48,0
7.5,1
7.52,0
7.54,0
7.56,0
7.58,2
7.6,2
7.62,0
7.64,0
7.66,0
7.68,0
7.7,0
7.72,0
7.74,0
7.76,1
7.78,0
7.8,0
7.82,1
7.84,0
7.86,0
7.88,3
7.9,2
7.92,5
7.94,3
7.96,5
7.98,6
8.,3
8.02,3
8.04,7
8.06,3
8.08,7
8.1,11
8.12,8
8.14,9
8.16,7
8.18,6
8.2,9
8.22,9
8.24,4
8.26,4
8.28,3
8.3,9
8.32,5
8.34,7
8.36,6
8.38,4
8.4,4
8.42,1
8.44,5
8.46,2
8.48,2
8.5,0
8.52,1
8.54,0
8.56,1
8.58,2
8.6,0
8.62,0
8.64,0
8.66,0
8.68,0
8.7,0
8.72,0
8.74,0
8.76,2
8.78,1
8.8,0
8.82,0
8.84,2
8.86,0
8.88,1
8.9,4
8.92,4
8.94,3
8.96,5
8.98,4
9.,5
9.02,2
9.04,5
9.06,8
9.08,5
9.1,8
9.12,9
9.14,8
9.16,11
9.18,7
9.2,9
9.22,13
9.24,13
9.26,8
9.28,11
9.3,9
9.32,6
9.34,3
9.36,7
9.38,9
9.4,8
9.42,1
9.44,2
9.46,4
9.48,1
9.5,1
9.52,0
9.54,0
9.56,1
9.58,0
9.6,0
9.62,0
9.64,0
9.66,0
9.68,0
9.7,0
9.72,0
9.74,0
9.76,0
9.78,0
9.8,0
9.82,2
9.84,1
9.86,0
9.88,1
9.9,0
9.92,0
9.94,2
9.96,4
9.98,5
10.,7
