t,neff
5.,0.459322809285
5.02,0.439848735384
5.04,0.500550377407
5.06,0.521109638634
5.08,0.481629927585
5.1,0.502431326084
5.12,0.846455582534
5.14,0.665832404972
5.16,0.747861883406
5.18,0.708708642938
5.2,0.77058451421
5.22,0.62930380996
5.24,0.691292828787
5.26,0.528858135562
5.28,0.549782951718
5.3,0.530026193444
5.32,0.387741954829
5.34,0.367757404008
5.36,0.429554490474
5.38,0.389010455544
5.4,0.348285312473
5.42,0.24595124525
5.44,0.18450144843
5.46,0.225597433373
5.48,0.123036410489
5.5,0.0820242736591
5.52,0.0820436379646
5.54,0.0615316183262
5.56,0.0615454114554
5.58,0.020517685764
5.6,0.102589670818
5.62,0.12312440844
5.64,0.061574907845
5.66,0.
5.68,0.0205229143188
5.7,0.0205227894846
5.72,0.
5.74,0.0205227894846
5.76,0.
5.78,0.0410550511869
5.8,0.0410381065354
5.82,0.061572117063
5.84,0.0821218453879
5.86,0.0615844586379
5.88,0.143757319388
5.9,0.184887538362
5.92,0.0821881913583
5.94,0.185104103469
5.96,0.226309208087
5.98,0.164659717314
6.,0.164729934677
6.02,0.18531998326
6.04,0.22671971348
6.06,0.412831591753
6.08,0.247935695651
6.1,0.455269571879
6.12,0.538911439814
6.14,0.539713953346
6.16,0.833000099807
6.18,0.604492367599
6.2,0.752193729611
6.22,0.606528501552
6.24,0.649487353976
6.26,0.608178031297
6.28,0.503638972894
6.3,0.440963663851
6.32,0.37812980175
6.34,0.336300876745
6.36,0.378629780882
6.38,0.273544089412
6.4,0.231540023868
6.42,0.168463114266
6.44,0.147418664939
6.46,0.0842201569237
6.48,0.105276125391
6.5,0.0841948908772
6.52,0.0631404064377
6.54,0.0420848124149
6.56,0.0631472792368
6.58,0.0842139628093
6.6,0.0420978157577
6.62,0.0631524846693
6.64,0.021051013612
6.66,0.0210489078789
6.68,0.0210471721277
6.7,0.0210380112258
6.72,0.0631192446449
6.74,0.0210369082229
6.76,0.0210399323377
6.78,0.0420848124149
6.8,0.0210374595444
6.82,0.0631096226253
6.84,0.0841560484963
6.86,0.0631244533452
6.88,0.105233086077
6.9,0.168461624683
6.92,0.147386575547
6.94,0.12627748485
6.96,0.126301633792
6.98,0.252795779601
7.,0.316267352002
7.02,0.443398293294
7.04,0.550075202244
7.06,0.423517341472
7.08,0.636454691503
7.1,0.339588215634
7.12,0.55316626771
7.14,0.703319209497
7.16,0.5977908884
7.18,0.942484993077
7.2,0.750534576649
7.22,0.838250968461
7.24,0.710172615518
7.26,0.711438379342
7.28,0.560895650948
7.3,0.561458862022
7.32,0.47536239702
7.34,0.367571767848
7.36,0.454329188167
7.38,0.28151335224
7.4,0.281717273904
7.42,0.216827026217
7.44,0.130107653818
7.46,0.151792262787
7.48,0.130122234973
7.5,0.0650473228268
7.52,0.0216700392436
7.54,0.
7.56,0.0649913967553
7.58,0.
7.6,0.0433102633309
7.62,0.
7.64,0.
7.66,0.0432962318139
7.68,0.
7.7,0.021650540108
7.72,0.0649783958758
7.74,0.0216599832688
7.76,0.0433097464984
7.78,0.0649565715152
7.8,0.0866077300196
7.82,0.0865842277523
7.84,0.151562437347
7.86,0.173255031075
7.88,0.173252964494
7.9,0.12992828697
7.92,0.130018675123
7.94,0.151718782902
7.96,0.390605624389
7.98,0.347529382374
8.,0.521840484465
8.02,0.435171314853
8.04,0.348324217766
8.06,0.589035028105
8.08,0.546156280127
8.1,0.656228884355
8.12,0.481676960663
8.14,0.658380886285
8.16,0.703310983837
8.18,0.615895739235
8.2,0.749761037306
8.22,0.8394048993
8.24,1.01842044414
8.26,0.864012100771
8.28,0.73192585344
8.3,0.666161184319
8.32,0.577812868885
8.34,0.444945166945
8.36,0.333747294375
8.38,0.333977995269
8.4,0.356402038932
8.42,0.289559119724
8.44,0.155939136878
8.46,0.155972716625
8.48,0.111396245198
8.5,0.133710372294
8.52,0.0891183476727
8.54,0.0668330846261
8.56,0.0222744527814
8.58,0.0668109932919
8.6,0.
8.62,0.
8.64,0.
8.66,0.
8.68,0.
8.7,0.
8.72,0.
8.74,0.0222184630131
8.76,0.0444202925135
8.78,0.04440316769
8.8,0.066574156794
8.82,0.0887451599478
8.84,0.0665426144597
8.86,0.133081327514
8.88,0.110893254784
8.9,0.110936340508
8.92,0.133194200428
8.94,0.288923636766
8.96,0.289056628084
8.98,0.355961475085
9.,0.445543065125
9.02,0.602284052856
9.04,0.513650189405
9.06,0.536781524553
9.08,0.470112034265
9.1,0.448037352822
9.12,0.403808586928
9.14,0.674503281262
9.16,0.630176206286
9.18,0.631163670545
9.2,0.428682906481
9.22,0.746011299403
9.24,0.520347171483
9.26,0.725575749712
9.28,0.704190301988
9.3,0.681670589799
9.32,0.523054260342
9.34,0.386944946827
9.36,0.318950168216
9.38,0.479095264705
9.4,0.319611968677
9.42,0.274142649289
9.44,0.297198848896
9.46,0.182924918583
9.48,0.205814898849
9.5,0.13716869949
9.52,0.0228493846456
9.54,0.0456900539872
9.56,0.0456755038091
9.58,0.0456680036556
9.6,0.0228331774926
9.62,0.0228277802162
9.64,0.
9.66,0.
9.68,0.0228107856135
9.7,0.
9.72,0.
9.74,0.0227865703421
9.76,0.
9.78,0.
9.8,0.0227719285632
9.82,0.0227620041041
9.84,0.0910941739615
9.86,0.113877101754
9.88,0.182218374151
9.9,0.250672912068
9.92,0.136712122948
9.94,0.296494581923
9.96,0.319432168957
9.98,0.296645294553
10.,0.411188163727
