t,cases
5.01,3.64
5.02,3.64
5.03,3.445
5.04,3.445
5.05,3.12
5.06,3.12
5.07,3.575
5.08,3.575
5.09,4.16
5.1,4.16
5.11,4.55
5.12,4.55
5.13,4.875
5.14,4.875
5.15,4.745
5.16,4.745
5.17,4.16
5.18,4.16
5.19,3.835
5.2,3.835
5.21,4.16
5.22,4.16
5.23,4.42
5.24,4.42
5.25,4.42
5.26,4.42
5.27,5.005
5.28,5.005
5.29,4.615
5.3,4.615
5.31,3.965
5.32,3.965
5.33,4.095
5.34,4.095
5.35,3.77
5.36,3.77
5.37,3.315
5.38,3.315
5.39,2.665
5.4,2.665
5.41,2.145
5.42,2.145
5.43,1.755
5.44,1.755
5.45,1.3
5.46,1.3
5.47,1.17
5.48,1.17
5.49,1.17
5.5,1.17
5.51,1.17
5.52,1.17
5.53,0.845
5.54,0.845
5.55,0.39
5.56,0.39
5.57,0.325
5.58,0.325
5.59,0.325
5.6,0.325
5.61,0.13
5.62,0.13
5.63,0.
5.64,0.
5.65,0.
5.66,0.
5.67,0.
5.68,0.
5.69,0.
5.7,0.
5.71,0.065
5.72,0.065
5.73,0.13
5.74,0.13
5.75,0.065
5.76,0.065
5.77,0.065
5.78,0.065
5.79,0.195
5.8,0.195
5.81,0.195
5.82,0.195
5.83,0.13
5.84,0.13
5.85,0.26
5.86,0.26
5.87,0.585
5.88,0.585
5.89,0.845
5.9,0.845
5.91,0.975
5.92,0.975
5.93,1.365
5.94,1.365
5.95,1.885
5.96,1.885
5.97,1.82
5.98,1.82
5.99,2.015
6.,2.015
6.01,3.055
6.02,3.055
6.03,3.185
6.04,3.185
6.05,3.315
6.06,3.315
6.07,3.965
6.08,3.965
6.09,3.835
6.1,3.835
6.11,4.355
6.12,4.355
6.13,4.81
6.14,4.81
6.15,4.485
6.16,4.485
6.17,5.005
6.18,5.005
6.19,5.135
6.2,5.135
6.21,4.42
6.22,4.42
6.23,4.225
6.24,4.225
6.25,4.095
6.26,4.095
6.27,3.575
6.28,3.575
6.29,3.705
6.3,3.705
6.31,3.77
6.32,3.77
6.33,3.25
6.34,3.25
6.35,3.25
6.36,3.25
6.37,2.925
6.38,2.925
6.39,2.34
6.4,2.34
6.41,1.82
6.42,1.82
6.43,1.365
6.44,1.365
6.45,1.43
6.46,1.43
6.47,1.365
6.48,1.365
6.49,0.975
6.5,0.975
6.51,0.845
6.52,0.845
6.53,0.715
6.54,0.715
6.55,0.455
6.56,0.455
6.57,0.26
6.58,0.26
6.59,0.13
6.6,0.13
6.61,0.13
6.62,0.13
6.63,0.13
6.64,0.13
6.65,0.065
6.66,0.065
6.67,0.065
6.68,0.065
6.69,0.195
6.7,0.195
6.71,0.195
6.72,0.195
6.73,0.26
6.74,0.26
6.75,0.39
6.76,0.39
6.77,0.455
6.78,0.455
6.79,0.715
6.8,0.715
6.81,1.04
6.82,1.04
6.83,0.78
6.84,0.78
6.85,0.715
6.86,0.715
6.87,1.235
6.88,1.235
6.89,1.3
6.9,1.3
6.91,1.17
6.92,1.17
6.93,1.495
6.94,1.495
6.95,1.755
6.96,1.755
6.97,1.495
6.98,1.495
6.99,1.365
7.,1.365
7.01,1.755
7.02,1.755
7.03,2.145
7.04,2.145
7.05,2.73
7.06,2.73
7.07,3.38
7.08,3.38
7.09,3.575
7.1,3.575
7.11,3.835
7.12,3.835
7.13,4.03
7.14,4.03
7.15,3.77
7.16,3.77
7.17,3.705
7.18,3.705
7.19,3.77
7.2,3.77
7.21,3.575
7.22,3.575
7.23,4.16
7.24,4.16
7.25,4.745
7.26,4.745
7.27,4.29
7.28,4.29
7.29,3.575
7.3,3.575
7.31,3.185
7.32,3.185
7.33,2.86
7.34,2.86
7.35,2.21
7.36,2.21
7.37,2.145
7.38,2.145
7.39,2.21
7.4,2.21
7.41,1.95
7.42,1.95
7.43,1.365
7.44,1.365
7.45,0.975
7.46,0.975
7.47,1.105
7.48,1.105
7.49,0.78
7.5,0.78
7.51,0.78
7.52,0.78
7.53,0.65
7.54,0.65
7.55,0.13
7.56,0.13
7.57,0.0649999999999
7.58,0.0650000000001
7.59,0.195
7.6,0.195
7.61,0.26
7.62,0.26
7.63,0.325
7.64,0.325
7.65,0.26
7.66,0.26
7.67,0.13
7.68,0.13
7.69,0.0650000000001
7.7,0.0649999999999
7.71,0.0649999999999
7.72,0.0650000000001
7.73,0.0650000000001
7.74,0.0649999999999
7.75,0.13
7.76,0.13
7.77,0.195
7.78,0.195
7.79,0.195
7.8,0.195
7.81,0.26
7.82,0.26
7.83,0.455
7.84,0.455
7.85,0.78
7.86,0.78
7.87,1.04
7.88,1.04
7.89,1.04
7.9,1.04
7.91,1.3
7.92,1.3
7.93,1.69
7.94,1.69
7.95,1.95
7.96,1.95
7.97,2.405
7.98,2.405
7.99,2.535
8.,2.535
8.01,2.73
8.02,2.73
8.03,2.99
8.04,2.99
8.05,3.12
8.06,3.12
8.07,2.99
8.08,2.99
8.09,2.925
8.1,2.925
8.11,3.185
8.12,3.185
8.13,2.795
8.14,2.795
8.15,2.665
8.16,2.665
8.17,3.12
8.18,3.12
8.19,3.835
8.2,3.835
8.21,5.135
8.22,5.135
8.23,5.2
8.24,5.2
8.25,4.16
8.26,4.16
8.27,3.835
8.28,3.835
8.29,3.445
8.3,3.445
8.31,2.795
8.32,2.795
8.33,2.6
8.34,2.6
8.35,2.08
8.36,2.08
8.37,1.69
8.38,1.69
8.39,1.69
8.4,1.69
8.41,1.625
8.42,1.625
8.43,1.365
8.44,1.365
8.45,1.105
8.46,1.105
8.47,1.04
8.48,1.04
8.49,0.91
8.5,0.91
8.51,0.715
8.52,0.715
8.53,0.52
8.54,0.52
8.55,0.455
8.56,0.455
8.57,0.325
8.58,0.325
8.59,0.195
8.6,0.195
8.61,0.26
8.62,0.26
8.63,0.325
8.64,0.325
8.65,0.195
8.66,0.195
8.67,0.0649999999999
8.68,0.0650000000001
8.69,0.0650000000001
8.7,0.0649999999999
8.71,0.13
8.72,0.13
8.73,0.13
8.74,0.13
8.75,0.13
8.76,0.13
8.77,0.0649999999999
8.78,0.0650000000001
8.79,0.
8.8,0.
8.81,0.0650000000001
8.82,0.0649999999999
8.83,0.26
8.84,0.26
8.85,0.39
8.86,0.39
8.87,0.65
8.88,0.65
8.89,0.91
8.9,0.91
8.91,1.04
8.92,1.04
8.93,1.56
8.94,1.56
8.95,2.015
8.96,2.015
8.97,2.08
8.98,2.08
8.99,1.755
9.,1.755
9.01,1.495
9.02,1.495
9.03,1.82
9.04,1.82
9.05,1.82
9.06,1.82
9.07,2.47
9.08,2.47
9.09,3.38
9.1,3.38
9.11,3.705
9.12,3.705
9.13,4.095
9.14,4.095
9.15,3.575
9.16,3.575
9.17,3.38
9.18,3.38
9.19,3.575
9.2,3.575
9.21,4.29
9.22,4.29
9.23,4.68
9.24,4.68
9.25,4.03
9.26,4.03
9.27,3.575
9.28,3.575
9.29,3.77
9.3,3.77
9.31,3.38
9.32,3.38
9.33,2.535
9.34,2.535
9.35,2.405
9.36,2.405
9.37,2.34
9.38,2.34
9.39,2.6
9.4,2.6
9.41,2.795
9.42,2.795
9.43,2.275
9.44,2.275
9.45,1.82
9.46,1.82
9.47,1.43
9.48,1.43
9.49,0.78
9.5,0.78
9.51,0.52
9.52,0.52
9.53,0.39
9.54,0.39
9.55,0.39
9.56,0.39
9.57,0.325
9.58,0.325
9.59,0.26
9.6,0.26
9.61,0.13
9.62,0.13
9.63,0.0649999999999
9.64,0.0650000000001
9.65,0.13
9.66,0.13
9.67,0.13
9.68,0.13
9.69,0.0650000000001
9.7,0.0649999999999
9.71,0.195
9.72,0.195
9.73,0.39
9.74,0.39
9.75,0.26
9.76,0.26
9.77,0.195
9.78,0.195
9.79,0.26
9.8,0.26
9.81,0.325
9.82,0.325
9.83,0.585
9.84,0.585
9.85,0.91
9.86,0.91
9.87,0.975
9.88,0.975
9.89,0.845
9.9,0.845
9.91,0.91
9.92,0.91
9.93,1.04
9.94,1.04
9.95,0.975
9.96,0.975
9.97,0.91
9.98,0.91
9.99,0.715
10.,0.715
