t,prevalence
5.,4
5.02,8
5.04,3
5.06,8
5.08,6
5.1,6
5.12,12
5.14,6
5.16,9
5.18,10
5.2,7
5.22,5
5.24,8
5.26,7
5.28,6
5.3,1
5.32,2
5.34,5
5.36,7
5.38,4
5.4,4
5.42,5
5.44,3
5.46,1
5.48,0
5.5,1
5.52,0
5.54,1
5.56,1
5.58,0
5.6,0
5.62,0
5.64,0
5.66,0
5.68,0
5.7,0
5.72,0
5.74,1
5.76,0
5.78,2
5.8,1
5.82,2
5.84,0
5.86,2
5.88,1
5.9,2
5.92,2
5.94,5
5.96,3
5.98,2
6.,1
6.02,5
6.04,3
6.06,7
6.08,9
6.1,4
6.12,1
6.14,8
6.16,6
6.18,5
6.2,8
6.22,7
6.24,6
6.26,7
6.28,2
6.3,3
6.32,7
6.34,5
6.36,6
6.38,2
6.4,5
6.42,0
6.44,5
6.46,4
6.48,0
6.5,2
6.52,1
6.54,0
6.56,0
6.58,0
6.6,1
6.62,0
6.64,0
6.66,0
6.68,0
6.7,1
6.72,0
6.74,2
6.76,0
6.78,1
6.8,1
6.82,1
6.84,2
6.86,1
6.88,0
6.9,2
6.92,0
6.94,4
6.96,4
6.98,4
7.,4
7.02,6
7.04,0
7.06,5
7.08,8
7.1,10
7.12,6
7.14,7
7.16,12
7.18,4
7.2,5
7.22,4
7.24,4
7.26,5
7.28,8
7.3,4
7.32,3
7.34,4
7.36,6
7.38,4
7.4,1
7.42,2
7.44,4
7.46,4
7.48,3
7.5,0
7.52,0
7.54,0
7.56,0
7.58,0
7.6,0
7.62,0
7.64,1
7.66,1
7.68,1
7.7,1
7.72,0
7.74,0
7.76,0
7.78,0
7.8,1
7.82,3
7.84,4
7.86,1
7.88,1
7.9,2
7.92,1
7.94,4
7.96,6
7.98,3
8.,4
8.02,4
8.04,3
8.06,3
8.08,9
8.1,6
8.12,6
8.14,11
8.16,5
8.18,7
8.2,5
8.22,9
8.24,3
8.26,1
8.28,9
8.3,8
8.32,4
8.34,4
8.36,3
8.38,8
8.4,2
8.42,6
8.44,12
8.46,6
8.48,4
8.5,1
8.52,0
8.54,1
8.56,0
8.58,0
8.6,0
8.62,0
8.64,0
8.66,0
8.68,2
8.7,0
8.72,0
8.74,0
8.76,0
8.78,0
8.8,0
8.82,0
8.84,0
8.86,0
8.88,0
8.9,2
8.92,3
8.94,0
8.96,2
8.98,7
9.,1
9.02,0
9.04,2
9.06,5
9.08,8
9.1,4
9.12,5
9.14,8
9.16,6
9.18,11
9.2,8
9.22,10
9.24,8
9.26,6
9.28,7
9.3,14
9.32,5
9.34,11
9.36,7
9.38,0
9.4,2
9.42,0
9.44,1
9.46,1
9.48,2
9.5,1
9.52,1
9.54,0
9.56,0
9.58,0
9.6,1
9.62,0
9.64,0
9.66,0
9.68,0
9.7,0
9.72,0
9.74,0
9.76,0
9.78,0
9.8,0
9.82,0
9.84,1
9.86,2
9.88,1
9.9,3
9.92,2
9.94,2
9.96,5
9.98,1
10.,3
