t,prevalence
5.,6
5.02,7
5.04,2
5.06,4
5.08,7
5.1,9
5.12,2
5.14,6
5.16,2
5.18,4
5.2,5
5.22,6
5.24,7
5.26,12
5.28,7
5.3,4
5.32,7
5.34,5
5.36,6
5.38,4
5.4,1
5.42,8
5.44,4
5.46,5
5.48,2
5.5,2
5.52,0
5.54,2
5.56,4
5.58,3
5.6,3
5.62,0
5.64,0
5.66,1
5.68,0
5.7,0
5.72,0
5.74,0
5.76,0
5.78,0
5.8,0
5.82,0
5.84,0
5.86,1
5.88,2
5.9,2
5.92,4
5.94,3
5.96,5
5.98,3
6.,7
6.02,4
6.04,5
6.06,8
6.08,6
6.1,8
6.12,3
6.14,4
6.16,6
6.18,7
6.2,11
6.22,7
6.24,6
6.26,7
6.28,5
6.3,0
6.32,1
6.34,3
6.36,0
6.38,0
6.4,1
6.42,1
6.44,1
6.46,1
6.48,0
6.5,1
6.52,1
6.54,0
6.56,0
6.58,1
6.6,1
6.62,0
6.64,0
6.66,0
6.68,0
6.7,0
6.72,0
6.74,0
6.76,0
6.78,0
6.8,0
6.82,0
6.84,0
6.86,1
6.88,0
6.9,5
6.92,3
6.94,3
6.96,2
6.98,3
7.,1
7.02,3
7.04,4
7.06,7
7.08,7
7.1,9
7.12,9
7.14,6
7.16,7
7.18,10
7.2,13
7.22,14
7.24,11
7.26,11
7.28,6
7.3,5
7.32,6
7.34,7
7.36,2
7.38,1
7.4,6
7.42,4
7.44,0
7.46,0
7.48,0
7.5,0
7.52,2
7.54,0
7.56,1
7.58,0
7.6,1
7.62,0
7.64,0
7.66,0
7.68,0
7.7,1
7.72,0
7.74,0
7.76,0
7.78,0
7.8,0
7.82,0
7.84,1
7.86,0
7.88,0
7.9,0
7.92,2
7.94,2
7.96,0
7.98,2
8.,6
8.02,5
8.04,3
8.06,7
8.08,10
8.1,13
8.12,11
8.14,11
8.16,10
8.18,6
8.2,6
8.22,4
8.24,10
8.26,5
8.28,7
8.3,3
8.32,5
8.34,11
8.36,4
8.38,2
8.4,6
8.42,3
8.44,3
8.46,0
8.48,1
8.5,0
8.52,0
8.54,1
8.56,0
8.58,0
8.6,0
8.62,0
8.64,3
8.66,0
8.68,0
8.7,1
8.72,0
8.74,0
8.76,1
8.78,0
8.8,1
8.82,1
8.84,1
8.86,0
8.88,1
8.9,3
8.92,3
8.94,3
8.96,4
8.98,1
9.,11
9.02,7
9.04,5
9.06,3
9.08,5
9.1,8
9.12,8
9.14,5
9.16,6
9.18,7
9.2,11
9.22,6
9.24,4
9.26,7
9.28,7
9.3,5
9.32,5
9.34,3
9.36,5
9.38,6
9.4,5
9.42,0
9.44,1
9.46,1
9.48,3
9.5,2
9.52,1
9.54,1
9.56,1
9.58,0
9.6,0
9.62,1
9.64,0
9.66,0
9.68,0
9.7,0
9.72,2
9.74,0
9.76,0
9.78,1
9.8,0
9.82,1
9.84,0
9.86,0
9.88,0
9.9,0
9.92,2
9.94,1
9.96,4
9.98,4
10.,4
