t,prevalence
5.,7
5.02,6
5.04,5
5.06,3
5.08,8
5.1,12
5.12,7
5.14,12
5.16,11
5.18,5
5.2,10
5.22,9
5.24,6
5.26,8
5.28,9
5.3,10
5.32,8
5.34,2
5.36,8
5.38,1
5.4,4
5.42,2
5.44,2
5.46,2
5.48,1
5.5,2
5.52,0
5.54,0
5.56,1
5.58,0
5.6,2
5.62,0
5.64,0
5.66,0
5.68,1
5.7,0
5.72,0
5.74,1
5.76,3
5.78,2
5.8,1
5.82,1
5.84,1
5.86,2
5.88,0
5.9,2
5.92,2
5.94,4
5.96,3
5.98,2
6.,6
6.02,9
6.04,6
6.06,7
6.08,9
6.1,8
6.12,10
6.14,9
6.16,11
6.18,11
6.2,6
6.22,8
6.24,2
6.26,3
6.28,6
6.3,4
6.32,3
6.34,5
6.36,1
6.38,4
6.4,5
6.42,2
6.44,1
6.46,2
6.48,0
6.5,0
6.52,0
6.54,1
6.56,0
6.58,0
6.6,0
6.62,0
6.64,0
6.66,0
6.68,1
6.7,0
6.72,0
6.74,0
6.76,0
6.78,0
6.8,0
6.82,0
6.84,0
6.86,1
6.88,3
6.9,0
6.92,3
6.94,2
6.96,3
6.98,6
7.,4
7.02,3
7.04,3
7.06,8
7.08,8
7.1,8
7.12,7
7.14,6
7.16,4
7.18,12
7.2,3
7.22,5
7.24,8
7.26,9
7.28,4
7.3,3
7.32,3
7.34,4
7.36,6
7.38,1
7.4,3
7.42,4
7.44,5
7.46,1
7.48,7
7.5,1
7.52,2
7.54,0
7.56,0
7.58,0
7.6,0
7.62,0
7.64,0
7.66,0
7.68,1
7.7,0
7.72,0
7.74,0
7.76,0
7.78,1
7.8,2
7.82,0
7.84,1
7.86,0
7.88,1
7.9,0
7.92,3
7.94,4
7.96,4
7.98,5
8.,7
8.02,6
8.04,7
8.06,8
8.08,8
8.1,5
8.12,2
8.14,4
8.16,4
8.18,7
8.2,11
8.22,8
8.24,12
8.26,10
8.28,4
8.3,10
8.32,8
8.34,4
8.36,4
8.38,3
8.4,2
8.42,2
8.44,1
8.46,2
8.48,0
8.5,1
8.52,0
8.54,0
8.56,2
8.58,1
8.6,0
8.62,0
8.64,0
8.66,0
8.68,0
8.7,0
8.72,0
8.74,0
8.76,0
8.78,0
8.8,0
8.82,0
8.84,2
8.86,1
8.88,3
8.9,1
8.92,2
8.94,3
8.96,2
8.98,3
9.,4
9.02,5
9.04,7
9.06,4
9.08,5
9.1,5
9.12,6
9.14,9
9.16,14
9.18,7
9.2,8
9.22,6
9.24,7
9.26,8
9.28,8
9.3,4
9.32,5
9.34,4
9.36,7
9.38,4
9.4,1
9.42,2
9.44,0
9.46,2
9.48,1
9.5,1
9.52,2
9.54,0
9.56,2
9.58,0
9.6,1
9.62,1
9.64,0
9.66,0
9.68,0
9.7,1
9.72,2
9.74,0
9.76,0
9.78,0
9.8,1
9.82,0
9.84,2
9.86,1
9.88,2
9.9,2
9.92,3
9.94,2
9.96,3
9.98,3
10.,0
