t,neff
5.,0.455937801888
5.02,0.543233049911
5.04,0.391207136515
5.06,0.391560713011
5.08,0.588802807475
5.1,0.743239300619
5.12,0.766047351913
5.14,0.766966830976
5.16,0.59243051754
5.18,0.63729066439
5.2,0.748264511
5.22,0.815591142532
5.24,0.507754728935
5.26,0.50828738535
5.28,0.353927160796
5.3,0.421075589567
5.32,0.421270613208
5.34,0.332702853156
5.36,0.288246895084
5.38,0.155138005027
5.4,0.155137172071
5.42,0.132808296728
5.44,0.154897428995
5.46,0.154826698159
5.48,0.110496540385
5.5,0.0883828844375
5.52,0.0884115877103
5.54,0.110388313317
5.56,0.0220732475723
5.58,0.0441267312555
5.6,0.0220462158903
5.62,0.022034692976
5.64,0.
5.66,0.0220186069273
5.68,0.
5.7,0.0660223909133
5.72,0.021992444499
5.74,0.0219825075286
5.76,0.0219745860746
5.78,0.0439152457048
5.8,0.0219402909734
5.82,0.0438450481502
5.84,0.043841988124
5.86,0.109555678754
5.88,0.0876217840989
5.9,0.0875850471163
5.92,0.0875701748512
5.94,0.197143105209
5.96,0.197099809924
5.98,0.262894201509
6.,0.372626898937
6.02,0.394956419334
6.04,0.505505424258
6.06,0.439852577235
6.08,0.352089986402
6.1,0.617061386631
6.12,0.617768345423
6.14,0.66260812424
6.16,0.530642072822
6.18,0.597852632717
6.2,0.75470559316
6.22,0.666618403428
6.24,0.600136316374
6.26,0.801131463172
6.28,0.735389956251
6.3,0.736702151275
6.32,0.603354320875
6.34,0.44758123168
6.36,0.425498871502
6.38,0.425753314636
6.4,0.313432432847
6.42,0.268478382161
6.44,0.268558347604
6.46,0.156581400806
6.48,0.17892647348
6.5,0.134141305686
6.52,0.111740027274
6.54,0.0446576379743
6.56,0.0669909659482
6.58,0.022315568863
6.6,0.
6.62,0.
6.64,0.
6.66,0.0222489213076
6.68,0.0222327840381
6.7,0.
6.72,0.
6.74,0.
6.76,0.
6.78,0.0221600378707
6.8,0.0221470400636
6.82,0.0664216464473
6.84,0.
6.86,0.132755614502
6.88,0.176995372364
6.9,0.132698566302
6.92,0.265421957717
6.94,0.265291322923
6.96,0.265395494909
6.98,0.309699487251
7.,0.331864322623
7.02,0.287692782482
7.04,0.332170628168
7.06,0.376694941189
7.08,0.421606511689
7.1,0.511237968066
7.12,0.667797792273
7.14,0.624346462889
7.16,0.580650353112
7.18,0.783145002485
7.2,0.649600372501
7.22,0.740352723683
7.24,0.516277336988
7.26,0.697286247728
7.28,0.584742975863
7.3,0.539619269348
7.32,0.427070951964
7.34,0.472480843163
7.36,0.382217582959
7.38,0.31497670811
7.4,0.269791750576
7.42,0.269881373475
7.44,0.17992091565
7.46,0.134837618934
7.48,0.247276166609
7.5,0.134828653681
7.52,0.0673762955592
7.54,0.0449085853305
7.56,0.0449026253325
7.58,0.0224275011189
7.6,0.0224133818674
7.62,0.0223911446437
7.64,0.0223785659192
7.66,0.022372648012
7.68,0.
7.7,0.0893933079083
7.72,0.0223299692536
7.74,0.0446247586878
7.76,0.0669328217665
7.78,0.066862403227
7.8,0.0667788526291
7.82,0.0890239331365
7.84,0.133553440214
7.86,0.111196274395
7.88,0.111134422889
7.9,0.155638891368
7.92,0.200146928777
7.94,0.333960663516
7.96,0.267088850369
7.98,0.378637978724
8.,0.289698982414
8.02,0.535763335291
8.04,0.581405575193
8.06,0.491894593767
8.08,0.582000754319
8.1,0.425462856357
8.12,0.605885631453
8.14,0.628845773453
8.16,0.764560057782
8.18,0.675439545766
8.2,0.902442726454
8.22,0.632636762252
8.24,0.724850662422
8.26,0.680821079014
8.28,0.545294977203
8.3,0.659693761328
8.32,0.546192343695
8.34,0.523767605538
8.36,0.341701355394
8.38,0.319124431281
8.4,0.319352228451
8.42,0.114015666888
8.44,0.159696616232
8.46,0.113984333744
8.48,0.0911144950491
8.5,0.11380931965
8.52,0.0454868542479
8.54,0.0454701380127
8.56,0.0681480211535
8.58,0.0680818308406
8.6,0.0453409071221
8.62,0.
8.64,0.045304717543
8.66,0.0226470074328
8.68,0.
8.7,0.
8.72,0.022608520691
8.74,0.
8.76,0.0225828995387
8.78,0.0451372673099
8.8,0.0676990508028
8.82,0.112726763666
8.84,0.112681684527
8.86,0.0900855219328
8.88,0.202746246023
8.9,0.2254308166
8.92,0.270679047764
8.94,0.248221484979
8.96,0.293645323319
8.98,0.338855173534
9.,0.248419771347
9.02,0.47499867684
9.04,0.384701703059
9.06,0.407413331893
9.08,0.543708813113
9.1,0.612469518858
9.12,0.59029737677
9.14,0.477095757327
9.16,0.591499374556
9.18,0.614395812073
9.2,0.798156131268
9.22,0.776477589713
9.24,0.57128363397
9.26,0.778469364277
9.28,0.549546991436
9.3,0.435104622137
9.32,0.550329604786
9.34,0.550702053084
9.36,0.688843757314
9.38,0.459337026989
9.4,0.344400066444
9.42,0.252475636459
9.44,0.0917786352925
9.46,0.183575524093
9.48,0.18337324795
9.5,0.068720913884
9.52,0.0457705933601
9.54,0.
9.56,0.0457052509815
9.58,0.
9.6,0.0228326795347
9.62,0.0228156919546
9.64,0.045614558981
9.66,0.0455836063821
9.68,0.0683362519003
9.7,0.0910284119743
9.72,0.068202187489
9.74,0.0681497705012
9.76,0.
9.78,0.
9.8,0.
9.82,0.
9.84,0.0906144254695
9.86,0.0226354124846
9.88,0.0905478231918
9.9,0.135762806348
9.92,0.135640880281
9.94,0.180758231019
9.96,0.180710131437
9.98,0.293742069275
10.,0.203224645448
