t,s,e,i,r,c,o,n,reff,coal,reportr
5.,7132.,0.,46.,2822.,0.,0.,10000.,0.867263866951,inf,0.
5.02,7110.,21.,16.,2856.,0.,0.,10003.,0.864329329079,2.14024405296,273.
5.04,7099.,26.,14.,2864.,0.,0.,10003.,0.862992110707,1.72598422141,338.
5.06,7095.,32.,12.,2866.,0.,0.,10005.,0.862333434519,1.40129183109,416.
5.08,7087.,32.,12.,2870.,0.,0.,10001.,0.861705616466,1.40027162676,416.
5.1,7080.,38.,14.,2869.,0.,0.,10001.,0.860854489146,1.1780114062,494.
5.12,7075.,35.,13.,2884.,0.,0.,10007.,0.859730754187,1.27731426336,455.
5.14,7070.,33.,9.,2898.,0.,0.,10010.,0.858865691143,1.35336411938,429.
5.16,7065.,32.,13.,2899.,0.,0.,10009.,0.85834403832,1.39480906227,416.
5.18,7064.,29.,18.,2901.,0.,0.,10012.,0.857965387713,1.53842069521,377.
5.2,7056.,24.,19.,2912.,0.,0.,10011.,0.85707934469,1.85700524683,312.
5.22,7031.,34.,17.,2926.,0.,0.,10008.,0.854298648649,1.30657440382,442.
5.24,7017.,38.,16.,2939.,0.,0.,10010.,0.852427235467,1.16647937485,494.
5.26,7011.,28.,20.,2950.,0.,0.,10009.,0.851783446944,1.58188354432,364.
5.28,7002.,32.,11.,2966.,0.,0.,10011.,0.850520063991,1.38209510399,416.
5.3,7000.,22.,20.,2970.,0.,0.,10012.,0.850192201867,2.00954520441,286.
5.32,6997.,20.,13.,2982.,0.,0.,10012.,0.849827833781,2.20955236783,260.
5.34,6990.,20.,11.,2988.,0.,0.,10009.,0.849232105853,2.20800347522,260.
5.36,6984.,18.,7.,2997.,0.,0.,10006.,0.848757549562,2.45196625429,234.
5.38,6982.,18.,7.,2996.,0.,0.,10003.,0.848768969849,2.45199924623,234.
5.4,6980.,16.,8.,2996.,0.,0.,10000.,0.848780396988,2.75853629021,208.
5.42,6982.,18.,1.,3002.,0.,0.,10003.,0.848768969849,2.45199924623,234.
5.44,6984.,13.,6.,2999.,0.,0.,10002.,0.849096984695,3.39638793878,169.
5.46,6980.,13.,7.,2999.,0.,0.,9999.,0.848865283516,3.39546113406,169.
5.48,6990.,8.,7.,2995.,0.,0.,10000.,0.849996414749,5.52497669587,104.
5.5,6994.,3.,7.,2999.,0.,0.,10003.,0.850227753527,14.7372810611,39.
5.52,6994.,6.,1.,2998.,0.,0.,9999.,0.850567878641,7.37158828155,78.
5.54,7002.,0.,0.,2996.,0.,0.,9998.,0.851625961254,inf,0.
5.56,7010.,0.,0.,2992.,0.,0.,10002.,0.85225799867,inf,0.
5.58,7021.,0.,0.,2979.,0.,0.,10000.,0.853766069807,inf,0.
5.6,7032.,0.,0.,2972.,0.,0.,10004.,0.85476178463,inf,0.
5.62,7041.,0.,0.,2961.,0.,0.,10002.,0.856026899948,inf,0.
5.64,7052.,0.,0.,2952.,0.,0.,10004.,0.857192847726,inf,0.
5.66,7055.,0.,1.,2945.,0.,0.,10001.,0.857814748718,inf,0.
5.68,7060.,1.,0.,2939.,0.,0.,10000.,0.858508539074,44.6424440318,13.
5.7,7067.,0.,3.,2932.,0.,0.,10002.,0.859187913923,inf,0.
5.72,7077.,0.,1.,2924.,0.,0.,10002.,0.860403688529,inf,0.
5.74,7078.,1.,0.,2922.,0.,0.,10001.,0.860611309912,44.7517881154,13.
5.76,7087.,2.,1.,2915.,0.,0.,10005.,0.861361106474,22.3953887683,26.
5.78,7091.,3.,1.,2911.,0.,0.,10006.,0.86176113745,14.9371930491,39.
5.8,7090.,5.,2.,2908.,0.,0.,10005.,0.861725729491,8.96194758671,65.
5.82,7093.,7.,0.,2903.,0.,0.,10003.,0.862262718868,6.40538019731,91.
5.84,7100.,4.,0.,2902.,0.,0.,10006.,0.862854897178,11.2171136633,52.
5.86,7102.,5.,2.,2895.,0.,0.,10004.,0.863270505467,8.97801325685,65.
5.88,7113.,5.,4.,2887.,0.,0.,10009.,0.864175675098,8.98742702102,65.
5.9,7114.,10.,6.,2881.,0.,0.,10011.,0.864124498034,4.49344738978,130.
5.92,7113.,7.,10.,2882.,0.,0.,10012.,0.863916733126,6.41766716036,91.
5.94,7107.,16.,3.,2887.,0.,0.,10013.,0.863101790222,2.80508081822,208.
5.96,7106.,17.,4.,2886.,0.,0.,10013.,0.862980346323,2.63970458875,221.
5.98,7107.,17.,7.,2884.,0.,0.,10015.,0.862929428407,2.63954883983,221.
6.,7103.,16.,9.,2886.,0.,0.,10014.,0.862529873622,2.80322208927,208.
6.02,7093.,18.,9.,2892.,0.,0.,10012.,0.861487612549,2.48874199181,234.
6.04,7086.,26.,5.,2895.,0.,0.,10012.,0.860637420347,1.72127484069,338.
6.06,7077.,25.,12.,2898.,0.,0.,10012.,0.859544316088,1.78785217746,325.
6.08,7065.,22.,18.,2902.,0.,0.,10007.,0.858515587043,2.02921866028,286.
6.1,7052.,35.,13.,2908.,0.,0.,10008.,0.856850244669,1.27303464922,455.
6.12,7047.,34.,13.,2915.,0.,0.,10009.,0.856157174528,1.30941685516,442.
6.14,7036.,33.,10.,2927.,0.,0.,10006.,0.855077050218,1.34739413974,429.
6.16,7032.,27.,17.,2932.,0.,0.,10008.,0.854420153221,1.64554992472,351.
6.18,7018.,36.,13.,2942.,0.,0.,10009.,0.852633893974,1.2315822913,468.
6.2,7008.,34.,13.,2953.,0.,0.,10008.,0.851504043483,1.3023003018,442.
6.22,7000.,29.,22.,2958.,0.,0.,10009.,0.850447030182,1.5249395024,377.
6.24,6992.,32.,23.,2963.,0.,0.,10010.,0.849390228073,1.38025912062,416.
6.26,6979.,36.,14.,2983.,0.,0.,10012.,0.847641625262,1.22437123649,468.
6.28,6970.,36.,12.,2994.,0.,0.,10012.,0.846548521002,1.22279230811,468.
6.3,6965.,38.,15.,2998.,0.,0.,10016.,0.845603404899,1.15714150144,494.
6.32,6964.,22.,24.,3005.,0.,0.,10015.,0.845566418942,1.99861153568,286.
6.34,6954.,20.,18.,3024.,0.,0.,10016.,0.844267922135,2.19509659755,260.
6.36,6952.,17.,7.,3037.,0.,0.,10013.,0.844277985876,2.58249736856,221.
6.38,6953.,17.,7.,3038.,0.,0.,10015.,0.84423080283,2.58235304395,221.
6.4,6951.,16.,9.,3039.,0.,0.,10015.,0.843987963536,2.74296088149,208.
6.42,6949.,14.,9.,3043.,0.,0.,10015.,0.843745124243,3.13391046148,182.
6.44,6947.,15.,6.,3048.,0.,0.,10016.,0.843418069466,2.92384930748,195.
6.46,6952.,12.,3.,3048.,0.,0.,10015.,0.844109383183,3.65780732713,156.
6.48,6964.,12.,3.,3038.,0.,0.,10017.,0.845397592663,3.66338956821,156.
6.5,6966.,7.,3.,3039.,0.,0.,10015.,0.845809258236,6.28315448975,91.
6.52,6968.,7.,5.,3034.,0.,0.,10014.,0.846136584457,6.28558605596,91.
6.54,6971.,6.,4.,3034.,0.,0.,10015.,0.846416356469,7.33560842273,78.
6.56,6973.,2.,2.,3037.,0.,0.,10014.,0.846743743315,22.0153373262,26.
6.58,6976.,2.,3.,3031.,0.,0.,10012.,0.847277257175,22.0292086865,26.
6.6,6988.,2.,2.,3022.,0.,0.,10014.,0.848565219889,22.0626957171,26.
6.62,6994.,2.,0.,3018.,0.,0.,10014.,0.849293810518,22.0816390735,26.
6.64,7000.,2.,0.,3015.,0.,0.,10017.,0.849767827203,22.0939635073,26.
6.66,7010.,0.,2.,3004.,0.,0.,10016.,0.851066743481,inf,0.
6.68,7018.,1.,2.,2996.,0.,0.,10017.,0.851952944473,44.3015531126,13.
6.7,7034.,1.,0.,2988.,0.,0.,10023.,0.853384109444,44.3759736911,13.
6.72,7040.,1.,0.,2981.,0.,0.,10022.,0.854197269559,44.4182580171,13.
6.74,7047.,0.,1.,2973.,0.,0.,10021.,0.855131938913,inf,0.
6.76,7054.,1.,2.,2966.,0.,0.,10023.,0.85581056412,44.5021493342,13.
6.78,7061.,1.,0.,2960.,0.,0.,10022.,0.856745301187,44.5507556617,13.
6.8,7066.,1.,0.,2952.,0.,0.,10019.,0.857608693213,44.5956520471,13.
6.82,7071.,1.,0.,2944.,0.,0.,10016.,0.858472602447,44.6405753272,13.
6.84,7079.,2.,0.,2937.,0.,0.,10018.,0.85927228271,22.3410793505,26.
6.86,7082.,4.,0.,2931.,0.,0.,10017.,0.859722250322,11.1763892542,52.
6.88,7083.,2.,3.,2926.,0.,0.,10014.,0.86010123819,22.3626321929,26.
6.9,7083.,4.,5.,2918.,0.,0.,10010.,0.860444934988,11.1857841548,52.
6.92,7082.,5.,3.,2922.,0.,0.,10012.,0.860151596232,8.94557660081,65.
6.94,7087.,5.,2.,2921.,0.,0.,10015.,0.860501035474,8.94921076893,65.
6.96,7099.,4.,3.,2912.,0.,0.,10018.,0.861699948433,11.2020993296,52.
6.98,7102.,11.,4.,2903.,0.,0.,10020.,0.86189202961,4.07439868543,143.
7.,7111.,8.,9.,2897.,0.,0.,10025.,0.862553845041,5.60659999277,104.
7.02,7103.,13.,13.,2895.,0.,0.,10024.,0.861669408864,3.44667763545,169.
7.04,7102.,18.,12.,2894.,0.,0.,10026.,0.861376235457,2.48842023576,234.
7.06,7095.,21.,11.,2898.,0.,0.,10025.,0.860613068565,2.13104188407,273.
7.08,7085.,26.,18.,2904.,0.,0.,10033.,0.858714824555,1.71742964911,338.
7.1,7069.,28.,26.,2909.,0.,0.,10032.,0.856860999859,1.59131328545,364.
7.12,7044.,40.,22.,2924.,0.,0.,10030.,0.854000907933,1.11020118031,520.
7.14,7031.,35.,19.,2945.,0.,0.,10030.,0.852424813128,1.26645972236,455.
7.16,7027.,26.,17.,2961.,0.,0.,10031.,0.85185493018,1.70370986036,338.
7.18,7016.,37.,9.,2970.,0.,0.,10032.,0.850436663603,1.19520828398,481.
7.2,7007.,37.,12.,2976.,0.,0.,10032.,0.849345738578,1.19367509206,481.
7.22,6997.,33.,23.,2978.,0.,0.,10031.,0.848218150913,1.3365861772,429.
7.24,6983.,31.,21.,2996.,0.,0.,10031.,0.846520987256,1.4199706883,403.
7.26,6976.,34.,14.,3005.,0.,0.,10029.,0.845841050836,1.29363925422,442.
7.28,6964.,31.,18.,3013.,0.,0.,10026.,0.84463870793,1.41681331653,403.
7.3,6955.,31.,10.,3027.,0.,0.,10023.,0.843799613475,1.41540580325,403.
7.32,6953.,25.,12.,3033.,0.,0.,10023.,0.843556968008,1.75459849346,325.
7.34,6951.,20.,13.,3042.,0.,0.,10026.,0.843061984323,2.19196115924,260.
7.36,6939.,23.,6.,3056.,0.,0.,10024.,0.841774465452,1.90314226972,299.
7.38,6937.,20.,2.,3065.,0.,0.,10024.,0.841531844191,2.1879827949,260.
7.4,6940.,12.,5.,3069.,0.,0.,10026.,0.841727833578,3.64748727884,156.
7.42,6939.,15.,2.,3072.,0.,0.,10028.,0.841438695821,2.91698747884,195.
7.44,6947.,13.,1.,3068.,0.,0.,10029.,0.842324796468,3.36929918587,169.
7.46,6955.,13.,0.,3063.,0.,0.,10031.,0.84312665994,3.37250663976,169.
7.48,6955.,9.,4.,3062.,0.,0.,10030.,0.843210720425,4.87188416245,117.
7.5,6954.,7.,3.,3067.,0.,0.,10031.,0.843005433965,6.26232608088,91.
7.52,6956.,4.,0.,3070.,0.,0.,10030.,0.843331958487,10.9633154603,52.
7.54,6964.,3.,1.,3064.,0.,0.,10032.,0.844133541239,14.6316480481,39.
7.56,6970.,1.,1.,3063.,0.,0.,10035.,0.844608250351,43.9196290182,13.
7.58,6978.,1.,1.,3057.,0.,0.,10037.,0.845409179472,43.9612773325,13.
7.6,6985.,1.,1.,3051.,0.,0.,10038.,0.846172948663,44.0009933305,13.
7.62,6989.,1.,3.,3044.,0.,0.,10037.,0.846741868061,44.0305771392,13.
7.64,6990.,1.,1.,3043.,0.,0.,10035.,0.847031803437,44.0456537787,13.
7.66,7001.,0.,2.,3035.,0.,0.,10038.,0.848111211681,inf,0.
7.68,7004.,0.,1.,3028.,0.,0.,10033.,0.848897477936,inf,0.
7.7,7012.,0.,0.,3023.,0.,0.,10035.,0.849697711831,inf,0.
7.72,7019.,1.,1.,3016.,0.,0.,10037.,0.850376473304,44.2195766118,13.
7.74,7027.,0.,2.,3011.,0.,0.,10040.,0.851091315203,inf,0.
7.76,7036.,2.,0.,3004.,0.,0.,10042.,0.852011647528,22.1523028357,26.
7.78,7040.,1.,1.,2999.,0.,0.,10041.,0.852580921773,44.3342079322,13.
7.8,7040.,0.,1.,2994.,0.,0.,10035.,0.853090686151,inf,0.
7.82,7042.,3.,1.,2989.,0.,0.,10035.,0.853333041459,14.791106052,39.
7.84,7044.,1.,7.,2983.,0.,0.,10035.,0.853575396768,44.3859206319,13.
7.86,7040.,8.,5.,2982.,0.,0.,10035.,0.853090686151,5.54508945998,104.
7.88,7039.,12.,2.,2979.,0.,0.,10032.,0.85322458311,3.69730652681,156.
7.9,7040.,10.,6.,2979.,0.,0.,10035.,0.853090686151,4.43607156798,130.
7.92,7046.,13.,5.,2971.,0.,0.,10035.,0.853817752076,3.41527100831,169.
7.94,7049.,11.,10.,2968.,0.,0.,10038.,0.853926000734,4.03674109438,143.
7.96,7050.,14.,9.,2969.,0.,0.,10042.,0.853706952114,3.17091153642,182.
7.98,7048.,20.,7.,2970.,0.,0.,10045.,0.853209873331,2.21834567066,260.
8.,7043.,20.,13.,2968.,0.,0.,10044.,0.85268947519,2.21699263549,260.
8.02,7041.,20.,12.,2973.,0.,0.,10046.,0.852277628238,2.21592183342,260.
8.04,7024.,33.,15.,2974.,0.,0.,10046.,0.850219863762,1.33974039138,429.
8.06,7019.,33.,7.,2987.,0.,0.,10046.,0.849614638916,1.33878670375,429.
8.08,7020.,27.,12.,2986.,0.,0.,10045.,0.849820276785,1.63669090344,351.
8.1,7019.,25.,9.,2994.,0.,0.,10047.,0.849530074903,1.7670225558,325.
8.12,7011.,31.,15.,2993.,0.,0.,10050.,0.848308509499,1.42296911271,403.
8.14,7008.,24.,20.,3000.,0.,0.,10052.,0.84777680732,1.83684974919,312.
8.16,6992.,28.,16.,3016.,0.,0.,10052.,0.845841243833,1.57084802426,364.
8.18,6980.,33.,5.,3035.,0.,0.,10053.,0.844305577428,1.33042090989,429.
8.2,6970.,28.,13.,3040.,0.,0.,10051.,0.843263734183,1.56606122063,364.
8.22,6960.,29.,17.,3047.,0.,0.,10053.,0.841886363739,1.50958934188,377.
8.24,6958.,28.,13.,3056.,0.,0.,10055.,0.841477034226,1.56274306356,364.
8.26,6945.,26.,16.,3067.,0.,0.,10054.,0.839988397479,1.67997679496,338.
8.28,6939.,30.,5.,3080.,0.,0.,10054.,0.839262705559,1.45472202297,390.
8.3,6945.,18.,9.,3082.,0.,0.,10054.,0.839988397479,2.42663314827,234.
8.32,6948.,17.,7.,3083.,0.,0.,10055.,0.84026766798,2.57023051382,221.
8.34,6951.,16.,9.,3079.,0.,0.,10055.,0.840630477854,2.73204905302,208.
8.36,6951.,12.,12.,3086.,0.,0.,10061.,0.84012915762,3.64055968302,156.
8.38,6953.,15.,7.,3090.,0.,0.,10065.,0.840036909125,2.91212795163,195.
8.4,6958.,17.,0.,3090.,0.,0.,10065.,0.84064099147,2.5713724445,221.
8.42,6963.,12.,6.,3088.,0.,0.,10069.,0.840910881711,3.64394715408,156.
8.44,6975.,11.,5.,3083.,0.,0.,10074.,0.84194201718,3.98008953576,143.
8.46,6975.,4.,10.,3085.,0.,0.,10074.,0.84194201718,10.9452462233,52.
8.48,6974.,9.,3.,3087.,0.,0.,10073.,0.841904880702,4.86433931072,117.
8.5,6980.,7.,4.,3082.,0.,0.,10073.,0.8426292038,6.25953122823,91.
8.52,6988.,1.,0.,3088.,0.,0.,10077.,0.843260108362,43.8495256348,13.
8.54,6999.,1.,0.,3082.,0.,0.,10082.,0.844168647821,43.8967696867,13.
8.56,7004.,0.,1.,3076.,0.,0.,10081.,0.844855509983,inf,0.
8.58,7009.,0.,0.,3071.,0.,0.,10080.,0.845542508427,inf,0.
8.6,7017.,0.,0.,3065.,0.,0.,10082.,0.846339677348,inf,0.
8.62,7020.,1.,0.,3063.,0.,0.,10084.,0.846533585909,44.0197464673,13.
8.64,7028.,2.,0.,3058.,0.,0.,10088.,0.847162254401,22.0262186144,26.
8.66,7031.,2.,0.,3052.,0.,0.,10085.,0.847775991639,22.0421757826,26.
8.68,7043.,1.,1.,3042.,0.,0.,10087.,0.849054534431,44.1508357904,13.
8.7,7048.,2.,1.,3035.,0.,0.,10086.,0.849741540512,22.0932800533,26.
8.72,7056.,2.,0.,3026.,0.,0.,10084.,0.850874783786,22.1227443784,26.
8.74,7062.,0.,3.,3019.,0.,0.,10084.,0.851598316765,inf,0.
8.76,7065.,2.,0.,3014.,0.,0.,10081.,0.852213617651,22.1575540589,26.
8.78,7071.,1.,1.,3007.,0.,0.,10080.,0.853021982749,44.3571431029,13.
8.8,7076.,2.,0.,3001.,0.,0.,10079.,0.8537098596,22.1964563496,26.
8.82,7079.,1.,3.,2994.,0.,0.,10077.,0.854241314696,44.4205483642,13.
8.84,7089.,2.,0.,2986.,0.,0.,10077.,0.855448040667,22.2416490573,26.
8.86,7095.,3.,1.,2980.,0.,0.,10079.,0.856002183983,14.837371189,39.
8.88,7091.,6.,1.,2979.,0.,0.,10077.,0.855689385861,7.41597467746,78.
8.9,7095.,4.,4.,2975.,0.,0.,10078.,0.856087121687,11.1291325819,52.
8.92,7092.,12.,3.,2970.,0.,0.,10077.,0.855810058458,3.70851025332,156.
8.94,7100.,5.,8.,2966.,0.,0.,10079.,0.856605427241,8.90869644331,65.
8.96,7102.,10.,6.,2966.,0.,0.,10084.,0.856421869961,4.4533937238,130.
8.98,7100.,14.,5.,2965.,0.,0.,10084.,0.856180692301,3.18009971426,182.
9.,7108.,11.,8.,2960.,0.,0.,10087.,0.856890477174,4.050754983,143.
9.02,7106.,13.,8.,2960.,0.,0.,10087.,0.856649371243,3.42659748497,169.
9.04,7094.,20.,6.,2965.,0.,0.,10085.,0.855372334616,2.22396807,260.
9.06,7094.,20.,7.,2965.,0.,0.,10086.,0.85528752673,2.2237475695,260.
9.08,7098.,18.,9.,2962.,0.,0.,10087.,0.855684947521,2.47197873728,234.
9.1,7087.,23.,10.,2967.,0.,0.,10087.,0.854358864903,1.93159395543,299.
9.12,7078.,28.,11.,2968.,0.,0.,10085.,0.853443104653,1.58496576579,364.
9.14,7071.,31.,13.,2972.,0.,0.,10087.,0.852430017459,1.42988260993,403.
9.16,7064.,33.,10.,2979.,0.,0.,10086.,0.851670579197,1.34202636722,429.
9.18,7062.,35.,11.,2982.,0.,0.,10090.,0.851091915387,1.26447941715,455.
9.2,7053.,33.,12.,2992.,0.,0.,10090.,0.85000726129,1.33940538143,429.
9.22,7052.,29.,10.,3000.,0.,0.,10091.,0.849802521916,1.5237838324,377.
9.24,7045.,33.,8.,3002.,0.,0.,10088.,0.849211451658,1.33815137837,429.
9.26,7029.,28.,16.,3009.,0.,0.,10082.,0.847787030366,1.57446162782,364.
9.28,7023.,24.,10.,3027.,0.,0.,10084.,0.846895352399,1.8349399302,312.
9.3,7021.,22.,18.,3026.,0.,0.,10087.,0.846402369195,2.0005874181,286.
9.32,7009.,31.,1.,3044.,0.,0.,10085.,0.84512330044,1.41762618138,403.
9.34,7007.,27.,7.,3046.,0.,0.,10087.,0.844714627681,1.62685780146,351.
9.36,7013.,21.,10.,3043.,0.,0.,10087.,0.845437945473,2.09346538879,273.
9.38,7010.,22.,5.,3050.,0.,0.,10087.,0.845076286577,1.997453041,286.
9.4,7021.,12.,9.,3045.,0.,0.,10087.,0.846402369195,3.66774359984,156.
9.42,7033.,14.,7.,3037.,0.,0.,10091.,0.847512923516,3.14790514449,182.
9.44,7036.,14.,9.,3035.,0.,0.,10094.,0.847622445461,3.14831194028,182.
9.46,7040.,11.,4.,3040.,0.,0.,10095.,0.848020310602,4.00882328648,143.
9.48,7041.,5.,5.,3045.,0.,0.,10096.,0.848056760428,8.81979030845,65.
9.5,7046.,5.,0.,3045.,0.,0.,10096.,0.848658987925,8.82605347442,65.
9.52,7049.,3.,4.,3038.,0.,0.,10094.,0.849188547193,14.7192681514,39.
9.54,7056.,3.,0.,3036.,0.,0.,10095.,0.849947629489,14.7324255778,39.
9.56,7057.,1.,1.,3038.,0.,0.,10097.,0.849899706592,44.1947847428,13.
9.58,7061.,2.,0.,3036.,0.,0.,10099.,0.850213031835,22.1055388277,26.
9.6,7067.,2.,0.,3032.,0.,0.,10101.,0.850767004758,22.1199421237,26.
9.62,7073.,0.,2.,3025.,0.,0.,10100.,0.851573625904,inf,0.
9.64,7074.,3.,0.,3025.,0.,0.,10102.,0.85152540481,14.7597736834,39.
9.66,7082.,1.,2.,3020.,0.,0.,10105.,0.852235307419,44.3162359858,13.
9.68,7087.,3.,0.,3014.,0.,0.,10104.,0.852921404422,14.78397101,39.
9.7,7093.,2.,1.,3008.,0.,0.,10104.,0.85364350523,22.194731136,26.
9.72,7097.,3.,0.,3003.,0.,0.,10103.,0.854209447479,14.8062970896,39.
9.74,7101.,2.,0.,2999.,0.,0.,10102.,0.854775501775,22.2241630461,26.
9.76,7109.,2.,0.,2992.,0.,0.,10103.,0.855653792043,22.2469985931,26.
9.78,7115.,3.,0.,2986.,0.,0.,10104.,0.856291208193,14.842380942,39.
9.8,7127.,0.,1.,2978.,0.,0.,10106.,0.857565662053,inf,0.
9.82,7132.,1.,1.,2971.,0.,0.,10105.,0.858252218655,44.6291153701,13.
9.84,7139.,3.,1.,2966.,0.,0.,10109.,0.858754653659,14.8850806634,39.
9.86,7154.,3.,0.,2958.,0.,0.,10115.,0.860048547726,14.9075081606,39.
9.88,7158.,4.,0.,2952.,0.,0.,10114.,0.860614507741,11.1879886006,52.
9.9,7166.,4.,2.,2945.,0.,0.,10117.,0.861320873122,11.1971713506,52.
9.92,7167.,5.,5.,2942.,0.,0.,10119.,0.861270806516,8.95721638777,65.
9.94,7168.,8.,3.,2939.,0.,0.,10118.,0.861476112759,5.59959473293,104.
9.96,7172.,9.,1.,2934.,0.,0.,10116.,0.862127261757,4.9811797346,117.
9.98,7185.,7.,2.,2923.,0.,0.,10117.,0.86360458741,6.41534836362,91.
10.,7184.,9.,1.,2919.,0.,0.,10113.,0.863825926339,4.99099424107,117.
