t,neff
5.,0.603478905717
5.02,0.604333384205
5.04,0.537769637277
5.06,0.515913524331
5.08,0.494366270569
5.1,0.540455651925
5.12,0.699352600751
5.14,0.655254519994
5.16,0.701540007405
5.18,0.702600361041
5.2,0.748736018937
5.22,0.749753072867
5.24,0.614063647225
5.26,0.523804035178
5.28,0.638443597654
5.3,0.524729022588
5.32,0.38792536799
5.34,0.479774961682
5.36,0.365588115643
5.38,0.114271873213
5.4,0.27434795594
5.42,0.182923530261
5.44,0.160044000671
5.46,0.160010052337
5.48,0.137136104598
5.5,0.0914251657849
5.52,0.091401398552
5.54,0.0228503496379
5.56,0.0228440361393
5.58,0.0456743521367
5.6,0.0913443572569
5.62,0.045665979978
5.64,0.
5.66,0.
5.68,0.
5.7,0.
5.72,0.
5.74,0.
5.76,0.
5.78,0.0227791748263
5.8,0.0227738246894
5.82,0.0683222654581
5.84,0.0455395885612
5.86,0.0683070132504
5.88,0.182255869159
5.9,0.15949355603
5.92,0.250731406625
5.94,0.29665064778
5.96,0.388236614454
5.98,0.228416412427
6.,0.457340145022
6.02,0.457854068099
6.04,0.458340954775
6.06,0.550586776659
6.08,0.459419953993
6.1,0.667044022097
6.12,0.760059539198
6.14,0.737870375499
6.16,0.53045050743
6.18,0.577571568601
6.2,0.879961918014
6.22,0.834869952578
6.24,0.85975944977
6.26,0.604706966039
6.28,0.909135864802
6.3,0.699605346089
6.32,0.49022178522
6.34,0.654669749912
6.36,0.585139497932
6.38,0.444968196764
6.4,0.445435723583
6.42,0.211017013055
6.44,0.281420801201
6.46,0.281408202917
6.48,0.164114565595
6.5,0.117209461462
6.52,0.11715729596
6.54,0.0702862959047
6.56,0.0468441431764
6.58,0.0936573608945
6.6,0.0468132248264
6.62,0.0233951713107
6.64,0.
6.66,0.
6.68,0.
6.7,0.
6.72,0.0233555887004
6.74,0.0233499007544
6.76,0.0233405376647
6.78,0.023334861393
6.8,0.0233238535817
6.82,0.0233281891044
6.84,0.140041278612
6.86,0.186703002722
6.88,0.116712754318
6.9,0.233475627249
6.92,0.186694960008
6.94,0.0700065918675
6.96,0.303539959066
6.98,0.397079028176
7.,0.327071738326
7.02,0.210356808713
7.04,0.35090107737
7.06,0.515127561771
7.08,0.30476936111
7.1,0.540068091724
7.12,0.446290563796
7.14,0.51713034618
7.16,0.730535470554
7.18,0.873227102939
7.2,0.661544084217
7.22,0.710370920842
7.24,0.87747600091
7.26,0.711761426914
7.28,0.64139437208
7.3,0.689697421014
7.32,0.452172206467
7.34,0.42881693883
7.36,0.286011609505
7.38,0.190760377481
7.4,0.214673479318
7.42,0.143072555195
7.44,0.190788914037
7.46,0.143005714478
7.48,0.142946108771
7.5,0.0476431390863
7.52,0.0238164052037
7.54,0.0238108451698
7.56,0.0238056838903
7.58,0.0237989423265
7.6,0.0475717142187
7.62,0.0237712143266
7.64,0.
7.66,0.0237728090341
7.68,0.
7.7,0.0712531964248
7.72,0.0237384130286
7.74,0.0237404006472
7.76,0.0949852572466
7.78,0.0474680992842
7.8,0.
7.82,0.0474475547596
7.84,0.0711759594653
7.86,0.189963552173
7.88,0.189944915304
7.9,0.2137339011
7.92,0.28517324383
7.94,0.309138642201
7.96,0.333201671677
7.98,0.309427290432
8.,0.309566797776
8.02,0.428874393443
8.04,0.357694133774
8.06,0.357927312243
8.08,0.501938156189
8.1,0.382537431079
8.12,0.502720283731
8.14,0.575157900997
8.16,0.672069082968
8.18,0.721106670003
8.2,0.625549812601
8.22,0.916213580057
8.24,0.651575338026
8.26,0.53159191022
8.28,0.580501871292
8.3,0.45990046323
8.32,0.484242363216
8.34,0.436041869944
8.36,0.387862425561
8.38,0.315126364757
8.4,0.363940197655
8.42,0.412809811414
8.44,0.388968339094
8.46,0.243115604904
8.48,0.0729419858959
8.5,0.121575164905
8.52,0.0242938282995
8.54,0.0242977649833
8.56,0.0242939469715
8.58,0.0242939469715
8.6,0.
8.62,0.
8.64,0.
8.66,0.
8.68,0.
8.7,0.0242245740081
8.72,0.0242230551956
8.74,0.0484433939607
8.76,0.0484194895126
8.78,0.0241920671928
8.8,0.0241911705673
8.82,0.0483717656353
8.84,0.0967664753073
8.86,0.12100113972
8.88,0.193624792091
8.9,0.217814192141
8.92,0.217861843834
8.94,0.363368610122
8.96,0.290827613458
8.98,0.315088865436
9.,0.242424549795
9.02,0.24254438013
9.04,0.364249582061
9.06,0.437760074137
9.08,0.486467382435
9.1,0.559749583573
9.12,0.707051581593
9.14,0.87918889363
9.16,0.733432413062
9.18,0.832718766191
9.2,0.735280958513
9.22,0.834754824991
9.24,0.761971251592
9.26,0.590164073536
9.28,0.639922209799
9.3,0.51701539754
9.32,0.394050986359
9.34,0.468444356246
9.36,0.493914038851
9.38,0.494403017341
9.4,0.222445028209
9.42,0.296851256656
9.44,0.247420273326
9.46,0.24746974254
9.48,0.148463854267
9.5,0.198039368357
9.52,0.049493948508
9.54,0.0494668275909
9.56,0.0494699688817
9.58,0.
9.6,0.0494597931327
9.62,0.0494397526082
9.64,0.0494288342888
9.66,0.
9.68,0.
9.7,0.
9.72,0.
9.74,0.0246539408812
9.76,0.0493138382594
9.78,0.0492910434869
9.8,0.0492850919001
9.82,0.0739156502907
9.84,0.0492662265401
9.86,0.0492582455184
9.88,0.0985423063254
9.9,0.197096158828
9.92,0.221693434051
9.94,0.246459409229
9.96,0.172421096253
9.98,0.320397231998
10.,0.369896961861
