t,cases
5.01,2.47
5.02,2.47
5.03,2.21
5.04,2.21
5.05,2.6
5.06,2.6
5.07,3.315
5.08,3.315
5.09,3.185
5.1,3.185
5.11,2.99
5.12,2.99
5.13,3.38
5.14,3.38
5.15,3.64
5.16,3.64
5.17,4.55
5.18,4.55
5.19,5.785
5.2,5.785
5.21,5.915
5.22,5.915
5.23,4.745
5.24,4.745
5.25,3.9
5.26,3.9
5.27,3.77
5.28,3.77
5.29,3.315
5.3,3.315
5.31,3.64
5.32,3.64
5.33,3.835
5.34,3.835
5.35,3.575
5.36,3.575
5.37,3.315
5.38,3.315
5.39,2.535
5.4,2.535
5.41,2.08
5.42,2.08
5.43,1.69
5.44,1.69
5.45,1.3
5.46,1.3
5.47,1.105
5.48,1.105
5.49,0.65
5.5,0.65
5.51,0.585
5.52,0.585
5.53,0.585
5.54,0.585
5.55,0.26
5.56,0.26
5.57,0.195
5.58,0.195
5.59,0.13
5.6,0.13
5.61,0.065
5.62,0.065
5.63,0.
5.64,0.
5.65,0.
5.66,0.
5.67,0.
5.68,0.
5.69,0.
5.7,0.
5.71,0.
5.72,0.
5.73,0.
5.74,0.
5.75,0.
5.76,0.
5.77,0.065
5.78,0.065
5.79,0.195
5.8,0.195
5.81,0.325
5.82,0.325
5.83,0.325
5.84,0.325
5.85,0.39
5.86,0.39
5.87,0.65
5.88,0.65
5.89,0.91
5.9,0.91
5.91,0.975
5.92,0.975
5.93,1.17
5.94,1.17
5.95,1.495
5.96,1.495
5.97,1.95
5.98,1.95
5.99,2.145
6.,2.145
6.01,1.95
6.02,1.95
6.03,2.275
6.04,2.275
6.05,2.6
6.06,2.6
6.07,2.665
6.08,2.665
6.09,3.51
6.1,3.51
6.11,4.355
6.12,4.355
6.13,4.355
6.14,4.355
6.15,4.55
6.16,4.55
6.17,5.135
6.18,5.135
6.19,5.33
6.2,5.33
6.21,4.745
6.22,4.745
6.23,4.355
6.24,4.355
6.25,4.225
6.26,4.225
6.27,3.965
6.28,3.965
6.29,3.64
6.3,3.64
6.31,3.705
6.32,3.705
6.33,3.64
6.34,3.64
6.35,2.665
6.36,2.665
6.37,2.34
6.38,2.34
6.39,1.885
6.4,1.885
6.41,1.56
6.42,1.56
6.43,1.885
6.44,1.885
6.45,1.495
6.46,1.495
6.47,1.04
6.48,1.04
6.49,0.845
6.5,0.845
6.51,1.105
6.52,1.105
6.53,0.91
6.54,0.91
6.55,0.325
6.56,0.325
6.57,0.195
6.58,0.195
6.59,0.195
6.6,0.195
6.61,0.13
6.62,0.13
6.63,0.
6.64,0.
6.65,0.
6.66,0.
6.67,0.065
6.68,0.065
6.69,0.13
6.7,0.13
6.71,0.065
6.72,0.065
6.73,0.13
6.74,0.13
6.75,0.13
6.76,0.13
6.77,0.13
6.78,0.13
6.79,0.26
6.8,0.26
6.81,0.26
6.82,0.26
6.83,0.39
6.84,0.39
6.85,0.65
6.86,0.65
6.87,0.975
6.88,0.975
6.89,1.04
6.9,1.04
6.91,1.56
6.92,1.56
6.93,2.21
6.94,2.21
6.95,2.015
6.96,2.015
6.97,2.34
6.98,2.34
6.99,2.795
7.,2.795
7.01,2.99
7.02,2.99
7.03,3.25
7.04,3.25
7.05,3.575
7.06,3.575
7.07,3.575
7.08,3.575
7.09,4.03
7.1,4.03
7.11,4.42
7.12,4.42
7.13,3.9
7.14,3.9
7.15,3.575
7.16,3.575
7.17,4.095
7.18,4.095
7.19,4.94
7.2,4.94
7.21,4.42
7.22,4.42
7.23,4.16
7.24,4.16
7.25,4.615
7.26,4.615
7.27,3.9
7.28,3.9
7.29,3.25
7.3,3.25
7.31,3.12
7.32,3.12
7.33,2.405
7.34,2.405
7.35,2.015
7.36,2.015
7.37,1.755
7.38,1.755
7.39,1.56
7.4,1.56
7.41,1.56
7.42,1.56
7.43,1.365
7.44,1.365
7.45,1.56
7.46,1.56
7.47,1.755
7.48,1.755
7.49,1.43
7.5,1.43
7.51,0.91
7.52,0.91
7.53,0.585
7.54,0.585
7.55,0.325
7.56,0.325
7.57,0.13
7.58,0.13
7.59,0.0649999999999
7.6,0.0650000000001
7.61,0.0650000000001
7.62,0.0649999999999
7.63,0.13
7.64,0.13
7.65,0.13
7.66,0.13
7.67,0.13
7.68,0.13
7.69,0.13
7.7,0.13
7.71,0.195
7.72,0.195
7.73,0.26
7.74,0.26
7.75,0.26
7.76,0.26
7.77,0.455
7.78,0.455
7.79,0.52
7.8,0.52
7.81,0.455
7.82,0.455
7.83,0.455
7.84,0.455
7.85,0.455
7.86,0.455
7.87,0.845
7.88,0.845
7.89,1.43
7.9,1.43
7.91,1.495
7.92,1.495
7.93,1.56
7.94,1.56
7.95,1.885
7.96,1.885
7.97,1.82
7.98,1.82
7.99,1.95
8.,1.95
8.01,1.56
8.02,1.56
8.03,1.69
8.04,1.69
8.05,2.405
8.06,2.405
8.07,2.6
8.08,2.6
8.09,3.185
8.1,3.185
8.11,3.965
8.12,3.965
8.13,4.29
8.14,4.29
8.15,4.225
8.16,4.225
8.17,4.615
8.18,4.615
8.19,4.03
8.2,4.03
8.21,3.38
8.22,3.38
8.23,3.835
8.24,3.835
8.25,3.77
8.26,3.77
8.27,4.225
8.28,4.225
8.29,4.095
8.3,4.095
8.31,3.64
8.32,3.64
8.33,4.225
8.34,4.225
8.35,3.835
8.36,3.835
8.37,2.925
8.38,2.925
8.39,2.275
8.4,2.275
8.41,1.755
8.42,1.755
8.43,1.43
8.44,1.43
8.45,1.17
8.46,1.17
8.47,0.845
8.48,0.845
8.49,0.585
8.5,0.585
8.51,0.65
8.52,0.65
8.53,0.65
8.54,0.65
8.55,0.455
8.56,0.455
8.57,0.195
8.58,0.195
8.59,0.195
8.6,0.195
8.61,0.325
8.62,0.325
8.63,0.195
8.64,0.195
8.65,0.195
8.66,0.195
8.67,0.195
8.68,0.195
8.69,0.13
8.7,0.13
8.71,0.195
8.72,0.195
8.73,0.39
8.74,0.39
8.75,0.39
8.76,0.39
8.77,0.325
8.78,0.325
8.79,0.325
8.8,0.325
8.81,0.455
8.82,0.455
8.83,0.65
8.84,0.65
8.85,0.65
8.86,0.65
8.87,0.78
8.88,0.78
8.89,0.91
8.9,0.91
8.91,0.975
8.92,0.975
8.93,0.975
8.94,0.975
8.95,1.17
8.96,1.17
8.97,1.17
8.98,1.17
8.99,1.56
9.,1.56
9.01,2.21
9.02,2.21
9.03,2.21
9.04,2.21
9.05,2.405
9.06,2.405
9.07,2.795
9.08,2.795
9.09,2.925
9.1,2.925
9.11,2.6
9.12,2.6
9.13,2.86
9.14,2.86
9.15,3.315
9.16,3.315
9.17,3.445
9.18,3.445
9.19,3.51
9.2,3.51
9.21,3.38
9.22,3.38
9.23,3.315
9.24,3.315
9.25,3.25
9.26,3.25
9.27,3.575
9.28,3.575
9.29,3.38
9.3,3.38
9.31,3.055
9.32,3.055
9.33,2.665
9.34,2.665
9.35,2.405
9.36,2.405
9.37,2.47
9.38,2.47
9.39,2.275
9.4,2.275
9.41,1.82
9.42,1.82
9.43,1.365
9.44,1.365
9.45,1.3
9.46,1.3
9.47,1.235
9.48,1.235
9.49,1.17
9.5,1.17
9.51,0.715
9.52,0.715
9.53,0.39
9.54,0.39
9.55,0.325
9.56,0.325
9.57,0.26
9.58,0.26
9.59,0.26
9.6,0.26
9.61,0.195
9.62,0.195
9.63,0.13
9.64,0.13
9.65,0.13
9.66,0.13
9.67,0.13
9.68,0.13
9.69,0.0650000000001
9.7,0.0649999999999
9.71,0.
9.72,0.
9.73,0.
9.74,0.
9.75,0.
9.76,0.
9.77,0.
9.78,0.
9.79,0.0649999999999
9.8,0.0650000000001
9.81,0.0650000000001
9.82,0.0649999999999
9.83,0.13
9.84,0.13
9.85,0.325
9.86,0.325
9.87,0.585
9.88,0.585
9.89,0.65
9.9,0.65
9.91,0.65
9.92,0.65
9.93,0.845
9.94,0.845
9.95,0.845
9.96,0.845
9.97,0.91
9.98,0.91
9.99,0.845
10.,0.845
