t,cases
5.01,2.47
5.02,2.47
5.03,2.34
5.04,2.34
5.05,2.015
5.06,2.015
5.07,2.795
5.08,2.795
5.09,3.51
5.1,3.51
5.11,3.77
5.12,3.77
5.13,3.9
5.14,3.9
5.15,3.445
5.16,3.445
5.17,3.38
5.18,3.38
5.19,3.835
5.2,3.835
5.21,4.68
5.22,4.68
5.23,4.16
5.24,4.16
5.25,3.38
5.26,3.38
5.27,3.25
5.28,3.25
5.29,2.925
5.3,2.925
5.31,2.665
5.32,2.665
5.33,2.275
5.34,2.275
5.35,2.145
5.36,2.145
5.37,1.69
5.38,1.69
5.39,1.17
5.4,1.17
5.41,1.105
5.42,1.105
5.43,1.04
5.44,1.04
5.45,0.78
5.46,0.78
5.47,0.78
5.48,0.78
5.49,0.845
5.5,0.845
5.51,0.78
5.52,0.78
5.53,0.65
5.54,0.65
5.55,0.325
5.56,0.325
5.57,0.13
5.58,0.13
5.59,0.13
5.6,0.13
5.61,0.13
5.62,0.13
5.63,0.13
5.64,0.13
5.65,0.195
5.66,0.195
5.67,0.195
5.68,0.195
5.69,0.13
5.7,0.13
5.71,0.065
5.72,0.065
5.73,0.065
5.74,0.065
5.75,0.065
5.76,0.065
5.77,0.065
5.78,0.065
5.79,0.195
5.8,0.195
5.81,0.26
5.82,0.26
5.83,0.325
5.84,0.325
5.85,0.65
5.86,0.65
5.87,0.715
5.88,0.715
5.89,0.585
5.9,0.585
5.91,0.91
5.92,0.91
5.93,1.43
5.94,1.43
5.95,1.625
5.96,1.625
5.97,1.69
5.98,1.69
5.99,2.015
6.,2.015
6.01,2.405
6.02,2.405
6.03,2.73
6.04,2.73
6.05,2.665
6.06,2.665
6.07,1.95
6.08,1.95
6.09,1.625
6.1,1.625
6.11,2.665
6.12,2.665
6.13,3.185
6.14,3.185
6.15,3.055
6.16,3.055
6.17,3.575
6.18,3.575
6.19,3.9
6.2,3.9
6.21,3.705
6.22,3.705
6.23,3.185
6.24,3.185
6.25,3.055
6.26,3.055
6.27,2.86
6.28,2.86
6.29,2.73
6.3,2.73
6.31,2.6
6.32,2.6
6.33,2.275
6.34,2.275
6.35,2.34
6.36,2.34
6.37,2.405
6.38,2.405
6.39,2.405
6.4,2.405
6.41,2.08
6.42,2.08
6.43,2.015
6.44,2.015
6.45,1.885
6.46,1.885
6.47,1.69
6.48,1.69
6.49,1.755
6.5,1.755
6.51,1.625
6.52,1.625
6.53,1.04
6.54,1.04
6.55,0.52
6.56,0.52
6.57,0.325
6.58,0.325
6.59,0.195
6.6,0.195
6.61,0.325
6.62,0.325
6.63,0.325
6.64,0.325
6.65,0.26
6.66,0.26
6.67,0.325
6.68,0.325
6.69,0.195
6.7,0.195
6.71,0.
6.72,0.
6.73,0.
6.74,0.
6.75,0.
6.76,0.
6.77,0.13
6.78,0.13
6.79,0.26
6.8,0.26
6.81,0.325
6.82,0.325
6.83,0.39
6.84,0.39
6.85,0.65
6.86,0.65
6.87,0.78
6.88,0.78
6.89,0.845
6.9,0.845
6.91,1.43
6.92,1.43
6.93,1.56
6.94,1.56
6.95,1.885
6.96,1.885
6.97,2.665
6.98,2.665
6.99,3.055
7.,3.055
7.01,2.925
7.02,2.925
7.03,2.6
7.04,2.6
7.05,3.38
7.06,3.38
7.07,3.64
7.08,3.64
7.09,3.64
7.1,3.64
7.11,3.9
7.12,3.9
7.13,3.575
7.14,3.575
7.15,3.38
7.16,3.38
7.17,3.315
7.18,3.315
7.19,3.445
7.2,3.445
7.21,3.315
7.22,3.315
7.23,3.185
7.24,3.185
7.25,3.315
7.26,3.315
7.27,3.77
7.28,3.77
7.29,3.705
7.3,3.705
7.31,3.185
7.32,3.185
7.33,3.055
7.34,3.055
7.35,2.73
7.36,2.73
7.37,2.21
7.38,2.21
7.39,1.885
7.4,1.885
7.41,1.365
7.42,1.365
7.43,0.91
7.44,0.91
7.45,0.975
7.46,0.975
7.47,0.78
7.48,0.78
7.49,0.455
7.5,0.455
7.51,0.26
7.52,0.26
7.53,0.065
7.54,0.065
7.55,0.
7.56,0.
7.57,0.
7.58,0.
7.59,0.
7.6,0.
7.61,0.
7.62,0.
7.63,0.
7.64,0.
7.65,0.
7.66,0.
7.67,0.065
7.68,0.065
7.69,0.065
7.7,0.065
7.71,0.065
7.72,0.065
7.73,0.065
7.74,0.065
7.75,0.065
7.76,0.065
7.77,0.195
7.78,0.195
7.79,0.26
7.8,0.26
7.81,0.26
7.82,0.26
7.83,0.325
7.84,0.325
7.85,0.52
7.86,0.52
7.87,0.65
7.88,0.65
7.89,0.65
7.9,0.65
7.91,0.715
7.92,0.715
7.93,1.105
7.94,1.105
7.95,1.365
7.96,1.365
7.97,1.495
7.98,1.495
7.99,2.08
8.,2.08
8.01,2.34
8.02,2.34
8.03,2.405
8.04,2.405
8.05,2.47
8.06,2.47
8.07,2.535
8.08,2.535
8.09,3.055
8.1,3.055
8.11,3.835
8.12,3.835
8.13,4.355
8.14,4.355
8.15,4.29
8.16,4.29
8.17,4.355
8.18,4.355
8.19,4.485
8.2,4.485
8.21,3.9
8.22,3.9
8.23,3.64
8.24,3.64
8.25,3.9
8.26,3.9
8.27,3.38
8.28,3.38
8.29,3.185
8.3,3.185
8.31,3.575
8.32,3.575
8.33,3.445
8.34,3.445
8.35,2.795
8.36,2.795
8.37,2.47
8.38,2.47
8.39,2.535
8.4,2.535
8.41,2.08
8.42,2.08
8.43,1.885
8.44,1.885
8.45,1.82
8.46,1.82
8.47,1.495
8.48,1.495
8.49,0.91
8.5,0.91
8.51,0.195
8.52,0.195
8.53,0.0649999999999
8.54,0.0650000000001
8.55,0.0650000000001
8.56,0.0649999999999
8.57,0.
8.58,0.
8.59,0.
8.6,0.
8.61,0.0649999999999
8.62,0.0650000000001
8.63,0.195
8.64,0.195
8.65,0.26
8.66,0.26
8.67,0.13
8.68,0.13
8.69,0.
8.7,0.
8.71,0.0650000000001
8.72,0.0649999999999
8.73,0.13
8.74,0.13
8.75,0.13
8.76,0.13
8.77,0.13
8.78,0.13
8.79,0.195
8.8,0.195
8.81,0.325
8.82,0.325
8.83,0.39
8.84,0.39
8.85,0.715
8.86,0.715
8.87,1.04
8.88,1.04
8.89,1.105
8.9,1.105
8.91,1.04
8.92,1.04
8.93,1.105
8.94,1.105
8.95,1.365
8.96,1.365
8.97,1.755
8.98,1.755
8.99,1.885
9.,1.885
9.01,2.275
9.02,2.275
9.03,2.535
9.04,2.535
9.05,2.405
9.06,2.405
9.07,2.73
9.08,2.73
9.09,3.185
9.1,3.185
9.11,3.64
9.12,3.64
9.13,3.575
9.14,3.575
9.15,3.9
9.16,3.9
9.17,4.225
9.18,4.225
9.19,4.42
9.2,4.42
9.21,4.68
9.22,4.68
9.23,3.965
9.24,3.965
9.25,3.77
9.26,3.77
9.27,4.16
9.28,4.16
9.29,4.16
9.3,4.16
9.31,3.445
9.32,3.445
9.33,2.6
9.34,2.6
9.35,2.73
9.36,2.73
9.37,2.795
9.38,2.795
9.39,2.275
9.4,2.275
9.41,1.885
9.42,1.885
9.43,1.43
9.44,1.43
9.45,1.105
9.46,1.105
9.47,0.845
9.48,0.845
9.49,0.52
9.5,0.52
9.51,0.455
9.52,0.455
9.53,0.26
9.54,0.26
9.55,0.13
9.56,0.13
9.57,0.0649999999999
9.58,0.0650000000001
9.59,0.0649999999999
9.6,0.0650000000001
9.61,0.13
9.62,0.13
9.63,0.0649999999999
9.64,0.0650000000001
9.65,0.
9.66,0.
9.67,0.0650000000001
9.68,0.0649999999999
9.69,0.195
9.7,0.195
9.71,0.195
9.72,0.195
9.73,0.13
9.74,0.13
9.75,0.0649999999999
9.76,0.0650000000001
9.77,0.
9.78,0.
9.79,0.13
9.8,0.13
9.81,0.39
9.82,0.39
9.83,0.455
9.84,0.455
9.85,0.39
9.86,0.39
9.87,0.455
9.88,0.455
9.89,0.65
9.9,0.65
9.91,0.845
9.92,0.845
9.93,0.975
9.94,0.975
9.95,1.17
9.96,1.17
9.97,1.43
9.98,1.43
9.99,1.365
10.,1.365
