t,neff
5.,0.501713701128
5.02,0.418365082475
5.04,0.524213359614
5.06,0.524605717148
5.08,0.504088852885
5.1,0.568002202912
5.12,0.716890881077
5.14,0.548639969518
5.16,0.697834823474
5.18,0.635289407123
5.2,0.699690978038
5.22,0.594259431241
5.24,0.658448479928
5.26,0.552554688719
5.28,0.595468867
5.3,0.532054878464
5.32,0.362153817017
5.34,0.405187166918
5.36,0.341210245826
5.38,0.362751927692
5.4,0.320043219592
5.42,0.234605509249
5.44,0.255782093776
5.46,0.170459420949
5.48,0.0851628354719
5.5,0.0851068441274
5.52,0.0850674564082
5.54,0.0637694326083
5.56,0.042504455881
5.58,0.0424765584959
5.6,0.0424388864703
5.62,0.0848777729409
5.64,0.0423957172426
5.66,0.
5.68,0.021185290407
5.7,0.0211733864208
5.72,0.
5.74,0.0211346377398
5.76,0.0211269998201
5.78,0.0422442510224
5.8,0.0422234719049
5.82,0.0422163088685
5.84,0.042201056839
5.86,0.0421683930216
5.88,0.105390289827
5.9,0.126390949553
5.92,0.0210687355807
5.94,0.189728976395
5.96,0.189681255475
5.98,0.210742258049
6.,0.273940055619
6.02,0.252761344541
6.04,0.273871261683
6.06,0.400678444901
6.08,0.274327101111
6.1,0.46473052568
6.12,0.528671007493
6.14,0.465305576385
6.16,0.615007030062
6.18,0.530771190374
6.2,0.702367904443
6.22,0.553183036838
6.24,0.510966127524
6.26,0.447212940903
6.28,0.404661645872
6.3,0.404861768284
6.32,0.319343746561
6.34,0.298171739063
6.36,0.340957836146
6.38,0.27695535888
6.4,0.191738325379
6.42,0.149139980323
6.44,0.149115647994
6.46,0.0851641479445
6.48,0.127695875271
6.5,0.127540337711
6.52,0.106265715353
6.54,0.0849202075834
6.56,0.106066786143
6.58,0.127234926454
6.6,0.0847540539115
6.62,0.0846954044422
6.64,0.0211710818389
6.66,0.
6.68,0.
6.7,0.
6.72,0.0211179582346
6.74,0.0211048359505
6.76,0.
6.78,0.
6.8,0.
6.82,0.0210497446854
6.84,0.0631372195975
6.86,0.126287060329
6.88,0.105207664107
6.9,0.147267153455
6.92,0.189362409791
6.94,0.147124452614
6.96,0.105096252809
6.98,0.273329418447
7.,0.315562991489
7.02,0.442288132977
7.04,0.569986906162
7.06,0.443568305709
7.08,0.656056492538
7.1,0.381135523096
7.12,0.593984686431
7.14,0.594746282516
7.16,0.51035370308
7.18,0.873922153735
7.2,0.618935886743
7.22,0.770496003884
7.24,0.664230260166
7.26,0.729936222701
7.28,0.601303123036
7.3,0.365270750846
7.32,0.559652121647
7.34,0.430788136516
7.36,0.495604255673
7.38,0.387993312496
7.4,0.280180146938
7.42,0.237170250726
7.44,0.172430054934
7.46,0.19383539458
7.48,0.129227804561
7.5,0.0430415566137
7.52,0.
7.54,0.
7.56,0.064423113761
7.58,0.
7.6,0.0428845391315
7.62,0.
7.64,0.
7.66,0.0214104069911
7.68,0.
7.7,0.0214018436846
7.72,0.0213855514873
7.74,0.0213792082074
7.76,0.0213735568175
7.78,0.0427089685143
7.8,0.0426638930858
7.82,0.0639495875709
7.84,0.127845183616
7.86,0.149147984777
7.88,0.170426999677
7.9,0.127736179612
7.92,0.255717153339
7.94,0.213006767415
7.96,0.212929459195
7.98,0.213096607167
8.,0.29862001365
8.02,0.405563223284
8.04,0.320309551858
8.06,0.49198357929
8.08,0.406675705714
8.1,0.556778734629
8.12,0.449749630249
8.14,0.407118889742
8.16,0.579286353129
8.18,0.493384570827
8.2,0.666366545565
8.22,0.710373566787
8.24,0.928047871887
8.26,0.733511576125
8.28,0.625955365131
8.3,0.604632766771
8.32,0.518274017793
8.34,0.324148279639
8.36,0.25924084368
8.38,0.237812025588
8.4,0.302669563713
8.42,0.194495347325
8.44,0.0864192975937
8.46,0.172873145631
8.48,0.151158046523
8.5,0.107955633386
8.52,0.0863299655119
8.54,0.0647064990303
8.56,0.064678492939
8.58,0.107736521102
8.6,0.0430659512999
8.62,0.0215279771594
8.64,0.0215272495562
8.66,0.0215064995554
8.68,0.
8.7,0.0214615753307
8.72,0.0214516421601
8.74,0.0428833438178
8.76,0.064297532759
8.78,0.08569856477
8.8,0.0428053335491
8.82,0.128373349361
8.84,0.106970545655
8.86,0.149714337199
8.88,0.128317876282
8.9,0.171192093033
8.92,0.256992182568
8.94,0.27872161825
8.96,0.42932972383
8.98,0.472655348598
9.,0.64575193269
9.02,0.538198227105
9.04,0.560677541436
9.06,0.583545327823
9.08,0.606049008979
9.1,0.520411387299
9.12,0.56489761962
9.14,0.783586326538
9.16,0.76274420472
9.18,0.785462363059
9.2,0.91919311098
9.22,1.09649610427
9.24,0.834217899383
9.26,0.81306648221
9.28,0.682144816614
9.3,0.704993415639
9.32,0.573432314898
9.34,0.419264092428
9.36,0.309204368292
9.38,0.442352882926
9.4,0.375948521141
9.42,0.176802518248
9.44,0.221079811861
9.46,0.110566092023
9.48,0.110550968771
9.5,0.132571794498
9.52,0.0441604050817
9.54,0.0441358707269
9.56,0.0440985395769
9.58,0.0220492697885
9.6,0.0440881097392
9.62,0.0220388413733
9.64,0.0220202069325
9.66,0.
9.68,0.0219968340515
9.7,0.
9.72,0.0219648892381
9.74,0.0438955252392
9.76,0.
9.78,0.
9.8,0.0219021922481
9.82,0.
9.84,0.0875793508741
9.86,0.0875612845647
9.88,0.131190464569
9.9,0.196812329103
9.92,0.0873981061545
9.94,0.21870996507
9.96,0.19681926299
9.98,0.152998812602
10.,0.306244458833
