t,s,e,i,r,c,o,n,reff,coal,reportr
5.,8019.,41.,21.,1919.,0.,0.,10000.,0.835919838259,1.06019101438,533.
5.02,8017.,36.,19.,1931.,0.,0.,10003.,0.835460715236,1.20677658867,468.
5.04,8008.,30.,14.,1951.,0.,0.,10003.,0.834522814969,1.44650621261,390.
5.06,8003.,21.,17.,1958.,0.,0.,9999.,0.834335393333,2.06597335492,273.
5.08,7991.,27.,12.,1971.,0.,0.,10001.,0.832917759169,1.60413790655,351.
5.1,7983.,30.,11.,1976.,0.,0.,10000.,0.832167111712,1.44242299363,390.
5.12,7967.,33.,15.,1984.,0.,0.,9999.,0.830582291476,1.30879633808,429.
5.14,7953.,37.,21.,1986.,0.,0.,9997.,0.829288626178,1.16548671787,481.
5.16,7938.,38.,21.,2000.,0.,0.,9997.,0.827724520885,1.13267566016,494.
5.18,7931.,38.,13.,2018.,0.,0.,10000.,0.8267465067,1.13133732496,494.
5.2,7917.,35.,19.,2024.,0.,0.,9995.,0.825699963025,1.22675423078,455.
5.22,7907.,27.,22.,2039.,0.,0.,9995.,0.824657017511,1.58822833002,351.
5.24,7910.,25.,18.,2048.,0.,0.,10001.,0.824474968718,1.71490793493,325.
5.26,7893.,29.,11.,2066.,0.,0.,9999.,0.822867582104,1.47548669894,377.
5.28,7885.,20.,14.,2077.,0.,0.,9996.,0.82228026822,2.13792869737,260.
5.3,7877.,18.,15.,2086.,0.,0.,9996.,0.821445995278,2.37306620858,234.
5.32,7865.,27.,11.,2088.,0.,0.,9991.,0.820605052579,1.58042454571,351.
5.34,7858.,26.,12.,2095.,0.,0.,9991.,0.819874698431,1.63974939686,338.
5.36,7855.,19.,16.,2103.,0.,0.,9993.,0.819397662354,2.24256202329,247.
5.38,7848.,23.,8.,2117.,0.,0.,9996.,0.818421755864,1.85034483935,299.
5.4,7843.,18.,6.,2127.,0.,0.,9994.,0.81806401355,2.36329603914,234.
5.42,7844.,13.,11.,2126.,0.,0.,9994.,0.818168318537,3.27267327415,169.
5.44,7843.,10.,11.,2129.,0.,0.,9993.,0.818145877256,4.25435856173,130.
5.46,7837.,10.,4.,2143.,0.,0.,9994.,0.817438183628,4.25067855486,130.
5.48,7837.,11.,4.,2144.,0.,0.,9996.,0.81727463057,3.86348007178,143.
5.5,7838.,11.,7.,2141.,0.,0.,9997.,0.817297152267,3.86358653799,143.
5.52,7833.,12.,3.,2143.,0.,0.,9991.,0.817266290763,3.54148725997,156.
5.54,7833.,7.,6.,2144.,0.,0.,9990.,0.8173480992,6.07172873692,91.
5.56,7832.,4.,8.,2144.,0.,0.,9988.,0.817407397574,10.6262961685,52.
5.58,7839.,3.,1.,2149.,0.,0.,9992.,0.817810453889,14.1753812007,39.
5.6,7842.,1.,2.,2145.,0.,0.,9990.,0.818287219958,42.5509354378,13.
5.62,7848.,2.,0.,2143.,0.,0.,9993.,0.81866745438,21.2853538139,26.
5.64,7851.,2.,0.,2138.,0.,0.,9991.,0.819144344284,21.2977529514,26.
5.66,7856.,1.,1.,2135.,0.,0.,9993.,0.819501977779,42.6141028445,13.
5.68,7865.,0.,0.,2134.,0.,0.,9999.,0.819948502882,inf,0.
5.7,7876.,0.,0.,2129.,0.,0.,10005.,0.82060287304,inf,0.
5.72,7887.,0.,0.,2123.,0.,0.,10010.,0.821338502419,inf,0.
5.74,7893.,0.,0.,2121.,0.,0.,10014.,0.821635006337,inf,0.
5.76,7894.,1.,1.,2118.,0.,0.,10014.,0.821739103005,42.7304333563,13.
5.78,7897.,1.,1.,2113.,0.,0.,10012.,0.822215606234,42.7552115242,13.
5.8,7902.,2.,1.,2108.,0.,0.,10013.,0.822654026747,21.3890046954,26.
5.82,7907.,2.,0.,2106.,0.,0.,10015.,0.823010173742,21.3982645173,26.
5.84,7905.,2.,1.,2104.,0.,0.,10012.,0.823048545939,21.3992621944,26.
5.86,7905.,2.,3.,2103.,0.,0.,10013.,0.822966347942,21.3971250465,26.
5.88,7900.,8.,1.,2103.,0.,0.,10012.,0.822527958624,5.34643173105,104.
5.9,7903.,6.,3.,2100.,0.,0.,10012.,0.822840311013,7.13128269545,78.
5.92,7903.,10.,6.,2093.,0.,0.,10012.,0.822840311013,4.27876961727,130.
5.94,7895.,12.,9.,2093.,0.,0.,10009.,0.822253751777,3.56309959103,156.
5.96,7893.,12.,2.,2100.,0.,0.,10007.,0.822209748521,3.56290891026,156.
5.98,7892.,15.,4.,2096.,0.,0.,10007.,0.822105579036,2.84996600732,195.
6.,7892.,12.,10.,2093.,0.,0.,10007.,0.822105579036,3.56245750916,156.
6.02,7887.,13.,7.,2097.,0.,0.,10004.,0.821831108478,3.28732443391,169.
6.04,7892.,18.,4.,2098.,0.,0.,10012.,0.821695018919,2.37378561021,234.
6.06,7888.,17.,9.,2100.,0.,0.,10014.,0.821114522993,2.51164442327,221.
6.08,7879.,25.,5.,2108.,0.,0.,10017.,0.819932017259,1.7054585959,325.
6.1,7876.,20.,11.,2109.,0.,0.,10016.,0.819701651833,2.13122429477,260.
6.12,7875.,21.,8.,2114.,0.,0.,10018.,0.81943395096,2.02907454524,273.
6.14,7871.,20.,15.,2114.,0.,0.,10020.,0.818854253948,2.12902106026,260.
6.16,7864.,24.,14.,2118.,0.,0.,10020.,0.8181260136,1.7726063628,312.
6.18,7850.,32.,9.,2126.,0.,0.,10017.,0.81691411797,1.3274854417,416.
6.2,7844.,31.,10.,2134.,0.,0.,10019.,0.81612677667,1.36898685119,403.
6.22,7835.,31.,4.,2148.,0.,0.,10018.,0.815271746765,1.36755260748,403.
6.24,7833.,22.,13.,2151.,0.,0.,10019.,0.81498228476,1.92632176398,286.
6.26,7821.,23.,13.,2158.,0.,0.,10015.,0.814058754121,1.84048066149,299.
6.28,7805.,35.,11.,2165.,0.,0.,10016.,0.812312264164,1.20686393533,455.
6.3,7806.,20.,25.,2165.,0.,0.,10016.,0.812416340047,2.11228248412,260.
6.32,7787.,26.,12.,2188.,0.,0.,10013.,0.810681714285,1.62136342857,338.
6.34,7784.,19.,9.,2201.,0.,0.,10013.,0.81036939309,2.21785307583,247.
6.36,7775.,22.,14.,2201.,0.,0.,10012.,0.809513275734,1.91339501537,286.
6.38,7769.,15.,11.,2216.,0.,0.,10011.,0.808969370932,2.80442715257,195.
6.4,7767.,17.,8.,2223.,0.,0.,10015.,0.808438095289,2.47286946794,221.
6.42,7769.,18.,2.,2226.,0.,0.,10015.,0.808646267839,2.3360892182,234.
6.44,7772.,12.,8.,2223.,0.,0.,10015.,0.808958526663,3.50548694887,156.
6.46,7777.,8.,7.,2223.,0.,0.,10015.,0.809478958036,5.26161322723,104.
6.48,7778.,10.,3.,2228.,0.,0.,10019.,0.809259825209,4.20815109109,130.
6.5,7776.,6.,5.,2230.,0.,0.,10017.,0.809213271507,7.0131816864,78.
6.52,7778.,5.,2.,2231.,0.,0.,10016.,0.809502215333,8.41882303946,65.
6.54,7776.,2.,5.,2228.,0.,0.,10011.,0.809698265976,21.0521549154,26.
6.56,7774.,4.,1.,2231.,0.,0.,10010.,0.809570878382,10.524421419,52.
6.58,7781.,1.,3.,2225.,0.,0.,10010.,0.810299846243,42.1355920046,13.
6.6,7786.,1.,0.,2224.,0.,0.,10011.,0.810739544611,42.1584563197,13.
6.62,7789.,0.,0.,2222.,0.,0.,10011.,0.811051928201,inf,0.
6.64,7794.,0.,0.,2219.,0.,0.,10013.,0.811410463739,inf,0.
6.66,7801.,0.,0.,2214.,0.,0.,10015.,0.811977028628,inf,0.
6.68,7804.,0.,0.,2209.,0.,0.,10013.,0.812451534388,inf,0.
6.7,7803.,0.,0.,2206.,0.,0.,10009.,0.812672074112,inf,0.
6.72,7808.,0.,0.,2202.,0.,0.,10010.,0.81311157942,inf,0.
6.74,7813.,0.,0.,2200.,0.,0.,10013.,0.813388497972,inf,0.
6.76,7813.,0.,0.,2198.,0.,0.,10011.,0.813550996923,inf,0.
6.78,7822.,0.,0.,2191.,0.,0.,10013.,0.814325461556,inf,0.
6.8,7828.,0.,0.,2184.,0.,0.,10012.,0.815031501279,inf,0.
6.82,7830.,1.,0.,2178.,0.,0.,10009.,0.815484088209,42.4051725869,13.
6.84,7834.,2.,1.,2171.,0.,0.,10008.,0.815982207739,21.2155374012,26.
6.86,7833.,4.,1.,2166.,0.,0.,10004.,0.816204269393,10.6106555021,52.
6.88,7833.,10.,0.,2164.,0.,0.,10007.,0.815959579395,4.24298981286,130.
6.9,7838.,8.,3.,2157.,0.,0.,10006.,0.816562025906,5.30765316839,104.
6.92,7831.,10.,4.,2157.,0.,0.,10002.,0.816159034486,4.24402697933,130.
6.94,7830.,13.,7.,2152.,0.,0.,10002.,0.816054812926,3.2642192517,169.
6.96,7829.,14.,6.,2154.,0.,0.,10003.,0.815869020779,3.03037064861,182.
6.98,7824.,17.,4.,2157.,0.,0.,10002.,0.815429483568,2.49425489091,221.
7.,7825.,16.,8.,2156.,0.,0.,10005.,0.815289167285,2.64968979368,208.
7.02,7821.,16.,6.,2158.,0.,0.,10001.,0.81519832242,2.64939454786,208.
7.04,7820.,15.,7.,2158.,0.,0.,10000.,0.815175599848,2.82594207947,195.
7.06,7814.,20.,7.,2160.,0.,0.,10001.,0.814468698554,2.11761861624,260.
7.08,7806.,17.,16.,2162.,0.,0.,10001.,0.813634842707,2.48876540122,221.
7.1,7789.,31.,12.,2167.,0.,0.,9999.,0.812025287851,1.36210693446,403.
7.12,7791.,18.,15.,2178.,0.,0.,10002.,0.811990172096,2.34574938605,234.
7.14,7770.,29.,18.,2184.,0.,0.,10001.,0.809882491395,1.45220308802,377.
7.16,7755.,35.,12.,2200.,0.,0.,10002.,0.808238195944,1.20081103397,455.
7.18,7741.,31.,19.,2207.,0.,0.,9998.,0.8071018703,1.35384829857,403.
7.2,7740.,25.,17.,2218.,0.,0.,10000.,0.806836207522,1.67821931165,325.
7.22,7728.,32.,13.,2228.,0.,0.,10001.,0.805504748199,1.30894521582,416.
7.24,7726.,25.,21.,2233.,0.,0.,10005.,0.804974326702,1.67434659954,325.
7.26,7713.,28.,18.,2246.,0.,0.,10005.,0.803619852686,1.49243686927,364.
7.28,7697.,26.,20.,2264.,0.,0.,10007.,0.801792529377,1.60358505875,338.
7.3,7689.,28.,15.,2276.,0.,0.,10008.,0.800879141601,1.48734697726,364.
7.32,7672.,20.,9.,2301.,0.,0.,10002.,0.799587806484,2.07892829686,260.
7.34,7671.,13.,11.,2305.,0.,0.,10000.,0.799643481641,3.19857392657,169.
7.36,7672.,11.,9.,2311.,0.,0.,10003.,0.799507871684,3.77949175705,143.
7.38,7670.,14.,3.,2316.,0.,0.,10003.,0.799299449402,2.96882652635,182.
7.4,7668.,12.,5.,2316.,0.,0.,10001.,0.799250829346,3.4634202605,156.
7.42,7670.,7.,7.,2316.,0.,0.,10000.,0.799539239237,5.93943434862,91.
7.44,7672.,7.,6.,2315.,0.,0.,10000.,0.799747724045,5.94098309291,91.
7.46,7676.,8.,3.,2315.,0.,0.,10002.,0.800004692723,5.2000305027,104.
7.48,7679.,8.,5.,2311.,0.,0.,10003.,0.800237349669,5.20154277285,104.
7.5,7682.,5.,6.,2309.,0.,0.,10002.,0.800630022082,8.32655222965,65.
7.52,7691.,5.,0.,2312.,0.,0.,10008.,0.801087459755,8.33130958145,65.
7.54,7695.,5.,0.,2309.,0.,0.,10009.,0.801424017723,8.33480978432,65.
7.56,7697.,2.,1.,2307.,0.,0.,10007.,0.801792529377,20.8466057638,26.
7.58,7701.,2.,0.,2305.,0.,0.,10008.,0.802129050523,20.8553553136,26.
7.6,7701.,2.,0.,2300.,0.,0.,10003.,0.802529994765,20.8657798639,26.
7.62,7707.,1.,1.,2297.,0.,0.,10006.,0.802914459512,41.7515518946,13.
7.64,7709.,1.,0.,2296.,0.,0.,10006.,0.803122819304,41.7623866038,13.
7.66,7722.,1.,0.,2290.,0.,0.,10013.,0.803914755067,41.8035672635,13.
7.68,7728.,2.,0.,2285.,0.,0.,10015.,0.804378730578,20.913846995,26.
7.7,7732.,1.,1.,2280.,0.,0.,10014.,0.80487544267,41.8535230188,13.
7.72,7734.,1.,1.,2277.,0.,0.,10013.,0.805164039846,41.868530072,13.
7.74,7739.,0.,0.,2275.,0.,0.,10014.,0.805604119351,inf,0.
7.76,7744.,0.,0.,2270.,0.,0.,10014.,0.806124602695,inf,0.
7.78,7752.,0.,0.,2263.,0.,0.,10015.,0.806876801169,inf,0.
7.8,7754.,1.,0.,2261.,0.,0.,10016.,0.807004394149,41.9642284957,13.
7.82,7756.,2.,1.,2256.,0.,0.,10015.,0.807293146268,20.989621803,26.
7.84,7758.,2.,2.,2256.,0.,0.,10018.,0.807259503689,20.9887470959,26.
7.86,7758.,4.,2.,2255.,0.,0.,10019.,0.807178930827,10.4933261008,52.
7.88,7754.,5.,3.,2255.,0.,0.,10017.,0.806923830667,8.39200783894,65.
7.9,7755.,7.,5.,2248.,0.,0.,10015.,0.807189059993,5.99626158852,91.
7.92,7753.,6.,5.,2251.,0.,0.,10015.,0.806980887444,6.99383435785,78.
7.94,7750.,7.,8.,2249.,0.,0.,10014.,0.806749182707,5.99299392868,91.
7.96,7746.,12.,7.,2249.,0.,0.,10014.,0.806332796032,3.49410878281,156.
7.98,7743.,14.,3.,2255.,0.,0.,10015.,0.805940024697,2.9934915203,182.
8.,7747.,13.,4.,2251.,0.,0.,10015.,0.806356369796,3.22542547918,169.
8.02,7746.,11.,10.,2249.,0.,0.,10016.,0.806171787087,3.81099390259,143.
8.04,7745.,16.,6.,2253.,0.,0.,10020.,0.805745927687,2.61867426498,208.
8.06,7746.,18.,10.,2247.,0.,0.,10021.,0.8057695459,2.32777868816,234.
8.08,7732.,25.,13.,2251.,0.,0.,10021.,0.804313210548,1.67297147794,325.
8.1,7727.,28.,6.,2258.,0.,0.,10019.,0.803953544535,1.49305658271,364.
8.12,7731.,22.,13.,2257.,0.,0.,10023.,0.804048713844,1.90047877818,286.
8.14,7721.,28.,9.,2265.,0.,0.,10023.,0.803008681877,1.49130183777,364.
8.16,7715.,28.,15.,2265.,0.,0.,10023.,0.802384662696,1.49014294501,364.
8.18,7706.,32.,11.,2275.,0.,0.,10024.,0.80136868095,1.30222410654,416.
8.2,7698.,31.,11.,2282.,0.,0.,10022.,0.800696494264,1.34310379683,403.
8.22,7686.,35.,8.,2292.,0.,0.,10021.,0.799528108674,1.18787033289,455.
8.24,7688.,26.,15.,2291.,0.,0.,10020.,0.799815970569,1.59963194114,338.
8.26,7678.,27.,13.,2301.,0.,0.,10019.,0.798855353299,1.53853623598,351.
8.28,7671.,20.,21.,2307.,0.,0.,10019.,0.798127040265,2.07513030469,260.
8.3,7659.,23.,14.,2319.,0.,0.,10015.,0.797196777626,1.80235793202,299.
8.32,7650.,27.,14.,2321.,0.,0.,10012.,0.796498592844,1.53399728992,351.
8.34,7635.,33.,14.,2331.,0.,0.,10013.,0.794857440422,1.25250263339,429.
8.36,7631.,23.,11.,2347.,0.,0.,10012.,0.794520361045,1.79630690323,299.
8.38,7629.,14.,15.,2355.,0.,0.,10013.,0.794232798033,2.95000753555,182.
8.4,7625.,13.,11.,2362.,0.,0.,10011.,0.793974958599,3.1758998344,169.
8.42,7625.,14.,0.,2375.,0.,0.,10014.,0.793737099115,2.94816636814,182.
8.44,7632.,8.,6.,2366.,0.,0.,10012.,0.794624478508,5.1650591103,104.
8.46,7638.,4.,5.,2364.,0.,0.,10011.,0.795328620824,10.3392720707,52.
8.48,7642.,6.,0.,2366.,0.,0.,10014.,0.795506742484,6.89439176819,78.
8.5,7642.,4.,4.,2364.,0.,0.,10014.,0.795506742484,10.3415876523,52.
8.52,7645.,1.,2.,2365.,0.,0.,10013.,0.795898511071,41.3867225757,13.
8.54,7646.,2.,0.,2363.,0.,0.,10011.,0.796161643731,20.700202737,26.
8.56,7651.,1.,0.,2360.,0.,0.,10012.,0.796602710307,41.423340936,13.
8.58,7650.,0.,0.,2359.,0.,0.,10009.,0.796737327561,inf,0.
8.6,7653.,1.,0.,2356.,0.,0.,10010.,0.79697014822,41.4424477074,13.
8.62,7661.,1.,1.,2348.,0.,0.,10011.,0.797723561683,41.4816252075,13.
8.64,7663.,2.,0.,2344.,0.,0.,10009.,0.798091260274,20.7503727671,26.
8.66,7669.,2.,0.,2338.,0.,0.,10009.,0.798716152296,20.7666199597,26.
8.68,7670.,0.,1.,2336.,0.,0.,10007.,0.79897995327,inf,0.
8.7,7670.,2.,0.,2332.,0.,0.,10004.,0.799219551417,20.7797083368,26.
8.72,7676.,0.,1.,2329.,0.,0.,10006.,0.799684882732,inf,0.
8.74,7674.,3.,1.,2326.,0.,0.,10004.,0.799636354312,13.8603634747,39.
8.76,7675.,2.,1.,2325.,0.,0.,10003.,0.799820505106,20.7953331328,26.
8.78,7683.,2.,3.,2321.,0.,0.,10009.,0.80017423368,20.8045300757,26.
8.8,7688.,2.,0.,2321.,0.,0.,10011.,0.800535013995,20.8139103639,26.
8.82,7691.,2.,1.,2316.,0.,0.,10010.,0.80092740232,20.8241124603,26.
8.84,7692.,5.,3.,2313.,0.,0.,10013.,0.800791543121,8.32823204846,65.
8.86,7693.,11.,5.,2304.,0.,0.,10013.,0.800895650186,3.78605216451,143.
8.88,7688.,12.,6.,2307.,0.,0.,10013.,0.800375114861,3.4682921644,156.
8.9,7691.,16.,3.,2308.,0.,0.,10018.,0.800287811662,2.6009353879,208.
8.92,7697.,12.,7.,2306.,0.,0.,10022.,0.80059248069,3.46923408299,156.
8.94,7696.,13.,7.,2307.,0.,0.,10023.,0.800408601959,3.20163440783,169.
8.96,7689.,18.,5.,2310.,0.,0.,10022.,0.799760372096,2.31041885272,234.
8.98,7690.,15.,7.,2311.,0.,0.,10023.,0.799784582778,2.77258655363,195.
9.,7684.,21.,6.,2313.,0.,0.,10024.,0.799080838881,1.97867636294,273.
9.02,7690.,11.,13.,2315.,0.,0.,10029.,0.79930609963,3.77853792552,143.
9.04,7679.,22.,12.,2316.,0.,0.,10029.,0.798162748902,1.8865664974,286.
9.06,7657.,33.,11.,2325.,0.,0.,10026.,0.796114191087,1.25448296777,429.
9.08,7649.,28.,18.,2328.,0.,0.,10023.,0.795520451713,1.47739512461,364.
9.1,7641.,24.,15.,2342.,0.,0.,10022.,0.794767720534,1.72199672782,312.
9.12,7635.,19.,16.,2356.,0.,0.,10026.,0.793826805401,2.17257862531,247.
9.14,7620.,22.,20.,2363.,0.,0.,10025.,0.7923462534,1.87281841713,286.
9.16,7600.,36.,13.,2375.,0.,0.,10024.,0.790345441892,1.14161008273,468.
9.18,7582.,37.,14.,2389.,0.,0.,10022.,0.788630919656,1.10834615735,481.
9.2,7567.,38.,21.,2398.,0.,0.,10024.,0.786913678789,1.07682924466,494.
9.22,7561.,34.,7.,2422.,0.,0.,10024.,0.786289721861,1.20256075108,442.
9.24,7563.,18.,20.,2421.,0.,0.,10022.,0.786654661746,2.27255791171,234.
9.26,7556.,23.,11.,2433.,0.,0.,10023.,0.785848154418,1.77670017521,299.
9.28,7555.,26.,13.,2433.,0.,0.,10027.,0.785430699879,1.57086139976,338.
9.3,7547.,26.,10.,2444.,0.,0.,10027.,0.784599006219,1.56919801244,338.
9.32,7540.,31.,6.,2449.,0.,0.,10026.,0.783949458117,1.31501199426,403.
9.34,7533.,20.,15.,2456.,0.,0.,10024.,0.783377922864,2.03678259945,260.
9.36,7525.,23.,11.,2463.,0.,0.,10022.,0.782702145926,1.76958746035,299.
9.38,7522.,20.,9.,2471.,0.,0.,10022.,0.782390105203,2.03421427353,260.
9.4,7516.,15.,7.,2479.,0.,0.,10017.,0.782156243396,2.71147497711,195.
9.42,7519.,12.,2.,2487.,0.,0.,10020.,0.782234167886,3.38968139417,156.
9.44,7522.,12.,4.,2481.,0.,0.,10019.,0.782624377118,3.39137230084,156.
9.46,7522.,9.,5.,2483.,0.,0.,10019.,0.782624377118,4.52182973446,117.
9.48,7524.,9.,2.,2484.,0.,0.,10019.,0.782832466556,4.52303202899,117.
9.5,7528.,6.,0.,2486.,0.,0.,10020.,0.783170476905,6.78747746651,78.
9.52,7534.,0.,2.,2485.,0.,0.,10021.,0.783716467701,inf,0.
9.54,7540.,1.,1.,2479.,0.,0.,10021.,0.784340611424,40.785711794,13.
9.56,7548.,2.,1.,2474.,0.,0.,10025.,0.784859517147,20.4063474458,26.
9.58,7548.,2.,2.,2471.,0.,0.,10023.,0.785016128844,20.4104193499,26.
9.6,7552.,0.,2.,2471.,0.,0.,10025.,0.785275446939,inf,0.
9.62,7556.,0.,0.,2473.,0.,0.,10029.,0.785378008947,inf,0.
9.64,7565.,1.,0.,2464.,0.,0.,10030.,0.786235081565,40.8842242414,13.
9.66,7568.,0.,1.,2460.,0.,0.,10029.,0.78662530065,inf,0.
9.68,7572.,0.,2.,2455.,0.,0.,10029.,0.787041064551,inf,0.
9.7,7576.,0.,0.,2451.,0.,0.,10027.,0.787613895736,inf,0.
9.72,7586.,0.,0.,2446.,0.,0.,10032.,0.788260443875,inf,0.
9.74,7595.,0.,0.,2436.,0.,0.,10031.,0.789274308575,inf,0.
9.76,7597.,1.,0.,2434.,0.,0.,10032.,0.789403452691,41.0489795399,13.
9.78,7605.,0.,1.,2425.,0.,0.,10031.,0.790313511088,inf,0.
9.8,7606.,2.,0.,2419.,0.,0.,10027.,0.79073274696,20.559051421,26.
9.82,7608.,6.,1.,2413.,0.,0.,10028.,0.790861797153,6.85413557532,78.
9.84,7603.,2.,8.,2412.,0.,0.,10025.,0.790578551785,20.5550423464,26.
9.86,7595.,10.,5.,2412.,0.,0.,10022.,0.78998309612,4.10791209983,130.
9.88,7593.,9.,3.,2416.,0.,0.,10021.,0.789853880974,4.56360020118,117.
9.9,7599.,10.,4.,2413.,0.,0.,10026.,0.79008381064,4.10843581533,130.
9.92,7600.,11.,3.,2412.,0.,0.,10026.,0.790187782717,3.73543315466,143.
9.94,7599.,11.,8.,2408.,0.,0.,10026.,0.79008381064,3.7349416503,143.
9.96,7593.,9.,11.,2408.,0.,0.,10021.,0.789853880974,4.56360020118,117.
9.98,7588.,16.,4.,2414.,0.,0.,10022.,0.789255001101,2.56507875358,208.
10.,7592.,10.,5.,2416.,0.,0.,10023.,0.7895922695,4.1058798014,130.
