t,neff
5.,0.427477031776
5.02,0.517437270669
5.04,0.585163036824
5.06,0.563052134678
5.08,0.812263069861
5.1,0.699306320711
5.12,0.744770814067
5.14,0.746045920704
5.16,0.723898355559
5.18,0.792859331702
5.2,0.839443094068
5.22,0.68145022131
5.24,0.705398769727
5.26,0.752306944147
5.28,0.661500289268
5.3,0.478931820461
5.32,0.501892970749
5.34,0.525166821072
5.36,0.456525708206
5.38,0.410791208545
5.4,0.502368549584
5.42,0.433422828925
5.44,0.250836469704
5.46,0.296260355486
5.48,0.25066442852
5.5,0.273139309427
5.52,0.113796695436
5.54,0.0454432769686
5.56,0.0908162111645
5.58,0.113467171601
5.6,0.0226544055773
5.62,0.
5.64,0.
5.66,0.
5.68,0.
5.7,0.
5.72,0.
5.74,0.0223922559453
5.76,0.0223647254137
5.78,0.0223306098839
5.8,0.0222995544591
5.82,0.0222737362518
5.84,0.0668101584482
5.86,0.0444358583913
5.88,0.0888424103636
5.9,0.222047268274
5.92,0.266367777168
5.94,0.133065536968
5.96,0.355192470428
5.98,0.310844663837
6.,0.421985210862
6.02,0.377580244045
6.04,0.377542595201
6.06,0.489181064131
6.08,0.601092619148
6.1,0.445312207118
6.12,0.423159860034
6.14,0.490283231385
6.16,0.467765565017
6.18,0.58027061361
6.2,0.647139611194
6.22,0.491649402778
6.24,0.671678133767
6.26,0.514594422566
6.28,0.492956752479
6.3,0.40338173837
6.32,0.471316654325
6.34,0.404294962043
6.36,0.516857245642
6.38,0.381910155533
6.4,0.472243061354
6.42,0.449919800932
6.44,0.292263142999
6.46,0.269485112849
6.48,0.269234221962
6.5,0.268876495043
6.52,0.179054719907
6.54,0.111701578643
6.56,0.
6.58,0.0222687663582
6.6,0.0445125720541
6.62,0.0666918340191
6.64,0.0443705908201
6.66,0.0665230677454
6.68,0.0221525092591
6.7,0.022143031781
6.72,0.044246894519
6.74,0.0441933223604
6.76,0.0220677483099
6.78,0.0220375052988
6.8,0.
6.82,0.0440115333148
6.84,0.0219699266465
6.86,0.153714381779
6.88,0.109699773449
6.9,0.153525684554
6.92,0.197415041212
6.94,0.285273400373
6.96,0.306898561619
6.98,0.218942347489
7.,0.306657361103
7.02,0.372090786073
7.04,0.284454974023
7.06,0.37241646116
7.08,0.372658683248
7.1,0.549188361332
7.12,0.461347436506
7.14,0.373400811604
7.16,0.594134299794
7.18,0.814900703608
7.2,0.837609032761
7.22,0.770950281836
7.24,0.705194698318
7.26,0.573480062502
7.28,0.617998031844
7.3,0.530078206441
7.32,0.419328958776
7.34,0.33122118909
7.36,0.375506949953
7.38,0.264959963446
7.4,0.176442827216
7.42,0.176269872313
7.44,0.176097256149
7.46,0.0219812639405
7.48,0.10983071906
7.5,0.0877391374592
7.52,0.0657377819203
7.54,0.0218784094352
7.56,0.0437163905988
7.58,0.0218454007465
7.6,0.
7.62,0.0217743496764
7.64,0.0434995631672
7.66,0.0217142761068
7.68,0.0216893551188
7.7,0.
7.72,0.
7.74,0.
7.76,0.
7.78,0.0431612965984
7.8,0.0431165236743
7.82,0.0430365579303
7.84,0.0860627965108
7.86,0.150435917119
7.88,0.171690749637
7.9,0.171639670977
7.92,0.21422620397
7.94,0.235686234881
7.96,0.278328602181
7.98,0.213920603109
8.,0.299654599307
8.02,0.299577235809
8.04,0.342245204093
8.06,0.44946370588
8.08,0.492426049227
8.1,0.55706465849
8.12,0.730834295823
8.14,0.602307413344
8.16,0.624490834352
8.18,0.77737035152
8.2,0.648549475514
8.22,0.671217907862
8.24,0.651239047101
8.26,0.652685573732
8.28,0.653367511023
8.3,0.54466208363
8.32,0.544892461681
8.34,0.567111320757
8.36,0.37028743816
8.38,0.348549003649
8.4,0.304839949196
8.42,0.370268487001
8.44,0.282798251961
8.46,0.108669977988
8.48,0.0868272390976
8.5,0.173602542852
8.52,0.10833542374
8.54,0.064878592878
8.56,0.
8.58,0.
8.6,0.
8.62,0.
8.64,0.
8.66,0.
8.68,0.021419106668
8.7,0.
8.72,0.0213474652175
8.74,0.
8.76,0.
8.78,0.0851195709632
8.8,0.063738968839
8.82,0.0636723448599
8.84,0.106030893684
8.86,0.0847348983888
8.88,0.127075054072
8.9,0.211803938229
8.92,0.190413969282
8.94,0.126851938985
8.96,0.232548588418
8.98,0.338305543137
9.,0.529721037056
9.02,0.593941270448
9.04,0.636165374479
9.06,0.572662970156
9.08,0.722465323574
9.1,0.723576326202
9.12,0.575149809217
9.14,0.617558223461
9.16,0.746613837633
9.18,0.747634918924
9.2,0.856102612731
9.22,0.791737121633
9.24,0.577673102779
9.26,0.729090177019
9.28,0.707716873132
9.3,0.579121140787
9.32,0.600881159636
9.34,0.579028953401
9.36,0.321567419071
9.38,0.342984862415
9.4,0.342848864561
9.42,0.278476142703
9.44,0.235605728462
9.46,0.128443379859
9.48,0.0855493092627
9.5,0.149648918821
9.52,0.
9.54,0.0640374968323
9.56,0.0426266805938
9.58,0.0212775819034
9.6,0.0212491706402
9.62,0.0424617507998
9.64,0.0424017011837
9.66,0.0211693758281
9.68,0.0211552087667
9.7,0.
9.72,0.105607514744
9.74,0.0843983016601
9.76,0.0210794970919
9.78,0.0631836893371
9.8,0.0630485748666
9.82,0.0839152020802
9.84,0.104865973971
9.86,0.125741467548
9.88,0.167591913874
9.9,0.146574697472
9.92,0.188511653821
9.94,0.167380302041
9.96,0.250967755701
9.98,0.313674952939
10.,0.250823498879
