t,s,e,i,r,c,o,n,reff,coal,reportr
5.,7478.,7.,25.,2489.,0.,0.,9999.,0.883578169844,6.56372354741,91.
5.02,7462.,21.,10.,2505.,0.,0.,9998.,0.881775843982,2.183444947,273.
5.04,7455.,17.,16.,2510.,0.,0.,9998.,0.88094866214,2.69466649596,221.
5.06,7439.,23.,18.,2517.,0.,0.,9997.,0.879145892961,1.98763419278,299.
5.08,7432.,23.,10.,2531.,0.,0.,9996.,0.878406495386,1.98596251131,299.
5.1,7431.,23.,15.,2529.,0.,0.,9998.,0.878112610109,1.98529807503,299.
5.12,7429.,23.,15.,2530.,0.,0.,9997.,0.877964086411,1.98496228232,299.
5.14,7417.,33.,12.,2539.,0.,0.,10001.,0.876195335241,1.38067143735,429.
5.16,7412.,27.,14.,2552.,0.,0.,10005.,0.87525460147,1.68567552876,351.
5.18,7397.,33.,11.,2563.,0.,0.,10004.,0.873570622508,1.37653552638,429.
5.2,7391.,34.,13.,2564.,0.,0.,10002.,0.873036572238,1.3352324046,442.
5.22,7384.,27.,16.,2575.,0.,0.,10002.,0.872209721202,1.67981131491,351.
5.24,7381.,24.,12.,2583.,0.,0.,10000.,0.872029727544,1.88939774301,312.
5.26,7374.,21.,8.,2597.,0.,0.,10000.,0.871202711138,2.15726385615,273.
5.28,7370.,22.,10.,2601.,0.,0.,10003.,0.870468989637,2.05747215732,286.
5.3,7363.,21.,5.,2610.,0.,0.,9999.,0.869990112939,2.15426123204,273.
5.32,7365.,19.,7.,2611.,0.,0.,10002.,0.869965411248,2.38095796763,247.
5.34,7366.,16.,7.,2611.,0.,0.,10000.,0.870257549531,2.82833703597,208.
5.36,7366.,17.,4.,2616.,0.,0.,10003.,0.869996550566,2.66116591938,221.
5.38,7365.,13.,15.,2610.,0.,0.,10003.,0.869878440798,3.47951376319,169.
5.4,7371.,10.,7.,2618.,0.,0.,10006.,0.870326079887,4.52569561541,130.
5.42,7371.,6.,4.,2625.,0.,0.,10006.,0.870326079887,7.54282602569,78.
5.44,7376.,4.,5.,2625.,0.,0.,10010.,0.870568433106,11.3173896304,52.
5.46,7375.,4.,2.,2628.,0.,0.,10009.,0.870537372703,11.3169858451,52.
5.48,7377.,5.,0.,2622.,0.,0.,10004.,0.871208663275,9.06057009806,65.
5.5,7380.,4.,1.,2616.,0.,0.,10001.,0.871824399903,11.3337171987,52.
5.52,7391.,4.,1.,2609.,0.,0.,10005.,0.872774792156,11.346072298,52.
5.54,7405.,2.,2.,2599.,0.,0.,10008.,0.874165879661,22.7283128712,26.
5.56,7403.,4.,0.,2598.,0.,0.,10005.,0.87419182605,11.3644937386,52.
5.58,7408.,3.,3.,2592.,0.,0.,10006.,0.874694831068,15.1613770718,39.
5.6,7415.,3.,2.,2585.,0.,0.,10005.,0.875608859943,15.177220239,39.
5.62,7416.,2.,2.,2582.,0.,0.,10002.,0.875989611651,22.7757299029,26.
5.64,7426.,1.,1.,2577.,0.,0.,10005.,0.876907807678,45.5992059993,13.
5.66,7426.,2.,0.,2574.,0.,0.,10002.,0.877170827417,22.8064415128,26.
5.68,7432.,1.,1.,2567.,0.,0.,10001.,0.877967336054,45.6543014748,13.
5.7,7440.,2.,0.,2559.,0.,0.,10001.,0.878912403154,22.851722482,26.
5.72,7444.,1.,2.,2556.,0.,0.,10003.,0.879209112464,45.7188738481,13.
5.74,7451.,0.,1.,2550.,0.,0.,10002.,0.88012386683,inf,0.
5.76,7460.,0.,0.,2544.,0.,0.,10004.,0.881010794094,inf,0.
5.78,7463.,3.,1.,2537.,0.,0.,10004.,0.881365087979,15.2769948583,39.
5.8,7464.,4.,2.,2533.,0.,0.,10003.,0.881571307823,11.4604270017,52.
5.82,7467.,9.,2.,2526.,0.,0.,10004.,0.881837479826,5.09506099455,117.
5.84,7473.,5.,5.,2520.,0.,0.,10003.,0.882634295734,9.17939667563,65.
5.86,7471.,12.,3.,2518.,0.,0.,10004.,0.882309871672,3.82334277725,156.
5.88,7471.,9.,10.,2513.,0.,0.,10003.,0.882398076198,5.09829999581,117.
5.9,7464.,12.,7.,2518.,0.,0.,10001.,0.881747604455,3.82090628597,156.
5.92,7465.,13.,8.,2516.,0.,0.,10002.,0.881777568902,3.52711027561,169.
5.94,7463.,10.,7.,2519.,0.,0.,9999.,0.881805814596,4.5853902359,130.
5.96,7457.,13.,5.,2524.,0.,0.,9999.,0.881096872496,3.52438748998,169.
5.98,7465.,16.,1.,2521.,0.,0.,10003.,0.881689417591,2.86549060717,208.
6.,7463.,13.,7.,2520.,0.,0.,10003.,0.881453198055,3.52581279222,169.
6.02,7467.,10.,9.,2520.,0.,0.,10006.,0.881661218087,4.58463833405,130.
6.04,7465.,17.,6.,2518.,0.,0.,10006.,0.881425069374,2.69612374162,221.
6.06,7459.,16.,16.,2517.,0.,0.,10008.,0.880540620714,2.86175701732,208.
6.08,7442.,31.,14.,2524.,0.,0.,10011.,0.87827048726,1.47322791411,403.
6.1,7439.,27.,18.,2526.,0.,0.,10010.,0.878004145048,1.69097094602,351.
6.12,7431.,31.,10.,2539.,0.,0.,10011.,0.876972318037,1.47105033993,403.
6.14,7414.,33.,16.,2551.,0.,0.,10014.,0.874703933665,1.37832135002,429.
6.16,7407.,33.,15.,2558.,0.,0.,10013.,0.873965347814,1.37715751777,429.
6.18,7398.,30.,20.,2566.,0.,0.,10014.,0.872816253204,1.51288150555,390.
6.2,7386.,30.,18.,2579.,0.,0.,10013.,0.871487519772,1.51057836761,390.
6.22,7373.,33.,13.,2595.,0.,0.,10014.,0.869866752483,1.37069912513,429.
6.24,7363.,31.,15.,2604.,0.,0.,10013.,0.868773708108,1.45729783295,403.
6.26,7355.,30.,13.,2614.,0.,0.,10012.,0.867916452578,1.5043885178,390.
6.28,7356.,28.,16.,2614.,0.,0.,10014.,0.867861091993,1.61174202799,364.
6.3,7356.,22.,15.,2620.,0.,0.,10013.,0.867947765427,2.0515129001,286.
6.32,7351.,25.,10.,2624.,0.,0.,10010.,0.867617753764,1.80464492783,325.
6.34,7338.,19.,8.,2642.,0.,0.,10007.,0.866343043776,2.37104411981,247.
6.36,7337.,16.,8.,2647.,0.,0.,10008.,0.866138427963,2.81494989088,208.
6.38,7338.,16.,5.,2649.,0.,0.,10008.,0.866256478724,2.81533355585,208.
6.4,7336.,15.,3.,2655.,0.,0.,10009.,0.865933853037,3.00190402386,195.
6.42,7340.,12.,5.,2653.,0.,0.,10010.,0.866319454854,3.75405097103,156.
6.44,7343.,12.,2.,2652.,0.,0.,10009.,0.866760125798,3.75596054512,156.
6.46,7339.,13.,4.,2652.,0.,0.,10008.,0.866374529484,3.46549811794,169.
6.48,7335.,8.,2.,2663.,0.,0.,10008.,0.865902326443,5.62836512188,104.
6.5,7335.,8.,3.,2661.,0.,0.,10007.,0.865988856105,5.62892756468,104.
6.52,7330.,14.,2.,2660.,0.,0.,10006.,0.865485031281,3.21465868762,182.
6.54,7330.,2.,11.,2660.,0.,0.,10003.,0.86574459892,22.5093595719,26.
6.56,7333.,3.,2.,2668.,0.,0.,10006.,0.86583925435,15.0078804087,39.
6.58,7338.,2.,0.,2667.,0.,0.,10007.,0.866343043776,22.5249191382,26.
6.6,7353.,0.,0.,2662.,0.,0.,10015.,0.867420531123,inf,0.
6.62,7359.,1.,0.,2654.,0.,0.,10014.,0.86821503208,45.1471816682,13.
6.64,7367.,1.,1.,2649.,0.,0.,10018.,0.868811833431,45.1782153384,13.
6.66,7380.,1.,0.,2635.,0.,0.,10016.,0.870518752339,45.2669751216,13.
6.68,7384.,0.,1.,2629.,0.,0.,10014.,0.8711645328,inf,0.
6.7,7385.,0.,0.,2624.,0.,0.,10009.,0.871717762361,inf,0.
6.72,7390.,1.,0.,2619.,0.,0.,10010.,0.872220813538,45.355482304,13.
6.74,7394.,3.,1.,2608.,0.,0.,10006.,0.873041790081,15.1327243614,39.
6.76,7396.,6.,1.,2604.,0.,0.,10007.,0.873190672086,7.56765249141,78.
6.78,7400.,6.,3.,2599.,0.,0.,10008.,0.873575625859,7.57098875745,78.
6.8,7405.,5.,5.,2595.,0.,0.,10010.,0.873991221143,9.08950869989,65.
6.82,7412.,6.,3.,2592.,0.,0.,10013.,0.874555306871,7.57947932622,78.
6.84,7405.,8.,5.,2593.,0.,0.,10011.,0.873903918054,5.68037546735,104.
6.86,7408.,7.,2.,2593.,0.,0.,10010.,0.874345302664,6.49513653408,91.
6.88,7409.,9.,2.,2589.,0.,0.,10009.,0.87455069754,5.05295958579,117.
6.9,7412.,7.,7.,2583.,0.,0.,10009.,0.874904814437,6.49929290725,91.
6.92,7406.,8.,9.,2585.,0.,0.,10008.,0.874283930421,5.68284554774,104.
6.94,7402.,12.,6.,2590.,0.,0.,10010.,0.873637139622,3.78576093836,156.
6.96,7398.,16.,6.,2590.,0.,0.,10010.,0.873165030927,2.83778635051,208.
6.98,7397.,18.,6.,2586.,0.,0.,10007.,0.873308734643,2.52289190008,234.
7.,7392.,17.,8.,2587.,0.,0.,10004.,0.8729801327,2.67029217061,221.
7.02,7389.,18.,12.,2588.,0.,0.,10007.,0.872364234187,2.52016334321,234.
7.04,7387.,24.,11.,2589.,0.,0.,10011.,0.871779641144,1.88885588914,312.
7.06,7387.,22.,15.,2590.,0.,0.,10014.,0.871518472887,2.0599527541,286.
7.08,7384.,28.,7.,2596.,0.,0.,10015.,0.871077546826,1.61771544411,364.
7.1,7375.,22.,18.,2599.,0.,0.,10014.,0.870102712541,2.05660641146,286.
7.12,7354.,28.,17.,2612.,0.,0.,10011.,0.867885133474,1.61178667645,364.
7.14,7336.,36.,18.,2621.,0.,0.,10011.,0.865760856563,1.25054345948,468.
7.16,7327.,35.,18.,2632.,0.,0.,10012.,0.864612351875,1.28456692279,455.
7.18,7315.,36.,21.,2638.,0.,0.,10010.,0.863368775511,1.24708823129,468.
7.2,7299.,39.,14.,2656.,0.,0.,10008.,0.861652499074,1.14886999877,507.
7.22,7296.,36.,20.,2659.,0.,0.,10011.,0.861040241205,1.24372479285,468.
7.24,7285.,32.,15.,2679.,0.,0.,10011.,0.859742071982,1.39708086697,416.
7.26,7275.,30.,9.,2696.,0.,0.,10010.,0.858647688564,1.48832266018,390.
7.28,7265.,21.,16.,2707.,0.,0.,10009.,0.857553086466,2.12346478554,273.
7.3,7268.,21.,11.,2713.,0.,0.,10013.,0.857564486015,2.12349301299,273.
7.32,7272.,17.,10.,2716.,0.,0.,10015.,0.857865102995,2.6240579621,221.
7.34,7274.,20.,12.,2712.,0.,0.,10018.,0.857844071723,2.23039458648,260.
7.36,7277.,16.,7.,2725.,0.,0.,10025.,0.857598630079,2.78719554776,208.
7.38,7274.,19.,11.,2727.,0.,0.,10031.,0.856732320857,2.34474108866,247.
7.4,7266.,11.,15.,2736.,0.,0.,10028.,0.856046100364,4.04676338354,143.
7.42,7265.,12.,7.,2747.,0.,0.,10031.,0.855672300114,3.70791330049,156.
7.44,7266.,9.,7.,2746.,0.,0.,10028.,0.856046100364,4.94604413544,117.
7.46,7269.,8.,7.,2744.,0.,0.,10028.,0.856399546318,5.56659705106,104.
7.48,7275.,5.,2.,2748.,0.,0.,10030.,0.856935529664,8.9121295085,65.
7.5,7284.,6.,0.,2743.,0.,0.,10033.,0.857739104017,7.43373890148,78.
7.52,7293.,2.,2.,2737.,0.,0.,10034.,0.858713324564,22.3265464387,26.
7.54,7298.,2.,0.,2735.,0.,0.,10035.,0.859216418408,22.3396268786,26.
7.56,7307.,1.,0.,2730.,0.,0.,10038.,0.860018910819,44.7209833626,13.
7.58,7311.,2.,0.,2722.,0.,0.,10035.,0.860746949161,22.3794206782,26.
7.6,7314.,1.,0.,2719.,0.,0.,10034.,0.861185966799,44.7816702735,13.
7.62,7321.,2.,1.,2712.,0.,0.,10036.,0.861838397262,22.4077983288,26.
7.64,7331.,0.,1.,2707.,0.,0.,10039.,0.862757712422,inf,0.
7.66,7335.,1.,1.,2703.,0.,0.,10040.,0.863142478391,44.8834088763,13.
7.68,7338.,1.,0.,2701.,0.,0.,10040.,0.863495501899,44.9017660988,13.
7.7,7345.,2.,0.,2692.,0.,0.,10039.,0.864405319566,22.4745383087,26.
7.72,7352.,1.,0.,2686.,0.,0.,10039.,0.865229123138,44.9919144032,13.
7.74,7360.,2.,0.,2681.,0.,0.,10043.,0.865825628125,22.5114663312,26.
7.76,7370.,3.,0.,2672.,0.,0.,10045.,0.866829398043,15.0250428994,39.
7.78,7374.,1.,2.,2667.,0.,0.,10044.,0.867386211806,45.1040830139,13.
7.8,7381.,2.,1.,2661.,0.,0.,10045.,0.868123173264,22.5712025049,26.
7.82,7389.,3.,2.,2653.,0.,0.,10047.,0.868891100976,15.0607790836,39.
7.84,7393.,6.,1.,2651.,0.,0.,10051.,0.86901549095,7.53146758823,78.
7.86,7395.,6.,3.,2647.,0.,0.,10051.,0.869250582385,7.53350504734,78.
7.88,7393.,8.,5.,2644.,0.,0.,10050.,0.869101960153,5.649162741,104.
7.9,7396.,12.,7.,2634.,0.,0.,10049.,0.869541153902,3.76801166691,156.
7.92,7393.,12.,9.,2635.,0.,0.,10049.,0.869188446566,3.76648326845,156.
7.94,7385.,14.,6.,2645.,0.,0.,10050.,0.868161500843,3.22459986027,182.
7.96,7387.,13.,9.,2642.,0.,0.,10051.,0.868310216644,3.47324086658,169.
7.98,7390.,12.,8.,2642.,0.,0.,10052.,0.86857643688,3.76383122648,156.
8.,7379.,15.,6.,2650.,0.,0.,10050.,0.86745615636,3.00718134205,195.
8.02,7380.,11.,8.,2651.,0.,0.,10050.,0.867573713774,4.10125755602,143.
8.04,7371.,13.,14.,2653.,0.,0.,10051.,0.866429485161,3.46571794064,169.
8.06,7361.,23.,9.,2661.,0.,0.,10054.,0.864995845958,1.95564278217,299.
8.08,7355.,21.,14.,2665.,0.,0.,10055.,0.864204825779,2.13993575907,273.
8.1,7338.,28.,16.,2675.,0.,0.,10057.,0.862035879394,1.60092377602,364.
8.12,7330.,32.,13.,2685.,0.,0.,10060.,0.86083928658,1.39886384069,416.
8.14,7325.,29.,17.,2690.,0.,0.,10061.,0.860166580157,1.54236766097,377.
8.16,7313.,34.,16.,2697.,0.,0.,10060.,0.858842797103,1.31352427792,442.
8.18,7305.,32.,21.,2706.,0.,0.,10064.,0.857562293599,1.3935387271,416.
8.2,7292.,35.,22.,2714.,0.,0.,10063.,0.85612124085,1.27195155783,455.
8.22,7272.,39.,21.,2729.,0.,0.,10061.,0.853942849269,1.13859046569,507.
8.24,7255.,36.,22.,2744.,0.,0.,10057.,0.852285405424,1.23107891895,468.
8.26,7241.,36.,18.,2761.,0.,0.,10056.,0.850725337533,1.22882548755,468.
8.28,7229.,35.,13.,2778.,0.,0.,10055.,0.849399957248,1.26196565077,455.
8.3,7231.,28.,15.,2784.,0.,0.,10058.,0.849381534515,1.57742284981,364.
8.32,7227.,28.,10.,2791.,0.,0.,10056.,0.849080515723,1.57686381491,364.
8.34,7216.,27.,11.,2801.,0.,0.,10055.,0.847872470812,1.63293957342,351.
8.36,7215.,23.,14.,2804.,0.,0.,10056.,0.847670668458,1.91647281564,299.
8.38,7219.,15.,11.,2815.,0.,0.,10060.,0.847803384696,2.93905173361,195.
8.4,7214.,13.,9.,2820.,0.,0.,10056.,0.847553181185,3.39021272474,169.
8.42,7210.,14.,1.,2829.,0.,0.,10054.,0.847251738807,3.14693502985,182.
8.44,7214.,7.,10.,2826.,0.,0.,10057.,0.847468906235,6.29548330346,91.
8.46,7219.,8.,4.,2829.,0.,0.,10060.,0.847803384696,5.51072200053,104.
8.48,7232.,8.,3.,2822.,0.,0.,10065.,0.848908189385,5.517903231,104.
8.5,7234.,10.,2.,2822.,0.,0.,10068.,0.848889931483,4.41422764371,130.
8.52,7247.,5.,3.,2817.,0.,0.,10072.,0.850077711108,8.84080819553,65.
8.54,7252.,3.,1.,2816.,0.,0.,10072.,0.85066421429,14.744846381,39.
8.56,7258.,3.,2.,2810.,0.,0.,10073.,0.8512834983,14.7555806372,39.
8.58,7262.,1.,2.,2809.,0.,0.,10074.,0.851668104667,44.2867414427,13.
8.6,7270.,2.,0.,2800.,0.,0.,10072.,0.852775625743,22.1721662693,26.
8.62,7270.,0.,2.,2793.,0.,0.,10065.,0.85336871361,inf,0.
8.64,7274.,0.,0.,2790.,0.,0.,10064.,0.853923083318,inf,0.
8.66,7279.,0.,0.,2786.,0.,0.,10065.,0.854425153558,inf,0.
8.68,7292.,0.,0.,2777.,0.,0.,10069.,0.855611088159,inf,0.
8.7,7300.,0.,0.,2772.,0.,0.,10072.,0.856294644831,inf,0.
8.72,7302.,0.,0.,2767.,0.,0.,10069.,0.856784444012,inf,0.
8.74,7304.,0.,0.,2760.,0.,0.,10064.,0.857444899719,inf,0.
8.76,7310.,0.,0.,2754.,0.,0.,10064.,0.858149262999,inf,0.
8.78,7315.,1.,0.,2749.,0.,0.,10065.,0.85865091335,44.6498474942,13.
8.8,7320.,3.,1.,2741.,0.,0.,10065.,0.859237824432,14.8934556235,39.
8.82,7324.,2.,3.,2736.,0.,0.,10065.,0.859707353298,22.3523911858,26.
8.84,7324.,4.,2.,2734.,0.,0.,10064.,0.85979277732,11.1773061052,52.
8.86,7323.,5.,5.,2732.,0.,0.,10065.,0.859589971082,8.93973569925,65.
8.88,7322.,9.,2.,2730.,0.,0.,10063.,0.859643407227,4.96682857509,117.
8.9,7323.,3.,5.,2731.,0.,0.,10062.,0.859846259087,14.9040018242,39.
8.92,7322.,6.,7.,2727.,0.,0.,10062.,0.859728841873,7.45098329624,78.
8.94,7323.,13.,5.,2723.,0.,0.,10064.,0.85967538344,3.43870153376,169.
8.96,7326.,10.,5.,2724.,0.,0.,10065.,0.859942117731,4.4716990122,130.
8.98,7320.,17.,4.,2724.,0.,0.,10065.,0.859237824432,2.62825687473,221.
9.,7313.,20.,9.,2720.,0.,0.,10062.,0.858672086946,2.23254742606,260.
9.02,7309.,20.,10.,2722.,0.,0.,10061.,0.858287718002,2.23154806681,260.
9.04,7303.,21.,15.,2720.,0.,0.,10059.,0.85775365531,2.1239614322,273.
9.06,7292.,24.,16.,2724.,0.,0.,10056.,0.856717188412,1.85622057489,312.
9.08,7289.,23.,18.,2728.,0.,0.,10058.,0.856194441305,1.93574395425,299.
9.1,7267.,33.,18.,2740.,0.,0.,10058.,0.853610235281,1.34508279499,429.
9.12,7264.,32.,15.,2749.,0.,0.,10060.,0.853088209784,1.3862683409,416.
9.14,7252.,19.,27.,2762.,0.,0.,10060.,0.851678923094,2.33091073689,247.
9.16,7235.,34.,12.,2778.,0.,0.,10059.,0.849766903488,1.29964349945,442.
9.18,7230.,24.,21.,2784.,0.,0.,10059.,0.849179642324,1.83988922504,312.
9.2,7218.,32.,13.,2799.,0.,0.,10062.,0.847517451604,1.37721585886,416.
9.22,7214.,31.,17.,2807.,0.,0.,10069.,0.846458912504,1.41986656291,403.
9.24,7196.,29.,20.,2826.,0.,0.,10071.,0.844179193114,1.51370062213,377.
9.26,7181.,29.,16.,2847.,0.,0.,10073.,0.842252245976,1.51024540658,377.
9.28,7174.,33.,9.,2855.,0.,0.,10071.,0.841598322873,1.32615493301,429.
9.3,7176.,25.,12.,2858.,0.,0.,10071.,0.841832947441,1.75101253068,325.
9.32,7178.,21.,11.,2863.,0.,0.,10073.,0.841900379002,2.08470570039,273.
9.34,7175.,22.,11.,2869.,0.,0.,10077.,0.841214464788,1.98832509859,286.
9.36,7176.,17.,14.,2872.,0.,0.,10079.,0.841164759765,2.57297455928,221.
9.38,7182.,14.,7.,2876.,0.,0.,10079.,0.841868074782,3.12693856348,182.
9.4,7184.,13.,2.,2881.,0.,0.,10080.,0.842018971205,3.36807588482,169.
9.42,7188.,13.,2.,2880.,0.,0.,10083.,0.842237135553,3.36894854221,169.
9.44,7199.,7.,10.,2867.,0.,0.,10083.,0.843526034898,6.2661934021,91.
9.46,7201.,8.,5.,2868.,0.,0.,10082.,0.843844070015,5.4849864551,104.
9.48,7204.,9.,4.,2865.,0.,0.,10082.,0.844195622884,4.87757471,117.
9.5,7207.,5.,2.,2866.,0.,0.,10080.,0.844714744637,8.78503334422,65.
9.52,7211.,4.,2.,2864.,0.,0.,10081.,0.84509973554,10.986296562,52.
9.54,7219.,2.,2.,2858.,0.,0.,10081.,0.846037302851,21.9969698741,26.
9.56,7224.,3.,0.,2852.,0.,0.,10079.,0.846791279898,14.6777155182,39.
9.58,7231.,3.,0.,2841.,0.,0.,10075.,0.847948334903,14.6977711383,39.
9.6,7237.,3.,1.,2833.,0.,0.,10074.,0.848736170955,14.7114269632,39.
9.62,7242.,4.,2.,2826.,0.,0.,10074.,0.849322557697,11.0411932501,52.
9.64,7243.,4.,1.,2825.,0.,0.,10073.,0.849524163432,11.0438141246,52.
9.66,7248.,0.,3.,2822.,0.,0.,10073.,0.850110608388,inf,0.
9.68,7252.,1.,0.,2820.,0.,0.,10073.,0.850579764353,44.2301477464,13.
9.7,7257.,1.,1.,2813.,0.,0.,10072.,0.851250717471,44.2650373085,13.
9.72,7263.,2.,1.,2805.,0.,0.,10071.,0.852039116118,22.1530170191,26.
9.74,7265.,2.,1.,2802.,0.,0.,10070.,0.852358375615,22.161317766,26.
9.76,7267.,2.,4.,2797.,0.,0.,10070.,0.852593023481,22.1674186105,26.
9.78,7271.,2.,1.,2796.,0.,0.,10070.,0.853062319215,22.1796202996,26.
9.8,7279.,2.,0.,2790.,0.,0.,10071.,0.853916112656,22.2018189291,26.
9.82,7280.,1.,2.,2784.,0.,0.,10067.,0.854372764733,44.4273837661,13.
9.84,7283.,5.,2.,2776.,0.,0.,10066.,0.854809753486,8.89002143626,65.
9.86,7283.,9.,2.,2773.,0.,0.,10067.,0.854724841422,4.93841019488,117.
9.88,7289.,9.,2.,2764.,0.,0.,10064.,0.855683991519,4.943951951,117.
9.9,7285.,9.,5.,2763.,0.,0.,10062.,0.85538440495,4.94222100638,117.
9.92,7285.,11.,4.,2763.,0.,0.,10063.,0.855299402028,4.04323353686,143.
9.94,7286.,16.,0.,2762.,0.,0.,10064.,0.855331809879,2.77982838211,208.
9.96,7295.,10.,5.,2754.,0.,0.,10064.,0.856388354799,4.45321944495,130.
9.98,7294.,8.,7.,2753.,0.,0.,10062.,0.856441159878,5.5668675392,104.
10.,7295.,8.,3.,2754.,0.,0.,10060.,0.856728867067,5.56873763594,104.
