t,neff
5.,0.833168520755
5.02,0.744059573738
5.04,0.67720773813
5.06,0.609739185928
5.08,0.678630094986
5.1,0.543673182973
5.12,0.794516082805
5.14,0.772115694191
5.16,0.728360549894
5.18,0.84263740583
5.2,0.911878527902
5.22,0.729606195908
5.24,0.936659805702
5.26,0.570862059283
5.28,0.57203222429
5.3,0.480659925749
5.32,0.389215395057
5.34,0.504332053058
5.36,0.481311606507
5.38,0.504502071433
5.4,0.389438388664
5.42,0.274367029958
5.44,0.251093484566
5.46,0.205407514192
5.48,0.136889193778
5.5,0.0912030975282
5.52,0.113897331161
5.54,0.0454940131498
5.56,0.0454587454104
5.58,0.0227104403799
5.6,0.0226938072896
5.62,0.0226843613399
5.64,0.
5.66,0.
5.68,0.0225912396292
5.7,0.
5.72,0.0225473949959
5.74,0.
5.76,0.
5.78,0.0224755596816
5.8,0.0449401310552
5.82,0.0224352190244
5.84,0.112048516331
5.86,0.179155731649
5.88,0.111804097629
5.9,0.134090191475
5.92,0.268249085036
5.94,0.379845957857
5.96,0.312511274165
5.98,0.4247884199
6.,0.582145670174
6.02,0.627605580425
6.04,0.76277456583
6.06,0.582867783206
6.08,0.561032721983
6.1,0.493603800045
6.12,0.787542306108
6.14,0.608392352134
6.16,0.69966449579
6.18,0.791405522174
6.2,0.79323777943
6.22,0.839096558297
6.24,0.657822440169
6.26,0.703959002076
6.28,0.681661369024
6.3,0.591182383046
6.32,0.386503506213
6.34,0.432129832177
6.36,0.386374808025
6.38,0.363547008863
6.4,0.272170113762
6.42,0.249327811919
6.44,0.271666213469
6.46,0.226090081186
6.48,0.248396668124
6.5,0.180350160042
6.52,0.202893930047
6.54,0.112606300514
6.56,0.089956838306
6.58,0.
6.6,0.0224097032661
6.62,0.0223854817153
6.64,0.0223727630244
6.66,0.
6.68,0.0223366888235
6.7,0.
6.72,0.
6.74,0.
6.76,0.
6.78,0.0444357225501
6.8,0.0666062066148
6.82,0.0221655284559
6.84,0.0885574020746
6.86,0.0884979753842
6.88,0.132596639363
6.9,0.198763154132
6.92,0.154402325847
6.94,0.0882293301245
6.96,0.286923663525
6.98,0.441988797877
7.,0.464327837079
7.02,0.486836583718
7.04,0.509570877418
7.06,0.711049102912
7.08,0.755888913563
7.1,0.600483758756
7.12,0.646468151077
7.14,0.579533943468
7.16,0.71509093515
7.18,0.693856931428
7.2,0.829446617856
7.22,0.673110092499
7.24,0.832215473187
7.26,0.902200267469
7.28,0.835634518454
7.3,0.655585683725
7.32,0.542406000588
7.34,0.452478402105
7.36,0.248677645656
7.38,0.225950794249
7.4,0.20319285625
7.42,0.180370651633
7.44,0.202818679603
7.46,0.112587178787
7.48,0.157496514722
7.5,0.134953024579
7.52,0.247516209833
7.54,0.0898982850221
7.56,0.0898640147161
7.58,0.0673491316107
7.6,0.0672905878734
7.62,0.0448228808749
7.64,0.022383495998
7.66,0.0447251667153
7.68,0.0670184106356
7.7,0.0891726236098
7.72,0.0890936901383
7.74,0.111234200625
7.76,0.0888594506186
7.78,0.0221874114805
7.8,0.0886626741091
7.82,0.110816357649
7.84,0.088599106816
7.86,0.132844371319
7.88,0.154849073619
7.9,0.198866632074
7.92,0.110447488874
7.94,0.309176556131
7.96,0.309414457452
7.98,0.353853354745
8.,0.26564980337
8.02,0.354377299355
8.04,0.398982033493
8.06,0.532140260135
8.08,0.465910371002
8.1,0.555341339594
8.12,0.444386308465
8.14,0.600817904886
8.16,0.534747091831
8.18,0.64709125291
8.2,0.558363252977
8.22,0.694491330007
8.24,0.80839690012
8.26,0.808983674661
8.28,0.673715389568
8.3,0.516273204539
8.32,0.381533670039
8.34,0.403958986037
8.36,0.291384210652
8.38,0.35843906706
8.4,0.425802834128
8.42,0.291141001453
8.44,0.291027716497
8.46,0.246101030845
8.48,0.134077529724
8.5,0.11169155913
8.52,0.0223232108237
8.54,0.0445801129097
8.56,0.0445313675604
8.58,0.0666695522267
8.6,0.0444100233896
8.62,0.0444120572294
8.64,0.0443090960088
8.66,0.0664053651787
8.68,0.0442270504435
8.7,0.0441957723315
8.72,0.0662016989765
8.74,0.110217162132
8.76,0.0880347589195
8.78,0.065962061386
8.8,0.0658881356783
8.82,0.0219403238871
8.84,0.153512084909
8.86,0.175451565565
8.88,0.197193326457
8.9,0.240930211378
8.92,0.263006874548
8.94,0.219216265031
8.96,0.307231959524
8.98,0.285069342184
9.,0.263197332637
9.02,0.373204598201
9.04,0.39509550449
9.06,0.417469428295
9.08,0.484054124552
9.1,0.594493425021
9.12,0.595008781315
9.14,0.507095788635
9.16,0.72940201329
9.18,0.664012140781
9.2,0.932677047662
9.22,0.711523152132
9.24,0.802867491228
9.26,0.871269421167
9.28,0.872354608056
9.3,0.82889967177
9.32,0.761293193465
9.34,0.783849903778
9.36,0.716997971585
9.38,0.67355076205
9.4,0.426710341872
9.42,0.426571968614
9.44,0.224348977897
9.46,0.179373115884
9.48,0.0671647154301
9.5,0.0670737357393
9.52,0.0669874172681
9.54,0.0223085767121
9.56,0.0668110526878
9.58,0.
9.6,0.044437084689
9.62,0.0221830746244
9.64,0.
9.66,0.
9.68,0.0220863754056
9.7,0.0220503258263
9.72,0.0220244957204
9.74,0.
9.76,0.0219940736467
9.78,0.0219761242359
9.8,0.0219583189111
9.82,0.
9.84,0.153512084909
9.86,0.131534836615
9.88,0.15341059483
9.9,0.153364580855
9.92,0.196924311872
9.94,0.153054930575
9.96,0.328241342271
9.98,0.306311991658
10.,0.262407132512
