t,prevalence
5.,6
5.02,12
5.04,6
5.06,11
5.08,11
5.1,5
5.12,9
5.14,8
5.16,9
5.18,9
5.2,9
5.22,4
5.24,8
5.26,7
5.28,3
5.3,3
5.32,3
5.34,6
5.36,1
5.38,2
5.4,2
5.42,2
5.44,1
5.46,4
5.48,0
5.5,3
5.52,3
5.54,2
5.56,1
5.58,1
5.6,0
5.62,0
5.64,0
5.66,1
5.68,0
5.7,1
5.72,2
5.74,0
5.76,0
5.78,1
5.8,1
5.82,1
5.84,1
5.86,2
5.88,1
5.9,0
5.92,2
5.94,3
5.96,5
5.98,6
6.,1
6.02,5
6.04,9
6.06,4
6.08,5
6.1,10
6.12,5
6.14,4
6.16,4
6.18,3
6.2,7
6.22,8
6.24,6
6.26,9
6.28,10
6.3,11
6.32,6
6.34,3
6.36,9
6.38,1
6.4,4
6.42,3
6.44,2
6.46,3
6.48,3
6.5,0
6.52,4
6.54,0
6.56,1
6.58,1
6.6,0
6.62,0
6.64,0
6.66,1
6.68,0
6.7,1
6.72,0
6.74,0
6.76,0
6.78,0
6.8,0
6.82,1
6.84,2
6.86,1
6.88,0
6.9,0
6.92,1
6.94,1
6.96,4
6.98,5
7.,7
7.02,5
7.04,4
7.06,10
7.08,5
7.1,7
7.12,12
7.14,14
7.16,13
7.18,11
7.2,6
7.22,11
7.24,6
7.26,11
7.28,8
7.3,7
7.32,2
7.34,3
7.36,9
7.38,2
7.4,6
7.42,2
7.44,1
7.46,1
7.48,1
7.5,4
7.52,0
7.54,1
7.56,1
7.58,0
7.6,0
7.62,0
7.64,0
7.66,1
7.68,2
7.7,1
7.72,0
7.74,1
7.76,0
7.78,0
7.8,2
7.82,0
7.84,2
7.86,1
7.88,4
7.9,1
7.92,2
7.94,4
7.96,4
7.98,10
8.,0
8.02,5
8.04,8
8.06,10
8.08,6
8.1,8
8.12,4
8.14,6
8.16,4
8.18,7
8.2,6
8.22,8
8.24,10
8.26,11
8.28,9
8.3,9
8.32,6
8.34,6
8.36,6
8.38,7
8.4,3
8.42,4
8.44,0
8.46,0
8.48,1
8.5,2
8.52,0
8.54,2
8.56,0
8.58,1
8.6,0
8.62,1
8.64,0
8.66,1
8.68,0
8.7,0
8.72,0
8.74,0
8.76,0
8.78,0
8.8,2
8.82,3
8.84,2
8.86,3
8.88,2
8.9,3
8.92,1
8.94,3
8.96,0
8.98,0
9.,1
9.02,3
9.04,4
9.06,8
9.08,3
9.1,10
9.12,9
9.14,7
9.16,8
9.18,6
9.2,5
9.22,8
9.24,6
9.26,2
9.28,4
9.3,7
9.32,2
9.34,6
9.36,4
9.38,1
9.4,5
9.42,2
9.44,1
9.46,4
9.48,1
9.5,1
9.52,2
9.54,0
9.56,2
9.58,0
9.6,0
9.62,0
9.64,0
9.66,0
9.68,1
9.7,0
9.72,1
9.74,0
9.76,1
9.78,1
9.8,3
9.82,2
9.84,2
9.86,5
9.88,3
9.9,1
9.92,3
9.94,1
9.96,3
9.98,3
10.,4
