t,s,e,i,r,c,o,n,reff,coal,reportr
5.,5667.,44.,22.,4267.,0.,0.,10000.,0.816533526849,0.964994168095,572.
5.02,5661.,34.,26.,4279.,0.,0.,10000.,0.815669012792,1.24749378427,442.
5.04,5648.,34.,19.,4297.,0.,0.,9998.,0.81395869074,1.2448779976,442.
5.06,5644.,40.,12.,4304.,0.,0.,10000.,0.813219556297,1.05718542319,520.
5.08,5634.,32.,21.,4309.,0.,0.,9996.,0.812103540952,1.31966825405,416.
5.1,5627.,31.,18.,4318.,0.,0.,9994.,0.811256853915,1.3608179485,403.
5.12,5623.,32.,15.,4323.,0.,0.,9993.,0.810761290001,1.31748709625,416.
5.14,5616.,38.,12.,4329.,0.,0.,9995.,0.809589952341,1.10785993478,494.
5.16,5614.,31.,9.,4340.,0.,0.,9994.,0.809382615582,1.35767406485,403.
5.18,5615.,31.,11.,4340.,0.,0.,9997.,0.809283856846,1.35750840503,403.
5.2,5612.,30.,12.,4341.,0.,0.,9995.,0.809013321321,1.40228975696,390.
5.22,5611.,23.,14.,4348.,0.,0.,9996.,0.808788244282,1.8285647262,299.
5.24,5610.,23.,15.,4349.,0.,0.,9997.,0.808563212271,1.82805595818,299.
5.26,5610.,27.,16.,4345.,0.,0.,9998.,0.808482339776,1.55707709883,351.
5.28,5603.,28.,16.,4347.,0.,0.,9994.,0.807796721607,1.50019391156,364.
5.3,5601.,32.,9.,4349.,0.,0.,9991.,0.807750847985,1.31259512798,416.
5.32,5599.,27.,18.,4350.,0.,0.,9994.,0.80722003289,1.55464598927,351.
5.34,5611.,19.,10.,4355.,0.,0.,9995.,0.808869163566,2.2137471845,247.
5.36,5613.,16.,9.,4357.,0.,0.,9995.,0.809157479076,2.629761807,208.
5.38,5610.,22.,8.,4357.,0.,0.,9997.,0.808563212271,1.91114941082,286.
5.4,5612.,15.,15.,4353.,0.,0.,9995.,0.809013321321,2.80457951391,195.
5.42,5615.,17.,4.,4362.,0.,0.,9998.,0.809202912271,2.47520890812,221.
5.44,5625.,11.,10.,4351.,0.,0.,9997.,0.810725145994,3.83251887197,143.
5.46,5637.,9.,0.,4357.,0.,0.,10003.,0.811967366354,4.6913670056,117.
5.48,5645.,5.,5.,4351.,0.,0.,10006.,0.812875916424,8.45390953081,65.
5.5,5647.,5.,5.,4347.,0.,0.,10004.,0.813326482733,8.45859542042,65.
5.52,5653.,5.,3.,4345.,0.,0.,10006.,0.814027910637,8.46589027062,65.
5.54,5652.,1.,5.,4346.,0.,0.,10004.,0.814046623058,42.330424399,13.
5.56,5662.,1.,3.,4342.,0.,0.,10008.,0.815160969693,42.388370424,13.
5.58,5675.,1.,1.,4332.,0.,0.,10009.,0.816950956398,42.4814497327,13.
5.6,5679.,1.,2.,4326.,0.,0.,10008.,0.817608468189,42.5156403458,13.
5.62,5688.,1.,1.,4316.,0.,0.,10006.,0.819067885318,42.5915300365,13.
5.64,5696.,2.,0.,4310.,0.,0.,10008.,0.820055966685,21.3214551338,26.
5.66,5707.,1.,1.,4300.,0.,0.,10009.,0.821557552099,42.7209927092,13.
5.68,5719.,3.,0.,4289.,0.,0.,10011.,0.823120549406,14.2674228564,39.
5.7,5732.,3.,0.,4280.,0.,0.,10015.,0.824662102646,14.2941431125,39.
5.72,5741.,2.,1.,4267.,0.,0.,10011.,0.826286951239,21.4834607322,26.
5.74,5754.,2.,0.,4256.,0.,0.,10012.,0.828075290328,21.5299575485,26.
5.76,5760.,2.,0.,4253.,0.,0.,10015.,0.828690459044,21.5459519352,26.
5.78,5776.,3.,0.,4240.,0.,0.,10019.,0.830660610392,14.3981172468,39.
5.8,5786.,3.,0.,4230.,0.,0.,10019.,0.832098734717,14.4230447351,39.
5.82,5799.,3.,2.,4218.,0.,0.,10022.,0.833718655063,14.4511233544,39.
5.84,5805.,3.,2.,4212.,0.,0.,10022.,0.834581271364,14.4660753703,39.
5.86,5818.,4.,1.,4203.,0.,0.,10026.,0.836116560893,10.8695152916,52.
5.88,5826.,4.,2.,4191.,0.,0.,10023.,0.837516860581,10.8877191876,52.
5.9,5829.,8.,5.,4179.,0.,0.,10021.,0.838115364124,5.44774986681,104.
5.92,5835.,6.,3.,4176.,0.,0.,10020.,0.839061796852,7.27186890605,78.
5.94,5841.,6.,4.,4165.,0.,0.,10016.,0.840260018473,7.28225349343,78.
5.96,5835.,7.,9.,4163.,0.,0.,10014.,0.839564530104,6.23676508077,91.
5.98,5833.,13.,5.,4160.,0.,0.,10011.,0.839528267999,3.35811307199,169.
6.,5841.,14.,10.,4152.,0.,0.,10017.,0.840176135073,3.12065421599,182.
6.02,5836.,18.,9.,4153.,0.,0.,10016.,0.839540740936,2.42533991826,234.
6.04,5829.,20.,10.,4155.,0.,0.,10014.,0.838701224674,2.18062318415,260.
6.06,5823.,20.,13.,4154.,0.,0.,10010.,0.838172719612,2.17924907099,260.
6.08,5815.,27.,10.,4156.,0.,0.,10008.,0.837188456157,1.6123629526,351.
6.1,5799.,39.,11.,4156.,0.,0.,10005.,0.835135268469,1.11351369129,507.
6.12,5806.,29.,17.,4159.,0.,0.,10011.,0.835642229385,1.49839296303,377.
6.14,5799.,31.,13.,4166.,0.,0.,10009.,0.83480151474,1.40031221827,403.
6.16,5795.,31.,15.,4166.,0.,0.,10007.,0.834392418706,1.39962599267,403.
6.18,5791.,31.,11.,4177.,0.,0.,10010.,0.83356658411,1.39824072173,403.
6.2,5799.,26.,4.,4182.,0.,0.,10011.,0.834634737892,1.66926947578,338.
6.22,5807.,20.,14.,4170.,0.,0.,10011.,0.835786156741,2.17304400753,260.
6.24,5798.,26.,17.,4169.,0.,0.,10010.,0.834574176251,1.6691483525,338.
6.26,5797.,27.,12.,4177.,0.,0.,10013.,0.834180230452,1.60656933272,351.
6.28,5793.,30.,17.,4176.,0.,0.,10016.,0.83335495412,1.44448192047,390.
6.3,5784.,32.,12.,4188.,0.,0.,10016.,0.832060254554,1.35209791365,416.
6.32,5779.,28.,11.,4199.,0.,0.,10017.,0.831257984007,1.54376482744,364.
6.34,5788.,20.,11.,4200.,0.,0.,10019.,0.832386359583,2.16420453491,260.
6.36,5782.,17.,7.,4209.,0.,0.,10015.,0.831855596214,2.54449947077,221.
6.38,5783.,14.,11.,4205.,0.,0.,10013.,0.83216564994,3.09090098549,182.
6.4,5782.,16.,8.,4206.,0.,0.,10012.,0.832104853784,2.7043407748,208.
6.42,5783.,10.,8.,4212.,0.,0.,10013.,0.83216564994,4.32726137969,130.
6.44,5792.,8.,9.,4207.,0.,0.,10016.,0.833211098613,5.41587214098,104.
6.46,5797.,10.,6.,4202.,0.,0.,10015.,0.834013644285,4.33687095028,130.
6.48,5799.,7.,6.,4200.,0.,0.,10012.,0.834551374454,6.19952449595,91.
6.5,5808.,6.,1.,4200.,0.,0.,10015.,0.83559621287,7.24183384487,78.
6.52,5815.,2.,3.,4196.,0.,0.,10016.,0.836519775282,21.7495141573,26.
6.54,5818.,3.,2.,4192.,0.,0.,10015.,0.837034911583,14.5086051341,39.
6.56,5827.,3.,1.,4186.,0.,0.,10017.,0.838162359026,14.5281475565,39.
6.58,5839.,6.,0.,4171.,0.,0.,10016.,0.839972307458,7.27975999797,78.
6.6,5849.,1.,3.,4164.,0.,0.,10017.,0.841326864243,43.7489969406,13.
6.62,5869.,1.,0.,4150.,0.,0.,10020.,0.843950931572,43.8854484418,13.
6.64,5880.,2.,0.,4140.,0.,0.,10022.,0.845363975128,21.9794633533,26.
6.66,5892.,1.,1.,4128.,0.,0.,10022.,0.84708920773,44.048638802,13.
6.68,5896.,1.,2.,4122.,0.,0.,10021.,0.847748874057,44.0829414509,13.
6.7,5907.,0.,2.,4104.,0.,0.,10013.,0.850009077329,inf,0.
6.72,5917.,1.,0.,4089.,0.,0.,10007.,0.851958574889,44.3018458942,13.
6.74,5928.,2.,0.,4077.,0.,0.,10007.,0.853542408643,22.1921026247,26.
6.76,5936.,2.,0.,4072.,0.,0.,10010.,0.854438135603,22.2153915257,26.
6.78,5947.,2.,0.,4061.,0.,0.,10010.,0.856021494682,22.2565588617,26.
6.8,5956.,2.,2.,4049.,0.,0.,10009.,0.8574026249,22.2924682474,26.
6.82,5968.,3.,0.,4038.,0.,0.,10009.,0.859130098288,14.8915883703,39.
6.84,5979.,4.,1.,4029.,0.,0.,10013.,0.860369777104,11.1848071023,52.
6.86,5977.,7.,2.,4024.,0.,0.,10010.,0.860339746715,6.39109526131,91.
6.88,5986.,9.,3.,4010.,0.,0.,10008.,0.861807411618,4.97933171157,117.
6.9,5990.,14.,3.,4000.,0.,0.,10007.,0.862469471622,3.20345803745,182.
6.92,5996.,16.,5.,3995.,0.,0.,10012.,0.862902231631,2.8044322528,208.
6.94,6004.,15.,3.,3991.,0.,0.,10013.,0.863967242303,2.99508643998,195.
6.96,6009.,10.,9.,3983.,0.,0.,10011.,0.864859482668,4.49726930987,130.
6.98,6017.,13.,8.,3973.,0.,0.,10011.,0.866010901517,3.46404360607,169.
7.,6023.,13.,7.,3967.,0.,0.,10010.,0.866961066499,3.467844266,169.
7.02,6029.,13.,8.,3962.,0.,0.,10012.,0.867651359991,3.47060543996,169.
7.04,6030.,19.,6.,3961.,0.,0.,10016.,0.867448709364,2.37407015194,247.
7.06,6031.,23.,8.,3957.,0.,0.,10019.,0.867332780692,1.96092628678,299.
7.08,6025.,21.,15.,3956.,0.,0.,10017.,0.866642905978,2.14597291004,273.
7.1,6028.,22.,14.,3955.,0.,0.,10019.,0.866901343394,2.04903953893,286.
7.12,6026.,19.,15.,3955.,0.,0.,10015.,0.866959844827,2.37273220689,247.
7.14,6022.,22.,8.,3961.,0.,0.,10013.,0.866557417247,2.04822662258,286.
7.16,6018.,21.,11.,3964.,0.,0.,10014.,0.865895345701,2.1441218084,273.
7.18,6011.,27.,17.,3962.,0.,0.,10017.,0.864629129931,1.66521165764,351.
7.2,6001.,29.,18.,3969.,0.,0.,10017.,0.863190718468,1.54779025381,377.
7.22,5997.,28.,13.,3981.,0.,0.,10019.,0.862443157985,1.60168015054,364.
7.24,5990.,29.,18.,3982.,0.,0.,10019.,0.861436470957,1.54464470654,377.
7.26,5978.,30.,19.,3990.,0.,0.,10017.,0.859882372105,1.49046277832,390.
7.28,5978.,28.,10.,4003.,0.,0.,10019.,0.859710721767,1.59660562614,364.
7.3,5977.,30.,8.,4004.,0.,0.,10019.,0.859566909334,1.48991597618,390.
7.32,5984.,14.,14.,4009.,0.,0.,10021.,0.860401842326,3.1957782715,182.
7.34,5988.,17.,6.,4010.,0.,0.,10021.,0.860976977247,2.63357663629,221.
7.36,5989.,16.,11.,4005.,0.,0.,10021.,0.861120760978,2.79864247318,208.
7.38,5989.,16.,7.,4008.,0.,0.,10020.,0.861206701173,2.79892177881,208.
7.4,5991.,9.,8.,4011.,0.,0.,10019.,0.86158028339,4.97801941514,117.
7.42,5992.,9.,3.,4015.,0.,0.,10019.,0.861724095822,4.97885033142,117.
7.44,5997.,5.,3.,4015.,0.,0.,10020.,0.862357085813,8.96851369246,65.
7.46,6013.,3.,1.,4003.,0.,0.,10020.,0.864657855094,14.9874028216,39.
7.48,6017.,2.,0.,4001.,0.,0.,10020.,0.865233047414,22.4960592328,26.
7.5,6026.,2.,0.,3992.,0.,0.,10020.,0.866527230134,22.5297079835,26.
7.52,6036.,1.,0.,3988.,0.,0.,10025.,0.867532310579,45.1116801501,13.
7.54,6044.,1.,0.,3979.,0.,0.,10024.,0.868768781689,45.1759766478,13.
7.56,6054.,1.,0.,3970.,0.,0.,10025.,0.870119385064,45.2462080233,13.
7.58,6061.,0.,1.,3965.,0.,0.,10027.,0.870951713633,inf,0.
7.6,6065.,0.,1.,3958.,0.,0.,10024.,0.871787336357,inf,0.
7.62,6075.,0.,0.,3950.,0.,0.,10025.,0.87313763863,inf,0.
7.64,6079.,0.,0.,3945.,0.,0.,10024.,0.873799706136,inf,0.
7.66,6083.,1.,0.,3935.,0.,0.,10019.,0.874811027184,45.4901734136,13.
7.68,6089.,1.,0.,3933.,0.,0.,10023.,0.87532443599,45.5168706715,13.
7.7,6093.,2.,0.,3927.,0.,0.,10022.,0.875986853819,22.7756581993,26.
7.72,6105.,2.,0.,3915.,0.,0.,10022.,0.877712086421,22.820514247,26.
7.74,6107.,2.,1.,3911.,0.,0.,10021.,0.878087241157,22.8302682701,26.
7.76,6110.,1.,1.,3906.,0.,0.,10018.,0.878781674378,45.6966470677,13.
7.78,6115.,1.,0.,3901.,0.,0.,10017.,0.879588609137,45.7386076751,13.
7.8,6121.,2.,0.,3896.,0.,0.,10019.,0.880275899621,22.8871733901,26.
7.82,6128.,3.,1.,3886.,0.,0.,10018.,0.881370556561,15.2770896471,39.
7.84,6136.,5.,1.,3878.,0.,0.,10020.,0.882345018935,9.17638819692,65.
7.86,6147.,7.,1.,3864.,0.,0.,10019.,0.884015022867,6.5669687413,91.
7.88,6152.,7.,3.,3857.,0.,0.,10019.,0.88473408503,6.57231034594,91.
7.9,6155.,8.,3.,3853.,0.,0.,10019.,0.885165522327,5.75357589513,104.
7.92,6156.,7.,2.,3854.,0.,0.,10019.,0.88530933476,6.57658362965,91.
7.94,6159.,6.,8.,3841.,0.,0.,10014.,0.886183023292,7.68025286853,78.
7.96,6155.,17.,6.,3836.,0.,0.,10014.,0.885607486339,2.70891701704,221.
7.98,6160.,12.,9.,3833.,0.,0.,10014.,0.88632690753,3.84074993263,156.
8.,6154.,16.,10.,3836.,0.,0.,10016.,0.885286792276,2.8771820749,208.
8.02,6154.,21.,7.,3835.,0.,0.,10017.,0.88519841384,2.19191988189,273.
8.04,6139.,28.,18.,3831.,0.,0.,10016.,0.883128959666,1.64009663938,364.
8.06,6136.,26.,14.,3838.,0.,0.,10014.,0.882873685812,1.76574737162,338.
8.08,6119.,31.,18.,3845.,0.,0.,10013.,0.880515582221,1.47699387985,403.
8.1,6105.,27.,29.,3849.,0.,0.,10010.,0.878764288723,1.69243492643,351.
8.12,6081.,36.,21.,3873.,0.,0.,10011.,0.875222252306,1.26420992,468.
8.14,6067.,35.,21.,3886.,0.,0.,10009.,0.873381753739,1.29759574841,455.
8.16,6059.,31.,19.,3902.,0.,0.,10011.,0.872055850472,1.46280336208,403.
8.18,6046.,38.,17.,3909.,0.,0.,10010.,0.870271726391,1.1908981519,494.
8.2,6043.,34.,15.,3919.,0.,0.,10011.,0.869753012775,1.33021049013,442.
8.22,6037.,25.,17.,3932.,0.,0.,10011.,0.868889448638,1.80729005317,325.
8.24,6025.,24.,13.,3948.,0.,0.,10010.,0.867248949968,1.8790393916,312.
8.26,6024.,23.,10.,3957.,0.,0.,10014.,0.86675865113,1.95962825473,299.
8.28,6017.,24.,14.,3959.,0.,0.,10014.,0.865751461462,1.87579483317,312.
8.3,6015.,20.,7.,3974.,0.,0.,10016.,0.865290876753,2.24975627956,260.
8.32,6018.,17.,8.,3972.,0.,0.,10015.,0.865808885856,2.64835659203,221.
8.34,6015.,21.,9.,3972.,0.,0.,10017.,0.865204494515,2.14241112928,273.
8.36,6010.,23.,6.,3978.,0.,0.,10017.,0.864485288784,1.95448847899,299.
8.38,6009.,14.,11.,3981.,0.,0.,10015.,0.864514057014,3.21105221176,182.
8.4,6005.,19.,9.,3981.,0.,0.,10014.,0.864024850604,2.36469959113,247.
8.42,6012.,13.,5.,3986.,0.,0.,10016.,0.864859310231,3.45943724093,169.
8.44,6014.,11.,4.,3983.,0.,0.,10012.,0.865492665282,4.09141987224,143.
8.46,6017.,7.,7.,3980.,0.,0.,10011.,0.866010901517,6.43322383984,91.
8.48,6020.,6.,5.,3981.,0.,0.,10012.,0.866356143165,7.50841990743,78.
8.5,6025.,2.,5.,3977.,0.,0.,10009.,0.867335596881,22.5507255189,26.
8.52,6037.,4.,0.,3974.,0.,0.,10015.,0.868542413412,11.2910513744,52.
8.54,6045.,4.,1.,3966.,0.,0.,10016.,0.869606541974,11.3048850457,52.
8.56,6058.,2.,0.,3958.,0.,0.,10018.,0.871302681405,22.6538697165,26.
8.58,6064.,1.,0.,3950.,0.,0.,10015.,0.872426899939,45.3661987968,13.
8.6,6073.,2.,0.,3941.,0.,0.,10016.,0.87363449618,22.7144969007,26.
8.62,6080.,3.,0.,3930.,0.,0.,10013.,0.87490353651,15.1649946328,39.
8.64,6088.,0.,2.,3922.,0.,0.,10012.,0.876142225845,inf,0.
8.66,6097.,0.,0.,3917.,0.,0.,10014.,0.877262200521,inf,0.
8.68,6106.,2.,0.,3908.,0.,0.,10016.,0.878381727923,22.837924926,26.
8.7,6115.,1.,1.,3901.,0.,0.,10018.,0.879500808318,45.7340420325,13.
8.72,6119.,2.,0.,3900.,0.,0.,10021.,0.879812645921,22.875128794,26.
8.74,6119.,1.,2.,3897.,0.,0.,10019.,0.879988274756,45.7593902873,13.
8.76,6123.,2.,0.,3897.,0.,0.,10022.,0.880299935325,22.8877983184,26.
8.78,6134.,2.,2.,3887.,0.,0.,10025.,0.881617493886,22.922054841,26.
8.8,6138.,1.,4.,3879.,0.,0.,10022.,0.882456476078,45.887736756,13.
8.82,6139.,6.,2.,3876.,0.,0.,10023.,0.882512187969,7.6484389624,78.
8.84,6144.,4.,7.,3869.,0.,0.,10024.,0.883142851538,11.48085707,52.
8.86,6145.,3.,6.,3869.,0.,0.,10023.,0.883374718206,15.3118284489,39.
8.88,6148.,5.,2.,3868.,0.,0.,10023.,0.883805983325,9.19158222658,65.
8.9,6154.,10.,3.,3856.,0.,0.,10023.,0.884668513562,4.60027627052,130.
8.92,6166.,10.,2.,3846.,0.,0.,10024.,0.886305146905,4.60878676391,130.
8.94,6168.,11.,6.,3836.,0.,0.,10021.,0.886858048708,4.19241986662,143.
8.96,6172.,16.,2.,3831.,0.,0.,10021.,0.887433183629,2.88415784679,208.
8.98,6184.,15.,5.,3818.,0.,0.,10022.,0.88906986772,3.08210887476,195.
9.,6183.,17.,6.,3817.,0.,0.,10023.,0.88883740971,2.71879678264,221.
9.02,6183.,17.,9.,3814.,0.,0.,10023.,0.88883740971,2.71879678264,221.
9.04,6181.,21.,8.,3818.,0.,0.,10028.,0.888106865178,2.19912176139,273.
9.06,6169.,24.,13.,3821.,0.,0.,10027.,0.886471064412,1.92068730623,312.
9.08,6156.,25.,17.,3826.,0.,0.,10024.,0.88486773992,1.84052489903,325.
9.1,6138.,36.,12.,3839.,0.,0.,10025.,0.882192399327,1.27427791014,468.
9.12,6134.,28.,11.,3849.,0.,0.,10022.,0.881881398543,1.63777974015,364.
9.14,6134.,31.,4.,3858.,0.,0.,10027.,0.881441645178,1.47854727578,403.
9.16,6139.,30.,8.,3852.,0.,0.,10029.,0.881984211787,1.52877263376,390.
9.18,6136.,27.,9.,3853.,0.,0.,10025.,0.881904946606,1.69848360087,351.
9.2,6131.,30.,10.,3856.,0.,0.,10027.,0.881010552101,1.52708495698,390.
9.22,6127.,26.,15.,3862.,0.,0.,10030.,0.880172420625,1.76034484125,338.
9.24,6120.,25.,10.,3872.,0.,0.,10027.,0.879429877485,1.82921414517,325.
9.26,6115.,29.,13.,3872.,0.,0.,10029.,0.878536154924,1.57530620883,377.
9.28,6107.,33.,8.,3880.,0.,0.,10028.,0.877474296334,1.38268676998,429.
9.3,6099.,32.,9.,3885.,0.,0.,10025.,0.876587071276,1.42445399082,416.
9.32,6100.,25.,10.,3890.,0.,0.,10025.,0.876730797636,1.82360005908,325.
9.34,6101.,21.,8.,3895.,0.,0.,10025.,0.876874523997,2.17130834513,273.
9.36,6096.,21.,9.,3900.,0.,0.,10026.,0.876068503816,2.16931248564,273.
9.38,6091.,24.,7.,3907.,0.,0.,10029.,0.875088098061,1.89602421246,312.
9.4,6095.,19.,11.,3902.,0.,0.,10027.,0.875837435175,2.39702876995,247.
9.42,6093.,14.,3.,3914.,0.,0.,10024.,0.875812075915,3.25301628197,182.
9.44,6098.,10.,7.,3913.,0.,0.,10028.,0.876181146069,4.55614195956,130.
9.46,6100.,12.,5.,3914.,0.,0.,10031.,0.876206384837,3.7968943343,156.
9.48,6100.,10.,9.,3914.,0.,0.,10033.,0.876031719955,4.55536494376,130.
9.5,6106.,8.,5.,3912.,0.,0.,10031.,0.877068227183,5.70094347669,104.
9.52,6111.,4.,6.,3910.,0.,0.,10031.,0.877786429138,11.4112235788,52.
9.54,6114.,6.,0.,3906.,0.,0.,10026.,0.878655320264,7.61501277562,78.
9.56,6128.,4.,2.,3894.,0.,0.,10028.,0.880491646952,11.4463914104,52.
9.58,6141.,3.,0.,3888.,0.,0.,10032.,0.882007712673,15.2881336863,39.
9.6,6148.,1.,2.,3879.,0.,0.,10030.,0.883189169578,45.925836818,13.
9.62,6157.,0.,3.,3869.,0.,0.,10029.,0.884570254434,inf,0.
9.64,6168.,1.,0.,3859.,0.,0.,10028.,0.886238981462,46.084427036,13.
9.66,6178.,0.,1.,3853.,0.,0.,10032.,0.887321877364,inf,0.
9.68,6189.,0.,1.,3846.,0.,0.,10036.,0.888547478886,inf,0.
9.7,6203.,2.,1.,3829.,0.,0.,10035.,0.890646187619,23.1568008781,26.
9.72,6204.,2.,2.,3824.,0.,0.,10032.,0.891056155255,23.1674600366,26.
9.74,6214.,5.,1.,3813.,0.,0.,10033.,0.892403460295,9.28099598707,65.
9.76,6220.,2.,2.,3811.,0.,0.,10035.,0.893087100918,23.2202646239,26.
9.78,6230.,3.,1.,3802.,0.,0.,10036.,0.894433800849,15.5035192147,39.
9.8,6235.,4.,1.,3795.,0.,0.,10035.,0.895240847945,11.6381310233,52.
9.82,6242.,3.,4.,3783.,0.,0.,10032.,0.896513946019,15.5395750643,39.
9.84,6247.,6.,0.,3781.,0.,0.,10034.,0.897053238018,7.77446139616,78.
9.86,6254.,6.,1.,3775.,0.,0.,10036.,0.897879452731,7.78162192367,78.
9.88,6260.,5.,2.,3768.,0.,0.,10035.,0.898830426325,9.34783643378,65.
9.9,6265.,5.,4.,3761.,0.,0.,10035.,0.899548342001,9.35530275681,65.
9.92,6265.,7.,2.,3758.,0.,0.,10032.,0.899817345692,6.68435742514,91.
9.94,6269.,8.,4.,3750.,0.,0.,10031.,0.900481610909,5.85313047091,104.
9.96,6275.,8.,6.,3742.,0.,0.,10031.,0.901343453255,5.85873244616,104.
9.98,6273.,13.,6.,3742.,0.,0.,10034.,0.900786771584,3.60314708634,169.
10.,6278.,10.,10.,3736.,0.,0.,10034.,0.901504758809,4.6878247458,130.
