t,s,e,i,r,c,o,n,reff,coal,reportr
5.,7013.,2.,41.,2945.,0.,0.,10001.,0.869576258864,22.6089827305,26.
5.02,6987.,24.,20.,2966.,0.,0.,9997.,0.866699036321,1.87784791203,312.
5.04,6971.,34.,14.,2974.,0.,0.,9993.,0.865060452077,1.32303363259,442.
5.06,6953.,36.,9.,2991.,0.,0.,9989.,0.8631722678,1.24680438682,468.
5.08,6947.,37.,10.,2995.,0.,0.,9989.,0.862427404632,1.21206013624,481.
5.1,6939.,32.,21.,2993.,0.,0.,9985.,0.86177934508,1.40039143575,416.
5.12,6924.,35.,18.,3007.,0.,0.,9984.,0.860002570629,1.27771810493,455.
5.14,6913.,39.,12.,3018.,0.,0.,9982.,0.858808341196,1.14507778826,507.
5.16,6909.,28.,17.,3026.,0.,0.,9980.,0.858483423817,1.59432635852,364.
5.18,6898.,34.,15.,3033.,0.,0.,9980.,0.857116609856,1.31088422684,442.
5.2,6889.,30.,17.,3044.,0.,0.,9980.,0.855998307523,1.48373039971,390.
5.22,6876.,34.,13.,3057.,0.,0.,9980.,0.854382981932,1.30670338413,442.
5.24,6873.,31.,9.,3065.,0.,0.,9978.,0.854181393124,1.43282040137,403.
5.26,6867.,26.,16.,3068.,0.,0.,9977.,0.853521249113,1.70704249823,338.
5.28,6858.,24.,18.,3074.,0.,0.,9974.,0.852658997907,1.8474278288,312.
5.3,6849.,27.,9.,3091.,0.,0.,9976.,0.851369305117,1.63967421726,351.
5.32,6841.,22.,14.,3097.,0.,0.,9974.,0.850545378344,2.01037998518,286.
5.34,6824.,28.,11.,3109.,0.,0.,9972.,0.848601921588,1.57597499724,364.
5.36,6821.,23.,9.,3122.,0.,0.,9975.,0.84797374867,1.91715804047,299.
5.38,6824.,16.,14.,3123.,0.,0.,9977.,0.848176642486,2.75657408808,208.
5.4,6823.,16.,5.,3130.,0.,0.,9974.,0.848307428218,2.75699914171,208.
5.42,6822.,10.,10.,3130.,0.,0.,9972.,0.848353210591,4.41143669508,130.
5.44,6819.,13.,6.,3133.,0.,0.,9971.,0.84806518874,3.39226075496,169.
5.46,6820.,15.,6.,3132.,0.,0.,9973.,0.848019459536,2.93980079306,195.
5.48,6823.,9.,8.,3136.,0.,0.,9976.,0.848137358565,4.90034918282,117.
5.5,6825.,8.,7.,3138.,0.,0.,9978.,0.848215918532,5.51340347046,104.
5.52,6823.,5.,10.,3138.,0.,0.,9976.,0.848137358565,8.82062852908,65.
5.54,6823.,7.,2.,3147.,0.,0.,9979.,0.847882381907,6.29855483702,91.
5.56,6832.,2.,7.,3138.,0.,0.,9979.,0.849000796305,22.0740207039,26.
5.58,6839.,3.,1.,3135.,0.,0.,9978.,0.849955848621,14.7325680428,39.
5.6,6848.,1.,1.,3131.,0.,0.,9981.,0.850818566759,44.2425654715,13.
5.62,6857.,3.,0.,3127.,0.,0.,9987.,0.851424929618,14.7580321134,39.
5.64,6861.,2.,2.,3120.,0.,0.,9985.,0.852092244789,22.1543983645,26.
5.66,6865.,1.,1.,3119.,0.,0.,9986.,0.852503640731,44.330189318,13.
5.68,6885.,2.,1.,3103.,0.,0.,9991.,0.854559385142,22.2185440137,26.
5.7,6895.,1.,2.,3098.,0.,0.,9996.,0.855372503728,44.4793701939,13.
5.72,6907.,2.,0.,3091.,0.,0.,10000.,0.856518442363,22.2694795015,26.
5.74,6917.,2.,0.,3080.,0.,0.,9999.,0.857844299824,22.3039517954,26.
5.76,6923.,3.,0.,3077.,0.,0.,10003.,0.858245085687,14.8762481519,39.
5.78,6929.,4.,0.,3072.,0.,0.,10005.,0.858817194434,11.1646235276,52.
5.8,6930.,3.,2.,3068.,0.,0.,10003.,0.859112876471,14.8912898588,39.
5.82,6937.,6.,1.,3060.,0.,0.,10004.,0.859894703574,7.45242076431,78.
5.84,6939.,8.,3.,3054.,0.,0.,10004.,0.860142619014,5.59092702359,104.
5.86,6945.,9.,5.,3046.,0.,0.,10005.,0.860800319721,4.97351295839,117.
5.88,6947.,15.,4.,3040.,0.,0.,10006.,0.860962157192,2.9846688116,195.
5.9,6952.,12.,4.,3039.,0.,0.,10007.,0.861495723995,3.73314813731,156.
5.92,6953.,9.,4.,3041.,0.,0.,10007.,0.861619644554,4.9782468352,117.
5.94,6952.,9.,10.,3040.,0.,0.,10011.,0.861151504347,4.97554202512,117.
5.96,6949.,14.,8.,3037.,0.,0.,10008.,0.861037918758,3.1981408411,182.
5.98,6944.,12.,11.,3041.,0.,0.,10008.,0.860418377875,3.72847963746,156.
6.,6935.,14.,16.,3041.,0.,0.,10006.,0.859474961873,3.19233557267,182.
6.02,6927.,17.,8.,3052.,0.,0.,10004.,0.858655126375,2.6264745042,221.
6.04,6925.,20.,8.,3050.,0.,0.,10003.,0.858493025911,2.23208186737,260.
6.06,6930.,19.,8.,3045.,0.,0.,10002.,0.85919877058,2.35149137211,247.
6.08,6920.,22.,14.,3045.,0.,0.,10001.,0.85804473283,2.02810573214,286.
6.1,6907.,30.,10.,3052.,0.,0.,9999.,0.856604102774,1.48478044481,390.
6.12,6903.,31.,8.,3057.,0.,0.,9999.,0.856108023954,1.43605216921,403.
6.14,6899.,30.,15.,3056.,0.,0.,10000.,0.855526383939,1.48291239883,390.
6.16,6888.,28.,12.,3068.,0.,0.,9996.,0.854504105247,1.58693619546,364.
6.18,6881.,26.,17.,3070.,0.,0.,9994.,0.853806536405,1.70761307281,338.
6.2,6873.,27.,11.,3082.,0.,0.,9993.,0.852899223515,1.64262072677,351.
6.22,6869.,24.,7.,3094.,0.,0.,9994.,0.85231755538,1.84668803666,312.
6.24,6866.,23.,10.,3091.,0.,0.,9990.,0.852286429367,1.926908449,299.
6.26,6871.,21.,7.,3092.,0.,0.,9991.,0.852821719,2.11174901848,273.
6.28,6872.,20.,10.,3088.,0.,0.,9990.,0.853031217974,2.21788116673,260.
6.3,6866.,23.,9.,3090.,0.,0.,9988.,0.852457091447,1.92729429371,299.
6.32,6868.,21.,6.,3095.,0.,0.,9990.,0.852534692236,2.11103828554,273.
6.34,6872.,15.,6.,3100.,0.,0.,9993.,0.852775129346,2.95628711507,195.
6.36,6879.,13.,4.,3101.,0.,0.,9997.,0.853302228546,3.41320891418,169.
6.38,6876.,10.,3.,3106.,0.,0.,9995.,0.853100766351,4.43612398503,130.
6.4,6879.,10.,4.,3106.,0.,0.,9999.,0.853131551032,4.43628406537,130.
6.42,6876.,9.,3.,3110.,0.,0.,9998.,0.852844784925,4.92754764623,117.
6.44,6878.,9.,5.,3106.,0.,0.,9998.,0.853092849144,4.92898090617,117.
6.46,6881.,6.,3.,3105.,0.,0.,9995.,0.85372111304,7.39891631301,78.
6.48,6890.,7.,2.,3100.,0.,0.,9999.,0.854495767788,6.34768284642,91.
6.5,6892.,1.,7.,3091.,0.,0.,9991.,0.855428218214,44.4822673471,13.
6.52,6891.,2.,3.,3092.,0.,0.,9988.,0.855560998713,22.2445859665,26.
6.54,6895.,1.,1.,3090.,0.,0.,9987.,0.85614334107,44.5194537356,13.
6.56,6904.,0.,2.,3081.,0.,0.,9987.,0.857260859572,inf,0.
6.58,6907.,2.,2.,3074.,0.,0.,9985.,0.857805150089,22.3029339023,26.
6.6,6909.,2.,3.,3072.,0.,0.,9986.,0.857967611626,22.3071579023,26.
6.62,6914.,2.,2.,3069.,0.,0.,9987.,0.858502546796,22.3210662167,26.
6.64,6923.,1.,1.,3063.,0.,0.,9988.,0.859534000013,44.6957680007,13.
6.66,6933.,2.,1.,3054.,0.,0.,9990.,0.860603235479,22.3756841225,26.
6.68,6940.,1.,0.,3056.,0.,0.,9997.,0.860868944048,44.7651850905,13.
6.7,6955.,2.,0.,3040.,0.,0.,9997.,0.862729611795,22.4309699067,26.
6.72,6966.,2.,0.,3032.,0.,0.,10000.,0.863834873245,22.4597067044,26.
6.74,6976.,1.,1.,3023.,0.,0.,10001.,0.864988447431,44.9793992664,13.
6.76,6982.,4.,1.,3013.,0.,0.,10000.,0.865818990094,11.2556468712,52.
6.78,6987.,2.,2.,3008.,0.,0.,9999.,0.866525679178,22.5296676586,26.
6.8,6995.,4.,1.,3001.,0.,0.,10001.,0.867344350599,11.2754765578,52.
6.82,6997.,5.,1.,2998.,0.,0.,10001.,0.867592340407,9.02296034023,65.
6.84,7001.,4.,3.,2989.,0.,0.,9997.,0.868435659551,11.2896635742,52.
6.86,7001.,6.,4.,2985.,0.,0.,9996.,0.868522537868,7.52719532819,78.
6.88,7003.,7.,3.,2981.,0.,0.,9994.,0.868944510165,6.45501636123,91.
6.9,7005.,9.,3.,2974.,0.,0.,9991.,0.869453666365,5.02351007233,117.
6.92,7006.,8.,9.,2968.,0.,0.,9991.,0.869577785375,5.65225560494,104.
6.94,7007.,10.,12.,2963.,0.,0.,9992.,0.869614864563,4.52199729573,130.
6.96,7007.,12.,7.,2966.,0.,0.,9992.,0.869614864563,3.76833107977,156.
6.98,7007.,18.,1.,2967.,0.,0.,9993.,0.869527842161,2.5119693218,234.
7.,7006.,18.,9.,2962.,0.,0.,9995.,0.869229780258,2.51110825408,234.
7.02,7006.,21.,9.,2961.,0.,0.,9997.,0.869055882133,2.15194789861,273.
7.04,7004.,24.,5.,2963.,0.,0.,9996.,0.868894708646,1.88260520207,312.
7.06,7010.,16.,11.,2961.,0.,0.,9998.,0.869465087598,2.82576153469,208.
7.08,7001.,26.,11.,2960.,0.,0.,9998.,0.868348798613,1.73669759723,338.
7.1,6990.,27.,11.,2964.,0.,0.,9992.,0.867505052561,1.6707504716,351.
7.12,6983.,28.,18.,2965.,0.,0.,9994.,0.866462875123,1.60914533951,364.
7.14,6971.,30.,18.,2974.,0.,0.,9993.,0.865060452077,1.49943811693,390.
7.16,6965.,33.,8.,2990.,0.,0.,9996.,0.864056488537,1.3615435577,429.
7.18,6960.,26.,16.,2992.,0.,0.,9994.,0.863608994824,1.72721798965,338.
7.2,6948.,32.,21.,2990.,0.,0.,9991.,0.862378882784,1.40136568452,416.
7.22,6932.,38.,21.,3003.,0.,0.,9994.,0.860134705764,1.17702643947,494.
7.24,6927.,29.,16.,3026.,0.,0.,9998.,0.85917042251,1.54058144726,377.
7.26,6921.,28.,12.,3039.,0.,0.,10000.,0.858254544607,1.59390129713,364.
7.28,6925.,23.,14.,3042.,0.,0.,10004.,0.858407210935,1.94074673777,299.
7.3,6915.,28.,8.,3053.,0.,0.,10004.,0.857167633735,1.59188274836,364.
7.32,6913.,23.,13.,3055.,0.,0.,10004.,0.856919718295,1.93738371093,299.
7.34,6910.,20.,11.,3061.,0.,0.,10002.,0.856719120449,2.22746971317,260.
7.36,6909.,19.,8.,3066.,0.,0.,10002.,0.856595137942,2.34436564068,247.
7.38,6903.,20.,8.,3072.,0.,0.,10003.,0.855765683446,2.22499077696,260.
7.4,6900.,19.,10.,3071.,0.,0.,10000.,0.855650391242,2.34178001814,247.
7.42,6901.,16.,5.,3076.,0.,0.,9998.,0.855945587663,2.7818231599,208.
7.44,6907.,9.,7.,3079.,0.,0.,10002.,0.856347172929,4.94778366581,117.
7.46,6910.,9.,1.,3088.,0.,0.,10008.,0.856205499873,4.94696511038,117.
7.48,6913.,6.,5.,3083.,0.,0.,10007.,0.856662822206,7.42441112579,78.
7.5,6916.,3.,3.,3084.,0.,0.,10006.,0.85712023595,14.8567507565,39.
7.52,6922.,4.,0.,3081.,0.,0.,10007.,0.857778107235,11.151115394,52.
7.54,6932.,0.,1.,3074.,0.,0.,10007.,0.859017312821,inf,0.
7.56,6935.,2.,1.,3073.,0.,0.,10011.,0.859045696583,22.3351881112,26.
7.58,6941.,1.,0.,3069.,0.,0.,10011.,0.859788922853,44.7090239884,13.
7.6,6944.,1.,1.,3063.,0.,0.,10009.,0.860332413405,44.7372854971,13.
7.62,6947.,1.,1.,3058.,0.,0.,10007.,0.860876121202,44.7655583025,13.
7.64,6952.,2.,1.,3050.,0.,0.,10005.,0.861667937034,22.4033663629,26.
7.66,6961.,1.,0.,3045.,0.,0.,10007.,0.862611009023,44.8557724692,13.
7.68,6967.,1.,0.,3039.,0.,0.,10007.,0.863354532376,44.8944356835,13.
7.7,6981.,1.,0.,3026.,0.,0.,10008.,0.865002980407,44.9801549812,13.
7.72,6986.,1.,1.,3019.,0.,0.,10007.,0.865709022991,45.0168691955,13.
7.74,6990.,1.,0.,3011.,0.,0.,10002.,0.866637720975,45.0651614907,13.
7.76,6993.,4.,0.,3004.,0.,0.,10001.,0.867096360792,11.2722526903,52.
7.78,6997.,4.,1.,2998.,0.,0.,10000.,0.867679099641,11.2798282953,52.
7.8,7002.,2.,6.,2992.,0.,0.,10002.,0.868125511054,22.5712632874,26.
7.82,7010.,6.,4.,2983.,0.,0.,10003.,0.869030485435,7.53159754044,78.
7.84,7012.,8.,2.,2983.,0.,0.,10005.,0.869104656858,5.64918026958,104.
7.86,7018.,5.,5.,2976.,0.,0.,10004.,0.869935278894,9.04732690049,65.
7.88,7022.,5.,1.,2974.,0.,0.,10002.,0.870605161185,9.05429367633,65.
7.9,7021.,8.,3.,2969.,0.,0.,10001.,0.870568218093,5.6586934176,104.
7.92,7021.,7.,6.,2967.,0.,0.,10001.,0.870568218093,6.46707819155,91.
7.94,7017.,8.,5.,2969.,0.,0.,9999.,0.870246270329,5.65660075714,104.
7.96,7019.,11.,5.,2962.,0.,0.,9997.,0.870668460847,4.11588726946,143.
7.98,7019.,18.,8.,2951.,0.,0.,9996.,0.870755562533,2.51551606954,234.
8.,7018.,17.,12.,2949.,0.,0.,9996.,0.870631505607,2.6631081348,221.
8.02,7006.,20.,13.,2957.,0.,0.,9996.,0.869142822497,2.25977133849,260.
8.04,7007.,15.,9.,2964.,0.,0.,9995.,0.869353849596,3.01376001193,195.
8.06,7003.,18.,8.,2963.,0.,0.,9992.,0.86911843821,2.51078659927,234.
8.08,6998.,22.,7.,2964.,0.,0.,9991.,0.868584833294,2.05301869688,286.
8.1,6999.,21.,13.,2960.,0.,0.,9993.,0.868535088809,2.15065831515,273.
8.12,6992.,26.,10.,2961.,0.,0.,9989.,0.868013878391,1.73602775678,338.
8.14,6987.,24.,21.,2958.,0.,0.,9990.,0.867306332943,1.87916372138,312.
8.16,6980.,27.,14.,2968.,0.,0.,9989.,0.866524152055,1.66886132988,351.
8.18,6973.,37.,7.,2972.,0.,0.,9989.,0.865655145026,1.21659642004,481.
8.2,6970.,27.,16.,2972.,0.,0.,9985.,0.865629346477,1.66713800062,351.
8.22,6964.,25.,17.,2978.,0.,0.,9984.,0.864970811938,1.79913928883,325.
8.24,6945.,32.,9.,2995.,0.,0.,9981.,0.86287017321,1.40216403147,416.
8.26,6944.,23.,13.,3001.,0.,0.,9981.,0.862745929844,1.9505560153,299.
8.28,6936.,29.,11.,3007.,0.,0.,9983.,0.861579339029,1.54490088378,377.
8.3,6935.,30.,13.,3009.,0.,0.,9987.,0.861110089967,1.49259082261,390.
8.32,6939.,25.,13.,3016.,0.,0.,9993.,0.861089438669,1.79106603243,325.
8.34,6931.,27.,9.,3027.,0.,0.,9994.,0.860010624012,1.65631675736,351.
8.36,6937.,26.,9.,3023.,0.,0.,9995.,0.860668995954,1.72133799191,338.
8.38,6946.,13.,14.,3023.,0.,0.,9996.,0.861699406946,3.44679762779,169.
8.4,6937.,14.,11.,3037.,0.,0.,9999.,0.860324693925,3.19549172029,182.
8.42,6934.,12.,8.,3041.,0.,0.,9995.,0.860296787941,3.72795274774,156.
8.44,6929.,13.,4.,3044.,0.,0.,9990.,0.860106709741,3.44042683896,169.
8.46,6933.,11.,7.,3037.,0.,0.,9988.,0.860775562919,4.06912084289,143.
8.48,6929.,10.,6.,3041.,0.,0.,9986.,0.86045123476,4.47434642075,130.
8.5,6935.,8.,1.,3040.,0.,0.,9984.,0.861368836989,5.59889744043,104.
8.52,6943.,4.,2.,3039.,0.,0.,9988.,0.862017125825,11.2062226357,52.
8.54,6946.,2.,1.,3038.,0.,0.,9987.,0.862475945913,22.4243745937,26.
8.56,6951.,0.,1.,3032.,0.,0.,9984.,0.863356133513,inf,0.
8.58,6960.,0.,0.,3028.,0.,0.,9988.,0.864127782766,inf,0.
8.6,6963.,2.,0.,3023.,0.,0.,9988.,0.864500251638,22.4770065426,26.
8.62,6973.,0.,0.,3014.,0.,0.,9987.,0.865828501419,inf,0.
8.64,6980.,0.,0.,3007.,0.,0.,9987.,0.866697682475,inf,0.
8.66,6985.,0.,0.,3002.,0.,0.,9987.,0.867318526088,inf,0.
8.68,6993.,0.,0.,2992.,0.,0.,9985.,0.868485799127,inf,0.
8.7,6995.,0.,0.,2988.,0.,0.,9983.,0.868908229024,inf,0.
8.72,7004.,0.,0.,2978.,0.,0.,9982.,0.870113354801,inf,0.
8.74,7010.,0.,0.,2971.,0.,0.,9981.,0.870945991965,inf,0.
8.76,7017.,0.,0.,2964.,0.,0.,9981.,0.871815695524,inf,0.
8.78,7025.,0.,0.,2956.,0.,0.,9981.,0.872809642447,inf,0.
8.8,7031.,1.,1.,2947.,0.,0.,9980.,0.873642633212,45.429416927,13.
8.82,7038.,1.,4.,2936.,0.,0.,9979.,0.874600059191,45.4792030779,13.
8.84,7040.,5.,1.,2934.,0.,0.,9980.,0.874760935544,9.09751372966,65.
8.86,7041.,7.,4.,2927.,0.,0.,9979.,0.87497286399,6.49979841821,91.
8.88,7040.,9.,8.,2924.,0.,0.,9981.,0.87467329293,5.0536679147,117.
8.9,7041.,8.,10.,2920.,0.,0.,9979.,0.87497286399,5.68732361594,104.
8.92,7037.,15.,8.,2920.,0.,0.,9980.,0.8743881681,3.03121231608,195.
8.94,7037.,13.,7.,2925.,0.,0.,9982.,0.874212975119,3.49685190048,169.
8.96,7038.,10.,10.,2925.,0.,0.,9983.,0.874249623427,4.54609804182,130.
8.98,7031.,17.,8.,2928.,0.,0.,9984.,0.873292616131,2.67124800228,221.
9.,7025.,22.,11.,2925.,0.,0.,9983.,0.872634783258,2.06259130588,286.
9.02,7013.,24.,10.,2931.,0.,0.,9978.,0.871580694017,1.88842483704,312.
9.04,7006.,27.,11.,2934.,0.,0.,9978.,0.870710728972,1.67692436691,351.
9.06,6992.,33.,14.,2940.,0.,0.,9979.,0.868883718935,1.36915010256,429.
9.08,6991.,25.,17.,2948.,0.,0.,9981.,0.868585368021,1.80665756548,325.
9.1,6974.,35.,18.,2956.,0.,0.,9983.,0.86629964106,1.28707375243,455.
9.12,6961.,37.,16.,2969.,0.,0.,9983.,0.864684800891,1.21523269314,481.
9.14,6949.,29.,19.,2985.,0.,0.,9982.,0.86328065427,1.547951518,377.
9.16,6939.,33.,17.,2995.,0.,0.,9984.,0.86186566112,1.35809134479,429.
9.18,6930.,31.,15.,3008.,0.,0.,9984.,0.860747806825,1.4438350308,403.
9.2,6926.,41.,9.,3014.,0.,0.,9990.,0.859734315437,1.09039474153,533.
9.22,6922.,26.,17.,3025.,0.,0.,9990.,0.859237789699,1.7184755794,338.
9.24,6907.,33.,15.,3034.,0.,0.,9989.,0.857461650179,1.35115169119,429.
9.26,6901.,32.,10.,3046.,0.,0.,9989.,0.856716787011,1.39216477889,416.
9.28,6905.,29.,11.,3042.,0.,0.,9987.,0.857385028294,1.53738005073,377.
9.3,6893.,29.,9.,3053.,0.,0.,9984.,0.856152183614,1.53516943269,377.
9.32,6889.,25.,11.,3059.,0.,0.,9984.,0.855655359483,1.77976314773,325.
9.34,6882.,24.,7.,3072.,0.,0.,9985.,0.854700310252,1.85185067221,312.
9.36,6881.,18.,6.,3079.,0.,0.,9984.,0.854661711221,2.46902272131,234.
9.38,6887.,11.,7.,3080.,0.,0.,9985.,0.855321278219,4.04333695158,143.
9.4,6892.,12.,5.,3076.,0.,0.,9985.,0.855942246187,3.70908306681,156.
9.42,6891.,10.,6.,3077.,0.,0.,9984.,0.855903771549,4.45069961205,130.
9.44,6901.,7.,1.,3080.,0.,0.,9989.,0.856716787011,6.36418184637,91.
9.46,6910.,6.,0.,3073.,0.,0.,9989.,0.857834081763,7.43456204194,78.
9.48,6913.,0.,6.,3068.,0.,0.,9987.,0.858378378073,inf,0.
9.5,6913.,4.,2.,3064.,0.,0.,9983.,0.858722314116,11.1633900835,52.
9.52,6916.,5.,2.,3059.,0.,0.,9982.,0.859181033952,8.9354827531,65.
9.54,6917.,2.,2.,3060.,0.,0.,9981.,0.859391358976,22.3441753334,26.
9.56,6926.,2.,2.,3051.,0.,0.,9981.,0.860509549266,22.3732482809,26.
9.58,6929.,1.,2.,3047.,0.,0.,9979.,0.861054818149,44.7748505438,13.
9.6,6931.,1.,1.,3044.,0.,0.,9977.,0.861476012466,44.7967526482,13.
9.62,6936.,0.,2.,3040.,0.,0.,9978.,0.862011078526,inf,0.
9.64,6941.,0.,1.,3036.,0.,0.,9978.,0.862632482129,inf,0.
9.66,6942.,2.,1.,3031.,0.,0.,9976.,0.862929729322,22.4361729624,26.
9.68,6947.,0.,1.,3027.,0.,0.,9975.,0.863637829059,inf,0.
9.7,6958.,0.,2.,3021.,0.,0.,9981.,0.864485336961,inf,0.
9.72,6964.,2.,1.,3015.,0.,0.,9982.,0.865144118051,22.4937470693,26.
9.74,6970.,0.,1.,3010.,0.,0.,9981.,0.865976257346,inf,0.
9.76,6975.,0.,2.,3005.,0.,0.,9982.,0.866510658158,inf,0.
9.78,6979.,1.,0.,3001.,0.,0.,9981.,0.867094447636,45.0889112771,13.
9.8,6984.,1.,1.,2993.,0.,0.,9979.,0.867889572803,45.1302577858,13.
9.82,6989.,1.,1.,2990.,0.,0.,9981.,0.86833688129,45.1535178271,13.
9.84,6991.,5.,1.,2983.,0.,0.,9980.,0.868672400623,9.03419296648,65.
9.86,6996.,4.,3.,2977.,0.,0.,9980.,0.869293679697,11.3008178361,52.
9.88,7001.,7.,1.,2973.,0.,0.,9982.,0.869740662045,6.46093063233,91.
9.9,7005.,4.,5.,2968.,0.,0.,9982.,0.870237585719,11.3130886144,52.
9.92,7011.,7.,4.,2963.,0.,0.,9985.,0.870721283809,6.46821525116,91.
9.94,7012.,6.,6.,2963.,0.,0.,9987.,0.870671081593,7.54581604047,78.
9.96,7006.,12.,4.,2967.,0.,0.,9989.,0.86975189245,3.76892486728,156.
9.98,7006.,10.,5.,2966.,0.,0.,9987.,0.869926069258,4.52361556014,130.
10.,7003.,11.,5.,2970.,0.,0.,9989.,0.869379460866,4.109793815,143.
