t,cases
5.01,3.705
5.02,3.705
5.03,3.25
5.04,3.25
5.05,3.315
5.06,3.315
5.07,3.77
5.08,3.77
5.09,4.16
5.1,4.16
5.11,4.225
5.12,4.225
5.13,4.55
5.14,4.55
5.15,4.745
5.16,4.745
5.17,4.81
5.18,4.81
5.19,4.81
5.2,4.81
5.21,4.16
5.22,4.16
5.23,3.64
5.24,3.64
5.25,3.835
5.26,3.835
5.27,3.445
5.28,3.445
5.29,2.99
5.3,2.99
5.31,3.185
5.32,3.185
5.33,3.12
5.34,3.12
5.35,2.795
5.36,2.795
5.37,2.795
5.38,2.795
5.39,2.34
5.4,2.34
5.41,1.495
5.42,1.495
5.43,1.105
5.44,1.105
5.45,0.91
5.46,0.91
5.47,0.91
5.48,0.91
5.49,0.975
5.5,0.975
5.51,1.105
5.52,1.105
5.53,0.91
5.54,0.91
5.55,0.585
5.56,0.585
5.57,0.39
5.58,0.39
5.59,0.195
5.6,0.195
5.61,0.13
5.62,0.13
5.63,0.195
5.64,0.195
5.65,0.26
5.66,0.26
5.67,0.195
5.68,0.195
5.69,0.13
5.7,0.13
5.71,0.13
5.72,0.13
5.73,0.065
5.74,0.065
5.75,0.065
5.76,0.065
5.77,0.195
5.78,0.195
5.79,0.325
5.8,0.325
5.81,0.26
5.82,0.26
5.83,0.325
5.84,0.325
5.85,0.52
5.86,0.52
5.87,0.91
5.88,0.91
5.89,1.3
5.9,1.3
5.91,1.43
5.92,1.43
5.93,1.495
5.94,1.495
5.95,1.885
5.96,1.885
5.97,2.34
5.98,2.34
5.99,2.275
6.,2.275
6.01,2.21
6.02,2.21
6.03,2.535
6.04,2.535
6.05,2.795
6.06,2.795
6.07,3.38
6.08,3.38
6.09,3.77
6.1,3.77
6.11,3.64
6.12,3.64
6.13,3.575
6.14,3.575
6.15,3.51
6.16,3.51
6.17,3.835
6.18,3.835
6.19,4.095
6.2,4.095
6.21,3.965
6.22,3.965
6.23,3.965
6.24,3.965
6.25,3.705
6.26,3.705
6.27,3.575
6.28,3.575
6.29,3.64
6.3,3.64
6.31,3.835
6.32,3.835
6.33,3.705
6.34,3.705
6.35,3.055
6.36,3.055
6.37,2.535
6.38,2.535
6.39,1.495
6.4,1.495
6.41,1.17
6.42,1.17
6.43,1.235
6.44,1.235
6.45,0.91
6.46,0.91
6.47,0.715
6.48,0.715
6.49,0.52
6.5,0.52
6.51,0.455
6.52,0.455
6.53,0.39
6.54,0.39
6.55,0.26
6.56,0.26
6.57,0.195
6.58,0.195
6.59,0.13
6.6,0.13
6.61,0.065
6.62,0.065
6.63,0.
6.64,0.
6.65,0.
6.66,0.
6.67,0.
6.68,0.
6.69,0.
6.7,0.
6.71,0.
6.72,0.
6.73,0.065
6.74,0.065
6.75,0.065
6.76,0.065
6.77,0.065
6.78,0.065
6.79,0.065
6.8,0.065
6.81,0.065
6.82,0.065
6.83,0.065
6.84,0.065
6.85,0.13
6.86,0.13
6.87,0.65
6.88,0.65
6.89,0.78
6.9,0.78
6.91,1.105
6.92,1.105
6.93,1.56
6.94,1.56
6.95,1.69
6.96,1.69
6.97,2.08
6.98,2.08
6.99,2.21
7.,2.21
7.01,2.015
7.02,2.015
7.03,2.21
7.04,2.21
7.05,2.86
7.06,2.86
7.07,2.795
7.08,2.795
7.09,3.055
7.1,3.055
7.11,3.055
7.12,3.055
7.13,3.055
7.14,3.055
7.15,3.77
7.16,3.77
7.17,4.68
7.18,4.68
7.19,4.94
7.2,4.94
7.21,4.55
7.22,4.55
7.23,4.16
7.24,4.16
7.25,3.9
7.26,3.9
7.27,3.77
7.28,3.77
7.29,3.445
7.3,3.445
7.31,2.86
7.32,2.86
7.33,2.08
7.34,2.08
7.35,1.95
7.36,1.95
7.37,2.015
7.38,2.015
7.39,1.82
7.4,1.82
7.41,1.56
7.42,1.56
7.43,1.56
7.44,1.56
7.45,1.56
7.46,1.56
7.47,1.43
7.48,1.43
7.49,1.3
7.5,1.3
7.51,1.105
7.52,1.105
7.53,0.78
7.54,0.78
7.55,0.585
7.56,0.585
7.57,0.52
7.58,0.52
7.59,0.455
7.6,0.455
7.61,0.325
7.62,0.325
7.63,0.195
7.64,0.195
7.65,0.065
7.66,0.065
7.67,0.065
7.68,0.065
7.69,0.065
7.7,0.065
7.71,0.13
7.72,0.13
7.73,0.195
7.74,0.195
7.75,0.195
7.76,0.195
7.77,0.26
7.78,0.26
7.79,0.455
7.8,0.455
7.81,0.52
7.82,0.52
7.83,0.39
7.84,0.39
7.85,0.52
7.86,0.52
7.87,0.91
7.88,0.91
7.89,1.43
7.9,1.43
7.91,1.755
7.92,1.755
7.93,1.625
7.94,1.625
7.95,1.69
7.96,1.69
7.97,2.275
7.98,2.275
7.99,2.665
8.,2.665
8.01,2.47
8.02,2.47
8.03,2.405
8.04,2.405
8.05,2.665
8.06,2.665
8.07,3.185
8.08,3.185
8.09,3.835
8.1,3.835
8.11,3.64
8.12,3.64
8.13,3.835
8.14,3.835
8.15,4.095
8.16,4.095
8.17,4.095
8.18,4.095
8.19,4.42
8.2,4.42
8.21,3.705
8.22,3.705
8.23,3.055
8.24,3.055
8.25,3.51
8.26,3.51
8.27,3.51
8.28,3.51
8.29,2.99
8.3,2.99
8.31,2.925
8.32,2.925
8.33,3.055
8.34,3.055
8.35,2.665
8.36,2.665
8.37,2.08
8.38,2.08
8.39,1.625
8.4,1.625
8.41,1.43
8.42,1.43
8.43,1.17
8.44,1.17
8.45,0.78
8.46,0.78
8.47,0.715
8.48,0.715
8.49,0.585
8.5,0.585
8.51,0.52
8.52,0.52
8.53,0.52
8.54,0.52
8.55,0.39
8.56,0.39
8.57,0.26
8.58,0.26
8.59,0.26
8.6,0.26
8.61,0.195
8.62,0.195
8.63,0.13
8.64,0.13
8.65,0.13
8.66,0.13
8.67,0.0649999999999
8.68,0.0650000000001
8.69,0.
8.7,0.
8.71,0.
8.72,0.
8.73,0.0650000000001
8.74,0.0649999999999
8.75,0.0649999999999
8.76,0.0650000000001
8.77,0.13
8.78,0.13
8.79,0.195
8.8,0.195
8.81,0.325
8.82,0.325
8.83,0.65
8.84,0.65
8.85,1.04
8.86,1.04
8.87,1.235
8.88,1.235
8.89,1.365
8.9,1.365
8.91,1.365
8.92,1.365
8.93,0.975
8.94,0.975
8.95,1.04
8.96,1.04
8.97,1.3
8.98,1.3
8.99,1.495
9.,1.495
9.01,1.56
9.02,1.56
9.03,1.755
9.04,1.755
9.05,2.795
9.06,2.795
9.07,3.055
9.08,3.055
9.09,2.535
9.1,2.535
9.11,2.535
9.12,2.535
9.13,2.535
9.14,2.535
9.15,3.575
9.16,3.575
9.17,4.81
9.18,4.81
9.19,5.135
9.2,5.135
9.21,5.525
9.22,5.525
9.23,5.525
9.24,5.525
9.25,4.42
9.26,4.42
9.27,4.55
9.28,4.55
9.29,5.59
9.3,5.59
9.31,5.005
9.32,5.005
9.33,4.03
9.34,4.03
9.35,3.64
9.36,3.64
9.37,3.445
9.38,3.445
9.39,2.99
9.4,2.99
9.41,2.34
9.42,2.34
9.43,2.21
9.44,2.21
9.45,2.015
9.46,2.015
9.47,1.56
9.48,1.56
9.49,1.365
9.5,1.365
9.51,0.845
9.52,0.845
9.53,0.325
9.54,0.325
9.55,0.195
9.56,0.195
9.57,0.26
9.58,0.26
9.59,0.13
9.6,0.13
9.61,0.
9.62,0.
9.63,0.0650000000001
9.64,0.0649999999999
9.65,0.0649999999999
9.66,0.0650000000001
9.67,0.0650000000001
9.68,0.0649999999999
9.69,0.13
9.7,0.13
9.71,0.195
9.72,0.195
9.73,0.195
9.74,0.195
9.75,0.13
9.76,0.13
9.77,0.13
9.78,0.13
9.79,0.13
9.8,0.13
9.81,0.39
9.82,0.39
9.83,0.65
9.84,0.65
9.85,0.845
9.86,0.845
9.87,0.91
9.88,0.91
9.89,0.91
9.9,0.91
9.91,0.78
9.92,0.78
9.93,1.04
9.94,1.04
9.95,1.495
9.96,1.495
9.97,1.365
9.98,1.365
9.99,1.365
10.,1.365
