t,s,e,i,r,c,o,n,reff,coal,reportr
5.,6587.,63.,2.,3349.,0.,0.,10001.,0.831344665876,0.686189248024,819.
5.02,6587.,40.,22.,3348.,0.,0.,9997.,0.831677303533,1.08118049459,520.
5.04,6585.,34.,18.,3364.,0.,0.,10001.,0.831092246059,1.27108225868,442.
5.06,6583.,32.,16.,3371.,0.,0.,10002.,0.830756758873,1.34997973317,416.
5.08,6567.,36.,19.,3380.,0.,0.,10002.,0.828737602236,1.19706542545,468.
5.1,6568.,27.,14.,3397.,0.,0.,10006.,0.828532452814,1.59569213135,351.
5.12,6562.,21.,20.,3402.,0.,0.,10005.,0.827858307956,2.0499348578,273.
5.14,6547.,30.,17.,3411.,0.,0.,10005.,0.825965916213,1.43167425477,390.
5.16,6544.,30.,16.,3416.,0.,0.,10006.,0.825504928626,1.43087520962,390.
5.18,6537.,40.,16.,3424.,0.,0.,10017.,0.823716356073,1.07083126289,520.
5.2,6527.,33.,21.,3435.,0.,0.,10016.,0.822538387166,1.29612109493,429.
5.22,6515.,33.,24.,3443.,0.,0.,10015.,0.82110811606,1.2938673344,429.
5.24,6506.,34.,17.,3456.,0.,0.,10013.,0.820137596595,1.25432808891,442.
5.26,6503.,31.,13.,3468.,0.,0.,10015.,0.819595714311,1.37480571433,403.
5.28,6493.,34.,15.,3472.,0.,0.,10014.,0.818417098652,1.25169673911,442.
5.3,6484.,33.,12.,3485.,0.,0.,10014.,0.817282684069,1.28783938096,429.
5.32,6486.,31.,15.,3483.,0.,0.,10015.,0.817453145167,1.37121172738,403.
5.34,6489.,22.,12.,3492.,0.,0.,10015.,0.817831245605,1.93305567143,286.
5.36,6490.,18.,6.,3502.,0.,0.,10016.,0.81787561402,2.36275177384,234.
5.38,6488.,14.,11.,3500.,0.,0.,10013.,0.817868540841,3.03779743741,182.
5.4,6483.,12.,9.,3509.,0.,0.,10013.,0.817238247576,3.54136573949,156.
5.42,6486.,14.,5.,3510.,0.,0.,10015.,0.817453145167,3.03625453919,182.
5.44,6494.,10.,7.,3504.,0.,0.,10015.,0.818461413,4.2559993476,130.
5.46,6494.,15.,2.,3502.,0.,0.,10013.,0.818624892759,2.83789962823,195.
5.48,6501.,12.,3.,3495.,0.,0.,10011.,0.819671024697,3.55190777369,156.
5.5,6508.,10.,4.,3489.,0.,0.,10011.,0.820553611557,4.26687878009,130.
5.52,6521.,6.,3.,3482.,0.,0.,10012.,0.822110580713,7.12495836618,78.
5.54,6530.,4.,4.,3473.,0.,0.,10011.,0.823327455972,10.7032569276,52.
5.56,6538.,3.,2.,3470.,0.,0.,10013.,0.824171473492,14.2856388739,39.
5.58,6541.,2.,2.,3470.,0.,0.,10015.,0.824384986516,21.4340096494,26.
5.6,6548.,0.,0.,3469.,0.,0.,10017.,0.82510244754,inf,0.
5.62,6557.,1.,0.,3460.,0.,0.,10018.,0.826154047179,42.9600104533,13.
5.64,6566.,1.,0.,3451.,0.,0.,10018.,0.827288008811,43.0189764582,13.
5.66,6572.,1.,1.,3445.,0.,0.,10019.,0.827961335865,43.053989465,13.
5.68,6579.,2.,0.,3436.,0.,0.,10017.,0.829008705309,21.554226338,26.
5.7,6585.,2.,0.,3428.,0.,0.,10015.,0.829930459594,21.5781919494,26.
5.72,6590.,0.,4.,3421.,0.,0.,10015.,0.830560626989,inf,0.
5.74,6587.,5.,2.,3417.,0.,0.,10011.,0.830514234684,8.63734804071,65.
5.76,6593.,4.,1.,3412.,0.,0.,10010.,0.831353781736,10.8075991626,52.
5.78,6602.,2.,1.,3408.,0.,0.,10013.,0.832239227286,21.6382199094,26.
5.8,6609.,3.,0.,3401.,0.,0.,10013.,0.833121637857,14.4407750562,39.
5.82,6616.,4.,1.,3389.,0.,0.,10010.,0.834253999691,10.845301996,52.
5.84,6618.,7.,4.,3382.,0.,0.,10011.,0.834422833633,6.19856962127,91.
5.86,6618.,6.,6.,3379.,0.,0.,10009.,0.834589568138,7.23310959053,78.
5.88,6623.,6.,5.,3375.,0.,0.,10009.,0.835220113294,7.23857431522,78.
5.9,6624.,8.,5.,3372.,0.,0.,10009.,0.835346222325,5.42975044511,104.
5.92,6625.,12.,4.,3366.,0.,0.,10007.,0.835639308938,3.62110367207,156.
5.94,6631.,11.,7.,3361.,0.,0.,10010.,0.836145446184,3.95268756378,143.
5.96,6627.,20.,4.,3361.,0.,0.,10012.,0.835474132554,2.17223274464,260.
5.98,6626.,20.,11.,3356.,0.,0.,10013.,0.835264634958,2.17168805089,260.
6.,6619.,27.,6.,3358.,0.,0.,10010.,0.83463228899,1.60743996398,351.
6.02,6614.,27.,13.,3353.,0.,0.,10007.,0.83425183235,1.60670723267,351.
6.04,6615.,22.,16.,3352.,0.,0.,10005.,0.834544758782,1.97256033894,286.
6.06,6607.,27.,16.,3356.,0.,0.,10006.,0.83345217962,1.60516716075,351.
6.08,6586.,31.,20.,3365.,0.,0.,10002.,0.831135350743,1.39416252383,403.
6.1,6572.,34.,19.,3376.,0.,0.,10001.,0.829451517251,1.26857290874,442.
6.12,6565.,30.,18.,3390.,0.,0.,10003.,0.828402383983,1.43589746557,390.
6.14,6557.,33.,17.,3397.,0.,0.,10004.,0.827310200384,1.30364031576,429.
6.16,6543.,30.,13.,3417.,0.,0.,10003.,0.825626321158,1.43108562334,390.
6.18,6532.,36.,12.,3424.,0.,0.,10004.,0.824155898872,1.19044740948,468.
6.2,6530.,28.,10.,3438.,0.,0.,10006.,0.82373887285,1.52980076386,364.
6.22,6528.,29.,10.,3439.,0.,0.,10006.,0.823486579167,1.47659662471,377.
6.24,6525.,32.,9.,3438.,0.,0.,10004.,0.823272694449,1.33781812848,416.
6.26,6522.,31.,17.,3435.,0.,0.,10005.,0.822811929974,1.38020065673,403.
6.28,6515.,31.,18.,3441.,0.,0.,10005.,0.821928813827,1.37871930061,403.
6.3,6506.,30.,17.,3454.,0.,0.,10007.,0.820629334936,1.42242418056,390.
6.32,6498.,27.,13.,3468.,0.,0.,10006.,0.819702173932,1.57868566831,351.
6.34,6498.,24.,10.,3473.,0.,0.,10005.,0.819784103185,1.77619889023,312.
6.36,6495.,23.,8.,3478.,0.,0.,10004.,0.819487532636,1.85275442161,299.
6.38,6493.,21.,7.,3482.,0.,0.,10003.,0.819317087464,2.02878516896,273.
6.4,6490.,26.,4.,3485.,0.,0.,10005.,0.818774827589,1.63754965518,338.
6.42,6495.,18.,8.,3484.,0.,0.,10005.,0.819405624836,2.36717180508,234.
6.44,6498.,11.,10.,3484.,0.,0.,10003.,0.819948010833,3.87611786939,143.
6.46,6498.,11.,6.,3488.,0.,0.,10003.,0.819948010833,3.87611786939,143.
6.48,6500.,9.,8.,3485.,0.,0.,10002.,0.820282383818,4.73940932873,117.
6.5,6503.,10.,2.,3486.,0.,0.,10001.,0.82074303358,4.26786377461,130.
6.52,6508.,5.,6.,3483.,0.,0.,10002.,0.821291962137,8.54143640622,65.
6.54,6509.,4.,4.,3485.,0.,0.,10002.,0.821418159427,10.6784360725,52.
6.56,6513.,2.,1.,3485.,0.,0.,10001.,0.822005132662,21.3721334492,26.
6.58,6517.,2.,0.,3479.,0.,0.,9998.,0.822756774648,21.3916761408,26.
6.6,6525.,1.,1.,3468.,0.,0.,9995.,0.824014010532,42.8487285477,13.
6.62,6539.,0.,2.,3459.,0.,0.,10000.,0.825369118937,inf,0.
6.64,6548.,0.,0.,3453.,0.,0.,10001.,0.826422479452,inf,0.
6.66,6551.,0.,0.,3449.,0.,0.,10000.,0.826883789288,inf,0.
6.68,6563.,0.,0.,3439.,0.,0.,10002.,0.828232813077,inf,0.
6.7,6567.,0.,1.,3435.,0.,0.,10003.,0.828654753331,inf,0.
6.72,6571.,0.,1.,3433.,0.,0.,10005.,0.828993743002,inf,0.
6.74,6582.,1.,0.,3424.,0.,0.,10007.,0.83021553682,43.1712079146,13.
6.76,6591.,0.,1.,3414.,0.,0.,10006.,0.831433830161,inf,0.
6.78,6599.,0.,0.,3408.,0.,0.,10007.,0.83235981882,inf,0.
6.8,6603.,1.,0.,3397.,0.,0.,10001.,0.833364024408,43.3349292692,13.
6.82,6611.,2.,0.,3390.,0.,0.,10003.,0.834206878981,21.6893788535,26.
6.84,6614.,4.,1.,3386.,0.,0.,10005.,0.834418599333,10.8474417913,52.
6.86,6623.,5.,3.,3378.,0.,0.,10009.,0.835220113294,8.68628917826,65.
6.88,6622.,8.,5.,3377.,0.,0.,10012.,0.834843776335,5.42648454618,104.
6.9,6622.,8.,8.,3367.,0.,0.,10005.,0.835427874929,5.43028118704,104.
6.92,6622.,12.,11.,3360.,0.,0.,10005.,0.835427874929,3.62018745803,156.
6.94,6613.,13.,3.,3374.,0.,0.,10003.,0.834459248329,3.33783699332,169.
6.96,6624.,7.,8.,3366.,0.,0.,10005.,0.835680193828,6.2079100113,91.
6.98,6613.,17.,6.,3368.,0.,0.,10004.,0.834375835769,2.55220843882,221.
7.,6618.,16.,10.,3361.,0.,0.,10005.,0.834923237131,2.71350052068,208.
7.02,6613.,18.,9.,3365.,0.,0.,10005.,0.834292439883,2.41017815966,234.
7.04,6611.,20.,13.,3361.,0.,0.,10005.,0.834040120984,2.16850431456,260.
7.06,6603.,26.,9.,3366.,0.,0.,10004.,0.833114115164,1.66622823033,338.
7.08,6601.,22.,13.,3369.,0.,0.,10005.,0.832778526489,1.96838560806,286.
7.1,6599.,23.,15.,3370.,0.,0.,10007.,0.83235981882,1.88185698168,299.
7.12,6591.,31.,13.,3370.,0.,0.,10005.,0.831516931993,1.3948025956,403.
7.14,6592.,32.,13.,3374.,0.,0.,10011.,0.831144653869,1.35061006254,416.
7.16,6580.,31.,17.,3381.,0.,0.,10009.,0.829797424955,1.39191826121,403.
7.18,6571.,31.,20.,3388.,0.,0.,10010.,0.828579660213,1.38987555907,403.
7.2,6561.,29.,21.,3394.,0.,0.,10005.,0.827732148507,1.48420936974,377.
7.22,6549.,32.,15.,3411.,0.,0.,10007.,0.826053107055,1.34233629896,416.
7.24,6543.,34.,8.,3421.,0.,0.,10006.,0.825378781785,1.2623440192,442.
7.26,6531.,37.,10.,3428.,0.,0.,10006.,0.823865019691,1.157864352,481.
7.28,6528.,35.,12.,3432.,0.,0.,10007.,0.823404288113,1.22334351377,455.
7.3,6523.,37.,7.,3441.,0.,0.,10008.,0.822691405344,1.15621494805,481.
7.32,6532.,27.,12.,3438.,0.,0.,10009.,0.82374419146,1.58647029466,351.
7.34,6530.,22.,12.,3446.,0.,0.,10010.,0.823409706467,1.94624112438,286.
7.36,6534.,18.,8.,3451.,0.,0.,10011.,0.82383179132,2.37995850826,234.
7.38,6524.,22.,11.,3454.,0.,0.,10011.,0.822570952949,1.94425861606,286.
7.4,6514.,19.,11.,3467.,0.,0.,10011.,0.821310114579,2.24779610306,247.
7.42,6513.,15.,13.,3470.,0.,0.,10011.,0.821184030742,2.84677130657,195.
7.44,6519.,14.,7.,3473.,0.,0.,10013.,0.821776359085,3.05231219089,182.
7.46,6528.,12.,3.,3470.,0.,0.,10013.,0.822910886962,3.56594717683,156.
7.48,6538.,8.,6.,3458.,0.,0.,10010.,0.82441847793,5.35872010654,104.
7.5,6539.,6.,4.,3460.,0.,0.,10009.,0.824626954678,7.14676694054,78.
7.52,6541.,5.,3.,3462.,0.,0.,10011.,0.824714378179,8.57702953307,65.
7.54,6541.,7.,4.,3457.,0.,0.,10009.,0.82487917274,6.12767385464,91.
7.56,6551.,6.,0.,3453.,0.,0.,10010.,0.826057731557,7.15916700682,78.
7.58,6557.,0.,6.,3444.,0.,0.,10007.,0.827062180937,inf,0.
7.6,6563.,2.,4.,3440.,0.,0.,10009.,0.827653571425,21.5189928571,26.
7.62,6570.,0.,2.,3440.,0.,0.,10012.,0.828288071658,inf,0.
7.64,6579.,0.,0.,3431.,0.,0.,10010.,0.829588431676,inf,0.
7.66,6594.,0.,0.,3422.,0.,0.,10016.,0.830981787188,inf,0.
7.68,6609.,0.,0.,3412.,0.,0.,10021.,0.832456537258,inf,0.
7.7,6616.,0.,0.,3405.,0.,0.,10021.,0.83333824338,inf,0.
7.72,6627.,1.,0.,3397.,0.,0.,10025.,0.834390724701,43.3883176845,13.
7.74,6637.,1.,0.,3388.,0.,0.,10026.,0.835566454025,43.4494556093,13.
7.76,6638.,2.,0.,3384.,0.,0.,10024.,0.835859087525,21.7323362757,26.
7.78,6642.,2.,1.,3378.,0.,0.,10023.,0.836446213162,21.7476015422,26.
7.8,6653.,0.,2.,3371.,0.,0.,10026.,0.837580777253,inf,0.
7.82,6656.,3.,1.,3365.,0.,0.,10025.,0.838042049738,14.5260621955,39.
7.84,6661.,6.,2.,3355.,0.,0.,10024.,0.838755254897,7.26921220911,78.
7.86,6668.,4.,4.,3349.,0.,0.,10025.,0.839552942856,10.9141882571,52.
7.88,6675.,6.,3.,3343.,0.,0.,10027.,0.840266662928,7.28231107871,78.
7.9,6682.,8.,2.,3341.,0.,0.,10033.,0.840644812741,5.46419128282,104.
7.92,6684.,7.,5.,3334.,0.,0.,10030.,0.841147941856,6.24852756808,91.
7.94,6690.,10.,6.,3327.,0.,0.,10033.,0.841651271661,4.37658661264,130.
7.96,6686.,10.,7.,3328.,0.,0.,10031.,0.84131575191,4.37484190993,130.
7.98,6679.,12.,8.,3330.,0.,0.,10029.,0.840602525711,3.64261094475,156.
8.,6678.,15.,6.,3329.,0.,0.,10028.,0.840560481159,2.91394300135,195.
8.02,6677.,13.,4.,3330.,0.,0.,10024.,0.840769980025,3.3630799201,169.
8.04,6671.,18.,8.,3326.,0.,0.,10023.,0.840098266788,2.4269505485,234.
8.06,6672.,20.,4.,3325.,0.,0.,10021.,0.840391892357,2.18501892013,260.
8.08,6670.,21.,10.,3316.,0.,0.,10017.,0.840475461987,2.08117733444,273.
8.1,6666.,19.,13.,3320.,0.,0.,10018.,0.839887582506,2.29863969949,247.
8.12,6655.,24.,10.,3330.,0.,0.,10019.,0.83841793825,1.81657219954,312.
8.14,6647.,31.,9.,3331.,0.,0.,10018.,0.837493663504,1.40482808072,403.
8.16,6639.,27.,23.,3329.,0.,0.,10018.,0.836485697609,1.61100949169,351.
8.18,6621.,34.,22.,3339.,0.,0.,10016.,0.834384351375,1.27611724328,442.
8.2,6619.,30.,21.,3348.,0.,0.,10018.,0.83396578287,1.44554069031,390.
8.22,6613.,31.,15.,3363.,0.,0.,10022.,0.83287725614,1.39708442965,403.
8.24,6609.,24.,20.,3372.,0.,0.,10025.,0.832124385024,1.80293616755,312.
8.26,6609.,21.,18.,3380.,0.,0.,10028.,0.831875444741,2.05988205364,273.
8.28,6602.,25.,5.,3392.,0.,0.,10024.,0.831325955987,1.72915798845,325.
8.3,6603.,21.,10.,3393.,0.,0.,10027.,0.831203112407,2.05821723072,273.
8.32,6598.,23.,10.,3397.,0.,0.,10028.,0.830490873718,1.87763154058,299.
8.34,6595.,21.,7.,3403.,0.,0.,10026.,0.830278855552,2.0559285947,273.
8.36,6595.,18.,9.,3403.,0.,0.,10025.,0.830361676385,2.39882262067,234.
8.38,6592.,17.,7.,3406.,0.,0.,10022.,0.830232401705,2.53953440521,221.
8.4,6589.,14.,10.,3409.,0.,0.,10022.,0.829854565357,3.08231695704,182.
8.42,6594.,11.,4.,3415.,0.,0.,10024.,0.830318593423,3.92514244164,143.
8.44,6602.,9.,5.,3409.,0.,0.,10025.,0.831243030704,4.80273751074,117.
8.46,6612.,6.,3.,3407.,0.,0.,10028.,0.83225305502,7.21285981017,78.
8.48,6621.,3.,2.,3402.,0.,0.,10028.,0.833385885857,14.4453553549,39.
8.5,6625.,7.,1.,3393.,0.,0.,10026.,0.834055711604,6.19584242906,91.
8.52,6621.,4.,2.,3393.,0.,0.,10020.,0.83405126381,10.8426664295,52.
8.54,6627.,3.,2.,3388.,0.,0.,10020.,0.834807087338,14.4699895139,39.
8.56,6631.,5.,2.,3378.,0.,0.,10016.,0.835644560334,8.69070342747,65.
8.58,6633.,3.,1.,3378.,0.,0.,10015.,0.835980066589,14.4903211542,39.
8.6,6640.,2.,2.,3372.,0.,0.,10016.,0.836778748396,21.7562474583,26.
8.62,6644.,2.,0.,3371.,0.,0.,10017.,0.837199245793,21.7671803906,26.
8.64,6651.,1.,1.,3368.,0.,0.,10021.,0.83774677399,43.5628322475,13.
8.66,6659.,0.,0.,3359.,0.,0.,10018.,0.839005612348,inf,0.
8.68,6664.,1.,0.,3353.,0.,0.,10018.,0.839635591032,43.6610507337,13.
8.7,6668.,2.,0.,3347.,0.,0.,10017.,0.840223445356,21.8458095793,26.
8.72,6675.,0.,2.,3339.,0.,0.,10016.,0.841189479751,inf,0.
8.74,6674.,2.,0.,3337.,0.,0.,10013.,0.841315450304,21.8742017079,26.
8.76,6680.,1.,2.,3330.,0.,0.,10013.,0.842071802222,43.7877337155,13.
8.78,6686.,2.,0.,3325.,0.,0.,10013.,0.84282815414,21.9135320076,26.
8.8,6700.,1.,1.,3313.,0.,0.,10015.,0.844424309686,43.9100641037,13.
8.82,6713.,1.,1.,3300.,0.,0.,10015.,0.846062744914,43.9952627355,13.
8.84,6720.,5.,1.,3289.,0.,0.,10015.,0.846944979267,8.80822778438,65.
8.86,6726.,7.,2.,3282.,0.,0.,10017.,0.847531927634,6.29595146243,91.
8.88,6726.,9.,0.,3279.,0.,0.,10014.,0.847785831747,4.89831813898,117.
8.9,6731.,8.,3.,3272.,0.,0.,10014.,0.848416062071,5.51470440346,104.
8.92,6732.,9.,5.,3266.,0.,0.,10012.,0.848711613151,4.90366709821,117.
8.94,6726.,13.,8.,3262.,0.,0.,10009.,0.848209343502,3.39283737401,169.
8.96,6713.,23.,10.,3263.,0.,0.,10009.,0.846569926097,1.91398418074,299.
8.98,6706.,20.,11.,3274.,0.,0.,10011.,0.845518211294,2.19834734936,260.
9.,6708.,18.,10.,3275.,0.,0.,10011.,0.845770378968,2.44333665035,234.
9.02,6713.,15.,11.,3277.,0.,0.,10016.,0.845978273793,2.93272468248,195.
9.04,6704.,22.,6.,3283.,0.,0.,10015.,0.844928443602,1.99710359397,286.
9.06,6713.,18.,7.,3280.,0.,0.,10018.,0.845809382143,2.44344932619,234.
9.08,6713.,16.,11.,3279.,0.,0.,10019.,0.845724961604,2.74860612521,208.
9.1,6705.,19.,17.,3277.,0.,0.,10018.,0.844801416247,2.31208808657,247.
9.12,6690.,27.,15.,3286.,0.,0.,10018.,0.842911480193,1.62338507296,351.
9.14,6683.,23.,23.,3294.,0.,0.,10023.,0.841609461391,1.90276921706,299.
9.16,6679.,20.,13.,3312.,0.,0.,10024.,0.841021820666,2.18665673373,260.
9.18,6671.,23.,12.,3317.,0.,0.,10023.,0.840098266788,1.89935260317,299.
9.2,6663.,30.,14.,3316.,0.,0.,10023.,0.839090803719,1.45442405978,390.
9.22,6661.,26.,15.,3320.,0.,0.,10022.,0.838922637706,1.67784527541,338.
9.24,6652.,31.,9.,3330.,0.,0.,10022.,0.837789128662,1.40532369969,403.
9.26,6646.,29.,9.,3335.,0.,0.,10019.,0.837284089799,1.5013369886,377.
9.28,6641.,26.,13.,3339.,0.,0.,10019.,0.836654173992,1.67330834798,338.
9.3,6637.,26.,14.,3341.,0.,0.,10018.,0.836233706135,1.67246741227,338.
9.32,6633.,29.,11.,3345.,0.,0.,10018.,0.835729723187,1.49854984847,377.
9.34,6625.,25.,10.,3351.,0.,0.,10011.,0.835305420492,1.73743527462,325.
9.36,6635.,22.,5.,3357.,0.,0.,10019.,0.835898275025,1.97575955915,286.
9.38,6644.,14.,9.,3348.,0.,0.,10015.,0.837366434859,3.11021818662,182.
9.4,6647.,12.,8.,3351.,0.,0.,10018.,0.837493663504,3.62913920852,156.
9.42,6654.,11.,3.,3351.,0.,0.,10019.,0.838291955089,3.96283469678,143.
9.44,6662.,10.,6.,3342.,0.,0.,10020.,0.839216057922,4.36392350119,130.
9.46,6661.,7.,3.,3346.,0.,0.,10017.,0.83934138715,6.2351074474,91.
9.48,6664.,4.,4.,3341.,0.,0.,10013.,0.840054863773,10.9207132291,52.
9.5,6672.,4.,0.,3337.,0.,0.,10013.,0.841063332998,10.933823329,52.
9.52,6681.,2.,3.,3329.,0.,0.,10015.,0.842029673584,21.8927715132,26.
9.54,6677.,4.,4.,3326.,0.,0.,10011.,0.841861780019,10.9442031402,52.
9.56,6682.,2.,4.,3323.,0.,0.,10011.,0.842492199204,21.9047971793,26.
9.58,6690.,1.,1.,3318.,0.,0.,10010.,0.843585135722,43.8664270575,13.
9.6,6699.,1.,0.,3313.,0.,0.,10013.,0.844466916629,43.9122796647,13.
9.62,6706.,0.,1.,3307.,0.,0.,10014.,0.845264910451,inf,0.
9.64,6712.,0.,0.,3303.,0.,0.,10015.,0.845936711434,inf,0.
9.66,6718.,0.,0.,3296.,0.,0.,10014.,0.846777463229,inf,0.
9.68,6720.,1.,0.,3293.,0.,0.,10014.,0.847029555358,44.0455368786,13.
9.7,6727.,1.,1.,3288.,0.,0.,10017.,0.84765793595,44.0782126694,13.
9.72,6729.,2.,1.,3287.,0.,0.,10019.,0.847740692184,22.0412579968,26.
9.74,6741.,1.,1.,3276.,0.,0.,10019.,0.849252490119,44.1611294862,13.
9.76,6748.,2.,0.,3272.,0.,0.,10022.,0.849879891794,22.0968771866,26.
9.78,6752.,1.,0.,3264.,0.,0.,10017.,0.850808143828,44.2420234791,13.
9.8,6764.,0.,3.,3256.,0.,0.,10023.,0.851810024967,inf,0.
9.82,6765.,6.,2.,3248.,0.,0.,10021.,0.852105987978,7.38491856248,78.
9.84,6773.,7.,3.,3240.,0.,0.,10023.,0.852943420919,6.33615112683,91.
9.86,6776.,9.,2.,3238.,0.,0.,10025.,0.853150980923,4.92931677867,117.
9.88,6776.,5.,4.,3236.,0.,0.,10021.,0.85349152617,8.87631187217,65.
9.9,6774.,7.,3.,3237.,0.,0.,10021.,0.853239610135,6.33835138958,91.
9.92,6772.,10.,4.,3232.,0.,0.,10018.,0.853243130623,4.43686427924,130.
9.94,6778.,9.,5.,3227.,0.,0.,10019.,0.853913867086,4.93372456539,117.
9.96,6774.,9.,4.,3229.,0.,0.,10016.,0.853665548439,4.93228983543,117.
9.98,6776.,11.,6.,3221.,0.,0.,10014.,0.854088134986,4.03750754721,143.
10.,6785.,9.,2.,3213.,0.,0.,10009.,0.85564977634,4.9437542633,117.
