t,s,e,i,r,c,o,n,reff,coal,reportr
5.,5384.,27.,8.,4582.,0.,0.,10001.,0.818058473027,1.57552002213,351.
5.02,5386.,23.,8.,4584.,0.,0.,10001.,0.818362358046,1.85021054863,299.
5.04,5377.,21.,17.,4585.,0.,0.,10000.,0.817076574945,2.0232372332,273.
5.06,5373.,30.,9.,4590.,0.,0.,10002.,0.816305483032,1.41492950392,390.
5.08,5373.,25.,15.,4591.,0.,0.,10004.,0.816142287214,1.6975759574,325.
5.1,5365.,28.,11.,4601.,0.,0.,10005.,0.814845659666,1.51328479652,364.
5.12,5357.,30.,19.,4598.,0.,0.,10004.,0.813711936089,1.41043402255,390.
5.14,5349.,34.,15.,4609.,0.,0.,10007.,0.812253182003,1.24226957248,442.
5.16,5349.,33.,14.,4611.,0.,0.,10007.,0.812253182003,1.27991410497,429.
5.18,5338.,31.,21.,4618.,0.,0.,10008.,0.810501823027,1.35955144508,403.
5.2,5326.,30.,20.,4631.,0.,0.,10007.,0.808760599616,1.401851706,390.
5.22,5313.,35.,17.,4639.,0.,0.,10004.,0.807028470495,1.19901372759,455.
5.24,5304.,34.,13.,4652.,0.,0.,10003.,0.805741939964,1.2323112023,442.
5.26,5302.,41.,8.,4655.,0.,0.,10006.,0.80519662916,1.02122499308,533.
5.28,5303.,29.,16.,4660.,0.,0.,10008.,0.805187554798,1.44378458102,377.
5.3,5293.,31.,17.,4666.,0.,0.,10007.,0.803749503149,1.34822497302,403.
5.32,5302.,34.,9.,4664.,0.,0.,10009.,0.804955287379,1.23110808658,442.
5.34,5300.,28.,17.,4665.,0.,0.,10010.,0.804571260469,1.49420376944,364.
5.36,5301.,20.,12.,4674.,0.,0.,10007.,0.804964314413,2.09290721748,260.
5.38,5299.,22.,7.,4681.,0.,0.,10009.,0.804499824184,1.90154503898,286.
5.4,5300.,14.,9.,4682.,0.,0.,10005.,0.804973345057,2.98990099593,182.
5.42,5311.,8.,9.,4681.,0.,0.,10009.,0.806321676965,5.24109090027,104.
5.44,5303.,15.,7.,4681.,0.,0.,10006.,0.805348495744,2.79187478525,195.
5.46,5303.,17.,7.,4677.,0.,0.,10004.,0.805509501041,2.46391141495,221.
5.48,5306.,12.,7.,4678.,0.,0.,10003.,0.806045764225,3.49286497831,156.
5.5,5316.,9.,5.,4672.,0.,0.,10002.,0.80764562587,4.66639694947,117.
5.52,5325.,7.,5.,4666.,0.,0.,10003.,0.808932094704,6.00920984637,91.
5.54,5335.,7.,3.,4659.,0.,0.,10004.,0.810370203292,6.01989293874,91.
5.56,5344.,3.,5.,4652.,0.,0.,10004.,0.8117372758,14.0701127805,39.
5.58,5346.,3.,2.,4647.,0.,0.,9998.,0.812528391796,14.0838254578,39.
5.6,5357.,1.,2.,4638.,0.,0.,9998.,0.814200260915,42.3384135676,13.
5.62,5371.,1.,3.,4629.,0.,0.,10004.,0.815838493323,42.4236016528,13.
5.64,5385.,1.,0.,4621.,0.,0.,10007.,0.817719832695,42.5214313001,13.
5.66,5395.,1.,0.,4614.,0.,0.,10010.,0.818992820798,42.5876266815,13.
5.68,5401.,1.,0.,4604.,0.,0.,10006.,0.820231420991,42.6520338915,13.
5.7,5408.,1.,0.,4596.,0.,0.,10005.,0.821376575485,42.7115819252,13.
5.72,5409.,0.,1.,4589.,0.,0.,9999.,0.822021423619,inf,0.
5.74,5418.,1.,1.,4580.,0.,0.,10000.,0.823306840813,42.8119557223,13.
5.76,5429.,3.,1.,4568.,0.,0.,10001.,0.82489588597,14.2981953568,39.
5.78,5441.,3.,0.,4558.,0.,0.,10002.,0.826636540699,14.3283667055,39.
5.8,5456.,3.,0.,4546.,0.,0.,10005.,0.828666900119,14.3635596021,39.
5.82,5470.,4.,0.,4530.,0.,0.,10004.,0.83087629091,10.8013917818,52.
5.84,5483.,3.,1.,4517.,0.,0.,10004.,0.832850951199,14.4360831541,39.
5.86,5494.,3.,2.,4508.,0.,0.,10007.,0.83427163618,14.4607083604,39.
5.88,5501.,6.,0.,4498.,0.,0.,10005.,0.835501579464,7.24101368869,78.
5.9,5509.,5.,2.,4490.,0.,0.,10006.,0.836633012079,8.70098332562,65.
5.92,5512.,8.,5.,4482.,0.,0.,10007.,0.837004961526,5.44053224992,104.
5.94,5510.,12.,4.,4477.,0.,0.,10003.,0.837035838839,3.62715530163,156.
5.96,5518.,15.,6.,4463.,0.,0.,10002.,0.838334944234,2.90622780668,195.
5.98,5517.,18.,8.,4460.,0.,0.,10003.,0.838099223752,2.42117553528,234.
6.,5523.,15.,13.,4452.,0.,0.,10003.,0.839010696535,2.90857041465,195.
6.02,5523.,18.,9.,4453.,0.,0.,10003.,0.839010696535,2.42380867888,234.
6.04,5525.,19.,8.,4450.,0.,0.,10002.,0.839398435465,2.29730098127,247.
6.06,5525.,22.,9.,4448.,0.,0.,10004.,0.839230622903,1.98363601777,286.
6.08,5526.,22.,9.,4446.,0.,0.,10003.,0.839466432926,1.98419338692,286.
6.1,5540.,17.,15.,4431.,0.,0.,10003.,0.841593202753,2.57428509077,221.
6.12,5527.,23.,14.,4438.,0.,0.,10002.,0.839702290102,1.89845735154,299.
6.14,5529.,23.,15.,4437.,0.,0.,10004.,0.839838210684,1.89876465024,299.
6.16,5522.,28.,9.,4447.,0.,0.,10006.,0.838607277673,1.55741351568,364.
6.18,5530.,22.,10.,4441.,0.,0.,10003.,0.840074081448,1.98562964706,286.
6.2,5531.,27.,13.,4433.,0.,0.,10004.,0.840142004575,1.61805126807,351.
6.22,5537.,27.,6.,4434.,0.,0.,10004.,0.841053386247,1.61980652166,351.
6.24,5545.,22.,10.,4428.,0.,0.,10005.,0.842184377045,1.99061761847,286.
6.26,5544.,21.,14.,4424.,0.,0.,10003.,0.842200851274,2.08544972697,273.
6.28,5546.,25.,7.,4422.,0.,0.,10000.,0.842757426938,1.75293544803,325.
6.3,5553.,22.,8.,4416.,0.,0.,9999.,0.843905521419,1.9946857779,286.
6.32,5557.,21.,10.,4412.,0.,0.,10000.,0.844428961683,2.09096695274,273.
6.34,5557.,23.,13.,4411.,0.,0.,10004.,0.844091325153,1.9083803873,299.
6.36,5557.,20.,10.,4416.,0.,0.,10003.,0.84417570897,2.19485684332,260.
6.38,5552.,20.,3.,4429.,0.,0.,10004.,0.843331840426,2.19266278511,260.
6.4,5553.,15.,6.,4430.,0.,0.,10004.,0.843483737372,2.92407695622,195.
6.42,5563.,13.,5.,4422.,0.,0.,10003.,0.845087181753,3.38034872701,169.
6.44,5573.,11.,5.,4416.,0.,0.,10005.,0.846437066416,4.00133885942,143.
6.46,5577.,8.,10.,4408.,0.,0.,10003.,0.84721395158,5.50689068527,104.
6.48,5582.,5.,5.,4414.,0.,0.,10006.,0.847719272722,8.81628043631,65.
6.5,5581.,9.,0.,4414.,0.,0.,10004.,0.847736851841,4.89803514397,117.
6.52,5587.,5.,5.,4402.,0.,0.,9999.,0.849072600066,8.83035504069,65.
6.54,5593.,1.,2.,4401.,0.,0.,9997.,0.850154485376,44.2080332396,13.
6.56,5600.,2.,2.,4395.,0.,0.,9999.,0.851048247784,22.1272544424,26.
6.58,5606.,2.,2.,4388.,0.,0.,9998.,0.852045298244,22.1531777543,26.
6.6,5613.,3.,0.,4382.,0.,0.,9998.,0.853109214956,14.7872263926,39.
6.62,5626.,1.,1.,4366.,0.,0.,9994.,0.855427299646,44.4822195816,13.
6.64,5636.,0.,0.,4358.,0.,0.,9994.,0.85694778898,inf,0.
6.66,5642.,0.,0.,4352.,0.,0.,9994.,0.857860082581,inf,0.
6.68,5647.,1.,0.,4347.,0.,0.,9995.,0.858534422263,44.6437899577,13.
6.7,5657.,2.,0.,4334.,0.,0.,9993.,0.860226890917,22.3658991638,26.
6.72,5668.,4.,0.,4322.,0.,0.,9994.,0.861813354851,11.2035736131,52.
6.74,5680.,3.,2.,4313.,0.,0.,9998.,0.863292417771,14.9637352414,39.
6.76,5682.,2.,4.,4307.,0.,0.,9995.,0.863855602497,22.4602456649,26.
6.78,5681.,8.,1.,4303.,0.,0.,9993.,0.863876430493,5.6151967982,104.
6.8,5688.,5.,4.,4298.,0.,0.,9995.,0.864767804823,8.99358517016,65.
6.82,5694.,3.,3.,4293.,0.,0.,9993.,0.86585326443,15.0081232501,39.
6.84,5701.,6.,1.,4286.,0.,0.,9994.,0.866830969655,7.51253507035,78.
6.86,5712.,4.,5.,4274.,0.,0.,9995.,0.868416614126,11.2894159836,52.
6.88,5711.,9.,2.,4272.,0.,0.,9994.,0.86835145899,5.01714176305,117.
6.9,5715.,7.,6.,4265.,0.,0.,9993.,0.869046611559,6.45577482872,91.
6.92,5718.,10.,5.,4259.,0.,0.,9992.,0.869589823902,4.52186708429,130.
6.94,5722.,4.,12.,4251.,0.,0.,9989.,0.870459488297,11.3159733479,52.
6.96,5721.,18.,3.,4245.,0.,0.,9987.,0.870481651302,2.51472477043,234.
6.98,5717.,18.,3.,4244.,0.,0.,9982.,0.870308750089,2.51422527804,234.
7.,5719.,11.,7.,4241.,0.,0.,9978.,0.870962226646,4.11727598051,143.
7.02,5718.,9.,10.,4243.,0.,0.,9980.,0.870635422889,5.03033799891,117.
7.04,5706.,18.,9.,4245.,0.,0.,9978.,0.86898242092,2.51039366044,234.
7.06,5697.,23.,12.,4248.,0.,0.,9980.,0.867437916089,1.9611639842,299.
7.08,5690.,27.,17.,4245.,0.,0.,9979.,0.866458900018,1.66873565929,351.
7.1,5686.,29.,9.,4252.,0.,0.,9976.,0.86611016992,1.55302513227,377.
7.12,5683.,26.,11.,4259.,0.,0.,9979.,0.865392957611,1.73078591522,338.
7.14,5681.,25.,16.,4258.,0.,0.,9980.,0.865001720432,1.7992035785,325.
7.16,5671.,26.,12.,4270.,0.,0.,9979.,0.863565627769,1.72713125554,338.
7.18,5657.,34.,15.,4268.,0.,0.,9974.,0.861865582608,1.31814736164,442.
7.2,5647.,38.,19.,4269.,0.,0.,9973.,0.860428311493,1.17742821573,494.
7.22,5644.,36.,20.,4278.,0.,0.,9978.,0.859540270535,1.24155816855,468.
7.24,5646.,27.,13.,4296.,0.,0.,9982.,0.859500297884,1.65533390704,351.
7.26,5649.,30.,9.,4298.,0.,0.,9986.,0.859612528,1.48999504853,390.
7.28,5648.,25.,9.,4302.,0.,0.,9984.,0.859632524796,1.78803565158,325.
7.3,5653.,20.,12.,4302.,0.,0.,9987.,0.860135076877,2.23635119988,260.
7.32,5654.,19.,11.,4303.,0.,0.,9987.,0.860287232383,2.35447032021,247.
7.34,5659.,18.,9.,4305.,0.,0.,9991.,0.860703280454,2.48647614353,234.
7.36,5662.,19.,4.,4306.,0.,0.,9991.,0.861159564221,2.35685775471,247.
7.38,5662.,16.,14.,4298.,0.,0.,9990.,0.86124576638,2.79904874074,208.
7.4,5662.,16.,10.,4303.,0.,0.,9991.,0.861159564221,2.79876858372,208.
7.42,5656.,14.,9.,4308.,0.,0.,9987.,0.860591543395,3.19648287547,182.
7.44,5662.,14.,4.,4308.,0.,0.,9988.,0.861418222481,3.19955339779,182.
7.46,5666.,10.,11.,4299.,0.,0.,9986.,0.862199430633,4.48343703929,130.
7.48,5667.,12.,4.,4304.,0.,0.,9987.,0.862265253964,3.73648276718,156.
7.5,5674.,9.,2.,4298.,0.,0.,9983.,0.863676262709,4.99012951788,117.
7.52,5682.,4.,5.,4290.,0.,0.,9981.,0.865067302571,11.2458749334,52.
7.54,5691.,2.,3.,4285.,0.,0.,9981.,0.866437525331,22.5273756586,26.
7.56,5704.,1.,0.,4277.,0.,0.,9982.,0.868329737714,45.1531463611,13.
7.58,5715.,0.,2.,4266.,0.,0.,9983.,0.869917138066,inf,0.
7.6,5723.,1.,1.,4258.,0.,0.,9983.,0.871134869842,45.2990132318,13.
7.62,5738.,1.,1.,4246.,0.,0.,9986.,0.873155724139,45.4040976552,13.
7.64,5748.,1.,2.,4237.,0.,0.,9988.,0.874502285909,45.4741188673,13.
7.66,5763.,1.,1.,4227.,0.,0.,9992.,0.876433395444,45.5745365631,13.
7.68,5771.,1.,0.,4221.,0.,0.,9993.,0.877562203903,45.633234603,13.
7.7,5774.,2.,0.,4215.,0.,0.,9991.,0.878194158215,22.8330481136,26.
7.72,5793.,1.,3.,4195.,0.,0.,9992.,0.880995776472,45.8117803765,13.
7.74,5803.,2.,2.,4185.,0.,0.,9992.,0.882516570148,22.9454308238,26.
7.76,5814.,3.,0.,4175.,0.,0.,9992.,0.884189443191,15.3259503487,39.
7.78,5819.,1.,2.,4168.,0.,0.,9990.,0.885127007165,46.0266043726,13.
7.8,5832.,2.,1.,4159.,0.,0.,9994.,0.886749379939,23.0554838784,26.
7.82,5838.,2.,1.,4152.,0.,0.,9993.,0.887750501887,23.0815130491,26.
7.84,5850.,2.,3.,4138.,0.,0.,9993.,0.889575271675,23.1289570635,26.
7.86,5853.,6.,3.,4130.,0.,0.,9992.,0.890120538528,7.71437800057,78.
7.88,5859.,4.,4.,4128.,0.,0.,9995.,0.890765571107,11.5799524244,52.
7.9,5869.,3.,5.,4123.,0.,0.,10000.,0.891839765362,15.4585559329,39.
7.92,5865.,14.,3.,4114.,0.,0.,9996.,0.891588569974,3.31161468847,182.
7.94,5868.,10.,5.,4113.,0.,0.,9996.,0.892044625508,4.63863205264,130.
7.96,5872.,11.,3.,4109.,0.,0.,9995.,0.892742009479,4.2202349539,143.
7.98,5871.,12.,8.,4104.,0.,0.,9995.,0.892589975758,3.86788989495,156.
8.,5872.,14.,2.,4103.,0.,0.,9991.,0.89309942796,3.31722644671,182.
8.02,5876.,13.,5.,4095.,0.,0.,9989.,0.89388674471,3.57554697884,169.
8.04,5878.,18.,8.,4085.,0.,0.,9989.,0.894190994794,2.5832184294,234.
8.06,5871.,22.,12.,4080.,0.,0.,9985.,0.89348390663,2.11187105204,286.
8.08,5861.,25.,14.,4084.,0.,0.,9984.,0.892051385947,1.85546688277,325.
8.1,5869.,25.,18.,4078.,0.,0.,9990.,0.89273249786,1.85688359555,325.
8.12,5862.,31.,12.,4083.,0.,0.,9988.,0.891846276966,1.49600020652,403.
8.14,5856.,30.,19.,4085.,0.,0.,9990.,0.890755070279,1.54397545515,390.
8.16,5853.,29.,16.,4089.,0.,0.,9987.,0.890566178128,1.59687728492,377.
8.18,5845.,31.,12.,4097.,0.,0.,9985.,0.889527071071,1.49210992567,403.
8.2,5840.,28.,9.,4104.,0.,0.,9981.,0.88912232436,1.65122717381,364.
8.22,5833.,32.,15.,4098.,0.,0.,9978.,0.888323599935,1.44352584989,416.
8.24,5822.,30.,18.,4108.,0.,0.,9978.,0.886648379705,1.53685719149,390.
8.26,5814.,34.,19.,4109.,0.,0.,9976.,0.885607549756,1.35445860551,442.
8.28,5803.,28.,23.,4123.,0.,0.,9977.,0.883843396704,1.64142345102,364.
8.3,5806.,29.,10.,4133.,0.,0.,9978.,0.884211695735,1.58548304063,377.
8.32,5806.,14.,21.,4135.,0.,0.,9976.,0.884388963516,3.28487329306,182.
8.34,5805.,17.,8.,4146.,0.,0.,9976.,0.884236640237,2.70472384072,221.
8.36,5804.,12.,11.,4145.,0.,0.,9972.,0.884438943638,3.83256875576,156.
8.38,5804.,14.,9.,4145.,0.,0.,9972.,0.884438943638,3.28505893351,182.
8.4,5810.,20.,6.,4139.,0.,0.,9975.,0.885086978266,2.30122614349,260.
8.42,5815.,18.,6.,4135.,0.,0.,9974.,0.885937486807,2.55937496189,234.
8.44,5819.,12.,0.,4140.,0.,0.,9971.,0.886813639713,3.84285910542,156.
8.46,5828.,10.,4.,4129.,0.,0.,9971.,0.888185236681,4.61856323074,130.
8.48,5836.,10.,5.,4120.,0.,0.,9971.,0.889404433986,4.62490305673,130.
8.5,5845.,5.,8.,4116.,0.,0.,9974.,0.890508101528,9.26128425589,65.
8.52,5851.,2.,2.,4119.,0.,0.,9974.,0.891422224472,23.1769778363,26.
8.54,5858.,1.,0.,4114.,0.,0.,9973.,0.892578191735,46.4140659702,13.
8.56,5863.,3.,0.,4107.,0.,0.,9973.,0.893340037238,15.4845606455,39.
8.58,5873.,0.,0.,4102.,0.,0.,9975.,0.894684306946,inf,0.
8.6,5878.,0.,0.,4095.,0.,0.,9973.,0.895625573748,inf,0.
8.62,5888.,0.,0.,4084.,0.,0.,9972.,0.897239231589,inf,0.
8.64,5901.,0.,0.,4069.,0.,0.,9970.,0.899400613735,inf,0.
8.66,5901.,1.,0.,4064.,0.,0.,9966.,0.899761601338,46.7876032696,13.
8.68,5912.,1.,1.,4055.,0.,0.,9969.,0.901167566094,46.8607134369,13.
8.7,5926.,0.,1.,4043.,0.,0.,9970.,0.903210987458,inf,0.
8.72,5938.,1.,0.,4031.,0.,0.,9970.,0.905039966846,47.062078276,13.
8.74,5952.,1.,0.,4022.,0.,0.,9975.,0.906719052434,47.1493907266,13.
8.76,5961.,1.,1.,4015.,0.,0.,9978.,0.907817071697,47.2064877283,13.
8.78,5973.,0.,2.,4005.,0.,0.,9980.,0.909462291171,inf,0.
8.8,5980.,2.,2.,4001.,0.,0.,9985.,0.910072178786,23.6618766484,26.
8.82,5976.,3.,1.,4003.,0.,0.,9983.,0.909645637284,15.7671910463,39.
8.84,5979.,2.,3.,3993.,0.,0.,9977.,0.910649606909,23.6768897796,26.
8.86,5982.,4.,1.,3985.,0.,0.,9972.,0.911563363343,11.8503237235,52.
8.88,5989.,4.,3.,3976.,0.,0.,9972.,0.912630054006,11.8641907021,52.
8.9,5992.,6.,0.,3973.,0.,0.,9971.,0.913178781433,7.91421610575,78.
8.92,6007.,6.,1.,3958.,0.,0.,9972.,0.915372972852,7.93323243138,78.
8.94,6015.,7.,0.,3951.,0.,0.,9973.,0.91650014054,6.8082867583,91.
8.96,6018.,7.,3.,3943.,0.,0.,9971.,0.917141172674,6.81304871129,91.
8.98,6017.,9.,5.,3941.,0.,0.,9972.,0.916896816656,5.29762605179,117.
9.,6016.,15.,7.,3934.,0.,0.,9972.,0.916744432275,3.17804736522,195.
9.02,6014.,17.,12.,3931.,0.,0.,9974.,0.916255897791,2.80266509913,221.
9.04,6002.,20.,12.,3941.,0.,0.,9975.,0.914335979958,2.37727354789,260.
9.06,5995.,25.,10.,3944.,0.,0.,9974.,0.913361175134,1.89979124428,325.
9.08,5987.,24.,20.,3943.,0.,0.,9974.,0.912142344542,1.97630841317,312.
9.1,5980.,25.,18.,3947.,0.,0.,9970.,0.911441394702,1.89579810098,325.
9.12,5976.,29.,15.,3948.,0.,0.,9968.,0.911014486056,1.63354321638,377.
9.14,5971.,32.,12.,3950.,0.,0.,9965.,0.910526293207,1.47960522646,416.
9.16,5961.,31.,15.,3959.,0.,0.,9966.,0.908910168713,1.52462350881,403.
9.18,5966.,31.,17.,3950.,0.,0.,9964.,0.909855141168,1.5262086239,403.
9.2,5944.,42.,15.,3963.,0.,0.,9964.,0.906499993145,1.12233332485,546.
9.22,5946.,34.,18.,3963.,0.,0.,9961.,0.90707811322,1.38729593787,442.
9.24,5938.,28.,19.,3974.,0.,0.,9959.,0.906039609344,1.68264498878,364.
9.26,5936.,24.,18.,3983.,0.,0.,9961.,0.905552586625,1.96203060435,312.
9.28,5930.,29.,17.,3990.,0.,0.,9966.,0.904183408903,1.62129438838,377.
9.3,5925.,30.,10.,4002.,0.,0.,9967.,0.903330387069,1.56577267092,390.
9.32,5921.,23.,18.,4001.,0.,0.,9963.,0.903082972976,2.04175280847,299.
9.34,5915.,22.,9.,4014.,0.,0.,9960.,0.902439578063,2.13303900269,286.
9.36,5916.,20.,3.,4022.,0.,0.,9961.,0.902501533435,2.34650398693,260.
9.38,5920.,16.,8.,4019.,0.,0.,9963.,0.90293045094,2.93452396555,208.
9.4,5921.,13.,8.,4019.,0.,0.,9961.,0.903264296733,3.61305718693,169.
9.42,5927.,14.,5.,4014.,0.,0.,9960.,0.904270393775,3.35871860545,182.
9.44,5933.,12.,7.,4008.,0.,0.,9960.,0.905185801631,3.92247180707,156.
9.46,5934.,14.,4.,4008.,0.,0.,9960.,0.905338369607,3.36268537283,182.
9.48,5936.,9.,5.,4007.,0.,0.,9957.,0.905916371936,5.2341834823,117.
9.5,5934.,7.,2.,4009.,0.,0.,9952.,0.90606613357,6.73077699223,91.
9.52,5937.,4.,4.,4003.,0.,0.,9948.,0.906888710536,11.789553237,52.
9.54,5941.,4.,2.,3999.,0.,0.,9946.,0.907682203959,11.7998686515,52.
9.56,5946.,4.,1.,3990.,0.,0.,9941.,0.908903036493,11.8157394744,52.
9.58,5954.,4.,3.,3981.,0.,0.,9942.,0.910034369554,11.8304468042,52.
9.6,5966.,3.,2.,3969.,0.,0.,9940.,0.912051974507,15.8089008915,39.
9.62,5974.,2.,2.,3963.,0.,0.,9941.,0.91318310461,23.7427607199,26.
9.64,5983.,2.,0.,3958.,0.,0.,9943.,0.914374880448,23.7737468917,26.
9.66,5995.,1.,0.,3950.,0.,0.,9946.,0.915932471425,47.6284885141,13.
9.68,6000.,3.,0.,3940.,0.,0.,9943.,0.916972970531,15.8941981559,39.
9.7,6011.,1.,3.,3928.,0.,0.,9943.,0.918654087644,47.7700125575,13.
9.72,6022.,0.,2.,3924.,0.,0.,9948.,0.919872631775,inf,0.
9.74,6029.,1.,1.,3915.,0.,0.,9946.,0.921127084273,47.8986083822,13.
9.76,6037.,2.,1.,3904.,0.,0.,9944.,0.922534854838,23.9859062258,26.
9.78,6043.,1.,2.,3899.,0.,0.,9945.,0.923358879714,48.0146617451,13.
9.8,6049.,2.,1.,3890.,0.,0.,9942.,0.924554568598,24.0384187836,26.
9.82,6060.,4.,0.,3880.,0.,0.,9944.,0.926049564406,12.0386443373,52.
9.84,6066.,4.,4.,3869.,0.,0.,9943.,0.927059673207,12.0517757517,52.
9.86,6069.,5.,7.,3863.,0.,0.,9944.,0.927424885541,9.64521880963,65.
9.88,6063.,12.,5.,3861.,0.,0.,9941.,0.926787606838,4.01607962963,156.
9.9,6068.,12.,6.,3858.,0.,0.,9944.,0.927272072082,4.01817897902,156.
9.92,6077.,12.,4.,3854.,0.,0.,9947.,0.928367314582,4.02292502986,156.
9.94,6080.,12.,5.,3850.,0.,0.,9947.,0.928825616696,4.02491100568,156.
9.96,6082.,14.,5.,3848.,0.,0.,9949.,0.928944372636,3.45036481265,182.
9.98,6083.,16.,7.,3840.,0.,0.,9946.,0.929377351739,3.02047639315,208.
10.,6083.,11.,13.,3838.,0.,0.,9945.,0.929470803459,4.39386197999,143.
