t,s,e,i,r,c,o,n,reff,coal,reportr
5.,7407.,29.,15.,2549.,0.,0.,10000.,0.827720667025,1.48418878225,377.
5.02,7400.,28.,14.,2556.,0.,0.,9998.,0.827103848742,1.53605000481,364.
5.04,7395.,24.,16.,2566.,0.,0.,10001.,0.826297056085,1.79031028818,312.
5.06,7389.,23.,13.,2574.,0.,0.,9999.,0.825791774351,1.86700748984,299.
5.08,7371.,23.,19.,2580.,0.,0.,9993.,0.824274715623,1.86357761793,299.
5.1,7358.,26.,21.,2585.,0.,0.,9990.,0.823068061713,1.64613612343,338.
5.12,7343.,32.,19.,2594.,0.,0.,9988.,0.821554632667,1.33502627808,416.
5.14,7333.,28.,16.,2611.,0.,0.,9988.,0.820435805713,1.52366649632,364.
5.16,7321.,34.,18.,2612.,0.,0.,9985.,0.819339310477,1.25310718073,442.
5.18,7313.,28.,23.,2625.,0.,0.,9989.,0.818116241887,1.51935873493,364.
5.2,7296.,44.,15.,2637.,0.,0.,9992.,0.815969366099,0.964327432662,572.
5.22,7283.,42.,23.,2643.,0.,0.,9991.,0.814596998233,1.00854866448,546.
5.24,7267.,39.,16.,2664.,0.,0.,9986.,0.813214386096,1.08428584813,507.
5.26,7257.,27.,29.,2670.,0.,0.,9983.,0.812339378537,1.56450546978,351.
5.28,7254.,29.,11.,2691.,0.,0.,9985.,0.811840917661,1.45571474891,377.
5.3,7255.,25.,9.,2697.,0.,0.,9986.,0.811871524856,1.6886927717,325.
5.32,7260.,20.,10.,2696.,0.,0.,9986.,0.812431050373,2.11232073097,260.
5.34,7258.,24.,4.,2703.,0.,0.,9989.,0.81196330967,1.75925383762,312.
5.36,7264.,16.,5.,2703.,0.,0.,9988.,0.812715899727,2.64132667411,208.
5.38,7264.,5.,13.,2706.,0.,0.,9988.,0.812715899727,8.45224535716,65.
5.4,7263.,12.,1.,2711.,0.,0.,9987.,0.812685383209,3.52163666057,156.
5.42,7267.,8.,5.,2708.,0.,0.,9988.,0.813051547813,5.28483506078,104.
5.44,7268.,8.,2.,2708.,0.,0.,9986.,0.8133262912,5.2866208928,104.
5.46,7274.,8.,1.,2703.,0.,0.,9986.,0.81399772182,5.29098519183,104.
5.48,7277.,6.,3.,2698.,0.,0.,9984.,0.814496564821,7.05897022845,78.
5.5,7281.,4.,3.,2696.,0.,0.,9984.,0.814944274902,10.5942755737,52.
5.52,7291.,4.,0.,2691.,0.,0.,9986.,0.815900108577,10.6067014115,52.
5.54,7296.,1.,2.,2688.,0.,0.,9987.,0.816377881852,42.4516498563,13.
5.56,7296.,1.,0.,2686.,0.,0.,9983.,0.816704989087,42.4686594325,13.
5.58,7297.,3.,0.,2681.,0.,0.,9981.,0.816980602186,14.1609971046,39.
5.6,7302.,4.,0.,2678.,0.,0.,9984.,0.817294752828,10.6248317868,52.
5.62,7306.,2.,3.,2673.,0.,0.,9984.,0.817742462909,21.2613040356,26.
5.64,7311.,1.,0.,2675.,0.,0.,9987.,0.818056290326,42.538927097,13.
5.66,7316.,0.,1.,2670.,0.,0.,9987.,0.818615759818,inf,0.
5.68,7319.,0.,1.,2665.,0.,0.,9985.,0.819115477855,inf,0.
5.7,7323.,0.,0.,2661.,0.,0.,9984.,0.819645230753,inf,0.
5.72,7331.,0.,0.,2654.,0.,0.,9985.,0.820458473584,inf,0.
5.74,7341.,0.,0.,2646.,0.,0.,9987.,0.821413107275,inf,0.
5.76,7350.,0.,0.,2640.,0.,0.,9990.,0.822173179341,inf,0.
5.78,7361.,0.,0.,2628.,0.,0.,9989.,0.823486073641,inf,0.
5.8,7368.,0.,1.,2620.,0.,0.,9989.,0.824269174105,inf,0.
5.82,7370.,2.,0.,2620.,0.,0.,9992.,0.824245371182,21.4303796507,26.
5.84,7372.,1.,2.,2613.,0.,0.,9988.,0.824799230835,42.8895600034,13.
5.86,7375.,3.,0.,2612.,0.,0.,9990.,0.824969686753,14.2994745704,39.
5.88,7373.,8.,1.,2609.,0.,0.,9991.,0.82466341727,5.36031221225,104.
5.9,7373.,7.,3.,2605.,0.,0.,9988.,0.82491111353,6.12791112908,91.
5.92,7370.,12.,3.,2600.,0.,0.,9985.,0.8248232097,3.5742339087,156.
5.94,7367.,13.,4.,2602.,0.,0.,9986.,0.824404896432,3.29761958573,169.
5.96,7362.,15.,4.,2602.,0.,0.,9983.,0.824092945403,2.85685554406,195.
5.98,7354.,16.,6.,2602.,0.,0.,9978.,0.823609941778,2.67673231078,208.
6.,7352.,21.,7.,2601.,0.,0.,9981.,0.823138466119,2.03824763039,273.
6.02,7337.,26.,11.,2608.,0.,0.,9982.,0.821376754649,1.6427535093,338.
6.04,7334.,26.,16.,2612.,0.,0.,9988.,0.820547688408,1.64109537682,338.
6.06,7326.,25.,16.,2619.,0.,0.,9986.,0.819816787194,1.70521891736,325.
6.08,7317.,20.,24.,2628.,0.,0.,9989.,0.818563727867,2.12826569245,260.
6.1,7311.,28.,14.,2639.,0.,0.,9992.,0.817646934697,1.51848716444,364.
6.12,7306.,32.,15.,2640.,0.,0.,9993.,0.817005979153,1.32763471612,416.
6.14,7300.,32.,16.,2646.,0.,0.,9994.,0.816253336352,1.32641167157,416.
6.16,7302.,26.,15.,2654.,0.,0.,9997.,0.816231950808,1.63246390162,338.
6.18,7286.,27.,15.,2667.,0.,0.,9995.,0.814606409448,1.56887160338,351.
6.2,7264.,39.,17.,2670.,0.,0.,9990.,0.812553193841,1.08340425845,507.
6.22,7251.,36.,19.,2682.,0.,0.,9988.,0.811261424686,1.17182205788,468.
6.24,7237.,38.,13.,2699.,0.,0.,9987.,0.809776141854,1.10811472043,494.
6.26,7237.,25.,23.,2704.,0.,0.,9989.,0.809614008278,1.68399713722,325.
6.28,7218.,35.,9.,2723.,0.,0.,9985.,0.807811930477,1.20017772528,455.
6.3,7222.,26.,8.,2729.,0.,0.,9985.,0.80825959572,1.61651919144,338.
6.32,7222.,22.,12.,2726.,0.,0.,9982.,0.808502510846,1.91100593473,286.
6.34,7219.,22.,9.,2731.,0.,0.,9981.,0.808247631517,1.91040349268,286.
6.36,7219.,17.,11.,2732.,0.,0.,9979.,0.808409621222,2.4727823708,221.
6.38,7219.,11.,8.,2740.,0.,0.,9978.,0.808490640426,3.82195575474,143.
6.4,7213.,12.,5.,2747.,0.,0.,9977.,0.807899639571,3.50089843814,156.
6.42,7215.,6.,4.,2753.,0.,0.,9978.,0.808042661127,7.00303639643,78.
6.44,7216.,8.,1.,2753.,0.,0.,9978.,0.808154655952,5.25300526369,104.
6.46,7224.,9.,3.,2745.,0.,0.,9981.,0.808807437329,4.6731096379,117.
6.48,7225.,9.,0.,2748.,0.,0.,9982.,0.808838360684,4.67328830617,117.
6.5,7235.,4.,3.,2739.,0.,0.,9981.,0.810039010116,10.5305071315,52.
6.52,7242.,3.,1.,2734.,0.,0.,9980.,0.810903983016,14.055669039,39.
6.54,7245.,4.,0.,2731.,0.,0.,9980.,0.811239900159,10.5461187021,52.
6.56,7247.,2.,2.,2727.,0.,0.,9978.,0.811626495522,21.1022888836,26.
6.58,7253.,1.,1.,2723.,0.,0.,9978.,0.81229846447,42.2395201525,13.
6.6,7262.,1.,0.,2716.,0.,0.,9979.,0.813224916098,42.2876956371,13.
6.62,7267.,0.,1.,2713.,0.,0.,9981.,0.813621767314,inf,0.
6.64,7274.,0.,1.,2705.,0.,0.,9980.,0.814487099208,inf,0.
6.66,7276.,0.,0.,2703.,0.,0.,9979.,0.814792686523,inf,0.
6.68,7283.,0.,0.,2695.,0.,0.,9978.,0.815658309215,inf,0.
6.7,7287.,0.,0.,2691.,0.,0.,9978.,0.816106288515,inf,0.
6.72,7293.,0.,0.,2688.,0.,0.,9981.,0.816532757536,inf,0.
6.74,7299.,2.,0.,2679.,0.,0.,9980.,0.817286408732,21.249446627,26.
6.76,7309.,1.,2.,2671.,0.,0.,9983.,0.818160192604,42.5443300154,13.
6.78,7318.,1.,0.,2665.,0.,0.,9984.,0.819085593152,42.5924508439,13.
6.8,7327.,1.,0.,2657.,0.,0.,9985.,0.820010808341,42.6405620337,13.
6.82,7326.,1.,4.,2649.,0.,0.,9980.,0.820309663018,42.6561024769,13.
6.84,7321.,5.,4.,2647.,0.,0.,9977.,0.819996292985,8.52796144704,65.
6.86,7321.,9.,2.,2643.,0.,0.,9975.,0.820160703269,4.73870628556,117.
6.88,7324.,7.,5.,2640.,0.,0.,9976.,0.82041454172,6.0945080242,91.
6.9,7322.,11.,3.,2639.,0.,0.,9975.,0.820272731777,3.87765291385,143.
6.92,7327.,10.,2.,2635.,0.,0.,9974.,0.820915171574,4.26875889219,130.
6.94,7333.,6.,5.,2634.,0.,0.,9978.,0.821258050457,7.11756977062,78.
6.96,7332.,12.,8.,2626.,0.,0.,9978.,0.821146055632,3.5582995744,156.
6.98,7329.,16.,6.,2623.,0.,0.,9974.,0.821139251054,2.66870256592,208.
7.,7330.,13.,7.,2624.,0.,0.,9974.,0.821251290793,3.28500516317,169.
7.02,7330.,7.,12.,2626.,0.,0.,9975.,0.821168959837,6.10011227307,91.
7.04,7327.,10.,14.,2625.,0.,0.,9976.,0.820750593553,4.26790308648,130.
7.06,7313.,26.,8.,2629.,0.,0.,9976.,0.819182351665,1.63836470333,338.
7.08,7298.,20.,22.,2637.,0.,0.,9977.,0.817420153832,2.12529239996,260.
7.1,7286.,26.,17.,2649.,0.,0.,9978.,0.81599429369,1.63198858738,338.
7.12,7286.,22.,16.,2655.,0.,0.,9979.,0.815912522541,1.92852050782,286.
7.14,7283.,24.,16.,2657.,0.,0.,9980.,0.815494850636,1.76690550971,312.
7.16,7264.,31.,18.,2667.,0.,0.,9980.,0.813367375398,1.36435817809,403.
7.18,7255.,37.,12.,2676.,0.,0.,9980.,0.812359623969,1.14169460666,481.
7.2,7260.,22.,22.,2679.,0.,0.,9983.,0.812675194733,1.9208686421,286.
7.22,7241.,28.,15.,2699.,0.,0.,9983.,0.810548358824,1.50530409496,364.
7.24,7230.,34.,8.,2708.,0.,0.,9980.,0.809560314445,1.23815106915,442.
7.26,7228.,26.,14.,2711.,0.,0.,9979.,0.809417473638,1.61883494728,338.
7.28,7212.,26.,9.,2727.,0.,0.,9974.,0.808030601528,1.61606120306,338.
7.3,7208.,25.,9.,2733.,0.,0.,9975.,0.807501481924,1.6796030824,325.
7.32,7204.,17.,17.,2737.,0.,0.,9975.,0.807053367894,2.46863383121,221.
7.34,7199.,20.,9.,2749.,0.,0.,9977.,0.806331554869,2.09646204266,260.
7.36,7197.,13.,10.,2754.,0.,0.,9974.,0.806350005435,3.22540002174,169.
7.38,7199.,9.,11.,2756.,0.,0.,9975.,0.806493225357,4.65973863539,117.
7.4,7201.,9.,6.,2762.,0.,0.,9978.,0.806474733579,4.65963179401,117.
7.42,7199.,8.,7.,2760.,0.,0.,9974.,0.806574084914,5.24273155194,104.
7.44,7197.,10.,3.,2761.,0.,0.,9971.,0.806592614001,4.19428159281,130.
7.46,7207.,7.,2.,2756.,0.,0.,9972.,0.807632350364,5.9995546027,91.
7.48,7211.,8.,1.,2751.,0.,0.,9971.,0.80816164229,5.25305067489,104.
7.5,7213.,5.,2.,2751.,0.,0.,9971.,0.808385789189,8.40721220756,65.
7.52,7213.,2.,3.,2750.,0.,0.,9968.,0.808629083467,21.0243561701,26.
7.54,7216.,0.,1.,2749.,0.,0.,9966.,0.809127750059,inf,0.
7.56,7222.,0.,1.,2743.,0.,0.,9966.,0.809800528122,inf,0.
7.58,7238.,0.,0.,2736.,0.,0.,9974.,0.810943634756,inf,0.
7.6,7244.,1.,0.,2727.,0.,0.,9972.,0.811778652149,42.2124899117,13.
7.62,7252.,1.,1.,2720.,0.,0.,9974.,0.812512191109,42.2506339377,13.
7.64,7257.,0.,4.,2714.,0.,0.,9975.,0.81299087879,inf,0.
7.66,7255.,2.,1.,2718.,0.,0.,9976.,0.81268534956,21.1298190886,26.
7.68,7261.,2.,1.,2710.,0.,0.,9974.,0.813520548765,21.1515342679,26.
7.7,7274.,3.,0.,2700.,0.,0.,9977.,0.814732008629,14.1220214829,39.
7.72,7279.,0.,3.,2693.,0.,0.,9975.,0.815455505955,inf,0.
7.74,7282.,1.,1.,2692.,0.,0.,9976.,0.815709816057,42.416910435,13.
7.76,7284.,3.,1.,2687.,0.,0.,9975.,0.816015648492,14.1442712405,39.
7.78,7290.,2.,1.,2680.,0.,0.,9973.,0.816851599307,21.238141582,26.
7.8,7294.,0.,1.,2676.,0.,0.,9971.,0.817463738575,inf,0.
7.82,7297.,2.,1.,2672.,0.,0.,9972.,0.8177179493,21.2606666818,26.
7.84,7294.,5.,2.,2668.,0.,0.,9969.,0.817627739727,8.50332849316,65.
7.86,7290.,7.,3.,2667.,0.,0.,9967.,0.817343332987,6.07169333076,91.
7.88,7298.,4.,5.,2666.,0.,0.,9973.,0.817748007097,10.6307240923,52.
7.9,7299.,5.,4.,2662.,0.,0.,9970.,0.818106154378,8.50830400553,65.
7.92,7296.,9.,4.,2662.,0.,0.,9971.,0.817687885474,4.72441889385,117.
7.94,7296.,9.,5.,2664.,0.,0.,9974.,0.817441939649,4.72299787353,117.
7.96,7292.,11.,7.,2664.,0.,0.,9974.,0.816993780691,3.86215241781,143.
7.98,7290.,13.,5.,2661.,0.,0.,9969.,0.817179355992,3.26871742397,169.
8.,7291.,13.,11.,2654.,0.,0.,9969.,0.817291451926,3.2691658077,169.
8.02,7292.,18.,7.,2653.,0.,0.,9970.,0.817321561546,2.3611511778,234.
8.04,7288.,15.,12.,2653.,0.,0.,9968.,0.817037121906,2.83239535594,195.
8.06,7287.,16.,15.,2652.,0.,0.,9970.,0.816761138094,2.65447369881,208.
8.08,7270.,21.,9.,2666.,0.,0.,9966.,0.815182752623,2.0185477684,273.
8.1,7268.,17.,13.,2670.,0.,0.,9968.,0.814794978322,2.49231405134,221.
8.12,7261.,24.,8.,2676.,0.,0.,9969.,0.813928573918,1.76351191015,312.
8.14,7250.,24.,9.,2680.,0.,0.,9963.,0.813184946843,1.76190071816,312.
8.16,7235.,32.,9.,2685.,0.,0.,9961.,0.811665431178,1.31895632566,416.
8.18,7226.,33.,14.,2686.,0.,0.,9959.,0.810818556151,1.27765348242,429.
8.2,7217.,28.,15.,2696.,0.,0.,9956.,0.810052696007,1.5043835783,364.
8.22,7196.,40.,13.,2706.,0.,0.,9955.,0.807776742325,1.05010976502,520.
8.24,7194.,29.,21.,2714.,0.,0.,9958.,0.807308947692,1.44758845793,377.
8.26,7177.,29.,18.,2732.,0.,0.,9956.,0.805563003914,1.44445780012,377.
8.28,7172.,27.,10.,2748.,0.,0.,9957.,0.804920944577,1.55021811548,351.
8.3,7168.,22.,6.,2760.,0.,0.,9956.,0.804552823193,1.90167030936,286.
8.32,7174.,19.,6.,2759.,0.,0.,9958.,0.805064552508,2.20333456476,247.
8.34,7172.,16.,7.,2761.,0.,0.,9956.,0.805001792402,2.61625582531,208.
8.36,7171.,14.,6.,2765.,0.,0.,9956.,0.8048895501,2.98958975751,182.
8.38,7173.,12.,3.,2768.,0.,0.,9956.,0.805114034704,3.48882748372,156.
8.4,7180.,12.,6.,2760.,0.,0.,9958.,0.805737871064,3.49153077461,156.
8.42,7182.,15.,10.,2752.,0.,0.,9959.,0.805881382546,2.79372212616,195.
8.44,7181.,12.,14.,2754.,0.,0.,9961.,0.805607389259,3.49096535346,156.
8.46,7188.,7.,7.,2763.,0.,0.,9965.,0.806069000998,5.98794115027,91.
8.48,7193.,7.,4.,2760.,0.,0.,9964.,0.806710660052,5.99270776039,91.
8.5,7199.,5.,2.,2759.,0.,0.,9965.,0.807302551222,8.39594653271,65.
8.52,7209.,2.,2.,2753.,0.,0.,9966.,0.808342842319,21.0169139003,26.
8.54,7213.,0.,4.,2752.,0.,0.,9969.,0.808547969104,inf,0.
8.56,7213.,1.,1.,2753.,0.,0.,9968.,0.808629083467,42.0487123403,13.
8.58,7219.,1.,1.,2750.,0.,0.,9971.,0.809058229884,42.071027954,13.
8.6,7225.,0.,0.,2747.,0.,0.,9972.,0.809649470151,inf,0.
8.62,7231.,0.,0.,2742.,0.,0.,9973.,0.81024059185,inf,0.
8.64,7236.,0.,0.,2736.,0.,0.,9972.,0.810882154466,inf,0.
8.66,7245.,0.,0.,2727.,0.,0.,9972.,0.811890714359,inf,0.
8.68,7253.,0.,0.,2717.,0.,0.,9970.,0.812950258625,inf,0.
8.7,7256.,1.,0.,2710.,0.,0.,9967.,0.813531306469,42.3036279364,13.
8.72,7263.,1.,1.,2699.,0.,0.,9964.,0.814561312937,42.3571882727,13.
8.74,7268.,2.,0.,2696.,0.,0.,9966.,0.814958493269,21.188920825,26.
8.76,7273.,2.,0.,2691.,0.,0.,9966.,0.815519141655,21.203497683,26.
8.78,7284.,1.,0.,2683.,0.,0.,9968.,0.816588693189,42.4626120459,13.
8.8,7292.,1.,0.,2673.,0.,0.,9966.,0.81764960552,42.517779487,13.
8.82,7301.,1.,1.,2666.,0.,0.,9969.,0.818412411262,42.5574453856,13.
8.84,7300.,3.,2.,2664.,0.,0.,9969.,0.818300315328,14.1838721324,39.
8.86,7301.,6.,1.,2662.,0.,0.,9970.,0.818330323758,7.09219613924,78.
8.88,7303.,8.,1.,2658.,0.,0.,9970.,0.818554493139,5.3206042054,104.
8.9,7309.,6.,3.,2649.,0.,0.,9967.,0.819473583101,7.10210438687,78.
8.92,7314.,5.,7.,2642.,0.,0.,9968.,0.819951908565,8.52749984908,65.
8.94,7313.,10.,3.,2641.,0.,0.,9967.,0.819922056809,4.26359469541,130.
8.96,7312.,11.,7.,2636.,0.,0.,9966.,0.819892199062,3.87585403193,143.
8.98,7313.,14.,6.,2636.,0.,0.,9969.,0.819757562465,3.04481380344,182.
9.,7314.,11.,6.,2641.,0.,0.,9972.,0.819623006877,3.87458148705,143.
9.02,7312.,11.,12.,2639.,0.,0.,9974.,0.819234575481,3.87274526591,143.
9.04,7302.,16.,14.,2642.,0.,0.,9974.,0.818114178086,2.65887107878,208.
9.06,7295.,25.,10.,2644.,0.,0.,9974.,0.817329899909,1.70004619181,325.
9.08,7293.,22.,9.,2648.,0.,0.,9972.,0.817269700458,1.9317283829,286.
9.1,7295.,25.,14.,2641.,0.,0.,9975.,0.817247962075,1.69987576112,325.
9.12,7285.,27.,22.,2646.,0.,0.,9980.,0.815718795398,1.57101397632,351.
9.14,7272.,34.,14.,2661.,0.,0.,9981.,0.814181573126,1.24521887655,442.
9.16,7270.,29.,19.,2664.,0.,0.,9982.,0.813876108259,1.45936405619,377.
9.18,7259.,35.,10.,2678.,0.,0.,9982.,0.812644658852,1.20735777887,455.
9.2,7256.,31.,14.,2679.,0.,0.,9980.,0.81247159635,1.36285558097,403.
9.22,7243.,32.,14.,2689.,0.,0.,9978.,0.811178516222,1.31816508886,416.
9.24,7235.,29.,10.,2703.,0.,0.,9977.,0.810363772674,1.45306607514,377.
9.26,7235.,19.,12.,2705.,0.,0.,9971.,0.810851405072,2.21917226651,247.
9.28,7232.,23.,10.,2709.,0.,0.,9974.,0.810271396319,1.8319179395,299.
9.3,7234.,18.,13.,2710.,0.,0.,9975.,0.810414223118,2.34119664456,234.
9.32,7235.,12.,9.,2721.,0.,0.,9977.,0.810363772674,3.51157634825,156.
9.34,7230.,13.,13.,2723.,0.,0.,9979.,0.809641440842,3.23856576337,169.
9.36,7220.,17.,12.,2732.,0.,0.,9981.,0.80835959268,2.47262934231,221.
9.38,7215.,19.,10.,2735.,0.,0.,9979.,0.807961686815,2.21126356391,247.
9.4,7220.,8.,15.,2738.,0.,0.,9981.,0.80835959268,5.25433735242,104.
9.42,7215.,12.,7.,2747.,0.,0.,9981.,0.807799786868,3.50046574309,156.
9.44,7223.,12.,6.,2743.,0.,0.,9984.,0.808452478728,3.50329407449,156.
9.46,7227.,9.,9.,2741.,0.,0.,9986.,0.808738181962,4.67270949578,117.
9.48,7229.,4.,7.,2747.,0.,0.,9987.,0.808880990667,10.5154528787,52.
9.5,7229.,6.,3.,2751.,0.,0.,9989.,0.80871903632,7.00889831477,78.
9.52,7235.,4.,1.,2748.,0.,0.,9988.,0.809471301559,10.5231269203,52.
9.54,7246.,4.,2.,2739.,0.,0.,9991.,0.810458581519,10.5359615597,52.
9.56,7244.,4.,2.,2737.,0.,0.,9987.,0.810559399142,10.5372721888,52.
9.58,7246.,2.,2.,2736.,0.,0.,9986.,0.810864378926,21.0824738521,26.
9.6,7247.,3.,0.,2737.,0.,0.,9987.,0.810895080836,14.0555147345,39.
9.62,7255.,2.,0.,2730.,0.,0.,9987.,0.811790232023,21.1065460326,26.
9.64,7258.,2.,0.,2727.,0.,0.,9987.,0.812125913718,21.1152737567,26.
9.66,7263.,0.,0.,2722.,0.,0.,9985.,0.812848164457,inf,0.
9.68,7265.,1.,0.,2716.,0.,0.,9982.,0.813316358529,42.2924506435,13.
9.7,7270.,0.,2.,2709.,0.,0.,9981.,0.813957650801,inf,0.
9.72,7274.,0.,2.,2701.,0.,0.,9977.,0.814732008629,inf,0.
9.74,7277.,1.,1.,2698.,0.,0.,9977.,0.815068026779,42.3835373925,13.
9.76,7277.,3.,1.,2692.,0.,0.,9973.,0.815394936647,14.1335122352,39.
9.78,7284.,2.,3.,2686.,0.,0.,9975.,0.816015648492,21.2164068608,26.
9.8,7284.,3.,2.,2685.,0.,0.,9974.,0.816097462774,14.1456893548,39.
9.82,7288.,4.,0.,2682.,0.,0.,9974.,0.816545621733,10.6150930825,52.
9.84,7292.,3.,1.,2677.,0.,0.,9973.,0.817075701254,14.1626454884,39.
9.86,7299.,3.,0.,2672.,0.,0.,9974.,0.817778058867,14.174819687,39.
9.88,7297.,4.,3.,2667.,0.,0.,9971.,0.817799958923,10.631399466,52.
9.9,7300.,8.,2.,2662.,0.,0.,9972.,0.818054135931,5.31735188355,104.
9.92,7300.,7.,3.,2658.,0.,0.,9968.,0.818382408056,6.07941217413,91.
9.94,7301.,11.,2.,2658.,0.,0.,9972.,0.818166198142,3.86769475485,143.
9.96,7306.,8.,6.,2651.,0.,0.,9971.,0.818808619966,5.32225602978,104.
9.98,7303.,14.,4.,2650.,0.,0.,9971.,0.818472399618,3.04004034144,182.
10.,7302.,15.,4.,2653.,0.,0.,9974.,0.818114178086,2.8361291507,195.
