t,s,e,i,r,c,o,n,reff,coal,reportr
5.,8074.,7.,26.,1894.,0.,0.,10001.,0.900364216612,6.68841989483,91.
5.02,8055.,30.,13.,1902.,0.,0.,10000.,0.898335274732,1.5571144762,390.
5.04,8042.,32.,12.,1913.,0.,0.,9999.,0.896975144987,1.4575846106,416.
5.06,8031.,28.,15.,1925.,0.,0.,9999.,0.895748245386,1.66353245572,364.
5.08,8016.,28.,12.,1943.,0.,0.,9999.,0.894075200475,1.66042537231,364.
5.1,8002.,30.,21.,1947.,0.,0.,10000.,0.892424440522,1.54686903024,390.
5.12,7991.,30.,21.,1960.,0.,0.,10002.,0.891019459718,1.54443373018,390.
5.14,7967.,43.,20.,1973.,0.,0.,10003.,0.888254583065,1.07416833301,559.
5.16,7949.,36.,27.,1990.,0.,0.,10002.,0.886336339044,1.28026360084,468.
5.18,7930.,35.,26.,2013.,0.,0.,10004.,0.884041011605,1.3134323601,455.
5.2,7909.,34.,18.,2043.,0.,0.,10004.,0.881699919393,1.34848222966,442.
5.22,7896.,28.,25.,2053.,0.,0.,10002.,0.880426686765,1.63507813256,364.
5.24,7881.,34.,14.,2072.,0.,0.,10001.,0.878842010294,1.34411130986,442.
5.26,7870.,34.,14.,2084.,0.,0.,10002.,0.877527612061,1.34210105374,442.
5.28,7857.,39.,12.,2093.,0.,0.,10001.,0.876165673757,1.16822089834,507.
5.3,7853.,36.,14.,2100.,0.,0.,10003.,0.875544526272,1.26467542684,468.
5.32,7845.,27.,13.,2120.,0.,0.,10005.,0.874477749365,1.68417936915,351.
5.34,7847.,13.,16.,2127.,0.,0.,10003.,0.874875575914,3.49950230366,169.
5.36,7837.,25.,8.,2134.,0.,0.,10004.,0.873673317522,1.81724050045,325.
5.38,7840.,19.,8.,2140.,0.,0.,10007.,0.873745740352,2.39130413149,247.
5.4,7836.,20.,6.,2141.,0.,0.,10003.,0.873649166925,2.27148783401,260.
5.42,7835.,15.,6.,2146.,0.,0.,10002.,0.873625011499,3.02856670653,195.
5.44,7837.,10.,10.,2146.,0.,0.,10003.,0.873760658652,4.54355542499,130.
5.46,7834.,10.,6.,2153.,0.,0.,10003.,0.873426183473,4.54181615406,130.
5.48,7837.,7.,7.,2153.,0.,0.,10004.,0.873673317522,6.49014464445,91.
5.5,7841.,5.,4.,2156.,0.,0.,10006.,0.873944520832,9.08902301665,65.
5.52,7855.,1.,0.,2152.,0.,0.,10008.,0.875329975996,45.5171587518,13.
5.54,7861.,1.,0.,2148.,0.,0.,10010.,0.875823567452,45.5428255075,13.
5.56,7864.,1.,0.,2142.,0.,0.,10007.,0.876420472211,45.573864555,13.
5.58,7870.,1.,1.,2136.,0.,0.,10008.,0.877001516371,45.6040788513,13.
5.6,7877.,1.,0.,2133.,0.,0.,10011.,0.877518523424,45.6309632181,13.
5.62,7878.,1.,0.,2131.,0.,0.,10010.,0.877717601373,45.6413152714,13.
5.64,7887.,1.,1.,2121.,0.,0.,10010.,0.878720325213,45.6934569111,13.
5.66,7893.,0.,1.,2120.,0.,0.,10014.,0.879037544019,inf,0.
5.68,7899.,1.,2.,2112.,0.,0.,10014.,0.87970575956,45.7446994971,13.
5.7,7905.,1.,0.,2109.,0.,0.,10015.,0.880286069561,45.7748756172,13.
5.72,7904.,0.,0.,2109.,0.,0.,10013.,0.880350517819,inf,0.
5.74,7905.,0.,0.,2107.,0.,0.,10012.,0.880549838859,inf,0.
5.76,7912.,2.,0.,2101.,0.,0.,10015.,0.881065576517,22.9077049895,26.
5.78,7913.,2.,1.,2094.,0.,0.,10010.,0.881617082973,22.9220441573,26.
5.8,7912.,3.,3.,2093.,0.,0.,10011.,0.881417615505,15.2779053354,39.
5.82,7912.,1.,2.,2095.,0.,0.,10010.,0.881505669213,45.8382947991,13.
5.84,7915.,4.,2.,2089.,0.,0.,10010.,0.881839910493,11.4639188364,52.
5.86,7912.,5.,3.,2087.,0.,0.,10007.,0.881769935927,9.17040733364,65.
5.88,7914.,4.,6.,2083.,0.,0.,10007.,0.881992830249,11.4659067932,52.
5.9,7914.,6.,3.,2085.,0.,0.,10008.,0.881904701469,7.64317407939,78.
5.92,7906.,10.,8.,2087.,0.,0.,10011.,0.88074919972,4.57989583854,130.
5.94,7900.,13.,11.,2086.,0.,0.,10010.,0.880168704093,3.52067481637,169.
5.96,7897.,17.,9.,2088.,0.,0.,10011.,0.879746576042,2.69098952672,221.
5.98,7891.,24.,10.,2090.,0.,0.,10015.,0.87872705565,1.90390862057,312.
6.,7886.,21.,11.,2098.,0.,0.,10016.,0.878082588223,2.17429974227,273.
6.02,7878.,24.,9.,2102.,0.,0.,10013.,0.877454627958,1.90115169391,312.
6.04,7871.,26.,13.,2106.,0.,0.,10016.,0.876412382945,1.75282476589,338.
6.06,7862.,28.,15.,2112.,0.,0.,10017.,0.875322867319,1.62559961074,364.
6.08,7846.,26.,16.,2125.,0.,0.,10013.,0.873890455821,1.74778091164,338.
6.1,7838.,23.,18.,2136.,0.,0.,10015.,0.872825074411,1.9733436465,299.
6.12,7820.,34.,19.,2141.,0.,0.,10014.,0.870907588272,1.33197631147,442.
6.14,7810.,32.,22.,2150.,0.,0.,10014.,0.869793895703,1.41341508052,416.
6.16,7805.,27.,14.,2166.,0.,0.,10012.,0.869410688462,1.67442058519,351.
6.18,7804.,24.,13.,2175.,0.,0.,10016.,0.868952132703,1.88272962086,312.
6.2,7795.,30.,9.,2184.,0.,0.,10018.,0.867776731434,1.50414633449,390.
6.22,7788.,24.,18.,2191.,0.,0.,10021.,0.866737903737,1.87793212476,312.
6.24,7773.,33.,9.,2204.,0.,0.,10019.,0.865241217415,1.3634104032,429.
6.26,7772.,24.,17.,2208.,0.,0.,10021.,0.864957240349,1.87407402076,312.
6.28,7762.,32.,6.,2223.,0.,0.,10023.,0.863671953324,1.40346692415,416.
6.3,7760.,27.,12.,2226.,0.,0.,10025.,0.86327715558,1.66260785519,351.
6.32,7760.,25.,3.,2238.,0.,0.,10026.,0.863191051734,1.79543738761,325.
6.34,7753.,20.,9.,2240.,0.,0.,10022.,0.862756607716,2.24316718006,260.
6.36,7754.,15.,9.,2246.,0.,0.,10024.,0.86269572768,2.99067852262,195.
6.38,7753.,15.,2.,2255.,0.,0.,10025.,0.862498426187,2.98999454412,195.
6.4,7755.,12.,4.,2251.,0.,0.,10022.,0.862979168429,3.73957639653,156.
6.42,7756.,11.,1.,2251.,0.,0.,10019.,0.863348884893,4.08128563767,143.
6.44,7757.,13.,1.,2247.,0.,0.,10018.,0.863546389447,3.45418555779,169.
6.46,7770.,13.,1.,2237.,0.,0.,10021.,0.864734657426,3.4589386297,169.
6.48,7778.,10.,3.,2232.,0.,0.,10023.,0.865452261396,4.50035175926,130.
6.5,7774.,10.,0.,2236.,0.,0.,10020.,0.865266168565,4.49938407654,130.
6.52,7780.,3.,4.,2234.,0.,0.,10021.,0.865847572043,15.0080245821,39.
6.54,7781.,1.,1.,2234.,0.,0.,10017.,0.866304659197,45.0478422783,13.
6.56,7781.,1.,2.,2231.,0.,0.,10015.,0.866477660627,45.0568383526,13.
6.58,7784.,2.,1.,2222.,0.,0.,10009.,0.86733135442,22.5506152149,26.
6.6,7790.,4.,1.,2214.,0.,0.,10009.,0.867999903769,11.283998749,52.
6.62,7792.,5.,2.,2211.,0.,0.,10010.,0.868136018012,9.02861458732,65.
6.64,7797.,6.,1.,2208.,0.,0.,10012.,0.868519556431,7.52716948907,78.
6.66,7798.,4.,3.,2205.,0.,0.,10010.,0.868804500572,11.2944585074,52.
6.68,7803.,1.,0.,2206.,0.,0.,10010.,0.869361569372,45.2068016073,13.
6.7,7811.,1.,0.,2201.,0.,0.,10013.,0.869992142546,45.2395914124,13.
6.72,7814.,1.,0.,2197.,0.,0.,10012.,0.870413211998,45.2614870239,13.
6.74,7816.,1.,0.,2193.,0.,0.,10010.,0.870809948252,45.2821173091,13.
6.76,7822.,2.,0.,2186.,0.,0.,10010.,0.871478430812,22.6584392011,26.
6.78,7828.,1.,2.,2181.,0.,0.,10012.,0.871972693054,45.3425800388,13.
6.8,7836.,2.,2.,2177.,0.,0.,10017.,0.872428133848,22.68313148,26.
6.82,7835.,4.,2.,2173.,0.,0.,10014.,0.872578127124,11.3435156526,52.
6.84,7839.,6.,0.,2170.,0.,0.,10015.,0.872936432548,7.56544908208,78.
6.86,7838.,5.,2.,2166.,0.,0.,10011.,0.87317382082,9.08100773653,65.
6.88,7844.,5.,3.,2164.,0.,0.,10016.,0.873406013444,9.08342253982,65.
6.9,7845.,9.,1.,2161.,0.,0.,10016.,0.873517360463,5.04698919378,117.
6.92,7850.,2.,6.,2158.,0.,0.,10016.,0.874074095555,22.7259264844,26.
6.94,7845.,6.,4.,2157.,0.,0.,10012.,0.873866348621,7.57350835472,78.
6.96,7841.,15.,4.,2152.,0.,0.,10012.,0.873420782605,3.02785871303,195.
6.98,7831.,18.,13.,2146.,0.,0.,10008.,0.872655511398,2.5210048107,234.
7.,7833.,15.,16.,2144.,0.,0.,10008.,0.872878383447,3.02597839595,195.
7.02,7831.,19.,13.,2147.,0.,0.,10010.,0.872481154652,2.3878431601,247.
7.04,7819.,18.,13.,2155.,0.,0.,10005.,0.871579543949,2.5178964603,234.
7.06,7811.,27.,7.,2161.,0.,0.,10006.,0.870600771868,1.67671259767,351.
7.08,7809.,19.,12.,2167.,0.,0.,10007.,0.870290878369,2.38184871975,247.
7.1,7801.,20.,14.,2175.,0.,0.,10010.,0.869138741852,2.25976072881,260.
7.12,7788.,29.,10.,2184.,0.,0.,10011.,0.867603689276,1.55570316698,377.
7.14,7783.,26.,11.,2189.,0.,0.,10009.,0.867219929529,1.73443985906,338.
7.16,7772.,31.,10.,2196.,0.,0.,10009.,0.865994255724,1.45263552573,403.
7.18,7770.,24.,12.,2203.,0.,0.,10009.,0.865771405941,1.87583804621,312.
7.2,7762.,32.,11.,2204.,0.,0.,10009.,0.86488000681,1.40543001107,416.
7.22,7748.,35.,8.,2215.,0.,0.,10006.,0.863578899044,1.28303150715,455.
7.24,7735.,27.,19.,2222.,0.,0.,10003.,0.862388502574,1.66089637533,351.
7.26,7720.,28.,13.,2242.,0.,0.,10003.,0.86071612668,1.59847280669,364.
7.28,7709.,30.,11.,2255.,0.,0.,10005.,0.859317905654,1.4894843698,390.
7.3,7707.,26.,17.,2255.,0.,0.,10005.,0.859094966776,1.71818993355,338.
7.32,7698.,27.,15.,2265.,0.,0.,10005.,0.858091741824,1.6526211324,351.
7.34,7689.,22.,17.,2275.,0.,0.,10003.,0.857259883166,2.02625063294,286.
7.36,7678.,22.,15.,2287.,0.,0.,10002.,0.856119060408,2.02355414278,286.
7.38,7677.,15.,10.,2303.,0.,0.,10005.,0.855750883604,2.96660306316,195.
7.4,7678.,13.,6.,2309.,0.,0.,10006.,0.855776818129,3.42310727251,169.
7.42,7679.,13.,4.,2311.,0.,0.,10007.,0.85580274747,3.42321098988,169.
7.44,7684.,8.,9.,2305.,0.,0.,10006.,0.856445567921,5.56689619149,104.
7.46,7687.,14.,1.,2306.,0.,0.,10008.,0.856608723805,3.18168954556,182.
7.48,7689.,6.,5.,2309.,0.,0.,10009.,0.85674598974,7.42513191108,78.
7.5,7696.,4.,3.,2306.,0.,0.,10009.,0.85752596398,11.1478375317,52.
7.52,7695.,4.,1.,2307.,0.,0.,10007.,0.857585902042,11.1486167265,52.
7.54,7693.,2.,0.,2309.,0.,0.,10004.,0.857620113781,22.2981229583,26.
7.56,7694.,2.,0.,2305.,0.,0.,10001.,0.857988888111,22.3077110909,26.
7.58,7699.,3.,0.,2301.,0.,0.,10003.,0.858374800429,14.8784965408,39.
7.6,7709.,1.,2.,2297.,0.,0.,10009.,0.858974487568,44.6666733535,13.
7.62,7714.,2.,0.,2295.,0.,0.,10011.,0.859359894591,22.3433572594,26.
7.64,7718.,2.,0.,2288.,0.,0.,10008.,0.860063240578,22.361644255,26.
7.66,7725.,1.,1.,2283.,0.,0.,10010.,0.860671296091,44.7549073967,13.
7.68,7732.,2.,1.,2278.,0.,0.,10013.,0.861193092583,22.3910204072,26.
7.7,7739.,2.,2.,2273.,0.,0.,10016.,0.861714576497,22.4045789889,26.
7.72,7750.,3.,1.,2266.,0.,0.,10020.,0.862594906917,14.9516450532,39.
7.74,7758.,1.,4.,2258.,0.,0.,10021.,0.863399159886,44.8967563141,13.
7.76,7759.,1.,3.,2254.,0.,0.,10017.,0.863855269337,44.9204740055,13.
7.78,7764.,1.,0.,2254.,0.,0.,10019.,0.864239394315,44.9404485044,13.
7.8,7767.,4.,1.,2249.,0.,0.,10021.,0.864400783041,11.2372101795,52.
7.82,7768.,2.,5.,2243.,0.,0.,10018.,0.864770962127,22.4840450153,26.
7.84,7767.,7.,1.,2242.,0.,0.,10017.,0.864745956559,6.42382710587,91.
7.86,7769.,5.,2.,2240.,0.,0.,10016.,0.865054987054,8.99657186536,65.
7.88,7774.,5.,2.,2234.,0.,0.,10015.,0.865698153671,9.00326079818,65.
7.9,7772.,9.,4.,2229.,0.,0.,10014.,0.865561863945,5.00102410279,117.
7.92,7774.,9.,4.,2226.,0.,0.,10013.,0.865871068513,5.00281061807,117.
7.94,7771.,11.,5.,2224.,0.,0.,10011.,0.865709844551,4.09244653788,143.
7.96,7762.,11.,9.,2226.,0.,0.,10008.,0.864966425676,4.0889321941,143.
7.98,7755.,16.,8.,2228.,0.,0.,10007.,0.864272731688,2.80888637799,208.
8.,7752.,14.,4.,2233.,0.,0.,10003.,0.86428386192,3.21019720142,182.
8.02,7750.,13.,11.,2231.,0.,0.,10005.,0.863888152655,3.45555261062,169.
8.04,7737.,22.,13.,2232.,0.,0.,10004.,0.862525259368,2.0386960676,286.
8.06,7727.,26.,10.,2238.,0.,0.,10001.,0.861668850849,1.7233377017,338.
8.08,7713.,29.,19.,2241.,0.,0.,10002.,0.860021660969,1.54210780588,377.
8.1,7685.,40.,19.,2255.,0.,0.,9999.,0.857156676104,1.11430367893,520.
8.12,7675.,29.,21.,2275.,0.,0.,10000.,0.855955708698,1.53481713284,377.
8.14,7667.,24.,19.,2290.,0.,0.,10000.,0.855063507308,1.85263759917,312.
8.16,7655.,23.,19.,2303.,0.,0.,10000.,0.853725205223,1.93016133355,299.
8.18,7642.,28.,19.,2312.,0.,0.,10001.,0.852190158948,1.58263886662,364.
8.2,7623.,38.,9.,2331.,0.,0.,10001.,0.850071392523,1.16325558977,494.
8.22,7608.,36.,20.,2334.,0.,0.,9998.,0.848653252706,1.22583247613,468.
8.24,7598.,32.,23.,2348.,0.,0.,10001.,0.847283541964,1.37683575569,416.
8.26,7581.,32.,13.,2375.,0.,0.,10001.,0.845387803583,1.37375518082,416.
8.28,7583.,23.,17.,2381.,0.,0.,10004.,0.845357249811,1.91124247783,299.
8.3,7570.,23.,11.,2399.,0.,0.,10003.,0.843992367742,1.9081566575,299.
8.32,7572.,16.,12.,2406.,0.,0.,10006.,0.843962238457,2.74287727498,208.
8.34,7565.,15.,14.,2412.,0.,0.,10006.,0.843182030365,2.9230310386,195.
8.36,7560.,17.,11.,2417.,0.,0.,10005.,0.842708959235,2.57769799295,221.
8.38,7546.,19.,17.,2423.,0.,0.,10005.,0.841148387088,2.30209032256,247.
8.4,7536.,26.,2.,2445.,0.,0.,10009.,0.839697981361,1.67939596272,338.
8.42,7534.,18.,7.,2449.,0.,0.,10008.,0.839559011987,2.4253927013,234.
8.44,7540.,12.,8.,2454.,0.,0.,10014.,0.839724196364,3.63880485091,156.
8.46,7547.,7.,1.,2458.,0.,0.,10013.,0.840587722416,6.24436593795,91.
8.48,7547.,4.,2.,2457.,0.,0.,10010.,0.840839646809,10.9309154085,52.
8.5,7550.,2.,1.,2456.,0.,0.,10009.,0.84125792984,21.8727061758,26.
8.52,7555.,5.,1.,2447.,0.,0.,10008.,0.841899168511,8.75575135251,65.
8.54,7560.,1.,3.,2442.,0.,0.,10006.,0.842624738871,43.8164864213,13.
8.56,7568.,0.,0.,2436.,0.,0.,10004.,0.843685041088,inf,0.
8.58,7571.,0.,0.,2433.,0.,0.,10004.,0.844019482833,inf,0.
8.6,7577.,0.,0.,2428.,0.,0.,10005.,0.844603939699,inf,0.
8.62,7582.,0.,0.,2422.,0.,0.,10004.,0.84524576923,inf,0.
8.64,7585.,0.,0.,2417.,0.,0.,10002.,0.8457492932,inf,0.
8.66,7592.,0.,0.,2411.,0.,0.,10003.,0.84644518572,inf,0.
8.68,7596.,1.,0.,2404.,0.,0.,10001.,0.847060513919,44.0471467238,13.
8.7,7600.,1.,0.,2400.,0.,0.,10001.,0.847506570008,44.0703416404,13.
8.72,7607.,1.,0.,2393.,0.,0.,10001.,0.848287168165,44.1109327446,13.
8.74,7617.,0.,2.,2386.,0.,0.,10005.,0.849062717261,inf,0.
8.76,7625.,1.,1.,2383.,0.,0.,10010.,0.84952992009,44.1755558447,13.
8.78,7629.,2.,0.,2380.,0.,0.,10011.,0.849890670967,22.0971574451,26.
8.8,7639.,1.,2.,2370.,0.,0.,10012.,0.850919698804,44.2478243378,13.
8.82,7636.,8.,0.,2369.,0.,0.,10013.,0.850500576172,5.52825374512,104.
8.84,7640.,4.,4.,2363.,0.,0.,10011.,0.851116099906,11.0645092988,52.
8.86,7638.,8.,4.,2363.,0.,0.,10013.,0.850723336931,5.52970169005,104.
8.88,7642.,10.,1.,2364.,0.,0.,10017.,0.850828968717,4.42431063733,130.
8.9,7651.,10.,0.,2357.,0.,0.,10018.,0.851745961797,4.42907900134,130.
8.92,7649.,11.,3.,2357.,0.,0.,10020.,0.851353347485,4.02457946084,143.
8.94,7651.,10.,3.,2355.,0.,0.,10019.,0.851660948725,4.42863693337,130.
8.96,7648.,12.,6.,2352.,0.,0.,10018.,0.851411987429,3.68945194553,156.
8.98,7641.,16.,4.,2358.,0.,0.,10019.,0.850547811947,2.76428038883,208.
9.,7644.,15.,5.,2353.,0.,0.,10017.,0.851051640522,2.95031235381,195.
9.02,7638.,16.,9.,2352.,0.,0.,10015.,0.850553447098,2.76429870307,208.
9.04,7622.,19.,14.,2360.,0.,0.,10015.,0.848771716913,2.3229541726,247.
9.06,7614.,22.,9.,2367.,0.,0.,10012.,0.848134911205,2.00468251739,286.
9.08,7606.,28.,10.,2366.,0.,0.,10010.,0.847413058649,1.57376710892,364.
9.1,7592.,35.,10.,2370.,0.,0.,10007.,0.846106844484,1.25707302609,455.
9.12,7587.,30.,13.,2377.,0.,0.,10007.,0.84554960868,1.46561932171,390.
9.14,7577.,27.,18.,2386.,0.,0.,10008.,0.84435076106,1.6261570213,351.
9.16,7560.,31.,15.,2400.,0.,0.,10006.,0.842624738871,1.41343504585,403.
9.18,7558.,23.,15.,2411.,0.,0.,10007.,0.842317641018,1.90437031882,299.
9.2,7545.,31.,9.,2423.,0.,0.,10008.,0.840784808261,1.41034871063,403.
9.22,7547.,21.,17.,2424.,0.,0.,10009.,0.840923655166,2.08228714612,273.
9.24,7536.,23.,17.,2434.,0.,0.,10010.,0.839614095449,1.89825795493,299.
9.26,7529.,22.,12.,2446.,0.,0.,10009.,0.838918007121,1.98289710774,286.
9.28,7523.,19.,16.,2450.,0.,0.,10008.,0.838333215712,2.294385643,247.
9.3,7513.,18.,15.,2461.,0.,0.,10007.,0.837302518784,2.41887394315,234.
9.32,7504.,22.,10.,2472.,0.,0.,10008.,0.836215931238,1.97651038293,286.
9.34,7503.,14.,15.,2474.,0.,0.,10006.,0.83627161584,3.10615171598,182.
9.36,7501.,16.,12.,2480.,0.,0.,10009.,0.835798110163,2.71634385803,208.
9.38,7494.,17.,5.,2490.,0.,0.,10006.,0.835268491151,2.55493891411,221.
9.4,7496.,6.,14.,2487.,0.,0.,10003.,0.835741979999,7.24309715999,78.
9.42,7499.,7.,8.,2488.,0.,0.,10002.,0.836160046105,6.21147462821,91.
9.44,7496.,8.,6.,2491.,0.,0.,10001.,0.835909111682,5.43340922593,104.
9.46,7496.,10.,0.,2493.,0.,0.,9999.,0.836076310224,4.34759681317,130.
9.48,7503.,9.,1.,2487.,0.,0.,10000.,0.83677337881,4.83469063312,117.
9.5,7502.,5.,3.,2488.,0.,0.,9998.,0.83682921948,8.70302388259,65.
9.52,7506.,4.,4.,2485.,0.,0.,9999.,0.837191673498,10.8834917555,52.
9.54,7511.,2.,0.,2486.,0.,0.,9999.,0.837749355135,21.7814832335,26.
9.56,7514.,1.,1.,2485.,0.,0.,10001.,0.837916364085,43.5716509324,13.
9.58,7520.,1.,0.,2482.,0.,0.,10003.,0.838417781429,43.5977246343,13.
9.6,7525.,3.,0.,2480.,0.,0.,10008.,0.838556087762,14.5349721879,39.
9.62,7535.,1.,1.,2472.,0.,0.,10009.,0.839586556469,43.6585009364,13.
9.64,7538.,2.,1.,2470.,0.,0.,10011.,0.839753031557,21.8335788205,26.
9.66,7538.,1.,1.,2469.,0.,0.,10009.,0.839920831144,43.6758832195,13.
9.68,7537.,2.,2.,2465.,0.,0.,10006.,0.840061197999,21.841591148,26.
9.7,7538.,3.,3.,2457.,0.,0.,10001.,0.840592700622,14.5702734774,39.
9.72,7544.,3.,0.,2456.,0.,0.,10003.,0.841093582859,14.5789554362,39.
9.74,7553.,1.,2.,2450.,0.,0.,10006.,0.84184453078,43.7759156005,13.
9.76,7560.,2.,0.,2444.,0.,0.,10006.,0.842624738871,21.9082432107,26.
9.78,7565.,0.,2.,2436.,0.,0.,10003.,0.843434909111,inf,0.
9.8,7568.,0.,2.,2430.,0.,0.,10000.,0.844022515105,inf,0.
9.82,7572.,4.,1.,2425.,0.,0.,10002.,0.844299755849,10.975896826,52.
9.84,7585.,2.,2.,2416.,0.,0.,10005.,0.845495695211,21.9828880755,26.
9.86,7583.,6.,1.,2413.,0.,0.,10003.,0.845441760183,7.32716192159,78.
9.88,7584.,5.,0.,2411.,0.,0.,10000.,0.845806917885,8.796391946,65.
9.9,7591.,7.,1.,2402.,0.,0.,10001.,0.846502943807,6.28830758257,91.
9.92,7592.,8.,4.,2394.,0.,0.,9998.,0.846868492974,5.50464520433,104.
9.94,7593.,8.,5.,2393.,0.,0.,9999.,0.846895333982,5.50481967089,104.
9.96,7594.,12.,4.,2390.,0.,0.,10000.,0.846922169623,3.66999606837,156.
9.98,7599.,13.,5.,2388.,0.,0.,10005.,0.847056267358,3.38822506943,169.
10.,7595.,10.,9.,2388.,0.,0.,10002.,0.846864321932,4.40369447405,130.
