t,neff
5.,0.779627857808
5.02,0.756705533011
5.04,0.568242484537
5.06,0.711431282978
5.08,0.47491223611
5.1,0.78608495284
5.12,0.739059065575
5.14,0.548945279738
5.16,0.765517663737
5.18,0.718658042423
5.2,0.935420329448
5.22,0.984600663162
5.24,0.768847818292
5.26,0.55332198652
5.28,0.626163121852
5.3,0.698891053517
5.32,0.579002156058
5.34,0.749255481673
5.36,0.62816578669
5.38,0.241640082897
5.4,0.387187771812
5.42,0.290378290975
5.44,0.242013032221
5.46,0.145193279649
5.48,0.217780511609
5.5,0.169261539753
5.52,0.144988151718
5.54,0.096651822496
5.56,0.0966324611534
5.58,0.0482645114875
5.6,0.0241284801112
5.62,0.0241092418606
5.64,0.
5.66,0.
5.68,0.
5.7,0.
5.72,0.
5.74,0.
5.76,0.
5.78,0.
5.8,0.
5.82,0.023946775518
5.84,0.0478778714052
5.86,0.0957653298892
5.88,0.143717222376
5.9,0.239626705583
5.92,0.311452345707
5.94,0.335752212049
5.96,0.383978896997
5.98,0.432196683288
6.,0.552981497586
6.02,0.626229070407
6.04,0.409609941368
6.06,0.40991307036
6.08,0.506687463787
6.1,0.652160252718
6.12,0.798575518667
6.14,0.848039132885
6.16,0.630232759472
6.18,0.631549957456
6.2,0.95079376324
6.22,0.853582374556
6.24,0.806080779458
6.26,0.488441630544
6.28,0.685299126737
6.3,0.783934701584
6.32,0.538798956277
6.34,0.539041320214
6.36,0.441161727794
6.38,0.343273291608
6.4,0.417106903145
6.42,0.196165823017
6.44,0.17162795805
6.46,0.196069807233
6.48,0.195981685097
6.5,0.0734725944674
6.52,0.0734462111417
6.54,0.0489577924998
6.56,0.0244564419786
6.58,0.0244413316594
6.6,0.
6.62,0.0243970939551
6.64,0.0487941879102
6.66,0.0243890692515
6.68,0.0243680261781
6.7,0.
6.72,0.
6.74,0.024343591556
6.76,0.
6.78,0.0243028360261
6.8,0.0242962593658
6.82,0.0242997748013
6.84,0.145844696843
6.86,0.218814311554
6.88,0.21870430589
6.9,0.218732500334
6.92,0.194509759494
6.94,0.218939204369
6.96,0.414091023666
6.98,0.463014084946
7.,0.560385505698
7.02,0.390023441301
7.04,0.341388808524
7.06,0.659423036482
7.08,0.366835716031
7.1,0.612877357202
7.12,0.736454126437
7.14,0.712418661809
7.16,0.837346371334
7.18,0.88733094671
7.2,0.666127740495
7.22,0.717180568982
7.24,0.891840628976
7.26,0.619535462809
7.28,0.670620294836
7.3,0.671061957307
7.32,0.622071208275
7.34,0.523057967652
7.36,0.523472435139
7.38,0.324064815181
7.4,0.373906573558
7.42,0.249131312521
7.44,0.224174146885
7.46,0.174093681976
7.48,0.174030422731
7.5,0.124181051947
7.52,0.0744768658773
7.54,0.
7.56,0.
7.58,0.
7.6,0.024749344751
7.62,0.024730671659
7.64,0.
7.66,0.0247041859076
7.68,0.0493810152431
7.7,0.0493438531786
7.72,0.0246414520582
7.74,0.0246261507661
7.76,0.0492334467648
7.78,0.0737931254737
7.8,0.147552354174
7.82,0.172092955128
7.84,0.0983388315014
7.86,0.270607757339
7.88,0.1721720445
7.9,0.221357320091
7.92,0.295317148555
7.94,0.246152194854
7.96,0.344758269903
7.98,0.443760656487
8.,0.542428227075
8.02,0.418962484374
8.04,0.419058867633
8.06,0.444158965644
8.08,0.568366258804
8.1,0.568964872426
8.12,0.594614165465
8.14,0.620137778408
8.16,0.795292194459
8.18,0.870996433421
8.2,0.722253484911
8.22,0.972394369775
8.24,0.62365896215
8.26,0.574391648807
8.28,0.44962817806
8.3,0.399603677612
8.32,0.374541579727
8.34,0.474764961878
8.36,0.274827582058
8.38,0.299682599378
8.4,0.274681649765
8.42,0.199749030074
8.44,0.199703222128
8.46,0.124711650731
8.48,0.0996939102907
8.5,0.124588948542
8.52,0.0996417041454
8.54,0.
8.56,0.0497682287094
8.58,0.0497519555066
8.6,0.
8.62,0.
8.64,0.
8.66,0.
8.68,0.0495613270144
8.7,0.0495254955143
8.72,0.0742349956381
8.74,0.0741943127381
8.76,0.0494401011125
8.78,0.0247086694832
8.8,0.0246877915838
8.82,0.098707127074
8.84,0.123327193362
8.86,0.147992632034
8.88,0.148011922002
8.9,0.197484028099
8.92,0.246953344577
8.94,0.420039856068
8.96,0.346005492864
8.98,0.222454239508
9.,0.271907130491
9.02,0.420562577922
9.04,0.371327198259
9.06,0.669660102859
9.08,0.521409479011
9.1,0.621602330245
9.12,0.672456706457
9.14,0.723481748948
9.16,0.699502180397
9.18,0.800328759214
9.2,0.976720470772
9.22,0.953220175258
9.24,0.728325628102
9.26,0.628179470702
9.28,0.628221136816
9.3,0.50271026539
9.32,0.377183035891
9.34,0.377308629651
9.36,0.251647872689
9.38,0.327262164197
9.4,0.377585515798
9.42,0.377812159746
9.44,0.32749222987
9.46,0.25195070677
9.48,0.176377153882
9.5,0.0755549739148
9.52,0.125941750997
9.54,0.0754493478081
9.56,0.0753540031103
9.58,0.0502042825438
9.6,0.0250763038223
9.62,0.
9.64,0.0250430461249
9.66,0.0250140072569
9.68,0.
9.7,0.
9.72,0.0249734913083
9.74,0.0499238095382
9.76,0.0249577960047
9.78,0.024941311331
9.8,0.0997552897063
9.82,0.124644715284
9.84,0.124542036132
9.86,0.199174935122
9.88,0.174168788069
9.9,0.174146505201
9.92,0.0994436065239
9.94,0.24854462941
9.96,0.273245396257
9.98,0.397657059708
10.,0.348008265712
