t,neff
5.,0.502718698319
5.02,0.525285478807
5.04,0.482054971869
5.06,0.526895643601
5.08,0.615305320064
5.1,0.483892091446
5.12,0.572860784745
5.14,0.684405167432
5.16,0.685623395255
5.18,0.730845116738
5.2,0.843465586877
5.22,0.755574333381
5.24,0.600743772609
5.26,0.534284380457
5.28,0.512455497555
5.3,0.334411489894
5.32,0.491018401347
5.34,0.468853758114
5.36,0.379461188071
5.38,0.312591029788
5.4,0.26793516839
5.42,0.290354342851
5.44,0.290667667301
5.46,0.29094643341
5.48,0.13428501129
5.5,0.201506235132
5.52,0.201498421372
5.54,0.0895472785916
5.56,0.0670996832431
5.58,0.0223600647134
5.6,0.02234688528
5.62,0.
5.64,0.0223299336995
5.66,0.022316790129
5.68,0.
5.7,0.0222903051542
5.72,0.0222832971536
5.74,0.
5.76,0.0222696125472
5.78,0.0222632602195
5.8,0.0222575065175
5.82,0.0444984195744
5.84,0.0222405997468
5.86,0.0667351342655
5.88,0.111210881758
5.9,0.177960358042
5.92,0.178021477799
5.94,0.267162369922
5.96,0.289620718797
5.98,0.423479740896
6.,0.35686003639
6.02,0.334940610692
6.04,0.447101095046
6.06,0.44729332004
6.08,0.470090601341
6.1,0.717910199888
6.12,0.741468920973
6.14,0.765099519298
6.16,0.811313534904
6.18,0.834914840916
6.2,0.791044112351
6.22,0.837261368108
6.24,0.67906406411
6.26,0.634331192306
6.28,0.63548417536
6.3,0.522492770339
6.32,0.682344492412
6.34,0.546496251735
6.36,0.29603411257
6.38,0.341886425102
6.4,0.159488139094
6.42,0.205148787359
6.44,0.205158594267
6.46,0.205213825833
6.48,0.182306154397
6.5,0.159469450537
6.52,0.182272158964
6.54,0.0911269758879
6.56,0.0227825320395
6.58,0.0227775856291
6.6,0.
6.62,0.
6.64,0.
6.66,0.
6.68,0.0227348962217
6.7,0.0227291951061
6.72,0.
6.74,0.0454599373556
6.76,0.
6.78,0.0454356950597
6.8,0.0681205471459
6.82,0.0907909907938
6.84,0.0680603251568
6.86,0.113396094624
6.88,0.136118364426
6.9,0.113456528057
6.92,0.340772849972
6.94,0.227121157189
6.96,0.295528478254
6.98,0.409459321632
7.,0.341461417664
7.02,0.364688444485
7.04,0.456502085648
7.06,0.571230524229
7.08,0.480284717807
7.1,0.733214706969
7.12,0.642068739269
7.14,0.689216961154
7.16,0.5747964932
7.18,0.690967243374
7.2,0.714983469917
7.22,0.554050516652
7.24,0.716583627889
7.26,0.717039999188
7.28,0.485909962415
7.3,0.624851478458
7.32,0.579048150114
7.34,0.39424479849
7.36,0.511020914835
7.38,0.371785413975
7.4,0.48852217519
7.42,0.348979239117
7.44,0.256081505824
7.46,0.302768450414
7.48,0.326292624626
7.5,0.209755355998
7.52,0.116468009656
7.54,0.0931298895149
7.56,0.0232806127073
7.58,0.0232662477486
7.6,0.
7.62,0.0232667296276
7.64,0.0232602586926
7.66,0.0232454410495
7.68,0.0232338985476
7.7,0.0232264981682
7.72,0.0696600163352
7.74,0.0464316539332
7.76,0.0464307488216
7.78,0.116090713799
7.8,0.069650353764
7.82,0.092876398212
7.84,0.0696323973371
7.86,0.0928524529994
7.88,0.232241829271
7.9,0.325293684339
7.92,0.209133757616
7.94,0.325584738398
7.96,0.279222552802
7.98,0.372727389258
8.,0.442869894623
8.02,0.233270938104
8.04,0.537725489829
8.06,0.538113132859
8.08,0.609706247714
8.1,0.727673700651
8.12,0.846469238876
8.14,0.800746198169
8.16,0.849922836481
8.18,0.875316918086
8.2,0.568488599075
8.22,0.616770044594
8.24,0.66458174268
8.26,0.617906011776
8.28,0.833926635317
8.3,0.667150265116
8.32,0.667425883329
8.34,0.668558042373
8.36,0.549712670462
8.38,0.430368606504
8.4,0.35865706842
8.42,0.263071863951
8.44,0.191170617149
8.46,0.191179422923
8.48,0.0955375636647
8.5,0.04775007749
8.52,0.0955023446074
8.54,0.0477442113871
8.56,0.0238579960835
8.58,0.0238519305938
8.6,0.0476735000333
8.62,0.0476442632494
8.64,0.0238088357674
8.66,0.0714352616235
8.68,0.0476155207905
8.7,0.0476027827526
8.72,0.0475995644743
8.74,0.023794191647
8.76,0.0475698563865
8.78,0.0713547845799
8.8,0.0475524123613
8.82,0.118805767074
8.84,0.142625560393
8.86,0.213954914708
8.88,0.190224378634
8.9,0.237873028865
8.92,0.166494497353
8.94,0.166579720746
8.96,0.309551713124
8.98,0.214238082617
9.,0.452612670714
9.02,0.524329869451
9.04,0.500646647636
9.06,0.477317937392
9.08,0.597321007603
9.1,0.574005771593
9.12,0.50297756995
9.14,0.719868865204
9.16,0.648506610829
9.18,0.745466576332
9.2,0.625601674494
9.22,0.722545467947
9.24,0.57813786174
9.26,0.530472024029
9.28,0.652196255974
9.3,0.62847675361
9.32,0.677461077046
9.34,0.38713961253
9.36,0.5087658489
9.38,0.41213531396
9.4,0.363594517557
9.42,0.169647923361
9.44,0.169762077121
9.46,0.19409112811
9.48,0.169783146386
9.5,0.194110437193
9.52,0.0728004879207
9.54,0.0970818376346
9.56,0.0728095560022
9.58,0.0727550700638
9.6,0.0726952776555
9.62,0.0484430234011
9.64,0.0242124693243
9.66,0.
9.68,0.0241775980392
9.7,0.
9.72,0.
9.74,0.
9.76,0.
9.78,0.
9.8,0.024090233225
9.82,0.0481887443293
9.84,0.120504597307
9.86,0.12049880152
9.88,0.144544319262
9.9,0.144465248692
9.92,0.31329462114
9.94,0.289195034899
9.96,0.216874612543
9.98,0.337569711246
10.,0.265207753533
