t,cases
5.01,3.445
5.02,3.445
5.03,3.185
5.04,3.185
5.05,3.12
5.06,3.12
5.07,3.25
5.08,3.25
5.09,3.575
5.1,3.575
5.11,4.355
5.12,4.355
5.13,5.655
5.14,5.655
5.15,5.59
5.16,5.59
5.17,5.07
5.18,5.07
5.19,4.615
5.2,4.615
5.21,4.42
5.22,4.42
5.23,4.225
5.24,4.225
5.25,3.25
5.26,3.25
5.27,3.185
5.28,3.185
5.29,3.25
5.3,3.25
5.31,2.925
5.32,2.925
5.33,2.925
5.34,2.925
5.35,2.795
5.36,2.795
5.37,2.6
5.38,2.6
5.39,2.21
5.4,2.21
5.41,1.69
5.42,1.69
5.43,1.3
5.44,1.3
5.45,0.78
5.46,0.78
5.47,0.585
5.48,0.585
5.49,0.585
5.5,0.585
5.51,0.52
5.52,0.52
5.53,0.39
5.54,0.39
5.55,0.13
5.56,0.13
5.57,0.065
5.58,0.065
5.59,0.065
5.6,0.065
5.61,0.13
5.62,0.13
5.63,0.13
5.64,0.13
5.65,0.065
5.66,0.065
5.67,0.13
5.68,0.13
5.69,0.13
5.7,0.13
5.71,0.13
5.72,0.13
5.73,0.13
5.74,0.13
5.75,0.13
5.76,0.13
5.77,0.065
5.78,0.065
5.79,0.13
5.8,0.13
5.81,0.39
5.82,0.39
5.83,0.52
5.84,0.52
5.85,0.65
5.86,0.65
5.87,0.975
5.88,0.975
5.89,0.975
5.9,0.975
5.91,0.91
5.92,0.91
5.93,1.04
5.94,1.04
5.95,1.365
5.96,1.365
5.97,1.495
5.98,1.495
5.99,1.56
6.,1.56
6.01,2.145
6.02,2.145
6.03,2.535
6.04,2.535
6.05,2.73
6.06,2.73
6.07,3.055
6.08,3.055
6.09,3.055
6.1,3.055
6.11,3.51
6.12,3.51
6.13,4.095
6.14,4.095
6.15,4.16
6.16,4.16
6.17,5.005
6.18,5.005
6.19,5.2
6.2,5.2
6.21,4.095
6.22,4.095
6.23,3.77
6.24,3.77
6.25,3.705
6.26,3.705
6.27,3.38
6.28,3.38
6.29,3.51
6.3,3.51
6.31,3.315
6.32,3.315
6.33,2.6
6.34,2.6
6.35,2.08
6.36,2.08
6.37,2.145
6.38,2.145
6.39,2.275
6.4,2.275
6.41,2.015
6.42,2.015
6.43,1.625
6.44,1.625
6.45,1.235
6.46,1.235
6.47,0.91
6.48,0.91
6.49,0.91
6.5,0.91
6.51,0.91
6.52,0.91
6.53,0.585
6.54,0.585
6.55,0.325
6.56,0.325
6.57,0.26
6.58,0.26
6.59,0.13
6.6,0.13
6.61,0.065
6.62,0.065
6.63,0.065
6.64,0.065
6.65,0.
6.66,0.
6.67,0.
6.68,0.
6.69,0.
6.7,0.
6.71,0.065
6.72,0.065
6.73,0.13
6.74,0.13
6.75,0.195
6.76,0.195
6.77,0.195
6.78,0.195
6.79,0.065
6.8,0.065
6.81,0.195
6.82,0.195
6.83,0.52
6.84,0.52
6.85,0.715
6.86,0.715
6.87,0.91
6.88,0.91
6.89,0.845
6.9,0.845
6.91,0.845
6.92,0.845
6.93,0.845
6.94,0.845
6.95,1.105
6.96,1.105
6.97,1.755
6.98,1.755
6.99,1.885
7.,1.885
7.01,1.69
7.02,1.69
7.03,1.755
7.04,1.755
7.05,2.535
7.06,2.535
7.07,2.925
7.08,2.925
7.09,3.055
7.1,3.055
7.11,3.445
7.12,3.445
7.13,3.315
7.14,3.315
7.15,2.99
7.16,2.99
7.17,3.445
7.18,3.445
7.19,3.9
7.2,3.9
7.21,3.9
7.22,3.9
7.23,4.29
7.24,4.29
7.25,4.745
7.26,4.745
7.27,4.29
7.28,4.29
7.29,3.575
7.3,3.575
7.31,3.445
7.32,3.445
7.33,3.51
7.34,3.51
7.35,3.835
7.36,3.835
7.37,3.38
7.38,3.38
7.39,2.795
7.4,2.795
7.41,2.47
7.42,2.47
7.43,1.755
7.44,1.755
7.45,1.3
7.46,1.3
7.47,1.04
7.48,1.04
7.49,0.65
7.5,0.65
7.51,0.325
7.52,0.325
7.53,0.325
7.54,0.325
7.55,0.26
7.56,0.26
7.57,0.13
7.58,0.13
7.59,0.065
7.6,0.065
7.61,0.
7.62,0.
7.63,0.
7.64,0.
7.65,0.065
7.66,0.065
7.67,0.13
7.68,0.13
7.69,0.13
7.7,0.13
7.71,0.26
7.72,0.26
7.73,0.325
7.74,0.325
7.75,0.26
7.76,0.26
7.77,0.195
7.78,0.195
7.79,0.13
7.8,0.13
7.81,0.325
7.82,0.325
7.83,0.65
7.84,0.65
7.85,0.845
7.86,0.845
7.87,1.105
7.88,1.105
7.89,1.17
7.9,1.17
7.91,1.3
7.92,1.3
7.93,1.625
7.94,1.625
7.95,1.82
7.96,1.82
7.97,2.145
7.98,2.145
7.99,2.08
8.,2.08
8.01,1.755
8.02,1.755
8.03,2.015
8.04,2.015
8.05,2.275
8.06,2.275
8.07,2.665
8.08,2.665
8.09,3.38
8.1,3.38
8.11,3.77
8.12,3.77
8.13,4.095
8.14,4.095
8.15,4.485
8.16,4.485
8.17,4.81
8.18,4.81
8.19,4.55
8.2,4.55
8.21,4.095
8.22,4.095
8.23,3.9
8.24,3.9
8.25,3.51
8.26,3.51
8.27,3.445
8.28,3.445
8.29,3.12
8.3,3.12
8.31,3.055
8.32,3.055
8.33,3.64
8.34,3.64
8.35,3.64
8.36,3.64
8.37,2.925
8.38,2.925
8.39,2.21
8.4,2.21
8.41,2.08
8.42,2.08
8.43,1.82
8.44,1.82
8.45,1.235
8.46,1.235
8.47,0.585
8.48,0.585
8.49,0.39
8.5,0.39
8.51,0.39
8.52,0.39
8.53,0.195
8.54,0.195
8.55,0.13
8.56,0.13
8.57,0.195
8.58,0.195
8.59,0.195
8.6,0.195
8.61,0.0649999999999
8.62,0.0650000000001
8.63,0.0650000000001
8.64,0.0649999999999
8.65,0.0649999999999
8.66,0.0650000000001
8.67,0.
8.68,0.
8.69,0.
8.7,0.
8.71,0.13
8.72,0.13
8.73,0.26
8.74,0.26
8.75,0.195
8.76,0.195
8.77,0.26
8.78,0.26
8.79,0.195
8.8,0.195
8.81,0.13
8.82,0.13
8.83,0.325
8.84,0.325
8.85,0.52
8.86,0.52
8.87,0.585
8.88,0.585
8.89,0.585
8.9,0.585
8.91,0.975
8.92,0.975
8.93,1.17
8.94,1.17
8.95,1.17
8.96,1.17
8.97,1.43
8.98,1.43
8.99,1.69
9.,1.69
9.01,1.82
9.02,1.82
9.03,2.145
9.04,2.145
9.05,2.6
9.06,2.6
9.07,3.185
9.08,3.185
9.09,4.16
9.1,4.16
9.11,4.355
9.12,4.355
9.13,4.485
9.14,4.485
9.15,4.875
9.16,4.875
9.17,5.2
9.18,5.2
9.19,5.07
9.2,5.07
9.21,4.615
9.22,4.615
9.23,5.2
9.24,5.2
9.25,5.33
9.26,5.33
9.27,4.94
9.28,4.94
9.29,4.225
9.3,4.225
9.31,2.99
9.32,2.99
9.33,2.34
9.34,2.34
9.35,1.95
9.36,1.95
9.37,1.82
9.38,1.82
9.39,1.885
9.4,1.885
9.41,1.95
9.42,1.95
9.43,1.82
9.44,1.82
9.45,1.235
9.46,1.235
9.47,1.235
9.48,1.235
9.49,1.365
9.5,1.365
9.51,0.715
9.52,0.715
9.53,0.39
9.54,0.39
9.55,0.455
9.56,0.455
9.57,0.39
9.58,0.39
9.59,0.325
9.6,0.325
9.61,0.26
9.62,0.26
9.63,0.26
9.64,0.26
9.65,0.195
9.66,0.195
9.67,0.0650000000001
9.68,0.0649999999999
9.69,0.
9.7,0.
9.71,0.
9.72,0.
9.73,0.
9.74,0.
9.75,0.
9.76,0.
9.77,0.
9.78,0.
9.79,0.
9.8,0.
9.81,0.
9.82,0.
9.83,0.195
9.84,0.195
9.85,0.39
9.86,0.39
9.87,0.65
9.88,0.65
9.89,0.91
9.9,0.91
9.91,1.17
9.92,1.17
9.93,1.105
9.94,1.105
9.95,0.975
9.96,0.975
9.97,1.04
9.98,1.04
9.99,1.04
10.,1.04
