t,s,e,i,r,c,o,n,reff,coal,reportr
5.,5786.,5.,37.,4174.,0.,0.,10002.,0.793502722697,8.25242831604,65.
5.02,5766.,22.,24.,4189.,0.,0.,10001.,0.790838953852,1.86925570911,286.
5.04,5755.,30.,14.,4203.,0.,0.,10002.,0.789251325461,1.3680356308,390.
5.06,5743.,29.,17.,4210.,0.,0.,9999.,0.787841928623,1.41268207891,377.
5.08,5735.,33.,23.,4210.,0.,0.,10001.,0.78658713152,1.23947063149,429.
5.1,5718.,36.,19.,4227.,0.,0.,10000.,0.784333912564,1.13292676259,468.
5.12,5709.,28.,23.,4241.,0.,0.,10001.,0.783021086983,1.45418201868,364.
5.14,5696.,31.,24.,4250.,0.,0.,10001.,0.781238064714,1.31046385049,403.
5.16,5684.,37.,21.,4258.,0.,0.,10000.,0.779670157225,1.0957526534,481.
5.18,5672.,32.,25.,4267.,0.,0.,9996.,0.778335460113,1.26479512268,416.
5.2,5663.,34.,16.,4280.,0.,0.,9993.,0.777333736072,1.18886336105,442.
5.22,5655.,34.,18.,4283.,0.,0.,9990.,0.776468716976,1.18754039067,442.
5.24,5648.,33.,19.,4286.,0.,0.,9986.,0.775818208829,1.22250141997,429.
5.26,5648.,29.,24.,4286.,0.,0.,9987.,0.77574052602,1.39098301217,377.
5.28,5636.,33.,16.,4300.,0.,0.,9985.,0.774247403145,1.22002621102,429.
5.3,5633.,28.,15.,4311.,0.,0.,9987.,0.773680308618,1.43683485886,364.
5.32,5631.,17.,27.,4313.,0.,0.,9988.,0.773328179483,2.36547443136,221.
5.34,5626.,17.,18.,4325.,0.,0.,9986.,0.77279625405,2.36384736533,221.
5.36,5618.,21.,11.,4333.,0.,0.,9983.,0.771929264847,1.91144389391,273.
5.38,5626.,12.,12.,4334.,0.,0.,9984.,0.772951060991,3.34945459763,156.
5.4,5638.,10.,11.,4332.,0.,0.,9991.,0.77405702191,4.02509651393,130.
5.42,5640.,11.,9.,4334.,0.,0.,9994.,0.77409916864,3.65937788812,143.
5.44,5640.,9.,7.,4337.,0.,0.,9993.,0.774176632782,4.47302054496,117.
5.46,5639.,10.,5.,4337.,0.,0.,9991.,0.774194314748,4.02581043669,130.
5.48,5644.,11.,4.,4336.,0.,0.,9995.,0.774570671574,3.66160681108,143.
5.5,5653.,6.,4.,4334.,0.,0.,9997.,0.775650604891,6.72230524239,78.
5.52,5664.,4.,1.,4328.,0.,0.,9997.,0.777159919707,10.1030789562,52.
5.54,5676.,1.,2.,4319.,0.,0.,9998.,0.778728548737,40.4938845343,13.
5.56,5682.,2.,0.,4314.,0.,0.,9998.,0.779551729021,20.2683449546,26.
5.58,5697.,3.,0.,4304.,0.,0.,10004.,0.781140901435,13.5397756249,39.
5.6,5712.,2.,1.,4289.,0.,0.,10004.,0.783197617868,20.3631380646,26.
5.62,5720.,1.,2.,4282.,0.,0.,10005.,0.784216143041,40.7792394381,13.
5.64,5729.,3.,3.,4270.,0.,0.,10005.,0.78545004956,13.6144675257,39.
5.66,5736.,3.,0.,4267.,0.,0.,10006.,0.786331160811,13.6297401207,39.
5.68,5740.,2.,2.,4261.,0.,0.,10005.,0.786958157527,20.4609120957,26.
5.7,5750.,0.,4.,4252.,0.,0.,10006.,0.788250379125,inf,0.
5.72,5761.,1.,1.,4248.,0.,0.,10011.,0.789363891094,41.0469223369,13.
5.74,5769.,2.,1.,4239.,0.,0.,10011.,0.790460039528,20.5519610277,26.
5.76,5778.,5.,0.,4229.,0.,0.,10012.,0.791614132085,8.23278697369,65.
5.78,5784.,5.,2.,4220.,0.,0.,10011.,0.792515317842,8.24215930556,65.
5.8,5794.,3.,2.,4215.,0.,0.,10014.,0.793647670699,13.7565596255,39.
5.82,5805.,3.,0.,4207.,0.,0.,10015.,0.795075026919,13.7813004666,39.
5.84,5810.,5.,0.,4199.,0.,0.,10014.,0.795839310798,8.2767288323,65.
5.86,5807.,7.,3.,4193.,0.,0.,10010.,0.795746231777,5.91125772177,91.
5.88,5817.,6.,1.,4190.,0.,0.,10014.,0.796798153341,6.90558399562,78.
5.9,5825.,7.,3.,4181.,0.,0.,10016.,0.797734649514,5.92602882496,91.
5.92,5835.,8.,5.,4168.,0.,0.,10016.,0.799104151058,5.19417698188,104.
5.94,5840.,11.,4.,4161.,0.,0.,10016.,0.79978890183,3.7808202632,143.
5.96,5850.,11.,4.,4152.,0.,0.,10017.,0.8010784235,3.78691618382,143.
5.98,5855.,13.,3.,4146.,0.,0.,10017.,0.801763105913,3.20705242365,169.
6.,5857.,15.,6.,4141.,0.,0.,10019.,0.801876875679,2.77983983569,195.
6.02,5869.,12.,9.,4134.,0.,0.,10024.,0.803118987469,3.48018227903,156.
6.04,5862.,17.,8.,4136.,0.,0.,10023.,0.802241133509,2.45391405544,221.
6.06,5859.,16.,12.,4135.,0.,0.,10022.,0.801910577023,2.60620937532,208.
6.08,5855.,18.,8.,4138.,0.,0.,10019.,0.801603057384,2.31574216578,234.
6.1,5849.,19.,12.,4134.,0.,0.,10014.,0.801181433538,2.19270708126,247.
6.12,5834.,24.,14.,4137.,0.,0.,10009.,0.799525975048,1.73230627927,312.
6.14,5829.,21.,18.,4140.,0.,0.,10008.,0.798920565599,1.97827949577,273.
6.16,5817.,34.,14.,4145.,0.,0.,10010.,0.797116554202,1.21911943584,442.
6.18,5812.,32.,18.,4145.,0.,0.,10007.,0.796670155274,1.29458900232,416.
6.2,5810.,33.,19.,4147.,0.,0.,10009.,0.796236872648,1.25467628417,429.
6.22,5803.,27.,21.,4158.,0.,0.,10009.,0.795277551114,1.531645654,351.
6.24,5794.,34.,16.,4166.,0.,0.,10010.,0.793964812626,1.21429912519,442.
6.26,5782.,37.,12.,4177.,0.,0.,10008.,0.792478763132,1.11375393737,481.
6.28,5784.,30.,12.,4182.,0.,0.,10008.,0.792752882386,1.37410499614,390.
6.3,5782.,20.,18.,4185.,0.,0.,10005.,0.792716387948,2.06106260867,260.
6.32,5778.,18.,13.,4197.,0.,0.,10006.,0.792088815754,2.28825657885,234.
6.34,5771.,19.,14.,4198.,0.,0.,10002.,0.791445595002,2.16606162843,247.
6.36,5763.,22.,11.,4203.,0.,0.,9999.,0.790585588483,1.8686568455,286.
6.38,5761.,18.,5.,4214.,0.,0.,9998.,0.790390269428,2.28334966724,234.
6.4,5769.,15.,10.,4208.,0.,0.,10002.,0.791171311309,2.74272721254,195.
6.42,5772.,14.,8.,4211.,0.,0.,10005.,0.791345380705,2.93928284262,182.
6.44,5775.,10.,10.,4208.,0.,0.,10003.,0.791914986724,4.11795793096,130.
6.46,5775.,11.,8.,4209.,0.,0.,10003.,0.791914986724,3.74359811906,143.
6.48,5775.,14.,8.,4208.,0.,0.,10005.,0.791756682878,2.94081053641,182.
6.5,5782.,7.,1.,4213.,0.,0.,10003.,0.792874883677,5.88992770732,91.
6.52,5793.,4.,1.,4209.,0.,0.,10007.,0.79406576213,10.3228549077,52.
6.54,5807.,3.,1.,4196.,0.,0.,10007.,0.795984788657,13.7970696701,39.
6.56,5809.,3.,2.,4190.,0.,0.,10004.,0.796497717472,13.8059604362,39.
6.58,5816.,4.,0.,4186.,0.,0.,10006.,0.797298122608,10.3648755939,52.
6.6,5823.,4.,0.,4179.,0.,0.,10006.,0.798257731765,10.3773505129,52.
6.62,5832.,4.,0.,4170.,0.,0.,10006.,0.799491514967,10.3933896946,52.
6.64,5849.,2.,1.,4155.,0.,0.,10007.,0.801741868238,20.8452885742,26.
6.66,5853.,1.,1.,4151.,0.,0.,10006.,0.802370342439,41.7232578068,13.
6.68,5863.,1.,1.,4144.,0.,0.,10009.,0.803500307114,41.7820159699,13.
6.7,5875.,0.,4.,4134.,0.,0.,10013.,0.804823218503,inf,0.
6.72,5885.,3.,1.,4128.,0.,0.,10017.,0.805871200393,13.9684341401,39.
6.74,5892.,2.,2.,4121.,0.,0.,10017.,0.806829755771,20.9775736501,26.
6.76,5905.,1.,1.,4112.,0.,0.,10019.,0.808448514749,42.0393227669,13.
6.78,5912.,1.,0.,4104.,0.,0.,10017.,0.809568485424,42.0975612421,13.
6.8,5925.,2.,0.,4091.,0.,0.,10018.,0.811267670613,21.0929594359,26.
6.82,5931.,4.,0.,4083.,0.,0.,10018.,0.812089207495,10.5571596974,52.
6.84,5940.,5.,0.,4072.,0.,0.,10017.,0.813402706938,8.45938815216,65.
6.86,5951.,2.,2.,4062.,0.,0.,10017.,0.814909008248,21.1876342144,26.
6.88,5950.,7.,1.,4060.,0.,0.,10018.,0.814690740953,6.05198836137,91.
6.9,5953.,9.,3.,4053.,0.,0.,10018.,0.815101509394,4.70947538761,117.
6.92,5958.,11.,3.,4044.,0.,0.,10016.,0.815949020052,3.85721354934,143.
6.94,5965.,14.,7.,4034.,0.,0.,10020.,0.816581560286,3.03301722392,182.
6.96,5970.,15.,8.,4026.,0.,0.,10019.,0.817347609323,2.83347171232,195.
6.98,5975.,14.,9.,4024.,0.,0.,10022.,0.817787284129,3.03749562676,182.
7.,5982.,18.,4.,4023.,0.,0.,10027.,0.818337090931,2.36408492936,234.
7.02,5977.,15.,10.,4023.,0.,0.,10025.,0.817816214168,2.83509620911,195.
7.04,5971.,17.,9.,4023.,0.,0.,10020.,0.817402933189,2.50029132505,221.
7.06,5969.,17.,14.,4025.,0.,0.,10025.,0.816721596514,2.4982072364,221.
7.08,5961.,24.,8.,4030.,0.,0.,10023.,0.81578972993,1.76754441485,312.
7.1,5966.,24.,11.,4025.,0.,0.,10026.,0.816229695473,1.76849767353,312.
7.12,5966.,22.,17.,4022.,0.,0.,10027.,0.816148292293,1.92907778178,286.
7.14,5971.,20.,14.,4024.,0.,0.,10029.,0.816669397801,2.12334043428,260.
7.16,5963.,32.,8.,4025.,0.,0.,10028.,0.815656546527,1.32544188811,416.
7.18,5958.,26.,18.,4027.,0.,0.,10029.,0.814891353559,1.62978270712,338.
7.2,5949.,34.,15.,4032.,0.,0.,10030.,0.813579277181,1.24429771804,442.
7.22,5944.,28.,17.,4043.,0.,0.,10032.,0.81273342169,1.50936206885,364.
7.24,5930.,37.,10.,4056.,0.,0.,10033.,0.810738362198,1.1394160766,481.
7.26,5931.,29.,15.,4062.,0.,0.,10037.,0.810551925942,1.45340345341,377.
7.28,5916.,30.,16.,4075.,0.,0.,10037.,0.808501971653,1.40140341753,390.
7.3,5913.,18.,18.,4082.,0.,0.,10031.,0.808575337578,2.33588430856,234.
7.32,5904.,24.,12.,4090.,0.,0.,10030.,0.807425122285,1.74942109828,312.
7.34,5904.,27.,8.,4090.,0.,0.,10029.,0.807505631321,1.55519603069,351.
7.36,5905.,24.,13.,4087.,0.,0.,10029.,0.807642403955,1.74989187524,312.
7.38,5907.,19.,17.,4087.,0.,0.,10030.,0.807835399278,2.21091793487,247.
7.4,5904.,18.,11.,4098.,0.,0.,10031.,0.807344629301,2.33232892909,234.
7.42,5901.,16.,7.,4104.,0.,0.,10028.,0.807175797595,2.62332134218,208.
7.44,5906.,13.,10.,4099.,0.,0.,10028.,0.80785972896,3.23143891584,169.
7.46,5916.,12.,0.,4100.,0.,0.,10028.,0.809227591691,3.50665289733,156.
7.48,5926.,11.,4.,4090.,0.,0.,10031.,0.81035302731,3.83075976547,143.
7.5,5937.,5.,6.,4085.,0.,0.,10033.,0.811695388933,8.4416320449,65.
7.52,5943.,4.,3.,4085.,0.,0.,10035.,0.8123537612,10.5605988956,52.
7.54,5952.,3.,1.,4084.,0.,0.,10040.,0.813178807606,14.0950993318,39.
7.56,5958.,3.,3.,4079.,0.,0.,10043.,0.813755390306,14.105093432,39.
7.58,5965.,5.,0.,4072.,0.,0.,10042.,0.81479259451,8.4738429829,65.
7.6,5972.,5.,1.,4061.,0.,0.,10039.,0.815992537434,8.48632238931,65.
7.62,5979.,3.,4.,4051.,0.,0.,10037.,0.817111779668,14.1632708476,39.
7.64,5981.,1.,4.,4048.,0.,0.,10034.,0.817629491531,42.5167335596,13.
7.66,5985.,2.,1.,4045.,0.,0.,10033.,0.818257857969,21.2747043072,26.
7.68,5997.,1.,1.,4034.,0.,0.,10033.,0.819898475228,42.6347207119,13.
7.7,6001.,3.,2.,4026.,0.,0.,10032.,0.820527130478,14.2224702616,39.
7.72,6011.,3.,0.,4018.,0.,0.,10032.,0.821894447809,14.2461704287,39.
7.74,6024.,1.,2.,4006.,0.,0.,10033.,0.823589864061,42.8266729312,13.
7.76,6025.,4.,0.,4000.,0.,0.,10029.,0.824055120039,10.7127165605,52.
7.78,6032.,3.,1.,3990.,0.,0.,10026.,0.825259390395,14.3044961002,39.
7.8,6036.,3.,3.,3982.,0.,0.,10024.,0.825971410523,14.3168377824,39.
7.82,6036.,2.,2.,3983.,0.,0.,10023.,0.826053818127,21.4773992713,26.
7.84,6036.,4.,3.,3978.,0.,0.,10021.,0.826218682675,10.7408428748,52.
7.86,6040.,10.,3.,3971.,0.,0.,10024.,0.82651877395,4.29789762454,130.
7.88,6040.,10.,3.,3971.,0.,0.,10024.,0.82651877395,4.29789762454,130.
7.9,6048.,8.,6.,3963.,0.,0.,10025.,0.82753094584,5.37895114796,104.
7.92,6054.,11.,4.,3952.,0.,0.,10021.,0.828682555486,3.91740844412,143.
7.94,6062.,11.,2.,3947.,0.,0.,10022.,0.829694814458,3.92219366835,143.
7.96,6058.,14.,6.,3944.,0.,0.,10022.,0.829147341799,3.07969012668,182.
7.98,6057.,18.,7.,3939.,0.,0.,10021.,0.829093200955,2.39515813609,234.
8.,6061.,16.,5.,3939.,0.,0.,10021.,0.829640728246,2.6963323668,208.
8.02,6065.,15.,5.,3937.,0.,0.,10022.,0.830105418952,2.8776987857,195.
8.04,6060.,18.,12.,3932.,0.,0.,10022.,0.829421078129,2.39610533682,234.
8.06,6052.,25.,8.,3936.,0.,0.,10021.,0.82840879184,1.72309028703,325.
8.08,6047.,23.,13.,3937.,0.,0.,10020.,0.82780698995,1.87156362945,299.
8.1,6037.,20.,15.,3943.,0.,0.,10015.,0.82685063523,2.1498116516,260.
8.12,6023.,24.,21.,3945.,0.,0.,10013.,0.82509791405,1.78771214711,312.
8.14,6013.,26.,17.,3958.,0.,0.,10014.,0.823645744549,1.6472914891,338.
8.16,6015.,27.,22.,3952.,0.,0.,10016.,0.823755178854,1.58649145557,351.
8.18,6013.,30.,18.,3959.,0.,0.,10020.,0.823152543504,1.42679774207,390.
8.2,5999.,36.,20.,3962.,0.,0.,10017.,0.821481959415,1.18658505249,468.
8.22,5977.,48.,15.,3977.,0.,0.,10017.,0.818469356797,0.88667513653,624.
8.24,5971.,32.,10.,4004.,0.,0.,10017.,0.817647737901,1.32867757409,416.
8.26,5967.,29.,7.,4012.,0.,0.,10015.,0.817263167206,1.46543740327,377.
8.28,5972.,21.,8.,4015.,0.,0.,10016.,0.817866322214,2.02519279786,273.
8.3,5962.,20.,19.,4014.,0.,0.,10015.,0.816578348061,2.12310370496,260.
8.32,5955.,24.,16.,4022.,0.,0.,10017.,0.815456754178,1.76682296739,312.
8.34,5951.,25.,10.,4030.,0.,0.,10016.,0.814990368971,1.69517996746,325.
8.36,5945.,20.,13.,4033.,0.,0.,10011.,0.814575305078,2.1178957932,260.
8.38,5948.,23.,8.,4032.,0.,0.,10011.,0.814986360741,1.84257785907,299.
8.4,5945.,17.,14.,4033.,0.,0.,10009.,0.814738073647,2.49213998998,221.
8.42,5948.,12.,12.,4036.,0.,0.,10008.,0.815230661209,3.53266619857,156.
8.44,5947.,16.,6.,4039.,0.,0.,10008.,0.815093601582,2.64905420514,208.
8.46,5950.,11.,6.,4039.,0.,0.,10006.,0.815667783617,3.85588406801,143.
8.48,5964.,7.,6.,4032.,0.,0.,10009.,0.817341946381,6.07168303026,91.
8.5,5970.,8.,0.,4033.,0.,0.,10011.,0.818000768935,5.31700499807,104.
8.52,5976.,3.,5.,4026.,0.,0.,10010.,0.818904680748,14.1943477996,39.
8.54,5983.,4.,2.,4020.,0.,0.,10009.,0.819945819114,10.6592956485,52.
8.56,5997.,3.,1.,4010.,0.,0.,10011.,0.8217002699,14.2428046783,39.
8.58,6004.,0.,3.,4004.,0.,0.,10011.,0.822659399779,inf,0.
8.6,6011.,0.,0.,4000.,0.,0.,10011.,0.823618529659,inf,0.
8.62,6019.,0.,0.,3991.,0.,0.,10010.,0.824797067172,inf,0.
8.64,6023.,0.,0.,3985.,0.,0.,10008.,0.825510133231,inf,0.
8.66,6034.,0.,0.,3974.,0.,0.,10008.,0.827017789128,inf,0.
8.68,6044.,0.,0.,3965.,0.,0.,10009.,0.828305621047,inf,0.
8.7,6052.,1.,0.,3957.,0.,0.,10010.,0.829319131172,43.124594821,13.
8.72,6069.,1.,0.,3943.,0.,0.,10013.,0.831399508612,43.2327744478,13.
8.74,6076.,0.,1.,3935.,0.,0.,10012.,0.832441582996,inf,0.
8.76,6079.,2.,1.,3928.,0.,0.,10010.,0.833019001718,21.6584940447,26.
8.78,6092.,3.,0.,3917.,0.,0.,10012.,0.834633660897,14.4669834555,39.
8.8,6096.,3.,1.,3912.,0.,0.,10012.,0.835181680372,14.4764824598,39.
8.82,6097.,2.,4.,3908.,0.,0.,10011.,0.835402125326,21.7204552585,26.
8.84,6103.,7.,4.,3895.,0.,0.,10009.,0.836391331113,6.21319274541,91.
8.86,6103.,8.,1.,3894.,0.,0.,10006.,0.836642098053,5.43817363734,104.
8.88,6109.,7.,2.,3888.,0.,0.,10006.,0.837464620187,6.22116574996,91.
8.9,6109.,11.,4.,3882.,0.,0.,10006.,0.837464620187,3.95892365907,143.
8.92,6106.,12.,3.,3881.,0.,0.,10002.,0.837388113513,3.62868182522,156.
8.94,6114.,8.,7.,3877.,0.,0.,10006.,0.8381500553,5.44797535945,104.
8.96,6113.,14.,6.,3873.,0.,0.,10006.,0.838012968277,3.11261959646,182.
8.98,6105.,25.,5.,3870.,0.,0.,10005.,0.8369999219,1.74095983755,325.
9.,6103.,20.,11.,3870.,0.,0.,10004.,0.836809359568,2.17570433488,260.
9.02,6095.,24.,12.,3879.,0.,0.,10010.,0.835211517597,1.80962495479,312.
9.04,6091.,25.,15.,3882.,0.,0.,10013.,0.834413314706,1.73557969459,325.
9.06,6081.,28.,11.,3893.,0.,0.,10013.,0.833043402845,1.54708060528,364.
9.08,6075.,30.,8.,3900.,0.,0.,10013.,0.832221455728,1.44251718993,390.
9.1,6071.,30.,9.,3901.,0.,0.,10011.,0.831839642915,1.44185538105,390.
9.12,6079.,25.,8.,3902.,0.,0.,10014.,0.832686259955,1.73198742071,325.
9.14,6082.,24.,8.,3900.,0.,0.,10014.,0.833097192474,1.80504391703,312.
9.16,6083.,25.,8.,3901.,0.,0.,10017.,0.832984623957,1.73260801783,325.
9.18,6074.,24.,18.,3900.,0.,0.,10016.,0.831835237965,1.80230968226,312.
9.2,6061.,29.,13.,3913.,0.,0.,10016.,0.830054885958,1.48837427827,377.
9.22,6056.,30.,12.,3919.,0.,0.,10017.,0.829287338926,1.43743138747,390.
9.24,6051.,26.,13.,3924.,0.,0.,10014.,0.828850889783,1.65770177957,338.
9.26,6042.,37.,8.,3929.,0.,0.,10016.,0.827452833024,1.16290668425,481.
9.28,6043.,34.,16.,3926.,0.,0.,10019.,0.827341977075,1.26534655317,442.
9.3,6044.,31.,18.,3930.,0.,0.,10023.,0.827148654201,1.38747516189,403.
9.32,6042.,24.,16.,3941.,0.,0.,10023.,0.826874945183,1.79156238123,312.
9.34,6042.,24.,9.,3949.,0.,0.,10024.,0.826792455663,1.79138365394,312.
9.36,6042.,17.,11.,3953.,0.,0.,10023.,0.826874945183,2.52926453821,221.
9.38,6043.,16.,6.,3960.,0.,0.,10025.,0.826846809807,2.68725213187,208.
9.4,6048.,12.,7.,3960.,0.,0.,10027.,0.827365885314,3.5852521697,156.
9.42,6055.,10.,6.,3957.,0.,0.,10028.,0.828240883653,4.306852595,130.
9.44,6061.,10.,3.,3951.,0.,0.,10025.,0.829309699527,4.31241043754,130.
9.46,6072.,7.,6.,3944.,0.,0.,10029.,0.830483433839,6.16930550852,91.
9.48,6076.,6.,4.,3940.,0.,0.,10026.,0.831279187009,7.20441962075,78.
9.5,6089.,6.,2.,3929.,0.,0.,10026.,0.833057763282,7.21983394844,78.
9.52,6103.,4.,5.,3920.,0.,0.,10032.,0.834473767256,10.8481589743,52.
9.54,6117.,3.,3.,3908.,0.,0.,10031.,0.836471391842,14.4988374586,39.
9.56,6121.,3.,0.,3907.,0.,0.,10031.,0.837018373298,14.5083184705,39.
9.58,6134.,4.,1.,3895.,0.,0.,10034.,0.838545276885,10.9010885995,52.
9.6,6142.,2.,2.,3885.,0.,0.,10031.,0.839890025943,21.8371406745,26.
9.62,6155.,3.,2.,3875.,0.,0.,10035.,0.841332222814,14.5830918621,39.
9.64,6165.,2.,3.,3863.,0.,0.,10033.,0.842867116855,21.9145450382,26.
9.66,6174.,2.,0.,3860.,0.,0.,10036.,0.843845258881,21.9399767309,26.
9.68,6181.,2.,0.,3853.,0.,0.,10036.,0.844801999537,21.964851988,26.
9.7,6190.,2.,0.,3843.,0.,0.,10035.,0.846116402798,21.9990264727,26.
9.72,6192.,4.,0.,3835.,0.,0.,10031.,0.846727294145,11.0074548239,52.
9.74,6204.,2.,2.,3825.,0.,0.,10033.,0.848199122947,22.0531771966,26.
9.76,6207.,0.,3.,3822.,0.,0.,10032.,0.848693867501,inf,0.
9.78,6207.,4.,1.,3821.,0.,0.,10033.,0.848609277262,11.0319206044,52.
9.8,6216.,4.,1.,3814.,0.,0.,10035.,0.849670365071,11.0457147459,52.
9.82,6216.,4.,2.,3810.,0.,0.,10032.,0.849924453099,11.0490178903,52.
9.84,6229.,5.,0.,3802.,0.,0.,10036.,0.851362506895,8.85417007171,65.
9.86,6234.,5.,1.,3795.,0.,0.,10035.,0.852130800492,8.86216032511,65.
9.88,6237.,6.,3.,3790.,0.,0.,10036.,0.852455924788,7.38795134816,78.
9.9,6238.,7.,1.,3784.,0.,0.,10030.,0.853102627509,6.33733380436,91.
9.92,6242.,6.,3.,3781.,0.,0.,10032.,0.853479478161,7.39682214406,78.
9.94,6248.,5.,8.,3771.,0.,0.,10032.,0.854299868559,8.88471863302,65.
9.96,6245.,11.,3.,3773.,0.,0.,10032.,0.85388967336,4.03656936497,143.
9.98,6249.,10.,2.,3773.,0.,0.,10034.,0.85426629202,4.44218471851,130.
10.,6259.,5.,5.,3765.,0.,0.,10034.,0.855633336815,8.89858670287,65.
