t,s,e,i,r,c,o,n,reff,coal,reportr
5.,4432.,1.,36.,5530.,0.,0.,9999.,0.738076881607,38.3799978436,13.
5.02,4419.,27.,13.,5541.,0.,0.,10000.,0.735838353711,1.4171701627,351.
5.04,4423.,21.,20.,5536.,0.,0.,10000.,0.736504421467,1.82372523411,273.
5.06,4414.,24.,24.,5533.,0.,0.,9995.,0.735373455744,1.59330915411,312.
5.08,4404.,32.,14.,5547.,0.,0.,9997.,0.733560667826,1.19203608522,416.
5.1,4394.,36.,14.,5552.,0.,0.,9996.,0.731968217522,1.05728742531,468.
5.12,4401.,34.,12.,5551.,0.,0.,9998.,0.732987646337,1.12103992969,442.
5.14,4400.,31.,18.,5549.,0.,0.,9998.,0.732821096088,1.22924829021,403.
5.16,4395.,37.,11.,5553.,0.,0.,9996.,0.732134801094,1.02894620694,481.
5.18,4382.,35.,18.,5558.,0.,0.,9993.,0.730188358817,1.08485127596,455.
5.2,4382.,34.,23.,5555.,0.,0.,9994.,0.730115296144,1.11664692351,442.
5.22,4366.,34.,22.,5570.,0.,0.,9992.,0.727595031967,1.11279240183,442.
5.24,4371.,28.,26.,5571.,0.,0.,9996.,0.728136795354,1.35225404852,364.
5.26,4371.,29.,20.,5575.,0.,0.,9995.,0.728209645459,1.30575522634,377.
5.28,4372.,28.,16.,5574.,0.,0.,9990.,0.728740798374,1.35337576841,364.
5.3,4371.,30.,10.,5578.,0.,0.,9989.,0.728647052394,1.26298822415,390.
5.32,4379.,23.,8.,5582.,0.,0.,9992.,0.729761485337,1.64989553207,299.
5.34,4378.,18.,14.,5582.,0.,0.,9992.,0.729594835078,2.10771841245,234.
5.36,4374.,20.,11.,5584.,0.,0.,9989.,0.729147153322,1.89578259864,260.
5.38,4382.,23.,10.,5577.,0.,0.,9992.,0.730261436115,1.65102585556,299.
5.4,4389.,11.,18.,5572.,0.,0.,9990.,0.731574419959,3.45835180344,143.
5.42,4393.,9.,5.,5586.,0.,0.,9993.,0.732021328225,4.22945656308,117.
5.44,4403.,6.,11.,5575.,0.,0.,9995.,0.733540853113,6.35735406031,78.
5.46,4413.,4.,3.,5577.,0.,0.,9997.,0.735059770008,9.5557770101,52.
5.48,4425.,5.,4.,5562.,0.,0.,9996.,0.737132308269,7.666176006,65.
5.5,4437.,4.,3.,5551.,0.,0.,9995.,0.739205261245,9.60966839618,52.
5.52,4448.,1.,2.,5548.,0.,0.,9999.,0.740741419086,38.5185537925,13.
5.54,4458.,0.,3.,5537.,0.,0.,9998.,0.742481010537,inf,0.
5.56,4474.,0.,0.,5525.,0.,0.,9999.,0.745071292489,inf,0.
5.58,4482.,0.,0.,5516.,0.,0.,9998.,0.746478216515,inf,0.
5.6,4489.,0.,0.,5508.,0.,0.,9997.,0.747718855102,inf,0.
5.62,4494.,0.,0.,5500.,0.,0.,9994.,0.748776389975,inf,0.
5.64,4509.,0.,0.,5487.,0.,0.,9996.,0.751125328358,inf,0.
5.66,4522.,0.,0.,5475.,0.,0.,9997.,0.753215563103,inf,0.
5.68,4530.,0.,1.,5464.,0.,0.,9995.,0.754699083489,inf,0.
5.7,4539.,1.,2.,5452.,0.,0.,9994.,0.756274150889,39.3262558462,13.
5.72,4554.,1.,1.,5435.,0.,0.,9991.,0.759001241602,39.4680645633,13.
5.74,4569.,0.,3.,5423.,0.,0.,9995.,0.761196492817,inf,0.
5.76,4582.,2.,0.,5415.,0.,0.,9999.,0.76305692047,19.8394799322,26.
5.78,4587.,3.,1.,5405.,0.,0.,9996.,0.764118847012,13.2447266815,39.
5.8,4604.,4.,2.,5390.,0.,0.,10000.,0.766643987437,9.96637183669,52.
5.82,4613.,3.,5.,5379.,0.,0.,10000.,0.768142639889,13.3144724247,39.
5.84,4611.,8.,5.,5370.,0.,0.,9994.,0.768270568352,4.99375869429,104.
5.86,4620.,9.,6.,5358.,0.,0.,9993.,0.769847151468,4.44800576404,117.
5.88,4623.,8.,3.,5356.,0.,0.,9990.,0.770578387667,5.00875951984,104.
5.9,4627.,7.,5.,5346.,0.,0.,9985.,0.771631324022,5.73211840702,91.
5.92,4634.,12.,5.,5336.,0.,0.,9987.,0.772643932722,3.34812370846,156.
5.94,4640.,12.,6.,5327.,0.,0.,9985.,0.773799296188,3.35313028348,156.
5.96,4646.,15.,3.,5327.,0.,0.,9991.,0.774334600018,2.68435994673,195.
5.98,4655.,12.,6.,5314.,0.,0.,9987.,0.776145340272,3.36329647451,156.
6.,4658.,15.,9.,5305.,0.,0.,9987.,0.776645541351,2.69237121002,195.
6.02,4661.,19.,9.,5296.,0.,0.,9985.,0.777301405072,2.12735121388,247.
6.04,4660.,13.,18.,5294.,0.,0.,9985.,0.777134637982,3.10853855193,169.
6.06,4664.,21.,9.,5299.,0.,0.,9993.,0.777179029102,1.92444331016,273.
6.08,4672.,24.,11.,5287.,0.,0.,9994.,0.778434199814,1.68660743293,312.
6.1,4675.,26.,12.,5281.,0.,0.,9994.,0.778934050541,1.55786810108,338.
6.12,4673.,25.,17.,5279.,0.,0.,9994.,0.778600816723,1.61948969878,325.
6.14,4672.,22.,18.,5282.,0.,0.,9994.,0.778434199814,1.83993538138,286.
6.16,4673.,25.,17.,5281.,0.,0.,9996.,0.778445034246,1.61916567123,325.
6.18,4668.,33.,13.,5282.,0.,0.,9996.,0.777612116384,1.22532818339,429.
6.2,4663.,35.,21.,5282.,0.,0.,10001.,0.776390847757,1.15349497381,455.
6.22,4647.,38.,24.,5291.,0.,0.,10000.,0.773804215817,1.05888997954,494.
6.24,4644.,34.,18.,5304.,0.,0.,10000.,0.773304665,1.18270125235,442.
6.26,4641.,29.,12.,5317.,0.,0.,9999.,0.772882402423,1.3858581009,377.
6.28,4643.,30.,12.,5315.,0.,0.,10000.,0.773138148061,1.34010612331,390.
6.3,4644.,25.,13.,5320.,0.,0.,10002.,0.773150034993,1.60815207279,325.
6.32,4643.,28.,8.,5323.,0.,0.,10002.,0.772983551351,1.43554088108,364.
6.34,4651.,22.,8.,5323.,0.,0.,10004.,0.774160619326,1.82983419113,286.
6.36,4651.,19.,5.,5328.,0.,0.,10003.,0.77423801217,2.1189671912,247.
6.38,4653.,17.,6.,5327.,0.,0.,10003.,0.774570946168,2.36927583534,221.
6.4,4672.,12.,5.,5319.,0.,0.,10008.,0.777345263083,3.36849614003,156.
6.42,4684.,11.,4.,5307.,0.,0.,10006.,0.779497643976,3.68489795334,143.
6.44,4696.,12.,3.,5295.,0.,0.,10006.,0.781494649042,3.38647681251,156.
6.46,4713.,11.,1.,5286.,0.,0.,10011.,0.783932008586,3.70586040422,143.
6.48,4728.,10.,1.,5273.,0.,0.,10012.,0.786348469717,4.08901204253,130.
6.5,4742.,5.,2.,5265.,0.,0.,10014.,0.788519397871,8.20060173786,65.
6.52,4756.,1.,5.,5254.,0.,0.,10016.,0.79068945904,41.1158518701,13.
6.54,4763.,2.,2.,5244.,0.,0.,10011.,0.79224870717,20.5984663864,26.
6.56,4775.,2.,1.,5234.,0.,0.,10012.,0.794165385554,20.6483000244,26.
6.58,4790.,0.,2.,5224.,0.,0.,10016.,0.796341990917,inf,0.
6.6,4797.,0.,1.,5217.,0.,0.,10015.,0.797585378608,inf,0.
6.62,4803.,0.,0.,5212.,0.,0.,10015.,0.798582983835,inf,0.
6.64,4810.,0.,0.,5202.,0.,0.,10012.,0.799986493092,inf,0.
6.66,4830.,0.,0.,5186.,0.,0.,10016.,0.80299202842,inf,0.
6.68,4836.,0.,1.,5175.,0.,0.,10012.,0.804310744406,inf,0.
6.7,4848.,0.,1.,5163.,0.,0.,10012.,0.806306552705,inf,0.
6.72,4856.,0.,0.,5154.,0.,0.,10010.,0.807798457623,inf,0.
6.74,4863.,1.,0.,5143.,0.,0.,10007.,0.809205430853,42.0786824043,13.
6.76,4877.,2.,0.,5129.,0.,0.,10008.,0.811453948642,21.0978026647,26.
6.78,4886.,3.,0.,5119.,0.,0.,10008.,0.81295140313,14.0911576543,39.
6.8,4904.,0.,3.,5103.,0.,0.,10010.,0.81578328587,inf,0.
6.82,4912.,2.,1.,5096.,0.,0.,10011.,0.817032468952,21.2428441928,26.
6.84,4930.,1.,1.,5076.,0.,0.,10008.,0.820272291738,42.6541591704,13.
6.86,4941.,3.,0.,5064.,0.,0.,10008.,0.82210251389,14.2497769074,39.
6.88,4951.,3.,1.,5048.,0.,0.,10003.,0.824178111858,14.2857539389,39.
6.9,4954.,7.,2.,5037.,0.,0.,10000.,0.824924916109,6.12801366252,91.
6.92,4955.,9.,8.,5025.,0.,0.,9997.,0.825339034758,4.76862553416,117.
6.94,4960.,14.,6.,5019.,0.,0.,9999.,0.826006618405,3.06802458265,182.
6.96,4958.,19.,2.,5018.,0.,0.,9997.,0.825838735486,2.26019022343,247.
6.98,4965.,8.,10.,5014.,0.,0.,9997.,0.82700470385,5.37553057502,104.
7.,4968.,10.,13.,5003.,0.,0.,9994.,0.827752804939,4.30431458568,130.
7.02,4976.,13.,11.,4995.,0.,0.,9995.,0.829002790163,3.31601116065,169.
7.04,4969.,18.,15.,4994.,0.,0.,9996.,0.827753771703,2.39128867381,234.
7.06,4968.,26.,9.,4992.,0.,0.,9995.,0.82766998825,1.6553399765,338.
7.08,4967.,25.,9.,4996.,0.,0.,9997.,0.827337837668,1.72086270235,325.
7.1,4962.,21.,19.,4993.,0.,0.,9995.,0.826670386815,2.04699333878,273.
7.12,4957.,25.,20.,4994.,0.,0.,9996.,0.825754768834,1.71756991917,325.
7.14,4950.,35.,14.,4999.,0.,0.,9998.,0.824423733099,1.22485811775,455.
7.16,4940.,33.,21.,5002.,0.,0.,9996.,0.822922848101,1.29672691216,429.
7.18,4928.,35.,20.,5014.,0.,0.,9997.,0.820841728212,1.21953628191,455.
7.2,4923.,32.,14.,5026.,0.,0.,9995.,0.820172977487,1.33278108842,416.
7.22,4917.,31.,15.,5029.,0.,0.,9992.,0.819419324823,1.37450983519,403.
7.24,4906.,32.,20.,5033.,0.,0.,9991.,0.817668004238,1.32871050689,416.
7.26,4897.,36.,12.,5043.,0.,0.,9988.,0.816413146358,1.17926343363,468.
7.28,4891.,31.,21.,5041.,0.,0.,9984.,0.8157395322,1.36833727982,403.
7.3,4881.,38.,9.,5057.,0.,0.,9985.,0.813990164805,1.11388127815,494.
7.32,4882.,28.,11.,5067.,0.,0.,9988.,0.813912391366,1.51155158397,364.
7.34,4888.,21.,10.,5069.,0.,0.,9988.,0.814912693363,2.01787905023,273.
7.36,4893.,17.,13.,5067.,0.,0.,9990.,0.815582965792,2.49472436595,221.
7.38,4895.,11.,11.,5073.,0.,0.,9990.,0.815916333037,3.8570590289,143.
7.4,4903.,11.,4.,5074.,0.,0.,9992.,0.817086221194,3.86258940928,143.
7.42,4906.,6.,9.,5069.,0.,0.,9990.,0.817749852887,7.08716539169,78.
7.44,4917.,4.,6.,5062.,0.,0.,9989.,0.819665421327,10.6556504773,52.
7.46,4923.,7.,3.,5059.,0.,0.,9992.,0.820419226379,6.09454282453,91.
7.48,4928.,5.,8.,5049.,0.,0.,9990.,0.821416892586,8.54273568289,65.
7.5,4934.,9.,1.,5045.,0.,0.,9989.,0.822499326587,4.75221833139,117.
7.52,4937.,8.,3.,5038.,0.,0.,9986.,0.823246673488,5.35110337767,104.
7.54,4945.,1.,7.,5034.,0.,0.,9987.,0.824498111202,42.8739017825,13.
7.56,4960.,3.,1.,5024.,0.,0.,9988.,0.826916317324,14.333216167,39.
7.58,4967.,2.,0.,5019.,0.,0.,9988.,0.82808333632,21.5301667443,26.
7.6,4975.,3.,0.,5010.,0.,0.,9988.,0.829417072316,14.3765625868,39.
7.62,4990.,2.,3.,4994.,0.,0.,9989.,0.831834543913,21.6276981417,26.
7.64,4995.,2.,0.,4993.,0.,0.,9990.,0.832584695306,21.6472020779,26.
7.66,5011.,2.,0.,4983.,0.,0.,9996.,0.834750281748,21.7035073254,26.
7.68,5028.,2.,0.,4971.,0.,0.,10001.,0.837163453254,21.7662497846,26.
7.7,5036.,2.,1.,4962.,0.,0.,10001.,0.838495455566,21.8008818447,26.
7.72,5046.,2.,0.,4953.,0.,0.,10001.,0.840160458457,21.8441719199,26.
7.74,5051.,1.,1.,4947.,0.,0.,10000.,0.841077059198,43.7360070783,13.
7.76,5063.,2.,1.,4935.,0.,0.,10001.,0.84299096337,21.9177650476,26.
7.78,5070.,3.,1.,4928.,0.,0.,10002.,0.844072066627,14.6305824882,39.
7.8,5078.,2.,1.,4921.,0.,0.,10002.,0.845403935765,21.9805023299,26.
7.82,5083.,2.,1.,4916.,0.,0.,10002.,0.846236353977,22.0021452034,26.
7.84,5093.,4.,0.,4907.,0.,0.,10004.,0.847731677967,11.0205118136,52.
7.86,5103.,1.,4.,4896.,0.,0.,10004.,0.849396181556,44.1686014409,13.
7.88,5119.,4.,2.,4882.,0.,0.,10007.,0.85180394829,11.0734513278,52.
7.9,5125.,6.,4.,4873.,0.,0.,10008.,0.852717138977,7.39021520447,78.
7.92,5129.,7.,5.,4866.,0.,0.,10007.,0.853467952878,6.34004764995,91.
7.94,5139.,9.,8.,4851.,0.,0.,10007.,0.855131957465,4.94076242091,117.
7.96,5143.,17.,8.,4840.,0.,0.,10008.,0.855712047953,2.61747214668,221.
7.98,5146.,17.,4.,4841.,0.,0.,10008.,0.856211199449,2.61899896302,221.
8.,5149.,13.,12.,4836.,0.,0.,10010.,0.856539180046,3.42615672018,169.
8.02,5146.,17.,13.,4834.,0.,0.,10010.,0.85604012828,2.6184756865,221.
8.04,5134.,25.,10.,4838.,0.,0.,10007.,0.854299955171,1.77694390676,325.
8.06,5129.,31.,11.,4838.,0.,0.,10009.,0.853297412773,1.43133759562,403.
8.08,5114.,29.,17.,4843.,0.,0.,10003.,0.851312232689,1.52649089999,377.
8.1,5110.,28.,17.,4847.,0.,0.,10002.,0.85073141232,1.57992976574,364.
8.12,5101.,29.,13.,4857.,0.,0.,10000.,0.849402906151,1.52306727999,377.
8.14,5097.,25.,18.,4858.,0.,0.,9998.,0.848906619719,1.76572576901,325.
8.16,5098.,25.,14.,4862.,0.,0.,9999.,0.848988254159,1.76589556865,325.
8.18,5100.,18.,17.,4863.,0.,0.,9998.,0.849406270466,2.4538403369,234.
8.2,5097.,23.,11.,4866.,0.,0.,9997.,0.848991535855,1.91945912454,299.
8.22,5095.,26.,10.,4871.,0.,0.,10002.,0.848234157685,1.69646831537,338.
8.24,5103.,14.,13.,4872.,0.,0.,10002.,0.849566026824,3.15553095677,182.
8.26,5100.,18.,7.,4878.,0.,0.,10003.,0.848981694703,2.4526137847,234.
8.28,5102.,16.,7.,4878.,0.,0.,10003.,0.849314628701,2.76027254328,208.
8.3,5105.,13.,9.,4873.,0.,0.,10000.,0.850068973907,3.40027589563,169.
8.32,5105.,17.,6.,4873.,0.,0.,10001.,0.84998397551,2.59995098391,221.
8.34,5103.,22.,9.,4866.,0.,0.,10000.,0.849735940029,2.00846676734,286.
8.36,5106.,17.,1.,4876.,0.,0.,10000.,0.850235490846,2.60072032494,221.
8.38,5106.,11.,7.,4877.,0.,0.,10001.,0.850150475799,4.01889315832,143.
8.4,5112.,9.,4.,4877.,0.,0.,10002.,0.851064379605,4.91726085994,117.
8.42,5121.,9.,5.,4869.,0.,0.,10004.,0.852392288017,4.92493321965,117.
8.44,5129.,8.,3.,4861.,0.,0.,10001.,0.853979982446,5.5508698859,104.
8.46,5136.,7.,3.,4855.,0.,0.,10001.,0.85514548447,6.3525093132,91.
8.48,5142.,3.,2.,4851.,0.,0.,9998.,0.856401380929,14.8442906028,39.
8.5,5145.,6.,2.,4842.,0.,0.,9995.,0.857158230585,7.42870466507,78.
8.52,5161.,7.,0.,4830.,0.,0.,9998.,0.859565835662,6.38534620777,91.
8.54,5172.,0.,7.,4820.,0.,0.,9999.,0.861311739998,inf,0.
8.56,5184.,1.,0.,4816.,0.,0.,10001.,0.863137498343,44.8831499138,13.
8.58,5194.,1.,1.,4807.,0.,0.,10003.,0.864629592606,44.9607388155,13.
8.6,5207.,1.,1.,4794.,0.,0.,10003.,0.866793663592,45.0732705068,13.
8.62,5223.,1.,0.,4779.,0.,0.,10003.,0.869457135576,45.2117710499,13.
8.64,5235.,0.,0.,4768.,0.,0.,10003.,0.871454739563,inf,0.
8.66,5242.,0.,0.,4758.,0.,0.,10000.,0.872881794558,inf,0.
8.68,5257.,1.,0.,4742.,0.,0.,10000.,0.875379548644,45.5197365295,13.
8.7,5264.,3.,0.,4733.,0.,0.,10000.,0.876545167218,15.1934495651,39.
8.72,5274.,0.,3.,4722.,0.,0.,9999.,0.878298166425,inf,0.
8.74,5283.,0.,1.,4717.,0.,0.,10001.,0.879621026957,inf,0.
8.76,5295.,0.,2.,4708.,0.,0.,10005.,0.881266559049,inf,0.
8.78,5308.,0.,0.,4698.,0.,0.,10006.,0.883341907392,inf,0.
8.8,5315.,1.,0.,4691.,0.,0.,10007.,0.884418438203,45.9897587866,13.
8.82,5326.,3.,0.,4680.,0.,0.,10009.,0.886071752862,15.3585770496,39.
8.84,5338.,3.,1.,4667.,0.,0.,10009.,0.888068159365,15.393181429,39.
8.86,5349.,7.,3.,4659.,0.,0.,10018.,0.889098729325,6.60473341784,91.
8.88,5353.,10.,3.,4649.,0.,0.,10015.,0.8900301296,4.62815667392,130.
8.9,5359.,15.,3.,4637.,0.,0.,10014.,0.89111671303,3.08920460517,195.
8.92,5375.,11.,8.,4621.,0.,0.,10015.,0.89368801543,4.22470698204,143.
8.94,5382.,12.,5.,4618.,0.,0.,10017.,0.89467322155,3.87691729339,156.
8.96,5389.,9.,6.,4611.,0.,0.,10015.,0.896015760959,5.17697995221,117.
8.98,5391.,14.,4.,4604.,0.,0.,10013.,0.896527332946,3.32995866523,182.
9.,5395.,16.,5.,4604.,0.,0.,10020.,0.896565754725,2.91383870286,208.
9.02,5397.,13.,7.,4604.,0.,0.,10021.,0.896808622007,3.58723448803,169.
9.04,5402.,22.,5.,4593.,0.,0.,10022.,0.897549895039,2.12148157009,286.
9.06,5397.,22.,11.,4588.,0.,0.,10018.,0.897077181187,2.12036424644,286.
9.08,5390.,29.,9.,4589.,0.,0.,10017.,0.896003096276,1.6066262416,377.
9.1,5383.,24.,20.,4587.,0.,0.,10014.,0.895107532421,1.93939965358,312.
9.12,5377.,32.,10.,4595.,0.,0.,10014.,0.894109827573,1.45292846981,416.
9.14,5366.,41.,14.,4590.,0.,0.,10011.,0.892548092101,1.13201221437,533.
9.16,5364.,29.,14.,4603.,0.,0.,10010.,0.892304556567,1.59999437729,377.
9.18,5362.,32.,13.,4602.,0.,0.,10009.,0.892060972371,1.4495990801,416.
9.2,5363.,28.,10.,4611.,0.,0.,10012.,0.891959992194,1.65649712836,364.
9.22,5365.,26.,14.,4606.,0.,0.,10011.,0.892381758129,1.78476351626,338.
9.24,5341.,36.,13.,4616.,0.,0.,10006.,0.888833671323,1.28387085858,468.
9.26,5334.,34.,14.,4622.,0.,0.,10004.,0.887846214466,1.35788244565,442.
9.28,5334.,32.,17.,4624.,0.,0.,10007.,0.887580046919,1.44231757624,416.
9.3,5340.,30.,17.,4628.,0.,0.,10015.,0.887868651609,1.53897232946,390.
9.32,5336.,25.,11.,4645.,0.,0.,10017.,0.887026441879,1.84501499911,325.
9.34,5338.,18.,11.,4651.,0.,0.,10018.,0.887270334107,2.56322540964,234.
9.36,5337.,17.,10.,4656.,0.,0.,10020.,0.88692704967,2.7129533284,221.
9.38,5336.,18.,7.,4657.,0.,0.,10018.,0.886937898613,2.56226504044,234.
9.4,5335.,15.,0.,4663.,0.,0.,10013.,0.887214491053,3.07567690232,195.
9.42,5350.,13.,4.,4647.,0.,0.,10014.,0.889620155759,3.55848062304,169.
9.44,5354.,7.,8.,4642.,0.,0.,10011.,0.89055208444,6.61552977013,91.
9.46,5358.,10.,3.,4642.,0.,0.,10013.,0.891039408259,4.63340492295,130.
9.48,5358.,10.,0.,4646.,0.,0.,10014.,0.890950428889,4.63294223022,130.
9.5,5371.,7.,6.,4629.,0.,0.,10013.,0.893201317984,6.63520979074,91.
9.52,5378.,3.,2.,4631.,0.,0.,10014.,0.894276111714,15.5007859364,39.
9.54,5382.,1.,3.,4629.,0.,0.,10015.,0.894851888195,46.5322981861,13.
9.56,5388.,1.,1.,4623.,0.,0.,10013.,0.896028430702,46.5934783965,13.
9.58,5396.,1.,0.,4615.,0.,0.,10012.,0.897448465016,46.6673201808,13.
9.6,5403.,0.,1.,4607.,0.,0.,10011.,0.898702449053,inf,0.
9.62,5409.,3.,1.,4595.,0.,0.,10008.,0.899970147264,15.5994825526,39.
9.64,5420.,2.,2.,4586.,0.,0.,10010.,0.901620189522,23.4421249276,26.
9.66,5437.,2.,0.,4575.,0.,0.,10014.,0.904086876049,23.5062587773,26.
9.68,5444.,0.,2.,4567.,0.,0.,10013.,0.905341272594,inf,0.
9.7,5451.,2.,0.,4557.,0.,0.,10010.,0.906777057765,23.5762035019,26.
9.72,5461.,3.,1.,4547.,0.,0.,10012.,0.908259093301,15.7431576172,39.
9.74,5472.,2.,1.,4539.,0.,0.,10014.,0.909906820993,23.6575773458,26.
9.76,5482.,3.,1.,4529.,0.,0.,10015.,0.91147864197,15.7989631275,39.
9.78,5488.,2.,2.,4522.,0.,0.,10014.,0.912567367253,23.7267515486,26.
9.8,5490.,4.,0.,4519.,0.,0.,10013.,0.912991107007,11.8688843911,52.
9.82,5501.,4.,0.,4507.,0.,0.,10012.,0.91491178763,11.8938532392,52.
9.84,5508.,5.,2.,4497.,0.,0.,10012.,0.916076009138,9.52719049503,65.
9.86,5513.,7.,3.,4487.,0.,0.,10010.,0.91709079425,6.81267447157,91.
9.88,5526.,8.,3.,4475.,0.,0.,10012.,0.919069721586,5.97395319031,104.
9.9,5539.,6.,3.,4466.,0.,0.,10014.,0.921047858458,7.9824147733,78.
9.92,5545.,7.,3.,4456.,0.,0.,10011.,0.922321873034,6.85153391396,91.
9.94,5551.,9.,1.,4450.,0.,0.,10011.,0.923319876864,5.33473706632,117.
9.96,5563.,11.,2.,4432.,0.,0.,10008.,0.925593257391,4.37553176221,143.
9.98,5569.,10.,3.,4421.,0.,0.,10003.,0.927054717216,4.82068452952,130.
10.,5583.,10.,1.,4410.,0.,0.,10004.,0.929292353837,4.83232023995,130.
