t,s,e,i,r,c,o,n,reff,coal,reportr
5.,8524.,9.,43.,1424.,0.,0.,10000.,0.953540041717,5.50934246325,117.
5.02,8503.,27.,12.,1462.,0.,0.,10004.,0.950810545645,1.8311906805,351.
5.04,8484.,33.,11.,1473.,0.,0.,10001.,0.94897053161,1.49534750435,429.
5.06,8479.,28.,18.,1477.,0.,0.,10002.,0.948316438744,1.76115910052,364.
5.08,8464.,31.,29.,1481.,0.,0.,10005.,0.946354944664,1.58743410073,403.
5.1,8436.,41.,31.,1499.,0.,0.,10007.,0.943035767961,1.19604536424,533.
5.12,8417.,45.,24.,1521.,0.,0.,10007.,0.940911813529,1.08727587341,585.
5.14,8397.,38.,18.,1553.,0.,0.,10006.,0.938769883341,1.28463247194,494.
5.16,8386.,33.,15.,1565.,0.,0.,9999.,0.938196446326,1.47837015785,429.
5.18,8369.,31.,18.,1580.,0.,0.,9998.,0.936388193773,1.57071567988,403.
5.2,8359.,30.,10.,1600.,0.,0.,9999.,0.935175780449,1.62097135278,390.
5.22,8346.,34.,14.,1606.,0.,0.,10000.,0.933628013628,1.4279016679,442.
5.24,8333.,35.,15.,1617.,0.,0.,10000.,0.932173764386,1.38494387852,455.
5.26,8329.,28.,15.,1628.,0.,0.,10000.,0.93172630308,1.73034884858,364.
5.28,8321.,28.,14.,1637.,0.,0.,10000.,0.93083138047,1.72868684944,364.
5.3,8309.,25.,10.,1656.,0.,0.,10000.,0.929488996554,1.93333711283,325.
5.32,8302.,23.,6.,1669.,0.,0.,10000.,0.928705939269,2.09968299313,299.
5.34,8295.,25.,7.,1670.,0.,0.,9997.,0.928201342388,1.93065879217,325.
5.36,8286.,20.,13.,1675.,0.,0.,9994.,0.927472577594,2.41142870175,260.
5.38,8277.,22.,5.,1688.,0.,0.,9992.,0.926650626612,2.19026511745,286.
5.4,8270.,14.,9.,1696.,0.,0.,9989.,0.926145008335,3.43996717382,182.
5.42,8265.,16.,4.,1704.,0.,0.,9989.,0.925585065767,3.00815146374,208.
5.44,8269.,9.,9.,1702.,0.,0.,9989.,0.926033019822,5.35041300341,117.
5.46,8268.,6.,9.,1706.,0.,0.,9989.,0.925921031308,8.024648938,78.
5.48,8268.,7.,4.,1709.,0.,0.,9988.,0.926013734655,6.87895917172,91.
5.5,8267.,6.,3.,1712.,0.,0.,9988.,0.925901734929,8.02448170272,78.
5.52,8271.,4.,2.,1712.,0.,0.,9989.,0.926256996849,12.041340959,52.
5.54,8271.,0.,4.,1712.,0.,0.,9987.,0.926442489389,inf,0.
5.56,8270.,1.,0.,1715.,0.,0.,9986.,0.926423241364,48.1740085509,13.
5.58,8276.,1.,0.,1710.,0.,0.,9987.,0.927002544092,48.2041322928,13.
5.6,8280.,2.,0.,1707.,0.,0.,9989.,0.927264893473,24.1088872303,26.
5.62,8281.,2.,1.,1705.,0.,0.,9989.,0.927376881986,24.1117989316,26.
5.64,8286.,2.,1.,1701.,0.,0.,9990.,0.927843937986,24.1239423876,26.
5.66,8288.,1.,3.,1699.,0.,0.,9991.,0.927975002202,48.2547001145,13.
5.68,8290.,1.,2.,1700.,0.,0.,9993.,0.928013164568,48.2566845576,13.
5.7,8293.,2.,1.,1698.,0.,0.,9994.,0.928256104995,24.1346587299,26.
5.72,8294.,3.,2.,1694.,0.,0.,9993.,0.928460939316,16.0933229481,39.
5.74,8296.,4.,1.,1689.,0.,0.,9990.,0.928963711022,12.0765282433,52.
5.76,8295.,4.,1.,1688.,0.,0.,9988.,0.929037727258,12.0774904543,52.
5.78,8299.,4.,1.,1688.,0.,0.,9992.,0.929113634198,12.0784772446,52.
5.8,8302.,3.,2.,1683.,0.,0.,9990.,0.929635574844,16.1136832973,39.
5.82,8298.,4.,0.,1685.,0.,0.,9987.,0.929466784784,12.0830682022,52.
5.84,8301.,5.,0.,1679.,0.,0.,9985.,0.929989057529,9.6718861983,65.
5.86,8306.,6.,3.,1676.,0.,0.,9991.,0.929990391927,8.05991673004,78.
5.88,8306.,9.,2.,1677.,0.,0.,9994.,0.929711227311,5.37166486891,117.
5.9,8312.,7.,4.,1679.,0.,0.,10002.,0.9296386648,6.90588722423,91.
5.92,8313.,6.,4.,1681.,0.,0.,10004.,0.929564632006,8.05622681072,78.
5.94,8314.,5.,7.,1677.,0.,0.,10003.,0.929769392368,9.66960168062,65.
5.96,8303.,14.,4.,1680.,0.,0.,10001.,0.928724932102,3.44954974781,182.
5.98,8299.,20.,3.,1679.,0.,0.,10001.,0.928277515539,2.4135215404,260.
6.,8297.,19.,6.,1682.,0.,0.,10004.,0.927775502437,2.5391750593,247.
6.02,8289.,18.,8.,1685.,0.,0.,10000.,0.927251690027,2.67872710452,234.
6.04,8280.,17.,16.,1689.,0.,0.,10002.,0.926059690152,2.83265316988,221.
6.06,8274.,20.,9.,1701.,0.,0.,10004.,0.92520362868,2.40552943457,260.
6.08,8263.,21.,12.,1706.,0.,0.,10002.,0.92415835987,2.2883921292,273.
6.1,8250.,29.,10.,1713.,0.,0.,10002.,0.922704401419,1.65450444392,377.
6.12,8238.,26.,16.,1721.,0.,0.,10001.,0.921454412942,1.84290882588,338.
6.14,8222.,25.,17.,1737.,0.,0.,10001.,0.919664746687,1.91290267311,325.
6.16,8213.,26.,18.,1743.,0.,0.,10000.,0.918749925225,1.83749985045,338.
6.18,8198.,27.,16.,1758.,0.,0.,9999.,0.917163661696,1.76638927438,351.
6.2,8182.,34.,15.,1766.,0.,0.,9997.,0.915556767139,1.40026329092,442.
6.22,8166.,32.,20.,1776.,0.,0.,9994.,0.914040679295,1.48531610385,416.
6.24,8153.,39.,12.,1786.,0.,0.,9990.,0.912950956601,1.21726794213,507.
6.26,8143.,33.,14.,1802.,0.,0.,9992.,0.911648671318,1.43653730026,429.
6.28,8131.,35.,10.,1816.,0.,0.,9992.,0.910305212635,1.35245345877,455.
6.3,8131.,25.,18.,1821.,0.,0.,9995.,0.910031984457,1.89286652767,325.
6.32,8120.,30.,6.,1839.,0.,0.,9995.,0.908800850301,1.57525480719,390.
6.34,8117.,21.,10.,1846.,0.,0.,9994.,0.908555987489,2.24975768331,273.
6.36,8111.,22.,8.,1851.,0.,0.,9992.,0.90806611483,2.1463380896,286.
6.38,8110.,19.,6.,1856.,0.,0.,9991.,0.908045037145,2.48517589113,247.
6.4,8108.,17.,9.,1856.,0.,0.,9990.,0.907911977937,2.77714252075,221.
6.42,8103.,12.,6.,1867.,0.,0.,9988.,0.907533779863,3.93264637941,156.
6.44,8108.,12.,3.,1868.,0.,0.,9991.,0.907821104954,3.9338914548,156.
6.46,8113.,10.,6.,1863.,0.,0.,9992.,0.908290024611,4.72310812798,130.
6.48,8119.,9.,2.,1867.,0.,0.,9997.,0.90850713669,5.24915234532,117.
6.5,8119.,6.,3.,1868.,0.,0.,9996.,0.908598023759,7.87451620591,78.
6.52,8122.,3.,4.,1865.,0.,0.,9994.,0.909115649918,15.7580045986,39.
6.54,8125.,0.,4.,1868.,0.,0.,9997.,0.909178530066,inf,0.
6.56,8127.,2.,1.,1865.,0.,0.,9995.,0.909584299309,23.649191782,26.
6.58,8128.,0.,3.,1865.,0.,0.,9996.,0.909605214572,inf,0.
6.6,8130.,0.,0.,1865.,0.,0.,9995.,0.90992006317,inf,0.
6.62,8131.,0.,0.,1859.,0.,0.,9990.,0.910487455921,inf,0.
6.64,8130.,0.,0.,1855.,0.,0.,9985.,0.910831350164,inf,0.
6.66,8134.,0.,0.,1852.,0.,0.,9986.,0.911188227963,inf,0.
6.68,8134.,0.,0.,1850.,0.,0.,9984.,0.911370757656,inf,0.
6.7,8135.,2.,1.,1847.,0.,0.,9985.,0.911391517046,23.6961794432,26.
6.72,8137.,1.,1.,1843.,0.,0.,9982.,0.911889561634,47.418257205,13.
6.74,8144.,0.,3.,1835.,0.,0.,9982.,0.912674030963,inf,0.
6.76,8150.,3.,0.,1833.,0.,0.,9986.,0.912980582481,15.824996763,39.
6.78,8155.,3.,1.,1828.,0.,0.,9987.,0.913449220284,15.8331198183,39.
6.8,8161.,2.,3.,1824.,0.,0.,9990.,0.91384677503,23.7600161508,26.
6.82,8160.,2.,1.,1827.,0.,0.,9990.,0.913734797727,23.7571047409,26.
6.84,8161.,5.,2.,1823.,0.,0.,9991.,0.913755308033,9.50305520354,65.
6.86,8166.,5.,1.,1820.,0.,0.,9992.,0.914223633794,9.50792579146,65.
6.88,8170.,5.,2.,1814.,0.,0.,9991.,0.914763002895,9.51353523011,65.
6.9,8166.,9.,3.,1814.,0.,0.,9992.,0.914223633794,5.28218099525,117.
6.92,8172.,10.,1.,1812.,0.,0.,9995.,0.914620757224,4.75602793756,130.
6.94,8172.,7.,6.,1808.,0.,0.,9993.,0.914803809512,6.79568544209,91.
6.96,8169.,8.,5.,1810.,0.,0.,9992.,0.914559498465,5.94463674002,104.
6.98,8164.,13.,4.,1810.,0.,0.,9991.,0.91409120632,3.65636482528,169.
7.,8161.,16.,4.,1812.,0.,0.,9993.,0.913572428956,2.96911039411,208.
7.02,8159.,14.,8.,1810.,0.,0.,9991.,0.913531375841,3.39311653884,182.
7.04,8149.,9.,11.,1816.,0.,0.,9985.,0.912959984316,5.27487990938,117.
7.06,8141.,19.,7.,1821.,0.,0.,9988.,0.911789769452,2.49542463218,247.
7.08,8142.,17.,10.,1819.,0.,0.,9988.,0.911901769178,2.78934658807,221.
7.1,8128.,19.,17.,1824.,0.,0.,9988.,0.910333773014,2.49143979983,247.
7.12,8119.,26.,5.,1840.,0.,0.,9990.,0.909143728277,1.81828745655,338.
7.14,8114.,23.,13.,1837.,0.,0.,9987.,0.908856771721,2.05480661432,299.
7.16,8099.,26.,13.,1848.,0.,0.,9986.,0.907267452456,1.81453490491,338.
7.18,8083.,37.,12.,1858.,0.,0.,9990.,0.905112545346,1.27205006373,481.
7.2,8075.,35.,13.,1869.,0.,0.,9992.,0.904035738781,1.3431388119,455.
7.22,8063.,29.,22.,1874.,0.,0.,9988.,0.903053790823,1.6192688663,377.
7.24,8055.,29.,20.,1885.,0.,0.,9989.,0.902067477889,1.61750030518,377.
7.26,8043.,30.,16.,1899.,0.,0.,9988.,0.900813796303,1.56141058026,390.
7.28,8032.,27.,16.,1910.,0.,0.,9985.,0.899852079276,1.73304844898,351.
7.3,8018.,33.,9.,1923.,0.,0.,9983.,0.898463574666,1.41576078432,429.
7.32,8018.,21.,15.,1933.,0.,0.,9987.,0.898103721427,2.22387588163,273.
7.34,8015.,16.,18.,1939.,0.,0.,9988.,0.897677803975,2.91745286292,208.
7.36,8002.,17.,11.,1957.,0.,0.,9987.,0.896311546378,2.74165884774,221.
7.38,7992.,20.,3.,1971.,0.,0.,9986.,0.895281081618,2.32773081221,260.
7.4,7988.,11.,7.,1978.,0.,0.,9984.,0.895012246393,4.23096698295,143.
7.42,7988.,12.,2.,1983.,0.,0.,9985.,0.894922610715,3.87799797976,156.
7.44,7988.,8.,6.,1983.,0.,0.,9985.,0.894922610715,5.81699696965,104.
7.46,7990.,7.,7.,1982.,0.,0.,9986.,0.895057037304,6.64899513425,91.
7.48,7983.,11.,0.,1991.,0.,0.,9985.,0.894362443833,4.22789518903,143.
7.5,7986.,4.,6.,1990.,0.,0.,9986.,0.894608948674,11.6299163328,52.
7.52,7990.,1.,4.,1990.,0.,0.,9985.,0.895146677468,46.5476272283,13.
7.54,7990.,2.,4.,1987.,0.,0.,9983.,0.895326011671,23.2784763035,26.
7.56,7992.,4.,4.,1985.,0.,0.,9985.,0.89537074422,11.6398196749,52.
7.58,7992.,4.,0.,1990.,0.,0.,9986.,0.895281081618,11.638654061,52.
7.6,7997.,2.,1.,1988.,0.,0.,9988.,0.895661808906,23.2872070316,26.
7.62,8006.,2.,0.,1983.,0.,0.,9991.,0.89640056318,23.3064146427,26.
7.64,8008.,0.,2.,1979.,0.,0.,9989.,0.896804017745,inf,0.
7.66,8011.,1.,1.,1975.,0.,0.,9988.,0.897229805071,46.6559498637,13.
7.68,8010.,2.,0.,1974.,0.,0.,9986.,0.897297480451,23.3297344917,26.
7.7,8017.,2.,1.,1966.,0.,0.,9986.,0.898081635552,23.3501225244,26.
7.72,8021.,0.,3.,1963.,0.,0.,9987.,0.898439754248,inf,0.
7.74,8025.,0.,4.,1958.,0.,0.,9987.,0.898887798011,inf,0.
7.76,8027.,0.,2.,1960.,0.,0.,9989.,0.898931799505,inf,0.
7.78,8029.,0.,4.,1955.,0.,0.,9988.,0.899245800139,inf,0.
7.8,8033.,2.,1.,1953.,0.,0.,9989.,0.899603730588,23.3896969953,26.
7.82,8036.,2.,0.,1952.,0.,0.,9990.,0.899849612075,23.3960899139,26.
7.84,8036.,3.,1.,1952.,0.,0.,9992.,0.899669498061,15.5942712997,39.
7.86,8037.,4.,1.,1949.,0.,0.,9991.,0.89987151215,11.698329658,52.
7.88,8040.,3.,2.,1947.,0.,0.,9992.,0.900117317622,15.6020335055,39.
7.9,8035.,7.,2.,1946.,0.,0.,9990.,0.899737634771,6.68376528687,91.
7.92,8032.,14.,4.,1943.,0.,0.,9993.,0.899131693343,3.33963200385,182.
7.94,8036.,10.,10.,1940.,0.,0.,9996.,0.899309486257,4.67640932854,130.
7.96,8033.,10.,10.,1948.,0.,0.,10001.,0.898524314052,4.67232643307,130.
7.98,8025.,19.,9.,1945.,0.,0.,9998.,0.897898823638,2.4574073068,247.
8.,8022.,21.,9.,1947.,0.,0.,9999.,0.897473395234,2.22231507391,273.
8.02,8014.,20.,12.,1953.,0.,0.,9999.,0.896578383122,2.33110379612,260.
8.04,8006.,20.,13.,1960.,0.,0.,9999.,0.89568337101,2.32877676463,260.
8.06,8005.,19.,12.,1963.,0.,0.,9999.,0.895571494496,2.45103777441,247.
8.08,7997.,18.,18.,1968.,0.,0.,10001.,0.894497564979,2.58410407661,234.
8.1,7981.,27.,17.,1975.,0.,0.,10000.,0.892797169514,1.71946121536,351.
8.12,7967.,22.,17.,1989.,0.,0.,9995.,0.891676893392,2.10759992984,286.
8.14,7952.,34.,13.,1996.,0.,0.,9995.,0.889998074087,1.36117352507,442.
8.16,7940.,33.,10.,2009.,0.,0.,9992.,0.888921828597,1.40072530567,429.
8.18,7937.,35.,14.,2006.,0.,0.,9992.,0.888585963926,1.32018486069,455.
8.2,7940.,29.,11.,2017.,0.,0.,9997.,0.888477234305,1.59313159255,377.
8.22,7934.,29.,9.,2023.,0.,0.,9995.,0.887983490922,1.59224625958,377.
8.24,7924.,23.,11.,2033.,0.,0.,9991.,0.887219343322,2.00588721099,299.
8.26,7921.,24.,13.,2037.,0.,0.,9995.,0.886528514191,1.92081178075,312.
8.28,7913.,29.,10.,2047.,0.,0.,9999.,0.885278855209,1.58739656796,377.
8.3,7907.,25.,9.,2057.,0.,0.,9998.,0.88469607458,1.84016783513,325.
8.32,7903.,21.,10.,2060.,0.,0.,9994.,0.884602435521,2.19044412605,273.
8.34,7899.,20.,10.,2066.,0.,0.,9995.,0.884066245877,2.29857223928,260.
8.36,7895.,18.,6.,2076.,0.,0.,9995.,0.883618560729,2.55267584211,234.
8.38,7889.,18.,10.,2078.,0.,0.,9995.,0.882947033008,2.55073587313,234.
8.4,7883.,18.,4.,2088.,0.,0.,9993.,0.882452083992,2.54930602042,234.
8.42,7879.,11.,8.,2091.,0.,0.,9989.,0.882357499477,4.17114454298,143.
8.44,7881.,6.,6.,2097.,0.,0.,9990.,0.88249313001,7.64827379342,78.
8.46,7878.,10.,4.,2096.,0.,0.,9988.,0.882333841511,4.58813597586,130.
8.48,7880.,6.,4.,2096.,0.,0.,9986.,0.882734599994,7.65036653328,78.
8.5,7880.,6.,0.,2100.,0.,0.,9986.,0.882734599994,7.65036653328,78.
8.52,7883.,7.,0.,2094.,0.,0.,9984.,0.883247563635,6.56126761557,91.
8.54,7879.,2.,3.,2096.,0.,0.,9980.,0.883153212653,22.961983529,26.
8.56,7876.,2.,4.,2093.,0.,0.,9975.,0.883259458896,22.9647459313,26.
8.58,7881.,2.,0.,2095.,0.,0.,9978.,0.883554456685,22.9724158738,26.
8.6,7888.,1.,2.,2094.,0.,0.,9985.,0.883719273074,45.9534021999,13.
8.62,7889.,2.,0.,2093.,0.,0.,9984.,0.883919831221,22.9819156117,26.
8.64,7898.,1.,1.,2082.,0.,0.,9982.,0.885105537395,46.0254879446,13.
8.66,7898.,1.,2.,2078.,0.,0.,9979.,0.885371627847,46.039324648,13.
8.68,7902.,1.,2.,2076.,0.,0.,9981.,0.88564252954,46.0534115361,13.
8.7,7908.,0.,1.,2073.,0.,0.,9982.,0.886226207866,inf,0.
8.72,7917.,0.,0.,2067.,0.,0.,9984.,0.887057079956,inf,0.
8.74,7922.,1.,1.,2062.,0.,0.,9986.,0.887439530603,46.1468555914,13.
8.76,7923.,1.,2.,2059.,0.,0.,9985.,0.887640441248,46.1573029449,13.
8.78,7926.,4.,1.,2055.,0.,0.,9986.,0.887887619233,11.54253905,52.
8.8,7932.,5.,0.,2048.,0.,0.,9985.,0.888648741636,9.24194691302,65.
8.82,7937.,3.,2.,2044.,0.,0.,9986.,0.889119862963,15.411410958,39.
8.84,7936.,3.,4.,2044.,0.,0.,9987.,0.888918824301,15.4079262879,39.
8.86,7937.,5.,3.,2044.,0.,0.,9989.,0.888852833272,9.24406946603,65.
8.88,7938.,7.,0.,2044.,0.,0.,9989.,0.888964821786,6.60373867612,91.
8.9,7940.,8.,2.,2039.,0.,0.,9989.,0.889188798813,5.77972719228,104.
8.92,7940.,11.,0.,2038.,0.,0.,9989.,0.889188798813,4.20343795803,143.
8.94,7944.,7.,4.,2033.,0.,0.,9988.,0.889725823428,6.60939183118,91.
8.96,7940.,8.,7.,2034.,0.,0.,9989.,0.889188798813,5.77972719228,104.
8.98,7942.,11.,5.,2032.,0.,0.,9990.,0.889323745533,4.20407588797,143.
9.,7944.,12.,8.,2030.,0.,0.,9994.,0.88919166744,3.85316389224,156.
9.02,7944.,12.,11.,2029.,0.,0.,9996.,0.889013757943,3.85239295109,156.
9.04,7936.,14.,16.,2032.,0.,0.,9998.,0.887940817993,3.2980658954,182.
9.06,7929.,15.,16.,2039.,0.,0.,9999.,0.887068879433,3.07517211537,195.
9.08,7915.,28.,14.,2043.,0.,0.,10000.,0.885414057976,1.64434039338,364.
9.1,7911.,28.,15.,2046.,0.,0.,10000.,0.884966596671,1.64350939382,364.
9.12,7892.,31.,19.,2056.,0.,0.,9998.,0.883017759022,1.48119107965,403.
9.14,7875.,35.,17.,2072.,0.,0.,9999.,0.881027547677,1.30895521369,455.
9.16,7862.,25.,24.,2087.,0.,0.,9998.,0.879661127905,1.82969514604,325.
9.18,7847.,30.,19.,2104.,0.,0.,10000.,0.877807215785,1.52153250736,390.
9.2,7827.,36.,15.,2123.,0.,0.,10001.,0.875482361022,1.26458563259,468.
9.22,7810.,32.,25.,2133.,0.,0.,10000.,0.87366819871,1.4197108229,416.
9.24,7788.,40.,17.,2154.,0.,0.,9999.,0.87129429096,1.13268257825,520.
9.26,7768.,38.,10.,2180.,0.,0.,9996.,0.869317582037,1.18959248068,494.
9.28,7767.,34.,13.,2184.,0.,0.,9998.,0.869031796037,1.32910745276,442.
9.3,7763.,29.,10.,2195.,0.,0.,9997.,0.868671129711,1.5576171981,377.
9.32,7766.,23.,12.,2202.,0.,0.,10003.,0.868485578678,1.96353261266,299.
9.34,7768.,22.,9.,2206.,0.,0.,10005.,0.86853558721,2.05290229704,286.
9.36,7768.,20.,8.,2213.,0.,0.,10009.,0.868188485367,2.25729006195,260.
9.38,7767.,17.,6.,2219.,0.,0.,10009.,0.868076720629,2.65529349839,221.
9.4,7770.,14.,3.,2224.,0.,0.,10011.,0.868238523281,3.22488594362,182.
9.42,7772.,7.,9.,2221.,0.,0.,10009.,0.868635544319,6.45272118637,91.
9.44,7769.,9.,10.,2221.,0.,0.,10009.,0.868300250105,5.0168458895,117.
9.46,7772.,6.,2.,2231.,0.,0.,10011.,0.8684620081,7.52667073687,78.
9.48,7774.,4.,0.,2235.,0.,0.,10013.,0.868511981386,11.290655758,52.
9.5,7778.,5.,1.,2227.,0.,0.,10011.,0.869132462559,9.03897761061,65.
9.52,7780.,4.,3.,2224.,0.,0.,10011.,0.869355947378,11.3016273159,52.
9.54,7785.,5.,2.,2222.,0.,0.,10014.,0.869654049882,9.04440211877,65.
9.56,7787.,1.,4.,2223.,0.,0.,10015.,0.869790610289,45.229111735,13.
9.58,7789.,0.,1.,2225.,0.,0.,10015.,0.870014005848,inf,0.
9.6,7793.,1.,0.,2222.,0.,0.,10016.,0.870373889939,45.2594422768,13.
9.62,7802.,0.,1.,2216.,0.,0.,10019.,0.871118151611,inf,0.
9.64,7803.,1.,0.,2216.,0.,0.,10020.,0.871142855714,45.2994284972,13.
9.66,7804.,1.,0.,2214.,0.,0.,10019.,0.871341457982,45.3097558151,13.
9.68,7811.,1.,0.,2207.,0.,0.,10019.,0.872123030279,45.3503975745,13.
9.7,7814.,2.,1.,2203.,0.,0.,10020.,0.872370918179,22.6816438727,26.
9.72,7816.,1.,0.,2202.,0.,0.,10019.,0.872681296205,45.3794274027,13.
9.74,7816.,0.,2.,2200.,0.,0.,10018.,0.872768407535,inf,0.
9.76,7825.,2.,2.,2191.,0.,0.,10020.,0.873598980644,22.7135734967,26.
9.78,7833.,1.,3.,2190.,0.,0.,10027.,0.87388162084,45.4418442837,13.
9.8,7834.,1.,2.,2191.,0.,0.,10028.,0.873906029659,45.4431135423,13.
9.82,7833.,4.,0.,2191.,0.,0.,10028.,0.873794476681,11.3593281969,52.
9.84,7837.,4.,1.,2185.,0.,0.,10027.,0.874327877253,11.3662624043,52.
9.86,7833.,7.,0.,2184.,0.,0.,10024.,0.874143157638,6.49363488531,91.
9.88,7836.,8.,0.,2184.,0.,0.,10028.,0.874129135615,5.6818393815,104.
9.9,7842.,7.,3.,2178.,0.,0.,10030.,0.874624017102,6.49720698418,91.
9.92,7839.,10.,3.,2176.,0.,0.,10028.,0.874463794549,4.54721173166,130.
9.94,7840.,11.,2.,2175.,0.,0.,10028.,0.874575347527,4.13435618831,143.
9.96,7846.,7.,4.,2172.,0.,0.,10029.,0.875157394016,6.50116921269,91.
9.98,7846.,8.,6.,2167.,0.,0.,10027.,0.875331954182,5.68965770218,104.
10.,7842.,13.,9.,2163.,0.,0.,10027.,0.874885697769,3.49954279108,169.
