t,s,e,i,r,c,o,n,reff,coal,reportr
5.,6143.,27.,13.,3817.,0.,0.,10000.,0.824209456222,1.58736636013,351.
5.02,6131.,38.,12.,3818.,0.,0.,9999.,0.822681678244,1.12577492812,494.
5.04,6126.,28.,21.,3824.,0.,0.,9999.,0.822010758591,1.52659140881,364.
5.06,6117.,31.,15.,3837.,0.,0.,10000.,0.820721022905,1.37669332874,403.
5.08,6112.,31.,16.,3839.,0.,0.,9998.,0.820214213187,1.37584319631,403.
5.1,6112.,31.,17.,3843.,0.,0.,10003.,0.819804229076,1.37515548103,403.
5.12,6103.,42.,8.,3856.,0.,0.,10009.,0.818106340029,1.01289356385,546.
5.14,6103.,38.,12.,3856.,0.,0.,10009.,0.818106340029,1.11951393899,494.
5.16,6092.,39.,14.,3869.,0.,0.,10014.,0.816224046436,1.08829872858,507.
5.18,6078.,34.,24.,3878.,0.,0.,10014.,0.814348285332,1.24547384815,442.
5.2,6061.,31.,22.,3894.,0.,0.,10008.,0.812557428282,1.36299955712,403.
5.22,6063.,26.,16.,3903.,0.,0.,10008.,0.812825554805,1.62565110961,338.
5.24,6052.,27.,19.,3905.,0.,0.,10003.,0.811756412691,1.56338272074,351.
5.26,6043.,22.,24.,3913.,0.,0.,10002.,0.81063027895,1.91603520479,286.
5.28,6033.,31.,11.,3923.,0.,0.,9998.,0.809612622408,1.35805988275,403.
5.3,6025.,20.,21.,3926.,0.,0.,9992.,0.809024555431,2.10346384412,260.
5.32,6020.,25.,12.,3937.,0.,0.,9994.,0.808191398064,1.68103810797,325.
5.34,6014.,21.,10.,3946.,0.,0.,9991.,0.807628325646,1.99984156827,273.
5.36,6015.,22.,5.,3951.,0.,0.,9993.,0.807600951331,1.90887497587,286.
5.38,6022.,14.,3.,3956.,0.,0.,9995.,0.808379013757,3.00255062253,182.
5.4,6027.,10.,6.,3952.,0.,0.,9995.,0.809050201912,4.20706104994,130.
5.42,6035.,9.,7.,3945.,0.,0.,9996.,0.810043058131,4.68024878031,117.
5.44,6037.,10.,1.,3951.,0.,0.,9999.,0.810068388771,4.21235562161,130.
5.46,6036.,11.,1.,3947.,0.,0.,9995.,0.810258340591,3.83031215552,143.
5.48,6039.,9.,6.,3940.,0.,0.,9994.,0.810742168258,4.68428808327,117.
5.5,6044.,6.,3.,3940.,0.,0.,9993.,0.811494621753,7.03295338852,78.
5.52,6052.,4.,3.,3932.,0.,0.,9991.,0.812731397873,10.5655081723,52.
5.54,6055.,4.,4.,3930.,0.,0.,9993.,0.812971531223,10.5686299059,52.
5.56,6058.,3.,1.,3930.,0.,0.,9992.,0.81345572727,14.0998992727,39.
5.58,6068.,6.,1.,3918.,0.,0.,9993.,0.814716969688,7.06088040396,78.
5.6,6078.,3.,0.,3910.,0.,0.,9991.,0.816222973607,14.1478648759,39.
5.62,6090.,3.,0.,3898.,0.,0.,9991.,0.8178344701,14.1757974817,39.
5.64,6100.,0.,2.,3891.,0.,0.,9993.,0.819013433602,inf,0.
5.66,6104.,0.,0.,3886.,0.,0.,9990.,0.81979660285,inf,0.
5.68,6114.,0.,0.,3874.,0.,0.,9988.,0.82130407626,inf,0.
5.7,6120.,0.,0.,3866.,0.,0.,9986.,0.822274719049,inf,0.
5.72,6131.,0.,0.,3853.,0.,0.,9984.,0.823917678361,inf,0.
5.74,6140.,0.,0.,3846.,0.,0.,9986.,0.824961891333,inf,0.
5.76,6145.,0.,0.,3840.,0.,0.,9985.,0.825716371804,inf,0.
5.78,6153.,1.,0.,3831.,0.,0.,9985.,0.826791348366,42.993150115,13.
5.8,6162.,2.,1.,3819.,0.,0.,9984.,0.82808362976,21.5301743738,26.
5.82,6171.,4.,0.,3813.,0.,0.,9988.,0.828960983743,10.7764927887,52.
5.84,6180.,2.,2.,3807.,0.,0.,9991.,0.829920693796,21.5779380387,26.
5.86,6188.,3.,2.,3798.,0.,0.,9991.,0.830995024791,14.4039137631,39.
5.88,6189.,8.,2.,3793.,0.,0.,9992.,0.831046136691,5.40179988849,104.
5.9,6191.,9.,5.,3787.,0.,0.,9992.,0.83131469256,4.80315155701,117.
5.92,6196.,8.,6.,3787.,0.,0.,9997.,0.831569964356,5.40520476831,104.
5.94,6198.,13.,5.,3779.,0.,0.,9995.,0.832004836809,3.32801934724,169.
5.96,6205.,13.,7.,3772.,0.,0.,9997.,0.832777861334,3.33111144534,169.
5.98,6205.,18.,11.,3762.,0.,0.,9996.,0.832861172445,2.40604338706,234.
6.,6204.,20.,8.,3767.,0.,0.,9999.,0.832477105174,2.16444047345,260.
6.02,6209.,15.,8.,3767.,0.,0.,9999.,0.833148024827,2.88824648607,195.
6.04,6202.,17.,7.,3771.,0.,0.,9997.,0.832375229008,2.54608893579,221.
6.06,6200.,15.,8.,3773.,0.,0.,9996.,0.832190051436,2.88492551164,195.
6.08,6185.,25.,8.,3774.,0.,0.,9992.,0.830509024953,1.7274587719,325.
6.1,6176.,26.,14.,3779.,0.,0.,9995.,0.829051608928,1.65810321786,338.
6.12,6179.,23.,13.,3782.,0.,0.,9997.,0.829288381174,1.87491286178,299.
6.14,6175.,20.,16.,3783.,0.,0.,9994.,0.829000312799,2.15540081328,260.
6.16,6177.,26.,12.,3781.,0.,0.,9996.,0.829102894793,1.65820578959,338.
6.18,6164.,26.,21.,3784.,0.,0.,9995.,0.827440757356,1.65488151471,338.
6.2,6159.,30.,13.,3794.,0.,0.,9996.,0.82668685916,1.43292388921,390.
6.22,6149.,30.,15.,3801.,0.,0.,9995.,0.825427192891,1.43074046768,390.
6.24,6138.,21.,19.,3813.,0.,0.,9991.,0.824280456071,2.04107541503,273.
6.26,6125.,30.,15.,3820.,0.,0.,9990.,0.822617004007,1.42586947361,390.
6.28,6129.,27.,13.,3823.,0.,0.,9992.,0.82298946062,1.58501673897,351.
6.3,6124.,24.,11.,3832.,0.,0.,9991.,0.82240037683,1.78186748313,312.
6.32,6127.,24.,4.,3834.,0.,0.,9989.,0.822967992819,1.78309731777,312.
6.34,6127.,23.,3.,3836.,0.,0.,9989.,0.822967992819,1.86062328811,299.
6.36,6132.,20.,7.,3833.,0.,0.,9992.,0.823392294423,2.1408199655,260.
6.38,6135.,11.,14.,3833.,0.,0.,9993.,0.823712691008,3.89391453931,143.
6.4,6150.,10.,6.,3832.,0.,0.,9998.,0.825313712549,4.29163130526,130.
6.42,6157.,8.,5.,3833.,0.,0.,10003.,0.825840091365,5.36796059387,104.
6.44,6162.,8.,6.,3828.,0.,0.,10004.,0.826428124703,5.37178281057,104.
6.46,6170.,9.,4.,3823.,0.,0.,10006.,0.827335658655,4.78016158334,117.
6.48,6176.,11.,6.,3815.,0.,0.,10008.,0.82797470336,3.91406223407,143.
6.5,6180.,9.,5.,3815.,0.,0.,10009.,0.82842817981,4.78647392779,117.
6.52,6190.,7.,1.,3814.,0.,0.,10012.,0.829520046238,6.16214891491,91.
6.54,6195.,7.,5.,3805.,0.,0.,10012.,0.830190094741,6.16712641807,91.
6.56,6201.,6.,1.,3807.,0.,0.,10015.,0.830745228085,7.19979197674,78.
6.58,6202.,4.,2.,3807.,0.,0.,10015.,0.830879197643,10.8014295694,52.
6.6,6216.,5.,2.,3799.,0.,0.,10022.,0.83217312274,8.65460047649,65.
6.62,6224.,3.,3.,3791.,0.,0.,10021.,0.833327280418,14.4443395272,39.
6.64,6232.,1.,3.,3788.,0.,0.,10024.,0.834148674984,43.3757310992,13.
6.66,6236.,0.,1.,3785.,0.,0.,10022.,0.83485064244,inf,0.
6.68,6240.,0.,0.,3781.,0.,0.,10021.,0.835469509931,inf,0.
6.7,6241.,1.,0.,3778.,0.,0.,10020.,0.835686792828,43.4557132271,13.
6.72,6248.,3.,0.,3769.,0.,0.,10020.,0.836624111775,14.5014846041,39.
6.74,6257.,1.,2.,3764.,0.,0.,10024.,0.837494906832,43.5497351553,13.
6.76,6267.,2.,1.,3754.,0.,0.,10024.,0.838833399571,21.8096683888,26.
6.78,6281.,3.,1.,3742.,0.,0.,10027.,0.840455756358,14.5678997769,39.
6.8,6281.,2.,4.,3737.,0.,0.,10024.,0.840707289406,21.8583895245,26.
6.82,6284.,4.,1.,3733.,0.,0.,10022.,0.841276689719,10.9365969664,52.
6.84,6288.,5.,4.,3725.,0.,0.,10022.,0.841812193659,8.75484681406,65.
6.86,6285.,7.,3.,3725.,0.,0.,10020.,0.841578511925,6.25172608859,91.
6.88,6291.,5.,2.,3721.,0.,0.,10019.,0.842466006609,8.76164646874,65.
6.9,6292.,9.,3.,3715.,0.,0.,10019.,0.842599922681,4.86835510882,117.
6.92,6298.,10.,4.,3708.,0.,0.,10020.,0.843319247113,4.38526008499,130.
6.94,6299.,10.,8.,3706.,0.,0.,10023.,0.843200694522,4.38464361151,130.
6.96,6291.,14.,7.,3707.,0.,0.,10019.,0.842466006609,3.12915945312,182.
6.98,6294.,20.,5.,3702.,0.,0.,10021.,0.842699534536,2.19101878979,260.
7.,6293.,20.,5.,3704.,0.,0.,10022.,0.842481573584,2.19045209132,260.
7.02,6292.,20.,5.,3705.,0.,0.,10022.,0.842347697599,2.19010401376,260.
7.04,6289.,14.,10.,3703.,0.,0.,10016.,0.842450430309,3.12910159829,182.
7.06,6288.,14.,15.,3699.,0.,0.,10016.,0.842316474127,3.12860404676,182.
7.08,6273.,24.,11.,3707.,0.,0.,10015.,0.840391036249,1.82084724521,312.
7.1,6270.,29.,14.,3704.,0.,0.,10017.,0.839821414861,1.50588667492,377.
7.12,6270.,26.,14.,3708.,0.,0.,10018.,0.839737583616,1.67947516723,338.
7.14,6267.,29.,13.,3712.,0.,0.,10021.,0.839084522233,1.50456535021,377.
7.16,6256.,32.,15.,3718.,0.,0.,10021.,0.837611739443,1.3611190766,416.
7.18,6248.,31.,15.,3729.,0.,0.,10023.,0.836373700488,1.40294943308,403.
7.2,6236.,32.,10.,3745.,0.,0.,10023.,0.83476734895,1.35649694204,416.
7.22,6239.,29.,16.,3739.,0.,0.,10023.,0.835168936835,1.49754430053,377.
7.24,6227.,32.,14.,3747.,0.,0.,10020.,0.833812154934,1.35494475177,416.
7.26,6216.,34.,17.,3752.,0.,0.,10019.,0.832422301237,1.27311646072,442.
7.28,6209.,29.,16.,3764.,0.,0.,10018.,0.831567887826,1.49108724714,377.
7.3,6200.,30.,17.,3771.,0.,0.,10018.,0.830362522874,1.43929503965,390.
7.32,6193.,29.,7.,3785.,0.,0.,10014.,0.829756322978,1.48783892396,377.
7.34,6191.,21.,10.,3790.,0.,0.,10012.,0.829654055938,2.05438147185,273.
7.36,6195.,15.,11.,3789.,0.,0.,10010.,0.830355966887,2.87856735188,195.
7.38,6195.,19.,4.,3795.,0.,0.,10013.,0.830107183516,2.27187229173,247.
7.4,6199.,12.,7.,3796.,0.,0.,10014.,0.830560220594,3.59909428924,156.
7.42,6200.,10.,8.,3794.,0.,0.,10012.,0.830860143243,4.32047274486,130.
7.44,6206.,7.,9.,3794.,0.,0.,10016.,0.831332067181,6.17560964191,91.
7.46,6216.,10.,3.,3786.,0.,0.,10015.,0.832754771453,4.33032481155,130.
7.48,6217.,6.,7.,3786.,0.,0.,10016.,0.832805585186,7.21764840494,78.
7.5,6214.,11.,2.,3787.,0.,0.,10014.,0.832569964635,3.93578528736,143.
7.52,6220.,5.,4.,3784.,0.,0.,10013.,0.833457091439,8.66795375097,65.
7.54,6227.,2.,1.,3781.,0.,0.,10011.,0.834561761306,21.698605794,26.
7.56,6240.,2.,0.,3773.,0.,0.,10015.,0.83597004084,21.7352210618,26.
7.58,6250.,2.,0.,3763.,0.,0.,10015.,0.837309736419,21.7700531469,26.
7.6,6255.,3.,0.,3755.,0.,0.,10013.,0.838146962533,14.5278806839,39.
7.62,6262.,2.,1.,3747.,0.,0.,10012.,0.839168744676,21.8183873616,26.
7.64,6277.,1.,2.,3735.,0.,0.,10015.,0.84092691448,43.728199553,13.
7.66,6289.,1.,2.,3724.,0.,0.,10016.,0.842450430309,43.8074223761,13.
7.68,6296.,4.,1.,3714.,0.,0.,10015.,0.843472336079,10.965140369,52.
7.7,6305.,4.,1.,3706.,0.,0.,10016.,0.844593729225,10.9797184799,52.
7.72,6306.,1.,1.,3707.,0.,0.,10015.,0.844812031657,43.9302256462,13.
7.74,6311.,3.,0.,3705.,0.,0.,10019.,0.845144328042,14.6491683527,39.
7.76,6325.,2.,1.,3692.,0.,0.,10020.,0.846934620195,22.0203001251,26.
7.78,6332.,3.,2.,3685.,0.,0.,10022.,0.847702736999,14.693514108,39.
7.8,6335.,6.,0.,3684.,0.,0.,10025.,0.847850568137,7.34803825719,78.
7.82,6344.,7.,0.,3675.,0.,0.,10026.,0.848970406111,6.30663730254,91.
7.84,6350.,6.,2.,3667.,0.,0.,10025.,0.849858106972,7.36543692709,78.
7.86,6352.,4.,5.,3662.,0.,0.,10023.,0.850295413812,11.0538403796,52.
7.88,6360.,7.,3.,3652.,0.,0.,10022.,0.851451264579,6.32506653687,91.
7.9,6372.,8.,5.,3641.,0.,0.,10026.,0.852717438168,5.54266334809,104.
7.92,6378.,8.,2.,3638.,0.,0.,10026.,0.853520373609,5.54788242846,104.
7.94,6378.,5.,7.,3634.,0.,0.,10024.,0.853690668975,8.87838295734,65.
7.96,6377.,13.,8.,3626.,0.,0.,10024.,0.853556819701,3.4142272788,169.
7.98,6382.,14.,7.,3625.,0.,0.,10028.,0.853885329706,3.17157408176,182.
8.,6376.,12.,12.,3625.,0.,0.,10025.,0.853337840953,3.6977973108,156.
8.02,6375.,16.,4.,3628.,0.,0.,10023.,0.853374254259,2.77346632634,208.
8.04,6379.,14.,9.,3624.,0.,0.,10026.,0.853654196182,3.17071558582,182.
8.06,6373.,16.,13.,3624.,0.,0.,10026.,0.852851260741,2.77176659741,208.
8.08,6359.,23.,16.,3625.,0.,0.,10023.,0.851232452209,1.92452554412,299.
8.1,6345.,24.,19.,3635.,0.,0.,10023.,0.849358375415,1.84027648007,312.
8.12,6331.,33.,12.,3652.,0.,0.,10028.,0.847061739638,1.33476395337,429.
8.14,6336.,27.,12.,3656.,0.,0.,10031.,0.847477185793,1.63217828375,351.
8.16,6325.,25.,23.,3659.,0.,0.,10032.,0.845921540506,1.75951680425,325.
8.18,6318.,28.,23.,3666.,0.,0.,10035.,0.844732731291,1.56878935811,364.
8.2,6308.,34.,22.,3671.,0.,0.,10035.,0.843395705759,1.28989931469,442.
8.22,6293.,38.,16.,3689.,0.,0.,10036.,0.841306330257,1.15126129404,494.
8.24,6292.,31.,19.,3697.,0.,0.,10039.,0.840921269583,1.41057761349,403.
8.26,6278.,35.,12.,3712.,0.,0.,10037.,0.839217371091,1.24683723705,455.
8.28,6272.,29.,20.,3714.,0.,0.,10035.,0.838582413842,1.50366501792,377.
8.3,6268.,33.,11.,3725.,0.,0.,10037.,0.837880611978,1.3202967219,429.
8.32,6265.,32.,9.,3731.,0.,0.,10037.,0.837479584244,1.3609043244,416.
8.34,6273.,30.,11.,3725.,0.,0.,10039.,0.838381933263,1.45319535099,390.
8.36,6278.,19.,8.,3733.,0.,0.,10038.,0.839133767049,2.29657662561,247.
8.38,6281.,14.,6.,3735.,0.,0.,10036.,0.839702059486,3.11889336381,182.
8.4,6278.,14.,1.,3741.,0.,0.,10034.,0.839468283201,3.11802505189,182.
8.42,6280.,8.,9.,3736.,0.,0.,10033.,0.839819412327,5.45882618013,104.
8.44,6288.,10.,7.,3734.,0.,0.,10039.,0.840386672463,4.37001069681,130.
8.46,6288.,8.,6.,3738.,0.,0.,10040.,0.840302968611,5.46196929597,104.
8.48,6291.,6.,5.,3734.,0.,0.,10036.,0.841038951795,7.28900424889,78.
8.5,6301.,5.,4.,3726.,0.,0.,10036.,0.842375844105,8.76070877869,65.
8.52,6312.,2.,3.,3719.,0.,0.,10036.,0.843846425645,21.9400070668,26.
8.54,6324.,0.,1.,3713.,0.,0.,10038.,0.845282246387,inf,0.
8.56,6330.,1.,1.,3706.,0.,0.,10038.,0.846084221953,43.9963795416,13.
8.58,6341.,1.,0.,3697.,0.,0.,10039.,0.847470084301,44.0684443837,13.
8.6,6348.,0.,1.,3691.,0.,0.,10040.,0.848321126708,inf,0.
8.62,6361.,0.,0.,3683.,0.,0.,10044.,0.849719860487,inf,0.
8.64,6369.,0.,0.,3671.,0.,0.,10040.,0.851127482043,inf,0.
8.66,6384.,0.,0.,3662.,0.,0.,10046.,0.852622486217,inf,0.
8.68,6393.,0.,0.,3654.,0.,0.,10047.,0.853739508572,inf,0.
8.7,6399.,0.,0.,3648.,0.,0.,10047.,0.854540765737,inf,0.
8.72,6405.,0.,0.,3636.,0.,0.,10041.,0.855853132565,inf,0.
8.74,6411.,0.,0.,3630.,0.,0.,10041.,0.856654868521,inf,0.
8.76,6413.,2.,0.,3626.,0.,0.,10041.,0.856922113839,22.2799749598,26.
8.78,6418.,0.,2.,3622.,0.,0.,10042.,0.857504826794,inf,0.
8.8,6429.,2.,0.,3617.,0.,0.,10048.,0.858461606987,22.3200017817,26.
8.82,6431.,1.,0.,3616.,0.,0.,10048.,0.858728666127,44.6538906386,13.
8.84,6439.,3.,0.,3609.,0.,0.,10051.,0.859540272433,14.8986980555,39.
8.86,6440.,4.,2.,3602.,0.,0.,10048.,0.85993043226,11.1790956194,52.
8.88,6448.,4.,2.,3594.,0.,0.,10048.,0.860998668821,11.1929826947,52.
8.9,6460.,3.,5.,3582.,0.,0.,10050.,0.862429361769,14.948775604,39.
8.92,6462.,7.,2.,3579.,0.,0.,10050.,0.862696367763,6.4086015891,91.
8.94,6469.,8.,4.,3570.,0.,0.,10051.,0.863544963871,5.61304226516,104.
8.96,6465.,13.,9.,3567.,0.,0.,10054.,0.86275349228,3.45101396912,169.
8.98,6457.,17.,12.,3566.,0.,0.,10052.,0.861857338879,2.63626950716,221.
9.,6448.,24.,13.,3569.,0.,0.,10054.,0.860484844273,1.86438382926,312.
9.02,6446.,25.,10.,3569.,0.,0.,10050.,0.860560319808,1.7899654652,325.
9.04,6442.,21.,16.,3569.,0.,0.,10048.,0.8601974914,2.13001283585,273.
9.06,6430.,25.,17.,3573.,0.,0.,10045.,0.858851561187,1.78641124727,325.
9.08,6423.,27.,10.,3584.,0.,0.,10044.,0.858001990868,1.65244827871,351.
9.1,6423.,24.,16.,3579.,0.,0.,10042.,0.858172873559,1.85937455938,312.
9.12,6403.,32.,15.,3588.,0.,0.,10038.,0.855841591337,1.39074258592,416.
9.14,6397.,33.,14.,3596.,0.,0.,10040.,0.854869289155,1.34706675867,429.
9.16,6386.,29.,18.,3602.,0.,0.,10035.,0.85382450491,1.53099566398,377.
9.18,6379.,24.,21.,3608.,0.,0.,10032.,0.853143637453,1.84847788115,312.
9.2,6358.,44.,12.,3618.,0.,0.,10032.,0.850335044196,1.00494141587,572.
9.22,6349.,33.,27.,3620.,0.,0.,10029.,0.849385364171,1.33842542233,429.
9.24,6347.,25.,15.,3639.,0.,0.,10026.,0.849371873831,1.76669349757,325.
9.26,6342.,26.,12.,3647.,0.,0.,10027.,0.84861811922,1.69723623844,338.
9.28,6338.,27.,9.,3657.,0.,0.,10031.,0.847744697531,1.63269349154,351.
9.3,6338.,20.,11.,3663.,0.,0.,10032.,0.847660193475,2.20391650303,260.
9.32,6333.,20.,9.,3668.,0.,0.,10030.,0.847160372416,2.20261696828,260.
9.34,6333.,18.,9.,3669.,0.,0.,10029.,0.847244843487,2.44759621452,234.
9.36,6333.,15.,12.,3668.,0.,0.,10028.,0.847329331405,2.93740834887,195.
9.38,6330.,15.,10.,3674.,0.,0.,10029.,0.846843495858,2.93572411898,195.
9.4,6340.,11.,6.,3674.,0.,0.,10031.,0.848012209269,4.00878498927,143.
9.42,6339.,9.,4.,3679.,0.,0.,10031.,0.8478784534,4.89885328631,117.
9.44,6350.,5.,6.,3668.,0.,0.,10029.,0.849519146714,8.83499912583,65.
9.46,6351.,5.,7.,3667.,0.,0.,10030.,0.849568218097,8.83550946821,65.
9.48,6356.,4.,3.,3670.,0.,0.,10033.,0.849982831967,11.0497768156,52.
9.5,6365.,5.,1.,3662.,0.,0.,10033.,0.851186394819,8.85233850612,65.
9.52,6368.,3.,0.,3661.,0.,0.,10032.,0.851672469556,14.7623228056,39.
9.54,6367.,2.,2.,3657.,0.,0.,10028.,0.85187839145,22.1488381777,26.
9.56,6378.,1.,4.,3644.,0.,0.,10027.,0.853435251401,44.3786330729,13.
9.58,6382.,1.,3.,3639.,0.,0.,10025.,0.854140856488,44.4153245374,13.
9.6,6382.,1.,0.,3638.,0.,0.,10021.,0.854481796855,44.4330534365,13.
9.62,6388.,0.,1.,3631.,0.,0.,10020.,0.85537049072,inf,0.
9.64,6393.,1.,0.,3626.,0.,0.,10020.,0.856040004254,44.5140802212,13.
9.66,6396.,2.,1.,3622.,0.,0.,10021.,0.856356247679,22.2652624397,26.
9.68,6405.,0.,2.,3615.,0.,0.,10022.,0.857475683904,inf,0.
9.7,6411.,0.,1.,3611.,0.,0.,10023.,0.858193308871,inf,0.
9.72,6420.,0.,1.,3601.,0.,0.,10022.,0.859483823679,inf,0.
9.74,6421.,0.,0.,3598.,0.,0.,10019.,0.859875095921,inf,0.
9.76,6433.,0.,0.,3588.,0.,0.,10021.,0.861310153427,inf,0.
9.78,6440.,0.,0.,3577.,0.,0.,10017.,0.862591692457,inf,0.
9.8,6442.,0.,0.,3572.,0.,0.,10014.,0.863118074055,inf,0.
9.82,6446.,2.,0.,3567.,0.,0.,10015.,0.863567769753,22.4527620136,26.
9.84,6458.,1.,1.,3555.,0.,0.,10015.,0.865175404447,44.9891210312,13.
9.86,6465.,3.,2.,3543.,0.,0.,10013.,0.866286189093,15.0156272776,39.
9.88,6472.,4.,2.,3534.,0.,0.,10012.,0.867310781785,11.2750401632,52.
9.9,6479.,6.,2.,3526.,0.,0.,10013.,0.86816213753,7.52407185859,78.
9.92,6481.,6.,5.,3522.,0.,0.,10014.,0.868343408561,7.5256428742,78.
9.94,6482.,13.,5.,3518.,0.,0.,10018.,0.868130624721,3.47252249888,169.
9.96,6478.,11.,8.,3521.,0.,0.,10018.,0.867594906964,4.10135774201,143.
9.98,6475.,14.,4.,3526.,0.,0.,10019.,0.867106563789,3.22068152264,182.
10.,6480.,10.,7.,3519.,0.,0.,10016.,0.868036061123,4.51378751784,130.
