t,neff
5.,0.287675873291
5.02,0.465316676379
5.04,0.398861107253
5.06,0.443502213287
5.08,0.554671395278
5.1,0.577532643316
5.12,0.75649712999
5.14,0.823208744788
5.16,0.847237860202
5.18,0.782180169954
5.2,0.693562941421
5.22,0.447502177885
5.24,0.493095137379
5.26,0.471098808194
5.28,0.560888053847
5.3,0.42617143063
5.32,0.471287436346
5.34,0.359004283635
5.36,0.471473856079
5.38,0.336319872255
5.4,0.268936864078
5.42,0.179150663782
5.44,0.179160110711
5.46,0.134389158092
5.48,0.134283102127
5.5,0.134249889791
5.52,0.0446951993107
5.54,0.022333411939
5.56,0.
5.58,0.
5.6,0.
5.62,0.
5.64,0.
5.66,0.
5.68,0.
5.7,0.
5.72,0.
5.74,0.
5.76,0.
5.78,0.0661682396845
5.8,0.0660951760074
5.82,0.
5.84,0.110027330662
5.86,0.15394918485
5.88,0.154002223609
5.9,0.220015333929
5.92,0.198004958267
5.94,0.352130046685
5.96,0.26403298531
5.98,0.440476429749
6.,0.551338411963
6.02,0.374797737006
6.04,0.463652966598
6.06,0.485894742467
6.08,0.509136408043
6.1,0.709985179006
6.12,0.642925510972
6.14,0.532775363273
6.16,0.688538537221
6.18,0.756089634559
6.2,0.712342992911
6.22,0.690289278362
6.24,0.401103960846
6.26,0.647867343702
6.28,0.647901721505
6.3,0.491823772698
6.32,0.402145896105
6.34,0.402105689558
6.36,0.469261180546
6.38,0.446870722971
6.4,0.290351588555
6.42,0.22349054713
6.44,0.26834641459
6.46,0.156358798948
6.48,0.201102491536
6.5,0.134003809879
6.52,0.133893006337
6.54,0.111528438656
6.56,0.133794008244
6.58,0.0668475485905
6.6,0.0222543646813
6.62,0.0667271327084
6.64,0.
6.66,0.0222056324958
6.68,0.0221904548906
6.7,0.0443659275474
6.72,0.0887189166499
6.74,0.0221605297008
6.76,0.0221305121731
6.78,0.0442228402181
6.8,0.
6.82,0.0883541671977
6.84,0.0441346474041
6.86,0.132377479947
6.88,0.110143796232
6.9,0.198296450874
6.92,0.154060548555
6.94,0.2864439797
6.96,0.33085937395
6.98,0.441298064181
7.,0.419233160972
7.02,0.530221013864
7.04,0.353445331376
7.06,0.375771081441
7.08,0.575823310374
7.1,0.620450611284
7.12,0.443138476665
7.14,0.554488653252
7.16,0.599667231477
7.18,0.667173758531
7.2,0.64553088675
7.22,0.601275541395
7.24,0.601948623792
7.26,0.82614776136
7.28,0.670207596933
7.3,0.580955682745
7.32,0.492249595902
7.34,0.425207349673
7.36,0.425144717864
7.38,0.335460693384
7.4,0.290532454935
7.42,0.178684063841
7.44,0.13392801239
7.46,0.133777040165
7.48,0.133770796822
7.5,0.133802924695
7.52,0.0891846934433
7.54,0.0222896310564
7.56,0.
7.58,0.
7.6,0.
7.62,0.
7.64,0.0221557211767
7.66,0.0221373749728
7.68,0.02211040797
7.7,0.0442099606137
7.72,0.0884327841779
7.74,0.0884110748124
7.76,0.
7.78,0.0441112875763
7.8,0.0220450507519
7.82,0.0440365580524
7.84,0.176213127294
7.86,0.176083607942
7.88,0.264405566604
7.9,0.330377974422
7.92,0.329994983001
7.94,0.153982235834
7.96,0.330138500679
7.98,0.330079348634
8.,0.39659051439
8.02,0.529887671795
8.04,0.552669610419
8.06,0.553772676088
8.08,0.554576782702
8.1,0.488598528204
8.12,0.622854632035
8.14,0.51190676317
8.16,0.467894869378
8.18,0.40129095525
8.2,0.558085674153
8.22,0.580777736606
8.24,0.648240586961
8.26,0.806292435444
8.28,0.627268216211
8.3,0.627823730495
8.32,0.493243213996
8.34,0.58329581472
8.36,0.313804330765
8.38,0.201563568681
8.4,0.201592197661
8.42,0.111847883728
8.44,0.134093520087
8.46,0.13404781077
8.48,0.156366134441
8.5,0.178633788412
8.52,0.0669184234302
8.54,0.0445650323938
8.56,0.022265170227
8.58,0.0444998311759
8.6,0.
8.62,0.
8.64,0.0221775120765
8.66,0.0221399777868
8.68,0.0221146325775
8.7,0.
8.72,0.
8.74,0.
8.76,0.0220235946945
8.78,0.0220128194785
8.8,0.0439786503887
8.82,0.0219734392492
8.84,0.0439302765621
8.86,0.0658624803098
8.88,0.153619384664
8.9,0.153561440548
8.92,0.285296375737
8.94,0.373079875964
8.96,0.461709069527
8.98,0.572027748202
9.,0.462485955
9.02,0.440423321877
9.04,0.44063899941
9.06,0.463342070573
9.08,0.486111100686
9.1,0.708034867476
9.12,0.775880041557
9.14,0.576730602465
9.16,0.510749022973
9.18,0.556136662368
9.2,0.780647164761
9.22,0.758596023067
9.24,0.625034641744
9.26,0.828293175675
9.28,0.76214809814
9.3,0.69572337463
9.32,0.606876811327
9.34,0.585063421962
9.36,0.540352282661
9.38,0.473182815524
9.4,0.383052755424
9.42,0.292937854686
9.44,0.27024312867
9.46,0.180108080359
9.48,0.112484314828
9.5,0.0674372056549
9.52,0.0674204993543
9.54,0.0673572490363
9.56,0.0448256344888
9.58,0.0223841879664
9.6,0.
9.62,0.
9.64,0.
9.66,0.0446217919379
9.68,0.0445457649702
9.7,0.
9.72,0.
9.74,0.0222085250458
9.76,0.0221718767267
9.78,0.0221351607925
9.8,0.0221146303273
9.82,0.0884496710317
9.84,0.0662444912333
9.86,0.154441312368
9.88,0.242609680994
9.9,0.220450507519
9.92,0.24245549607
9.94,0.198058566498
9.96,0.26406626642
9.98,0.198021017744
10.,0.286221815403
