t,s,e,i,r,c,o,n,reff,coal,reportr
5.,6559.,11.,47.,3382.,0.,0.,9999.,0.826091204663,3.90515842204,143.
5.02,6533.,29.,27.,3409.,0.,0.,9998.,0.822898861626,1.47554278636,377.
5.04,6517.,32.,15.,3431.,0.,0.,9995.,0.821129884526,1.33433606235,416.
5.06,6507.,32.,17.,3440.,0.,0.,9996.,0.819787883318,1.33215531039,416.
5.08,6503.,34.,19.,3439.,0.,0.,9995.,0.819365910553,1.2531478632,442.
5.1,6492.,26.,19.,3457.,0.,0.,9994.,0.818061778104,1.63612355621,338.
5.12,6475.,30.,14.,3473.,0.,0.,9992.,0.816082909953,1.41454371059,390.
5.14,6466.,32.,16.,3480.,0.,0.,9994.,0.814785498647,1.3240264353,416.
5.16,6459.,34.,16.,3490.,0.,0.,9999.,0.813496430998,1.24417101212,442.
5.18,6453.,33.,20.,3495.,0.,0.,10001.,0.812578212683,1.28042627453,429.
5.2,6445.,38.,11.,3508.,0.,0.,10002.,0.811489691431,1.11045957775,494.
5.22,6437.,36.,19.,3511.,0.,0.,10003.,0.810401387818,1.1705797824,468.
5.24,6431.,32.,25.,3513.,0.,0.,10001.,0.809807916591,1.31593786446,416.
5.26,6428.,30.,6.,3536.,0.,0.,10000.,0.809511091957,1.40315255939,390.
5.28,6430.,23.,16.,3533.,0.,0.,10002.,0.809601042032,1.8304023559,299.
5.3,6425.,20.,18.,3538.,0.,0.,10001.,0.809052381293,2.10353619136,260.
5.32,6422.,20.,12.,3546.,0.,0.,10000.,0.808755481106,2.10276425088,260.
5.34,6416.,20.,11.,3552.,0.,0.,9999.,0.808080678323,2.10100976364,260.
5.36,6409.,19.,9.,3560.,0.,0.,9997.,0.807360532421,2.20961829926,247.
5.38,6407.,15.,6.,3566.,0.,0.,9994.,0.807350864497,2.79881633025,195.
5.4,6407.,15.,6.,3566.,0.,0.,9994.,0.807350864497,2.79881633025,195.
5.42,6408.,12.,8.,3564.,0.,0.,9992.,0.80763849992,3.49976683299,156.
5.44,6409.,5.,5.,3572.,0.,0.,9991.,0.807845385108,8.40159200512,65.
5.46,6412.,4.,6.,3568.,0.,0.,9990.,0.808304434121,10.5079576436,52.
5.48,6407.,7.,4.,3570.,0.,0.,9988.,0.807835857006,6.00106636633,91.
5.5,6418.,4.,3.,3566.,0.,0.,9991.,0.808979822379,10.5167376909,52.
5.52,6425.,2.,3.,3563.,0.,0.,9993.,0.809700076585,21.0522019912,26.
5.54,6427.,5.,1.,3560.,0.,0.,9993.,0.809952123302,8.42350208234,65.
5.56,6435.,3.,2.,3554.,0.,0.,9994.,0.81087916545,14.0552388678,39.
5.58,6438.,4.,0.,3547.,0.,0.,9989.,0.811663272976,10.5516225487,52.
5.6,6442.,3.,2.,3539.,0.,0.,9986.,0.812411560128,14.0818003755,39.
5.62,6454.,2.,1.,3530.,0.,0.,9987.,0.813843402069,21.1599284538,26.
5.64,6454.,1.,4.,3528.,0.,0.,9987.,0.813843402069,42.3198569076,13.
5.66,6455.,5.,3.,3525.,0.,0.,9988.,0.813888006395,8.46443526651,65.
5.68,6460.,4.,0.,3522.,0.,0.,9986.,0.814681570696,10.590860419,52.
5.7,6470.,3.,2.,3512.,0.,0.,9987.,0.815860987199,14.1415904448,39.
5.72,6478.,3.,1.,3506.,0.,0.,9988.,0.816787994644,14.1576585738,39.
5.74,6485.,2.,2.,3500.,0.,0.,9989.,0.817588742661,21.2573073092,26.
5.76,6492.,2.,1.,3496.,0.,0.,9991.,0.818307417713,21.2759928605,26.
5.78,6504.,4.,1.,3486.,0.,0.,9995.,0.819491908694,10.653394813,52.
5.8,6507.,6.,3.,3477.,0.,0.,9993.,0.820033991959,7.10696126365,78.
5.82,6516.,5.,4.,3468.,0.,0.,9993.,0.821168202183,8.54014930271,65.
5.84,6520.,7.,5.,3461.,0.,0.,9993.,0.821672295616,6.10385133886,91.
5.86,6517.,12.,1.,3464.,0.,0.,9994.,0.821212046812,3.55858553618,156.
5.88,6515.,11.,7.,3463.,0.,0.,9996.,0.820795767607,3.88012544687,143.
5.9,6519.,12.,2.,3464.,0.,0.,9997.,0.821217555134,3.55860940558,156.
5.92,6528.,6.,8.,3457.,0.,0.,9999.,0.822186824827,7.1256191485,78.
5.94,6525.,9.,6.,3459.,0.,0.,9999.,0.821808981617,4.74822967156,117.
5.96,6526.,14.,6.,3453.,0.,0.,9999.,0.821934929354,3.05290116617,182.
5.98,6520.,19.,8.,3453.,0.,0.,10000.,0.821097125009,2.24721318424,247.
6.,6517.,24.,0.,3458.,0.,0.,9999.,0.820801399724,1.77840303273,312.
6.02,6516.,19.,9.,3454.,0.,0.,9998.,0.820757535949,2.2462837826,247.
6.04,6518.,16.,12.,3453.,0.,0.,9999.,0.82092734746,2.66801387925,208.
6.06,6508.,22.,14.,3455.,0.,0.,9999.,0.819667870094,1.93739678386,286.
6.08,6507.,24.,11.,3457.,0.,0.,9999.,0.819541922357,1.77567416511,312.
6.1,6503.,27.,12.,3458.,0.,0.,10000.,0.818956227598,1.57724903093,351.
6.12,6497.,24.,15.,3462.,0.,0.,9998.,0.818364289604,1.77312262748,312.
6.14,6485.,32.,10.,3467.,0.,0.,9994.,0.817179702866,1.32791701716,416.
6.16,6470.,28.,21.,3469.,0.,0.,9988.,0.815779303079,1.51501870572,364.
6.18,6460.,29.,18.,3481.,0.,0.,9988.,0.814518438623,1.46051582098,377.
6.2,6455.,31.,11.,3493.,0.,0.,9990.,0.813725065854,1.36495817498,403.
6.22,6462.,23.,17.,3493.,0.,0.,9995.,0.814199986774,1.8407999701,299.
6.24,6455.,27.,13.,3500.,0.,0.,9995.,0.813317999788,1.56639022181,351.
6.26,6449.,27.,13.,3506.,0.,0.,9995.,0.812562010942,1.5649342433,351.
6.28,6442.,28.,8.,3517.,0.,0.,9995.,0.811680023955,1.50740575877,364.
6.3,6434.,26.,10.,3526.,0.,0.,9996.,0.810590939184,1.62118187837,338.
6.32,6434.,28.,10.,3525.,0.,0.,9997.,0.810509855765,1.50523258928,364.
6.34,6438.,22.,13.,3526.,0.,0.,9999.,0.810851528529,1.91655815834,286.
6.36,6432.,20.,13.,3535.,0.,0.,10000.,0.810014832525,2.10603856456,260.
6.38,6432.,18.,11.,3542.,0.,0.,10003.,0.809771900954,2.3393410472,234.
6.4,6428.,16.,10.,3546.,0.,0.,10000.,0.809511091957,2.63091104886,208.
6.42,6429.,15.,5.,3550.,0.,0.,9999.,0.809717998899,2.80702239618,195.
6.44,6435.,14.,3.,3550.,0.,0.,10002.,0.810230591832,3.00942791252,182.
6.46,6438.,12.,2.,3549.,0.,0.,10001.,0.810689374438,3.51298728923,156.
6.48,6436.,9.,4.,3548.,0.,0.,9997.,0.810761801633,4.68440152054,117.
6.5,6452.,5.,3.,3540.,0.,0.,10000.,0.812533535362,8.45034876777,65.
6.52,6465.,2.,5.,3530.,0.,0.,10002.,0.814007890628,21.1642051563,26.
6.54,6467.,3.,0.,3530.,0.,0.,10000.,0.81442256249,14.1166577498,39.
6.56,6479.,4.,0.,3519.,0.,0.,10002.,0.815770630067,10.6050181909,52.
6.58,6493.,4.,0.,3507.,0.,0.,10004.,0.817369928208,10.6258090667,52.
6.6,6503.,3.,0.,3500.,0.,0.,10006.,0.818465148508,14.1867292408,39.
6.62,6506.,3.,0.,3494.,0.,0.,10003.,0.819088306531,14.1975306465,39.
6.64,6512.,4.,0.,3487.,0.,0.,10003.,0.819843690767,10.65796798,52.
6.66,6515.,4.,2.,3480.,0.,0.,10001.,0.820385410759,10.6650103399,52.
6.68,6522.,4.,4.,3472.,0.,0.,10002.,0.821184758342,10.6754018584,52.
6.7,6534.,4.,1.,3464.,0.,0.,10003.,0.822613432966,10.6939746286,52.
6.72,6539.,5.,0.,3461.,0.,0.,10005.,0.823078353528,8.56001487669,65.
6.74,6547.,3.,1.,3455.,0.,0.,10006.,0.824002972057,14.2827181823,39.
6.76,6554.,2.,2.,3444.,0.,0.,10002.,0.825213877058,21.4555608035,26.
6.78,6558.,1.,2.,3441.,0.,0.,10002.,0.825717516897,42.9373108787,13.
6.8,6565.,2.,0.,3434.,0.,0.,10001.,0.82668153824,21.4937199942,26.
6.82,6572.,3.,2.,3425.,0.,0.,10002.,0.827480256336,14.3429911098,39.
6.84,6579.,4.,1.,3418.,0.,0.,10002.,0.828361626055,10.7687011387,52.
6.86,6593.,3.,1.,3406.,0.,0.,10003.,0.830041377953,14.3873838845,39.
6.88,6597.,2.,3.,3400.,0.,0.,10002.,0.830628005333,21.5963281386,26.
6.9,6602.,6.,2.,3396.,0.,0.,10006.,0.830925251492,7.2013521796,78.
6.92,6600.,6.,6.,3391.,0.,0.,10003.,0.830922659561,7.2013297162,78.
6.94,6596.,13.,1.,3391.,0.,0.,10001.,0.830585137278,3.32234054911,169.
6.96,6601.,10.,8.,3383.,0.,0.,10002.,0.831131645172,4.32188455489,130.
6.98,6595.,10.,14.,3380.,0.,0.,9999.,0.830625323182,4.31925168055,130.
7.,6591.,13.,8.,3386.,0.,0.,9998.,0.830204560995,3.32081824398,169.
7.02,6584.,16.,11.,3387.,0.,0.,9998.,0.829322838657,2.69529922564,208.
7.04,6577.,20.,9.,3392.,0.,0.,9998.,0.828441116319,2.15394690243,260.
7.06,6575.,20.,11.,3393.,0.,0.,9999.,0.828106368449,2.15307655797,260.
7.08,6565.,23.,10.,3400.,0.,0.,9998.,0.826929592312,1.86957994784,299.
7.1,6566.,26.,10.,3399.,0.,0.,10001.,0.826807460789,1.65361492158,338.
7.12,6562.,27.,13.,3402.,0.,0.,10004.,0.826055978577,1.59092262541,351.
7.14,6559.,19.,18.,3403.,0.,0.,9999.,0.826091204663,2.26088119171,247.
7.16,6551.,29.,6.,3411.,0.,0.,9997.,0.825248689014,1.47975626996,377.
7.18,6546.,30.,12.,3411.,0.,0.,9999.,0.824453884087,1.42905339908,390.
7.2,6546.,30.,11.,3412.,0.,0.,9999.,0.824453884087,1.42905339908,390.
7.22,6538.,28.,9.,3424.,0.,0.,9999.,0.823446302193,1.52925741836,364.
7.24,6538.,24.,7.,3428.,0.,0.,9997.,0.823611040875,1.78449058856,312.
7.26,6533.,27.,9.,3430.,0.,0.,9999.,0.82281656351,1.58468375195,351.
7.28,6548.,23.,7.,3424.,0.,0.,10002.,0.824458417298,1.86399294346,299.
7.3,6550.,16.,12.,3425.,0.,0.,10003.,0.824627790928,2.68004032052,208.
7.32,6547.,17.,11.,3428.,0.,0.,10003.,0.82425009881,2.52123559636,221.
7.34,6544.,13.,10.,3433.,0.,0.,10000.,0.824119568414,3.29647827366,169.
7.36,6541.,14.,7.,3438.,0.,0.,10000.,0.823741762989,3.05961226253,182.
7.38,6540.,14.,5.,3438.,0.,0.,9997.,0.823862986743,3.06006252219,182.
7.4,6541.,11.,4.,3438.,0.,0.,9994.,0.824236304772,3.89638980437,143.
7.42,6546.,6.,7.,3434.,0.,0.,9993.,0.82494890293,7.14955715873,78.
7.44,6550.,6.,8.,3427.,0.,0.,9991.,0.825618235678,7.15535804254,78.
7.46,6550.,8.,5.,3428.,0.,0.,9991.,0.825618235678,5.36651853191,104.
7.48,6560.,3.,2.,3426.,0.,0.,9991.,0.826878721534,14.3325645066,39.
7.5,6563.,4.,2.,3421.,0.,0.,9990.,0.827339675786,10.7554157852,52.
7.52,6566.,2.,4.,3417.,0.,0.,9989.,0.82780072233,21.5228187806,26.
7.54,6569.,2.,2.,3415.,0.,0.,9988.,0.828261861195,21.5348083911,26.
7.56,6570.,0.,0.,3415.,0.,0.,9985.,0.828636837359,inf,0.
7.58,6571.,2.,0.,3411.,0.,0.,9984.,0.828845970798,21.5499952408,26.
7.6,6577.,2.,1.,3405.,0.,0.,9985.,0.829519707658,21.5675123991,26.
7.62,6587.,1.,1.,3395.,0.,0.,9984.,0.830864162174,43.2049364331,13.
7.64,6594.,2.,2.,3388.,0.,0.,9986.,0.831580538262,21.6210939948,26.
7.66,6599.,0.,2.,3386.,0.,0.,9987.,0.832127767315,inf,0.
7.68,6603.,0.,0.,3383.,0.,0.,9986.,0.832715543546,inf,0.
7.7,6608.,0.,0.,3377.,0.,0.,9985.,0.833429561837,inf,0.
7.72,6615.,0.,0.,3370.,0.,0.,9985.,0.834312432136,inf,0.
7.74,6625.,0.,2.,3360.,0.,0.,9987.,0.835406343152,inf,0.
7.76,6632.,2.,0.,3359.,0.,0.,9993.,0.835786911737,21.7304597052,26.
7.78,6635.,0.,0.,3354.,0.,0.,9989.,0.836499816123,inf,0.
7.8,6645.,2.,0.,3344.,0.,0.,9991.,0.83759285131,21.7774141341,26.
7.82,6646.,3.,1.,3338.,0.,0.,9988.,0.837970517506,14.5248223034,39.
7.84,6651.,3.,3.,3331.,0.,0.,9988.,0.838600949734,14.5357497954,39.
7.86,6654.,7.,0.,3325.,0.,0.,9986.,0.839147240157,6.23366521259,91.
7.88,6665.,5.,4.,3313.,0.,0.,9987.,0.840450305979,8.74068318218,65.
7.9,6664.,11.,4.,3307.,0.,0.,9986.,0.840408357139,3.97283950648,143.
7.92,6670.,7.,9.,3301.,0.,0.,9987.,0.841080801332,6.2480288099,91.
7.94,6672.,13.,3.,3301.,0.,0.,9989.,0.841164547576,3.36465819031,169.
7.96,6677.,12.,9.,3295.,0.,0.,9993.,0.841457962857,3.64631783905,156.
7.98,6681.,14.,8.,3292.,0.,0.,9995.,0.841793579641,3.12666186724,182.
8.,6678.,19.,6.,3294.,0.,0.,9997.,0.841247251601,2.30236089912,247.
8.02,6672.,20.,10.,3296.,0.,0.,9998.,0.840407348044,2.18505910491,260.
8.04,6672.,21.,8.,3297.,0.,0.,9998.,0.840407348044,2.08100867135,273.
8.06,6666.,27.,11.,3290.,0.,0.,9994.,0.839987648312,1.61775398934,351.
8.08,6656.,27.,12.,3298.,0.,0.,9993.,0.838811472335,1.61548876153,351.
8.1,6644.,33.,12.,3302.,0.,0.,9991.,0.837466802724,1.31964465884,429.
8.12,6637.,29.,19.,3305.,0.,0.,9990.,0.836668204813,1.50023264311,377.
8.14,6626.,26.,25.,3315.,0.,0.,9992.,0.835114341521,1.67022868304,338.
8.16,6623.,25.,24.,3325.,0.,0.,9997.,0.834318740244,1.73538297971,325.
8.18,6610.,33.,12.,3339.,0.,0.,9994.,0.832931046406,1.31249740646,429.
8.2,6606.,29.,17.,3339.,0.,0.,9991.,0.832676956471,1.49307592195,377.
8.22,6598.,29.,12.,3353.,0.,0.,9992.,0.831585334343,1.49111853055,377.
8.24,6605.,19.,17.,3353.,0.,0.,9994.,0.832300992664,2.27787640098,247.
8.26,6597.,29.,11.,3355.,0.,0.,9992.,0.831459298372,1.49089253501,377.
8.28,6594.,22.,16.,3361.,0.,0.,9993.,0.830998024125,1.96417714793,286.
8.3,6598.,21.,10.,3365.,0.,0.,9994.,0.831418917426,2.05875160505,273.
8.32,6600.,20.,10.,3366.,0.,0.,9996.,0.831504538175,2.16191179925,260.
8.34,6600.,17.,10.,3370.,0.,0.,9997.,0.831421362768,2.54317122729,221.
8.36,6597.,17.,5.,3376.,0.,0.,9995.,0.831209735802,2.54252389775,221.
8.38,6599.,15.,8.,3371.,0.,0.,9993.,0.831628140916,2.88297755518,195.
8.4,6600.,9.,10.,3373.,0.,0.,9992.,0.831837406284,4.80617168075,117.
8.42,6605.,3.,13.,3370.,0.,0.,9991.,0.832550907886,14.4308824034,39.
8.44,6616.,6.,4.,3367.,0.,0.,9993.,0.833770538006,7.22601132938,78.
8.46,6623.,7.,5.,3359.,0.,0.,9994.,0.834569186134,6.19965681128,91.
8.48,6626.,6.,1.,3362.,0.,0.,9995.,0.834863681889,7.23548524304,78.
8.5,6630.,5.,3.,3356.,0.,0.,9994.,0.835451261372,8.68869311827,65.
8.52,6634.,3.,2.,3353.,0.,0.,9992.,0.836122629286,14.492792241,39.
8.54,6642.,2.,1.,3347.,0.,0.,9992.,0.837130917052,21.7654038433,26.
8.56,6649.,2.,1.,3338.,0.,0.,9990.,0.83818093925,21.7927044205,26.
8.58,6661.,0.,3.,3325.,0.,0.,9989.,0.839777735523,inf,0.
8.6,6666.,0.,4.,3319.,0.,0.,9989.,0.840408104638,inf,0.
8.62,6671.,2.,1.,3315.,0.,0.,9989.,0.841038473753,21.8670003176,26.
8.64,6683.,0.,0.,3307.,0.,0.,9990.,0.842467020155,inf,0.
8.66,6693.,1.,0.,3297.,0.,0.,9991.,0.843643183418,43.8694455378,13.
8.68,6703.,2.,0.,3288.,0.,0.,9993.,0.844734570171,21.9630988245,26.
8.7,6711.,1.,1.,3281.,0.,0.,9994.,0.845658131986,43.9742228633,13.
8.72,6718.,2.,0.,3274.,0.,0.,9994.,0.846540207225,22.0100453878,26.
8.74,6724.,2.,0.,3267.,0.,0.,9993.,0.847381060694,22.031907578,26.
8.76,6729.,0.,1.,3261.,0.,0.,9991.,0.8481809325,inf,0.
8.78,6733.,2.,0.,3256.,0.,0.,9991.,0.848685126842,22.0658132979,26.
8.8,6740.,4.,0.,3246.,0.,0.,9990.,0.84965250873,11.0454826135,52.
8.82,6746.,1.,3.,3236.,0.,0.,9986.,0.850749516396,44.2389748526,13.
8.84,6745.,5.,1.,3232.,0.,0.,9983.,0.850879026275,8.84914187326,65.
8.86,6752.,7.,3.,3222.,0.,0.,9984.,0.851676760741,6.32674165122,91.
8.88,6754.,8.,5.,3218.,0.,0.,9985.,0.851843713778,5.53698413956,104.
8.9,6761.,8.,4.,3213.,0.,0.,9986.,0.852641191869,5.54216774715,104.
8.92,6759.,7.,5.,3213.,0.,0.,9984.,0.852559719468,6.33330077319,91.
8.94,6753.,13.,2.,3216.,0.,0.,9984.,0.851802897702,3.40721159081,169.
8.96,6761.,12.,5.,3210.,0.,0.,9988.,0.852470458751,3.69403865459,156.
8.98,6765.,12.,4.,3210.,0.,0.,9991.,0.852718681582,3.69511428685,156.
9.,6765.,12.,9.,3204.,0.,0.,9990.,0.852804038807,3.69548416816,156.
9.02,6763.,18.,8.,3200.,0.,0.,9989.,0.852637265477,2.46317432249,234.
9.04,6752.,22.,9.,3203.,0.,0.,9986.,0.851506186585,2.01265098647,286.
9.06,6748.,28.,13.,3199.,0.,0.,9988.,0.850831334958,1.58011533635,364.
9.08,6737.,28.,11.,3211.,0.,0.,9987.,0.849529439067,1.5776975297,364.
9.1,6731.,25.,20.,3215.,0.,0.,9991.,0.848433029671,1.76474070172,325.
9.12,6725.,28.,15.,3226.,0.,0.,9994.,0.847422282463,1.57378423886,364.
9.14,6716.,29.,12.,3237.,0.,0.,9994.,0.846288185728,1.51748226406,377.
9.16,6715.,25.,9.,3245.,0.,0.,9994.,0.84616217498,1.76001732396,325.
9.18,6714.,24.,12.,3243.,0.,0.,9993.,0.846120827112,1.83326179208,312.
9.2,6701.,28.,9.,3248.,0.,0.,9986.,0.845074489974,1.56942405281,364.
9.22,6701.,23.,15.,3248.,0.,0.,9987.,0.844989872523,1.9104118857,299.
9.24,6691.,37.,8.,3253.,0.,0.,9989.,0.843559950215,1.18554371382,481.
9.26,6695.,21.,16.,3255.,0.,0.,9987.,0.844233278099,2.09048240291,273.
9.28,6694.,23.,7.,3264.,0.,0.,9988.,0.844022666896,1.90822515994,299.
9.3,6699.,17.,8.,3264.,0.,0.,9988.,0.844653099124,2.58364477379,221.
9.32,6697.,17.,10.,3266.,0.,0.,9990.,0.844231876998,2.58235632964,221.
9.34,6696.,15.,8.,3270.,0.,0.,9989.,0.84419031933,2.92652644034,195.
9.36,6699.,10.,5.,3274.,0.,0.,9988.,0.844653099124,4.39219611544,130.
9.38,6696.,10.,5.,3274.,0.,0.,9985.,0.844528502733,4.39154821421,130.
9.4,6697.,12.,0.,3274.,0.,0.,9983.,0.844823845659,3.66090333119,156.
9.42,6703.,10.,4.,3266.,0.,0.,9983.,0.845580743236,4.39701986483,130.
9.44,6705.,8.,6.,3266.,0.,0.,9985.,0.845663621688,5.49681354097,104.
9.46,6711.,8.,5.,3259.,0.,0.,9983.,0.846589940005,5.50283461003,104.
9.48,6724.,10.,0.,3248.,0.,0.,9982.,0.848314860701,4.41123727564,130.
9.5,6730.,9.,2.,3241.,0.,0.,9982.,0.849071834104,4.90574837482,117.
9.52,6740.,5.,5.,3234.,0.,0.,9984.,0.850163117209,8.84169641897,65.
9.54,6737.,7.,0.,3233.,0.,0.,9977.,0.850380926928,6.31711545718,91.
9.56,6746.,3.,5.,3225.,0.,0.,9979.,0.851346294291,14.756669101,39.
9.58,6755.,2.,3.,3219.,0.,0.,9979.,0.852482095751,22.1645344895,26.
9.6,6758.,1.,3.,3217.,0.,0.,9979.,0.852860696237,44.3487562043,13.
9.62,6763.,1.,2.,3214.,0.,0.,9980.,0.853406176838,44.3771211956,13.
9.64,6773.,0.,0.,3209.,0.,0.,9982.,0.854496810161,inf,0.
9.66,6782.,1.,0.,3200.,0.,0.,9983.,0.855546561334,44.4884211894,13.
9.68,6789.,0.,1.,3197.,0.,0.,9987.,0.856086590741,inf,0.
9.7,6796.,2.,0.,3189.,0.,0.,9987.,0.856969284236,22.2812013901,26.
9.72,6793.,2.,2.,3187.,0.,0.,9984.,0.856848376142,22.2780577797,26.
9.74,6801.,0.,1.,3180.,0.,0.,9982.,0.858029352711,inf,0.
9.76,6807.,2.,1.,3172.,0.,0.,9982.,0.858786326114,22.328444479,26.
9.78,6815.,1.,1.,3164.,0.,0.,9981.,0.85988176722,44.7138518954,13.
9.8,6818.,3.,1.,3159.,0.,0.,9981.,0.860260291842,14.9111783919,39.
9.82,6821.,4.,0.,3155.,0.,0.,9980.,0.860725052819,11.1894256866,52.
9.84,6824.,4.,1.,3150.,0.,0.,9979.,0.861189906943,11.1954687903,52.
9.86,6826.,7.,1.,3147.,0.,0.,9981.,0.861269690835,6.39800341763,91.
9.88,6837.,6.,1.,3140.,0.,0.,9984.,0.862398402427,7.4741194877,78.
9.9,6839.,5.,5.,3132.,0.,0.,9981.,0.862909964199,8.97426362767,65.
9.92,6846.,6.,4.,3123.,0.,0.,9979.,0.863966310512,7.48770802444,78.
9.94,6852.,9.,3.,3115.,0.,0.,9979.,0.864723511485,4.99618028858,117.
9.96,6860.,10.,3.,3111.,0.,0.,9984.,0.86529955253,4.49955767316,130.
9.98,6863.,8.,4.,3112.,0.,0.,9987.,0.86541792197,5.62521649281,104.
10.,6866.,8.,5.,3107.,0.,0.,9986.,0.865882920186,5.62823898121,104.
