t,prevalence
5.,2
5.02,2
5.04,5
5.06,10
5.08,11
5.1,5
5.12,12
5.14,10
5.16,10
5.18,10
5.2,10
5.22,11
5.24,12
5.26,8
5.28,5
5.3,5
5.32,3
5.34,4
5.36,4
5.38,5
5.4,6
5.42,3
5.44,5
5.46,5
5.48,1
5.5,4
5.52,4
5.54,1
5.56,2
5.58,0
5.6,0
5.62,0
5.64,0
5.66,0
5.68,0
5.7,0
5.72,1
5.74,1
5.76,0
5.78,0
5.8,3
5.82,1
5.84,3
5.86,1
5.88,2
5.9,2
5.92,4
5.94,3
5.96,7
5.98,8
6.,6
6.02,7
6.04,8
6.06,4
6.08,7
6.1,8
6.12,7
6.14,5
6.16,7
6.18,8
6.2,7
6.22,7
6.24,10
6.26,13
6.28,5
6.3,3
6.32,8
6.34,2
6.36,3
6.38,5
6.4,2
6.42,4
6.44,1
6.46,3
6.48,3
6.5,4
6.52,1
6.54,1
6.56,0
6.58,0
6.6,0
6.62,0
6.64,1
6.66,0
6.68,1
6.7,0
6.72,1
6.74,1
6.76,1
6.78,1
6.8,0
6.82,2
6.84,3
6.86,0
6.88,2
6.9,0
6.92,3
6.94,3
6.96,5
6.98,2
7.,5
7.02,8
7.04,5
7.06,11
7.08,2
7.1,6
7.12,5
7.14,11
7.16,9
7.18,10
7.2,8
7.22,9
7.24,5
7.26,7
7.28,6
7.3,8
7.32,6
7.34,4
7.36,10
7.38,7
7.4,2
7.42,2
7.44,1
7.46,2
7.48,3
7.5,1
7.52,0
7.54,0
7.56,1
7.58,0
7.6,0
7.62,0
7.64,0
7.66,0
7.68,0
7.7,0
7.72,0
7.74,0
7.76,0
7.78,0
7.8,1
7.82,0
7.84,0
7.86,3
7.88,1
7.9,0
7.92,4
7.94,4
7.96,3
7.98,2
8.,4
8.02,6
8.04,6
8.06,9
8.08,8
8.1,10
8.12,9
8.14,4
8.16,6
8.18,6
8.2,6
8.22,8
8.24,9
8.26,7
8.28,4
8.3,7
8.32,5
8.34,6
8.36,7
8.38,6
8.4,1
8.42,9
8.44,3
8.46,3
8.48,1
8.5,3
8.52,2
8.54,0
8.56,1
8.58,0
8.6,0
8.62,1
8.64,0
8.66,1
8.68,0
8.7,0
8.72,0
8.74,0
8.76,1
8.78,0
8.8,0
8.82,1
8.84,3
8.86,0
8.88,0
8.9,2
8.92,0
8.94,1
8.96,2
8.98,2
9.,3
9.02,2
9.04,2
9.06,1
9.08,7
9.1,10
9.12,11
9.14,7
9.16,8
9.18,9
9.2,8
9.22,8
9.24,10
9.26,8
9.28,5
9.3,4
9.32,4
9.34,3
9.36,6
9.38,6
9.4,2
9.42,5
9.44,1
9.46,4
9.48,1
9.5,3
9.52,2
9.54,1
9.56,2
9.58,0
9.6,1
9.62,0
9.64,0
9.66,2
9.68,0
9.7,0
9.72,2
9.74,1
9.76,3
9.78,2
9.8,2
9.82,1
9.84,3
9.86,6
9.88,5
9.9,2
9.92,1
9.94,2
9.96,3
9.98,9
10.,5
