t,s,e,i,r,c,o,n,reff,coal,reportr
5.,7997.,17.,11.,1975.,0.,0.,10000.,0.906503131535,2.77283310822,221.
5.02,7987.,22.,8.,1985.,0.,0.,10002.,0.90518853983,2.13953654869,286.
5.04,7983.,22.,10.,1986.,0.,0.,10001.,0.904825673371,2.13867886433,286.
5.06,7980.,19.,10.,1994.,0.,0.,10003.,0.9043047983,2.47493944798,247.
5.08,7963.,24.,7.,2004.,0.,0.,9998.,0.902829613867,1.95613083005,312.
5.1,7963.,16.,15.,2003.,0.,0.,9997.,0.902919923922,2.93448975275,208.
5.12,7954.,25.,15.,2007.,0.,0.,10001.,0.901538695477,1.87520048659,325.
5.14,7946.,32.,12.,2015.,0.,0.,10005.,0.900271870214,1.4629417891,416.
5.16,7936.,35.,11.,2021.,0.,0.,10003.,0.899318656555,1.33613057545,455.
5.18,7927.,34.,17.,2030.,0.,0.,10008.,0.897849973576,1.37318231253,442.
5.2,7918.,30.,18.,2041.,0.,0.,10007.,0.89692021081,1.55466169874,390.
5.22,7911.,26.,13.,2055.,0.,0.,10005.,0.896306413952,1.7926128279,338.
5.24,7907.,28.,9.,2063.,0.,0.,10007.,0.895674173639,1.6633948939,364.
5.26,7896.,27.,11.,2069.,0.,0.,10003.,0.894785800423,1.72329117119,351.
5.28,7886.,26.,9.,2081.,0.,0.,10002.,0.893741933779,1.78748386756,338.
5.3,7877.,28.,9.,2092.,0.,0.,10006.,0.89236506453,1.65724940556,364.
5.32,7871.,23.,8.,2105.,0.,0.,10007.,0.891596233807,2.01578278948,299.
5.34,7870.,19.,13.,2106.,0.,0.,10008.,0.891393880666,2.43960430498,247.
5.36,7871.,16.,4.,2120.,0.,0.,10011.,0.891239987185,2.89652995835,208.
5.38,7868.,15.,8.,2122.,0.,0.,10013.,0.890722345922,3.08783746586,195.
5.4,7865.,14.,9.,2124.,0.,0.,10012.,0.890471652789,3.30746613893,182.
5.42,7870.,15.,4.,2126.,0.,0.,10015.,0.890770839511,3.08800557697,195.
5.44,7872.,12.,5.,2126.,0.,0.,10015.,0.890997210754,3.86098791327,156.
5.46,7871.,11.,6.,2127.,0.,0.,10015.,0.890884025133,4.21145175517,143.
5.48,7875.,6.,4.,2131.,0.,0.,10016.,0.891247776327,7.72414739484,78.
5.5,7877.,7.,0.,2133.,0.,0.,10017.,0.89138512885,6.62171810003,91.
5.52,7877.,1.,6.,2132.,0.,0.,10016.,0.891474124969,46.3566544984,13.
5.54,7877.,0.,4.,2137.,0.,0.,10018.,0.891296150498,inf,0.
5.56,7879.,1.,1.,2141.,0.,0.,10022.,0.891166627787,46.3406646449,13.
5.58,7882.,1.,0.,2137.,0.,0.,10020.,0.891683892782,46.3675624247,13.
5.6,7888.,1.,0.,2133.,0.,0.,10022.,0.892184586875,46.3935985175,13.
5.62,7895.,1.,0.,2129.,0.,0.,10025.,0.892709107994,46.4208736157,13.
5.64,7901.,0.,1.,2125.,0.,0.,10027.,0.893209347923,inf,0.
5.66,7903.,0.,0.,2125.,0.,0.,10028.,0.89334635417,inf,0.
5.68,7910.,0.,0.,2116.,0.,0.,10026.,0.894315990185,inf,0.
5.7,7914.,0.,0.,2109.,0.,0.,10023.,0.895036050442,inf,0.
5.72,7915.,1.,0.,2106.,0.,0.,10022.,0.895238464137,46.5524001351,13.
5.74,7921.,1.,0.,2105.,0.,0.,10027.,0.895470351208,46.5644582628,13.
5.76,7925.,0.,2.,2098.,0.,0.,10025.,0.896101289531,inf,0.
5.78,7928.,1.,0.,2096.,0.,0.,10025.,0.896440507685,46.6149063996,13.
5.8,7935.,2.,0.,2087.,0.,0.,10024.,0.897321525092,23.3303596524,26.
5.82,7937.,2.,1.,2085.,0.,0.,10025.,0.897458162146,23.3339122158,26.
5.84,7939.,3.,0.,2080.,0.,0.,10022.,0.897953021703,15.5645190429,39.
5.86,7944.,5.,0.,2073.,0.,0.,10022.,0.89851855453,9.34459296711,65.
5.88,7951.,2.,3.,2067.,0.,0.,10023.,0.899220575823,23.3797349714,26.
5.9,7951.,8.,3.,2063.,0.,0.,10025.,0.899041180197,5.84376767128,104.
5.92,7948.,12.,3.,2062.,0.,0.,10025.,0.898701962044,3.89437516886,156.
5.94,7946.,13.,3.,2062.,0.,0.,10024.,0.898565449071,3.59426179629,169.
5.96,7941.,15.,2.,2064.,0.,0.,10022.,0.898179234834,3.11368801409,195.
5.98,7939.,16.,6.,2063.,0.,0.,10024.,0.897773861085,2.91776504852,208.
6.,7929.,15.,10.,2066.,0.,0.,10020.,0.897000962429,3.10960333642,195.
6.02,7928.,18.,7.,2071.,0.,0.,10024.,0.896529937105,2.58997537386,234.
6.04,7922.,21.,9.,2072.,0.,0.,10024.,0.895851433117,2.21829878676,273.
6.06,7920.,18.,10.,2076.,0.,0.,10024.,0.89562526512,2.58736187701,234.
6.08,7916.,23.,2.,2087.,0.,0.,10028.,0.89481585975,2.02306194378,299.
6.1,7914.,18.,8.,2087.,0.,0.,10027.,0.894679000058,2.58462822239,234.
6.12,7909.,22.,7.,2088.,0.,0.,10026.,0.894202928745,2.11357055885,286.
6.14,7911.,17.,11.,2087.,0.,0.,10026.,0.894429051625,2.7359006285,221.
6.16,7900.,22.,10.,2090.,0.,0.,10022.,0.893541865658,2.1120080461,286.
6.18,7889.,21.,11.,2102.,0.,0.,10023.,0.892208668428,2.20927860754,273.
6.2,7875.,25.,13.,2111.,0.,0.,10024.,0.890536485205,1.85231588923,325.
6.22,7860.,32.,16.,2112.,0.,0.,10020.,0.88919505167,1.44494195896,416.
6.24,7849.,36.,11.,2124.,0.,0.,10020.,0.887950631114,1.28259535605,468.
6.26,7847.,27.,14.,2134.,0.,0.,10022.,0.887547217698,1.70935019705,351.
6.28,7834.,33.,9.,2145.,0.,0.,10021.,0.886165254347,1.39638161291,429.
6.3,7825.,34.,11.,2150.,0.,0.,10020.,0.88523553172,1.35388963675,442.
6.32,7820.,30.,7.,2162.,0.,0.,10019.,0.884758185233,1.5335808544,390.
6.34,7812.,21.,10.,2173.,0.,0.,10016.,0.884117794117,2.18924406162,273.
6.36,7808.,22.,7.,2182.,0.,0.,10019.,0.883400500038,2.08803754554,286.
6.38,7811.,16.,1.,2191.,0.,0.,10019.,0.883739921337,2.87215474435,208.
6.4,7812.,14.,4.,2190.,0.,0.,10020.,0.883764852881,3.28255516785,182.
6.42,7816.,10.,4.,2190.,0.,0.,10020.,0.884217369447,4.59793032113,130.
6.44,7817.,8.,4.,2189.,0.,0.,10018.,0.884507046901,5.74929580486,104.
6.46,7821.,7.,3.,2188.,0.,0.,10019.,0.884871325666,6.5733298478,91.
6.48,7834.,7.,2.,2181.,0.,0.,10024.,0.885900041282,6.58097173524,91.
6.5,7836.,6.,0.,2181.,0.,0.,10023.,0.886214618558,7.68052669417,78.
6.52,7837.,7.,0.,2181.,0.,0.,10025.,0.886150890354,6.58283518549,91.
6.54,7841.,2.,0.,2186.,0.,0.,10029.,0.886249565439,23.0424887014,26.
6.56,7847.,1.,1.,2181.,0.,0.,10030.,0.886839303666,46.1156437906,13.
6.58,7852.,1.,1.,2177.,0.,0.,10031.,0.887315919226,46.1404277998,13.
6.6,7852.,1.,0.,2173.,0.,0.,10026.,0.887758426667,46.1634381867,13.
6.62,7854.,1.,0.,2169.,0.,0.,10024.,0.888161721244,46.1844095047,13.
6.64,7862.,0.,1.,2162.,0.,0.,10025.,0.888977708302,inf,0.
6.66,7867.,0.,1.,2155.,0.,0.,10023.,0.889720572255,inf,0.
6.68,7870.,0.,0.,2149.,0.,0.,10019.,0.890415206878,inf,0.
6.7,7873.,1.,0.,2145.,0.,0.,10019.,0.890754628176,46.3192406652,13.
6.72,7877.,1.,0.,2141.,0.,0.,10019.,0.891207189908,46.3427738752,13.
6.74,7883.,1.,0.,2134.,0.,0.,10018.,0.891975060858,46.3827031646,13.
6.76,7886.,1.,1.,2130.,0.,0.,10018.,0.892314516037,46.4003548339,13.
6.78,7886.,4.,2.,2124.,0.,0.,10016.,0.892492693856,11.6024050201,52.
6.8,7886.,3.,3.,2119.,0.,0.,10011.,0.892938449871,15.4775997978,39.
6.82,7891.,3.,4.,2114.,0.,0.,10012.,0.893415360732,15.4858662527,39.
6.84,7889.,6.,5.,2113.,0.,0.,10013.,0.893099718731,7.74019756234,78.
6.86,7895.,7.,3.,2113.,0.,0.,10018.,0.893332881577,6.63618712029,91.
6.88,7899.,5.,8.,2107.,0.,0.,10019.,0.893696279432,9.29444130609,65.
6.9,7897.,7.,4.,2113.,0.,0.,10021.,0.893291679037,6.63588104428,91.
6.92,7894.,10.,5.,2111.,0.,0.,10020.,0.893041442479,4.64381550089,130.
6.94,7894.,13.,3.,2112.,0.,0.,10022.,0.892863226266,3.57145290506,169.
6.96,7891.,14.,4.,2110.,0.,0.,10019.,0.892791155968,3.31608143645,182.
6.98,7891.,13.,9.,2108.,0.,0.,10021.,0.892612971924,3.5704518877,169.
7.,7883.,15.,6.,2114.,0.,0.,10018.,0.891975060858,3.09218021097,195.
7.02,7883.,18.,7.,2115.,0.,0.,10023.,0.891530096745,2.5755313906,234.
7.04,7879.,19.,7.,2118.,0.,0.,10023.,0.891077715622,2.43873901118,247.
7.06,7874.,21.,9.,2121.,0.,0.,10025.,0.890334580917,2.20463800989,273.
7.08,7863.,22.,9.,2127.,0.,0.,10021.,0.889445672061,2.10232613396,286.
7.1,7849.,28.,12.,2130.,0.,0.,10019.,0.888039257787,1.64921576446,364.
7.12,7848.,25.,11.,2135.,0.,0.,10019.,0.887926117354,1.8468863241,325.
7.14,7840.,24.,15.,2140.,0.,0.,10019.,0.887020993891,1.9218788201,312.
7.16,7828.,31.,14.,2143.,0.,0.,10016.,0.885928583249,1.48607375255,403.
7.18,7816.,33.,14.,2155.,0.,0.,10018.,0.884393895175,1.39359038028,429.
7.2,7812.,27.,18.,2160.,0.,0.,10017.,0.884029532382,1.7025753957,351.
7.22,7802.,28.,14.,2169.,0.,0.,10013.,0.883250602806,1.64032254807,364.
7.24,7793.,26.,17.,2178.,0.,0.,10014.,0.882143628912,1.76428725782,338.
7.26,7785.,31.,7.,2190.,0.,0.,10013.,0.881326062913,1.47835339585,403.
7.28,7783.,24.,14.,2193.,0.,0.,10014.,0.881011659672,1.90885859596,312.
7.3,7767.,29.,12.,2204.,0.,0.,10012.,0.879376138234,1.5768123858,377.
7.32,7758.,24.,18.,2210.,0.,0.,10010.,0.878532658344,1.90348742641,312.
7.34,7754.,14.,13.,2225.,0.,0.,10006.,0.878430710977,3.26274264077,182.
7.36,7749.,13.,8.,2235.,0.,0.,10005.,0.877952016397,3.51180806559,169.
7.38,7752.,14.,6.,2231.,0.,0.,10003.,0.878467518349,3.26287935387,182.
7.4,7749.,15.,6.,2234.,0.,0.,10004.,0.878039776494,3.04387122518,195.
7.42,7757.,8.,9.,2233.,0.,0.,10007.,0.878682757672,5.71143792487,104.
7.44,7754.,10.,9.,2234.,0.,0.,10007.,0.878342929353,4.56738323264,130.
7.46,7753.,13.,5.,2238.,0.,0.,10009.,0.878054165255,3.51221666102,169.
7.48,7754.,6.,11.,2240.,0.,0.,10011.,0.877991978228,7.60926381131,78.
7.5,7747.,8.,9.,2244.,0.,0.,10008.,0.877462311756,5.70350502642,104.
7.52,7751.,5.,3.,2248.,0.,0.,10007.,0.878003101034,9.13123225075,65.
7.54,7754.,3.,2.,2247.,0.,0.,10006.,0.878430710977,15.2261323236,39.
7.56,7762.,1.,3.,2244.,0.,0.,10010.,0.878985626974,45.7072526027,13.
7.58,7771.,0.,4.,2239.,0.,0.,10014.,0.879653296584,inf,0.
7.6,7771.,1.,0.,2237.,0.,0.,10009.,0.880092727744,45.7648218427,13.
7.62,7776.,2.,0.,2230.,0.,0.,10008.,0.880746990605,22.8994217557,26.
7.64,7780.,3.,0.,2226.,0.,0.,10009.,0.881112008988,15.2726081558,39.
7.66,7790.,3.,0.,2217.,0.,0.,10010.,0.882156407386,15.2907110614,39.
7.68,7795.,3.,0.,2213.,0.,0.,10011.,0.882634442905,15.2989970104,39.
7.7,7798.,3.,1.,2211.,0.,0.,10013.,0.88279776989,15.3018280114,39.
7.72,7803.,3.,2.,2203.,0.,0.,10011.,0.883540289671,15.3146983543,39.
7.74,7809.,5.,0.,2205.,0.,0.,10019.,0.883513640471,9.1885418609,65.
7.76,7814.,2.,2.,2203.,0.,0.,10021.,0.883902897302,22.9814753299,26.
7.78,7820.,1.,1.,2201.,0.,0.,10023.,0.884405094069,45.9890648916,13.
7.8,7820.,0.,1.,2198.,0.,0.,10019.,0.884758185233,inf,0.
7.82,7822.,2.,1.,2194.,0.,0.,10019.,0.884984466099,23.0095961186,26.
7.84,7820.,4.,2.,2193.,0.,0.,10019.,0.884758185233,11.501856408,52.
7.86,7818.,5.,3.,2192.,0.,0.,10018.,0.884620198628,9.20005006573,65.
7.88,7814.,6.,6.,2189.,0.,0.,10015.,0.88443244472,7.66508118757,78.
7.9,7809.,12.,4.,2187.,0.,0.,10012.,0.884131358758,3.83123588795,156.
7.92,7814.,9.,5.,2185.,0.,0.,10013.,0.884609101555,5.11107480898,117.
7.94,7813.,6.,4.,2188.,0.,0.,10011.,0.884672598129,7.66716251712,78.
7.96,7809.,11.,4.,2189.,0.,0.,10013.,0.88404306041,4.17911264921,143.
7.98,7800.,11.,11.,2190.,0.,0.,10012.,0.883112382931,4.17471308295,143.
8.,7799.,15.,14.,2189.,0.,0.,10017.,0.882558413089,3.05953583204,195.
8.02,7785.,15.,20.,2195.,0.,0.,10015.,0.881150061702,3.05465354723,195.
8.04,7772.,25.,13.,2208.,0.,0.,10018.,0.879415219204,1.82918365594,325.
8.06,7767.,27.,9.,2216.,0.,0.,10019.,0.87876174229,1.69243002219,351.
8.08,7768.,26.,9.,2220.,0.,0.,10023.,0.878524139479,1.75704827896,338.
8.1,7758.,24.,14.,2225.,0.,0.,10021.,0.877568297578,1.90139797808,312.
8.12,7743.,30.,9.,2237.,0.,0.,10019.,0.8760463719,1.51848037796,390.
8.14,7741.,28.,14.,2234.,0.,0.,10017.,0.875994957779,1.62684777873,364.
8.16,7728.,30.,13.,2248.,0.,0.,10019.,0.874349265407,1.5155387267,390.
8.18,7720.,24.,13.,2261.,0.,0.,10018.,0.87353132942,1.89265121374,312.
8.2,7718.,24.,12.,2268.,0.,0.,10022.,0.872956470778,1.89140568669,312.
8.22,7707.,30.,16.,2271.,0.,0.,10024.,0.87153837352,1.5106665141,390.
8.24,7694.,29.,19.,2280.,0.,0.,10022.,0.870241913212,1.56043377541,377.
8.26,7685.,26.,18.,2291.,0.,0.,10020.,0.869397451919,1.73879490384,338.
8.28,7678.,26.,16.,2300.,0.,0.,10020.,0.868605547929,1.73721109586,338.
8.3,7675.,26.,7.,2315.,0.,0.,10023.,0.868006278386,1.73601255677,338.
8.32,7678.,23.,8.,2316.,0.,0.,10025.,0.868172328205,1.9628243942,299.
8.34,7671.,20.,9.,2324.,0.,0.,10024.,0.867467349588,2.25541510893,260.
8.36,7665.,22.,5.,2333.,0.,0.,10025.,0.866702382872,2.04856926861,286.
8.38,7665.,13.,7.,2339.,0.,0.,10024.,0.866788845599,3.4671553824,169.
8.4,7670.,12.,4.,2341.,0.,0.,10027.,0.867094759975,3.75741062656,156.
8.42,7671.,6.,5.,2346.,0.,0.,10028.,0.867121331499,7.51505153966,78.
8.44,7675.,7.,1.,2344.,0.,0.,10027.,0.867660010797,6.44547436592,91.
8.46,7678.,6.,2.,2341.,0.,0.,10027.,0.86799916129,7.52265939784,78.
8.48,7683.,9.,0.,2338.,0.,0.,10030.,0.868304622157,5.01687115024,117.
8.5,7689.,4.,4.,2332.,0.,0.,10029.,0.869069367257,11.2979017743,52.
8.52,7690.,4.,0.,2335.,0.,0.,10029.,0.869182394877,11.2993711334,52.
8.54,7694.,2.,2.,2332.,0.,0.,10030.,0.869547802015,22.6082428524,26.
8.56,7699.,4.,1.,2326.,0.,0.,10030.,0.870112883768,11.311467489,52.
8.58,7702.,3.,2.,2321.,0.,0.,10028.,0.870625537114,15.0908426433,39.
8.6,7705.,2.,2.,2316.,0.,0.,10025.,0.871225291589,22.6518575813,26.
8.62,7712.,1.,0.,2314.,0.,0.,10027.,0.871842866875,45.3358290775,13.
8.64,7720.,0.,0.,2305.,0.,0.,10025.,0.872921382357,inf,0.
8.66,7720.,0.,0.,2301.,0.,0.,10021.,0.873269819193,inf,0.
8.68,7730.,0.,0.,2296.,0.,0.,10026.,0.87396493099,inf,0.
8.7,7736.,0.,0.,2290.,0.,0.,10026.,0.87464329963,inf,0.
8.72,7739.,0.,0.,2283.,0.,0.,10022.,0.875331708649,inf,0.
8.74,7741.,0.,0.,2280.,0.,0.,10021.,0.87564529409,inf,0.
8.76,7749.,0.,0.,2274.,0.,0.,10023.,0.876375329148,inf,0.
8.78,7751.,0.,0.,2270.,0.,0.,10021.,0.876776472612,inf,0.
8.8,7755.,1.,0.,2266.,0.,0.,10022.,0.877141413693,45.611353512,13.
8.82,7758.,3.,1.,2260.,0.,0.,10022.,0.877480733389,15.2096660454,39.
8.84,7765.,4.,2.,2253.,0.,0.,10024.,0.878097245412,11.4152641903,52.
8.86,7767.,5.,2.,2253.,0.,0.,10027.,0.87806062591,9.13183050946,65.
8.88,7768.,5.,3.,2252.,0.,0.,10028.,0.878086103909,9.13209548065,65.
8.9,7756.,12.,2.,2253.,0.,0.,10023.,0.877166996112,3.80105698315,156.
8.92,7757.,9.,6.,2253.,0.,0.,10025.,0.87710507292,5.0677181991,117.
8.94,7756.,14.,5.,2252.,0.,0.,10027.,0.876817074103,3.25674913238,182.
8.96,7755.,16.,3.,2252.,0.,0.,10026.,0.876791466989,2.84957226771,208.
8.98,7757.,12.,7.,2246.,0.,0.,10022.,0.877367626824,3.8019263829,156.
9.,7749.,12.,13.,2244.,0.,0.,10018.,0.876812729492,3.7995218278,156.
9.02,7737.,18.,13.,2252.,0.,0.,10020.,0.875280167274,2.5285871499,234.
9.04,7730.,21.,12.,2258.,0.,0.,10021.,0.874400997715,2.16518342291,273.
9.06,7720.,28.,7.,2265.,0.,0.,10020.,0.87335697187,1.62194866204,364.
9.08,7717.,22.,12.,2269.,0.,0.,10020.,0.873017584445,2.06349610869,286.
9.1,7713.,24.,9.,2277.,0.,0.,10023.,0.872303899047,1.88999178127,312.
9.12,7705.,25.,9.,2280.,0.,0.,10019.,0.87174703545,1.81323383374,325.
9.14,7704.,24.,8.,2289.,0.,0.,10025.,0.871112218871,1.88740980755,312.
9.16,7682.,36.,14.,2290.,0.,0.,10022.,0.868884634428,1.25505558306,468.
9.18,7665.,46.,17.,2297.,0.,0.,10025.,0.866702382872,0.979750519768,598.
9.2,7649.,39.,24.,2308.,0.,0.,10020.,0.865324802828,1.15376640377,507.
9.22,7637.,44.,13.,2325.,0.,0.,10019.,0.864053486013,1.02115411983,572.
9.24,7635.,28.,18.,2341.,0.,0.,10022.,0.86356862586,1.60377030517,364.
9.26,7626.,29.,8.,2358.,0.,0.,10021.,0.862636741084,1.54679691505,377.
9.28,7627.,22.,11.,2362.,0.,0.,10022.,0.862663773338,2.03902346425,286.
9.3,7632.,18.,14.,2360.,0.,0.,10024.,0.863057073661,2.49327599058,234.
9.32,7621.,25.,4.,2375.,0.,0.,10025.,0.861727183283,1.79239254123,325.
9.34,7625.,23.,8.,2371.,0.,0.,10027.,0.862007502583,1.94888652758,299.
9.36,7622.,15.,10.,2379.,0.,0.,10026.,0.861754295473,2.98741489097,195.
9.38,7617.,19.,7.,2382.,0.,0.,10025.,0.861274892411,2.35717338976,247.
9.4,7617.,17.,3.,2389.,0.,0.,10026.,0.861188988273,2.6342251406,221.
9.42,7623.,11.,4.,2388.,0.,0.,10026.,0.861867356913,4.07428205086,143.
9.44,7629.,11.,3.,2384.,0.,0.,10027.,0.86245970324,4.0770822335,143.
9.46,7631.,11.,4.,2383.,0.,0.,10029.,0.862513765319,4.07733779969,143.
9.48,7634.,9.,3.,2385.,0.,0.,10031.,0.862680810924,4.98437801867,117.
9.5,7637.,5.,6.,2384.,0.,0.,10032.,0.862933799478,8.97451151458,65.
9.52,7642.,3.,1.,2389.,0.,0.,10035.,0.863240622457,14.9628374559,39.
9.54,7645.,1.,0.,2390.,0.,0.,10036.,0.863493454399,44.9016596287,13.
9.56,7651.,0.,1.,2383.,0.,0.,10035.,0.864257262813,inf,0.
9.58,7662.,0.,1.,2377.,0.,0.,10040.,0.86506879744,inf,0.
9.6,7667.,0.,0.,2373.,0.,0.,10040.,0.865633316363,inf,0.
9.62,7668.,0.,0.,2371.,0.,0.,10039.,0.86583245844,inf,0.
9.64,7676.,0.,1.,2364.,0.,0.,10041.,0.866563139354,inf,0.
9.66,7682.,0.,0.,2362.,0.,0.,10044.,0.86698146219,inf,0.
9.68,7689.,0.,0.,2357.,0.,0.,10046.,0.867598714336,inf,0.
9.7,7685.,1.,0.,2355.,0.,0.,10041.,0.867579172217,45.1141169553,13.
9.72,7689.,1.,1.,2353.,0.,0.,10044.,0.867771473937,45.1241166447,13.
9.74,7691.,0.,0.,2351.,0.,0.,10042.,0.868170064949,inf,0.
9.76,7702.,1.,0.,2345.,0.,0.,10048.,0.868892604119,45.1824154142,13.
9.78,7710.,1.,1.,2339.,0.,0.,10051.,0.869535500762,45.2158460396,13.
9.8,7723.,1.,1.,2330.,0.,0.,10055.,0.870655148695,45.2740677321,13.
9.82,7721.,0.,1.,2326.,0.,0.,10048.,0.871036068086,inf,0.
9.84,7723.,4.,1.,2323.,0.,0.,10051.,0.87100164363,11.3230213672,52.
9.86,7722.,5.,2.,2322.,0.,0.,10051.,0.870888863409,9.05724417946,65.
9.88,7730.,5.,2.,2319.,0.,0.,10056.,0.871357637043,9.06211942525,65.
9.9,7728.,6.,2.,2319.,0.,0.,10055.,0.871218825471,7.55056315408,78.
9.92,7734.,6.,3.,2314.,0.,0.,10057.,0.871721846882,7.55492267298,78.
9.94,7739.,8.,4.,2309.,0.,0.,10060.,0.872025286688,5.66816436347,104.
9.96,7745.,9.,1.,2305.,0.,0.,10060.,0.87270136263,5.04227453964,117.
9.98,7744.,10.,6.,2300.,0.,0.,10060.,0.872588683307,4.53746115319,130.
10.,7744.,12.,2.,2302.,0.,0.,10060.,0.872588683307,3.78121762766,156.
