t,s,e,i,r,c,o,n,reff,coal,reportr
5.,6200.,10.,26.,3763.,0.,0.,9999.,0.840347361642,4.36980628054,130.
5.02,6175.,24.,16.,3781.,0.,0.,9996.,0.837210052351,1.81395511343,312.
5.04,6158.,32.,17.,3787.,0.,0.,9994.,0.835072263856,1.35699242877,416.
5.06,6157.,37.,10.,3795.,0.,0.,9999.,0.834519146069,1.1728377188,481.
5.08,6155.,32.,14.,3798.,0.,0.,9999.,0.834248066275,1.3556531077,416.
5.1,6152.,29.,14.,3805.,0.,0.,10000.,0.833758062439,1.49501445679,377.
5.12,6145.,30.,10.,3811.,0.,0.,9996.,0.833142635092,1.44411390083,390.
5.14,6144.,22.,17.,3813.,0.,0.,9996.,0.833007054517,1.96892576522,286.
5.16,6140.,27.,14.,3818.,0.,0.,9999.,0.83221496782,1.60278438247,351.
5.18,6126.,32.,17.,3824.,0.,0.,9999.,0.830317409261,1.34926579005,416.
5.2,6124.,35.,13.,3829.,0.,0.,10001.,0.8298803368,1.23296507182,455.
5.22,6119.,32.,10.,3839.,0.,0.,10000.,0.829285693119,1.34758925132,416.
5.24,6122.,25.,16.,3839.,0.,0.,10002.,0.829526366875,1.7254148431,325.
5.26,6127.,23.,11.,3845.,0.,0.,10006.,0.829871980675,1.87623230413,299.
5.28,6116.,25.,14.,3847.,0.,0.,10002.,0.828713371415,1.72372381254,325.
5.3,6112.,23.,18.,3846.,0.,0.,9999.,0.828419850703,1.87294922768,299.
5.32,6109.,26.,16.,3849.,0.,0.,10000.,0.827930429688,1.65586085938,338.
5.34,6104.,24.,14.,3854.,0.,0.,9996.,0.827583831506,1.7930983016,312.
5.36,6095.,22.,12.,3864.,0.,0.,9993.,0.826611689068,1.95380944689,286.
5.38,6099.,19.,7.,3868.,0.,0.,9993.,0.82715417418,2.26379037144,247.
5.4,6099.,15.,6.,3866.,0.,0.,9986.,0.827733993849,2.86947784534,195.
5.42,6105.,10.,7.,3864.,0.,0.,9986.,0.828548291925,4.30845111801,130.
5.44,6104.,11.,2.,3870.,0.,0.,9987.,0.828329626488,3.91574005249,143.
5.46,6103.,10.,5.,3866.,0.,0.,9984.,0.828442780078,4.30790245641,130.
5.48,6110.,10.,1.,3862.,0.,0.,9983.,0.829476065342,4.31327553978,130.
5.5,6119.,4.,0.,3863.,0.,0.,9986.,0.830448320768,10.79582817,52.
5.52,6127.,3.,3.,3852.,0.,0.,9985.,0.831617329858,14.4147003842,39.
5.54,6135.,1.,2.,3847.,0.,0.,9985.,0.832703169362,43.3005648068,13.
5.56,6140.,0.,4.,3837.,0.,0.,9981.,0.833715806355,inf,0.
5.58,6146.,1.,2.,3830.,0.,0.,9979.,0.834697769698,43.4042840243,13.
5.6,6155.,2.,0.,3823.,0.,0.,9980.,0.835836314097,21.7317441665,26.
5.62,6160.,1.,1.,3817.,0.,0.,9979.,0.83659913136,43.5031548307,13.
5.64,6169.,1.,0.,3816.,0.,0.,9986.,0.837234138065,43.5361751794,13.
5.66,6174.,0.,1.,3808.,0.,0.,9983.,0.838164521673,inf,0.
5.68,6191.,1.,1.,3791.,0.,0.,9984.,0.840388210956,43.7001869697,13.
5.7,6201.,0.,1.,3782.,0.,0.,9984.,0.841745646283,inf,0.
5.72,6208.,0.,0.,3778.,0.,0.,9986.,0.842527075556,inf,0.
5.74,6210.,1.,0.,3772.,0.,0.,9983.,0.84305177836,43.8386924747,13.
5.76,6213.,3.,0.,3765.,0.,0.,9981.,0.843628062685,14.6228864199,39.
5.78,6226.,1.,2.,3759.,0.,0.,9988.,0.844800772752,43.9296401831,13.
5.8,6242.,3.,0.,3749.,0.,0.,9994.,0.846463311301,14.6720307292,39.
5.82,6254.,3.,0.,3741.,0.,0.,9998.,0.84775129969,14.6943558613,39.
5.84,6262.,5.,3.,3732.,0.,0.,10002.,0.848496260923,8.8243611136,65.
5.86,6261.,6.,9.,3729.,0.,0.,10005.,0.848106380642,7.35025529889,78.
5.88,6252.,12.,8.,3730.,0.,0.,10002.,0.847141268491,3.67094549679,156.
5.9,6246.,15.,7.,3732.,0.,0.,10000.,0.846497538686,2.93452480078,195.
5.92,6247.,14.,4.,3733.,0.,0.,9998.,0.846802425514,3.14526615191,182.
5.94,6258.,13.,4.,3726.,0.,0.,10001.,0.848039050898,3.39215620359,169.
5.96,6263.,10.,6.,3723.,0.,0.,10002.,0.848631760166,4.41288515286,130.
5.98,6264.,15.,3.,3721.,0.,0.,10003.,0.848682408139,2.94209901488,195.
6.,6265.,13.,10.,3716.,0.,0.,10004.,0.848733045986,3.39493218394,169.
6.02,6269.,14.,8.,3716.,0.,0.,10007.,0.849020330345,3.15350408414,182.
6.04,6265.,16.,14.,3711.,0.,0.,10006.,0.848563401163,2.75783105378,208.
6.06,6260.,24.,13.,3710.,0.,0.,10007.,0.847801446476,1.83690313403,312.
6.08,6264.,19.,18.,3706.,0.,0.,10007.,0.84834317264,2.32178131459,247.
6.1,6260.,24.,14.,3712.,0.,0.,10010.,0.847547360129,1.83635261361,312.
6.12,6250.,22.,17.,3719.,0.,0.,10008.,0.846362554015,2.00049330949,286.
6.14,6238.,27.,14.,3727.,0.,0.,10006.,0.844906384111,1.62722711014,351.
6.16,6233.,21.,19.,3731.,0.,0.,10004.,0.844397937052,2.09089012984,273.
6.18,6220.,26.,16.,3741.,0.,0.,10003.,0.842721037456,1.68544207491,338.
6.2,6203.,33.,19.,3746.,0.,0.,10001.,0.84058584735,1.32455951704,429.
6.22,6185.,34.,18.,3763.,0.,0.,10000.,0.83823043176,1.28199948387,442.
6.24,6183.,26.,22.,3769.,0.,0.,10000.,0.837959379074,1.67591875815,338.
6.26,6172.,31.,19.,3780.,0.,0.,10002.,0.836301329035,1.4028280358,403.
6.28,6169.,25.,14.,3793.,0.,0.,10001.,0.83597841243,1.73883509785,325.
6.3,6165.,22.,12.,3804.,0.,0.,10003.,0.835269324102,1.97427294788,286.
6.32,6165.,23.,8.,3808.,0.,0.,10004.,0.835185830567,1.88824622563,299.
6.34,6169.,17.,11.,3808.,0.,0.,10005.,0.835644188177,2.55608810501,221.
6.36,6167.,15.,7.,3816.,0.,0.,10005.,0.83537327095,2.89596067263,195.
6.38,6175.,12.,0.,3818.,0.,0.,10005.,0.83645693986,3.62464673939,156.
6.4,6178.,9.,5.,3810.,0.,0.,10002.,0.837114324494,4.83666054152,117.
6.42,6173.,7.,4.,3814.,0.,0.,9998.,0.836771469937,6.21601663382,91.
6.44,6177.,13.,5.,3805.,0.,0.,10000.,0.837146221016,3.34858488406,169.
6.46,6182.,8.,9.,3802.,0.,0.,10001.,0.837740078723,5.4453105117,104.
6.48,6190.,7.,4.,3798.,0.,0.,9999.,0.838991962672,6.2325117227,91.
6.5,6191.,7.,6.,3793.,0.,0.,9997.,0.839295378432,6.23476566835,91.
6.52,6198.,5.,0.,3793.,0.,0.,9996.,0.840328405582,8.73941541805,65.
6.54,6209.,2.,2.,3782.,0.,0.,9995.,0.841904016001,21.889504416,26.
6.56,6214.,2.,2.,3773.,0.,0.,9991.,0.842919323099,21.9159024006,26.
6.58,6220.,1.,0.,3772.,0.,0.,9993.,0.843564348811,43.8653461382,13.
6.6,6226.,1.,1.,3767.,0.,0.,9995.,0.844209116383,43.8988740519,13.
6.62,6232.,0.,0.,3763.,0.,0.,9995.,0.845022681224,inf,0.
6.64,6245.,0.,0.,3749.,0.,0.,9994.,0.846870134424,inf,0.
6.66,6259.,1.,0.,3736.,0.,0.,9996.,0.848598820674,44.127138675,13.
6.68,6273.,1.,0.,3724.,0.,0.,9998.,0.850326815311,44.2169943962,13.
6.7,6281.,2.,0.,3718.,0.,0.,10001.,0.851155845108,22.1300519728,26.
6.72,6292.,2.,0.,3702.,0.,0.,9996.,0.853072979658,22.1798974711,26.
6.74,6301.,2.,1.,3691.,0.,0.,9995.,0.854378676892,22.2138455992,26.
6.76,6316.,3.,0.,3676.,0.,0.,9995.,0.856412588994,14.8444848759,39.
6.78,6319.,3.,1.,3669.,0.,0.,9992.,0.857076623027,14.8559947991,39.
6.8,6323.,4.,1.,3663.,0.,0.,9991.,0.857705001602,11.1501650208,52.
6.82,6334.,7.,1.,3648.,0.,0.,9990.,0.859283140014,6.38324618296,91.
6.84,6339.,7.,1.,3641.,0.,0.,9988.,0.860133648968,6.38956424948,91.
6.86,6347.,7.,3.,3634.,0.,0.,9991.,0.860960563842,6.39570704568,91.
6.88,6345.,8.,4.,3632.,0.,0.,9989.,0.860861594402,5.59560036361,104.
6.9,6347.,7.,5.,3630.,0.,0.,9989.,0.861132945574,6.39698759569,91.
6.92,6347.,9.,4.,3631.,0.,0.,9991.,0.860960563842,4.97443881331,117.
6.94,6356.,11.,5.,3622.,0.,0.,9994.,0.861922589976,4.07454315261,143.
6.96,6358.,10.,6.,3622.,0.,0.,9996.,0.862021297627,4.48251074766,130.
6.98,6358.,13.,7.,3619.,0.,0.,9997.,0.861935069629,3.44774027851,169.
7.,6358.,8.,16.,3611.,0.,0.,9993.,0.862280085167,5.60482055359,104.
7.02,6345.,23.,5.,3619.,0.,0.,9992.,0.860603129151,1.94571142243,299.
7.04,6343.,26.,10.,3615.,0.,0.,9994.,0.860159689776,1.72031937955,338.
7.06,6346.,21.,12.,3609.,0.,0.,9988.,0.861083473159,2.13220669544,273.
7.08,6328.,29.,12.,3617.,0.,0.,9986.,0.858813037068,1.53994061819,377.
7.1,6328.,28.,10.,3625.,0.,0.,9991.,0.858383243736,1.59414030979,364.
7.12,6321.,25.,16.,3628.,0.,0.,9990.,0.857519533949,1.78364063061,325.
7.14,6311.,22.,23.,3633.,0.,0.,9989.,0.856248624471,2.02386038511,286.
7.16,6313.,24.,15.,3638.,0.,0.,9990.,0.856434237908,1.85560751547,312.
7.18,6307.,25.,16.,3641.,0.,0.,9989.,0.855705922126,1.77986831802,325.
7.2,6300.,32.,6.,3650.,0.,0.,9988.,0.854841771336,1.38911787842,416.
7.22,6304.,25.,13.,3650.,0.,0.,9992.,0.855042100263,1.77848756855,325.
7.24,6301.,22.,12.,3657.,0.,0.,9992.,0.85463519571,2.02004682622,286.
7.26,6297.,23.,13.,3658.,0.,0.,9991.,0.85417814251,1.93118536567,299.
7.28,6294.,20.,10.,3667.,0.,0.,9991.,0.85377119723,2.2198051128,260.
7.3,6295.,17.,9.,3669.,0.,0.,9990.,0.853992321817,2.61221180791,221.
7.32,6290.,17.,10.,3672.,0.,0.,9989.,0.853399437161,2.61039827838,221.
7.34,6285.,21.,5.,3680.,0.,0.,9991.,0.85255036139,2.11107708535,273.
7.36,6288.,14.,9.,3677.,0.,0.,9988.,0.853213501296,3.1690787191,182.
7.38,6280.,14.,14.,3677.,0.,0.,9985.,0.852384010365,3.16599775279,182.
7.4,6281.,16.,5.,3686.,0.,0.,9988.,0.852263677105,2.76985695059,208.
7.42,6289.,8.,7.,3685.,0.,0.,9989.,0.853263761575,5.54621445024,104.
7.44,6292.,8.,7.,3682.,0.,0.,9989.,0.853670788334,5.54886012417,104.
7.46,6293.,10.,10.,3675.,0.,0.,9988.,0.853891947146,4.44023812516,130.
7.48,6295.,8.,9.,3675.,0.,0.,9987.,0.854248853004,5.55261754453,104.
7.5,6294.,9.,0.,3681.,0.,0.,9984.,0.854369794824,4.93635881454,117.
7.52,6300.,4.,3.,3680.,0.,0.,9987.,0.854927366788,11.1140557682,52.
7.54,6306.,1.,5.,3674.,0.,0.,9986.,0.855827277458,44.5030184278,13.
7.56,6314.,2.,1.,3669.,0.,0.,9986.,0.856913008225,22.2797382138,26.
7.58,6322.,1.,0.,3666.,0.,0.,9989.,0.857741055919,44.6025349078,13.
7.6,6329.,1.,1.,3659.,0.,0.,9990.,0.858604829989,44.6474511594,13.
7.62,6342.,1.,1.,3648.,0.,0.,9992.,0.860196224599,44.7302036791,13.
7.64,6348.,1.,3.,3642.,0.,0.,9994.,0.860837728314,44.7635618723,13.
7.66,6352.,1.,3.,3637.,0.,0.,9993.,0.8614663575,44.79625059,13.
7.68,6356.,3.,1.,3632.,0.,0.,9992.,0.862095112512,14.9429819502,39.
7.7,6367.,3.,1.,3621.,0.,0.,9992.,0.863587095872,14.9688429951,39.
7.72,6365.,4.,1.,3616.,0.,0.,9986.,0.863834541868,11.2298490443,52.
7.74,6372.,3.,2.,3612.,0.,0.,9989.,0.864524835229,14.985097144,39.
7.76,6378.,4.,2.,3606.,0.,0.,9990.,0.865252268237,11.2482794871,52.
7.78,6385.,3.,5.,3599.,0.,0.,9992.,0.866028523189,15.0111610686,39.
7.8,6394.,5.,0.,3596.,0.,0.,9995.,0.866988931923,9.016684892,65.
7.82,6399.,4.,3.,3586.,0.,0.,9992.,0.867927411102,11.2830563443,52.
7.84,6410.,5.,3.,3577.,0.,0.,9995.,0.869158438165,9.03924775692,65.
7.86,6413.,7.,5.,3570.,0.,0.,9995.,0.869565220586,6.45962735292,91.
7.88,6412.,10.,2.,3569.,0.,0.,9993.,0.869603634176,4.52193889772,130.
7.9,6415.,11.,4.,3565.,0.,0.,9995.,0.869836408866,4.11195393282,143.
7.92,6414.,13.,3.,3562.,0.,0.,9992.,0.869961933865,3.47984773546,169.
7.94,6417.,11.,6.,3559.,0.,0.,9993.,0.870281740566,4.11405913722,143.
7.96,6418.,16.,3.,3559.,0.,0.,9996.,0.870156132143,2.82800742947,208.
7.98,6419.,16.,9.,3553.,0.,0.,9997.,0.870204657431,2.82816513665,208.
8.,6417.,19.,5.,3556.,0.,0.,9997.,0.869933523405,2.38087069563,247.
8.02,6418.,12.,13.,3553.,0.,0.,9996.,0.870156132143,3.77067657262,156.
8.04,6415.,16.,13.,3554.,0.,0.,9998.,0.869575405743,2.82612006866,208.
8.06,6403.,22.,12.,3556.,0.,0.,9993.,0.868383042675,2.05254173723,286.
8.08,6401.,26.,3.,3562.,0.,0.,9992.,0.868198680803,1.73639736161,338.
8.1,6404.,20.,11.,3559.,0.,0.,9994.,0.868431759944,2.25792257585,260.
8.12,6397.,21.,19.,3555.,0.,0.,9992.,0.8676561414,2.14848187394,273.
8.14,6387.,34.,9.,3568.,0.,0.,9998.,0.865779909038,1.32413397853,442.
8.16,6388.,25.,15.,3571.,0.,0.,9999.,0.865828862285,1.80092403355,325.
8.18,6369.,33.,11.,3582.,0.,0.,9995.,0.86359907842,1.36082279024,429.
8.2,6373.,26.,15.,3581.,0.,0.,9995.,0.864141454981,1.72828290996,338.
8.22,6371.,32.,9.,3586.,0.,0.,9998.,0.863611053778,1.40336796239,416.
8.24,6367.,31.,18.,3583.,0.,0.,9999.,0.862982524448,1.4475835894,403.
8.26,6364.,33.,11.,3590.,0.,0.,9998.,0.862662179602,1.35934646483,429.
8.28,6362.,23.,16.,3598.,0.,0.,9999.,0.862304824962,1.9495587347,299.
8.3,6363.,23.,9.,3605.,0.,0.,10000.,0.862354120823,1.94967018621,299.
8.32,6359.,19.,10.,3608.,0.,0.,9996.,0.862156878202,2.35958724561,247.
8.34,6356.,24.,8.,3608.,0.,0.,9996.,0.861750136476,1.8671252957,312.
8.36,6359.,21.,4.,3615.,0.,0.,9999.,0.861898205271,2.13422412734,273.
8.38,6358.,21.,3.,3618.,0.,0.,10000.,0.861676489108,2.13367511589,273.
8.4,6364.,14.,9.,3613.,0.,0.,10000.,0.862489647166,3.20353297519,182.
8.42,6374.,10.,7.,3611.,0.,0.,10002.,0.863672176161,4.49109531604,130.
8.44,6380.,8.,5.,3610.,0.,0.,10003.,0.86439874903,5.6185918687,104.
8.46,6385.,6.,6.,3604.,0.,0.,10001.,0.865249175452,7.49882618725,78.
8.48,6398.,3.,2.,3603.,0.,0.,10006.,0.866577596272,15.0206783354,39.
8.5,6406.,1.,2.,3599.,0.,0.,10008.,0.867487763363,45.1093636949,13.
8.52,6408.,1.,1.,3597.,0.,0.,10007.,0.86784531454,45.1279563561,13.
8.54,6418.,2.,2.,3589.,0.,0.,10011.,0.868852332125,22.5901606353,26.
8.56,6426.,2.,0.,3583.,0.,0.,10011.,0.869935351548,22.6183191403,26.
8.58,6449.,2.,0.,3565.,0.,0.,10016.,0.872613205197,22.6879433351,26.
8.6,6452.,2.,1.,3559.,0.,0.,10014.,0.873193494462,22.703030856,26.
8.62,6458.,0.,2.,3554.,0.,0.,10014.,0.874005515691,inf,0.
8.64,6466.,2.,0.,3548.,0.,0.,10016.,0.874913472601,22.7477502876,26.
8.66,6478.,1.,1.,3538.,0.,0.,10018.,0.876362198317,45.5708343125,13.
8.68,6482.,1.,0.,3532.,0.,0.,10015.,0.877166006636,45.6126323451,13.
8.7,6485.,2.,0.,3526.,0.,0.,10013.,0.877747263233,22.821428844,26.
8.72,6494.,1.,1.,3519.,0.,0.,10015.,0.878789886932,45.6970741205,13.
8.74,6505.,1.,0.,3509.,0.,0.,10015.,0.88027844387,45.7744790812,13.
8.76,6513.,1.,2.,3498.,0.,0.,10014.,0.881449043619,45.8353502682,13.
8.78,6518.,2.,2.,3491.,0.,0.,10013.,0.882213826022,22.9375594766,26.
8.8,6528.,5.,2.,3484.,0.,0.,10019.,0.883038194856,9.1835972265,65.
8.82,6531.,4.,2.,3477.,0.,0.,10014.,0.883885107305,11.490506395,52.
8.84,6543.,4.,4.,3464.,0.,0.,10015.,0.885420731475,11.5104695092,52.
8.86,6543.,6.,3.,3464.,0.,0.,10016.,0.885332330842,7.67288020063,78.
8.88,6545.,7.,5.,3457.,0.,0.,10014.,0.885779823505,6.58007868889,91.
8.9,6545.,8.,2.,3459.,0.,0.,10014.,0.885779823505,5.75756885278,104.
8.92,6553.,8.,4.,3453.,0.,0.,10018.,0.886508410863,5.76230467061,104.
8.94,6552.,10.,4.,3451.,0.,0.,10017.,0.886461614914,4.60960039755,130.
8.96,6554.,10.,4.,3448.,0.,0.,10016.,0.886820739163,4.61146784365,130.
8.98,6549.,12.,5.,3449.,0.,0.,10015.,0.886232671623,3.84034157703,156.
9.,6555.,14.,7.,3443.,0.,0.,10019.,0.886690466801,3.29342173383,182.
9.02,6558.,13.,8.,3443.,0.,0.,10022.,0.886830730111,3.54732292044,169.
9.04,6552.,13.,14.,3444.,0.,0.,10023.,0.885930958455,3.54372383382,169.
9.06,6545.,20.,9.,3446.,0.,0.,10020.,0.885249416425,2.30164848271,260.
9.08,6535.,27.,9.,3448.,0.,0.,10019.,0.883985080175,1.70248978404,351.
9.1,6530.,32.,13.,3439.,0.,0.,10014.,0.883749770434,1.43609337695,416.
9.12,6524.,32.,16.,3443.,0.,0.,10015.,0.882849587672,1.43463057997,416.
9.14,6515.,27.,22.,3452.,0.,0.,10016.,0.881543655118,1.69778778023,351.
9.16,6501.,32.,18.,3465.,0.,0.,10016.,0.879649317256,1.42943014054,416.
9.18,6491.,36.,18.,3469.,0.,0.,10014.,0.878471632448,1.26890346909,468.
9.2,6483.,35.,17.,3480.,0.,0.,10015.,0.877301329994,1.30341911885,455.
9.22,6474.,37.,17.,3491.,0.,0.,10019.,0.875733650965,1.23076080676,481.
9.24,6470.,29.,14.,3508.,0.,0.,10021.,0.875017901935,1.56899761726,377.
9.26,6475.,24.,13.,3511.,0.,0.,10023.,0.875519376678,1.89695864947,312.
9.28,6477.,22.,15.,3509.,0.,0.,10023.,0.875789807374,2.07004863561,286.
9.3,6468.,28.,9.,3516.,0.,0.,10021.,0.874747417267,1.62453091778,364.
9.32,6471.,19.,13.,3522.,0.,0.,10025.,0.874803955982,2.39420030058,247.
9.34,6466.,19.,12.,3526.,0.,0.,10023.,0.874302438548,2.39282772655,247.
9.36,6460.,15.,11.,3536.,0.,0.,10022.,0.87357830383,3.02840478661,195.
9.38,6455.,19.,8.,3539.,0.,0.,10021.,0.872989266923,2.38923378316,247.
9.4,6451.,14.,8.,3546.,0.,0.,10019.,0.872622456344,3.24116912356,182.
9.42,6455.,8.,4.,3555.,0.,0.,10022.,0.872902159632,5.67386403761,104.
9.44,6464.,5.,4.,3549.,0.,0.,10022.,0.874119219189,9.09083987956,65.
9.46,6471.,4.,1.,3548.,0.,0.,10024.,0.874891226928,11.3735859501,52.
9.48,6476.,5.,2.,3543.,0.,0.,10026.,0.875392576888,9.10408279963,65.
9.5,6481.,4.,0.,3543.,0.,0.,10028.,0.875893726867,11.3866184493,52.
9.52,6486.,3.,2.,3538.,0.,0.,10029.,0.876482063035,15.1923557593,39.
9.54,6494.,2.,0.,3533.,0.,0.,10029.,0.87756313866,22.8166416052,26.
9.56,6499.,2.,0.,3530.,0.,0.,10031.,0.878063705989,22.8296563557,26.
9.58,6502.,1.,0.,3527.,0.,0.,10030.,0.878556612669,45.6849438588,13.
9.6,6507.,1.,0.,3519.,0.,0.,10027.,0.879495276974,45.7337544027,13.
9.62,6519.,3.,0.,3507.,0.,0.,10029.,0.880941499989,15.2696526665,39.
9.64,6523.,0.,3.,3501.,0.,0.,10027.,0.88165785949,inf,0.
9.66,6532.,1.,0.,3493.,0.,0.,10026.,0.882962370635,45.914043273,13.
9.68,6538.,1.,0.,3488.,0.,0.,10027.,0.883685280599,45.9516345911,13.
9.7,6542.,1.,0.,3487.,0.,0.,10030.,0.883961451873,45.9659954974,13.
9.72,6554.,1.,0.,3478.,0.,0.,10033.,0.885318102607,46.0365413355,13.
9.74,6568.,1.,0.,3464.,0.,0.,10033.,0.887209230687,46.1348799957,13.
9.76,6573.,0.,1.,3457.,0.,0.,10031.,0.888061661712,inf,0.
9.78,6584.,2.,1.,3447.,0.,0.,10034.,0.88928188423,23.12132899,26.
9.8,6590.,2.,2.,3440.,0.,0.,10034.,0.89009228692,23.1423994599,26.
9.82,6595.,3.,0.,3440.,0.,0.,10038.,0.890412664286,15.4338195143,39.
9.84,6601.,5.,2.,3433.,0.,0.,10041.,0.890956468946,9.26594727704,65.
9.86,6603.,4.,3.,3429.,0.,0.,10039.,0.891403967681,11.5882515798,52.
9.88,6612.,4.,1.,3422.,0.,0.,10039.,0.892618966274,11.6040465616,52.
9.9,6612.,4.,3.,3419.,0.,0.,10038.,0.892707890259,11.6052025734,52.
9.92,6619.,4.,3.,3416.,0.,0.,10042.,0.893297017171,11.6128612232,52.
9.94,6625.,2.,4.,3412.,0.,0.,10043.,0.894017746392,23.2444614062,26.
9.96,6621.,8.,4.,3405.,0.,0.,10038.,0.893923009892,5.8104995643,104.
9.98,6620.,10.,7.,3401.,0.,0.,10038.,0.893787996599,4.64769758232,130.
10.,6623.,9.,9.,3399.,0.,0.,10040.,0.894014910374,5.16541948216,117.
