t,s,e,i,r,c,o,n,reff,coal,reportr
5.,8177.,18.,10.,1796.,0.,0.,10001.,0.906568880642,2.6189767663,234.
5.02,8171.,22.,12.,1800.,0.,0.,10005.,0.90554149135,2.14037079774,286.
5.04,8157.,26.,17.,1807.,0.,0.,10007.,0.903809286249,1.8076185725,338.
5.06,8149.,26.,14.,1823.,0.,0.,10012.,0.902471952494,1.80494390499,338.
5.08,8139.,29.,13.,1828.,0.,0.,10009.,0.901634655257,1.61672420943,377.
5.1,8116.,43.,7.,1843.,0.,0.,10009.,0.899086725896,1.08726766853,559.
5.12,8110.,31.,19.,1846.,0.,0.,10006.,0.898691413667,1.50748237131,403.
5.14,8088.,35.,20.,1860.,0.,0.,10003.,0.896522328558,1.331976031,455.
5.16,8081.,40.,14.,1872.,0.,0.,10007.,0.895388358732,1.16400486635,520.
5.18,8070.,35.,15.,1884.,0.,0.,10004.,0.89443768388,1.32887884462,455.
5.2,8055.,34.,16.,1900.,0.,0.,10005.,0.892685927405,1.36528435956,442.
5.22,8045.,36.,13.,1913.,0.,0.,10007.,0.891399498329,1.28757705314,468.
5.24,8037.,31.,18.,1921.,0.,0.,10007.,0.890513084906,1.49376388436,403.
5.26,8024.,33.,13.,1936.,0.,0.,10006.,0.889161517048,1.40110299656,429.
5.28,8007.,31.,14.,1952.,0.,0.,10004.,0.887455084861,1.4886343359,403.
5.3,7993.,29.,15.,1963.,0.,0.,10000.,0.886257757549,1.58915184112,377.
5.32,7987.,15.,23.,1978.,0.,0.,10003.,0.885326884049,3.06913319804,195.
5.34,7985.,19.,11.,1993.,0.,0.,10008.,0.884662993242,2.42118292887,247.
5.36,7980.,15.,12.,1998.,0.,0.,10005.,0.884374140371,3.06583035329,195.
5.38,7979.,17.,10.,2000.,0.,0.,10006.,0.884174943236,2.70453512049,221.
5.4,7974.,18.,6.,2011.,0.,0.,10009.,0.883356031579,2.55191742456,234.
5.42,7973.,14.,11.,2013.,0.,0.,10011.,0.883068797091,3.27996981777,182.
5.44,7972.,13.,7.,2020.,0.,0.,10012.,0.882869849709,3.53147939884,169.
5.46,7980.,10.,4.,2021.,0.,0.,10015.,0.883491090805,4.59415367219,130.
5.48,7979.,6.,3.,2025.,0.,0.,10013.,0.883556824331,7.65749247753,78.
5.5,7980.,7.,3.,2025.,0.,0.,10015.,0.883491090805,6.56307667455,91.
5.52,7981.,5.,4.,2025.,0.,0.,10015.,0.883601803974,9.18945876133,65.
5.54,7981.,0.,9.,2022.,0.,0.,10012.,0.8838665668,inf,0.
5.56,7983.,1.,1.,2027.,0.,0.,10012.,0.884088059487,45.9725790933,13.
5.58,7991.,1.,0.,2023.,0.,0.,10015.,0.884708935667,46.0048646547,13.
5.6,7989.,1.,0.,2018.,0.,0.,10008.,0.885106155668,46.0255200947,13.
5.62,7990.,1.,0.,2016.,0.,0.,10007.,0.885305406047,46.0358811145,13.
5.64,7994.,0.,1.,2010.,0.,0.,10005.,0.885925673951,inf,0.
5.66,7999.,0.,1.,2004.,0.,0.,10004.,0.88656840562,inf,0.
5.68,8001.,1.,0.,2002.,0.,0.,10004.,0.886790075431,46.1130839224,13.
5.7,8004.,2.,0.,2000.,0.,0.,10006.,0.886945262021,23.0605768125,26.
5.72,8013.,0.,2.,1993.,0.,0.,10008.,0.887765130225,inf,0.
5.74,8015.,0.,0.,1995.,0.,0.,10010.,0.887809291516,inf,0.
5.76,8016.,0.,0.,1992.,0.,0.,10008.,0.888097502045,inf,0.
5.78,8019.,0.,0.,1989.,0.,0.,10008.,0.888429873864,inf,0.
5.8,8020.,1.,0.,1985.,0.,0.,10006.,0.888718266043,46.2133498342,13.
5.82,8020.,2.,0.,1982.,0.,0.,10004.,0.888895938627,23.1112944043,26.
5.84,8022.,3.,0.,1973.,0.,0.,9998.,0.889651185718,15.4206205524,39.
5.86,8025.,5.,2.,1970.,0.,0.,10002.,0.889627967604,9.25213086308,65.
5.88,8024.,8.,5.,1965.,0.,0.,10002.,0.889517110536,5.78186121849,104.
5.9,8025.,10.,2.,1964.,0.,0.,10001.,0.889716921505,4.62652799183,130.
5.92,8026.,10.,4.,1963.,0.,0.,10003.,0.889649877473,4.62617936286,130.
5.94,8026.,9.,7.,1964.,0.,0.,10006.,0.889383142551,5.13865815696,117.
5.96,8015.,16.,9.,1962.,0.,0.,10002.,0.888519396928,2.88768804002,208.
5.98,8009.,20.,5.,1973.,0.,0.,10007.,0.887410637926,2.30726765861,260.
6.,8011.,15.,11.,1972.,0.,0.,10009.,0.887454874464,3.07651023148,195.
6.02,8006.,15.,11.,1978.,0.,0.,10010.,0.886812375281,3.07428290097,195.
6.04,7998.,18.,10.,1978.,0.,0.,10004.,0.886457570715,2.56087742651,234.
6.06,7990.,23.,11.,1978.,0.,0.,10002.,0.885747970237,2.00256062836,299.
6.08,7979.,24.,10.,1987.,0.,0.,10000.,0.884705448202,1.91686180444,312.
6.1,7978.,19.,11.,1995.,0.,0.,10003.,0.884329270182,2.42026958155,247.
6.12,7964.,27.,11.,2002.,0.,0.,10004.,0.882689183943,1.69999398389,351.
6.14,7949.,25.,22.,2003.,0.,0.,9999.,0.881467217753,1.83345181293,325.
6.16,7927.,35.,16.,2021.,0.,0.,9999.,0.879027630536,1.30598390822,455.
6.18,7922.,37.,12.,2026.,0.,0.,9997.,0.878648926255,1.23485795041,481.
6.2,7909.,36.,14.,2035.,0.,0.,9994.,0.8774703837,1.2674572209,468.
6.22,7894.,33.,22.,2043.,0.,0.,9992.,0.875981498083,1.38033448183,429.
6.24,7874.,32.,18.,2066.,0.,0.,9990.,0.873937065169,1.4201477309,416.
6.26,7861.,30.,24.,2077.,0.,0.,9992.,0.87231955364,1.51202055964,390.
6.28,7845.,33.,17.,2098.,0.,0.,9993.,0.870456950038,1.37162913339,429.
6.3,7833.,32.,13.,2114.,0.,0.,9992.,0.869212449264,1.41247023005,416.
6.32,7818.,35.,10.,2130.,0.,0.,9993.,0.867461113498,1.28879936863,455.
6.34,7818.,28.,13.,2136.,0.,0.,9995.,0.867287534486,1.61067684976,364.
6.36,7814.,20.,8.,2155.,0.,0.,9997.,0.866670374875,2.25334297468,260.
6.38,7819.,14.,6.,2157.,0.,0.,9996.,0.867311694636,3.22144343722,182.
6.4,7814.,6.,5.,2168.,0.,0.,9993.,0.867017285863,7.51414981081,78.
6.42,7816.,6.,6.,2167.,0.,0.,9995.,0.867065665073,7.5145690973,78.
6.44,7812.,5.,3.,2171.,0.,0.,9991.,0.866968887283,9.01647642774,65.
6.46,7815.,4.,3.,2170.,0.,0.,9992.,0.867215025022,11.2737953253,52.
6.48,7813.,4.,4.,2170.,0.,0.,9991.,0.867079866403,11.2720382632,52.
6.5,7813.,7.,0.,2171.,0.,0.,9991.,0.867079866403,6.44116472185,91.
6.52,7818.,5.,1.,2166.,0.,0.,9990.,0.867721612331,9.02430476824,65.
6.54,7823.,3.,1.,2162.,0.,0.,9989.,0.868363486749,15.0516337703,39.
6.56,7822.,4.,1.,2161.,0.,0.,9988.,0.868339414973,11.2884123946,52.
6.58,7825.,1.,3.,2158.,0.,0.,9987.,0.868759432654,45.175490498,13.
6.6,7829.,0.,0.,2155.,0.,0.,9984.,0.869464705877,inf,0.
6.62,7833.,1.,1.,2149.,0.,0.,9984.,0.869908933598,45.2352645471,13.
6.64,7836.,2.,0.,2148.,0.,0.,9986.,0.870067811958,22.6217631109,26.
6.66,7841.,0.,1.,2141.,0.,0.,9983.,0.870884617065,inf,0.
6.68,7849.,0.,0.,2135.,0.,0.,9984.,0.87168584448,inf,0.
6.7,7851.,0.,0.,2133.,0.,0.,9984.,0.87190795834,inf,0.
6.72,7860.,2.,0.,2127.,0.,0.,9989.,0.872470536348,22.684233945,26.
6.74,7869.,1.,1.,2121.,0.,0.,9992.,0.873207297747,45.4067794829,13.
6.76,7868.,3.,2.,2117.,0.,0.,9990.,0.873271123794,15.1366994791,39.
6.78,7871.,3.,0.,2116.,0.,0.,9990.,0.873604094482,15.142470971,39.
6.8,7872.,1.,1.,2116.,0.,0.,9990.,0.873715084711,45.433184405,13.
6.82,7877.,3.,2.,2112.,0.,0.,9994.,0.873920117892,15.1479487101,39.
6.84,7879.,1.,5.,2105.,0.,0.,9990.,0.874492016316,45.4735848484,13.
6.86,7880.,7.,4.,2100.,0.,0.,9991.,0.874515467459,6.49640061541,91.
6.88,7877.,7.,6.,2098.,0.,0.,9988.,0.874445099941,6.49587788528,91.
6.9,7874.,4.,9.,2098.,0.,0.,9985.,0.874374690139,11.3668709718,52.
6.92,7864.,12.,6.,2101.,0.,0.,9983.,0.873439182324,3.7849031234,156.
6.94,7864.,15.,4.,2101.,0.,0.,9984.,0.873351698431,3.02761922123,195.
6.96,7869.,10.,8.,2099.,0.,0.,9986.,0.873731956648,4.54340617457,130.
6.98,7859.,15.,6.,2103.,0.,0.,9983.,0.87288384205,3.02599731911,195.
7.,7850.,16.,12.,2102.,0.,0.,9980.,0.872146319006,2.83447553677,208.
7.02,7842.,11.,12.,2113.,0.,0.,9978.,0.87143214317,4.11949740408,143.
7.04,7835.,17.,11.,2118.,0.,0.,9981.,0.870392583691,2.66237731482,221.
7.06,7823.,19.,12.,2128.,0.,0.,9982.,0.868972437301,2.37824035472,247.
7.08,7817.,24.,10.,2131.,0.,0.,9982.,0.868305962212,1.88132958479,312.
7.1,7817.,22.,12.,2133.,0.,0.,9984.,0.868132022716,2.05194841733,286.
7.12,7804.,30.,16.,2134.,0.,0.,9984.,0.866688282625,1.50225968988,390.
7.14,7791.,33.,14.,2145.,0.,0.,9983.,0.865331214329,1.36355221652,429.
7.16,7786.,33.,11.,2151.,0.,0.,9981.,0.864949158471,1.36295018911,429.
7.18,7786.,29.,14.,2152.,0.,0.,9981.,0.864949158471,1.55094331864,377.
7.2,7784.,27.,13.,2161.,0.,0.,9985.,0.864380567443,1.6647329447,351.
7.22,7776.,29.,13.,2167.,0.,0.,9985.,0.863492200981,1.54833084314,377.
7.24,7761.,30.,19.,2175.,0.,0.,9985.,0.861826513865,1.49383262403,390.
7.26,7751.,27.,16.,2189.,0.,0.,9983.,0.860888492141,1.65800746634,351.
7.28,7740.,18.,22.,2202.,0.,0.,9982.,0.859752865232,2.48373049956,234.
7.3,7728.,25.,15.,2216.,0.,0.,9984.,0.858247955936,1.78515574835,325.
7.32,7721.,21.,14.,2225.,0.,0.,9981.,0.857728288281,2.1238986186,273.
7.34,7713.,22.,16.,2231.,0.,0.,9982.,0.85675372733,2.0250542646,286.
7.36,7704.,24.,13.,2242.,0.,0.,9983.,0.855668293569,1.8539479694,312.
7.38,7701.,21.,10.,2251.,0.,0.,9983.,0.855335089404,2.11797260233,273.
7.4,7699.,19.,7.,2258.,0.,0.,9983.,0.855112953295,2.34030913533,247.
7.42,7704.,8.,10.,2262.,0.,0.,9984.,0.855582589613,5.56128683248,104.
7.44,7704.,10.,5.,2269.,0.,0.,9988.,0.855239945404,4.4472477161,130.
7.46,7704.,8.,5.,2268.,0.,0.,9985.,0.855496902824,5.56072986835,104.
7.48,7704.,12.,0.,2268.,0.,0.,9984.,0.855582589613,3.70752455499,156.
7.5,7705.,8.,5.,2268.,0.,0.,9986.,0.855522267884,5.56089474124,104.
7.52,7707.,6.,8.,2265.,0.,0.,9986.,0.855744337259,7.41645092291,78.
7.54,7712.,4.,4.,2267.,0.,0.,9987.,0.856213769282,11.1307790007,52.
7.56,7716.,1.,2.,2270.,0.,0.,9989.,0.856486343316,44.5372898524,13.
7.58,7722.,1.,0.,2268.,0.,0.,9991.,0.856980766462,44.562999856,13.
7.6,7724.,2.,1.,2263.,0.,0.,9990.,0.857288530781,22.2895018003,26.
7.62,7730.,2.,1.,2257.,0.,0.,9990.,0.857954472156,22.3068162761,26.
7.64,7734.,0.,2.,2250.,0.,0.,9986.,0.858742273824,inf,0.
7.66,7735.,2.,2.,2246.,0.,0.,9985.,0.858939322864,22.3324223945,26.
7.68,7742.,1.,1.,2244.,0.,0.,9988.,0.859458418655,44.6918377701,13.
7.7,7744.,1.,2.,2239.,0.,0.,9986.,0.8598526207,44.7123362764,13.
7.72,7754.,1.,1.,2235.,0.,0.,9991.,0.860532098309,44.7476691121,13.
7.74,7758.,1.,0.,2229.,0.,0.,9988.,0.861234617919,44.7842001318,13.
7.76,7761.,2.,0.,2221.,0.,0.,9984.,0.86191283463,22.4097337004,26.
7.78,7768.,1.,2.,2219.,0.,0.,9990.,0.862172100868,44.8329492451,13.
7.8,7770.,1.,0.,2217.,0.,0.,9988.,0.862566767366,44.853471903,13.
7.82,7772.,1.,1.,2215.,0.,0.,9989.,0.862702418384,44.860525756,13.
7.84,7776.,4.,3.,2207.,0.,0.,9990.,0.863060022702,11.2197802951,52.
7.86,7771.,9.,3.,2207.,0.,0.,9990.,0.862505071556,4.98336263566,117.
7.88,7771.,8.,5.,2207.,0.,0.,9991.,0.862418743353,5.6057218318,104.
7.9,7774.,9.,6.,2203.,0.,0.,9992.,0.862665336471,4.98428861072,117.
7.92,7778.,7.,5.,2203.,0.,0.,9993.,0.863022837144,6.41102679021,91.
7.94,7776.,9.,3.,2204.,0.,0.,9992.,0.862887272498,4.98557090776,117.
7.96,7784.,12.,2.,2200.,0.,0.,9998.,0.863256647921,3.74077880766,156.
7.98,7788.,10.,6.,2196.,0.,0.,10000.,0.863527513548,4.49034307045,130.
8.,7780.,20.,5.,2195.,0.,0.,10000.,0.862640479636,2.24286524705,260.
8.02,7778.,22.,5.,2196.,0.,0.,10001.,0.862332487909,2.03824042597,286.
8.04,7780.,11.,15.,2195.,0.,0.,10001.,0.862554224213,4.07752905992,143.
8.06,7769.,19.,9.,2204.,0.,0.,10001.,0.861334674539,2.357337004,247.
8.08,7763.,25.,11.,2205.,0.,0.,10004.,0.860411368025,1.78965564549,325.
8.1,7753.,28.,12.,2212.,0.,0.,10005.,0.859217131616,1.59568895872,364.
8.12,7742.,32.,11.,2217.,0.,0.,10002.,0.858255417469,1.39466505339,416.
8.14,7732.,29.,17.,2224.,0.,0.,10002.,0.857146846793,1.53695296666,377.
8.16,7720.,31.,13.,2240.,0.,0.,10004.,0.855645467107,1.43527626741,403.
8.18,7710.,30.,16.,2247.,0.,0.,10003.,0.85462254614,1.48134574664,390.
8.2,7702.,31.,12.,2262.,0.,0.,10007.,0.853394522826,1.4315004899,403.
8.22,7687.,36.,15.,2271.,0.,0.,10009.,0.851562304332,1.23003443959,468.
8.24,7680.,32.,20.,2282.,0.,0.,10014.,0.850362048864,1.3818383294,416.
8.26,7675.,31.,11.,2297.,0.,0.,10014.,0.849808427739,1.42548510459,403.
8.28,7666.,30.,8.,2307.,0.,0.,10011.,0.849066273486,1.47171487404,390.
8.3,7667.,25.,11.,2309.,0.,0.,10012.,0.849092214968,1.76611180713,325.
8.32,7662.,27.,9.,2315.,0.,0.,10013.,0.848453739569,1.63405905398,351.
8.34,7655.,24.,14.,2320.,0.,0.,10013.,0.847678592587,1.8366369506,312.
8.36,7645.,13.,26.,2329.,0.,0.,10013.,0.846571239755,3.38628495902,169.
8.38,7635.,21.,10.,2350.,0.,0.,10016.,0.845210652932,2.09290256916,273.
8.4,7635.,14.,2.,2362.,0.,0.,10013.,0.845463886924,3.14029443714,182.
8.42,7642.,7.,5.,2360.,0.,0.,10014.,0.84615452831,6.28571935316,91.
8.44,7644.,8.,2.,2361.,0.,0.,10015.,0.846291465929,5.50089452854,104.
8.46,7650.,4.,4.,2360.,0.,0.,10018.,0.846702114756,11.0071274918,52.
8.48,7655.,6.,3.,2356.,0.,0.,10020.,0.847086401953,7.3414154836,78.
8.5,7652.,3.,4.,2358.,0.,0.,10017.,0.8470080234,14.6814724056,39.
8.52,7657.,1.,3.,2359.,0.,0.,10020.,0.8473077178,44.0600013256,13.
8.54,7656.,7.,0.,2357.,0.,0.,10020.,0.847197059876,6.29346387337,91.
8.56,7662.,2.,3.,2353.,0.,0.,10020.,0.847861007416,22.0443861928,26.
8.58,7669.,3.,2.,2349.,0.,0.,10023.,0.848381606409,14.7052811778,39.
8.6,7670.,2.,1.,2351.,0.,0.,10024.,0.848407585138,22.0585972136,26.
8.62,7674.,2.,0.,2348.,0.,0.,10024.,0.848850040202,22.0701010453,26.
8.64,7672.,3.,0.,2345.,0.,0.,10020.,0.848967586647,14.7154381686,39.
8.66,7680.,1.,2.,2338.,0.,0.,10021.,0.849768042843,44.1879382278,13.
8.68,7686.,1.,2.,2330.,0.,0.,10019.,0.85060168796,44.2312877739,13.
8.7,7685.,2.,0.,2332.,0.,0.,10019.,0.850491018992,22.1127664938,26.
8.72,7690.,0.,2.,2327.,0.,0.,10019.,0.851044363832,inf,0.
8.74,7697.,1.,0.,2325.,0.,0.,10023.,0.851479100864,44.2769132449,13.
8.76,7697.,2.,0.,2322.,0.,0.,10021.,0.851649039813,22.1428750351,26.
8.78,7704.,2.,0.,2315.,0.,0.,10021.,0.852423567977,22.1630127674,26.
8.8,7701.,2.,2.,2311.,0.,0.,10016.,0.852516992564,22.1654418067,26.
8.82,7706.,2.,1.,2308.,0.,0.,10017.,0.852985340868,22.1776188626,26.
8.84,7708.,3.,1.,2304.,0.,0.,10016.,0.853291907374,14.7903930611,39.
8.86,7715.,6.,1.,2297.,0.,0.,10019.,0.853811088032,7.39969609627,78.
8.88,7720.,7.,1.,2295.,0.,0.,10023.,0.85402347131,6.3441743583,91.
8.9,7721.,8.,2.,2292.,0.,0.,10023.,0.854134096112,5.55187162473,104.
8.92,7720.,10.,6.,2285.,0.,0.,10021.,0.854193918066,4.44180837394,130.
8.94,7711.,15.,7.,2285.,0.,0.,10018.,0.853453595671,2.95863913166,195.
8.96,7709.,13.,10.,2284.,0.,0.,10016.,0.85340260949,3.41361043796,169.
8.98,7702.,13.,9.,2290.,0.,0.,10014.,0.852797981817,3.41119192727,169.
9.,7698.,14.,10.,2292.,0.,0.,10014.,0.852355084917,3.1658903154,182.
9.02,7695.,15.,8.,2298.,0.,0.,10016.,0.851852779871,2.95308963688,195.
9.04,7695.,15.,8.,2299.,0.,0.,10017.,0.851767739162,2.95279482909,195.
9.06,7689.,19.,8.,2307.,0.,0.,10023.,0.850594102449,2.32794175407,247.
9.08,7682.,21.,9.,2312.,0.,0.,10024.,0.84973495033,2.10410559129,273.
9.1,7679.,12.,14.,2320.,0.,0.,10025.,0.849318380543,3.68037964902,156.
9.12,7674.,21.,5.,2328.,0.,0.,10028.,0.848511448244,2.10107596708,273.
9.14,7669.,21.,13.,2326.,0.,0.,10029.,0.84787404936,2.09949764604,273.
9.16,7659.,29.,11.,2330.,0.,0.,10029.,0.84676846317,1.5183434512,377.
9.18,7646.,34.,9.,2340.,0.,0.,10029.,0.845331201123,1.29285948407,442.
9.2,7631.,36.,18.,2342.,0.,0.,10027.,0.843841102045,1.21888159184,468.
9.22,7603.,38.,21.,2360.,0.,0.,10022.,0.841164292883,1.1510669271,494.
9.24,7597.,30.,22.,2377.,0.,0.,10026.,0.840165149505,1.45628625914,390.
9.26,7590.,27.,13.,2394.,0.,0.,10024.,0.839558483859,1.6169274504,351.
9.28,7578.,32.,15.,2400.,0.,0.,10025.,0.838147504591,1.36198969496,416.
9.3,7581.,28.,15.,2406.,0.,0.,10030.,0.838061327088,1.55639960745,364.
9.32,7576.,20.,11.,2420.,0.,0.,10027.,0.837759165128,2.17817382933,260.
9.34,7566.,23.,17.,2422.,0.,0.,10028.,0.836569926689,1.89137548643,299.
9.36,7557.,27.,10.,2434.,0.,0.,10028.,0.835574799893,1.60925517016,351.
9.38,7556.,21.,9.,2442.,0.,0.,10028.,0.835464230249,2.06876857014,273.
9.4,7556.,16.,10.,2445.,0.,0.,10027.,0.835547551704,2.71552954304,208.
9.42,7557.,15.,6.,2452.,0.,0.,10030.,0.835408184778,2.89608170723,195.
9.44,7561.,9.,9.,2450.,0.,0.,10029.,0.835933718505,4.82983926247,117.
9.46,7555.,9.,7.,2453.,0.,0.,10024.,0.83568700205,4.82841378962,117.
9.48,7552.,10.,6.,2455.,0.,0.,10023.,0.835438504577,4.3442802238,130.
9.5,7550.,8.,4.,2459.,0.,0.,10021.,0.835383948368,5.42999566439,104.
9.52,7547.,6.,6.,2459.,0.,0.,10018.,0.83530207321,7.23928463449,78.
9.54,7549.,3.,1.,2462.,0.,0.,10015.,0.835773714848,14.4867443907,39.
9.56,7551.,2.,0.,2463.,0.,0.,10016.,0.835911675218,21.7337035557,26.
9.58,7558.,1.,1.,2456.,0.,0.,10016.,0.836686590027,43.5077026814,13.
9.6,7565.,0.,1.,2448.,0.,0.,10014.,0.837628762977,inf,0.
9.62,7569.,0.,0.,2442.,0.,0.,10011.,0.838322805115,inf,0.
9.64,7575.,0.,0.,2437.,0.,0.,10012.,0.838903551373,inf,0.
9.66,7582.,0.,0.,2430.,0.,0.,10012.,0.839678775777,inf,0.
9.68,7586.,0.,0.,2427.,0.,0.,10013.,0.840037858049,inf,0.
9.7,7593.,0.,0.,2420.,0.,0.,10013.,0.840813005031,inf,0.
9.72,7596.,0.,0.,2418.,0.,0.,10014.,0.841061213955,inf,0.
9.74,7599.,0.,0.,2415.,0.,0.,10014.,0.84139338663,inf,0.
9.76,7607.,0.,0.,2406.,0.,0.,10013.,0.842363298995,inf,0.
9.78,7610.,2.,0.,2397.,0.,0.,10009.,0.843032279949,21.9188392787,26.
9.8,7607.,1.,1.,2397.,0.,0.,10006.,0.842952599724,43.8335351857,13.
9.82,7610.,2.,1.,2395.,0.,0.,10008.,0.843116515788,21.9210294105,26.
9.84,7617.,2.,1.,2388.,0.,0.,10008.,0.843892050034,21.9411933009,26.
9.86,7621.,5.,1.,2383.,0.,0.,10010.,0.844166514116,8.77933174681,65.
9.88,7631.,5.,3.,2372.,0.,0.,10011.,0.84518976428,8.78997354851,65.
9.9,7637.,6.,2.,2366.,0.,0.,10011.,0.845854308715,7.3307373422,78.
9.92,7643.,4.,7.,2358.,0.,0.,10012.,0.846434302726,11.0036459354,52.
9.94,7645.,8.,6.,2354.,0.,0.,10013.,0.846571239755,5.50271305841,104.
9.96,7644.,12.,1.,2358.,0.,0.,10015.,0.846291465929,3.66726301903,156.
9.98,7649.,9.,5.,2355.,0.,0.,10018.,0.846591434741,4.8914171785,117.
10.,7651.,11.,5.,2351.,0.,0.,10018.,0.846812794771,4.00311502982,143.
