t,s,e,i,r,c,o,n,reff,coal,reportr
5.,5806.,9.,37.,4149.,0.,0.,10001.,0.822992625638,4.75506850369,117.
5.02,5784.,30.,16.,4170.,0.,0.,10000.,0.819956142891,1.42125731434,390.
5.04,5780.,30.,13.,4177.,0.,0.,10000.,0.819389091616,1.42027442547,390.
5.06,5779.,23.,13.,4185.,0.,0.,10000.,0.819247328798,1.85221135206,299.
5.08,5782.,23.,10.,4188.,0.,0.,10003.,0.819426789217,1.85261708866,299.
5.1,5771.,23.,19.,4185.,0.,0.,9998.,0.818276881625,1.85001729759,299.
5.12,5751.,30.,16.,4196.,0.,0.,9993.,0.815849064221,1.41413837798,390.
5.14,5747.,30.,13.,4205.,0.,0.,9995.,0.815118477841,1.41287202826,390.
5.16,5744.,38.,10.,4205.,0.,0.,9997.,0.814529989143,1.11461998514,494.
5.18,5738.,33.,19.,4204.,0.,0.,9994.,0.813923407279,1.28254597511,429.
5.2,5734.,36.,9.,4219.,0.,0.,9998.,0.813030608082,1.17437754501,468.
5.22,5734.,28.,19.,4221.,0.,0.,10002.,0.812705460868,1.50931014161,364.
5.24,5733.,25.,18.,4229.,0.,0.,10005.,0.812320079102,1.68962576453,325.
5.26,5724.,24.,21.,4235.,0.,0.,10004.,0.811125923404,1.75743950071,312.
5.28,5711.,38.,11.,4242.,0.,0.,10002.,0.809445568018,1.10766235624,494.
5.3,5707.,35.,20.,4244.,0.,0.,10006.,0.808555272694,1.20128211943,455.
5.32,5700.,40.,2.,4268.,0.,0.,10010.,0.807240825302,1.04941307289,520.
5.34,5700.,22.,17.,4269.,0.,0.,10008.,0.807402144411,1.90840506861,286.
5.36,5698.,27.,10.,4274.,0.,0.,10009.,0.807038206104,1.55429580435,351.
5.38,5693.,24.,12.,4277.,0.,0.,10006.,0.806571783327,1.74757219721,312.
5.4,5699.,15.,11.,4286.,0.,0.,10011.,0.807018582867,2.79766442061,195.
5.42,5707.,18.,4.,4284.,0.,0.,10013.,0.807990018833,2.33419338774,234.
5.44,5713.,11.,9.,4279.,0.,0.,10012.,0.808920278435,3.82398677078,143.
5.46,5714.,14.,2.,4280.,0.,0.,10010.,0.809223522065,3.00568736767,182.
5.48,5717.,10.,6.,4277.,0.,0.,10010.,0.809648385658,4.21017160542,130.
5.5,5730.,7.,0.,4272.,0.,0.,10009.,0.811570537202,6.02880970493,91.
5.52,5746.,5.,4.,4259.,0.,0.,10014.,0.813430353289,8.4596756742,65.
5.54,5755.,3.,2.,4258.,0.,0.,10018.,0.814379138701,14.1159050708,39.
5.56,5763.,1.,2.,4254.,0.,0.,10020.,0.815348426846,42.398118196,13.
5.58,5773.,0.,0.,4246.,0.,0.,10019.,0.816844746867,inf,0.
5.6,5781.,0.,0.,4236.,0.,0.,10017.,0.818140016407,inf,0.
5.62,5793.,1.,0.,4223.,0.,0.,10017.,0.819838283177,42.6315907252,13.
5.64,5800.,1.,0.,4216.,0.,0.,10017.,0.820828938793,42.6831048172,13.
5.66,5804.,1.,0.,4207.,0.,0.,10012.,0.821805232984,42.7338721151,13.
5.68,5812.,2.,1.,4201.,0.,0.,10016.,0.822609326889,21.3878424991,26.
5.7,5822.,1.,1.,4192.,0.,0.,10016.,0.824024690494,42.8492839057,13.
5.72,5831.,1.,1.,4184.,0.,0.,10017.,0.825216127948,42.9112386533,13.
5.74,5839.,2.,0.,4171.,0.,0.,10012.,0.826760984733,21.4957856031,26.
5.76,5847.,0.,4.,4162.,0.,0.,10013.,0.827811046104,inf,0.
5.78,5857.,0.,1.,4155.,0.,0.,10013.,0.829226833766,inf,0.
5.8,5867.,2.,1.,4144.,0.,0.,10014.,0.830559673294,21.5945515056,26.
5.82,5878.,1.,2.,4130.,0.,0.,10011.,0.832366244972,43.2830447385,13.
5.84,5877.,4.,1.,4121.,0.,0.,10003.,0.832890217957,10.8275728334,52.
5.86,5884.,7.,0.,4112.,0.,0.,10003.,0.833882260075,6.19455393198,91.
5.88,5888.,11.,0.,4102.,0.,0.,10001.,0.834616014426,3.94545752274,143.
5.9,5892.,6.,5.,4096.,0.,0.,9999.,0.835350062308,7.23970054,78.
5.92,5894.,2.,8.,4093.,0.,0.,9997.,0.835800793177,21.7308206226,26.
5.94,5893.,9.,3.,4091.,0.,0.,9996.,0.835742587155,4.82873494801,117.
5.96,5892.,11.,10.,4084.,0.,0.,9997.,0.835517182456,3.94971758979,143.
5.98,5893.,17.,8.,4078.,0.,0.,9996.,0.835742587155,2.55638909012,221.
6.,5894.,18.,8.,4074.,0.,0.,9994.,0.836051683949,2.4152604203,234.
6.02,5904.,22.,3.,4070.,0.,0.,9999.,0.837051386264,1.97848509481,286.
6.04,5906.,16.,11.,4068.,0.,0.,10001.,0.837167490013,2.72079434254,208.
6.06,5904.,19.,13.,4066.,0.,0.,10002.,0.836800321061,2.29019035238,247.
6.08,5894.,25.,14.,4071.,0.,0.,10004.,0.835215966552,1.73724921043,325.
6.1,5888.,32.,12.,4072.,0.,0.,10004.,0.834365729735,1.35584431082,416.
6.12,5886.,30.,11.,4077.,0.,0.,10004.,0.834082317463,1.4457426836,390.
6.14,5876.,25.,19.,4081.,0.,0.,10001.,0.832915030701,1.73246326386,325.
6.16,5862.,36.,22.,4079.,0.,0.,9999.,0.831096752418,1.20047308683,468.
6.18,5856.,34.,19.,4092.,0.,0.,10001.,0.830080057826,1.26953420609,442.
6.2,5845.,36.,14.,4105.,0.,0.,10000.,0.828603674827,1.19687197475,468.
6.22,5836.,34.,18.,4113.,0.,0.,10001.,0.827245084951,1.26519836522,442.
6.24,5829.,34.,18.,4120.,0.,0.,10001.,0.826252844444,1.26368082091,442.
6.26,5819.,39.,15.,4126.,0.,0.,9999.,0.825000341577,1.10000045544,507.
6.28,5817.,29.,13.,4140.,0.,0.,9999.,0.824716787584,1.47880251567,377.
6.3,5815.,23.,15.,4146.,0.,0.,9999.,0.824433233591,1.86393600638,299.
6.32,5812.,22.,12.,4153.,0.,0.,9999.,0.824007902602,1.94765504251,286.
6.34,5816.,20.,7.,4160.,0.,0.,10003.,0.824245279503,2.14303772671,260.
6.36,5818.,18.,10.,4153.,0.,0.,9999.,0.82485856458,2.38292474212,234.
6.38,5814.,17.,6.,4161.,0.,0.,9998.,0.82437390223,2.52161428917,221.
6.4,5815.,14.,5.,4166.,0.,0.,10000.,0.824350790268,3.06187436385,182.
6.42,5814.,19.,4.,4163.,0.,0.,10000.,0.824209027449,2.25572996986,247.
6.44,5817.,14.,7.,4159.,0.,0.,9997.,0.824881780439,3.06384661306,182.
6.46,5824.,8.,6.,4161.,0.,0.,9999.,0.825709226558,5.36710997263,104.
6.48,5827.,9.,3.,4160.,0.,0.,9999.,0.826134557547,4.77322188805,117.
6.5,5833.,9.,4.,4155.,0.,0.,10001.,0.826819839019,4.77718129211,117.
6.52,5842.,5.,3.,4151.,0.,0.,10001.,0.828095576813,8.61219399886,65.
6.54,5851.,7.,1.,4139.,0.,0.,9998.,0.829620175773,6.16289273432,91.
6.56,5863.,4.,4.,4128.,0.,0.,9999.,0.831238529415,10.8061008824,52.
6.58,5867.,5.,1.,4125.,0.,0.,9998.,0.831888834603,8.65164387987,65.
6.6,5873.,2.,0.,4118.,0.,0.,9993.,0.833156243118,21.6620623211,26.
6.62,5879.,0.,2.,4113.,0.,0.,9994.,0.833923965039,inf,0.
6.64,5885.,0.,1.,4107.,0.,0.,9993.,0.834858588583,inf,0.
6.66,5893.,1.,0.,4101.,0.,0.,9995.,0.835826203222,43.4629625675,13.
6.68,5902.,0.,1.,4094.,0.,0.,9997.,0.836935236059,inf,0.
6.7,5915.,0.,0.,4080.,0.,0.,9995.,0.838946545403,inf,0.
6.72,5924.,1.,0.,4072.,0.,0.,9997.,0.840054953984,43.6828576072,13.
6.74,5926.,1.,0.,4068.,0.,0.,9995.,0.840506716493,43.7063492576,13.
6.76,5936.,2.,0.,4056.,0.,0.,9994.,0.842009296899,21.8922417194,26.
6.78,5945.,1.,1.,4049.,0.,0.,9996.,0.84311720357,43.8420945856,13.
6.8,5953.,2.,1.,4044.,0.,0.,10000.,0.843914059237,21.9417655402,26.
6.82,5963.,5.,2.,4031.,0.,0.,10001.,0.845247162707,8.79057049216,65.
6.84,5970.,4.,2.,4026.,0.,0.,10002.,0.846154796195,11.0000123505,52.
6.86,5970.,6.,3.,4024.,0.,0.,10003.,0.846070206092,7.3326084528,78.
6.88,5966.,14.,1.,4023.,0.,0.,10004.,0.845418808356,3.14012700247,182.
6.9,5967.,13.,1.,4021.,0.,0.,10002.,0.84572959278,3.38291837112,169.
6.92,5973.,10.,6.,4010.,0.,0.,9999.,0.84683399901,4.40353679485,130.
6.94,5973.,10.,7.,4009.,0.,0.,9999.,0.84683399901,4.40353679485,130.
6.96,5966.,22.,4.,4010.,0.,0.,10002.,0.845587858308,1.99866221055,286.
6.98,5967.,21.,8.,4007.,0.,0.,10003.,0.845645045185,2.09397820712,273.
7.,5971.,21.,12.,4002.,0.,0.,10006.,0.845958215044,2.09475367535,273.
7.02,5973.,21.,9.,4001.,0.,0.,10004.,0.846410751309,2.09587424134,273.
7.04,5969.,20.,17.,3996.,0.,0.,10002.,0.846013061723,2.19963396048,260.
7.06,5966.,22.,14.,3999.,0.,0.,10001.,0.845672408639,1.99886205678,286.
7.08,5959.,29.,10.,4002.,0.,0.,10000.,0.844764636149,1.51475038206,377.
7.1,5953.,34.,6.,4009.,0.,0.,10002.,0.843745310175,1.2904340038,442.
7.12,5952.,29.,12.,4008.,0.,0.,10001.,0.843687927626,1.51281973229,377.
7.14,5941.,33.,10.,4015.,0.,0.,9999.,0.842297135127,1.32725609172,429.
7.16,5936.,34.,13.,4016.,0.,0.,9999.,0.841588250146,1.28713497081,442.
7.18,5926.,41.,13.,4019.,0.,0.,9999.,0.840170480183,1.06558207243,533.
7.2,5930.,37.,14.,4021.,0.,0.,10002.,0.840485417326,1.18122274867,481.
7.22,5922.,30.,15.,4032.,0.,0.,9999.,0.839603372197,1.45531251181,390.
7.24,5922.,32.,12.,4035.,0.,0.,10001.,0.839435468313,1.36408263601,416.
7.26,5926.,33.,11.,4031.,0.,0.,10001.,0.840002462888,1.32364024455,429.
7.28,5917.,33.,16.,4032.,0.,0.,9998.,0.838978393446,1.32202655937,429.
7.3,5908.,32.,25.,4035.,0.,0.,10000.,0.8375347324,1.36099394015,416.
7.32,5901.,30.,22.,4042.,0.,0.,9995.,0.836960873106,1.45073218005,390.
7.34,5902.,27.,14.,4054.,0.,0.,9997.,0.836935236059,1.61187526945,351.
7.36,5911.,20.,15.,4051.,0.,0.,9997.,0.838211484301,2.17934985918,260.
7.38,5914.,17.,10.,4058.,0.,0.,9999.,0.838469156227,2.56472918375,221.
7.4,5919.,11.,11.,4058.,0.,0.,9999.,0.839178041208,3.96702346753,143.
7.42,5922.,12.,7.,4056.,0.,0.,9997.,0.839771343263,3.63900915414,156.
7.44,5919.,14.,3.,4062.,0.,0.,9998.,0.8392619758,3.11725876726,182.
7.46,5923.,14.,3.,4060.,0.,0.,10000.,0.839661174679,3.11874150595,182.
7.48,5931.,9.,6.,4055.,0.,0.,10001.,0.840711206107,4.85744252417,117.
7.5,5940.,5.,7.,4052.,0.,0.,10004.,0.841734448816,8.75403826768,65.
7.52,5946.,5.,2.,4050.,0.,0.,10003.,0.842668918831,8.76375675585,65.
7.54,5952.,5.,3.,4041.,0.,0.,10001.,0.843687927626,8.77435444731,65.
7.56,5956.,6.,0.,4041.,0.,0.,10003.,0.844086121857,7.31541305609,78.
7.58,5961.,1.,5.,4037.,0.,0.,10004.,0.844710277675,43.9249344391,13.
7.6,5972.,2.,0.,4034.,0.,0.,10008.,0.845930808145,21.9942010118,26.
7.62,5977.,2.,0.,4025.,0.,0.,10004.,0.846977575854,22.0214169722,26.
7.64,5985.,1.,1.,4015.,0.,0.,10002.,0.848280813271,44.1106022901,13.
7.66,5994.,1.,0.,4006.,0.,0.,10001.,0.849641370664,44.1813512745,13.
7.68,5998.,2.,0.,4001.,0.,0.,10001.,0.850208365239,22.1054174962,26.
7.7,6010.,0.,2.,3992.,0.,0.,10004.,0.851653878347,inf,0.
7.72,6025.,2.,0.,3977.,0.,0.,10004.,0.85377947039,22.1982662301,26.
7.74,6032.,1.,1.,3968.,0.,0.,10002.,0.854942333442,44.457001339,13.
7.76,6038.,0.,1.,3963.,0.,0.,10002.,0.855792740272,inf,0.
7.78,6047.,0.,1.,3954.,0.,0.,10002.,0.857068350517,inf,0.
7.8,6052.,0.,0.,3950.,0.,0.,10002.,0.857777022876,inf,0.
7.82,6062.,3.,0.,3936.,0.,0.,10001.,0.859280278439,14.8941914929,39.
7.84,6062.,4.,2.,3933.,0.,0.,10001.,0.859280278439,11.1706436197,52.
7.86,6069.,6.,2.,3928.,0.,0.,10005.,0.859928581906,7.45271437652,78.
7.88,6080.,2.,5.,3924.,0.,0.,10011.,0.860970869246,22.3852426004,26.
7.9,6085.,1.,4.,3917.,0.,0.,10007.,0.862023334961,44.825213418,13.
7.92,6095.,3.,3.,3911.,0.,0.,10012.,0.863008768959,14.9588186619,39.
7.94,6096.,5.,6.,3905.,0.,0.,10012.,0.863150361866,8.9767637634,65.
7.96,6097.,8.,7.,3898.,0.,0.,10010.,0.863464440678,5.61251886441,104.
7.98,6095.,16.,6.,3892.,0.,0.,10009.,0.863267438786,2.80561917606,208.
8.,6098.,13.,12.,3888.,0.,0.,10011.,0.863519796161,3.45407918465,169.
8.02,6094.,20.,8.,3887.,0.,0.,10009.,0.86312580344,2.24412708894,260.
8.04,6085.,21.,10.,3893.,0.,0.,10009.,0.861851085318,2.13410744936,273.
8.06,6080.,25.,7.,3898.,0.,0.,10010.,0.861056880322,1.79099831107,325.
8.08,6080.,28.,11.,3892.,0.,0.,10011.,0.860970869246,1.59894590003,364.
8.1,6071.,30.,21.,3889.,0.,0.,10011.,0.859696405788,1.4901404367,390.
8.12,6070.,27.,25.,3894.,0.,0.,10016.,0.859125707883,1.65461247444,351.
8.14,6057.,31.,21.,3908.,0.,0.,10017.,0.857200152115,1.43788412613,403.
8.16,6050.,28.,17.,3927.,0.,0.,10022.,0.855782331514,1.58931004424,364.
8.18,6047.,26.,7.,3944.,0.,0.,10024.,0.855187314632,1.71037462926,338.
8.2,6046.,26.,16.,3936.,0.,0.,10024.,0.85504589123,1.71009178246,338.
8.22,6030.,40.,14.,3937.,0.,0.,10021.,0.853038415598,1.10894994028,520.
8.24,6029.,30.,17.,3944.,0.,0.,10020.,0.852982069314,1.47850225348,390.
8.26,6021.,28.,19.,3951.,0.,0.,10019.,0.851935253921,1.58216547157,364.
8.28,6022.,21.,15.,3960.,0.,0.,10018.,0.852161802478,2.11011493947,273.
8.3,6022.,25.,8.,3964.,0.,0.,10019.,0.852076747901,1.77231963563,325.
8.32,6020.,21.,13.,3965.,0.,0.,10019.,0.851793759941,2.10920359604,273.
8.34,6018.,18.,5.,3979.,0.,0.,10020.,0.851425790866,2.45967450695,234.
8.36,6026.,16.,6.,3974.,0.,0.,10022.,0.852387492513,2.77025935067,208.
8.38,6030.,12.,7.,3973.,0.,0.,10022.,0.852953299013,3.69613096239,156.
8.4,6037.,11.,5.,3972.,0.,0.,10025.,0.853687916211,4.03561560391,143.
8.42,6039.,7.,5.,3969.,0.,0.,10020.,0.854396867903,6.34694816156,91.
8.44,6038.,11.,4.,3966.,0.,0.,10019.,0.854340651582,4.03870126202,143.
8.46,6048.,9.,7.,3957.,0.,0.,10021.,0.855584798928,4.94337883825,117.
8.48,6045.,8.,6.,3961.,0.,0.,10020.,0.855245747056,5.55909735587,104.
8.5,6055.,4.,7.,3956.,0.,0.,10022.,0.856489589639,11.1343646653,52.
8.52,6068.,0.,3.,3951.,0.,0.,10022.,0.858328460765,inf,0.
8.54,6083.,1.,1.,3941.,0.,0.,10026.,0.860106947594,44.7255612749,13.
8.56,6087.,3.,1.,3934.,0.,0.,10025.,0.86075838098,14.919811937,39.
8.58,6096.,2.,1.,3925.,0.,0.,10024.,0.862117061353,22.4150435952,26.
8.6,6104.,1.,0.,3917.,0.,0.,10022.,0.863420719266,44.8978774019,13.
8.62,6113.,0.,1.,3904.,0.,0.,10018.,0.865039039945,inf,0.
8.64,6121.,0.,0.,3900.,0.,0.,10021.,0.86591179799,inf,0.
8.66,6134.,0.,0.,3889.,0.,0.,10023.,0.867577700696,inf,0.
8.68,6143.,0.,0.,3882.,0.,0.,10025.,0.868677301521,inf,0.
8.7,6154.,0.,0.,3867.,0.,0.,10021.,0.870580167428,inf,0.
8.72,6166.,0.,0.,3858.,0.,0.,10024.,0.872016699524,inf,0.
8.74,6177.,0.,0.,3849.,0.,0.,10026.,0.87339809556,inf,0.
8.76,6181.,2.,1.,3841.,0.,0.,10025.,0.874050854746,22.7253222234,26.
8.78,6185.,2.,2.,3837.,0.,0.,10026.,0.874529257089,22.7377606843,26.
8.8,6193.,0.,2.,3832.,0.,0.,10027.,0.875573088367,inf,0.
8.82,6201.,2.,1.,3827.,0.,0.,10031.,0.876354539183,22.7852180188,26.
8.84,6202.,6.,1.,3820.,0.,0.,10029.,0.876670656171,7.59781235348,78.
8.86,6217.,5.,4.,3807.,0.,0.,10033.,0.878440589408,9.13578212984,65.
8.88,6224.,5.,4.,3801.,0.,0.,10034.,0.879342020214,9.14515701023,65.
8.9,6233.,8.,6.,3786.,0.,0.,10033.,0.880701334048,5.72455867131,104.
8.92,6235.,9.,7.,3784.,0.,0.,10035.,0.880808344881,5.08911488153,117.
8.94,6232.,12.,6.,3787.,0.,0.,10037.,0.880209111918,3.81423948498,156.
8.96,6228.,16.,8.,3784.,0.,0.,10036.,0.879731799878,2.8591283496,208.
8.98,6217.,23.,10.,3784.,0.,0.,10034.,0.878353043007,1.98584166245,299.
9.,6220.,22.,7.,3788.,0.,0.,10037.,0.878514229161,2.07648817802,286.
9.02,6217.,20.,10.,3788.,0.,0.,10035.,0.878265514054,2.28349033654,260.
9.04,6223.,18.,6.,3786.,0.,0.,10033.,0.879288368648,2.54016639832,234.
9.06,6219.,21.,9.,3783.,0.,0.,10032.,0.878810774512,2.17610287022,273.
9.08,6212.,24.,11.,3786.,0.,0.,10033.,0.877734106708,1.9017572312,312.
9.1,6206.,22.,13.,3789.,0.,0.,10030.,0.877148606528,2.0732603427,286.
9.12,6194.,29.,14.,3793.,0.,0.,10030.,0.875452540902,1.56977696989,377.
9.14,6185.,26.,24.,3797.,0.,0.,10032.,0.874006213274,1.74801242655,338.
9.16,6174.,29.,17.,3812.,0.,0.,10032.,0.872451796404,1.56439632459,377.
9.18,6167.,38.,11.,3814.,0.,0.,10030.,0.871636393242,1.19276559075,494.
9.2,6162.,30.,22.,3816.,0.,0.,10030.,0.870929699231,1.50961147867,390.
9.22,6151.,29.,18.,3828.,0.,0.,10026.,0.86972182059,1.55950119554,377.
9.24,6148.,21.,14.,3846.,0.,0.,10029.,0.869037599829,2.15190262815,273.
9.26,6135.,28.,9.,3855.,0.,0.,10027.,0.867372985166,1.61083554388,364.
9.28,6136.,27.,16.,3850.,0.,0.,10029.,0.867341365086,1.67043522165,351.
9.3,6130.,21.,10.,3869.,0.,0.,10030.,0.86640685756,2.1453884092,273.
9.32,6127.,25.,11.,3869.,0.,0.,10032.,0.865810197047,1.80088520986,325.
9.34,6137.,21.,8.,3868.,0.,0.,10034.,0.867050446346,2.14698205762,273.
9.36,6138.,22.,10.,3863.,0.,0.,10033.,0.867278162745,2.04993020285,286.
9.38,6146.,17.,9.,3864.,0.,0.,10036.,0.868148947022,2.65551442618,221.
9.4,6145.,16.,7.,3863.,0.,0.,10031.,0.868440355311,2.82243115476,208.
9.42,6151.,10.,5.,3864.,0.,0.,10030.,0.869374972407,4.52074985651,130.
9.44,6157.,11.,3.,3859.,0.,0.,10030.,0.87022300522,4.11378147922,143.
9.46,6164.,11.,2.,3852.,0.,0.,10029.,0.871299246152,4.11886916363,143.
9.48,6170.,9.,5.,3842.,0.,0.,10026.,0.872408329222,5.04058145773,117.
9.5,6177.,8.,5.,3837.,0.,0.,10027.,0.873310990932,5.67652144106,104.
9.52,6179.,2.,3.,3843.,0.,0.,10027.,0.873593753112,22.7134375809,26.
9.54,6189.,1.,0.,3840.,0.,0.,10030.,0.874745846891,45.4867840383,13.
9.56,6195.,1.,0.,3836.,0.,0.,10032.,0.875419319521,45.5218046151,13.
9.58,6202.,0.,1.,3829.,0.,0.,10032.,0.876408493893,inf,0.
9.6,6213.,0.,1.,3815.,0.,0.,10029.,0.878225538018,inf,0.
9.62,6224.,0.,0.,3806.,0.,0.,10030.,0.879692704968,inf,0.
9.64,6235.,0.,0.,3799.,0.,0.,10034.,0.880896127255,inf,0.
9.66,6244.,1.,0.,3790.,0.,0.,10035.,0.882079760294,45.8681475353,13.
9.68,6253.,1.,0.,3781.,0.,0.,10035.,0.883351175708,45.9342611368,13.
9.7,6255.,1.,0.,3776.,0.,0.,10032.,0.883897956998,45.9626937639,13.
9.72,6257.,3.,0.,3769.,0.,0.,10029.,0.884445065408,15.3303811337,39.
9.74,6264.,3.,1.,3759.,0.,0.,10027.,0.885611145734,15.3505931927,39.
9.76,6270.,2.,0.,3752.,0.,0.,10024.,0.886724733379,23.0548430679,26.
9.78,6276.,1.,1.,3746.,0.,0.,10024.,0.887573273794,46.1538102373,13.
9.8,6285.,1.,1.,3740.,0.,0.,10027.,0.888580148618,46.2061677281,13.
9.82,6297.,3.,0.,3730.,0.,0.,10030.,0.89001043753,15.4268475838,39.
9.84,6301.,6.,1.,3722.,0.,0.,10030.,0.890575792739,7.71832353707,78.
9.86,6303.,7.,1.,3717.,0.,0.,10028.,0.891036144549,6.61912564522,91.
9.88,6307.,9.,2.,3712.,0.,0.,10030.,0.891423825552,5.15044876985,117.
9.9,6312.,12.,4.,3699.,0.,0.,10027.,0.892397438039,3.86705556483,156.
9.92,6317.,12.,2.,3700.,0.,0.,10031.,0.892748205777,3.86857555837,156.
9.94,6324.,8.,8.,3694.,0.,0.,10034.,0.89347026604,5.80755672926,104.
9.96,6319.,13.,4.,3696.,0.,0.,10032.,0.892941836974,3.57176734789,169.
9.98,6321.,12.,7.,3695.,0.,0.,10035.,0.8929574255,3.86948217717,156.
10.,6326.,12.,2.,3695.,0.,0.,10035.,0.893663767396,3.87254299205,156.
