t,cases
5.01,4.095
5.02,4.095
5.03,3.9
5.04,3.9
5.05,3.055
5.06,3.055
5.07,3.25
5.08,3.25
5.09,4.225
5.1,4.225
5.11,4.68
5.12,4.68
5.13,3.965
5.14,3.965
5.15,4.16
5.16,4.16
5.17,4.68
5.18,4.68
5.19,4.94
5.2,4.94
5.21,4.68
5.22,4.68
5.23,4.095
5.24,4.095
5.25,3.25
5.26,3.25
5.27,2.73
5.28,2.73
5.29,2.405
5.3,2.405
5.31,2.08
5.32,2.08
5.33,2.08
5.34,2.08
5.35,2.145
5.36,2.145
5.37,2.34
5.38,2.34
5.39,2.145
5.4,2.145
5.41,1.82
5.42,1.82
5.43,1.495
5.44,1.495
5.45,1.43
5.46,1.43
5.47,1.235
5.48,1.235
5.49,1.17
5.5,1.17
5.51,1.17
5.52,1.17
5.53,0.65
5.54,0.65
5.55,0.325
5.56,0.325
5.57,0.325
5.58,0.325
5.59,0.26
5.6,0.26
5.61,0.195
5.62,0.195
5.63,0.13
5.64,0.13
5.65,0.13
5.66,0.13
5.67,0.195
5.68,0.195
5.69,0.26
5.7,0.26
5.71,0.13
5.72,0.13
5.73,0.065
5.74,0.065
5.75,0.195
5.76,0.195
5.77,0.39
5.78,0.39
5.79,0.39
5.8,0.39
5.81,0.26
5.82,0.26
5.83,0.585
5.84,0.585
5.85,1.105
5.86,1.105
5.87,1.3
5.88,1.3
5.89,1.105
5.9,1.105
5.91,1.04
5.92,1.04
5.93,1.105
5.94,1.105
5.95,1.365
5.96,1.365
5.97,1.95
5.98,1.95
5.99,2.145
6.,2.145
6.01,2.21
6.02,2.21
6.03,2.47
6.04,2.47
6.05,2.405
6.06,2.405
6.07,2.34
6.08,2.34
6.09,2.275
6.1,2.275
6.11,2.86
6.12,2.86
6.13,3.315
6.14,3.315
6.15,3.25
6.16,3.25
6.17,4.16
6.18,4.16
6.19,4.225
6.2,4.225
6.21,3.705
6.22,3.705
6.23,3.445
6.24,3.445
6.25,2.99
6.26,2.99
6.27,3.25
6.28,3.25
6.29,3.705
6.3,3.705
6.31,3.575
6.32,3.575
6.33,3.055
6.34,3.055
6.35,2.405
6.36,2.405
6.37,2.145
6.38,2.145
6.39,1.82
6.4,1.82
6.41,1.235
6.42,1.235
6.43,1.17
6.44,1.17
6.45,1.235
6.46,1.235
6.47,1.105
6.48,1.105
6.49,0.845
6.5,0.845
6.51,0.455
6.52,0.455
6.53,0.195
6.54,0.195
6.55,0.065
6.56,0.065
6.57,0.065
6.58,0.065
6.59,0.26
6.6,0.26
6.61,0.195
6.62,0.195
6.63,0.
6.64,0.
6.65,0.
6.66,0.
6.67,0.065
6.68,0.065
6.69,0.13
6.7,0.13
6.71,0.195
6.72,0.195
6.73,0.195
6.74,0.195
6.75,0.26
6.76,0.26
6.77,0.325
6.78,0.325
6.79,0.325
6.8,0.325
6.81,0.455
6.82,0.455
6.83,0.52
6.84,0.52
6.85,0.78
6.86,0.78
6.87,0.91
6.88,0.91
6.89,0.91
6.9,0.91
6.91,1.17
6.92,1.17
6.93,1.43
6.94,1.43
6.95,1.755
6.96,1.755
6.97,2.34
6.98,2.34
6.99,2.6
7.,2.6
7.01,2.535
7.02,2.535
7.03,2.86
7.04,2.86
7.05,2.535
7.06,2.535
7.07,2.08
7.08,2.08
7.09,2.99
7.1,2.99
7.11,3.705
7.12,3.705
7.13,3.575
7.14,3.575
7.15,3.705
7.16,3.705
7.17,3.9
7.18,3.9
7.19,4.355
7.2,4.355
7.21,4.225
7.22,4.225
7.23,4.095
7.24,4.095
7.25,4.68
7.26,4.68
7.27,4.095
7.28,4.095
7.29,3.64
7.3,3.64
7.31,3.77
7.32,3.77
7.33,3.51
7.34,3.51
7.35,2.99
7.36,2.99
7.37,2.535
7.38,2.535
7.39,2.275
7.4,2.275
7.41,1.69
7.42,1.69
7.43,0.975
7.44,0.975
7.45,0.845
7.46,0.845
7.47,0.845
7.48,0.845
7.49,0.715
7.5,0.715
7.51,0.65
7.52,0.65
7.53,0.26
7.54,0.26
7.55,0.
7.56,0.
7.57,0.
7.58,0.
7.59,0.
7.6,0.
7.61,0.065
7.62,0.065
7.63,0.065
7.64,0.065
7.65,0.065
7.66,0.065
7.67,0.065
7.68,0.065
7.69,0.065
7.7,0.065
7.71,0.065
7.72,0.065
7.73,0.
7.74,0.
7.75,0.
7.76,0.
7.77,0.
7.78,0.
7.79,0.
7.8,0.
7.81,0.13
7.82,0.13
7.83,0.325
7.84,0.325
7.85,0.52
7.86,0.52
7.87,0.585
7.88,0.585
7.89,0.65
7.9,0.65
7.91,0.65
7.92,0.65
7.93,0.845
7.94,0.845
7.95,1.495
7.96,1.495
7.97,2.47
7.98,2.47
7.99,3.315
8.,3.315
8.01,3.445
8.02,3.445
8.03,3.51
8.04,3.51
8.05,3.25
8.06,3.25
8.07,2.665
8.08,2.665
8.09,2.73
8.1,2.73
8.11,3.315
8.12,3.315
8.13,3.575
8.14,3.575
8.15,3.51
8.16,3.51
8.17,3.12
8.18,3.12
8.19,2.99
8.2,2.99
8.21,3.315
8.22,3.315
8.23,3.77
8.24,3.77
8.25,4.29
8.26,4.29
8.27,3.9
8.28,3.9
8.29,3.315
8.3,3.315
8.31,3.25
8.32,3.25
8.33,2.665
8.34,2.665
8.35,2.21
8.36,2.21
8.37,2.145
8.38,2.145
8.39,1.82
8.4,1.82
8.41,1.235
8.42,1.235
8.43,1.17
8.44,1.17
8.45,1.3
8.46,1.3
8.47,1.235
8.48,1.235
8.49,1.235
8.5,1.235
8.51,0.91
8.52,0.91
8.53,0.585
8.54,0.585
8.55,0.39
8.56,0.39
8.57,0.325
8.58,0.325
8.59,0.39
8.6,0.39
8.61,0.455
8.62,0.455
8.63,0.325
8.64,0.325
8.65,0.13
8.66,0.13
8.67,0.195
8.68,0.195
8.69,0.39
8.7,0.39
8.71,0.325
8.72,0.325
8.73,0.26
8.74,0.26
8.75,0.195
8.76,0.195
8.77,0.13
8.78,0.13
8.79,0.13
8.8,0.13
8.81,0.13
8.82,0.13
8.83,0.13
8.84,0.13
8.85,0.455
8.86,0.455
8.87,0.975
8.88,0.975
8.89,1.3
8.9,1.3
8.91,1.495
8.92,1.495
8.93,1.69
8.94,1.69
8.95,1.885
8.96,1.885
8.97,1.69
8.98,1.69
8.99,1.56
9.,1.56
9.01,1.82
9.02,1.82
9.03,2.535
9.04,2.535
9.05,3.055
9.06,3.055
9.07,3.315
9.08,3.315
9.09,3.38
9.1,3.38
9.11,3.12
9.12,3.12
9.13,3.64
9.14,3.64
9.15,3.705
9.16,3.705
9.17,3.25
9.18,3.25
9.19,3.835
9.2,3.835
9.21,4.29
9.22,4.29
9.23,3.965
9.24,3.965
9.25,4.03
9.26,4.03
9.27,3.835
9.28,3.835
9.29,3.25
9.3,3.25
9.31,2.99
9.32,2.99
9.33,2.73
9.34,2.73
9.35,2.73
9.36,2.73
9.37,2.535
9.38,2.535
9.39,2.21
9.4,2.21
9.41,1.885
9.42,1.885
9.43,0.975
9.44,0.975
9.45,0.585
9.46,0.585
9.47,0.585
9.48,0.585
9.49,0.325
9.5,0.325
9.51,0.195
9.52,0.195
9.53,0.13
9.54,0.13
9.55,0.195
9.56,0.195
9.57,0.13
9.58,0.13
9.59,0.0649999999999
9.6,0.0650000000001
9.61,0.325
9.62,0.325
9.63,0.39
9.64,0.39
9.65,0.195
9.66,0.195
9.67,0.0650000000001
9.68,0.0649999999999
9.69,0.
9.7,0.
9.71,0.
9.72,0.
9.73,0.0650000000001
9.74,0.0649999999999
9.75,0.26
9.76,0.26
9.77,0.325
9.78,0.325
9.79,0.26
9.8,0.26
9.81,0.325
9.82,0.325
9.83,0.52
9.84,0.52
9.85,0.975
9.86,0.975
9.87,0.91
9.88,0.91
9.89,0.65
9.9,0.65
9.91,0.845
9.92,0.845
9.93,1.235
9.94,1.235
9.95,1.885
9.96,1.885
9.97,2.08
9.98,2.08
9.99,2.08
10.,2.08
