t,s,e,i,r,c,o,n,reff,coal,reportr
5.,5967.,1.,43.,3990.,0.,0.,10001.,0.786827472453,40.9150285676,13.
5.02,5941.,25.,16.,4016.,0.,0.,9998.,0.78363409703,1.62995892182,325.
5.04,5931.,26.,12.,4026.,0.,0.,9995.,0.782549881694,1.56509976339,338.
5.06,5923.,32.,11.,4028.,0.,0.,9994.,0.78157253951,1.2700553767,416.
5.08,5915.,29.,16.,4031.,0.,0.,9991.,0.780751261356,1.39996777898,377.
5.1,5913.,31.,6.,4043.,0.,0.,9993.,0.780331064274,1.3089424304,403.
5.12,5910.,16.,17.,4045.,0.,0.,9988.,0.780325594205,2.53605818117,208.
5.14,5899.,23.,19.,4046.,0.,0.,9987.,0.778951200249,1.76110706143,299.
5.16,5893.,27.,16.,4052.,0.,0.,9988.,0.778081002817,1.4985263758,351.
5.18,5884.,32.,16.,4054.,0.,0.,9986.,0.777048286102,1.26270346492,416.
5.2,5892.,19.,21.,4057.,0.,0.,9989.,0.777871087464,2.12891034464,247.
5.22,5888.,19.,18.,4065.,0.,0.,9990.,0.777265189074,2.12725209641,247.
5.24,5873.,30.,12.,4071.,0.,0.,9986.,0.775595612556,1.34436572843,390.
5.26,5872.,32.,8.,4072.,0.,0.,9984.,0.775618892581,1.26038070044,416.
5.28,5872.,29.,15.,4069.,0.,0.,9985.,0.775541214174,1.39062562541,377.
5.3,5864.,30.,15.,4077.,0.,0.,9986.,0.774407061472,1.34230557322,390.
5.32,5872.,19.,16.,4082.,0.,0.,9989.,0.775230656074,2.12168390083,247.
5.34,5874.,23.,10.,4084.,0.,0.,9991.,0.775339460559,1.75294138909,299.
5.36,5876.,18.,11.,4088.,0.,0.,9993.,0.775448221491,2.24018375097,234.
5.38,5877.,16.,6.,4090.,0.,0.,9989.,0.775890763922,2.52164498275,208.
5.4,5882.,16.,7.,4084.,0.,0.,9989.,0.776550871769,2.52379033325,208.
5.42,5883.,15.,10.,4079.,0.,0.,9987.,0.776838432118,2.69303989801,195.
5.44,5888.,12.,5.,4083.,0.,0.,9988.,0.777420828879,3.36882359181,156.
5.46,5892.,13.,3.,4076.,0.,0.,9984.,0.778260646302,3.11304258521,169.
5.48,5894.,7.,10.,4070.,0.,0.,9981.,0.778758823724,5.78506554767,91.
5.5,5901.,11.,2.,4068.,0.,0.,9982.,0.779605606471,3.6854083215,143.
5.52,5908.,4.,6.,4064.,0.,0.,9982.,0.78053040553,10.1468952719,52.
5.54,5914.,2.,0.,4067.,0.,0.,9983.,0.781244825077,20.312365452,26.
5.56,5919.,3.,1.,4057.,0.,0.,9980.,0.782140371346,13.55709977,39.
5.58,5925.,2.,1.,4049.,0.,0.,9977.,0.783168636542,20.3623845501,26.
5.6,5937.,1.,0.,4041.,0.,0.,9979.,0.784597519619,40.7990710202,13.
5.62,5945.,1.,0.,4032.,0.,0.,9978.,0.78573348927,40.858141442,13.
5.64,5953.,0.,1.,4025.,0.,0.,9979.,0.786711981521,inf,0.
5.66,5954.,3.,0.,4021.,0.,0.,9978.,0.786922993291,13.6399985504,39.
5.68,5960.,1.,1.,4013.,0.,0.,9975.,0.787952903038,40.973550958,13.
5.7,5969.,0.,1.,4003.,0.,0.,9973.,0.789301020648,inf,0.
5.72,5979.,3.,0.,3993.,0.,0.,9975.,0.790464833433,13.7013904462,39.
5.74,5987.,1.,2.,3984.,0.,0.,9974.,0.791601846918,41.1632960397,13.
5.76,5995.,2.,0.,3981.,0.,0.,9978.,0.792341844941,20.6008879685,26.
5.78,6004.,3.,0.,3973.,0.,0.,9980.,0.793372324643,13.7517869605,39.
5.8,6012.,1.,3.,3965.,0.,0.,9981.,0.794349855485,41.3061924852,13.
5.82,6017.,4.,2.,3957.,0.,0.,9980.,0.795090152794,10.3361719863,52.
5.84,6024.,4.,5.,3949.,0.,0.,9982.,0.795855647074,10.346123412,52.
5.86,6026.,7.,5.,3944.,0.,0.,9982.,0.796119875376,5.91403335994,91.
5.88,6034.,6.,4.,3939.,0.,0.,9983.,0.797096935157,6.90817343802,78.
5.9,6037.,7.,2.,3939.,0.,0.,9985.,0.797333499654,5.92304885457,91.
5.92,6040.,5.,4.,3936.,0.,0.,9985.,0.797729723026,8.29638911947,65.
5.94,6037.,10.,5.,3935.,0.,0.,9987.,0.797173825377,4.14530389196,130.
5.96,6048.,8.,6.,3925.,0.,0.,9987.,0.798626353467,5.19107129754,104.
5.98,6042.,14.,7.,3922.,0.,0.,9985.,0.797993871941,2.96397723864,182.
6.,6043.,16.,11.,3917.,0.,0.,9987.,0.797966113426,2.59338986864,208.
6.02,6043.,19.,6.,3918.,0.,0.,9986.,0.79804602191,2.1841259547,247.
6.04,6035.,24.,11.,3914.,0.,0.,9984.,0.797149185409,1.72715656839,312.
6.06,6023.,18.,18.,3923.,0.,0.,9982.,0.795723532923,2.29875687289,234.
6.08,6014.,25.,12.,3934.,0.,0.,9985.,0.794295787132,1.65213523724,325.
6.1,6007.,31.,14.,3936.,0.,0.,9988.,0.793132968594,1.33041659248,403.
6.12,6007.,27.,13.,3941.,0.,0.,9988.,0.793132968594,1.52751534692,351.
6.14,6009.,19.,20.,3945.,0.,0.,9993.,0.793000061766,2.17031595852,247.
6.16,5990.,30.,16.,3955.,0.,0.,9991.,0.79065089696,1.37046155473,390.
6.18,5980.,34.,15.,3958.,0.,0.,9987.,0.789647088911,1.20769554775,442.
6.2,5976.,35.,12.,3964.,0.,0.,9987.,0.789118896878,1.17240521822,455.
6.22,5981.,31.,19.,3960.,0.,0.,9991.,0.789462940688,1.32426041664,403.
6.24,5980.,30.,15.,3966.,0.,0.,9991.,0.789330945546,1.36817363895,390.
6.26,5977.,27.,12.,3972.,0.,0.,9988.,0.789171924968,1.51988667031,351.
6.28,5989.,23.,8.,3972.,0.,0.,9992.,0.790439786637,1.78708125674,299.
6.3,5988.,19.,12.,3972.,0.,0.,9991.,0.790386906678,2.16316416564,247.
6.32,5994.,15.,13.,3972.,0.,0.,9994.,0.790941381365,2.74193012207,195.
6.34,5996.,22.,12.,3964.,0.,0.,9994.,0.791205292403,1.87012160023,286.
6.36,5997.,17.,7.,3975.,0.,0.,9996.,0.79117891714,2.42007668772,221.
6.38,6001.,14.,3.,3979.,0.,0.,9997.,0.791627439188,2.94033048841,182.
6.4,6004.,15.,4.,3969.,0.,0.,9992.,0.792419515606,2.74705432077,195.
6.42,6008.,7.,9.,3968.,0.,0.,9992.,0.792947443332,5.89046672189,91.
6.44,6018.,7.,2.,3967.,0.,0.,9994.,0.794108313823,5.89909033126,91.
6.46,6026.,6.,4.,3960.,0.,0.,9996.,0.795004861545,6.89004213339,78.
6.48,6035.,6.,1.,3955.,0.,0.,9997.,0.796112580487,6.89964236422,78.
6.5,6039.,7.,3.,3948.,0.,0.,9997.,0.796640244169,5.91789895668,91.
6.52,6051.,3.,7.,3939.,0.,0.,10000.,0.797983768245,13.8317186496,39.
6.54,6052.,5.,0.,3944.,0.,0.,10001.,0.798035841007,8.29957274647,65.
6.56,6063.,4.,1.,3939.,0.,0.,10007.,0.799006979509,10.3870907336,52.
6.58,6074.,1.,3.,3933.,0.,0.,10011.,0.800136773747,41.6071122348,13.
6.6,6086.,0.,0.,3927.,0.,0.,10013.,0.801557415707,inf,0.
6.62,6090.,0.,0.,3921.,0.,0.,10011.,0.802244476806,inf,0.
6.64,6105.,0.,0.,3909.,0.,0.,10014.,0.803979519589,inf,0.
6.66,6118.,0.,0.,3898.,0.,0.,10016.,0.805530634396,inf,0.
6.68,6129.,2.,0.,3884.,0.,0.,10015.,0.807059533914,20.9835478818,26.
6.7,6138.,1.,1.,3876.,0.,0.,10016.,0.80816394801,42.0245252965,13.
6.72,6142.,3.,0.,3871.,0.,0.,10016.,0.808690610733,14.0173039194,39.
6.74,6148.,1.,0.,3865.,0.,0.,10014.,0.8096422746,42.1013982792,13.
6.76,6150.,0.,1.,3860.,0.,0.,10011.,0.810148363276,inf,0.
6.78,6159.,4.,0.,3848.,0.,0.,10011.,0.811333946247,10.5473413012,52.
6.8,6163.,1.,3.,3841.,0.,0.,10008.,0.812104235583,42.2294202503,13.
6.82,6164.,7.,4.,3834.,0.,0.,10009.,0.812154855947,6.03315035846,91.
6.84,6164.,8.,1.,3832.,0.,0.,10005.,0.812479555539,5.281117111,104.
6.86,6169.,8.,5.,3823.,0.,0.,10005.,0.813138607742,5.28540095032,104.
6.88,6175.,3.,9.,3818.,0.,0.,10005.,0.813929470385,14.10811082,39.
6.9,6176.,4.,9.,3816.,0.,0.,10005.,0.814061280826,10.5827966507,52.
6.92,6167.,8.,9.,3817.,0.,0.,10001.,0.813200104344,5.28580067823,104.
6.94,6166.,19.,3.,3814.,0.,0.,10002.,0.812986950618,2.22501691748,247.
6.96,6182.,12.,7.,3805.,0.,0.,10006.,0.814770707116,3.53067306417,156.
6.98,6167.,20.,12.,3804.,0.,0.,10003.,0.8130375131,2.11389753406,260.
7.,6159.,19.,11.,3809.,0.,0.,9998.,0.812388891366,2.22338012374,247.
7.02,6160.,15.,12.,3810.,0.,0.,9997.,0.812602070555,2.81702051126,195.
7.04,6157.,22.,9.,3808.,0.,0.,9996.,0.812287575927,1.91995245219,286.
7.06,6154.,22.,10.,3810.,0.,0.,9996.,0.811891788575,1.91901695481,286.
7.08,6151.,18.,7.,3820.,0.,0.,9996.,0.811496001222,2.34432178131,234.
7.1,6150.,20.,12.,3813.,0.,0.,9995.,0.811445249101,2.10975764766,260.
7.12,6136.,26.,15.,3820.,0.,0.,9997.,0.809436088462,1.61887217692,338.
7.14,6135.,24.,14.,3822.,0.,0.,9995.,0.809466114347,1.75384324775,312.
7.16,6131.,23.,12.,3828.,0.,0.,9994.,0.809019287479,1.82908708474,299.
7.18,6117.,28.,15.,3829.,0.,0.,9989.,0.8075759406,1.49978388969,364.
7.2,6112.,33.,10.,3836.,0.,0.,9991.,0.806754304211,1.27124920664,429.
7.22,6107.,32.,13.,3841.,0.,0.,9993.,0.805932996706,1.30964111965,416.
7.24,6099.,29.,14.,3850.,0.,0.,9992.,0.804957799081,1.44337260525,377.
7.26,6092.,28.,11.,3863.,0.,0.,9994.,0.803873022235,1.49290704129,364.
7.28,6085.,22.,17.,3866.,0.,0.,9990.,0.803270834836,1.89864015507,286.
7.3,6079.,22.,16.,3871.,0.,0.,9988.,0.802639473294,1.89714784597,286.
7.32,6069.,24.,12.,3880.,0.,0.,9985.,0.801559882292,1.7367130783,312.
7.34,6074.,20.,9.,3882.,0.,0.,9985.,0.80222025458,2.08577266191,260.
7.36,6077.,15.,9.,3886.,0.,0.,9987.,0.802455745704,2.78184658511,195.
7.38,6077.,14.,12.,3883.,0.,0.,9986.,0.80253610378,2.98084838547,182.
7.4,6079.,8.,14.,3888.,0.,0.,9989.,0.80255912096,5.21663428624,104.
7.42,6078.,11.,7.,3895.,0.,0.,9991.,0.802266469403,3.79253240082,143.
7.44,6080.,13.,3.,3895.,0.,0.,9991.,0.802530459686,3.21012183874,169.
7.46,6082.,7.,6.,3897.,0.,0.,9992.,0.802714106249,5.96301907499,91.
7.48,6088.,8.,1.,3898.,0.,0.,9995.,0.803264825451,5.22122136543,104.
7.5,6094.,7.,1.,3894.,0.,0.,9996.,0.80397604153,5.97239345136,91.
7.52,6102.,1.,0.,3894.,0.,0.,9997.,0.804950947163,41.8574492525,13.
7.54,6115.,1.,0.,3881.,0.,0.,9997.,0.80666585413,41.9466244148,13.
7.56,6133.,1.,0.,3869.,0.,0.,10003.,0.808555062079,42.0448632281,13.
7.58,6138.,2.,1.,3863.,0.,0.,10004.,0.809133356984,21.0374672816,26.
7.6,6143.,1.,1.,3861.,0.,0.,10006.,0.809630613688,42.1007919118,13.
7.62,6147.,1.,0.,3851.,0.,0.,9999.,0.810724969936,42.1576984367,13.
7.64,6146.,3.,1.,3843.,0.,0.,9993.,0.811079776937,14.0587161336,39.
7.66,6152.,1.,3.,3838.,0.,0.,9994.,0.81179035338,42.2130983757,13.
7.68,6158.,0.,1.,3835.,0.,0.,9994.,0.812582086494,inf,0.
7.7,6167.,0.,0.,3830.,0.,0.,9997.,0.813525481999,inf,0.
7.72,6176.,0.,0.,3820.,0.,0.,9996.,0.814794229158,inf,0.
7.74,6184.,0.,0.,3808.,0.,0.,9992.,0.816176263243,inf,0.
7.76,6193.,0.,0.,3800.,0.,0.,9993.,0.817282306959,inf,0.
7.78,6202.,1.,0.,3794.,0.,0.,9997.,0.818142539218,42.5434120393,13.
7.8,6213.,2.,0.,3786.,0.,0.,10001.,0.819265809679,21.3009110516,26.
7.82,6221.,2.,1.,3776.,0.,0.,10000.,0.820402747026,21.3304714227,26.
7.84,6225.,5.,4.,3765.,0.,0.,9999.,0.821012353644,8.5385284779,65.
7.86,6235.,9.,3.,3749.,0.,0.,9996.,0.822578047085,4.75267316094,117.
7.88,6235.,9.,6.,3745.,0.,0.,9995.,0.822660346039,4.75314866601,117.
7.9,6243.,10.,2.,3742.,0.,0.,9997.,0.82355109196,4.28246567819,130.
7.92,6244.,10.,5.,3738.,0.,0.,9997.,0.823683007881,4.28315164098,130.
7.94,6243.,10.,8.,3735.,0.,0.,9996.,0.823633480025,4.28289409613,130.
7.96,6242.,13.,8.,3735.,0.,0.,9998.,0.82333681765,3.2933472706,169.
7.98,6244.,15.,6.,3732.,0.,0.,9997.,0.823683007881,2.85543442732,195.
8.,6249.,12.,12.,3725.,0.,0.,9998.,0.824260136735,3.57179392585,156.
8.02,6244.,17.,15.,3720.,0.,0.,9996.,0.823765409142,2.5197530162,221.
8.04,6242.,22.,4.,3723.,0.,0.,9991.,0.823913672592,1.94743231704,286.
8.06,6243.,19.,5.,3724.,0.,0.,9991.,0.824045667734,2.25528288011,247.
8.08,6247.,20.,5.,3718.,0.,0.,9990.,0.824656188204,2.14410608933,260.
8.1,6244.,18.,8.,3721.,0.,0.,9991.,0.824177662875,2.38095769275,234.
8.12,6251.,19.,4.,3722.,0.,0.,9996.,0.824688912964,2.25704334074,247.
8.14,6260.,17.,12.,3711.,0.,0.,10000.,0.825545924511,2.5251992985,221.
8.16,6260.,25.,6.,3712.,0.,0.,10003.,0.82529833501,1.71662053682,325.
8.18,6251.,26.,17.,3707.,0.,0.,10001.,0.824276609738,1.64855321948,338.
8.2,6245.,26.,16.,3712.,0.,0.,9999.,0.823650144339,1.64730028868,338.
8.22,6236.,30.,18.,3715.,0.,0.,9999.,0.822463138526,1.42560277345,390.
8.24,6230.,28.,14.,3727.,0.,0.,9999.,0.821671801318,1.52596191673,364.
8.26,6229.,31.,5.,3738.,0.,0.,10003.,0.821211394374,1.37751588734,403.
8.28,6220.,25.,13.,3743.,0.,0.,10001.,0.820188851795,1.70599281173,325.
8.3,6218.,22.,21.,3742.,0.,0.,10003.,0.819761189631,1.93761735731,286.
8.32,6214.,21.,11.,3752.,0.,0.,9998.,0.819643541314,2.02959353087,273.
8.34,6209.,21.,9.,3758.,0.,0.,9997.,0.819065950662,2.0281633064,273.
8.36,6208.,17.,12.,3758.,0.,0.,9995.,0.819097903482,2.50547594006,221.
8.38,6207.,17.,7.,3767.,0.,0.,9998.,0.818720222229,2.50432067976,221.
8.4,6214.,14.,6.,3766.,0.,0.,10000.,0.819479612605,3.04378141825,182.
8.42,6224.,10.,4.,3762.,0.,0.,10000.,0.820798376063,4.26815155553,130.
8.44,6236.,8.,0.,3763.,0.,0.,10007.,0.821805628272,5.34173658377,104.
8.46,6237.,7.,1.,3762.,0.,0.,10007.,0.821937412369,6.1058207776,91.
8.48,6244.,7.,1.,3756.,0.,0.,10008.,0.822777680834,6.11206277191,91.
8.5,6252.,6.,3.,3748.,0.,0.,10009.,0.823749539159,7.13916267271,78.
8.52,6267.,4.,0.,3743.,0.,0.,10014.,0.825313619863,10.7290770582,52.
8.54,6268.,2.,1.,3743.,0.,0.,10014.,0.82544531184,21.4615781078,26.
8.56,6276.,2.,1.,3734.,0.,0.,10013.,0.826581390236,21.4911161461,26.
8.58,6288.,2.,1.,3724.,0.,0.,10015.,0.827996467491,21.5279081548,26.
8.6,6294.,3.,0.,3720.,0.,0.,10017.,0.828621064457,14.3627651173,39.
8.62,6305.,1.,1.,3712.,0.,0.,10019.,0.829903543338,43.1549842536,13.
8.64,6312.,1.,1.,3703.,0.,0.,10017.,0.830990810113,43.2115221259,13.
8.66,6324.,1.,1.,3694.,0.,0.,10020.,0.832321367904,43.280711131,13.
8.68,6327.,2.,1.,3688.,0.,0.,10018.,0.832882451265,21.6549437329,26.
8.7,6332.,2.,0.,3684.,0.,0.,10018.,0.833540648239,21.6720568542,26.
8.72,6337.,2.,0.,3678.,0.,0.,10017.,0.834282123525,21.6913352116,26.
8.74,6339.,4.,1.,3672.,0.,0.,10016.,0.834628749827,10.8501737477,52.
8.76,6347.,5.,4.,3662.,0.,0.,10018.,0.835515239162,8.68935848728,65.
8.78,6353.,1.,4.,3660.,0.,0.,10018.,0.836305075531,43.4878639276,13.
8.8,6363.,3.,1.,3652.,0.,0.,10019.,0.837537866179,14.5173230138,39.
8.82,6367.,6.,0.,3650.,0.,0.,10023.,0.837729914704,7.26032592744,78.
8.84,6382.,4.,4.,3634.,0.,0.,10024.,0.839619751291,10.9150567668,52.
8.86,6376.,6.,4.,3634.,0.,0.,10020.,0.83916525012,7.27276550104,78.
8.88,6379.,8.,7.,3628.,0.,0.,10022.,0.839392546056,5.45605154936,104.
8.9,6376.,10.,5.,3631.,0.,0.,10022.,0.838997785492,4.36278848456,130.
8.92,6381.,13.,6.,3624.,0.,0.,10024.,0.839488190691,3.35795276276,169.
8.94,6392.,10.,8.,3615.,0.,0.,10025.,0.840851473468,4.37242766204,130.
8.96,6392.,13.,7.,3613.,0.,0.,10025.,0.840851473468,3.36340589387,169.
8.98,6393.,12.,10.,3613.,0.,0.,10028.,0.840731430492,3.64316953213,156.
9.,6387.,16.,6.,3620.,0.,0.,10029.,0.839858630395,2.72954054878,208.
9.02,6380.,26.,6.,3615.,0.,0.,10027.,0.83910550115,1.6782110023,338.
9.04,6376.,22.,16.,3614.,0.,0.,10028.,0.838495792401,1.98189914568,286.
9.06,6370.,24.,8.,3626.,0.,0.,10028.,0.837706743663,1.81503127794,312.
9.08,6360.,18.,22.,3626.,0.,0.,10026.,0.836558506969,2.41672457569,234.
9.1,6348.,28.,9.,3642.,0.,0.,10027.,0.83489682152,1.55052266854,364.
9.12,6343.,27.,10.,3646.,0.,0.,10026.,0.83432242291,1.60684318486,351.
9.14,6339.,27.,8.,3653.,0.,0.,10027.,0.833713130374,1.60566973257,351.
9.16,6339.,20.,18.,3645.,0.,0.,10022.,0.834129071868,2.16873558686,260.
9.18,6326.,24.,20.,3649.,0.,0.,10019.,0.832667694711,1.80411333854,312.
9.2,6310.,29.,25.,3652.,0.,0.,10016.,0.830810445087,1.48972907395,377.
9.22,6291.,33.,21.,3666.,0.,0.,10011.,0.828722496483,1.30586575203,429.
9.24,6288.,29.,13.,3683.,0.,0.,10013.,0.828161851785,1.48497987217,377.
9.26,6281.,30.,14.,3688.,0.,0.,10013.,0.827239915881,1.43388252086,390.
9.28,6268.,33.,10.,3700.,0.,0.,10011.,0.825692673336,1.30109148526,429.
9.3,6264.,27.,16.,3704.,0.,0.,10011.,0.825165747571,1.58920810643,351.
9.32,6254.,22.,13.,3720.,0.,0.,10009.,0.824013054687,1.94766722017,286.
9.34,6254.,17.,15.,3725.,0.,0.,10011.,0.82384843316,2.52000697202,221.
9.36,6253.,17.,12.,3727.,0.,0.,10009.,0.823881296923,2.52010749647,221.
9.38,6253.,15.,7.,3735.,0.,0.,10010.,0.823798991099,2.85583650248,195.
9.4,6255.,14.,6.,3738.,0.,0.,10013.,0.823815582525,3.05988644938,182.
9.42,6263.,7.,5.,3742.,0.,0.,10017.,0.824539835827,6.12515306614,91.
9.44,6270.,8.,7.,3736.,0.,0.,10021.,0.825131910955,5.36335742121,104.
9.46,6283.,11.,1.,3728.,0.,0.,10023.,0.826677721703,3.90793104805,143.
9.48,6288.,9.,3.,3722.,0.,0.,10022.,0.827418142279,4.78063815539,117.
9.5,6298.,12.,1.,3710.,0.,0.,10021.,0.828816710558,3.59153907908,156.
9.52,6303.,5.,5.,3707.,0.,0.,10020.,0.829557492394,8.6273979209,65.
9.54,6300.,6.,3.,3708.,0.,0.,10017.,0.829410979676,7.18822849052,78.
9.56,6312.,7.,2.,3698.,0.,0.,10019.,0.830824927129,6.17184231582,91.
9.58,6317.,6.,4.,3695.,0.,0.,10022.,0.831234161065,7.2040293959,78.
9.6,6335.,5.,0.,3685.,0.,0.,10025.,0.833353267275,8.66687397966,65.
9.62,6342.,3.,3.,3677.,0.,0.,10025.,0.834274099615,14.46075106,39.
9.64,6351.,0.,4.,3674.,0.,0.,10029.,0.835124810026,inf,0.
9.66,6354.,0.,0.,3676.,0.,0.,10030.,0.835435993034,inf,0.
9.68,6364.,0.,0.,3666.,0.,0.,10030.,0.836750812034,inf,0.
9.7,6374.,0.,0.,3659.,0.,0.,10033.,0.837815038302,inf,0.
9.72,6381.,1.,0.,3654.,0.,0.,10036.,0.838484418442,43.601189759,13.
9.74,6392.,1.,0.,3640.,0.,0.,10033.,0.840181004836,43.6894122515,13.
9.76,6399.,2.,0.,3632.,0.,0.,10033.,0.841101102933,21.8686286763,26.
9.78,6405.,2.,1.,3625.,0.,0.,10033.,0.841889758444,21.8891337195,26.
9.8,6410.,2.,3.,3621.,0.,0.,10036.,0.842295113966,21.8996729631,26.
9.82,6408.,1.,2.,3622.,0.,0.,10033.,0.8422840862,43.7987724824,13.
9.84,6412.,3.,1.,3615.,0.,0.,10031.,0.842977897585,14.6116168915,39.
9.86,6421.,3.,1.,3607.,0.,0.,10032.,0.844076969876,14.6306674778,39.
9.88,6426.,5.,3.,3599.,0.,0.,10033.,0.844650052734,8.78436054844,65.
9.9,6435.,4.,3.,3591.,0.,0.,10033.,0.845833036001,10.995829468,52.
9.92,6440.,8.,5.,3583.,0.,0.,10036.,0.846237212783,5.50054188309,104.
9.94,6443.,8.,3.,3584.,0.,0.,10038.,0.846462737384,5.502007793,104.
9.96,6450.,8.,4.,3578.,0.,0.,10040.,0.847213575903,5.50688824337,104.
9.98,6453.,10.,3.,3573.,0.,0.,10039.,0.847692060209,4.40799871309,130.
10.,6458.,9.,2.,3570.,0.,0.,10039.,0.848348880339,4.90157130863,117.
