t,s,e,i,r,c,o,n,reff,coal,reportr
5.,6038.,1.,35.,3926.,0.,0.,10000.,0.878817106486,45.6984895373,13.
5.02,6016.,27.,16.,3944.,0.,0.,10003.,0.875352451009,1.68586397972,351.
5.04,6016.,25.,15.,3949.,0.,0.,10005.,0.87517746801,1.82036913346,325.
5.06,6020.,22.,9.,3957.,0.,0.,10008.,0.875496850126,2.06935619121,286.
5.08,6023.,18.,13.,3952.,0.,0.,10006.,0.876108225818,2.53097931903,234.
5.1,6013.,27.,13.,3950.,0.,0.,10003.,0.874915938816,1.68502328957,351.
5.12,6003.,34.,10.,3956.,0.,0.,10003.,0.873460898173,1.33588137368,442.
5.14,5987.,39.,13.,3958.,0.,0.,9997.,0.871655669694,1.16220755959,507.
5.16,5991.,34.,13.,3962.,0.,0.,10000.,0.871976363855,1.33361090943,442.
5.18,5979.,36.,9.,3976.,0.,0.,10000.,0.870229791269,1.25699858739,468.
5.2,5979.,33.,11.,3978.,0.,0.,10001.,0.870142776991,1.37113407283,429.
5.22,5971.,33.,15.,3981.,0.,0.,10000.,0.869065409544,1.36943640292,429.
5.24,5964.,30.,8.,3999.,0.,0.,10001.,0.867959779558,1.5044636179,390.
5.26,5962.,29.,9.,3999.,0.,0.,9999.,0.867842264331,1.55613095673,377.
5.28,5967.,28.,7.,3999.,0.,0.,10001.,0.868396379044,1.61273613251,364.
5.3,5965.,23.,12.,3998.,0.,0.,9998.,0.86836579641,1.96326180058,299.
5.32,5966.,20.,11.,3999.,0.,0.,9996.,0.868685145025,2.25858137706,260.
5.34,5969.,21.,7.,4002.,0.,0.,9999.,0.868861200233,2.15146582915,273.
5.36,5966.,15.,17.,3997.,0.,0.,9995.,0.868772056995,3.01174313092,195.
5.38,5966.,15.,7.,4004.,0.,0.,9992.,0.869032897285,3.01264737725,195.
5.4,5968.,16.,7.,4001.,0.,0.,9992.,0.869324225778,2.82530373378,208.
5.42,5966.,15.,0.,4010.,0.,0.,9991.,0.869119878858,3.01294891337,195.
5.44,5982.,11.,2.,3998.,0.,0.,9993.,0.871276327845,4.11876082254,143.
5.46,5992.,8.,1.,3992.,0.,0.,9993.,0.872732824548,5.67276335956,104.
5.48,6001.,6.,2.,3985.,0.,0.,9994.,0.87395621474,7.57428719441,78.
5.5,6008.,7.,2.,3974.,0.,0.,9991.,0.87523838957,6.50177089395,91.
5.52,6013.,5.,6.,3965.,0.,0.,9989.,0.876142169984,9.11187856784,65.
5.54,6024.,3.,8.,3956.,0.,0.,9991.,0.877569250794,15.2112003471,39.
5.56,6030.,2.,5.,3952.,0.,0.,9989.,0.878619205888,22.8440993531,26.
5.58,6037.,1.,2.,3948.,0.,0.,9988.,0.879727231448,45.7458160353,13.
5.6,6043.,1.,1.,3944.,0.,0.,9989.,0.880513409815,45.7866973104,13.
5.62,6049.,2.,2.,3936.,0.,0.,9989.,0.881387657781,22.9160791023,26.
5.64,6055.,1.,0.,3931.,0.,0.,9987.,0.882438587815,45.8868065664,13.
5.66,6057.,2.,0.,3927.,0.,0.,9986.,0.882818458924,22.953279932,26.
5.68,6068.,2.,1.,3915.,0.,0.,9986.,0.884421728372,22.9949649377,26.
5.7,6074.,2.,0.,3908.,0.,0.,9984.,0.885473581977,23.0223131314,26.
5.72,6082.,0.,3.,3901.,0.,0.,9986.,0.886462253125,inf,0.
5.74,6089.,0.,2.,3895.,0.,0.,9986.,0.887482515501,inf,0.
5.76,6096.,0.,0.,3888.,0.,0.,9984.,0.888680763209,inf,0.
5.78,6103.,0.,0.,3882.,0.,0.,9985.,0.889612126186,inf,0.
5.8,6107.,2.,0.,3872.,0.,0.,9981.,0.89055194756,23.1543506365,26.
5.82,6115.,1.,1.,3865.,0.,0.,9982.,0.891629213167,46.3647190847,13.
5.84,6123.,3.,1.,3858.,0.,0.,9985.,0.892527453488,15.4704758605,39.
5.86,6128.,6.,3.,3848.,0.,0.,9985.,0.893256285314,7.74155447272,78.
5.88,6135.,7.,1.,3843.,0.,0.,9986.,0.89418709683,6.64253271931,91.
5.9,6129.,9.,5.,3837.,0.,0.,9980.,0.893849647897,5.16446463229,117.
5.92,6131.,11.,7.,3837.,0.,0.,9986.,0.893604089758,4.22431024249,143.
5.94,6129.,18.,5.,3834.,0.,0.,9986.,0.893312586222,2.58068080464,234.
5.96,6123.,19.,12.,3833.,0.,0.,9987.,0.892348715638,2.44221753754,247.
5.98,6130.,18.,11.,3832.,0.,0.,9991.,0.893011206403,2.57981015183,234.
6.,6132.,17.,13.,3830.,0.,0.,9992.,0.893213162278,2.73218143756,221.
6.02,6128.,20.,11.,3831.,0.,0.,9990.,0.892809210096,2.32130394625,260.
6.04,6128.,20.,10.,3833.,0.,0.,9991.,0.89271984875,2.32107160675,260.
6.06,6124.,20.,14.,3836.,0.,0.,9994.,0.891869331622,2.31886026222,260.
6.08,6117.,25.,9.,3841.,0.,0.,9992.,0.891028198573,1.85333865303,325.
6.1,6114.,24.,15.,3840.,0.,0.,9993.,0.890502084327,1.92942118271,312.
6.12,6108.,17.,18.,3844.,0.,0.,9987.,0.89016265803,2.72285048339,221.
6.14,6093.,29.,17.,3851.,0.,0.,9990.,0.887709940782,1.59175575589,377.
6.16,6083.,31.,16.,3855.,0.,0.,9985.,0.886696798884,1.48736237232,403.
6.18,6078.,37.,14.,3859.,0.,0.,9988.,0.885701857337,1.24477017788,481.
6.2,6071.,33.,17.,3863.,0.,0.,9984.,0.885036239082,1.39460255855,429.
6.22,6067.,31.,22.,3866.,0.,0.,9986.,0.884275976604,1.48330163818,403.
6.24,6058.,27.,20.,3880.,0.,0.,9985.,0.883052639757,1.70069397287,351.
6.26,6054.,33.,13.,3885.,0.,0.,9985.,0.882469574296,1.39055811707,429.
6.28,6047.,35.,10.,3893.,0.,0.,9985.,0.881449209741,1.30958168304,455.
6.3,6049.,28.,11.,3899.,0.,0.,9987.,0.881564164771,1.63719059172,364.
6.32,6051.,26.,13.,3895.,0.,0.,9985.,0.882032275201,1.7640645504,338.
6.34,6050.,20.,11.,3902.,0.,0.,9983.,0.88206318649,2.29336428487,260.
6.36,6053.,11.,14.,3907.,0.,0.,9985.,0.882323807931,4.17098527386,143.
6.38,6046.,17.,5.,3919.,0.,0.,9987.,0.88112695325,2.695211857,221.
6.4,6054.,15.,10.,3907.,0.,0.,9986.,0.88238120362,3.05892150588,195.
6.42,6052.,9.,14.,3908.,0.,0.,9983.,0.882354777626,5.09804982628,117.
6.44,6059.,4.,5.,3914.,0.,0.,9982.,0.883463843431,11.4850299646,52.
6.46,6061.,8.,1.,3909.,0.,0.,9979.,0.884021148355,5.74613746431,104.
6.48,6064.,8.,1.,3907.,0.,0.,9980.,0.884370087265,5.74840556722,104.
6.5,6075.,6.,3.,3899.,0.,0.,9983.,0.88570807569,7.67613665598,78.
6.52,6077.,4.,3.,3899.,0.,0.,9983.,0.885999666826,11.5179956687,52.
6.54,6080.,2.,0.,3895.,0.,0.,9977.,0.886970141866,23.0612236885,26.
6.56,6083.,1.,1.,3890.,0.,0.,9975.,0.887585717981,46.154457335,13.
6.58,6092.,0.,0.,3885.,0.,0.,9977.,0.88872074083,inf,0.
6.6,6102.,0.,0.,3875.,0.,0.,9977.,0.8901795733,inf,0.
6.62,6112.,0.,0.,3866.,0.,0.,9978.,0.891549045337,inf,0.
6.64,6125.,0.,0.,3856.,0.,0.,9981.,0.893176793647,inf,0.
6.66,6130.,0.,0.,3848.,0.,0.,9978.,0.894174680614,inf,0.
6.68,6143.,0.,0.,3838.,0.,0.,9981.,0.895801639734,inf,0.
6.7,6150.,0.,0.,3834.,0.,0.,9984.,0.896552935324,inf,0.
6.72,6165.,0.,0.,3819.,0.,0.,9984.,0.898739649801,inf,0.
6.74,6172.,1.,0.,3811.,0.,0.,9984.,0.899760116556,46.7875260609,13.
6.76,6185.,0.,0.,3802.,0.,0.,9987.,0.901384420419,inf,0.
6.78,6194.,0.,0.,3794.,0.,0.,9988.,0.902605676924,inf,0.
6.8,6209.,1.,0.,3779.,0.,0.,9989.,0.904700936876,47.0444487175,13.
6.82,6212.,2.,0.,3772.,0.,0.,9986.,0.905409982968,23.5406595572,26.
6.84,6214.,3.,1.,3766.,0.,0.,9984.,0.90588291709,15.7019705629,39.
6.86,6216.,4.,2.,3761.,0.,0.,9983.,0.90626525078,11.7814482601,52.
6.88,6220.,7.,1.,3755.,0.,0.,9983.,0.906848433052,6.73658835982,91.
6.9,6215.,10.,3.,3755.,0.,0.,9983.,0.906119455212,4.7118211671,130.
6.92,6216.,11.,4.,3752.,0.,0.,9983.,0.90626525078,4.28416300369,143.
6.94,6219.,10.,7.,3748.,0.,0.,9984.,0.906611821916,4.71438147396,130.
6.96,6221.,8.,11.,3744.,0.,0.,9984.,0.906903383846,5.894871995,104.
6.98,6220.,9.,6.,3748.,0.,0.,9983.,0.906848433052,5.2395687243,117.
7.,6226.,14.,8.,3738.,0.,0.,9986.,0.90745050772,3.37053045725,182.
7.02,6218.,19.,11.,3738.,0.,0.,9986.,0.906284493576,2.48035756137,247.
7.04,6212.,25.,14.,3736.,0.,0.,9987.,0.905319324113,1.88306419416,325.
7.06,6210.,27.,22.,3730.,0.,0.,9989.,0.90484664487,1.74266761234,351.
7.08,6199.,31.,17.,3744.,0.,0.,9991.,0.903063045431,1.51481543104,403.
7.1,6187.,30.,22.,3753.,0.,0.,9992.,0.90122469586,1.56212280616,390.
7.12,6173.,32.,18.,3770.,0.,0.,9993.,0.899095414876,1.46103004917,416.
7.14,6172.,32.,16.,3776.,0.,0.,9996.,0.898679972359,1.46035495508,416.
7.16,6169.,33.,12.,3782.,0.,0.,9996.,0.898243154485,1.41541345555,429.
7.18,6164.,29.,17.,3785.,0.,0.,9995.,0.897604921106,1.60949847922,377.
7.2,6158.,32.,15.,3791.,0.,0.,9996.,0.896641488948,1.45704241954,416.
7.22,6152.,36.,12.,3795.,0.,0.,9995.,0.895857474796,1.29401635248,468.
7.24,6145.,32.,15.,3805.,0.,0.,9997.,0.894659109783,1.4538210534,416.
7.26,6135.,37.,11.,3813.,0.,0.,9996.,0.893292551915,1.25543818107,481.
7.28,6138.,24.,17.,3818.,0.,0.,9997.,0.893639970032,1.93621993507,312.
7.3,6123.,31.,12.,3828.,0.,0.,9994.,0.891723696526,1.49579458772,403.
7.32,6114.,31.,11.,3833.,0.,0.,9989.,0.890858677413,1.49434358792,403.
7.34,6114.,28.,18.,3833.,0.,0.,9993.,0.890502084327,1.65378958518,364.
7.36,6110.,23.,11.,3847.,0.,0.,9991.,0.890097629873,2.01239464145,299.
7.38,6109.,24.,5.,3853.,0.,0.,9991.,0.889951951046,1.92822922727,312.
7.4,6118.,19.,10.,3846.,0.,0.,9993.,0.891084683008,2.43875807981,247.
7.42,6120.,14.,8.,3852.,0.,0.,9994.,0.891286791236,3.31049379602,182.
7.44,6122.,14.,1.,3856.,0.,0.,9993.,0.89166728169,3.31190704628,182.
7.46,6130.,11.,4.,3849.,0.,0.,9994.,0.892743142202,4.22024030859,143.
7.48,6136.,7.,3.,3852.,0.,0.,9998.,0.893259434497,6.63564151341,91.
7.5,6138.,5.,5.,3848.,0.,0.,9996.,0.893729369789,9.29478544581,65.
7.52,6146.,2.,4.,3846.,0.,0.,9998.,0.894715202806,23.262595273,26.
7.54,6157.,3.,4.,3831.,0.,0.,9995.,0.896585577425,15.5408166754,39.
7.56,6163.,3.,3.,3824.,0.,0.,9993.,0.897638918173,15.5590745817,39.
7.58,6167.,3.,4.,3818.,0.,0.,9992.,0.898311410921,15.5707311226,39.
7.6,6175.,4.,1.,3813.,0.,0.,9993.,0.899386714216,11.6920272848,52.
7.62,6187.,1.,0.,3809.,0.,0.,9997.,0.900773948288,46.840245311,13.
7.64,6192.,0.,0.,3804.,0.,0.,9996.,0.901592091517,inf,0.
7.66,6199.,1.,0.,3793.,0.,0.,9993.,0.902882306304,46.9498799278,13.
7.68,6206.,2.,0.,3785.,0.,0.,9993.,0.903901853996,23.5014482039,26.
7.7,6214.,3.,0.,3778.,0.,0.,9995.,0.904885947397,15.6846897549,39.
7.72,6225.,3.,0.,3771.,0.,0.,9999.,0.906125141808,15.7061691247,39.
7.74,6235.,0.,4.,3761.,0.,0.,10000.,0.907490006449,inf,0.
7.76,6244.,0.,0.,3755.,0.,0.,9999.,0.908890824972,inf,0.
7.78,6252.,0.,0.,3746.,0.,0.,9998.,0.910146346883,inf,0.
7.8,6260.,1.,0.,3738.,0.,0.,9999.,0.91121982132,47.3834307087,13.
7.82,6269.,0.,1.,3727.,0.,0.,9997.,0.912712442511,inf,0.
7.84,6283.,0.,1.,3715.,0.,0.,9999.,0.914567753571,inf,0.
7.86,6289.,1.,2.,3709.,0.,0.,10001.,0.915258057283,47.5934189787,13.
7.88,6297.,6.,0.,3700.,0.,0.,10003.,0.916239093086,7.94073880674,78.
7.9,6304.,10.,0.,3693.,0.,0.,10007.,0.91689097514,4.76783307073,130.
7.92,6310.,9.,5.,3685.,0.,0.,10009.,0.917580262879,5.30157485219,117.
7.94,6314.,10.,2.,3685.,0.,0.,10011.,0.917978499628,4.77348819807,130.
7.96,6317.,8.,6.,3680.,0.,0.,10011.,0.918414662995,5.96969530947,104.
7.98,6312.,14.,7.,3679.,0.,0.,10012.,0.917596065268,3.40821395671,182.
8.,6307.,20.,10.,3674.,0.,0.,10011.,0.916960785105,2.38409804127,260.
8.02,6305.,17.,20.,3672.,0.,0.,10014.,0.916395392988,2.80309179032,221.
8.04,6293.,30.,8.,3685.,0.,0.,10016.,0.914468624153,1.58507894853,390.
8.06,6290.,22.,17.,3686.,0.,0.,10015.,0.914123944887,2.16065659701,286.
8.08,6277.,25.,14.,3694.,0.,0.,10010.,0.912690320182,1.89839586598,325.
8.1,6269.,33.,10.,3698.,0.,0.,10010.,0.911527101676,1.43634573597,429.
8.12,6266.,27.,12.,3705.,0.,0.,10010.,0.911090894737,1.75469357505,351.
8.14,6257.,32.,12.,3710.,0.,0.,10011.,0.909691395656,1.47824851794,416.
8.16,6253.,32.,17.,3711.,0.,0.,10013.,0.908928258593,1.47700842021,416.
8.18,6245.,27.,22.,3716.,0.,0.,10010.,0.908037446159,1.74881285927,351.
8.2,6227.,34.,14.,3736.,0.,0.,10011.,0.905329761987,1.38462198892,442.
8.22,6217.,34.,16.,3743.,0.,0.,10010.,0.903966181388,1.38253651271,442.
8.24,6207.,26.,18.,3758.,0.,0.,10009.,0.902602328319,1.80520465664,338.
8.26,6207.,28.,5.,3771.,0.,0.,10011.,0.902422006207,1.67592658296,364.
8.28,6210.,24.,12.,3763.,0.,0.,10009.,0.90303857884,1.95658358749,312.
8.3,6206.,25.,15.,3766.,0.,0.,10012.,0.9021864989,1.87654791771,325.
8.32,6215.,23.,6.,3768.,0.,0.,10012.,0.903494858308,2.04268402748,299.
8.34,6220.,20.,6.,3764.,0.,0.,10010.,0.904402388328,2.35144620965,260.
8.36,6226.,20.,7.,3760.,0.,0.,10013.,0.905003572365,2.35300928815,260.
8.38,6223.,19.,10.,3760.,0.,0.,10012.,0.90465784445,2.47590567955,247.
8.4,6224.,15.,2.,3769.,0.,0.,10010.,0.904983997581,3.13727785828,195.
8.42,6232.,13.,3.,3762.,0.,0.,10010.,0.906147216087,3.62458886435,169.
8.44,6232.,8.,4.,3765.,0.,0.,10009.,0.906237749328,5.89054537063,104.
8.46,6238.,7.,7.,3758.,0.,0.,10010.,0.907019629966,6.73786010832,91.
8.48,6244.,7.,0.,3766.,0.,0.,10017.,0.907257597973,6.73962787066,91.
8.5,6258.,5.,3.,3753.,0.,0.,10019.,0.909110294348,9.45474706122,65.
8.52,6270.,3.,1.,3746.,0.,0.,10020.,0.910762651191,15.7865526206,39.
8.54,6284.,3.,1.,3738.,0.,0.,10026.,0.912249994526,15.8123332384,39.
8.56,6292.,1.,0.,3736.,0.,0.,10029.,0.913138125671,47.4831825349,13.
8.58,6298.,0.,1.,3731.,0.,0.,10030.,0.913917759251,inf,0.
8.6,6306.,0.,1.,3723.,0.,0.,10030.,0.915078658279,inf,0.
8.62,6319.,1.,0.,3713.,0.,0.,10033.,0.916690934472,47.6679285925,13.
8.64,6324.,1.,0.,3708.,0.,0.,10033.,0.917416279411,47.7056465294,13.
8.66,6328.,1.,0.,3700.,0.,0.,10029.,0.918362692188,47.7548599938,13.
8.68,6337.,1.,0.,3693.,0.,0.,10031.,0.919485468483,47.8132443611,13.
8.7,6340.,0.,1.,3687.,0.,0.,10028.,0.920195967872,inf,0.
8.72,6348.,1.,0.,3679.,0.,0.,10028.,0.921357098431,47.9105691184,13.
8.74,6361.,1.,0.,3668.,0.,0.,10030.,0.923059839091,47.9991116328,13.
8.76,6371.,1.,0.,3658.,0.,0.,10030.,0.924510962876,48.0745700695,13.
8.78,6380.,2.,0.,3653.,0.,0.,10035.,0.925355680323,24.0592476884,26.
8.8,6384.,1.,2.,3646.,0.,0.,10033.,0.926120418685,48.1582617716,13.
8.82,6394.,4.,2.,3631.,0.,0.,10031.,0.927756049468,12.0608286431,52.
8.84,6394.,3.,9.,3622.,0.,0.,10028.,0.928033599144,16.0859157185,39.
8.86,6390.,8.,4.,3625.,0.,0.,10027.,0.92754552943,6.0290459413,104.
8.88,6395.,10.,3.,3616.,0.,0.,10024.,0.928549123042,4.82845543982,130.
8.9,6400.,8.,3.,3613.,0.,0.,10024.,0.929275119229,6.04028827499,104.
8.92,6402.,11.,2.,3610.,0.,0.,10025.,0.929472792964,4.39387138492,143.
8.94,6407.,12.,6.,3603.,0.,0.,10028.,0.929920436302,4.02965522398,156.
8.96,6406.,11.,12.,3599.,0.,0.,10028.,0.929775294982,4.39530139446,143.
8.98,6408.,17.,9.,3597.,0.,0.,10031.,0.929787420237,2.84405563837,221.
9.,6406.,9.,15.,3598.,0.,0.,10028.,0.929775294982,5.37203503768,117.
9.02,6399.,19.,8.,3604.,0.,0.,10030.,0.928574109471,2.54136072066,247.
9.04,6396.,19.,10.,3605.,0.,0.,10030.,0.928138772336,2.54016927166,247.
9.06,6397.,22.,9.,3606.,0.,0.,10034.,0.927913829349,2.19325086937,286.
9.08,6385.,26.,10.,3612.,0.,0.,10033.,0.926265487673,1.85253097535,338.
9.1,6391.,23.,11.,3612.,0.,0.,10037.,0.926766414342,2.09529798025,299.
9.12,6389.,28.,8.,3612.,0.,0.,10037.,0.926476391994,1.7205990137,364.
9.14,6395.,23.,15.,3603.,0.,0.,10036.,0.927438861038,2.09681829452,299.
9.16,6392.,23.,14.,3609.,0.,0.,10038.,0.926819085267,2.09541706234,299.
9.18,6384.,26.,14.,3614.,0.,0.,10038.,0.925659111443,1.85131822289,338.
9.2,6375.,32.,9.,3623.,0.,0.,10039.,0.924262064574,1.50192585493,416.
9.22,6378.,31.,12.,3618.,0.,0.,10039.,0.924697011428,1.55110466433,403.
9.24,6371.,28.,10.,3630.,0.,0.,10039.,0.923682135436,1.7154096801,364.
9.26,6363.,29.,8.,3638.,0.,0.,10038.,0.922614180155,1.65434266786,377.
9.28,6360.,35.,1.,3641.,0.,0.,10037.,0.922271067942,1.37023130094,455.
9.3,6353.,26.,16.,3639.,0.,0.,10034.,0.921531430022,1.84306286004,338.
9.32,6341.,29.,8.,3653.,0.,0.,10031.,0.920065860131,1.64977326644,377.
9.34,6344.,23.,2.,3667.,0.,0.,10036.,0.920042554249,2.08009620961,299.
9.36,6340.,19.,6.,3669.,0.,0.,10034.,0.91964572113,2.51692513151,247.
9.38,6345.,13.,8.,3672.,0.,0.,10038.,0.920004239051,3.68001695621,169.
9.4,6339.,17.,5.,3679.,0.,0.,10040.,0.91895116421,2.81090944347,221.
9.42,6348.,13.,6.,3673.,0.,0.,10040.,0.920255874807,3.68102349923,169.
9.44,6346.,11.,5.,3679.,0.,0.,10041.,0.919874318171,4.34849677681,143.
9.46,6352.,7.,2.,3680.,0.,0.,10041.,0.92074403861,6.83981285825,91.
9.48,6354.,6.,6.,3672.,0.,0.,10038.,0.921309209603,7.98467981656,78.
9.5,6356.,9.,2.,3673.,0.,0.,10040.,0.921415617561,5.32373467924,117.
9.52,6368.,2.,6.,3666.,0.,0.,10042.,0.922971372852,23.9972556941,26.
9.54,6374.,0.,1.,3667.,0.,0.,10042.,0.923841006683,inf,0.
9.56,6382.,0.,1.,3657.,0.,0.,10040.,0.925184781509,inf,0.
9.58,6383.,1.,0.,3648.,0.,0.,10032.,0.926067651865,48.155517897,13.
9.6,6388.,0.,1.,3640.,0.,0.,10029.,0.92707030305,inf,0.
9.62,6403.,0.,0.,3632.,0.,0.,10035.,0.928691602055,inf,0.
9.64,6415.,0.,0.,3622.,0.,0.,10037.,0.930246682523,inf,0.
9.66,6419.,0.,0.,3615.,0.,0.,10034.,0.931105029012,inf,0.
9.68,6424.,2.,0.,3608.,0.,0.,10034.,0.931830301663,24.2275878432,26.
9.7,6431.,2.,1.,3600.,0.,0.,10034.,0.932845683374,24.2539877677,26.
9.72,6437.,1.,1.,3594.,0.,0.,10033.,0.933809075043,48.5580719022,13.
9.74,6446.,0.,2.,3582.,0.,0.,10030.,0.935394391257,inf,0.
9.76,6455.,0.,0.,3578.,0.,0.,10033.,0.936420316825,inf,0.
9.78,6466.,0.,0.,3568.,0.,0.,10034.,0.937922591929,inf,0.
9.8,6476.,2.,0.,3558.,0.,0.,10036.,0.939185936525,24.4188343497,26.
9.82,6483.,3.,0.,3549.,0.,0.,10035.,0.940294808077,16.29844334,39.
9.84,6480.,4.,2.,3546.,0.,0.,10032.,0.940140746371,12.2218297028,52.
9.86,6480.,9.,3.,3541.,0.,0.,10033.,0.940047041522,5.43138290657,117.
9.88,6483.,11.,3.,3540.,0.,0.,10037.,0.940107442369,4.44414427302,143.
9.9,6482.,13.,3.,3537.,0.,0.,10035.,0.940149768002,3.76059907201,169.
9.92,6488.,7.,5.,3533.,0.,0.,10033.,0.941207593425,6.99182783687,91.
9.94,6489.,11.,2.,3527.,0.,0.,10029.,0.941728114666,4.45180563297,143.
9.96,6493.,9.,6.,3518.,0.,0.,10026.,0.942590581549,5.44607891562,117.
9.98,6494.,12.,5.,3517.,0.,0.,10028.,0.94254773113,4.08437350156,156.
10.,6494.,13.,8.,3515.,0.,0.,10030.,0.94235978542,3.76943914168,169.
