t,s,e,i,r,c,o,n,reff,coal,reportr
5.,7442.,2.,73.,2484.,0.,0.,10001.,0.872538861696,22.6860104041,26.
5.02,7407.,31.,19.,2540.,0.,0.,9997.,0.868782757659,1.45731301285,403.
5.04,7392.,30.,17.,2556.,0.,0.,9995.,0.86719686723,1.50314123653,390.
5.06,7381.,25.,23.,2566.,0.,0.,9995.,0.865906395701,1.80108530306,325.
5.08,7359.,43.,18.,2573.,0.,0.,9993.,0.863498238685,1.04423042818,559.
5.1,7351.,35.,30.,2578.,0.,0.,9994.,0.862473218363,1.28138878157,455.
5.12,7335.,38.,23.,2598.,0.,0.,9994.,0.860595981049,1.17765765828,494.
5.14,7312.,46.,18.,2611.,0.,0.,9987.,0.85849876233,0.970476861765,598.
5.16,7293.,49.,18.,2627.,0.,0.,9987.,0.856267980535,0.908692550772,637.
5.18,7277.,44.,19.,2645.,0.,0.,9985.,0.854560562032,1.00993520967,572.
5.2,7260.,40.,27.,2656.,0.,0.,9983.,0.852735002787,1.10855550362,520.
5.22,7252.,39.,20.,2671.,0.,0.,9982.,0.851880683026,1.1358409107,507.
5.24,7238.,40.,17.,2685.,0.,0.,9980.,0.850406513724,1.10552846784,520.
5.26,7227.,30.,18.,2704.,0.,0.,9979.,0.849199192708,1.47194526736,390.
5.28,7214.,31.,21.,2712.,0.,0.,9978.,0.847756598757,1.42204332695,403.
5.3,7202.,32.,13.,2729.,0.,0.,9976.,0.846516089626,1.37558864564,416.
5.32,7192.,28.,13.,2742.,0.,0.,9975.,0.845425445267,1.57007582692,364.
5.34,7190.,23.,9.,2752.,0.,0.,9974.,0.845275082998,1.91105670939,299.
5.36,7187.,19.,10.,2763.,0.,0.,9979.,0.84449904497,2.31126054413,247.
5.38,7184.,14.,8.,2770.,0.,0.,9976.,0.844400387097,3.13634429493,182.
5.4,7186.,13.,7.,2773.,0.,0.,9979.,0.844381541276,3.3775261651,169.
5.42,7187.,13.,5.,2773.,0.,0.,9978.,0.844583681073,3.37833472429,169.
5.44,7192.,11.,6.,2767.,0.,0.,9976.,0.845340699332,3.99615603321,143.
5.46,7196.,9.,3.,2768.,0.,0.,9976.,0.84581085545,4.88690716482,117.
5.48,7201.,11.,0.,2765.,0.,0.,9977.,0.846313715621,4.00075574657,143.
5.5,7204.,4.,5.,2763.,0.,0.,9976.,0.846751167685,11.0077651799,52.
5.52,7205.,6.,0.,2764.,0.,0.,9975.,0.846953605832,7.34026458388,78.
5.54,7208.,4.,4.,2761.,0.,0.,9977.,0.84713640636,11.0127732827,52.
5.56,7211.,2.,3.,2754.,0.,0.,9970.,0.848084015479,22.0501844024,26.
5.58,7220.,4.,3.,2746.,0.,0.,9973.,0.848887070945,11.0355319223,52.
5.6,7221.,7.,1.,2746.,0.,0.,9975.,0.848834418836,6.30562711136,91.
5.62,7231.,2.,4.,2739.,0.,0.,9976.,0.849924721478,22.0980427584,26.
5.64,7239.,2.,3.,2736.,0.,0.,9980.,0.850524005643,22.1136241467,26.
5.66,7244.,3.,1.,2733.,0.,0.,9981.,0.851026192076,14.7511206626,39.
5.68,7245.,3.,1.,2728.,0.,0.,9977.,0.85148491455,14.7590718522,39.
5.7,7251.,1.,0.,2727.,0.,0.,9979.,0.852019281352,44.3050026303,13.
5.72,7252.,1.,1.,2723.,0.,0.,9977.,0.852307605289,44.319995475,13.
5.74,7251.,0.,1.,2719.,0.,0.,9971.,0.85270287921,inf,0.
5.76,7252.,2.,2.,2711.,0.,0.,9967.,0.853162734821,22.1822311054,26.
5.78,7254.,4.,4.,2706.,0.,0.,9968.,0.853312411384,11.093061348,52.
5.8,7252.,3.,3.,2707.,0.,0.,9965.,0.85333396668,14.7911220891,39.
5.82,7255.,2.,1.,2707.,0.,0.,9965.,0.853686973009,22.1958612982,26.
5.84,7262.,5.,1.,2700.,0.,0.,9968.,0.854253478284,8.88423617415,65.
5.86,7265.,6.,3.,2693.,0.,0.,9967.,0.854692121963,7.40733172368,78.
5.88,7268.,6.,4.,2692.,0.,0.,9970.,0.854787772084,7.4081606914,78.
5.9,7269.,3.,7.,2691.,0.,0.,9970.,0.854905381849,14.8183599521,39.
5.92,7269.,9.,5.,2690.,0.,0.,9973.,0.854648215886,4.93796746957,117.
5.94,7280.,10.,5.,2682.,0.,0.,9977.,0.855598368243,4.44911151487,130.
5.96,7280.,10.,4.,2682.,0.,0.,9976.,0.855684133918,4.44955749637,130.
5.98,7277.,11.,5.,2678.,0.,0.,9971.,0.855760426426,4.04541292492,143.
6.,7274.,12.,2.,2681.,0.,0.,9969.,0.855579246045,3.70751006619,156.
6.02,7270.,14.,12.,2675.,0.,0.,9971.,0.854937240637,3.17548117951,182.
6.04,7269.,14.,8.,2680.,0.,0.,9971.,0.854819642667,3.17504438705,182.
6.06,7265.,23.,10.,2674.,0.,0.,9972.,0.854263575973,1.93137851959,299.
6.08,7263.,23.,11.,2677.,0.,0.,9974.,0.853857152686,1.93045964955,299.
6.1,7257.,19.,11.,2685.,0.,0.,9972.,0.853322886557,2.33541000531,247.
6.12,7247.,25.,15.,2686.,0.,0.,9973.,0.852061579382,1.77228808512,325.
6.14,7237.,25.,19.,2692.,0.,0.,9973.,0.850885835517,1.76984253787,325.
6.16,7226.,27.,18.,2701.,0.,0.,9972.,0.84967771507,1.63641634014,351.
6.18,7203.,33.,23.,2710.,0.,0.,9969.,0.847228115103,1.33502612077,429.
6.2,7195.,36.,17.,2723.,0.,0.,9971.,0.8461173929,1.22216956752,468.
6.22,7183.,33.,15.,2737.,0.,0.,9968.,0.844960442649,1.33145281872,429.
6.24,7185.,33.,14.,2741.,0.,0.,9973.,0.844771967416,1.33115582744,429.
6.26,7179.,28.,14.,2753.,0.,0.,9974.,0.843981894415,1.56739494677,364.
6.28,7178.,25.,7.,2764.,0.,0.,9974.,0.843864331816,1.75523781018,325.
6.3,7177.,15.,11.,2770.,0.,0.,9973.,0.843831372323,2.92528209072,195.
6.32,7181.,16.,9.,2771.,0.,0.,9977.,0.843963170653,2.74288030462,208.
6.34,7183.,15.,2.,2776.,0.,0.,9976.,0.844282848068,2.92684720663,195.
6.36,7185.,17.,4.,2767.,0.,0.,9973.,0.844771967416,2.58400837092,221.
6.38,7189.,15.,5.,2765.,0.,0.,9974.,0.8451575204,2.92987940405,195.
6.4,7187.,9.,14.,2763.,0.,0.,9973.,0.845007116189,4.88226333798,117.
6.42,7183.,11.,6.,2772.,0.,0.,9972.,0.844621509459,3.99275622653,143.
6.44,7190.,14.,6.,2765.,0.,0.,9975.,0.845190343641,3.13927841924,182.
6.46,7185.,12.,2.,2771.,0.,0.,9970.,0.845026161588,3.66178003355,156.
6.48,7195.,8.,6.,2768.,0.,0.,9977.,0.845608552131,5.49645558885,104.
6.5,7199.,3.,2.,2774.,0.,0.,9978.,0.84599386671,14.6638936896,39.
6.52,7206.,2.,2.,2768.,0.,0.,9978.,0.846816474999,22.01722835,26.
6.54,7215.,0.,2.,2763.,0.,0.,9980.,0.847704199574,inf,0.
6.56,7218.,0.,0.,2761.,0.,0.,9979.,0.848141659467,inf,0.
6.58,7224.,0.,1.,2757.,0.,0.,9982.,0.84859156842,inf,0.
6.6,7226.,1.,0.,2753.,0.,0.,9980.,0.848996610689,44.1478237558,13.
6.62,7233.,0.,1.,2747.,0.,0.,9981.,0.849733910448,inf,0.
6.64,7241.,0.,0.,2742.,0.,0.,9983.,0.85050332716,inf,0.
6.66,7245.,0.,0.,2733.,0.,0.,9978.,0.851399578319,inf,0.
6.68,7252.,1.,0.,2721.,0.,0.,9974.,0.852563964103,44.3333261334,13.
6.7,7255.,1.,2.,2715.,0.,0.,9973.,0.853002174475,44.3561130727,13.
6.72,7258.,1.,0.,2715.,0.,0.,9974.,0.853269339694,44.3700056641,13.
6.74,7261.,0.,1.,2712.,0.,0.,9974.,0.853622027489,inf,0.
6.76,7266.,1.,0.,2707.,0.,0.,9974.,0.854209840482,44.418911705,13.
6.78,7274.,0.,1.,2694.,0.,0.,9969.,0.855579246045,inf,0.
6.8,7278.,1.,1.,2690.,0.,0.,9970.,0.855963869734,44.5101212262,13.
6.82,7279.,0.,1.,2682.,0.,0.,9962.,0.856768957098,inf,0.
6.84,7280.,3.,2.,2677.,0.,0.,9962.,0.856886661309,14.8527021294,39.
6.86,7278.,6.,1.,2673.,0.,0.,9958.,0.856995358631,7.42729310814,78.
6.88,7284.,7.,2.,2667.,0.,0.,9960.,0.857529638292,6.37022017017,91.
6.9,7286.,7.,3.,2663.,0.,0.,9959.,0.857851223628,6.37260908981,91.
6.92,7283.,8.,6.,2660.,0.,0.,9957.,0.857670244856,5.57485659157,104.
6.94,7278.,16.,9.,2656.,0.,0.,9959.,0.856909306281,2.78495524541,208.
6.96,7278.,14.,4.,2665.,0.,0.,9961.,0.856737253413,3.18216694125,182.
6.98,7281.,14.,6.,2666.,0.,0.,9967.,0.856574444599,3.1815622228,182.
7.,7291.,13.,3.,2661.,0.,0.,9968.,0.857664845796,3.43065938318,169.
7.02,7291.,10.,7.,2656.,0.,0.,9964.,0.858009151234,4.46164758642,130.
7.04,7289.,14.,9.,2649.,0.,0.,9961.,0.858032129724,3.18697648183,182.
7.06,7282.,21.,10.,2647.,0.,0.,9960.,0.857294182598,2.12282369024,273.
7.08,7272.,24.,12.,2653.,0.,0.,9961.,0.856030957244,1.8547337407,312.
7.1,7264.,27.,11.,2659.,0.,0.,9961.,0.855089229018,1.64683851515,351.
7.12,7254.,27.,12.,2665.,0.,0.,9958.,0.854169322824,1.64506684396,351.
7.14,7247.,22.,12.,2677.,0.,0.,9958.,0.85334506238,2.01699742017,286.
7.16,7241.,21.,17.,2679.,0.,0.,9958.,0.852638553428,2.11129546563,273.
7.18,7222.,34.,18.,2685.,0.,0.,9959.,0.850315884853,1.30048311801,442.
7.2,7216.,30.,20.,2692.,0.,0.,9958.,0.849694766129,1.47280426129,390.
7.22,7212.,28.,18.,2703.,0.,0.,9961.,0.848967995551,1.57665484888,364.
7.24,7195.,29.,17.,2719.,0.,0.,9960.,0.8470518599,1.51885161086,377.
7.26,7183.,28.,21.,2728.,0.,0.,9960.,0.845639125735,1.57047266208,364.
7.28,7179.,26.,13.,2741.,0.,0.,9959.,0.845253079114,1.69050615823,338.
7.3,7177.,24.,8.,2749.,0.,0.,9958.,0.845102457941,1.83105532554,312.
7.32,7182.,19.,9.,2751.,0.,0.,9961.,0.845436514704,2.31382625077,247.
7.34,7184.,16.,7.,2757.,0.,0.,9964.,0.845417328551,2.74760631779,208.
7.36,7189.,14.,10.,2754.,0.,0.,9967.,0.845751089442,3.14136118935,182.
7.38,7193.,11.,6.,2759.,0.,0.,9969.,0.846051899478,3.99951807026,143.
7.4,7194.,14.,5.,2756.,0.,0.,9969.,0.84616952104,3.14291536386,182.
7.42,7200.,9.,6.,2753.,0.,0.,9968.,0.846960209811,4.89354787891,117.
7.44,7205.,8.,2.,2758.,0.,0.,9973.,0.847123455147,5.50630245845,104.
7.46,7207.,8.,0.,2756.,0.,0.,9971.,0.847528568538,5.5089356955,104.
7.48,7214.,5.,3.,2749.,0.,0.,9971.,0.848351754327,8.822858245,65.
7.5,7219.,3.,1.,2746.,0.,0.,9969.,0.849110060104,14.7179077085,39.
7.52,7228.,3.,0.,2738.,0.,0.,9969.,0.850168654167,14.7362566722,39.
7.54,7233.,1.,0.,2736.,0.,0.,9970.,0.850671430309,44.2349143761,13.
7.56,7238.,1.,0.,2731.,0.,0.,9970.,0.851259479134,44.265492915,13.
7.58,7246.,3.,0.,2720.,0.,0.,9969.,0.852285842293,14.7729545998,39.
7.6,7251.,1.,2.,2718.,0.,0.,9972.,0.852617369495,44.3361032138,13.
7.62,7259.,0.,0.,2717.,0.,0.,9976.,0.853215814301,inf,0.
7.64,7264.,0.,0.,2710.,0.,0.,9974.,0.853974715285,inf,0.
7.66,7268.,1.,0.,2704.,0.,0.,9973.,0.8545306415,44.435593358,13.
7.68,7273.,0.,0.,2698.,0.,0.,9971.,0.855290034547,inf,0.
7.7,7279.,0.,0.,2694.,0.,0.,9973.,0.855823959752,inf,0.
7.72,7282.,1.,0.,2687.,0.,0.,9970.,0.856434308794,44.5345840573,13.
7.74,7294.,1.,0.,2679.,0.,0.,9974.,0.857501593239,44.5900828484,13.
7.76,7303.,0.,0.,2669.,0.,0.,9972.,0.8587318507,inf,0.
7.78,7303.,2.,0.,2665.,0.,0.,9970.,0.858904113859,22.3315069603,26.
7.8,7308.,2.,1.,2661.,0.,0.,9972.,0.859319781585,22.3423143212,26.
7.82,7309.,2.,3.,2658.,0.,0.,9972.,0.859437367762,22.3453715618,26.
7.84,7308.,6.,5.,2654.,0.,0.,9973.,0.859233616962,7.44669134701,78.
7.86,7304.,13.,3.,2652.,0.,0.,9972.,0.858849436877,3.43539774751,169.
7.88,7308.,12.,3.,2652.,0.,0.,9975.,0.859061339545,3.72259913803,156.
7.9,7310.,11.,5.,2645.,0.,0.,9971.,0.85964115943,4.06375820822,143.
7.92,7310.,12.,6.,2643.,0.,0.,9971.,0.85964115943,3.72511169086,156.
7.94,7312.,12.,8.,2642.,0.,0.,9974.,0.859617720011,3.72501012005,156.
7.96,7312.,15.,5.,2639.,0.,0.,9971.,0.85987635537,2.98090469862,195.
7.98,7316.,15.,7.,2627.,0.,0.,9965.,0.860864768371,2.98433119702,195.
8.,7314.,13.,12.,2626.,0.,0.,9965.,0.860629430819,3.44251772327,169.
8.02,7302.,26.,12.,2626.,0.,0.,9966.,0.85913119063,1.71826238126,338.
8.04,7296.,23.,18.,2632.,0.,0.,9969.,0.858166920421,1.94020347226,299.
8.06,7278.,33.,11.,2646.,0.,0.,9968.,0.856135612084,1.34906217662,429.
8.08,7265.,27.,25.,2652.,0.,0.,9969.,0.854520651982,1.64574347789,351.
8.1,7255.,32.,19.,2667.,0.,0.,9973.,0.853002174475,1.38612853352,416.
8.12,7240.,30.,21.,2683.,0.,0.,9974.,0.851153212921,1.47533223573,390.
8.14,7226.,34.,21.,2692.,0.,0.,9973.,0.849592517265,1.29937679111,442.
8.16,7218.,31.,16.,2712.,0.,0.,9977.,0.848311678844,1.42297442903,403.
8.18,7205.,33.,15.,2725.,0.,0.,9978.,0.846698959529,1.33419229986,429.
8.2,7198.,36.,14.,2731.,0.,0.,9979.,0.845791585598,1.22169895697,468.
8.22,7195.,36.,14.,2735.,0.,0.,9980.,0.845354361183,1.2210674106,468.
8.24,7198.,29.,14.,2740.,0.,0.,9981.,0.845622105268,1.51628791289,377.
8.26,7191.,25.,18.,2749.,0.,0.,9983.,0.844630496562,1.75683143285,325.
8.28,7182.,24.,11.,2764.,0.,0.,9981.,0.8437424229,1.82810858295,312.
8.3,7185.,21.,9.,2768.,0.,0.,9983.,0.84392575689,2.08972092182,273.
8.32,7174.,23.,9.,2774.,0.,0.,9980.,0.842887030873,1.90565763502,299.
8.34,7179.,21.,8.,2778.,0.,0.,9986.,0.842967696264,2.08734858123,273.
8.36,7178.,16.,10.,2781.,0.,0.,9985.,0.842934686584,2.7395377314,208.
8.38,7177.,17.,11.,2782.,0.,0.,9987.,0.84264847063,2.57751296899,221.
8.4,7178.,16.,7.,2785.,0.,0.,9986.,0.842850274939,2.73926339355,208.
8.42,7180.,12.,10.,2784.,0.,0.,9986.,0.84308511759,3.65336884289,156.
8.44,7192.,8.,5.,2784.,0.,0.,9989.,0.844240546255,5.48756355065,104.
8.46,7197.,6.,3.,2781.,0.,0.,9987.,0.844996661993,7.32330440394,78.
8.48,7203.,5.,0.,2780.,0.,0.,9988.,0.845616447684,8.79441105591,65.
8.5,7208.,5.,2.,2775.,0.,0.,9990.,0.846034026652,8.79875387718,65.
8.52,7209.,8.,2.,2767.,0.,0.,9986.,0.846490336031,5.5021871842,104.
8.54,7221.,6.,3.,2756.,0.,0.,9986.,0.847899391938,7.3484613968,78.
8.56,7227.,3.,1.,2761.,0.,0.,9992.,0.848094349884,14.7003020646,39.
8.58,7229.,5.,0.,2757.,0.,0.,9991.,0.84841396084,8.82350519273,65.
8.6,7230.,3.,3.,2754.,0.,0.,9990.,0.848616261472,14.7093485322,39.
8.62,7241.,4.,2.,2746.,0.,0.,9993.,0.849652228063,11.0454789648,52.
8.64,7242.,1.,4.,2744.,0.,0.,9991.,0.849939674146,44.1968630556,13.
8.66,7243.,1.,3.,2742.,0.,0.,9989.,0.850227235334,44.2118162374,13.
8.68,7251.,1.,1.,2738.,0.,0.,9991.,0.850995937204,44.2517887346,13.
8.7,7253.,0.,4.,2733.,0.,0.,9990.,0.851315870603,inf,0.
8.72,7250.,3.,0.,2736.,0.,0.,9989.,0.851048937757,14.7515149211,39.
8.74,7253.,1.,3.,2732.,0.,0.,9989.,0.851401095938,44.2728569888,13.
8.76,7257.,2.,0.,2729.,0.,0.,9988.,0.851955929591,22.1508541694,26.
8.78,7274.,3.,0.,2716.,0.,0.,9993.,0.853524417474,14.7944232362,39.
8.8,7278.,2.,2.,2712.,0.,0.,9994.,0.853908323119,22.2016164011,26.
8.82,7280.,4.,1.,2711.,0.,0.,9996.,0.853972080829,11.1016370508,52.
8.84,7281.,8.,1.,2706.,0.,0.,9996.,0.854089384686,5.55158100046,104.
8.86,7278.,11.,2.,2704.,0.,0.,9995.,0.85382288957,4.03625365978,143.
8.88,7284.,9.,5.,2696.,0.,0.,9994.,0.854612287112,4.93775988109,117.
8.9,7285.,10.,3.,2697.,0.,0.,9995.,0.854644098724,4.44414931337,130.
8.92,7290.,10.,2.,2695.,0.,0.,9997.,0.855059579227,4.44630981198,130.
8.94,7290.,16.,2.,2690.,0.,0.,9998.,0.854974056165,2.77866568254,208.
8.96,7289.,10.,7.,2689.,0.,0.,9995.,0.855113361098,4.44658947771,130.
8.98,7287.,16.,3.,2688.,0.,0.,9994.,0.854964269108,2.7786338746,208.
9.,7282.,18.,8.,2686.,0.,0.,9994.,0.854377632447,2.46820204929,234.
9.02,7280.,21.,11.,2682.,0.,0.,9994.,0.854142977783,2.11502070689,273.
9.04,7276.,21.,5.,2691.,0.,0.,9993.,0.853759095621,2.11407014154,273.
9.06,7274.,16.,12.,2692.,0.,0.,9994.,0.85343901379,2.77367679482,208.
9.08,7264.,21.,18.,2690.,0.,0.,9993.,0.852351026744,2.11058349479,273.
9.1,7255.,27.,15.,2696.,0.,0.,9993.,0.851294975086,1.63953106313,351.
9.12,7244.,27.,22.,2699.,0.,0.,9992.,0.850089313762,1.63720904873,351.
9.14,7230.,30.,19.,2711.,0.,0.,9990.,0.848616261472,1.47093485322,390.
9.16,7218.,31.,11.,2726.,0.,0.,9986.,0.847547127961,1.42169195658,403.
9.18,7207.,33.,12.,2734.,0.,0.,9986.,0.84625549338,1.33349350472,429.
9.2,7199.,26.,14.,2745.,0.,0.,9984.,0.845485456935,1.69097091387,338.
9.22,7191.,32.,8.,2751.,0.,0.,9982.,0.844715111919,1.37266205687,416.
9.24,7192.,26.,6.,2759.,0.,0.,9983.,0.844747953174,1.68949590635,338.
9.26,7197.,18.,8.,2765.,0.,0.,9988.,0.844912060805,2.44085706455,234.
9.28,7204.,19.,5.,2764.,0.,0.,9992.,0.845395281107,2.31371340092,247.
9.3,7207.,15.,10.,2761.,0.,0.,9993.,0.845662699579,2.93163069187,195.
9.32,7204.,20.,3.,2763.,0.,0.,9990.,0.845564529412,2.19846777647,260.
9.34,7204.,17.,9.,2762.,0.,0.,9992.,0.845395281107,2.5859149775,221.
9.36,7204.,15.,9.,2761.,0.,0.,9989.,0.845649178979,2.93158382046,195.
9.38,7201.,15.,5.,2769.,0.,0.,9990.,0.845212406482,2.9300696758,195.
9.4,7202.,7.,8.,2773.,0.,0.,9990.,0.845329780792,6.27959265731,91.
9.42,7197.,11.,1.,2779.,0.,0.,9988.,0.844912060805,3.99412974199,143.
9.44,7198.,9.,5.,2775.,0.,0.,9987.,0.845114071561,4.88288130235,117.
9.46,7206.,9.,2.,2773.,0.,0.,9990.,0.845799278032,4.88684027307,117.
9.48,7209.,9.,0.,2774.,0.,0.,9992.,0.845982035189,4.88789620331,117.
9.5,7218.,7.,6.,2761.,0.,0.,9992.,0.847038192536,6.29228371598,91.
9.52,7225.,5.,7.,2761.,0.,0.,9998.,0.847350830698,8.81244863926,65.
9.54,7234.,2.,7.,2757.,0.,0.,10000.,0.848236672954,22.0541534968,26.
9.56,7238.,3.,1.,2758.,0.,0.,10000.,0.848705700696,14.7108988121,39.
9.58,7241.,0.,0.,2755.,0.,0.,9996.,0.849397230396,inf,0.
9.6,7246.,0.,0.,2750.,0.,0.,9996.,0.849983749682,inf,0.
9.62,7254.,0.,0.,2748.,0.,0.,10002.,0.850411729322,inf,0.
9.64,7256.,0.,1.,2743.,0.,0.,10000.,0.850816325539,inf,0.
9.66,7257.,0.,1.,2738.,0.,0.,9996.,0.851274092112,inf,0.
9.68,7267.,0.,0.,2731.,0.,0.,9998.,0.852276607154,inf,0.
9.7,7272.,2.,0.,2725.,0.,0.,9999.,0.852777714282,22.1722205713,26.
9.72,7278.,2.,0.,2718.,0.,0.,9998.,0.853566691463,22.192733978,26.
9.74,7286.,2.,0.,2710.,0.,0.,9998.,0.854504934598,22.2171282995,26.
9.76,7289.,1.,2.,2704.,0.,0.,9996.,0.855027815544,44.4614464083,13.
9.78,7289.,1.,1.,2703.,0.,0.,9994.,0.855198923772,44.4703440362,13.
9.8,7289.,0.,1.,2697.,0.,0.,9987.,0.855798342263,inf,0.
9.82,7293.,0.,0.,2694.,0.,0.,9987.,0.856267980535,inf,0.
9.84,7299.,0.,1.,2688.,0.,0.,9988.,0.85688663774,inf,0.
9.86,7303.,3.,2.,2683.,0.,0.,9991.,0.857098790429,14.8563790341,39.
9.88,7309.,3.,1.,2676.,0.,0.,9989.,0.857974715319,14.8715617322,39.
9.9,7313.,5.,3.,2669.,0.,0.,9990.,0.858358329204,8.92692662372,65.
9.92,7316.,8.,2.,2664.,0.,0.,9990.,0.858710452134,5.58161793887,104.
9.94,7314.,10.,5.,2661.,0.,0.,9990.,0.858475703514,4.46407365827,130.
9.96,7318.,12.,6.,2658.,0.,0.,9994.,0.858601416403,3.72060613775,156.
9.98,7326.,9.,2.,2662.,0.,0.,9999.,0.859110222061,4.96374794969,117.
10.,7331.,7.,4.,2657.,0.,0.,9999.,0.859696565374,6.38631734278,91.
