t,prevalence
5.,7
5.02,1
5.04,4
5.06,5
5.08,6
5.1,6
5.12,3
5.14,8
5.16,7
5.18,8
5.2,12
5.22,10
5.24,10
5.26,6
5.28,7
5.3,7
5.32,3
5.34,6
5.36,7
5.38,6
5.4,2
5.42,1
5.44,4
5.46,4
5.48,3
5.5,2
5.52,0
5.54,1
5.56,0
5.58,1
5.6,0
5.62,0
5.64,1
5.66,0
5.68,0
5.7,2
5.72,1
5.74,0
5.76,0
5.78,0
5.8,0
5.82,0
5.84,1
5.86,4
5.88,3
5.9,1
5.92,1
5.94,5
5.96,6
5.98,3
6.,3
6.02,7
6.04,6
6.06,13
6.08,13
6.1,9
6.12,5
6.14,4
6.16,6
6.18,13
6.2,4
6.22,7
6.24,8
6.26,6
6.28,8
6.3,4
6.32,3
6.34,2
6.36,3
6.38,5
6.4,2
6.42,2
6.44,1
6.46,4
6.48,0
6.5,2
6.52,2
6.54,2
6.56,1
6.58,0
6.6,0
6.62,1
6.64,0
6.66,0
6.68,1
6.7,0
6.72,1
6.74,0
6.76,0
6.78,0
6.8,0
6.82,0
6.84,1
6.86,0
6.88,0
6.9,1
6.92,1
6.94,3
6.96,3
6.98,4
7.,0
7.02,2
7.04,2
7.06,5
7.08,8
7.1,7
7.12,10
7.14,6
7.16,10
7.18,12
7.2,6
7.22,10
7.24,12
7.26,8
7.28,4
7.3,4
7.32,9
7.34,4
7.36,5
7.38,2
7.4,1
7.42,5
7.44,5
7.46,2
7.48,1
7.5,3
7.52,0
7.54,1
7.56,0
7.58,0
7.6,1
7.62,0
7.64,0
7.66,1
7.68,0
7.7,0
7.72,0
7.74,3
7.76,0
7.78,0
7.8,0
7.82,0
7.84,0
7.86,0
7.88,3
7.9,2
7.92,1
7.94,3
7.96,3
7.98,2
8.,6
8.02,5
8.04,5
8.06,4
8.08,7
8.1,8
8.12,10
8.14,8
8.16,6
8.18,8
8.2,16
8.22,7
8.24,7
8.26,5
8.28,6
8.3,7
8.32,5
8.34,7
8.36,1
8.38,4
8.4,3
8.42,1
8.44,5
8.46,2
8.48,2
8.5,2
8.52,0
8.54,0
8.56,1
8.58,0
8.6,0
8.62,0
8.64,0
8.66,0
8.68,0
8.7,0
8.72,0
8.74,2
8.76,0
8.78,0
8.8,1
8.82,1
8.84,1
8.86,2
8.88,1
8.9,2
8.92,6
8.94,3
8.96,2
8.98,3
9.,9
9.02,2
9.04,4
9.06,7
9.08,8
9.1,2
9.12,11
9.14,6
9.16,6
9.18,5
9.2,10
9.22,3
9.24,4
9.26,2
9.28,6
9.3,1
9.32,4
9.34,5
9.36,4
9.38,4
9.4,0
9.42,3
9.44,2
9.46,4
9.48,2
9.5,2
9.52,2
9.54,1
9.56,0
9.58,1
9.6,2
9.62,1
9.64,0
9.66,0
9.68,0
9.7,1
9.72,1
9.74,0
9.76,0
9.78,1
9.8,1
9.82,0
9.84,0
9.86,3
9.88,3
9.9,1
9.92,1
9.94,1
9.96,3
9.98,3
10.,1
