t,s,e,i,r,c,o,n,reff,coal,reportr
5.,6965.,14.,23.,2998.,0.,0.,10000.,0.868677697409,3.2265171618,182.
5.02,6952.,28.,7.,3013.,0.,0.,10000.,0.867056332001,1.61024747372,364.
5.04,6956.,16.,16.,3013.,0.,0.,10001.,0.867468466818,2.81927251716,208.
5.06,6949.,22.,12.,3017.,0.,0.,10000.,0.866682170753,2.04852149451,286.
5.08,6940.,32.,4.,3023.,0.,0.,9999.,0.865646251634,1.40667515891,416.
5.1,6938.,23.,14.,3020.,0.,0.,9995.,0.865743117736,1.95733226618,299.
5.12,6927.,25.,15.,3028.,0.,0.,9995.,0.864370506854,1.79789065426,325.
5.14,6929.,26.,15.,3028.,0.,0.,9998.,0.86436063456,1.72872126912,338.
5.16,6916.,29.,15.,3038.,0.,0.,9998.,0.862738944814,1.54698017691,377.
5.18,6908.,28.,18.,3044.,0.,0.,9998.,0.861740981893,1.60037610923,364.
5.2,6905.,25.,12.,3056.,0.,0.,9998.,0.861366745798,1.79164283126,325.
5.22,6901.,26.,14.,3059.,0.,0.,10000.,0.860695590785,1.72139118157,338.
5.24,6892.,24.,19.,3065.,0.,0.,10000.,0.859573107041,1.86240839859,312.
5.26,6885.,31.,8.,3079.,0.,0.,10003.,0.85844253137,1.43996811714,403.
5.28,6877.,28.,10.,3088.,0.,0.,10003.,0.857445067281,1.59239798209,364.
5.3,6873.,26.,12.,3091.,0.,0.,10002.,0.857032012735,1.71406402547,338.
5.32,6873.,21.,15.,3093.,0.,0.,10002.,0.857032012735,2.12217450772,273.
5.34,6865.,24.,6.,3106.,0.,0.,10001.,0.856120043805,1.85492676158,312.
5.36,6867.,20.,8.,3105.,0.,0.,10000.,0.856455096641,2.22678325127,260.
5.38,6861.,18.,13.,3110.,0.,0.,10002.,0.855535667012,2.47154748248,234.
5.4,6859.,15.,5.,3124.,0.,0.,10003.,0.855200773081,2.96469601335,195.
5.42,6860.,14.,0.,3128.,0.,0.,10002.,0.855410971535,3.17724075142,182.
5.44,6872.,5.,6.,3121.,0.,0.,10004.,0.856736004319,8.91005444492,65.
5.46,6869.,6.,2.,3125.,0.,0.,10002.,0.856533230827,7.4232880005,78.
5.48,6875.,3.,4.,3120.,0.,0.,10002.,0.857281403688,14.8595443306,39.
5.5,6873.,4.,3.,3115.,0.,0.,9995.,0.857632235255,11.1492190583,52.
5.52,6882.,4.,4.,3108.,0.,0.,9998.,0.858497602402,11.1604688312,52.
5.54,6885.,5.,2.,3103.,0.,0.,9995.,0.859129628943,8.93494814101,65.
5.56,6889.,2.,2.,3100.,0.,0.,9993.,0.859800806357,22.3548209653,26.
5.58,6895.,2.,1.,3095.,0.,0.,9993.,0.860549653046,22.3742909792,26.
5.6,6901.,1.,1.,3092.,0.,0.,9995.,0.861126153862,44.7785600008,13.
5.62,6904.,0.,0.,3088.,0.,0.,9992.,0.86175915936,inf,0.
5.64,6908.,0.,0.,3084.,0.,0.,9992.,0.862258440449,inf,0.
5.66,6913.,2.,0.,3076.,0.,0.,9991.,0.862968907794,22.4371916026,26.
5.68,6916.,3.,0.,3067.,0.,0.,9986.,0.863775682981,14.9721118383,39.
5.7,6924.,2.,0.,3058.,0.,0.,9984.,0.864948077276,22.4886500092,26.
5.72,6929.,2.,0.,3052.,0.,0.,9983.,0.865659383385,22.507143968,26.
5.74,6934.,2.,1.,3043.,0.,0.,9980.,0.86654445342,22.5301557889,26.
5.76,6945.,0.,0.,3036.,0.,0.,9981.,0.867832170212,inf,0.
5.78,6954.,1.,0.,3028.,0.,0.,9983.,0.868782703429,45.1767005783,13.
5.8,6962.,0.,1.,3021.,0.,0.,9984.,0.869695048238,inf,0.
5.82,6964.,0.,1.,3018.,0.,0.,9983.,0.870032031446,inf,0.
5.84,6968.,1.,1.,3010.,0.,0.,9980.,0.870793445548,45.2812591685,13.
5.86,6975.,3.,1.,3001.,0.,0.,9980.,0.871668238045,15.1089161261,39.
5.88,6982.,3.,1.,2994.,0.,0.,9980.,0.872543030542,15.1240791961,39.
5.9,6990.,2.,2.,2986.,0.,0.,9980.,0.873542793395,22.7121126283,26.
5.92,6994.,6.,2.,2983.,0.,0.,9985.,0.873604996968,7.57124330706,78.
5.94,6997.,9.,4.,2979.,0.,0.,9989.,0.873629743438,5.04763851764,117.
5.96,7005.,7.,7.,2971.,0.,0.,9990.,0.874541055104,6.49659069506,91.
5.98,6999.,13.,8.,2969.,0.,0.,9989.,0.873879458957,3.49551783583,169.
6.,6996.,14.,8.,2973.,0.,0.,9991.,0.873330027329,3.24379724437,182.
6.02,6988.,18.,9.,2976.,0.,0.,9991.,0.872331365205,2.52006838837,234.
6.04,6980.,17.,9.,2981.,0.,0.,9987.,0.871681689845,2.66632046306,221.
6.06,6974.,13.,16.,2983.,0.,0.,9986.,0.871019608605,3.48407843442,169.
6.08,6959.,24.,11.,2989.,0.,0.,9983.,0.869407367437,1.88371596278,312.
6.1,6946.,33.,11.,2992.,0.,0.,9982.,0.867870175821,1.36755300432,429.
6.12,6944.,26.,21.,2993.,0.,0.,9984.,0.867446483046,1.73489296609,338.
6.14,6942.,27.,11.,3005.,0.,0.,9985.,0.86710979253,1.66998923006,351.
6.16,6936.,21.,18.,3006.,0.,0.,9981.,0.866707549689,2.14613298018,273.
6.18,6917.,38.,13.,3014.,0.,0.,9982.,0.864246761612,1.18265346326,494.
6.2,6900.,37.,19.,3024.,0.,0.,9980.,0.862295461292,1.21187470236,481.
6.22,6885.,44.,16.,3030.,0.,0.,9975.,0.860852194616,1.01737077545,572.
6.24,6880.,39.,23.,3033.,0.,0.,9975.,0.860227029623,1.14696937283,507.
6.26,6872.,35.,21.,3051.,0.,0.,9979.,0.85888235166,1.27605377961,455.
6.28,6851.,38.,22.,3064.,0.,0.,9975.,0.856601072667,1.17219094154,494.
6.3,6843.,29.,18.,3087.,0.,0.,9977.,0.855429294033,1.53387321689,377.
6.32,6833.,37.,9.,3097.,0.,0.,9976.,0.854264838109,1.20058842113,481.
6.34,6825.,23.,20.,3109.,0.,0.,9977.,0.853179151217,1.92892677666,299.
6.36,6812.,29.,11.,3123.,0.,0.,9975.,0.851724785726,1.52723065027,377.
6.38,6802.,31.,7.,3136.,0.,0.,9976.,0.85038920369,1.42645930942,403.
6.4,6806.,19.,11.,3145.,0.,0.,9981.,0.850463031024,2.32758303228,247.
6.42,6805.,10.,15.,3150.,0.,0.,9980.,0.850423277404,4.4222010425,130.
6.44,6810.,10.,2.,3155.,0.,0.,9977.,0.851304032203,4.42678096746,130.
6.46,6817.,8.,4.,3147.,0.,0.,9976.,0.852264510667,5.53971931934,104.
6.48,6819.,9.,0.,3148.,0.,0.,9976.,0.852514551597,4.92563963145,117.
6.5,6827.,2.,2.,3146.,0.,0.,9977.,0.853429167086,22.1891583442,26.
6.52,6835.,1.,2.,3139.,0.,0.,9977.,0.85442923056,44.4303199891,13.
6.54,6842.,1.,2.,3132.,0.,0.,9977.,0.855304286099,44.4758228772,13.
6.56,6854.,1.,0.,3126.,0.,0.,9981.,0.856461007147,44.5359723716,13.
6.58,6864.,0.,1.,3116.,0.,0.,9981.,0.857710585506,inf,0.
6.6,6870.,2.,0.,3110.,0.,0.,9982.,0.858374331686,22.3177326238,26.
6.62,6873.,0.,2.,3106.,0.,0.,9981.,0.858835206029,inf,0.
6.64,6883.,0.,0.,3098.,0.,0.,9981.,0.860084784387,inf,0.
6.66,6889.,2.,0.,3093.,0.,0.,9984.,0.86057586718,22.3749725467,26.
6.68,6892.,1.,1.,3092.,0.,0.,9986.,0.860778196516,44.7604662188,13.
6.7,6897.,1.,2.,3085.,0.,0.,9985.,0.861488942535,44.7974250118,13.
6.72,6901.,2.,1.,3083.,0.,0.,9987.,0.861815951522,22.4072147396,26.
6.74,6907.,2.,1.,3075.,0.,0.,9985.,0.862738020311,22.4311885281,26.
6.76,6916.,3.,0.,3070.,0.,0.,9989.,0.863516264916,14.9676152585,39.
6.78,6922.,4.,0.,3063.,0.,0.,9989.,0.864265411473,11.2354503492,52.
6.8,6936.,2.,2.,3055.,0.,0.,9995.,0.865493552121,22.5028323551,26.
6.82,6938.,4.,1.,3052.,0.,0.,9995.,0.865743117736,11.2546605306,52.
6.84,6944.,4.,2.,3048.,0.,0.,9998.,0.866231815036,11.2610135955,52.
6.86,6943.,6.,2.,3044.,0.,0.,9995.,0.866367031773,7.50851427536,78.
6.88,6944.,7.,2.,3039.,0.,0.,9992.,0.866751970249,6.43872892185,91.
6.9,6950.,4.,7.,3029.,0.,0.,9990.,0.867674565734,11.2797693545,52.
6.92,6954.,7.,2.,3029.,0.,0.,9992.,0.868000172971,6.44800128493,91.
6.94,6959.,6.,4.,3025.,0.,0.,9994.,0.86845044518,7.52657052489,78.
6.96,6961.,11.,5.,3016.,0.,0.,9993.,0.868786966621,4.10699293312,143.
6.98,6963.,13.,6.,3012.,0.,0.,9994.,0.868949626352,3.47579850541,169.
7.,6958.,18.,8.,3010.,0.,0.,9994.,0.868325649887,2.50849632189,234.
7.02,6952.,17.,11.,3016.,0.,0.,9996.,0.867403293318,2.65323360309,221.
7.04,6947.,17.,15.,3020.,0.,0.,9999.,0.866519381859,2.65052987392,221.
7.06,6942.,23.,13.,3024.,0.,0.,10002.,0.865636000641,1.9570900884,299.
7.08,6935.,25.,18.,3024.,0.,0.,10002.,0.864763132302,1.79870731519,325.
7.1,6929.,25.,16.,3033.,0.,0.,10003.,0.863928583858,1.79697145442,325.
7.12,6920.,22.,18.,3040.,0.,0.,10000.,0.863065278689,2.0399724769,286.
7.14,6905.,33.,15.,3043.,0.,0.,9996.,0.861539088084,1.35757674486,429.
7.16,6890.,38.,12.,3057.,0.,0.,9997.,0.859581540671,1.17626947671,494.
7.18,6888.,30.,19.,3061.,0.,0.,9998.,0.859246074592,1.48935986263,390.
7.2,6883.,29.,19.,3063.,0.,0.,9994.,0.858966002899,1.54021490175,377.
7.22,6867.,34.,16.,3078.,0.,0.,9995.,0.85688353841,1.31052776463,442.
7.24,6861.,32.,13.,3091.,0.,0.,9997.,0.855963563214,1.39094079022,416.
7.26,6859.,28.,17.,3090.,0.,0.,9994.,0.855970915863,1.58966027232,364.
7.28,6858.,26.,14.,3099.,0.,0.,9997.,0.855589289684,1.71117857937,338.
7.3,6853.,31.,10.,3102.,0.,0.,9996.,0.85505103123,1.43427914916,403.
7.32,6849.,26.,18.,3103.,0.,0.,9996.,0.854551949933,1.70910389987,338.
7.34,6844.,20.,12.,3118.,0.,0.,9994.,0.854098986465,2.22065736481,260.
7.36,6840.,25.,8.,3122.,0.,0.,9995.,0.853514402611,1.77530995743,325.
7.38,6840.,19.,11.,3124.,0.,0.,9994.,0.853599805292,2.33616788817,247.
7.4,6832.,18.,14.,3128.,0.,0.,9992.,0.852772099761,2.46356384375,234.
7.42,6833.,13.,6.,3139.,0.,0.,9991.,0.852982286555,3.41192914622,169.
7.44,6839.,8.,4.,3139.,0.,0.,9990.,0.853816741735,5.54980882128,104.
7.46,6843.,7.,5.,3135.,0.,0.,9990.,0.85431612278,6.34634834065,91.
7.48,6847.,9.,1.,3132.,0.,0.,9989.,0.854901079509,4.93942845938,117.
7.5,6851.,4.,2.,3131.,0.,0.,9988.,0.855486153369,11.1213199938,52.
7.52,6860.,2.,0.,3128.,0.,0.,9990.,0.856438492221,22.2674007978,26.
7.54,6871.,2.,0.,3116.,0.,0.,9989.,0.857897665737,22.3053393092,26.
7.56,6880.,2.,1.,3111.,0.,0.,9994.,0.858591617019,22.3233820425,26.
7.58,6882.,2.,0.,3110.,0.,0.,9994.,0.858841207606,22.3298713977,26.
7.6,6884.,1.,2.,3106.,0.,0.,9993.,0.85917676745,44.6771919074,13.
7.62,6889.,1.,2.,3103.,0.,0.,9995.,0.859628760173,44.700695529,13.
7.64,6900.,0.,3.,3092.,0.,0.,9995.,0.861001371054,inf,0.
7.66,6911.,1.,0.,3084.,0.,0.,9996.,0.862287710029,44.8389609215,13.
7.68,6918.,0.,1.,3078.,0.,0.,9997.,0.863074760285,inf,0.
7.7,6916.,0.,0.,3073.,0.,0.,9989.,0.863516264916,inf,0.
7.72,6920.,0.,0.,3069.,0.,0.,9989.,0.864015695954,inf,0.
7.74,6923.,2.,0.,3061.,0.,0.,9986.,0.864649949867,22.4808986965,26.
7.76,6938.,3.,1.,3050.,0.,0.,9992.,0.866003048616,15.0107195093,39.
7.78,6946.,1.,2.,3045.,0.,0.,9994.,0.866828106369,45.0750615312,13.
7.8,6950.,1.,2.,3043.,0.,0.,9996.,0.86715375267,45.0919951388,13.
7.82,6953.,3.,2.,3038.,0.,0.,9996.,0.867528063642,15.0371531031,39.
7.84,6954.,5.,0.,3037.,0.,0.,9996.,0.867652833966,9.02358947325,65.
7.86,6954.,5.,1.,3033.,0.,0.,9993.,0.867913312151,9.02629844637,65.
7.88,6960.,4.,0.,3032.,0.,0.,9996.,0.868401455911,11.2892189268,52.
7.9,6967.,4.,1.,3025.,0.,0.,9997.,0.869187894609,11.2994426299,52.
7.92,6968.,2.,5.,3022.,0.,0.,9997.,0.869312652452,22.6021289638,26.
7.94,6971.,12.,4.,3013.,0.,0.,10000.,0.869426019905,3.76751275292,156.
7.96,6965.,16.,5.,3012.,0.,0.,9998.,0.868851467702,2.82376727003,208.
7.98,6955.,21.,10.,3008.,0.,0.,9994.,0.867951264007,2.14921265373,273.
8.,6950.,25.,9.,3014.,0.,0.,9998.,0.866980287226,1.80331899743,325.
8.02,6943.,21.,16.,3016.,0.,0.,9996.,0.866280360401,2.14507517814,273.
8.04,6943.,24.,12.,3017.,0.,0.,9996.,0.866280360401,1.87694078087,312.
8.06,6942.,21.,16.,3019.,0.,0.,9998.,0.865982324306,2.14433718399,273.
8.08,6938.,23.,11.,3024.,0.,0.,9996.,0.86565650878,1.95713645463,299.
8.1,6930.,25.,10.,3032.,0.,0.,9997.,0.864571854405,1.79830945716,325.
8.12,6922.,27.,17.,3035.,0.,0.,10001.,0.863228396681,1.66251394916,351.
8.14,6913.,31.,12.,3046.,0.,0.,10002.,0.862019831811,1.44596875013,403.
8.16,6903.,29.,15.,3056.,0.,0.,10003.,0.860686825569,1.54330051481,377.
8.18,6899.,25.,17.,3062.,0.,0.,10003.,0.860188093525,1.78919123453,325.
8.2,6882.,37.,13.,3071.,0.,0.,10003.,0.858068482336,1.20593408328,481.
8.22,6875.,34.,6.,3087.,0.,0.,10002.,0.857281403688,1.31113626446,442.
8.24,6876.,24.,12.,3091.,0.,0.,10003.,0.85732038427,1.85752749925,312.
8.26,6871.,25.,7.,3099.,0.,0.,10002.,0.856782621781,1.7821078533,325.
8.28,6871.,23.,9.,3098.,0.,0.,10001.,0.856868291476,1.9372674416,299.
8.3,6856.,30.,11.,3098.,0.,0.,9995.,0.855510927529,1.48288560772,390.
8.32,6856.,25.,11.,3103.,0.,0.,9995.,0.855510927529,1.77946272926,325.
8.34,6849.,17.,13.,3115.,0.,0.,9994.,0.854722962931,2.61444671014,221.
8.36,6846.,19.,14.,3115.,0.,0.,9994.,0.854348577051,2.33821715825,247.
8.38,6841.,24.,8.,3122.,0.,0.,9995.,0.853639185418,1.84955156841,312.
8.4,6833.,17.,7.,3136.,0.,0.,9993.,0.852811570597,2.6086000983,221.
8.42,6833.,21.,0.,3143.,0.,0.,9997.,0.8524703436,2.11087894606,273.
8.44,6836.,7.,11.,3138.,0.,0.,9992.,0.85327138085,6.3385874006,91.
8.46,6832.,12.,7.,3137.,0.,0.,9988.,0.853113618423,3.69682567983,156.
8.48,6839.,7.,5.,3143.,0.,0.,9994.,0.853475009999,6.34010007428,91.
8.5,6847.,5.,3.,3142.,0.,0.,9997.,0.854216953407,8.88385631544,65.
8.52,6850.,3.,2.,3141.,0.,0.,9996.,0.854676720257,14.8143964845,39.
8.54,6861.,2.,1.,3133.,0.,0.,9997.,0.855963563214,22.2550526436,26.
8.56,6866.,1.,1.,3125.,0.,0.,9993.,0.856930227384,44.560371824,13.
8.58,6872.,2.,0.,3120.,0.,0.,9994.,0.857593254674,22.2974246215,26.
8.6,6879.,3.,0.,3110.,0.,0.,9992.,0.858638652555,14.8830699776,39.
8.62,6880.,3.,0.,3106.,0.,0.,9989.,0.859021385573,14.8897040166,39.
8.64,6890.,0.,3.,3097.,0.,0.,9990.,0.860183850059,inf,0.
8.66,6892.,1.,0.,3096.,0.,0.,9989.,0.860519678688,44.7470232918,13.
8.68,6902.,0.,0.,3088.,0.,0.,9990.,0.861681993194,inf,0.
8.7,6903.,0.,0.,3085.,0.,0.,9988.,0.861979406905,inf,0.
8.72,6912.,0.,0.,3075.,0.,0.,9987.,0.863189661921,inf,0.
8.74,6921.,0.,0.,3064.,0.,0.,9985.,0.864486729199,inf,0.
8.76,6926.,0.,0.,3059.,0.,0.,9985.,0.865111268087,inf,0.
8.78,6932.,0.,0.,3052.,0.,0.,9984.,0.865947439584,inf,0.
8.8,6936.,0.,1.,3049.,0.,0.,9986.,0.866273588369,inf,0.
8.82,6948.,0.,1.,3037.,0.,0.,9986.,0.867772331601,inf,0.
8.84,6950.,5.,1.,3031.,0.,0.,9987.,0.867935206938,9.02652615215,65.
8.86,6948.,8.,2.,3028.,0.,0.,9986.,0.867772331601,5.64052015541,104.
8.88,6956.,7.,3.,3022.,0.,0.,9988.,0.868597530702,6.4524387995,91.
8.9,6956.,8.,3.,3019.,0.,0.,9986.,0.868771493756,5.64701470941,104.
8.92,6956.,10.,3.,3016.,0.,0.,9985.,0.868858501417,4.51806420737,130.
8.94,6954.,14.,5.,3013.,0.,0.,9986.,0.868521703217,3.22593775481,182.
8.96,6946.,17.,7.,3011.,0.,0.,9981.,0.867957128048,2.65492768579,221.
8.98,6940.,22.,11.,3006.,0.,0.,9979.,0.867381187503,2.05017371592,286.
9.,6946.,12.,11.,3011.,0.,0.,9980.,0.8680440977,3.76152442337,156.
9.02,6950.,13.,12.,3010.,0.,0.,9985.,0.868109054751,3.472436219,169.
9.04,6943.,20.,8.,3014.,0.,0.,9985.,0.867234700307,2.2548102208,260.
9.06,6955.,16.,9.,3011.,0.,0.,9991.,0.868211883944,2.82168862282,208.
9.08,6954.,19.,6.,3013.,0.,0.,9992.,0.868000172971,2.37557942076,247.
9.1,6947.,23.,11.,3014.,0.,0.,9995.,0.866866163002,1.95987132505,299.
9.12,6931.,35.,14.,3020.,0.,0.,10000.,0.864437203265,1.28430670199,455.
9.14,6926.,32.,19.,3026.,0.,0.,10003.,0.863554534824,1.40327611909,416.
9.16,6913.,25.,24.,3042.,0.,0.,10004.,0.861847496778,1.7926427933,325.
9.18,6895.,29.,21.,3056.,0.,0.,10001.,0.859861282161,1.54182023008,377.
9.2,6878.,30.,22.,3068.,0.,0.,9998.,0.857998620941,1.48719760963,390.
9.22,6872.,33.,13.,3078.,0.,0.,9996.,0.857421667388,1.35108868801,429.
9.24,6867.,30.,18.,3087.,0.,0.,10002.,0.856283839873,1.48422532245,390.
9.26,6862.,32.,17.,3093.,0.,0.,10004.,0.855489298842,1.39017011062,416.
9.28,6854.,31.,9.,3110.,0.,0.,10004.,0.854491934459,1.43334130942,403.
9.3,6852.,25.,14.,3114.,0.,0.,10005.,0.854157211795,1.77664700053,325.
9.32,6840.,29.,10.,3126.,0.,0.,10005.,0.852661314752,1.52890994369,377.
9.34,6841.,25.,11.,3126.,0.,0.,10003.,0.852956478882,1.77414947607,325.
9.36,6840.,24.,10.,3128.,0.,0.,10002.,0.852917061997,1.84798696766,312.
9.38,6844.,22.,11.,3127.,0.,0.,10004.,0.853245228982,2.01676145032,286.
9.4,6840.,23.,7.,3130.,0.,0.,10000.,0.853087645409,1.92871989397,299.
9.42,6842.,9.,18.,3129.,0.,0.,9998.,0.853507787799,4.9313783295,117.
9.44,6844.,11.,4.,3138.,0.,0.,9997.,0.853842679877,4.03634721396,143.
9.46,6849.,9.,6.,3133.,0.,0.,9997.,0.854466469094,4.93691737699,117.
9.48,6854.,8.,0.,3137.,0.,0.,9999.,0.854919223155,5.55697495051,104.
9.5,6850.,8.,2.,3137.,0.,0.,9997.,0.854591226937,5.55484297509,104.
9.52,6857.,5.,6.,3130.,0.,0.,9998.,0.855378968275,8.89594127006,65.
9.54,6856.,7.,2.,3133.,0.,0.,9998.,0.85525422291,6.35331708447,91.
9.56,6868.,6.,2.,3127.,0.,0.,10003.,0.856322920181,7.42146530824,78.
9.58,6873.,3.,1.,3126.,0.,0.,10003.,0.856946335237,14.8537364774,39.
9.6,6881.,3.,1.,3121.,0.,0.,10006.,0.857686570523,14.8665672224,39.
9.62,6887.,2.,1.,3116.,0.,0.,10006.,0.858434444294,22.3192955517,26.
9.64,6889.,1.,2.,3111.,0.,0.,10003.,0.858941263414,44.6649456975,13.
9.66,6889.,0.,3.,3108.,0.,0.,10000.,0.859198945793,inf,0.
9.68,6892.,1.,1.,3105.,0.,0.,9999.,0.859659072948,44.7022717933,13.
9.7,6900.,1.,0.,3102.,0.,0.,10003.,0.860312776536,44.7362643799,13.
9.72,6909.,1.,0.,3095.,0.,0.,10005.,0.861262722752,44.7856615831,13.
9.74,6913.,2.,0.,3088.,0.,0.,10003.,0.86193365568,22.4102750477,26.
9.76,6916.,1.,1.,3077.,0.,0.,9995.,0.862997895973,44.8758905906,13.
9.78,6916.,1.,0.,3077.,0.,0.,9994.,0.863084247573,44.8803808738,13.
9.8,6925.,1.,1.,3069.,0.,0.,9996.,0.864034494567,44.9297937175,13.
9.82,6931.,1.,3.,3060.,0.,0.,9995.,0.864869638084,44.9732211804,13.
9.84,6929.,5.,1.,3058.,0.,0.,9993.,0.864793117615,8.9938484232,65.
9.86,6930.,6.,1.,3057.,0.,0.,9994.,0.864831381678,7.49520530787,78.
9.88,6930.,8.,2.,3051.,0.,0.,9991.,0.865091064807,5.62309192125,104.
9.9,6938.,6.,5.,3047.,0.,0.,9996.,0.86565650878,7.50235640943,78.
9.92,6940.,11.,8.,3039.,0.,0.,9998.,0.865732833575,4.09255521327,143.
9.94,6943.,15.,5.,3038.,0.,0.,10001.,0.86584726353,3.00160384691,195.
9.96,6947.,11.,3.,3038.,0.,0.,9999.,0.866519381859,4.09627344151,143.
9.98,6946.,13.,4.,3039.,0.,0.,10002.,0.866134782548,3.46453913019,169.
10.,6947.,14.,6.,3035.,0.,0.,10002.,0.866259478025,3.21753520409,182.
