t,s,e,i,r,c,o,n,reff,coal,reportr
5.,8420.,21.,9.,1551.,0.,0.,10001.,0.879937434227,2.17889269428,273.
5.02,8419.,22.,9.,1552.,0.,0.,10002.,0.879744962894,2.07939718502,286.
5.04,8419.,16.,15.,1554.,0.,0.,10004.,0.879569084252,2.85859952382,208.
5.06,8406.,23.,12.,1562.,0.,0.,10003.,0.878298713179,1.9857188298,299.
5.08,8401.,18.,16.,1569.,0.,0.,10004.,0.877688546954,2.5355446912,234.
5.1,8387.,24.,15.,1580.,0.,0.,10006.,0.876050766736,1.89810999459,312.
5.12,8380.,22.,10.,1594.,0.,0.,10006.,0.875319592851,2.06893721947,286.
5.14,8368.,25.,14.,1599.,0.,0.,10006.,0.874066151907,1.81805759597,325.
5.16,8353.,31.,15.,1608.,0.,0.,10007.,0.872412161824,1.46340104564,403.
5.18,8352.,34.,12.,1615.,0.,0.,10013.,0.871785013735,1.3333182563,442.
5.2,8345.,20.,20.,1626.,0.,0.,10011.,0.871228370457,2.26519376319,260.
5.22,8343.,16.,10.,1641.,0.,0.,10010.,0.871106582913,2.83109639447,208.
5.24,8335.,22.,10.,1641.,0.,0.,10008.,0.87044520466,2.05741593829,286.
5.26,8315.,29.,15.,1644.,0.,0.,10003.,0.868790601961,1.55783142421,377.
5.28,8305.,25.,16.,1655.,0.,0.,10001.,0.867919286372,1.80527211565,325.
5.3,8306.,19.,11.,1666.,0.,0.,10002.,0.867937006984,2.37540654543,247.
5.32,8313.,16.,6.,1672.,0.,0.,10007.,0.868234442863,2.82176193931,208.
5.34,8313.,12.,6.,1677.,0.,0.,10008.,0.868147688822,3.76197331823,156.
5.36,8301.,13.,7.,1684.,0.,0.,10005.,0.867154436746,3.46861774698,169.
5.38,8300.,14.,6.,1685.,0.,0.,10005.,0.867049972894,3.22047132789,182.
5.4,8297.,16.,4.,1691.,0.,0.,10008.,0.866476768214,2.81604949669,208.
5.42,8294.,9.,7.,1697.,0.,0.,10007.,0.866250026357,5.00500015229,117.
5.44,8292.,6.,4.,1703.,0.,0.,10005.,0.866214262077,7.50719027133,78.
5.46,8292.,8.,4.,1704.,0.,0.,10008.,0.865954605523,5.6287049359,104.
5.48,8295.,6.,3.,1703.,0.,0.,10007.,0.866354469331,7.50840540087,78.
5.5,8299.,3.,4.,1703.,0.,0.,10009.,0.866599042658,15.0210500727,39.
5.52,8305.,1.,3.,1705.,0.,0.,10014.,0.866792568705,45.0732135726,13.
5.54,8306.,2.,1.,1704.,0.,0.,10013.,0.866983515814,22.5415714112,26.
5.56,8303.,4.,0.,1700.,0.,0.,10007.,0.867190013123,11.2734701706,52.
5.58,8307.,4.,1.,1693.,0.,0.,10005.,0.867781219859,11.2811558582,52.
5.6,8306.,2.,1.,1694.,0.,0.,10003.,0.867850239313,22.5641062221,26.
5.62,8311.,2.,0.,1693.,0.,0.,10006.,0.868112307421,22.5709199929,26.
5.64,8312.,2.,0.,1692.,0.,0.,10006.,0.868216760833,22.5736357817,26.
5.66,8318.,2.,0.,1687.,0.,0.,10007.,0.868756657733,22.5876731011,26.
5.68,8323.,1.,0.,1685.,0.,0.,10009.,0.869105173158,45.1934690042,13.
5.7,8325.,0.,1.,1683.,0.,0.,10009.,0.869314017367,inf,0.
5.72,8325.,0.,1.,1681.,0.,0.,10007.,0.869487758552,inf,0.
5.74,8331.,0.,1.,1675.,0.,0.,10007.,0.870114416396,inf,0.
5.76,8336.,0.,0.,1673.,0.,0.,10009.,0.870462660513,inf,0.
5.78,8342.,0.,0.,1668.,0.,0.,10010.,0.871002171241,inf,0.
5.8,8348.,1.,0.,1664.,0.,0.,10013.,0.871367492177,45.3111095932,13.
5.82,8348.,1.,0.,1658.,0.,0.,10007.,0.871889946954,45.3382772416,13.
5.84,8347.,3.,2.,1655.,0.,0.,10007.,0.87178550398,15.1109487356,39.
5.86,8343.,5.,1.,1656.,0.,0.,10005.,0.871541918537,9.06403595278,65.
5.88,8348.,6.,0.,1655.,0.,0.,10009.,0.871715725763,7.55486962328,78.
5.9,8347.,4.,1.,1656.,0.,0.,10008.,0.871698395116,11.3320791365,52.
5.92,8352.,7.,2.,1651.,0.,0.,10012.,0.871872087747,6.47676408041,91.
5.94,8351.,10.,2.,1650.,0.,0.,10013.,0.871680633345,4.5327392934,130.
5.96,8343.,13.,5.,1648.,0.,0.,10009.,0.871193615242,3.48477446097,169.
5.98,8342.,13.,4.,1649.,0.,0.,10008.,0.871176232426,3.4847049297,169.
6.,8343.,18.,4.,1647.,0.,0.,10012.,0.870932570411,2.51602742563,234.
6.02,8341.,17.,11.,1641.,0.,0.,10010.,0.870897759568,2.66392255868,221.
6.04,8334.,18.,11.,1645.,0.,0.,10008.,0.870340772122,2.51431778613,234.
6.06,8322.,23.,13.,1645.,0.,0.,10003.,0.869521995132,1.96587581508,299.
6.08,8317.,26.,10.,1650.,0.,0.,10003.,0.868999571438,1.73799914288,338.
6.1,8304.,31.,18.,1648.,0.,0.,10001.,0.867814780739,1.45568930963,403.
6.12,8289.,31.,17.,1666.,0.,0.,10003.,0.866073998756,1.45276928824,403.
6.14,8279.,25.,19.,1683.,0.,0.,10006.,0.864769798236,1.79872118033,325.
6.16,8264.,29.,16.,1696.,0.,0.,10005.,0.863289274216,1.54796697446,377.
6.18,8250.,34.,12.,1709.,0.,0.,10005.,0.861826780286,1.31808801691,442.
6.2,8238.,30.,12.,1718.,0.,0.,9998.,0.861175735815,1.49270460875,390.
6.22,8227.,33.,18.,1722.,0.,0.,10000.,0.859853823742,1.35492117681,429.
6.24,8223.,36.,11.,1734.,0.,0.,10004.,0.859092122557,1.24091084369,468.
6.26,8213.,26.,22.,1744.,0.,0.,10005.,0.857961617756,1.71592323551,338.
6.28,8199.,32.,16.,1759.,0.,0.,10006.,0.856413525273,1.39167197857,416.
6.3,8186.,30.,13.,1778.,0.,0.,10007.,0.854970185165,1.48194832095,390.
6.32,8177.,27.,17.,1784.,0.,0.,10005.,0.854200919079,1.645127696,351.
6.34,8170.,19.,16.,1799.,0.,0.,10004.,0.853554984956,2.33604522198,247.
6.36,8174.,14.,11.,1805.,0.,0.,10004.,0.853972882133,3.17189927649,182.
6.38,8171.,15.,6.,1813.,0.,0.,10005.,0.853574135966,2.95905700468,195.
6.4,8169.,14.,5.,1817.,0.,0.,10005.,0.853365208262,3.16964220211,182.
6.42,8163.,13.,7.,1820.,0.,0.,10003.,0.852908921685,3.41163568674,169.
6.44,8160.,10.,5.,1824.,0.,0.,9999.,0.852936539763,4.43527000677,130.
6.46,8166.,12.,7.,1820.,0.,0.,10005.,0.853051816705,3.69655787239,156.
6.48,8164.,6.,10.,1824.,0.,0.,10004.,0.85292813919,7.39204387298,78.
6.5,8168.,8.,5.,1824.,0.,0.,10005.,0.853260744409,5.54619483866,104.
6.52,8171.,8.,2.,1822.,0.,0.,10003.,0.853744799594,5.54934119736,104.
6.54,8176.,6.,4.,1818.,0.,0.,10004.,0.854181830722,7.40290919959,78.
6.56,8179.,4.,3.,1819.,0.,0.,10005.,0.854409846783,11.1073280082,52.
6.58,8181.,2.,4.,1818.,0.,0.,10005.,0.854618774487,22.2200881367,26.
6.6,8185.,1.,2.,1820.,0.,0.,10008.,0.854780323952,44.4485768455,13.
6.62,8185.,2.,2.,1815.,0.,0.,10004.,0.855122099371,22.2331745837,26.
6.64,8188.,0.,0.,1816.,0.,0.,10004.,0.855435522254,inf,0.
6.66,8188.,1.,0.,1810.,0.,0.,9999.,0.855863282792,44.5048907052,13.
6.68,8191.,0.,0.,1805.,0.,0.,9996.,0.856433818243,inf,0.
6.7,8191.,1.,0.,1803.,0.,0.,9995.,0.856519504468,44.5390142323,13.
6.72,8193.,0.,2.,1800.,0.,0.,9995.,0.856728641204,inf,0.
6.74,8198.,0.,0.,1799.,0.,0.,9997.,0.857079981298,inf,0.
6.76,8200.,1.,0.,1795.,0.,0.,9996.,0.857374839408,44.5834916492,13.
6.78,8199.,1.,0.,1794.,0.,0.,9994.,0.857441838491,44.5869756015,13.
6.8,8203.,2.,0.,1790.,0.,0.,9995.,0.857774324887,22.3021324471,26.
6.82,8202.,2.,1.,1789.,0.,0.,9994.,0.857755574985,22.3016449496,26.
6.84,8204.,1.,2.,1785.,0.,0.,9992.,0.858136462979,44.6230960749,13.
6.86,8208.,6.,2.,1783.,0.,0.,9999.,0.857953813526,7.43559971723,78.
6.88,8202.,8.,7.,1780.,0.,0.,9997.,0.857498171092,5.5737381121,104.
6.9,8200.,12.,5.,1782.,0.,0.,9999.,0.857117601232,3.71417627201,156.
6.92,8199.,7.,10.,1781.,0.,0.,9997.,0.857184528747,6.36765649926,91.
6.94,8194.,12.,8.,1782.,0.,0.,9996.,0.856747491965,3.71257246518,156.
6.96,8185.,17.,7.,1788.,0.,0.,9997.,0.85572086447,2.61749911485,221.
6.98,8179.,19.,10.,1787.,0.,0.,9995.,0.855264684049,2.34072439845,247.
7.,8167.,24.,10.,1795.,0.,0.,9996.,0.853924428469,1.85016959502,312.
7.02,8160.,22.,13.,1803.,0.,0.,9998.,0.853021850479,2.01623346477,286.
7.04,8148.,22.,17.,1809.,0.,0.,9996.,0.851937828231,2.01367123036,286.
7.06,8139.,26.,14.,1817.,0.,0.,9996.,0.850996807066,1.70199361413,338.
7.08,8128.,26.,21.,1824.,0.,0.,9999.,0.849591690587,1.69918338117,338.
7.1,8101.,39.,19.,1838.,0.,0.,9997.,0.846938878812,1.12925183842,507.
7.12,8081.,35.,24.,1856.,0.,0.,9996.,0.844932448446,1.25532820912,455.
7.14,8064.,39.,15.,1877.,0.,0.,9995.,0.843239321698,1.1243190956,507.
7.16,8051.,40.,20.,1884.,0.,0.,9995.,0.84187993291,1.09444391278,520.
7.18,8036.,33.,20.,1902.,0.,0.,9991.,0.840647834734,1.32465719413,429.
7.2,8021.,30.,19.,1919.,0.,0.,9989.,0.839246681772,1.4546942484,390.
7.22,8003.,34.,10.,1937.,0.,0.,9984.,0.837782673185,1.28131467664,442.
7.24,7995.,28.,13.,1948.,0.,0.,9984.,0.836945204563,1.55432680847,364.
7.26,7979.,27.,16.,1957.,0.,0.,9979.,0.835688781331,1.60947468997,351.
7.28,7971.,30.,12.,1969.,0.,0.,9982.,0.834599986193,1.44663997607,390.
7.3,7968.,25.,14.,1975.,0.,0.,9982.,0.834285872536,1.73531461487,325.
7.32,7959.,24.,15.,1983.,0.,0.,9981.,0.833427024555,1.8057585532,312.
7.34,7955.,23.,7.,1996.,0.,0.,9981.,0.833008164384,1.88332280643,299.
7.36,7953.,20.,10.,2002.,0.,0.,9985.,0.832465114376,2.16440929738,260.
7.38,7943.,24.,6.,2011.,0.,0.,9984.,0.831501658517,1.80158692679,312.
7.4,7949.,16.,11.,2010.,0.,0.,9986.,0.831963100709,2.7038800773,208.
7.42,7949.,11.,12.,2014.,0.,0.,9986.,0.831963100709,3.93291647608,143.
7.44,7954.,12.,6.,2018.,0.,0.,9990.,0.832153085874,3.60599670545,156.
7.46,7949.,8.,9.,2021.,0.,0.,9987.,0.831879796103,5.40721867467,104.
7.48,7952.,6.,3.,2027.,0.,0.,9988.,0.83211043314,7.21162375388,78.
7.5,7954.,4.,2.,2028.,0.,0.,9988.,0.832319716448,10.8201563138,52.
7.52,7956.,1.,2.,2030.,0.,0.,9989.,0.832445655177,43.2871740692,13.
7.54,7955.,2.,1.,2032.,0.,0.,9990.,0.832257706579,21.638700371,26.
7.56,7960.,1.,3.,2029.,0.,0.,9993.,0.832530800853,43.2916016444,13.
7.58,7960.,2.,2.,2026.,0.,0.,9990.,0.832780810103,21.6523010627,26.
7.6,7964.,0.,2.,2024.,0.,0.,9990.,0.833199292922,inf,0.
7.62,7963.,1.,0.,2023.,0.,0.,9987.,0.833344925949,43.3339361493,13.
7.64,7965.,1.,0.,2017.,0.,0.,9983.,0.833888219686,43.3621874237,13.
7.66,7965.,2.,0.,2013.,0.,0.,9980.,0.834138887488,21.6876110747,26.
7.68,7970.,1.,1.,2007.,0.,0.,9979.,0.834746157063,43.4068001673,13.
7.7,7973.,1.,0.,2006.,0.,0.,9980.,0.834976691769,43.418787972,13.
7.72,7974.,2.,0.,2003.,0.,0.,9979.,0.835165101182,21.7142926307,26.
7.74,7979.,2.,1.,2000.,0.,0.,9982.,0.835437622611,21.7213781879,26.
7.76,7979.,2.,2.,1998.,0.,0.,9981.,0.835521325408,21.7235544606,26.
7.78,7984.,3.,1.,1993.,0.,0.,9981.,0.836044900622,14.4914449441,39.
7.8,7984.,4.,1.,1993.,0.,0.,9982.,0.835961145372,10.8674948898,52.
7.82,7994.,1.,4.,1984.,0.,0.,9983.,0.836924347542,43.5200660722,13.
7.84,7989.,6.,2.,1986.,0.,0.,9983.,0.836400877222,7.24880760259,78.
7.86,7992.,4.,3.,1985.,0.,0.,9984.,0.836631153829,10.8762049998,52.
7.88,7994.,8.,4.,1983.,0.,0.,9989.,0.836421639955,5.43674065971,104.
7.9,7990.,10.,9.,1980.,0.,0.,9989.,0.836003115242,4.34721619926,130.
7.92,7985.,16.,10.,1977.,0.,0.,9988.,0.835563607724,2.7155817251,208.
7.94,7975.,20.,4.,1985.,0.,0.,9984.,0.834851533007,2.17061398582,260.
7.96,7971.,14.,10.,1987.,0.,0.,9982.,0.834599986193,3.09994280586,182.
7.98,7967.,16.,12.,1987.,0.,0.,9982.,0.834181167984,2.71108879595,208.
8.,7960.,23.,10.,1991.,0.,0.,9984.,0.83328127934,1.88394028372,299.
8.02,7954.,27.,8.,1994.,0.,0.,9983.,0.832736584983,1.60378897848,351.
8.04,7950.,25.,9.,2003.,0.,0.,9987.,0.831984448234,1.73052765233,325.
8.06,7946.,23.,16.,2003.,0.,0.,9988.,0.831482583215,1.8798736664,299.
8.08,7942.,25.,13.,2008.,0.,0.,9988.,0.831064016599,1.72861315453,325.
8.1,7921.,34.,17.,2012.,0.,0.,9984.,0.829198619805,1.26818612441,442.
8.12,7910.,38.,21.,2018.,0.,0.,9987.,0.82779836296,1.13277670721,494.
8.14,7901.,40.,24.,2022.,0.,0.,9987.,0.826856493774,1.07491344191,520.
8.16,7886.,40.,17.,2043.,0.,0.,9986.,0.825369356169,1.07298016302,520.
8.18,7876.,42.,22.,2048.,0.,0.,9988.,0.824157667431,1.02038568349,546.
8.2,7864.,43.,20.,2063.,0.,0.,9990.,0.822737222443,0.994938036443,559.
8.22,7850.,37.,22.,2082.,0.,0.,9991.,0.821190331342,1.15410533053,481.
8.24,7841.,20.,20.,2113.,0.,0.,9994.,0.820002616857,2.13200680383,260.
8.26,7826.,31.,12.,2127.,0.,0.,9996.,0.818270182098,1.37258224094,403.
8.28,7824.,22.,22.,2130.,0.,0.,9998.,0.817897421342,1.93321208681,286.
8.3,7814.,19.,11.,2154.,0.,0.,9998.,0.816852051427,2.23559508812,247.
8.32,7810.,17.,13.,2158.,0.,0.,9998.,0.816433903461,2.49732723412,221.
8.34,7803.,22.,2.,2171.,0.,0.,9998.,0.815702144521,1.92802325069,286.
8.36,7804.,10.,9.,2172.,0.,0.,9995.,0.816051545949,4.24346803893,130.
8.38,7807.,11.,6.,2173.,0.,0.,9997.,0.816201929007,3.85840911894,143.
8.4,7809.,8.,4.,2176.,0.,0.,9997.,0.816411023903,5.30667165537,104.
8.42,7802.,10.,2.,2179.,0.,0.,9993.,0.816005691992,4.24322959836,130.
8.44,7804.,6.,6.,2175.,0.,0.,9991.,0.81637826061,7.07527825862,78.
8.46,7806.,7.,3.,2174.,0.,0.,9990.,0.816669221566,6.06668564592,91.
8.48,7812.,7.,0.,2172.,0.,0.,9991.,0.817215142477,6.0707410584,91.
8.5,7814.,3.,2.,2169.,0.,0.,9988.,0.817669884878,14.1729446712,39.
8.52,7813.,2.,1.,2169.,0.,0.,9985.,0.817810881254,21.2630829126,26.
8.54,7816.,2.,1.,2162.,0.,0.,9981.,0.818452773454,21.2797721098,26.
8.56,7818.,0.,2.,2158.,0.,0.,9978.,0.818908343709,inf,0.
8.58,7822.,0.,0.,2156.,0.,0.,9978.,0.819327329815,inf,0.
8.6,7829.,0.,0.,2151.,0.,0.,9980.,0.819896214707,inf,0.
8.62,7832.,0.,0.,2145.,0.,0.,9977.,0.82045702168,inf,0.
8.64,7838.,0.,0.,2141.,0.,0.,9979.,0.820921001137,inf,0.
8.66,7840.,0.,0.,2138.,0.,0.,9978.,0.821212767291,inf,0.
8.68,7844.,0.,0.,2132.,0.,0.,9976.,0.821796475079,inf,0.
8.7,7844.,1.,0.,2131.,0.,0.,9976.,0.821796475079,42.7334167041,13.
8.72,7851.,0.,1.,2125.,0.,0.,9977.,0.822447405159,inf,0.
8.74,7858.,0.,0.,2124.,0.,0.,9982.,0.822768371785,inf,0.
8.76,7864.,0.,0.,2120.,0.,0.,9984.,0.82323165587,inf,0.
8.78,7869.,1.,0.,2117.,0.,0.,9987.,0.823507625554,42.8223965288,13.
8.8,7876.,2.,0.,2113.,0.,0.,9991.,0.823910197407,21.4216651326,26.
8.82,7885.,0.,3.,2106.,0.,0.,9994.,0.824604085438,inf,0.
8.84,7885.,2.,3.,2104.,0.,0.,9994.,0.824604085438,21.4397062214,26.
8.86,7884.,10.,1.,2104.,0.,0.,9999.,0.824087215624,4.28525352124,130.
8.88,7880.,11.,5.,2102.,0.,0.,9998.,0.823751492865,3.89409796627,143.
8.9,7875.,11.,7.,2101.,0.,0.,9994.,0.823558297124,3.89318467731,143.
8.92,7870.,14.,5.,2104.,0.,0.,9993.,0.82311776416,3.05729455259,182.
8.94,7870.,14.,8.,2106.,0.,0.,9998.,0.82270612295,3.05576559953,182.
8.96,7860.,16.,11.,2109.,0.,0.,9996.,0.821825150945,2.67093174057,208.
8.98,7855.,19.,8.,2116.,0.,0.,9998.,0.821138068078,2.24732523895,247.
9.,7848.,18.,13.,2120.,0.,0.,9999.,0.820324260301,2.36982564087,234.
9.02,7839.,18.,13.,2127.,0.,0.,9997.,0.819547447353,2.36758151457,234.
9.04,7829.,20.,15.,2130.,0.,0.,9994.,0.81874767088,2.12874394429,260.
9.06,7820.,21.,14.,2138.,0.,0.,9993.,0.817888299331,2.02524721739,273.
9.08,7814.,27.,13.,2143.,0.,0.,9997.,0.816933761145,1.57335391035,351.
9.1,7812.,29.,13.,2143.,0.,0.,9997.,0.816724666248,1.46447181534,377.
9.12,7808.,31.,8.,2151.,0.,0.,9998.,0.816224829478,1.36915132687,403.
9.14,7800.,26.,12.,2160.,0.,0.,9998.,0.815388533546,1.63077706709,338.
9.16,7791.,33.,10.,2166.,0.,0.,10000.,0.814284811083,1.28311545989,429.
9.18,7782.,29.,18.,2172.,0.,0.,10001.,0.813262840042,1.45826440283,377.
9.2,7770.,29.,18.,2186.,0.,0.,10003.,0.811846419391,1.45572461408,377.
9.22,7758.,27.,21.,2198.,0.,0.,10004.,0.810511575678,1.56098525686,351.
9.24,7745.,25.,23.,2208.,0.,0.,10001.,0.809396131602,1.68354395373,325.
9.26,7739.,29.,14.,2217.,0.,0.,9999.,0.808930867797,1.45049672846,377.
9.28,7726.,30.,14.,2224.,0.,0.,9994.,0.807976051248,1.40049182216,390.
9.3,7714.,34.,13.,2233.,0.,0.,9994.,0.806721105272,1.23380874924,442.
9.32,7709.,30.,6.,2248.,0.,0.,9993.,0.806278887409,1.39755007151,390.
9.34,7710.,23.,7.,2254.,0.,0.,9994.,0.806302789946,1.82294543814,299.
9.36,7708.,22.,10.,2255.,0.,0.,9995.,0.806012982595,1.90512159523,286.
9.38,7699.,18.,9.,2265.,0.,0.,9991.,0.805394186115,2.32669431544,234.
9.4,7704.,13.,6.,2272.,0.,0.,9995.,0.805594709122,3.22237883649,169.
9.42,7706.,7.,11.,2275.,0.,0.,9999.,0.805481492085,5.98357679835,91.
9.44,7712.,8.,5.,2272.,0.,0.,9997.,0.806269921417,5.24075448921,104.
9.46,7714.,12.,2.,2273.,0.,0.,10001.,0.806156456963,3.49334464684,156.
9.48,7716.,8.,2.,2274.,0.,0.,10000.,0.806446104777,5.24189968105,104.
9.5,7715.,6.,4.,2273.,0.,0.,9998.,0.80650288927,6.98969170701,78.
9.52,7715.,5.,2.,2276.,0.,0.,9998.,0.80650288927,8.38763004841,65.
9.54,7721.,1.,3.,2274.,0.,0.,9999.,0.807049390136,41.9665682871,13.
9.56,7724.,0.,2.,2273.,0.,0.,9999.,0.807362969746,inf,0.
9.58,7724.,1.,0.,2271.,0.,0.,9996.,0.807605275559,41.9954743291,13.
9.6,7728.,1.,0.,2270.,0.,0.,9999.,0.807781075893,42.0046159464,13.
9.62,7734.,1.,0.,2265.,0.,0.,10000.,0.80832739429,42.0330245031,13.
9.64,7737.,0.,2.,2262.,0.,0.,10001.,0.808560086534,inf,0.
9.66,7741.,1.,0.,2259.,0.,0.,10001.,0.808978109068,42.0668616715,13.
9.68,7741.,0.,0.,2259.,0.,0.,10000.,0.809059006879,inf,0.
9.7,7745.,0.,0.,2257.,0.,0.,10002.,0.809315208173,inf,0.
9.72,7754.,1.,0.,2245.,0.,0.,10000.,0.810417715972,42.1417212305,13.
9.74,7762.,1.,1.,2240.,0.,0.,10004.,0.810929472855,42.1683325885,13.
9.76,7763.,1.,1.,2235.,0.,0.,10000.,0.811358360728,42.1906347579,13.
9.78,7769.,1.,2.,2229.,0.,0.,10001.,0.811904266806,42.2190218739,13.
9.8,7773.,3.,1.,2223.,0.,0.,10000.,0.812403521569,14.0816610405,39.
9.82,7774.,3.,3.,2215.,0.,0.,9995.,0.812914494901,14.0905179116,39.
9.84,7776.,5.,2.,2211.,0.,0.,9994.,0.813204992817,8.4573319253,65.
9.86,7780.,6.,3.,2206.,0.,0.,9995.,0.81354190511,7.05069651096,78.
9.88,7784.,6.,4.,2203.,0.,0.,9997.,0.813797337695,7.05291026003,78.
9.9,7786.,4.,8.,2200.,0.,0.,9998.,0.813925015665,10.5810252037,52.
9.92,7785.,7.,8.,2198.,0.,0.,9998.,0.813820478674,6.04552355586,91.
9.94,7786.,11.,8.,2191.,0.,0.,9996.,0.814087865809,3.84841536564,143.
9.96,7790.,15.,8.,2186.,0.,0.,9999.,0.814261721171,2.82277396673,195.
9.98,7785.,14.,7.,2189.,0.,0.,9995.,0.814064746952,3.02366906011,182.
10.,7785.,11.,5.,2192.,0.,0.,9993.,0.81422767395,3.84907627685,143.
