t,cases
5.01,3.055
5.02,3.055
5.03,2.99
5.04,2.99
5.05,2.99
5.06,2.99
5.07,3.38
5.08,3.38
5.09,3.25
5.1,3.25
5.11,3.12
5.12,3.12
5.13,3.705
5.14,3.705
5.15,4.03
5.16,4.03
5.17,4.16
5.18,4.16
5.19,4.615
5.2,4.615
5.21,4.68
5.22,4.68
5.23,3.965
5.24,3.965
5.25,3.315
5.26,3.315
5.27,3.055
5.28,3.055
5.29,2.47
5.3,2.47
5.31,2.405
5.32,2.405
5.33,2.795
5.34,2.795
5.35,2.47
5.36,2.47
5.37,2.015
5.38,2.015
5.39,1.69
5.4,1.69
5.41,1.625
5.42,1.625
5.43,1.69
5.44,1.69
5.45,1.69
5.46,1.69
5.47,1.235
5.48,1.235
5.49,0.975
5.5,0.975
5.51,1.17
5.52,1.17
5.53,0.845
5.54,0.845
5.55,0.455
5.56,0.455
5.57,0.26
5.58,0.26
5.59,0.13
5.6,0.13
5.61,0.065
5.62,0.065
5.63,0.065
5.64,0.065
5.65,0.13
5.66,0.13
5.67,0.065
5.68,0.065
5.69,0.065
5.7,0.065
5.71,0.13
5.72,0.13
5.73,0.065
5.74,0.065
5.75,0.065
5.76,0.065
5.77,0.13
5.78,0.13
5.79,0.13
5.8,0.13
5.81,0.195
5.82,0.195
5.83,0.195
5.84,0.195
5.85,0.26
5.86,0.26
5.87,0.52
5.88,0.52
5.89,0.845
5.9,0.845
5.91,1.04
5.92,1.04
5.93,1.3
5.94,1.3
5.95,1.625
5.96,1.625
5.97,2.08
5.98,2.08
5.99,2.275
6.,2.275
6.01,2.015
6.02,2.015
6.03,2.275
6.04,2.275
6.05,2.6
6.06,2.6
6.07,2.665
6.08,2.665
6.09,3.445
6.1,3.445
6.11,4.225
6.12,4.225
6.13,4.355
6.14,4.355
6.15,4.55
6.16,4.55
6.17,4.745
6.18,4.745
6.19,4.68
6.2,4.68
6.21,4.68
6.22,4.68
6.23,4.355
6.24,4.355
6.25,3.77
6.26,3.77
6.27,3.64
6.28,3.64
6.29,3.315
6.3,3.315
6.31,3.445
6.32,3.445
6.33,3.51
6.34,3.51
6.35,2.405
6.36,2.405
6.37,1.82
6.38,1.82
6.39,1.43
6.4,1.43
6.41,1.04
6.42,1.04
6.43,1.17
6.44,1.17
6.45,1.17
6.46,1.17
6.47,1.105
6.48,1.105
6.49,0.975
6.5,0.975
6.51,0.975
6.52,0.975
6.53,0.78
6.54,0.78
6.55,0.325
6.56,0.325
6.57,0.13
6.58,0.13
6.59,0.065
6.6,0.065
6.61,0.
6.62,0.
6.63,0.
6.64,0.
6.65,0.
6.66,0.
6.67,0.065
6.68,0.065
6.69,0.13
6.7,0.13
6.71,0.065
6.72,0.065
6.73,0.13
6.74,0.13
6.75,0.13
6.76,0.13
6.77,0.13
6.78,0.13
6.79,0.325
6.8,0.325
6.81,0.455
6.82,0.455
6.83,0.455
6.84,0.455
6.85,0.52
6.86,0.52
6.87,0.715
6.88,0.715
6.89,0.715
6.9,0.715
6.91,1.3
6.92,1.3
6.93,1.625
6.94,1.625
6.95,1.495
6.96,1.495
6.97,2.015
6.98,2.015
6.99,2.145
7.,2.145
7.01,2.015
7.02,2.015
7.03,2.34
7.04,2.34
7.05,2.925
7.06,2.925
7.07,2.99
7.08,2.99
7.09,3.445
7.1,3.445
7.11,3.9
7.12,3.9
7.13,3.77
7.14,3.77
7.15,3.575
7.16,3.575
7.17,3.575
7.18,3.575
7.19,3.965
7.2,3.965
7.21,3.575
7.22,3.575
7.23,3.575
7.24,3.575
7.25,4.03
7.26,4.03
7.27,3.38
7.28,3.38
7.29,3.12
7.3,3.12
7.31,3.38
7.32,3.38
7.33,2.73
7.34,2.73
7.35,2.535
7.36,2.535
7.37,2.47
7.38,2.47
7.39,2.405
7.4,2.405
7.41,2.34
7.42,2.34
7.43,1.69
7.44,1.69
7.45,1.56
7.46,1.56
7.47,1.755
7.48,1.755
7.49,1.495
7.5,1.495
7.51,0.91
7.52,0.91
7.53,0.585
7.54,0.585
7.55,0.325
7.56,0.325
7.57,0.13
7.58,0.13
7.59,0.065
7.6,0.065
7.61,0.065
7.62,0.065
7.63,0.13
7.64,0.13
7.65,0.13
7.66,0.13
7.67,0.13
7.68,0.13
7.69,0.13
7.7,0.13
7.71,0.26
7.72,0.26
7.73,0.325
7.74,0.325
7.75,0.26
7.76,0.26
7.77,0.455
7.78,0.455
7.79,0.52
7.8,0.52
7.81,0.455
7.82,0.455
7.83,0.455
7.84,0.455
7.85,0.455
7.86,0.455
7.87,0.91
7.88,0.91
7.89,1.56
7.9,1.56
7.91,1.495
7.92,1.495
7.93,1.495
7.94,1.495
7.95,1.69
7.96,1.69
7.97,1.82
7.98,1.82
7.99,2.275
8.,2.275
8.01,1.885
8.02,1.885
8.03,2.145
8.04,2.145
8.05,2.99
8.06,2.99
8.07,3.185
8.08,3.185
8.09,3.705
8.1,3.705
8.11,4.355
8.12,4.355
8.13,4.55
8.14,4.55
8.15,4.55
8.16,4.55
8.17,4.745
8.18,4.745
8.19,3.965
8.2,3.965
8.21,3.25
8.22,3.25
8.23,3.51
8.24,3.51
8.25,3.51
8.26,3.51
8.27,3.965
8.28,3.965
8.29,4.095
8.3,4.095
8.31,3.64
8.32,3.64
8.33,3.64
8.34,3.64
8.35,3.315
8.36,3.315
8.37,2.665
8.38,2.665
8.39,2.145
8.4,2.145
8.41,1.69
8.42,1.69
8.43,1.235
8.44,1.235
8.45,1.04
8.46,1.04
8.47,0.78
8.48,0.78
8.49,0.39
8.5,0.39
8.51,0.39
8.52,0.39
8.53,0.39
8.54,0.39
8.55,0.195
8.56,0.195
8.57,0.13
8.58,0.13
8.59,0.195
8.6,0.195
8.61,0.26
8.62,0.26
8.63,0.195
8.64,0.195
8.65,0.26
8.66,0.26
8.67,0.325
8.68,0.325
8.69,0.26
8.7,0.26
8.71,0.26
8.72,0.26
8.73,0.195
8.74,0.195
8.75,0.195
8.76,0.195
8.77,0.325
8.78,0.325
8.79,0.325
8.8,0.325
8.81,0.455
8.82,0.455
8.83,0.715
8.84,0.715
8.85,0.975
8.86,0.975
8.87,1.105
8.88,1.105
8.89,1.17
8.9,1.17
8.91,1.105
8.92,1.105
8.93,0.91
8.94,0.91
8.95,1.3
8.96,1.3
8.97,1.43
8.98,1.43
8.99,1.82
9.,1.82
9.01,2.665
9.02,2.665
9.03,2.795
9.04,2.795
9.05,2.665
9.06,2.665
9.07,2.925
9.08,2.925
9.09,3.185
9.1,3.185
9.11,2.925
9.12,2.925
9.13,3.315
9.14,3.315
9.15,3.705
9.16,3.705
9.17,3.77
9.18,3.77
9.19,3.705
9.2,3.705
9.21,3.64
9.22,3.64
9.23,3.51
9.24,3.51
9.25,2.99
9.26,2.99
9.27,3.185
9.28,3.185
9.29,3.445
9.3,3.445
9.31,3.51
9.32,3.51
9.33,2.86
9.34,2.86
9.35,2.405
9.36,2.405
9.37,2.47
9.38,2.47
9.39,2.08
9.4,2.08
9.41,1.43
9.42,1.43
9.43,0.91
9.44,0.91
9.45,0.975
9.46,0.975
9.47,0.975
9.48,0.975
9.49,0.975
9.5,0.975
9.51,0.715
9.52,0.715
9.53,0.455
9.54,0.455
9.55,0.455
9.56,0.455
9.57,0.39
9.58,0.39
9.59,0.39
9.6,0.39
9.61,0.325
9.62,0.325
9.63,0.195
9.64,0.195
9.65,0.0650000000001
9.66,0.0649999999999
9.67,0.0649999999999
9.68,0.0650000000001
9.69,0.0650000000001
9.7,0.0649999999999
9.71,0.
9.72,0.
9.73,0.
9.74,0.
9.75,0.
9.76,0.
9.77,0.
9.78,0.
9.79,0.0649999999999
9.8,0.0650000000001
9.81,0.195
9.82,0.195
9.83,0.455
9.84,0.455
9.85,0.65
9.86,0.65
9.87,0.715
9.88,0.715
9.89,0.78
9.9,0.78
9.91,1.235
9.92,1.235
9.93,1.625
9.94,1.625
9.95,1.365
9.96,1.365
9.97,1.495
9.98,1.495
9.99,1.625
10.,1.625
