t,s,e,i,r,c,o,n,reff,coal,reportr
5.,9561.,1.,28.,411.,0.,0.,10001.,0.94966713169,49.3826908479,13.
5.02,9532.,19.,15.,430.,0.,0.,9996.,0.947260226335,2.59250167207,247.
5.04,9510.,25.,14.,443.,0.,0.,9992.,0.945452267662,1.96654071674,325.
5.06,9502.,16.,20.,453.,0.,0.,9991.,0.944751485314,3.07044232727,208.
5.08,9485.,25.,12.,470.,0.,0.,9992.,0.942966851606,1.96137105134,325.
5.1,9470.,28.,12.,481.,0.,0.,9991.,0.941569834342,1.74862969235,364.
5.12,9462.,26.,17.,486.,0.,0.,9991.,0.940774421599,1.8815488432,338.
5.14,9448.,24.,14.,503.,0.,0.,9989.,0.939570532681,2.03573615414,312.
5.16,9433.,30.,8.,518.,0.,0.,9989.,0.93807883518,1.62600331431,390.
5.18,9413.,33.,15.,528.,0.,0.,9989.,0.936089905178,1.47505075967,429.
5.2,9405.,23.,19.,544.,0.,0.,9991.,0.935107105807,2.11415519574,299.
5.22,9387.,33.,9.,558.,0.,0.,9987.,0.933691240063,1.47127104495,429.
5.24,9376.,32.,12.,568.,0.,0.,9988.,0.932503737738,1.51531857382,416.
5.26,9364.,33.,11.,581.,0.,0.,9989.,0.931217026675,1.46737228446,429.
5.28,9357.,27.,12.,594.,0.,0.,9990.,0.930427755939,1.79193493736,351.
5.3,9343.,24.,18.,602.,0.,0.,9987.,0.929314717791,2.01351522188,312.
5.32,9329.,20.,14.,621.,0.,0.,9984.,0.92820101075,2.41332262795,260.
5.34,9325.,19.,7.,634.,0.,0.,9985.,0.927710105856,2.53899607919,247.
5.36,9316.,23.,11.,637.,0.,0.,9987.,0.926629124579,2.09498758601,299.
5.38,9314.,17.,9.,648.,0.,0.,9988.,0.926337437424,2.83350274977,221.
5.4,9308.,10.,5.,664.,0.,0.,9987.,0.925833393257,4.81433364494,130.
5.42,9301.,8.,8.,667.,0.,0.,9984.,0.925415114266,6.01519824273,104.
5.44,9294.,10.,3.,674.,0.,0.,9981.,0.92499658383,4.80998223592,130.
5.46,9294.,7.,5.,675.,0.,0.,9981.,0.92499658383,6.87140319417,91.
5.48,9291.,11.,1.,679.,0.,0.,9982.,0.924605368658,4.37086174275,143.
5.5,9286.,8.,4.,683.,0.,0.,9981.,0.92420037416,6.00730243204,104.
5.52,9288.,5.,1.,690.,0.,0.,9984.,0.924121662327,9.6108652882,65.
5.54,9290.,4.,0.,692.,0.,0.,9986.,0.92413553163,12.0137619112,52.
5.56,9293.,4.,1.,689.,0.,0.,9987.,0.924341397028,12.0164381614,52.
5.58,9287.,4.,2.,689.,0.,0.,9982.,0.924207303705,12.0146949482,52.
5.6,9282.,4.,3.,691.,0.,0.,9980.,0.923894834683,12.0106328509,52.
5.62,9276.,4.,2.,696.,0.,0.,9978.,0.923482684266,12.0052748955,52.
5.64,9274.,2.,2.,699.,0.,0.,9977.,0.923376113203,24.0077789433,26.
5.66,9270.,5.,1.,698.,0.,0.,9974.,0.923255463913,9.6018568247,65.
5.68,9271.,5.,0.,700.,0.,0.,9976.,0.923169944683,9.6009674247,65.
5.7,9274.,2.,3.,699.,0.,0.,9978.,0.923283572001,24.005372872,26.
5.72,9278.,0.,3.,699.,0.,0.,9980.,0.923496689958,inf,0.
5.74,9271.,2.,2.,701.,0.,0.,9976.,0.923169944683,24.0024185618,26.
5.76,9272.,1.,2.,701.,0.,0.,9976.,0.923269520775,48.0100150803,13.
5.78,9268.,3.,2.,699.,0.,0.,9972.,0.923241401413,16.0028509578,39.
5.8,9270.,2.,5.,697.,0.,0.,9974.,0.923255463913,24.0046420617,26.
5.82,9269.,5.,1.,700.,0.,0.,9975.,0.9230633209,9.59985853736,65.
5.84,9273.,3.,2.,700.,0.,0.,9978.,0.923184015869,16.0018562751,39.
5.86,9265.,8.,3.,701.,0.,0.,9977.,0.922480018204,5.99612011833,104.
5.88,9261.,7.,3.,706.,0.,0.,9977.,0.92208175376,6.84975017079,91.
5.9,9262.,8.,4.,703.,0.,0.,9977.,0.922181319871,5.99417857916,104.
5.92,9253.,5.,9.,707.,0.,0.,9974.,0.921562330916,9.58424824152,65.
5.94,9250.,12.,5.,711.,0.,0.,9978.,0.920894224823,3.9905416409,156.
5.96,9247.,12.,3.,717.,0.,0.,9979.,0.920503303138,3.98884764693,156.
5.98,9238.,7.,10.,720.,0.,0.,9975.,0.919976152603,6.83410856219,91.
6.,9230.,17.,8.,722.,0.,0.,9977.,0.91899520432,2.81104415439,221.
6.02,9220.,18.,9.,732.,0.,0.,9979.,0.91781555693,2.65146716447,234.
6.04,9212.,21.,3.,742.,0.,0.,9978.,0.917111091791,2.2709417511,273.
6.06,9208.,21.,9.,743.,0.,0.,9981.,0.91643732988,2.26927338828,273.
6.08,9194.,29.,9.,749.,0.,0.,9981.,0.915043962958,1.6407684853,377.
6.1,9191.,29.,9.,757.,0.,0.,9986.,0.914287370421,1.63941183662,377.
6.12,9182.,26.,7.,768.,0.,0.,9983.,0.913666567286,1.82733313457,338.
6.14,9170.,25.,9.,774.,0.,0.,9978.,0.91292973423,1.8988938472,325.
6.16,9148.,32.,11.,784.,0.,0.,9975.,0.911013405933,1.48039678464,416.
6.18,9126.,34.,16.,796.,0.,0.,9972.,0.909095924611,1.39038200235,442.
6.2,9108.,33.,18.,810.,0.,0.,9969.,0.907575873269,1.43011955788,429.
6.22,9082.,42.,11.,829.,0.,0.,9964.,0.905439204365,1.12101996731,546.
6.24,9069.,31.,24.,839.,0.,0.,9963.,0.904233906267,1.51677945567,403.
6.26,9048.,34.,12.,868.,0.,0.,9962.,0.90223063795,1.37988215216,442.
6.28,9038.,29.,8.,889.,0.,0.,9964.,0.901052579724,1.61568048778,377.
6.3,9022.,29.,12.,893.,0.,0.,9956.,0.900180189528,1.61411620191,377.
6.32,9012.,22.,12.,909.,0.,0.,9955.,0.899272752993,2.1255537798,286.
6.34,9003.,31.,11.,914.,0.,0.,9959.,0.898013848403,1.50634581022,403.
6.36,9001.,24.,13.,921.,0.,0.,9959.,0.897814356268,1.94526443858,312.
6.38,8992.,18.,11.,933.,0.,0.,9954.,0.89736717242,2.59239405366,234.
6.4,8989.,18.,2.,943.,0.,0.,9952.,0.897248062801,2.5920499592,234.
6.42,8992.,12.,3.,948.,0.,0.,9955.,0.897277030062,3.8882004636,156.
6.44,8990.,14.,2.,948.,0.,0.,9954.,0.897167580077,3.332336726,182.
6.46,8991.,9.,0.,957.,0.,0.,9957.,0.896997033562,5.18264952725,117.
6.48,8993.,6.,3.,953.,0.,0.,9955.,0.897376816208,7.77726574047,78.
6.5,8994.,6.,4.,952.,0.,0.,9956.,0.89738645806,7.77734930319,78.
6.52,8992.,9.,3.,954.,0.,0.,9958.,0.897006711615,5.18270544489,117.
6.54,8994.,9.,2.,954.,0.,0.,9959.,0.897116133793,5.18333766191,117.
6.56,8994.,4.,4.,956.,0.,0.,9958.,0.897206223784,11.6636809092,52.
6.58,8994.,7.,2.,958.,0.,0.,9961.,0.896936008076,6.66295320285,91.
6.6,8996.,4.,2.,961.,0.,0.,9963.,0.896955366719,11.6604197673,52.
6.62,8995.,4.,0.,964.,0.,0.,9963.,0.896855660698,11.6591235891,52.
6.64,8996.,0.,1.,964.,0.,0.,9961.,0.897135460157,inf,0.
6.66,8999.,1.,0.,962.,0.,0.,9962.,0.897344552488,46.6619167294,13.
6.68,8997.,1.,1.,960.,0.,0.,9959.,0.897415371996,46.6655993438,13.
6.7,9001.,2.,0.,959.,0.,0.,9962.,0.897543984548,23.3361435983,26.
6.72,9004.,2.,1.,955.,0.,0.,9962.,0.897843132638,23.3439214486,26.
6.74,9006.,2.,1.,955.,0.,0.,9964.,0.897862307258,23.3444199887,26.
6.76,9010.,2.,0.,954.,0.,0.,9966.,0.898080826196,23.3501014811,26.
6.78,9009.,3.,1.,953.,0.,0.,9966.,0.897981150189,15.5650066033,39.
6.8,9007.,7.,1.,953.,0.,0.,9968.,0.89760166539,6.66789808575,91.
6.82,9010.,4.,3.,952.,0.,0.,9969.,0.897810564136,11.6715373338,52.
6.84,9006.,9.,4.,949.,0.,0.,9968.,0.897502009381,5.18556716531,117.
6.86,9000.,8.,5.,952.,0.,0.,9965.,0.897174089612,5.83163158247,104.
6.88,8999.,13.,2.,952.,0.,0.,9966.,0.896984390115,3.58793756046,169.
6.9,8998.,14.,2.,953.,0.,0.,9967.,0.896794728685,3.3309518494,182.
6.92,8994.,16.,3.,954.,0.,0.,9967.,0.896396064658,2.91328721014,208.
6.94,8991.,17.,3.,957.,0.,0.,9968.,0.896007169259,2.74072781185,221.
6.96,8981.,20.,2.,962.,0.,0.,9965.,0.895280055422,2.3277281441,260.
6.98,8973.,17.,5.,967.,0.,0.,9962.,0.894751935713,2.73688827394,221.
7.,8967.,18.,4.,973.,0.,0.,9962.,0.894153639534,2.58311051421,234.
7.02,8964.,17.,6.,974.,0.,0.,9961.,0.893944226861,2.73441763511,221.
7.04,8962.,19.,5.,977.,0.,0.,9963.,0.893565361998,2.44554730652,247.
7.06,8953.,20.,11.,978.,0.,0.,9962.,0.892757615116,2.3211697993,260.
7.08,8945.,20.,17.,982.,0.,0.,9964.,0.891780850369,2.31863021096,260.
7.1,8922.,30.,17.,994.,0.,0.,9963.,0.88957712115,1.54193367666,390.
7.12,8910.,28.,19.,1008.,0.,0.,9965.,0.888202348715,1.64951864761,364.
7.14,8898.,27.,16.,1024.,0.,0.,9965.,0.887006116596,1.70830807641,351.
7.16,8879.,30.,15.,1040.,0.,0.,9964.,0.885200913407,1.5343482499,390.
7.18,8857.,33.,16.,1052.,0.,0.,9958.,0.883539640211,1.39224428154,429.
7.2,8842.,31.,14.,1072.,0.,0.,9959.,0.881954731487,1.47940793669,403.
7.22,8832.,34.,8.,1088.,0.,0.,9962.,0.880691975506,1.34694066842,442.
7.24,8821.,30.,10.,1100.,0.,0.,9961.,0.879683403073,1.52478456533,390.
7.26,8815.,26.,9.,1115.,0.,0.,9965.,0.87873217777,1.75746435554,338.
7.28,8811.,22.,6.,1125.,0.,0.,9964.,0.878421584416,2.07626919953,286.
7.3,8799.,22.,10.,1133.,0.,0.,9964.,0.877225232241,2.07344145802,286.
7.32,8792.,22.,15.,1136.,0.,0.,9965.,0.876439399541,2.07158403528,286.
7.34,8789.,18.,6.,1156.,0.,0.,9969.,0.875788795582,2.53005652057,234.
7.36,8782.,12.,11.,1160.,0.,0.,9965.,0.875442539441,3.79358433758,156.
7.38,8778.,11.,11.,1167.,0.,0.,9967.,0.874868207201,4.13574061586,143.
7.4,8773.,9.,10.,1173.,0.,0.,9965.,0.874545365351,5.05292877759,117.
7.42,8762.,10.,7.,1182.,0.,0.,9961.,0.873799566685,4.54375774676,130.
7.44,8762.,9.,4.,1186.,0.,0.,9961.,0.873799566685,5.04861971862,117.
7.46,8762.,8.,6.,1186.,0.,0.,9962.,0.873711853417,5.67912704721,104.
7.48,8761.,7.,1.,1192.,0.,0.,9961.,0.873699840644,6.49034167336,91.
7.5,8762.,6.,0.,1192.,0.,0.,9960.,0.873887297565,7.57368991223,78.
7.52,8760.,3.,4.,1191.,0.,0.,9958.,0.873863300017,15.146963867,39.
7.54,8760.,2.,2.,1193.,0.,0.,9957.,0.873951063731,22.722727657,26.
7.56,8762.,3.,2.,1193.,0.,0.,9960.,0.873887297565,15.1473798245,39.
7.58,8762.,4.,1.,1195.,0.,0.,9962.,0.873711853417,11.3582540944,52.
7.6,8761.,5.,1.,1194.,0.,0.,9961.,0.873699840644,9.0864783427,65.
7.62,8764.,3.,1.,1192.,0.,0.,9960.,0.874086769671,15.150837341,39.
7.64,8766.,3.,1.,1187.,0.,0.,9957.,0.87454966035,15.1588607794,39.
7.66,8772.,1.,0.,1186.,0.,0.,9959.,0.874972506741,45.4985703505,13.
7.68,8775.,0.,1.,1185.,0.,0.,9961.,0.875096005211,inf,0.
7.7,8781.,0.,3.,1179.,0.,0.,9963.,0.875518572161,inf,0.
7.72,8783.,0.,0.,1178.,0.,0.,9961.,0.875893813535,inf,0.
7.74,8783.,1.,0.,1176.,0.,0.,9960.,0.875981754681,45.5510512434,13.
7.76,8781.,2.,1.,1176.,0.,0.,9960.,0.875782282574,22.7703393469,26.
7.78,8780.,2.,1.,1176.,0.,0.,9959.,0.875770475284,22.7700323574,26.
7.8,8778.,3.,2.,1177.,0.,0.,9960.,0.875483074415,15.1750399565,39.
7.82,8776.,3.,4.,1175.,0.,0.,9958.,0.875459397368,15.1746295544,39.
7.84,8769.,6.,4.,1177.,0.,0.,9956.,0.87493683019,7.58278586164,78.
7.86,8765.,8.,4.,1178.,0.,0.,9955.,0.874625574788,5.68506623612,104.
7.88,8764.,6.,6.,1179.,0.,0.,9955.,0.874525788641,7.57922350156,78.
7.9,8760.,8.,7.,1179.,0.,0.,9954.,0.874214460676,5.68239399439,104.
7.92,8757.,12.,4.,1181.,0.,0.,9954.,0.873915072162,3.7869653127,156.
7.94,8756.,10.,7.,1180.,0.,0.,9953.,0.873903070151,4.54429596478,130.
7.96,8752.,11.,5.,1180.,0.,0.,9948.,0.873942880263,4.13136634306,143.
7.98,8753.,11.,4.,1184.,0.,0.,9952.,0.873691433274,4.13017768457,143.
8.,8751.,16.,4.,1183.,0.,0.,9954.,0.873316295134,2.83827795919,208.
8.02,8747.,12.,8.,1185.,0.,0.,9952.,0.873092535913,3.78340098896,156.
8.04,8746.,15.,9.,1184.,0.,0.,9954.,0.872817314277,3.02576668949,195.
8.06,8737.,16.,12.,1189.,0.,0.,9954.,0.871919148736,2.83373723339,208.
8.08,8718.,25.,15.,1197.,0.,0.,9955.,0.869935625898,1.80946610187,325.
8.1,8701.,32.,14.,1209.,0.,0.,9956.,0.868152053767,1.41074708737,416.
8.12,8686.,34.,14.,1221.,0.,0.,9955.,0.866742469208,1.32560612938,442.
8.14,8670.,30.,20.,1235.,0.,0.,9955.,0.865145890863,1.49958621083,390.
8.16,8649.,32.,19.,1252.,0.,0.,9952.,0.863310545686,1.40287963674,416.
8.18,8629.,33.,20.,1268.,0.,0.,9950.,0.861487349636,1.35749521761,429.
8.2,8613.,39.,15.,1282.,0.,0.,9949.,0.859976398779,1.14663519837,507.
8.22,8604.,34.,15.,1297.,0.,0.,9950.,0.858991442377,1.31375161775,442.
8.24,8598.,29.,11.,1314.,0.,0.,9952.,0.858219918118,1.53887709456,377.
8.26,8589.,24.,6.,1334.,0.,0.,9953.,0.857235435076,1.85734344266,312.
8.28,8589.,23.,5.,1336.,0.,0.,9953.,0.857235435076,1.93809750539,299.
8.3,8584.,20.,9.,1336.,0.,0.,9949.,0.857080855349,2.22841022391,260.
8.32,8577.,19.,12.,1341.,0.,0.,9949.,0.856381931072,2.34378212715,247.
8.34,8580.,19.,4.,1346.,0.,0.,9949.,0.856681470048,2.34460191803,247.
8.36,8581.,11.,10.,1346.,0.,0.,9948.,0.85686744236,4.05064609116,143.
8.38,8574.,9.,14.,1347.,0.,0.,9944.,0.856512843823,4.94874087542,117.
8.4,8568.,12.,7.,1355.,0.,0.,9942.,0.85608564599,3.70970446596,156.
8.42,8569.,10.,6.,1355.,0.,0.,9940.,0.856357833353,4.45306073343,130.
8.44,8566.,14.,4.,1357.,0.,0.,9941.,0.855971909291,3.17932423451,182.
8.46,8570.,7.,7.,1360.,0.,0.,9944.,0.856113257705,6.35969848581,91.
8.48,8566.,11.,2.,1363.,0.,0.,9942.,0.85588581274,4.04600566022,143.
8.5,8567.,7.,2.,1366.,0.,0.,9942.,0.855985729365,6.35875113243,91.
8.52,8570.,4.,3.,1366.,0.,0.,9943.,0.856199359812,11.1305916776,52.
8.54,8568.,1.,4.,1370.,0.,0.,9943.,0.85599954666,44.5119764263,13.
8.56,8566.,1.,1.,1373.,0.,0.,9941.,0.855971909291,44.5105392831,13.
8.58,8566.,1.,2.,1373.,0.,0.,9942.,0.85588581274,44.5060622625,13.
8.6,8571.,1.,1.,1372.,0.,0.,9945.,0.856127059397,44.5186070886,13.
8.62,8573.,3.,1.,1370.,0.,0.,9947.,0.856154654457,14.8400140106,39.
8.64,8576.,3.,1.,1370.,0.,0.,9950.,0.856196026246,14.8407311216,39.
8.66,8578.,1.,0.,1371.,0.,0.,9950.,0.856395698827,44.532576339,13.
8.68,8580.,1.,0.,1370.,0.,0.,9951.,0.856509290072,44.5384830837,13.
8.7,8581.,1.,0.,1368.,0.,0.,9950.,0.856695207698,44.5481508003,13.
8.72,8591.,1.,0.,1362.,0.,0.,9954.,0.857348907724,44.5821432017,13.
8.74,8590.,0.,2.,1362.,0.,0.,9954.,0.857249111553,inf,0.
8.76,8592.,2.,1.,1358.,0.,0.,9953.,0.85753485367,22.2959061954,26.
8.78,8589.,0.,3.,1358.,0.,0.,9950.,0.857493898021,inf,0.
8.8,8589.,4.,1.,1358.,0.,0.,9952.,0.857321572077,11.145180437,52.
8.82,8594.,3.,2.,1356.,0.,0.,9955.,0.857562143722,14.8644104912,39.
8.84,8596.,5.,2.,1355.,0.,0.,9958.,0.857503302162,8.91803434249,65.
8.86,8597.,7.,2.,1352.,0.,0.,9958.,0.857603058247,6.37076557555,91.
8.88,8595.,5.,5.,1350.,0.,0.,9955.,0.857661929869,8.91968407064,65.
8.9,8592.,10.,7.,1346.,0.,0.,9955.,0.857362571429,4.45828537143,130.
8.92,8596.,9.,5.,1348.,0.,0.,9958.,0.857503302162,4.95446352361,117.
8.94,8584.,15.,6.,1350.,0.,0.,9955.,0.856564282256,2.96942284516,195.
8.96,8583.,12.,9.,1350.,0.,0.,9954.,0.856550538354,3.71171899953,156.
8.98,8575.,16.,7.,1356.,0.,0.,9954.,0.855752168983,2.7811945492,208.
9.,8572.,17.,13.,1356.,0.,0.,9958.,0.855109156135,2.615628007,221.
9.02,8557.,22.,18.,1362.,0.,0.,9959.,0.853527102164,2.01742769602,286.
9.04,8551.,23.,11.,1377.,0.,0.,9962.,0.852671771122,1.92777965645,299.
9.06,8538.,26.,14.,1384.,0.,0.,9962.,0.851375462734,1.70275092547,338.
9.08,8522.,32.,12.,1393.,0.,0.,9959.,0.850035989791,1.38130848341,416.
9.1,8512.,35.,12.,1399.,0.,0.,9958.,0.849123791066,1.26155534673,455.
9.12,8499.,30.,21.,1409.,0.,0.,9959.,0.847741830232,1.4694191724,390.
9.14,8487.,30.,16.,1426.,0.,0.,9959.,0.846544877418,1.46734445419,390.
9.16,8464.,36.,22.,1435.,0.,0.,9957.,0.844420297194,1.21971820706,468.
9.18,8453.,34.,15.,1456.,0.,0.,9958.,0.843238182082,1.28965839613,442.
9.2,8437.,38.,13.,1468.,0.,0.,9956.,0.841811157066,1.15195210967,494.
9.22,8432.,36.,10.,1482.,0.,0.,9960.,0.84097440003,1.21474080004,468.
9.24,8426.,31.,14.,1492.,0.,0.,9963.,0.840122934635,1.409238471,403.
9.26,8426.,22.,18.,1500.,0.,0.,9966.,0.839870037906,1.98514736232,286.
9.28,8415.,25.,18.,1510.,0.,0.,9968.,0.838605308566,1.74429904182,325.
9.3,8401.,28.,16.,1520.,0.,0.,9965.,0.837462169647,1.55528688649,364.
9.32,8386.,24.,8.,1541.,0.,0.,9959.,0.836470524571,1.81235280324,312.
9.34,8383.,15.,9.,1552.,0.,0.,9959.,0.836171286367,2.89872712607,195.
9.36,8377.,17.,11.,1552.,0.,0.,9957.,0.835740646218,2.55638315314,221.
9.38,8371.,17.,12.,1558.,0.,0.,9958.,0.835058183155,2.55429561906,221.
9.4,8367.,20.,8.,1563.,0.,0.,9958.,0.834659158817,2.17011381292,260.
9.42,8367.,12.,11.,1570.,0.,0.,9960.,0.834491556577,3.6161300785,156.
9.44,8362.,13.,6.,1581.,0.,0.,9962.,0.833825441483,3.33530176593,169.
9.46,8364.,11.,2.,1587.,0.,0.,9964.,0.833857465901,3.94187165699,143.
9.48,8366.,3.,7.,1589.,0.,0.,9965.,0.833973159299,14.4555347612,39.
9.5,8368.,5.,4.,1588.,0.,0.,9965.,0.834172531319,8.67539432572,65.
9.52,8372.,3.,2.,1589.,0.,0.,9966.,0.834487533509,14.4644505808,39.
9.54,8370.,3.,3.,1590.,0.,0.,9966.,0.834288181494,14.4609951459,39.
9.56,8379.,0.,3.,1588.,0.,0.,9970.,0.834850186216,inf,0.
9.58,8386.,0.,3.,1579.,0.,0.,9968.,0.83571528433,inf,0.
9.6,8389.,0.,0.,1580.,0.,0.,9969.,0.835930390959,inf,0.
9.62,8395.,0.,2.,1574.,0.,0.,9971.,0.836360474777,inf,0.
9.64,8397.,2.,0.,1575.,0.,0.,9974.,0.83630810469,21.7440107219,26.
9.66,8398.,2.,1.,1572.,0.,0.,9973.,0.83649156796,21.748780767,26.
9.68,8402.,0.,0.,1572.,0.,0.,9974.,0.836806084983,inf,0.
9.7,8402.,0.,0.,1571.,0.,0.,9973.,0.836889992141,inf,0.
9.72,8409.,0.,0.,1568.,0.,0.,9977.,0.837251427208,inf,0.
9.74,8412.,0.,0.,1565.,0.,0.,9977.,0.837550125541,inf,0.
9.76,8410.,0.,0.,1562.,0.,0.,9972.,0.837770844398,inf,0.
9.78,8410.,0.,0.,1559.,0.,0.,9969.,0.838022957201,inf,0.
9.8,8417.,0.,0.,1553.,0.,0.,9970.,0.838636354861,inf,0.
9.82,8422.,0.,0.,1546.,0.,0.,9968.,0.839302900623,inf,0.
9.84,8423.,2.,1.,1540.,0.,0.,9966.,0.839571009884,21.828846257,26.
9.86,8423.,4.,1.,1535.,0.,0.,9963.,0.839823816571,10.9177096154,52.
9.88,8423.,6.,2.,1534.,0.,0.,9965.,0.839655261866,7.27701226951,78.
9.9,8424.,7.,2.,1533.,0.,0.,9966.,0.839670685891,6.23755366662,91.
9.92,8423.,9.,1.,1532.,0.,0.,9965.,0.839655261866,4.85134151301,117.
9.94,8422.,8.,4.,1533.,0.,0.,9967.,0.8393871088,5.4560162072,104.
9.96,8418.,11.,2.,1535.,0.,0.,9966.,0.839072629847,3.96652515928,143.
9.98,8414.,7.,4.,1537.,0.,0.,9962.,0.839010675035,6.23265072883,91.
10.,8413.,7.,4.,1540.,0.,0.,9964.,0.838742570615,6.230659096,91.
