t,s,e,i,r,c,o,n,reff,coal,reportr
5.,6408.,24.,12.,3556.,0.,0.,10000.,0.82769767881,1.79334497075,312.
5.02,6412.,22.,7.,3558.,0.,0.,9999.,0.828297173745,1.95779331976,286.
5.04,6405.,18.,12.,3564.,0.,0.,9999.,0.827392919188,2.39024621099,234.
5.06,6397.,18.,14.,3571.,0.,0.,10000.,0.826276849461,2.38702200955,234.
5.08,6393.,21.,11.,3578.,0.,0.,10003.,0.825512530484,2.04412626596,273.
5.1,6397.,16.,21.,3569.,0.,0.,10003.,0.826029040749,2.68459438243,208.
5.12,6388.,23.,8.,3579.,0.,0.,9998.,0.825279408603,1.86584909771,299.
5.14,6385.,23.,10.,3581.,0.,0.,9999.,0.824809334741,1.86478632202,299.
5.16,6388.,22.,9.,3582.,0.,0.,10001.,0.825031849536,1.95007528072,286.
5.18,6378.,29.,12.,3584.,0.,0.,10003.,0.823575616991,1.47675627874,377.
5.2,6376.,26.,14.,3585.,0.,0.,10001.,0.823482008867,1.64696401773,338.
5.22,6371.,27.,16.,3585.,0.,0.,9999.,0.823000825628,1.58503862714,351.
5.24,6363.,29.,20.,3588.,0.,0.,10000.,0.82188519511,1.47372517744,377.
5.26,6347.,38.,10.,3606.,0.,0.,10001.,0.819736560583,1.12174476711,494.
5.28,6341.,32.,11.,3616.,0.,0.,10000.,0.819043536413,1.33094574667,416.
5.3,6339.,30.,7.,3625.,0.,0.,10001.,0.81870333347,1.41908577802,390.
5.32,6338.,25.,9.,3628.,0.,0.,10000.,0.818656037499,1.702804558,325.
5.34,6339.,20.,12.,3633.,0.,0.,10004.,0.818457820675,2.12799033376,260.
5.36,6332.,16.,19.,3639.,0.,0.,10006.,0.817390605309,2.65651946726,208.
5.38,6333.,24.,6.,3643.,0.,0.,10006.,0.817519694161,1.77129267068,312.
5.4,6331.,16.,12.,3647.,0.,0.,10006.,0.817261516458,2.65609992849,208.
5.42,6327.,17.,9.,3655.,0.,0.,10008.,0.816581942596,2.49778005971,221.
5.44,6328.,13.,5.,3661.,0.,0.,10007.,0.816792619621,3.26717047848,169.
5.46,6335.,9.,6.,3658.,0.,0.,10008.,0.817614447028,4.72399458283,117.
5.48,6336.,9.,5.,3657.,0.,0.,10007.,0.817825227231,4.725212424,117.
5.5,6341.,9.,3.,3659.,0.,0.,10012.,0.818061862178,4.72657964814,117.
5.52,6345.,10.,3.,3651.,0.,0.,10009.,0.818823260696,4.25788095562,130.
5.54,6350.,3.,8.,3649.,0.,0.,10010.,0.819386646506,14.2027018728,39.
5.56,6355.,2.,4.,3651.,0.,0.,10012.,0.819868023047,21.3165685992,26.
5.58,6360.,4.,1.,3648.,0.,0.,10013.,0.82043113572,10.6656047644,52.
5.6,6370.,0.,0.,3643.,0.,0.,10013.,0.821721121783,inf,0.
5.62,6372.,0.,1.,3638.,0.,0.,10011.,0.822143334182,inf,0.
5.64,6378.,0.,0.,3633.,0.,0.,10011.,0.822917480448,inf,0.
5.66,6380.,2.,0.,3631.,0.,0.,10013.,0.823011107845,21.398288804,26.
5.68,6387.,1.,1.,3625.,0.,0.,10014.,0.823831821866,42.839254737,13.
5.7,6394.,0.,1.,3618.,0.,0.,10013.,0.824817088333,inf,0.
5.72,6403.,0.,0.,3608.,0.,0.,10011.,0.826143089889,inf,0.
5.74,6410.,1.,0.,3601.,0.,0.,10012.,0.826963655032,43.0021100617,13.
5.76,6421.,2.,0.,3590.,0.,0.,10013.,0.828300050701,21.5358013182,26.
5.78,6431.,1.,1.,3576.,0.,0.,10009.,0.829921574395,43.1559218685,13.
5.8,6435.,3.,0.,3572.,0.,0.,10010.,0.830354814215,14.3928167797,39.
5.82,6450.,4.,1.,3560.,0.,0.,10015.,0.831874851319,10.8143730671,52.
5.84,6452.,6.,2.,3551.,0.,0.,10011.,0.832465284392,7.2146991314,78.
5.86,6451.,9.,4.,3548.,0.,0.,10012.,0.832253126149,4.80857361775,117.
5.88,6457.,11.,6.,3541.,0.,0.,10015.,0.832777661235,3.93676712584,143.
5.9,6462.,12.,6.,3532.,0.,0.,10012.,0.833672252546,3.61257976103,156.
5.92,6465.,9.,9.,3532.,0.,0.,10015.,0.833809443996,4.81756567642,117.
5.94,6461.,11.,8.,3533.,0.,0.,10013.,0.833459994951,3.93999270341,143.
5.96,6461.,9.,10.,3532.,0.,0.,10012.,0.833543241055,4.81602761499,117.
5.98,6459.,12.,8.,3532.,0.,0.,10011.,0.833368455035,3.61126330515,156.
6.,6449.,15.,11.,3535.,0.,0.,10010.,0.832161335955,2.88482596465,195.
6.02,6450.,18.,10.,3532.,0.,0.,10010.,0.832290373223,2.40439441153,234.
6.04,6451.,27.,5.,3525.,0.,0.,10008.,0.832585761291,1.60349850323,351.
6.06,6450.,19.,13.,3524.,0.,0.,10006.,0.832623089742,2.27875792982,247.
6.08,6442.,23.,10.,3530.,0.,0.,10005.,0.831673496412,1.88030529624,299.
6.1,6442.,28.,8.,3528.,0.,0.,10006.,0.831590378933,1.5443821323,364.
6.12,6444.,25.,14.,3526.,0.,0.,10009.,0.831599226465,1.72972639105,325.
6.14,6438.,28.,20.,3524.,0.,0.,10010.,0.830741926017,1.54280643403,364.
6.16,6436.,19.,28.,3533.,0.,0.,10016.,0.829986357162,2.27154160908,247.
6.18,6420.,35.,14.,3546.,0.,0.,10015.,0.828005665964,1.23017984657,455.
6.2,6427.,34.,13.,3542.,0.,0.,10016.,0.828825717446,1.26761580315,442.
6.22,6416.,33.,20.,3549.,0.,0.,10018.,0.827241973692,1.30353280703,429.
6.24,6407.,26.,20.,3566.,0.,0.,10019.,0.825999114188,1.65199822838,338.
6.26,6389.,31.,20.,3579.,0.,0.,10019.,0.823678529819,1.38165430808,403.
6.28,6383.,31.,13.,3594.,0.,0.,10021.,0.822740765591,1.38008128422,403.
6.3,6377.,33.,10.,3601.,0.,0.,10021.,0.821967391849,1.29522134473,429.
6.32,6373.,24.,7.,3617.,0.,0.,10021.,0.821451809355,1.7798122536,312.
6.34,6373.,16.,15.,3619.,0.,0.,10023.,0.821287895994,2.66918566198,208.
6.36,6369.,19.,13.,3620.,0.,0.,10021.,0.82093622686,2.24677283141,247.
6.38,6367.,20.,7.,3624.,0.,0.,10018.,0.820924196774,2.13440291161,260.
6.4,6368.,19.,7.,3625.,0.,0.,10019.,0.820971181388,2.24686849643,247.
6.42,6379.,14.,8.,3623.,0.,0.,10024.,0.821979106126,3.05306525133,182.
6.44,6380.,9.,9.,3627.,0.,0.,10025.,0.822025957392,4.74948330938,117.
6.46,6384.,9.,4.,3628.,0.,0.,10025.,0.822541334168,4.75246104186,117.
6.48,6385.,6.,2.,3629.,0.,0.,10022.,0.822916437645,7.13194245959,78.
6.5,6391.,3.,3.,3623.,0.,0.,10020.,0.823854143348,14.2801384847,39.
6.52,6399.,3.,0.,3618.,0.,0.,10020.,0.824885411247,14.298013795,39.
6.54,6402.,3.,1.,3615.,0.,0.,10021.,0.82518978244,14.3032895623,39.
6.56,6412.,2.,0.,3613.,0.,0.,10027.,0.825984186723,21.4755888548,26.
6.58,6417.,1.,1.,3609.,0.,0.,10028.,0.826545847177,42.9803840532,13.
6.6,6425.,3.,0.,3602.,0.,0.,10030.,0.827411272168,14.3417953843,39.
6.62,6433.,2.,1.,3594.,0.,0.,10030.,0.828441511885,21.539479309,26.
6.64,6438.,2.,2.,3588.,0.,0.,10030.,0.829085411707,21.5562207044,26.
6.66,6444.,1.,2.,3584.,0.,0.,10031.,0.829775362147,43.1483188316,13.
6.68,6451.,0.,0.,3582.,0.,0.,10033.,0.830511143128,inf,0.
6.7,6454.,2.,0.,3577.,0.,0.,10033.,0.830897367501,21.603331555,26.
6.72,6470.,1.,2.,3565.,0.,0.,10038.,0.832542328835,43.2922010994,13.
6.74,6474.,2.,0.,3563.,0.,0.,10039.,0.832974056083,21.6573254582,26.
6.76,6478.,1.,1.,3558.,0.,0.,10038.,0.83357174748,43.3457308689,13.
6.78,6485.,1.,1.,3550.,0.,0.,10037.,0.834555628426,43.3968926781,13.
6.8,6495.,2.,0.,3541.,0.,0.,10038.,0.835759262099,21.7297408146,26.
6.82,6502.,2.,1.,3535.,0.,0.,10040.,0.836493338074,21.7488267899,26.
6.84,6515.,3.,1.,3524.,0.,0.,10043.,0.837915437005,14.5238675748,39.
6.86,6521.,4.,1.,3516.,0.,0.,10042.,0.838770634545,10.9040182491,52.
6.88,6523.,5.,3.,3510.,0.,0.,10041.,0.839111446887,8.72675904763,65.
6.9,6534.,2.,5.,3501.,0.,0.,10042.,0.840442773519,21.8515121115,26.
6.92,6536.,5.,4.,3497.,0.,0.,10042.,0.840700025669,8.74328026696,65.
6.94,6538.,9.,4.,3494.,0.,0.,10045.,0.840706120842,4.85741314264,117.
6.96,6537.,14.,5.,3484.,0.,0.,10040.,0.840996147492,3.1236999764,182.
6.98,6532.,15.,10.,3482.,0.,0.,10039.,0.840436597828,2.91351353914,195.
7.,6537.,17.,10.,3479.,0.,0.,10043.,0.840744928887,2.57169037071,221.
7.02,6535.,19.,5.,3485.,0.,0.,10044.,0.840404021777,2.30005311223,247.
7.04,6537.,19.,5.,3482.,0.,0.,10043.,0.840744928887,2.30098612117,247.
7.06,6534.,16.,11.,3483.,0.,0.,10044.,0.840275421314,2.73089511927,208.
7.08,6521.,23.,12.,3489.,0.,0.,10045.,0.838520130623,1.89578464315,299.
7.1,6507.,24.,21.,3494.,0.,0.,10046.,0.836636614522,1.8127126648,312.
7.12,6496.,22.,19.,3509.,0.,0.,10046.,0.835222291061,1.97416177887,286.
7.14,6486.,23.,17.,3517.,0.,0.,10043.,0.834185652251,1.88598495291,299.
7.16,6475.,29.,14.,3526.,0.,0.,10044.,0.832687994033,1.49309571344,377.
7.18,6478.,23.,16.,3534.,0.,0.,10051.,0.832493602746,1.88215944969,299.
7.2,6469.,33.,7.,3543.,0.,0.,10052.,0.831254301015,1.30985526221,429.
7.22,6461.,34.,13.,3546.,0.,0.,10054.,0.830061162666,1.26950530761,442.
7.24,6453.,40.,9.,3554.,0.,0.,10056.,0.828868498915,1.07752904859,520.
7.26,6454.,32.,14.,3563.,0.,0.,10063.,0.828420281043,1.34618295669,416.
7.28,6453.,30.,13.,3568.,0.,0.,10064.,0.828209620935,1.43556334295,390.
7.3,6449.,28.,8.,3577.,0.,0.,10062.,0.827860760576,1.53745569821,364.
7.32,6454.,24.,6.,3582.,0.,0.,10066.,0.828173384476,1.79437566636,312.
7.34,6456.,22.,5.,3581.,0.,0.,10064.,0.828594655626,1.95849645875,286.
7.36,6459.,14.,6.,3584.,0.,0.,10063.,0.829062069299,3.07937340025,182.
7.38,6457.,12.,5.,3588.,0.,0.,10062.,0.828887723839,3.5918468033,156.
7.4,6456.,15.,4.,3587.,0.,0.,10062.,0.828759353431,2.87303242523,195.
7.42,6456.,12.,6.,3584.,0.,0.,10058.,0.829088945538,3.592718764,156.
7.44,6458.,9.,3.,3588.,0.,0.,10058.,0.829345788458,4.79177566665,117.
7.46,6461.,9.,1.,3586.,0.,0.,10057.,0.829813555677,4.79447832169,117.
7.48,6472.,9.,0.,3580.,0.,0.,10061.,0.830895857562,4.80073162147,117.
7.5,6479.,6.,4.,3576.,0.,0.,10065.,0.831463970615,7.20602107867,78.
7.52,6480.,6.,4.,3577.,0.,0.,10067.,0.831427091218,7.20570145722,78.
7.54,6488.,4.,2.,3573.,0.,0.,10067.,0.832453544417,10.8218960774,52.
7.56,6498.,3.,0.,3570.,0.,0.,10071.,0.83340546739,14.4456947681,39.
7.58,6510.,0.,0.,3566.,0.,0.,10076.,0.834530212249,inf,0.
7.6,6514.,1.,0.,3562.,0.,0.,10077.,0.8349601142,43.4179259384,13.
7.62,6523.,0.,1.,3556.,0.,0.,10080.,0.835864884742,inf,0.
7.64,6528.,0.,0.,3548.,0.,0.,10076.,0.836837669057,inf,0.
7.66,6535.,0.,0.,3540.,0.,0.,10075.,0.837818163248,inf,0.
7.68,6544.,0.,0.,3529.,0.,0.,10073.,0.839138584545,inf,0.
7.7,6552.,0.,0.,3519.,0.,0.,10071.,0.840331274598,inf,0.
7.72,6562.,0.,0.,3512.,0.,0.,10074.,0.841363201998,inf,0.
7.74,6570.,0.,0.,3506.,0.,0.,10076.,0.842221734942,inf,0.
7.76,6577.,2.,0.,3496.,0.,0.,10075.,0.843202763532,21.9232718518,26.
7.78,6588.,0.,3.,3491.,0.,0.,10082.,0.844026595524,inf,0.
7.8,6590.,1.,3.,3486.,0.,0.,10080.,0.844450343469,43.9114178604,13.
7.82,6592.,2.,0.,3483.,0.,0.,10077.,0.844958101444,21.9689106375,26.
7.84,6595.,1.,5.,3476.,0.,0.,10077.,0.845342639415,43.9578172496,13.
7.86,6597.,5.,4.,3469.,0.,0.,10075.,0.845766858906,8.79597533262,65.
7.88,6596.,11.,1.,3468.,0.,0.,10076.,0.845554728109,3.99716780561,143.
7.9,6602.,8.,7.,3459.,0.,0.,10076.,0.846323880379,5.50110522246,104.
7.92,6602.,11.,5.,3458.,0.,0.,10076.,0.846323880379,4.00080379815,143.
7.94,6609.,6.,8.,3453.,0.,0.,10076.,0.847221224693,7.34258394734,78.
7.96,6612.,10.,4.,3447.,0.,0.,10073.,0.847858239764,4.40886284677,130.
7.98,6621.,10.,4.,3441.,0.,0.,10076.,0.848759529232,4.41354955201,130.
8.,6621.,10.,10.,3434.,0.,0.,10075.,0.848843773354,4.41398762144,130.
8.02,6616.,16.,10.,3429.,0.,0.,10071.,0.848539638697,2.75775382577,208.
8.04,6615.,23.,5.,3431.,0.,0.,10074.,0.848158729231,1.91757625739,299.
8.06,6607.,26.,13.,3428.,0.,0.,10074.,0.847132989271,1.69426597854,338.
8.08,6598.,28.,10.,3435.,0.,0.,10071.,0.846231036294,1.57157192455,364.
8.1,6599.,26.,13.,3434.,0.,0.,10072.,0.846275261077,1.69255052215,338.
8.12,6595.,27.,8.,3446.,0.,0.,10076.,0.845426536065,1.62822888427,351.
8.14,6588.,33.,9.,3446.,0.,0.,10076.,0.84452919175,1.33077327185,429.
8.16,6590.,23.,15.,3445.,0.,0.,10073.,0.84503717484,1.91051883007,299.
8.18,6579.,24.,18.,3448.,0.,0.,10069.,0.843961780582,1.82858385793,312.
8.2,6575.,29.,5.,3460.,0.,0.,10069.,0.843448655924,1.51239069338,377.
8.22,6574.,26.,10.,3460.,0.,0.,10070.,0.843236628943,1.68647325789,338.
8.24,6575.,18.,14.,3462.,0.,0.,10069.,0.843448655924,2.43662945045,234.
8.26,6574.,19.,13.,3465.,0.,0.,10071.,0.843152899757,2.30757635723,247.
8.28,6566.,20.,11.,3474.,0.,0.,10071.,0.842126854245,2.18952982104,260.
8.3,6567.,20.,13.,3474.,0.,0.,10074.,0.842004289472,2.18921115263,260.
8.32,6562.,18.,13.,3480.,0.,0.,10073.,0.841446728574,2.43084610477,234.
8.34,6557.,21.,8.,3487.,0.,0.,10073.,0.840805577455,2.08199476322,273.
8.36,6556.,17.,12.,3488.,0.,0.,10073.,0.840677347231,2.57148365035,221.
8.38,6557.,13.,5.,3499.,0.,0.,10074.,0.840722114523,3.36288845809,169.
8.4,6564.,9.,7.,3494.,0.,0.,10074.,0.841619636987,4.86269123593,117.
8.42,6564.,9.,7.,3492.,0.,0.,10072.,0.841786757646,4.86365682196,117.
8.44,6564.,10.,4.,3492.,0.,0.,10070.,0.841953944688,4.37816051238,130.
8.46,6569.,10.,3.,3488.,0.,0.,10070.,0.842595286816,4.38149549144,130.
8.48,6584.,8.,2.,3479.,0.,0.,10073.,0.844267793497,5.48774065773,104.
8.5,6592.,7.,1.,3477.,0.,0.,10077.,0.844958101444,6.27683161073,91.
8.52,6603.,4.,3.,3467.,0.,0.,10077.,0.846368074004,11.0027849621,52.
8.54,6615.,1.,2.,3463.,0.,0.,10081.,0.84756978854,44.0736290041,13.
8.56,6620.,0.,1.,3459.,0.,0.,10080.,0.84829457872,inf,0.
8.58,6633.,0.,1.,3450.,0.,0.,10084.,0.849623261907,inf,0.
8.6,6638.,1.,1.,3440.,0.,0.,10080.,0.85060111987,44.2312582333,13.
8.62,6647.,0.,1.,3433.,0.,0.,10081.,0.851669899384,inf,0.
8.64,6656.,1.,0.,3426.,0.,0.,10083.,0.852653894981,44.338002539,13.
8.66,6654.,2.,0.,3421.,0.,0.,10077.,0.85290521951,22.1755357073,26.
8.68,6654.,1.,1.,3419.,0.,0.,10075.,0.85307453072,44.3598755974,13.
8.7,6657.,2.,0.,3419.,0.,0.,10078.,0.85320508892,22.1833323119,26.
8.72,6664.,1.,3.,3410.,0.,0.,10078.,0.854102255154,44.413317268,13.
8.74,6669.,2.,2.,3404.,0.,0.,10077.,0.854827909365,22.2255256435,26.
8.76,6675.,5.,1.,3399.,0.,0.,10080.,0.855342343347,8.8955603708,65.
8.78,6678.,6.,2.,3393.,0.,0.,10079.,0.855811668823,7.41703446313,78.
8.8,6683.,4.,4.,3386.,0.,0.,10077.,0.856622419896,11.1360914586,52.
8.82,6687.,6.,1.,3385.,0.,0.,10079.,0.856965053821,7.42703046645,78.
8.84,6692.,5.,1.,3381.,0.,0.,10079.,0.857605823265,8.91910056195,65.
8.86,6695.,4.,2.,3376.,0.,0.,10077.,0.858160571779,11.1560874331,52.
8.88,6701.,6.,3.,3368.,0.,0.,10078.,0.858844419536,7.44331830265,78.
8.9,6705.,4.,3.,3365.,0.,0.,10077.,0.859442365016,11.1727507452,52.
8.92,6707.,5.,5.,3359.,0.,0.,10076.,0.859784045092,8.94175406896,65.
8.94,6713.,6.,5.,3354.,0.,0.,10078.,0.860382418795,7.45664762956,78.
8.96,6712.,11.,4.,3350.,0.,0.,10077.,0.860339620281,4.06706002315,143.
8.98,6707.,17.,6.,3345.,0.,0.,10075.,0.859869383459,2.63018870235,221.
9.,6711.,10.,12.,3343.,0.,0.,10076.,0.860296813272,4.47354342901,130.
9.02,6702.,12.,12.,3349.,0.,0.,10075.,0.859228359616,3.72332289167,156.
9.04,6690.,23.,6.,3353.,0.,0.,10072.,0.857945369996,1.93970257564,299.
9.06,6687.,17.,19.,3350.,0.,0.,10073.,0.857475506549,2.62286625533,221.
9.08,6684.,18.,16.,3356.,0.,0.,10074.,0.857005736384,2.47579434955,234.
9.1,6669.,36.,12.,3360.,0.,0.,10077.,0.854827909365,1.23475142464,468.
9.12,6662.,31.,20.,3365.,0.,0.,10078.,0.853845921945,1.43225767552,403.
9.14,6664.,29.,18.,3369.,0.,0.,10080.,0.853932790421,1.5311898311,377.
9.16,6655.,28.,17.,3378.,0.,0.,10078.,0.85294875571,1.58404768918,364.
9.18,6643.,31.,19.,3383.,0.,0.,10076.,0.851579754219,1.42845636192,403.
9.2,6631.,39.,6.,3406.,0.,0.,10082.,0.849535573,1.13271409733,507.
9.22,6628.,32.,14.,3414.,0.,0.,10088.,0.848646179406,1.37905004154,416.
9.24,6623.,31.,14.,3418.,0.,0.,10086.,0.848174136687,1.42274371315,403.
9.26,6624.,29.,16.,3420.,0.,0.,10089.,0.848049955959,1.52064130034,377.
9.28,6615.,33.,18.,3425.,0.,0.,10091.,0.846729862082,1.3342409948,429.
9.3,6607.,33.,10.,3439.,0.,0.,10089.,0.845873499249,1.33289157457,429.
9.32,6603.,28.,11.,3451.,0.,0.,10093.,0.845026362998,1.56933467414,364.
9.34,6605.,22.,18.,3450.,0.,0.,10095.,0.845114849711,1.99754419023,286.
9.36,6588.,28.,14.,3462.,0.,0.,10092.,0.843190263186,1.56592477449,364.
9.38,6586.,22.,10.,3476.,0.,0.,10094.,0.842767268673,1.99199536232,286.
9.4,6583.,25.,4.,3478.,0.,0.,10090.,0.84271732615,1.75285203839,325.
9.42,6592.,15.,6.,3479.,0.,0.,10092.,0.843702218416,2.92483435718,195.
9.44,6597.,6.,10.,3481.,0.,0.,10094.,0.844174866601,7.31618217721,78.
9.46,6601.,5.,2.,3486.,0.,0.,10094.,0.844686720394,8.78474189209,65.
9.48,6609.,4.,1.,3479.,0.,0.,10093.,0.845794219757,10.9953248568,52.
9.5,6610.,6.,1.,3476.,0.,0.,10093.,0.845922195883,7.33132569766,78.
9.52,6616.,3.,2.,3473.,0.,0.,10094.,0.846606172114,14.6745069833,39.
9.54,6620.,2.,2.,3465.,0.,0.,10089.,0.847537848498,22.0359840609,26.
9.56,6624.,2.,0.,3464.,0.,0.,10090.,0.847965907401,22.0471135924,26.
9.58,6632.,0.,2.,3454.,0.,0.,10088.,0.849158337632,inf,0.
9.6,6637.,0.,0.,3448.,0.,0.,10085.,0.850051326252,inf,0.
9.62,6648.,1.,0.,3435.,0.,0.,10084.,0.85154461709,44.2803200887,13.
9.64,6652.,0.,1.,3430.,0.,0.,10083.,0.852141482784,inf,0.
9.66,6654.,0.,0.,3424.,0.,0.,10078.,0.852820589105,inf,0.
9.68,6669.,0.,0.,3411.,0.,0.,10080.,0.854573496296,inf,0.
9.7,6675.,0.,0.,3403.,0.,0.,10078.,0.855512087808,inf,0.
9.72,6678.,0.,1.,3396.,0.,0.,10075.,0.856151445168,inf,0.
9.74,6687.,0.,0.,3387.,0.,0.,10074.,0.857390388869,inf,0.
9.76,6694.,0.,0.,3381.,0.,0.,10075.,0.858202721467,inf,0.
9.78,6709.,0.,0.,3366.,0.,0.,10075.,0.860125792997,inf,0.
9.8,6712.,1.,0.,3360.,0.,0.,10073.,0.860681262144,44.7554256315,13.
9.82,6719.,0.,1.,3356.,0.,0.,10076.,0.861322349631,inf,0.
9.84,6718.,2.,1.,3352.,0.,0.,10073.,0.861450643487,22.3977167306,26.
9.86,6723.,3.,1.,3341.,0.,0.,10068.,0.862519929188,14.9503454393,39.
9.88,6732.,4.,1.,3331.,0.,0.,10068.,0.863674574341,11.2277694664,52.
9.9,6733.,6.,1.,3328.,0.,0.,10068.,0.863802868246,7.4862915248,78.
9.92,6740.,6.,5.,3320.,0.,0.,10071.,0.864443344138,7.49184231586,78.
9.94,6740.,10.,5.,3314.,0.,0.,10069.,0.86461504805,4.49599824986,130.
9.96,6735.,13.,6.,3313.,0.,0.,10067.,0.864145286937,3.45658114775,169.
9.98,6736.,11.,8.,3311.,0.,0.,10066.,0.864359454266,4.08606287471,143.
10.,6729.,12.,8.,3315.,0.,0.,10064.,0.863632812533,3.74240885431,156.
