t,s,e,i,r,c,o,n,reff,coal,reportr
5.,8034.,4.,17.,1943.,0.,0.,9998.,0.907577929559,11.7985130843,52.
5.02,8017.,15.,7.,1955.,0.,0.,9994.,0.906019968818,3.14086922523,195.
5.04,8010.,19.,6.,1958.,0.,0.,9993.,0.905319468702,2.47771644066,247.
5.06,8014.,21.,5.,1957.,0.,0.,9997.,0.905409145968,2.2419655043,273.
5.08,8009.,21.,9.,1958.,0.,0.,9997.,0.904844253813,2.24056672373,273.
5.1,7996.,21.,12.,1964.,0.,0.,9993.,0.903737137546,2.23782529297,273.
5.12,7981.,30.,15.,1967.,0.,0.,9993.,0.902041782735,1.56353909007,390.
5.14,7972.,30.,15.,1977.,0.,0.,9994.,0.900934413298,1.56161964972,390.
5.16,7967.,38.,8.,1986.,0.,0.,9999.,0.899919121875,1.23146827204,494.
5.18,7960.,31.,18.,1989.,0.,0.,9998.,0.899218361873,1.50836628443,403.
5.2,7953.,31.,15.,2004.,0.,0.,10003.,0.897978512885,1.50628653774,403.
5.22,7935.,27.,21.,2022.,0.,0.,10005.,0.895767021254,1.72518092982,351.
5.24,7920.,30.,19.,2038.,0.,0.,10007.,0.893895010195,1.54941801767,390.
5.26,7922.,32.,8.,2049.,0.,0.,10011.,0.893763485943,1.45236566466,416.
5.28,7917.,27.,11.,2058.,0.,0.,10013.,0.893020975821,1.71989224973,351.
5.3,7916.,25.,8.,2067.,0.,0.,10016.,0.892640733379,1.85669272543,325.
5.32,7910.,25.,3.,2075.,0.,0.,10013.,0.89223139052,1.85584129228,325.
5.34,7909.,22.,7.,2079.,0.,0.,10017.,0.891762350794,2.10780192006,286.
5.36,7908.,15.,10.,2086.,0.,0.,10019.,0.891471606201,3.0904349015,195.
5.38,7907.,11.,7.,2092.,0.,0.,10017.,0.891536845079,4.2145378131,143.
5.4,7906.,11.,0.,2098.,0.,0.,10015.,0.891602110013,4.21484633824,143.
5.42,7913.,6.,5.,2094.,0.,0.,10018.,0.892124301198,7.73174394372,78.
5.44,7915.,7.,3.,2093.,0.,0.,10018.,0.892349784403,6.62888411271,91.
5.46,7920.,5.,7.,2087.,0.,0.,10019.,0.892824370399,9.28537345215,65.
5.48,7923.,5.,2.,2087.,0.,0.,10017.,0.8933408908,9.29074526432,65.
5.5,7924.,6.,3.,2083.,0.,0.,10016.,0.893542846298,7.74403800125,78.
5.52,7925.,4.,0.,2085.,0.,0.,10014.,0.893834091661,11.6198431916,52.
5.54,7928.,1.,3.,2079.,0.,0.,10011.,0.894440408553,46.5109012447,13.
5.56,7937.,0.,3.,2072.,0.,0.,10012.,0.895366354214,inf,0.
5.58,7943.,1.,0.,2068.,0.,0.,10012.,0.896043209213,46.5942468791,13.
5.6,7948.,1.,0.,2061.,0.,0.,10010.,0.896786397354,46.6328926624,13.
5.62,7950.,0.,0.,2060.,0.,0.,10010.,0.897012060765,inf,0.
5.64,7959.,0.,0.,2053.,0.,0.,10012.,0.897848155876,inf,0.
5.66,7970.,0.,0.,2046.,0.,0.,10016.,0.898729995583,inf,0.
5.68,7979.,0.,0.,2040.,0.,0.,10019.,0.899475461037,inf,0.
5.7,7986.,0.,0.,2034.,0.,0.,10020.,0.900174726721,inf,0.
5.72,7989.,0.,0.,2031.,0.,0.,10020.,0.900512884019,inf,0.
5.74,7984.,1.,0.,2028.,0.,0.,10013.,0.900578435134,46.830078627,13.
5.76,7984.,1.,0.,2023.,0.,0.,10008.,0.901028364408,46.8534749492,13.
5.78,7993.,1.,0.,2013.,0.,0.,10007.,0.902134194001,46.9109780881,13.
5.8,7996.,1.,1.,2009.,0.,0.,10007.,0.902472790596,46.928585111,13.
5.82,8001.,2.,1.,2005.,0.,0.,10009.,0.902856673231,23.474273504,26.
5.84,8001.,5.,2.,2001.,0.,0.,10009.,0.902856673231,9.3897094016,65.
5.86,8000.,5.,4.,1992.,0.,0.,10001.,0.903465953104,9.39604591228,65.
5.88,7999.,8.,3.,1991.,0.,0.,10001.,0.90335301986,5.87179462909,104.
5.9,8008.,7.,4.,1988.,0.,0.,10007.,0.903827176975,6.71414474324,91.
5.92,8008.,11.,2.,1991.,0.,0.,10012.,0.903375805033,4.27050380561,143.
5.94,7995.,13.,9.,1995.,0.,0.,10012.,0.901909285869,3.60763714348,169.
5.96,7992.,14.,6.,2001.,0.,0.,10013.,0.901480818336,3.34835732525,182.
5.98,7992.,13.,3.,2002.,0.,0.,10010.,0.901750992407,3.60700396963,169.
6.,7986.,16.,4.,2005.,0.,0.,10011.,0.900983993782,2.92819797979,208.
6.02,7982.,16.,7.,2008.,0.,0.,10013.,0.900352839334,2.92614672784,208.
6.04,7979.,17.,12.,2005.,0.,0.,10013.,0.900014445633,2.75298536311,221.
6.06,7974.,21.,12.,2010.,0.,0.,10017.,0.899091286538,2.22632128095,273.
6.08,7964.,25.,18.,2011.,0.,0.,10018.,0.897874122929,1.86757817569,325.
6.1,7956.,28.,13.,2021.,0.,0.,10018.,0.896972190109,1.66580549592,364.
6.12,7943.,32.,14.,2027.,0.,0.,10016.,0.895685364481,1.45548871728,416.
6.14,7940.,22.,20.,2033.,0.,0.,10015.,0.895436472743,2.1164862083,286.
6.16,7922.,27.,18.,2046.,0.,0.,10013.,0.893584965322,1.72097845173,351.
6.18,7901.,32.,21.,2055.,0.,0.,10009.,0.891572375353,1.44880510995,416.
6.2,7890.,31.,15.,2075.,0.,0.,10011.,0.890153232023,1.49316026017,403.
6.22,7872.,35.,14.,2092.,0.,0.,10013.,0.887945070313,1.31923267589,455.
6.24,7867.,36.,7.,2100.,0.,0.,10010.,0.887647029188,1.28215681994,468.
6.26,7866.,29.,12.,2106.,0.,0.,10013.,0.887268282912,1.59096381763,377.
6.28,7857.,27.,12.,2116.,0.,0.,10012.,0.886341620897,1.70702830691,351.
6.3,7850.,27.,17.,2119.,0.,0.,10013.,0.885463516509,1.70533714291,351.
6.32,7846.,23.,8.,2135.,0.,0.,10012.,0.885100720066,2.00109728015,299.
6.34,7849.,20.,8.,2138.,0.,0.,10015.,0.885173913672,2.30145217555,260.
6.36,7842.,22.,7.,2145.,0.,0.,10016.,0.884296188878,2.09015462826,286.
6.38,7846.,11.,12.,2154.,0.,0.,10023.,0.88412934344,4.17952053263,143.
6.4,7843.,11.,4.,2167.,0.,0.,10025.,0.883614969893,4.17708894859,143.
6.42,7840.,8.,8.,2169.,0.,0.,10025.,0.883276981252,5.74130037814,104.
6.44,7833.,14.,4.,2172.,0.,0.,10023.,0.882664433746,3.27846789677,182.
6.46,7838.,6.,9.,2170.,0.,0.,10023.,0.883227860551,7.65464145811,78.
6.48,7839.,12.,3.,2172.,0.,0.,10026.,0.883076230967,3.82666366753,156.
6.5,7839.,9.,0.,2177.,0.,0.,10025.,0.883164318372,5.10272717282,117.
6.52,7848.,2.,6.,2169.,0.,0.,10025.,0.884178284294,22.9886353917,26.
6.54,7846.,8.,0.,2170.,0.,0.,10024.,0.884041142189,5.74626742423,104.
6.56,7850.,3.,3.,2163.,0.,0.,10019.,0.884933245913,15.3388429292,39.
6.58,7853.,5.,0.,2164.,0.,0.,10022.,0.885006438528,9.20406696069,65.
6.6,7860.,2.,3.,2155.,0.,0.,10020.,0.885972120214,23.0352751256,26.
6.62,7866.,4.,0.,2152.,0.,0.,10022.,0.886471494392,11.5241294271,52.
6.64,7873.,1.,3.,2149.,0.,0.,10026.,0.886906386836,46.1191321155,13.
6.66,7875.,1.,2.,2149.,0.,0.,10027.,0.887043215834,46.1262472234,13.
6.68,7874.,4.,1.,2150.,0.,0.,10029.,0.886753702243,11.5277981292,52.
6.7,7875.,1.,2.,2150.,0.,0.,10028.,0.886954759191,46.1216474779,13.
6.72,7877.,2.,2.,2145.,0.,0.,10026.,0.887356993409,23.0712818286,26.
6.74,7884.,0.,0.,2140.,0.,0.,10024.,0.888322758733,inf,0.
6.76,7888.,1.,0.,2134.,0.,0.,10023.,0.888862128608,46.2208306876,13.
6.78,7888.,0.,1.,2132.,0.,0.,10021.,0.889039528494,inf,0.
6.8,7884.,2.,1.,2129.,0.,0.,10016.,0.889032281703,23.1148393243,26.
6.82,7885.,2.,1.,2128.,0.,0.,10016.,0.889145045818,23.1177711913,26.
6.84,7888.,5.,0.,2122.,0.,0.,10015.,0.889572153274,9.25155039405,65.
6.86,7892.,4.,2.,2117.,0.,0.,10015.,0.890023254771,11.570302312,52.
6.88,7893.,7.,3.,2114.,0.,0.,10017.,0.889958305072,6.61111883768,91.
6.9,7893.,8.,2.,2112.,0.,0.,10015.,0.890136030146,5.78588419595,104.
6.92,7891.,11.,4.,2109.,0.,0.,10015.,0.889910479397,4.20684953897,143.
6.94,7888.,13.,5.,2111.,0.,0.,10017.,0.889394540784,3.55757816314,169.
6.96,7882.,18.,5.,2112.,0.,0.,10017.,0.888718023639,2.56740762384,234.
6.98,7882.,18.,7.,2110.,0.,0.,10017.,0.888718023639,2.56740762384,234.
7.,7880.,18.,9.,2114.,0.,0.,10021.,0.888137865686,2.56573161198,234.
7.02,7882.,16.,7.,2117.,0.,0.,10022.,0.888274640071,2.88689258023,208.
7.04,7883.,14.,8.,2117.,0.,0.,10022.,0.888387336676,3.29972439337,182.
7.06,7876.,19.,10.,2116.,0.,0.,10021.,0.887687034282,2.42945925172,247.
7.08,7871.,18.,16.,2119.,0.,0.,10024.,0.886857995178,2.56203420829,234.
7.1,7850.,24.,25.,2125.,0.,0.,10024.,0.884491838667,1.91639898378,312.
7.12,7829.,33.,22.,2142.,0.,0.,10026.,0.881949714536,1.38973894412,429.
7.14,7811.,31.,28.,2159.,0.,0.,10029.,0.879658771681,1.47555664927,403.
7.16,7792.,42.,16.,2180.,0.,0.,10030.,0.877431541283,1.08634381302,546.
7.18,7787.,30.,23.,2194.,0.,0.,10034.,0.876518948794,1.51929951124,390.
7.2,7769.,29.,20.,2213.,0.,0.,10031.,0.874754372989,1.5685250826,377.
7.22,7758.,32.,18.,2226.,0.,0.,10034.,0.873254655804,1.41903881568,416.
7.24,7739.,26.,24.,2242.,0.,0.,10031.,0.871376508246,1.74275301649,338.
7.26,7721.,32.,18.,2260.,0.,0.,10031.,0.8693497894,1.41269340778,416.
7.28,7711.,32.,14.,2275.,0.,0.,10032.,0.868137289048,1.4107230947,416.
7.3,7711.,24.,16.,2280.,0.,0.,10031.,0.868223834486,1.88115164139,312.
7.32,7704.,30.,12.,2288.,0.,0.,10034.,0.867176317132,1.50310561636,390.
7.34,7703.,23.,13.,2300.,0.,0.,10039.,0.866631907633,1.95934170421,299.
7.36,7694.,19.,15.,2312.,0.,0.,10040.,0.865533138681,2.36882753744,247.
7.38,7690.,22.,8.,2321.,0.,0.,10041.,0.864997005364,2.04453837631,286.
7.4,7689.,12.,14.,2323.,0.,0.,10038.,0.865143005129,3.74895302223,156.
7.42,7684.,14.,8.,2331.,0.,0.,10037.,0.864666559591,3.21161864991,182.
7.44,7685.,9.,7.,2338.,0.,0.,10039.,0.864606803864,4.99550597788,117.
7.46,7690.,7.,4.,2340.,0.,0.,10041.,0.864997005364,6.42569203985,91.
7.48,7697.,7.,4.,2335.,0.,0.,10043.,0.865611973363,6.43026037355,91.
7.5,7704.,4.,5.,2333.,0.,0.,10046.,0.866140470446,11.2598261158,52.
7.52,7708.,2.,3.,2334.,0.,0.,10047.,0.866503926307,22.529102084,26.
7.54,7713.,2.,4.,2329.,0.,0.,10048.,0.866979714817,22.5414725852,26.
7.56,7711.,2.,4.,2328.,0.,0.,10045.,0.867013766424,22.542357927,26.
7.58,7711.,4.,0.,2332.,0.,0.,10047.,0.866841174851,11.2689352731,52.
7.6,7720.,1.,4.,2324.,0.,0.,10049.,0.867680196248,45.1193702049,13.
7.62,7725.,0.,2.,2319.,0.,0.,10046.,0.868501445249,inf,0.
7.64,7725.,3.,0.,2318.,0.,0.,10046.,0.868501445249,15.054025051,39.
7.66,7725.,3.,2.,2311.,0.,0.,10041.,0.868933922814,15.0615213288,39.
7.68,7720.,4.,0.,2315.,0.,0.,10039.,0.868544505638,11.2910785733,52.
7.7,7722.,2.,2.,2311.,0.,0.,10037.,0.868942630552,22.5925083943,26.
7.72,7726.,0.,1.,2311.,0.,0.,10038.,0.869306133129,inf,0.
7.74,7727.,1.,0.,2310.,0.,0.,10038.,0.869418650102,45.2097698053,13.
7.76,7731.,1.,0.,2307.,0.,0.,10039.,0.869782069053,45.2286675907,13.
7.78,7737.,1.,0.,2301.,0.,0.,10039.,0.870457103643,45.2637693894,13.
7.8,7744.,1.,1.,2293.,0.,0.,10039.,0.871244643997,45.3047214879,13.
7.82,7749.,3.,0.,2288.,0.,0.,10040.,0.871720339439,15.1098192169,39.
7.84,7754.,3.,2.,2282.,0.,0.,10041.,0.872195940129,15.1180629622,39.
7.86,7757.,6.,3.,2277.,0.,0.,10043.,0.872359630684,7.5604501326,78.
7.88,7760.,5.,5.,2274.,0.,0.,10044.,0.872610126153,9.07514531199,65.
7.9,7764.,7.,3.,2274.,0.,0.,10048.,0.872712369485,6.48300617331,91.
7.92,7768.,9.,1.,2271.,0.,0.,10049.,0.873075099023,5.04443390547,117.
7.94,7765.,9.,6.,2267.,0.,0.,10047.,0.872911648647,5.04348952552,117.
7.96,7761.,13.,9.,2266.,0.,0.,10049.,0.872288342368,3.48915336947,169.
7.98,7754.,15.,9.,2269.,0.,0.,10047.,0.871675070652,3.02180691159,195.
8.,7748.,18.,15.,2268.,0.,0.,10049.,0.870827222867,2.51572308828,234.
8.02,7741.,22.,15.,2274.,0.,0.,10052.,0.869780804314,2.05584553747,286.
8.04,7727.,30.,13.,2286.,0.,0.,10056.,0.867862411468,1.50429484654,390.
8.06,7716.,25.,18.,2293.,0.,0.,10052.,0.866971797712,1.80330133924,325.
8.08,7697.,33.,12.,2308.,0.,0.,10050.,0.865009059551,1.36304457869,429.
8.1,7681.,39.,16.,2316.,0.,0.,10052.,0.863039188469,1.15071891796,507.
8.12,7662.,39.,23.,2327.,0.,0.,10051.,0.860989997052,1.14798666274,507.
8.14,7657.,39.,16.,2341.,0.,0.,10053.,0.860256961454,1.14700928194,507.
8.16,7639.,36.,14.,2362.,0.,0.,10051.,0.858405453861,1.23991898891,468.
8.18,7625.,35.,19.,2371.,0.,0.,10050.,0.856917510598,1.27313458717,455.
8.2,7607.,34.,23.,2386.,0.,0.,10050.,0.85489462336,1.30748589455,442.
8.22,7591.,39.,12.,2407.,0.,0.,10049.,0.853181395042,1.13757519339,507.
8.24,7588.,32.,17.,2412.,0.,0.,10049.,0.852844213618,1.38587184713,416.
8.26,7573.,38.,10.,2425.,0.,0.,10046.,0.851412484773,1.16509076864,494.
8.28,7567.,30.,17.,2430.,0.,0.,10044.,0.850907322758,1.47490602611,390.
8.3,7567.,30.,11.,2439.,0.,0.,10047.,0.850653244728,1.4744656242,390.
8.32,7564.,19.,16.,2446.,0.,0.,10045.,0.850485297527,2.32764397218,247.
8.34,7559.,23.,13.,2453.,0.,0.,10048.,0.849669345819,1.92099156446,299.
8.36,7556.,21.,12.,2460.,0.,0.,10049.,0.849247611768,2.10289884819,273.
8.38,7555.,17.,13.,2465.,0.,0.,10050.,0.849050726894,2.59709634109,221.
8.4,7551.,12.,9.,2471.,0.,0.,10043.,0.849192673881,3.67983492015,156.
8.42,7557.,11.,4.,2473.,0.,0.,10045.,0.849698227579,4.01675525765,143.
8.44,7560.,7.,0.,2478.,0.,0.,10045.,0.850035543271,6.31454975001,91.
8.46,7560.,6.,2.,2474.,0.,0.,10042.,0.850289487369,7.3691755572,78.
8.48,7569.,4.,3.,2469.,0.,0.,10045.,0.851047490347,11.0636173745,52.
8.5,7575.,3.,1.,2465.,0.,0.,10044.,0.851806920826,14.7646532943,39.
8.52,7577.,4.,0.,2462.,0.,0.,10043.,0.85211665872,11.0775165634,52.
8.54,7580.,3.,1.,2461.,0.,0.,10045.,0.85228431455,14.7729281189,39.
8.56,7586.,3.,1.,2454.,0.,0.,10044.,0.85304386817,14.7860937149,39.
8.58,7592.,2.,2.,2450.,0.,0.,10046.,0.853548604832,22.1922637256,26.
8.6,7593.,2.,0.,2450.,0.,0.,10045.,0.853746015881,22.1973964129,26.
8.62,7605.,1.,2.,2442.,0.,0.,10050.,0.854669858111,44.4428326218,13.
8.64,7608.,1.,1.,2441.,0.,0.,10051.,0.854921939125,44.4559408345,13.
8.66,7613.,1.,0.,2435.,0.,0.,10049.,0.855654058813,44.4940110583,13.
8.68,7619.,1.,0.,2429.,0.,0.,10049.,0.85632842166,44.5290779263,13.
8.7,7624.,1.,0.,2423.,0.,0.,10048.,0.856975670396,44.5627348606,13.
8.72,7628.,1.,0.,2420.,0.,0.,10049.,0.85733996593,44.5816782284,13.
8.74,7630.,0.,1.,2419.,0.,0.,10050.,0.85747942372,inf,0.
8.76,7632.,1.,0.,2415.,0.,0.,10048.,0.857874910344,44.6094953379,13.
8.78,7632.,4.,0.,2413.,0.,0.,10049.,0.857789541162,11.1512640351,52.
8.8,7642.,3.,1.,2404.,0.,0.,10050.,0.858828015212,14.8863522637,39.
8.82,7644.,3.,1.,2397.,0.,0.,10045.,0.859480382641,14.8976599658,39.
8.84,7653.,3.,1.,2387.,0.,0.,10044.,0.860578001991,14.9166853678,39.
8.86,7648.,6.,3.,2385.,0.,0.,10042.,0.860187036957,7.4549543203,78.
8.88,7647.,4.,6.,2385.,0.,0.,10042.,0.860074564803,11.1809693424,52.
8.9,7645.,8.,4.,2387.,0.,0.,10044.,0.859678403923,5.5879096255,104.
8.92,7653.,5.,7.,2383.,0.,0.,10048.,0.860235415207,8.94644831815,65.
8.94,7642.,15.,7.,2383.,0.,0.,10047.,0.859084458334,2.97815945556,195.
8.96,7635.,14.,12.,2387.,0.,0.,10048.,0.858212125324,3.18764503692,182.
8.98,7629.,15.,12.,2392.,0.,0.,10048.,0.857537695363,2.97279734393,195.
9.,7625.,19.,9.,2398.,0.,0.,10051.,0.856832253657,2.34501458896,247.
9.02,7614.,22.,15.,2398.,0.,0.,10049.,0.855766452621,2.0227207062,286.
9.04,7605.,30.,10.,2405.,0.,0.,10050.,0.854669858111,1.48142775406,390.
9.06,7594.,32.,6.,2414.,0.,0.,10046.,0.853773459576,1.38738187181,416.
9.08,7585.,32.,14.,2415.,0.,0.,10046.,0.852761613232,1.3857376215,416.
9.1,7564.,34.,20.,2424.,0.,0.,10042.,0.850739375987,1.30113081033,442.
9.12,7552.,34.,20.,2436.,0.,0.,10042.,0.849389710134,1.2990666155,442.
9.14,7544.,30.,17.,2454.,0.,0.,10045.,0.848236526248,1.4702766455,390.
9.16,7537.,25.,12.,2470.,0.,0.,10044.,0.847533830002,1.7628703664,325.
9.18,7524.,31.,20.,2468.,0.,0.,10043.,0.846156228086,1.41935883421,403.
9.2,7522.,34.,17.,2478.,0.,0.,10051.,0.845257995018,1.29274752179,442.
9.22,7512.,31.,15.,2495.,0.,0.,10053.,0.843966343796,1.41568547992,403.
9.24,7506.,27.,13.,2507.,0.,0.,10053.,0.843292249272,1.624118406,351.
9.26,7509.,20.,12.,2517.,0.,0.,10058.,0.843209914302,2.19234577719,260.
9.28,7509.,21.,13.,2519.,0.,0.,10062.,0.842874708612,2.08711832609,273.
9.3,7511.,16.,19.,2522.,0.,0.,10068.,0.842596762893,2.7384394794,208.
9.32,7498.,22.,12.,2536.,0.,0.,10068.,0.841138400768,1.98814531091,286.
9.34,7489.,20.,16.,2542.,0.,0.,10067.,0.840212219188,2.18455176989,260.
9.36,7481.,20.,11.,2556.,0.,0.,10068.,0.839231311836,2.18200141077,260.
9.38,7476.,13.,13.,2565.,0.,0.,10067.,0.838753712197,3.35501484879,169.
9.4,7469.,16.,5.,2574.,0.,0.,10064.,0.83821815412,2.72420900089,208.
9.42,7471.,12.,7.,2573.,0.,0.,10063.,0.838525926048,3.63361234621,156.
9.44,7471.,11.,5.,2574.,0.,0.,10061.,0.838692614434,3.96472872278,143.
9.46,7476.,8.,5.,2572.,0.,0.,10061.,0.839253913199,5.45515043579,104.
9.48,7477.,9.,4.,2571.,0.,0.,10061.,0.839366172952,4.8496712215,117.
9.5,7480.,5.,7.,2566.,0.,0.,10058.,0.839953410438,8.73551546856,65.
9.52,7477.,5.,3.,2572.,0.,0.,10057.,0.839700016512,8.73288017173,65.
9.54,7486.,3.,6.,2561.,0.,0.,10056.,0.840794359033,14.5737688899,39.
9.56,7486.,4.,0.,2565.,0.,0.,10055.,0.840877978562,10.9314137213,52.
9.58,7494.,0.,3.,2558.,0.,0.,10055.,0.841776592485,inf,0.
9.6,7500.,0.,0.,2555.,0.,0.,10055.,0.842450552927,inf,0.
9.62,7505.,0.,0.,2549.,0.,0.,10054.,0.843096035066,inf,0.
9.64,7511.,0.,0.,2540.,0.,0.,10051.,0.844021909144,inf,0.
9.66,7516.,0.,0.,2532.,0.,0.,10048.,0.844835931098,inf,0.
9.68,7517.,2.,0.,2524.,0.,0.,10043.,0.845369001399,21.9795940364,26.
9.7,7524.,0.,1.,2519.,0.,0.,10044.,0.846071983141,inf,0.
9.72,7523.,2.,1.,2519.,0.,0.,10045.,0.845875316406,21.9927582266,26.
9.74,7527.,0.,2.,2515.,0.,0.,10044.,0.846409332417,inf,0.
9.76,7528.,1.,0.,2514.,0.,0.,10043.,0.846606071908,44.0235157392,13.
9.78,7534.,1.,0.,2510.,0.,0.,10045.,0.847112140609,44.0498313117,13.
9.8,7530.,4.,1.,2507.,0.,0.,10042.,0.846915322737,11.0098991956,52.
9.82,7532.,3.,0.,2509.,0.,0.,10044.,0.84697158121,14.680840741,39.
9.84,7536.,4.,1.,2500.,0.,0.,10041.,0.847674568586,11.0197693916,52.
9.86,7540.,4.,3.,2495.,0.,0.,10042.,0.848040044281,11.0245205756,52.
9.88,7550.,5.,2.,2490.,0.,0.,10047.,0.848742169644,8.8269185643,65.
9.9,7551.,6.,2.,2488.,0.,0.,10047.,0.848854585825,7.35673974382,78.
9.92,7551.,2.,3.,2490.,0.,0.,10046.,0.848939082599,22.0724161476,26.
9.94,7553.,5.,3.,2485.,0.,0.,10046.,0.849163937342,8.83130494836,65.
9.96,7552.,6.,5.,2481.,0.,0.,10044.,0.84922057638,7.35991166196,78.
9.98,7555.,10.,2.,2481.,0.,0.,10048.,0.849219725845,4.41594257439,130.
10.,7562.,7.,7.,2478.,0.,0.,10054.,0.849499296092,6.31056619954,91.
