t,s,e,i,r,c,o,n,reff,coal,reportr
5.,7676.,19.,5.,2299.,0.,0.,9999.,0.869312055076,2.37916983495,247.
5.02,7668.,18.,10.,2303.,0.,0.,9999.,0.868406049808,2.50872858833,234.
5.04,7648.,28.,8.,2311.,0.,0.,9995.,0.866487666366,1.60919138039,364.
5.06,7645.,18.,18.,2315.,0.,0.,9996.,0.866061128984,2.50195437262,234.
5.08,7635.,25.,16.,2321.,0.,0.,9997.,0.864841763727,1.79887086855,325.
5.1,7625.,31.,14.,2326.,0.,0.,9996.,0.863795436037,1.44894718303,403.
5.12,7605.,36.,18.,2340.,0.,0.,9999.,0.861271258319,1.24405848424,468.
5.14,7593.,38.,13.,2355.,0.,0.,9999.,0.859912250416,1.17672202689,494.
5.16,7576.,37.,18.,2366.,0.,0.,9997.,0.858158638113,1.2060607887,481.
5.18,7564.,38.,15.,2380.,0.,0.,9997.,0.856799358327,1.17246227982,494.
5.2,7545.,39.,16.,2394.,0.,0.,9994.,0.854903713412,1.13987161788,507.
5.22,7529.,34.,26.,2404.,0.,0.,9993.,0.853176165163,1.30485766437,442.
5.24,7524.,25.,23.,2423.,0.,0.,9995.,0.852438964663,1.7730730465,325.
5.26,7517.,25.,16.,2437.,0.,0.,9995.,0.851645892792,1.77142345701,325.
5.28,7506.,15.,20.,2450.,0.,0.,9991.,0.85074010327,2.949232358,195.
5.3,7488.,25.,12.,2465.,0.,0.,9990.,0.848784914089,1.7654726213,325.
5.32,7484.,25.,18.,2465.,0.,0.,9992.,0.848161701202,1.7641763385,325.
5.34,7475.,20.,16.,2482.,0.,0.,9993.,0.84705695771,2.20234809005,260.
5.36,7470.,18.,14.,2492.,0.,0.,9994.,0.846405664571,2.44517191987,234.
5.38,7470.,16.,8.,2502.,0.,0.,9996.,0.846236315698,2.75026802602,208.
5.4,7464.,16.,12.,2504.,0.,0.,9996.,0.845556607814,2.7480589754,208.
5.42,7468.,14.,1.,2514.,0.,0.,9997.,0.845925120041,3.14200758872,182.
5.44,7473.,9.,7.,2511.,0.,0.,10000.,0.846237539172,4.88937244855,117.
5.46,7473.,9.,5.,2512.,0.,0.,9999.,0.846322171389,4.88986143469,117.
5.48,7479.,7.,9.,2505.,0.,0.,10000.,0.846916975173,6.29138324414,91.
5.5,7482.,5.,1.,2515.,0.,0.,10003.,0.847002592396,8.80882696092,65.
5.52,7484.,3.,1.,2512.,0.,0.,10000.,0.847483171841,14.6897083119,39.
5.54,7490.,2.,1.,2507.,0.,0.,10000.,0.848162607842,22.0522278039,26.
5.56,7501.,2.,0.,2505.,0.,0.,10008.,0.848729257104,22.0669606847,26.
5.58,7504.,2.,1.,2501.,0.,0.,10008.,0.849068703548,22.0757862922,26.
5.6,7517.,2.,0.,2492.,0.,0.,10011.,0.850284756614,22.107403672,26.
5.62,7519.,2.,0.,2490.,0.,0.,10011.,0.850510986428,22.1132856471,26.
5.64,7527.,1.,1.,2481.,0.,0.,10010.,0.851500962219,44.2780500354,13.
5.66,7534.,0.,1.,2476.,0.,0.,10011.,0.852207710034,inf,0.
5.68,7540.,1.,0.,2473.,0.,0.,10014.,0.852630891268,44.336806346,13.
5.7,7545.,1.,0.,2466.,0.,0.,10012.,0.853366731106,44.3750700175,13.
5.72,7545.,1.,0.,2465.,0.,0.,10011.,0.853451974012,44.3795026486,13.
5.74,7549.,1.,1.,2461.,0.,0.,10012.,0.853819145543,44.3985955682,13.
5.76,7559.,0.,0.,2457.,0.,0.,10016.,0.854608747856,inf,0.
5.78,7563.,0.,0.,2452.,0.,0.,10015.,0.855146359647,inf,0.
5.8,7568.,3.,0.,2445.,0.,0.,10016.,0.855626273816,14.8308554128,39.
5.82,7573.,4.,1.,2436.,0.,0.,10014.,0.85636256493,11.1327133441,52.
5.84,7579.,3.,4.,2432.,0.,0.,10018.,0.856698850591,14.8494467436,39.
5.86,7572.,9.,4.,2434.,0.,0.,10019.,0.855822171063,4.9447503217,117.
5.88,7572.,10.,4.,2435.,0.,0.,10021.,0.855651365321,4.44938709967,130.
5.9,7574.,7.,9.,2431.,0.,0.,10021.,0.855877369379,6.35794617253,91.
5.92,7575.,7.,9.,2433.,0.,0.,10024.,0.855734189134,6.35688254786,91.
5.94,7573.,7.,10.,2430.,0.,0.,10020.,0.855849772975,6.35774117067,91.
5.96,7568.,10.,8.,2432.,0.,0.,10018.,0.855455456033,4.44836837137,130.
5.98,7562.,12.,5.,2437.,0.,0.,10016.,0.854947923176,3.70477433376,156.
6.,7564.,12.,9.,2432.,0.,0.,10017.,0.855088667785,3.70538422707,156.
6.02,7558.,15.,12.,2432.,0.,0.,10017.,0.854410384865,2.96195600086,195.
6.04,7554.,17.,14.,2432.,0.,0.,10017.,0.853958196251,2.61210742383,221.
6.06,7539.,26.,13.,2439.,0.,0.,10017.,0.852262488951,1.7045249779,338.
6.08,7529.,34.,12.,2444.,0.,0.,10019.,0.850962113832,1.30147146821,442.
6.1,7518.,23.,25.,2449.,0.,0.,10015.,0.850058221847,1.92187076244,299.
6.12,7501.,31.,16.,2469.,0.,0.,10017.,0.847966697125,1.42239575002,403.
6.14,7483.,32.,19.,2477.,0.,0.,10011.,0.846438849772,1.37546313088,416.
6.16,7473.,28.,22.,2488.,0.,0.,10011.,0.845307700702,1.56985715845,364.
6.18,7460.,30.,18.,2506.,0.,0.,10014.,0.843584409663,1.46221297675,390.
6.2,7449.,28.,16.,2522.,0.,0.,10015.,0.842256410553,1.56419047674,364.
6.22,7437.,26.,19.,2532.,0.,0.,10014.,0.840983546202,1.6819670924,338.
6.24,7425.,26.,11.,2553.,0.,0.,10015.,0.839542737059,1.67908547412,338.
6.26,7427.,19.,18.,2552.,0.,0.,10016.,0.839685033778,2.2980853556,247.
6.28,7412.,25.,16.,2563.,0.,0.,10016.,0.837989157178,1.74301744693,325.
6.3,7399.,26.,7.,2579.,0.,0.,10011.,0.836937197577,1.67387439515,338.
6.32,7400.,23.,11.,2578.,0.,0.,10012.,0.836966707778,1.89227255672,299.
6.34,7399.,15.,9.,2589.,0.,0.,10012.,0.836853604169,2.90109249445,195.
6.36,7398.,14.,12.,2589.,0.,0.,10013.,0.836656935145,3.10758290197,182.
6.38,7397.,15.,10.,2595.,0.,0.,10017.,0.836209793179,2.89886061635,195.
6.4,7398.,13.,4.,2600.,0.,0.,10015.,0.836489854379,3.34595941752,169.
6.42,7396.,10.,3.,2608.,0.,0.,10017.,0.836096746025,4.34770307933,130.
6.44,7399.,7.,5.,2606.,0.,0.,10017.,0.836435887485,6.21352373561,91.
6.46,7396.,11.,2.,2605.,0.,0.,10014.,0.836347224379,3.95364142434,143.
6.48,7398.,8.,4.,2602.,0.,0.,10012.,0.83674050056,5.43881325364,104.
6.5,7399.,6.,4.,2601.,0.,0.,10010.,0.837020807686,7.25418033328,78.
6.52,7398.,7.,1.,2604.,0.,0.,10010.,0.836907681479,6.21702849099,91.
6.54,7402.,6.,3.,2598.,0.,0.,10009.,0.837443847032,7.25784667428,78.
6.56,7406.,5.,2.,2595.,0.,0.,10008.,0.837980119733,8.71499324522,65.
6.58,7409.,0.,8.,2593.,0.,0.,10010.,0.838152069759,inf,0.
6.6,7411.,1.,2.,2596.,0.,0.,10010.,0.838378322174,43.595672753,13.
6.62,7419.,1.,1.,2592.,0.,0.,10013.,0.839031873728,43.6296574339,13.
6.64,7422.,2.,2.,2586.,0.,0.,10012.,0.83945498718,21.8258296667,26.
6.66,7425.,0.,2.,2585.,0.,0.,10012.,0.839794298007,inf,0.
6.68,7428.,2.,2.,2581.,0.,0.,10013.,0.840049704549,21.8412923183,26.
6.7,7433.,1.,1.,2579.,0.,0.,10014.,0.840531222122,43.7076235503,13.
6.72,7437.,1.,1.,2574.,0.,0.,10013.,0.841067535371,43.7355118393,13.
6.74,7439.,2.,1.,2570.,0.,0.,10012.,0.841377748535,21.8758214619,26.
6.76,7442.,3.,1.,2561.,0.,0.,10007.,0.842137623498,14.5970521406,39.
6.78,7449.,3.,0.,2559.,0.,0.,10011.,0.842592942931,14.6049443441,39.
6.8,7454.,2.,4.,2554.,0.,0.,10014.,0.842905923543,21.9155540121,26.
6.82,7452.,3.,2.,2552.,0.,0.,10009.,0.843100722519,14.613745857,39.
6.84,7455.,4.,2.,2548.,0.,0.,10009.,0.843440135048,10.9647217556,52.
6.86,7457.,6.,4.,2541.,0.,0.,10008.,0.843750709269,7.312506147,78.
6.88,7459.,4.,5.,2537.,0.,0.,10005.,0.844230073467,10.9749909551,52.
6.9,7454.,8.,2.,2540.,0.,0.,10004.,0.843748492439,5.48436520085,104.
6.92,7460.,10.,2.,2534.,0.,0.,10006.,0.844258872513,4.39014613707,130.
6.94,7459.,7.,7.,2530.,0.,0.,10003.,0.844398868843,6.2726773114,91.
6.96,7453.,13.,5.,2531.,0.,0.,10002.,0.843803991704,3.37521596682,169.
6.98,7450.,10.,12.,2531.,0.,0.,10003.,0.843380020496,4.38557610658,130.
7.,7437.,19.,11.,2534.,0.,0.,10001.,0.842076715495,2.30463101083,247.
7.02,7434.,16.,10.,2542.,0.,0.,10002.,0.841652874591,2.73537184242,208.
7.04,7429.,21.,12.,2541.,0.,0.,10003.,0.841002707686,2.08248289522,273.
7.06,7426.,19.,12.,2543.,0.,0.,10000.,0.840915290498,2.301452374,247.
7.08,7421.,26.,8.,2545.,0.,0.,10000.,0.840349093831,1.68069818766,338.
7.1,7419.,22.,13.,2546.,0.,0.,10000.,0.840122615164,1.98574436311,286.
7.12,7397.,30.,14.,2555.,0.,0.,9996.,0.837966536442,1.45247532983,390.
7.14,7387.,34.,15.,2558.,0.,0.,9994.,0.837001157186,1.28011941687,442.
7.16,7379.,31.,25.,2561.,0.,0.,9996.,0.835927412789,1.40220082145,403.
7.18,7357.,44.,16.,2580.,0.,0.,9997.,0.833351782022,0.984870287844,572.
7.2,7347.,36.,16.,2597.,0.,0.,9996.,0.832302304074,1.20221443922,468.
7.22,7343.,34.,12.,2606.,0.,0.,9995.,0.831932392015,1.27236718779,442.
7.24,7325.,34.,20.,2615.,0.,0.,9994.,0.829976103478,1.26937521708,442.
7.26,7322.,25.,28.,2626.,0.,0.,10001.,0.829055494266,1.72443542807,325.
7.28,7316.,29.,9.,2648.,0.,0.,10002.,0.828293305153,1.48521558165,377.
7.3,7314.,20.,10.,2655.,0.,0.,9999.,0.828315316679,2.15361982337,260.
7.32,7311.,18.,8.,2663.,0.,0.,10000.,0.827892767147,2.3916902162,234.
7.34,7303.,21.,12.,2664.,0.,0.,10000.,0.826986852479,2.04777696804,273.
7.36,7299.,24.,11.,2666.,0.,0.,10000.,0.826533895145,1.79082343948,312.
7.38,7301.,19.,11.,2668.,0.,0.,9999.,0.826843058118,2.2629388959,247.
7.4,7305.,14.,11.,2671.,0.,0.,10001.,0.827130618084,3.0721994386,182.
7.42,7309.,16.,2.,2679.,0.,0.,10006.,0.827169986488,2.68830245609,208.
7.44,7314.,11.,5.,2680.,0.,0.,10010.,0.827405080067,3.91136946941,143.
7.46,7311.,12.,4.,2682.,0.,0.,10009.,0.827148333647,3.5843094458,156.
7.48,7316.,10.,2.,2682.,0.,0.,10010.,0.827631332482,4.30368292891,130.
7.5,7315.,5.,4.,2684.,0.,0.,10008.,0.827683577619,8.60790920724,65.
7.52,7321.,6.,1.,2682.,0.,0.,10010.,0.828196963518,7.17770701716,78.
7.54,7334.,3.,0.,2677.,0.,0.,10014.,0.829336201136,14.3751608197,39.
7.56,7335.,1.,1.,2672.,0.,0.,10009.,0.82986363388,43.1529089618,13.
7.58,7342.,0.,1.,2667.,0.,0.,10010.,0.830572613871,inf,0.
7.6,7343.,0.,1.,2663.,0.,0.,10007.,0.830934771479,inf,0.
7.62,7354.,0.,0.,2657.,0.,0.,10011.,0.831847026758,inf,0.
7.64,7364.,0.,0.,2644.,0.,0.,10008.,0.833227869526,inf,0.
7.66,7366.,0.,0.,2641.,0.,0.,10007.,0.833537454271,inf,0.
7.68,7369.,0.,0.,2637.,0.,0.,10006.,0.833960272326,inf,0.
7.7,7372.,0.,0.,2634.,0.,0.,10006.,0.834299786618,inf,0.
7.72,7383.,0.,0.,2625.,0.,0.,10008.,0.835377697001,inf,0.
7.74,7385.,0.,0.,2622.,0.,0.,10007.,0.835687496578,inf,0.
7.76,7389.,0.,0.,2616.,0.,0.,10005.,0.836307281518,inf,0.
7.78,7397.,1.,1.,2605.,0.,0.,10004.,0.837296431255,43.5394144252,13.
7.8,7395.,2.,0.,2601.,0.,0.,9998.,0.837572385637,21.7768820266,26.
7.82,7397.,2.,1.,2597.,0.,0.,9997.,0.837882714641,21.7849505807,26.
7.84,7399.,3.,2.,2593.,0.,0.,9997.,0.838109261272,14.5272271954,39.
7.86,7400.,4.,2.,2591.,0.,0.,9997.,0.838222534588,10.8968929496,52.
7.88,7405.,8.,1.,2583.,0.,0.,9997.,0.838788901165,5.45212785757,104.
7.9,7418.,7.,1.,2572.,0.,0.,9998.,0.840177411313,6.24131791261,91.
7.92,7424.,5.,5.,2568.,0.,0.,10002.,0.84052070769,8.74141535997,65.
7.94,7430.,8.,4.,2563.,0.,0.,10005.,0.840947773945,5.46616053064,104.
7.96,7428.,8.,8.,2561.,0.,0.,10005.,0.840721408461,5.464689155,104.
7.98,7424.,14.,6.,2560.,0.,0.,10004.,0.840352670763,3.12130991998,182.
8.,7417.,15.,12.,2560.,0.,0.,10004.,0.839560312372,2.91047574956,195.
8.02,7419.,14.,11.,2560.,0.,0.,10004.,0.839786700484,3.11920774465,182.
8.04,7417.,17.,13.,2559.,0.,0.,10006.,0.839392500996,2.56755353246,221.
8.06,7413.,23.,9.,2562.,0.,0.,10007.,0.838855979977,1.89654395473,299.
8.08,7419.,20.,9.,2563.,0.,0.,10011.,0.839199495719,2.18191868887,260.
8.1,7418.,24.,9.,2562.,0.,0.,10013.,0.838918781415,1.81765735973,312.
8.12,7409.,21.,13.,2566.,0.,0.,10009.,0.8382358096,2.07563152853,273.
8.14,7405.,23.,14.,2569.,0.,0.,10011.,0.837615887019,1.8937402663,299.
8.16,7388.,31.,15.,2576.,0.,0.,10010.,0.835776419406,1.40194754223,403.
8.18,7382.,28.,13.,2587.,0.,0.,10010.,0.835097662163,1.5508956583,364.
8.2,7367.,35.,6.,2601.,0.,0.,10009.,0.833484034192,1.23831913651,455.
8.22,7364.,27.,10.,2605.,0.,0.,10006.,0.833394415173,1.6050559107,351.
8.24,7358.,25.,14.,2608.,0.,0.,10005.,0.832798616513,1.73222112235,325.
8.26,7345.,25.,13.,2620.,0.,0.,10003.,0.831493456449,1.72950638941,325.
8.28,7345.,23.,12.,2625.,0.,0.,10005.,0.831327240865,1.87952245761,299.
8.3,7342.,28.,10.,2625.,0.,0.,10005.,0.830987692639,1.54326285776,364.
8.32,7336.,26.,12.,2634.,0.,0.,10008.,0.830059702722,1.66011940544,338.
8.34,7333.,18.,17.,2639.,0.,0.,10007.,0.829803170265,2.39720915854,234.
8.36,7328.,25.,6.,2652.,0.,0.,10011.,0.828906039173,1.72412456148,325.
8.38,7328.,17.,7.,2658.,0.,0.,10010.,0.828988846969,2.53573059073,221.
8.4,7324.,13.,10.,2662.,0.,0.,10009.,0.828619121273,3.31447648509,169.
8.42,7321.,11.,6.,2665.,0.,0.,10003.,0.828776527524,3.91785267557,143.
8.44,7322.,8.,4.,2665.,0.,0.,9999.,0.829221321948,5.38993859266,104.
8.46,7322.,9.,2.,2668.,0.,0.,10001.,0.829055494266,4.79009841131,117.
8.48,7322.,5.,6.,2661.,0.,0.,9994.,0.829636181524,8.62821628785,65.
8.5,7328.,11.,1.,2658.,0.,0.,9998.,0.829983832583,3.92355993585,143.
8.52,7329.,8.,4.,2656.,0.,0.,9997.,0.830180129188,5.39617083973,104.
8.54,7333.,3.,4.,2660.,0.,0.,10000.,0.830384032484,14.3933232297,39.
8.56,7337.,1.,3.,2660.,0.,0.,10001.,0.830753914426,43.1992035502,13.
8.58,7349.,1.,0.,2655.,0.,0.,10005.,0.831779971834,43.2525585353,13.
8.6,7355.,1.,1.,2649.,0.,0.,10006.,0.832375872297,43.2835453594,13.
8.62,7361.,2.,0.,2645.,0.,0.,10008.,0.832888423083,21.6550990002,26.
8.64,7368.,3.,0.,2639.,0.,0.,10010.,0.833513895261,14.4475741845,39.
8.66,7370.,1.,0.,2638.,0.,0.,10009.,0.833823446721,43.3588192295,13.
8.68,7375.,0.,3.,2631.,0.,0.,10009.,0.834389134269,inf,0.
8.7,7376.,6.,2.,2626.,0.,0.,10010.,0.834418904919,7.2316305093,78.
8.72,7377.,2.,4.,2626.,0.,0.,10009.,0.834615409289,21.7000006415,26.
8.74,7384.,1.,7.,2623.,0.,0.,10015.,0.834906878174,43.4151576651,13.
8.76,7391.,2.,1.,2621.,0.,0.,10015.,0.835698366277,21.7281575232,26.
8.78,7394.,2.,0.,2619.,0.,0.,10015.,0.836037575463,21.736976962,26.
8.8,7395.,2.,4.,2614.,0.,0.,10015.,0.836150645192,21.739916775,26.
8.82,7390.,11.,0.,2612.,0.,0.,10013.,0.835752196637,3.95082856592,143.
8.84,7392.,11.,1.,2606.,0.,0.,10010.,0.836228924235,3.95308218729,143.
8.86,7400.,7.,3.,2598.,0.,0.,10008.,0.837301226846,6.21995197086,91.
8.88,7397.,6.,5.,2599.,0.,0.,10007.,0.837045418034,7.25439362297,78.
8.9,7402.,9.,6.,2593.,0.,0.,10010.,0.837360186308,4.83808107645,117.
8.92,7393.,13.,4.,2597.,0.,0.,10007.,0.836592777549,3.3463711102,169.
8.94,7389.,12.,10.,2595.,0.,0.,10006.,0.836223700939,3.6236360374,156.
8.96,7385.,17.,8.,2594.,0.,0.,10004.,0.835938102584,2.55698713732,221.
8.98,7375.,18.,11.,2599.,0.,0.,10003.,0.834889617605,2.41190333975,234.
9.,7379.,12.,14.,2597.,0.,0.,10002.,0.835425956633,3.62017914541,156.
9.02,7369.,18.,10.,2604.,0.,0.,10001.,0.834377210768,2.41042305333,234.
9.04,7368.,18.,8.,2604.,0.,0.,9998.,0.834514312018,2.41081912361,234.
9.06,7364.,20.,11.,2606.,0.,0.,10001.,0.833811070715,2.16790878386,260.
9.08,7356.,17.,14.,2612.,0.,0.,9999.,0.833071844338,2.54821975915,221.
9.1,7347.,25.,11.,2614.,0.,0.,9997.,0.832219048867,1.73101562164,325.
9.12,7337.,24.,17.,2617.,0.,0.,9995.,0.831252616126,1.80104733494,312.
9.14,7337.,30.,11.,2621.,0.,0.,9999.,0.830920081826,1.44026147516,390.
9.16,7339.,22.,21.,2617.,0.,0.,9999.,0.831146583143,1.96452828743,286.
9.18,7319.,35.,18.,2627.,0.,0.,9999.,0.828881569972,1.23148118967,455.
9.2,7308.,36.,16.,2638.,0.,0.,9998.,0.827718592865,1.19559352303,468.
9.22,7300.,33.,14.,2655.,0.,0.,10002.,0.826481838111,1.30233501763,429.
9.24,7289.,31.,15.,2668.,0.,0.,10003.,0.825153955623,1.38412921588,403.
9.26,7278.,35.,8.,2681.,0.,0.,10002.,0.823991070928,1.22421530538,455.
9.28,7275.,24.,21.,2679.,0.,0.,9999.,0.823898540995,1.78511350549,312.
9.3,7264.,33.,8.,2692.,0.,0.,9997.,0.822817363682,1.29656069429,429.
9.32,7261.,27.,11.,2695.,0.,0.,9994.,0.822724435133,1.58450631952,351.
9.34,7264.,20.,11.,2700.,0.,0.,9995.,0.822982009478,2.13975322464,260.
9.36,7272.,15.,9.,2701.,0.,0.,9997.,0.823723550206,2.85557497405,195.
9.38,7267.,12.,10.,2705.,0.,0.,9994.,0.823404279041,3.56808520918,156.
9.4,7272.,15.,7.,2705.,0.,0.,9999.,0.82355878902,2.85500380193,195.
9.42,7274.,14.,8.,2703.,0.,0.,9999.,0.823785290337,3.05977393554,182.
9.44,7271.,14.,7.,2707.,0.,0.,9999.,0.823445538361,3.05851199963,182.
9.46,7275.,8.,3.,2716.,0.,0.,10002.,0.823651420857,5.35373423557,104.
9.48,7280.,6.,2.,2715.,0.,0.,10003.,0.824135107277,7.14250426306,78.
9.5,7280.,5.,5.,2711.,0.,0.,10001.,0.824299917817,8.5727191453,65.
9.52,7282.,2.,1.,2714.,0.,0.,9999.,0.824691295605,21.4419736857,26.
9.54,7284.,2.,1.,2711.,0.,0.,9998.,0.825000305204,21.4500079353,26.
9.56,7283.,2.,1.,2709.,0.,0.,9995.,0.825134633126,21.4535004613,26.
9.58,7294.,2.,1.,2701.,0.,0.,9998.,0.826132925063,21.4794560516,26.
9.6,7299.,3.,0.,2696.,0.,0.,9998.,0.826699234992,14.3294534065,39.
9.62,7303.,2.,0.,2694.,0.,0.,9999.,0.827069559435,21.5038085453,26.
9.64,7308.,2.,1.,2689.,0.,0.,10000.,0.827553049146,21.5163792778,26.
9.66,7315.,2.,1.,2683.,0.,0.,10001.,0.828262898191,21.534835353,26.
9.68,7321.,1.,2.,2678.,0.,0.,10002.,0.828859388604,43.1006882074,13.
9.7,7325.,1.,0.,2675.,0.,0.,10001.,0.829395178298,43.1285492715,13.
9.72,7332.,2.,0.,2669.,0.,0.,10003.,0.830021786614,21.580566452,26.
9.74,7340.,1.,1.,2661.,0.,0.,10003.,0.830927429589,43.2082263386,13.
9.76,7351.,2.,0.,2655.,0.,0.,10008.,0.831756934939,21.6256803084,26.
9.78,7358.,1.,1.,2651.,0.,0.,10011.,0.832299486386,43.2795732921,13.
9.8,7360.,2.,2.,2647.,0.,0.,10011.,0.8325257162,21.6456686212,26.
9.82,7366.,4.,1.,2643.,0.,0.,10014.,0.832954793778,10.8284123191,52.
9.84,7368.,5.,0.,2642.,0.,0.,10015.,0.833097762512,8.66421673013,65.
9.86,7373.,3.,2.,2638.,0.,0.,10016.,0.833579878018,14.4487178857,39.
9.88,7380.,2.,2.,2632.,0.,0.,10016.,0.834371287098,21.6936534646,26.
9.9,7377.,6.,2.,2629.,0.,0.,10014.,0.834198684998,7.22972193665,78.
9.92,7371.,8.,3.,2626.,0.,0.,10008.,0.834019911227,5.42112942298,104.
9.94,7379.,5.,5.,2622.,0.,0.,10011.,0.834674899435,8.68061895412,65.
9.96,7374.,14.,5.,2621.,0.,0.,10014.,0.833859441938,3.09719221291,182.
9.98,7378.,9.,6.,2621.,0.,0.,10014.,0.834311766018,4.82046798144,117.
10.,7382.,7.,4.,2620.,0.,0.,10013.,0.834847458129,6.20172397467,91.
