t,cases
5.01,4.55
5.02,4.55
5.03,4.095
5.04,4.095
5.05,3.315
5.06,3.315
5.07,3.445
5.08,3.445
5.09,3.965
5.1,3.965
5.11,4.68
5.12,4.68
5.13,5.395
5.14,5.395
5.15,4.485
5.16,4.485
5.17,3.705
5.18,3.705
5.19,3.705
5.2,3.705
5.21,3.64
5.22,3.64
5.23,3.77
5.24,3.77
5.25,3.965
5.26,3.965
5.27,4.355
5.28,4.355
5.29,4.16
5.3,4.16
5.31,3.185
5.32,3.185
5.33,2.535
5.34,2.535
5.35,2.535
5.36,2.535
5.37,2.665
5.38,2.665
5.39,2.405
5.4,2.405
5.41,2.015
5.42,2.015
5.43,1.625
5.44,1.625
5.45,1.105
5.46,1.105
5.47,0.78
5.48,0.78
5.49,0.65
5.5,0.65
5.51,0.52
5.52,0.52
5.53,0.585
5.54,0.585
5.55,0.585
5.56,0.585
5.57,0.52
5.58,0.52
5.59,0.325
5.6,0.325
5.61,0.195
5.62,0.195
5.63,0.13
5.64,0.13
5.65,0.065
5.66,0.065
5.67,0.195
5.68,0.195
5.69,0.325
5.7,0.325
5.71,0.39
5.72,0.39
5.73,0.325
5.74,0.325
5.75,0.325
5.76,0.325
5.77,0.26
5.78,0.26
5.79,0.26
5.8,0.26
5.81,0.585
5.82,0.585
5.83,0.585
5.84,0.585
5.85,0.975
5.86,0.975
5.87,1.56
5.88,1.56
5.89,1.755
5.9,1.755
5.91,1.885
5.92,1.885
5.93,1.495
5.94,1.495
5.95,1.82
5.96,1.82
5.97,2.08
5.98,2.08
5.99,2.015
6.,2.015
6.01,2.34
6.02,2.34
6.03,2.145
6.04,2.145
6.05,2.145
6.06,2.145
6.07,2.665
6.08,2.665
6.09,3.315
6.1,3.315
6.11,3.575
6.12,3.575
6.13,3.315
6.14,3.315
6.15,3.77
6.16,3.77
6.17,4.81
6.18,4.81
6.19,4.81
6.2,4.81
6.21,4.42
6.22,4.42
6.23,3.705
6.24,3.705
6.25,3.25
6.26,3.25
6.27,3.575
6.28,3.575
6.29,3.51
6.3,3.51
6.31,3.055
6.32,3.055
6.33,2.275
6.34,2.275
6.35,1.69
6.36,1.69
6.37,1.495
6.38,1.495
6.39,1.43
6.4,1.43
6.41,1.365
6.42,1.365
6.43,1.105
6.44,1.105
6.45,1.04
6.46,1.04
6.47,0.975
6.48,0.975
6.49,0.585
6.5,0.585
6.51,0.325
6.52,0.325
6.53,0.195
6.54,0.195
6.55,0.065
6.56,0.065
6.57,0.
6.58,0.
6.59,0.
6.6,0.
6.61,0.
6.62,0.
6.63,0.065
6.64,0.065
6.65,0.065
6.66,0.065
6.67,0.
6.68,0.
6.69,0.
6.7,0.
6.71,0.
6.72,0.
6.73,0.
6.74,0.
6.75,0.065
6.76,0.065
6.77,0.13
6.78,0.13
6.79,0.065
6.8,0.065
6.81,0.065
6.82,0.065
6.83,0.195
6.84,0.195
6.85,0.195
6.86,0.195
6.87,0.52
6.88,0.52
6.89,0.65
6.9,0.65
6.91,0.65
6.92,0.65
6.93,0.65
6.94,0.65
6.95,0.845
6.96,0.845
6.97,1.43
6.98,1.43
6.99,1.755
7.,1.755
7.01,2.145
7.02,2.145
7.03,2.275
7.04,2.275
7.05,2.145
7.06,2.145
7.07,2.405
7.08,2.405
7.09,3.055
7.1,3.055
7.11,3.575
7.12,3.575
7.13,3.445
7.14,3.445
7.15,2.665
7.16,2.665
7.17,3.055
7.18,3.055
7.19,3.575
7.2,3.575
7.21,3.445
7.22,3.445
7.23,3.77
7.24,3.77
7.25,3.77
7.26,3.77
7.27,3.575
7.28,3.575
7.29,3.315
7.3,3.315
7.31,3.12
7.32,3.12
7.33,2.86
7.34,2.86
7.35,2.405
7.36,2.405
7.37,2.145
7.38,2.145
7.39,1.755
7.4,1.755
7.41,1.495
7.42,1.495
7.43,1.235
7.44,1.235
7.45,0.91
7.46,0.91
7.47,0.845
7.48,0.845
7.49,0.455
7.5,0.455
7.51,0.26
7.52,0.26
7.53,0.26
7.54,0.26
7.55,0.26
7.56,0.26
7.57,0.195
7.58,0.195
7.59,0.
7.6,0.
7.61,0.
7.62,0.
7.63,0.
7.64,0.
7.65,0.065
7.66,0.065
7.67,0.13
7.68,0.13
7.69,0.13
7.7,0.13
7.71,0.065
7.72,0.065
7.73,0.
7.74,0.
7.75,0.065
7.76,0.065
7.77,0.13
7.78,0.13
7.79,0.13
7.8,0.13
7.81,0.39
7.82,0.39
7.83,0.65
7.84,0.65
7.85,0.65
7.86,0.65
7.87,0.65
7.88,0.65
7.89,0.585
7.9,0.585
7.91,0.78
7.92,0.78
7.93,1.105
7.94,1.105
7.95,1.495
7.96,1.495
7.97,1.82
7.98,1.82
7.99,1.755
8.,1.755
8.01,1.755
8.02,1.755
8.03,2.665
8.04,2.665
8.05,3.705
8.06,3.705
8.07,3.9
8.08,3.9
8.09,3.9
8.1,3.9
8.11,4.16
8.12,4.16
8.13,4.875
8.14,4.875
8.15,4.68
8.16,4.68
8.17,4.355
8.18,4.355
8.19,4.225
8.2,4.225
8.21,4.16
8.22,4.16
8.23,4.225
8.24,4.225
8.25,4.095
8.26,4.095
8.27,4.29
8.28,4.29
8.29,4.095
8.3,4.095
8.31,3.64
8.32,3.64
8.33,2.73
8.34,2.73
8.35,2.405
8.36,2.405
8.37,2.405
8.38,2.405
8.39,1.95
8.4,1.95
8.41,1.755
8.42,1.755
8.43,2.08
8.44,2.08
8.45,2.145
8.46,2.145
8.47,1.17
8.48,1.17
8.49,0.65
8.5,0.65
8.51,0.52
8.52,0.52
8.53,0.13
8.54,0.13
8.55,0.
8.56,0.
8.57,0.
8.58,0.
8.59,0.0650000000001
8.6,0.0649999999999
8.61,0.13
8.62,0.13
8.63,0.13
8.64,0.13
8.65,0.13
8.66,0.13
8.67,0.13
8.68,0.13
8.69,0.0649999999999
8.7,0.0650000000001
8.71,0.0650000000001
8.72,0.0649999999999
8.73,0.13
8.74,0.13
8.75,0.195
8.76,0.195
8.77,0.26
8.78,0.26
8.79,0.195
8.8,0.195
8.81,0.195
8.82,0.195
8.83,0.26
8.84,0.26
8.85,0.39
8.86,0.39
8.87,0.65
8.88,0.65
8.89,0.78
8.9,0.78
8.91,0.91
8.92,0.91
8.93,1.105
8.94,1.105
8.95,1.3
8.96,1.3
8.97,1.755
8.98,1.755
8.99,1.625
9.,1.625
9.01,1.69
9.02,1.69
9.03,2.47
9.04,2.47
9.05,3.315
9.06,3.315
9.07,3.38
9.08,3.38
9.09,3.575
9.1,3.575
9.11,4.355
9.12,4.355
9.13,4.355
9.14,4.355
9.15,5.07
9.16,5.07
9.17,5.265
9.18,5.265
9.19,4.94
9.2,4.94
9.21,4.94
9.22,4.94
9.23,4.03
9.24,4.03
9.25,2.925
9.26,2.925
9.27,2.86
9.28,2.86
9.29,3.185
9.3,3.185
9.31,3.12
9.32,3.12
9.33,2.6
9.34,2.6
9.35,2.405
9.36,2.405
9.37,2.535
9.38,2.535
9.39,2.275
9.4,2.275
9.41,2.08
9.42,2.08
9.43,1.625
9.44,1.625
9.45,1.235
9.46,1.235
9.47,0.975
9.48,0.975
9.49,0.52
9.5,0.52
9.51,0.455
9.52,0.455
9.53,0.715
9.54,0.715
9.55,0.78
9.56,0.78
9.57,0.585
9.58,0.585
9.59,0.39
9.6,0.39
9.61,0.325
9.62,0.325
9.63,0.325
9.64,0.325
9.65,0.195
9.66,0.195
9.67,0.13
9.68,0.13
9.69,0.195
9.7,0.195
9.71,0.13
9.72,0.13
9.73,0.13
9.74,0.13
9.75,0.13
9.76,0.13
9.77,0.195
9.78,0.195
9.79,0.325
9.8,0.325
9.81,0.455
9.82,0.455
9.83,0.455
9.84,0.455
9.85,0.52
9.86,0.52
9.87,0.845
9.88,0.845
9.89,1.17
9.9,1.17
9.91,1.235
9.92,1.235
9.93,1.365
9.94,1.365
9.95,1.43
9.96,1.43
9.97,1.43
9.98,1.43
9.99,1.755
10.,1.755
