t,cases
5.01,3.25
5.02,3.25
5.03,3.315
5.04,3.315
5.05,2.99
5.06,2.99
5.07,2.99
5.08,2.99
5.09,3.12
5.1,3.12
5.11,3.38
5.12,3.38
5.13,3.575
5.14,3.575
5.15,3.835
5.16,3.835
5.17,4.29
5.18,4.29
5.19,4.03
5.2,4.03
5.21,3.965
5.22,3.965
5.23,4.16
5.24,4.16
5.25,3.965
5.26,3.965
5.27,3.64
5.28,3.64
5.29,3.12
5.3,3.12
5.31,2.925
5.32,2.925
5.33,3.185
5.34,3.185
5.35,2.535
5.36,2.535
5.37,1.95
5.38,1.95
5.39,1.69
5.4,1.69
5.41,1.17
5.42,1.17
5.43,0.91
5.44,0.91
5.45,0.65
5.46,0.65
5.47,0.585
5.48,0.585
5.49,0.52
5.5,0.52
5.51,0.455
5.52,0.455
5.53,0.26
5.54,0.26
5.55,0.13
5.56,0.13
5.57,0.13
5.58,0.13
5.59,0.
5.6,0.
5.61,0.13
5.62,0.13
5.63,0.13
5.64,0.13
5.65,0.065
5.66,0.065
5.67,0.195
5.68,0.195
5.69,0.13
5.7,0.13
5.71,0.
5.72,0.
5.73,0.
5.74,0.
5.75,0.13
5.76,0.13
5.77,0.26
5.78,0.26
5.79,0.325
5.8,0.325
5.81,0.39
5.82,0.39
5.83,0.845
5.84,0.845
5.85,0.91
5.86,0.91
5.87,1.04
5.88,1.04
5.89,1.56
5.9,1.56
5.91,1.82
5.92,1.82
5.93,1.755
5.94,1.755
5.95,1.755
5.96,1.755
5.97,2.34
5.98,2.34
5.99,2.665
6.,2.665
6.01,3.445
6.02,3.445
6.03,4.29
6.04,4.29
6.05,4.615
6.06,4.615
6.07,4.355
6.08,4.355
6.09,4.16
6.1,4.16
6.11,4.615
6.12,4.615
6.13,4.875
6.14,4.875
6.15,4.745
6.16,4.745
6.17,4.355
6.18,4.355
6.19,4.68
6.2,4.68
6.21,4.615
6.22,4.615
6.23,3.965
6.24,3.965
6.25,3.77
6.26,3.77
6.27,3.77
6.28,3.77
6.29,3.64
6.3,3.64
6.31,3.12
6.32,3.12
6.33,2.535
6.34,2.535
6.35,2.21
6.36,2.21
6.37,2.015
6.38,2.015
6.39,1.625
6.4,1.625
6.41,1.495
6.42,1.495
6.43,1.365
6.44,1.365
6.45,1.04
6.46,1.04
6.47,0.78
6.48,0.78
6.49,0.65
6.5,0.65
6.51,0.455
6.52,0.455
6.53,0.195
6.54,0.195
6.55,0.13
6.56,0.13
6.57,0.13
6.58,0.13
6.59,0.065
6.6,0.065
6.61,0.
6.62,0.
6.63,0.065
6.64,0.065
6.65,0.065
6.66,0.065
6.67,0.
6.68,0.
6.69,0.
6.7,0.
6.71,0.
6.72,0.
6.73,0.
6.74,0.
6.75,0.
6.76,0.
6.77,0.
6.78,0.
6.79,0.065
6.8,0.065
6.81,0.195
6.82,0.195
6.83,0.325
6.84,0.325
6.85,0.455
6.86,0.455
6.87,0.52
6.88,0.52
6.89,0.585
6.9,0.585
6.91,0.91
6.92,0.91
6.93,1.17
6.94,1.17
6.95,1.43
6.96,1.43
6.97,1.95
6.98,1.95
6.99,2.145
7.,2.145
7.01,2.145
7.02,2.145
7.03,2.08
7.04,2.08
7.05,1.95
7.06,1.95
7.07,2.08
7.08,2.08
7.09,2.925
7.1,2.925
7.11,3.445
7.12,3.445
7.13,3.9
7.14,3.9
7.15,4.81
7.16,4.81
7.17,4.355
7.18,4.355
7.19,3.575
7.2,3.575
7.21,4.225
7.22,4.225
7.23,3.965
7.24,3.965
7.25,3.12
7.26,3.12
7.27,3.12
7.28,3.12
7.29,3.12
7.3,3.12
7.31,2.795
7.32,2.795
7.33,2.145
7.34,2.145
7.35,1.885
7.36,1.885
7.37,2.015
7.38,2.015
7.39,1.885
7.4,1.885
7.41,1.365
7.42,1.365
7.43,1.365
7.44,1.365
7.45,1.235
7.46,1.235
7.47,0.91
7.48,0.91
7.49,0.78
7.5,0.78
7.51,0.455
7.52,0.455
7.53,0.26
7.54,0.26
7.55,0.26
7.56,0.26
7.57,0.26
7.58,0.26
7.59,0.195
7.6,0.195
7.61,0.065
7.62,0.065
7.63,0.
7.64,0.
7.65,0.
7.66,0.
7.67,0.
7.68,0.
7.69,0.
7.7,0.
7.71,0.065
7.72,0.065
7.73,0.13
7.74,0.13
7.75,0.195
7.76,0.195
7.77,0.195
7.78,0.195
7.79,0.065
7.8,0.065
7.81,0.065
7.82,0.065
7.83,0.325
7.84,0.325
7.85,0.585
7.86,0.585
7.87,0.455
7.88,0.455
7.89,0.52
7.9,0.52
7.91,1.04
7.92,1.04
7.93,1.625
7.94,1.625
7.95,1.82
7.96,1.82
7.97,1.625
7.98,1.625
7.99,1.82
8.,1.82
8.01,2.275
8.02,2.275
8.03,2.34
8.04,2.34
8.05,2.405
8.06,2.405
8.07,2.925
8.08,2.925
8.09,3.38
8.1,3.38
8.11,3.64
8.12,3.64
8.13,4.225
8.14,4.225
8.15,4.745
8.16,4.745
8.17,4.745
8.18,4.745
8.19,4.485
8.2,4.485
8.21,4.42
8.22,4.42
8.23,4.225
8.24,4.225
8.25,3.835
8.26,3.835
8.27,3.575
8.28,3.575
8.29,3.315
8.3,3.315
8.31,3.055
8.32,3.055
8.33,2.86
8.34,2.86
8.35,2.925
8.36,2.925
8.37,3.055
8.38,3.055
8.39,2.665
8.4,2.665
8.41,1.82
8.42,1.82
8.43,1.235
8.44,1.235
8.45,1.04
8.46,1.04
8.47,1.3
8.48,1.3
8.49,1.105
8.5,1.105
8.51,0.52
8.52,0.52
8.53,0.39
8.54,0.39
8.55,0.195
8.56,0.195
8.57,0.
8.58,0.
8.59,0.0649999999999
8.6,0.0650000000001
8.61,0.0649999999999
8.62,0.0650000000001
8.63,0.13
8.64,0.13
8.65,0.13
8.66,0.13
8.67,0.0649999999999
8.68,0.0650000000001
8.69,0.195
8.7,0.195
8.71,0.195
8.72,0.195
8.73,0.0650000000001
8.74,0.0649999999999
8.75,0.13
8.76,0.13
8.77,0.26
8.78,0.26
8.79,0.26
8.8,0.26
8.81,0.39
8.82,0.39
8.83,0.455
8.84,0.455
8.85,0.585
8.86,0.585
8.87,0.845
8.88,0.845
8.89,1.105
8.9,1.105
8.91,1.365
8.92,1.365
8.93,1.625
8.94,1.625
8.95,2.21
8.96,2.21
8.97,2.86
8.98,2.86
8.99,2.665
9.,2.665
9.01,2.405
9.02,2.405
9.03,2.73
9.04,2.73
9.05,2.73
9.06,2.73
9.07,2.86
9.08,2.86
9.09,3.705
9.1,3.705
9.11,4.225
9.12,4.225
9.13,4.03
9.14,4.03
9.15,4.355
9.16,4.355
9.17,4.485
9.18,4.485
9.19,4.485
9.2,4.485
9.21,4.615
9.22,4.615
9.23,4.225
9.24,4.225
9.25,3.705
9.26,3.705
9.27,2.86
9.28,2.86
9.29,2.405
9.3,2.405
9.31,2.34
9.32,2.34
9.33,2.275
9.34,2.275
9.35,2.145
9.36,2.145
9.37,1.885
9.38,1.885
9.39,1.755
9.4,1.755
9.41,1.43
9.42,1.43
9.43,0.975
9.44,0.975
9.45,0.845
9.46,0.845
9.47,0.715
9.48,0.715
9.49,0.715
9.5,0.715
9.51,0.455
9.52,0.455
9.53,0.
9.54,0.
9.55,0.0650000000001
9.56,0.0649999999999
9.57,0.325
9.58,0.325
9.59,0.52
9.6,0.52
9.61,0.455
9.62,0.455
9.63,0.455
9.64,0.455
9.65,0.325
9.66,0.325
9.67,0.195
9.68,0.195
9.69,0.195
9.7,0.195
9.71,0.0650000000001
9.72,0.0649999999999
9.73,0.0650000000001
9.74,0.0649999999999
9.75,0.26
9.76,0.26
9.77,0.52
9.78,0.52
9.79,0.455
9.8,0.455
9.81,0.26
9.82,0.26
9.83,0.325
9.84,0.325
9.85,0.78
9.86,0.78
9.87,1.3
9.88,1.3
9.89,1.43
9.9,1.43
9.91,1.56
9.92,1.56
9.93,1.495
9.94,1.495
9.95,1.365
9.96,1.365
9.97,1.495
9.98,1.495
9.99,1.625
10.,1.625
