t,cases
5.01,3.9
5.02,3.9
5.03,3.51
5.04,3.51
5.05,2.795
5.06,2.795
5.07,3.12
5.08,3.12
5.09,3.835
5.1,3.835
5.11,4.095
5.12,4.095
5.13,4.095
5.14,4.095
5.15,3.64
5.16,3.64
5.17,3.25
5.18,3.25
5.19,3.445
5.2,3.445
5.21,3.9
5.22,3.9
5.23,4.29
5.24,4.29
5.25,3.965
5.26,3.965
5.27,3.705
5.28,3.705
5.29,3.835
5.3,3.835
5.31,3.25
5.32,3.25
5.33,2.535
5.34,2.535
5.35,2.275
5.36,2.275
5.37,2.34
5.38,2.34
5.39,2.21
5.4,2.21
5.41,1.755
5.42,1.755
5.43,1.495
5.44,1.495
5.45,1.17
5.46,1.17
5.47,1.04
5.48,1.04
5.49,1.04
5.5,1.04
5.51,0.975
5.52,0.975
5.53,0.65
5.54,0.65
5.55,0.325
5.56,0.325
5.57,0.52
5.58,0.52
5.59,0.39
5.6,0.39
5.61,0.26
5.62,0.26
5.63,0.195
5.64,0.195
5.65,0.065
5.66,0.065
5.67,0.195
5.68,0.195
5.69,0.325
5.7,0.325
5.71,0.39
5.72,0.39
5.73,0.325
5.74,0.325
5.75,0.26
5.76,0.26
5.77,0.195
5.78,0.195
5.79,0.325
5.8,0.325
5.81,0.585
5.82,0.585
5.83,0.715
5.84,0.715
5.85,1.235
5.86,1.235
5.87,1.755
5.88,1.755
5.89,2.015
5.9,2.015
5.91,2.145
5.92,2.145
5.93,2.015
5.94,2.015
5.95,2.34
5.96,2.34
5.97,2.405
5.98,2.405
5.99,2.21
6.,2.21
6.01,2.21
6.02,2.21
6.03,2.275
6.04,2.275
6.05,2.86
6.06,2.86
6.07,3.055
6.08,3.055
6.09,2.665
6.1,2.665
6.11,2.73
6.12,2.73
6.13,3.185
6.14,3.185
6.15,3.445
6.16,3.445
6.17,4.615
6.18,4.615
6.19,5.85
6.2,5.85
6.21,5.655
6.22,5.655
6.23,5.07
6.24,5.07
6.25,4.875
6.26,4.875
6.27,4.55
6.28,4.55
6.29,4.225
6.3,4.225
6.31,3.965
6.32,3.965
6.33,3.38
6.34,3.38
6.35,3.055
6.36,3.055
6.37,2.47
6.38,2.47
6.39,1.95
6.4,1.95
6.41,2.015
6.42,2.015
6.43,2.145
6.44,2.145
6.45,2.275
6.46,2.275
6.47,1.95
6.48,1.95
6.49,1.235
6.5,1.235
6.51,0.845
6.52,0.845
6.53,0.39
6.54,0.39
6.55,0.065
6.56,0.065
6.57,0.065
6.58,0.065
6.59,0.065
6.6,0.065
6.61,0.065
6.62,0.065
6.63,0.065
6.64,0.065
6.65,0.065
6.66,0.065
6.67,0.
6.68,0.
6.69,0.
6.7,0.
6.71,0.13
6.72,0.13
6.73,0.26
6.74,0.26
6.75,0.325
6.76,0.325
6.77,0.325
6.78,0.325
6.79,0.325
6.8,0.325
6.81,0.52
6.82,0.52
6.83,0.585
6.84,0.585
6.85,0.585
6.86,0.585
6.87,1.17
6.88,1.17
6.89,1.3
6.9,1.3
6.91,0.975
6.92,0.975
6.93,1.235
6.94,1.235
6.95,1.495
6.96,1.495
6.97,1.495
6.98,1.495
6.99,1.3
7.,1.3
7.01,1.56
7.02,1.56
7.03,1.82
7.04,1.82
7.05,1.69
7.06,1.69
7.07,2.275
7.08,2.275
7.09,2.925
7.1,2.925
7.11,3.12
7.12,3.12
7.13,2.99
7.14,2.99
7.15,2.86
7.16,2.86
7.17,3.64
7.18,3.64
7.19,4.16
7.2,4.16
7.21,4.29
7.22,4.29
7.23,4.29
7.24,4.29
7.25,3.64
7.26,3.64
7.27,3.38
7.28,3.38
7.29,3.185
7.3,3.185
7.31,2.665
7.32,2.665
7.33,2.535
7.34,2.535
7.35,2.21
7.36,2.21
7.37,1.755
7.38,1.755
7.39,1.495
7.4,1.495
7.41,1.365
7.42,1.365
7.43,1.17
7.44,1.17
7.45,0.91
7.46,0.91
7.47,0.91
7.48,0.91
7.49,0.91
7.5,0.91
7.51,0.585
7.52,0.585
7.53,0.26
7.54,0.26
7.55,0.13
7.56,0.13
7.57,0.065
7.58,0.065
7.59,0.065
7.6,0.065
7.61,0.065
7.62,0.065
7.63,0.195
7.64,0.195
7.65,0.26
7.66,0.26
7.67,0.195
7.68,0.195
7.69,0.13
7.7,0.13
7.71,0.0649999999999
7.72,0.0650000000001
7.73,0.
7.74,0.
7.75,0.0649999999999
7.76,0.0650000000001
7.77,0.0649999999999
7.78,0.0650000000001
7.79,0.195
7.8,0.195
7.81,0.39
7.82,0.39
7.83,0.585
7.84,0.585
7.85,0.78
7.86,0.78
7.87,0.715
7.88,0.715
7.89,0.585
7.9,0.585
7.91,0.845
7.92,0.845
7.93,1.3
7.94,1.3
7.95,1.625
7.96,1.625
7.97,1.82
7.98,1.82
7.99,1.755
8.,1.755
8.01,1.885
8.02,1.885
8.03,2.47
8.04,2.47
8.05,3.38
8.06,3.38
8.07,4.03
8.08,4.03
8.09,4.03
8.1,4.03
8.11,3.9
8.12,3.9
8.13,4.355
8.14,4.355
8.15,4.225
8.16,4.225
8.17,3.965
8.18,3.965
8.19,3.835
8.2,3.835
8.21,3.575
8.22,3.575
8.23,3.38
8.24,3.38
8.25,3.38
8.26,3.38
8.27,3.64
8.28,3.64
8.29,3.315
8.3,3.315
8.31,2.665
8.32,2.665
8.33,1.885
8.34,1.885
8.35,1.625
8.36,1.625
8.37,1.625
8.38,1.625
8.39,1.365
8.4,1.365
8.41,1.235
8.42,1.235
8.43,1.365
8.44,1.365
8.45,1.04
8.46,1.04
8.47,0.52
8.48,0.52
8.49,0.52
8.5,0.52
8.51,0.39
8.52,0.39
8.53,0.0649999999999
8.54,0.0650000000001
8.55,0.
8.56,0.
8.57,0.
8.58,0.
8.59,0.
8.6,0.
8.61,0.0649999999999
8.62,0.0650000000001
8.63,0.195
8.64,0.195
8.65,0.26
8.66,0.26
8.67,0.26
8.68,0.26
8.69,0.26
8.7,0.26
8.71,0.13
8.72,0.13
8.73,0.13
8.74,0.13
8.75,0.195
8.76,0.195
8.77,0.195
8.78,0.195
8.79,0.26
8.8,0.26
8.81,0.26
8.82,0.26
8.83,0.39
8.84,0.39
8.85,0.52
8.86,0.52
8.87,0.585
8.88,0.585
8.89,0.715
8.9,0.715
8.91,0.78
8.92,0.78
8.93,0.975
8.94,0.975
8.95,1.235
8.96,1.235
8.97,1.69
8.98,1.69
8.99,1.82
9.,1.82
9.01,1.95
9.02,1.95
9.03,2.47
9.04,2.47
9.05,2.405
9.06,2.405
9.07,2.665
9.08,2.665
9.09,3.77
9.1,3.77
9.11,4.42
9.12,4.42
9.13,4.03
9.14,4.03
9.15,4.29
9.16,4.29
9.17,4.42
9.18,4.42
9.19,4.29
9.2,4.29
9.21,4.615
9.22,4.615
9.23,4.095
9.24,4.095
9.25,3.64
9.26,3.64
9.27,4.16
9.28,4.16
9.29,4.16
9.3,4.16
9.31,3.38
9.32,3.38
9.33,2.665
9.34,2.665
9.35,2.34
9.36,2.34
9.37,2.275
9.38,2.275
9.39,2.21
9.4,2.21
9.41,2.145
9.42,2.145
9.43,1.69
9.44,1.69
9.45,1.3
9.46,1.3
9.47,1.235
9.48,1.235
9.49,1.04
9.5,1.04
9.51,0.78
9.52,0.78
9.53,0.65
9.54,0.65
9.55,0.39
9.56,0.39
9.57,0.13
9.58,0.13
9.59,0.13
9.6,0.13
9.61,0.195
9.62,0.195
9.63,0.26
9.64,0.26
9.65,0.26
9.66,0.26
9.67,0.325
9.68,0.325
9.69,0.39
9.7,0.39
9.71,0.26
9.72,0.26
9.73,0.26
9.74,0.26
9.75,0.26
9.76,0.26
9.77,0.195
9.78,0.195
9.79,0.13
9.8,0.13
9.81,0.325
9.82,0.325
9.83,0.585
9.84,0.585
9.85,0.845
9.86,0.845
9.87,1.105
9.88,1.105
9.89,1.3
9.9,1.3
9.91,1.495
9.92,1.495
9.93,1.625
9.94,1.625
9.95,1.69
9.96,1.69
9.97,1.95
9.98,1.95
9.99,2.34
10.,2.34
