t,s,e,i,r,c,o,n,reff,coal,reportr
5.,5970.,8.,23.,3999.,0.,0.,10000.,0.823570638383,5.35320914949,104.
5.02,5955.,28.,15.,4004.,0.,0.,10002.,0.821337098003,1.52534032486,364.
5.04,5952.,24.,17.,4009.,0.,0.,10002.,0.820923326165,1.77866720669,312.
5.06,5941.,25.,18.,4020.,0.,0.,10004.,0.819242347054,1.70402408187,325.
5.08,5932.,34.,14.,4024.,0.,0.,10004.,0.818001279704,1.25106078072,442.
5.1,5921.,31.,14.,4036.,0.,0.,10002.,0.816647683842,1.36986063096,403.
5.12,5918.,29.,17.,4037.,0.,0.,10001.,0.816315527233,1.46373818676,377.
5.14,5918.,25.,19.,4040.,0.,0.,10002.,0.816233912004,1.69776653697,325.
5.16,5902.,27.,21.,4047.,0.,0.,9997.,0.814434264574,1.56854006511,351.
5.18,5895.,29.,19.,4059.,0.,0.,10002.,0.813061661247,1.45790366844,377.
5.2,5894.,30.,11.,4071.,0.,0.,10006.,0.812598762791,1.40850452217,390.
5.22,5896.,32.,17.,4060.,0.,0.,10005.,0.812955747237,1.32105308926,416.
5.24,5892.,29.,12.,4073.,0.,0.,10006.,0.812323025172,1.45657921755,377.
5.26,5894.,25.,15.,4071.,0.,0.,10005.,0.812679982058,1.69037436268,325.
5.28,5890.,21.,14.,4077.,0.,0.,10002.,0.812372041518,2.01158791233,273.
5.3,5885.,24.,9.,4084.,0.,0.,10002.,0.811682421788,1.75864524721,312.
5.32,5880.,23.,9.,4088.,0.,0.,10000.,0.811155000619,1.83391565357,299.
5.34,5881.,19.,10.,4088.,0.,0.,9998.,0.811455243198,2.22082487612,247.
5.36,5875.,24.,9.,4092.,0.,0.,10000.,0.810465242965,1.75600802642,312.
5.38,5880.,14.,13.,4094.,0.,0.,10001.,0.81107389323,3.01256017485,182.
5.4,5882.,14.,8.,4098.,0.,0.,10002.,0.81126864995,3.01328355696,182.
5.42,5884.,11.,8.,4096.,0.,0.,9999.,0.81178798554,3.83754320437,143.
5.44,5883.,11.,5.,4098.,0.,0.,9997.,0.811812398931,3.83765861313,143.
5.46,5889.,8.,8.,4096.,0.,0.,10001.,0.812315332862,5.2800496636,104.
5.48,5884.,8.,10.,4097.,0.,0.,9999.,0.81178798554,5.27662190601,104.
5.5,5900.,5.,5.,4089.,0.,0.,9999.,0.813995430776,8.46555248007,65.
5.52,5910.,4.,3.,4084.,0.,0.,10001.,0.815212025338,10.5977563294,52.
5.54,5914.,3.,2.,4078.,0.,0.,9997.,0.816090179717,14.1455631151,39.
5.56,5921.,1.,1.,4073.,0.,0.,9996.,0.817137868526,42.4911691633,13.
5.58,5929.,2.,1.,4062.,0.,0.,9994.,0.818405669025,21.2785473947,26.
5.6,5935.,0.,1.,4058.,0.,0.,9994.,0.819233875133,inf,0.
5.62,5943.,1.,1.,4049.,0.,0.,9994.,0.820338149944,42.6575837971,13.
5.64,5953.,1.,0.,4040.,0.,0.,9994.,0.821718493457,42.7293616598,13.
5.66,5960.,0.,1.,4030.,0.,0.,9991.,0.822931761662,inf,0.
5.68,5967.,1.,2.,4017.,0.,0.,9987.,0.824228280556,42.8598705889,13.
5.7,5967.,1.,0.,4017.,0.,0.,9985.,0.824393373852,42.8684554403,13.
5.72,5984.,0.,0.,4008.,0.,0.,9992.,0.826162890126,inf,0.
5.74,5992.,0.,0.,3998.,0.,0.,9990.,0.827433005064,inf,0.
5.76,5997.,1.,0.,3991.,0.,0.,9989.,0.828206356705,43.0667305487,13.
5.78,6008.,1.,1.,3982.,0.,0.,9992.,0.829476377653,43.1327716379,13.
5.8,6011.,2.,3.,3976.,0.,0.,9992.,0.829890563594,21.5771546534,26.
5.82,6012.,7.,6.,3968.,0.,0.,9993.,0.829945564569,6.16530990823,91.
5.84,6022.,8.,3.,3960.,0.,0.,9993.,0.831326046213,5.40361930039,104.
5.86,6023.,6.,5.,3958.,0.,0.,9992.,0.831547307357,7.20674333043,78.
5.88,6021.,10.,3.,3958.,0.,0.,9992.,0.831271183397,4.32261015366,130.
5.9,6030.,8.,3.,3954.,0.,0.,9995.,0.832263862158,5.40971510402,104.
5.92,6032.,9.,5.,3949.,0.,0.,9995.,0.83253990324,4.81023055205,117.
5.94,6034.,11.,4.,3944.,0.,0.,9993.,0.832982624186,3.93773604161,143.
5.96,6036.,13.,4.,3938.,0.,0.,9991.,0.833425522381,3.33370208952,169.
5.98,6040.,11.,12.,3925.,0.,0.,9988.,0.834228319517,3.94362478317,143.
6.,6032.,22.,11.,3924.,0.,0.,9989.,0.833039977263,1.96900358262,286.
6.02,6019.,21.,20.,3926.,0.,0.,9986.,0.831494355486,2.05893840406,273.
6.04,6005.,34.,16.,3931.,0.,0.,9986.,0.829560326416,1.26873932275,442.
6.06,5994.,28.,25.,3937.,0.,0.,9984.,0.82820660569,1.538097982,364.
6.08,5972.,38.,27.,3949.,0.,0.,9986.,0.825001543606,1.12894948072,494.
6.1,5966.,40.,23.,3959.,0.,0.,9988.,0.82400764143,1.07120993386,520.
6.12,5954.,39.,14.,3983.,0.,0.,9990.,0.822185599491,1.09624746599,507.
6.14,5949.,35.,12.,3995.,0.,0.,9991.,0.821412927874,1.22038492141,455.
6.16,5950.,32.,12.,3999.,0.,0.,9993.,0.821386578374,1.33475318986,416.
6.18,5940.,33.,13.,4005.,0.,0.,9991.,0.820170245683,1.29238947805,429.
6.2,5930.,33.,14.,4012.,0.,0.,9989.,0.818953425923,1.29047206509,429.
6.22,5929.,33.,13.,4019.,0.,0.,9994.,0.818405669025,1.28960893301,429.
6.24,5921.,22.,12.,4033.,0.,0.,9988.,0.817792364215,1.93296376996,286.
6.26,5917.,24.,17.,4031.,0.,0.,9989.,0.817158081145,1.77050917581,312.
6.28,5912.,30.,8.,4043.,0.,0.,9993.,0.816140748126,1.41464396342,390.
6.3,5906.,25.,8.,4051.,0.,0.,9990.,0.815557297715,1.69635917925,325.
6.32,5911.,17.,11.,4052.,0.,0.,9991.,0.816166047514,2.49650791004,221.
6.34,5906.,25.,10.,4050.,0.,0.,9991.,0.815475668519,1.69618939052,325.
6.36,5909.,21.,11.,4053.,0.,0.,9994.,0.815644981999,2.01969233638,273.
6.38,5907.,21.,12.,4051.,0.,0.,9991.,0.815613744318,2.01961498593,273.
6.4,5905.,17.,12.,4053.,0.,0.,9987.,0.815664152285,2.49497270111,221.
6.42,5907.,15.,6.,4059.,0.,0.,9987.,0.815940414487,2.82859343689,195.
6.44,5907.,9.,5.,4066.,0.,0.,9987.,0.815940414487,4.71432239481,117.
6.46,5926.,5.,5.,4058.,0.,0.,9994.,0.817991565971,8.5071122861,65.
6.48,5934.,7.,2.,4055.,0.,0.,9998.,0.818768136905,6.08227758844,91.
6.5,5939.,4.,4.,4047.,0.,0.,9994.,0.819786012539,10.657218163,52.
6.52,5943.,4.,3.,4044.,0.,0.,9994.,0.820338149944,10.6643959493,52.
6.54,5949.,1.,3.,4041.,0.,0.,9994.,0.821166356052,42.7006505147,13.
6.56,5955.,1.,0.,4041.,0.,0.,9997.,0.82174788979,42.7308902691,13.
6.58,5963.,1.,0.,4034.,0.,0.,9998.,0.822769531575,42.7840156419,13.
6.6,5974.,0.,1.,4021.,0.,0.,9996.,0.824452225397,inf,0.
6.62,5982.,0.,1.,4012.,0.,0.,9995.,0.82563887619,inf,0.
6.64,5988.,0.,0.,4009.,0.,0.,9997.,0.826301656433,inf,0.
6.66,6002.,0.,0.,3996.,0.,0.,9998.,0.82815071751,inf,0.
6.68,6009.,0.,1.,3990.,0.,0.,10000.,0.828950748081,inf,0.
6.7,6018.,0.,1.,3980.,0.,0.,9999.,0.830275339392,inf,0.
6.72,6031.,0.,0.,3971.,0.,0.,10002.,0.831819317894,inf,0.
6.74,6040.,0.,0.,3962.,0.,0.,10002.,0.833060633407,inf,0.
6.76,6044.,0.,1.,3952.,0.,0.,9997.,0.834029260435,inf,0.
6.78,6056.,1.,1.,3940.,0.,0.,9998.,0.835601590343,43.4512826978,13.
6.8,6068.,1.,1.,3931.,0.,0.,10001.,0.837006187775,43.5243217643,13.
6.82,6074.,1.,2.,3924.,0.,0.,10001.,0.837833814197,43.5673583382,13.
6.84,6081.,1.,2.,3918.,0.,0.,10002.,0.83871551519,43.6132067899,13.
6.86,6085.,5.,1.,3909.,0.,0.,10000.,0.839435064416,8.73012466993,65.
6.88,6101.,3.,4.,3899.,0.,0.,10007.,0.841053551421,14.578261558,39.
6.9,6110.,4.,4.,3889.,0.,0.,10007.,0.842294246711,10.9498252072,52.
6.92,6117.,11.,1.,3880.,0.,0.,10009.,0.84309073174,3.98551982277,143.
6.94,6124.,7.,6.,3874.,0.,0.,10011.,0.843886898526,6.26887410333,91.
6.96,6120.,12.,6.,3872.,0.,0.,10010.,0.843419948043,3.65481977485,156.
6.98,6123.,13.,4.,3870.,0.,0.,10010.,0.843833389194,3.37533355678,169.
7.,6126.,11.,8.,3864.,0.,0.,10009.,0.844331179114,3.99138375581,143.
7.02,6122.,20.,9.,3858.,0.,0.,10009.,0.84377986917,2.19382765984,260.
7.04,6124.,15.,12.,3856.,0.,0.,10007.,0.844224217162,2.92664395283,195.
7.06,6123.,25.,7.,3854.,0.,0.,10009.,0.843917696656,1.75534880905,325.
7.08,6127.,24.,9.,3849.,0.,0.,10009.,0.8444690066,1.82968284763,312.
7.1,6129.,25.,14.,3840.,0.,0.,10008.,0.844829068513,1.75724446251,325.
7.12,6116.,30.,9.,3850.,0.,0.,10005.,0.84328991691,1.46170252264,390.
7.14,6107.,30.,10.,3858.,0.,0.,10005.,0.842048973605,1.45955155425,390.
7.16,6107.,34.,17.,3852.,0.,0.,10010.,0.841628369722,1.28719633016,442.
7.18,6096.,42.,16.,3858.,0.,0.,10012.,0.839944597737,1.03993140672,546.
7.2,6084.,38.,18.,3866.,0.,0.,10006.,0.838793836583,1.1478231448,494.
7.22,6082.,41.,2.,3882.,0.,0.,10007.,0.83843430581,1.06338009517,533.
7.24,6089.,29.,8.,3878.,0.,0.,10004.,0.839651010135,1.50558112162,377.
7.26,6093.,23.,13.,3874.,0.,0.,10003.,0.840286590685,1.89977837894,299.
7.28,6093.,19.,11.,3878.,0.,0.,10001.,0.840454631199,2.30019162223,247.
7.3,6088.,21.,11.,3882.,0.,0.,10002.,0.839680982812,2.07921005268,273.
7.32,6091.,23.,8.,3886.,0.,0.,10008.,0.83959110072,1.89820596684,299.
7.34,6087.,24.,8.,3887.,0.,0.,10006.,0.839207443012,1.81828279319,312.
7.36,6085.,17.,8.,3894.,0.,0.,10004.,0.839099424646,2.56665706362,221.
7.38,6089.,18.,4.,3894.,0.,0.,10005.,0.839567086995,2.4254160291,234.
7.4,6095.,14.,3.,3896.,0.,0.,10008.,0.840142465751,3.1205291585,182.
7.42,6099.,7.,7.,3894.,0.,0.,10007.,0.840777841357,6.24577825008,91.
7.44,6101.,6.,6.,3896.,0.,0.,10009.,0.840885491965,7.28767426369,78.
7.46,6104.,11.,4.,3890.,0.,0.,10009.,0.841298974423,3.97704969727,143.
7.48,6113.,8.,1.,3889.,0.,0.,10011.,0.842371099067,5.47541214394,104.
7.5,6120.,5.,3.,3883.,0.,0.,10011.,0.843335698723,8.77069126671,65.
7.52,6129.,2.,1.,3881.,0.,0.,10013.,0.844407202404,21.9545872625,26.
7.54,6132.,3.,0.,3878.,0.,0.,10013.,0.844820519684,14.6435556745,39.
7.56,6134.,2.,1.,3871.,0.,0.,10008.,0.845518274801,21.9834751448,26.
7.58,6139.,0.,0.,3867.,0.,0.,10006.,0.846376621102,inf,0.
7.6,6150.,0.,0.,3860.,0.,0.,10010.,0.847554359553,inf,0.
7.62,6164.,0.,0.,3847.,0.,0.,10011.,0.849398896556,inf,0.
7.64,6178.,0.,0.,3831.,0.,0.,10009.,0.851498208385,inf,0.
7.66,6182.,0.,0.,3828.,0.,0.,10010.,0.851964398497,inf,0.
7.68,6193.,0.,0.,3818.,0.,0.,10011.,0.853395095129,inf,0.
7.7,6214.,0.,0.,3800.,0.,0.,10014.,0.856032366565,inf,0.
7.72,6231.,0.,0.,3785.,0.,0.,10016.,0.858202863319,inf,0.
7.74,6242.,0.,0.,3774.,0.,0.,10016.,0.859717906089,inf,0.
7.76,6257.,0.,0.,3759.,0.,0.,10016.,0.861783873502,inf,0.
7.78,6268.,0.,0.,3747.,0.,0.,10015.,0.863385116862,inf,0.
7.8,6270.,4.,0.,3743.,0.,0.,10017.,0.863488167714,11.2253461803,52.
7.82,6283.,4.,2.,3728.,0.,0.,10017.,0.865278494058,11.2486204228,52.
7.84,6282.,4.,3.,3726.,0.,0.,10015.,0.865313545649,11.2490760934,52.
7.86,6286.,5.,4.,3721.,0.,0.,10016.,0.865778077167,9.00409200253,65.
7.88,6291.,8.,4.,3715.,0.,0.,10018.,0.866293750992,5.63090938145,104.
7.9,6291.,6.,7.,3709.,0.,0.,10013.,0.866726335508,7.51162824107,78.
7.92,6299.,7.,7.,3703.,0.,0.,10016.,0.867568582258,6.44479518249,91.
7.94,6301.,10.,4.,3700.,0.,0.,10015.,0.867930699002,4.51323963481,130.
7.96,6304.,11.,3.,3699.,0.,0.,10017.,0.868170559692,4.10407900945,143.
7.98,6311.,13.,4.,3688.,0.,0.,10016.,0.869221356188,3.47688542475,169.
8.,6312.,10.,6.,3688.,0.,0.,10016.,0.869359087349,4.52066725422,130.
8.02,6304.,14.,10.,3686.,0.,0.,10014.,0.868430646738,3.22559954503,182.
8.04,6306.,14.,15.,3684.,0.,0.,10019.,0.868272634699,3.22501264317,182.
8.06,6295.,28.,8.,3685.,0.,0.,10016.,0.867017657614,1.61017564986,364.
8.08,6285.,32.,16.,3685.,0.,0.,10018.,0.865467529007,1.40638473464,416.
8.1,6281.,30.,13.,3692.,0.,0.,10016.,0.865089421362,1.49948833036,390.
8.12,6285.,23.,15.,3692.,0.,0.,10015.,0.865726780389,1.95729532957,299.
8.14,6289.,16.,22.,3691.,0.,0.,10018.,0.866018343664,2.81455961691,208.
8.16,6268.,33.,17.,3700.,0.,0.,10018.,0.863126566717,1.36007822634,429.
8.18,6264.,24.,21.,3709.,0.,0.,10018.,0.862575752061,1.86891412946,312.
8.2,6251.,29.,23.,3713.,0.,0.,10016.,0.860957486537,1.54378583793,377.
8.22,6244.,32.,14.,3726.,0.,0.,10016.,0.859993368411,1.39748922367,416.
8.24,6240.,27.,18.,3731.,0.,0.,10016.,0.859442443767,1.65522248429,351.
8.26,6236.,28.,14.,3735.,0.,0.,10013.,0.859148852047,1.5955621538,364.
8.28,6224.,26.,15.,3747.,0.,0.,10012.,0.85758122971,1.71516245942,338.
8.3,6217.,29.,19.,3746.,0.,0.,10011.,0.856702293947,1.53615583742,377.
8.32,6210.,27.,14.,3760.,0.,0.,10011.,0.855737694292,1.64808741123,351.
8.34,6211.,25.,11.,3766.,0.,0.,10013.,0.855704541383,1.77986544608,325.
8.36,6220.,18.,15.,3760.,0.,0.,10013.,0.856944493222,2.47561742486,234.
8.38,6221.,12.,11.,3770.,0.,0.,10014.,0.856996677245,3.71365226806,156.
8.4,6226.,12.,8.,3768.,0.,0.,10014.,0.857685470588,3.71663703922,156.
8.42,6223.,12.,5.,3771.,0.,0.,10011.,0.857529093652,3.71595940583,156.
8.44,6228.,13.,6.,3764.,0.,0.,10011.,0.858218093406,3.43287237362,169.
8.46,6230.,10.,6.,3763.,0.,0.,10009.,0.858665237656,4.46505923581,130.
8.48,6226.,8.,6.,3767.,0.,0.,10007.,0.858285430446,5.5788552979,104.
8.5,6231.,8.,0.,3768.,0.,0.,10007.,0.858974705607,5.58333558644,104.
8.52,6235.,3.,6.,3757.,0.,0.,10001.,0.860041789845,14.907391024,39.
8.54,6234.,4.,0.,3758.,0.,0.,9996.,0.860333976083,11.1843416891,52.
8.56,6243.,5.,0.,3748.,0.,0.,9996.,0.861576036684,8.96039078151,65.
8.58,6261.,4.,2.,3737.,0.,0.,10004.,0.863369186148,11.2237994199,52.
8.6,6266.,1.,3.,3732.,0.,0.,10002.,0.864231445187,44.9400351497,13.
8.62,6269.,3.,1.,3729.,0.,0.,10002.,0.864645217025,14.9871837618,39.
8.64,6273.,2.,1.,3721.,0.,0.,9997.,0.865629641083,22.5063706682,26.
8.66,6282.,2.,0.,3713.,0.,0.,9997.,0.866871577441,22.5386610135,26.
8.68,6289.,1.,2.,3708.,0.,0.,10000.,0.867577176682,45.1140131875,13.
8.7,6294.,2.,0.,3704.,0.,0.,10000.,0.868266934336,22.5749402927,26.
8.72,6302.,0.,2.,3696.,0.,0.,10000.,0.869370546582,inf,0.
8.74,6304.,0.,2.,3697.,0.,0.,10003.,0.869385633953,inf,0.
8.76,6314.,2.,1.,3688.,0.,0.,10005.,0.870590669615,22.63535741,26.
8.78,6323.,2.,1.,3680.,0.,0.,10006.,0.871744482038,22.665356533,26.
8.8,6334.,3.,2.,3670.,0.,0.,10009.,0.872999296198,15.1319878008,39.
8.82,6346.,2.,5.,3655.,0.,0.,10008.,0.874740621436,22.7432561573,26.
8.84,6344.,6.,3.,3653.,0.,0.,10006.,0.874639727036,7.58021096764,78.
8.86,6345.,8.,3.,3646.,0.,0.,10002.,0.875127436915,5.68832833995,104.
8.88,6345.,9.,4.,3642.,0.,0.,10000.,0.875302462403,5.0573031161,117.
8.9,6350.,12.,2.,3638.,0.,0.,10002.,0.875817056645,3.79520724546,156.
8.92,6363.,11.,5.,3629.,0.,0.,10008.,0.877083922817,4.14621490786,143.
8.94,6364.,6.,13.,3624.,0.,0.,10007.,0.877309424889,7.60334834904,78.
8.96,6366.,13.,6.,3622.,0.,0.,10007.,0.877585134953,3.51034053981,169.
8.98,6364.,17.,4.,3623.,0.,0.,10008.,0.877221764075,2.68326657246,221.
9.,6371.,14.,7.,3620.,0.,0.,10012.,0.877835799242,3.26053296861,182.
9.02,6374.,17.,11.,3614.,0.,0.,10016.,0.877898419322,2.68533634146,221.
9.04,6366.,18.,17.,3617.,0.,0.,10018.,0.876621525801,2.53246218565,234.
9.06,6357.,24.,14.,3623.,0.,0.,10018.,0.875382192824,1.89666141779,312.
9.08,6347.,21.,18.,3633.,0.,0.,10019.,0.873917921413,2.16398723398,273.
9.1,6332.,24.,16.,3650.,0.,0.,10022.,0.871591591003,1.88844844717,312.
9.12,6328.,30.,7.,3660.,0.,0.,10025.,0.870780335541,1.50935258161,390.
9.14,6329.,22.,22.,3652.,0.,0.,10025.,0.870917943053,2.05853331994,286.
9.16,6310.,33.,15.,3665.,0.,0.,10023.,0.868476662504,1.36850868031,429.
9.18,6300.,37.,12.,3672.,0.,0.,10021.,0.867273369444,1.21887068138,481.
9.2,6300.,32.,20.,3678.,0.,0.,10030.,0.866495158046,1.40805463182,416.
9.22,6286.,37.,2.,3705.,0.,0.,10030.,0.86456961325,1.21507080781,481.
9.24,6278.,31.,15.,3704.,0.,0.,10028.,0.863641513606,1.44868899057,403.
9.26,6271.,31.,8.,3714.,0.,0.,10024.,0.863022794423,1.44765113903,403.
9.28,6275.,22.,8.,3722.,0.,0.,10027.,0.863314905009,2.04056250275,286.
9.3,6271.,22.,12.,3719.,0.,0.,10024.,0.863022794423,2.03987205954,286.
9.32,6270.,21.,5.,3727.,0.,0.,10023.,0.862971263692,2.13688122438,273.
9.34,6266.,16.,10.,3729.,0.,0.,10021.,0.862592846498,2.80342675112,208.
9.36,6264.,17.,8.,3733.,0.,0.,10022.,0.86223147916,2.63741393625,221.
9.38,6267.,12.,11.,3730.,0.,0.,10020.,0.862816609787,3.73887197574,156.
9.4,6277.,10.,10.,3727.,0.,0.,10024.,0.863848521861,4.49201231368,130.
9.42,6277.,9.,8.,3727.,0.,0.,10021.,0.864107133334,4.9926189926,117.
9.44,6279.,12.,1.,3730.,0.,0.,10022.,0.864296209714,3.74528357543,156.
9.46,6285.,6.,8.,3725.,0.,0.,10024.,0.864949491779,7.49622892875,78.
9.48,6287.,3.,5.,3726.,0.,0.,10021.,0.86548375773,15.0017184673,39.
9.5,6293.,4.,2.,3720.,0.,0.,10019.,0.86648266574,11.2642746546,52.
9.52,6305.,5.,1.,3712.,0.,0.,10023.,0.867788487652,9.02500027158,65.
9.54,6309.,2.,0.,3707.,0.,0.,10018.,0.868772416946,22.5880828406,26.
9.56,6318.,2.,0.,3697.,0.,0.,10017.,0.870098603447,22.6225636896,26.
9.58,6329.,2.,0.,3685.,0.,0.,10016.,0.871700517084,22.6642134442,26.
9.6,6338.,2.,0.,3678.,0.,0.,10018.,0.872765823206,22.6919114033,26.
9.62,6347.,2.,1.,3666.,0.,0.,10016.,0.874179677979,22.7286716275,26.
9.64,6356.,1.,0.,3659.,0.,0.,10016.,0.875419258427,45.5218014382,13.
9.66,6364.,2.,0.,3649.,0.,0.,10015.,0.876608628543,22.7918243421,26.
9.68,6372.,1.,1.,3643.,0.,0.,10017.,0.877535343648,45.6318378697,13.
9.7,6387.,1.,0.,3633.,0.,0.,10021.,0.879250001689,45.7210000878,13.
9.72,6402.,0.,1.,3623.,0.,0.,10026.,0.880875423552,inf,0.
9.74,6405.,3.,0.,3620.,0.,0.,10028.,0.881112439415,15.2726156165,39.
9.76,6411.,3.,1.,3617.,0.,0.,10032.,0.881586187629,15.2808272522,39.
9.78,6420.,3.,1.,3609.,0.,0.,10033.,0.882735799069,15.3007538505,39.
9.8,6424.,5.,1.,3603.,0.,0.,10033.,0.883285790222,9.1861722183,65.
9.82,6427.,7.,3.,3594.,0.,0.,10031.,0.883874477043,6.5659246866,91.
9.84,6430.,7.,4.,3589.,0.,0.,10030.,0.884375216863,6.56964446812,91.
9.86,6434.,10.,0.,3589.,0.,0.,10033.,0.884660768102,4.60023599413,130.
9.88,6452.,9.,4.,3573.,0.,0.,10038.,0.886693839599,5.12311996213,117.
9.9,6452.,8.,4.,3573.,0.,0.,10037.,0.886782182115,5.76408418375,104.
9.92,6457.,9.,0.,3572.,0.,0.,10038.,0.887380986096,5.12709014189,117.
9.94,6459.,10.,4.,3564.,0.,0.,10037.,0.887744283057,4.6162702719,130.
9.96,6462.,10.,3.,3559.,0.,0.,10034.,0.888422156166,4.61979521206,130.
9.98,6469.,10.,0.,3555.,0.,0.,10034.,0.889384544759,4.62479963275,130.
10.,6471.,8.,4.,3551.,0.,0.,10034.,0.889659512929,5.78278683404,104.
