t,cases
5.01,3.51
5.02,3.51
5.03,3.25
5.04,3.25
5.05,2.925
5.06,2.925
5.07,3.055
5.08,3.055
5.09,4.16
5.1,4.16
5.11,4.875
5.12,4.875
5.13,4.485
5.14,4.485
5.15,4.55
5.16,4.55
5.17,4.81
5.18,4.81
5.19,4.225
5.2,4.225
5.21,3.51
5.22,3.51
5.23,3.64
5.24,3.64
5.25,4.16
5.26,4.16
5.27,4.485
5.28,4.485
5.29,4.355
5.3,4.355
5.31,3.9
5.32,3.9
5.33,3.835
5.34,3.835
5.35,3.185
5.36,3.185
5.37,2.275
5.38,2.275
5.39,2.08
5.4,2.08
5.41,2.015
5.42,2.015
5.43,1.755
5.44,1.755
5.45,1.365
5.46,1.365
5.47,1.17
5.48,1.17
5.49,1.235
5.5,1.235
5.51,1.04
5.52,1.04
5.53,0.91
5.54,0.91
5.55,0.845
5.56,0.845
5.57,0.52
5.58,0.52
5.59,0.26
5.6,0.26
5.61,0.065
5.62,0.065
5.63,0.
5.64,0.
5.65,0.065
5.66,0.065
5.67,0.26
5.68,0.26
5.69,0.39
5.7,0.39
5.71,0.26
5.72,0.26
5.73,0.195
5.74,0.195
5.75,0.195
5.76,0.195
5.77,0.195
5.78,0.195
5.79,0.195
5.8,0.195
5.81,0.26
5.82,0.26
5.83,0.455
5.84,0.455
5.85,0.65
5.86,0.65
5.87,0.65
5.88,0.65
5.89,0.65
5.9,0.65
5.91,0.975
5.92,0.975
5.93,1.04
5.94,1.04
5.95,1.365
5.96,1.365
5.97,2.275
5.98,2.275
5.99,2.6
6.,2.6
6.01,2.6
6.02,2.6
6.03,3.315
6.04,3.315
6.05,3.575
6.06,3.575
6.07,2.73
6.08,2.73
6.09,2.665
6.1,2.665
6.11,3.055
6.12,3.055
6.13,3.64
6.14,3.64
6.15,4.03
6.16,4.03
6.17,3.965
6.18,3.965
6.19,4.095
6.2,4.095
6.21,3.64
6.22,3.64
6.23,3.25
6.24,3.25
6.25,3.25
6.26,3.25
6.27,3.055
6.28,3.055
6.29,2.73
6.3,2.73
6.31,2.34
6.32,2.34
6.33,2.015
6.34,2.015
6.35,1.625
6.36,1.625
6.37,1.43
6.38,1.43
6.39,1.495
6.4,1.495
6.41,1.365
6.42,1.365
6.43,1.17
6.44,1.17
6.45,0.91
6.46,0.91
6.47,0.845
6.48,0.845
6.49,0.91
6.5,0.91
6.51,0.91
6.52,0.91
6.53,0.845
6.54,0.845
6.55,0.78
6.56,0.78
6.57,0.585
6.58,0.585
6.59,0.455
6.6,0.455
6.61,0.39
6.62,0.39
6.63,0.13
6.64,0.13
6.65,0.195
6.66,0.195
6.67,0.26
6.68,0.26
6.69,0.13
6.7,0.13
6.71,0.065
6.72,0.065
6.73,0.065
6.74,0.065
6.75,0.13
6.76,0.13
6.77,0.195
6.78,0.195
6.79,0.195
6.8,0.195
6.81,0.26
6.82,0.26
6.83,0.585
6.84,0.585
6.85,0.91
6.86,0.91
6.87,0.845
6.88,0.845
6.89,1.04
6.9,1.04
6.91,1.3
6.92,1.3
6.93,1.235
6.94,1.235
6.95,1.495
6.96,1.495
6.97,1.495
6.98,1.495
6.99,2.015
7.,2.015
7.01,2.6
7.02,2.6
7.03,2.925
7.04,2.925
7.05,2.795
7.06,2.795
7.07,2.535
7.08,2.535
7.09,2.73
7.1,2.73
7.11,2.99
7.12,2.99
7.13,3.51
7.14,3.51
7.15,3.38
7.16,3.38
7.17,3.51
7.18,3.51
7.19,3.9
7.2,3.9
7.21,3.575
7.22,3.575
7.23,3.38
7.24,3.38
7.25,3.185
7.26,3.185
7.27,2.99
7.28,2.99
7.29,3.185
7.3,3.185
7.31,3.38
7.32,3.38
7.33,2.99
7.34,2.99
7.35,2.145
7.36,2.145
7.37,1.755
7.38,1.755
7.39,1.235
7.4,1.235
7.41,0.91
7.42,0.91
7.43,1.04
7.44,1.04
7.45,1.3
7.46,1.3
7.47,1.3
7.48,1.3
7.49,1.04
7.5,1.04
7.51,0.845
7.52,0.845
7.53,0.585
7.54,0.585
7.55,0.455
7.56,0.455
7.57,0.39
7.58,0.39
7.59,0.39
7.6,0.39
7.61,0.195
7.62,0.195
7.63,0.065
7.64,0.065
7.65,0.26
7.66,0.26
7.67,0.195
7.68,0.195
7.69,0.
7.7,0.
7.71,0.
7.72,0.
7.73,0.
7.74,0.
7.75,0.065
7.76,0.065
7.77,0.13
7.78,0.13
7.79,0.195
7.8,0.195
7.81,0.325
7.82,0.325
7.83,0.52
7.84,0.52
7.85,0.975
7.86,0.975
7.87,1.235
7.88,1.235
7.89,1.235
7.9,1.235
7.91,1.3
7.92,1.3
7.93,0.975
7.94,0.975
7.95,1.04
7.96,1.04
7.97,1.82
7.98,1.82
7.99,2.145
8.,2.145
8.01,2.275
8.02,2.275
8.03,2.86
8.04,2.86
8.05,3.055
8.06,3.055
8.07,3.055
8.08,3.055
8.09,3.12
8.1,3.12
8.11,2.795
8.12,2.795
8.13,3.055
8.14,3.055
8.15,3.835
8.16,3.835
8.17,4.095
8.18,4.095
8.19,3.835
8.2,3.835
8.21,4.03
8.22,4.03
8.23,4.55
8.24,4.55
8.25,4.68
8.26,4.68
8.27,4.745
8.28,4.745
8.29,3.835
8.3,3.835
8.31,3.315
8.32,3.315
8.33,4.225
8.34,4.225
8.35,4.095
8.36,4.095
8.37,3.12
8.38,3.12
8.39,2.6
8.4,2.6
8.41,2.405
8.42,2.405
8.43,2.145
8.44,2.145
8.45,1.3
8.46,1.3
8.47,0.52
8.48,0.52
8.49,0.39
8.5,0.39
8.51,0.39
8.52,0.39
8.53,0.325
8.54,0.325
8.55,0.13
8.56,0.13
8.57,0.
8.58,0.
8.59,0.0649999999999
8.6,0.0650000000001
8.61,0.13
8.62,0.13
8.63,0.0650000000001
8.64,0.0649999999999
8.65,0.0649999999999
8.66,0.0650000000001
8.67,0.13
8.68,0.13
8.69,0.13
8.7,0.13
8.71,0.13
8.72,0.13
8.73,0.13
8.74,0.13
8.75,0.13
8.76,0.13
8.77,0.0649999999999
8.78,0.0650000000001
8.79,0.
8.8,0.
8.81,0.0649999999999
8.82,0.0650000000001
8.83,0.195
8.84,0.195
8.85,0.52
8.86,0.52
8.87,1.04
8.88,1.04
8.89,1.43
8.9,1.43
8.91,1.365
8.92,1.365
8.93,1.105
8.94,1.105
8.95,1.365
8.96,1.365
8.97,2.08
8.98,2.08
8.99,2.34
9.,2.34
9.01,2.34
9.02,2.34
9.03,2.405
9.04,2.405
9.05,2.6
9.06,2.6
9.07,2.73
9.08,2.73
9.09,3.185
9.1,3.185
9.11,3.835
9.12,3.835
9.13,3.965
9.14,3.965
9.15,3.835
9.16,3.835
9.17,4.16
9.18,4.16
9.19,4.355
9.2,4.355
9.21,4.16
9.22,4.16
9.23,4.03
9.24,4.03
9.25,3.64
9.26,3.64
9.27,4.095
9.28,4.095
9.29,4.225
9.3,4.225
9.31,3.185
9.32,3.185
9.33,2.535
9.34,2.535
9.35,2.34
9.36,2.34
9.37,2.405
9.38,2.405
9.39,2.34
9.4,2.34
9.41,2.21
9.42,2.21
9.43,2.275
9.44,2.275
9.45,1.755
9.46,1.755
9.47,1.105
9.48,1.105
9.49,0.91
9.5,0.91
9.51,0.845
9.52,0.845
9.53,0.65
9.54,0.65
9.55,0.39
9.56,0.39
9.57,0.325
9.58,0.325
9.59,0.26
9.6,0.26
9.61,0.195
9.62,0.195
9.63,0.455
9.64,0.455
9.65,0.585
9.66,0.585
9.67,0.39
9.68,0.39
9.69,0.26
9.7,0.26
9.71,0.195
9.72,0.195
9.73,0.13
9.74,0.13
9.75,0.13
9.76,0.13
9.77,0.195
9.78,0.195
9.79,0.455
9.8,0.455
9.81,0.65
9.82,0.65
9.83,0.455
9.84,0.455
9.85,0.52
9.86,0.52
9.87,0.78
9.88,0.78
9.89,0.845
9.9,0.845
9.91,0.845
9.92,0.845
9.93,1.17
9.94,1.17
9.95,1.365
9.96,1.365
9.97,1.43
9.98,1.43
9.99,1.69
10.,1.69
