t,neff
5.,0.476401176342
5.02,0.497700557499
5.04,0.56049149103
5.06,0.477895304863
5.08,0.60368382555
5.1,0.68774173765
5.12,0.542421654605
5.14,0.71053396878
5.16,0.711558375697
5.18,0.502556410694
5.2,0.587289748168
5.22,0.693254304638
5.24,0.504937895907
5.26,0.696069838686
5.28,0.739329074071
5.3,0.698106716526
5.32,0.57183854426
5.34,0.508878487385
5.36,0.445496199187
5.38,0.445761610032
5.4,0.318453302643
5.42,0.191065893113
5.44,0.0849154699847
5.46,0.0636929749721
5.48,0.148634180546
5.5,0.127436397295
5.52,0.169923346533
5.54,0.0849320905108
5.56,0.0424456646511
5.58,0.021214334695
5.6,0.
5.62,0.
5.64,0.0212067310337
5.66,0.0424065406153
5.68,0.
5.7,0.0211777500765
5.72,0.0211697459491
5.74,0.0211635373335
5.76,0.0211597792987
5.78,0.0423286719063
5.8,0.0634710278201
5.82,0.0634490629929
5.84,0.0846072012367
5.86,0.105763912604
5.88,0.126914730249
5.9,0.0845916074412
5.92,0.275140644421
5.94,0.254105212186
5.96,0.275289242839
5.98,0.317771507946
6.,0.339180978877
6.02,0.318176312414
6.04,0.339681159083
6.06,0.254912613196
6.08,0.233727834421
6.1,0.5534477656
6.12,0.617973340463
6.14,0.640229660316
6.16,0.619630878286
6.18,0.727821823226
6.2,0.79339127398
6.22,0.730172845773
6.24,0.666839778518
6.26,0.688928833728
6.28,0.646812870201
6.3,0.712428505447
6.32,0.583593852336
6.34,0.649327019733
6.36,0.498061808862
6.38,0.346657305666
6.4,0.216613557649
6.42,0.216647086123
6.44,0.0866604192131
6.46,0.260196652219
6.48,0.173497743385
6.5,0.173453470024
6.52,0.0433471771814
6.54,0.0650231511929
6.56,0.0650048331214
6.58,0.0649740688842
6.6,0.
6.62,0.0216345928372
6.64,0.
6.66,0.
6.68,0.0216188734333
6.7,0.
6.72,0.0432169927431
6.74,0.108042481858
6.76,0.108013126118
6.78,0.0215936028072
6.8,0.0647754911633
6.82,0.0863673215509
6.84,0.129548664567
6.86,0.12951581917
6.88,0.129523205226
6.9,0.107921375731
6.92,0.215918985069
6.94,0.237510883575
6.96,0.129581902438
6.98,0.345814720947
7.,0.216148009331
7.02,0.433258297947
7.04,0.368718582351
7.06,0.564914255876
7.08,0.761815274996
7.1,0.676021509155
7.12,0.698729065412
7.14,0.612043615193
7.16,0.568428705019
7.18,0.61264116014
7.2,0.569209285978
7.22,0.657891459716
7.24,0.592444561351
7.26,0.681177675607
7.28,0.572178234735
7.3,0.771395721925
7.32,0.705883798249
7.34,0.441380550831
7.36,0.397545614934
7.38,0.375806062276
7.4,0.331859600686
7.42,0.265306820617
7.44,0.221049462123
7.46,0.287392982695
7.48,0.176800620564
7.5,0.176921159823
7.52,0.0884000149756
7.54,0.
7.56,0.
7.58,0.0220720762806
7.6,0.0662016681178
7.62,0.0661764593352
7.64,0.
7.66,0.0441186375832
7.68,0.044107134714
7.7,0.0441035420654
7.72,0.
7.74,0.0440858659596
7.76,0.0440603143699
7.78,0.0220173936465
7.8,0.0220169496566
7.82,0.0881030503179
7.84,0.176191859142
7.86,0.176149611963
7.88,0.220204529141
7.9,0.242142778116
7.92,0.286294781461
7.94,0.330267566143
7.96,0.286288999972
7.98,0.308496224878
8.,0.374880107556
8.02,0.353103560053
8.04,0.331126842327
8.06,0.597104438569
8.08,0.619829150063
8.1,0.620602932707
8.12,0.643347762636
8.14,0.577261571385
8.16,0.600095368002
8.18,0.556384807552
8.2,0.73541834771
8.22,0.691671707093
8.24,0.670307359527
8.26,0.558608392047
8.28,0.492124658911
8.3,0.515355220482
8.32,0.403715393615
8.34,0.358798265588
8.36,0.403823049312
8.38,0.449151355277
8.4,0.561943078496
8.42,0.404725532006
8.44,0.26987693216
8.46,0.202342598297
8.48,0.134885889422
8.5,0.067427977547
8.52,0.
8.54,0.0224579934468
8.56,0.
8.58,0.
8.6,0.
8.62,0.
8.64,0.
8.66,0.
8.68,0.
8.7,0.0447891694117
8.72,0.0223740022808
8.74,0.0223663239023
8.76,0.0223512421559
8.78,0.0223443356819
8.8,0.0223349412622
8.82,0.0223309771711
8.84,0.0893278157454
8.86,0.178703004165
8.88,0.13396665002
8.9,0.111590526797
8.92,0.111621489579
8.94,0.133957492032
8.96,0.133919070473
8.98,0.312837553039
9.,0.402513552308
9.02,0.40241555753
9.04,0.42514363573
9.06,0.403111480949
9.08,0.560822001873
9.1,0.449051655837
9.12,0.562139324889
9.14,0.675642658772
9.16,0.766839203228
9.18,0.700090135787
9.2,0.701346546053
9.22,0.839593465774
9.24,0.613525028676
9.26,0.660097214289
9.28,0.500825517983
9.3,0.47901137689
9.32,0.640321031004
9.34,0.617945412608
9.36,0.320416139872
9.38,0.274669812291
9.4,0.27454661027
9.42,0.183081257641
9.44,0.205986962174
9.46,0.160212061759
9.48,0.137297214261
9.5,0.0915086503695
9.52,0.0914675716549
9.54,0.0457246536816
9.56,0.0685938296317
9.58,0.0685459524293
9.6,0.045674538331
9.62,0.0228190968444
9.64,0.022804911157
9.66,0.
9.68,0.
9.7,0.
9.72,0.0227590837411
9.74,0.0455001313174
9.76,0.0454708411375
9.78,0.0909031844557
9.8,0.0227106374687
9.82,0.0454056871709
9.84,0.0907574050581
9.86,0.0907237538135
9.88,0.181523466723
9.9,0.226909745791
9.92,0.204178916707
9.94,0.181451825472
9.96,0.204178916707
9.98,0.204228517125
10.,0.272452551292
