t,cases
5.01,2.73
5.02,2.73
5.03,2.665
5.04,2.665
5.05,2.795
5.06,2.795
5.07,3.38
5.08,3.38
5.09,4.03
5.1,4.03
5.11,4.16
5.12,4.16
5.13,4.355
5.14,4.355
5.15,4.615
5.16,4.615
5.17,4.03
5.18,4.03
5.19,3.38
5.2,3.38
5.21,3.64
5.22,3.64
5.23,4.095
5.24,4.095
5.25,4.03
5.26,4.03
5.27,4.225
5.28,4.225
5.29,3.77
5.3,3.77
5.31,3.12
5.32,3.12
5.33,3.25
5.34,3.25
5.35,3.12
5.36,3.12
5.37,2.73
5.38,2.73
5.39,2.145
5.4,2.145
5.41,1.69
5.42,1.69
5.43,1.43
5.44,1.43
5.45,1.17
5.46,1.17
5.47,1.105
5.48,1.105
5.49,0.91
5.5,0.91
5.51,0.715
5.52,0.715
5.53,0.52
5.54,0.52
5.55,0.325
5.56,0.325
5.57,0.26
5.58,0.26
5.59,0.195
5.6,0.195
5.61,0.065
5.62,0.065
5.63,0.
5.64,0.
5.65,0.13
5.66,0.13
5.67,0.13
5.68,0.13
5.69,0.065
5.7,0.065
5.71,0.13
5.72,0.13
5.73,0.13
5.74,0.13
5.75,0.13
5.76,0.13
5.77,0.195
5.78,0.195
5.79,0.26
5.8,0.26
5.81,0.26
5.82,0.26
5.83,0.325
5.84,0.325
5.85,0.585
5.86,0.585
5.87,0.715
5.88,0.715
5.89,0.715
5.9,0.715
5.91,0.975
5.92,0.975
5.93,1.495
5.94,1.495
5.95,1.625
5.96,1.625
5.97,1.82
5.98,1.82
5.99,2.47
6.,2.47
6.01,3.12
6.02,3.12
6.03,2.99
6.04,2.99
6.05,3.185
6.06,3.185
6.07,3.77
6.08,3.77
6.09,2.925
6.1,2.925
6.11,3.25
6.12,3.25
6.13,3.835
6.14,3.835
6.15,3.185
6.16,3.185
6.17,3.38
6.18,3.38
6.19,3.64
6.2,3.64
6.21,3.575
6.22,3.575
6.23,3.705
6.24,3.705
6.25,3.575
6.26,3.575
6.27,2.99
6.28,2.99
6.29,2.795
6.3,2.795
6.31,2.86
6.32,2.86
6.33,2.6
6.34,2.6
6.35,2.275
6.36,2.275
6.37,1.755
6.38,1.755
6.39,1.43
6.4,1.43
6.41,1.43
6.42,1.43
6.43,1.17
6.44,1.17
6.45,1.105
6.46,1.105
6.47,1.235
6.48,1.235
6.49,1.105
6.5,1.105
6.51,0.975
6.52,0.975
6.53,0.715
6.54,0.715
6.55,0.52
6.56,0.52
6.57,0.39
6.58,0.39
6.59,0.26
6.6,0.26
6.61,0.26
6.62,0.26
6.63,0.195
6.64,0.195
6.65,0.065
6.66,0.065
6.67,0.065
6.68,0.065
6.69,0.195
6.7,0.195
6.71,0.26
6.72,0.26
6.73,0.195
6.74,0.195
6.75,0.26
6.76,0.26
6.77,0.455
6.78,0.455
6.79,0.65
6.8,0.65
6.81,0.715
6.82,0.715
6.83,0.455
6.84,0.455
6.85,0.715
6.86,0.715
6.87,1.17
6.88,1.17
6.89,1.3
6.9,1.3
6.91,1.495
6.92,1.495
6.93,1.755
6.94,1.755
6.95,1.69
6.96,1.69
6.97,1.235
6.98,1.235
6.99,1.56
7.,1.56
7.01,1.82
7.02,1.82
7.03,1.885
7.04,1.885
7.05,2.6
7.06,2.6
7.07,3.055
7.08,3.055
7.09,3.445
7.1,3.445
7.11,3.77
7.12,3.77
7.13,3.64
7.14,3.64
7.15,3.445
7.16,3.445
7.17,3.575
7.18,3.575
7.19,3.835
7.2,3.835
7.21,4.095
7.22,4.095
7.23,4.615
7.24,4.615
7.25,5.2
7.26,5.2
7.27,5.005
7.28,5.005
7.29,4.03
7.3,4.03
7.31,3.25
7.32,3.25
7.33,2.6
7.34,2.6
7.35,1.755
7.36,1.755
7.37,1.43
7.38,1.43
7.39,1.69
7.4,1.69
7.41,1.625
7.42,1.625
7.43,1.04
7.44,1.04
7.45,0.78
7.46,0.78
7.47,0.91
7.48,0.91
7.49,0.78
7.5,0.78
7.51,0.715
7.52,0.715
7.53,0.455
7.54,0.455
7.55,0.065
7.56,0.065
7.57,0.065
7.58,0.065
7.59,0.195
7.6,0.195
7.61,0.195
7.62,0.195
7.63,0.325
7.64,0.325
7.65,0.39
7.66,0.39
7.67,0.325
7.68,0.325
7.69,0.26
7.7,0.26
7.71,0.325
7.72,0.325
7.73,0.26
7.74,0.26
7.75,0.065
7.76,0.065
7.77,0.195
7.78,0.195
7.79,0.325
7.8,0.325
7.81,0.325
7.82,0.325
7.83,0.585
7.84,0.585
7.85,1.04
7.86,1.04
7.87,1.235
7.88,1.235
7.89,1.365
7.9,1.365
7.91,1.755
7.92,1.755
7.93,2.015
7.94,2.015
7.95,2.21
7.96,2.21
7.97,2.47
7.98,2.47
7.99,2.73
8.,2.73
8.01,2.535
8.02,2.535
8.03,2.535
8.04,2.535
8.05,3.315
8.06,3.315
8.07,3.51
8.08,3.51
8.09,3.64
8.1,3.64
8.11,3.705
8.12,3.705
8.13,2.99
8.14,2.99
8.15,3.055
8.16,3.055
8.17,3.77
8.18,3.77
8.19,4.16
8.2,4.16
8.21,5.135
8.22,5.135
8.23,5.33
8.24,5.33
8.25,4.42
8.26,4.42
8.27,3.9
8.28,3.9
8.29,3.51
8.3,3.51
8.31,2.925
8.32,2.925
8.33,2.925
8.34,2.925
8.35,2.535
8.36,2.535
8.37,2.015
8.38,2.015
8.39,2.21
8.4,2.21
8.41,2.21
8.42,2.21
8.43,1.82
8.44,1.82
8.45,1.495
8.46,1.495
8.47,1.43
8.48,1.43
8.49,1.17
8.5,1.17
8.51,0.78
8.52,0.78
8.53,0.455
8.54,0.455
8.55,0.325
8.56,0.325
8.57,0.195
8.58,0.195
8.59,0.13
8.6,0.13
8.61,0.195
8.62,0.195
8.63,0.195
8.64,0.195
8.65,0.0650000000001
8.66,0.0649999999999
8.67,0.
8.68,0.
8.69,0.
8.7,0.
8.71,0.
8.72,0.
8.73,0.
8.74,0.
8.75,0.
8.76,0.
8.77,0.
8.78,0.
8.79,0.
8.8,0.
8.81,0.0649999999999
8.82,0.0650000000001
8.83,0.26
8.84,0.26
8.85,0.39
8.86,0.39
8.87,0.52
8.88,0.52
8.89,0.65
8.9,0.65
8.91,0.91
8.92,0.91
8.93,1.495
8.94,1.495
8.95,1.69
8.96,1.69
8.97,1.495
8.98,1.495
8.99,1.235
9.,1.235
9.01,1.04
9.02,1.04
9.03,1.495
9.04,1.495
9.05,2.34
9.06,2.34
9.07,3.055
9.08,3.055
9.09,3.185
9.1,3.185
9.11,3.38
9.12,3.38
9.13,3.835
9.14,3.835
9.15,3.445
9.16,3.445
9.17,3.25
9.18,3.25
9.19,3.25
9.2,3.25
9.21,3.705
9.22,3.705
9.23,3.965
9.24,3.965
9.25,3.445
9.26,3.445
9.27,3.315
9.28,3.315
9.29,3.575
9.3,3.575
9.31,3.12
9.32,3.12
9.33,2.405
9.34,2.405
9.35,2.405
9.36,2.405
9.37,2.145
9.38,2.145
9.39,1.885
9.4,1.885
9.41,1.755
9.42,1.755
9.43,1.365
9.44,1.365
9.45,1.235
9.46,1.235
9.47,1.105
9.48,1.105
9.49,0.65
9.5,0.65
9.51,0.325
9.52,0.325
9.53,0.13
9.54,0.13
9.55,0.325
9.56,0.325
9.57,0.39
9.58,0.39
9.59,0.26
9.6,0.26
9.61,0.26
9.62,0.26
9.63,0.13
9.64,0.13
9.65,0.0649999999999
9.66,0.0650000000001
9.67,0.13
9.68,0.13
9.69,0.0650000000001
9.7,0.0649999999999
9.71,0.195
9.72,0.195
9.73,0.325
9.74,0.325
9.75,0.195
9.76,0.195
9.77,0.195
9.78,0.195
9.79,0.26
9.8,0.26
9.81,0.52
9.82,0.52
9.83,0.975
9.84,0.975
9.85,1.235
9.86,1.235
9.87,1.3
9.88,1.3
9.89,1.3
9.9,1.3
9.91,1.56
9.92,1.56
9.93,1.82
9.94,1.82
9.95,1.625
9.96,1.625
9.97,1.3
9.98,1.3
9.99,0.91
10.,0.91
