t,s,e,i,r,c,o,n,reff,coal,reportr
5.,6375.,2.,30.,3595.,0.,0.,10002.,0.868751650703,22.5875429183,26.
5.02,6358.,24.,17.,3606.,0.,0.,10005.,0.866175179041,1.87671288792,312.
5.04,6348.,27.,13.,3614.,0.,0.,10002.,0.865072231947,1.6660650393,351.
5.06,6337.,28.,13.,3623.,0.,0.,10001.,0.863659558177,1.60393917947,364.
5.08,6339.,26.,12.,3624.,0.,0.,10001.,0.863932134966,1.72786426993,338.
5.1,6339.,23.,11.,3628.,0.,0.,10001.,0.863932134966,1.95323787036,299.
5.12,6339.,26.,10.,3627.,0.,0.,10002.,0.863845759028,1.72769151806,338.
5.14,6336.,17.,16.,3630.,0.,0.,9999.,0.863695991708,2.6418936217,221.
5.16,6327.,25.,16.,3633.,0.,0.,10001.,0.862296674228,1.79357708239,325.
5.18,6321.,27.,20.,3637.,0.,0.,10005.,0.861134524491,1.65848130643,351.
5.2,6324.,17.,18.,3649.,0.,0.,10008.,0.861284969849,2.6345187313,221.
5.22,6309.,30.,14.,3655.,0.,0.,10008.,0.85924207381,1.48935292794,390.
5.24,6311.,27.,9.,3664.,0.,0.,10011.,0.859256888939,1.65486511944,351.
5.26,6305.,23.,16.,3667.,0.,0.,10011.,0.858439975402,1.94082081395,299.
5.28,6299.,17.,14.,3681.,0.,0.,10011.,0.857623061864,2.623317601,221.
5.3,6294.,23.,10.,3685.,0.,0.,10012.,0.856856709063,1.93724125527,299.
5.32,6293.,21.,8.,3687.,0.,0.,10009.,0.85697735547,2.12203916593,273.
5.34,6289.,15.,14.,3689.,0.,0.,10007.,0.856603804332,2.96955985502,195.
5.36,6287.,18.,4.,3695.,0.,0.,10004.,0.856588187673,2.47458809772,234.
5.38,6288.,12.,12.,3694.,0.,0.,10006.,0.856553193056,3.71173050324,156.
5.4,6278.,19.,7.,3700.,0.,0.,10004.,0.855361959951,2.34099062723,247.
5.42,6279.,17.,9.,3699.,0.,0.,10004.,0.855498207475,2.6168180464,221.
5.44,6285.,15.,7.,3699.,0.,0.,10006.,0.856144532181,2.96796771156,195.
5.46,6289.,14.,1.,3702.,0.,0.,10006.,0.856689413347,3.18198924958,182.
5.48,6300.,6.,8.,3696.,0.,0.,10010.,0.857844904352,7.43465583771,78.
5.5,6307.,7.,3.,3693.,0.,0.,10010.,0.858798065356,6.37964277122,91.
5.52,6314.,5.,2.,3688.,0.,0.,10009.,0.859837124176,8.94230609143,65.
5.54,6321.,5.,0.,3680.,0.,0.,10006.,0.861048462676,8.95490401183,65.
5.56,6329.,4.,2.,3671.,0.,0.,10006.,0.862138225008,11.2077969251,52.
5.58,6337.,2.,1.,3665.,0.,0.,10005.,0.863314266999,22.446170942,26.
5.6,6350.,1.,1.,3658.,0.,0.,10010.,0.864653197243,44.9619662567,13.
5.62,6361.,0.,1.,3648.,0.,0.,10010.,0.86615102168,inf,0.
5.64,6373.,0.,0.,3639.,0.,0.,10012.,0.86761166299,inf,0.
5.66,6385.,0.,0.,3629.,0.,0.,10014.,0.869071720861,inf,0.
5.68,6394.,0.,0.,3620.,0.,0.,10014.,0.870296724069,inf,0.
5.7,6402.,0.,0.,3615.,0.,0.,10017.,0.871124643778,inf,0.
5.72,6411.,1.,0.,3603.,0.,0.,10015.,0.872523488653,45.3712214099,13.
5.74,6416.,0.,1.,3594.,0.,0.,10011.,0.873552875841,inf,0.
5.76,6421.,1.,0.,3584.,0.,0.,10006.,0.874670491828,45.482865575,13.
5.78,6433.,1.,0.,3576.,0.,0.,10010.,0.875954963444,45.5496580991,13.
5.8,6440.,1.,0.,3567.,0.,0.,10008.,0.87708336588,45.6083350258,13.
5.82,6441.,5.,0.,3561.,0.,0.,10007.,0.877307219543,9.12399508325,65.
5.84,6451.,3.,2.,3553.,0.,0.,10009.,0.878493710494,15.2272243152,39.
5.86,6455.,6.,4.,3546.,0.,0.,10011.,0.878862813833,7.61681105322,78.
5.88,6451.,11.,6.,3543.,0.,0.,10011.,0.878318204808,4.15204969546,143.
5.9,6451.,9.,6.,3543.,0.,0.,10009.,0.878493710494,5.07574143841,117.
5.92,6449.,11.,5.,3542.,0.,0.,10007.,0.878396872975,4.15242158134,143.
5.94,6448.,14.,6.,3539.,0.,0.,10007.,0.878260666296,3.26211104624,182.
5.96,6449.,10.,8.,3539.,0.,0.,10006.,0.87848465999,4.56812023195,130.
5.98,6446.,12.,9.,3540.,0.,0.,10007.,0.877988252938,3.80461576273,156.
6.,6454.,9.,3.,3544.,0.,0.,10010.,0.878814446458,5.07759457954,117.
6.02,6460.,12.,5.,3533.,0.,0.,10010.,0.879631441605,3.81173624696,156.
6.04,6466.,12.,6.,3528.,0.,0.,10012.,0.880272558119,3.81451441852,156.
6.06,6459.,18.,9.,3526.,0.,0.,10012.,0.879319587518,2.54025658616,234.
6.08,6455.,22.,8.,3526.,0.,0.,10011.,0.878862813833,2.07731210542,286.
6.1,6451.,24.,7.,3527.,0.,0.,10009.,0.878493710494,1.9034030394,312.
6.12,6455.,20.,9.,3526.,0.,0.,10010.,0.878950612316,2.28527159202,260.
6.14,6451.,24.,12.,3524.,0.,0.,10011.,0.878318204808,1.90302277708,312.
6.16,6449.,25.,13.,3523.,0.,0.,10010.,0.878133617169,1.82651792371,325.
6.18,6439.,28.,14.,3525.,0.,0.,10006.,0.877122457075,1.628941706,364.
6.2,6435.,28.,16.,3529.,0.,0.,10008.,0.876402400534,1.62760445813,364.
6.22,6422.,32.,14.,3539.,0.,0.,10007.,0.874719292642,1.42141885054,416.
6.24,6415.,29.,14.,3548.,0.,0.,10006.,0.873853170078,1.56690913255,377.
6.26,6408.,28.,20.,3552.,0.,0.,10008.,0.872725187665,1.62077534852,364.
6.28,6399.,33.,3.,3572.,0.,0.,10007.,0.871586539024,1.3734090918,429.
6.3,6397.,28.,9.,3570.,0.,0.,10004.,0.871575415388,1.61864005715,364.
6.32,6390.,23.,15.,3573.,0.,0.,10001.,0.870882843104,1.96895251484,299.
6.34,6391.,26.,6.,3581.,0.,0.,10004.,0.87075793024,1.74151586048,338.
6.36,6387.,20.,16.,3583.,0.,0.,10006.,0.870039001916,2.26210140498,260.
6.38,6386.,22.,5.,3595.,0.,0.,10008.,0.869728940141,2.05572294943,286.
6.4,6396.,14.,8.,3590.,0.,0.,10008.,0.871090870834,3.23548037738,182.
6.42,6402.,13.,5.,3589.,0.,0.,10009.,0.871820916847,3.48728366739,169.
6.44,6414.,9.,6.,3583.,0.,0.,10012.,0.873193347939,5.04511712143,117.
6.46,6419.,9.,2.,3581.,0.,0.,10011.,0.873961332609,5.04955436619,117.
6.48,6422.,9.,4.,3574.,0.,0.,10009.,0.874544506091,5.05292381297,117.
6.5,6424.,8.,5.,3570.,0.,0.,10007.,0.874991706,5.687446089,104.
6.52,6424.,4.,5.,3573.,0.,0.,10006.,0.875079152702,11.3760289851,52.
6.54,6432.,1.,2.,3570.,0.,0.,10005.,0.876256488139,45.5653373832,13.
6.56,6440.,1.,0.,3567.,0.,0.,10008.,0.87708336588,45.6083350258,13.
6.58,6447.,1.,0.,3561.,0.,0.,10009.,0.877948992645,45.6533476176,13.
6.6,6451.,1.,0.,3555.,0.,0.,10007.,0.878669286333,45.6908028893,13.
6.62,6455.,1.,1.,3550.,0.,0.,10007.,0.879214113049,45.7191338786,13.
6.64,6460.,0.,2.,3542.,0.,0.,10004.,0.880159009443,inf,0.
6.66,6468.,0.,0.,3535.,0.,0.,10003.,0.88133708811,inf,0.
6.68,6476.,0.,0.,3527.,0.,0.,10003.,0.882427177273,inf,0.
6.7,6485.,0.,0.,3516.,0.,0.,10001.,0.883830240615,inf,0.
6.72,6494.,0.,0.,3506.,0.,0.,10000.,0.885145341852,inf,0.
6.74,6500.,0.,0.,3499.,0.,0.,9999.,0.88605175917,inf,0.
6.76,6508.,0.,1.,3493.,0.,0.,10002.,0.886876194945,inf,0.
6.78,6514.,1.,0.,3487.,0.,0.,10002.,0.887693843557,46.160079865,13.
6.8,6516.,1.,1.,3486.,0.,0.,10004.,0.887788870825,46.1650212829,13.
6.82,6523.,2.,2.,3479.,0.,0.,10006.,0.888564961562,23.1026890006,26.
6.84,6531.,5.,5.,3467.,0.,0.,10008.,0.889476935181,9.25056012588,65.
6.86,6530.,11.,2.,3465.,0.,0.,10008.,0.889340742111,4.20415623544,143.
6.88,6536.,9.,5.,3461.,0.,0.,10011.,0.889891146586,5.14159329139,117.
6.9,6531.,15.,3.,3464.,0.,0.,10013.,0.889032774122,3.08198028362,195.
6.92,6529.,13.,3.,3467.,0.,0.,10012.,0.888849293529,3.55539717412,169.
6.94,6524.,14.,8.,3465.,0.,0.,10011.,0.888257319511,3.29924147247,182.
6.96,6521.,15.,10.,3463.,0.,0.,10009.,0.888026272846,3.0784910792,195.
6.98,6516.,19.,10.,3465.,0.,0.,10010.,0.887256729644,2.42828157587,247.
7.,6519.,18.,7.,3469.,0.,0.,10013.,0.887399273389,2.5635979009,234.
7.02,6519.,21.,6.,3465.,0.,0.,10011.,0.88757655823,2.19780862038,273.
7.04,6515.,24.,13.,3457.,0.,0.,10009.,0.887209196073,1.92228659149,312.
7.06,6506.,20.,20.,3461.,0.,0.,10007.,0.886160653679,2.30401769957,260.
7.08,6499.,24.,16.,3471.,0.,0.,10010.,0.884941910061,1.91737413846,312.
7.1,6490.,26.,15.,3480.,0.,0.,10011.,0.8836281428,1.7672562856,338.
7.12,6475.,26.,24.,3487.,0.,0.,10012.,0.881497806035,1.76299561207,338.
7.14,6467.,30.,12.,3501.,0.,0.,10010.,0.88058460261,1.52634664452,390.
7.16,6452.,36.,14.,3507.,0.,0.,10009.,0.878629889956,1.26913206327,468.
7.18,6447.,35.,18.,3507.,0.,0.,10007.,0.878124459617,1.30464205429,455.
7.2,6436.,36.,13.,3520.,0.,0.,10005.,0.876801423766,1.26649094544,468.
7.22,6435.,30.,23.,3517.,0.,0.,10005.,0.876665189859,1.51955299576,390.
7.24,6419.,33.,18.,3531.,0.,0.,10001.,0.874835206555,1.37852820427,429.
7.26,6407.,27.,17.,3546.,0.,0.,9997.,0.87354913053,1.68239091806,351.
7.28,6396.,26.,10.,3560.,0.,0.,9992.,0.872485732116,1.74497146423,338.
7.3,6398.,20.,16.,3561.,0.,0.,9995.,0.872496595876,2.26849114928,260.
7.32,6397.,19.,19.,3565.,0.,0.,10000.,0.871924045554,2.38631844046,247.
7.34,6387.,23.,8.,3579.,0.,0.,9997.,0.870822271999,1.96881557148,299.
7.36,6394.,18.,7.,3576.,0.,0.,9995.,0.871951115041,2.51896988789,234.
7.38,6401.,10.,9.,3573.,0.,0.,9993.,0.873080409936,4.54001813167,130.
7.4,6404.,12.,4.,3572.,0.,0.,9992.,0.873577021337,3.78550042579,156.
7.42,6407.,11.,6.,3567.,0.,0.,9991.,0.87407373215,4.13198491562,143.
7.44,6403.,13.,2.,3572.,0.,0.,9990.,0.873615473169,3.49446189268,169.
7.46,6403.,11.,3.,3574.,0.,0.,9991.,0.873528032926,4.12940524656,143.
7.48,6417.,8.,3.,3567.,0.,0.,9995.,0.875087629843,5.68806959398,104.
7.5,6424.,6.,0.,3566.,0.,0.,9996.,0.875954582027,7.59160637756,78.
7.52,6425.,2.,3.,3561.,0.,0.,9991.,0.876529378658,22.7897638451,26.
7.54,6430.,3.,2.,3560.,0.,0.,9995.,0.876860442557,15.1989143377,39.
7.56,6432.,3.,1.,3557.,0.,0.,9993.,0.877308732496,15.2066846966,39.
7.58,6441.,2.,1.,3548.,0.,0.,9992.,0.878624233984,22.8442300836,26.
7.6,6449.,2.,0.,3541.,0.,0.,9992.,0.879715523205,22.8726036033,26.
7.62,6462.,0.,2.,3528.,0.,0.,9992.,0.881488868189,inf,0.
7.64,6474.,0.,0.,3519.,0.,0.,9993.,0.883037427578,inf,0.
7.66,6486.,0.,0.,3506.,0.,0.,9992.,0.884762735851,inf,0.
7.68,6493.,1.,0.,3496.,0.,0.,9990.,0.885894934763,46.0665366077,13.
7.7,6495.,2.,1.,3492.,0.,0.,9990.,0.886167811688,23.0403631039,26.
7.72,6504.,2.,1.,3480.,0.,0.,9987.,0.887662323109,23.0792204008,26.
7.74,6508.,4.,0.,3475.,0.,0.,9987.,0.888208240897,11.5467071317,52.
7.76,6514.,3.,1.,3466.,0.,0.,9984.,0.889294253131,15.4144337209,39.
7.78,6518.,1.,2.,3463.,0.,0.,9984.,0.889840334957,46.2716974177,13.
7.8,6519.,5.,2.,3457.,0.,0.,9983.,0.890066004652,9.25668644838,65.
7.82,6529.,4.,2.,3450.,0.,0.,9985.,0.891252791869,11.5862862943,52.
7.84,6535.,5.,4.,3441.,0.,0.,9985.,0.892071832572,9.27754705875,65.
7.86,6534.,3.,7.,3439.,0.,0.,9983.,0.892114016628,15.4633096216,39.
7.88,6535.,6.,4.,3437.,0.,0.,9982.,0.89233993671,7.73361278482,78.
7.9,6536.,5.,8.,3432.,0.,0.,9981.,0.892565902061,9.28268538144,65.
7.92,6533.,11.,5.,3431.,0.,0.,9980.,0.892245612,4.21788834764,143.
7.94,6543.,9.,4.,3427.,0.,0.,9983.,0.893342823814,5.16153631537,117.
7.96,6539.,12.,6.,3427.,0.,0.,9984.,0.892707264542,3.86839814635,156.
7.98,6529.,18.,5.,3431.,0.,0.,9983.,0.891431345969,2.57524611058,234.
8.,6531.,19.,8.,3426.,0.,0.,9984.,0.89161510089,2.4402097498,247.
8.02,6525.,21.,9.,3425.,0.,0.,9980.,0.891153010608,2.2066645977,273.
8.04,6526.,16.,6.,3434.,0.,0.,9982.,0.891111006422,2.89611077087,208.
8.06,6525.,21.,8.,3429.,0.,0.,9983.,0.890885209443,2.206001471,273.
8.08,6517.,21.,11.,3431.,0.,0.,9980.,0.890060409215,2.20395910853,273.
8.1,6514.,22.,7.,3435.,0.,0.,9978.,0.889829006139,2.10323219633,286.
8.12,6512.,23.,11.,3431.,0.,0.,9977.,0.88964496169,2.01137121773,299.
8.14,6509.,18.,17.,3436.,0.,0.,9980.,0.888967807823,2.5681292226,234.
8.16,6505.,19.,19.,3437.,0.,0.,9980.,0.888421507127,2.43146938793,247.
8.18,6492.,25.,20.,3442.,0.,0.,9979.,0.886734881055,1.84440855259,325.
8.2,6484.,28.,12.,3456.,0.,0.,9980.,0.885553428472,1.64459922431,364.
8.22,6479.,27.,9.,3464.,0.,0.,9979.,0.884959225871,1.70436591649,351.
8.24,6478.,23.,10.,3470.,0.,0.,9981.,0.884645335611,2.00006771529,299.
8.26,6468.,31.,12.,3472.,0.,0.,9983.,0.883102763935,1.48133366854,403.
8.28,6464.,26.,14.,3476.,0.,0.,9980.,0.882821924991,1.76564384998,338.
8.3,6459.,27.,8.,3486.,0.,0.,9980.,0.882139049121,1.69893446497,351.
8.32,6459.,19.,15.,3488.,0.,0.,9981.,0.882050667291,2.41403340522,247.
8.34,6460.,16.,12.,3493.,0.,0.,9981.,0.882187228781,2.86710849354,208.
8.36,6454.,19.,4.,3500.,0.,0.,9977.,0.88172121971,2.41313175921,247.
8.38,6461.,18.,0.,3503.,0.,0.,9982.,0.882235398788,2.54868004094,234.
8.4,6472.,13.,5.,3497.,0.,0.,9987.,0.883294980806,3.53317992322,169.
8.42,6470.,11.,7.,3495.,0.,0.,9983.,0.883375832198,4.17595847948,143.
8.44,6477.,8.,6.,3491.,0.,0.,9982.,0.884420163744,5.74873106434,104.
8.46,6485.,5.,7.,3487.,0.,0.,9984.,0.885335159895,9.20748566291,65.
8.48,6486.,6.,2.,3488.,0.,0.,9982.,0.885649094032,7.67562548161,78.
8.5,6487.,4.,4.,3486.,0.,0.,9981.,0.885874389025,11.5163670573,52.
8.52,6494.,3.,3.,3481.,0.,0.,9981.,0.886830319459,15.3717255373,39.
8.54,6503.,0.,3.,3476.,0.,0.,9982.,0.887970406798,inf,0.
8.56,6508.,1.,1.,3474.,0.,0.,9984.,0.888475130392,46.2007067804,13.
8.58,6517.,3.,0.,3467.,0.,0.,9987.,0.88943655592,15.4169003026,39.
8.6,6527.,0.,2.,3458.,0.,0.,9987.,0.890801350389,inf,0.
8.62,6536.,0.,0.,3448.,0.,0.,9984.,0.892297703172,inf,0.
8.64,6544.,0.,0.,3441.,0.,0.,9985.,0.893300393627,inf,0.
8.66,6551.,1.,0.,3433.,0.,0.,9985.,0.894255941114,46.5013089379,13.
8.68,6559.,1.,0.,3429.,0.,0.,9989.,0.8949894618,46.5394520136,13.
8.7,6561.,1.,0.,3424.,0.,0.,9986.,0.895531321289,46.567628707,13.
8.72,6574.,1.,0.,3413.,0.,0.,9988.,0.897126055013,46.6505548607,13.
8.74,6586.,2.,0.,3400.,0.,0.,9988.,0.898763644405,23.3678547545,26.
8.76,6598.,2.,0.,3385.,0.,0.,9985.,0.900671759956,23.4174657589,26.
8.78,6604.,1.,0.,3379.,0.,0.,9984.,0.901581094209,46.8822168989,13.
8.8,6609.,1.,1.,3370.,0.,0.,9981.,0.902534890869,46.9318143252,13.
8.82,6613.,2.,0.,3362.,0.,0.,9977.,0.903443202036,23.4895232529,26.
8.84,6614.,4.,0.,3358.,0.,0.,9976.,0.90367039364,11.7477151173,52.
8.86,6615.,5.,2.,3353.,0.,0.,9975.,0.903897630796,9.40053536028,65.
8.88,6618.,7.,1.,3351.,0.,0.,9977.,0.904126283241,6.71636667551,91.
8.9,6621.,7.,1.,3347.,0.,0.,9976.,0.904626803189,6.72008482369,91.
8.92,6624.,4.,3.,3344.,0.,0.,9975.,0.905127423491,11.7666565054,52.
8.94,6625.,8.,1.,3341.,0.,0.,9975.,0.905264067124,5.8842164363,104.
8.96,6629.,8.,3.,3334.,0.,0.,9974.,0.905901458843,5.88835948248,104.
8.98,6633.,8.,8.,3326.,0.,0.,9975.,0.906357216186,5.89132190521,104.
9.,6634.,12.,12.,3318.,0.,0.,9976.,0.906402992351,3.92774630019,156.
9.02,6639.,15.,2.,3322.,0.,0.,9978.,0.906904324802,3.14393499265,195.
9.04,6635.,18.,5.,3320.,0.,0.,9978.,0.906357914605,2.61836730886,234.
9.06,6641.,13.,11.,3316.,0.,0.,9981.,0.906904858566,3.62761943426,169.
9.08,6640.,17.,14.,3314.,0.,0.,9985.,0.906405044878,2.77253307845,221.
9.1,6635.,25.,12.,3311.,0.,0.,9983.,0.905903963931,1.88428024498,325.
9.12,6634.,25.,7.,3318.,0.,0.,9984.,0.905676707902,1.88380755244,325.
9.14,6632.,18.,14.,3321.,0.,0.,9985.,0.905312990607,2.61534863953,234.
9.16,6623.,29.,8.,3324.,0.,0.,9984.,0.904174982881,1.62127927965,377.
9.18,6609.,34.,13.,3326.,0.,0.,9982.,0.902444474631,1.38020919649,442.
9.2,6608.,23.,18.,3335.,0.,0.,9984.,0.902127176035,2.03959187625,299.
9.22,6599.,31.,9.,3348.,0.,0.,9987.,0.900627870571,1.5107306216,403.
9.24,6591.,31.,16.,3346.,0.,0.,9984.,0.899806328275,1.50935255066,403.
9.26,6587.,33.,7.,3359.,0.,0.,9986.,0.899080142255,1.41673234537,429.
9.28,6573.,32.,11.,3364.,0.,0.,9980.,0.897708618962,1.45877650581,416.
9.3,6564.,31.,10.,3371.,0.,0.,9976.,0.896838896863,1.50437492377,403.
9.32,6556.,23.,10.,3386.,0.,0.,9975.,0.895835656462,2.02536757113,299.
9.34,6551.,21.,11.,3393.,0.,0.,9976.,0.895062707701,2.2163457524,273.
9.36,6553.,17.,6.,3400.,0.,0.,9976.,0.895335967572,2.73867472434,221.
9.38,6554.,18.,9.,3394.,0.,0.,9975.,0.895562369197,2.58718017768,234.
9.4,6558.,12.,8.,3396.,0.,0.,9974.,0.896198788218,3.88352808228,156.
9.42,6558.,10.,5.,3403.,0.,0.,9976.,0.89601911725,4.6592994097,130.
9.44,6563.,7.,1.,3403.,0.,0.,9974.,0.896882074882,6.66255255626,91.
9.46,6568.,4.,1.,3403.,0.,0.,9976.,0.897385416605,11.6660104159,52.
9.48,6573.,4.,3.,3394.,0.,0.,9974.,0.898248648209,11.6772324267,52.
9.5,6582.,4.,0.,3391.,0.,0.,9977.,0.899208098564,11.6897052813,52.
9.52,6596.,2.,1.,3379.,0.,0.,9978.,0.901030415182,23.4267907947,26.
9.54,6603.,2.,1.,3371.,0.,0.,9977.,0.902077039626,23.4540030303,26.
9.56,6615.,0.,0.,3363.,0.,0.,9978.,0.903625863619,inf,0.
9.58,6624.,0.,0.,3350.,0.,0.,9974.,0.90521817218,inf,0.
9.6,6630.,0.,0.,3343.,0.,0.,9973.,0.90612896528,inf,0.
9.62,6638.,0.,0.,3334.,0.,0.,9972.,0.907313310533,inf,0.
9.64,6642.,0.,0.,3328.,0.,0.,9970.,0.908042167862,inf,0.
9.66,6653.,0.,0.,3320.,0.,0.,9973.,0.909272399097,inf,0.
9.68,6669.,0.,0.,3309.,0.,0.,9978.,0.911002401281,inf,0.
9.7,6676.,0.,0.,3302.,0.,0.,9978.,0.911958619126,inf,0.
9.72,6676.,0.,0.,3298.,0.,0.,9974.,0.912324353483,inf,0.
9.74,6685.,1.,0.,3289.,0.,0.,9975.,0.91346268509,47.5000596247,13.
9.76,6691.,2.,0.,3285.,0.,0.,9978.,0.914007657366,23.7641990915,26.
9.78,6702.,1.,2.,3279.,0.,0.,9984.,0.914960098938,47.5779251448,13.
9.8,6705.,1.,0.,3275.,0.,0.,9981.,0.91564479396,47.6135292859,13.
9.82,6710.,1.,1.,3272.,0.,0.,9984.,0.91605226259,47.6347176547,13.
9.84,6713.,2.,2.,3263.,0.,0.,9980.,0.916829143327,23.8375577265,26.
9.86,6715.,4.,2.,3256.,0.,0.,9977.,0.917378058623,11.9259147621,52.
9.88,6716.,5.,0.,3255.,0.,0.,9976.,0.917606647065,9.54310912947,65.
9.9,6717.,6.,3.,3249.,0.,0.,9975.,0.917835281339,7.95457243827,78.
9.92,6718.,8.,3.,3248.,0.,0.,9977.,0.917787907346,5.96562139775,104.
9.94,6719.,11.,3.,3242.,0.,0.,9975.,0.918108568604,4.34014959704,143.
9.96,6727.,10.,7.,3233.,0.,0.,9977.,0.919017453515,4.77889075828,130.
9.98,6723.,12.,4.,3234.,0.,0.,9973.,0.918839371581,3.98163727685,156.
10.,6727.,11.,7.,3227.,0.,0.,9972.,0.919478252479,4.34662446627,143.
