t,prevalence
0.,69
0.00273785078713,117
0.00547570157426,171
0.0082135523614,236
0.0109514031485,292
0.0136892539357,389
0.0164271047228,514
0.0191649555099,635
0.0219028062971,764
0.0246406570842,833
0.0273785078713,828
0.0301163586585,827
0.0328542094456,853
0.0355920602327,854
0.0383299110198,806
0.041067761807,704
0.0438056125941,643
0.0465434633812,574
0.0492813141684,467
0.0520191649555,423
0.0547570157426,362
0.0574948665298,326
0.0602327173169,298
0.062970568104,240
0.0657084188912,207
0.0684462696783,183
0.0711841204654,149
0.0739219712526,125
0.0766598220397,104
0.0793976728268,88
0.082135523614,85
