t,cases
2013.7752283105024,49
2013.794406392694,189
2013.8135844748858,326
2013.8328767123287,265
2013.8520547945207,258
2013.8712328767124,461
2013.890410958904,613
2013.9095890410958,748
2013.9287671232876,722
2013.9479452054795,549
2013.9671232876713,318
2013.986301369863,134
2014.0054794520547,105
2014.0246575342467,101
2014.0438356164384,88
2014.0630136986301,56
2014.0821917808219,47
2014.1013698630136,19
2014.1205479452055,12
2014.1397260273973,15
2014.158904109589,10
2014.1780821917807,7
2014.1972602739727,2
2014.2164383561644,0
2014.2356164383561,0
