t,cases
5.01,2.535
5.02,2.535
5.03,2.34
5.04,2.34
5.05,2.665
5.06,2.665
5.07,3.055
5.08,3.055
5.09,3.315
5.1,3.315
5.11,3.51
5.12,3.51
5.13,3.835
5.14,3.835
5.15,4.81
5.16,4.81
5.17,5.2
5.18,5.2
5.19,5.395
5.2,5.395
5.21,5.46
5.22,5.46
5.23,5.265
5.24,5.265
5.25,4.68
5.26,4.68
5.27,3.705
5.28,3.705
5.29,3.315
5.3,3.315
5.31,3.055
5.32,3.055
5.33,2.535
5.34,2.535
5.35,2.275
5.36,2.275
5.37,2.145
5.38,2.145
5.39,1.56
5.4,1.56
5.41,1.3
5.42,1.3
5.43,1.235
5.44,1.235
5.45,1.04
5.46,1.04
5.47,0.845
5.48,0.845
5.49,0.65
5.5,0.65
5.51,0.78
5.52,0.78
5.53,0.585
5.54,0.585
5.55,0.455
5.56,0.455
5.57,0.52
5.58,0.52
5.59,0.39
5.6,0.39
5.61,0.455
5.62,0.455
5.63,0.39
5.64,0.39
5.65,0.325
5.66,0.325
5.67,0.39
5.68,0.39
5.69,0.325
5.7,0.325
5.71,0.26
5.72,0.26
5.73,0.26
5.74,0.26
5.75,0.13
5.76,0.13
5.77,0.
5.78,0.
5.79,0.065
5.8,0.065
5.81,0.13
5.82,0.13
5.83,0.39
5.84,0.39
5.85,0.715
5.86,0.715
5.87,0.78
5.88,0.78
5.89,0.65
5.9,0.65
5.91,0.845
5.92,0.845
5.93,1.105
5.94,1.105
5.95,1.105
5.96,1.105
5.97,1.43
5.98,1.43
5.99,1.885
6.,1.885
6.01,1.95
6.02,1.95
6.03,2.015
6.04,2.015
6.05,2.6
6.06,2.6
6.07,3.38
6.08,3.38
6.09,3.705
6.1,3.705
6.11,4.29
6.12,4.29
6.13,4.29
6.14,4.29
6.15,4.42
6.16,4.42
6.17,4.875
6.18,4.875
6.19,4.81
6.2,4.81
6.21,4.81
6.22,4.81
6.23,4.745
6.24,4.745
6.25,4.615
6.26,4.615
6.27,4.03
6.28,4.03
6.29,3.51
6.3,3.51
6.31,3.38
6.32,3.38
6.33,2.6
6.34,2.6
6.35,1.755
6.36,1.755
6.37,2.08
6.38,2.08
6.39,2.08
6.4,2.08
6.41,1.625
6.42,1.625
6.43,1.3
6.44,1.3
6.45,1.17
6.46,1.17
6.47,0.975
6.48,0.975
6.49,0.715
6.5,0.715
6.51,0.65
6.52,0.65
6.53,0.455
6.54,0.455
6.55,0.325
6.56,0.325
6.57,0.325
6.58,0.325
6.59,0.13
6.6,0.13
6.61,0.195
6.62,0.195
6.63,0.26
6.64,0.26
6.65,0.195
6.66,0.195
6.67,0.26
6.68,0.26
6.69,0.26
6.7,0.26
6.71,0.325
6.72,0.325
6.73,0.325
6.74,0.325
6.75,0.195
6.76,0.195
6.77,0.195
6.78,0.195
6.79,0.13
6.8,0.13
6.81,0.065
6.82,0.065
6.83,0.325
6.84,0.325
6.85,0.585
6.86,0.585
6.87,0.585
6.88,0.585
6.89,0.78
6.9,0.78
6.91,1.235
6.92,1.235
6.93,1.625
6.94,1.625
6.95,1.82
6.96,1.82
6.97,1.56
6.98,1.56
6.99,1.3
7.,1.3
7.01,1.365
7.02,1.365
7.03,1.885
7.04,1.885
7.05,2.405
7.06,2.405
7.07,2.73
7.08,2.73
7.09,3.705
7.1,3.705
7.11,3.77
7.12,3.77
7.13,3.51
7.14,3.51
7.15,3.9
7.16,3.9
7.17,3.64
7.18,3.64
7.19,4.29
7.2,4.29
7.21,5.07
7.22,5.07
7.23,3.9
7.24,3.9
7.25,3.055
7.26,3.055
7.27,3.25
7.28,3.25
7.29,2.795
7.3,2.795
7.31,2.275
7.32,2.275
7.33,2.47
7.34,2.47
7.35,2.665
7.36,2.665
7.37,2.08
7.38,2.08
7.39,1.43
7.4,1.43
7.41,1.3
7.42,1.3
7.43,1.17
7.44,1.17
7.45,0.65
7.46,0.65
7.47,0.585
7.48,0.585
7.49,0.65
7.5,0.65
7.51,0.39
7.52,0.39
7.53,0.195
7.54,0.195
7.55,0.065
7.56,0.065
7.57,0.13
7.58,0.13
7.59,0.13
7.6,0.13
7.61,0.13
7.62,0.13
7.63,0.13
7.64,0.13
7.65,0.13
7.66,0.13
7.67,0.13
7.68,0.13
7.69,0.13
7.7,0.13
7.71,0.065
7.72,0.065
7.73,0.065
7.74,0.065
7.75,0.13
7.76,0.13
7.77,0.195
7.78,0.195
7.79,0.26
7.8,0.26
7.81,0.195
7.82,0.195
7.83,0.325
7.84,0.325
7.85,0.52
7.86,0.52
7.87,0.65
7.88,0.65
7.89,0.91
7.9,0.91
7.91,0.975
7.92,0.975
7.93,1.105
7.94,1.105
7.95,1.3
7.96,1.3
7.97,1.69
7.98,1.69
7.99,2.08
8.,2.08
8.01,2.145
8.02,2.145
8.03,2.47
8.04,2.47
8.05,3.25
8.06,3.25
8.07,3.705
8.08,3.705
8.09,3.64
8.1,3.64
8.11,3.835
8.12,3.835
8.13,3.51
8.14,3.51
8.15,3.77
8.16,3.77
8.17,5.07
8.18,5.07
8.19,4.81
8.2,4.81
8.21,4.55
8.22,4.55
8.23,4.875
8.24,4.875
8.25,4.225
8.26,4.225
8.27,3.77
8.28,3.77
8.29,3.38
8.3,3.38
8.31,3.25
8.32,3.25
8.33,3.64
8.34,3.64
8.35,3.185
8.36,3.185
8.37,2.275
8.38,2.275
8.39,1.69
8.4,1.69
8.41,1.56
8.42,1.56
8.43,1.755
8.44,1.755
8.45,1.43
8.46,1.43
8.47,0.975
8.48,0.975
8.49,0.78
8.5,0.78
8.51,0.39
8.52,0.39
8.53,0.0649999999999
8.54,0.0650000000001
8.55,0.
8.56,0.
8.57,0.
8.58,0.
8.59,0.
8.6,0.
8.61,0.0649999999999
8.62,0.0650000000001
8.63,0.13
8.64,0.13
8.65,0.13
8.66,0.13
8.67,0.195
8.68,0.195
8.69,0.195
8.7,0.195
8.71,0.0650000000001
8.72,0.0649999999999
8.73,0.0650000000001
8.74,0.0649999999999
8.75,0.195
8.76,0.195
8.77,0.13
8.78,0.13
8.79,0.13
8.8,0.13
8.81,0.13
8.82,0.13
8.83,0.26
8.84,0.26
8.85,0.52
8.86,0.52
8.87,0.52
8.88,0.52
8.89,0.78
8.9,0.78
8.91,1.04
8.92,1.04
8.93,1.235
8.94,1.235
8.95,1.885
8.96,1.885
8.97,2.535
8.98,2.535
8.99,2.665
9.,2.665
9.01,2.34
9.02,2.34
9.03,2.925
9.04,2.925
9.05,3.575
9.06,3.575
9.07,3.705
9.08,3.705
9.09,3.185
9.1,3.185
9.11,2.99
9.12,2.99
9.13,3.64
9.14,3.64
9.15,3.38
9.16,3.38
9.17,3.705
9.18,3.705
9.19,4.095
9.2,4.095
9.21,3.9
9.22,3.9
9.23,3.575
9.24,3.575
9.25,3.38
9.26,3.38
9.27,3.575
9.28,3.575
9.29,3.77
9.3,3.77
9.31,3.51
9.32,3.51
9.33,3.12
9.34,3.12
9.35,2.6
9.36,2.6
9.37,2.145
9.38,2.145
9.39,2.145
9.4,2.145
9.41,2.08
9.42,2.08
9.43,1.82
9.44,1.82
9.45,1.495
9.46,1.495
9.47,1.17
9.48,1.17
9.49,0.91
9.5,0.91
9.51,0.78
9.52,0.78
9.53,0.39
9.54,0.39
9.55,0.13
9.56,0.13
9.57,0.13
9.58,0.13
9.59,0.195
9.6,0.195
9.61,0.195
9.62,0.195
9.63,0.13
9.64,0.13
9.65,0.13
9.66,0.13
9.67,0.0649999999999
9.68,0.0650000000001
9.69,0.13
9.7,0.13
9.71,0.26
9.72,0.26
9.73,0.26
9.74,0.26
9.75,0.325
9.76,0.325
9.77,0.39
9.78,0.39
9.79,0.26
9.8,0.26
9.81,0.325
9.82,0.325
9.83,0.325
9.84,0.325
9.85,0.39
9.86,0.39
9.87,0.65
9.88,0.65
9.89,0.91
9.9,0.91
9.91,1.105
9.92,1.105
9.93,0.975
9.94,0.975
9.95,1.105
9.96,1.105
9.97,1.69
9.98,1.69
9.99,1.95
10.,1.95
