t,s,e,i,r,c,o,n,reff,coal,reportr
5.,5572.,9.,26.,4394.,0.,0.,10001.,1.09681286634,6.33714100549,117.
5.02,5568.,25.,10.,4403.,0.,0.,10006.,1.09300975908,2.27346029888,325.
5.04,5561.,23.,19.,4399.,0.,0.,10002.,1.08471330651,2.45239530167,299.
5.06,5550.,19.,20.,4412.,0.,0.,10001.,1.07056289252,2.92996160059,247.
5.08,5539.,25.,18.,4413.,0.,0.,9995.,1.05241557389,2.18902439369,325.
5.1,5535.,26.,7.,4430.,0.,0.,9998.,1.03038683683,2.06077367366,338.
5.12,5541.,21.,8.,4429.,0.,0.,9999.,1.00645003376,2.49216198837,273.
5.14,5534.,20.,18.,4423.,0.,0.,9995.,0.977071579317,2.54038610622,260.
5.16,5518.,45.,13.,4422.,0.,0.,9998.,0.942415380061,1.08901332807,585.
5.18,5508.,33.,23.,4432.,0.,0.,9996.,0.906788612007,1.42887902498,429.
5.2,5495.,40.,23.,4438.,0.,0.,9996.,0.868545605988,1.12910928778,520.
5.22,5476.,43.,25.,4450.,0.,0.,9994.,0.828228553857,1.00157871629,559.
5.24,5466.,48.,26.,4457.,0.,0.,9997.,0.788151770594,0.85383108481,624.
5.26,5456.,43.,23.,4475.,0.,0.,9997.,0.748159749782,0.904751325317,559.
5.28,5454.,32.,20.,4490.,0.,0.,9996.,0.70972438641,1.15330212792,416.
5.3,5459.,26.,17.,4501.,0.,0.,10003.,0.672540815272,1.34508163054,338.
5.32,5466.,26.,7.,4506.,0.,0.,10005.,0.637388629512,1.27477725902,338.
5.34,5472.,20.,16.,4497.,0.,0.,10005.,0.604234598607,1.57100995638,260.
5.36,5477.,18.,9.,4501.,0.,0.,10005.,0.573504017418,1.65678938365,234.
5.38,5492.,13.,6.,4499.,0.,0.,10010.,0.546536935234,2.18614774094,169.
5.4,5500.,14.,4.,4497.,0.,0.,10015.,0.522333391813,1.9400954553,182.
5.42,5501.,10.,9.,4496.,0.,0.,10016.,0.501589162692,2.608263646,130.
5.44,5504.,10.,8.,4491.,0.,0.,10013.,0.485481289983,2.52450270791,130.
5.46,5518.,7.,9.,4480.,0.,0.,10014.,0.474640003733,3.52589717059,91.
5.48,5526.,7.,7.,4474.,0.,0.,10014.,0.468024310444,3.47675202044,91.
5.5,5534.,6.,3.,4471.,0.,0.,10014.,0.466250851915,4.0408407166,78.
5.52,5541.,4.,5.,4466.,0.,0.,10016.,0.469201025727,6.09961333445,52.
5.54,5550.,2.,0.,4465.,0.,0.,10017.,0.477249562577,12.408488627,26.
5.56,5560.,1.,1.,4457.,0.,0.,10019.,0.490127085404,25.486608441,13.
5.58,5568.,2.,1.,4448.,0.,0.,10019.,0.507546299261,13.1962037808,26.
5.6,5584.,2.,1.,4432.,0.,0.,10019.,0.530099125184,13.7825772548,26.
5.62,5592.,0.,2.,4429.,0.,0.,10023.,0.555766670447,inf,0.
5.64,5599.,0.,2.,4420.,0.,0.,10021.,0.585342720769,inf,0.
5.66,5604.,1.,1.,4413.,0.,0.,10019.,0.61794574153,32.1331785595,13.
5.68,5611.,1.,1.,4405.,0.,0.,10018.,0.653447978416,33.9792948777,13.
5.7,5624.,1.,0.,4394.,0.,0.,10019.,0.691762086539,35.9716285,13.
5.72,5635.,1.,0.,4384.,0.,0.,10020.,0.731521408714,38.0391132531,13.
5.74,5644.,2.,0.,4376.,0.,0.,10022.,0.772008846608,20.0722300118,26.
5.76,5655.,1.,1.,4364.,0.,0.,10021.,0.813451131189,42.2994588218,13.
5.78,5663.,3.,1.,4357.,0.,0.,10024.,0.85394835913,14.8017715583,39.
5.8,5674.,2.,1.,4346.,0.,0.,10023.,0.89442263091,23.2549884037,26.
5.82,5678.,2.,2.,4338.,0.,0.,10020.,0.932536930619,24.2459601961,26.
5.84,5678.,4.,3.,4329.,0.,0.,10014.,0.968192251233,12.586499266,52.
5.86,5686.,6.,4.,4317.,0.,0.,10013.,1.00210369553,8.68489869464,78.
5.88,5695.,7.,5.,4308.,0.,0.,10015.,1.03276951906,7.67200214162,91.
5.9,5699.,6.,3.,4308.,0.,0.,10016.,1.05901021747,9.17808855142,78.
5.92,5698.,8.,5.,4304.,0.,0.,10015.,1.08046372544,7.02301421533,104.
5.94,5697.,9.,5.,4303.,0.,0.,10014.,1.0974917455,6.34106341844,117.
5.96,5691.,14.,4.,4307.,0.,0.,10016.,1.10851913113,4.11735677277,182.
5.98,5701.,12.,5.,4300.,0.,0.,10018.,1.11777740184,4.84370207463,156.
6.,5704.,10.,10.,4293.,0.,0.,10017.,1.12100280414,5.82921458153,130.
6.02,5694.,18.,11.,4295.,0.,0.,10018.,1.11640493353,3.22516980798,234.
6.04,5696.,20.,10.,4293.,0.,0.,10019.,1.1091608374,2.88381817724,260.
6.06,5693.,20.,12.,4292.,0.,0.,10017.,1.09639271232,2.85062105202,260.
6.08,5691.,24.,7.,4298.,0.,0.,10020.,1.07859788322,2.3369620803,312.
6.1,5680.,27.,13.,4302.,0.,0.,10022.,1.05484766644,2.03155846869,351.
6.12,5671.,40.,12.,4302.,0.,0.,10025.,1.02739134543,1.33560874906,520.
6.14,5669.,30.,21.,4305.,0.,0.,10025.,0.99791166712,1.72971355634,390.
6.16,5654.,40.,13.,4320.,0.,0.,10027.,0.962849902139,1.25170487278,520.
6.18,5651.,34.,22.,4322.,0.,0.,10029.,0.927269658273,1.41817712442,442.
6.2,5643.,31.,22.,4331.,0.,0.,10027.,0.889181080682,1.49152955469,403.
6.22,5635.,25.,21.,4345.,0.,0.,10026.,0.84955661304,1.76707775512,325.
6.24,5626.,26.,17.,4358.,0.,0.,10027.,0.808795326677,1.61759065335,338.
6.26,5629.,25.,13.,4363.,0.,0.,10030.,0.76934296344,1.60023336395,325.
6.28,5626.,26.,12.,4366.,0.,0.,10030.,0.729624882994,1.45924976599,338.
6.3,5625.,19.,18.,4369.,0.,0.,10031.,0.691057392085,1.89131496781,247.
6.32,5615.,28.,14.,4374.,0.,0.,10031.,0.653066351115,1.21283750921,364.
6.34,5620.,17.,11.,4381.,0.,0.,10029.,0.6190921225,1.89369355118,221.
6.36,5620.,17.,7.,4383.,0.,0.,10027.,0.587186574372,1.79610010984,221.
6.38,5622.,19.,8.,4378.,0.,0.,10027.,0.55852535382,1.52859570519,247.
6.4,5625.,15.,11.,4376.,0.,0.,10027.,0.533565285899,1.84969299112,195.
6.42,5629.,13.,2.,4381.,0.,0.,10025.,0.512799606043,2.05119842417,169.
6.44,5638.,9.,4.,4369.,0.,0.,10020.,0.496953367881,2.87128612554,117.
6.46,5641.,4.,4.,4369.,0.,0.,10018.,0.485026315268,6.30534209849,52.
6.48,5641.,5.,4.,4361.,0.,0.,10011.,0.477907401823,4.97023697896,65.
6.5,5646.,6.,3.,4355.,0.,0.,10010.,0.475877166409,4.12426877555,78.
6.52,5657.,5.,6.,4344.,0.,0.,10012.,0.47921505831,4.98383660643,65.
6.54,5663.,3.,3.,4345.,0.,0.,10014.,0.487112421374,8.44328197048,39.
6.56,5657.,1.,5.,4346.,0.,0.,10009.,0.499176093149,25.9571568438,13.
6.58,5668.,1.,2.,4338.,0.,0.,10009.,0.517177911255,26.8932513853,13.
6.6,5676.,2.,1.,4333.,0.,0.,10012.,0.539209580944,14.0194491045,26.
6.62,5686.,1.,1.,4324.,0.,0.,10012.,0.565729831913,29.4179512595,13.
6.64,5698.,0.,2.,4315.,0.,0.,10015.,0.596049472294,inf,0.
6.66,5712.,0.,0.,4301.,0.,0.,10013.,0.63023218231,inf,0.
6.68,5718.,0.,1.,4294.,0.,0.,10013.,0.666241547467,inf,0.
6.7,5722.,3.,1.,4288.,0.,0.,10014.,0.704167678448,12.2055730931,39.
6.72,5734.,3.,2.,4275.,0.,0.,10014.,0.744819337237,12.9102018454,39.
6.74,5739.,1.,0.,4272.,0.,0.,10012.,0.785787388227,40.8609441878,13.
6.76,5751.,0.,0.,4262.,0.,0.,10013.,0.827921330232,inf,0.
6.78,5757.,1.,2.,4255.,0.,0.,10015.,0.868903167798,45.1829647255,13.
6.8,5768.,1.,1.,4248.,0.,0.,10018.,0.909694151422,47.304095874,13.
6.82,5777.,3.,1.,4236.,0.,0.,10017.,0.949080536298,16.4507292958,39.
6.84,5785.,2.,3.,4226.,0.,0.,10016.,0.986240536175,25.6422539405,26.
6.86,5791.,5.,4.,4213.,0.,0.,10013.,1.02060895196,10.6143331004,65.
6.88,5792.,7.,4.,4211.,0.,0.,10014.,1.0504650392,7.80345457692,91.
6.9,5796.,8.,3.,4204.,0.,0.,10011.,1.07757305841,7.00422487965,104.
6.92,5805.,9.,3.,4199.,0.,0.,10016.,1.10064333431,6.35927259823,117.
6.94,5804.,8.,6.,4196.,0.,0.,10014.,1.11810463242,7.26768011071,104.
6.96,5804.,7.,8.,4192.,0.,0.,10011.,1.13109443417,8.4024157967,91.
6.98,5799.,11.,6.,4196.,0.,0.,10012.,1.13767333565,5.37809213214,143.
7.,5798.,19.,9.,4184.,0.,0.,10010.,1.14027338977,3.12074822463,247.
7.02,5790.,25.,11.,4187.,0.,0.,10013.,1.13579423275,2.36245200413,325.
7.04,5789.,27.,16.,4184.,0.,0.,10016.,1.12760802146,2.17168952281,351.
7.06,5769.,34.,11.,4203.,0.,0.,10017.,1.11102925652,1.69922121585,442.
7.08,5759.,36.,10.,4212.,0.,0.,10017.,1.09181260595,1.57706265303,468.
7.1,5755.,33.,17.,4211.,0.,0.,10016.,1.06941635402,1.68514092148,429.
7.12,5748.,32.,13.,4219.,0.,0.,10012.,1.04269323421,1.69437650559,416.
7.14,5740.,26.,18.,4228.,0.,0.,10012.,1.01172172537,2.02344345075,338.
7.16,5728.,38.,15.,4236.,0.,0.,10017.,0.976425554254,1.33616128477,494.
7.18,5714.,35.,20.,4248.,0.,0.,10017.,0.938730514871,1.39468533638,455.
7.2,5717.,28.,22.,4247.,0.,0.,10014.,0.902010895273,1.67516309122,364.
7.22,5704.,34.,19.,4257.,0.,0.,10014.,0.860989855582,1.31680801442,442.
7.24,5698.,31.,20.,4272.,0.,0.,10021.,0.819636524405,1.37487416997,403.
7.26,5678.,41.,21.,4278.,0.,0.,10018.,0.776969607921,0.985424868583,533.
7.28,5681.,27.,13.,4297.,0.,0.,10018.,0.737640245633,1.42064047307,351.
7.3,5685.,24.,16.,4298.,0.,0.,10023.,0.69898613171,1.51446995204,312.
7.32,5682.,25.,12.,4305.,0.,0.,10024.,0.661320444177,1.37554652389,325.
7.34,5694.,25.,10.,4296.,0.,0.,10025.,0.627494141176,1.30518781365,325.
7.36,5699.,20.,10.,4295.,0.,0.,10024.,0.59561882502,1.54860894505,260.
7.38,5708.,15.,12.,4291.,0.,0.,10026.,0.567125702442,1.96603576847,195.
7.4,5706.,20.,7.,4293.,0.,0.,10026.,0.541302610519,1.40738678735,260.
7.42,5713.,17.,8.,4288.,0.,0.,10026.,0.520400061581,1.59181195307,221.
7.44,5718.,9.,11.,4290.,0.,0.,10028.,0.503602774286,2.9097049181,117.
7.46,5725.,8.,3.,4293.,0.,0.,10029.,0.491708922885,3.19610799875,104.
7.48,5735.,6.,3.,4284.,0.,0.,10028.,0.485047438577,4.20374446767,78.
7.5,5741.,7.,1.,4281.,0.,0.,10030.,0.482919435665,3.58740152209,91.
7.52,5755.,4.,3.,4269.,0.,0.,10031.,0.486593402377,6.3257142309,52.
7.54,5756.,3.,1.,4269.,0.,0.,10029.,0.49437145155,8.5691051602,39.
7.56,5767.,0.,3.,4257.,0.,0.,10027.,0.50796901801,inf,0.
7.58,5776.,1.,0.,4251.,0.,0.,10028.,0.52603382953,27.3537591355,13.
7.6,5778.,0.,2.,4250.,0.,0.,10030.,0.547914329992,inf,0.
7.62,5789.,2.,1.,4239.,0.,0.,10031.,0.574886863902,14.9470584615,26.
7.64,5792.,2.,1.,4231.,0.,0.,10026.,0.605217767841,15.7356619639,26.
7.66,5807.,2.,0.,4223.,0.,0.,10032.,0.639500511606,16.6270133017,26.
7.68,5816.,1.,1.,4214.,0.,0.,10032.,0.676376720615,35.171589472,13.
7.7,5827.,0.,2.,4204.,0.,0.,10033.,0.715731326992,inf,0.
7.72,5836.,1.,0.,4197.,0.,0.,10034.,0.756557652365,39.340997923,13.
7.74,5844.,0.,2.,4189.,0.,0.,10035.,0.798330093947,inf,0.
7.76,5855.,2.,2.,4177.,0.,0.,10036.,0.840961603038,21.865001679,26.
7.78,5866.,1.,1.,4169.,0.,0.,10037.,0.883413922123,45.9375239504,13.
7.8,5872.,1.,2.,4163.,0.,0.,10038.,0.924251222687,48.0610635797,13.
7.82,5880.,3.,1.,4152.,0.,0.,10036.,0.964173179854,16.7123351175,39.
7.84,5884.,5.,0.,4144.,0.,0.,10033.,1.00141859913,10.414753431,65.
7.86,5888.,5.,2.,4138.,0.,0.,10033.,1.03563570184,10.7706112991,65.
7.88,5893.,8.,4.,4128.,0.,0.,10033.,1.06675887779,6.93393270567,104.
7.9,5894.,9.,2.,4129.,0.,0.,10034.,1.09328110914,6.31673529725,117.
7.92,5899.,6.,4.,4122.,0.,0.,10031.,1.11679346844,9.67887672645,78.
7.94,5898.,11.,6.,4117.,0.,0.,10032.,1.13417448994,5.36155213425,143.
7.96,5901.,10.,2.,4114.,0.,0.,10027.,1.14816293443,5.97044725902,130.
7.98,5907.,12.,4.,4103.,0.,0.,10026.,1.15724305241,5.01471989378,156.
8.,5905.,13.,7.,4097.,0.,0.,10022.,1.15992620322,4.63970481288,169.
8.02,5901.,17.,6.,4096.,0.,0.,10020.,1.15675984573,3.53832423399,221.
8.04,5901.,17.,8.,4098.,0.,0.,10024.,1.14850655861,3.51307888516,221.
8.06,5907.,15.,14.,4090.,0.,0.,10026.,1.13658494898,3.94016115645,195.
8.08,5894.,30.,7.,4094.,0.,0.,10025.,1.11651471138,1.93529216639,390.
8.1,5893.,24.,11.,4098.,0.,0.,10026.,1.09396782738,2.37026362598,312.
8.12,5877.,30.,15.,4102.,0.,0.,10024.,1.06481771987,1.84568404777,390.
8.14,5865.,32.,21.,4106.,0.,0.,10024.,1.0325164582,1.67783924458,416.
8.16,5860.,34.,16.,4116.,0.,0.,10026.,0.998030278278,1.52639924913,442.
8.18,5839.,44.,21.,4121.,0.,0.,10025.,0.958500772402,1.13277364011,572.
8.2,5830.,32.,30.,4133.,0.,0.,10025.,0.918830391639,1.49309938641,416.
8.22,5809.,39.,19.,4156.,0.,0.,10023.,0.876051728496,1.16806897133,507.
8.24,5795.,32.,30.,4169.,0.,0.,10026.,0.833173906778,1.35390759851,416.
8.26,5772.,40.,26.,4187.,0.,0.,10025.,0.78928093299,1.02606521289,520.
8.28,5757.,38.,19.,4212.,0.,0.,10026.,0.746911886676,1.02208995019,494.
8.3,5760.,31.,16.,4218.,0.,0.,10025.,0.708066296339,1.18772410999,403.
8.32,5754.,25.,13.,4232.,0.,0.,10024.,0.669700428686,1.39297689167,325.
8.34,5750.,29.,11.,4237.,0.,0.,10027.,0.633539100215,1.13600114521,377.
8.36,5751.,25.,9.,4237.,0.,0.,10022.,0.601173440883,1.25044075704,325.
8.38,5760.,21.,4.,4238.,0.,0.,10023.,0.572463523207,1.41752872413,273.
8.4,5765.,17.,9.,4230.,0.,0.,10021.,0.547172552513,1.67370427828,221.
8.42,5775.,11.,3.,4232.,0.,0.,10021.,0.526310145605,2.48801159741,143.
8.44,5779.,9.,8.,4225.,0.,0.,10021.,0.509330777841,2.94280004975,117.
8.46,5783.,6.,7.,4226.,0.,0.,10022.,0.497037348205,4.30765701778,78.
8.48,5793.,5.,6.,4222.,0.,0.,10026.,0.490050624288,5.0965264926,65.
8.5,5809.,5.,5.,4208.,0.,0.,10027.,0.488785633047,5.08337058369,65.
8.52,5814.,2.,1.,4208.,0.,0.,10025.,0.491876149583,12.7887798891,26.
8.54,5823.,1.,1.,4199.,0.,0.,10024.,0.500375413248,26.0195214889,13.
8.56,5831.,1.,0.,4189.,0.,0.,10021.,0.513913785359,26.7235168387,13.
8.58,5843.,0.,1.,4180.,0.,0.,10024.,0.53234802088,inf,0.
8.6,5850.,0.,0.,4173.,0.,0.,10023.,0.55512935115,inf,0.
8.62,5862.,0.,0.,4163.,0.,0.,10025.,0.582484668492,inf,0.
8.64,5875.,0.,0.,4154.,0.,0.,10029.,0.613706970687,inf,0.
8.66,5886.,0.,1.,4145.,0.,0.,10032.,0.648200449683,inf,0.
8.68,5902.,0.,0.,4132.,0.,0.,10034.,0.686241354081,inf,0.
8.7,5911.,0.,0.,4123.,0.,0.,10034.,0.725976701326,inf,0.
8.72,5920.,0.,0.,4108.,0.,0.,10028.,0.767906287075,inf,0.
8.74,5928.,0.,0.,4103.,0.,0.,10031.,0.810127985468,inf,0.
8.76,5937.,4.,0.,4091.,0.,0.,10032.,0.853079382146,11.0900319679,52.
8.78,5946.,3.,2.,4082.,0.,0.,10033.,0.895818851305,15.5275267559,39.
8.8,5955.,0.,3.,4077.,0.,0.,10035.,0.937595614263,inf,0.
8.82,5958.,2.,1.,4075.,0.,0.,10036.,0.97696323224,25.4010440382,26.
8.84,5961.,6.,2.,4066.,0.,0.,10035.,1.01432130221,8.79078461919,78.
8.86,5973.,4.,5.,4054.,0.,0.,10036.,1.05027223985,13.653539118,52.
8.88,5971.,11.,3.,4047.,0.,0.,10032.,1.080986287,5.11011699307,143.
8.9,5980.,12.,2.,4038.,0.,0.,10032.,1.10945443264,4.80763587479,156.
8.92,5981.,12.,10.,4026.,0.,0.,10029.,1.13254344467,4.90768826026,156.
8.94,5987.,11.,10.,4019.,0.,0.,10027.,1.15186311976,5.44517111161,143.
8.96,5980.,16.,5.,4023.,0.,0.,10024.,1.16388226072,3.78261734733,208.
8.98,5968.,23.,8.,4023.,0.,0.,10022.,1.16966024092,2.64444924033,299.
9.,5969.,20.,10.,4026.,0.,0.,10025.,1.1721469275,3.04758201151,260.
9.02,5964.,26.,15.,4020.,0.,0.,10025.,1.16852649792,2.33705299583,338.
9.04,5954.,30.,14.,4030.,0.,0.,10028.,1.15835966856,2.0078234255,390.
9.06,5961.,30.,12.,4026.,0.,0.,10029.,1.1466321658,1.98749575405,390.
9.08,5952.,33.,18.,4029.,0.,0.,10032.,1.12671505831,1.77542978885,429.
9.1,5939.,33.,19.,4041.,0.,0.,10032.,1.10184780526,1.73624502648,429.
9.12,5923.,39.,12.,4057.,0.,0.,10031.,1.07240329381,1.42987105842,507.
9.14,5901.,43.,17.,4070.,0.,0.,10031.,1.03812920457,1.25541206134,559.
9.16,5900.,33.,13.,4086.,0.,0.,10032.,1.00424178913,1.58244160711,429.
9.18,5899.,28.,22.,4079.,0.,0.,10028.,0.968060375723,1.79782641206,364.
9.2,5885.,33.,15.,4095.,0.,0.,10028.,0.927221130223,1.46107572035,429.
9.22,5886.,28.,15.,4100.,0.,0.,10029.,0.887132992925,1.64753270115,364.
9.24,5875.,25.,20.,4108.,0.,0.,10028.,0.844507412678,1.75657541837,325.
9.26,5867.,29.,14.,4118.,0.,0.,10028.,0.802031514106,1.43812547357,377.
9.28,5862.,31.,12.,4122.,0.,0.,10027.,0.760458714422,1.27560816613,403.
9.3,5860.,26.,16.,4126.,0.,0.,10028.,0.720143609662,1.44028721932,338.
9.32,5856.,24.,9.,4140.,0.,0.,10029.,0.681232272793,1.47600325772,312.
9.34,5856.,21.,11.,4142.,0.,0.,10030.,0.645025269285,1.5972054287,273.
9.36,5858.,21.,10.,4137.,0.,0.,10026.,0.612114241024,1.51571145396,273.
9.38,5864.,23.,6.,4134.,0.,0.,10027.,0.582567178015,1.31710840247,299.
9.4,5865.,18.,7.,4137.,0.,0.,10027.,0.556330738097,1.60717768784,234.
9.42,5870.,14.,9.,4139.,0.,0.,10032.,0.534381473634,1.9848454735,182.
9.44,5874.,15.,7.,4139.,0.,0.,10035.,0.516981322926,1.79220191948,195.
9.46,5884.,9.,6.,4136.,0.,0.,10035.,0.505062956792,2.91814152813,117.
9.48,5886.,9.,0.,4145.,0.,0.,10040.,0.497223519747,2.87284700298,117.
9.5,5894.,5.,4.,4138.,0.,0.,10041.,0.495246294803,5.15056146595,65.
9.52,5904.,1.,1.,4138.,0.,0.,10044.,0.498545457281,25.9243637786,13.
9.54,5906.,2.,0.,4132.,0.,0.,10040.,0.506698897678,13.1741713396,26.
9.56,5915.,1.,1.,4123.,0.,0.,10040.,0.520330548922,27.0571885439,13.
9.58,5924.,1.,0.,4119.,0.,0.,10044.,0.53865309716,28.0099610523,13.
9.6,5929.,0.,1.,4115.,0.,0.,10045.,0.561393737649,inf,0.
9.62,5936.,1.,1.,4102.,0.,0.,10040.,0.588956535619,30.6257398522,13.
9.64,5938.,1.,1.,4099.,0.,0.,10039.,0.619670120355,32.2228462585,13.
9.66,5946.,1.,0.,4096.,0.,0.,10043.,0.654090792774,34.0127212242,13.
9.68,5952.,2.,2.,4088.,0.,0.,10044.,0.691365964768,17.975515084,26.
9.7,5964.,1.,1.,4082.,0.,0.,10048.,0.731465469193,38.036204398,13.
9.72,5974.,1.,0.,4076.,0.,0.,10051.,0.773137586322,40.2031544887,13.
9.74,5985.,0.,1.,4067.,0.,0.,10053.,0.816127745386,inf,0.
9.76,5992.,1.,0.,4060.,0.,0.,10053.,0.859183726137,44.6775537591,13.
9.78,6006.,2.,1.,4044.,0.,0.,10053.,0.903058219858,23.4795137163,26.
9.8,6009.,4.,1.,4035.,0.,0.,10049.,0.944779662486,12.2821356123,52.
9.82,6014.,5.,3.,4028.,0.,0.,10050.,0.984772098463,10.241629824,65.
9.84,6022.,5.,1.,4026.,0.,0.,10054.,1.02276456206,10.6367514454,65.
9.86,6027.,6.,1.,4020.,0.,0.,10054.,1.05787008257,9.16820738227,78.
9.88,6036.,4.,3.,4012.,0.,0.,10055.,1.09025426219,14.1733054085,52.
9.9,6043.,4.,4.,4004.,0.,0.,10055.,1.11857814171,14.5415158422,52.
9.92,6046.,12.,3.,3993.,0.,0.,10054.,1.14200488466,4.94868783354,156.
9.94,6052.,15.,2.,3987.,0.,0.,10056.,1.16101086711,4.02483767265,195.
9.96,6058.,10.,6.,3983.,0.,0.,10057.,1.17519447716,6.11101128124,130.
9.98,6060.,10.,6.,3981.,0.,0.,10057.,1.18355783733,6.15450075412,130.
10.,6053.,19.,8.,3979.,0.,0.,10059.,1.18462453091,3.24213029512,247.
