t,s,e,i,r,c,o,n,reff,coal,reportr
5.,4425.,2.,35.,5538.,0.,0.,10000.,0.999734651448,25.9931009377,26.
5.02,4417.,19.,9.,5557.,0.,0.,10002.,0.995479852968,2.72447117655,247.
5.04,4417.,19.,5.,5561.,0.,0.,10002.,0.988771833282,2.70611238582,247.
5.06,4420.,23.,7.,5553.,0.,0.,10003.,0.978275652834,2.21175364989,299.
5.08,4421.,19.,17.,5547.,0.,0.,10004.,0.963146045345,2.63597865042,247.
5.1,4419.,27.,14.,5545.,0.,0.,10005.,0.943429239486,1.8169748316,351.
5.12,4424.,20.,13.,5548.,0.,0.,10005.,0.92164840679,2.39628585765,260.
5.14,4411.,28.,14.,5550.,0.,0.,10003.,0.893065737302,1.65855065499,364.
5.16,4413.,28.,19.,5545.,0.,0.,10005.,0.86436515361,1.60524957099,364.
5.18,4416.,27.,14.,5548.,0.,0.,10005.,0.833598566929,1.60544909186,351.
5.2,4410.,34.,17.,5545.,0.,0.,10006.,0.799163947617,1.22225074341,442.
5.22,4407.,35.,12.,5553.,0.,0.,10007.,0.76396219845,1.13502955198,455.
5.24,4410.,26.,15.,5552.,0.,0.,10003.,0.729331305318,1.45866261064,338.
5.26,4416.,23.,16.,5549.,0.,0.,10004.,0.694467084474,1.57009949533,299.
5.28,4415.,25.,5.,5557.,0.,0.,10002.,0.658948257565,1.37061237574,325.
5.3,4427.,26.,9.,5539.,0.,0.,10001.,0.626049293212,1.25209858642,338.
5.32,4433.,15.,18.,5539.,0.,0.,10005.,0.593251752826,2.05660607646,195.
5.34,4434.,20.,6.,5544.,0.,0.,10004.,0.561959754101,1.46109536066,260.
5.36,4436.,17.,10.,5539.,0.,0.,10002.,0.533239261365,1.63108479947,221.
5.38,4437.,18.,4.,5544.,0.,0.,10003.,0.507094430098,1.46493946473,234.
5.4,4443.,11.,12.,5534.,0.,0.,10000.,0.484974587272,2.29260713983,143.
5.42,4446.,10.,9.,5536.,0.,0.,10001.,0.465943718146,2.42290733436,130.
5.44,4460.,7.,7.,5529.,0.,0.,10003.,0.451928252665,3.35718130551,91.
5.46,4468.,5.,7.,5522.,0.,0.,10002.,0.441593994227,4.59257753996,65.
5.48,4479.,2.,5.,5514.,0.,0.,10000.,0.435966175104,11.3351205527,26.
5.5,4487.,3.,1.,5511.,0.,0.,10002.,0.434374082186,7.52915075789,39.
5.52,4509.,3.,2.,5488.,0.,0.,10002.,0.438798483559,7.60584038169,39.
5.54,4522.,1.,1.,5474.,0.,0.,9998.,0.447109882922,23.2497139119,13.
5.56,4537.,0.,1.,5458.,0.,0.,9996.,0.460052541619,inf,0.
5.58,4544.,0.,0.,5450.,0.,0.,9994.,0.476547732526,inf,0.
5.6,4560.,0.,0.,5434.,0.,0.,9994.,0.498044520604,inf,0.
5.62,4577.,0.,0.,5419.,0.,0.,9996.,0.523461017926,inf,0.
5.64,4587.,0.,0.,5403.,0.,0.,9990.,0.552052883718,inf,0.
5.66,4601.,1.,0.,5392.,0.,0.,9994.,0.583708605712,30.352847497,13.
5.68,4617.,1.,0.,5378.,0.,0.,9996.,0.618432092997,32.1584688358,13.
5.7,4632.,0.,1.,5364.,0.,0.,9997.,0.6553016983,inf,0.
5.72,4642.,1.,0.,5352.,0.,0.,9995.,0.693313718962,36.052313386,13.
5.74,4655.,0.,1.,5341.,0.,0.,9997.,0.732565189832,inf,0.
5.76,4672.,0.,0.,5326.,0.,0.,9998.,0.773047600269,inf,0.
5.78,4684.,0.,0.,5312.,0.,0.,9996.,0.812874234512,inf,0.
5.8,4696.,0.,0.,5300.,0.,0.,9996.,0.851843145954,inf,0.
5.82,4699.,3.,1.,5294.,0.,0.,9997.,0.887729680733,15.387314466,39.
5.84,4709.,4.,4.,5277.,0.,0.,9994.,0.923357244826,12.0036441827,52.
5.86,4715.,6.,3.,5271.,0.,0.,9995.,0.955378662549,8.27994840876,78.
5.88,4722.,6.,2.,5267.,0.,0.,9997.,0.984517730715,8.53248699953,78.
5.9,4730.,6.,4.,5257.,0.,0.,9997.,1.01063392404,8.75882734164,78.
5.92,4739.,5.,2.,5253.,0.,0.,9999.,1.03294085313,10.7425848725,65.
5.94,4743.,9.,3.,5243.,0.,0.,9998.,1.05029001498,6.06834230875,117.
5.96,4749.,14.,2.,5234.,0.,0.,9999.,1.06341097586,3.94981219605,182.
5.98,4753.,15.,5.,5228.,0.,0.,10001.,1.07131284705,3.71388453644,195.
6.,4763.,21.,4.,5216.,0.,0.,10004.,1.07566829649,2.66355959131,273.
6.02,4762.,24.,7.,5208.,0.,0.,10001.,1.07334142177,2.32557308049,312.
6.04,4763.,27.,11.,5201.,0.,0.,10002.,1.06622599998,2.05347229626,351.
6.06,4761.,29.,8.,5206.,0.,0.,10004.,1.0536436227,1.88929201312,377.
6.08,4760.,25.,11.,5210.,0.,0.,10006.,1.03679231184,2.15652800862,325.
6.1,4758.,32.,7.,5213.,0.,0.,10010.,1.01529625379,1.64985641241,416.
6.12,4749.,33.,12.,5213.,0.,0.,10007.,0.989157666032,1.55867268587,429.
6.14,4741.,34.,18.,5216.,0.,0.,10009.,0.959303226042,1.46716963983,442.
6.16,4733.,36.,21.,5216.,0.,0.,10006.,0.926950240953,1.33892812582,468.
6.18,4718.,40.,13.,5235.,0.,0.,10006.,0.8905174327,1.15767266251,520.
6.2,4717.,40.,8.,5242.,0.,0.,10007.,0.854711936274,1.11112551716,520.
6.22,4722.,29.,13.,5243.,0.,0.,10007.,0.818568073765,1.46777723572,377.
6.24,4714.,35.,12.,5244.,0.,0.,10005.,0.779451361303,1.15804202251,455.
6.26,4716.,32.,14.,5243.,0.,0.,10005.,0.741571427395,1.20505356952,416.
6.28,4723.,33.,9.,5243.,0.,0.,10008.,0.704495308171,1.11011381894,429.
6.3,4724.,28.,12.,5242.,0.,0.,10006.,0.667716064922,1.24004412057,364.
6.32,4724.,30.,15.,5240.,0.,0.,10009.,0.631942540004,1.09536706934,390.
6.34,4731.,25.,8.,5245.,0.,0.,10009.,0.599301640993,1.24654741327,325.
6.36,4731.,20.,10.,5247.,0.,0.,10008.,0.568359446011,1.47773455963,260.
6.38,4737.,20.,2.,5251.,0.,0.,10010.,0.541002145763,1.40660557898,260.
6.4,4745.,18.,3.,5246.,0.,0.,10012.,0.517318541766,1.49447578733,234.
6.42,4759.,13.,6.,5236.,0.,0.,10014.,0.498098859813,1.99239543925,169.
6.44,4776.,6.,8.,5227.,0.,0.,10017.,0.483271903577,4.18835649767,78.
6.46,4787.,7.,4.,5219.,0.,0.,10017.,0.472413824085,3.50935983606,91.
6.48,4803.,4.,4.,5205.,0.,0.,10016.,0.466756101384,6.06782931799,52.
6.5,4809.,4.,4.,5199.,0.,0.,10016.,0.464895289939,6.04363876921,52.
6.52,4821.,3.,0.,5196.,0.,0.,10020.,0.468318315407,8.11751746705,39.
6.54,4828.,1.,0.,5193.,0.,0.,10022.,0.476222276812,24.7635583942,13.
6.56,4838.,1.,0.,5184.,0.,0.,10023.,0.489252480519,25.441128987,13.
6.58,4850.,0.,1.,5172.,0.,0.,10023.,0.50716752632,inf,0.
6.6,4858.,2.,0.,5157.,0.,0.,10017.,0.529373876017,13.7637207764,26.
6.62,4876.,2.,0.,5141.,0.,0.,10019.,0.556376785143,14.4657964137,26.
6.64,4884.,2.,0.,5131.,0.,0.,10017.,0.586212955698,15.2415368481,26.
6.66,4895.,0.,2.,5123.,0.,0.,10020.,0.619395695196,inf,0.
6.68,4901.,1.,0.,5114.,0.,0.,10016.,0.655162118237,34.0684301483,13.
6.7,4920.,1.,0.,5097.,0.,0.,10018.,0.694586775396,36.1185123206,13.
6.72,4934.,1.,0.,5082.,0.,0.,10017.,0.735307384687,38.2359840037,13.
6.74,4941.,1.,0.,5072.,0.,0.,10014.,0.776253464608,40.3651801596,13.
6.76,4961.,1.,0.,5056.,0.,0.,10018.,0.819227899862,42.5998507928,13.
6.78,4974.,1.,0.,5044.,0.,0.,10019.,0.861220032895,44.7834417106,13.
6.8,4988.,2.,0.,5029.,0.,0.,10019.,0.902734126832,23.4710872976,26.
6.82,5000.,1.,1.,5018.,0.,0.,10020.,0.942426024551,49.0061532766,13.
6.84,5005.,3.,3.,5007.,0.,0.,10018.,0.979046840458,16.9701452346,39.
6.86,5012.,5.,2.,4999.,0.,0.,10018.,1.01322681269,10.5375588519,65.
6.88,5018.,8.,0.,4994.,0.,0.,10020.,1.04383099107,6.78490144199,104.
6.9,5029.,6.,2.,4986.,0.,0.,10023.,1.07173232233,9.28834679356,78.
6.92,5031.,6.,5.,4978.,0.,0.,10020.,1.09428868778,9.48383529405,78.
6.94,5036.,9.,5.,4968.,0.,0.,10018.,1.11294560437,6.43035238078,117.
6.96,5040.,11.,4.,4961.,0.,0.,10016.,1.1266571,5.32601538181,143.
6.98,5035.,15.,4.,4962.,0.,0.,10016.,1.13317526187,3.92834090783,195.
7.,5034.,16.,10.,4956.,0.,0.,10016.,1.13550843744,3.69040242167,208.
7.02,5034.,24.,8.,4953.,0.,0.,10019.,1.13261096174,2.45399041709,312.
7.04,5031.,22.,8.,4959.,0.,0.,10020.,1.12419625215,2.65719114146,286.
7.06,5037.,18.,12.,4954.,0.,0.,10021.,1.11283335215,3.2148519062,234.
7.08,5037.,25.,12.,4950.,0.,0.,10024.,1.09515655461,2.2779256336,325.
7.1,5035.,26.,13.,4949.,0.,0.,10023.,1.07301098488,2.14602196976,338.
7.12,5027.,25.,13.,4956.,0.,0.,10021.,1.04559879592,2.17484549551,325.
7.14,5028.,30.,10.,4955.,0.,0.,10023.,1.0159543111,1.76098747257,390.
7.16,5027.,26.,13.,4960.,0.,0.,10026.,0.982565702844,1.96513140569,338.
7.18,5028.,35.,13.,4955.,0.,0.,10031.,0.946664357999,1.40647276046,455.
7.2,5023.,34.,21.,4952.,0.,0.,10030.,0.908071483777,1.38881521048,442.
7.22,5007.,40.,25.,4959.,0.,0.,10031.,0.865896691156,1.1256656985,520.
7.24,4987.,45.,22.,4972.,0.,0.,10026.,0.822864265424,0.950865373378,585.
7.26,4976.,45.,28.,4975.,0.,0.,10024.,0.78097224262,0.902456813694,585.
7.28,4974.,39.,26.,4986.,0.,0.,10025.,0.74067699491,0.987569326546,507.
7.3,4971.,36.,14.,5007.,0.,0.,10028.,0.701086933019,1.01268112547,468.
7.32,4976.,25.,16.,5013.,0.,0.,10030.,0.664259585876,1.38165993862,325.
7.34,4975.,27.,9.,5019.,0.,0.,10030.,0.628890971777,1.21119742713,351.
7.36,4977.,16.,16.,5020.,0.,0.,10029.,0.59666070968,1.93914730646,208.
7.38,4981.,12.,13.,5022.,0.,0.,10028.,0.567847733699,2.4606735127,156.
7.4,4988.,12.,8.,5020.,0.,0.,10028.,0.542943687747,2.35275598024,156.
7.42,4997.,6.,9.,5017.,0.,0.,10029.,0.522226790991,4.52596552192,78.
7.44,5005.,8.,2.,5017.,0.,0.,10032.,0.505686617814,3.28696301579,104.
7.46,5013.,6.,1.,5008.,0.,0.,10028.,0.494174376919,4.28284459997,78.
7.48,5020.,6.,3.,5002.,0.,0.,10031.,0.487114681932,4.22166057675,78.
7.5,5026.,4.,3.,4996.,0.,0.,10029.,0.4852432892,6.3081627596,52.
7.52,5033.,4.,3.,4991.,0.,0.,10031.,0.488376134296,6.34888974584,52.
7.54,5045.,3.,0.,4986.,0.,0.,10034.,0.497031504973,8.61521275286,39.
7.56,5054.,2.,1.,4980.,0.,0.,10037.,0.510383018389,13.2699584781,26.
7.58,5064.,1.,1.,4966.,0.,0.,10032.,0.529070569004,27.5116695882,13.
7.6,5077.,1.,0.,4957.,0.,0.,10035.,0.552245843033,28.7167838377,13.
7.62,5089.,0.,1.,4945.,0.,0.,10035.,0.579755335891,inf,0.
7.64,5094.,0.,1.,4939.,0.,0.,10034.,0.610382782748,inf,0.
7.66,5106.,0.,0.,4929.,0.,0.,10035.,0.64512911419,inf,0.
7.68,5114.,0.,0.,4919.,0.,0.,10033.,0.682477445158,inf,0.
7.7,5125.,1.,0.,4908.,0.,0.,10034.,0.722374169066,37.5634567914,13.
7.72,5139.,1.,0.,4894.,0.,0.,10034.,0.764560711621,39.7571570043,13.
7.74,5152.,0.,1.,4883.,0.,0.,10036.,0.807628221594,inf,0.
7.76,5171.,0.,0.,4865.,0.,0.,10036.,0.852374443263,inf,0.
7.78,5180.,1.,0.,4858.,0.,0.,10039.,0.895100963492,46.5452501016,13.
7.8,5187.,0.,1.,4848.,0.,0.,10036.,0.93715923228,inf,0.
7.82,5204.,2.,1.,4830.,0.,0.,10037.,0.979215662414,25.4596072228,26.
7.84,5204.,4.,2.,4823.,0.,0.,10033.,1.016452039,13.213876507,52.
7.86,5217.,6.,0.,4811.,0.,0.,10034.,1.05298789572,9.12589509624,78.
7.88,5227.,5.,2.,4799.,0.,0.,10033.,1.08589776486,11.2933367546,65.
7.9,5231.,8.,2.,4790.,0.,0.,10031.,1.11389155959,7.24029513735,104.
7.92,5240.,9.,1.,4784.,0.,0.,10034.,1.138157866,6.57602322576,117.
7.94,5248.,10.,1.,4775.,0.,0.,10034.,1.15794777919,6.02132845181,130.
7.96,5260.,11.,3.,4761.,0.,0.,10035.,1.17361027913,5.54797586498,143.
7.98,5265.,8.,6.,4753.,0.,0.,10032.,1.18304912308,7.68981930001,104.
8.,5264.,15.,0.,4753.,0.,0.,10032.,1.18549527506,4.10971695353,195.
8.02,5257.,19.,3.,4753.,0.,0.,10032.,1.18125151757,3.2328988902,247.
8.04,5262.,18.,7.,4744.,0.,0.,10031.,1.17452469006,3.39307132683,234.
8.06,5261.,17.,11.,4743.,0.,0.,10032.,1.16104759386,3.55143969886,221.
8.08,5253.,24.,15.,4738.,0.,0.,10030.,1.14143656763,2.47311256319,312.
8.1,5241.,34.,9.,4745.,0.,0.,10029.,1.11624352299,1.70719597634,442.
8.12,5234.,31.,17.,4748.,0.,0.,10030.,1.08767722939,1.8244908364,403.
8.14,5231.,35.,15.,4753.,0.,0.,10034.,1.05581362517,1.56863738597,455.
8.16,5233.,34.,18.,4751.,0.,0.,10036.,1.02181082169,1.56276949199,442.
8.18,5223.,35.,21.,4758.,0.,0.,10037.,0.982790815678,1.46014635472,455.
8.2,5220.,36.,18.,4761.,0.,0.,10035.,0.943215477811,1.36242235684,468.
8.22,5216.,31.,11.,4773.,0.,0.,10031.,0.902040571414,1.51310031334,403.
8.24,5199.,30.,16.,4782.,0.,0.,10027.,0.85775910583,1.48678245011,390.
8.26,5181.,35.,14.,4789.,0.,0.,10019.,0.813552343447,1.20870633884,455.
8.28,5173.,34.,10.,4801.,0.,0.,10018.,0.77084827927,1.17894442712,442.
8.3,5180.,23.,9.,4807.,0.,0.,10019.,0.731219590024,1.65319211658,299.
8.32,5181.,27.,8.,4799.,0.,0.,10015.,0.692661470248,1.33401468344,351.
8.34,5183.,23.,13.,4797.,0.,0.,10016.,0.656100095614,1.48335673791,299.
8.36,5182.,21.,12.,4801.,0.,0.,10016.,0.622043166813,1.54029736544,273.
8.38,5192.,12.,8.,4808.,0.,0.,10020.,0.592374892171,2.56695786607,156.
8.4,5192.,12.,6.,4808.,0.,0.,10018.,0.565713216799,2.45142393946,156.
8.42,5203.,7.,8.,4798.,0.,0.,10016.,0.544461204859,4.04456895038,91.
8.44,5210.,11.,4.,4792.,0.,0.,10017.,0.527187315251,2.49215821755,143.
8.46,5212.,11.,3.,4789.,0.,0.,10015.,0.514458441141,2.43198535812,143.
8.48,5224.,6.,5.,4782.,0.,0.,10017.,0.507618249855,4.39935816541,78.
8.5,5227.,3.,6.,4780.,0.,0.,10016.,0.505304154817,8.75860535016,39.
8.52,5232.,6.,1.,4775.,0.,0.,10014.,0.508547918635,4.40741529483,78.
8.54,5238.,3.,1.,4770.,0.,0.,10012.,0.517179732493,8.96444869654,39.
8.56,5247.,1.,1.,4764.,0.,0.,10013.,0.531143352654,27.619454338,13.
8.58,5255.,2.,1.,4754.,0.,0.,10012.,0.55012237503,14.3031817508,26.
8.6,5260.,2.,1.,4748.,0.,0.,10011.,0.573523148631,14.9116018644,26.
8.62,5265.,1.,1.,4742.,0.,0.,10009.,0.60136391787,31.2709237292,13.
8.64,5275.,2.,1.,4732.,0.,0.,10010.,0.633586357538,16.473245296,26.
8.66,5287.,2.,0.,4720.,0.,0.,10009.,0.669733201422,17.413063237,26.
8.68,5295.,0.,3.,4709.,0.,0.,10007.,0.708468354855,inf,0.
8.7,5304.,2.,0.,4700.,0.,0.,10006.,0.749696445458,19.4921075819,26.
8.72,5315.,1.,2.,4685.,0.,0.,10003.,0.793195891959,41.2461863819,13.
8.74,5331.,1.,0.,4675.,0.,0.,10007.,0.838110086739,43.5817245104,13.
8.76,5345.,1.,0.,4659.,0.,0.,10005.,0.883786068342,45.9568755538,13.
8.78,5347.,2.,1.,4652.,0.,0.,10002.,0.927376428327,24.1117871365,26.
8.8,5352.,4.,1.,4642.,0.,0.,9999.,0.970548692719,12.6171330053,52.
8.82,5364.,2.,5.,4626.,0.,0.,9997.,1.01336071663,26.3473786324,26.
8.84,5372.,5.,2.,4619.,0.,0.,9998.,1.0529391829,10.9505675021,65.
8.86,5374.,5.,4.,4615.,0.,0.,9998.,1.08858204941,11.3212533138,65.
8.88,5383.,6.,1.,4607.,0.,0.,9997.,1.12233353334,9.72689062229,78.
8.9,5387.,9.,2.,4598.,0.,0.,9996.,1.1511267643,6.65095463817,117.
8.92,5390.,12.,3.,4589.,0.,0.,9994.,1.17542448728,5.09350611156,156.
8.94,5401.,12.,2.,4581.,0.,0.,9996.,1.19623684338,5.18369298798,156.
8.96,5414.,10.,4.,4570.,0.,0.,9998.,1.21244111796,6.30469381337,130.
8.98,5408.,14.,9.,4566.,0.,0.,9997.,1.21943573243,4.52933272046,182.
9.,5407.,16.,1.,4571.,0.,0.,9995.,1.2222077729,3.97217526192,208.
9.02,5412.,12.,5.,4565.,0.,0.,9994.,1.22070400304,5.28971734649,156.
9.04,5412.,18.,1.,4562.,0.,0.,9993.,1.212599648,3.50306564977,234.
9.06,5418.,20.,3.,4551.,0.,0.,9992.,1.20048246206,3.12125440135,260.
9.08,5427.,15.,12.,4538.,0.,0.,9992.,1.18373015208,4.10359786053,195.
9.1,5421.,23.,8.,4541.,0.,0.,9993.,1.15873985114,2.61975966345,299.
9.12,5408.,31.,15.,4540.,0.,0.,9994.,1.12788439818,1.89193511953,403.
9.14,5402.,28.,19.,4545.,0.,0.,9994.,1.09469182195,2.03299909791,364.
9.16,5393.,33.,11.,4555.,0.,0.,9992.,1.05769003012,1.66666307777,429.
9.18,5382.,41.,19.,4547.,0.,0.,9989.,1.01757556069,1.29058363795,533.
9.2,5375.,40.,20.,4553.,0.,0.,9988.,0.975793065551,1.26853098522,520.
9.22,5371.,34.,11.,4575.,0.,0.,9991.,0.932564571684,1.42627522728,442.
9.24,5371.,32.,12.,4575.,0.,0.,9990.,0.889418582391,1.44530519638,416.
9.26,5370.,26.,16.,4577.,0.,0.,9989.,0.845762757267,1.69152551453,338.
9.28,5372.,30.,10.,4582.,0.,0.,9994.,0.802424379577,1.3908689246,390.
9.3,5370.,28.,12.,4578.,0.,0.,9988.,0.760393134291,1.41215867797,364.
9.32,5373.,22.,15.,4576.,0.,0.,9986.,0.720416532337,1.7028027128,286.
9.34,5367.,27.,10.,4581.,0.,0.,9985.,0.681501371467,1.31252115986,351.
9.36,5368.,20.,9.,4589.,0.,0.,9986.,0.646306280704,1.68039632983,260.
9.38,5367.,20.,1.,4599.,0.,0.,9987.,0.614364659877,1.59734811568,260.
9.4,5369.,13.,8.,4592.,0.,0.,9982.,0.587108688293,2.34843475317,169.
9.42,5379.,10.,10.,4588.,0.,0.,9987.,0.564512969657,2.93546744222,130.
9.44,5386.,7.,6.,4589.,0.,0.,9988.,0.546578718346,4.06029905057,91.
9.46,5397.,8.,3.,4581.,0.,0.,9989.,0.534105744475,3.47168733909,104.
9.48,5407.,4.,3.,4576.,0.,0.,9990.,0.526820437045,6.84866568158,52.
9.5,5419.,4.,2.,4564.,0.,0.,9989.,0.525281158058,6.82865505476,52.
9.52,5422.,2.,3.,4560.,0.,0.,9987.,0.528440623494,13.7394562109,26.
9.54,5432.,1.,4.,4551.,0.,0.,9988.,0.537623286789,27.956410913,13.
9.56,5435.,1.,1.,4549.,0.,0.,9986.,0.55166177093,28.6864120883,13.
9.58,5447.,1.,0.,4539.,0.,0.,9987.,0.571649404298,29.7257690235,13.
9.6,5457.,0.,1.,4527.,0.,0.,9985.,0.596552339818,inf,0.
9.62,5473.,0.,1.,4512.,0.,0.,9986.,0.626561299922,inf,0.
9.64,5482.,0.,1.,4503.,0.,0.,9986.,0.660031861181,inf,0.
9.66,5494.,0.,1.,4493.,0.,0.,9988.,0.697418284844,inf,0.
9.68,5497.,0.,0.,4491.,0.,0.,9988.,0.736894975013,inf,0.
9.7,5500.,0.,0.,4487.,0.,0.,9987.,0.778879143242,inf,0.
9.72,5516.,0.,0.,4471.,0.,0.,9987.,0.824511398328,inf,0.
9.74,5523.,0.,0.,4463.,0.,0.,9986.,0.870121232277,inf,0.
9.76,5543.,0.,0.,4445.,0.,0.,9988.,0.918084974169,inf,0.
9.78,5552.,0.,0.,4436.,0.,0.,9988.,0.964281073862,inf,0.
9.8,5562.,2.,3.,4422.,0.,0.,9989.,1.00964050173,26.2506530451,26.
9.82,5565.,5.,1.,4420.,0.,0.,9991.,1.05196477395,10.9404336491,65.
9.84,5572.,3.,3.,4416.,0.,0.,9994.,1.09257731327,18.9380067633,39.
9.86,5575.,9.,4.,4404.,0.,0.,9992.,1.12997565087,6.52874820502,117.
9.88,5577.,13.,1.,4400.,0.,0.,9991.,1.16348003919,4.65392015676,169.
9.9,5588.,10.,2.,4388.,0.,0.,9988.,1.19503407065,6.21417716739,130.
9.92,5589.,12.,8.,4377.,0.,0.,9986.,1.21979784517,5.28579066242,156.
9.94,5600.,9.,6.,4367.,0.,0.,9982.,1.24205179254,7.17629924579,117.
9.96,5601.,17.,5.,4356.,0.,0.,9979.,1.25670715394,3.84404541206,221.
9.98,5606.,17.,6.,4353.,0.,0.,9982.,1.26598177552,3.87241484276,221.
10.,5604.,20.,8.,4353.,0.,0.,9985.,1.26800663973,3.29681726329,260.
