t,s,e,i,r,c,o,n,reff,coal,reportr
5.,6816.,12.,17.,3155.,0.,0.,10000.,1.12230154343,4.8633066882,156.
5.02,6802.,27.,14.,3155.,0.,0.,9998.,1.11769659857,2.1526008565,351.
5.04,6798.,17.,17.,3166.,0.,0.,9998.,1.10951217772,3.39380195539,221.
5.06,6793.,23.,13.,3170.,0.,0.,9999.,1.09618233425,2.47832527743,299.
5.08,6771.,28.,19.,3179.,0.,0.,9997.,1.07581338601,1.99793914545,364.
5.1,6761.,35.,17.,3187.,0.,0.,10000.,1.05249942588,1.56371343274,455.
5.12,6745.,38.,19.,3194.,0.,0.,9996.,1.02501793888,1.40265612689,494.
5.14,6729.,37.,14.,3215.,0.,0.,9995.,0.993694479056,1.39654359219,481.
5.16,6722.,33.,23.,3217.,0.,0.,9995.,0.9605160663,1.51354046811,429.
5.18,6702.,44.,13.,3236.,0.,0.,9995.,0.922943511136,1.09075142225,572.
5.2,6693.,36.,22.,3242.,0.,0.,9993.,0.885097753241,1.27847453246,468.
5.22,6678.,37.,25.,3252.,0.,0.,9992.,0.844958183706,1.18750879872,481.
5.24,6659.,37.,25.,3269.,0.,0.,9990.,0.803652998583,1.12945826828,481.
5.26,6640.,34.,28.,3288.,0.,0.,9990.,0.762091967261,1.16555242052,442.
5.28,6629.,41.,23.,3299.,0.,0.,9992.,0.721791158704,0.915442445185,533.
5.3,6623.,38.,13.,3315.,0.,0.,9989.,0.683413706845,0.935197704104,494.
5.32,6618.,35.,13.,3324.,0.,0.,9990.,0.646439929882,0.960425038682,455.
5.34,6612.,33.,13.,3333.,0.,0.,9991.,0.611526951408,0.963618226461,429.
5.36,6618.,26.,8.,3338.,0.,0.,9990.,0.580479936667,1.16095987333,338.
5.38,6617.,21.,11.,3341.,0.,0.,9990.,0.551866249815,1.36652595192,273.
5.4,6618.,12.,12.,3347.,0.,0.,9989.,0.527054986681,2.28390494228,156.
5.42,6620.,9.,8.,3351.,0.,0.,9988.,0.506285388546,2.92520446715,117.
5.44,6622.,7.,7.,3354.,0.,0.,9990.,0.48966278563,3.63749497897,91.
5.46,6626.,11.,3.,3349.,0.,0.,9989.,0.477897513182,2.25915188049,143.
5.48,6632.,7.,6.,3344.,0.,0.,9989.,0.47098030381,3.4987108283,91.
5.5,6635.,7.,5.,3337.,0.,0.,9984.,0.468964045986,3.48373291304,91.
5.52,6641.,7.,3.,3334.,0.,0.,9985.,0.471808381961,3.504862266,91.
5.54,6649.,3.,1.,3332.,0.,0.,9985.,0.479748489399,8.31564048292,39.
5.56,6657.,2.,0.,3329.,0.,0.,9988.,0.492349423775,12.8010850181,26.
5.58,6660.,1.,2.,3326.,0.,0.,9989.,0.50929352422,26.4832632594,13.
5.6,6666.,1.,0.,3316.,0.,0.,9983.,0.531196757337,27.6222313815,13.
5.62,6673.,1.,0.,3310.,0.,0.,9984.,0.55687117849,28.9573012815,13.
5.64,6674.,0.,1.,3304.,0.,0.,9979.,0.586037111028,inf,0.
5.66,6678.,0.,0.,3298.,0.,0.,9976.,0.618559797934,inf,0.
5.68,6688.,1.,0.,3290.,0.,0.,9979.,0.653997580594,34.0078741909,13.
5.7,6695.,0.,1.,3283.,0.,0.,9979.,0.691535535372,inf,0.
5.72,6707.,0.,0.,3274.,0.,0.,9981.,0.731088942091,inf,0.
5.74,6718.,0.,1.,3263.,0.,0.,9982.,0.771662200126,inf,0.
5.76,6725.,0.,0.,3261.,0.,0.,9986.,0.811943425865,inf,0.
5.78,6734.,0.,0.,3253.,0.,0.,9987.,0.852470363366,inf,0.
5.8,6741.,1.,0.,3247.,0.,0.,9989.,0.891802354745,46.3737224467,13.
5.82,6749.,4.,0.,3239.,0.,0.,9992.,0.929695006942,12.0860350902,52.
5.84,6757.,6.,1.,3226.,0.,0.,9990.,0.966000507568,8.37200439892,78.
5.86,6773.,7.,0.,3212.,0.,0.,9992.,1.00049240764,7.43222931391,91.
5.88,6778.,8.,0.,3208.,0.,0.,9994.,1.03023898269,6.69655338751,104.
5.9,6781.,5.,6.,3203.,0.,0.,9995.,1.05614093941,10.9838657699,65.
5.92,6780.,9.,5.,3206.,0.,0.,10000.,1.07692018206,6.22220549634,117.
5.94,6779.,11.,7.,3202.,0.,0.,9999.,1.09392316265,5.17127313253,143.
5.96,6781.,12.,7.,3197.,0.,0.,9997.,1.10684828819,4.79634258216,156.
5.98,6788.,14.,4.,3193.,0.,0.,9999.,1.11528458435,4.14248559902,182.
6.,6789.,14.,7.,3190.,0.,0.,10000.,1.11785580668,4.15203585339,182.
6.02,6786.,11.,5.,3196.,0.,0.,9998.,1.11506749749,5.27122816993,143.
6.04,6785.,13.,7.,3197.,0.,0.,10002.,1.10694755986,4.42779023943,169.
6.06,6782.,16.,11.,3197.,0.,0.,10006.,1.09364164514,3.55433534669,208.
6.08,6783.,15.,9.,3201.,0.,0.,10008.,1.07653546704,3.73198961907,195.
6.1,6771.,22.,9.,3202.,0.,0.,10004.,1.05363469353,2.49040927563,286.
6.12,6759.,27.,10.,3211.,0.,0.,10007.,1.02601640829,1.97603160115,351.
6.14,6754.,26.,12.,3212.,0.,0.,10004.,0.996489025921,1.99297805184,338.
6.16,6753.,20.,15.,3215.,0.,0.,10003.,0.964173975006,2.50685233502,260.
6.18,6744.,32.,11.,3216.,0.,0.,10003.,0.927984641549,1.50797504252,416.
6.2,6732.,34.,15.,3221.,0.,0.,10002.,0.889454133701,1.36034161625,442.
6.22,6724.,32.,8.,3231.,0.,0.,9995.,0.850523139404,1.38210010153,416.
6.24,6718.,26.,18.,3231.,0.,0.,9993.,0.810530113779,1.62106022756,338.
6.26,6717.,22.,18.,3235.,0.,0.,9992.,0.770775170188,1.82183222044,286.
6.28,6710.,24.,11.,3247.,0.,0.,9992.,0.730610751984,1.58298996263,312.
6.3,6704.,22.,14.,3253.,0.,0.,9993.,0.69149502714,1.63444279142,286.
6.32,6699.,20.,13.,3257.,0.,0.,9989.,0.654417439901,1.70148534374,260.
6.34,6684.,24.,15.,3264.,0.,0.,9987.,0.618433643362,1.33993956062,312.
6.36,6674.,27.,10.,3275.,0.,0.,9986.,0.585626309929,1.1278728932,351.
6.38,6671.,12.,17.,3284.,0.,0.,9984.,0.556704275695,2.41238519468,156.
6.4,6667.,12.,11.,3292.,0.,0.,9982.,0.531329668266,2.30242856249,156.
6.42,6673.,13.,8.,3291.,0.,0.,9985.,0.510492062397,2.04196824959,169.
6.44,6680.,8.,11.,3294.,0.,0.,9993.,0.493803297555,3.20972143411,104.
6.46,6679.,9.,7.,3297.,0.,0.,9992.,0.48157548455,2.78243613296,117.
6.48,6686.,3.,6.,3298.,0.,0.,9993.,0.47462512654,8.2268355267,39.
6.5,6697.,7.,0.,3295.,0.,0.,9999.,0.472636136624,3.51101130063,91.
6.52,6699.,4.,3.,3292.,0.,0.,9998.,0.475310147744,6.17903192068,52.
6.54,6710.,3.,2.,3285.,0.,0.,10000.,0.48342362691,8.37934286643,39.
6.56,6728.,1.,0.,3282.,0.,0.,10011.,0.496457335544,25.8157814483,13.
6.58,6731.,1.,0.,3277.,0.,0.,10009.,0.513694409467,26.7121092923,13.
6.6,6735.,0.,1.,3272.,0.,0.,10008.,0.535354528167,inf,0.
6.62,6734.,0.,1.,3268.,0.,0.,10003.,0.560894306731,inf,0.
6.64,6742.,0.,0.,3261.,0.,0.,10003.,0.590587728075,inf,0.
6.66,6751.,0.,0.,3256.,0.,0.,10007.,0.623384392019,inf,0.
6.68,6760.,0.,0.,3248.,0.,0.,10008.,0.659122745937,inf,0.
6.7,6764.,1.,0.,3241.,0.,0.,10006.,0.69677738001,36.2324237605,13.
6.72,6770.,1.,0.,3235.,0.,0.,10006.,0.736112401575,38.2778448819,13.
6.74,6780.,1.,1.,3224.,0.,0.,10006.,0.776915861701,40.3996248085,13.
6.76,6786.,1.,1.,3221.,0.,0.,10009.,0.817425551293,42.5061286673,13.
6.78,6794.,3.,1.,3213.,0.,0.,10011.,0.858003991862,14.8720691923,39.
6.8,6796.,3.,2.,3210.,0.,0.,10011.,0.897102794575,15.5497817726,39.
6.82,6801.,5.,3.,3206.,0.,0.,10015.,0.934706616564,9.72094881226,65.
6.84,6801.,5.,3.,3204.,0.,0.,10013.,0.97005751078,10.0885981121,65.
6.86,6795.,10.,1.,3206.,0.,0.,10012.,1.00173712012,5.20903302463,130.
6.88,6802.,11.,0.,3196.,0.,0.,10009.,1.03233748655,4.88014084549,143.
6.9,6804.,9.,3.,3190.,0.,0.,10006.,1.05855819354,6.11611400713,117.
6.92,6805.,12.,4.,3187.,0.,0.,10008.,1.080027105,4.68011745499,156.
6.94,6805.,13.,6.,3180.,0.,0.,10004.,1.0975699272,4.39027970881,169.
6.96,6807.,14.,5.,3179.,0.,0.,10005.,1.11020378364,4.12361405354,182.
6.98,6806.,10.,12.,3177.,0.,0.,10005.,1.11757141736,5.81137137026,130.
7.,6792.,22.,5.,3183.,0.,0.,10002.,1.1181261522,2.64284363248,286.
7.02,6790.,13.,10.,3189.,0.,0.,10002.,1.11527857209,4.46111428835,169.
7.04,6788.,15.,9.,3190.,0.,0.,10002.,1.10743699872,3.8391149289,195.
7.06,6777.,22.,8.,3188.,0.,0.,9995.,1.09403808285,2.58590819582,286.
7.08,6771.,27.,9.,3190.,0.,0.,9997.,1.07581338601,2.07193689157,351.
7.1,6759.,36.,10.,3191.,0.,0.,9996.,1.05260912523,1.52043540311,468.
7.12,6757.,23.,19.,3196.,0.,0.,9995.,1.02694427934,2.32178706632,299.
7.14,6748.,29.,13.,3206.,0.,0.,9996.,0.996400584234,1.78664932345,377.
7.16,6737.,32.,13.,3212.,0.,0.,9994.,0.962755761207,1.56447811196,416.
7.18,6728.,32.,15.,3220.,0.,0.,9995.,0.926524014163,1.50560152302,416.
7.2,6718.,37.,16.,3226.,0.,0.,9997.,0.888048342723,1.24806794112,481.
7.22,6703.,37.,17.,3238.,0.,0.,9995.,0.847866835726,1.19159663399,481.
7.24,6694.,36.,17.,3248.,0.,0.,9995.,0.807472893879,1.1663497356,468.
7.26,6682.,37.,22.,3255.,0.,0.,9996.,0.76645209691,1.07717591998,481.
7.28,6665.,33.,23.,3271.,0.,0.,9992.,0.725710977939,1.1435445713,429.
7.3,6649.,32.,28.,3283.,0.,0.,9992.,0.685890599435,1.11457222408,416.
7.32,6635.,37.,18.,3304.,0.,0.,9994.,0.647841077846,0.910479352648,481.
7.34,6622.,36.,21.,3315.,0.,0.,9994.,0.61226797995,0.88438708215,468.
7.36,6624.,30.,16.,3327.,0.,0.,9997.,0.580599384014,1.00637226562,390.
7.38,6622.,24.,9.,3341.,0.,0.,9996.,0.551951753645,1.19589546623,312.
7.4,6621.,15.,8.,3353.,0.,0.,9997.,0.526871943819,1.82648940524,195.
7.42,6620.,12.,7.,3358.,0.,0.,9997.,0.505829594958,2.19192824482,156.
7.44,6624.,14.,1.,3358.,0.,0.,9997.,0.489467704963,1.81802290415,182.
7.46,6629.,9.,4.,3353.,0.,0.,9995.,0.477826875104,2.7607775006,117.
7.48,6638.,6.,2.,3351.,0.,0.,9997.,0.4710291635,4.08225275033,78.
7.5,6643.,5.,1.,3345.,0.,0.,9994.,0.469059677319,4.87822064411,65.
7.52,6651.,5.,0.,3343.,0.,0.,9999.,0.471857237237,4.90731526727,65.
7.54,6657.,2.,3.,3338.,0.,0.,10000.,0.479605228664,12.4697359453,26.
7.56,6666.,3.,1.,3332.,0.,0.,10002.,0.492324977602,8.5336329451,39.
7.58,6672.,1.,3.,3328.,0.,0.,10004.,0.509446159458,26.4912002918,13.
7.6,6684.,0.,1.,3323.,0.,0.,10008.,0.5313006186,inf,0.
7.62,6691.,0.,0.,3321.,0.,0.,10012.,0.556811732289,inf,0.
7.64,6704.,0.,0.,3307.,0.,0.,10011.,0.586789701761,inf,0.
7.66,6712.,1.,0.,3300.,0.,0.,10013.,0.619411761963,32.2094116221,13.
7.68,6721.,1.,0.,3294.,0.,0.,10016.,0.654796696088,34.0494281966,13.
7.7,6734.,1.,0.,3281.,0.,0.,10016.,0.692994422453,36.0357099676,13.
7.72,6733.,0.,1.,3277.,0.,0.,10011.,0.731723692813,inf,0.
7.74,6742.,1.,0.,3272.,0.,0.,10015.,0.771867202093,40.1370945088,13.
7.76,6752.,3.,0.,3260.,0.,0.,10015.,0.812842724408,14.0892738897,39.
7.78,6757.,2.,0.,3255.,0.,0.,10014.,0.853075676285,22.1799675834,26.
7.8,6762.,1.,1.,3252.,0.,0.,10016.,0.892169046142,46.3927903994,13.
7.82,6765.,2.,0.,3246.,0.,0.,10013.,0.929944607732,24.178559801,26.
7.84,6767.,1.,1.,3242.,0.,0.,10011.,0.965400765873,50.2008398254,13.
7.86,6769.,2.,2.,3234.,0.,0.,10007.,0.998402733448,25.9584710696,26.
7.88,6773.,4.,2.,3227.,0.,0.,10006.,1.02824436123,13.367176696,52.
7.9,6778.,5.,3.,3218.,0.,0.,10004.,1.0547239629,10.9691292141,65.
7.92,6777.,9.,2.,3215.,0.,0.,10003.,1.07612083245,6.21758703195,117.
7.94,6777.,10.,3.,3213.,0.,0.,10003.,1.09316311487,5.68444819734,130.
7.96,6777.,11.,5.,3206.,0.,0.,9999.,1.10597411545,5.22824127303,143.
7.98,6780.,12.,5.,3205.,0.,0.,10002.,1.11363604105,4.8257561779,156.
8.,6778.,15.,4.,3204.,0.,0.,10001.,1.1159329873,3.86856768931,195.
8.02,6780.,14.,5.,3199.,0.,0.,9998.,1.11408158458,4.13801731415,182.
8.04,6781.,18.,4.,3193.,0.,0.,9996.,1.10695901731,3.19788160557,234.
8.06,6781.,16.,5.,3195.,0.,0.,9997.,1.0944648163,3.55701065299,208.
8.08,6775.,21.,4.,3193.,0.,0.,9993.,1.076879809,2.66655952705,273.
8.1,6774.,22.,12.,3187.,0.,0.,9995.,1.05505068922,2.49375617451,286.
8.12,6763.,27.,11.,3195.,0.,0.,9996.,1.02775334628,1.97937681506,351.
8.14,6745.,30.,14.,3202.,0.,0.,9991.,0.996456035666,1.72719046182,390.
8.16,6745.,23.,19.,3205.,0.,0.,9992.,0.964091941027,2.17968612754,299.
8.18,6723.,35.,14.,3218.,0.,0.,9990.,0.926298836998,1.37621541497,455.
8.2,6708.,40.,13.,3229.,0.,0.,9990.,0.887347778637,1.15355211223,520.
8.22,6707.,30.,13.,3237.,0.,0.,9987.,0.849052380027,1.47169079205,390.
8.24,6706.,25.,17.,3241.,0.,0.,9989.,0.809406296993,1.68356509774,325.
8.26,6697.,28.,16.,3245.,0.,0.,9986.,0.768941906446,1.42803496911,364.
8.28,6686.,29.,19.,3255.,0.,0.,9989.,0.728216178926,1.30576694152,377.
8.3,6680.,25.,16.,3270.,0.,0.,9991.,0.689157435986,1.43344746685,325.
8.32,6675.,23.,15.,3276.,0.,0.,9989.,0.652072908097,1.47425179222,299.
8.34,6671.,18.,7.,3288.,0.,0.,9984.,0.617416291078,1.78364706311,234.
8.36,6677.,18.,5.,3286.,0.,0.,9986.,0.585889552202,1.69256981747,234.
8.38,6681.,16.,7.,3282.,0.,0.,9986.,0.557427125586,1.81163815816,208.
8.4,6683.,16.,6.,3285.,0.,0.,9990.,0.532178285367,1.72957942744,208.
8.42,6688.,10.,6.,3286.,0.,0.,9990.,0.511383503531,2.65919421836,130.
8.44,6691.,7.,8.,3280.,0.,0.,9986.,0.494963163614,3.67686921542,91.
8.46,6691.,5.,6.,3280.,0.,0.,9982.,0.482924030416,5.02240991633,65.
8.48,6695.,5.,3.,3277.,0.,0.,9980.,0.475883099063,4.94918423025,65.
8.5,6704.,3.,3.,3270.,0.,0.,9980.,0.474030905571,8.21653569657,39.
8.52,6716.,2.,4.,3262.,0.,0.,9984.,0.477184530577,12.406797795,26.
8.54,6717.,1.,3.,3261.,0.,0.,9982.,0.484800584711,25.209630405,13.
8.56,6722.,0.,1.,3256.,0.,0.,9979.,0.497605184079,inf,0.
8.58,6725.,1.,0.,3251.,0.,0.,9977.,0.514882646232,26.7738976041,13.
8.6,6732.,1.,0.,3246.,0.,0.,9979.,0.536671165196,27.9069005902,13.
8.62,6738.,1.,0.,3241.,0.,0.,9980.,0.562520888302,29.2510861917,13.
8.64,6746.,1.,0.,3233.,0.,0.,9980.,0.592300002711,30.799600141,13.
8.66,6756.,1.,0.,3223.,0.,0.,9980.,0.625533849798,32.5277601895,13.
8.68,6761.,1.,0.,3217.,0.,0.,9979.,0.661136011124,34.3790725785,13.
8.7,6765.,1.,0.,3214.,0.,0.,9980.,0.698695912693,36.33218746,13.
8.72,6770.,1.,0.,3209.,0.,0.,9980.,0.738030129274,38.3775667223,13.
8.74,6776.,2.,0.,3204.,0.,0.,9982.,0.778324362616,20.236433428,26.
8.76,6785.,2.,1.,3195.,0.,0.,9983.,0.819433705536,21.3052763439,26.
8.78,6791.,4.,0.,3193.,0.,0.,9988.,0.859600034076,11.174800443,52.
8.8,6798.,3.,2.,3185.,0.,0.,9988.,0.899433226994,15.5901759346,39.
8.82,6800.,6.,1.,3181.,0.,0.,9988.,0.937095548347,8.12149475234,78.
8.84,6811.,2.,2.,3177.,0.,0.,9992.,0.973525605683,25.3116657478,26.
8.86,6817.,2.,1.,3174.,0.,0.,9994.,1.0067904699,26.1765522173,26.
8.88,6820.,4.,2.,3168.,0.,0.,9994.,1.03662287725,13.4760974042,52.
8.9,6835.,4.,4.,3157.,0.,0.,10000.,1.0640191652,13.8322491476,52.
8.92,6831.,6.,5.,3154.,0.,0.,9996.,1.08545509113,9.40727745644,78.
8.94,6833.,9.,5.,3149.,0.,0.,9996.,1.10296803375,6.37270419502,117.
8.96,6833.,13.,0.,3151.,0.,0.,9997.,1.11533613821,4.46134455284,169.
8.98,6836.,13.,3.,3146.,0.,0.,9998.,1.12328343837,4.4931337535,169.
9.,6835.,17.,3.,3142.,0.,0.,9997.,1.12576775517,3.44352489817,221.
9.02,6837.,18.,6.,3137.,0.,0.,9998.,1.12344775719,3.245515743,234.
9.04,6822.,25.,6.,3140.,0.,0.,9993.,1.11398635974,2.31709162826,325.
9.06,6815.,24.,11.,3142.,0.,0.,9992.,1.10050289012,2.38442292858,312.
9.08,6806.,23.,18.,3144.,0.,0.,9991.,1.08202378587,2.44631464632,299.
9.1,6794.,22.,12.,3162.,0.,0.,9990.,1.05869530223,2.50237071436,286.
9.12,6774.,37.,13.,3169.,0.,0.,9993.,1.02973402796,1.44719376902,481.
9.14,6764.,29.,19.,3179.,0.,0.,9991.,0.999262954077,1.79178184869,377.
9.16,6749.,37.,16.,3184.,0.,0.,9986.,0.96524328794,1.3565581344,481.
9.18,6730.,39.,22.,3192.,0.,0.,9983.,0.927913490689,1.23721798758,507.
9.2,6709.,38.,19.,3215.,0.,0.,9981.,0.888280313189,1.21554148121,494.
9.22,6703.,38.,24.,3215.,0.,0.,9980.,0.849141184678,1.16198267377,494.
9.24,6689.,35.,18.,3239.,0.,0.,9981.,0.808001530075,1.20045941611,455.
9.26,6684.,31.,12.,3256.,0.,0.,9983.,0.767679888108,1.28772110263,403.
9.28,6688.,26.,13.,3261.,0.,0.,9988.,0.728506942982,1.45701388596,338.
9.3,6692.,23.,15.,3257.,0.,0.,9987.,0.690671961007,1.56151921619,299.
9.32,6681.,20.,19.,3266.,0.,0.,9986.,0.652855113262,1.69742329448,260.
9.34,6673.,19.,13.,3280.,0.,0.,9985.,0.617539542728,1.6901082222,247.
9.36,6664.,18.,11.,3289.,0.,0.,9982.,0.584983156998,1.68995134244,234.
9.38,6667.,20.,7.,3289.,0.,0.,9983.,0.556426201894,1.44670812492,260.
9.4,6680.,12.,7.,3288.,0.,0.,9987.,0.532099179974,2.30576311322,156.
9.42,6687.,10.,0.,3289.,0.,0.,9986.,0.511511850236,2.65986162123,130.
9.44,6688.,7.,2.,3286.,0.,0.,9983.,0.49488991533,3.67632508531,91.
9.46,6692.,3.,4.,3286.,0.,0.,9985.,0.482851089045,8.36941887678,39.
9.48,6700.,4.,2.,3279.,0.,0.,9985.,0.476000023963,6.18800031152,52.
9.5,6708.,3.,3.,3271.,0.,0.,9985.,0.474076227101,8.21732126974,39.
9.52,6715.,5.,1.,3268.,0.,0.,9989.,0.47687465924,4.9594964561,65.
9.54,6723.,3.,0.,3264.,0.,0.,9990.,0.484845060219,8.40398104379,39.
9.56,6725.,1.,2.,3256.,0.,0.,9984.,0.497577950624,25.8740534324,13.
9.58,6726.,1.,1.,3253.,0.,0.,9981.,0.51475283291,26.7671473113,13.
9.6,6730.,2.,1.,3245.,0.,0.,9978.,0.536565495812,13.9507028911,26.
9.62,6736.,1.,0.,3242.,0.,0.,9979.,0.562410272346,29.245334162,13.
9.64,6747.,0.,1.,3232.,0.,0.,9980.,0.592387802889,inf,0.
9.66,6754.,0.,0.,3223.,0.,0.,9977.,0.625536708125,inf,0.
9.68,6763.,1.,0.,3213.,0.,0.,9977.,0.661464155794,34.3961361013,13.
9.7,6769.,0.,2.,3205.,0.,0.,9976.,0.699389353036,inf,0.
9.72,6781.,0.,0.,3199.,0.,0.,9980.,0.739229291966,inf,0.
9.74,6785.,0.,0.,3195.,0.,0.,9980.,0.779514330448,inf,0.
9.76,6791.,3.,0.,3191.,0.,0.,9985.,0.819994055637,14.2132302977,39.
9.78,6800.,2.,2.,3183.,0.,0.,9987.,0.860825433753,22.3814612776,26.
9.8,6807.,1.,4.,3176.,0.,0.,9988.,0.900624003552,46.8324481847,13.
9.82,6812.,1.,0.,3173.,0.,0.,9986.,0.938937259441,48.8247374909,13.
9.84,6815.,2.,0.,3169.,0.,0.,9986.,0.97468262073,25.341748139,26.
9.86,6822.,2.,1.,3157.,0.,0.,9982.,1.00874012578,26.2272432704,26.
9.88,6827.,3.,0.,3151.,0.,0.,9981.,1.03903842055,18.0099992896,39.
9.9,6832.,6.,0.,3145.,0.,0.,9983.,1.06536326629,9.23314830787,78.
9.92,6841.,6.,1.,3138.,0.,0.,9986.,1.08813267268,9.43048316325,78.
9.94,6841.,9.,2.,3133.,0.,0.,9985.,1.10547588647,6.38719401073,117.
9.96,6842.,10.,5.,3126.,0.,0.,9983.,1.11837137896,5.81553117061,130.
9.98,6849.,11.,5.,3120.,0.,0.,9985.,1.12688482633,5.32709190628,143.
10.,6848.,12.,9.,3116.,0.,0.,9985.,1.12926446145,4.89347933297,156.
