t,s,e,i,r,c,o,n,reff,coal,reportr
5.,6899.,26.,1.,3074.,0.,0.,10000.,1.09810271915,2.19620543829,338.
5.02,6899.,18.,14.,3068.,0.,0.,9999.,1.09573833071,3.16546628873,234.
5.04,6897.,19.,12.,3072.,0.,0.,10000.,1.08793040664,2.97749374448,247.
5.06,6882.,26.,12.,3078.,0.,0.,9998.,1.0736336928,2.1472673856,338.
5.08,6884.,24.,19.,3075.,0.,0.,10002.,1.05678022298,2.28969048312,312.
5.1,6874.,22.,20.,3081.,0.,0.,9997.,1.03473135843,2.44572866538,286.
5.12,6855.,35.,11.,3095.,0.,0.,9996.,1.00701007301,1.49612925132,455.
5.14,6843.,35.,18.,3100.,0.,0.,9996.,0.976747443472,1.4511676303,455.
5.16,6830.,36.,25.,3107.,0.,0.,9998.,0.943133863847,1.36230447,468.
5.18,6815.,40.,14.,3130.,0.,0.,9999.,0.906858715342,1.17891632994,520.
5.2,6809.,30.,25.,3136.,0.,0.,10000.,0.869814170187,1.50767789499,390.
5.22,6797.,30.,10.,3161.,0.,0.,9998.,0.830849204422,1.440138621,390.
5.24,6793.,34.,10.,3160.,0.,0.,9997.,0.791942789321,1.21120661896,442.
5.26,6792.,29.,11.,3166.,0.,0.,9998.,0.752950075698,1.35011737711,377.
5.28,6792.,24.,14.,3165.,0.,0.,9995.,0.714673513068,1.54845927831,312.
5.3,6784.,29.,12.,3171.,0.,0.,9996.,0.676219014431,1.21253064657,377.
5.32,6786.,23.,17.,3171.,0.,0.,9997.,0.640306494312,1.4476494654,299.
5.34,6778.,30.,15.,3176.,0.,0.,9999.,0.60549917527,1.0495319038,390.
5.36,6779.,24.,11.,3187.,0.,0.,10001.,0.574149497795,1.24399057856,312.
5.38,6774.,16.,15.,3192.,0.,0.,9997.,0.545745963648,1.77367438186,208.
5.4,6774.,12.,11.,3200.,0.,0.,9997.,0.521078939767,2.25800873899,156.
5.42,6776.,10.,6.,3205.,0.,0.,9997.,0.500491247276,2.60255448584,130.
5.44,6780.,6.,2.,3206.,0.,0.,9994.,0.484440677753,4.19848587386,78.
5.46,6788.,7.,0.,3198.,0.,0.,9993.,0.473072978242,3.5142564098,91.
5.48,6794.,6.,1.,3192.,0.,0.,9993.,0.466215533965,4.0405346277,78.
5.5,6796.,6.,2.,3186.,0.,0.,9990.,0.46405335694,4.02179576015,78.
5.52,6809.,5.,1.,3179.,0.,0.,9994.,0.467198106274,4.85886030525,65.
5.54,6816.,1.,4.,3171.,0.,0.,9992.,0.4750719099,24.7037393148,13.
5.56,6824.,1.,0.,3171.,0.,0.,9996.,0.487486984628,25.3493232007,13.
5.58,6825.,2.,1.,3166.,0.,0.,9994.,0.504261826108,13.1108074788,26.
5.6,6831.,2.,0.,3163.,0.,0.,9996.,0.525516139505,13.6634196271,26.
5.62,6839.,1.,0.,3158.,0.,0.,9998.,0.550927566439,28.6482334548,13.
5.64,6841.,0.,1.,3156.,0.,0.,9998.,0.579574461889,inf,0.
5.66,6852.,0.,1.,3146.,0.,0.,9999.,0.612109818375,inf,0.
5.68,6860.,1.,0.,3138.,0.,0.,9999.,0.647159440408,33.6522909012,13.
5.7,6865.,0.,0.,3134.,0.,0.,9999.,0.684087665349,inf,0.
5.72,6867.,0.,0.,3130.,0.,0.,9997.,0.722420669477,inf,0.
5.74,6878.,0.,0.,3120.,0.,0.,9998.,0.762483895855,inf,0.
5.76,6886.,0.,0.,3113.,0.,0.,9999.,0.802624359573,inf,0.
5.78,6894.,0.,0.,3105.,0.,0.,9999.,0.842621975954,inf,0.
5.8,6905.,3.,0.,3095.,0.,0.,10003.,0.88181312461,15.2847608266,39.
5.82,6904.,5.,1.,3095.,0.,0.,10005.,0.918150825609,9.54876858633,65.
5.84,6904.,0.,7.,3087.,0.,0.,9998.,0.953352298097,inf,0.
5.86,6907.,4.,2.,3084.,0.,0.,9997.,0.985783976348,12.8151916925,52.
5.88,6918.,5.,0.,3075.,0.,0.,9998.,1.01606157654,10.567040396,65.
5.9,6911.,7.,1.,3077.,0.,0.,9996.,1.0404049763,7.7287226811,91.
5.92,6916.,5.,4.,3069.,0.,0.,9994.,1.0625424878,11.0504418731,65.
5.94,6916.,7.,2.,3068.,0.,0.,9993.,1.07947774562,8.01897753892,91.
5.96,6919.,9.,5.,3063.,0.,0.,9996.,1.09183741403,6.30839394774,117.
5.98,6920.,16.,0.,3065.,0.,0.,10001.,1.09885387713,3.57127510067,208.
6.,6924.,11.,4.,3064.,0.,0.,10003.,1.10175140346,5.20827936182,143.
6.02,6924.,16.,6.,3055.,0.,0.,10001.,1.09948905278,3.57333942154,208.
6.04,6912.,20.,8.,3058.,0.,0.,9998.,1.0905146044,2.83533797143,260.
6.06,6908.,23.,8.,3057.,0.,0.,9996.,1.07790547454,2.43700368156,299.
6.08,6912.,23.,9.,3049.,0.,0.,9993.,1.06203421334,2.40112083017,299.
6.1,6905.,20.,16.,3050.,0.,0.,9991.,1.04002193536,2.70405703193,260.
6.12,6899.,25.,11.,3054.,0.,0.,9989.,1.01418395372,2.10950262374,325.
6.14,6894.,28.,9.,3057.,0.,0.,9988.,0.984815184117,1.82894248479,364.
6.16,6886.,30.,15.,3059.,0.,0.,9990.,0.95162818785,1.64948885894,390.
6.18,6883.,25.,19.,3062.,0.,0.,9989.,0.916824258239,1.90699445714,325.
6.2,6876.,29.,12.,3073.,0.,0.,9990.,0.879252322407,1.57659037121,377.
6.22,6867.,31.,17.,3077.,0.,0.,9992.,0.839909885606,1.40888109844,403.
6.24,6856.,37.,12.,3087.,0.,0.,9992.,0.799687430742,1.1238850378,481.
6.26,6853.,34.,16.,3090.,0.,0.,9993.,0.760092558811,1.16249450171,442.
6.28,6853.,32.,16.,3095.,0.,0.,9996.,0.721019968097,1.17165744816,416.
6.3,6851.,30.,11.,3106.,0.,0.,9998.,0.682760867811,1.18345217087,390.
6.32,6850.,23.,14.,3110.,0.,0.,9997.,0.646345341296,1.46130251076,299.
6.34,6839.,18.,20.,3118.,0.,0.,9995.,0.611192990827,1.76566864017,234.
6.36,6839.,17.,9.,3133.,0.,0.,9998.,0.579405020444,1.77229770959,221.
6.38,6841.,16.,2.,3139.,0.,0.,9998.,0.551088679926,1.79103820976,208.
6.4,6848.,14.,5.,3132.,0.,0.,9999.,0.526665904699,1.95618764603,182.
6.42,6856.,14.,5.,3125.,0.,0.,10000.,0.506248314777,1.88035088346,182.
6.44,6861.,9.,7.,3125.,0.,0.,10002.,0.489836139199,2.83016435981,117.
6.46,6863.,7.,4.,3125.,0.,0.,9999.,0.478012910274,3.55095304775,91.
6.48,6869.,4.,7.,3117.,0.,0.,9997.,0.471173556756,6.12525623782,52.
6.5,6866.,11.,5.,3114.,0.,0.,9996.,0.468551775978,2.2149720319,143.
6.52,6873.,7.,8.,3106.,0.,0.,9994.,0.471589452845,3.50323593542,91.
6.54,6879.,5.,6.,3105.,0.,0.,9995.,0.479319068641,4.98491831386,65.
6.56,6887.,7.,1.,3099.,0.,0.,9994.,0.492085980485,3.65549585503,91.
6.58,6894.,4.,3.,3091.,0.,0.,9992.,0.509461811291,6.62300354679,52.
6.6,6901.,3.,1.,3087.,0.,0.,9992.,0.531113844959,9.20597331261,39.
6.62,6906.,3.,0.,3084.,0.,0.,9993.,0.556603225515,9.64778924226,39.
6.64,6917.,3.,0.,3076.,0.,0.,9996.,0.586130486338,10.1595950965,39.
6.66,6920.,0.,3.,3071.,0.,0.,9994.,0.618493741189,inf,0.
6.68,6921.,1.,1.,3069.,0.,0.,9992.,0.65337147094,33.9753164889,13.
6.7,6931.,0.,3.,3061.,0.,0.,9995.,0.690940877194,inf,0.
6.72,6933.,1.,1.,3059.,0.,0.,9994.,0.729582927962,37.938312254,13.
6.74,6940.,0.,2.,3053.,0.,0.,9995.,0.769588037634,inf,0.
6.76,6948.,1.,0.,3051.,0.,0.,10000.,0.809770024239,42.1080412604,13.
6.78,6953.,1.,0.,3048.,0.,0.,10002.,0.849578376136,44.1780755591,13.
6.8,6956.,1.,1.,3042.,0.,0.,10000.,0.888592652051,46.2068179067,13.
6.82,6960.,2.,1.,3036.,0.,0.,9999.,0.926153581626,24.0799931223,26.
6.84,6963.,2.,2.,3033.,0.,0.,10000.,0.961307128221,24.9939853337,26.
6.86,6971.,5.,1.,3024.,0.,0.,10001.,0.994520285787,10.3430109722,65.
6.88,6973.,5.,3.,3019.,0.,0.,10000.,1.02393471722,10.6489210591,65.
6.9,6972.,6.,2.,3017.,0.,0.,9997.,1.04948312932,9.09552045414,78.
6.92,6985.,4.,5.,3009.,0.,0.,10003.,1.07217779167,13.9383112918,52.
6.94,6987.,5.,8.,3005.,0.,0.,10005.,1.0892517002,11.3282176821,65.
6.96,6980.,17.,7.,3004.,0.,0.,10008.,1.10014268393,3.36514232731,221.
6.98,6979.,16.,9.,3000.,0.,0.,10004.,1.10789038411,3.60064374835,208.
7.,6964.,20.,11.,3006.,0.,0.,10001.,1.10833783068,2.88167835977,260.
7.02,6963.,22.,14.,3001.,0.,0.,10000.,1.10579258359,2.6136915612,286.
7.04,6958.,28.,12.,3004.,0.,0.,10002.,1.09733305903,2.03790425249,364.
7.06,6954.,32.,10.,3007.,0.,0.,10003.,1.08432385861,1.76202627024,416.
7.08,6952.,33.,11.,3011.,0.,0.,10007.,1.06668583841,1.68083829083,429.
7.1,6948.,31.,9.,3021.,0.,0.,10009.,1.04461653472,1.75225999373,403.
7.12,6951.,26.,15.,3018.,0.,0.,10010.,1.01968449153,2.03936898307,338.
7.14,6937.,33.,15.,3022.,0.,0.,10007.,0.989076276821,1.5585444362,429.
7.16,6928.,30.,14.,3036.,0.,0.,10008.,0.955710483217,1.65656483758,390.
7.18,6924.,31.,7.,3049.,0.,0.,10011.,0.92025871117,1.54365977358,403.
7.2,6916.,28.,5.,3061.,0.,0.,10010.,0.882600260807,1.63911477007,364.
7.22,6910.,23.,17.,3059.,0.,0.,10009.,0.843733764367,1.907571989,299.
7.24,6900.,33.,11.,3061.,0.,0.,10005.,0.80377387116,1.26655276668,429.
7.26,6896.,27.,14.,3066.,0.,0.,10003.,0.76409722155,1.47159464891,351.
7.28,6890.,28.,11.,3073.,0.,0.,10002.,0.724477962886,1.34545907393,364.
7.3,6890.,18.,9.,3086.,0.,0.,10003.,0.686304331258,1.98265695697,234.
7.32,6888.,21.,9.,3086.,0.,0.,10004.,0.649476136967,1.60822662487,273.
7.34,6892.,15.,7.,3089.,0.,0.,10003.,0.615436939577,2.13351472387,195.
7.36,6896.,11.,9.,3086.,0.,0.,10002.,0.584000454709,2.76072942226,143.
7.38,6894.,13.,11.,3083.,0.,0.,10001.,0.555191596516,2.22076638606,169.
7.4,6892.,12.,14.,3080.,0.,0.,9998.,0.530102871778,2.29711244437,156.
7.42,6890.,14.,12.,3084.,0.,0.,10000.,0.508758881099,1.88967584408,182.
7.44,6896.,10.,9.,3087.,0.,0.,10002.,0.492334938918,2.56014168237,130.
7.46,6898.,13.,2.,3090.,0.,0.,10003.,0.480258562933,1.92103425173,169.
7.48,6904.,12.,4.,3086.,0.,0.,10006.,0.473148392399,2.05030970039,156.
7.5,6911.,7.,5.,3084.,0.,0.,10007.,0.47110425837,3.49963163361,91.
7.52,6919.,2.,1.,3088.,0.,0.,10010.,0.473986898855,12.3236593702,26.
7.54,6929.,2.,0.,3082.,0.,0.,10013.,0.481935081385,12.530312116,26.
7.56,6939.,1.,1.,3074.,0.,0.,10015.,0.49476183109,25.7276152167,13.
7.58,6941.,1.,2.,3071.,0.,0.,10015.,0.511757094939,26.6113689368,13.
7.6,6948.,0.,0.,3068.,0.,0.,10016.,0.533449748273,inf,0.
7.62,6957.,0.,0.,3064.,0.,0.,10021.,0.559146966849,inf,0.
7.64,6963.,1.,0.,3054.,0.,0.,10018.,0.588732689102,30.6140998333,13.
7.66,6964.,2.,0.,3051.,0.,0.,10017.,0.620997209281,16.1459274413,26.
7.68,6970.,0.,2.,3046.,0.,0.,10018.,0.656289557734,inf,0.
7.7,6981.,1.,0.,3042.,0.,0.,10024.,0.693911950024,36.0834214013,13.
7.72,6987.,0.,2.,3034.,0.,0.,10023.,0.733138152668,inf,0.
7.74,6986.,1.,1.,3033.,0.,0.,10021.,0.772679082845,40.1793123079,13.
7.76,6995.,1.,1.,3027.,0.,0.,10024.,0.813295833171,42.2913833249,13.
7.78,6996.,1.,1.,3026.,0.,0.,10024.,0.852956363596,44.353730907,13.
7.8,7003.,1.,2.,3018.,0.,0.,10024.,0.892454765021,46.4076477811,13.
7.82,7011.,4.,3.,3007.,0.,0.,10025.,0.930520456689,12.096765937,52.
7.84,7017.,2.,4.,3000.,0.,0.,10023.,0.966539291774,25.1300215861,26.
7.86,7019.,8.,4.,2995.,0.,0.,10026.,0.998871294944,6.49266341714,104.
7.88,7017.,8.,6.,2996.,0.,0.,10027.,1.02762122232,6.67953794509,104.
7.9,7021.,11.,5.,2989.,0.,0.,10026.,1.05380207168,4.98160979339,143.
7.92,7027.,5.,6.,2989.,0.,0.,10027.,1.07604294462,11.1908466241,65.
7.94,7024.,9.,5.,2982.,0.,0.,10020.,1.09338063449,6.31731033262,117.
7.96,7015.,16.,6.,2982.,0.,0.,10019.,1.10444524007,3.58944703024,208.
7.98,7014.,21.,0.,2987.,0.,0.,10022.,1.11144670025,2.75215373395,273.
8.,7019.,15.,3.,2988.,0.,0.,10025.,1.11441688368,3.86331186341,195.
8.02,7013.,20.,7.,2984.,0.,0.,10024.,1.11106651357,2.88877293527,260.
8.04,7003.,19.,13.,2986.,0.,0.,10021.,1.10233590476,3.01691931829,247.
8.06,6996.,25.,6.,2998.,0.,0.,10025.,1.08847890251,2.26403611722,325.
8.08,6994.,25.,7.,2999.,0.,0.,10025.,1.07120332575,2.22810291755,325.
8.1,6989.,26.,11.,3000.,0.,0.,10026.,1.0489990997,2.09799819939,338.
8.12,6983.,22.,20.,3001.,0.,0.,10026.,1.02274401061,2.41739493418,286.
8.14,6972.,31.,12.,3016.,0.,0.,10031.,0.991688184081,1.66347695394,403.
8.16,6959.,38.,19.,3018.,0.,0.,10034.,0.957499392957,1.3102623272,494.
8.18,6950.,25.,28.,3030.,0.,0.,10033.,0.921688845712,1.91711279908,325.
8.2,6928.,30.,27.,3047.,0.,0.,10032.,0.882192781462,1.52913415453,390.
8.22,6907.,43.,17.,3068.,0.,0.,10035.,0.841182346978,1.01724376844,559.
8.24,6891.,38.,22.,3087.,0.,0.,10038.,0.800086504477,1.09485521665,494.
8.26,6861.,42.,27.,3102.,0.,0.,10032.,0.758021514791,0.938502827836,546.
8.28,6845.,50.,10.,3128.,0.,0.,10033.,0.717522374464,0.746223269443,650.
8.3,6844.,30.,19.,3138.,0.,0.,10031.,0.679819405009,1.17835363535,390.
8.32,6841.,23.,15.,3151.,0.,0.,10030.,0.643372362513,1.45458099351,299.
8.34,6833.,24.,11.,3160.,0.,0.,10028.,0.608647237577,1.31873568142,312.
8.36,6833.,20.,12.,3161.,0.,0.,10026.,0.5772799888,1.50092797088,260.
8.38,6832.,15.,10.,3167.,0.,0.,10024.,0.548936149744,1.90297865245,195.
8.4,6839.,10.,8.,3168.,0.,0.,10025.,0.524609611402,2.72796997929,130.
8.42,6841.,8.,8.,3170.,0.,0.,10027.,0.503780504625,3.27457328006,104.
8.44,6847.,8.,8.,3162.,0.,0.,10025.,0.487715098888,3.17014814277,104.
8.46,6849.,6.,7.,3161.,0.,0.,10023.,0.475895536642,4.12442798423,78.
8.48,6851.,5.,3.,3163.,0.,0.,10022.,0.468766593001,4.87517256721,65.
8.5,6854.,6.,3.,3156.,0.,0.,10019.,0.466659122646,4.04437906293,78.
8.52,6860.,3.,5.,3151.,0.,0.,10019.,0.469522948495,8.13839777391,39.
8.54,6864.,3.,0.,3149.,0.,0.,10016.,0.477271118951,8.27269939514,39.
8.56,6873.,1.,0.,3142.,0.,0.,10016.,0.490006997908,25.4803638912,13.
8.58,6880.,2.,0.,3131.,0.,0.,10013.,0.507360910056,13.1913836615,26.
8.6,6884.,1.,1.,3123.,0.,0.,10009.,0.528905633753,27.5030929551,13.
8.62,6887.,0.,0.,3122.,0.,0.,10009.,0.554184565144,inf,0.
8.64,6891.,1.,0.,3115.,0.,0.,10007.,0.583285436104,30.3308426774,13.
8.66,6902.,1.,0.,3104.,0.,0.,10007.,0.616083552988,32.0363447554,13.
8.68,6917.,1.,0.,3094.,0.,0.,10012.,0.651689431737,33.8878504503,13.
8.7,6921.,0.,1.,3088.,0.,0.,10010.,0.688910110255,inf,0.
8.72,6923.,0.,1.,3088.,0.,0.,10012.,0.72722081097,inf,0.
8.74,6929.,2.,0.,3081.,0.,0.,10012.,0.767063569108,19.9436527968,26.
8.76,6929.,5.,0.,3075.,0.,0.,10009.,0.806829480691,8.39102659919,65.
8.78,6934.,2.,3.,3068.,0.,0.,10007.,0.846833457831,22.0176699036,26.
8.8,6935.,4.,1.,3067.,0.,0.,10007.,0.885290308569,11.5087740114,52.
8.82,6940.,4.,2.,3057.,0.,0.,10003.,0.923122934656,12.0005981505,52.
8.84,6941.,7.,5.,3054.,0.,0.,10007.,0.957599503266,7.11359630998,91.
8.86,6944.,5.,7.,3054.,0.,0.,10010.,0.989777610052,10.2936871445,65.
8.88,6951.,3.,5.,3054.,0.,0.,10013.,1.01937898335,17.6692357113,39.
8.9,6959.,6.,2.,3051.,0.,0.,10018.,1.04533040914,9.05953021255,78.
8.92,6965.,4.,4.,3046.,0.,0.,10019.,1.06740051947,13.8762067531,52.
8.94,6969.,6.,3.,3041.,0.,0.,10019.,1.08492741653,9.40270427662,78.
8.96,6977.,9.,3.,3032.,0.,0.,10021.,1.09824326824,6.34540554985,117.
8.98,6980.,12.,2.,3028.,0.,0.,10022.,1.10605902021,4.79292242091,156.
9.,6986.,13.,6.,3019.,0.,0.,10024.,1.10928807765,4.43715231058,169.
9.02,6984.,13.,8.,3019.,0.,0.,10024.,1.10647205629,4.42588822515,169.
9.04,6981.,21.,3.,3022.,0.,0.,10027.,1.09821535627,2.719390406,273.
9.06,6976.,19.,8.,3024.,0.,0.,10027.,1.08515069575,2.96988611467,247.
9.08,6968.,24.,15.,3019.,0.,0.,10026.,1.06711471189,2.31208187577,312.
9.1,6951.,36.,9.,3029.,0.,0.,10025.,1.04339963985,1.50713281312,468.
9.12,6943.,35.,18.,3028.,0.,0.,10024.,1.01708842156,1.51110279775,455.
9.14,6928.,37.,10.,3053.,0.,0.,10028.,0.98572448494,1.38534251937,481.
9.16,6926.,37.,11.,3056.,0.,0.,10030.,0.953338916191,1.339827666,481.
9.18,6922.,31.,15.,3061.,0.,0.,10029.,0.918341695363,1.54044413416,403.
9.2,6908.,37.,20.,3066.,0.,0.,10031.,0.879733728313,1.23638253709,481.
9.22,6901.,32.,13.,3085.,0.,0.,10031.,0.84078676709,1.36627849652,416.
9.24,6892.,30.,18.,3095.,0.,0.,10035.,0.800441833986,1.38743251224,390.
9.26,6901.,31.,16.,3095.,0.,0.,10043.,0.761605727102,1.2775321874,403.
9.28,6896.,34.,9.,3102.,0.,0.,10041.,0.722292480665,1.10468261749,442.
9.3,6892.,30.,9.,3105.,0.,0.,10036.,0.684246213467,1.18602677001,390.
9.32,6894.,22.,12.,3107.,0.,0.,10035.,0.648033781249,1.53171621023,286.
9.34,6892.,21.,5.,3113.,0.,0.,10031.,0.61371904163,1.51968524594,273.
9.36,6888.,14.,13.,3114.,0.,0.,10029.,0.581752542202,2.16079515675,182.
9.38,6883.,17.,7.,3121.,0.,0.,10028.,0.552813291509,1.69095830344,221.
9.4,6886.,9.,8.,3122.,0.,0.,10025.,0.528214912138,3.05190838124,117.
9.42,6886.,12.,6.,3121.,0.,0.,10025.,0.507195531526,2.19784730328,156.
9.44,6885.,11.,7.,3119.,0.,0.,10022.,0.49056866073,2.31905185072,143.
9.46,6894.,9.,1.,3120.,0.,0.,10024.,0.478974526608,2.76740837596,117.
9.48,6895.,4.,5.,3118.,0.,0.,10022.,0.471777208983,6.13310371677,52.
9.5,6900.,8.,4.,3113.,0.,0.,10025.,0.469509891358,3.05181429383,104.
9.52,6905.,4.,5.,3111.,0.,0.,10025.,0.472320054918,6.14016071393,52.
9.54,6915.,1.,0.,3108.,0.,0.,10024.,0.480433543878,24.9825442816,13.
9.56,6919.,1.,0.,3102.,0.,0.,10022.,0.492991222017,25.6355435449,13.
9.58,6926.,1.,1.,3097.,0.,0.,10025.,0.510141773359,26.5273722147,13.
9.6,6932.,0.,2.,3090.,0.,0.,10024.,0.531796551385,inf,0.
9.62,6934.,0.,0.,3088.,0.,0.,10022.,0.557242806773,inf,0.
9.64,6940.,2.,0.,3079.,0.,0.,10021.,0.586612335139,15.2519207136,26.
9.66,6948.,3.,0.,3072.,0.,0.,10023.,0.619199560242,10.7327923775,39.
9.68,6950.,6.,0.,3068.,0.,0.,10024.,0.654014670189,5.66812714164,78.
9.7,6955.,4.,2.,3065.,0.,0.,10026.,0.691189641024,8.98546533331,52.
9.72,6960.,1.,1.,3065.,0.,0.,10027.,0.730013737221,37.9607143355,13.
9.74,6967.,0.,2.,3060.,0.,0.,10029.,0.769962928583,inf,0.
9.76,6976.,1.,0.,3051.,0.,0.,10028.,0.81076320917,42.1596868768,13.
9.78,6979.,1.,0.,3043.,0.,0.,10023.,0.850968606887,44.2503675581,13.
9.8,6986.,2.,1.,3034.,0.,0.,10023.,0.890377127895,23.1498053253,26.
9.82,6991.,5.,2.,3024.,0.,0.,10022.,0.928143746857,9.65269496731,65.
9.84,6992.,4.,3.,3020.,0.,0.,10019.,0.963480236398,12.5252430732,52.
9.86,6997.,5.,2.,3011.,0.,0.,10015.,0.996834157099,10.3670752338,65.
9.88,7002.,7.,0.,3005.,0.,0.,10014.,1.02675569991,7.62732805651,91.
9.9,7008.,6.,1.,2999.,0.,0.,10014.,1.05311132071,9.12696477948,78.
9.92,7012.,6.,3.,2997.,0.,0.,10018.,1.07471063302,9.3141588195,78.
9.94,7009.,9.,7.,2992.,0.,0.,10017.,1.09137243976,6.30570742971,117.
9.96,7004.,19.,5.,2993.,0.,0.,10021.,1.10249331386,3.01735012213,247.
9.98,6994.,18.,5.,3000.,0.,0.,10017.,1.108830675,3.20328861666,234.
10.,6989.,15.,10.,3003.,0.,0.,10017.,1.11053995627,3.84987184842,195.
