t,cases
5.01,2.145
5.02,2.145
5.03,2.47
5.04,2.47
5.05,2.86
5.06,2.86
5.07,2.99
5.08,2.99
5.09,3.12
5.1,3.12
5.11,2.99
5.12,2.99
5.13,2.86
5.14,2.86
5.15,3.835
5.16,3.835
5.17,4.875
5.18,4.875
5.19,4.81
5.2,4.81
5.21,3.9
5.22,3.9
5.23,3.575
5.24,3.575
5.25,3.64
5.26,3.64
5.27,3.705
5.28,3.705
5.29,3.575
5.3,3.575
5.31,3.185
5.32,3.185
5.33,2.73
5.34,2.73
5.35,2.275
5.36,2.275
5.37,2.015
5.38,2.015
5.39,1.95
5.4,1.95
5.41,1.82
5.42,1.82
5.43,1.43
5.44,1.43
5.45,1.04
5.46,1.04
5.47,0.65
5.48,0.65
5.49,0.52
5.5,0.52
5.51,0.52
5.52,0.52
5.53,0.325
5.54,0.325
5.55,0.195
5.56,0.195
5.57,0.26
5.58,0.26
5.59,0.325
5.6,0.325
5.61,0.195
5.62,0.195
5.63,0.13
5.64,0.13
5.65,0.195
5.66,0.195
5.67,0.195
5.68,0.195
5.69,0.065
5.7,0.065
5.71,0.
5.72,0.
5.73,0.
5.74,0.
5.75,0.
5.76,0.
5.77,0.065
5.78,0.065
5.79,0.13
5.8,0.13
5.81,0.195
5.82,0.195
5.83,0.26
5.84,0.26
5.85,0.26
5.86,0.26
5.87,0.39
5.88,0.39
5.89,0.585
5.9,0.585
5.91,0.845
5.92,0.845
5.93,0.845
5.94,0.845
5.95,1.04
5.96,1.04
5.97,1.43
5.98,1.43
5.99,1.235
6.,1.235
6.01,1.235
6.02,1.235
6.03,1.755
6.04,1.755
6.05,2.535
6.06,2.535
6.07,2.795
6.08,2.795
6.09,2.795
6.1,2.795
6.11,3.51
6.12,3.51
6.13,3.835
6.14,3.835
6.15,3.64
6.16,3.64
6.17,4.095
6.18,4.095
6.19,4.94
6.2,4.94
6.21,3.9
6.22,3.9
6.23,3.12
6.24,3.12
6.25,3.965
6.26,3.965
6.27,4.29
6.28,4.29
6.29,4.485
6.3,4.485
6.31,4.03
6.32,4.03
6.33,2.925
6.34,2.925
6.35,2.21
6.36,2.21
6.37,1.495
6.38,1.495
6.39,1.235
6.4,1.235
6.41,1.3
6.42,1.3
6.43,1.105
6.44,1.105
6.45,1.105
6.46,1.105
6.47,0.91
6.48,0.91
6.49,0.585
6.5,0.585
6.51,0.39
6.52,0.39
6.53,0.325
6.54,0.325
6.55,0.13
6.56,0.13
6.57,0.
6.58,0.
6.59,0.
6.6,0.
6.61,0.
6.62,0.
6.63,0.
6.64,0.
6.65,0.
6.66,0.
6.67,0.065
6.68,0.065
6.69,0.13
6.7,0.13
6.71,0.13
6.72,0.13
6.73,0.13
6.74,0.13
6.75,0.195
6.76,0.195
6.77,0.26
6.78,0.26
6.79,0.195
6.8,0.195
6.81,0.195
6.82,0.195
6.83,0.13
6.84,0.13
6.85,0.52
6.86,0.52
6.87,1.235
6.88,1.235
6.89,1.3
6.9,1.3
6.91,1.43
6.92,1.43
6.93,1.495
6.94,1.495
6.95,1.3
6.96,1.3
6.97,1.43
6.98,1.43
6.99,1.82
7.,1.82
7.01,2.015
7.02,2.015
7.03,2.015
7.04,2.015
7.05,2.405
7.06,2.405
7.07,2.47
7.08,2.47
7.09,3.25
7.1,3.25
7.11,3.77
7.12,3.77
7.13,3.575
7.14,3.575
7.15,4.29
7.16,4.29
7.17,4.16
7.18,4.16
7.19,3.64
7.2,3.64
7.21,3.51
7.22,3.51
7.23,2.99
7.24,2.99
7.25,2.665
7.26,2.665
7.27,3.575
7.28,3.575
7.29,3.9
7.3,3.9
7.31,2.99
7.32,2.99
7.33,2.405
7.34,2.405
7.35,2.145
7.36,2.145
7.37,1.69
7.38,1.69
7.39,1.56
7.4,1.56
7.41,1.495
7.42,1.495
7.43,0.975
7.44,0.975
7.45,0.585
7.46,0.585
7.47,0.52
7.48,0.52
7.49,0.715
7.5,0.715
7.51,0.65
7.52,0.65
7.53,0.325
7.54,0.325
7.55,0.065
7.56,0.065
7.57,0.
7.58,0.
7.59,0.
7.6,0.
7.61,0.065
7.62,0.065
7.63,0.13
7.64,0.13
7.65,0.13
7.66,0.13
7.67,0.195
7.68,0.195
7.69,0.26
7.7,0.26
7.71,0.195
7.72,0.195
7.73,0.13
7.74,0.13
7.75,0.13
7.76,0.13
7.77,0.13
7.78,0.13
7.79,0.195
7.8,0.195
7.81,0.195
7.82,0.195
7.83,0.26
7.84,0.26
7.85,0.52
7.86,0.52
7.87,0.65
7.88,0.65
7.89,0.975
7.9,0.975
7.91,1.365
7.92,1.365
7.93,1.69
7.94,1.69
7.95,1.56
7.96,1.56
7.97,1.625
7.98,1.625
7.99,1.82
8.,1.82
8.01,2.145
8.02,2.145
8.03,3.185
8.04,3.185
8.05,3.38
8.06,3.38
8.07,3.835
8.08,3.835
8.09,4.615
8.1,4.615
8.11,4.03
8.12,4.03
8.13,3.64
8.14,3.64
8.15,4.55
8.16,4.55
8.17,5.395
8.18,5.395
8.19,5.72
8.2,5.72
8.21,5.525
8.22,5.525
8.23,5.07
8.24,5.07
8.25,4.745
8.26,4.745
8.27,4.94
8.28,4.94
8.29,4.55
8.3,4.55
8.31,3.38
8.32,3.38
8.33,2.86
8.34,2.86
8.35,2.21
8.36,2.21
8.37,1.82
8.38,1.82
8.39,1.885
8.4,1.885
8.41,1.56
8.42,1.56
8.43,1.235
8.44,1.235
8.45,1.04
8.46,1.04
8.47,0.78
8.48,0.78
8.49,0.52
8.5,0.52
8.51,0.325
8.52,0.325
8.53,0.13
8.54,0.13
8.55,0.
8.56,0.
8.57,0.0650000000001
8.58,0.0649999999999
8.59,0.13
8.6,0.13
8.61,0.13
8.62,0.13
8.63,0.13
8.64,0.13
8.65,0.13
8.66,0.13
8.67,0.13
8.68,0.13
8.69,0.195
8.7,0.195
8.71,0.195
8.72,0.195
8.73,0.13
8.74,0.13
8.75,0.13
8.76,0.13
8.77,0.13
8.78,0.13
8.79,0.13
8.8,0.13
8.81,0.26
8.82,0.26
8.83,0.585
8.84,0.585
8.85,0.845
8.86,0.845
8.87,1.04
8.88,1.04
8.89,0.975
8.9,0.975
8.91,0.715
8.92,0.715
8.93,0.845
8.94,0.845
8.95,1.17
8.96,1.17
8.97,1.235
8.98,1.235
8.99,1.365
9.,1.365
9.01,1.625
9.02,1.625
9.03,1.885
9.04,1.885
9.05,1.885
9.06,1.885
9.07,2.34
9.08,2.34
9.09,3.705
9.1,3.705
9.11,4.42
9.12,4.42
9.13,4.03
9.14,4.03
9.15,3.77
9.16,3.77
9.17,3.965
9.18,3.965
9.19,3.64
9.2,3.64
9.21,3.575
9.22,3.575
9.23,3.77
9.24,3.77
9.25,3.705
9.26,3.705
9.27,3.965
9.28,3.965
9.29,3.705
9.3,3.705
9.31,3.38
9.32,3.38
9.33,2.795
9.34,2.795
9.35,1.885
9.36,1.885
9.37,1.625
9.38,1.625
9.39,1.495
9.4,1.495
9.41,1.755
9.42,1.755
9.43,1.82
9.44,1.82
9.45,1.3
9.46,1.3
9.47,0.975
9.48,0.975
9.49,0.65
9.5,0.65
9.51,0.325
9.52,0.325
9.53,0.13
9.54,0.13
9.55,0.
9.56,0.
9.57,0.
9.58,0.
9.59,0.
9.6,0.
9.61,0.
9.62,0.
9.63,0.
9.64,0.
9.65,0.
9.66,0.
9.67,0.0649999999999
9.68,0.0650000000001
9.69,0.13
9.7,0.13
9.71,0.0650000000001
9.72,0.0649999999999
9.73,0.
9.74,0.
9.75,0.
9.76,0.
9.77,0.
9.78,0.
9.79,0.
9.8,0.
9.81,0.195
9.82,0.195
9.83,0.39
9.84,0.39
9.85,0.715
9.86,0.715
9.87,0.975
9.88,0.975
9.89,1.365
9.9,1.365
9.91,1.82
9.92,1.82
9.93,1.82
9.94,1.82
9.95,1.82
9.96,1.82
9.97,2.21
9.98,2.21
9.99,2.6
10.,2.6
