t,prevalence
5.,2
5.02,6
5.04,1
5.06,6
5.08,4
5.1,8
5.12,11
5.14,11
5.16,10
5.18,9
5.2,15
5.22,9
5.24,9
5.26,6
5.28,9
5.3,10
5.32,8
5.34,8
5.36,5
5.38,5
5.4,5
5.42,3
5.44,3
5.46,0
5.48,2
5.5,1
5.52,0
5.54,0
5.56,1
5.58,0
5.6,0
5.62,0
5.64,0
5.66,0
5.68,0
5.7,0
5.72,0
5.74,0
5.76,1
5.78,0
5.8,0
5.82,0
5.84,1
5.86,0
5.88,0
5.9,3
5.92,3
5.94,2
5.96,3
5.98,4
6.,2
6.02,3
6.04,5
6.06,5
6.08,4
6.1,5
6.12,9
6.14,11
6.16,7
6.18,7
6.2,8
6.22,7
6.24,9
6.26,8
6.28,7
6.3,3
6.32,5
6.34,5
6.36,6
6.38,4
6.4,5
6.42,6
6.44,3
6.46,1
6.48,1
6.5,1
6.52,0
6.54,2
6.56,0
6.58,0
6.6,1
6.62,1
6.64,1
6.66,0
6.68,1
6.7,0
6.72,0
6.74,0
6.76,1
6.78,0
6.8,0
6.82,0
6.84,0
6.86,1
6.88,2
6.9,2
6.92,1
6.94,4
6.96,0
6.98,2
7.,5
7.02,4
7.04,3
7.06,2
7.08,10
7.1,9
7.12,9
7.14,9
7.16,10
7.18,10
7.2,12
7.22,8
7.24,5
7.26,5
7.28,4
7.3,3
7.32,5
7.34,3
7.36,8
7.38,5
7.4,4
7.42,3
7.44,3
7.46,1
7.48,1
7.5,0
7.52,0
7.54,0
7.56,1
7.58,0
7.6,0
7.62,0
7.64,0
7.66,0
7.68,0
7.7,0
7.72,0
7.74,1
7.76,1
7.78,0
7.8,3
7.82,2
7.84,3
7.86,1
7.88,0
7.9,1
7.92,3
7.94,2
7.96,3
7.98,2
8.,5
8.02,3
8.04,7
8.06,6
8.08,10
8.1,8
8.12,8
8.14,8
8.16,13
8.18,9
8.2,7
8.22,11
8.24,14
8.26,12
8.28,9
8.3,8
8.32,3
8.34,4
8.36,6
8.38,5
8.4,4
8.42,5
8.44,4
8.46,5
8.48,1
8.5,2
8.52,1
8.54,0
8.56,0
8.58,0
8.6,0
8.62,0
8.64,1
8.66,0
8.68,0
8.7,0
8.72,0
8.74,0
8.76,0
8.78,1
8.8,0
8.82,0
8.84,2
8.86,1
8.88,1
8.9,7
8.92,0
8.94,3
8.96,2
8.98,2
9.,2
9.02,8
9.04,8
9.06,2
9.08,5
9.1,4
9.12,7
9.14,10
9.16,9
9.18,9
9.2,8
9.22,11
9.24,6
9.26,8
9.28,5
9.3,4
9.32,2
9.34,3
9.36,5
9.38,2
9.4,3
9.42,1
9.44,0
9.46,3
9.48,0
9.5,2
9.52,0
9.54,2
9.56,1
9.58,1
9.6,1
9.62,0
9.64,0
9.66,0
9.68,0
9.7,0
9.72,0
9.74,0
9.76,0
9.78,1
9.8,0
9.82,0
9.84,1
9.86,1
9.88,4
9.9,2
9.92,2
9.94,2
9.96,4
9.98,4
10.,2
