t,s,e,i,r,c,o,n,reff,coal,reportr
5.,5768.,4.,26.,4205.,0.,0.,10003.,1.12378343727,14.6091846845,52.
5.02,5750.,21.,8.,4221.,0.,0.,10000.,1.11808789209,2.76859858992,273.
5.04,5754.,21.,5.,4223.,0.,0.,10003.,1.11099294195,2.75103014197,273.
5.06,5752.,20.,15.,4216.,0.,0.,10003.,1.0981812562,2.85527126613,260.
5.08,5757.,24.,16.,4207.,0.,0.,10004.,1.08189231073,2.34410000659,312.
5.1,5742.,33.,12.,4219.,0.,0.,10006.,1.05735612887,1.66613693034,429.
5.12,5740.,30.,15.,4220.,0.,0.,10005.,1.03152135803,1.78797035392,390.
5.14,5734.,31.,12.,4231.,0.,0.,10008.,1.00092884416,1.67897741601,403.
5.16,5737.,26.,18.,4227.,0.,0.,10008.,0.969023128385,1.93804625677,338.
5.18,5719.,35.,19.,4229.,0.,0.,10002.,0.931524770321,1.38397965876,455.
5.2,5708.,31.,15.,4243.,0.,0.,9997.,0.893075630283,1.49806234757,403.
5.22,5708.,29.,19.,4242.,0.,0.,9998.,0.854318330809,1.5318811449,377.
5.24,5701.,29.,19.,4246.,0.,0.,9995.,0.813956041571,1.45950738489,377.
5.26,5690.,34.,20.,4253.,0.,0.,9997.,0.772422707995,1.18135237693,442.
5.28,5690.,36.,17.,4259.,0.,0.,10002.,0.732569859446,1.05815646364,468.
5.3,5691.,32.,16.,4265.,0.,0.,10004.,0.694022437511,1.12778646096,416.
5.32,5687.,37.,12.,4268.,0.,0.,10004.,0.656574649907,0.922753562032,481.
5.34,5685.,27.,16.,4275.,0.,0.,10003.,0.621583649691,1.19712406607,351.
5.36,5677.,31.,6.,4288.,0.,0.,10002.,0.588661521718,0.987432229978,403.
5.38,5675.,25.,8.,4294.,0.,0.,10002.,0.559531923645,1.16382640118,325.
5.4,5682.,13.,15.,4291.,0.,0.,10001.,0.534954253283,2.13981701313,169.
5.42,5692.,14.,1.,4298.,0.,0.,10005.,0.514364991505,1.91049853987,182.
5.44,5698.,8.,5.,4292.,0.,0.,10003.,0.498050353284,3.23732729635,104.
5.46,5707.,8.,2.,4286.,0.,0.,10003.,0.486508711954,3.1623066277,104.
5.48,5713.,6.,4.,4280.,0.,0.,10003.,0.47953671297,4.15598484574,78.
5.5,5716.,4.,0.,4280.,0.,0.,10000.,0.477422715818,6.20649530564,52.
5.52,5725.,2.,2.,4268.,0.,0.,9997.,0.480832379603,12.5016418697,26.
5.54,5734.,1.,1.,4259.,0.,0.,9995.,0.489201644213,25.4384854991,13.
5.56,5743.,0.,1.,4251.,0.,0.,9995.,0.502385497745,inf,0.
5.58,5750.,2.,0.,4241.,0.,0.,9993.,0.520230201285,13.5259852334,26.
5.6,5759.,3.,0.,4229.,0.,0.,9991.,0.542746413484,9.40760450039,39.
5.62,5769.,2.,1.,4221.,0.,0.,9993.,0.569312219953,14.8021177188,26.
5.64,5777.,0.,0.,4212.,0.,0.,9989.,0.599810355154,inf,0.
5.66,5791.,0.,0.,4200.,0.,0.,9991.,0.633933916539,inf,0.
5.68,5806.,0.,0.,4191.,0.,0.,9997.,0.670782779819,inf,0.
5.7,5812.,0.,0.,4182.,0.,0.,9994.,0.70948769757,inf,0.
5.72,5828.,2.,0.,4165.,0.,0.,9995.,0.75086243021,19.5224231855,26.
5.74,5837.,0.,3.,4156.,0.,0.,9996.,0.792457362059,inf,0.
5.76,5847.,0.,1.,4151.,0.,0.,9999.,0.834467129326,inf,0.
5.78,5855.,0.,1.,4144.,0.,0.,10000.,0.876144607589,inf,0.
5.8,5866.,2.,0.,4131.,0.,0.,9999.,0.917612786637,23.8579324526,26.
5.82,5874.,4.,0.,4119.,0.,0.,9997.,0.957250080456,12.4442510459,52.
5.84,5886.,1.,2.,4107.,0.,0.,9996.,0.995383872528,51.7599613715,13.
5.86,5896.,6.,0.,4093.,0.,0.,9995.,1.03054625435,8.93140087107,78.
5.88,5901.,4.,5.,4082.,0.,0.,9992.,1.06183396848,13.8038415903,52.
5.9,5905.,5.,5.,4077.,0.,0.,9992.,1.08889517635,11.3245098341,65.
5.92,5906.,11.,1.,4072.,0.,0.,9990.,1.11144875109,5.25412136881,143.
5.94,5911.,9.,3.,4066.,0.,0.,9989.,1.13011948927,6.52957927134,117.
5.96,5918.,9.,6.,4056.,0.,0.,9989.,1.14425984804,6.611279122,117.
5.98,5925.,10.,4.,4055.,0.,0.,9994.,1.15280833902,5.99460336291,130.
6.,5926.,15.,3.,4050.,0.,0.,9994.,1.15560642063,4.00610225817,195.
6.02,5921.,16.,7.,4050.,0.,0.,9994.,1.15203007179,3.74409773331,208.
6.04,5931.,18.,9.,4039.,0.,0.,9997.,1.14585573594,3.31024990384,234.
6.06,5921.,25.,10.,4039.,0.,0.,9995.,1.13135182288,2.35321179159,325.
6.08,5909.,28.,12.,4044.,0.,0.,9993.,1.11167948271,2.06454761074,364.
6.1,5901.,32.,14.,4048.,0.,0.,9995.,1.08783095685,1.76772530488,416.
6.12,5896.,35.,13.,4051.,0.,0.,9995.,1.06061582218,1.57577207867,455.
6.14,5893.,30.,21.,4050.,0.,0.,9994.,1.03012495631,1.78554992427,390.
6.16,5884.,35.,15.,4062.,0.,0.,9996.,0.995045651708,1.47835353968,455.
6.18,5882.,27.,27.,4060.,0.,0.,9996.,0.958649685573,1.84628828333,351.
6.2,5866.,35.,13.,4081.,0.,0.,9995.,0.917980015366,1.36385602283,455.
6.22,5856.,25.,27.,4089.,0.,0.,9997.,0.876557215165,1.82323900754,325.
6.24,5848.,34.,15.,4103.,0.,0.,10000.,0.834526385483,1.27633447192,442.
6.26,5839.,32.,16.,4113.,0.,0.,10000.,0.792411799494,1.28766917418,416.
6.28,5841.,27.,17.,4120.,0.,0.,10005.,0.751785150858,1.44788251276,351.
6.3,5842.,22.,16.,4127.,0.,0.,10007.,0.712223438247,1.68343721767,286.
6.32,5829.,26.,19.,4130.,0.,0.,10004.,0.672968812082,1.34593762416,338.
6.34,5821.,29.,15.,4137.,0.,0.,10002.,0.636517181415,1.14134115288,377.
6.36,5818.,20.,17.,4149.,0.,0.,10004.,0.603161536143,1.56821999397,260.
6.38,5818.,19.,16.,4152.,0.,0.,10005.,0.57345913882,1.56946711677,247.
6.4,5822.,13.,6.,4163.,0.,0.,10004.,0.547970729515,2.19188291806,169.
6.42,5825.,15.,0.,4164.,0.,0.,10004.,0.526436327007,1.82497926696,195.
6.44,5830.,9.,2.,4164.,0.,0.,10005.,0.5094863326,2.94369881058,117.
6.46,5834.,6.,3.,4161.,0.,0.,10004.,0.497285458182,4.30980730425,78.
6.48,5839.,3.,6.,4148.,0.,0.,9996.,0.490456093429,8.50123895276,39.
6.5,5837.,5.,0.,4147.,0.,0.,9989.,0.488065982488,5.07588621788,65.
6.52,5848.,5.,0.,4140.,0.,0.,9993.,0.491359529591,5.11013910775,65.
6.54,5859.,3.,1.,4133.,0.,0.,9996.,0.499816131061,8.66347960507,39.
6.56,5867.,2.,2.,4126.,0.,0.,9997.,0.513130078221,13.3413820337,26.
6.58,5879.,0.,0.,4121.,0.,0.,10000.,0.531529121741,inf,0.
6.6,5891.,0.,0.,4109.,0.,0.,10000.,0.554686844005,inf,0.
6.62,5903.,0.,0.,4100.,0.,0.,10003.,0.5819536128,inf,0.
6.64,5910.,1.,0.,4091.,0.,0.,10002.,0.612821841351,31.8667357503,13.
6.66,5923.,0.,1.,4079.,0.,0.,10003.,0.647605973109,inf,0.
6.68,5937.,0.,0.,4066.,0.,0.,10003.,0.685506134686,inf,0.
6.7,5943.,0.,0.,4062.,0.,0.,10005.,0.724681619174,inf,0.
6.72,5952.,1.,0.,4055.,0.,0.,10008.,0.765842133777,39.8237909564,13.
6.74,5958.,1.,1.,4050.,0.,0.,10010.,0.807753558548,42.0031850445,13.
6.76,5969.,1.,2.,4039.,0.,0.,10011.,0.85085748955,44.2445894566,13.
6.78,5972.,1.,1.,4034.,0.,0.,10008.,0.892938185152,46.4327856279,13.
6.8,5979.,0.,2.,4026.,0.,0.,10007.,0.934541560869,inf,0.
6.82,5987.,0.,0.,4016.,0.,0.,10003.,0.975079780258,inf,0.
6.84,5991.,2.,0.,4006.,0.,0.,9999.,1.01283649303,26.3337488187,26.
6.86,5992.,6.,0.,4001.,0.,0.,9999.,1.04690686835,9.07319285905,78.
6.88,5993.,5.,2.,3998.,0.,0.,9998.,1.07774141107,11.2085106752,65.
6.9,5990.,10.,2.,3991.,0.,0.,9993.,1.10445883171,5.74318592489,130.
6.92,5995.,4.,4.,3989.,0.,0.,9992.,1.12797181998,14.6636336597,52.
6.94,6000.,9.,2.,3983.,0.,0.,9994.,1.14656141799,6.6245770817,117.
6.96,6001.,11.,5.,3978.,0.,0.,9995.,1.15961156895,5.48180014411,143.
6.98,6008.,17.,4.,3969.,0.,0.,9998.,1.16848970762,3.57420381154,221.
7.,6014.,14.,8.,3961.,0.,0.,9997.,1.1724150258,4.35468438153,182.
7.02,6012.,19.,10.,3958.,0.,0.,9999.,1.16915072502,3.19978093164,247.
7.04,5999.,27.,11.,3960.,0.,0.,9997.,1.15899318158,2.23213501637,351.
7.06,5999.,28.,11.,3960.,0.,0.,9998.,1.14591168456,2.12812169989,364.
7.08,5990.,27.,12.,3970.,0.,0.,9999.,1.12624205886,2.16905878002,351.
7.1,5980.,35.,12.,3974.,0.,0.,10001.,1.10173299013,1.63686044248,455.
7.12,5977.,30.,17.,3975.,0.,0.,9999.,1.07475657993,1.86291140521,390.
7.14,5971.,25.,29.,3974.,0.,0.,9999.,1.04323780222,2.16993462863,325.
7.16,5948.,39.,20.,3992.,0.,0.,9999.,1.00556692715,1.34075590286,507.
7.18,5925.,48.,24.,4001.,0.,0.,9998.,0.965464665062,1.04592005382,624.
7.2,5917.,43.,11.,4027.,0.,0.,9998.,0.92568324559,1.11943090164,559.
7.22,5902.,43.,12.,4036.,0.,0.,9993.,0.883796364371,1.06877699877,559.
7.24,5900.,29.,21.,4041.,0.,0.,9991.,0.842705369571,1.51105790406,377.
7.26,5890.,30.,17.,4053.,0.,0.,9990.,0.800133152338,1.38689746405,390.
7.28,5882.,33.,8.,4064.,0.,0.,9987.,0.758426676726,1.19509658151,429.
7.3,5883.,26.,16.,4062.,0.,0.,9987.,0.718658236287,1.43731647257,338.
7.32,5882.,24.,10.,4074.,0.,0.,9990.,0.680039434474,1.47341877469,312.
7.34,5883.,20.,21.,4069.,0.,0.,9993.,0.643876156426,1.67407800671,260.
7.36,5888.,18.,11.,4076.,0.,0.,9993.,0.611090480913,1.76537250042,234.
7.38,5888.,13.,8.,4081.,0.,0.,9990.,0.581230194285,2.32492077714,169.
7.4,5889.,9.,7.,4084.,0.,0.,9989.,0.555109147366,3.20729729589,117.
7.42,5897.,9.,4.,4083.,0.,0.,9993.,0.533529999475,3.08261777474,117.
7.44,5903.,7.,3.,4078.,0.,0.,9991.,0.51658869831,3.83751604459,91.
7.46,5917.,5.,1.,4067.,0.,0.,9990.,0.505067122537,5.25269807438,65.
7.48,5925.,6.,0.,4061.,0.,0.,9992.,0.497879031539,4.31495160667,78.
7.5,5933.,4.,2.,4054.,0.,0.,9993.,0.495894532217,6.44662891882,52.
7.52,5938.,2.,3.,4050.,0.,0.,9993.,0.498921492256,12.9719587986,26.
7.54,5941.,2.,0.,4049.,0.,0.,9992.,0.507014225749,13.1823698695,26.
7.56,5960.,0.,2.,4032.,0.,0.,9994.,0.521420367069,inf,0.
7.58,5968.,1.,0.,4025.,0.,0.,9994.,0.539899683737,28.0747835543,13.
7.6,5983.,0.,1.,4014.,0.,0.,9998.,0.563462104691,inf,0.
7.62,5989.,1.,0.,4009.,0.,0.,9999.,0.590668211851,30.7147470163,13.
7.64,5998.,2.,0.,4004.,0.,0.,10004.,0.62182242932,16.1673831623,26.
7.66,6007.,1.,1.,3993.,0.,0.,10002.,0.656855988449,34.1565113993,13.
7.68,6015.,1.,0.,3988.,0.,0.,10004.,0.694442855494,36.1110284857,13.
7.7,6026.,1.,0.,3977.,0.,0.,10004.,0.7348759811,38.2135510172,13.
7.72,6031.,0.,1.,3970.,0.,0.,10002.,0.776472552253,inf,0.
7.74,6042.,1.,0.,3963.,0.,0.,10006.,0.819469286495,42.6124028978,13.
7.76,6051.,3.,1.,3953.,0.,0.,10008.,0.862804824294,14.9552836211,39.
7.78,6060.,1.,1.,3947.,0.,0.,10009.,0.906005486947,47.1122853213,13.
7.8,6070.,2.,0.,3940.,0.,0.,10012.,0.948291409995,24.6555766599,26.
7.82,6085.,3.,1.,3920.,0.,0.,10009.,0.990446575534,17.1677406426,39.
7.84,6090.,5.,3.,3910.,0.,0.,10008.,1.02864752516,10.6979342617,65.
7.86,6093.,7.,2.,3906.,0.,0.,10008.,1.06359599712,7.90099883574,91.
7.88,6096.,8.,2.,3904.,0.,0.,10010.,1.09495004571,7.11717529713,104.
7.9,6103.,8.,2.,3891.,0.,0.,10004.,1.12405686996,7.30636965476,104.
7.92,6103.,6.,7.,3887.,0.,0.,10003.,1.14702950378,9.9409223661,78.
7.94,6105.,9.,10.,3879.,0.,0.,10003.,1.16557659408,6.73444254355,117.
7.96,6099.,14.,8.,3880.,0.,0.,10001.,1.17784167651,4.37484051275,182.
7.98,6098.,16.,10.,3876.,0.,0.,10000.,1.18575651581,3.8537086764,208.
8.,6101.,14.,15.,3871.,0.,0.,10001.,1.18889976669,4.41591341912,182.
8.02,6094.,23.,9.,3875.,0.,0.,10001.,1.18486022952,2.67881443196,299.
8.04,6099.,24.,9.,3872.,0.,0.,10004.,1.17748846529,2.55122500813,312.
8.06,6100.,25.,10.,3867.,0.,0.,10002.,1.1647384248,2.42265592359,325.
8.08,6098.,25.,14.,3864.,0.,0.,10001.,1.14631897286,2.38434346355,325.
8.1,6094.,22.,16.,3865.,0.,0.,9997.,1.12318515587,2.65480127752,286.
8.12,6097.,22.,14.,3866.,0.,0.,9999.,1.09633442661,2.59133591744,286.
8.14,6085.,30.,13.,3873.,0.,0.,10001.,1.06294297992,1.84243449852,390.
8.16,6080.,33.,9.,3876.,0.,0.,9998.,1.02798561265,1.6198561169,429.
8.18,6077.,25.,22.,3878.,0.,0.,10002.,0.989836689849,2.05886031488,325.
8.2,6069.,31.,12.,3891.,0.,0.,10003.,0.948988249809,1.59185125774,403.
8.22,6064.,27.,16.,3896.,0.,0.,10003.,0.907147309338,1.74709852169,351.
8.24,6057.,35.,11.,3900.,0.,0.,10003.,0.864092057758,1.28379391438,455.
8.26,6050.,23.,24.,3900.,0.,0.,9997.,0.821293037499,1.85683643261,299.
8.28,6047.,26.,14.,3910.,0.,0.,9997.,0.778921885715,1.55784377143,338.
8.3,6040.,31.,19.,3908.,0.,0.,9998.,0.737025331754,1.23630055649,403.
8.32,6032.,32.,9.,3925.,0.,0.,9998.,0.696823463788,1.13233812866,416.
8.34,6037.,21.,11.,3926.,0.,0.,9995.,0.660598767869,1.63576837758,273.
8.36,6042.,17.,9.,3927.,0.,0.,9995.,0.626948008583,1.91772332037,221.
8.38,6042.,15.,7.,3933.,0.,0.,9997.,0.596014579006,2.06618387389,195.
8.4,6050.,11.,7.,3934.,0.,0.,10002.,0.569544112945,2.6923903521,143.
8.42,6053.,10.,7.,3929.,0.,0.,9999.,0.547315451718,2.84604034893,130.
8.44,6056.,11.,4.,3927.,0.,0.,9998.,0.529607114363,2.5035972679,143.
8.46,6064.,9.,3.,3924.,0.,0.,10000.,0.517097229007,2.9876728787,117.
8.48,6071.,7.,0.,3922.,0.,0.,10000.,0.509739325163,3.78663498693,91.
8.5,6082.,6.,2.,3911.,0.,0.,10001.,0.507941675672,4.40216118916,78.
8.52,6094.,3.,3.,3905.,0.,0.,10005.,0.511414766599,8.86452262104,39.
8.54,6103.,1.,2.,3899.,0.,0.,10005.,0.520162805904,27.048465907,13.
8.56,6110.,0.,0.,3895.,0.,0.,10005.,0.533955659037,inf,0.
8.58,6122.,1.,0.,3884.,0.,0.,10007.,0.5531119343,28.7618205836,13.
8.6,6133.,0.,2.,3875.,0.,0.,10010.,0.576896268607,inf,0.
8.62,6142.,0.,0.,3868.,0.,0.,10010.,0.605092247671,inf,0.
8.64,6153.,0.,0.,3858.,0.,0.,10011.,0.637445498343,inf,0.
8.66,6162.,0.,0.,3849.,0.,0.,10011.,0.673199236149,inf,0.
8.68,6167.,0.,0.,3842.,0.,0.,10009.,0.711635860471,inf,0.
8.7,6177.,0.,0.,3835.,0.,0.,10012.,0.752688653276,inf,0.
8.72,6185.,1.,0.,3825.,0.,0.,10011.,0.795583692664,41.3703520185,13.
8.74,6192.,1.,0.,3816.,0.,0.,10009.,0.839561890868,43.6572183251,13.
8.76,6203.,1.,0.,3805.,0.,0.,10009.,0.88438995348,45.9882775809,13.
8.78,6210.,2.,0.,3797.,0.,0.,10009.,0.928431365337,24.1392154988,26.
8.8,6222.,1.,1.,3785.,0.,0.,10009.,0.972329100839,50.5611132437,13.
8.82,6230.,0.,2.,3776.,0.,0.,10008.,1.01414933781,inf,0.
8.84,6237.,3.,3.,3765.,0.,0.,10008.,1.05347694819,18.2602671019,39.
8.86,6241.,3.,4.,3763.,0.,0.,10011.,1.08910445353,18.8778105278,39.
8.88,6245.,3.,7.,3760.,0.,0.,10015.,1.12115307985,19.4333200507,39.
8.9,6241.,5.,4.,3760.,0.,0.,10010.,1.14878485778,11.9473625209,65.
8.92,6252.,10.,3.,3748.,0.,0.,10013.,1.17385982954,6.1040711136,130.
8.94,6255.,7.,8.,3739.,0.,0.,10009.,1.19349895502,8.86599223732,91.
8.96,6252.,12.,7.,3735.,0.,0.,10006.,1.20678577411,5.22940502114,156.
8.98,6256.,14.,2.,3731.,0.,0.,10003.,1.21611479215,4.51699779942,182.
9.,6262.,9.,4.,3731.,0.,0.,10006.,1.21966401015,7.04694761422,117.
9.02,6269.,13.,4.,3720.,0.,0.,10006.,1.21827651157,4.87310604627,169.
9.04,6274.,15.,4.,3711.,0.,0.,10004.,1.21127441076,4.19908462398,195.
9.06,6271.,22.,1.,3711.,0.,0.,10005.,1.19703025157,2.82934423099,286.
9.08,6280.,18.,5.,3705.,0.,0.,10008.,1.17970612652,3.40803992105,234.
9.1,6270.,20.,10.,3712.,0.,0.,10012.,1.15389235839,3.0001201318,260.
9.12,6267.,18.,14.,3712.,0.,0.,10011.,1.12555224496,3.25159537433,234.
9.14,6255.,28.,11.,3717.,0.,0.,10011.,1.09154756558,2.02715976466,364.
9.16,6248.,29.,13.,3722.,0.,0.,10012.,1.0549133042,1.8915686834,377.
9.18,6236.,34.,7.,3735.,0.,0.,10012.,1.0147204829,1.55192544443,442.
9.2,6229.,35.,11.,3738.,0.,0.,10013.,0.973034146465,1.44565073189,455.
9.22,6225.,25.,24.,3741.,0.,0.,10015.,0.930116385157,1.93464208113,325.
9.24,6214.,32.,16.,3749.,0.,0.,10011.,0.885781276607,1.43939457449,416.
9.26,6207.,29.,20.,3754.,0.,0.,10010.,0.841511637782,1.50891741947,377.
9.28,6199.,27.,28.,3754.,0.,0.,10008.,0.797623552971,1.5361638798,351.
9.3,6179.,39.,15.,3774.,0.,0.,10007.,0.75330856298,1.00441141731,507.
9.32,6171.,39.,12.,3787.,0.,0.,10009.,0.712097437161,0.949463249548,507.
9.34,6171.,34.,13.,3790.,0.,0.,10008.,0.674384580297,1.03141171104,442.
9.36,6165.,20.,15.,3806.,0.,0.,10006.,0.639007840856,1.66142038623,260.
9.38,6164.,18.,12.,3814.,0.,0.,10008.,0.607380979499,1.754656163,234.
9.4,6166.,18.,12.,3817.,0.,0.,10013.,0.579826615849,1.67505466801,234.
9.42,6163.,15.,8.,3826.,0.,0.,10012.,0.556538137784,1.92933221099,195.
9.44,6172.,8.,9.,3824.,0.,0.,10013.,0.538942928161,3.50312903304,104.
9.46,6168.,6.,9.,3829.,0.,0.,10012.,0.525335248841,4.55290548996,78.
9.48,6171.,10.,3.,3826.,0.,0.,10010.,0.517618006369,2.69161363312,130.
9.5,6177.,9.,1.,3826.,0.,0.,10013.,0.515257407429,2.97704279848,117.
9.52,6186.,3.,5.,3819.,0.,0.,10013.,0.518720732305,8.99115935995,39.
9.54,6190.,2.,1.,3821.,0.,0.,10014.,0.527103718309,13.704696676,26.
9.56,6193.,2.,0.,3817.,0.,0.,10012.,0.540830674241,14.0615975303,26.
9.58,6203.,1.,1.,3810.,0.,0.,10015.,0.559982469255,29.1190884013,13.
9.6,6203.,2.,1.,3808.,0.,0.,10014.,0.583247702642,15.1644402687,26.
9.62,6211.,0.,0.,3802.,0.,0.,10013.,0.611706601385,inf,0.
9.64,6219.,1.,0.,3791.,0.,0.,10011.,0.644283041475,33.5027181567,13.
9.66,6227.,1.,0.,3784.,0.,0.,10012.,0.680232545403,35.372092361,13.
9.68,6236.,0.,1.,3778.,0.,0.,10015.,0.719166946192,inf,0.
9.7,6248.,0.,0.,3767.,0.,0.,10015.,0.761112187008,inf,0.
9.72,6256.,0.,0.,3756.,0.,0.,10012.,0.804636129457,inf,0.
9.74,6267.,0.,0.,3747.,0.,0.,10014.,0.849306731396,inf,0.
9.76,6281.,0.,0.,3736.,0.,0.,10017.,0.894795575842,inf,0.
9.78,6290.,0.,0.,3728.,0.,0.,10018.,0.939547001859,inf,0.
9.8,6295.,1.,0.,3721.,0.,0.,10017.,0.982951358182,51.1134706255,13.
9.82,6304.,1.,0.,3716.,0.,0.,10021.,1.02486415501,53.2929360607,13.
9.84,6306.,2.,1.,3712.,0.,0.,10021.,1.06374980599,27.6574949556,26.
9.86,6312.,5.,1.,3705.,0.,0.,10023.,1.10017576154,11.44182792,65.
9.88,6319.,6.,3.,3695.,0.,0.,10023.,1.13353269242,9.82395000101,78.
9.9,6328.,6.,2.,3688.,0.,0.,10024.,1.16317218912,10.080825639,78.
9.92,6326.,9.,5.,3683.,0.,0.,10023.,1.1865688555,6.85573116513,117.
9.94,6325.,9.,4.,3684.,0.,0.,10022.,1.20528999005,6.9638977203,117.
9.96,6327.,11.,6.,3673.,0.,0.,10017.,1.21992146188,5.76690145617,143.
9.98,6325.,11.,8.,3670.,0.,0.,10014.,1.22817723317,5.80592873861,143.
10.,6326.,13.,13.,3662.,0.,0.,10014.,1.23114511051,4.92458044202,169.
