t,s,e,i,r,c,o,n,reff,coal,reportr
5.,7840.,22.,11.,2127.,0.,0.,10000.,1.13056218151,2.67223788357,286.
5.02,7835.,20.,11.,2137.,0.,0.,10003.,1.12695760528,2.93008977374,260.
5.04,7829.,20.,12.,2142.,0.,0.,10003.,1.11850642306,2.90811669995,260.
5.06,7816.,27.,8.,2148.,0.,0.,9999.,1.1045977331,2.12737341189,351.
5.08,7808.,25.,16.,2155.,0.,0.,10004.,1.08572129578,2.25830029523,325.
5.1,7796.,23.,15.,2167.,0.,0.,10001.,1.06276623367,2.40277583263,299.
5.12,7782.,30.,19.,2171.,0.,0.,10002.,1.03509103805,1.7941577993,390.
5.14,7762.,36.,23.,2182.,0.,0.,10003.,1.00306004003,1.44886450227,468.
5.16,7738.,42.,22.,2203.,0.,0.,10005.,0.96738415339,1.19771371372,546.
5.18,7718.,43.,24.,2215.,0.,0.,10000.,0.930372109327,1.12510115547,559.
5.2,7701.,40.,30.,2227.,0.,0.,9998.,0.89145352039,1.15888957651,520.
5.22,7679.,49.,19.,2249.,0.,0.,9996.,0.850585666584,0.902662340049,637.
5.24,7666.,43.,28.,2259.,0.,0.,9996.,0.809778091798,0.979266529616,559.
5.26,7641.,38.,27.,2289.,0.,0.,9995.,0.76766299626,1.05048620541,494.
5.28,7621.,48.,20.,2307.,0.,0.,9996.,0.726440571172,0.786977285436,624.
5.3,7617.,38.,17.,2323.,0.,0.,9995.,0.687939922013,0.941391472229,494.
5.32,7609.,32.,13.,2340.,0.,0.,9994.,0.650659165044,1.0573211432,416.
5.34,7601.,25.,12.,2354.,0.,0.,9992.,0.615613926667,1.28047696747,325.
5.36,7594.,16.,11.,2369.,0.,0.,9990.,0.583350341308,1.89588860925,208.
5.38,7590.,12.,11.,2373.,0.,0.,9986.,0.554608875498,2.40330512716,156.
5.4,7586.,13.,4.,2378.,0.,0.,9981.,0.529527320989,2.11810928395,169.
5.42,7588.,11.,2.,2378.,0.,0.,9979.,0.508691698464,2.40472439274,143.
5.44,7590.,7.,5.,2377.,0.,0.,9979.,0.492069646942,3.65537452014,91.
5.46,7601.,6.,2.,2374.,0.,0.,9983.,0.480411534681,4.1635666339,78.
5.48,7610.,6.,2.,2367.,0.,0.,9985.,0.473494829921,4.10362185932,78.
5.5,7615.,5.,3.,2363.,0.,0.,9986.,0.471281022233,4.90132263122,65.
5.52,7617.,1.,3.,2362.,0.,0.,9983.,0.474025317986,24.6493165352,13.
5.54,7616.,0.,4.,2362.,0.,0.,9982.,0.481407813357,inf,0.
5.56,7625.,0.,0.,2358.,0.,0.,9983.,0.494140670591,inf,0.
5.58,7625.,0.,0.,2353.,0.,0.,9978.,0.511223370245,inf,0.
5.6,7629.,0.,1.,2350.,0.,0.,9980.,0.532582219587,inf,0.
5.62,7628.,0.,0.,2349.,0.,0.,9977.,0.557888376889,inf,0.
5.64,7634.,0.,0.,2344.,0.,0.,9978.,0.587128291279,inf,0.
5.66,7635.,0.,0.,2342.,0.,0.,9977.,0.619297316368,inf,0.
5.68,7637.,2.,0.,2338.,0.,0.,9977.,0.654166245265,17.0083223769,26.
5.7,7640.,2.,0.,2335.,0.,0.,9977.,0.691262093136,17.9728144215,26.
5.72,7639.,1.,0.,2338.,0.,0.,9978.,0.729469918636,37.9324357691,13.
5.74,7645.,0.,0.,2335.,0.,0.,9980.,0.769219267564,inf,0.
5.76,7652.,0.,0.,2327.,0.,0.,9979.,0.809676238396,inf,0.
5.78,7657.,0.,0.,2321.,0.,0.,9978.,0.849678809628,inf,0.
5.8,7662.,1.,0.,2312.,0.,0.,9975.,0.888984024775,46.2271692883,13.
5.82,7672.,0.,2.,2305.,0.,0.,9979.,0.926773228543,inf,0.
5.84,7678.,1.,2.,2301.,0.,0.,9982.,0.962094825415,50.0289309216,13.
5.86,7678.,5.,2.,2297.,0.,0.,9982.,0.994292359058,10.3406405342,65.
5.88,7674.,9.,2.,2297.,0.,0.,9982.,1.02277099084,5.90934350261,117.
5.9,7671.,6.,2.,2298.,0.,0.,9977.,1.048241513,9.08475977933,78.
5.92,7668.,6.,2.,2298.,0.,0.,9974.,1.06946105731,9.26866249665,78.
5.94,7673.,10.,5.,2289.,0.,0.,9977.,1.08677938381,5.65125279581,130.
5.96,7673.,11.,6.,2289.,0.,0.,9979.,1.09885562006,5.1945902039,143.
5.98,7667.,16.,3.,2291.,0.,0.,9977.,1.10566697468,3.59341766771,208.
6.,7663.,18.,6.,2289.,0.,0.,9976.,1.10769648137,3.20001205728,234.
6.02,7667.,14.,14.,2282.,0.,0.,9977.,1.10566697468,4.10676304881,182.
6.04,7655.,23.,10.,2289.,0.,0.,9977.,1.09649758866,2.47903802654,299.
6.06,7642.,28.,9.,2295.,0.,0.,9974.,1.08271420519,2.01075495249,364.
6.08,7635.,33.,7.,2298.,0.,0.,9973.,1.06496529951,1.67812713862,429.
6.1,7619.,39.,14.,2299.,0.,0.,9971.,1.04176221559,1.38901628746,507.
6.12,7613.,39.,14.,2308.,0.,0.,9974.,1.01545489647,1.35393986196,507.
6.14,7590.,42.,14.,2325.,0.,0.,9971.,0.983980788757,1.21826192894,546.
6.16,7575.,38.,28.,2331.,0.,0.,9972.,0.950140223255,1.30019188445,494.
6.18,7549.,51.,19.,2348.,0.,0.,9967.,0.913012819645,0.930915031795,663.
6.2,7550.,40.,27.,2356.,0.,0.,9973.,0.876164889993,1.13901435699,520.
6.22,7517.,45.,32.,2379.,0.,0.,9973.,0.834561548337,0.964382233634,585.
6.24,7505.,48.,12.,2408.,0.,0.,9973.,0.794599583383,0.860816215331,624.
6.26,7497.,37.,20.,2415.,0.,0.,9969.,0.755160247943,1.06130629441,481.
6.28,7494.,31.,17.,2429.,0.,0.,9971.,0.716125848033,1.20124335799,403.
6.3,7492.,29.,15.,2435.,0.,0.,9971.,0.678279057682,1.21622451722,377.
6.32,7489.,27.,15.,2442.,0.,0.,9973.,0.641746227117,1.23595569667,351.
6.34,7477.,23.,21.,2454.,0.,0.,9975.,0.60660307174,1.37145042306,299.
6.36,7476.,21.,10.,2470.,0.,0.,9977.,0.575034196306,1.42389420038,273.
6.38,7471.,19.,2.,2487.,0.,0.,9979.,0.546296370306,1.4951269082,247.
6.4,7475.,16.,6.,2481.,0.,0.,9978.,0.521936041074,1.69629213349,208.
6.42,7477.,13.,8.,2480.,0.,0.,9978.,0.501300608436,2.00520243374,169.
6.44,7478.,13.,2.,2483.,0.,0.,9976.,0.484954332627,1.93981733051,169.
6.46,7479.,12.,6.,2481.,0.,0.,9978.,0.472937551351,2.04939605586,156.
6.48,7486.,5.,8.,2479.,0.,0.,9978.,0.466106304217,4.84750556386,65.
6.5,7488.,5.,4.,2481.,0.,0.,9978.,0.463792735518,4.82344444938,65.
6.52,7488.,5.,2.,2480.,0.,0.,9975.,0.466371051482,4.85025893541,65.
6.54,7491.,3.,3.,2480.,0.,0.,9977.,0.473743854982,8.21156015302,39.
6.56,7495.,0.,2.,2480.,0.,0.,9977.,0.48600807861,inf,0.
6.58,7501.,0.,0.,2479.,0.,0.,9980.,0.502808921437,inf,0.
6.6,7505.,0.,0.,2475.,0.,0.,9980.,0.523925751475,inf,0.
6.62,7510.,0.,0.,2470.,0.,0.,9980.,0.549093113404,inf,0.
6.64,7518.,0.,0.,2465.,0.,0.,9983.,0.577917175828,inf,0.
6.66,7523.,0.,0.,2459.,0.,0.,9982.,0.609907010287,inf,0.
6.68,7527.,0.,0.,2455.,0.,0.,9982.,0.644420968173,inf,0.
6.7,7527.,0.,0.,2451.,0.,0.,9978.,0.680969674718,inf,0.
6.72,7532.,0.,0.,2442.,0.,0.,9974.,0.719540634006,inf,0.
6.74,7538.,0.,0.,2438.,0.,0.,9976.,0.75875732749,inf,0.
6.76,7547.,0.,0.,2427.,0.,0.,9974.,0.798966263589,inf,0.
6.78,7551.,0.,0.,2422.,0.,0.,9973.,0.838336337833,inf,0.
6.8,7547.,2.,2.,2415.,0.,0.,9966.,0.87643190828,22.7872296153,26.
6.82,7546.,4.,3.,2413.,0.,0.,9966.,0.912741561395,11.8656402981,52.
6.84,7550.,5.,2.,2412.,0.,0.,9969.,0.947289431727,9.85181008997,65.
6.86,7550.,8.,3.,2407.,0.,0.,9968.,0.979089700447,6.3640830529,104.
6.88,7557.,4.,4.,2400.,0.,0.,9965.,1.00889574719,13.1156447135,52.
6.9,7553.,7.,1.,2400.,0.,0.,9961.,1.03377467534,7.67946901681,91.
6.92,7558.,7.,4.,2394.,0.,0.,9963.,1.05528312159,7.83924604613,91.
6.94,7554.,11.,8.,2388.,0.,0.,9961.,1.07164318307,5.06594959269,143.
6.96,7551.,11.,9.,2391.,0.,0.,9962.,1.08322928099,5.1207202374,143.
6.98,7545.,15.,8.,2395.,0.,0.,9963.,1.08960217264,3.7772875318,195.
7.,7542.,18.,9.,2394.,0.,0.,9963.,1.091628307,3.15359288689,234.
7.02,7539.,15.,11.,2398.,0.,0.,9963.,1.08873568979,3.77428372462,195.
7.04,7534.,19.,11.,2399.,0.,0.,9963.,1.08068206426,2.95765617587,247.
7.06,7531.,21.,15.,2397.,0.,0.,9964.,1.06805863126,2.64471661075,273.
7.08,7526.,24.,15.,2398.,0.,0.,9963.,1.05081513272,2.2767661209,312.
7.1,7516.,30.,14.,2407.,0.,0.,9967.,1.02809123717,1.78202481109,390.
7.12,7509.,35.,15.,2413.,0.,0.,9972.,1.0017838053,1.48836451074,455.
7.14,7506.,21.,19.,2426.,0.,0.,9972.,0.972993300476,2.40931674404,273.
7.16,7497.,23.,21.,2431.,0.,0.,9972.,0.940356601154,2.12602362,299.
7.18,7478.,28.,21.,2443.,0.,0.,9970.,0.90415358976,1.67914238098,364.
7.2,7458.,36.,21.,2457.,0.,0.,9972.,0.865575235513,1.25027534019,468.
7.22,7440.,37.,20.,2474.,0.,0.,9971.,0.826178443393,1.16111565017,481.
7.24,7422.,39.,22.,2489.,0.,0.,9972.,0.785890674966,1.04785423329,507.
7.26,7405.,42.,21.,2502.,0.,0.,9970.,0.745818428334,0.923394244604,546.
7.28,7398.,30.,23.,2523.,0.,0.,9974.,0.706739459689,1.22501506346,390.
7.3,7396.,28.,17.,2536.,0.,0.,9977.,0.669185136235,1.24277239586,364.
7.32,7387.,28.,21.,2538.,0.,0.,9974.,0.632942193352,1.17546407337,364.
7.34,7378.,26.,22.,2545.,0.,0.,9971.,0.59881140524,1.19762281048,338.
7.36,7365.,30.,15.,2561.,0.,0.,9971.,0.566837255545,0.982517909612,390.
7.38,7361.,24.,12.,2577.,0.,0.,9974.,0.538522750223,1.16679929215,312.
7.4,7360.,18.,11.,2583.,0.,0.,9972.,0.514215465367,1.48551134439,234.
7.42,7365.,14.,8.,2583.,0.,0.,9970.,0.49418771325,1.8355543635,182.
7.44,7374.,11.,2.,2586.,0.,0.,9973.,0.478353700081,2.26130840038,143.
7.46,7375.,12.,0.,2583.,0.,0.,9970.,0.466735281315,2.02251955236,156.
7.48,7381.,7.,5.,2577.,0.,0.,9970.,0.45993737344,3.41667763127,91.
7.5,7388.,3.,5.,2573.,0.,0.,9969.,0.458012041977,7.93887539427,39.
7.52,7393.,3.,0.,2568.,0.,0.,9964.,0.460962547522,7.99001749038,39.
7.54,7398.,1.,2.,2562.,0.,0.,9963.,0.468519813253,24.3630302891,13.
7.56,7397.,2.,0.,2562.,0.,0.,9961.,0.480423786649,12.4910184529,26.
7.58,7397.,1.,1.,2559.,0.,0.,9958.,0.496933010751,25.8405165591,13.
7.6,7404.,0.,1.,2557.,0.,0.,9962.,0.51780884234,inf,0.
7.62,7408.,1.,2.,2551.,0.,0.,9962.,0.542614053313,28.2159307723,13.
7.64,7413.,2.,1.,2546.,0.,0.,9962.,0.571046947591,14.8472206374,26.
7.66,7431.,1.,0.,2540.,0.,0.,9972.,0.603052497445,31.3587298672,13.
7.68,7432.,0.,0.,2535.,0.,0.,9967.,0.637245174189,inf,0.
7.7,7438.,0.,0.,2529.,0.,0.,9967.,0.673660481633,inf,0.
7.72,7444.,0.,0.,2521.,0.,0.,9965.,0.711776161106,inf,0.
7.74,7450.,1.,0.,2515.,0.,0.,9966.,0.750651912547,39.0338994525,13.
7.76,7459.,1.,0.,2508.,0.,0.,9968.,0.790125418402,41.0865217569,13.
7.78,7463.,2.,0.,2504.,0.,0.,9969.,0.828898751566,21.5513675407,26.
7.8,7471.,2.,0.,2496.,0.,0.,9969.,0.867344949187,22.5509686789,26.
7.82,7479.,4.,0.,2491.,0.,0.,9974.,0.90391184554,11.750853992,52.
7.84,7479.,6.,1.,2486.,0.,0.,9972.,0.938098842208,8.1301899658,78.
7.86,7482.,6.,5.,2479.,0.,0.,9972.,0.969882210786,8.40564582681,78.
7.88,7494.,8.,6.,2467.,0.,0.,9975.,0.999481952585,6.4966326918,104.
7.9,7492.,7.,6.,2469.,0.,0.,9974.,1.02408911285,7.60751912401,91.
7.92,7489.,12.,4.,2470.,0.,0.,9975.,1.04439109696,4.52569475348,156.
7.94,7488.,12.,3.,2472.,0.,0.,9975.,1.0607892175,4.59675327583,156.
7.96,7496.,11.,5.,2467.,0.,0.,9979.,1.07350732802,5.0747619143,143.
7.98,7497.,14.,4.,2466.,0.,0.,9981.,1.08071779357,4.01409466182,182.
8.,7496.,9.,10.,2466.,0.,0.,9981.,1.08301360757,6.25741195482,117.
8.02,7483.,23.,7.,2467.,0.,0.,9980.,1.07880773256,2.43904356928,299.
8.04,7477.,21.,11.,2466.,0.,0.,9975.,1.07121571293,2.65253414629,273.
8.06,7467.,24.,13.,2471.,0.,0.,9975.,1.05781424774,2.2919308701,312.
8.08,7447.,16.,18.,2489.,0.,0.,9970.,1.03905474573,3.37692792362,208.
8.1,7435.,25.,12.,2495.,0.,0.,9967.,1.0170114886,2.1153838963,325.
8.12,7428.,27.,14.,2501.,0.,0.,9970.,0.991176299641,1.90893213264,351.
8.14,7422.,27.,19.,2508.,0.,0.,9976.,0.961718718925,1.85219901423,351.
8.16,7415.,25.,11.,2521.,0.,0.,9972.,0.930071254843,1.93454821007,325.
8.18,7395.,33.,17.,2523.,0.,0.,9968.,0.894297583893,1.4091961928,429.
8.2,7377.,37.,24.,2528.,0.,0.,9966.,0.85668983535,1.20399652536,481.
8.22,7365.,37.,20.,2547.,0.,0.,9969.,0.818014110316,1.14964145234,481.
8.24,7360.,29.,26.,2555.,0.,0.,9970.,0.779482037154,1.39769192869,377.
8.26,7346.,29.,10.,2584.,0.,0.,9969.,0.73995027096,1.32680738241,377.
8.28,7346.,25.,8.,2592.,0.,0.,9971.,0.701982983674,1.46012460604,325.
8.3,7343.,21.,12.,2596.,0.,0.,9972.,0.664722859285,1.64598041347,273.
8.32,7342.,22.,12.,2597.,0.,0.,9973.,0.629149525904,1.48708069759,286.
8.34,7339.,19.,15.,2603.,0.,0.,9976.,0.595347557374,1.62937226229,247.
8.36,7336.,21.,1.,2617.,0.,0.,9975.,0.564378901656,1.39750966124,273.
8.38,7340.,16.,7.,2613.,0.,0.,9976.,0.536878757417,1.74485596161,208.
8.4,7334.,11.,4.,2623.,0.,0.,9972.,0.512398943343,2.42224955035,143.
8.42,7340.,12.,4.,2618.,0.,0.,9974.,0.492312708467,2.13335507002,156.
8.44,7343.,10.,6.,2615.,0.,0.,9974.,0.476294961884,2.4767338018,130.
8.46,7341.,8.,7.,2615.,0.,0.,9971.,0.464536959084,3.01949023405,104.
8.48,7341.,4.,5.,2619.,0.,0.,9969.,0.457490712422,5.94737926148,52.
8.5,7338.,8.,4.,2621.,0.,0.,9971.,0.454821092389,2.95633710053,104.
8.52,7339.,4.,4.,2619.,0.,0.,9966.,0.457503750459,5.94754875597,52.
8.54,7345.,4.,2.,2616.,0.,0.,9967.,0.464976609841,6.04469592793,52.
8.56,7353.,2.,2.,2611.,0.,0.,9968.,0.477230684822,12.4079978054,26.
8.58,7356.,4.,3.,2605.,0.,0.,9968.,0.493682851548,6.41787707013,52.
8.6,7364.,4.,0.,2603.,0.,0.,9971.,0.514546529424,6.68910488252,52.
8.62,7377.,0.,4.,2592.,0.,0.,9973.,0.539747408253,inf,0.
8.64,7373.,4.,4.,2585.,0.,0.,9966.,0.56773765916,7.38058956908,52.
8.66,7376.,3.,3.,2586.,0.,0.,9968.,0.598829253009,10.3797070522,39.
8.68,7383.,1.,0.,2584.,0.,0.,9968.,0.632980238504,32.9149724022,13.
8.7,7388.,1.,0.,2578.,0.,0.,9967.,0.669131976109,34.7948627577,13.
8.72,7389.,2.,1.,2574.,0.,0.,9966.,0.706446309611,18.3676040499,26.
8.74,7391.,3.,1.,2565.,0.,0.,9960.,0.745155771201,12.9160333675,39.
8.76,7396.,2.,1.,2559.,0.,0.,9958.,0.784238639153,20.390204618,26.
8.78,7401.,2.,1.,2552.,0.,0.,9956.,0.823085888965,21.4002331131,26.
8.8,7414.,3.,0.,2544.,0.,0.,9961.,0.861418818275,14.9312595168,39.
8.82,7419.,2.,1.,2539.,0.,0.,9961.,0.897830468485,23.3435921806,26.
8.84,7418.,6.,1.,2537.,0.,0.,9962.,0.931381544736,8.07197338771,78.
8.86,7421.,8.,1.,2529.,0.,0.,9959.,0.963230573574,6.26099872823,104.
8.88,7422.,4.,5.,2530.,0.,0.,9961.,0.991270500516,12.8865165067,52.
8.9,7415.,8.,4.,2528.,0.,0.,9955.,1.01549838096,6.60073947626,104.
8.92,7412.,11.,6.,2524.,0.,0.,9953.,1.03593770728,4.89716007077,143.
8.94,7409.,11.,5.,2526.,0.,0.,9951.,1.05212910303,4.97370121434,143.
8.96,7400.,15.,8.,2529.,0.,0.,9952.,1.06263425214,3.68379874073,195.
8.98,7388.,19.,9.,2533.,0.,0.,9949.,1.06843056277,2.92412575075,247.
9.,7383.,15.,18.,2535.,0.,0.,9951.,1.06990331529,3.70899815967,195.
9.02,7371.,28.,16.,2537.,0.,0.,9952.,1.06565073936,1.97906565882,364.
9.04,7366.,26.,11.,2548.,0.,0.,9951.,1.05785817458,2.11571634917,338.
9.06,7346.,32.,10.,2563.,0.,0.,9951.,1.0431826685,1.69517183631,416.
9.08,7338.,29.,15.,2570.,0.,0.,9952.,1.02569815617,1.83918290072,377.
9.1,7327.,34.,19.,2574.,0.,0.,9954.,1.00354742164,1.5348372331,442.
9.12,7315.,28.,18.,2590.,0.,0.,9951.,0.977961541438,1.81621429124,364.
9.14,7295.,32.,16.,2606.,0.,0.,9949.,0.947827761956,1.54022011318,416.
9.16,7285.,33.,16.,2615.,0.,0.,9949.,0.91587765142,1.44320114769,429.
9.18,7274.,32.,18.,2623.,0.,0.,9947.,0.881521861571,1.43247302505,416.
9.2,7253.,44.,21.,2635.,0.,0.,9953.,0.843389882443,0.996733497432,572.
9.22,7238.,44.,21.,2650.,0.,0.,9953.,0.805200831343,0.951600982496,572.
9.24,7221.,37.,23.,2670.,0.,0.,9951.,0.766221041653,1.07685119367,481.
9.26,7211.,31.,28.,2683.,0.,0.,9953.,0.727519598243,1.22035545512,403.
9.28,7203.,33.,24.,2697.,0.,0.,9957.,0.689285725441,1.08614720373,429.
9.3,7196.,32.,20.,2710.,0.,0.,9958.,0.652331557141,1.06003878035,416.
9.32,7186.,35.,17.,2722.,0.,0.,9960.,0.616585329087,0.916069631787,455.
9.34,7187.,26.,13.,2733.,0.,0.,9959.,0.584012363745,1.16802472749,338.
9.36,7181.,18.,14.,2744.,0.,0.,9957.,0.553453032413,1.59886431586,234.
9.38,7177.,19.,8.,2753.,0.,0.,9957.,0.525957969783,1.4394639173,247.
9.4,7165.,14.,12.,2762.,0.,0.,9953.,0.501547165522,1.86288947194,182.
9.42,7170.,9.,11.,2762.,0.,0.,9952.,0.481973476255,2.78473564059,117.
9.44,7169.,9.,8.,2766.,0.,0.,9952.,0.466036612049,2.69265598073,117.
9.46,7166.,11.,3.,2770.,0.,0.,9950.,0.454420052919,2.14816752289,143.
9.48,7171.,6.,7.,2766.,0.,0.,9950.,0.447749691721,3.88049732825,78.
9.5,7173.,6.,6.,2762.,0.,0.,9947.,0.445666837152,3.86244592198,78.
9.52,7177.,5.,4.,2760.,0.,0.,9946.,0.448304548339,4.66236730273,65.
9.54,7180.,1.,3.,2762.,0.,0.,9946.,0.455490951733,23.6855294901,13.
9.56,7182.,0.,2.,2762.,0.,0.,9946.,0.467163355573,inf,0.
9.58,7189.,0.,0.,2761.,0.,0.,9950.,0.48334780817,inf,0.
9.6,7193.,0.,0.,2756.,0.,0.,9949.,0.503709589726,inf,0.
9.62,7197.,0.,0.,2752.,0.,0.,9949.,0.527847748001,inf,0.
9.64,7198.,0.,0.,2750.,0.,0.,9948.,0.555265150838,inf,0.
9.66,7202.,0.,0.,2743.,0.,0.,9945.,0.586055111911,inf,0.
9.68,7213.,0.,0.,2734.,0.,0.,9947.,0.619710888358,inf,0.
9.7,7229.,0.,0.,2726.,0.,0.,9955.,0.655520557671,inf,0.
9.72,7234.,0.,0.,2721.,0.,0.,9955.,0.692391323667,inf,0.
9.74,7237.,0.,0.,2713.,0.,0.,9950.,0.730362888304,inf,0.
9.76,7241.,2.,0.,2705.,0.,0.,9948.,0.768574951533,19.9829487399,26.
9.78,7248.,2.,0.,2698.,0.,0.,9948.,0.806718558517,20.9746825214,26.
9.8,7249.,3.,0.,2693.,0.,0.,9945.,0.843602825538,14.622448976,39.
9.82,7256.,0.,3.,2685.,0.,0.,9944.,0.87960576446,inf,0.
9.84,7255.,5.,1.,2680.,0.,0.,9941.,0.912840036243,9.49353637692,65.
9.86,7251.,7.,2.,2679.,0.,0.,9939.,0.943058804909,7.00557969361,91.
9.88,7251.,8.,1.,2676.,0.,0.,9936.,0.970868687583,6.31064646929,104.
9.9,7250.,11.,3.,2673.,0.,0.,9937.,0.994699869774,4.7022175662,143.
9.92,7251.,10.,8.,2669.,0.,0.,9938.,1.01496518963,5.27781898606,130.
9.94,7250.,15.,2.,2671.,0.,0.,9938.,1.03089677129,3.57377547382,195.
9.96,7252.,12.,8.,2664.,0.,0.,9936.,1.04305851003,4.51992021015,156.
9.98,7252.,7.,10.,2666.,0.,0.,9935.,1.05024052159,7.80178673181,91.
10.,7235.,19.,14.,2667.,0.,0.,9935.,1.05014448292,2.87407963746,247.
