t,cases
5.01,1.95
5.02,1.95
5.03,2.145
5.04,2.145
5.05,2.275
5.06,2.275
5.07,2.21
5.08,2.21
5.09,2.665
5.1,2.665
5.11,3.575
5.12,3.575
5.13,4.355
5.14,4.355
5.15,5.07
5.16,5.07
5.17,5.265
5.18,5.265
5.19,4.68
5.2,4.68
5.21,4.745
5.22,4.745
5.23,4.68
5.24,4.68
5.25,4.29
5.26,4.29
5.27,3.575
5.28,3.575
5.29,3.445
5.3,3.445
5.31,4.03
5.32,4.03
5.33,3.705
5.34,3.705
5.35,3.12
5.36,3.12
5.37,2.86
5.38,2.86
5.39,2.405
5.4,2.405
5.41,1.885
5.42,1.885
5.43,1.17
5.44,1.17
5.45,0.715
5.46,0.715
5.47,0.715
5.48,0.715
5.49,0.455
5.5,0.455
5.51,0.195
5.52,0.195
5.53,0.065
5.54,0.065
5.55,0.13
5.56,0.13
5.57,0.065
5.58,0.065
5.59,0.
5.6,0.
5.61,0.
5.62,0.
5.63,0.065
5.64,0.065
5.65,0.065
5.66,0.065
5.67,0.065
5.68,0.065
5.69,0.065
5.7,0.065
5.71,0.
5.72,0.
5.73,0.065
5.74,0.065
5.75,0.13
5.76,0.13
5.77,0.26
5.78,0.26
5.79,0.52
5.8,0.52
5.81,0.585
5.82,0.585
5.83,0.455
5.84,0.455
5.85,0.78
5.86,0.78
5.87,1.235
5.88,1.235
5.89,1.235
5.9,1.235
5.91,1.04
5.92,1.04
5.93,1.17
5.94,1.17
5.95,2.015
5.96,2.015
5.97,2.535
5.98,2.535
5.99,2.34
6.,2.34
6.01,2.08
6.02,2.08
6.03,2.08
6.04,2.08
6.05,2.665
6.06,2.665
6.07,3.25
6.08,3.25
6.09,3.25
6.1,3.25
6.11,3.575
6.12,3.575
6.13,4.225
6.14,4.225
6.15,4.55
6.16,4.55
6.17,5.2
6.18,5.2
6.19,5.2
6.2,5.2
6.21,4.16
6.22,4.16
6.23,3.77
6.24,3.77
6.25,3.77
6.26,3.77
6.27,3.705
6.28,3.705
6.29,3.965
6.3,3.965
6.31,3.9
6.32,3.9
6.33,3.185
6.34,3.185
6.35,2.665
6.36,2.665
6.37,2.21
6.38,2.21
6.39,1.885
6.4,1.885
6.41,2.015
6.42,2.015
6.43,1.625
6.44,1.625
6.45,1.105
6.46,1.105
6.47,0.975
6.48,0.975
6.49,0.715
6.5,0.715
6.51,0.52
6.52,0.52
6.53,0.26
6.54,0.26
6.55,0.
6.56,0.
6.57,0.
6.58,0.
6.59,0.
6.6,0.
6.61,0.
6.62,0.
6.63,0.
6.64,0.
6.65,0.
6.66,0.
6.67,0.065
6.68,0.065
6.69,0.13
6.7,0.13
6.71,0.195
6.72,0.195
6.73,0.26
6.74,0.26
6.75,0.325
6.76,0.325
6.77,0.39
6.78,0.39
6.79,0.39
6.8,0.39
6.81,0.39
6.82,0.39
6.83,0.325
6.84,0.325
6.85,0.715
6.86,0.715
6.87,1.235
6.88,1.235
6.89,1.365
6.9,1.365
6.91,1.3
6.92,1.3
6.93,1.495
6.94,1.495
6.95,2.21
6.96,2.21
6.97,2.73
6.98,2.73
6.99,2.86
7.,2.86
7.01,2.6
7.02,2.6
7.03,2.535
7.04,2.535
7.05,2.925
7.06,2.925
7.07,3.38
7.08,3.38
7.09,3.51
7.1,3.51
7.11,4.225
7.12,4.225
7.13,6.11
7.14,6.11
7.15,6.045
7.16,6.045
7.17,5.265
7.18,5.265
7.19,5.135
7.2,5.135
7.21,4.81
7.22,4.81
7.23,4.615
7.24,4.615
7.25,4.16
7.26,4.16
7.27,3.64
7.28,3.64
7.29,2.925
7.3,2.925
7.31,2.86
7.32,2.86
7.33,3.25
7.34,3.25
7.35,2.795
7.36,2.795
7.37,2.145
7.38,2.145
7.39,1.885
7.4,1.885
7.41,1.625
7.42,1.625
7.43,1.43
7.44,1.43
7.45,1.04
7.46,1.04
7.47,0.91
7.48,0.91
7.49,0.975
7.5,0.975
7.51,0.715
7.52,0.715
7.53,0.52
7.54,0.52
7.55,0.325
7.56,0.325
7.57,0.0650000000001
7.58,0.0649999999999
7.59,0.
7.6,0.
7.61,0.
7.62,0.
7.63,0.
7.64,0.
7.65,0.0649999999999
7.66,0.0650000000001
7.67,0.0650000000001
7.68,0.0649999999999
7.69,0.0650000000001
7.7,0.0649999999999
7.71,0.0649999999999
7.72,0.0650000000001
7.73,0.0649999999999
7.74,0.0650000000001
7.75,0.13
7.76,0.13
7.77,0.195
7.78,0.195
7.79,0.195
7.8,0.195
7.81,0.13
7.82,0.13
7.83,0.455
7.84,0.455
7.85,0.78
7.86,0.78
7.87,0.91
7.88,0.91
7.89,0.78
7.9,0.78
7.91,0.975
7.92,0.975
7.93,1.625
7.94,1.625
7.95,1.885
7.96,1.885
7.97,2.21
7.98,2.21
7.99,2.405
8.,2.405
8.01,2.21
8.02,2.21
8.03,2.275
8.04,2.275
8.05,2.6
8.06,2.6
8.07,2.795
8.08,2.795
8.09,3.64
8.1,3.64
8.11,4.16
8.12,4.16
8.13,4.16
8.14,4.16
8.15,3.965
8.16,3.965
8.17,4.03
8.18,4.03
8.19,4.03
8.2,4.03
8.21,3.705
8.22,3.705
8.23,3.705
8.24,3.705
8.25,3.64
8.26,3.64
8.27,3.965
8.28,3.965
8.29,3.64
8.3,3.64
8.31,3.055
8.32,3.055
8.33,3.055
8.34,3.055
8.35,3.055
8.36,3.055
8.37,2.73
8.38,2.73
8.39,2.275
8.4,2.275
8.41,2.08
8.42,2.08
8.43,2.08
8.44,2.08
8.45,1.43
8.46,1.43
8.47,0.585
8.48,0.585
8.49,0.325
8.5,0.325
8.51,0.325
8.52,0.325
8.53,0.195
8.54,0.195
8.55,0.13
8.56,0.13
8.57,0.195
8.58,0.195
8.59,0.13
8.6,0.13
8.61,0.13
8.62,0.13
8.63,0.0650000000001
8.64,0.0649999999999
8.65,0.0649999999999
8.66,0.0650000000001
8.67,0.195
8.68,0.195
8.69,0.325
8.7,0.325
8.71,0.455
8.72,0.455
8.73,0.455
8.74,0.455
8.75,0.325
8.76,0.325
8.77,0.39
8.78,0.39
8.79,0.455
8.8,0.455
8.81,0.65
8.82,0.65
8.83,0.91
8.84,0.91
8.85,0.91
8.86,0.91
8.87,0.78
8.88,0.78
8.89,0.65
8.9,0.65
8.91,1.04
8.92,1.04
8.93,1.495
8.94,1.495
8.95,1.43
8.96,1.43
8.97,1.69
8.98,1.69
8.99,1.755
9.,1.755
9.01,1.69
9.02,1.69
9.03,2.145
9.04,2.145
9.05,2.21
9.06,2.21
9.07,1.69
9.08,1.69
9.09,1.95
9.1,1.95
9.11,3.38
9.12,3.38
9.13,4.16
9.14,4.16
9.15,4.16
9.16,4.16
9.17,4.16
9.18,4.16
9.19,4.225
9.2,4.225
9.21,4.42
9.22,4.42
9.23,4.225
9.24,4.225
9.25,4.29
9.26,4.29
9.27,4.355
9.28,4.355
9.29,4.03
9.3,4.03
9.31,3.315
9.32,3.315
9.33,2.6
9.34,2.6
9.35,2.34
9.36,2.34
9.37,2.08
9.38,2.08
9.39,1.885
9.4,1.885
9.41,1.495
9.42,1.495
9.43,1.235
9.44,1.235
9.45,1.235
9.46,1.235
9.47,1.17
9.48,1.17
9.49,0.845
9.5,0.845
9.51,0.52
9.52,0.52
9.53,0.195
9.54,0.195
9.55,0.
9.56,0.
9.57,0.
9.58,0.
9.59,0.0649999999999
9.6,0.0650000000001
9.61,0.0649999999999
9.62,0.0650000000001
9.63,0.
9.64,0.
9.65,0.
9.66,0.
9.67,0.
9.68,0.
9.69,0.0649999999999
9.7,0.0650000000001
9.71,0.0650000000001
9.72,0.0649999999999
9.73,0.0650000000001
9.74,0.0649999999999
9.75,0.13
9.76,0.13
9.77,0.195
9.78,0.195
9.79,0.26
9.8,0.26
9.81,0.26
9.82,0.26
9.83,0.455
9.84,0.455
9.85,0.585
9.86,0.585
9.87,0.78
9.88,0.78
9.89,0.715
9.9,0.715
9.91,0.585
9.92,0.585
9.93,1.365
9.94,1.365
9.95,1.625
9.96,1.625
9.97,1.3
9.98,1.3
9.99,1.3
10.,1.3
