t,cases
5.01,2.6
5.02,2.6
5.03,2.795
5.04,2.795
5.05,2.665
5.06,2.665
5.07,2.405
5.08,2.405
5.09,2.6
5.1,2.6
5.11,3.055
5.12,3.055
5.13,3.12
5.14,3.12
5.15,4.355
5.16,4.355
5.17,5.915
5.18,5.915
5.19,6.175
5.2,6.175
5.21,5.59
5.22,5.59
5.23,4.615
5.24,4.615
5.25,4.485
5.26,4.485
5.27,4.03
5.28,4.03
5.29,3.12
5.3,3.12
5.31,3.25
5.32,3.25
5.33,2.99
5.34,2.99
5.35,2.6
5.36,2.6
5.37,2.86
5.38,2.86
5.39,2.47
5.4,2.47
5.41,1.95
5.42,1.95
5.43,1.755
5.44,1.755
5.45,1.625
5.46,1.625
5.47,1.495
5.48,1.495
5.49,1.04
5.5,1.04
5.51,0.715
5.52,0.715
5.53,0.52
5.54,0.52
5.55,0.26
5.56,0.26
5.57,0.065
5.58,0.065
5.59,0.13
5.6,0.13
5.61,0.065
5.62,0.065
5.63,0.
5.64,0.
5.65,0.
5.66,0.
5.67,0.
5.68,0.
5.69,0.
5.7,0.
5.71,0.
5.72,0.
5.73,0.065
5.74,0.065
5.75,0.195
5.76,0.195
5.77,0.26
5.78,0.26
5.79,0.26
5.8,0.26
5.81,0.195
5.82,0.195
5.83,0.325
5.84,0.325
5.85,0.39
5.86,0.39
5.87,0.585
5.88,0.585
5.89,1.43
5.9,1.43
5.91,1.755
5.92,1.755
5.93,1.755
5.94,1.755
5.95,2.08
5.96,2.08
5.97,2.405
5.98,2.405
5.99,2.73
6.,2.73
6.01,2.99
6.02,2.99
6.03,3.055
6.04,3.055
6.05,2.73
6.06,2.73
6.07,2.73
6.08,2.73
6.09,3.25
6.1,3.25
6.11,3.705
6.12,3.705
6.13,3.64
6.14,3.64
6.15,3.77
6.16,3.77
6.17,4.29
6.18,4.29
6.19,4.81
6.2,4.81
6.21,4.875
6.22,4.875
6.23,4.095
6.24,4.095
6.25,3.77
6.26,3.77
6.27,3.965
6.28,3.965
6.29,3.835
6.3,3.835
6.31,3.575
6.32,3.575
6.33,2.86
6.34,2.86
6.35,2.535
6.36,2.535
6.37,2.73
6.38,2.73
6.39,2.275
6.4,2.275
6.41,1.82
6.42,1.82
6.43,1.625
6.44,1.625
6.45,1.43
6.46,1.43
6.47,1.105
6.48,1.105
6.49,0.845
6.5,0.845
6.51,0.715
6.52,0.715
6.53,0.585
6.54,0.585
6.55,0.26
6.56,0.26
6.57,0.
6.58,0.
6.59,0.
6.6,0.
6.61,0.065
6.62,0.065
6.63,0.13
6.64,0.13
6.65,0.065
6.66,0.065
6.67,0.065
6.68,0.065
6.69,0.13
6.7,0.13
6.71,0.13
6.72,0.13
6.73,0.065
6.74,0.065
6.75,0.065
6.76,0.065
6.77,0.195
6.78,0.195
6.79,0.26
6.8,0.26
6.81,0.325
6.82,0.325
6.83,0.39
6.84,0.39
6.85,0.39
6.86,0.39
6.87,0.455
6.88,0.455
6.89,0.715
6.9,0.715
6.91,0.845
6.92,0.845
6.93,0.91
6.94,0.91
6.95,1.17
6.96,1.17
6.97,1.495
6.98,1.495
6.99,2.08
7.,2.08
7.01,2.21
7.02,2.21
7.03,2.47
7.04,2.47
7.05,3.25
7.06,3.25
7.07,3.445
7.08,3.445
7.09,2.99
7.1,2.99
7.11,3.12
7.12,3.12
7.13,3.965
7.14,3.965
7.15,3.77
7.16,3.77
7.17,3.64
7.18,3.64
7.19,4.225
7.2,4.225
7.21,4.42
7.22,4.42
7.23,4.095
7.24,4.095
7.25,4.095
7.26,4.095
7.27,4.615
7.28,4.615
7.29,3.965
7.3,3.965
7.31,3.25
7.32,3.25
7.33,3.185
7.34,3.185
7.35,2.47
7.36,2.47
7.37,1.95
7.38,1.95
7.39,1.755
7.4,1.755
7.41,1.43
7.42,1.43
7.43,0.975
7.44,0.975
7.45,0.78
7.46,0.78
7.47,0.91
7.48,0.91
7.49,0.78
7.5,0.78
7.51,0.52
7.52,0.52
7.53,0.325
7.54,0.325
7.55,0.195
7.56,0.195
7.57,0.13
7.58,0.13
7.59,0.0649999999999
7.6,0.0650000000001
7.61,0.
7.62,0.
7.63,0.0649999999999
7.64,0.0650000000001
7.65,0.13
7.66,0.13
7.67,0.0649999999999
7.68,0.0650000000001
7.69,0.0650000000001
7.7,0.0649999999999
7.71,0.13
7.72,0.13
7.73,0.0649999999999
7.74,0.0650000000001
7.75,0.13
7.76,0.13
7.77,0.13
7.78,0.13
7.79,0.0649999999999
7.8,0.0650000000001
7.81,0.195
7.82,0.195
7.83,0.455
7.84,0.455
7.85,0.78
7.86,0.78
7.87,0.78
7.88,0.78
7.89,0.78
7.9,0.78
7.91,1.235
7.92,1.235
7.93,1.625
7.94,1.625
7.95,1.82
7.96,1.82
7.97,2.015
7.98,2.015
7.99,1.82
8.,1.82
8.01,1.885
8.02,1.885
8.03,2.665
8.04,2.665
8.05,3.25
8.06,3.25
8.07,3.9
8.08,3.9
8.09,4.16
8.1,4.16
8.11,3.9
8.12,3.9
8.13,4.355
8.14,4.355
8.15,4.355
8.16,4.355
8.17,4.16
8.18,4.16
8.19,4.29
8.2,4.29
8.21,3.9
8.22,3.9
8.23,3.835
8.24,3.835
8.25,4.16
8.26,4.16
8.27,4.03
8.28,4.03
8.29,3.445
8.3,3.445
8.31,3.38
8.32,3.38
8.33,3.185
8.34,3.185
8.35,2.47
8.36,2.47
8.37,2.21
8.38,2.21
8.39,2.08
8.4,2.08
8.41,1.625
8.42,1.625
8.43,1.17
8.44,1.17
8.45,1.105
8.46,1.105
8.47,1.105
8.48,1.105
8.49,0.65
8.5,0.65
8.51,0.195
8.52,0.195
8.53,0.13
8.54,0.13
8.55,0.13
8.56,0.13
8.57,0.0649999999999
8.58,0.0650000000001
8.59,0.
8.6,0.
8.61,0.
8.62,0.
8.63,0.13
8.64,0.13
8.65,0.13
8.66,0.13
8.67,0.
8.68,0.
8.69,0.
8.7,0.
8.71,0.0650000000001
8.72,0.0649999999999
8.73,0.13
8.74,0.13
8.75,0.13
8.76,0.13
8.77,0.0649999999999
8.78,0.0650000000001
8.79,0.0649999999999
8.8,0.0650000000001
8.81,0.26
8.82,0.26
8.83,0.52
8.84,0.52
8.85,0.78
8.86,0.78
8.87,0.78
8.88,0.78
8.89,0.91
8.9,0.91
8.91,1.365
8.92,1.365
8.93,1.56
8.94,1.56
8.95,1.625
8.96,1.625
8.97,1.365
8.98,1.365
8.99,1.43
9.,1.43
9.01,2.34
9.02,2.34
9.03,2.21
9.04,2.21
9.05,1.885
9.06,1.885
9.07,2.665
9.08,2.665
9.09,3.185
9.1,3.185
9.11,2.925
9.12,2.925
9.13,2.795
9.14,2.795
9.15,3.055
9.16,3.055
9.17,3.445
9.18,3.445
9.19,4.16
9.2,4.16
9.21,4.745
9.22,4.745
9.23,4.94
9.24,4.94
9.25,5.07
9.26,5.07
9.27,4.615
9.28,4.615
9.29,3.77
9.3,3.77
9.31,3.51
9.32,3.51
9.33,3.835
9.34,3.835
9.35,3.64
9.36,3.64
9.37,2.6
9.38,2.6
9.39,2.535
9.4,2.535
9.41,2.145
9.42,2.145
9.43,1.365
9.44,1.365
9.45,1.17
9.46,1.17
9.47,0.715
9.48,0.715
9.49,0.715
9.5,0.715
9.51,0.715
9.52,0.715
9.53,0.52
9.54,0.52
9.55,0.455
9.56,0.455
9.57,0.325
9.58,0.325
9.59,0.455
9.6,0.455
9.61,0.455
9.62,0.455
9.63,0.13
9.64,0.13
9.65,0.0649999999999
9.66,0.0650000000001
9.67,0.0650000000001
9.68,0.0649999999999
9.69,0.0649999999999
9.7,0.0650000000001
9.71,0.0650000000001
9.72,0.0649999999999
9.73,0.
9.74,0.
9.75,0.
9.76,0.
9.77,0.
9.78,0.
9.79,0.195
9.8,0.195
9.81,0.325
9.82,0.325
9.83,0.26
9.84,0.26
9.85,0.39
9.86,0.39
9.87,0.455
9.88,0.455
9.89,0.52
9.9,0.52
9.91,1.04
9.92,1.04
9.93,1.56
9.94,1.56
9.95,1.43
9.96,1.43
9.97,1.235
9.98,1.235
9.99,1.625
10.,1.625
