t,s,e,i,r,c,o,n,reff,coal,reportr
5.,8725.,17.,9.,1249.,0.,0.,10000.,1.21911778097,3.72906615356,221.
5.02,8720.,18.,10.,1252.,0.,0.,10000.,1.21567411788,3.51194745167,234.
5.04,8711.,21.,10.,1261.,0.,0.,10003.,1.20587430687,2.98597447416,273.
5.06,8700.,21.,11.,1271.,0.,0.,10003.,1.1908772203,2.94883883121,273.
5.08,8690.,24.,6.,1285.,0.,0.,10005.,1.17073002628,2.5365817236,312.
5.1,8683.,22.,11.,1288.,0.,0.,10004.,1.14658775956,2.71011652259,286.
5.12,8662.,27.,19.,1298.,0.,0.,10006.,1.11592162031,2.14918237985,351.
5.14,8640.,38.,12.,1319.,0.,0.,10009.,1.08120601167,1.4795450686,494.
5.16,8625.,36.,14.,1333.,0.,0.,10008.,1.04448205404,1.50869630027,468.
5.18,8608.,40.,20.,1343.,0.,0.,10011.,1.00433487638,1.30563533929,520.
5.2,8594.,42.,15.,1357.,0.,0.,10008.,0.962974096291,1.19225364303,546.
5.22,8587.,34.,23.,1365.,0.,0.,10009.,0.920433151524,1.40772129057,442.
5.24,8565.,44.,10.,1391.,0.,0.,10010.,0.875424272908,1.03459232253,572.
5.26,8550.,32.,24.,1403.,0.,0.,10009.,0.831152029852,1.35062204851,416.
5.28,8538.,30.,20.,1419.,0.,0.,10007.,0.787713822861,1.36537062629,390.
5.3,8531.,26.,15.,1436.,0.,0.,10008.,0.74559646417,1.49119292834,338.
5.32,8521.,21.,19.,1448.,0.,0.,10009.,0.704964142454,1.7456254956,273.
5.34,8509.,27.,16.,1458.,0.,0.,10010.,0.666555649804,1.28373680703,351.
5.36,8507.,27.,9.,1468.,0.,0.,10011.,0.631866254465,1.21692760119,351.
5.38,8499.,21.,14.,1475.,0.,0.,10009.,0.600365296068,1.48661882836,273.
5.4,8494.,11.,14.,1485.,0.,0.,10004.,0.573178645884,2.70957178054,143.
5.42,8495.,9.,10.,1488.,0.,0.,10002.,0.550544872908,3.18092593235,117.
5.44,8501.,7.,4.,1492.,0.,0.,10004.,0.532684420778,3.95708426863,91.
5.46,8503.,6.,5.,1491.,0.,0.,10005.,0.519589887199,4.50311235573,78.
5.48,8507.,4.,6.,1491.,0.,0.,10008.,0.511693180124,6.65201134161,52.
5.5,8505.,6.,0.,1495.,0.,0.,10006.,0.508999392529,4.41132806859,78.
5.52,8509.,3.,1.,1495.,0.,0.,10008.,0.511813479449,8.87143364379,39.
5.54,8512.,1.,2.,1495.,0.,0.,10010.,0.51988003698,27.033761923,13.
5.56,8509.,2.,2.,1495.,0.,0.,10008.,0.532972608044,13.8572878091,26.
5.58,8515.,1.,1.,1492.,0.,0.,10009.,0.55145509368,28.6756648713,13.
5.6,8518.,1.,1.,1492.,0.,0.,10012.,0.574338888451,29.8656221995,13.
5.62,8516.,1.,0.,1495.,0.,0.,10012.,0.601385914393,31.2720675484,13.
5.64,8519.,1.,0.,1494.,0.,0.,10014.,0.632568005036,32.8935362619,13.
5.66,8522.,0.,0.,1492.,0.,0.,10014.,0.667307353309,inf,0.
5.68,8528.,0.,0.,1488.,0.,0.,10016.,0.705050179029,inf,0.
5.7,8534.,0.,0.,1484.,0.,0.,10018.,0.745114141095,inf,0.
5.72,8537.,1.,0.,1482.,0.,0.,10020.,0.786599698798,40.9031843375,13.
5.74,8539.,1.,0.,1478.,0.,0.,10018.,0.829336979329,43.1255229251,13.
5.76,8538.,1.,1.,1476.,0.,0.,10016.,0.872141854355,45.3513764265,13.
5.78,8534.,4.,1.,1473.,0.,0.,10012.,0.914478030343,11.8882143945,52.
5.8,8535.,2.,0.,1475.,0.,0.,10012.,0.955980947017,24.8555046224,26.
5.82,8534.,3.,1.,1473.,0.,0.,10011.,0.99570095667,17.2588165823,39.
5.84,8536.,5.,2.,1471.,0.,0.,10014.,1.0330848548,10.74408249,65.
5.86,8537.,6.,3.,1467.,0.,0.,10013.,1.0678898626,9.25504547583,78.
5.88,8543.,6.,4.,1462.,0.,0.,10015.,1.09960185482,9.52988274175,78.
5.9,8544.,7.,4.,1462.,0.,0.,10017.,1.12676863429,8.37028128328,91.
5.92,8539.,9.,2.,1464.,0.,0.,10014.,1.14935317554,6.64070723648,117.
5.94,8541.,10.,5.,1459.,0.,0.,10015.,1.16771207823,6.07210280681,130.
5.96,8539.,17.,3.,1462.,0.,0.,10021.,1.17994088142,3.6092309314,221.
5.98,8532.,19.,3.,1463.,0.,0.,10017.,1.18744597187,3.24985213354,247.
6.,8524.,18.,10.,1465.,0.,0.,10017.,1.18901134146,3.43492165312,234.
6.02,8511.,25.,10.,1472.,0.,0.,10018.,1.18440504538,2.46356249439,325.
6.04,8502.,27.,14.,1474.,0.,0.,10017.,1.17529726042,2.26353546451,351.
6.06,8486.,29.,17.,1481.,0.,0.,10013.,1.16042430205,2.08076081746,377.
6.08,8473.,32.,11.,1498.,0.,0.,10014.,1.14046954636,1.85326301284,416.
6.1,8464.,31.,17.,1504.,0.,0.,10016.,1.1163298097,1.87255322918,403.
6.12,8447.,28.,16.,1521.,0.,0.,10012.,1.08757111423,2.01977492644,364.
6.14,8440.,29.,10.,1533.,0.,0.,10012.,1.05586162107,1.89326911365,377.
6.16,8421.,31.,18.,1543.,0.,0.,10013.,1.01926855595,1.70974080353,403.
6.18,8405.,34.,19.,1554.,0.,0.,10012.,0.980551987019,1.49966774485,442.
6.2,8387.,43.,17.,1566.,0.,0.,10013.,0.939310071749,1.13590985421,559.
6.22,8369.,55.,10.,1581.,0.,0.,10015.,0.896528485442,0.847626931691,715.
6.24,8361.,43.,10.,1599.,0.,0.,10013.,0.85431749795,1.03312813706,559.
6.26,8351.,37.,10.,1614.,0.,0.,10012.,0.811563837645,1.14057620426,481.
6.28,8344.,33.,12.,1625.,0.,0.,10014.,0.769277312167,1.21219455251,429.
6.3,8338.,24.,14.,1636.,0.,0.,10012.,0.72843741477,1.57828106533,312.
6.32,8328.,28.,13.,1646.,0.,0.,10015.,0.688583979517,1.2787988191,364.
6.34,8320.,22.,12.,1659.,0.,0.,10013.,0.651554993948,1.5400390766,286.
6.36,8316.,21.,11.,1668.,0.,0.,10016.,0.617371184813,1.52872864811,273.
6.38,8309.,20.,15.,1669.,0.,0.,10013.,0.586709314219,1.52544421697,260.
6.4,8301.,17.,16.,1680.,0.,0.,10014.,0.559595553964,1.71170404742,221.
6.42,8305.,17.,8.,1686.,0.,0.,10016.,0.537479012336,1.6440534495,221.
6.44,8305.,9.,12.,1693.,0.,0.,10019.,0.519623665771,3.0022700689,117.
6.46,8299.,5.,11.,1703.,0.,0.,10018.,0.506466052755,5.26724694866,65.
6.48,8298.,7.,1.,1711.,0.,0.,10017.,0.498673453281,3.70443136723,91.
6.5,8302.,2.,6.,1705.,0.,0.,10015.,0.496403940186,12.9065024448,26.
6.52,8309.,3.,0.,1709.,0.,0.,10021.,0.499135189859,8.65167662423,39.
6.54,8314.,2.,1.,1706.,0.,0.,10023.,0.507128354559,13.1853372185,26.
6.56,8316.,3.,1.,1702.,0.,0.,10022.,0.520156158116,9.01604007401,39.
6.58,8316.,3.,1.,1701.,0.,0.,10021.,0.537922373531,9.32398780788,39.
6.6,8318.,2.,3.,1698.,0.,0.,10021.,0.560349878918,14.5690968519,26.
6.62,8320.,0.,0.,1699.,0.,0.,10019.,0.58713421539,inf,0.
6.64,8322.,1.,0.,1695.,0.,0.,10018.,0.617693277259,32.1200504175,13.
6.66,8324.,1.,0.,1694.,0.,0.,10019.,0.651477862317,33.8768488405,13.
6.68,8326.,0.,0.,1693.,0.,0.,10019.,0.688143768288,inf,0.
6.7,8334.,1.,0.,1687.,0.,0.,10022.,0.727361470822,37.8227964827,13.
6.72,8332.,1.,1.,1684.,0.,0.,10018.,0.767864252658,39.9289411382,13.
6.74,8331.,2.,0.,1685.,0.,0.,10018.,0.809135305631,21.0375179464,26.
6.76,8339.,0.,2.,1680.,0.,0.,10021.,0.851389335727,inf,0.
6.78,8341.,2.,0.,1678.,0.,0.,10021.,0.892993993676,23.2178438356,26.
6.8,8341.,1.,2.,1675.,0.,0.,10019.,0.9335988258,48.5471389416,13.
6.82,8345.,0.,3.,1670.,0.,0.,10018.,0.972969129008,inf,0.
6.84,8344.,7.,1.,1667.,0.,0.,10019.,1.00934374086,7.49798207497,91.
6.86,8345.,9.,0.,1665.,0.,0.,10019.,1.04324752474,6.02765236517,117.
6.88,8347.,4.,7.,1661.,0.,0.,10019.,1.07394501859,13.9612852417,52.
6.9,8342.,9.,3.,1665.,0.,0.,10019.,1.09990959872,6.35503323705,117.
6.92,8337.,12.,6.,1666.,0.,0.,10021.,1.12138001763,4.85931340974,156.
6.94,8331.,14.,4.,1671.,0.,0.,10020.,1.13843284485,4.22846485231,182.
6.96,8339.,11.,6.,1670.,0.,0.,10026.,1.15172971131,5.44454045346,143.
6.98,8333.,14.,10.,1673.,0.,0.,10030.,1.15824686769,4.30205979428,182.
7.,8321.,24.,10.,1675.,0.,0.,10030.,1.15919051504,2.51157944925,312.
7.02,8317.,22.,13.,1681.,0.,0.,10033.,1.15567727856,2.73160084024,286.
7.04,8315.,15.,12.,1691.,0.,0.,10033.,1.14761373738,3.97839428958,195.
7.06,8306.,25.,6.,1697.,0.,0.,10034.,1.13343295091,2.3575405379,325.
7.08,8294.,13.,20.,1704.,0.,0.,10031.,1.11448409302,4.45793637209,169.
7.1,8278.,21.,14.,1721.,0.,0.,10034.,1.08983941011,2.69864996789,273.
7.12,8261.,30.,11.,1732.,0.,0.,10034.,1.06129113479,1.83957130029,390.
7.14,8246.,29.,19.,1739.,0.,0.,10033.,1.02943259864,1.84587914239,377.
7.16,8220.,32.,26.,1752.,0.,0.,10030.,0.993253399011,1.61403677339,416.
7.18,8209.,26.,23.,1772.,0.,0.,10030.,0.955967372475,1.91193474495,338.
7.2,8193.,30.,21.,1783.,0.,0.,10027.,0.916301699669,1.58825627943,390.
7.22,8178.,38.,12.,1799.,0.,0.,10027.,0.875019174704,1.19739466012,494.
7.24,8165.,36.,13.,1811.,0.,0.,10025.,0.833291788332,1.20364369426,468.
7.26,8151.,40.,15.,1818.,0.,0.,10024.,0.791179233407,1.02853300343,520.
7.28,8139.,30.,18.,1838.,0.,0.,10025.,0.749553925707,1.29922680456,390.
7.3,8122.,33.,14.,1853.,0.,0.,10022.,0.708858875212,1.11698974276,429.
7.32,8114.,31.,13.,1866.,0.,0.,10024.,0.670287463475,1.12435316454,403.
7.34,8115.,18.,14.,1877.,0.,0.,10024.,0.63480367734,1.83387729009,234.
7.36,8110.,17.,9.,1887.,0.,0.,10023.,0.601657471765,1.84036403128,221.
7.38,8112.,12.,4.,1893.,0.,0.,10021.,0.572341608761,2.4801469713,156.
7.4,8114.,8.,7.,1892.,0.,0.,10021.,0.546607227403,3.55294697812,104.
7.42,8119.,7.,3.,1894.,0.,0.,10023.,0.525074588353,3.90055408491,91.
7.44,8120.,8.,4.,1893.,0.,0.,10025.,0.507744596363,3.30033987636,104.
7.46,8123.,5.,3.,1895.,0.,0.,10026.,0.495329685807,5.15142873239,65.
7.48,8119.,3.,4.,1896.,0.,0.,10022.,0.487672914694,8.45299718803,39.
7.5,8119.,3.,0.,1901.,0.,0.,10023.,0.485074288875,8.4079543405,39.
7.52,8120.,2.,1.,1897.,0.,0.,10020.,0.487830332224,12.6835886378,26.
7.54,8124.,1.,0.,1897.,0.,0.,10022.,0.49558838575,25.770596059,13.
7.56,8129.,1.,1.,1892.,0.,0.,10023.,0.508408795656,26.4372573741,13.
7.58,8134.,0.,0.,1891.,0.,0.,10025.,0.525939726626,inf,0.
7.6,8135.,0.,0.,1890.,0.,0.,10025.,0.547803250008,inf,0.
7.62,8137.,0.,0.,1889.,0.,0.,10026.,0.573819173723,inf,0.
7.64,8142.,0.,0.,1885.,0.,0.,10027.,0.603790497337,inf,0.
7.66,8146.,1.,0.,1879.,0.,0.,10026.,0.637101566908,33.1292814792,13.
7.68,8145.,0.,1.,1879.,0.,0.,10025.,0.672781217936,inf,0.
7.7,8149.,2.,1.,1874.,0.,0.,10026.,0.710931589471,18.4842213262,26.
7.72,8150.,2.,1.,1873.,0.,0.,10026.,0.750492098814,19.5127945692,26.
7.74,8147.,1.,0.,1873.,0.,0.,10021.,0.791027712358,41.1334410426,13.
7.76,8146.,2.,0.,1870.,0.,0.,10018.,0.831933615025,21.6302739906,26.
7.78,8153.,3.,0.,1864.,0.,0.,10020.,0.872953678844,15.1311971,39.
7.8,8150.,2.,3.,1863.,0.,0.,10018.,0.912311466993,23.7200981418,26.
7.82,8156.,3.,3.,1858.,0.,0.,10020.,0.950743232693,16.4795493667,39.
7.84,8152.,4.,3.,1859.,0.,0.,10018.,0.986216624414,12.8208161174,52.
7.86,8154.,5.,3.,1856.,0.,0.,10018.,1.01947147422,10.6025033318,65.
7.88,8148.,7.,2.,1857.,0.,0.,10014.,1.04886463959,7.79156589413,91.
7.9,8146.,9.,0.,1861.,0.,0.,10016.,1.07438830693,6.20757688447,117.
7.92,8145.,7.,5.,1859.,0.,0.,10016.,1.09610168748,8.14246967841,91.
7.94,8140.,11.,5.,1860.,0.,0.,10016.,1.1127768783,5.26039978834,143.
7.96,8139.,12.,6.,1863.,0.,0.,10020.,1.12478009965,4.87404709847,156.
7.98,8134.,12.,5.,1868.,0.,0.,10019.,1.13182811315,4.90458849033,156.
8.,8127.,13.,6.,1869.,0.,0.,10015.,1.13386026473,4.5354410589,169.
8.02,8131.,13.,5.,1867.,0.,0.,10016.,1.13174955078,4.52699820311,169.
8.04,8127.,14.,7.,1871.,0.,0.,10019.,1.12323384262,4.17201141546,182.
8.06,8122.,22.,7.,1871.,0.,0.,10022.,1.10965146502,2.62281255367,286.
8.08,8115.,22.,9.,1875.,0.,0.,10021.,1.09151959255,2.57995540057,286.
8.1,8108.,20.,12.,1881.,0.,0.,10021.,1.06884286152,2.77899143994,260.
8.12,8099.,22.,9.,1893.,0.,0.,10023.,1.04162088618,2.46201300371,286.
8.14,8089.,27.,13.,1894.,0.,0.,10023.,1.01084019675,1.94680334188,351.
8.16,8076.,29.,13.,1901.,0.,0.,10019.,0.976924742474,1.75172712444,377.
8.18,8065.,28.,11.,1913.,0.,0.,10017.,0.940416943479,1.74648860932,364.
8.2,8053.,29.,16.,1918.,0.,0.,10016.,0.901633284087,1.61672175078,377.
8.22,8052.,21.,15.,1930.,0.,0.,10018.,0.862311578653,2.13524771857,273.
8.24,8036.,33.,13.,1936.,0.,0.,10018.,0.820699549514,1.29322353257,429.
8.26,8034.,33.,13.,1941.,0.,0.,10021.,0.780056050213,1.22917923064,429.
8.28,8020.,33.,9.,1958.,0.,0.,10020.,0.73896328738,1.1644269983,429.
8.3,8017.,30.,7.,1966.,0.,0.,10020.,0.699834513453,1.21304648998,390.
8.32,8011.,23.,18.,1970.,0.,0.,10022.,0.661910826597,1.49649404274,299.
8.34,8001.,22.,20.,1979.,0.,0.,10022.,0.62601082013,1.47966193849,286.
8.36,7998.,21.,8.,1996.,0.,0.,10023.,0.593348515312,1.46924394268,273.
8.38,7995.,11.,12.,2005.,0.,0.,10023.,0.56397412326,2.66605949177,143.
8.4,7992.,12.,5.,2008.,0.,0.,10017.,0.53860357282,2.33394881555,156.
8.42,7991.,11.,5.,2008.,0.,0.,10015.,0.51720934904,2.44498965001,143.
8.44,7990.,9.,5.,2008.,0.,0.,10012.,0.500264402329,2.89041654679,117.
8.46,7989.,8.,2.,2009.,0.,0.,10008.,0.488034729295,3.17222574042,104.
8.48,7988.,6.,1.,2010.,0.,0.,10005.,0.480619575827,4.16536965717,78.
8.5,7989.,5.,1.,2007.,0.,0.,10002.,0.478309509715,4.97441890104,65.
8.52,7992.,3.,2.,2007.,0.,0.,10004.,0.48090831342,8.33574409927,39.
8.54,8000.,0.,2.,2002.,0.,0.,10004.,0.488902105527,inf,0.
8.56,8001.,1.,0.,1999.,0.,0.,10001.,0.501504120128,26.0782142467,13.
8.58,8014.,0.,1.,1991.,0.,0.,10006.,0.519164548923,inf,0.
8.6,8020.,0.,0.,1989.,0.,0.,10009.,0.540922575979,inf,0.
8.62,8030.,0.,0.,1981.,0.,0.,10011.,0.56712203791,inf,0.
8.64,8031.,0.,1.,1978.,0.,0.,10010.,0.596570451916,inf,0.
8.66,8034.,0.,1.,1976.,0.,0.,10011.,0.629283484326,inf,0.
8.68,8042.,1.,1.,1970.,0.,0.,10014.,0.665003043747,34.5801582749,13.
8.7,8047.,0.,1.,1967.,0.,0.,10015.,0.70280402851,inf,0.
8.72,8052.,2.,0.,1964.,0.,0.,10018.,0.74205988507,19.2935570118,26.
8.74,8054.,2.,0.,1962.,0.,0.,10018.,0.782232115179,20.3380349946,26.
8.76,8056.,2.,0.,1956.,0.,0.,10014.,0.823070743631,21.3998393344,26.
8.78,8058.,2.,1.,1952.,0.,0.,10013.,0.863385052592,22.4480113674,26.
8.8,8063.,5.,1.,1946.,0.,0.,10015.,0.902843048263,9.38956770193,65.
8.82,8062.,4.,2.,1942.,0.,0.,10010.,0.940724518965,12.2294187465,52.
8.84,8061.,5.,2.,1940.,0.,0.,10008.,0.976182010155,10.1522929056,65.
8.86,8061.,6.,2.,1937.,0.,0.,10006.,1.00905263573,8.74512284298,78.
8.88,8058.,9.,0.,1940.,0.,0.,10007.,1.03800482981,5.99736123889,117.
8.9,8066.,8.,4.,1930.,0.,0.,10008.,1.06468737475,6.92046793589,104.
8.92,8065.,9.,6.,1927.,0.,0.,10007.,1.08631192121,6.27646887811,117.
8.94,8065.,12.,2.,1929.,0.,0.,10008.,1.10340533425,4.78142311509,156.
8.96,8066.,11.,5.,1927.,0.,0.,10009.,1.11591682442,5.27524317001,143.
8.98,8060.,11.,6.,1929.,0.,0.,10006.,1.12298829305,5.30867193078,143.
9.,8053.,16.,11.,1928.,0.,0.,10008.,1.12432180217,3.65404585707,208.
9.02,8043.,23.,11.,1933.,0.,0.,10010.,1.12017190724,2.53256257289,299.
9.04,8030.,24.,10.,1940.,0.,0.,10004.,1.11149153418,2.4082316574,312.
9.06,8032.,15.,18.,1944.,0.,0.,10009.,1.09878068028,3.8091063583,195.
9.08,8020.,20.,18.,1951.,0.,0.,10009.,1.0800348085,2.80809050211,260.
9.1,8000.,29.,15.,1968.,0.,0.,10012.,1.05555369228,1.89271696546,377.
9.12,7981.,40.,14.,1977.,0.,0.,10012.,1.02757251837,1.33584427389,520.
9.14,7964.,31.,30.,1984.,0.,0.,10009.,0.996611652423,1.67173567503,403.
9.16,7948.,41.,15.,2008.,0.,0.,10012.,0.962113243838,1.22024118731,533.
9.18,7930.,36.,23.,2025.,0.,0.,10014.,0.924952323115,1.3360422445,468.
9.2,7904.,38.,20.,2049.,0.,0.,10011.,0.885392874319,1.21159024907,494.
9.22,7895.,29.,26.,2064.,0.,0.,10014.,0.845835728553,1.51667096154,377.
9.24,7873.,44.,13.,2085.,0.,0.,10015.,0.804293561514,0.950528754517,572.
9.26,7870.,26.,24.,2095.,0.,0.,10015.,0.764590368805,1.52918073761,338.
9.28,7859.,32.,6.,2114.,0.,0.,10011.,0.72477973736,1.17776707321,416.
9.3,7860.,24.,11.,2116.,0.,0.,10011.,0.68674622245,1.48795014864,312.
9.32,7856.,19.,12.,2122.,0.,0.,10009.,0.649946990156,1.77880228885,247.
9.34,7847.,24.,8.,2128.,0.,0.,10007.,0.614881916211,1.33224415179,312.
9.36,7849.,19.,10.,2130.,0.,0.,10008.,0.583167379503,1.59603703864,247.
9.38,7845.,15.,5.,2141.,0.,0.,10006.,0.554333199213,1.92168842394,195.
9.4,7849.,11.,7.,2139.,0.,0.,10006.,0.529547910908,2.50331739702,143.
9.42,7847.,15.,8.,2138.,0.,0.,10008.,0.508244333648,1.76191368998,195.
9.44,7846.,10.,9.,2144.,0.,0.,10009.,0.491395615045,2.55525719823,130.
9.46,7850.,7.,2.,2151.,0.,0.,10010.,0.479447637488,3.56161102134,91.
9.48,7857.,4.,4.,2150.,0.,0.,10015.,0.472265577758,6.13945251085,52.
9.5,7861.,6.,3.,2146.,0.,0.,10016.,0.469988168396,4.07323079277,78.
9.52,7862.,3.,6.,2145.,0.,0.,10016.,0.47251893474,8.19032820217,39.
9.54,7867.,0.,3.,2148.,0.,0.,10018.,0.480102233646,inf,0.
9.56,7869.,1.,0.,2145.,0.,0.,10015.,0.49254084813,25.6121241028,13.
9.58,7866.,0.,1.,2145.,0.,0.,10012.,0.509271403743,inf,0.
9.6,7869.,0.,0.,2143.,0.,0.,10012.,0.530579092888,inf,0.
9.62,7880.,0.,0.,2136.,0.,0.,10016.,0.55625040689,inf,0.
9.64,7885.,0.,0.,2131.,0.,0.,10016.,0.585374193392,inf,0.
9.66,7885.,1.,0.,2129.,0.,0.,10015.,0.617366005288,32.103032275,13.
9.68,7886.,1.,0.,2126.,0.,0.,10013.,0.652168334187,33.9127533777,13.
9.7,7890.,1.,0.,2122.,0.,0.,10013.,0.689229696762,35.8399442316,13.
9.72,7897.,1.,1.,2111.,0.,0.,10010.,0.728356963062,37.8745620792,13.
9.74,7902.,1.,2.,2105.,0.,0.,10010.,0.768082715752,39.9403012191,13.
9.76,7911.,1.,1.,2099.,0.,0.,10012.,0.808417745103,42.0377227454,13.
9.78,7917.,1.,0.,2095.,0.,0.,10013.,0.848277421366,44.110425911,13.
9.8,7920.,0.,1.,2092.,0.,0.,10013.,0.887007960921,inf,0.
9.82,7922.,4.,2.,2090.,0.,0.,10018.,0.923650262433,12.0074534116,52.
9.84,7922.,5.,4.,2090.,0.,0.,10021.,0.958104657499,9.96428843799,65.
9.86,7917.,9.,7.,2087.,0.,0.,10020.,0.989642464097,5.717934237,117.
9.88,7917.,12.,5.,2086.,0.,0.,10020.,1.01851852965,4.41358029516,156.
9.9,7910.,18.,0.,2089.,0.,0.,10017.,1.0431577595,3.01356686079,234.
9.92,7910.,13.,9.,2086.,0.,0.,10018.,1.06426438683,4.25705754732,169.
9.94,7908.,15.,6.,2087.,0.,0.,10016.,1.08106137022,3.74767941677,195.
9.96,7904.,15.,8.,2088.,0.,0.,10015.,1.09284929117,3.7885442094,195.
9.98,7895.,21.,7.,2089.,0.,0.,10012.,1.09933987022,2.72217491673,273.
10.,7893.,17.,12.,2091.,0.,0.,10013.,1.101433082,3.3690894273,221.
