t,neff
5.,0.273129877611
5.02,0.354709234119
5.04,0.406243060967
5.06,0.427772316619
5.08,0.435266931554
5.1,0.478897487556
5.12,0.49163947903
5.14,0.506818702438
5.16,0.806722717576
5.18,1.01512017018
5.2,0.977165366563
5.22,0.724930902125
5.24,0.649184607395
5.26,0.82503692639
5.28,0.596607977255
5.3,0.709192285509
5.32,0.638544672347
5.34,0.616223397259
5.36,0.464792212045
5.38,0.717816691724
5.4,0.581030485396
5.42,0.427084041849
5.44,0.441862731707
5.46,0.415489426662
5.48,0.306900202627
5.5,0.231385151852
5.52,0.191793470282
5.54,0.113307838943
5.56,0.0368350101374
5.58,0.0356180366604
5.6,0.
5.62,0.
5.64,0.0310284855554
5.66,0.0294205941833
5.68,0.
5.7,0.0263644502882
5.72,0.
5.74,0.0236932703009
5.76,0.0225322602689
5.78,0.0429566599299
5.8,0.0410897143102
5.82,0.0197157654981
5.84,0.0760388741691
5.86,0.0367960333818
5.88,0.107294195201
5.9,0.209508858078
5.92,0.188255591938
5.94,0.168493967835
5.96,0.233449673772
5.98,0.165699820737
6.,0.23163481803
6.02,0.332035203739
6.04,0.3345449312
6.06,0.270754752404
6.08,0.361396711956
6.1,0.47481405264
6.12,0.523546724001
6.14,0.521554829314
6.16,0.636674768941
6.18,0.701932710177
6.2,0.900885607735
6.22,0.855384957228
6.24,0.73707035018
6.26,0.800518524129
6.28,0.999306215002
6.3,0.948450276108
6.32,0.859565922969
6.34,0.756685863226
6.36,0.862130062081
6.38,0.806353503924
6.4,0.528122352504
6.42,0.51342296283
6.44,0.493091309232
6.46,0.505455832303
6.48,0.394942410814
6.5,0.277929281753
6.52,0.157975055207
6.54,0.116633982489
6.56,0.
6.58,0.
6.6,0.
6.62,0.
6.64,0.0319253798789
6.66,0.
6.68,0.0286600453788
6.7,0.0271202779979
6.72,0.0256828354982
6.74,0.
6.76,0.0231572228954
6.78,0.0220757420844
6.8,0.021111076704
6.82,0.0608204718652
6.84,0.0585948484603
6.86,0.132341154577
6.88,0.165352484331
6.9,0.179260015206
6.92,0.140594073971
6.94,0.103825395245
6.96,0.188321855235
6.98,0.17011127785
7.,0.237843774548
7.02,0.306784125042
7.04,0.309135368707
7.06,0.417341529887
7.08,0.42423070431
7.1,0.451658465666
7.12,0.612044763591
7.14,0.72692498434
7.16,0.713267997569
7.18,0.823908809575
7.2,0.773495529952
7.22,0.629152078319
7.24,0.660814105609
7.26,0.82085823458
7.28,0.787659473859
7.3,0.749225255767
7.32,0.5866650982
7.34,0.682231141493
7.36,0.458097175511
7.38,0.481962791301
7.4,0.468871484972
7.42,0.413033523228
7.44,0.271817022262
7.46,0.23887335189
7.48,0.323511787502
7.5,0.243830878127
7.52,0.202113122503
7.54,0.199007480105
7.56,0.116387222948
7.58,0.0374974563478
7.6,0.
7.62,0.
7.64,0.0326592983608
7.66,0.0309611448757
7.68,0.
7.7,0.
7.72,0.
7.74,0.
7.76,0.0236888117245
7.78,0.
7.8,0.0431965663558
7.82,0.0207273374982
7.84,0.119859900889
7.86,0.0966439312799
7.88,0.0939055497578
7.9,0.128293822798
7.92,0.17960319804
7.94,0.194558264855
7.96,0.262470059844
7.98,0.260797360172
8.,0.190858736671
8.02,0.20892066394
8.04,0.386310669243
8.06,0.569008472896
8.08,0.542722471611
8.1,0.424705889817
8.12,0.455176059165
8.14,0.724414219121
8.16,0.831312014519
8.18,0.758405409923
8.2,0.747302094978
8.22,0.690076672416
8.24,0.700004715209
8.26,0.76224433793
8.28,0.724174986774
8.3,0.651539554895
8.32,0.718354264037
8.34,0.53767512332
8.36,0.50053690455
8.38,0.56178390808
8.4,0.331008748202
8.42,0.575107236427
8.44,0.317048082536
8.46,0.4469614406
8.48,0.330188379165
8.5,0.165935414756
8.52,0.0412463065348
8.54,0.0406019820428
8.56,0.079178097457
8.58,0.0382784285467
8.6,0.0734796586408
8.62,0.
8.64,0.0333045497403
8.66,0.
8.68,0.
8.7,0.
8.72,0.0267892665542
8.74,0.0254122539358
8.76,0.0241526988114
8.78,0.0460549112995
8.8,0.0440518328899
8.82,0.0422871521079
8.84,0.101885649521
8.86,0.138026786768
8.88,0.0957803541092
8.9,0.130812536947
8.92,0.183209050915
8.94,0.162424208461
8.96,0.232185840632
8.98,0.319632632974
9.,0.390519685512
9.02,0.445324156358
9.04,0.269103807607
9.06,0.491200330428
9.08,0.66718836059
9.1,0.681879274553
9.12,0.544603874927
9.14,0.702156529251
9.16,0.644126791308
9.18,0.995617651551
9.2,0.722769816799
9.22,0.780747023645
9.24,0.91945221701
9.26,0.83766944162
9.28,0.995148058623
9.3,0.759365966858
9.32,0.772140546544
9.34,1.04528404918
9.36,0.826706131188
9.38,0.580055180597
9.4,0.759584272919
9.42,0.35589897488
9.44,0.572957169657
9.46,0.251774191195
9.48,0.1278298048
9.5,0.171239011174
9.52,0.0425701275266
9.54,0.
9.56,0.
9.58,0.0395016124772
9.6,0.0758483053315
9.62,0.0362036480853
9.64,0.0344022554425
9.66,0.0326027173344
9.68,0.
9.7,0.0583862314753
9.72,0.0276453380736
9.74,0.0262262573754
9.76,0.0249252364037
9.78,0.0237543366889
9.8,0.0227168425099
9.82,0.0436001021522
9.84,0.0210062747311
9.86,0.0812912318207
9.88,0.0986771903843
9.9,0.115479994368
9.92,0.245304593796
9.94,0.297309042695
9.96,0.202139735586
9.98,0.255580352373
10.,0.383095881564
