t,s,e,i,r,c,o,n,reff,coal,reportr
5.,7634.,7.,16.,2342.,0.,0.,9999.,1.22930803467,9.13200254324,91.
5.02,7618.,21.,12.,2346.,0.,0.,9997.,1.22421265557,3.03138371854,273.
5.04,7610.,20.,11.,2357.,0.,0.,9998.,1.21456489478,3.15786872642,260.
5.06,7600.,22.,11.,2364.,0.,0.,9997.,1.19951810469,2.83522461108,286.
5.08,7593.,27.,8.,2373.,0.,0.,10001.,1.17925832049,2.27116417279,351.
5.1,7582.,31.,12.,2376.,0.,0.,10001.,1.15408139283,1.93587846539,403.
5.12,7575.,30.,21.,2376.,0.,0.,10002.,1.12501082413,1.95001876183,390.
5.14,7568.,30.,12.,2396.,0.,0.,10006.,1.0916688706,1.89222604237,390.
5.16,7554.,34.,16.,2404.,0.,0.,10008.,1.05415327468,1.6122344201,442.
5.18,7547.,30.,18.,2415.,0.,0.,10010.,1.01479641138,1.7589804464,390.
5.2,7527.,36.,18.,2428.,0.,0.,10009.,0.971812950018,1.40372981669,468.
5.22,7517.,33.,23.,2436.,0.,0.,10009.,0.928496439605,1.46308529877,429.
5.24,7509.,30.,10.,2460.,0.,0.,10009.,0.88450768863,1.53314666029,390.
5.26,7503.,27.,5.,2475.,0.,0.,10010.,0.8404092355,1.61856593504,351.
5.28,7504.,26.,11.,2470.,0.,0.,10011.,0.797473908551,1.5949478171,338.
5.3,7502.,21.,13.,2476.,0.,0.,10012.,0.755252751952,1.8701496715,273.
5.32,7498.,23.,7.,2487.,0.,0.,10015.,0.714408374511,1.61518415107,299.
5.34,7496.,20.,9.,2492.,0.,0.,10017.,0.676190048304,1.75809412559,260.
5.36,7491.,19.,8.,2494.,0.,0.,10012.,0.641106307501,1.75460673632,247.
5.38,7487.,17.,7.,2499.,0.,0.,10010.,0.609392491277,1.86402409096,221.
5.4,7484.,14.,9.,2502.,0.,0.,10009.,0.5816736909,2.16050228048,182.
5.42,7484.,13.,5.,2507.,0.,0.,10009.,0.558527012493,2.23410804997,169.
5.44,7492.,9.,4.,2505.,0.,0.,10010.,0.54065753053,3.12379906528,117.
5.46,7498.,4.,5.,2505.,0.,0.,10012.,0.527612531214,6.85896290578,52.
5.48,7499.,3.,3.,2505.,0.,0.,10010.,0.519678406699,9.00775904945,39.
5.5,7503.,4.,2.,2502.,0.,0.,10011.,0.517184895463,6.72340364102,52.
5.52,7509.,2.,0.,2500.,0.,0.,10011.,0.520319423679,13.5283050156,26.
5.54,7515.,0.,0.,2498.,0.,0.,10013.,0.528755959727,inf,0.
5.56,7518.,1.,0.,2492.,0.,0.,10011.,0.542479617567,28.2089401135,13.
5.58,7523.,0.,1.,2486.,0.,0.,10010.,0.561381474462,inf,0.
5.6,7531.,0.,1.,2480.,0.,0.,10012.,0.585151251459,inf,0.
5.62,7541.,1.,0.,2470.,0.,0.,10012.,0.613665125223,31.9105865116,13.
5.64,7545.,0.,1.,2468.,0.,0.,10014.,0.645598853715,inf,0.
5.66,7552.,0.,0.,2467.,0.,0.,10019.,0.681105638229,inf,0.
5.68,7560.,0.,0.,2463.,0.,0.,10023.,0.71974079546,inf,0.
5.7,7567.,0.,0.,2455.,0.,0.,10022.,0.761036406537,inf,0.
5.72,7573.,0.,0.,2454.,0.,0.,10027.,0.803522534247,inf,0.
5.74,7570.,2.,0.,2449.,0.,0.,10021.,0.846983138773,22.0215616081,26.
5.76,7582.,1.,1.,2436.,0.,0.,10020.,0.892126121808,46.390558334,13.
5.78,7591.,1.,1.,2429.,0.,0.,10022.,0.936420633933,48.6938729645,13.
5.8,7594.,1.,0.,2426.,0.,0.,10021.,0.979289247228,50.9230408558,13.
5.82,7600.,4.,0.,2419.,0.,0.,10023.,1.02059752819,13.2677678665,52.
5.84,7607.,2.,0.,2415.,0.,0.,10024.,1.05985496018,27.5562289646,26.
5.86,7611.,2.,1.,2412.,0.,0.,10026.,1.0956814857,28.4877186281,26.
5.88,7617.,4.,4.,2402.,0.,0.,10027.,1.12842800201,14.6695640261,52.
5.9,7620.,7.,2.,2399.,0.,0.,10028.,1.15674260624,8.59294507494,91.
5.92,7621.,6.,5.,2394.,0.,0.,10026.,1.18065561782,10.2323486878,78.
5.94,7626.,5.,4.,2391.,0.,0.,10026.,1.20014026804,12.4814587876,65.
5.96,7618.,12.,2.,2394.,0.,0.,10026.,1.21244617573,5.25393342816,156.
5.98,7615.,15.,2.,2391.,0.,0.,10023.,1.22055615721,4.23126134501,195.
6.,7621.,8.,12.,2387.,0.,0.,10028.,1.22366565084,7.95382673047,104.
6.02,7618.,11.,9.,2394.,0.,0.,10032.,1.21994157872,5.76699655393,143.
6.04,7613.,19.,11.,2393.,0.,0.,10036.,1.2104430944,3.31279162679,247.
6.06,7607.,23.,15.,2395.,0.,0.,10040.,1.19548081386,2.70282618786,299.
6.08,7590.,27.,17.,2404.,0.,0.,10038.,1.17444737386,2.26189864595,351.
6.1,7589.,33.,4.,2414.,0.,0.,10040.,1.15065976171,1.81316083663,429.
6.12,7589.,31.,9.,2409.,0.,0.,10038.,1.12304788809,1.8838222639,403.
6.14,7584.,34.,9.,2410.,0.,0.,10037.,1.09059801207,1.66797343023,442.
6.16,7569.,37.,14.,2410.,0.,0.,10030.,1.05392971799,1.48119852258,481.
6.18,7562.,33.,14.,2421.,0.,0.,10030.,1.01478582053,1.59905644448,429.
6.2,7552.,33.,6.,2438.,0.,0.,10029.,0.973096264065,1.53336381004,429.
6.22,7545.,25.,19.,2443.,0.,0.,10032.,0.929818327778,1.93402212178,325.
6.24,7528.,39.,11.,2450.,0.,0.,10028.,0.88506564314,1.18008752419,507.
6.26,7527.,32.,16.,2454.,0.,0.,10029.,0.841500216601,1.36743785198,416.
6.28,7517.,31.,15.,2465.,0.,0.,10028.,0.797501197484,1.33774394417,403.
6.3,7512.,25.,6.,2483.,0.,0.,10026.,0.755203469522,1.57082321661,325.
6.32,7500.,19.,15.,2491.,0.,0.,10025.,0.713886117335,1.95379358429,247.
6.34,7493.,24.,11.,2498.,0.,0.,10026.,0.675312678019,1.46317746904,312.
6.36,7490.,23.,10.,2507.,0.,0.,10030.,0.639870337815,1.44666337245,299.
6.38,7486.,19.,6.,2519.,0.,0.,10030.,0.608096120599,1.6642630669,247.
6.4,7491.,17.,6.,2520.,0.,0.,10034.,0.580767134712,1.77646417677,221.
6.42,7490.,7.,10.,2526.,0.,0.,10033.,0.557637662385,4.14245120629,91.
6.44,7484.,13.,4.,2528.,0.,0.,10029.,0.539057028191,2.15622811276,169.
6.46,7476.,9.,8.,2530.,0.,0.,10023.,0.525487111957,3.03614775797,117.
6.48,7477.,8.,5.,2536.,0.,0.,10026.,0.517326917256,3.36262496216,104.
6.5,7477.,8.,4.,2538.,0.,0.,10027.,0.514570296876,3.34470692969,104.
6.52,7484.,5.,4.,2533.,0.,0.,10026.,0.517811240971,5.3852369061,65.
6.54,7482.,8.,2.,2532.,0.,0.,10024.,0.525856386243,3.41806651058,104.
6.56,7488.,4.,3.,2531.,0.,0.,10026.,0.539506523854,7.01358481011,52.
6.58,7493.,2.,0.,2530.,0.,0.,10025.,0.558306191126,14.5159609693,26.
6.6,7498.,0.,2.,2522.,0.,0.,10022.,0.582005875791,inf,0.
6.62,7501.,0.,0.,2522.,0.,0.,10023.,0.609740128777,inf,0.
6.64,7504.,0.,0.,2520.,0.,0.,10024.,0.641450076027,inf,0.
6.66,7510.,0.,0.,2514.,0.,0.,10024.,0.676979861607,inf,0.
6.68,7520.,1.,0.,2504.,0.,0.,10025.,0.715789813648,37.2210703097,13.
6.7,7530.,0.,0.,2496.,0.,0.,10026.,0.7570130625,inf,0.
6.72,7535.,3.,0.,2489.,0.,0.,10027.,0.79949059759,13.8578370249,39.
6.74,7538.,1.,3.,2483.,0.,0.,10025.,0.843066241103,43.8394445374,13.
6.76,7544.,1.,1.,2480.,0.,0.,10026.,0.887123689677,46.1304318632,13.
6.78,7551.,2.,1.,2475.,0.,0.,10029.,0.930836106011,24.2017387563,26.
6.8,7552.,6.,0.,2475.,0.,0.,10033.,0.972708305821,8.43013865045,78.
6.82,7556.,3.,3.,2465.,0.,0.,10027.,1.01428402305,17.5809230662,39.
6.84,7554.,7.,5.,2462.,0.,0.,10028.,1.05205085491,7.81523492216,91.
6.86,7553.,7.,6.,2461.,0.,0.,10027.,1.08722335063,8.07651631897,91.
6.88,7552.,8.,6.,2459.,0.,0.,10025.,1.11902171439,7.27364114351,104.
6.9,7551.,9.,6.,2457.,0.,0.,10023.,1.14683998422,6.62618657548,117.
6.92,7550.,14.,4.,2459.,0.,0.,10027.,1.16953955122,4.3440040474,182.
6.94,7553.,11.,8.,2459.,0.,0.,10031.,1.18805941799,5.61628088505,143.
6.96,7546.,15.,5.,2461.,0.,0.,10027.,1.20086720842,4.16300632254,195.
6.98,7547.,14.,10.,2459.,0.,0.,10030.,1.20881267613,4.48987565421,182.
7.,7536.,17.,17.,2459.,0.,0.,10029.,1.20989697636,3.70086133945,221.
7.02,7521.,24.,14.,2473.,0.,0.,10032.,1.20440806163,2.60955080021,312.
7.04,7516.,27.,10.,2483.,0.,0.,10036.,1.19502039899,2.30152076843,351.
7.06,7505.,33.,4.,2495.,0.,0.,10037.,1.1798034982,1.85908430019,429.
7.08,7498.,27.,14.,2497.,0.,0.,10036.,1.16044285809,2.23492698595,351.
7.1,7490.,31.,15.,2504.,0.,0.,10040.,1.13564917844,1.90495991223,403.
7.12,7477.,35.,21.,2509.,0.,0.,10042.,1.10603298138,1.6432490009,455.
7.14,7458.,40.,19.,2523.,0.,0.,10040.,1.07215843771,1.39380596902,520.
7.16,7449.,30.,30.,2534.,0.,0.,10043.,1.03587795319,1.79552178554,390.
7.18,7424.,45.,14.,2560.,0.,0.,10043.,0.99497724996,1.14975148884,585.
7.2,7411.,38.,18.,2580.,0.,0.,10047.,0.953217191249,1.30440247223,494.
7.22,7400.,36.,20.,2592.,0.,0.,10048.,0.910496907562,1.31516219981,468.
7.24,7387.,32.,22.,2608.,0.,0.,10049.,0.866673365547,1.40834421901,416.
7.26,7373.,33.,17.,2624.,0.,0.,10047.,0.822806623429,1.29654377025,429.
7.28,7382.,26.,14.,2632.,0.,0.,10054.,0.781153312697,1.56230662539,338.
7.3,7369.,22.,14.,2647.,0.,0.,10052.,0.738911071939,1.74651707913,286.
7.32,7361.,22.,14.,2652.,0.,0.,10049.,0.698982054464,1.65213940146,286.
7.34,7354.,19.,5.,2669.,0.,0.,10047.,0.661399852918,1.81014696588,247.
7.36,7351.,20.,9.,2669.,0.,0.,10049.,0.626808201075,1.62970132279,260.
7.38,7358.,19.,2.,2672.,0.,0.,10051.,0.596449739927,1.6323887619,247.
7.4,7355.,15.,6.,2673.,0.,0.,10049.,0.56937207384,1.97382318931,195.
7.42,7369.,9.,6.,2671.,0.,0.,10055.,0.547428714765,3.16292146309,117.
7.44,7371.,7.,4.,2671.,0.,0.,10053.,0.529650386878,3.9345457311,91.
7.46,7378.,7.,3.,2666.,0.,0.,10054.,0.516999682854,3.84056907263,91.
7.48,7386.,5.,2.,2659.,0.,0.,10052.,0.509708902504,5.30097258605,65.
7.5,7395.,3.,3.,2651.,0.,0.,10052.,0.507661286524,8.79946229976,39.
7.52,7400.,5.,0.,2645.,0.,0.,10050.,0.510776671355,5.31207738209,65.
7.54,7397.,1.,4.,2643.,0.,0.,10045.,0.518795480787,26.9773650009,13.
7.56,7405.,2.,0.,2639.,0.,0.,10046.,0.532464249953,13.8440704988,26.
7.58,7412.,1.,1.,2637.,0.,0.,10051.,0.550842233018,28.6437961169,13.
7.6,7419.,1.,1.,2630.,0.,0.,10051.,0.574212218672,29.8590353709,13.
7.62,7421.,2.,3.,2626.,0.,0.,10052.,0.601496763304,15.6389158459,26.
7.64,7422.,3.,1.,2623.,0.,0.,10049.,0.632862259335,10.9696124951,39.
7.66,7422.,3.,0.,2624.,0.,0.,10049.,0.667382745947,11.5679675964,39.
7.68,7425.,2.,2.,2621.,0.,0.,10050.,0.70498917841,18.3297186387,26.
7.7,7432.,3.,1.,2616.,0.,0.,10052.,0.745228265253,12.9172899311,39.
7.72,7434.,2.,0.,2615.,0.,0.,10051.,0.786890682056,20.4591577334,26.
7.74,7439.,1.,0.,2612.,0.,0.,10052.,0.829759104076,43.147473412,13.
7.76,7445.,1.,1.,2602.,0.,0.,10049.,0.873478165222,45.4208645916,13.
7.78,7452.,0.,1.,2593.,0.,0.,10046.,0.917077533257,inf,0.
7.8,7461.,0.,0.,2588.,0.,0.,10049.,0.959457294419,inf,0.
7.82,7472.,2.,0.,2580.,0.,0.,10054.,1.00031465763,26.0081810984,26.
7.84,7475.,2.,0.,2576.,0.,0.,10053.,1.03845956974,26.9999488131,26.
7.86,7476.,3.,1.,2571.,0.,0.,10051.,1.07356988693,18.6085447068,39.
7.88,7481.,6.,1.,2564.,0.,0.,10052.,1.10552378018,9.58120609485,78.
7.9,7480.,7.,1.,2561.,0.,0.,10049.,1.13311721539,8.41744217144,91.
7.92,7487.,6.,2.,2556.,0.,0.,10051.,1.15701113,10.0274297934,78.
7.94,7486.,10.,4.,2549.,0.,0.,10049.,1.17541135985,6.11213907124,130.
7.96,7483.,8.,10.,2544.,0.,0.,10045.,1.18870750346,7.72659877249,104.
7.98,7479.,13.,6.,2548.,0.,0.,10046.,1.19601313154,4.78405252616,169.
8.,7469.,21.,11.,2544.,0.,0.,10045.,1.19723016673,2.96456993667,273.
8.02,7471.,26.,0.,2552.,0.,0.,10049.,1.19437712963,2.38875425926,338.
8.04,7470.,19.,7.,2551.,0.,0.,10047.,1.18640617796,3.24700638178,247.
8.06,7463.,16.,13.,2553.,0.,0.,10045.,1.17226664407,3.80986659324,208.
8.08,7451.,25.,10.,2560.,0.,0.,10046.,1.15202092124,2.39620351619,325.
8.1,7451.,23.,15.,2560.,0.,0.,10049.,1.12872411388,2.55189799661,299.
8.12,7441.,35.,13.,2561.,0.,0.,10050.,1.09983150695,1.63403538176,455.
8.14,7437.,35.,8.,2572.,0.,0.,10052.,1.0678631575,1.58653954828,455.
8.16,7421.,25.,19.,2582.,0.,0.,10047.,1.03157333534,2.14567253751,325.
8.18,7404.,33.,13.,2594.,0.,0.,10044.,0.992198020574,1.56346354757,429.
8.2,7394.,36.,9.,2608.,0.,0.,10047.,0.951030618283,1.37371089307,468.
8.22,7389.,30.,13.,2612.,0.,0.,10044.,0.909505530517,1.5764762529,390.
8.24,7380.,24.,27.,2613.,0.,0.,10044.,0.86628312614,1.8769467733,312.
8.26,7368.,31.,20.,2627.,0.,0.,10046.,0.822330485473,1.37939307241,403.
8.28,7357.,28.,23.,2639.,0.,0.,10047.,0.7790502525,1.44680761179,364.
8.3,7344.,27.,24.,2649.,0.,0.,10044.,0.736990791807,1.41938967311,351.
8.32,7331.,29.,21.,2661.,0.,0.,10042.,0.696618585142,1.24910918715,377.
8.34,7326.,25.,8.,2682.,0.,0.,10041.,0.659275319639,1.37129266485,325.
8.36,7328.,18.,8.,2689.,0.,0.,10043.,0.625220330285,1.80619206527,234.
8.38,7332.,17.,1.,2695.,0.,0.,10045.,0.594697151424,1.81907363965,221.
8.4,7341.,12.,7.,2689.,0.,0.,10049.,0.56828829287,2.46258260244,156.
8.42,7349.,10.,6.,2690.,0.,0.,10055.,0.545942953564,2.83890335853,130.
8.44,7352.,7.,8.,2688.,0.,0.,10055.,0.528180044276,3.92362318605,91.
8.46,7348.,9.,8.,2688.,0.,0.,10053.,0.514948706719,2.97525919438,117.
8.48,7351.,5.,4.,2692.,0.,0.,10052.,0.507293547564,5.27585289467,65.
8.5,7355.,4.,2.,2697.,0.,0.,10058.,0.50461411386,6.55998348018,52.
8.52,7362.,1.,3.,2693.,0.,0.,10059.,0.507699108206,26.4003536267,13.
8.54,7366.,0.,2.,2692.,0.,0.,10060.,0.515850956889,inf,0.
8.56,7366.,0.,0.,2692.,0.,0.,10058.,0.529027987546,inf,0.
8.58,7371.,0.,0.,2689.,0.,0.,10060.,0.547305135174,inf,0.
8.6,7378.,0.,0.,2681.,0.,0.,10059.,0.570584768612,inf,0.
8.62,7386.,0.,0.,2672.,0.,0.,10058.,0.598302772132,inf,0.
8.64,7389.,0.,1.,2668.,0.,0.,10058.,0.629484627597,inf,0.
8.66,7401.,0.,1.,2659.,0.,0.,10061.,0.664700684393,inf,0.
8.68,7403.,1.,0.,2655.,0.,0.,10059.,0.702271421804,36.5181139338,13.
8.7,7413.,0.,1.,2647.,0.,0.,10061.,0.742658145297,inf,0.
8.72,7413.,0.,1.,2640.,0.,0.,10054.,0.784433691008,inf,0.
8.74,7417.,0.,0.,2637.,0.,0.,10054.,0.827140613153,inf,0.
8.76,7429.,0.,0.,2628.,0.,0.,10057.,0.870907650296,inf,0.
8.78,7429.,1.,0.,2623.,0.,0.,10053.,0.913610448085,47.5077433004,13.
8.8,7435.,1.,0.,2616.,0.,0.,10052.,0.955828439258,49.7030788414,13.
8.82,7437.,2.,0.,2613.,0.,0.,10052.,0.995827125258,25.8915052567,26.
8.84,7444.,1.,2.,2608.,0.,0.,10055.,1.03394721543,53.7652552022,13.
8.86,7448.,2.,2.,2601.,0.,0.,10053.,1.06933624387,27.8027423406,26.
8.88,7450.,3.,3.,2596.,0.,0.,10052.,1.10094267642,19.0830063913,39.
8.9,7456.,4.,1.,2594.,0.,0.,10055.,1.12880756315,14.674498321,52.
8.92,7452.,6.,3.,2593.,0.,0.,10054.,1.15125874441,9.97757578488,78.
8.94,7446.,12.,8.,2587.,0.,0.,10053.,1.16866558869,5.06421755099,156.
8.96,7443.,17.,7.,2591.,0.,0.,10058.,1.18082513152,3.61193569641,221.
8.98,7441.,15.,7.,2593.,0.,0.,10056.,1.18875300681,4.12101042361,195.
9.,7436.,18.,6.,2601.,0.,0.,10061.,1.19004494802,3.43790762762,234.
9.02,7434.,12.,7.,2609.,0.,0.,10062.,1.18692651666,5.14334823888,156.
9.04,7429.,16.,9.,2608.,0.,0.,10062.,1.17813550765,3.82894039988,208.
9.06,7420.,22.,6.,2612.,0.,0.,10060.,1.16377448591,2.75073969397,286.
9.08,7416.,19.,10.,2615.,0.,0.,10060.,1.14501378961,3.13372195051,247.
9.1,7399.,26.,13.,2621.,0.,0.,10059.,1.11973255581,2.23946511162,338.
9.12,7390.,24.,14.,2632.,0.,0.,10060.,1.09120757388,2.36428307673,312.
9.14,7372.,27.,19.,2639.,0.,0.,10057.,1.05800367922,2.03763671553,351.
9.16,7359.,34.,13.,2650.,0.,0.,10056.,1.02203934898,1.56311900432,442.
9.18,7352.,33.,16.,2655.,0.,0.,10056.,0.984053893361,1.55063037742,429.
9.2,7342.,33.,20.,2658.,0.,0.,10053.,0.943778659255,1.48716637216,429.
9.22,7329.,35.,18.,2673.,0.,0.,10055.,0.901133278903,1.3388265858,455.
9.24,7320.,25.,18.,2693.,0.,0.,10056.,0.858214827625,1.78508684146,325.
9.26,7304.,26.,25.,2700.,0.,0.,10055.,0.814457893971,1.62891578794,338.
9.28,7291.,33.,13.,2722.,0.,0.,10059.,0.771140315812,1.21513019461,429.
9.3,7284.,28.,20.,2726.,0.,0.,10058.,0.729952168979,1.35562545667,364.
9.32,7268.,29.,11.,2750.,0.,0.,10058.,0.689533454172,1.23640481438,377.
9.34,7269.,24.,12.,2755.,0.,0.,10060.,0.652910358607,1.41463911032,312.
9.36,7274.,20.,6.,2762.,0.,0.,10062.,0.619441185316,1.61054708182,260.
9.38,7268.,17.,9.,2767.,0.,0.,10061.,0.588568632268,1.80032758106,221.
9.4,7270.,18.,7.,2768.,0.,0.,10063.,0.562008999078,1.62358155289,234.
9.42,7269.,14.,9.,2771.,0.,0.,10063.,0.539570613391,2.00411942117,182.
9.44,7269.,10.,6.,2775.,0.,0.,10060.,0.521957633406,2.71417969371,130.
9.46,7270.,7.,6.,2775.,0.,0.,10058.,0.509229185269,3.78284537628,91.
9.48,7270.,6.,2.,2778.,0.,0.,10056.,0.501504162199,4.34636940573,78.
9.5,7275.,4.,2.,2774.,0.,0.,10055.,0.49927436771,6.49056678023,52.
9.52,7281.,4.,2.,2766.,0.,0.,10053.,0.502412856302,6.53136713192,52.
9.54,7284.,3.,1.,2765.,0.,0.,10053.,0.51046357917,8.84803537228,39.
9.56,7285.,3.,0.,2763.,0.,0.,10051.,0.523574936008,9.07529889081,39.
9.58,7293.,3.,0.,2758.,0.,0.,10054.,0.541836709489,9.39183629782,39.
9.6,7295.,1.,1.,2751.,0.,0.,10048.,0.56478350121,29.3687420629,13.
9.62,7299.,1.,1.,2748.,0.,0.,10049.,0.591784874075,30.7728134519,13.
9.64,7310.,1.,1.,2739.,0.,0.,10051.,0.623188165713,32.4057846171,13.
9.66,7316.,0.,3.,2734.,0.,0.,10053.,0.65758952263,inf,0.
9.68,7316.,5.,1.,2731.,0.,0.,10053.,0.694432549025,7.22209850986,65.
9.7,7320.,1.,3.,2726.,0.,0.,10050.,0.734143768555,38.1754759649,13.
9.72,7326.,0.,1.,2725.,0.,0.,10052.,0.775381711433,inf,0.
9.74,7327.,0.,0.,2721.,0.,0.,10048.,0.817591772603,inf,0.
9.76,7334.,0.,0.,2717.,0.,0.,10051.,0.860283968707,inf,0.
9.78,7343.,0.,0.,2708.,0.,0.,10051.,0.903213950801,inf,0.
9.8,7352.,1.,0.,2699.,0.,0.,10052.,0.945158128504,49.1482226822,13.
9.82,7357.,0.,0.,2692.,0.,0.,10049.,0.985409080735,inf,0.
9.84,7361.,3.,0.,2686.,0.,0.,10050.,1.02292745338,17.7307425252,39.
9.86,7357.,4.,2.,2682.,0.,0.,10045.,1.0571122767,13.742459597,52.
9.88,7354.,6.,0.,2684.,0.,0.,10044.,1.08762162874,9.42605411574,78.
9.9,7360.,4.,2.,2679.,0.,0.,10045.,1.11538284198,14.4999769458,52.
9.92,7361.,6.,0.,2678.,0.,0.,10045.,1.13821905851,9.86456517376,78.
9.94,7364.,5.,0.,2671.,0.,0.,10040.,1.15729206169,12.0358374416,65.
9.96,7368.,3.,3.,2665.,0.,0.,10039.,1.17113878239,20.2997388947,39.
9.98,7370.,7.,1.,2663.,0.,0.,10041.,1.17916915251,8.75954227582,91.
10.,7371.,4.,4.,2661.,0.,0.,10040.,1.18210983686,15.3674278792,52.
