t,s,e,i,r,c,o,n,reff,coal,reportr
5.,8882.,12.,6.,1100.,0.,0.,10000.,1.17951852582,5.11124694524,156.
5.02,8874.,14.,8.,1103.,0.,0.,9999.,1.17591873378,4.36769815404,182.
5.04,8865.,21.,5.,1108.,0.,0.,9999.,1.16681025162,2.88924443259,273.
5.06,8862.,21.,7.,1112.,0.,0.,10002.,1.15301954001,2.85509600384,273.
5.08,8851.,20.,10.,1116.,0.,0.,9997.,1.13420221184,2.9489257508,260.
5.1,8839.,21.,15.,1121.,0.,0.,9996.,1.11020157031,2.74907055506,273.
5.12,8817.,24.,15.,1137.,0.,0.,9993.,1.08097271514,2.34210754947,312.
5.14,8805.,19.,23.,1147.,0.,0.,9994.,1.04879155428,2.87037688541,247.
5.16,8782.,34.,19.,1160.,0.,0.,9995.,1.01207705125,1.54788254897,442.
5.18,8755.,40.,30.,1172.,0.,0.,9997.,0.972196320878,1.26385521714,520.
5.2,8717.,52.,28.,1195.,0.,0.,9992.,0.92981155831,0.92981155831,676.
5.22,8695.,54.,20.,1221.,0.,0.,9990.,0.887481573135,0.854611885241,702.
5.24,8687.,34.,33.,1240.,0.,0.,9994.,0.845219558988,1.29268873728,442.
5.26,8666.,33.,26.,1269.,0.,0.,9994.,0.8018592651,1.26353581167,429.
5.28,8644.,37.,25.,1286.,0.,0.,9992.,0.75908833285,1.06682684617,481.
5.3,8629.,34.,27.,1305.,0.,0.,9995.,0.717699481917,1.09765803117,442.
5.32,8616.,25.,25.,1330.,0.,0.,9996.,0.678360203648,1.41098922359,325.
5.34,8605.,28.,8.,1357.,0.,0.,9998.,0.641421447649,1.19121125992,364.
5.36,8603.,26.,10.,1359.,0.,0.,9998.,0.608102443772,1.21620488754,338.
5.38,8605.,20.,10.,1368.,0.,0.,10003.,0.578059860261,1.50295563668,260.
5.4,8603.,13.,11.,1378.,0.,0.,10005.,0.551693701914,2.20677480765,169.
5.42,8600.,10.,6.,1385.,0.,0.,10001.,0.529767096628,2.75478890247,130.
5.44,8598.,6.,11.,1386.,0.,0.,10001.,0.512202204553,4.43908577279,78.
5.46,8593.,12.,6.,1392.,0.,0.,10003.,0.499153262844,2.16299747232,156.
5.48,8593.,7.,6.,1398.,0.,0.,10004.,0.491434213885,3.65065416029,91.
5.5,8593.,5.,1.,1407.,0.,0.,10006.,0.488766605531,5.08317269752,65.
5.52,8596.,3.,2.,1407.,0.,0.,10008.,0.491409298949,8.51776118178,39.
5.54,8594.,2.,1.,1408.,0.,0.,10005.,0.499111558828,12.9769005295,26.
5.56,8602.,2.,1.,1401.,0.,0.,10006.,0.512184426946,13.3167951006,26.
5.58,8603.,2.,1.,1398.,0.,0.,10004.,0.529792977103,13.7746174047,26.
5.6,8608.,0.,2.,1397.,0.,0.,10007.,0.551904016574,inf,0.
5.62,8613.,0.,1.,1395.,0.,0.,10009.,0.578250431707,inf,0.
5.64,8619.,1.,0.,1391.,0.,0.,10011.,0.608442269458,31.6389980118,13.
5.66,8622.,1.,0.,1388.,0.,0.,10011.,0.641854059835,33.3764111114,13.
5.68,8628.,0.,1.,1385.,0.,0.,10014.,0.678083955483,inf,0.
5.7,8632.,1.,0.,1382.,0.,0.,10015.,0.71651525342,37.2587931778,13.
5.72,8633.,1.,0.,1378.,0.,0.,10012.,0.756607920776,39.3436118804,13.
5.74,8636.,0.,2.,1378.,0.,0.,10016.,0.797328209717,inf,0.
5.76,8633.,3.,1.,1379.,0.,0.,10016.,0.838120545572,14.5274227899,39.
5.78,8638.,3.,0.,1378.,0.,0.,10019.,0.879111719121,15.2379364648,39.
5.8,8634.,4.,1.,1377.,0.,0.,10016.,0.918751472927,11.9437691481,52.
5.82,8640.,5.,1.,1371.,0.,0.,10017.,0.957510584892,9.95811008288,65.
5.84,8635.,11.,2.,1370.,0.,0.,10018.,0.992851411628,4.69347940043,143.
5.86,8636.,7.,7.,1367.,0.,0.,10017.,1.02629952074,7.62393929692,91.
5.88,8636.,9.,4.,1369.,0.,0.,10018.,1.05613974144,6.10214072835,117.
5.9,8632.,13.,3.,1370.,0.,0.,10018.,1.08182086939,4.32728347757,169.
5.92,8625.,10.,9.,1370.,0.,0.,10014.,1.10336539227,5.73750003982,130.
5.94,8614.,20.,3.,1377.,0.,0.,10014.,1.11940966462,2.91046512802,260.
5.96,8611.,14.,8.,1379.,0.,0.,10012.,1.13190717517,4.20422665063,182.
5.98,8605.,15.,10.,1383.,0.,0.,10013.,1.13867847684,3.94741871971,195.
6.,8597.,15.,10.,1388.,0.,0.,10010.,1.14053035081,3.95383854949,195.
6.02,8591.,18.,9.,1390.,0.,0.,10008.,1.13739384987,3.28580445517,234.
6.04,8577.,28.,11.,1391.,0.,0.,10007.,1.12800123444,2.0948594354,364.
6.06,8566.,23.,20.,1399.,0.,0.,10008.,1.11383932042,2.51824542008,299.
6.08,8550.,27.,15.,1415.,0.,0.,10007.,1.09453601467,2.10799528751,351.
6.1,8542.,23.,22.,1420.,0.,0.,10007.,1.07171822997,2.42301512862,299.
6.12,8513.,32.,24.,1433.,0.,0.,10002.,1.04276287756,1.69448967603,416.
6.14,8494.,40.,10.,1454.,0.,0.,9998.,1.01134257525,1.31474534783,520.
6.16,8483.,31.,15.,1471.,0.,0.,10000.,0.977130141307,1.63905701123,403.
6.18,8473.,36.,13.,1482.,0.,0.,10004.,0.940223362508,1.35810041251,468.
6.2,8460.,38.,12.,1494.,0.,0.,10004.,0.901315832354,1.23337956006,494.
6.22,8454.,40.,6.,1505.,0.,0.,10005.,0.86158949853,1.12006634809,520.
6.24,8449.,26.,19.,1512.,0.,0.,10006.,0.821076974842,1.64215394968,338.
6.26,8431.,34.,18.,1524.,0.,0.,10007.,0.77910143015,1.19156689317,442.
6.28,8427.,24.,18.,1539.,0.,0.,10008.,0.738848984559,1.60083946654,312.
6.3,8418.,25.,4.,1564.,0.,0.,10011.,0.699030978041,1.45398443433,325.
6.32,8419.,19.,4.,1570.,0.,0.,10012.,0.661790589998,1.81121635157,247.
6.34,8417.,15.,8.,1569.,0.,0.,10009.,0.626718295893,2.17262342576,195.
6.36,8418.,11.,7.,1572.,0.,0.,10008.,0.594431181824,2.81003831408,143.
6.38,8415.,10.,5.,1577.,0.,0.,10007.,0.565070230759,2.93836519995,130.
6.4,8414.,9.,4.,1581.,0.,0.,10008.,0.53941175588,3.1166012562,117.
6.42,8415.,11.,2.,1579.,0.,0.,10007.,0.518060138965,2.44901156602,143.
6.44,8418.,9.,3.,1577.,0.,0.,10007.,0.501178522527,2.89569813016,117.
6.46,8421.,7.,4.,1575.,0.,0.,10007.,0.48896653726,3.63232284822,91.
6.48,8420.,6.,7.,1574.,0.,0.,10007.,0.481395971888,4.17209842303,78.
6.5,8424.,6.,2.,1575.,0.,0.,10007.,0.479106067266,4.15225258297,78.
6.52,8428.,3.,4.,1574.,0.,0.,10009.,0.481757071218,8.35045590112,39.
6.54,8426.,3.,1.,1576.,0.,0.,10006.,0.489305759304,8.48129982794,39.
6.56,8428.,2.,2.,1571.,0.,0.,10003.,0.501974537203,13.0513379673,26.
6.58,8431.,2.,0.,1571.,0.,0.,10004.,0.519200812502,13.499221125,26.
6.6,8434.,2.,2.,1566.,0.,0.,10004.,0.54091012372,14.0636632167,26.
6.62,8435.,0.,3.,1568.,0.,0.,10006.,0.566469845203,inf,0.
6.64,8438.,1.,0.,1569.,0.,0.,10008.,0.595843467835,30.9838603274,13.
6.66,8444.,1.,0.,1565.,0.,0.,10010.,0.628665868868,32.6906251811,13.
6.68,8446.,1.,0.,1562.,0.,0.,10009.,0.664111968205,34.5338223467,13.
6.7,8449.,0.,1.,1556.,0.,0.,10006.,0.701955811245,inf,0.
6.72,8457.,0.,0.,1551.,0.,0.,10008.,0.741479276422,inf,0.
6.74,8457.,0.,0.,1548.,0.,0.,10005.,0.781660290402,inf,0.
6.76,8460.,1.,0.,1544.,0.,0.,10005.,0.822228132458,42.7558628878,13.
6.78,8464.,1.,0.,1541.,0.,0.,10006.,0.862522439495,44.8511668538,13.
6.8,8464.,2.,0.,1537.,0.,0.,10003.,0.901832133566,23.4476354727,26.
6.82,8470.,2.,0.,1532.,0.,0.,10004.,0.939890461518,24.4371519995,26.
6.84,8470.,3.,1.,1529.,0.,0.,10003.,0.975340110082,16.9058952414,39.
6.86,8474.,4.,1.,1527.,0.,0.,10006.,1.00815457974,13.1060095366,52.
6.88,8472.,6.,3.,1526.,0.,0.,10007.,1.03722225361,8.98925953126,78.
6.9,8472.,7.,3.,1525.,0.,0.,10007.,1.06293571111,7.89609385394,91.
6.92,8463.,8.,11.,1524.,0.,0.,10006.,1.08350690556,7.04279488611,104.
6.94,8453.,15.,2.,1535.,0.,0.,10005.,1.09947547853,3.81151499223,195.
6.96,8451.,15.,4.,1534.,0.,0.,10004.,1.11176368315,3.85411410157,195.
6.98,8444.,16.,7.,1535.,0.,0.,10002.,1.11860260833,3.63545847709,208.
7.,8443.,18.,8.,1536.,0.,0.,10005.,1.1206595434,3.23746090316,234.
7.02,8425.,23.,11.,1541.,0.,0.,10000.,1.11630883712,2.52382867522,299.
7.04,8407.,28.,6.,1558.,0.,0.,9999.,1.10652834578,2.0549812136,364.
7.06,8411.,22.,12.,1556.,0.,0.,10001.,1.09445013076,2.58688212725,286.
7.08,8391.,35.,13.,1564.,0.,0.,10003.,1.074611029,1.59656495737,455.
7.1,8381.,30.,20.,1575.,0.,0.,10006.,1.05162352538,1.82281411066,390.
7.12,8373.,32.,14.,1590.,0.,0.,10009.,1.02489690261,1.66545746674,416.
7.14,8368.,32.,8.,1601.,0.,0.,10009.,0.995245330153,1.6172736615,416.
7.16,8358.,31.,18.,1603.,0.,0.,10010.,0.961770013677,1.61329163585,403.
7.18,8343.,40.,15.,1615.,0.,0.,10013.,0.924965516834,1.20245517188,520.
7.2,8335.,33.,22.,1625.,0.,0.,10015.,0.887023182679,1.39773349998,429.
7.22,8309.,41.,11.,1649.,0.,0.,10010.,0.846388839084,1.07346877152,533.
7.24,8304.,38.,10.,1661.,0.,0.,10013.,0.806421664028,1.10352438235,494.
7.26,8293.,33.,19.,1663.,0.,0.,10008.,0.76627239567,1.20745953257,429.
7.28,8282.,33.,18.,1675.,0.,0.,10008.,0.726135907217,1.14421415683,429.
7.3,8269.,29.,19.,1693.,0.,0.,10010.,0.686726610678,1.23137185363,377.
7.32,8262.,29.,8.,1713.,0.,0.,10012.,0.649449323503,1.16452982145,377.
7.34,8254.,24.,14.,1721.,0.,0.,10013.,0.614336025615,1.33106138883,312.
7.36,8248.,16.,20.,1727.,0.,0.,10011.,0.582252214699,1.89231969777,208.
7.38,8240.,14.,14.,1742.,0.,0.,10010.,0.553153088925,2.05456861601,182.
7.4,8229.,15.,9.,1752.,0.,0.,10005.,0.527709807398,1.82939399898,195.
7.42,8227.,15.,4.,1761.,0.,0.,10007.,0.506486127542,1.75581857548,195.
7.44,8228.,7.,10.,1760.,0.,0.,10005.,0.489964505888,3.63973632945,91.
7.46,8228.,3.,8.,1765.,0.,0.,10004.,0.477903236074,8.28365609196,39.
7.48,8229.,6.,4.,1765.,0.,0.,10004.,0.470617030846,4.078680934,78.
7.5,8235.,5.,0.,1767.,0.,0.,10007.,0.46835689268,4.87091168387,65.
7.52,8242.,0.,3.,1763.,0.,0.,10008.,0.471172108183,inf,0.
7.54,8243.,0.,1.,1764.,0.,0.,10008.,0.478583117647,inf,0.
7.56,8243.,1.,1.,1762.,0.,0.,10007.,0.490759629507,25.5195007344,13.
7.58,8245.,2.,0.,1760.,0.,0.,10007.,0.507594277572,13.1974512169,26.
7.6,8247.,1.,1.,1755.,0.,0.,10004.,0.528916977747,27.5036828428,13.
7.62,8247.,1.,0.,1752.,0.,0.,10000.,0.55417662353,28.8171844236,13.
7.64,8253.,1.,0.,1746.,0.,0.,10000.,0.583246046095,30.328794397,13.
7.66,8263.,0.,1.,1734.,0.,0.,9998.,0.615928578957,inf,0.
7.68,8269.,0.,0.,1730.,0.,0.,9999.,0.650844655004,inf,0.
7.7,8272.,0.,0.,1725.,0.,0.,9997.,0.68786909214,inf,0.
7.72,8275.,0.,0.,1719.,0.,0.,9994.,0.726538513294,inf,0.
7.74,8281.,0.,0.,1715.,0.,0.,9996.,0.766082160575,inf,0.
7.76,8289.,0.,0.,1708.,0.,0.,9997.,0.806253307959,inf,0.
7.78,8293.,0.,0.,1702.,0.,0.,9995.,0.846026785828,inf,0.
7.8,8294.,1.,0.,1700.,0.,0.,9995.,0.884426104181,45.9901574174,13.
7.82,8292.,3.,0.,1698.,0.,0.,9993.,0.921151197289,15.966620753,39.
7.84,8297.,4.,3.,1688.,0.,0.,9992.,0.956470561623,12.4341173011,52.
7.86,8294.,7.,2.,1691.,0.,0.,9994.,0.98792471905,7.33886934151,91.
7.88,8299.,8.,2.,1689.,0.,0.,9998.,1.0169565804,6.6102177726,104.
7.9,8293.,13.,2.,1688.,0.,0.,9996.,1.04162253904,4.16649015617,169.
7.92,8293.,11.,5.,1689.,0.,0.,9998.,1.06259158974,5.0231602424,143.
7.94,8289.,13.,11.,1685.,0.,0.,9998.,1.07889897128,4.31559588512,169.
7.96,8275.,24.,9.,1690.,0.,0.,9998.,1.08926345863,2.36007082704,312.
7.98,8270.,21.,10.,1695.,0.,0.,9996.,1.09620988846,2.71442448571,273.
8.,8261.,21.,7.,1705.,0.,0.,9994.,1.09770912557,2.71813688236,273.
8.02,8260.,19.,6.,1708.,0.,0.,9993.,1.09521305799,2.99742521135,247.
8.04,8252.,22.,8.,1711.,0.,0.,9993.,1.08677939697,2.56875130192,286.
8.06,8246.,20.,11.,1717.,0.,0.,9994.,1.07373165569,2.79170230479,260.
8.08,8229.,28.,6.,1728.,0.,0.,9991.,1.05512993513,1.95952702238,364.
8.1,8220.,29.,10.,1727.,0.,0.,9986.,1.03348744869,1.853149908,377.
8.12,8199.,39.,17.,1728.,0.,0.,9983.,1.00621223538,1.34161631383,507.
8.14,8185.,38.,18.,1744.,0.,0.,9985.,0.975820147768,1.33533283379,494.
8.16,8164.,42.,18.,1758.,0.,0.,9982.,0.942081278972,1.16638634539,546.
8.18,8148.,48.,11.,1777.,0.,0.,9984.,0.905970304724,0.981467830117,624.
8.2,8138.,37.,25.,1784.,0.,0.,9984.,0.868747230438,1.22094205359,481.
8.22,8126.,28.,19.,1808.,0.,0.,9981.,0.830152746,1.54171224257,364.
8.24,8107.,30.,21.,1820.,0.,0.,9978.,0.790052106546,1.36942365135,390.
8.26,8094.,27.,19.,1835.,0.,0.,9975.,0.750359020374,1.44513589109,351.
8.28,8080.,27.,14.,1853.,0.,0.,9974.,0.710840200074,1.36902557051,351.
8.3,8070.,30.,15.,1862.,0.,0.,9977.,0.672416752256,1.16552237058,390.
8.32,8069.,13.,16.,1879.,0.,0.,9977.,0.636503303914,2.54601321565,169.
8.34,8064.,15.,6.,1892.,0.,0.,9977.,0.602360218664,2.08818209137,195.
8.36,8069.,11.,7.,1888.,0.,0.,9975.,0.571671799873,2.70244850849,143.
8.38,8064.,12.,1.,1899.,0.,0.,9976.,0.543183146299,2.35379363396,156.
8.4,8070.,9.,3.,1894.,0.,0.,9976.,0.519017845378,2.9987697733,117.
8.42,8070.,9.,5.,1892.,0.,0.,9976.,0.498364445814,2.87943902026,117.
8.44,8069.,10.,5.,1891.,0.,0.,9975.,0.481941406727,2.50609531498,130.
8.46,8066.,7.,7.,1892.,0.,0.,9972.,0.469997252538,3.49140816171,91.
8.48,8067.,8.,6.,1894.,0.,0.,9975.,0.462693515277,3.0075078493,104.
8.5,8065.,9.,4.,1894.,0.,0.,9972.,0.460298239844,2.65950094132,117.
8.52,8068.,4.,4.,1894.,0.,0.,9970.,0.462982943257,6.01877826235,52.
8.54,8071.,1.,2.,1894.,0.,0.,9968.,0.470477316568,24.4648204615,13.
8.56,8079.,1.,0.,1889.,0.,0.,9969.,0.482829105508,25.1071134864,13.
8.58,8088.,0.,1.,1883.,0.,0.,9972.,0.499676390773,inf,0.
8.6,8091.,0.,0.,1881.,0.,0.,9972.,0.520577181265,inf,0.
8.62,8095.,0.,0.,1879.,0.,0.,9974.,0.545380614489,inf,0.
8.64,8103.,0.,0.,1871.,0.,0.,9974.,0.574138186585,inf,0.
8.66,8109.,0.,0.,1866.,0.,0.,9975.,0.605843051753,inf,0.
8.68,8111.,0.,0.,1863.,0.,0.,9974.,0.640008816324,inf,0.
8.7,8114.,0.,0.,1860.,0.,0.,9974.,0.67628631864,inf,0.
8.72,8121.,0.,0.,1857.,0.,0.,9978.,0.714160777263,inf,0.
8.74,8123.,0.,0.,1853.,0.,0.,9976.,0.752971996479,inf,0.
8.76,8123.,1.,0.,1851.,0.,0.,9975.,0.791849434403,41.176170589,13.
8.78,8127.,1.,0.,1847.,0.,0.,9975.,0.830754307519,43.199223991,13.
8.8,8129.,2.,0.,1844.,0.,0.,9975.,0.868569428271,22.582805135,26.
8.82,8130.,4.,1.,1839.,0.,0.,9974.,0.904875222914,11.7633778979,52.
8.84,8134.,5.,2.,1833.,0.,0.,9974.,0.939372294808,9.769471866,65.
8.86,8140.,6.,5.,1827.,0.,0.,9978.,0.971136039767,8.41651234465,78.
8.88,8136.,10.,1.,1831.,0.,0.,9978.,0.998980978588,5.19470108866,130.
8.9,8143.,9.,1.,1830.,0.,0.,9983.,1.02411402682,5.91710326609,117.
8.92,8145.,5.,7.,1825.,0.,0.,9982.,1.04530099636,10.8711303621,65.
8.94,8142.,12.,2.,1827.,0.,0.,9983.,1.06135775795,4.59921695112,156.
8.96,8130.,16.,5.,1826.,0.,0.,9977.,1.07242921878,3.48539496104,208.
8.98,8126.,12.,8.,1830.,0.,0.,9976.,1.07928174329,4.67688755428,156.
9.,8120.,12.,11.,1836.,0.,0.,9979.,1.08059512566,4.68257887785,156.
9.02,8120.,15.,3.,1844.,0.,0.,9982.,1.07783657556,3.73650012859,195.
9.04,8121.,14.,2.,1849.,0.,0.,9986.,1.07027655828,3.97531293077,182.
9.06,8115.,17.,5.,1846.,0.,0.,9983.,1.05783814858,3.2357402192,221.
9.08,8108.,22.,10.,1847.,0.,0.,9987.,1.04003159142,2.45825648882,286.
9.1,8105.,21.,12.,1852.,0.,0.,9990.,1.01862066319,2.52229878504,273.
9.12,8094.,27.,7.,1861.,0.,0.,9989.,0.992729586887,1.91192364882,351.
9.14,8089.,25.,12.,1861.,0.,0.,9987.,0.964181849542,2.00549824705,325.
9.16,8079.,32.,12.,1867.,0.,0.,9990.,0.931526175666,1.51373003546,416.
9.18,8067.,35.,19.,1867.,0.,0.,9988.,0.896604755885,1.33209849446,455.
9.2,8044.,29.,23.,1889.,0.,0.,9985.,0.858626548485,1.53960622487,377.
9.22,8025.,36.,23.,1902.,0.,0.,9986.,0.819424086739,1.18361256973,468.
9.24,8021.,35.,10.,1921.,0.,0.,9987.,0.780966722031,1.16029341559,455.
9.26,8016.,32.,10.,1930.,0.,0.,9988.,0.742160757543,1.20601123101,416.
9.28,8017.,25.,17.,1932.,0.,0.,9991.,0.704097671654,1.46452315704,325.
9.3,8007.,26.,11.,1946.,0.,0.,9990.,0.666299216337,1.33259843267,338.
9.32,8003.,27.,14.,1950.,0.,0.,9994.,0.630223206245,1.21376321203,351.
9.34,7997.,19.,15.,1959.,0.,0.,9990.,0.596578150188,1.63274020052,247.
9.36,7994.,19.,12.,1965.,0.,0.,9990.,0.565507818795,1.54770560933,247.
9.38,7994.,16.,7.,1975.,0.,0.,9992.,0.537605776206,1.74721877267,208.
9.4,7996.,12.,8.,1976.,0.,0.,9992.,0.513435101437,2.22488543956,156.
9.42,7995.,9.,10.,1981.,0.,0.,9995.,0.49279424437,2.84725563414,117.
9.44,7990.,10.,7.,1989.,0.,0.,9996.,0.476220362993,2.47634588756,130.
9.46,7986.,10.,3.,1993.,0.,0.,9992.,0.464404320903,2.4149024687,130.
9.48,7991.,5.,8.,1989.,0.,0.,9993.,0.457508854298,4.7580920847,65.
9.5,7997.,3.,3.,1994.,0.,0.,9997.,0.455275852435,7.89144810887,39.
9.52,8000.,2.,2.,1991.,0.,0.,9995.,0.457932480794,11.9062445007,26.
9.54,8005.,2.,0.,1985.,0.,0.,9992.,0.465509214729,12.103239583,26.
9.56,8012.,3.,0.,1978.,0.,0.,9993.,0.477674967882,8.27969944328,39.
9.58,8019.,1.,2.,1975.,0.,0.,9997.,0.494174667295,25.6970826993,13.
9.6,8023.,0.,2.,1974.,0.,0.,9999.,0.514808157526,inf,0.
9.62,8025.,0.,0.,1972.,0.,0.,9997.,0.539420635919,inf,0.
9.64,8031.,0.,0.,1968.,0.,0.,9999.,0.567613891668,inf,0.
9.66,8031.,0.,0.,1965.,0.,0.,9996.,0.598754945899,inf,0.
9.68,8033.,0.,0.,1961.,0.,0.,9994.,0.632585657348,inf,0.
9.7,8039.,0.,0.,1959.,0.,0.,9998.,0.668426806471,inf,0.
9.72,8042.,0.,0.,1955.,0.,0.,9997.,0.705869407986,inf,0.
9.74,8048.,1.,0.,1952.,0.,0.,10001.,0.744154911476,38.6960553968,13.
9.76,8049.,0.,1.,1949.,0.,0.,9999.,0.78275242362,inf,0.
9.78,8054.,1.,0.,1947.,0.,0.,10002.,0.82106969215,42.6956239918,13.
9.8,8059.,1.,0.,1940.,0.,0.,10000.,0.858937325609,44.6647409317,13.
9.82,8062.,1.,2.,1935.,0.,0.,10000.,0.89497377326,46.5386362095,13.
9.84,8062.,2.,2.,1928.,0.,0.,9994.,0.929193989247,24.1590437204,26.
9.86,8056.,6.,3.,1926.,0.,0.,9991.,0.959863914145,8.31882058925,78.
9.88,8051.,8.,5.,1924.,0.,0.,9988.,0.987554498501,6.41910424026,104.
9.9,8051.,7.,4.,1922.,0.,0.,9984.,1.01244212138,7.52099861598,91.
9.92,8051.,7.,6.,1922.,0.,0.,9986.,1.03282348864,7.67240305845,91.
9.94,8053.,9.,8.,1920.,0.,0.,9990.,1.04902051781,6.06100743622,117.
9.96,8048.,19.,5.,1921.,0.,0.,9993.,1.05991281953,2.90081403241,247.
9.98,8040.,12.,11.,1925.,0.,0.,9988.,1.06657639618,4.6218310501,156.
10.,8031.,13.,13.,1931.,0.,0.,9988.,1.06778813262,4.27115253048,169.
