t,s,e,i,r,c,o,n,reff,coal,reportr
5.,6604.,28.,3.,3365.,0.,0.,10000.,1.15896601154,2.15236545001,364.
5.02,6605.,23.,9.,3364.,0.,0.,10001.,1.15641438551,2.61450208898,299.
5.04,6599.,27.,9.,3368.,0.,0.,10003.,1.14734905378,2.20970928876,351.
5.06,6590.,27.,14.,3368.,0.,0.,9999.,1.13341839189,2.18287986586,351.
5.08,6583.,34.,12.,3372.,0.,0.,10001.,1.11434047876,1.7042854381,442.
5.1,6570.,38.,13.,3381.,0.,0.,10002.,1.08986600874,1.49139559091,494.
5.12,6562.,33.,17.,3388.,0.,0.,10000.,1.06241854366,1.6741140688,429.
5.14,6565.,31.,10.,3398.,0.,0.,10004.,1.0323568676,1.73169539081,403.
5.16,6553.,38.,6.,3410.,0.,0.,10007.,0.996801881057,1.36404467934,494.
5.18,6544.,30.,18.,3416.,0.,0.,10008.,0.959252956748,1.66270512503,390.
5.2,6538.,30.,17.,3424.,0.,0.,10009.,0.920034651325,1.59472672896,390.
5.22,6524.,31.,19.,3435.,0.,0.,10009.,0.878310646587,1.47329527815,403.
5.24,6518.,31.,18.,3442.,0.,0.,10009.,0.836820607337,1.40369908328,403.
5.26,6519.,26.,17.,3449.,0.,0.,10011.,0.795778074798,1.5915561496,338.
5.28,6514.,16.,16.,3465.,0.,0.,10011.,0.754518537081,2.45218524551,208.
5.3,6510.,26.,13.,3463.,0.,0.,10012.,0.71432318677,1.42864637354,338.
5.32,6503.,32.,11.,3465.,0.,0.,10011.,0.675595657347,1.09784294319,416.
5.34,6504.,20.,15.,3472.,0.,0.,10011.,0.639850397713,1.66361103405,260.
5.36,6496.,24.,14.,3476.,0.,0.,10010.,0.606068251836,1.31314787898,312.
5.38,6495.,20.,8.,3487.,0.,0.,10010.,0.576191600838,1.49809816218,260.
5.4,6496.,12.,14.,3486.,0.,0.,10008.,0.550343134905,2.38482025126,156.
5.42,6503.,15.,5.,3487.,0.,0.,10010.,0.528906946977,1.83354408285,195.
5.44,6504.,11.,4.,3488.,0.,0.,10007.,0.511721542463,2.41904729164,143.
5.46,6511.,9.,6.,3482.,0.,0.,10008.,0.499562013802,2.88635830197,117.
5.48,6519.,10.,4.,3474.,0.,0.,10007.,0.492539402418,2.56120489258,130.
5.5,6526.,5.,6.,3473.,0.,0.,10010.,0.490342844271,5.09956558042,65.
5.52,6532.,4.,4.,3471.,0.,0.,10011.,0.493324418421,6.41321743948,52.
5.54,6542.,4.,2.,3466.,0.,0.,10014.,0.501639771905,6.52131703476,52.
5.56,6547.,1.,2.,3464.,0.,0.,10014.,0.514744626152,26.7667205599,13.
5.58,6552.,0.,0.,3464.,0.,0.,10016.,0.53257302769,inf,0.
5.6,6560.,1.,0.,3454.,0.,0.,10015.,0.555376781772,28.8795926521,13.
5.62,6558.,1.,3.,3449.,0.,0.,10011.,0.581722412169,30.2495654328,13.
5.64,6566.,1.,0.,3444.,0.,0.,10011.,0.612537967118,31.8519742901,13.
5.66,6577.,0.,1.,3430.,0.,0.,10008.,0.647225944864,inf,0.
5.68,6590.,0.,3.,3419.,0.,0.,10012.,0.684565692449,inf,0.
5.7,6598.,2.,1.,3412.,0.,0.,10013.,0.723906864481,18.8215784765,26.
5.72,6601.,1.,0.,3404.,0.,0.,10006.,0.76497784133,39.7788477492,13.
5.74,6603.,2.,1.,3398.,0.,0.,10004.,0.806595999854,20.9714959962,26.
5.76,6610.,4.,0.,3392.,0.,0.,10006.,0.84888656562,11.0355253531,52.
5.78,6621.,2.,3.,3382.,0.,0.,10008.,0.891458592225,23.1779233979,26.
5.8,6632.,2.,2.,3373.,0.,0.,10009.,0.933262436155,24.26482334,26.
5.82,6637.,5.,0.,3369.,0.,0.,10011.,0.972593827022,10.114975801,65.
5.84,6637.,5.,3.,3360.,0.,0.,10005.,1.00978125716,10.5017250744,65.
5.86,6642.,8.,0.,3359.,0.,0.,10009.,1.0439434791,6.78563261414,104.
5.88,6647.,8.,1.,3353.,0.,0.,10009.,1.07521275042,6.98888287771,104.
5.9,6654.,7.,4.,3345.,0.,0.,10010.,1.10291821053,8.1931067068,91.
5.92,6661.,6.,7.,3337.,0.,0.,10011.,1.1264176611,9.76228639617,78.
5.94,6660.,9.,3.,3335.,0.,0.,10007.,1.14454201229,6.61290940437,117.
5.96,6658.,14.,5.,3329.,0.,0.,10006.,1.15726013931,4.29839480314,182.
5.98,6662.,9.,13.,3322.,0.,0.,10006.,1.165811193,6.73579800402,117.
6.,6656.,10.,15.,3325.,0.,0.,10006.,1.16739129339,6.07043472564,130.
6.02,6654.,14.,14.,3325.,0.,0.,10007.,1.16429487993,4.32452383975,182.
6.04,6655.,18.,12.,3325.,0.,0.,10010.,1.15627646112,3.34035422101,234.
6.06,6653.,25.,8.,3323.,0.,0.,10009.,1.14311057802,2.37767000228,325.
6.08,6645.,20.,14.,3325.,0.,0.,10004.,1.12449824272,2.92369543107,260.
6.1,6633.,26.,13.,3330.,0.,0.,10002.,1.10031677869,2.20063355737,338.
6.12,6625.,25.,11.,3341.,0.,0.,10002.,1.07240405801,2.23060044066,325.
6.14,6621.,26.,11.,3340.,0.,0.,9998.,1.04178778091,2.08357556182,338.
6.16,6614.,32.,12.,3343.,0.,0.,10001.,1.00668441239,1.63586217013,416.
6.18,6599.,32.,19.,3351.,0.,0.,10001.,0.967992190663,1.57298730983,416.
6.2,6585.,36.,18.,3360.,0.,0.,9999.,0.927575284958,1.33983096716,468.
6.22,6578.,36.,14.,3368.,0.,0.,9996.,0.886732253897,1.28083547785,468.
6.24,6577.,28.,17.,3372.,0.,0.,9994.,0.845662740798,1.57051651863,364.
6.26,6571.,29.,12.,3380.,0.,0.,9992.,0.803651003791,1.44102938611,377.
6.28,6565.,36.,12.,3378.,0.,0.,9991.,0.761948103854,1.10059170557,468.
6.3,6564.,27.,19.,3382.,0.,0.,9992.,0.721690098443,1.38992167108,351.
6.32,6559.,29.,14.,3392.,0.,0.,9994.,0.682572587016,1.22392325948,377.
6.34,6559.,20.,9.,3407.,0.,0.,9995.,0.646294121113,1.68036471489,260.
6.36,6554.,21.,13.,3405.,0.,0.,9993.,0.612519818962,1.51671574219,273.
6.38,6549.,13.,12.,3418.,0.,0.,9992.,0.582028713453,2.32811485381,169.
6.4,6548.,14.,9.,3422.,0.,0.,9993.,0.555581296815,2.06358767388,182.
6.42,6556.,10.,7.,3420.,0.,0.,9993.,0.534124688193,2.7774483786,130.
6.44,6561.,4.,3.,3426.,0.,0.,9994.,0.516877657903,6.71940955273,52.
6.46,6573.,3.,3.,3415.,0.,0.,9994.,0.50502548705,8.75377510886,39.
6.48,6571.,1.,4.,3412.,0.,0.,9988.,0.497412656313,25.8654581283,13.
6.5,6577.,3.,1.,3404.,0.,0.,9985.,0.495412114748,8.58714332231,39.
6.52,6578.,4.,0.,3400.,0.,0.,9982.,0.498241847757,6.47714402084,52.
6.54,6580.,3.,1.,3396.,0.,0.,9980.,0.506272527432,8.77539047549,39.
6.56,6581.,0.,1.,3390.,0.,0.,9972.,0.519597064058,inf,0.
6.58,6588.,1.,0.,3380.,0.,0.,9969.,0.538023926093,27.9772441568,13.
6.6,6595.,0.,0.,3379.,0.,0.,9974.,0.56063508118,inf,0.
6.62,6605.,0.,0.,3373.,0.,0.,9978.,0.587829216433,inf,0.
6.64,6613.,0.,0.,3366.,0.,0.,9979.,0.618900873907,inf,0.
6.66,6617.,0.,0.,3361.,0.,0.,9978.,0.653120037631,inf,0.
6.68,6627.,0.,0.,3350.,0.,0.,9977.,0.69082421954,inf,0.
6.7,6634.,0.,0.,3339.,0.,0.,9973.,0.730775952992,inf,0.
6.72,6648.,0.,0.,3326.,0.,0.,9974.,0.772896370857,inf,0.
6.74,6651.,0.,0.,3319.,0.,0.,9970.,0.815230161639,inf,0.
6.76,6660.,1.,0.,3313.,0.,0.,9974.,0.858051914971,44.6186995785,13.
6.78,6660.,2.,0.,3308.,0.,0.,9970.,0.900127344062,23.4033109456,26.
6.8,6668.,2.,0.,3304.,0.,0.,9974.,0.941621106738,24.4821487752,26.
6.82,6677.,2.,1.,3297.,0.,0.,9977.,0.981789892088,25.5265371943,26.
6.84,6683.,3.,2.,3291.,0.,0.,9979.,1.01942908277,17.6701041014,39.
6.86,6682.,3.,3.,3293.,0.,0.,9981.,1.05317664457,18.2550618392,39.
6.88,6692.,3.,1.,3289.,0.,0.,9985.,1.08509379341,18.8082924191,39.
6.9,6698.,4.,2.,3284.,0.,0.,9988.,1.11265672704,14.4645374516,52.
6.92,6696.,7.,1.,3279.,0.,0.,9983.,1.13551232571,8.43523441956,91.
6.94,6702.,9.,3.,3269.,0.,0.,9983.,1.15452877561,6.67061070355,117.
6.96,6702.,13.,9.,3261.,0.,0.,9985.,1.16735798021,4.66943192085,169.
6.98,6699.,13.,6.,3268.,0.,0.,9986.,1.17463383643,4.69853534573,169.
7.,6695.,14.,9.,3270.,0.,0.,9988.,1.1763476328,4.36929120753,182.
7.02,6687.,21.,0.,3279.,0.,0.,9987.,1.17241229499,2.90311615902,273.
7.04,6693.,19.,3.,3273.,0.,0.,9988.,1.16544019805,3.1896258052,247.
7.06,6694.,22.,7.,3265.,0.,0.,9988.,1.15257337713,2.72426434595,286.
7.08,6699.,19.,14.,3259.,0.,0.,9991.,1.13511143226,3.10662076199,247.
7.1,6690.,25.,12.,3265.,0.,0.,9992.,1.11088289798,2.31063642779,325.
7.12,6676.,28.,16.,3270.,0.,0.,9990.,1.0819576354,2.00934989431,364.
7.14,6659.,39.,17.,3277.,0.,0.,9992.,1.04839609191,1.39786145588,507.
7.16,6640.,46.,16.,3288.,0.,0.,9990.,1.01175456326,1.14372254977,598.
7.18,6633.,37.,18.,3302.,0.,0.,9990.,0.974050921643,1.36893643042,481.
7.2,6624.,34.,12.,3321.,0.,0.,9991.,0.933816024656,1.42818921418,442.
7.22,6621.,20.,20.,3331.,0.,0.,9992.,0.892886067953,2.32150377668,260.
7.24,6612.,31.,6.,3346.,0.,0.,9995.,0.850077939827,1.42593718939,403.
7.26,6613.,27.,7.,3351.,0.,0.,9998.,0.808302347245,1.55673044655,351.
7.28,6607.,29.,11.,3351.,0.,0.,9998.,0.766285831447,1.37402976673,377.
7.3,6607.,23.,18.,3349.,0.,0.,9997.,0.72605448838,1.64151449547,299.
7.32,6599.,23.,20.,3351.,0.,0.,9993.,0.686803971168,1.55277419568,299.
7.34,6591.,26.,4.,3372.,0.,0.,9993.,0.64957723646,1.29915447292,338.
7.36,6594.,17.,11.,3369.,0.,0.,9991.,0.616381477729,1.88540216717,221.
7.38,6603.,11.,11.,3368.,0.,0.,9993.,0.586769126914,2.77381769087,143.
7.4,6604.,18.,5.,3370.,0.,0.,9997.,0.560108555314,1.61809138202,234.
7.42,6608.,8.,14.,3369.,0.,0.,9999.,0.538038137618,3.49724789452,104.
7.44,6608.,10.,8.,3371.,0.,0.,9997.,0.520424111822,2.70620538147,130.
7.46,6615.,9.,6.,3368.,0.,0.,9998.,0.508049145304,2.93539506176,117.
7.48,6617.,7.,3.,3370.,0.,0.,9997.,0.500443831425,3.71758274773,91.
7.5,6624.,6.,4.,3367.,0.,0.,10001.,0.498154142822,4.31733590446,78.
7.52,6627.,5.,1.,3366.,0.,0.,9999.,0.501099881557,5.2114387682,65.
7.54,6632.,4.,2.,3361.,0.,0.,9999.,0.509303848793,6.62095003431,52.
7.56,6646.,2.,3.,3350.,0.,0.,10001.,0.52320751968,13.6033955117,26.
7.58,6653.,0.,1.,3343.,0.,0.,9997.,0.541810511192,inf,0.
7.6,6664.,0.,0.,3333.,0.,0.,9997.,0.565197367142,inf,0.
7.62,6671.,0.,0.,3324.,0.,0.,9995.,0.592693258616,inf,0.
7.64,6674.,0.,0.,3316.,0.,0.,9990.,0.623922015036,inf,0.
7.66,6679.,0.,0.,3309.,0.,0.,9988.,0.658579613373,inf,0.
7.68,6688.,0.,1.,3300.,0.,0.,9989.,0.696345555455,inf,0.
7.7,6693.,0.,0.,3298.,0.,0.,9991.,0.73594687556,inf,0.
7.72,6696.,0.,0.,3293.,0.,0.,9989.,0.777307848893,inf,0.
7.74,6702.,0.,0.,3286.,0.,0.,9988.,0.820000919713,inf,0.
7.76,6712.,0.,0.,3280.,0.,0.,9992.,0.863193620618,inf,0.
7.78,6715.,0.,0.,3274.,0.,0.,9989.,0.90583456367,inf,0.
7.8,6721.,0.,0.,3267.,0.,0.,9988.,0.947775153548,inf,0.
7.82,6732.,1.,0.,3257.,0.,0.,9990.,0.9885889951,51.4066277452,13.
7.84,6737.,3.,2.,3247.,0.,0.,9989.,1.02663747926,17.7950496406,39.
7.86,6739.,6.,3.,3238.,0.,0.,9986.,1.06162881681,9.20078307905,78.
7.88,6741.,6.,3.,3234.,0.,0.,9984.,1.09314851992,9.47395383934,78.
7.9,6742.,6.,7.,3229.,0.,0.,9984.,1.12041461258,9.7102599757,78.
7.92,6745.,3.,5.,3233.,0.,0.,9986.,1.14347815209,19.8202879696,39.
7.94,6734.,13.,4.,3232.,0.,0.,9983.,1.16004129737,4.64016518949,169.
7.96,6732.,11.,9.,3233.,0.,0.,9985.,1.17258339642,5.54312151033,143.
7.98,6718.,21.,7.,3234.,0.,0.,9980.,1.17867358048,2.91862029452,273.
8.,6714.,23.,8.,3234.,0.,0.,9979.,1.18074998707,2.6695217099,299.
8.02,6704.,30.,9.,3234.,0.,0.,9977.,1.17657095812,2.03938966074,390.
8.04,6693.,30.,15.,3238.,0.,0.,9976.,1.16684209084,2.02252629078,390.
8.06,6688.,30.,10.,3248.,0.,0.,9976.,1.15292546949,1.99840414712,390.
8.08,6684.,27.,12.,3255.,0.,0.,9978.,1.13404534564,2.18408733234,351.
8.1,6680.,33.,9.,3258.,0.,0.,9980.,1.11055611975,1.74996721901,429.
8.12,6668.,34.,16.,3260.,0.,0.,9978.,1.08196075394,1.65476350602,442.
8.14,6651.,35.,24.,3268.,0.,0.,9978.,1.04860579163,1.55792860471,455.
8.16,6626.,31.,19.,3294.,0.,0.,9970.,1.01164666445,1.69695569521,403.
8.18,6609.,33.,21.,3302.,0.,0.,9965.,0.972961378483,1.53315126306,429.
8.2,6604.,29.,15.,3322.,0.,0.,9970.,0.932957507472,1.67288932374,377.
8.22,6591.,27.,20.,3331.,0.,0.,9969.,0.890891057585,1.71579018498,351.
8.24,6582.,29.,6.,3349.,0.,0.,9966.,0.848683374872,1.52177708598,377.
8.26,6582.,24.,9.,3352.,0.,0.,9967.,0.80701548747,1.74853355618,312.
8.28,6575.,22.,10.,3356.,0.,0.,9963.,0.765253365087,1.80878068112,286.
8.3,6576.,18.,16.,3354.,0.,0.,9964.,0.725041199521,2.09456346528,234.
8.32,6571.,20.,13.,3360.,0.,0.,9964.,0.685880261884,1.7832886809,260.
8.34,6569.,22.,8.,3367.,0.,0.,9966.,0.649162990201,1.53438524957,286.
8.36,6568.,20.,5.,3372.,0.,0.,9965.,0.615552978271,1.60043774351,260.
8.38,6569.,14.,9.,3371.,0.,0.,9963.,0.585505497134,2.17473470364,182.
8.4,6574.,12.,7.,3370.,0.,0.,9963.,0.559466907713,2.42435660009,156.
8.42,6574.,14.,7.,3367.,0.,0.,9962.,0.537257834375,1.99552909911,182.
8.44,6577.,13.,6.,3368.,0.,0.,9964.,0.519698173509,2.07879269404,169.
8.46,6583.,12.,5.,3365.,0.,0.,9965.,0.507265774281,2.19815168855,156.
8.48,6591.,8.,4.,3361.,0.,0.,9964.,0.500128369844,3.25083440399,104.
8.5,6593.,5.,5.,3363.,0.,0.,9966.,0.497564105739,5.17466669969,65.
8.52,6600.,2.,3.,3364.,0.,0.,9969.,0.500560110018,13.0145628605,26.
8.54,6606.,1.,1.,3358.,0.,0.,9966.,0.508987006214,26.4673243231,13.
8.56,6613.,2.,1.,3351.,0.,0.,9967.,0.522385522053,13.5820235734,26.
8.58,6616.,1.,2.,3349.,0.,0.,9968.,0.540364813961,28.098970326,13.
8.6,6623.,1.,0.,3347.,0.,0.,9971.,0.563184732112,29.2856060698,13.
8.62,6629.,2.,1.,3340.,0.,0.,9972.,0.590320132101,15.3483234346,26.
8.64,6634.,0.,2.,3336.,0.,0.,9972.,0.621302059477,inf,0.
8.66,6638.,1.,1.,3331.,0.,0.,9971.,0.655652776763,34.0939443917,13.
8.68,6645.,1.,0.,3325.,0.,0.,9971.,0.693117438623,36.0421068084,13.
8.7,6659.,1.,0.,3309.,0.,0.,9969.,0.733824181293,38.1588574273,13.
8.72,6659.,4.,0.,3306.,0.,0.,9969.,0.774563521995,10.0693257859,52.
8.74,6666.,2.,3.,3298.,0.,0.,9969.,0.81715071114,21.2459184896,26.
8.76,6673.,1.,3.,3290.,0.,0.,9967.,0.860330592379,44.7371908037,13.
8.78,6677.,3.,1.,3284.,0.,0.,9965.,0.902877763685,15.6498812372,39.
8.8,6682.,3.,1.,3278.,0.,0.,9964.,0.944545123002,16.3721154654,39.
8.82,6690.,3.,2.,3272.,0.,0.,9967.,0.984688377892,17.0679318835,39.
8.84,6700.,4.,2.,3261.,0.,0.,9967.,1.02325276095,13.3022858924,52.
8.86,6706.,8.,3.,3252.,0.,0.,9969.,1.05823167557,6.87850589122,104.
8.88,6708.,10.,2.,3248.,0.,0.,9968.,1.08954316581,5.66562446224,130.
8.9,6710.,8.,4.,3245.,0.,0.,9967.,1.11699865551,7.26049126079,104.
8.92,6705.,14.,4.,3243.,0.,0.,9966.,1.138978112,4.23049013027,182.
8.94,6709.,13.,4.,3241.,0.,0.,9967.,1.15758993766,4.63035975062,169.
8.96,6714.,18.,2.,3234.,0.,0.,9968.,1.17144259076,3.38416748443,234.
8.98,6709.,16.,5.,3238.,0.,0.,9968.,1.17851157782,3.83016262793,208.
9.,6706.,17.,6.,3236.,0.,0.,9965.,1.18099995554,3.61247045223,221.
9.02,6698.,19.,7.,3238.,0.,0.,9962.,1.17728794408,3.22205121537,247.
9.04,6691.,25.,11.,3232.,0.,0.,9959.,1.16848461821,2.43044800588,325.
9.06,6695.,22.,10.,3229.,0.,0.,9956.,1.15645064537,2.73342879815,286.
9.08,6686.,28.,6.,3236.,0.,0.,9956.,1.13689135264,2.11136965491,364.
9.1,6672.,24.,18.,3237.,0.,0.,9951.,1.11245870787,2.41032720038,312.
9.12,6656.,35.,10.,3250.,0.,0.,9951.,1.08294400971,1.60894538585,455.
9.14,6645.,34.,14.,3257.,0.,0.,9950.,1.05060801184,1.60681225341,442.
9.16,6641.,29.,16.,3263.,0.,0.,9949.,1.01607702181,1.82193121152,377.
9.18,6632.,37.,10.,3274.,0.,0.,9953.,0.977524533652,1.37381826351,481.
9.2,6629.,32.,11.,3281.,0.,0.,9953.,0.938088846635,1.52439437578,416.
9.22,6616.,30.,15.,3291.,0.,0.,9952.,0.895797844789,1.5527162643,390.
9.24,6618.,28.,12.,3299.,0.,0.,9957.,0.85409652581,1.58617926222,364.
9.26,6599.,35.,15.,3306.,0.,0.,9955.,0.810075157053,1.20354023334,455.
9.28,6596.,29.,17.,3314.,0.,0.,9956.,0.768237283544,1.37752892222,377.
9.3,6589.,27.,15.,3326.,0.,0.,9957.,0.726985251358,1.40011974336,351.
9.32,6585.,30.,19.,3323.,0.,0.,9957.,0.687824797293,1.19222964864,390.
9.34,6583.,24.,13.,3334.,0.,0.,9954.,0.651330764325,1.41121665604,312.
9.36,6587.,16.,14.,3339.,0.,0.,9956.,0.617891714062,2.0081480707,208.
9.38,6590.,12.,13.,3341.,0.,0.,9956.,0.587790241987,2.54709104861,156.
9.4,6582.,16.,5.,3349.,0.,0.,9952.,0.560766865802,1.82249231385,208.
9.42,6581.,12.,7.,3350.,0.,0.,9950.,0.538478545993,2.33340703264,156.
9.44,6586.,10.,8.,3346.,0.,0.,9950.,0.521141565348,2.70993613981,130.
9.46,6593.,8.,2.,3350.,0.,0.,9953.,0.508648866055,3.30621762936,104.
9.48,6602.,5.,4.,3347.,0.,0.,9958.,0.501264900919,5.21315496956,65.
9.5,6603.,5.,1.,3348.,0.,0.,9957.,0.498769214906,5.18719983502,65.
9.52,6602.,5.,1.,3343.,0.,0.,9951.,0.501617514155,5.21682214721,65.
9.54,6604.,1.,4.,3337.,0.,0.,9946.,0.509856098864,26.5125171409,13.
9.56,6607.,0.,1.,3335.,0.,0.,9943.,0.52317132811,inf,0.
9.58,6613.,1.,0.,3327.,0.,0.,9941.,0.541586766195,28.1625118421,13.
9.6,6615.,0.,0.,3325.,0.,0.,9940.,0.564258744162,inf,0.
9.62,6620.,0.,0.,3317.,0.,0.,9937.,0.591595068321,inf,0.
9.64,6628.,0.,0.,3310.,0.,0.,9938.,0.622863817482,inf,0.
9.66,6633.,0.,0.,3304.,0.,0.,9937.,0.65740057635,inf,0.
9.68,6638.,0.,0.,3296.,0.,0.,9934.,0.694966145751,inf,0.
9.7,6646.,0.,0.,3290.,0.,0.,9936.,0.734824036591,inf,0.
9.72,6646.,0.,0.,3287.,0.,0.,9933.,0.775853140922,inf,0.
9.74,6652.,1.,0.,3278.,0.,0.,9931.,0.81855470346,42.5648445799,13.
9.76,6661.,0.,1.,3269.,0.,0.,9931.,0.861896567959,inf,0.
9.78,6662.,0.,1.,3264.,0.,0.,9927.,0.904297833803,inf,0.
9.8,6666.,1.,1.,3259.,0.,0.,9927.,0.945795503507,49.1813661824,13.
9.82,6674.,1.,1.,3254.,0.,0.,9930.,0.985993623568,51.2716684256,13.
9.84,6681.,3.,1.,3245.,0.,0.,9930.,1.02415291148,17.7519837989,39.
9.86,6683.,3.,1.,3241.,0.,0.,9928.,1.05895741687,18.3552618924,39.
9.88,6692.,6.,0.,3232.,0.,0.,9930.,1.09110387988,9.45623362564,78.
9.9,6687.,10.,2.,3227.,0.,0.,9926.,1.11776791901,5.81239317887,130.
9.92,6687.,10.,5.,3222.,0.,0.,9924.,1.14072785479,5.93178484492,130.
9.94,6692.,10.,6.,3219.,0.,0.,9927.,1.15930930006,6.02840836034,130.
9.96,6693.,13.,3.,3217.,0.,0.,9926.,1.17271979631,4.69087918524,169.
9.98,6694.,17.,3.,3213.,0.,0.,9927.,1.1807332056,3.61165451126,221.
10.,6700.,17.,5.,3208.,0.,0.,9930.,1.18410220382,3.62195968226,221.
