t,neff
5.,0.290726810099
5.02,0.308711467327
5.04,0.466665795171
5.06,0.455097139539
5.08,0.320120936285
5.1,0.563863454747
5.12,0.578093736973
5.14,0.576159775066
5.16,0.656030232537
5.18,0.722254813358
5.2,0.73155223149
5.22,0.855881560233
5.24,0.827824626242
5.26,1.09631438488
5.28,0.814187378706
5.3,1.02715421213
5.32,0.791246250897
5.34,0.83654670281
5.36,0.817533686766
5.38,0.550528011231
5.4,0.576653550189
5.42,0.675881587331
5.44,0.310698368821
5.46,0.557374524678
5.48,0.323405347544
5.5,0.162447100779
5.52,0.161553202818
5.54,0.0795076403326
5.56,0.
5.58,0.037463285279
5.6,0.
5.62,0.
5.64,0.
5.66,0.
5.68,0.
5.7,0.
5.72,0.
5.74,0.
5.76,0.
5.78,0.
5.8,0.0214955106236
5.82,0.0206195068068
5.84,0.0198551473752
5.86,0.0576126828016
5.88,0.0746161515056
5.9,0.145636792353
5.92,0.0356446378195
5.94,0.0876960466174
5.96,0.190850348796
5.98,0.206973116134
6.,0.206422803443
6.02,0.206694027983
6.04,0.295123067105
6.06,0.421415689176
6.08,0.500302496342
6.1,0.419680501947
6.12,0.468379947518
6.14,0.59890335676
6.16,0.639460251487
6.18,0.747493891168
6.2,0.649272807089
6.22,0.656570854968
6.24,0.569727992337
6.26,0.72448951785
6.28,0.684998133216
6.3,0.835095552288
6.32,0.617496489131
6.34,0.465775225276
6.36,0.491316714486
6.38,0.516106841398
6.4,0.612901103945
6.42,0.563502188954
6.44,0.349535664923
6.46,0.358084348835
6.48,0.323143335405
6.5,0.283815603531
6.52,0.161167439487
6.54,0.
6.56,0.0772611741563
6.58,0.0746257216933
6.6,0.
6.62,0.
6.64,0.
6.66,0.0615260021024
6.68,0.0581761512814
6.7,0.0275144547463
6.72,0.0521095976412
6.74,0.074165433343
6.76,0.117524281542
6.78,0.156836489504
6.8,0.171434826167
6.82,0.0822524754924
6.84,0.0792493474064
6.86,0.095797859285
6.88,0.167535535894
6.9,0.199805099951
6.92,0.195863396273
6.94,0.122675494147
6.96,0.190801111787
6.98,0.206701364148
7.,0.343875924122
7.02,0.414129568043
7.04,0.382530256294
7.06,0.369197379951
7.08,0.37531253208
7.1,0.475042775088
7.12,0.562618724582
7.14,0.59873891031
7.16,0.519456013813
7.18,0.539382609579
7.2,0.845385151464
7.22,0.816765453139
7.24,0.761965335705
7.26,0.726656485801
7.28,0.660787606272
7.3,0.698048636217
7.32,0.61943027283
7.34,0.560714775005
7.36,0.427082163952
7.38,0.448888767877
7.4,0.361495606801
7.42,0.376505207196
7.44,0.428189182332
7.46,0.359030013387
7.48,0.162036768465
7.5,0.244302334104
7.52,0.0404524955519
7.54,0.
7.56,0.0388024004744
7.58,0.0374871765355
7.6,0.0719540715947
7.62,0.0343017206199
7.64,0.0326068792529
7.66,0.0617898143126
7.68,0.
7.7,0.027663370928
7.72,0.052357635872
7.74,0.0496829066399
7.76,0.0472238870865
7.78,0.0449899631868
7.8,0.0430297363955
7.82,0.0206401428225
7.84,0.11931682034
7.86,0.153894343375
7.88,0.0746844160374
7.9,0.0546063878531
7.92,0.124815840726
7.94,0.17550356703
7.96,0.1562450469
7.98,0.207132815135
8.,0.31033614514
8.02,0.380248830647
8.04,0.470329477912
8.06,0.476216972127
8.08,0.519894803021
8.1,0.494305285522
8.12,0.52545933819
8.14,0.464041821332
8.16,0.540349443594
8.18,0.706684007502
8.2,0.650312995828
8.22,0.817316571682
8.24,0.882609568932
8.26,0.878239995457
8.28,0.846804459297
8.3,0.726098033385
8.32,0.797709806581
8.34,0.655424130665
8.36,0.59246693823
8.38,0.58866039209
8.4,0.61658828244
8.42,0.52846971509
8.44,0.31234469236
8.46,0.439958996118
8.48,0.243505939975
8.5,0.407808041598
8.52,0.243155547225
8.54,0.159530972724
8.56,0.0777270551804
8.58,0.0750642179579
8.6,0.0719927406343
8.62,0.034347997056
8.64,0.
8.66,0.
8.68,0.0292628989234
8.7,0.0276786950199
8.72,0.0261907168372
8.74,0.0248367148928
8.76,0.0236018814605
8.78,0.0449769642425
8.8,0.0429942898952
8.82,0.0618946928885
8.84,0.0397781660189
8.86,0.134722734738
8.88,0.168195923587
8.9,0.145816794028
8.92,0.053562817367
8.94,0.15830775194
8.96,0.243377854604
8.98,0.24182085539
9.,0.362518109286
9.02,0.450335715426
9.04,0.401499560996
9.06,0.353347017841
9.08,0.413472579619
9.1,0.514391718354
9.12,0.641885471414
9.14,0.524769464861
9.16,0.683542212125
9.18,0.731420231246
9.2,0.828326105669
9.22,0.866753741244
9.24,0.550532782202
9.26,0.680791332248
9.28,0.745072949185
9.3,0.843429360702
9.32,0.83154616113
9.34,0.627002864637
9.36,0.495990832201
9.38,0.451827283897
9.4,0.36397592135
9.42,0.568423264348
9.44,0.313091749044
9.46,0.320840435881
9.48,0.162804781722
9.5,0.0817235234256
9.52,0.081217624246
9.54,0.0399863398288
9.56,0.
9.58,0.
9.6,0.
9.62,0.
9.64,0.
9.66,0.
9.68,0.0292822720322
9.7,0.0277065737485
9.72,0.0262457112358
9.74,0.
9.76,0.047341446324
9.78,0.
9.8,0.
9.82,0.0414098290786
9.84,0.0997137281704
9.86,0.0964654421383
9.88,0.149994809843
9.9,0.23809889613
9.92,0.251303868995
9.94,0.247505728368
9.96,0.157320683804
9.98,0.260541272087
10.,0.173309217881
