t,s,e,i,r,c,o,n,reff,coal,reportr
5.,8093.,8.,4.,1895.,0.,0.,10000.,1.16039926692,7.54259523495,104.
5.02,8077.,22.,7.,1894.,0.,0.,10000.,1.15549599337,2.73117234797,286.
5.04,8073.,23.,8.,1897.,0.,0.,10001.,1.14702662153,2.59327757911,299.
5.06,8059.,26.,15.,1900.,0.,0.,10000.,1.13233996421,2.26467992843,338.
5.08,8048.,28.,11.,1908.,0.,0.,9995.,1.1137223069,2.0683414271,364.
5.1,8033.,30.,19.,1909.,0.,0.,9991.,1.08992764104,1.88920791113,390.
5.12,8025.,28.,17.,1927.,0.,0.,9997.,1.0618643377,1.97203377001,364.
5.14,8013.,36.,7.,1942.,0.,0.,9998.,1.03011351313,1.48794174119,468.
5.16,8003.,34.,9.,1951.,0.,0.,9997.,0.995611663414,1.5227001911,442.
5.18,7991.,30.,20.,1959.,0.,0.,10000.,0.95779497313,1.66017795343,390.
5.2,7986.,32.,13.,1972.,0.,0.,10003.,0.918720198685,1.49292032286,416.
5.22,7971.,37.,5.,1988.,0.,0.,10001.,0.87746244122,1.23319045793,481.
5.24,7967.,32.,10.,1994.,0.,0.,10003.,0.836194907111,1.35881672406,416.
5.26,7961.,29.,7.,2005.,0.,0.,10002.,0.794700513322,1.42498023078,377.
5.28,7958.,21.,14.,2009.,0.,0.,10002.,0.753791048803,1.86653021608,273.
5.3,7948.,24.,16.,2015.,0.,0.,10003.,0.713175572829,1.54521374113,312.
5.32,7939.,23.,10.,2031.,0.,0.,10003.,0.674404345493,1.52474025938,299.
5.34,7942.,19.,10.,2032.,0.,0.,10003.,0.638865236832,1.74847327975,247.
5.36,7943.,19.,8.,2035.,0.,0.,10005.,0.605774985105,1.65791048555,247.
5.38,7946.,15.,11.,2039.,0.,0.,10011.,0.575873660191,1.996362022,195.
5.4,7947.,15.,7.,2046.,0.,0.,10015.,0.549694464232,1.905607476,195.
5.42,7946.,11.,11.,2047.,0.,0.,10015.,0.527753925177,2.4948367372,143.
5.44,7937.,13.,16.,2048.,0.,0.,10014.,0.509847308394,2.03938923358,169.
5.46,7939.,12.,6.,2058.,0.,0.,10015.,0.497322522112,2.15506426249,156.
5.48,7947.,11.,6.,2058.,0.,0.,10022.,0.489831807271,2.31556854347,143.
5.5,7946.,11.,1.,2064.,0.,0.,10022.,0.48720897774,2.30316971295,143.
5.52,7948.,7.,6.,2062.,0.,0.,10023.,0.489844567667,3.63884535981,91.
5.54,7949.,7.,3.,2064.,0.,0.,10023.,0.497551506753,3.69609690731,91.
5.56,7953.,5.,1.,2067.,0.,0.,10026.,0.510263636526,5.30674181987,65.
5.58,7955.,1.,1.,2069.,0.,0.,10026.,0.527772003525,27.4441441833,13.
5.6,7956.,2.,2.,2066.,0.,0.,10026.,0.5497132159,14.2925436134,26.
5.62,7962.,0.,1.,2063.,0.,0.,10026.,0.576169929381,inf,0.
5.64,7967.,1.,1.,2059.,0.,0.,10028.,0.606211761165,31.5230115806,13.
5.66,7974.,1.,0.,2056.,0.,0.,10031.,0.639648880452,33.2617417835,13.
5.68,7981.,0.,1.,2047.,0.,0.,10029.,0.67621454247,inf,0.
5.7,7985.,1.,0.,2042.,0.,0.,10028.,0.714709352455,37.1648863277,13.
5.72,7988.,1.,0.,2037.,0.,0.,10026.,0.754821474523,39.2507166752,13.
5.74,7994.,1.,0.,2032.,0.,0.,10027.,0.796005097338,41.3922650616,13.
5.76,7995.,1.,0.,2028.,0.,0.,10024.,0.837375750169,43.5435390088,13.
5.78,8000.,1.,0.,2019.,0.,0.,10020.,0.878984910585,45.7072153504,13.
5.8,8006.,0.,1.,2010.,0.,0.,10017.,0.919733784503,inf,0.
5.82,8012.,0.,2.,2005.,0.,0.,10019.,0.958490883929,inf,0.
5.84,8017.,0.,2.,2003.,0.,0.,10022.,0.994865420774,inf,0.
5.86,8012.,5.,1.,2000.,0.,0.,10018.,1.02792868921,10.6904583678,65.
5.88,8011.,5.,4.,1997.,0.,0.,10017.,1.05789543828,11.0021125581,65.
5.9,8014.,8.,2.,1993.,0.,0.,10017.,1.08452738563,7.04942800658,104.
5.92,8014.,6.,7.,1991.,0.,0.,10018.,1.10647106111,9.58941586297,78.
5.94,8008.,13.,2.,1994.,0.,0.,10017.,1.12326459505,4.49305838019,169.
5.96,8005.,16.,5.,1990.,0.,0.,10016.,1.13566173475,3.69090063794,208.
5.98,8006.,15.,4.,1991.,0.,0.,10016.,1.1435091155,3.96416493375,195.
6.,8003.,17.,14.,1984.,0.,0.,10018.,1.14543301029,3.50367744324,221.
6.02,7991.,20.,10.,1995.,0.,0.,10016.,1.14136664277,2.9675532712,260.
6.04,7979.,27.,12.,1999.,0.,0.,10017.,1.13186013428,2.17987877713,351.
6.06,7971.,25.,12.,2008.,0.,0.,10016.,1.11818631507,2.32582753534,325.
6.08,7960.,21.,13.,2016.,0.,0.,10010.,1.09989376281,2.7235464603,273.
6.1,7953.,20.,15.,2024.,0.,0.,10012.,1.07680980186,2.79970548484,260.
6.12,7942.,18.,15.,2034.,0.,0.,10009.,1.04962189133,3.03224101939,234.
6.14,7930.,23.,12.,2046.,0.,0.,10011.,1.01811960408,2.30183562661,299.
6.16,7920.,22.,20.,2050.,0.,0.,10012.,0.983809906798,2.32536887061,286.
6.18,7900.,30.,14.,2069.,0.,0.,10013.,0.945658428767,1.63914127653,390.
6.2,7876.,31.,25.,2077.,0.,0.,10009.,0.905522499939,1.51894096764,403.
6.22,7862.,32.,16.,2095.,0.,0.,10005.,0.865117506966,1.40581594882,416.
6.24,7855.,31.,14.,2108.,0.,0.,10008.,0.824027797802,1.38224017696,403.
6.26,7842.,30.,24.,2114.,0.,0.,10010.,0.782195801153,1.35580605533,390.
6.28,7824.,34.,21.,2133.,0.,0.,10012.,0.740358202234,1.13231254459,442.
6.3,7813.,32.,24.,2143.,0.,0.,10012.,0.700431797236,1.13820167051,416.
6.32,7810.,29.,11.,2164.,0.,0.,10014.,0.662717247835,1.18832058232,377.
6.34,7802.,32.,11.,2169.,0.,0.,10014.,0.626914048579,1.01873532894,416.
6.36,7799.,28.,4.,2184.,0.,0.,10015.,0.594198885279,1.10351221552,364.
6.38,7797.,18.,13.,2185.,0.,0.,10013.,0.564962254849,1.63211318068,234.
6.4,7788.,22.,7.,2195.,0.,0.,10012.,0.538857839973,1.27366398539,286.
6.42,7787.,12.,9.,2201.,0.,0.,10009.,0.517503570356,2.24251547154,156.
6.44,7786.,11.,0.,2214.,0.,0.,10011.,0.500297434288,2.36504241664,143.
6.46,7782.,8.,0.,2214.,0.,0.,10004.,0.488023598078,3.17215338751,104.
6.48,7786.,4.,4.,2209.,0.,0.,10003.,0.480819750351,6.25065675457,52.
6.5,7783.,5.,3.,2210.,0.,0.,10001.,0.478216683516,4.97345350857,65.
6.52,7787.,3.,3.,2208.,0.,0.,10001.,0.480977671435,8.33694630487,39.
6.54,7788.,3.,0.,2210.,0.,0.,10001.,0.488546374474,8.46813715754,39.
6.56,7792.,2.,1.,2208.,0.,0.,10003.,0.501083396705,13.0281683143,26.
6.58,7798.,1.,3.,2203.,0.,0.,10005.,0.518441791714,26.9589731691,13.
6.6,7804.,1.,1.,2201.,0.,0.,10007.,0.540234686137,28.0922036791,13.
6.62,7808.,0.,0.,2199.,0.,0.,10007.,0.566098521177,inf,0.
6.64,7816.,0.,0.,2195.,0.,0.,10011.,0.595732036095,inf,0.
6.66,7822.,1.,0.,2187.,0.,0.,10010.,0.628772265718,32.6961578173,13.
6.68,7820.,1.,0.,2185.,0.,0.,10006.,0.664096331765,34.5330092518,13.
6.7,7823.,0.,2.,2181.,0.,0.,10006.,0.70174883721,inf,0.
6.72,7828.,1.,1.,2176.,0.,0.,10006.,0.741180883992,38.5414059676,13.
6.74,7824.,2.,1.,2174.,0.,0.,10001.,0.781102691589,20.3086699813,26.
6.76,7831.,2.,0.,2168.,0.,0.,10001.,0.822085080344,21.3742120889,26.
6.78,7834.,4.,0.,2165.,0.,0.,10003.,0.862208802997,11.208714439,52.
6.8,7839.,3.,2.,2160.,0.,0.,10004.,0.901718975793,15.6297955804,39.
6.82,7847.,4.,1.,2156.,0.,0.,10008.,0.939783419686,12.2171844559,52.
6.84,7845.,6.,1.,2154.,0.,0.,10006.,0.975077870612,8.45067487864,78.
6.86,7850.,7.,1.,2151.,0.,0.,10009.,1.00804992465,7.48837086883,91.
6.88,7848.,4.,3.,2153.,0.,0.,10008.,1.03730240342,13.4849312444,52.
6.9,7849.,3.,5.,2150.,0.,0.,10007.,1.06325953964,18.4298320205,39.
6.92,7845.,11.,4.,2147.,0.,0.,10007.,1.08432831137,5.12591565374,143.
6.94,7843.,13.,2.,2152.,0.,0.,10010.,1.10088972193,4.40355888773,169.
6.96,7848.,11.,5.,2143.,0.,0.,10007.,1.11438964263,5.26802376515,143.
6.98,7845.,13.,9.,2141.,0.,0.,10008.,1.1214089355,4.485635742,169.
7.,7839.,16.,8.,2145.,0.,0.,10008.,1.12308149938,3.65001487299,208.
7.02,7827.,22.,10.,2146.,0.,0.,10005.,1.11917139612,2.645314209,286.
7.04,7821.,29.,3.,2153.,0.,0.,10006.,1.11066672229,1.99154032962,377.
7.06,7819.,20.,12.,2155.,0.,0.,10006.,1.09795968556,2.85469518246,260.
7.08,7806.,33.,9.,2158.,0.,0.,10006.,1.07904559817,1.70031427591,429.
7.1,7798.,23.,21.,2161.,0.,0.,10003.,1.05677327234,2.38922652878,299.
7.12,7788.,27.,19.,2169.,0.,0.,10003.,1.02988648853,1.98348508901,351.
7.14,7766.,37.,20.,2180.,0.,0.,10003.,0.997861326822,1.40239970256,481.
7.16,7754.,39.,12.,2195.,0.,0.,10000.,0.964345476229,1.2857939683,507.
7.18,7741.,34.,20.,2205.,0.,0.,10000.,0.927830169816,1.41903437737,442.
7.2,7723.,35.,20.,2221.,0.,0.,9999.,0.888819745645,1.32053219353,455.
7.22,7707.,40.,17.,2231.,0.,0.,9995.,0.848910127475,1.10358316572,520.
7.24,7691.,40.,24.,2241.,0.,0.,9996.,0.807791973712,1.05012956583,520.
7.26,7671.,41.,33.,2253.,0.,0.,9998.,0.766057855111,0.971585572336,533.
7.28,7652.,39.,29.,2277.,0.,0.,9997.,0.72516888357,0.966891844761,507.
7.3,7635.,37.,14.,2311.,0.,0.,9997.,0.685501199832,0.963407091656,481.
7.32,7629.,29.,14.,2324.,0.,0.,9996.,0.648524211422,1.16287099979,377.
7.34,7627.,25.,15.,2326.,0.,0.,9993.,0.614140166168,1.27741154563,325.
7.36,7625.,22.,15.,2333.,0.,0.,9995.,0.582104444965,1.37588323355,286.
7.38,7622.,17.,14.,2344.,0.,0.,9997.,0.553165858884,1.69203674482,221.
7.4,7625.,16.,9.,2351.,0.,0.,10001.,0.528160021572,1.71652007011,208.
7.42,7632.,6.,11.,2355.,0.,0.,10004.,0.507456177344,4.39795353698,78.
7.44,7636.,5.,7.,2355.,0.,0.,10003.,0.491051439584,5.10693497168,65.
7.46,7636.,11.,2.,2357.,0.,0.,10006.,0.478771952223,2.26328559233,143.
7.48,7641.,6.,4.,2354.,0.,0.,10005.,0.471771036592,4.08868231713,78.
7.5,7643.,6.,2.,2353.,0.,0.,10004.,0.469473730889,4.06877233437,78.
7.52,7647.,3.,5.,2349.,0.,0.,10004.,0.472188684188,8.18460385926,39.
7.54,7652.,2.,2.,2346.,0.,0.,10002.,0.479967012909,12.4791423356,26.
7.56,7656.,1.,3.,2343.,0.,0.,10003.,0.492337587933,25.6015545725,13.
7.58,7661.,0.,1.,2343.,0.,0.,10005.,0.509333491449,inf,0.
7.6,7666.,1.,1.,2337.,0.,0.,10005.,0.530787670145,27.6009588475,13.
7.62,7672.,1.,0.,2330.,0.,0.,10003.,0.556460627125,28.9359526105,13.
7.64,7678.,0.,1.,2324.,0.,0.,10003.,0.585681768188,inf,0.
7.66,7681.,1.,2.,2320.,0.,0.,10004.,0.617808281028,32.1260306135,13.
7.68,7689.,1.,0.,2317.,0.,0.,10007.,0.652906192898,33.9511220307,13.
7.7,7694.,1.,0.,2310.,0.,0.,10005.,0.690246096027,35.8927969934,13.
7.72,7700.,1.,0.,2304.,0.,0.,10005.,0.72913429111,37.9149831377,13.
7.74,7702.,2.,0.,2298.,0.,0.,10002.,0.768846043663,19.9899971352,26.
7.76,7711.,2.,0.,2292.,0.,0.,10005.,0.809164050887,21.0382653231,26.
7.78,7715.,2.,1.,2286.,0.,0.,10004.,0.84902680457,22.0746969188,26.
7.8,7714.,7.,2.,2282.,0.,0.,10005.,0.887251555157,6.59101155259,91.
7.82,7717.,9.,0.,2279.,0.,0.,10005.,0.924491303046,5.34150530649,117.
7.84,7727.,4.,3.,2273.,0.,0.,10007.,0.960315333409,12.4840993343,52.
7.86,7727.,6.,3.,2272.,0.,0.,10008.,0.992354148447,8.60040261987,78.
7.88,7727.,8.,2.,2269.,0.,0.,10006.,1.02151347567,6.63983759187,104.
7.9,7730.,6.,2.,2268.,0.,0.,10006.,1.04724393531,9.07611410598,78.
7.92,7735.,3.,3.,2266.,0.,0.,10007.,1.06912421777,18.5314864414,39.
7.94,7736.,4.,4.,2262.,0.,0.,10006.,1.08630465884,14.121960565,52.
7.96,7728.,9.,7.,2260.,0.,0.,10004.,1.09767911903,6.34214602107,117.
7.98,7721.,9.,11.,2262.,0.,0.,10003.,1.10423534631,6.38002644535,117.
8.,7716.,15.,3.,2268.,0.,0.,10002.,1.10612262121,3.83455842019,195.
8.02,7715.,21.,2.,2265.,0.,0.,10003.,1.10337724346,2.73217222191,273.
8.04,7712.,19.,10.,2262.,0.,0.,10003.,1.09551599925,2.99825431374,247.
8.06,7707.,17.,15.,2263.,0.,0.,10002.,1.082665227,3.31168187082,221.
8.08,7695.,26.,6.,2276.,0.,0.,10003.,1.06402076706,2.12804153411,338.
8.1,7692.,26.,10.,2275.,0.,0.,10003.,1.04240831122,2.08481662243,338.
8.12,7675.,35.,14.,2277.,0.,0.,10001.,1.01514631704,1.50821738532,455.
8.14,7671.,28.,10.,2292.,0.,0.,10001.,0.985851790345,1.83086761064,364.
8.16,7654.,33.,12.,2302.,0.,0.,10001.,0.951813546406,1.49982740646,429.
8.18,7649.,29.,19.,2308.,0.,0.,10005.,0.916344949722,1.64310128916,377.
8.2,7634.,27.,21.,2322.,0.,0.,10004.,0.878137857024,1.69122846538,351.
8.22,7613.,28.,21.,2341.,0.,0.,10003.,0.837885577893,1.55607321609,364.
8.24,7596.,34.,14.,2359.,0.,0.,10003.,0.797255744247,1.21933231473,442.
8.26,7594.,26.,18.,2367.,0.,0.,10005.,0.757837723433,1.51567544687,338.
8.28,7580.,26.,19.,2379.,0.,0.,10004.,0.717842907717,1.43568581543,338.
8.3,7571.,26.,19.,2385.,0.,0.,10001.,0.679483145995,1.35896629199,338.
8.32,7556.,24.,22.,2399.,0.,0.,10001.,0.641997517633,1.39099462154,312.
8.34,7550.,28.,15.,2413.,0.,0.,10006.,0.607150135485,1.12756453733,364.
8.36,7545.,21.,11.,2429.,0.,0.,10006.,0.57536390274,1.42471061631,273.
8.38,7556.,16.,10.,2430.,0.,0.,10012.,0.547554337755,1.7795515977,208.
8.4,7560.,14.,2.,2439.,0.,0.,10015.,0.522925651138,1.94229527566,182.
8.42,7561.,10.,5.,2439.,0.,0.,10015.,0.502183164896,2.61135245746,130.
8.44,7566.,9.,3.,2435.,0.,0.,10013.,0.486064002137,2.80836979012,117.
8.46,7570.,5.,4.,2434.,0.,0.,10013.,0.474301985279,4.9327406469,65.
8.48,7570.,3.,0.,2442.,0.,0.,10015.,0.46692066342,8.09329149927,39.
8.5,7572.,1.,2.,2438.,0.,0.,10013.,0.46469447527,24.164112714,13.
8.52,7577.,0.,2.,2435.,0.,0.,10014.,0.467399096157,inf,0.
8.54,7579.,0.,1.,2433.,0.,0.,10013.,0.474865884601,inf,0.
8.56,7584.,0.,0.,2430.,0.,0.,10014.,0.487171725697,inf,0.
8.58,7593.,0.,0.,2421.,0.,0.,10014.,0.504358887138,inf,0.
8.6,7601.,0.,0.,2416.,0.,0.,10017.,0.525656649716,inf,0.
8.62,7601.,0.,0.,2412.,0.,0.,10013.,0.550760305131,inf,0.
8.64,7607.,0.,0.,2405.,0.,0.,10012.,0.579744238532,inf,0.
8.66,7613.,0.,0.,2401.,0.,0.,10014.,0.61172733297,inf,0.
8.68,7617.,0.,0.,2399.,0.,0.,10016.,0.646211178752,inf,0.
8.7,7619.,0.,0.,2397.,0.,0.,10016.,0.682767008468,inf,0.
8.72,7618.,0.,0.,2393.,0.,0.,10011.,0.720937138263,inf,0.
8.74,7620.,0.,0.,2390.,0.,0.,10010.,0.760052538228,inf,0.
8.76,7627.,1.,0.,2385.,0.,0.,10013.,0.799709950819,41.5849174426,13.
8.78,7627.,1.,0.,2380.,0.,0.,10008.,0.839007037977,43.6283659748,13.
8.8,7630.,1.,0.,2376.,0.,0.,10007.,0.877414618495,45.6255601617,13.
8.82,7634.,1.,1.,2370.,0.,0.,10006.,0.914456560062,47.5517411232,13.
8.84,7643.,4.,0.,2363.,0.,0.,10010.,0.949591094334,12.3446842263,52.
8.86,7647.,5.,1.,2359.,0.,0.,10012.,0.981687640538,10.2095514616,65.
8.88,7652.,7.,3.,2353.,0.,0.,10015.,1.01068936113,7.50797811127,91.
8.9,7655.,9.,3.,2349.,0.,0.,10016.,1.03604766864,5.98605319659,117.
8.92,7657.,6.,4.,2347.,0.,0.,10014.,1.05760332876,9.16589551591,78.
8.94,7664.,7.,3.,2340.,0.,0.,10014.,1.07533452245,7.98819930965,91.
8.96,7654.,17.,4.,2339.,0.,0.,10014.,1.08608256818,3.32213491445,221.
8.98,7652.,19.,5.,2339.,0.,0.,10015.,1.09305588989,2.99152138286,247.
9.,7651.,17.,10.,2340.,0.,0.,10018.,1.0950528504,3.34957342475,221.
9.02,7639.,20.,11.,2347.,0.,0.,10017.,1.09098102538,2.83655066599,260.
9.04,7620.,31.,16.,2348.,0.,0.,10015.,1.08115009331,1.813542092,403.
9.06,7613.,30.,9.,2362.,0.,0.,10014.,1.06817872122,1.85150978345,390.
9.08,7601.,25.,15.,2370.,0.,0.,10011.,1.05018308801,2.18438082305,325.
9.1,7591.,22.,15.,2385.,0.,0.,10013.,1.02769355725,2.4290938626,286.
9.12,7581.,29.,12.,2395.,0.,0.,10017.,1.0011116362,1.79509672698,377.
9.14,7571.,26.,23.,2399.,0.,0.,10019.,0.971252039076,1.94250407815,338.
9.16,7562.,31.,16.,2405.,0.,0.,10014.,0.939152106221,1.57535192011,403.
9.18,7540.,40.,21.,2412.,0.,0.,10013.,0.902565133279,1.17333467326,520.
9.2,7521.,39.,20.,2435.,0.,0.,10015.,0.864189256148,1.15225234153,507.
9.22,7502.,43.,22.,2448.,0.,0.,10015.,0.824679616676,0.997286978306,559.
9.24,7486.,41.,18.,2472.,0.,0.,10017.,0.784612312096,0.995118054365,533.
9.26,7475.,26.,21.,2493.,0.,0.,10015.,0.745217359785,1.49043471957,338.
9.28,7461.,26.,16.,2512.,0.,0.,10015.,0.705797275703,1.41159455141,338.
9.3,7455.,31.,12.,2520.,0.,0.,10018.,0.667936982758,1.12041042269,403.
9.32,7448.,31.,12.,2527.,0.,0.,10018.,0.631747406162,1.05970532647,403.
9.34,7447.,24.,9.,2538.,0.,0.,10018.,0.598149810763,1.29599125665,312.
9.36,7449.,16.,8.,2544.,0.,0.,10017.,0.567419382138,1.84411299195,208.
9.38,7447.,15.,5.,2546.,0.,0.,10013.,0.539601630353,1.87061898522,195.
9.4,7446.,16.,4.,2542.,0.,0.,10008.,0.515400504328,1.67505163907,208.
9.42,7441.,13.,7.,2546.,0.,0.,10007.,0.494608151676,1.9784326067,169.
9.44,7445.,7.,9.,2547.,0.,0.,10008.,0.478529529846,3.55479079314,91.
9.46,7449.,7.,1.,2555.,0.,0.,10012.,0.4667672883,3.46741414166,91.
9.48,7450.,8.,3.,2550.,0.,0.,10011.,0.459702620498,2.98806703324,104.
9.5,7455.,2.,10.,2542.,0.,0.,10009.,0.457697013476,11.9001223504,26.
9.52,7454.,3.,2.,2549.,0.,0.,10008.,0.460087315229,7.97484679731,39.
9.54,7458.,1.,2.,2548.,0.,0.,10009.,0.467471317251,24.3085084971,13.
9.56,7461.,0.,1.,2546.,0.,0.,10008.,0.479557934477,inf,0.
9.58,7458.,0.,0.,2546.,0.,0.,10004.,0.49588681481,inf,0.
9.6,7462.,1.,0.,2540.,0.,0.,10003.,0.516766175915,26.8718411476,13.
9.62,7470.,0.,0.,2533.,0.,0.,10003.,0.541809291531,inf,0.
9.64,7481.,0.,0.,2522.,0.,0.,10003.,0.570654507399,inf,0.
9.66,7485.,2.,0.,2516.,0.,0.,10003.,0.602103537861,15.6546919844,26.
9.68,7488.,4.,0.,2510.,0.,0.,10002.,0.636156270569,8.27003151739,52.
9.7,7496.,1.,3.,2501.,0.,0.,10001.,0.672752035712,34.983105857,13.
9.72,7499.,0.,0.,2502.,0.,0.,10001.,0.710385057346,inf,0.
9.74,7507.,0.,0.,2495.,0.,0.,10002.,0.749380323264,inf,0.
9.76,7511.,0.,0.,2491.,0.,0.,10002.,0.788413190375,inf,0.
9.78,7516.,0.,1.,2490.,0.,0.,10007.,0.826879120757,inf,0.
9.8,7520.,1.,0.,2485.,0.,0.,10006.,0.86485155324,44.9722807685,13.
9.82,7525.,2.,0.,2480.,0.,0.,10007.,0.901309662989,23.4340512377,26.
9.84,7526.,3.,0.,2475.,0.,0.,10004.,0.935615443543,16.2173343548,39.
9.86,7527.,2.,1.,2473.,0.,0.,10003.,0.967151971026,25.1459512467,26.
9.88,7527.,4.,1.,2469.,0.,0.,10001.,0.995570857117,12.9424211425,52.
9.9,7528.,5.,1.,2468.,0.,0.,10002.,1.02028527495,10.6109668595,65.
9.92,7532.,9.,1.,2462.,0.,0.,10004.,1.04137794899,6.01685037193,117.
9.94,7536.,8.,4.,2458.,0.,0.,10006.,1.05822025711,6.87843167124,104.
9.96,7537.,12.,1.,2458.,0.,0.,10008.,1.0701217498,4.63719424912,156.
9.98,7539.,13.,3.,2456.,0.,0.,10011.,1.07734460943,4.30937843773,169.
10.,7537.,15.,6.,2453.,0.,0.,10011.,1.07949083448,3.74223489288,195.
