t,cases
5.01,1.69
5.02,1.69
5.03,1.625
5.04,1.625
5.05,2.21
5.06,2.21
5.07,2.73
5.08,2.73
5.09,2.925
5.1,2.925
5.11,3.315
5.12,3.315
5.13,3.64
5.14,3.64
5.15,3.835
5.16,3.835
5.17,4.16
5.18,4.16
5.19,4.745
5.2,4.745
5.21,4.615
5.22,4.615
5.23,3.965
5.24,3.965
5.25,3.25
5.26,3.25
5.27,2.47
5.28,2.47
5.29,3.055
5.3,3.055
5.31,3.705
5.32,3.705
5.33,3.12
5.34,3.12
5.35,2.21
5.36,2.21
5.37,1.755
5.38,1.755
5.39,1.69
5.4,1.69
5.41,1.755
5.42,1.755
5.43,1.3
5.44,1.3
5.45,0.975
5.46,0.975
5.47,1.04
5.48,1.04
5.49,0.715
5.5,0.715
5.51,0.65
5.52,0.65
5.53,0.65
5.54,0.65
5.55,0.39
5.56,0.39
5.57,0.13
5.58,0.13
5.59,0.
5.6,0.
5.61,0.
5.62,0.
5.63,0.
5.64,0.
5.65,0.
5.66,0.
5.67,0.
5.68,0.
5.69,0.
5.7,0.
5.71,0.
5.72,0.
5.73,0.13
5.74,0.13
5.75,0.195
5.76,0.195
5.77,0.13
5.78,0.13
5.79,0.195
5.8,0.195
5.81,0.39
5.82,0.39
5.83,0.455
5.84,0.455
5.85,0.455
5.86,0.455
5.87,0.585
5.88,0.585
5.89,0.78
5.9,0.78
5.91,1.17
5.92,1.17
5.93,1.17
5.94,1.17
5.95,1.365
5.96,1.365
5.97,1.56
5.98,1.56
5.99,1.43
6.,1.43
6.01,1.17
6.02,1.17
6.03,1.43
6.04,1.43
6.05,2.34
6.06,2.34
6.07,2.73
6.08,2.73
6.09,3.445
6.1,3.445
6.11,4.16
6.12,4.16
6.13,4.29
6.14,4.29
6.15,4.355
6.16,4.355
6.17,4.615
6.18,4.615
6.19,4.355
6.2,4.355
6.21,3.575
6.22,3.575
6.23,3.38
6.24,3.38
6.25,3.38
6.26,3.38
6.27,2.925
6.28,2.925
6.29,2.99
6.3,2.99
6.31,2.665
6.32,2.665
6.33,2.34
6.34,2.34
6.35,2.21
6.36,2.21
6.37,1.69
6.38,1.69
6.39,1.495
6.4,1.495
6.41,1.56
6.42,1.56
6.43,1.625
6.44,1.625
6.45,1.3
6.46,1.3
6.47,0.975
6.48,0.975
6.49,0.78
6.5,0.78
6.51,0.585
6.52,0.585
6.53,0.325
6.54,0.325
6.55,0.195
6.56,0.195
6.57,0.13
6.58,0.13
6.59,0.13
6.6,0.13
6.61,0.13
6.62,0.13
6.63,0.13
6.64,0.13
6.65,0.065
6.66,0.065
6.67,0.
6.68,0.
6.69,0.
6.7,0.
6.71,0.
6.72,0.
6.73,0.
6.74,0.
6.75,0.
6.76,0.
6.77,0.
6.78,0.
6.79,0.065
6.8,0.065
6.81,0.26
6.82,0.26
6.83,0.39
6.84,0.39
6.85,0.52
6.86,0.52
6.87,0.585
6.88,0.585
6.89,0.715
6.9,0.715
6.91,1.105
6.92,1.105
6.93,1.495
6.94,1.495
6.95,1.495
6.96,1.495
6.97,1.495
6.98,1.495
6.99,1.95
7.,1.95
7.01,2.47
7.02,2.47
7.03,3.12
7.04,3.12
7.05,3.705
7.06,3.705
7.07,3.77
7.08,3.77
7.09,4.355
7.1,4.355
7.11,4.225
7.12,4.225
7.13,3.705
7.14,3.705
7.15,3.965
7.16,3.965
7.17,3.77
7.18,3.77
7.19,4.355
7.2,4.355
7.21,4.745
7.22,4.745
7.23,4.485
7.24,4.485
7.25,4.03
7.26,4.03
7.27,3.315
7.28,3.315
7.29,3.25
7.3,3.25
7.31,3.055
7.32,3.055
7.33,2.405
7.34,2.405
7.35,1.885
7.36,1.885
7.37,1.885
7.38,1.885
7.39,1.885
7.4,1.885
7.41,1.43
7.42,1.43
7.43,1.235
7.44,1.235
7.45,0.975
7.46,0.975
7.47,0.65
7.48,0.65
7.49,0.455
7.5,0.455
7.51,0.195
7.52,0.195
7.53,0.13
7.54,0.13
7.55,0.13
7.56,0.13
7.57,0.13
7.58,0.13
7.59,0.13
7.6,0.13
7.61,0.13
7.62,0.13
7.63,0.065
7.64,0.065
7.65,0.
7.66,0.
7.67,0.
7.68,0.
7.69,0.
7.7,0.
7.71,0.
7.72,0.
7.73,0.065
7.74,0.065
7.75,0.13
7.76,0.13
7.77,0.13
7.78,0.13
7.79,0.195
7.8,0.195
7.81,0.26
7.82,0.26
7.83,0.39
7.84,0.39
7.85,0.52
7.86,0.52
7.87,0.52
7.88,0.52
7.89,0.52
7.9,0.52
7.91,0.78
7.92,0.78
7.93,1.365
7.94,1.365
7.95,1.43
7.96,1.43
7.97,1.3
7.98,1.3
7.99,1.495
8.,1.495
8.01,1.69
8.02,1.69
8.03,1.885
8.04,1.885
8.05,2.47
8.06,2.47
8.07,3.055
8.08,3.055
8.09,3.055
8.1,3.055
8.11,3.38
8.12,3.38
8.13,3.445
8.14,3.445
8.15,3.445
8.16,3.445
8.17,3.965
8.18,3.965
8.19,4.55
8.2,4.55
8.21,4.55
8.22,4.55
8.23,4.55
8.24,4.55
8.25,4.55
8.26,4.55
8.27,4.29
8.28,4.29
8.29,4.55
8.3,4.55
8.31,3.77
8.32,3.77
8.33,2.99
8.34,2.99
8.35,3.185
8.36,3.185
8.37,2.86
8.38,2.86
8.39,2.34
8.4,2.34
8.41,1.69
8.42,1.69
8.43,1.04
8.44,1.04
8.45,0.845
8.46,0.845
8.47,0.78
8.48,0.78
8.49,0.91
8.5,0.91
8.51,0.845
8.52,0.845
8.53,0.585
8.54,0.585
8.55,0.52
8.56,0.52
8.57,0.39
8.58,0.39
8.59,0.13
8.6,0.13
8.61,0.
8.62,0.
8.63,0.
8.64,0.
8.65,0.0650000000001
8.66,0.0649999999999
8.67,0.13
8.68,0.13
8.69,0.13
8.7,0.13
8.71,0.26
8.72,0.26
8.73,0.39
8.74,0.39
8.75,0.26
8.76,0.26
8.77,0.13
8.78,0.13
8.79,0.13
8.8,0.13
8.81,0.13
8.82,0.13
8.83,0.26
8.84,0.26
8.85,0.585
8.86,0.585
8.87,0.585
8.88,0.585
8.89,0.52
8.9,0.52
8.91,0.845
8.92,0.845
8.93,1.105
8.94,1.105
8.95,1.3
8.96,1.3
8.97,1.56
8.98,1.56
8.99,1.82
9.,1.82
9.01,2.21
9.02,2.21
9.03,2.47
9.04,2.47
9.05,2.99
9.06,2.99
9.07,3.835
9.08,3.835
9.09,4.03
9.1,4.03
9.11,4.55
9.12,4.55
9.13,4.875
9.14,4.875
9.15,4.875
9.16,4.875
9.17,5.265
9.18,5.265
9.19,5.46
9.2,5.46
9.21,5.525
9.22,5.525
9.23,5.395
9.24,5.395
9.25,5.07
9.26,5.07
9.27,4.68
9.28,4.68
9.29,4.68
9.3,4.68
9.31,4.29
9.32,4.29
9.33,3.38
9.34,3.38
9.35,2.535
9.36,2.535
9.37,1.95
9.38,1.95
9.39,1.82
9.4,1.82
9.41,1.69
9.42,1.69
9.43,1.625
9.44,1.625
9.45,1.625
9.46,1.625
9.47,1.17
9.48,1.17
9.49,1.04
9.5,1.04
9.51,0.65
9.52,0.65
9.53,0.195
9.54,0.195
9.55,0.325
9.56,0.325
9.57,0.195
9.58,0.195
9.59,0.0649999999999
9.6,0.0650000000001
9.61,0.
9.62,0.
9.63,0.
9.64,0.
9.65,0.
9.66,0.
9.67,0.0650000000001
9.68,0.0649999999999
9.69,0.195
9.7,0.195
9.71,0.26
9.72,0.26
9.73,0.325
9.74,0.325
9.75,0.39
9.76,0.39
9.77,0.26
9.78,0.26
9.79,0.0649999999999
9.8,0.0650000000001
9.81,0.26
9.82,0.26
9.83,0.585
9.84,0.585
9.85,0.975
9.86,0.975
9.87,1.105
9.88,1.105
9.89,0.91
9.9,0.91
9.91,1.17
9.92,1.17
9.93,1.495
9.94,1.495
9.95,1.69
9.96,1.69
9.97,2.145
9.98,2.145
9.99,2.145
10.,2.145
