t,s,e,i,r,c,o,n,reff,coal,reportr
5.,5736.,14.,19.,4229.,0.,0.,9998.,1.09274674435,4.05877362188,182.
5.02,5725.,12.,19.,4241.,0.,0.,9997.,1.08830284775,4.71597900693,156.
5.04,5708.,23.,10.,4248.,0.,0.,9989.,1.07862263406,2.4386250857,299.
5.06,5703.,26.,15.,4246.,0.,0.,9990.,1.06551402014,2.13102804028,338.
5.08,5706.,17.,18.,4246.,0.,0.,9987.,1.04976979369,3.21106054539,221.
5.1,5684.,38.,15.,4251.,0.,0.,9988.,1.0247784872,1.40232845617,494.
5.12,5673.,35.,14.,4264.,0.,0.,9986.,0.998252746981,1.48311836694,455.
5.14,5669.,33.,14.,4270.,0.,0.,9986.,0.969267330465,1.52733033891,429.
5.16,5668.,25.,17.,4273.,0.,0.,9983.,0.937996519645,1.95103276086,325.
5.18,5664.,27.,9.,4283.,0.,0.,9983.,0.903356558439,1.73979781625,351.
5.2,5667.,24.,11.,4283.,0.,0.,9985.,0.867590877291,1.87978023413,312.
5.22,5666.,24.,13.,4282.,0.,0.,9985.,0.829876106711,1.79806489787,312.
5.24,5661.,25.,9.,4288.,0.,0.,9983.,0.790861909836,1.64499277246,325.
5.26,5665.,19.,10.,4289.,0.,0.,9983.,0.75263977963,2.05985623899,247.
5.28,5671.,15.,8.,4290.,0.,0.,9984.,0.71484942459,2.47814467191,195.
5.3,5677.,20.,3.,4286.,0.,0.,9986.,0.677831594821,1.76236214653,260.
5.32,5678.,21.,4.,4284.,0.,0.,9987.,0.641757231024,1.58911314349,273.
5.34,5685.,18.,4.,4281.,0.,0.,9988.,0.60839716851,1.75759182014,234.
5.36,5695.,14.,6.,4276.,0.,0.,9991.,0.577769006512,2.14599916705,182.
5.38,5695.,18.,1.,4272.,0.,0.,9986.,0.549647032818,1.58786920592,234.
5.4,5698.,12.,8.,4266.,0.,0.,9984.,0.525185324862,2.2758030744,156.
5.42,5698.,13.,7.,4261.,0.,0.,9979.,0.504539175197,2.01815670079,169.
5.44,5705.,12.,6.,4257.,0.,0.,9980.,0.488474672925,2.11672358267,156.
5.46,5712.,7.,4.,4257.,0.,0.,9980.,0.476986999456,3.54333199596,91.
5.48,5718.,7.,2.,4253.,0.,0.,9980.,0.470151020832,3.49255044047,91.
5.5,5728.,6.,1.,4247.,0.,0.,9982.,0.468416483575,4.05960952432,78.
5.52,5736.,2.,1.,4243.,0.,0.,9982.,0.471536538239,12.2599499942,26.
5.54,5747.,2.,0.,4233.,0.,0.,9982.,0.479813558892,12.4751525312,26.
5.56,5757.,2.,0.,4222.,0.,0.,9981.,0.492877640987,12.8148186657,26.
5.58,5772.,1.,0.,4209.,0.,0.,9982.,0.510938028041,26.5687774582,13.
5.6,5781.,2.,0.,4202.,0.,0.,9985.,0.532782080957,13.8523341049,26.
5.62,5790.,2.,0.,4194.,0.,0.,9986.,0.558815859529,14.5292123477,26.
5.64,5795.,2.,0.,4187.,0.,0.,9984.,0.58832640363,15.2964864944,26.
5.66,5804.,0.,0.,4179.,0.,0.,9983.,0.621443402144,inf,0.
5.68,5816.,0.,0.,4166.,0.,0.,9982.,0.657683982201,inf,0.
5.7,5824.,0.,0.,4157.,0.,0.,9981.,0.695731691261,inf,0.
5.72,5833.,0.,0.,4150.,0.,0.,9983.,0.735343744553,inf,0.
5.74,5839.,0.,0.,4141.,0.,0.,9980.,0.775990240855,inf,0.
5.76,5844.,0.,0.,4135.,0.,0.,9979.,0.816754921456,inf,0.
5.78,5853.,1.,0.,4125.,0.,0.,9979.,0.857780682055,44.6045954669,13.
5.8,5861.,1.,0.,4118.,0.,0.,9980.,0.897740903831,46.6825269992,13.
5.82,5866.,4.,0.,4108.,0.,0.,9978.,0.936042542098,12.1685530473,52.
5.84,5876.,4.,2.,4093.,0.,0.,9975.,0.973198294713,12.6515778313,52.
5.86,5886.,6.,2.,4084.,0.,0.,9978.,1.00717616092,8.7288600613,78.
5.88,5886.,12.,0.,4081.,0.,0.,9979.,1.03645995508,4.49132647202,156.
5.9,5895.,5.,6.,4072.,0.,0.,9978.,1.06388521655,11.0644062521,65.
5.92,5892.,13.,8.,4068.,0.,0.,9981.,1.08464105068,4.33856420271,169.
5.94,5886.,15.,11.,4068.,0.,0.,9980.,1.10080654155,3.81612934403,195.
5.96,5895.,17.,5.,4063.,0.,0.,9980.,1.11496400287,3.41047812642,221.
5.98,5903.,15.,10.,4053.,0.,0.,9981.,1.12393887859,3.89632144578,195.
6.,5894.,13.,11.,4057.,0.,0.,9975.,1.1254358318,4.50174332718,169.
6.02,5892.,18.,10.,4053.,0.,0.,9973.,1.1227443696,3.24348373439,234.
6.04,5889.,21.,3.,4062.,0.,0.,9975.,1.11438748982,2.75943568908,273.
6.06,5897.,18.,6.,4056.,0.,0.,9977.,1.10319539616,3.18700892223,234.
6.08,5892.,19.,11.,4055.,0.,0.,9977.,1.08507590727,2.96968143042,247.
6.1,5883.,28.,9.,4054.,0.,0.,9974.,1.06214534179,1.97255563475,364.
6.12,5873.,31.,16.,4054.,0.,0.,9974.,1.03468923118,1.73560774263,403.
6.14,5867.,31.,20.,4057.,0.,0.,9975.,1.00422692997,1.68450968898,403.
6.16,5856.,37.,24.,4058.,0.,0.,9975.,0.969885843064,1.36308280647,481.
6.18,5853.,31.,17.,4074.,0.,0.,9975.,0.934249013857,1.56712737808,403.
6.2,5839.,36.,17.,4083.,0.,0.,9975.,0.894819426863,1.29251694991,468.
6.22,5824.,33.,18.,4098.,0.,0.,9973.,0.854044120293,1.34576649258,429.
6.24,5822.,37.,10.,4108.,0.,0.,9977.,0.813843322135,1.14377980408,481.
6.26,5818.,30.,21.,4106.,0.,0.,9975.,0.773586955718,1.34088405658,390.
6.28,5811.,22.,31.,4111.,0.,0.,9975.,0.733157814706,1.73291847112,286.
6.3,5803.,26.,14.,4132.,0.,0.,9975.,0.693640019602,1.3872800392,338.
6.32,5796.,25.,14.,4140.,0.,0.,9975.,0.655882290904,1.36423516508,325.
6.34,5798.,24.,11.,4143.,0.,0.,9976.,0.62123657885,1.34601258751,312.
6.36,5799.,18.,11.,4150.,0.,0.,9978.,0.589086514395,1.70180548603,234.
6.38,5803.,13.,11.,4149.,0.,0.,9976.,0.560631959023,2.24252783609,169.
6.4,5796.,15.,6.,4155.,0.,0.,9972.,0.534860857905,1.85418430741,195.
6.42,5803.,13.,8.,4147.,0.,0.,9971.,0.514248844978,2.05699537991,169.
6.44,5816.,8.,9.,4139.,0.,0.,9972.,0.498378239146,3.23945855445,104.
6.46,5822.,6.,2.,4143.,0.,0.,9973.,0.486513915691,4.21645393599,78.
6.48,5839.,7.,1.,4128.,0.,0.,9975.,0.480340653491,3.5682448545,91.
6.5,5845.,5.,4.,4121.,0.,0.,9975.,0.478319775814,4.97452566846,65.
6.52,5850.,3.,7.,4115.,0.,0.,9975.,0.481245559671,8.34158970097,39.
6.54,5861.,4.,3.,4107.,0.,0.,9975.,0.489674740459,6.36577162596,52.
6.56,5865.,2.,0.,4105.,0.,0.,9972.,0.502577092949,13.0670044167,26.
6.58,5878.,1.,0.,4091.,0.,0.,9970.,0.520947423024,27.0892659972,13.
6.6,5891.,1.,1.,4076.,0.,0.,9969.,0.543791151299,28.2771398676,13.
6.62,5898.,0.,0.,4073.,0.,0.,9971.,0.570095710234,inf,0.
6.64,5906.,0.,0.,4066.,0.,0.,9972.,0.60031700334,inf,0.
6.66,5923.,0.,0.,4055.,0.,0.,9978.,0.634502710778,inf,0.
6.68,5929.,0.,0.,4050.,0.,0.,9979.,0.670663792084,inf,0.
6.7,5946.,1.,0.,4035.,0.,0.,9982.,0.710234582452,36.9321982875,13.
6.72,5961.,2.,0.,4021.,0.,0.,9984.,0.751404940924,19.536528464,26.
6.74,5963.,3.,0.,4019.,0.,0.,9985.,0.792072737743,13.7292607875,39.
6.76,5969.,0.,4.,4016.,0.,0.,9989.,0.83338972406,inf,0.
6.78,5981.,0.,0.,4008.,0.,0.,9989.,0.875662091828,inf,0.
6.8,5988.,0.,0.,3998.,0.,0.,9986.,0.916642655984,inf,0.
6.82,5998.,0.,0.,3990.,0.,0.,9988.,0.956147637057,inf,0.
6.84,6010.,2.,0.,3978.,0.,0.,9990.,0.993897138604,25.8413256037,26.
6.86,6020.,3.,0.,3965.,0.,0.,9988.,1.0290740747,17.8372839614,39.
6.88,6024.,4.,3.,3956.,0.,0.,9987.,1.05991052663,13.7788368462,52.
6.9,6027.,6.,6.,3950.,0.,0.,9989.,1.08650978681,9.41641815234,78.
6.92,6032.,7.,8.,3940.,0.,0.,9987.,1.1097461261,8.24382836529,91.
6.94,6034.,11.,5.,3936.,0.,0.,9986.,1.12780763241,5.3314542623,143.
6.96,6036.,11.,5.,3936.,0.,0.,9988.,1.1407179499,5.39248485407,143.
6.98,6033.,16.,4.,3933.,0.,0.,9986.,1.14811589696,3.73137666511,208.
7.,6033.,16.,3.,3935.,0.,0.,9987.,1.15059315612,3.73942775739,208.
7.02,6035.,16.,6.,3929.,0.,0.,9986.,1.14849650889,3.7326136539,208.
7.04,6036.,22.,5.,3926.,0.,0.,9989.,1.14060375249,2.69597250588,286.
7.06,6036.,26.,6.,3925.,0.,0.,9993.,1.12739116978,2.25478233955,338.
7.08,6035.,24.,5.,3932.,0.,0.,9996.,1.10929838742,2.40347983941,312.
7.1,6032.,24.,17.,3929.,0.,0.,10002.,1.08599780364,2.35299524122,312.
7.12,6017.,35.,11.,3937.,0.,0.,10000.,1.05730260834,1.57084958953,455.
7.14,6012.,27.,19.,3942.,0.,0.,10000.,1.02647328656,1.97691151485,351.
7.16,6001.,31.,19.,3951.,0.,0.,10002.,0.991218121107,1.66268846121,403.
7.18,5999.,30.,14.,3961.,0.,0.,10004.,0.954777568649,1.65494778566,390.
7.2,5998.,33.,11.,3962.,0.,0.,10004.,0.916521403944,1.44421554561,429.
7.22,5996.,33.,10.,3964.,0.,0.,10003.,0.876629568513,1.38135568372,429.
7.24,5991.,31.,17.,3967.,0.,0.,10006.,0.835040224856,1.40071263524,403.
7.26,5995.,21.,15.,3977.,0.,0.,10008.,0.794493258098,1.9673166391,273.
7.28,5994.,21.,10.,3985.,0.,0.,10010.,0.753602200844,1.86606259257,273.
7.3,5996.,20.,8.,3986.,0.,0.,10010.,0.71420357923,1.856929306,260.
7.32,5992.,21.,12.,3984.,0.,0.,10009.,0.675758547876,1.67330688045,273.
7.34,5991.,16.,12.,3991.,0.,0.,10010.,0.639735558657,2.07914056564,208.
7.36,5990.,15.,15.,3990.,0.,0.,10010.,0.606543868124,2.1026854095,195.
7.38,5989.,14.,9.,3997.,0.,0.,10009.,0.57669388315,2.1420058517,182.
7.4,5996.,13.,8.,3992.,0.,0.,10009.,0.551271631934,2.20508652774,169.
7.42,6002.,9.,5.,3990.,0.,0.,10006.,0.53002330172,3.06235685438,117.
7.44,6005.,9.,1.,3993.,0.,0.,10008.,0.512722833143,2.96239859149,117.
7.46,6013.,5.,3.,3988.,0.,0.,10009.,0.500667498354,5.20694198289,65.
7.48,6023.,5.,1.,3978.,0.,0.,10007.,0.493892847808,5.1364856172,65.
7.5,6028.,3.,2.,3973.,0.,0.,10006.,0.49176710049,8.52396307516,39.
7.52,6036.,1.,1.,3969.,0.,0.,10007.,0.494958862588,25.7378608546,13.
7.54,6040.,1.,0.,3966.,0.,0.,10007.,0.50301614391,26.1568394833,13.
7.56,6052.,0.,0.,3956.,0.,0.,10008.,0.516735817848,inf,0.
7.58,6059.,0.,0.,3948.,0.,0.,10007.,0.535003376981,inf,0.
7.6,6064.,0.,0.,3941.,0.,0.,10005.,0.557746443007,inf,0.
7.62,6072.,0.,1.,3932.,0.,0.,10005.,0.584919891902,inf,0.
7.64,6080.,0.,0.,3927.,0.,0.,10007.,0.615841783024,inf,0.
7.66,6087.,0.,0.,3922.,0.,0.,10009.,0.650051644538,inf,0.
7.68,6095.,0.,0.,3917.,0.,0.,10012.,0.687168592418,inf,0.
7.7,6103.,0.,0.,3906.,0.,0.,10009.,0.727021335982,inf,0.
7.72,6112.,0.,0.,3898.,0.,0.,10010.,0.768437879806,inf,0.
7.74,6114.,0.,0.,3893.,0.,0.,10007.,0.810344819583,inf,0.
7.76,6123.,0.,0.,3883.,0.,0.,10006.,0.853438707526,inf,0.
7.78,6133.,0.,0.,3870.,0.,0.,10003.,0.896659296813,inf,0.
7.8,6139.,0.,0.,3862.,0.,0.,10001.,0.93834823066,inf,0.
7.82,6146.,0.,0.,3855.,0.,0.,10001.,0.978466941119,inf,0.
7.84,6149.,2.,1.,3849.,0.,0.,10001.,1.01576565002,26.4099069005,26.
7.86,6156.,2.,1.,3844.,0.,0.,10003.,1.05074424979,27.3193504944,26.
7.88,6156.,5.,1.,3840.,0.,0.,10002.,1.08151127908,11.2477173025,65.
7.9,6155.,13.,4.,3829.,0.,0.,10001.,1.10825345594,4.43301382375,169.
7.92,6161.,8.,6.,3827.,0.,0.,10002.,1.13177921333,7.35656488663,104.
7.94,6159.,11.,4.,3822.,0.,0.,9996.,1.15001959914,5.43645628685,143.
7.96,6155.,16.,4.,3818.,0.,0.,9993.,1.16262524238,3.77853203774,208.
7.98,6163.,14.,9.,3807.,0.,0.,9993.,1.17203409855,4.35326950891,182.
8.,6152.,20.,10.,3808.,0.,0.,9990.,1.17293609084,3.04963383619,260.
8.02,6150.,19.,14.,3808.,0.,0.,9991.,1.16979597707,3.2015468846,247.
8.04,6139.,33.,4.,3816.,0.,0.,9992.,1.15971903657,1.82743605762,429.
8.06,6133.,27.,15.,3819.,0.,0.,9994.,1.14539400267,2.20594400515,351.
8.08,6138.,26.,17.,3817.,0.,0.,9998.,1.12800521207,2.25601042415,338.
8.1,6128.,23.,17.,3828.,0.,0.,9996.,1.10394382216,2.49587298923,299.
8.12,6117.,27.,20.,3829.,0.,0.,9993.,1.07562747059,2.07157883225,351.
8.14,6108.,26.,21.,3837.,0.,0.,9992.,1.04369903679,2.08739807358,338.
8.16,6093.,35.,18.,3846.,0.,0.,9992.,1.00742148632,1.49674049395,455.
8.18,6069.,47.,10.,3865.,0.,0.,9991.,0.967175322294,1.07006631403,611.
8.2,6071.,42.,11.,3866.,0.,0.,9990.,0.928976179234,1.15016098381,546.
8.22,6067.,36.,17.,3873.,0.,0.,9993.,0.887897569935,1.28251871213,468.
8.24,6057.,33.,18.,3885.,0.,0.,9993.,0.845337746293,1.3320473578,429.
8.26,6048.,32.,20.,3894.,0.,0.,9994.,0.802639932776,1.30428989076,416.
8.28,6044.,28.,19.,3903.,0.,0.,9994.,0.761105057029,1.4134808202,364.
8.3,6037.,27.,18.,3909.,0.,0.,9991.,0.720454722596,1.3875424287,351.
8.32,6036.,26.,13.,3918.,0.,0.,9993.,0.681810642903,1.36362128581,338.
8.34,6036.,20.,16.,3925.,0.,0.,9997.,0.645378937648,1.67798523789,260.
8.36,6032.,23.,10.,3935.,0.,0.,10000.,0.611407560123,1.38231274463,299.
8.38,6030.,23.,6.,3942.,0.,0.,10001.,0.58110632969,1.31380561495,299.
8.4,6036.,15.,11.,3939.,0.,0.,10001.,0.555393142868,1.92536289528,195.
8.42,6042.,16.,6.,3937.,0.,0.,10001.,0.533822364092,1.7349226833,208.
8.44,6045.,10.,8.,3939.,0.,0.,10002.,0.516447760235,2.68552835322,130.
8.46,6054.,9.,9.,3932.,0.,0.,10004.,0.504333269514,2.91392555719,117.
8.48,6066.,7.,4.,3931.,0.,0.,10008.,0.497369194568,3.69474258822,91.
8.5,6070.,6.,4.,3928.,0.,0.,10008.,0.495094520892,4.29081918106,78.
8.52,6074.,4.,3.,3928.,0.,0.,10009.,0.497975380383,6.47367994498,52.
8.54,6082.,2.,4.,3924.,0.,0.,10012.,0.506260984863,13.1627856064,26.
8.56,6090.,2.,0.,3916.,0.,0.,10008.,0.519980358674,13.5194893255,26.
8.58,6094.,1.,1.,3911.,0.,0.,10007.,0.538093840456,27.9808797037,13.
8.6,6096.,1.,1.,3906.,0.,0.,10004.,0.560745742555,29.1587786129,13.
8.62,6108.,0.,1.,3894.,0.,0.,10003.,0.588505438666,inf,0.
8.64,6117.,0.,0.,3890.,0.,0.,10007.,0.619589504401,inf,0.
8.66,6128.,2.,0.,3880.,0.,0.,10010.,0.654364797772,17.0134847421,26.
8.68,6131.,2.,1.,3875.,0.,0.,10009.,0.6914345222,17.9772975772,26.
8.7,6139.,1.,0.,3869.,0.,0.,10009.,0.7313098446,38.0281119192,13.
8.72,6150.,1.,1.,3862.,0.,0.,10014.,0.772906617543,40.1911441122,13.
8.74,6157.,1.,1.,3852.,0.,0.,10011.,0.815717947305,42.4173332599,13.
8.76,6164.,0.,1.,3848.,0.,0.,10013.,0.858552761193,inf,0.
8.78,6172.,1.,0.,3841.,0.,0.,10014.,0.901369980655,46.871238994,13.
8.8,6181.,1.,0.,3830.,0.,0.,10012.,0.943729945755,49.0739571792,13.
8.82,6186.,1.,1.,3820.,0.,0.,10008.,0.984146262133,51.1756056309,13.
8.84,6190.,2.,1.,3815.,0.,0.,10008.,1.0218233175,26.5674062549,26.
8.86,6194.,5.,1.,3806.,0.,0.,10006.,1.05691334649,10.9918988035,65.
8.88,6200.,6.,1.,3801.,0.,0.,10008.,1.08858835678,9.43443242546,78.
8.9,6205.,5.,3.,3797.,0.,0.,10010.,1.11625180106,11.609018731,65.
8.92,6205.,6.,4.,3792.,0.,0.,10007.,1.13929250607,9.87386838596,78.
8.94,6208.,11.,5.,3780.,0.,0.,10004.,1.15824200322,5.47532583338,143.
8.96,6212.,14.,7.,3771.,0.,0.,10004.,1.17210182476,4.35352106339,182.
8.98,6211.,15.,6.,3770.,0.,0.,10002.,1.18009955261,4.09101178239,195.
9.,6207.,14.,7.,3775.,0.,0.,10003.,1.18188436537,4.38985621424,182.
9.02,6203.,21.,4.,3774.,0.,0.,10002.,1.17857954031,2.91838743315,273.
9.04,6202.,21.,7.,3771.,0.,0.,10001.,1.17056601928,2.89854442868,273.
9.06,6195.,21.,11.,3773.,0.,0.,10000.,1.1562788875,2.86316676905,273.
9.08,6189.,26.,9.,3776.,0.,0.,10000.,1.13715021386,2.27430042772,338.
9.1,6181.,24.,10.,3786.,0.,0.,10001.,1.11293494901,2.41135905619,312.
9.12,6173.,31.,11.,3785.,0.,0.,10000.,1.08471480825,1.81952161384,403.
9.14,6170.,28.,13.,3789.,0.,0.,10000.,1.05344979675,1.95640676539,364.
9.16,6160.,29.,17.,3796.,0.,0.,10002.,1.01748102417,1.82444873299,377.
9.18,6142.,39.,24.,3800.,0.,0.,10005.,0.977439189086,1.30325225211,507.
9.2,6122.,45.,20.,3819.,0.,0.,10006.,0.935282180568,1.08077051977,585.
9.22,6110.,40.,25.,3830.,0.,0.,10005.,0.893118071654,1.16105349315,520.
9.24,6105.,29.,29.,3840.,0.,0.,10003.,0.851185025912,1.52626280508,377.
9.26,6086.,38.,23.,3853.,0.,0.,10000.,0.807198364897,1.10458723618,494.
9.28,6067.,38.,19.,3873.,0.,0.,9997.,0.763772117467,1.04516184495,494.
9.3,6051.,44.,10.,3891.,0.,0.,9996.,0.721764273384,0.852994141272,572.
9.32,6045.,33.,23.,3895.,0.,0.,9996.,0.68262232902,1.07564730633,429.
9.34,6037.,26.,19.,3910.,0.,0.,9992.,0.645808860606,1.29161772121,338.
9.36,6035.,21.,12.,3925.,0.,0.,9993.,0.612140140231,1.51577558533,273.
9.38,6041.,17.,12.,3926.,0.,0.,9996.,0.582457590664,1.78163498321,221.
9.4,6039.,19.,3.,3935.,0.,0.,9996.,0.555947128968,1.52153951086,247.
9.42,6043.,10.,10.,3933.,0.,0.,9996.,0.534177778206,2.77772444667,130.
9.44,6048.,7.,2.,3937.,0.,0.,9994.,0.517117673269,3.84144557286,91.
9.46,6052.,5.,4.,3929.,0.,0.,9990.,0.50487319779,5.25068125701,65.
9.48,6058.,3.,1.,3925.,0.,0.,9987.,0.497757706641,8.62780024844,39.
9.5,6072.,2.,0.,3918.,0.,0.,9992.,0.496050695911,12.8973180937,26.
9.52,6084.,0.,2.,3904.,0.,0.,9990.,0.499743887491,inf,0.
9.54,6091.,1.,0.,3899.,0.,0.,9991.,0.508075818317,26.4199425525,13.
9.56,6107.,1.,0.,3884.,0.,0.,9992.,0.52226682273,27.157874782,13.
9.58,6115.,1.,0.,3877.,0.,0.,9993.,0.540704575427,28.1166379222,13.
9.6,6123.,1.,0.,3870.,0.,0.,9994.,0.56379292801,29.3172322565,13.
9.62,6128.,3.,0.,3864.,0.,0.,9995.,0.590905019724,10.2423536752,39.
9.64,6130.,0.,2.,3860.,0.,0.,9992.,0.621838376462,inf,0.
9.66,6138.,1.,0.,3851.,0.,0.,9990.,0.656744802873,34.1507297494,13.
9.68,6142.,0.,1.,3846.,0.,0.,9989.,0.694061942628,inf,0.
9.7,6151.,0.,0.,3836.,0.,0.,9987.,0.734353472399,inf,0.
9.72,6156.,0.,0.,3831.,0.,0.,9987.,0.77575227568,inf,0.
9.74,6163.,1.,0.,3822.,0.,0.,9986.,0.818557008872,42.5649644614,13.
9.76,6168.,2.,0.,3818.,0.,0.,9988.,0.861260256386,22.392766666,26.
9.78,6169.,3.,1.,3813.,0.,0.,9986.,0.903458001058,15.659938685,39.
9.8,6186.,1.,1.,3799.,0.,0.,9987.,0.946857664774,49.2365985682,13.
9.82,6192.,4.,0.,3793.,0.,0.,9989.,0.986974569869,12.8306694083,52.
9.84,6199.,2.,4.,3784.,0.,0.,9989.,1.02525543386,26.6566412804,26.
9.86,6203.,5.,3.,3777.,0.,0.,9988.,1.06035655903,11.0277082139,65.
9.88,6216.,7.,1.,3770.,0.,0.,9994.,1.09292649105,8.11888250493,91.
9.9,6225.,3.,5.,3761.,0.,0.,9994.,1.12164254702,19.4418041484,39.
9.92,6225.,8.,4.,3757.,0.,0.,9994.,1.14445142789,7.43893428129,104.
9.94,6223.,11.,5.,3754.,0.,0.,9993.,1.16231862981,5.49459715909,143.
9.96,6232.,7.,5.,3746.,0.,0.,9990.,1.17752336808,8.74731644856,91.
9.98,6235.,10.,3.,3742.,0.,0.,9990.,1.18608260405,6.16762954105,130.
10.,6248.,10.,4.,3729.,0.,0.,9991.,1.1911201536,6.19382479873,130.
