t,s,e,i,r,c,o,n,reff,coal,reportr
5.,5180.,23.,5.,4793.,0.,0.,10001.,1.08385603572,2.45045712425,299.
5.02,5185.,16.,14.,4788.,0.,0.,10003.,1.08224157982,3.5172851344,208.
5.04,5182.,20.,11.,4791.,0.,0.,10004.,1.07421957141,2.79297088565,260.
5.06,5171.,27.,9.,4796.,0.,0.,10003.,1.06005234508,2.04158229423,351.
5.08,5166.,28.,11.,4801.,0.,0.,10006.,1.04220467013,1.93552295881,364.
5.1,5161.,29.,8.,4811.,0.,0.,10009.,1.02013909405,1.82921492726,377.
5.12,5163.,29.,15.,4805.,0.,0.,10012.,0.995548295571,1.78512108171,377.
5.14,5150.,28.,18.,4814.,0.,0.,10010.,0.965080605796,1.79229255362,364.
5.16,5134.,37.,18.,4822.,0.,0.,10011.,0.930834810823,1.30820027467,481.
5.18,5124.,38.,19.,4833.,0.,0.,10014.,0.895076838648,1.22484198973,494.
5.2,5108.,39.,17.,4847.,0.,0.,10011.,0.856929349473,1.14257246596,507.
5.22,5098.,31.,25.,4859.,0.,0.,10013.,0.818054299926,1.372220116,403.
5.24,5092.,38.,14.,4870.,0.,0.,10014.,0.779132176714,1.0661808734,494.
5.26,5088.,32.,20.,4875.,0.,0.,10015.,0.740297412503,1.20298329532,416.
5.28,5075.,26.,24.,4891.,0.,0.,10016.,0.700588468465,1.40117693693,338.
5.3,5068.,28.,10.,4910.,0.,0.,10016.,0.662824454272,1.23095970079,364.
5.32,5065.,23.,12.,4912.,0.,0.,10012.,0.627380185359,1.4184247669,299.
5.34,5072.,21.,7.,4913.,0.,0.,10013.,0.594856257554,1.47297739966,273.
5.36,5079.,19.,2.,4912.,0.,0.,10012.,0.564922146359,1.54610271635,247.
5.38,5082.,17.,11.,4900.,0.,0.,10010.,0.537581186293,1.6443659816,221.
5.4,5089.,9.,10.,4901.,0.,0.,10009.,0.514041554426,2.97001787002,117.
5.42,5097.,8.,8.,4897.,0.,0.,10010.,0.494312717152,3.21303266149,104.
5.44,5113.,5.,4.,4888.,0.,0.,10010.,0.479535115735,4.98716520365,65.
5.46,5120.,4.,3.,4882.,0.,0.,10009.,0.46837090975,6.08882182675,52.
5.48,5129.,8.,1.,4867.,0.,0.,10005.,0.462169345777,3.00410074755,104.
5.5,5144.,6.,2.,4854.,0.,0.,10006.,0.461050974212,3.99577510984,78.
5.52,5151.,3.,2.,4847.,0.,0.,10003.,0.464244547507,8.04690549011,39.
5.54,5168.,3.,1.,4827.,0.,0.,9999.,0.473234696197,8.20273473408,39.
5.56,5180.,0.,3.,4818.,0.,0.,10001.,0.48625606663,inf,0.
5.58,5187.,1.,0.,4814.,0.,0.,10002.,0.503443369386,26.1790552081,13.
5.6,5196.,0.,1.,4804.,0.,0.,10001.,0.525269497165,inf,0.
5.62,5206.,0.,0.,4797.,0.,0.,10003.,0.551083455659,inf,0.
5.64,5215.,1.,0.,4786.,0.,0.,10002.,0.580628957109,30.1927057697,13.
5.66,5223.,1.,0.,4774.,0.,0.,9998.,0.613484930367,31.9012163791,13.
5.68,5236.,0.,1.,4761.,0.,0.,9998.,0.649469401426,inf,0.
5.7,5254.,0.,0.,4743.,0.,0.,9997.,0.688456665302,inf,0.
5.72,5261.,0.,0.,4737.,0.,0.,9998.,0.727572747276,inf,0.
5.74,5273.,1.,0.,4722.,0.,0.,9996.,0.768672964176,39.9709941372,13.
5.76,5281.,2.,0.,4716.,0.,0.,9999.,0.80926345994,21.0408499584,26.
5.78,5293.,1.,2.,4706.,0.,0.,10002.,0.850279210407,44.2145189412,13.
5.8,5305.,0.,3.,4693.,0.,0.,10001.,0.890868393617,inf,0.
5.82,5312.,2.,1.,4688.,0.,0.,10003.,0.928937687611,24.1523798779,26.
5.84,5322.,4.,1.,4679.,0.,0.,10006.,0.965402868982,12.5502372968,52.
5.86,5328.,7.,0.,4667.,0.,0.,10002.,0.999235379555,7.42289139098,91.
5.88,5341.,8.,0.,4650.,0.,0.,9999.,1.03120986412,6.70286411676,104.
5.9,5350.,7.,1.,4640.,0.,0.,9998.,1.05866089375,7.86433806789,91.
5.92,5356.,9.,2.,4634.,0.,0.,10001.,1.08107606625,6.24621727167,117.
5.94,5368.,8.,7.,4619.,0.,0.,10002.,1.10054726565,7.15355722675,104.
5.96,5364.,11.,13.,4613.,0.,0.,10001.,1.11228140531,5.25805755237,143.
5.98,5365.,22.,5.,4613.,0.,0.,10005.,1.11958831453,2.64629965252,286.
6.,5365.,22.,11.,4606.,0.,0.,10004.,1.12222854496,2.65254019717,286.
6.02,5354.,25.,21.,4604.,0.,0.,10004.,1.11740447789,2.32420131402,325.
6.04,5352.,24.,15.,4615.,0.,0.,10006.,1.10923851621,2.40335011847,312.
6.06,5344.,25.,10.,4626.,0.,0.,10005.,1.0952982623,2.27822038559,325.
6.08,5344.,25.,12.,4626.,0.,0.,10007.,1.0780071995,2.24225497495,325.
6.1,5328.,31.,13.,4632.,0.,0.,10004.,1.05367519027,1.76745515788,403.
6.12,5326.,33.,10.,4637.,0.,0.,10006.,1.02759436155,1.61923960001,429.
6.14,5330.,30.,15.,4633.,0.,0.,10008.,0.999011181059,1.7316193805,390.
6.16,5319.,35.,13.,4635.,0.,0.,10002.,0.965244539748,1.43407760191,455.
6.18,5312.,37.,13.,4639.,0.,0.,10001.,0.929123456571,1.30579512815,481.
6.2,5306.,38.,18.,4639.,0.,0.,10001.,0.891036323569,1.21931286383,494.
6.22,5303.,35.,24.,4635.,0.,0.,9997.,0.852311703131,1.26629167322,455.
6.24,5301.,34.,10.,4651.,0.,0.,9996.,0.812572067377,1.24275727952,442.
6.26,5305.,29.,16.,4644.,0.,0.,9994.,0.773492533017,1.38695212817,377.
6.28,5302.,29.,20.,4643.,0.,0.,9994.,0.733536336954,1.31530653523,377.
6.3,5299.,27.,15.,4652.,0.,0.,9993.,0.694631165659,1.3378081709,351.
6.32,5295.,26.,12.,4661.,0.,0.,9994.,0.657050588729,1.31410117746,338.
6.34,5299.,17.,18.,4661.,0.,0.,9995.,0.622598581444,1.9044191903,221.
6.36,5305.,19.,10.,4665.,0.,0.,9999.,0.590826611863,1.61699914826,247.
6.38,5318.,16.,10.,4660.,0.,0.,10004.,0.562882994275,1.82936973139,208.
6.4,5316.,14.,10.,4661.,0.,0.,10001.,0.537400432435,1.99605874904,182.
6.42,5321.,12.,4.,4664.,0.,0.,10001.,0.516500872168,2.23817044606,156.
6.44,5329.,10.,9.,4655.,0.,0.,10003.,0.500142950345,2.60074334179,130.
6.46,5333.,10.,6.,4651.,0.,0.,10000.,0.488294941709,2.53913369689,130.
6.48,5346.,5.,6.,4645.,0.,0.,10002.,0.481867498831,5.01142198784,65.
6.5,5356.,4.,3.,4644.,0.,0.,10007.,0.480004325761,6.24005623489,52.
6.52,5366.,4.,0.,4639.,0.,0.,10009.,0.483331955772,6.28331542503,52.
6.54,5375.,3.,1.,4625.,0.,0.,10004.,0.491943727232,8.52702460536,39.
6.56,5381.,0.,2.,4620.,0.,0.,10003.,0.505023309402,inf,0.
6.58,5385.,2.,0.,4616.,0.,0.,10003.,0.522608737458,13.5878271739,26.
6.6,5393.,3.,1.,4604.,0.,0.,10001.,0.545184449233,9.4498637867,39.
6.62,5402.,3.,0.,4596.,0.,0.,10001.,0.571945478007,9.91372161879,39.
6.64,5407.,1.,0.,4589.,0.,0.,9997.,0.602306993775,31.3199636763,13.
6.66,5415.,1.,1.,4579.,0.,0.,9996.,0.636164190692,33.080537916,13.
6.68,5425.,3.,0.,4572.,0.,0.,10000.,0.672778233085,11.6614893735,39.
6.7,5430.,4.,0.,4564.,0.,0.,9998.,0.711447618165,9.24881903614,52.
6.72,5445.,2.,2.,4547.,0.,0.,9996.,0.753169787625,19.5824144783,26.
6.74,5453.,3.,1.,4539.,0.,0.,9996.,0.794912511597,13.7784835344,39.
6.76,5461.,2.,0.,4531.,0.,0.,9994.,0.83726543746,21.7689013739,26.
6.78,5474.,1.,0.,4520.,0.,0.,9995.,0.879971306917,45.7585079597,13.
6.8,5488.,1.,1.,4506.,0.,0.,9996.,0.922060558954,47.9471490656,13.
6.82,5492.,4.,0.,4500.,0.,0.,9996.,0.961087804491,12.4941414584,52.
6.84,5509.,4.,1.,4484.,0.,0.,9998.,1.00012400974,13.0016121267,52.
6.86,5520.,5.,0.,4475.,0.,0.,10000.,1.03545091047,10.7686894689,65.
6.88,5525.,7.,2.,4464.,0.,0.,9998.,1.06684223117,7.92511371724,91.
6.9,5535.,9.,0.,4456.,0.,0.,10000.,1.09504974006,6.32695405368,117.
6.92,5548.,7.,4.,4437.,0.,0.,9996.,1.1203902391,8.32289891901,91.
6.94,5557.,7.,1.,4432.,0.,0.,9997.,1.1398658613,8.46757496965,91.
6.96,5560.,13.,0.,4425.,0.,0.,9998.,1.15326999814,4.61307999256,169.
6.98,5558.,14.,5.,4422.,0.,0.,9999.,1.16056026629,4.31065241766,182.
7.,5559.,14.,5.,4419.,0.,0.,9997.,1.16362287415,4.32202781828,182.
7.02,5570.,11.,5.,4416.,0.,0.,10002.,1.16271712393,5.4964809495,143.
7.04,5570.,17.,6.,4412.,0.,0.,10005.,1.15453588797,3.53152153967,221.
7.06,5571.,14.,10.,4411.,0.,0.,10006.,1.14170972951,4.24063613819,182.
7.08,5569.,16.,15.,4407.,0.,0.,10007.,1.12339485292,3.65103327198,208.
7.1,5561.,25.,14.,4405.,0.,0.,10005.,1.09964378325,2.28725906917,325.
7.12,5558.,35.,12.,4401.,0.,0.,10006.,1.07235626389,1.59321502064,455.
7.14,5543.,33.,16.,4411.,0.,0.,10003.,1.03945345323,1.63792665358,429.
7.16,5531.,32.,18.,4420.,0.,0.,10001.,1.00381676494,1.63120224303,416.
7.18,5519.,33.,14.,4431.,0.,0.,9997.,0.965716134278,1.52173451462,429.
7.2,5519.,32.,17.,4431.,0.,0.,9999.,0.926990782894,1.5063600222,416.
7.22,5514.,29.,16.,4437.,0.,0.,9996.,0.886312819876,1.58925057357,377.
7.24,5516.,30.,19.,4432.,0.,0.,9997.,0.845444100056,1.4654364401,390.
7.26,5518.,27.,18.,4437.,0.,0.,10000.,0.80406614856,1.54857184167,351.
7.28,5510.,26.,20.,4441.,0.,0.,9997.,0.76208455624,1.52416911248,338.
7.3,5502.,27.,18.,4451.,0.,0.,9998.,0.720881177743,1.38836374973,351.
7.32,5503.,25.,6.,4462.,0.,0.,9996.,0.682724447691,1.4200668512,325.
7.34,5504.,24.,7.,4458.,0.,0.,9993.,0.646814196805,1.40143075975,312.
7.36,5510.,14.,15.,4457.,0.,0.,9996.,0.613841971454,2.2799844654,182.
7.38,5509.,15.,9.,4462.,0.,0.,9995.,0.583624415522,2.02323130714,195.
7.4,5517.,12.,10.,4457.,0.,0.,9996.,0.557998720474,2.41799445539,156.
7.42,5525.,8.,11.,4453.,0.,0.,9997.,0.536517408043,3.48736315228,104.
7.44,5541.,11.,2.,4445.,0.,0.,9999.,0.520247835534,2.45935340434,143.
7.46,5549.,8.,5.,4438.,0.,0.,10000.,0.508072122922,3.302468799,104.
7.48,5554.,7.,3.,4436.,0.,0.,10000.,0.500715927221,3.71960403079,91.
7.5,5559.,7.,1.,4429.,0.,0.,9996.,0.498745407001,3.70496588058,91.
7.52,5571.,5.,2.,4419.,0.,0.,9997.,0.502399266872,5.22495237547,65.
7.54,5580.,3.,3.,4409.,0.,0.,9995.,0.511166097719,8.86021236047,39.
7.56,5589.,2.,4.,4397.,0.,0.,9992.,0.525122206822,13.6531773774,26.
7.58,5593.,2.,1.,4397.,0.,0.,9993.,0.543338099679,14.1267905917,26.
7.6,5606.,2.,2.,4386.,0.,0.,9996.,0.567000331154,14.74200861,26.
7.62,5615.,2.,0.,4377.,0.,0.,9994.,0.594913595027,15.4677534707,26.
7.64,5623.,2.,0.,4368.,0.,0.,9993.,0.626618805964,16.2920889551,26.
7.66,5625.,0.,2.,4364.,0.,0.,9991.,0.661166093476,inf,0.
7.68,5636.,2.,0.,4354.,0.,0.,9992.,0.699504879788,18.1871268745,26.
7.7,5645.,1.,1.,4346.,0.,0.,9993.,0.739987342922,38.479341832,13.
7.72,5650.,0.,1.,4338.,0.,0.,9989.,0.782073712923,inf,0.
7.74,5659.,0.,0.,4331.,0.,0.,9990.,0.825437676658,inf,0.
7.76,5670.,1.,0.,4323.,0.,0.,9994.,0.86930874023,45.204054492,13.
7.78,5684.,0.,1.,4306.,0.,0.,9991.,0.91409561811,inf,0.
7.8,5693.,0.,0.,4297.,0.,0.,9990.,0.957077895283,inf,0.
7.82,5706.,0.,0.,4283.,0.,0.,9989.,0.999237075135,inf,0.
7.84,5711.,1.,1.,4273.,0.,0.,9986.,1.03804172783,53.9781698473,13.
7.86,5724.,1.,1.,4259.,0.,0.,9985.,1.07533057041,55.9171896614,13.
7.88,5726.,3.,2.,4254.,0.,0.,9985.,1.10709355761,19.1896216653,39.
7.9,5738.,1.,2.,4243.,0.,0.,9984.,1.13703070504,59.125596662,13.
7.92,5742.,3.,1.,4236.,0.,0.,9982.,1.16119386933,20.1273604017,39.
7.94,5753.,8.,1.,4217.,0.,0.,9979.,1.18219847167,7.68429006585,104.
7.96,5770.,10.,5.,4199.,0.,0.,9984.,1.19850700252,6.23223641308,130.
7.98,5779.,9.,4.,4192.,0.,0.,9984.,1.20852001041,6.98256006016,117.
8.,5780.,14.,7.,4182.,0.,0.,9983.,1.21157983152,4.50015365993,182.
8.02,5767.,21.,11.,4181.,0.,0.,9980.,1.20649390912,2.98750872735,273.
8.04,5762.,25.,7.,4192.,0.,0.,9986.,1.19660558972,2.48893962662,325.
8.06,5755.,29.,10.,4191.,0.,0.,9985.,1.18189882509,2.11926685878,377.
8.08,5758.,29.,9.,4188.,0.,0.,9984.,1.16419626015,2.08752432854,377.
8.1,5750.,28.,15.,4192.,0.,0.,9985.,1.13929448922,2.11583262284,364.
8.12,5732.,31.,18.,4203.,0.,0.,9984.,1.10836463067,1.85919228371,403.
8.14,5718.,30.,19.,4211.,0.,0.,9978.,1.07495698981,1.86325878234,390.
8.16,5707.,30.,20.,4219.,0.,0.,9976.,1.0383544908,1.79981445072,390.
8.18,5689.,42.,19.,4223.,0.,0.,9973.,0.997858359659,1.23544368339,546.
8.2,5683.,37.,17.,4235.,0.,0.,9972.,0.957121289552,1.34514343396,481.
8.22,5680.,37.,14.,4245.,0.,0.,9976.,0.914825816666,1.28570114775,481.
8.24,5679.,27.,20.,4250.,0.,0.,9976.,0.872259605269,1.67990738792,351.
8.26,5672.,28.,13.,4262.,0.,0.,9975.,0.828578004386,1.53878772243,364.
8.28,5668.,22.,17.,4266.,0.,0.,9973.,0.785823978133,1.85740213013,286.
8.3,5659.,22.,13.,4279.,0.,0.,9973.,0.743310225783,1.75691507912,286.
8.32,5658.,21.,8.,4288.,0.,0.,9975.,0.703432173577,1.74183204886,273.
8.34,5657.,22.,7.,4289.,0.,0.,9975.,0.665993944125,1.57416750429,286.
8.36,5663.,15.,11.,4288.,0.,0.,9977.,0.63208839669,2.19123977519,195.
8.38,5663.,13.,9.,4290.,0.,0.,9975.,0.601142087852,2.40456835141,169.
8.4,5663.,12.,2.,4297.,0.,0.,9974.,0.574028776313,2.48745803069,156.
8.42,5668.,10.,6.,4290.,0.,0.,9974.,0.551672969556,2.86869944169,130.
8.44,5678.,6.,4.,4285.,0.,0.,9973.,0.534500689027,4.6323393049,78.
8.46,5691.,4.,3.,4278.,0.,0.,9976.,0.522327374047,6.79025586261,52.
8.48,5698.,6.,2.,4271.,0.,0.,9977.,0.51488234847,4.46231368674,78.
8.5,5707.,5.,1.,4264.,0.,0.,9977.,0.512998839901,5.33518793497,65.
8.52,5714.,3.,4.,4255.,0.,0.,9976.,0.516379896581,8.95058487407,39.
8.54,5720.,2.,1.,4252.,0.,0.,9975.,0.525041662205,13.6510832173,26.
8.56,5728.,2.,1.,4244.,0.,0.,9975.,0.539099346268,14.016583003,26.
8.58,5740.,1.,2.,4233.,0.,0.,9976.,0.558568807525,29.0455779913,13.
8.6,5746.,1.,2.,4228.,0.,0.,9977.,0.582266918023,30.2778797372,13.
8.62,5755.,1.,1.,4223.,0.,0.,9980.,0.61060205946,31.7513070919,13.
8.64,5756.,2.,1.,4217.,0.,0.,9976.,0.642533200905,16.7058632235,26.
8.66,5765.,3.,1.,4204.,0.,0.,9973.,0.67884480428,11.7666432742,39.
8.68,5780.,1.,2.,4193.,0.,0.,9976.,0.718527819252,37.3634466011,13.
8.7,5786.,1.,3.,4187.,0.,0.,9977.,0.759686991225,39.5037235437,13.
8.72,5795.,1.,2.,4180.,0.,0.,9978.,0.803028935784,41.7575046607,13.
8.74,5804.,1.,3.,4170.,0.,0.,9978.,0.847605930263,44.0755083737,13.
8.76,5807.,4.,1.,4170.,0.,0.,9982.,0.891383504241,11.5879855551,52.
8.78,5812.,2.,1.,4164.,0.,0.,9979.,0.935804436519,24.3309153495,26.
8.8,5824.,1.,1.,4155.,0.,0.,9981.,0.979983810178,50.9591581293,13.
8.82,5826.,4.,0.,4151.,0.,0.,9981.,1.02106927962,13.273900635,52.
8.84,5828.,6.,3.,4142.,0.,0.,9979.,1.0600509362,9.18710811372,78.
8.86,5840.,4.,4.,4133.,0.,0.,9981.,1.09756241881,14.2683114445,52.
8.88,5843.,8.,1.,4128.,0.,0.,9980.,1.13028091384,7.34682593997,104.
8.9,5851.,9.,1.,4119.,0.,0.,9980.,1.15988725945,6.70157083238,117.
8.92,5854.,8.,4.,4112.,0.,0.,9978.,1.1843180003,7.69806700196,104.
8.94,5855.,10.,3.,4113.,0.,0.,9981.,1.20291761897,6.25517161864,130.
8.96,5865.,11.,3.,4104.,0.,0.,9983.,1.21836181822,5.75952859521,143.
8.98,5871.,14.,5.,4096.,0.,0.,9986.,1.22751340154,4.55933549143,182.
9.,5876.,15.,10.,4087.,0.,0.,9988.,1.23108636536,4.26776606658,195.
9.02,5873.,17.,9.,4093.,0.,0.,9992.,1.22719421433,3.75377053795,221.
9.04,5867.,20.,8.,4095.,0.,0.,9990.,1.21792328877,3.1666005508,260.
9.06,5864.,18.,12.,4093.,0.,0.,9987.,1.20404288012,3.47834609811,234.
9.08,5852.,28.,13.,4097.,0.,0.,9990.,1.18249126375,2.1960552041,364.
9.1,5847.,30.,11.,4105.,0.,0.,9993.,1.15758643157,2.00648314806,390.
9.12,5838.,29.,15.,4110.,0.,0.,9992.,1.12795744298,2.02254438052,377.
9.14,5826.,37.,5.,4125.,0.,0.,9993.,1.0936164381,1.53697445355,481.
9.16,5820.,26.,20.,4124.,0.,0.,9990.,1.05743020064,2.11486040129,338.
9.18,5797.,41.,19.,4132.,0.,0.,9989.,1.0151730327,1.28753652927,533.
9.2,5795.,34.,19.,4138.,0.,0.,9986.,0.97461584753,1.49058894328,442.
9.22,5789.,38.,18.,4143.,0.,0.,9988.,0.93126125095,1.2743575013,494.
9.24,5783.,34.,22.,4152.,0.,0.,9991.,0.886899817823,1.35643501549,442.
9.26,5772.,34.,14.,4171.,0.,0.,9991.,0.841835907026,1.28751374016,442.
9.28,5774.,22.,24.,4173.,0.,0.,9993.,0.798917889503,1.88835137519,286.
9.3,5767.,31.,13.,4183.,0.,0.,9994.,0.755904340076,1.26796857045,403.
9.32,5774.,16.,16.,4191.,0.,0.,9997.,0.716274148205,2.32789098167,208.
9.34,5777.,22.,10.,4193.,0.,0.,10002.,0.678285484439,1.60322023595,286.
9.36,5773.,20.,3.,4205.,0.,0.,10001.,0.642819967972,1.67133191673,260.
9.38,5779.,14.,10.,4197.,0.,0.,10000.,0.611922148222,2.2728536934,182.
9.4,5781.,16.,9.,4199.,0.,0.,10005.,0.584174160305,1.89856602099,208.
9.42,5784.,15.,6.,4197.,0.,0.,10002.,0.561387400912,1.94614298983,195.
9.44,5787.,13.,5.,4196.,0.,0.,10001.,0.543236265944,2.17294506378,169.
9.46,5797.,13.,4.,4191.,0.,0.,10005.,0.530513999908,2.12205599963,169.
9.48,5807.,10.,7.,4189.,0.,0.,10013.,0.52284521828,2.71879513506,130.
9.5,5813.,6.,7.,4186.,0.,0.,10012.,0.520700464008,4.51273735474,78.
9.52,5820.,3.,2.,4186.,0.,0.,10011.,0.524120388068,9.08475339318,39.
9.54,5826.,3.,2.,4183.,0.,0.,10014.,0.53268876234,9.23327188057,39.
9.56,5833.,2.,2.,4177.,0.,0.,10014.,0.546843544485,14.2179321566,26.
9.58,5840.,0.,2.,4173.,0.,0.,10015.,0.566086921106,inf,0.
9.6,5849.,0.,0.,4168.,0.,0.,10017.,0.590337557609,inf,0.
9.62,5857.,1.,0.,4163.,0.,0.,10021.,0.618881698517,32.1818483229,13.
9.64,5869.,0.,1.,4150.,0.,0.,10020.,0.652270318719,inf,0.
9.66,5875.,0.,0.,4141.,0.,0.,10016.,0.688827632845,inf,0.
9.68,5880.,0.,0.,4137.,0.,0.,10017.,0.727967250244,inf,0.
9.7,5884.,0.,0.,4130.,0.,0.,10014.,0.769699686318,inf,0.
9.72,5893.,1.,0.,4120.,0.,0.,10014.,0.813673380069,42.3110157636,13.
9.74,5911.,1.,0.,4106.,0.,0.,10018.,0.859785297689,44.7088354798,13.
9.76,5921.,3.,0.,4090.,0.,0.,10014.,0.90597832253,15.7036242572,39.
9.78,5930.,2.,0.,4082.,0.,0.,10014.,0.951466765508,24.7381359032,26.
9.8,5942.,2.,0.,4072.,0.,0.,10016.,0.996345404163,25.9049805082,26.
9.82,5948.,4.,1.,4062.,0.,0.,10015.,1.03891206908,13.505856898,52.
9.84,5954.,4.,3.,4054.,0.,0.,10015.,1.07907614098,14.0279898327,52.
9.86,5958.,3.,4.,4050.,0.,0.,10015.,1.11593778257,19.3429215645,39.
9.88,5955.,8.,4.,4046.,0.,0.,10013.,1.14814991687,7.46297445968,104.
9.9,5962.,2.,11.,4041.,0.,0.,10016.,1.17764360226,30.6187336587,26.
9.92,5963.,10.,4.,4041.,0.,0.,10018.,1.2015528935,6.24807504619,130.
9.94,5964.,11.,4.,4037.,0.,0.,10016.,1.22103007489,5.77214217222,143.
9.96,5963.,13.,4.,4034.,0.,0.,10014.,1.23488511931,4.93954047723,169.
9.98,5972.,14.,5.,4028.,0.,0.,10019.,1.24451789597,4.62249504219,182.
10.,5972.,8.,11.,4031.,0.,0.,10022.,1.24695467735,8.10520540277,104.
