t,s,e,i,r,c,o,n,reff,coal,reportr
5.,7137.,2.,17.,2845.,0.,0.,10001.,1.17858905326,30.6433153847,26.
5.02,7129.,16.,7.,2851.,0.,0.,10003.,1.17438078057,3.81673753684,208.
5.04,7117.,18.,13.,2850.,0.,0.,9998.,1.16508613506,3.36580439018,234.
5.06,7106.,27.,10.,2856.,0.,0.,9999.,1.15015545231,2.21511420446,351.
5.08,7097.,26.,12.,2861.,0.,0.,9996.,1.13113003658,2.26226007315,338.
5.1,7087.,32.,12.,2863.,0.,0.,9994.,1.10724613879,1.79927497553,416.
5.12,7070.,37.,17.,2871.,0.,0.,9995.,1.07776116353,1.51469136496,481.
5.14,7060.,33.,14.,2886.,0.,0.,9993.,1.0459336028,1.64813779836,429.
5.16,7047.,28.,24.,2891.,0.,0.,9990.,1.01050359364,1.87664953105,364.
5.18,7042.,28.,16.,2906.,0.,0.,9992.,0.9729874672,1.8069767248,364.
5.2,7027.,34.,15.,2915.,0.,0.,9991.,0.932260858379,1.42581072458,442.
5.22,7023.,35.,12.,2922.,0.,0.,9992.,0.891295318578,1.3242101876,455.
5.24,7014.,31.,21.,2925.,0.,0.,9991.,0.848969328834,1.42407758385,403.
5.26,6991.,32.,25.,2940.,0.,0.,9988.,0.804962625469,1.30806426639,416.
5.28,6976.,30.,22.,2958.,0.,0.,9986.,0.7623265224,1.32136597216,390.
5.3,6962.,37.,17.,2973.,0.,0.,9989.,0.720564901592,1.01268580764,481.
5.32,6956.,32.,16.,2985.,0.,0.,9989.,0.681576511324,1.1075618309,416.
5.34,6946.,26.,19.,2999.,0.,0.,9990.,0.644423192556,1.28884638511,338.
5.36,6949.,25.,9.,3008.,0.,0.,9991.,0.611293034161,1.27148951105,325.
5.38,6943.,23.,6.,3019.,0.,0.,9991.,0.580746431638,1.3129919324,299.
5.4,6939.,19.,14.,3016.,0.,0.,9988.,0.55434442726,1.51715316934,247.
5.42,6930.,20.,6.,3029.,0.,0.,9985.,0.531754603763,1.38256196978,260.
5.44,6929.,17.,8.,3030.,0.,0.,9984.,0.514220699559,1.57291037512,221.
5.46,6931.,11.,7.,3033.,0.,0.,9982.,0.501757462853,2.37194436985,143.
5.48,6926.,6.,5.,3040.,0.,0.,9977.,0.493938537195,4.28080065569,78.
5.5,6932.,6.,0.,3039.,0.,0.,9977.,0.49178120878,4.26210380942,78.
5.52,6944.,5.,0.,3029.,0.,0.,9978.,0.495172603974,5.14979508132,65.
5.54,6956.,3.,1.,3018.,0.,0.,9978.,0.503769164585,8.73199885281,39.
5.56,6957.,1.,1.,3016.,0.,0.,9975.,0.516764492178,26.8717535932,13.
5.58,6962.,1.,0.,3014.,0.,0.,9977.,0.534638389518,27.8011962549,13.
5.6,6970.,0.,1.,3008.,0.,0.,9979.,0.557323155859,inf,0.
5.62,6972.,1.,0.,3007.,0.,0.,9980.,0.583814908179,30.3583752253,13.
5.64,6975.,0.,0.,3005.,0.,0.,9980.,0.614256505708,inf,0.
5.66,6974.,0.,0.,3002.,0.,0.,9976.,0.647928933492,inf,0.
5.68,6979.,1.,0.,2996.,0.,0.,9976.,0.684721260555,35.6055055489,13.
5.7,6986.,2.,0.,2985.,0.,0.,9973.,0.724208904617,18.82943152,26.
5.72,6994.,0.,0.,2986.,0.,0.,9980.,0.764753029753,inf,0.
5.74,7006.,0.,0.,2978.,0.,0.,9984.,0.807012959005,inf,0.
5.76,7009.,0.,0.,2974.,0.,0.,9983.,0.849043979609,inf,0.
5.78,7010.,1.,0.,2970.,0.,0.,9981.,0.890625949675,46.3125493831,13.
5.8,7019.,0.,0.,2962.,0.,0.,9981.,0.932132483325,inf,0.
5.82,7022.,1.,0.,2958.,0.,0.,9981.,0.971293361431,50.5072547944,13.
5.84,7020.,3.,0.,2956.,0.,0.,9979.,1.0077415577,17.4675203335,39.
5.86,7031.,4.,0.,2947.,0.,0.,9982.,1.04278514214,13.5562068478,52.
5.88,7034.,5.,0.,2940.,0.,0.,9979.,1.07399251841,11.1695221915,65.
5.9,7035.,5.,2.,2940.,0.,0.,9982.,1.10044317961,11.4446090679,65.
5.92,7036.,7.,6.,2936.,0.,0.,9985.,1.12264317076,8.33963498275,91.
5.94,7035.,9.,5.,2937.,0.,0.,9986.,1.14014594717,6.587509917,117.
5.96,7032.,15.,8.,2930.,0.,0.,9985.,1.15267000889,3.99592269749,195.
5.98,7029.,14.,6.,2931.,0.,0.,9980.,1.16057601574,4.31071091559,182.
6.,7027.,13.,11.,2931.,0.,0.,9982.,1.16263266759,4.65053067037,169.
6.02,7031.,12.,6.,2935.,0.,0.,9984.,1.16044113414,5.02857824795,156.
6.04,7033.,11.,10.,2933.,0.,0.,9987.,1.15260305979,5.4486690099,143.
6.06,7028.,24.,8.,2932.,0.,0.,9992.,1.13832751955,2.46637629235,312.
6.08,7014.,36.,6.,2934.,0.,0.,9990.,1.1185727898,1.61571625193,468.
6.1,7006.,33.,12.,2938.,0.,0.,9989.,1.09513890261,1.7256734223,429.
6.12,6997.,32.,12.,2948.,0.,0.,9989.,1.06727362104,1.73431963419,416.
6.14,6988.,26.,20.,2953.,0.,0.,9987.,1.03588882652,2.07177765304,338.
6.16,6980.,37.,10.,2962.,0.,0.,9989.,1.00099633771,1.40680566381,481.
6.18,6974.,33.,14.,2968.,0.,0.,9989.,0.963881357903,1.51884335185,429.
6.2,6964.,31.,13.,2979.,0.,0.,9987.,0.92427279123,1.55039306916,403.
6.22,6954.,31.,17.,2983.,0.,0.,9985.,0.883157170794,1.48142493166,403.
6.24,6940.,30.,19.,2991.,0.,0.,9980.,0.840938289422,1.45762636833,390.
6.26,6935.,35.,2.,3012.,0.,0.,9984.,0.798834551913,1.1868399057,455.
6.28,6934.,29.,9.,3013.,0.,0.,9985.,0.757812714682,1.35883659184,377.
6.3,6938.,25.,9.,3015.,0.,0.,9987.,0.718224711951,1.49390740086,325.
6.32,6938.,17.,14.,3016.,0.,0.,9985.,0.680085133443,2.08026040818,221.
6.34,6937.,18.,9.,3020.,0.,0.,9984.,0.643974978895,1.86037216125,234.
6.36,6936.,14.,6.,3027.,0.,0.,9983.,0.610638394567,2.26808546554,182.
6.38,6935.,15.,5.,3026.,0.,0.,9981.,0.580658454081,2.01294930748,195.
6.4,6935.,14.,8.,3025.,0.,0.,9982.,0.554357888691,2.05904358657,182.
6.42,6940.,5.,10.,3028.,0.,0.,9983.,0.532628612175,5.53933756662,65.
6.44,6943.,6.,4.,3029.,0.,0.,9982.,0.515362916944,4.46647861352,78.
6.46,6948.,2.,4.,3027.,0.,0.,9981.,0.503038542292,13.0790020996,26.
6.48,6958.,3.,2.,3019.,0.,0.,9982.,0.495972109575,8.5968498993,39.
6.5,6956.,5.,1.,3019.,0.,0.,9981.,0.493286086476,5.13017529936,65.
6.52,6968.,0.,5.,3012.,0.,0.,9985.,0.496535688691,inf,0.
6.54,6974.,0.,1.,3011.,0.,0.,9986.,0.504668140382,inf,0.
6.56,6984.,0.,0.,3006.,0.,0.,9990.,0.517991112477,inf,0.
6.58,6993.,0.,0.,3001.,0.,0.,9994.,0.53610551673,inf,0.
6.6,7005.,0.,0.,2990.,0.,0.,9995.,0.559225122534,inf,0.
6.62,7009.,0.,0.,2983.,0.,0.,9992.,0.586208320363,inf,0.
6.64,7009.,0.,0.,2979.,0.,0.,9988.,0.616756337111,inf,0.
6.66,7010.,0.,0.,2973.,0.,0.,9983.,0.650816894514,inf,0.
6.68,7015.,0.,0.,2968.,0.,0.,9983.,0.687770682528,inf,0.
6.7,7022.,1.,0.,2962.,0.,0.,9985.,0.727066030181,37.8074335694,13.
6.72,7031.,1.,0.,2956.,0.,0.,9988.,0.768182985595,39.945515251,13.
6.74,7039.,2.,0.,2950.,0.,0.,9991.,0.810246109264,21.0663988409,26.
6.76,7042.,3.,1.,2945.,0.,0.,9991.,0.852358427951,14.7742127511,39.
6.78,7048.,3.,0.,2939.,0.,0.,9990.,0.89464716401,15.5072175095,39.
6.8,7056.,4.,0.,2929.,0.,0.,9989.,0.936295669846,12.171843708,52.
6.82,7063.,1.,4.,2922.,0.,0.,9990.,0.97608439346,50.7563884599,13.
6.84,7065.,6.,5.,2915.,0.,0.,9991.,1.01298330143,8.77918861242,78.
6.86,7070.,10.,2.,2907.,0.,0.,9989.,1.04783452257,5.44873951735,130.
6.88,7075.,10.,2.,2903.,0.,0.,9990.,1.07906317235,5.61112849621,130.
6.9,7068.,12.,3.,2905.,0.,0.,9988.,1.10494101311,4.78807772346,156.
6.92,7069.,6.,9.,2900.,0.,0.,9984.,1.12802152392,9.77618654066,78.
6.94,7067.,13.,4.,2901.,0.,0.,9985.,1.14544681738,4.58178726951,169.
6.96,7069.,14.,7.,2893.,0.,0.,9983.,1.15896710933,4.30473497752,182.
6.98,7063.,19.,7.,2896.,0.,0.,9985.,1.16560587108,3.19007922613,247.
7.,7061.,17.,12.,2888.,0.,0.,9978.,1.16872637622,3.57492773904,221.
7.02,7052.,26.,6.,2896.,0.,0.,9980.,1.16437360407,2.32874720813,338.
7.04,7048.,27.,4.,2901.,0.,0.,9980.,1.15587149774,2.22612288453,351.
7.06,7047.,22.,13.,2898.,0.,0.,9980.,1.14277738673,2.70111018683,286.
7.08,7047.,24.,11.,2898.,0.,0.,9980.,1.12496162374,2.43741685144,312.
7.1,7038.,26.,16.,2900.,0.,0.,9980.,1.10113307549,2.20226615098,338.
7.12,7031.,31.,13.,2907.,0.,0.,9982.,1.07321181967,1.80022627815,403.
7.14,7017.,34.,15.,2918.,0.,0.,9984.,1.04050029191,1.59135338763,442.
7.16,7008.,36.,11.,2932.,0.,0.,9987.,1.0052130598,1.45197441972,468.
7.18,7003.,32.,18.,2938.,0.,0.,9991.,0.967695715667,1.57250553796,416.
7.2,6986.,40.,15.,2951.,0.,0.,9992.,0.926728697562,1.20474730683,520.
7.22,6979.,37.,23.,2956.,0.,0.,9995.,0.885445392258,1.24440974047,481.
7.24,6960.,48.,8.,2978.,0.,0.,9994.,0.842180327416,0.912362021368,624.
7.26,6949.,36.,26.,2983.,0.,0.,9994.,0.799646267813,1.15504460906,468.
7.28,6942.,33.,13.,3008.,0.,0.,9996.,0.75785214021,1.19419125124,429.
7.3,6934.,30.,7.,3025.,0.,0.,9996.,0.717164342167,1.24308485976,390.
7.32,6939.,22.,14.,3024.,0.,0.,9999.,0.679230805013,1.60545463003,286.
7.34,6938.,11.,21.,3031.,0.,0.,10001.,0.64297300501,3.03950875095,143.
7.36,6933.,15.,11.,3042.,0.,0.,10001.,0.609275713771,2.11215580774,195.
7.38,6936.,14.,10.,3044.,0.,0.,10004.,0.579407009818,2.15208317933,182.
7.4,6945.,17.,4.,3040.,0.,0.,10006.,0.553825672728,1.69405499893,221.
7.42,6943.,13.,3.,3047.,0.,0.,10006.,0.531634014628,2.12653605851,169.
7.44,6946.,7.,10.,3043.,0.,0.,10006.,0.5143489366,3.82087781474,91.
7.46,6945.,7.,8.,3047.,0.,0.,10007.,0.501514919858,3.72553940466,91.
7.48,6941.,7.,7.,3049.,0.,0.,10004.,0.493672297712,3.66727992586,91.
7.5,6944.,4.,5.,3051.,0.,0.,10004.,0.491302956273,6.38693843155,52.
7.52,6949.,4.,0.,3049.,0.,0.,10002.,0.494340118911,6.42642154585,52.
7.54,6954.,3.,1.,3042.,0.,0.,10000.,0.502516346583,8.71028334077,39.
7.56,6963.,1.,2.,3037.,0.,0.,10003.,0.515762416759,26.8196456715,13.
7.58,6969.,0.,2.,3036.,0.,0.,10007.,0.533571541317,inf,0.
7.6,6976.,1.,2.,3033.,0.,0.,10012.,0.555964374167,28.9101474567,13.
7.62,6977.,2.,2.,3033.,0.,0.,10014.,0.582249976415,15.1384993868,26.
7.64,6980.,1.,3.,3029.,0.,0.,10013.,0.612670967029,31.8588902855,13.
7.66,6986.,1.,0.,3026.,0.,0.,10013.,0.646645465527,33.6255642074,13.
7.68,6988.,2.,0.,3022.,0.,0.,10012.,0.683139048381,17.7616152579,26.
7.7,6994.,0.,3.,3016.,0.,0.,10013.,0.72214184297,inf,0.
7.72,7001.,3.,0.,3011.,0.,0.,10015.,0.762843137264,13.2226143793,39.
7.74,7010.,0.,3.,3002.,0.,0.,10015.,0.804974294949,inf,0.
7.76,7005.,2.,3.,3004.,0.,0.,10014.,0.845932577959,21.9942470269,26.
7.78,7006.,1.,2.,3004.,0.,0.,10013.,0.887273067859,46.1381995286,13.
7.8,7012.,3.,0.,3002.,0.,0.,10017.,0.927856233009,16.0828413722,39.
7.82,7019.,0.,2.,2994.,0.,0.,10015.,0.967582354536,inf,0.
7.84,7019.,2.,1.,2992.,0.,0.,10014.,1.00407634209,26.1059848943,26.
7.86,7016.,5.,1.,2989.,0.,0.,10011.,1.03754614516,10.7904799096,65.
7.88,7021.,2.,5.,2985.,0.,0.,10013.,1.06836750818,27.7775552126,26.
7.9,7014.,11.,7.,2979.,0.,0.,10011.,1.09398001169,5.17154187343,143.
7.92,7029.,9.,6.,2965.,0.,0.,10009.,1.1188370289,6.46439172255,117.
7.94,7028.,11.,5.,2964.,0.,0.,10008.,1.13650765141,5.37258162485,143.
7.96,7029.,15.,5.,2958.,0.,0.,10007.,1.14964523643,3.98543681961,195.
7.98,7029.,15.,10.,2952.,0.,0.,10006.,1.15756032751,4.01287580203,195.
8.,7025.,22.,6.,2953.,0.,0.,10006.,1.15951391166,2.74066924573,286.
8.02,7026.,20.,12.,2950.,0.,0.,10008.,1.15683504873,3.00777112671,260.
8.04,7015.,20.,14.,2959.,0.,0.,10008.,1.14724078846,2.98282604999,260.
8.06,7010.,25.,10.,2966.,0.,0.,10011.,1.13325714101,2.35717485329,325.
8.08,7002.,22.,19.,2966.,0.,0.,10009.,1.11453931945,2.63436566414,286.
8.1,6996.,20.,22.,2969.,0.,0.,10007.,1.09160869888,2.83818261709,260.
8.12,6983.,27.,13.,2983.,0.,0.,10006.,1.06332850952,2.04789194426,351.
8.14,6972.,32.,11.,2992.,0.,0.,10007.,1.03145142655,1.67610856814,416.
8.16,6965.,32.,14.,2995.,0.,0.,10006.,0.997148180824,1.62036579384,416.
8.18,6954.,30.,16.,3010.,0.,0.,10010.,0.959100814413,1.66244141165,390.
8.2,6944.,30.,23.,3014.,0.,0.,10011.,0.919408906802,1.59364210512,390.
8.22,6932.,32.,6.,3041.,0.,0.,10011.,0.878076744239,1.42687470939,416.
8.24,6931.,26.,15.,3037.,0.,0.,10009.,0.837414367043,1.67482873409,338.
8.26,6923.,27.,14.,3043.,0.,0.,10007.,0.795619428668,1.53230408484,351.
8.28,6928.,18.,15.,3045.,0.,0.,10006.,0.75556790206,2.18275171706,234.
8.3,6922.,24.,15.,3043.,0.,0.,10004.,0.715350705961,1.54992652958,312.
8.32,6925.,21.,9.,3052.,0.,0.,10007.,0.677318492329,1.67716960005,273.
8.34,6919.,22.,9.,3056.,0.,0.,10006.,0.640891782988,1.51483512343,286.
8.36,6918.,16.,11.,3061.,0.,0.,10006.,0.607653709348,1.97487455538,208.
8.38,6917.,16.,7.,3068.,0.,0.,10008.,0.577588879045,1.8771638569,208.
8.4,6922.,9.,12.,3064.,0.,0.,10007.,0.551936388287,3.18896579899,117.
8.42,6922.,10.,6.,3066.,0.,0.,10004.,0.530131981724,2.75668630496,130.
8.44,6922.,10.,4.,3066.,0.,0.,10002.,0.512776732467,2.66643900883,130.
8.46,6919.,8.,6.,3067.,0.,0.,10000.,0.499987144378,3.24991643846,104.
8.48,6925.,8.,2.,3063.,0.,0.,9998.,0.492829892,3.203394298,104.
8.5,6935.,3.,5.,3056.,0.,0.,9999.,0.490911544518,8.50913343831,39.
8.52,6942.,0.,2.,3059.,0.,0.,10003.,0.493792781334,inf,0.
8.54,6945.,2.,1.,3055.,0.,0.,10003.,0.501715465662,13.0446021072,26.
8.56,6953.,2.,0.,3048.,0.,0.,10003.,0.51502169808,13.3905641501,26.
8.58,6953.,2.,0.,3043.,0.,0.,9998.,0.53282573186,13.8534690284,26.
8.6,6960.,1.,1.,3038.,0.,0.,10000.,0.555354853592,28.8784523868,13.
8.62,6970.,0.,1.,3035.,0.,0.,10006.,0.582130860638,inf,0.
8.64,6977.,0.,0.,3026.,0.,0.,10003.,0.613019865373,inf,0.
8.66,6978.,0.,0.,3022.,0.,0.,10000.,0.646744637578,inf,0.
8.68,6985.,0.,0.,3012.,0.,0.,9997.,0.683870347774,inf,0.
8.7,6997.,0.,0.,3005.,0.,0.,10002.,0.723246135685,inf,0.
8.72,7001.,0.,0.,2997.,0.,0.,9998.,0.764140230016,inf,0.
8.74,7011.,0.,0.,2990.,0.,0.,10001.,0.806216139307,inf,0.
8.76,7015.,0.,0.,2987.,0.,0.,10002.,0.848156555445,inf,0.
8.78,7015.,1.,0.,2983.,0.,0.,9999.,0.889656772953,46.2621521935,13.
8.8,7021.,2.,0.,2976.,0.,0.,9999.,0.930719601566,24.1987096407,26.
8.82,7026.,1.,2.,2966.,0.,0.,9995.,0.970485381372,50.4652398313,13.
8.84,7036.,2.,1.,2957.,0.,0.,9996.,1.00832065217,26.2163369564,26.
8.86,7041.,1.,2.,2954.,0.,0.,9998.,1.04259710361,54.2150493878,13.
8.88,7047.,3.,1.,2952.,0.,0.,10003.,1.07339586355,18.6055283016,39.
8.9,7059.,3.,1.,2943.,0.,0.,10006.,1.1015488722,19.0935137848,39.
8.92,7066.,3.,3.,2937.,0.,0.,10009.,1.12472648261,19.4952590318,39.
8.94,7067.,5.,3.,2936.,0.,0.,10011.,1.14247192803,11.8817080515,65.
8.96,7075.,8.,3.,2929.,0.,0.,10015.,1.15624453003,7.51558944517,104.
8.98,7072.,11.,2.,2929.,0.,0.,10014.,1.16371130725,5.50118072517,143.
9.,7075.,16.,3.,2918.,0.,0.,10012.,1.16706685949,3.79296729333,208.
9.02,7070.,21.,5.,2915.,0.,0.,10011.,1.16373083454,2.88161920933,273.
9.04,7069.,22.,5.,2913.,0.,0.,10009.,1.15595650439,2.73226082857,286.
9.06,7064.,24.,11.,2910.,0.,0.,10009.,1.14221513125,2.47479945105,312.
9.08,7065.,25.,9.,2912.,0.,0.,10011.,1.12434264185,2.33863269505,325.
9.1,7055.,28.,15.,2913.,0.,0.,10011.,1.10037481928,2.04355323581,364.
9.12,7044.,34.,20.,2917.,0.,0.,10015.,1.07165330662,1.63899917483,442.
9.14,7033.,29.,22.,2930.,0.,0.,10014.,1.03974857194,1.86437674969,377.
9.16,7021.,27.,15.,2951.,0.,0.,10014.,1.00436244448,1.93432767085,351.
9.18,7013.,33.,14.,2955.,0.,0.,10015.,0.966755243248,1.52337189845,429.
9.2,7010.,29.,19.,2956.,0.,0.,10014.,0.927869473343,1.6637659522,377.
9.22,7007.,28.,15.,2967.,0.,0.,10017.,0.887045355124,1.64736994523,364.
9.24,6999.,22.,17.,2978.,0.,0.,10016.,0.845039238873,1.9973654737,286.
9.26,6992.,29.,12.,2986.,0.,0.,10019.,0.802586760005,1.4391210869,377.
9.28,6982.,29.,20.,2987.,0.,0.,10018.,0.760545037011,1.36373592843,377.
9.3,6971.,32.,13.,3000.,0.,0.,10016.,0.719551470488,1.16927113954,416.
9.32,6970.,26.,13.,3006.,0.,0.,10015.,0.681175280899,1.3623505618,338.
9.34,6973.,24.,10.,3008.,0.,0.,10015.,0.645313250794,1.39817871005,312.
9.36,6969.,15.,16.,3012.,0.,0.,10012.,0.611766536945,2.12079066141,195.
9.38,6972.,14.,12.,3016.,0.,0.,10014.,0.581832712565,2.16109293238,182.
9.4,6976.,13.,8.,3023.,0.,0.,10020.,0.555520490435,2.22208196174,169.
9.42,6978.,12.,0.,3030.,0.,0.,10020.,0.533567460983,2.31212566426,156.
9.44,6982.,6.,7.,3027.,0.,0.,10022.,0.516189316689,4.47364074464,78.
9.46,6984.,8.,2.,3024.,0.,0.,10018.,0.503777434804,3.27455332623,104.
9.48,6987.,8.,5.,3018.,0.,0.,10018.,0.49624953422,3.22562197243,104.
9.5,6986.,5.,1.,3023.,0.,0.,10015.,0.493731659065,5.13480925427,65.
9.52,6995.,0.,4.,3017.,0.,0.,10016.,0.496916936587,inf,0.
9.54,7003.,0.,0.,3014.,0.,0.,10017.,0.505198392402,inf,0.
9.56,7007.,0.,0.,3009.,0.,0.,10016.,0.518347928738,inf,0.
9.58,7009.,1.,0.,3004.,0.,0.,10014.,0.53625896555,27.8854662086,13.
9.6,7016.,1.,0.,2999.,0.,0.,10016.,0.558928939673,29.064304863,13.
9.62,7020.,0.,1.,2989.,0.,0.,10010.,0.586072546803,inf,0.
9.64,7031.,1.,1.,2975.,0.,0.,10008.,0.617455829838,32.1077031516,13.
9.66,7038.,0.,3.,2968.,0.,0.,10009.,0.651719093297,inf,0.
9.68,7044.,0.,1.,2963.,0.,0.,10008.,0.688888770859,inf,0.
9.7,7048.,2.,0.,2957.,0.,0.,10007.,0.728153755578,18.931997645,26.
9.72,7055.,1.,1.,2950.,0.,0.,10007.,0.769341638099,40.0057651812,13.
9.74,7056.,1.,0.,2945.,0.,0.,10002.,0.811309702838,42.1881045476,13.
9.76,7061.,2.,0.,2937.,0.,0.,10000.,0.853888981424,22.201113517,26.
9.78,7068.,1.,2.,2927.,0.,0.,9998.,0.896467998064,46.6163358994,13.
9.8,7069.,2.,3.,2922.,0.,0.,9996.,0.937363827141,24.3714595057,26.
9.82,7075.,3.,0.,2917.,0.,0.,9995.,0.977253639796,16.9390630898,39.
9.84,7083.,3.,2.,2908.,0.,0.,9996.,1.01505616534,17.5943068659,39.
9.86,7086.,5.,1.,2904.,0.,0.,9996.,1.04947042126,10.9144923811,65.
9.88,7087.,7.,1.,2900.,0.,0.,9995.,1.08035266845,8.02547696564,91.
9.9,7088.,6.,5.,2892.,0.,0.,9991.,1.107734895,9.60036908996,78.
9.92,7099.,6.,6.,2883.,0.,0.,9994.,1.13167522506,9.80785195051,78.
9.94,7101.,11.,1.,2880.,0.,0.,9993.,1.15003625835,5.43653503949,143.
9.96,7099.,14.,3.,2881.,0.,0.,9997.,1.16225569982,4.3169497422,182.
9.98,7097.,13.,7.,2878.,0.,0.,9995.,1.17004508339,4.68018033357,169.
10.,7100.,13.,11.,2870.,0.,0.,9994.,1.17330017968,4.69320071873,169.
