t,s,e,i,r,c,o,n,reff,coal,reportr
5.,8645.,23.,11.,1321.,0.,0.,10000.,1.20351375067,2.72098761021,299.
5.02,8635.,21.,7.,1333.,0.,0.,9996.,1.19989324706,2.97116423081,273.
5.04,8622.,23.,12.,1335.,0.,0.,9992.,1.19048991094,2.69154240735,299.
5.06,8613.,22.,15.,1339.,0.,0.,9989.,1.17629504422,2.78033374089,286.
5.08,8597.,29.,15.,1348.,0.,0.,9989.,1.15580565846,2.07247911173,377.
5.1,8576.,34.,21.,1359.,0.,0.,9990.,1.12989034196,1.72806758183,442.
5.12,8551.,40.,20.,1379.,0.,0.,9990.,1.09934310865,1.42914604124,520.
5.14,8530.,46.,9.,1404.,0.,0.,9989.,1.06565897198,1.20465796833,598.
5.16,8526.,33.,24.,1405.,0.,0.,9988.,1.03077006883,1.62424374482,429.
5.18,8515.,34.,15.,1428.,0.,0.,9992.,0.991726237609,1.51675777517,442.
5.2,8497.,43.,15.,1438.,0.,0.,9993.,0.95004048389,1.14888616656,559.
5.22,8488.,31.,19.,1457.,0.,0.,9995.,0.907757572135,1.522690121,403.
5.24,8474.,38.,19.,1467.,0.,0.,9998.,0.863985493571,1.18229593857,494.
5.26,8467.,37.,15.,1482.,0.,0.,10001.,0.820723759121,1.15344960741,481.
5.28,8454.,35.,21.,1491.,0.,0.,10001.,0.77757244359,1.15525048762,455.
5.3,8436.,27.,29.,1511.,0.,0.,10003.,0.734959361228,1.41547728829,351.
5.32,8424.,32.,9.,1539.,0.,0.,10004.,0.694732563539,1.12894041575,416.
5.34,8423.,28.,12.,1547.,0.,0.,10010.,0.657401241723,1.22088802034,364.
5.36,8417.,17.,7.,1563.,0.,0.,10004.,0.623326604757,1.90664608514,221.
5.38,8409.,13.,8.,1572.,0.,0.,10002.,0.592245502565,2.36898201026,169.
5.4,8412.,11.,3.,1577.,0.,0.,10003.,0.56562194758,2.67384920674,143.
5.42,8408.,8.,5.,1579.,0.,0.,10000.,0.543018619925,3.52962102951,104.
5.44,8412.,8.,3.,1578.,0.,0.,10001.,0.525333780439,3.41466957285,104.
5.46,8411.,9.,1.,1579.,0.,0.,10000.,0.512340945934,2.96019213207,117.
5.48,8412.,7.,2.,1576.,0.,0.,9997.,0.504679766685,3.74904969538,91.
5.5,8415.,6.,2.,1574.,0.,0.,9997.,0.502219651034,4.35257030896,78.
5.52,8414.,5.,4.,1572.,0.,0.,9995.,0.504900767576,5.25096798279,65.
5.54,8418.,2.,3.,1569.,0.,0.,9992.,0.513177880656,13.3426248971,26.
5.56,8423.,1.,3.,1567.,0.,0.,9994.,0.526389171743,27.3722369307,13.
5.58,8426.,1.,0.,1567.,0.,0.,9994.,0.544507828804,28.3144070978,13.
5.6,8429.,0.,2.,1564.,0.,0.,9995.,0.567218664535,inf,0.
5.62,8432.,1.,1.,1564.,0.,0.,9998.,0.594102985236,30.8933552322,13.
5.64,8434.,2.,1.,1560.,0.,0.,9997.,0.625022892296,16.2505951997,26.
5.66,8437.,0.,1.,1559.,0.,0.,9997.,0.65935021759,inf,0.
5.68,8437.,1.,0.,1557.,0.,0.,9995.,0.696431219174,36.2144233971,13.
5.7,8439.,0.,0.,1556.,0.,0.,9995.,0.735809197394,inf,0.
5.72,8439.,0.,0.,1556.,0.,0.,9995.,0.776658739216,inf,0.
5.74,8443.,0.,0.,1553.,0.,0.,9996.,0.818806752101,inf,0.
5.76,8445.,0.,0.,1548.,0.,0.,9993.,0.86145955009,inf,0.
5.78,8450.,2.,0.,1542.,0.,0.,9994.,0.903784048091,23.4983852504,26.
5.8,8451.,1.,1.,1540.,0.,0.,9993.,0.944897273079,49.1346582001,13.
5.82,8455.,1.,1.,1538.,0.,0.,9995.,0.9844425798,51.1910141496,13.
5.84,8458.,4.,0.,1536.,0.,0.,9998.,1.0215263013,13.2798419169,52.
5.86,8458.,3.,2.,1535.,0.,0.,9998.,1.05571277293,18.2990213974,39.
5.88,8463.,7.,3.,1530.,0.,0.,10003.,1.08661554121,8.07200116329,91.
5.9,8460.,9.,2.,1530.,0.,0.,10001.,1.11338136484,6.43287010795,117.
5.92,8459.,10.,9.,1528.,0.,0.,10006.,1.1353203675,5.90366591098,130.
5.94,8448.,11.,5.,1538.,0.,0.,10002.,1.15226106747,5.44705231893,143.
5.96,8442.,11.,6.,1543.,0.,0.,10002.,1.16447085618,5.50477132012,143.
5.98,8437.,13.,9.,1544.,0.,0.,10003.,1.17155935162,4.68623740647,169.
6.,8432.,12.,7.,1553.,0.,0.,10004.,1.17339159717,5.08469692106,156.
6.02,8418.,24.,2.,1561.,0.,0.,10005.,1.16868734981,2.53215592458,312.
6.04,8417.,21.,6.,1561.,0.,0.,10005.,1.16067427867,2.87405059481,273.
6.06,8412.,23.,6.,1566.,0.,0.,10007.,1.14677758991,2.59271455111,299.
6.08,8404.,20.,8.,1569.,0.,0.,10001.,1.12850248346,2.934106457,260.
6.1,8398.,23.,11.,1571.,0.,0.,10003.,1.1050008543,2.49826280104,299.
6.12,8377.,27.,9.,1584.,0.,0.,9997.,1.076219021,2.07271811452,351.
6.14,8367.,32.,9.,1588.,0.,0.,9996.,1.04456326647,1.69741530801,416.
6.16,8351.,35.,14.,1596.,0.,0.,9996.,1.00880503407,1.49879605061,455.
6.18,8329.,44.,12.,1608.,0.,0.,9993.,0.969966088743,1.14632355942,572.
6.2,8316.,38.,13.,1624.,0.,0.,9991.,0.929989195567,1.27261679393,494.
6.22,8307.,36.,11.,1635.,0.,0.,9989.,0.888933974951,1.2840157416,468.
6.24,8303.,30.,16.,1643.,0.,0.,9992.,0.847059145878,1.46823585286,390.
6.26,8287.,37.,13.,1653.,0.,0.,9990.,0.804160476245,1.13017148013,481.
6.28,8278.,31.,21.,1659.,0.,0.,9989.,0.762299182343,1.27869540264,403.
6.3,8266.,23.,19.,1682.,0.,0.,9990.,0.721085788507,1.63028091315,299.
6.32,8258.,24.,7.,1702.,0.,0.,9991.,0.681928592132,1.47751194962,312.
6.34,8264.,24.,8.,1700.,0.,0.,9996.,0.645894903784,1.3994389582,312.
6.36,8266.,12.,14.,1703.,0.,0.,9995.,0.612695403423,2.65501341483,156.
6.38,8263.,17.,11.,1705.,0.,0.,9996.,0.582312046309,1.78118978871,221.
6.4,8258.,17.,6.,1716.,0.,0.,9997.,0.55560026483,1.69948316301,221.
6.42,8259.,10.,10.,1716.,0.,0.,9995.,0.533662499894,2.77504499945,130.
6.44,8255.,7.,5.,1724.,0.,0.,9991.,0.516045042126,3.83347745579,91.
6.46,8258.,7.,0.,1728.,0.,0.,9993.,0.503373587468,3.73934664977,91.
6.48,8261.,4.,2.,1726.,0.,0.,9993.,0.495818875962,6.4456453875,52.
6.5,8265.,5.,2.,1722.,0.,0.,9994.,0.493415498161,5.13152118087,65.
6.52,8265.,4.,3.,1720.,0.,0.,9992.,0.496108598502,6.44941178052,52.
6.54,8272.,1.,1.,1719.,0.,0.,9993.,0.50422696967,26.2198024229,13.
6.56,8273.,0.,1.,1717.,0.,0.,9991.,0.517170276621,inf,0.
6.58,8275.,0.,0.,1715.,0.,0.,9990.,0.534963969664,inf,0.
6.6,8284.,0.,0.,1711.,0.,0.,9995.,0.557461076879,inf,0.
6.62,8286.,0.,0.,1709.,0.,0.,9995.,0.583991330128,inf,0.
6.64,8285.,0.,0.,1703.,0.,0.,9988.,0.614534117284,inf,0.
6.66,8287.,1.,0.,1697.,0.,0.,9985.,0.648406062049,33.7171152265,13.
6.68,8286.,1.,0.,1695.,0.,0.,9982.,0.684857701494,35.6126004777,13.
6.7,8286.,0.,1.,1691.,0.,0.,9978.,0.723699800671,inf,0.
6.72,8294.,0.,1.,1682.,0.,0.,9977.,0.764691220102,inf,0.
6.74,8299.,0.,0.,1679.,0.,0.,9978.,0.806293462435,inf,0.
6.76,8303.,1.,0.,1677.,0.,0.,9981.,0.847992684662,44.0956196024,13.
6.78,8303.,1.,0.,1676.,0.,0.,9980.,0.88930719189,46.2439739783,13.
6.8,8301.,2.,0.,1674.,0.,0.,9977.,0.929614358349,24.1699733171,26.
6.82,8311.,0.,1.,1674.,0.,0.,9986.,0.968548330711,inf,0.
6.84,8313.,2.,1.,1670.,0.,0.,9986.,1.00522023729,26.1357261694,26.
6.86,8317.,2.,3.,1666.,0.,0.,9988.,1.03915276007,27.0179717618,26.
6.88,8314.,7.,0.,1663.,0.,0.,9984.,1.06951600478,7.9449760355,91.
6.9,8316.,6.,3.,1661.,0.,0.,9986.,1.09607413949,9.49930920887,78.
6.92,8315.,9.,2.,1662.,0.,0.,9988.,1.1180046827,6.45958261116,117.
6.94,8318.,9.,5.,1659.,0.,0.,9991.,1.13577888432,6.56227799828,117.
6.96,8312.,15.,5.,1660.,0.,0.,9992.,1.14768639988,3.97864618625,195.
6.98,8302.,23.,6.,1659.,0.,0.,9990.,1.15431344855,2.60975214455,299.
7.,8288.,25.,10.,1661.,0.,0.,9984.,1.15566305343,2.40377915114,325.
7.02,8286.,16.,14.,1666.,0.,0.,9982.,1.1530121351,3.74728943907,208.
7.04,8274.,25.,8.,1676.,0.,0.,9983.,1.14346946435,2.37841648586,325.
7.06,8265.,23.,8.,1682.,0.,0.,9978.,1.13001235414,2.55481053979,299.
7.08,8260.,19.,15.,1683.,0.,0.,9977.,1.11183406944,3.0429142953,247.
7.1,8252.,26.,6.,1693.,0.,0.,9977.,1.08861987594,2.17723975189,338.
7.12,8243.,25.,10.,1696.,0.,0.,9974.,1.0614456855,2.20780702583,325.
7.14,8222.,30.,16.,1704.,0.,0.,9972.,1.02893142238,1.78348113212,390.
7.16,8207.,35.,16.,1718.,0.,0.,9976.,0.993397350793,1.47590463546,455.
7.18,8190.,25.,28.,1728.,0.,0.,9971.,0.955883052715,1.98823674965,325.
7.2,8172.,30.,17.,1756.,0.,0.,9975.,0.915351368036,1.58660903793,390.
7.22,8162.,31.,15.,1769.,0.,0.,9977.,0.874468008879,1.46684956328,403.
7.24,8152.,35.,17.,1775.,0.,0.,9979.,0.8327377866,1.23721042581,455.
7.26,8135.,38.,18.,1792.,0.,0.,9983.,0.789964108138,1.0810035164,494.
7.28,8126.,38.,18.,1804.,0.,0.,9986.,0.748526708623,1.02429970654,494.
7.3,8116.,38.,12.,1822.,0.,0.,9988.,0.708142285534,0.969036811784,494.
7.32,8102.,38.,14.,1834.,0.,0.,9988.,0.669247389256,0.915812216876,494.
7.34,8094.,30.,12.,1850.,0.,0.,9986.,0.633241596546,1.09761876735,390.
7.36,8093.,23.,14.,1854.,0.,0.,9984.,0.600533152579,1.35772712757,299.
7.38,8083.,23.,9.,1870.,0.,0.,9985.,0.570254575741,1.28927121472,299.
7.4,8087.,18.,3.,1878.,0.,0.,9986.,0.544694686861,1.57356242871,234.
7.42,8089.,13.,7.,1878.,0.,0.,9987.,0.523096487919,2.09238595168,169.
7.44,8093.,10.,3.,1882.,0.,0.,9988.,0.506069889397,2.63156342487,130.
7.46,8097.,8.,5.,1879.,0.,0.,9989.,0.493757333427,3.20942266728,104.
7.48,8099.,8.,4.,1875.,0.,0.,9986.,0.486436504444,3.16183727888,104.
7.5,8100.,3.,3.,1879.,0.,0.,9985.,0.484000960398,8.38934998022,39.
7.52,8100.,3.,1.,1879.,0.,0.,9983.,0.486642763254,8.43514122973,39.
7.54,8104.,0.,3.,1879.,0.,0.,9986.,0.494332658499,inf,0.
7.56,8103.,0.,1.,1881.,0.,0.,9985.,0.506847444354,inf,0.
7.58,8106.,2.,0.,1879.,0.,0.,9987.,0.52419583769,13.6290917799,26.
7.6,8107.,1.,1.,1876.,0.,0.,9985.,0.546096460212,28.397015931,13.
7.62,8111.,0.,1.,1871.,0.,0.,9983.,0.572344612903,inf,0.
7.64,8116.,0.,0.,1871.,0.,0.,9987.,0.602058937959,inf,0.
7.66,8120.,0.,0.,1869.,0.,0.,9989.,0.635084938068,inf,0.
7.68,8124.,0.,0.,1867.,0.,0.,9991.,0.670863148762,inf,0.
7.7,8131.,0.,0.,1863.,0.,0.,9994.,0.709025148673,inf,0.
7.72,8136.,1.,0.,1862.,0.,0.,9999.,0.748473479237,38.9206209203,13.
7.74,8139.,2.,0.,1857.,0.,0.,9998.,0.789166769524,20.5183360076,26.
7.76,8144.,0.,2.,1852.,0.,0.,9998.,0.830339610531,inf,0.
7.78,8146.,1.,1.,1849.,0.,0.,9997.,0.871007754496,45.2924032338,13.
7.8,8150.,1.,3.,1844.,0.,0.,9998.,0.910787072413,47.3609277655,13.
7.82,8156.,2.,2.,1837.,0.,0.,9997.,0.949439074656,24.6854159411,26.
7.84,8153.,5.,1.,1835.,0.,0.,9994.,0.985083629241,10.2448697441,65.
7.86,8151.,5.,5.,1833.,0.,0.,9994.,1.0178007714,10.5851280226,65.
7.88,8144.,9.,2.,1835.,0.,0.,9990.,1.04701792502,6.0494369001,117.
7.9,8142.,9.,6.,1835.,0.,0.,9992.,1.07249600953,6.19664361061,117.
7.92,8141.,11.,2.,1838.,0.,0.,9992.,1.09417108076,5.17244510907,143.
7.94,8141.,9.,3.,1838.,0.,0.,9991.,1.11161047093,6.42263827651,117.
7.96,8140.,9.,6.,1839.,0.,0.,9994.,1.12371243261,6.49256072173,117.
7.98,8131.,12.,12.,1840.,0.,0.,9995.,1.12997198762,4.89654527969,156.
8.,8121.,19.,12.,1842.,0.,0.,9994.,1.13124383238,3.09603575178,247.
8.02,8115.,24.,5.,1851.,0.,0.,9995.,1.12774845401,2.44345498368,312.
8.04,8106.,25.,6.,1856.,0.,0.,9993.,1.11913077372,2.32779200934,325.
8.06,8092.,36.,9.,1858.,0.,0.,9995.,1.10447759122,1.59535652065,468.
8.08,8079.,30.,19.,1867.,0.,0.,9995.,1.08551220887,1.88155449537,390.
8.1,8062.,39.,11.,1881.,0.,0.,9993.,1.06185182718,1.41580243623,507.
8.12,8048.,39.,14.,1893.,0.,0.,9994.,1.03426174814,1.37901566419,507.
8.14,8029.,37.,24.,1904.,0.,0.,9994.,1.00256684991,1.40901287014,481.
8.16,8016.,44.,13.,1924.,0.,0.,9997.,0.968240001471,1.1442836381,572.
8.18,8008.,31.,27.,1933.,0.,0.,9999.,0.932023949994,1.56339501289,403.
8.2,7990.,39.,20.,1953.,0.,0.,10002.,0.892549498792,1.19006599839,507.
8.22,7977.,38.,16.,1973.,0.,0.,10004.,0.852340680345,1.166360931,494.
8.24,7962.,37.,15.,1991.,0.,0.,10005.,0.811215431854,1.14008655288,481.
8.26,7951.,28.,17.,2009.,0.,0.,10005.,0.770398687067,1.43074041884,364.
8.28,7944.,28.,16.,2017.,0.,0.,10005.,0.730372121182,1.35640536791,364.
8.3,7939.,29.,11.,2027.,0.,0.,10006.,0.69145246156,1.23984579314,377.
8.32,7935.,29.,9.,2033.,0.,0.,10006.,0.654273624434,1.17318029209,377.
8.34,7933.,19.,12.,2039.,0.,0.,10003.,0.619590831125,1.69572227466,247.
8.36,7935.,15.,8.,2043.,0.,0.,10001.,0.587808041982,2.03773454554,195.
8.38,7934.,15.,4.,2045.,0.,0.,9998.,0.559014834542,1.93791809308,195.
8.4,7942.,9.,7.,2043.,0.,0.,10001.,0.534125992837,3.08606129195,117.
8.42,7944.,11.,0.,2045.,0.,0.,10000.,0.513051845467,2.42533599675,143.
8.44,7949.,6.,5.,2042.,0.,0.,10002.,0.496369557345,4.30186949699,78.
8.46,7950.,7.,0.,2043.,0.,0.,10000.,0.484259959598,3.59735969987,91.
8.48,7955.,5.,2.,2037.,0.,0.,9999.,0.47716649051,4.9625315013,65.
8.5,7965.,5.,3.,2029.,0.,0.,10002.,0.475125351237,4.94130365287,65.
8.52,7971.,0.,1.,2032.,0.,0.,10004.,0.477887254457,inf,0.
8.54,7969.,0.,0.,2031.,0.,0.,10000.,0.485417310445,inf,0.
8.56,7973.,1.,0.,2023.,0.,0.,9997.,0.498117228804,25.9020958978,13.
8.58,7977.,1.,0.,2018.,0.,0.,9996.,0.515389258836,26.8002414595,13.
8.6,7985.,1.,1.,2011.,0.,0.,9998.,0.537179023869,27.9333092412,13.
8.62,7991.,0.,1.,2006.,0.,0.,9998.,0.563030948176,inf,0.
8.64,7996.,1.,0.,2005.,0.,0.,10002.,0.59226757232,30.7979137606,13.
8.66,8000.,1.,0.,1997.,0.,0.,9998.,0.625136204222,32.5070826196,13.
8.68,8008.,1.,0.,1994.,0.,0.,10003.,0.660490805294,34.3455218753,13.
8.7,8008.,0.,0.,1993.,0.,0.,10001.,0.697810758408,inf,0.
8.72,8009.,1.,0.,1991.,0.,0.,10001.,0.73664273725,38.305422337,13.
8.74,8010.,2.,0.,1988.,0.,0.,10000.,0.776503449899,20.1890896974,26.
8.76,8016.,2.,0.,1985.,0.,0.,10003.,0.816880564214,21.2388946696,26.
8.78,8021.,1.,1.,1981.,0.,0.,10004.,0.857042070583,44.5661876703,13.
8.8,8019.,3.,2.,1979.,0.,0.,10003.,0.895699488113,15.525457794,39.
8.82,8023.,3.,0.,1977.,0.,0.,10003.,0.93339635322,16.1788701225,39.
8.84,8023.,6.,0.,1971.,0.,0.,10000.,0.968794794778,8.39622155474,78.
8.86,8024.,4.,4.,1969.,0.,0.,10001.,1.00124121924,13.0161358501,52.
8.88,8022.,7.,4.,1965.,0.,0.,9998.,1.03050799461,7.65520224569,91.
8.9,8023.,10.,3.,1963.,0.,0.,9999.,1.05608101661,5.49162128636,130.
8.92,8026.,7.,5.,1958.,0.,0.,9996.,1.07828313005,8.01010325179,91.
8.94,8027.,13.,3.,1952.,0.,0.,9995.,1.09560573711,4.38242294844,169.
8.96,8022.,12.,1.,1955.,0.,0.,9990.,1.10786615629,4.80075334393,156.
8.98,8017.,16.,2.,1951.,0.,0.,9986.,1.11513343278,3.62418365654,208.
9.,8016.,15.,9.,1951.,0.,0.,9991.,1.11695276766,3.87210292787,195.
9.02,8004.,16.,10.,1960.,0.,0.,9990.,1.11287940764,3.61685807481,208.
9.04,7995.,22.,7.,1967.,0.,0.,9991.,1.104026849,2.60951800672,286.
9.06,7979.,28.,1.,1979.,0.,0.,9987.,1.08992659154,2.02414938429,364.
9.08,7979.,19.,13.,1979.,0.,0.,9990.,1.0726125635,2.93557122642,247.
9.1,7968.,28.,12.,1987.,0.,0.,9995.,1.04926102026,1.94862760906,364.
9.12,7962.,27.,13.,1993.,0.,0.,9995.,1.0231073742,1.97042901698,351.
9.14,7949.,26.,20.,1998.,0.,0.,9993.,0.992676720459,1.98535344092,338.
9.16,7924.,33.,25.,2013.,0.,0.,9995.,0.957318987778,1.50850264741,429.
9.18,7906.,35.,23.,2030.,0.,0.,9994.,0.920612868535,1.36776769039,455.
9.2,7891.,41.,20.,2042.,0.,0.,9994.,0.882195990509,1.11888271967,533.
9.22,7871.,42.,32.,2053.,0.,0.,9998.,0.841519313564,1.04188105489,546.
9.24,7857.,45.,23.,2074.,0.,0.,9999.,0.800997772209,0.925597425663,585.
9.26,7837.,47.,18.,2097.,0.,0.,9999.,0.7598085073,0.840639199566,611.
9.28,7830.,38.,15.,2119.,0.,0.,10002.,0.720106874359,0.985409407018,494.
9.3,7829.,34.,5.,2137.,0.,0.,10005.,0.681940091845,1.04296719929,442.
9.32,7822.,30.,9.,2142.,0.,0.,10003.,0.645149735142,1.11825954091,390.
9.34,7824.,21.,13.,2147.,0.,0.,10005.,0.610955453362,1.51284207499,273.
9.36,7821.,21.,11.,2154.,0.,0.,10007.,0.579015788004,1.43375337982,273.
9.38,7821.,17.,6.,2165.,0.,0.,10009.,0.550447452089,1.68372161815,221.
9.4,7823.,17.,9.,2163.,0.,0.,10012.,0.525544804397,1.60754881345,221.
9.42,7826.,11.,12.,2164.,0.,0.,10013.,0.50477477751,2.38620803914,143.
9.44,7828.,10.,3.,2171.,0.,0.,10012.,0.48832557191,2.53929297393,130.
9.46,7829.,5.,8.,2170.,0.,0.,10012.,0.476317880643,4.95370595869,65.
9.48,7829.,5.,3.,2174.,0.,0.,10011.,0.469045694056,4.87807521818,65.
9.5,7830.,3.,3.,2173.,0.,0.,10009.,0.466745722508,8.09025919014,39.
9.52,7835.,1.,2.,2170.,0.,0.,10008.,0.469545870934,24.4163852886,13.
9.54,7836.,4.,1.,2167.,0.,0.,10008.,0.476934307071,6.20014599193,52.
9.56,7840.,0.,6.,2163.,0.,0.,10009.,0.489220745115,inf,0.
9.58,7840.,0.,3.,2162.,0.,0.,10005.,0.506082113583,inf,0.
9.6,7844.,3.,0.,2163.,0.,0.,10010.,0.527060858588,9.13572154885,39.
9.62,7848.,2.,0.,2159.,0.,0.,10009.,0.55234773098,14.3610410055,26.
9.64,7856.,2.,0.,2156.,0.,0.,10014.,0.581200403846,15.1112105,26.
9.66,7860.,0.,0.,2154.,0.,0.,10014.,0.613214980412,inf,0.
9.68,7864.,0.,0.,2149.,0.,0.,10013.,0.647966076012,inf,0.
9.7,7869.,0.,0.,2144.,0.,0.,10013.,0.68487663904,inf,0.
9.72,7871.,0.,0.,2143.,0.,0.,10014.,0.72301011028,inf,0.
9.74,7868.,0.,0.,2140.,0.,0.,10008.,0.762128018409,inf,0.
9.76,7875.,0.,0.,2134.,0.,0.,10009.,0.802030707732,inf,0.
9.78,7882.,0.,0.,2128.,0.,0.,10010.,0.841685142258,inf,0.
9.8,7884.,2.,0.,2118.,0.,0.,10004.,0.880532345325,22.8938409784,26.
9.82,7887.,3.,2.,2112.,0.,0.,10004.,0.917482383459,15.90302798,39.
9.84,7896.,3.,3.,2106.,0.,0.,10008.,0.952697109366,16.5134165623,39.
9.86,7896.,5.,3.,2104.,0.,0.,10008.,0.984580138377,10.2396334391,65.
9.88,7898.,8.,3.,2100.,0.,0.,10009.,1.01346389235,6.58751530025,104.
9.9,7901.,4.,8.,2101.,0.,0.,10014.,1.03846409899,13.5000332868,52.
9.92,7898.,9.,5.,2102.,0.,0.,10014.,1.05917920357,6.11970206507,117.
9.94,7896.,13.,5.,2101.,0.,0.,10015.,1.07557331609,4.30229326436,169.
9.96,7895.,14.,7.,2099.,0.,0.,10015.,1.08760527877,4.03967674972,182.
9.98,7888.,17.,6.,2102.,0.,0.,10013.,1.09423146894,3.34706096381,221.
10.,7882.,25.,3.,2104.,0.,0.,10014.,1.0957586369,2.27917796475,325.
