t,s,e,i,r,c,o,n,reff,coal,reportr
5.,6890.,16.,8.,3086.,0.,0.,10000.,1.09783823101,3.56797425079,208.
5.02,6887.,17.,10.,3088.,0.,0.,10002.,1.09466899402,3.34839927582,221.
5.04,6881.,19.,11.,3089.,0.,0.,10000.,1.08656260299,2.97375028187,247.
5.06,6881.,21.,12.,3090.,0.,0.,10004.,1.07397649773,2.65937037532,273.
5.08,6869.,27.,13.,3100.,0.,0.,10009.,1.05486236844,2.03158678366,351.
5.1,6863.,25.,15.,3109.,0.,0.,10012.,1.03262643773,2.14786299047,325.
5.12,6848.,30.,17.,3117.,0.,0.,10012.,1.00544384641,1.74276933377,390.
5.14,6848.,28.,18.,3121.,0.,0.,10015.,0.976645819222,1.81377080713,364.
5.16,6844.,29.,18.,3124.,0.,0.,10015.,0.944467724693,1.69352833393,377.
5.18,6837.,26.,18.,3130.,0.,0.,10011.,0.909663490314,1.81932698063,338.
5.2,6830.,35.,17.,3135.,0.,0.,10017.,0.8719437737,1.29545932093,455.
5.22,6820.,37.,18.,3146.,0.,0.,10021.,0.832633135292,1.17018710906,481.
5.24,6803.,36.,13.,3165.,0.,0.,10017.,0.792368113293,1.1445317192,468.
5.26,6807.,32.,8.,3171.,0.,0.,10018.,0.753908546031,1.2251013873,416.
5.28,6819.,25.,8.,3169.,0.,0.,10021.,0.716415119698,1.49014344897,325.
5.3,6826.,24.,12.,3162.,0.,0.,10024.,0.67922759111,1.47165978074,312.
5.32,6820.,21.,14.,3168.,0.,0.,10023.,0.642528941475,1.59102404556,273.
5.34,6816.,23.,11.,3170.,0.,0.,10020.,0.608264858681,1.37520750658,299.
5.36,6812.,19.,14.,3175.,0.,0.,10020.,0.576463755918,1.57769027935,247.
5.38,6805.,20.,8.,3189.,0.,0.,10022.,0.547458332034,1.42339166329,260.
5.4,6811.,16.,12.,3187.,0.,0.,10026.,0.522966063328,1.69963970582,208.
5.42,6815.,12.,10.,3188.,0.,0.,10025.,0.502500579702,2.17750251204,156.
5.44,6818.,8.,2.,3196.,0.,0.,10024.,0.486215164446,3.1603985689,104.
5.46,6826.,6.,3.,3189.,0.,0.,10024.,0.474755197909,4.11454504855,78.
5.48,6830.,7.,2.,3187.,0.,0.,10026.,0.467640799905,3.47390308501,91.
5.5,6835.,5.,5.,3180.,0.,0.,10025.,0.465582320932,4.84205613769,65.
5.52,6834.,5.,4.,3177.,0.,0.,10020.,0.468194862887,4.86922657402,65.
5.54,6837.,5.,2.,3172.,0.,0.,10016.,0.475900067539,4.9493607024,65.
5.56,6841.,3.,1.,3171.,0.,0.,10016.,0.488245034848,8.46291393736,39.
5.58,6848.,0.,1.,3168.,0.,0.,10017.,0.505337079529,inf,0.
5.6,6854.,1.,0.,3164.,0.,0.,10019.,0.526635402496,27.3850409298,13.
5.62,6857.,2.,0.,3161.,0.,0.,10020.,0.551751810219,14.3455470657,26.
5.64,6861.,2.,0.,3155.,0.,0.,10018.,0.580726281802,15.0988833269,26.
5.66,6864.,2.,0.,3152.,0.,0.,10018.,0.612670703586,15.9294382932,26.
5.68,6865.,0.,0.,3152.,0.,0.,10017.,0.647155904456,inf,0.
5.7,6868.,1.,0.,3148.,0.,0.,10017.,0.683884413779,35.5619895165,13.
5.72,6872.,2.,0.,3143.,0.,0.,10017.,0.722271688275,18.7790638952,26.
5.74,6881.,2.,0.,3134.,0.,0.,10017.,0.7621804891,19.8166927166,26.
5.76,6882.,2.,0.,3130.,0.,0.,10014.,0.801809641599,20.8470506816,26.
5.78,6887.,2.,0.,3124.,0.,0.,10013.,0.84148473934,21.8786032229,26.
5.8,6894.,3.,0.,3118.,0.,0.,10015.,0.880290016297,15.2583602825,39.
5.82,6897.,3.,0.,3115.,0.,0.,10015.,0.917279987098,15.8995197764,39.
5.84,6903.,4.,2.,3108.,0.,0.,10017.,0.952419489237,12.3814533601,52.
5.86,6908.,5.,4.,3101.,0.,0.,10018.,0.984907849744,10.2430416373,65.
5.88,6908.,6.,3.,3102.,0.,0.,10019.,1.01354459504,8.78405315704,78.
5.9,6909.,10.,3.,3098.,0.,0.,10020.,1.03871774992,5.40133229958,130.
5.92,6906.,14.,4.,3095.,0.,0.,10019.,1.05948587159,3.93523323734,182.
5.94,6906.,13.,11.,3090.,0.,0.,10020.,1.07615729825,4.30462919299,169.
5.96,6900.,15.,6.,3099.,0.,0.,10020.,1.08738807237,3.76961198422,195.
5.98,6900.,12.,9.,3095.,0.,0.,10016.,1.09520233025,4.74587676441,156.
6.,6903.,11.,6.,3097.,0.,0.,10017.,1.09804295088,5.19074849509,143.
6.02,6912.,11.,4.,3093.,0.,0.,10020.,1.09666906307,5.18425375272,143.
6.04,6913.,10.,7.,3088.,0.,0.,10018.,1.0896542704,5.66620220607,130.
6.06,6914.,18.,7.,3080.,0.,0.,10019.,1.0775114689,3.11281091015,234.
6.08,6901.,17.,10.,3090.,0.,0.,10018.,1.05882447688,3.2387572234,221.
6.1,6895.,16.,12.,3094.,0.,0.,10017.,1.03692340816,3.37000107651,208.
6.12,6873.,25.,15.,3101.,0.,0.,10014.,1.00891288047,2.09853879138,325.
6.14,6864.,29.,12.,3106.,0.,0.,10011.,0.979318842803,1.75601999399,377.
6.16,6843.,35.,22.,3108.,0.,0.,10008.,0.944990227724,1.40398548119,455.
6.18,6819.,31.,33.,3125.,0.,0.,10008.,0.907540551635,1.52232608661,403.
6.2,6791.,44.,26.,3144.,0.,0.,10005.,0.868004723331,1.02582376394,572.
6.22,6773.,49.,17.,3165.,0.,0.,10004.,0.82830020722,0.879012464805,637.
6.24,6760.,35.,17.,3189.,0.,0.,10001.,0.788619409442,1.1716631226,455.
6.26,6743.,38.,23.,3198.,0.,0.,10002.,0.748014906417,1.02359934562,494.
6.28,6741.,31.,16.,3215.,0.,0.,10003.,0.709494728346,1.19012018948,403.
6.3,6741.,23.,20.,3218.,0.,0.,10002.,0.672244983662,1.51985822393,299.
6.32,6739.,23.,14.,3222.,0.,0.,9998.,0.636485294483,1.43901023101,299.
6.34,6740.,19.,11.,3227.,0.,0.,9997.,0.602866387764,1.64995011388,247.
6.36,6742.,18.,12.,3226.,0.,0.,9998.,0.571795462981,1.65185355972,234.
6.38,6742.,13.,11.,3230.,0.,0.,9996.,0.543800796665,2.17520318666,169.
6.4,6741.,8.,12.,3234.,0.,0.,9995.,0.51919661929,3.37477802539,104.
6.42,6740.,12.,8.,3234.,0.,0.,9994.,0.498512026065,2.16021877962,156.
6.44,6739.,13.,6.,3239.,0.,0.,9997.,0.481879360344,1.92751744138,169.
6.46,6745.,6.,9.,3234.,0.,0.,9994.,0.47052977568,4.07792472256,78.
6.48,6751.,3.,3.,3236.,0.,0.,9993.,0.463758210845,8.03847565465,39.
6.5,6760.,4.,0.,3226.,0.,0.,9990.,0.462086787698,6.00712824008,52.
6.52,6765.,2.,2.,3218.,0.,0.,9987.,0.464999132165,12.0899774363,26.
6.54,6774.,1.,0.,3214.,0.,0.,9989.,0.472789346151,24.5850459999,13.
6.56,6777.,0.,1.,3207.,0.,0.,9985.,0.485178980241,inf,0.
6.58,6780.,1.,1.,3203.,0.,0.,9985.,0.501922555911,26.0999729074,13.
6.6,6790.,2.,1.,3193.,0.,0.,9986.,0.523441967614,13.609491158,26.
6.62,6802.,0.,0.,3189.,0.,0.,9991.,0.548914884521,inf,0.
6.64,6810.,0.,0.,3180.,0.,0.,9990.,0.578025120564,inf,0.
6.66,6820.,0.,0.,3172.,0.,0.,9992.,0.610327327131,inf,0.
6.68,6832.,0.,0.,3163.,0.,0.,9995.,0.645462639081,inf,0.
6.7,6835.,0.,0.,3158.,0.,0.,9993.,0.682233003278,inf,0.
6.72,6837.,0.,0.,3156.,0.,0.,9993.,0.720318894988,inf,0.
6.74,6846.,0.,0.,3150.,0.,0.,9996.,0.759896755876,inf,0.
6.76,6855.,1.,0.,3140.,0.,0.,9996.,0.800102089701,41.6053086644,13.
6.78,6862.,0.,2.,3133.,0.,0.,9997.,0.839772017291,inf,0.
6.8,6868.,2.,0.,3129.,0.,0.,9999.,0.878373387045,22.8377080632,26.
6.82,6877.,4.,0.,3117.,0.,0.,9998.,0.916175213146,11.9102777709,52.
6.84,6888.,2.,3.,3106.,0.,0.,9999.,0.952060712824,24.7535785334,26.
6.86,6892.,1.,6.,3098.,0.,0.,9997.,0.98469078553,51.2039208475,13.
6.88,6891.,4.,6.,3097.,0.,0.,9998.,1.01317397852,13.1712617208,52.
6.9,6889.,5.,4.,3096.,0.,0.,9994.,1.03840536082,10.7994157526,65.
6.92,6881.,11.,4.,3094.,0.,0.,9990.,1.05871494065,5.00483426489,143.
6.94,6886.,11.,7.,3091.,0.,0.,9995.,1.07572465556,5.08524382627,143.
6.96,6873.,19.,6.,3098.,0.,0.,9996.,1.08573363517,2.97148152783,247.
6.98,6872.,16.,7.,3101.,0.,0.,9996.,1.09294041995,3.55205636485,208.
7.,6867.,22.,5.,3101.,0.,0.,9995.,1.09472081939,2.58752193673,286.
7.02,6867.,20.,5.,3103.,0.,0.,9995.,1.09225447635,2.8398616385,260.
7.04,6857.,21.,7.,3108.,0.,0.,9993.,1.08353129107,2.68302986361,273.
7.06,6854.,21.,11.,3108.,0.,0.,9994.,1.07083278152,2.65158593518,273.
7.08,6845.,27.,11.,3116.,0.,0.,9999.,1.0522280051,2.026513195,351.
7.1,6835.,30.,14.,3118.,0.,0.,9997.,1.02995656148,1.78525803991,390.
7.12,6821.,29.,13.,3132.,0.,0.,9995.,1.00318299268,1.79881088343,377.
7.14,6823.,30.,7.,3136.,0.,0.,9996.,0.974929969971,1.68987861462,390.
7.16,6812.,32.,22.,3130.,0.,0.,9996.,0.941838557723,1.5304876563,416.
7.18,6799.,32.,19.,3149.,0.,0.,9999.,0.905693224423,1.47175148969,416.
7.2,6783.,38.,17.,3162.,0.,0.,10000.,0.867415679042,1.18698987658,494.
7.22,6774.,31.,17.,3173.,0.,0.,9995.,0.829168454883,1.39086321464,403.
7.24,6769.,31.,14.,3183.,0.,0.,9997.,0.789985309053,1.32513664744,403.
7.26,6768.,20.,13.,3193.,0.,0.,9994.,0.751389199174,1.95361191785,260.
7.28,6756.,25.,13.,3197.,0.,0.,9991.,0.711927545149,1.48080929391,325.
7.3,6750.,26.,10.,3206.,0.,0.,9992.,0.673816188457,1.34763237691,338.
7.32,6749.,18.,18.,3206.,0.,0.,9991.,0.637876377598,1.84275397973,234.
7.34,6750.,20.,11.,3209.,0.,0.,9990.,0.604183903929,1.57087815022,260.
7.36,6752.,16.,6.,3218.,0.,0.,9992.,0.57298743377,1.86220915975,208.
7.38,6750.,17.,5.,3219.,0.,0.,9991.,0.544718534331,1.66619786972,221.
7.4,6754.,15.,6.,3216.,0.,0.,9991.,0.520406155141,1.80407467116,195.
7.42,6756.,13.,3.,3215.,0.,0.,9987.,0.500045679524,2.0001827181,169.
7.44,6765.,7.,7.,3210.,0.,0.,9989.,0.484125934962,3.59636408829,91.
7.46,6774.,3.,5.,3212.,0.,0.,9994.,0.472552809556,8.19091536564,39.
7.48,6782.,3.,1.,3208.,0.,0.,9994.,0.465841131137,8.07457960638,39.
7.5,6790.,2.,2.,3203.,0.,0.,9997.,0.463812474982,12.0591243495,26.
7.52,6801.,2.,1.,3192.,0.,0.,9996.,0.467052734031,12.1433710848,26.
7.54,6810.,3.,1.,3182.,0.,0.,9996.,0.474969111101,8.23279792576,39.
7.56,6823.,1.,3.,3171.,0.,0.,9998.,0.487837071312,25.3675277082,13.
7.58,6830.,3.,1.,3165.,0.,0.,9999.,0.504916105222,8.75187915718,39.
7.6,6838.,2.,1.,3161.,0.,0.,10002.,0.526299034729,13.6837749029,26.
7.62,6840.,0.,2.,3155.,0.,0.,9997.,0.551650159866,inf,0.
7.64,6843.,0.,3.,3148.,0.,0.,9994.,0.580593653419,inf,0.
7.66,6844.,0.,0.,3149.,0.,0.,9993.,0.612413816168,inf,0.
7.68,6844.,0.,2.,3147.,0.,0.,9993.,0.646725765518,inf,0.
7.7,6851.,0.,1.,3142.,0.,0.,9994.,0.683761613317,inf,0.
7.72,6854.,2.,1.,3137.,0.,0.,9994.,0.722037692449,18.7729800037,26.
7.74,6860.,1.,0.,3134.,0.,0.,9995.,0.761526920137,39.5993998471,13.
7.76,6864.,0.,1.,3130.,0.,0.,9995.,0.801232707296,inf,0.
7.78,6867.,1.,1.,3123.,0.,0.,9992.,0.840804446006,43.7218311923,13.
7.8,6869.,3.,1.,3119.,0.,0.,9992.,0.879116723917,15.2380232146,39.
7.82,6876.,0.,5.,3113.,0.,0.,9994.,0.916408626831,inf,0.
7.84,6878.,4.,5.,3110.,0.,0.,9997.,0.95086870362,12.3612931471,52.
7.86,6879.,9.,6.,3104.,0.,0.,9998.,0.982735114534,5.6780251062,117.
7.88,6876.,12.,5.,3105.,0.,0.,9998.,1.01096854975,4.38086371558,156.
7.9,6875.,9.,6.,3106.,0.,0.,9996.,1.03608774524,5.98628475026,117.
7.92,6873.,12.,4.,3105.,0.,0.,9994.,1.0570608081,4.58059683511,156.
7.94,6877.,10.,6.,3102.,0.,0.,9995.,1.07431868374,5.58645715547,130.
7.96,6879.,10.,7.,3099.,0.,0.,9995.,1.08679018276,5.65130895037,130.
7.98,6884.,11.,6.,3095.,0.,0.,9996.,1.09484893058,5.17564949003,143.
8.,6880.,11.,9.,3093.,0.,0.,9993.,1.0970127608,5.18587850559,143.
8.02,6871.,17.,7.,3097.,0.,0.,9992.,1.09321883992,3.34396351035,221.
8.04,6869.,22.,10.,3096.,0.,0.,9997.,1.08499320904,2.56452940319,286.
8.06,6859.,25.,8.,3100.,0.,0.,9992.,1.07182844951,2.22940317498,325.
8.08,6848.,24.,15.,3103.,0.,0.,9990.,1.05363754012,2.28288133693,312.
8.1,6833.,32.,16.,3109.,0.,0.,9990.,1.0303766644,1.67436207965,416.
8.12,6822.,31.,17.,3120.,0.,0.,9990.,1.0038322326,1.68384761597,403.
8.14,6806.,26.,18.,3136.,0.,0.,9986.,0.973474725421,1.94694945084,338.
8.16,6781.,36.,17.,3147.,0.,0.,9981.,0.938961451452,1.3562776521,468.
8.18,6771.,33.,17.,3161.,0.,0.,9982.,0.903499453552,1.42369610863,429.
8.2,6752.,38.,16.,3173.,0.,0.,9979.,0.865268436988,1.18405154535,494.
8.22,6738.,31.,22.,3188.,0.,0.,9979.,0.826084286964,1.38568977168,403.
8.24,6724.,34.,22.,3199.,0.,0.,9979.,0.786149016007,1.20234555389,442.
8.26,6724.,33.,17.,3207.,0.,0.,9981.,0.747476584154,1.17784189018,429.
8.28,6716.,35.,8.,3222.,0.,0.,9981.,0.708421521668,1.05251197505,455.
8.3,6711.,29.,10.,3227.,0.,0.,9977.,0.670930229362,1.20304730782,377.
8.32,6709.,29.,6.,3232.,0.,0.,9976.,0.635049241301,1.1387089844,377.
8.34,6706.,21.,8.,3240.,0.,0.,9975.,0.601148144805,1.48855731095,273.
8.36,6705.,15.,12.,3241.,0.,0.,9973.,0.570082950095,1.97628756033,195.
8.38,6705.,11.,11.,3246.,0.,0.,9973.,0.542063670977,2.56248280826,143.
8.4,6713.,12.,8.,3241.,0.,0.,9974.,0.518128653836,2.24522416662,156.
8.42,6721.,10.,4.,3239.,0.,0.,9974.,0.498103530245,2.59013835728,130.
8.44,6723.,4.,8.,3235.,0.,0.,9970.,0.482037154215,6.2664830048,52.
8.46,6726.,7.,7.,3231.,0.,0.,9971.,0.470286648369,3.49355795931,91.
8.48,6737.,6.,7.,3225.,0.,0.,9975.,0.463631605917,4.01814058461,78.
8.5,6745.,5.,2.,3223.,0.,0.,9975.,0.461754772677,4.80224963585,65.
8.52,6754.,2.,1.,3220.,0.,0.,9977.,0.464708349271,12.082417081,26.
8.54,6759.,2.,0.,3217.,0.,0.,9978.,0.472262486346,12.278824645,26.
8.56,6772.,1.,1.,3205.,0.,0.,9979.,0.485112525016,25.2258513008,13.
8.58,6782.,1.,0.,3195.,0.,0.,9978.,0.502422839986,26.1259876793,13.
8.6,6785.,1.,0.,3190.,0.,0.,9976.,0.523580831847,27.2262032561,13.
8.62,6793.,0.,1.,3180.,0.,0.,9974.,0.54912294306,inf,0.
8.64,6798.,2.,0.,3179.,0.,0.,9979.,0.577642617017,15.0187080424,26.
8.66,6806.,1.,1.,3171.,0.,0.,9979.,0.60986791885,31.7131317802,13.
8.68,6817.,1.,1.,3159.,0.,0.,9978.,0.645142784736,33.5474248063,13.
8.7,6826.,1.,0.,3152.,0.,0.,9979.,0.682290547478,35.4791084688,13.
8.72,6833.,0.,1.,3147.,0.,0.,9981.,0.720762992489,inf,0.
8.74,6846.,0.,0.,3133.,0.,0.,9979.,0.761191298901,inf,0.
8.76,6851.,1.,0.,3124.,0.,0.,9976.,0.801238335502,41.6643934461,13.
8.78,6858.,1.,0.,3116.,0.,0.,9975.,0.841133546141,43.7389443993,13.
8.8,6865.,2.,0.,3109.,0.,0.,9976.,0.88001394067,22.8803624574,26.
8.82,6871.,3.,0.,3101.,0.,0.,9975.,0.9174865157,15.9030996055,39.
8.84,6873.,2.,1.,3096.,0.,0.,9972.,0.952559577956,24.7665490268,26.
8.86,6880.,1.,3.,3090.,0.,0.,9974.,0.98524303099,51.2326376115,13.
8.88,6877.,6.,3.,3084.,0.,0.,9970.,1.01395522088,8.78761191431,78.
8.9,6882.,4.,6.,3077.,0.,0.,9969.,1.03995166403,13.5193716324,52.
8.92,6880.,4.,8.,3076.,0.,0.,9968.,1.0608973906,13.7916660778,52.
8.94,6870.,11.,11.,3072.,0.,0.,9964.,1.07656416854,5.08921243312,143.
8.96,6867.,14.,5.,3079.,0.,0.,9965.,1.08816045736,4.04173884163,182.
8.98,6869.,19.,11.,3069.,0.,0.,9968.,1.09553200941,2.99829813102,247.
9.,6860.,23.,14.,3069.,0.,0.,9966.,1.09678716995,2.47969273207,299.
9.02,6846.,28.,13.,3079.,0.,0.,9966.,1.09208287324,2.02815390744,364.
9.04,6846.,25.,10.,3087.,0.,0.,9968.,1.08450625493,2.25577301026,325.
9.06,6831.,23.,17.,3094.,0.,0.,9965.,1.07034524766,2.4199109947,299.
9.08,6813.,32.,16.,3105.,0.,0.,9966.,1.05077680707,1.7075123115,416.
9.1,6808.,32.,15.,3112.,0.,0.,9967.,1.02897582319,1.67208571268,416.
9.12,6804.,30.,14.,3119.,0.,0.,9967.,1.00349394516,1.73938950494,390.
9.14,6797.,36.,13.,3123.,0.,0.,9969.,0.973845296837,1.40666542876,468.
9.16,6793.,35.,13.,3129.,0.,0.,9970.,0.941660883838,1.39903902742,455.
9.18,6786.,28.,19.,3138.,0.,0.,9971.,0.906499951125,1.68349990923,364.
9.2,6771.,41.,8.,3152.,0.,0.,9972.,0.86831238374,1.10127424279,533.
9.22,6770.,33.,15.,3154.,0.,0.,9972.,0.830590149664,1.30880872068,429.
9.24,6772.,23.,17.,3162.,0.,0.,9974.,0.792157938125,1.79096577315,299.
9.26,6766.,25.,16.,3168.,0.,0.,9975.,0.752597952034,1.56540374023,325.
9.28,6760.,27.,12.,3178.,0.,0.,9977.,0.713348641191,1.37385664229,351.
9.3,6756.,22.,6.,3192.,0.,0.,9976.,0.675496796383,1.59662879145,286.
9.32,6759.,17.,12.,3188.,0.,0.,9976.,0.63978205723,1.95698041035,221.
9.34,6752.,20.,10.,3192.,0.,0.,9974.,0.60533242276,1.57386429918,260.
9.36,6759.,17.,10.,3190.,0.,0.,9976.,0.574501405149,1.75729841575,221.
9.38,6761.,18.,4.,3193.,0.,0.,9976.,0.546426602038,1.57856573922,234.
9.4,6767.,11.,6.,3194.,0.,0.,9978.,0.522087149952,2.46804834523,143.
9.42,6768.,7.,6.,3193.,0.,0.,9974.,0.501586771715,3.72607316131,91.
9.44,6773.,6.,5.,3190.,0.,0.,9974.,0.485427384525,4.20703733255,78.
9.46,6778.,11.,3.,3184.,0.,0.,9976.,0.473684993587,2.2392381515,143.
9.48,6784.,5.,5.,3185.,0.,0.,9979.,0.466678945558,4.8534610338,65.
9.5,6789.,5.,4.,3180.,0.,0.,9978.,0.464627223454,4.83212312392,65.
9.52,6792.,5.,2.,3179.,0.,0.,9978.,0.467276100447,4.85967144465,65.
9.54,6796.,5.,1.,3177.,0.,0.,9979.,0.474800152716,4.93792158825,65.
9.56,6804.,1.,2.,3174.,0.,0.,9981.,0.487307179922,25.3399733559,13.
9.58,6812.,1.,2.,3167.,0.,0.,9982.,0.504443072189,26.2310397538,13.
9.6,6818.,1.,0.,3159.,0.,0.,9978.,0.526021898681,27.3531387314,13.
9.62,6822.,0.,1.,3151.,0.,0.,9974.,0.551467204115,inf,0.
9.64,6832.,0.,1.,3143.,0.,0.,9976.,0.580706258319,inf,0.
9.66,6839.,0.,1.,3139.,0.,0.,9979.,0.612824962829,inf,0.
9.68,6843.,0.,0.,3135.,0.,0.,9978.,0.647603355721,inf,0.
9.7,6847.,0.,0.,3130.,0.,0.,9977.,0.68452678892,inf,0.
9.72,6855.,0.,0.,3124.,0.,0.,9979.,0.72322853199,inf,0.
9.74,6865.,0.,0.,3116.,0.,0.,9981.,0.763150914666,inf,0.
9.76,6870.,0.,0.,3110.,0.,0.,9980.,0.803138395785,inf,0.
9.78,6870.,1.,0.,3104.,0.,0.,9975.,0.842605345872,43.8154779853,13.
9.8,6877.,1.,0.,3096.,0.,0.,9974.,0.881728972517,45.8499065709,13.
9.82,6877.,2.,1.,3092.,0.,0.,9972.,0.918563957184,23.8826628868,26.
9.84,6880.,5.,0.,3092.,0.,0.,9977.,0.953051875071,9.91173950073,65.
9.86,6890.,3.,2.,3079.,0.,0.,9974.,0.986675070279,17.1023678848,39.
9.88,6889.,5.,7.,3071.,0.,0.,9972.,1.01552080362,10.5614163576,65.
9.9,6888.,9.,7.,3070.,0.,0.,9974.,1.04033654924,6.01083339563,117.
9.92,6882.,13.,7.,3071.,0.,0.,9973.,1.0606737516,4.2426950064,169.
9.94,6885.,11.,11.,3068.,0.,0.,9975.,1.07772496466,5.09469983294,143.
9.96,6885.,13.,7.,3072.,0.,0.,9977.,1.08970054488,4.35880217952,169.
9.98,6879.,15.,7.,3073.,0.,0.,9974.,1.0964669103,3.80108528904,195.
10.,6886.,15.,9.,3067.,0.,0.,9977.,1.09973025895,3.81239823102,195.
