t,cases
5.01,3.38
5.02,3.38
5.03,3.51
5.04,3.51
5.05,3.965
5.06,3.965
5.07,3.445
5.08,3.445
5.09,3.38
5.1,3.38
5.11,3.575
5.12,3.575
5.13,3.51
5.14,3.51
5.15,3.575
5.16,3.575
5.17,3.835
5.18,3.835
5.19,3.575
5.2,3.575
5.21,3.315
5.22,3.315
5.23,3.12
5.24,3.12
5.25,2.6
5.26,2.6
5.27,3.12
5.28,3.12
5.29,3.315
5.3,3.315
5.31,3.12
5.32,3.12
5.33,2.86
5.34,2.86
5.35,2.145
5.36,2.145
5.37,2.145
5.38,2.145
5.39,1.95
5.4,1.95
5.41,1.3
5.42,1.3
5.43,0.975
5.44,0.975
5.45,0.65
5.46,0.65
5.47,0.65
5.48,0.65
5.49,0.91
5.5,0.91
5.51,0.975
5.52,0.975
5.53,0.52
5.54,0.52
5.55,0.195
5.56,0.195
5.57,0.26
5.58,0.26
5.59,0.26
5.6,0.26
5.61,0.26
5.62,0.26
5.63,0.13
5.64,0.13
5.65,0.065
5.66,0.065
5.67,0.26
5.68,0.26
5.69,0.195
5.7,0.195
5.71,0.065
5.72,0.065
5.73,0.13
5.74,0.13
5.75,0.065
5.76,0.065
5.77,0.
5.78,0.
5.79,0.065
5.8,0.065
5.81,0.26
5.82,0.26
5.83,0.39
5.84,0.39
5.85,0.65
5.86,0.65
5.87,0.91
5.88,0.91
5.89,1.105
5.9,1.105
5.91,1.3
5.92,1.3
5.93,1.235
5.94,1.235
5.95,1.365
5.96,1.365
5.97,1.625
5.98,1.625
5.99,1.885
6.,1.885
6.01,1.885
6.02,1.885
6.03,2.015
6.04,2.015
6.05,2.535
6.06,2.535
6.07,2.6
6.08,2.6
6.09,2.405
6.1,2.405
6.11,2.925
6.12,2.925
6.13,3.445
6.14,3.445
6.15,4.42
6.16,4.42
6.17,5.265
6.18,5.265
6.19,4.81
6.2,4.81
6.21,4.03
6.22,4.03
6.23,4.03
6.24,4.03
6.25,4.225
6.26,4.225
6.27,4.16
6.28,4.16
6.29,4.03
6.3,4.03
6.31,2.99
6.32,2.99
6.33,2.6
6.34,2.6
6.35,2.47
6.36,2.47
6.37,1.885
6.38,1.885
6.39,1.755
6.4,1.755
6.41,1.495
6.42,1.495
6.43,1.105
6.44,1.105
6.45,0.975
6.46,0.975
6.47,0.78
6.48,0.78
6.49,0.52
6.5,0.52
6.51,0.39
6.52,0.39
6.53,0.39
6.54,0.39
6.55,0.325
6.56,0.325
6.57,0.195
6.58,0.195
6.59,0.065
6.6,0.065
6.61,0.
6.62,0.
6.63,0.
6.64,0.
6.65,0.065
6.66,0.065
6.67,0.13
6.68,0.13
6.69,0.13
6.7,0.13
6.71,0.13
6.72,0.13
6.73,0.13
6.74,0.13
6.75,0.065
6.76,0.065
6.77,0.
6.78,0.
6.79,0.065
6.8,0.065
6.81,0.26
6.82,0.26
6.83,0.325
6.84,0.325
6.85,0.52
6.86,0.52
6.87,0.975
6.88,0.975
6.89,1.04
6.9,1.04
6.91,0.975
6.92,0.975
6.93,1.43
6.94,1.43
6.95,1.56
6.96,1.56
6.97,1.56
6.98,1.56
6.99,2.405
7.,2.405
7.01,2.925
7.02,2.925
7.03,3.64
7.04,3.64
7.05,3.965
7.06,3.965
7.07,3.77
7.08,3.77
7.09,3.51
7.1,3.51
7.11,3.12
7.12,3.12
7.13,3.25
7.14,3.25
7.15,3.51
7.16,3.51
7.17,3.705
7.18,3.705
7.19,4.03
7.2,4.03
7.21,4.03
7.22,4.03
7.23,3.705
7.24,3.705
7.25,3.64
7.26,3.64
7.27,3.64
7.28,3.64
7.29,3.38
7.3,3.38
7.31,2.925
7.32,2.925
7.33,2.99
7.34,2.99
7.35,2.73
7.36,2.73
7.37,1.95
7.38,1.95
7.39,1.69
7.4,1.69
7.41,2.015
7.42,2.015
7.43,2.015
7.44,2.015
7.45,1.625
7.46,1.625
7.47,1.04
7.48,1.04
7.49,0.52
7.5,0.52
7.51,0.26
7.52,0.26
7.53,0.13
7.54,0.13
7.55,0.065
7.56,0.065
7.57,0.065
7.58,0.065
7.59,0.13
7.6,0.13
7.61,0.065
7.62,0.065
7.63,0.
7.64,0.
7.65,0.
7.66,0.
7.67,0.
7.68,0.
7.69,0.
7.7,0.
7.71,0.065
7.72,0.065
7.73,0.195
7.74,0.195
7.75,0.26
7.76,0.26
7.77,0.325
7.78,0.325
7.79,0.39
7.8,0.39
7.81,0.325
7.82,0.325
7.83,0.455
7.84,0.455
7.85,0.52
7.86,0.52
7.87,0.91
7.88,0.91
7.89,1.495
7.9,1.495
7.91,1.625
7.92,1.625
7.93,1.625
7.94,1.625
7.95,1.495
7.96,1.495
7.97,2.145
7.98,2.145
7.99,2.86
8.,2.86
8.01,2.86
8.02,2.86
8.03,2.665
8.04,2.665
8.05,2.99
8.06,2.99
8.07,3.055
8.08,3.055
8.09,3.64
8.1,3.64
8.11,4.29
8.12,4.29
8.13,3.575
8.14,3.575
8.15,3.25
8.16,3.25
8.17,3.51
8.18,3.51
8.19,4.42
8.2,4.42
8.21,4.615
8.22,4.615
8.23,4.355
8.24,4.355
8.25,4.485
8.26,4.485
8.27,4.225
8.28,4.225
8.29,4.485
8.3,4.485
8.31,4.745
8.32,4.745
8.33,4.095
8.34,4.095
8.35,3.445
8.36,3.445
8.37,2.6
8.38,2.6
8.39,1.755
8.4,1.755
8.41,1.365
8.42,1.365
8.43,1.04
8.44,1.04
8.45,0.975
8.46,0.975
8.47,0.845
8.48,0.845
8.49,0.455
8.5,0.455
8.51,0.195
8.52,0.195
8.53,0.26
8.54,0.26
8.55,0.455
8.56,0.455
8.57,0.455
8.58,0.455
8.59,0.26
8.6,0.26
8.61,0.195
8.62,0.195
8.63,0.13
8.64,0.13
8.65,0.
8.66,0.
8.67,0.
8.68,0.
8.69,0.0649999999999
8.7,0.0650000000001
8.71,0.13
8.72,0.13
8.73,0.325
8.74,0.325
8.75,0.39
8.76,0.39
8.77,0.325
8.78,0.325
8.79,0.585
8.8,0.585
8.81,0.78
8.82,0.78
8.83,0.715
8.84,0.715
8.85,0.845
8.86,0.845
8.87,1.04
8.88,1.04
8.89,1.235
8.9,1.235
8.91,1.3
8.92,1.3
8.93,1.495
8.94,1.495
8.95,1.95
8.96,1.95
8.97,2.08
8.98,2.08
8.99,2.405
9.,2.405
9.01,2.535
9.02,2.535
9.03,2.47
9.04,2.47
9.05,2.47
9.06,2.47
9.07,2.665
9.08,2.665
9.09,3.575
9.1,3.575
9.11,4.42
9.12,4.42
9.13,4.745
9.14,4.745
9.15,4.095
9.16,4.095
9.17,3.835
9.18,3.835
9.19,4.225
9.2,4.225
9.21,4.225
9.22,4.225
9.23,4.225
9.24,4.225
9.25,4.615
9.26,4.615
9.27,4.42
9.28,4.42
9.29,3.705
9.3,3.705
9.31,3.705
9.32,3.705
9.33,3.64
9.34,3.64
9.35,2.925
9.36,2.925
9.37,2.21
9.38,2.21
9.39,2.34
9.4,2.34
9.41,2.405
9.42,2.405
9.43,2.015
9.44,2.015
9.45,1.495
9.46,1.495
9.47,1.04
9.48,1.04
9.49,0.845
9.5,0.845
9.51,0.52
9.52,0.52
9.53,0.26
9.54,0.26
9.55,0.195
9.56,0.195
9.57,0.13
9.58,0.13
9.59,0.13
9.6,0.13
9.61,0.0649999999999
9.62,0.0650000000001
9.63,0.0650000000001
9.64,0.0649999999999
9.65,0.13
9.66,0.13
9.67,0.13
9.68,0.13
9.69,0.13
9.7,0.13
9.71,0.195
9.72,0.195
9.73,0.325
9.74,0.325
9.75,0.26
9.76,0.26
9.77,0.26
9.78,0.26
9.79,0.455
9.8,0.455
9.81,0.455
9.82,0.455
9.83,0.325
9.84,0.325
9.85,0.585
9.86,0.585
9.87,0.91
9.88,0.91
9.89,1.17
9.9,1.17
9.91,1.43
9.92,1.43
9.93,1.3
9.94,1.3
9.95,1.43
9.96,1.43
9.97,1.43
9.98,1.43
9.99,1.69
10.,1.69
