t,s,e,i,r,c,o,n,reff,coal,reportr
5.,8223.,21.,1.,1754.,0.,0.,9999.,1.19487890307,2.95874775997,273.
5.02,8222.,16.,8.,1753.,0.,0.,9999.,1.19204192763,3.87413626481,208.
5.04,8211.,24.,7.,1757.,0.,0.,9999.,1.18242532325,2.56192153372,312.
5.06,8204.,15.,16.,1764.,0.,0.,9999.,1.16819953458,4.04975838656,195.
5.08,8188.,32.,4.,1775.,0.,0.,9999.,1.14774465944,1.8650850716,416.
5.1,8182.,26.,11.,1781.,0.,0.,10000.,1.123933458,2.24786691601,338.
5.12,8170.,28.,9.,1792.,0.,0.,9999.,1.095245407,2.03402718443,364.
5.14,8155.,33.,12.,1798.,0.,0.,9998.,1.06234645484,1.6740004743,429.
5.16,8148.,30.,13.,1808.,0.,0.,9999.,1.02696009601,1.78006416642,390.
5.18,8136.,22.,20.,1820.,0.,0.,9998.,0.988374418266,2.3361577159,286.
5.2,8116.,28.,12.,1840.,0.,0.,9996.,0.94678699657,1.75831870792,364.
5.22,8110.,27.,18.,1841.,0.,0.,9996.,0.905119719791,1.74319353441,351.
5.24,8094.,32.,22.,1848.,0.,0.,9996.,0.861454191318,1.39986306089,416.
5.26,8075.,33.,21.,1866.,0.,0.,9995.,0.817400159972,1.2880244945,429.
5.28,8064.,34.,19.,1877.,0.,0.,9994.,0.774635384715,1.18473647074,442.
5.3,8042.,33.,23.,1893.,0.,0.,9991.,0.73210984286,1.15362763117,429.
5.32,8024.,32.,20.,1912.,0.,0.,9988.,0.691750495923,1.12409455588,416.
5.34,8018.,29.,11.,1931.,0.,0.,9989.,0.654494419552,1.17357620058,377.
5.36,8012.,23.,17.,1934.,0.,0.,9986.,0.620362462053,1.40255860986,299.
5.38,8009.,20.,8.,1947.,0.,0.,9984.,0.589769219721,1.53339997128,260.
5.4,8011.,13.,4.,1959.,0.,0.,9987.,0.563083824664,2.25233529866,169.
5.42,8018.,10.,2.,1961.,0.,0.,9991.,0.540932685141,2.81284996273,130.
5.44,8028.,8.,5.,1952.,0.,0.,9993.,0.523666847208,3.40383450686,104.
5.46,8027.,7.,4.,1952.,0.,0.,9990.,0.510814621399,3.79462290182,91.
5.48,8031.,5.,1.,1955.,0.,0.,9992.,0.503115427342,5.23240044436,65.
5.5,8033.,2.,5.,1952.,0.,0.,9992.,0.500609085909,13.0158362336,26.
5.52,8032.,3.,0.,1954.,0.,0.,9989.,0.503329193668,8.72437269025,39.
5.54,8036.,4.,0.,1950.,0.,0.,9990.,0.511387354872,6.64803561334,52.
5.56,8040.,1.,3.,1946.,0.,0.,9990.,0.524607100192,27.27956921,13.
5.58,8037.,2.,1.,1946.,0.,0.,9986.,0.542486003489,14.1046360907,26.
5.6,8043.,2.,2.,1941.,0.,0.,9988.,0.565276466026,14.6971881167,26.
5.62,8042.,2.,1.,1939.,0.,0.,9984.,0.592199283931,15.3971813822,26.
5.64,8043.,3.,1.,1935.,0.,0.,9982.,0.623012320441,10.798880221,39.
5.66,8048.,1.,4.,1930.,0.,0.,9983.,0.657338100908,34.1815812472,13.
5.68,8050.,0.,2.,1928.,0.,0.,9980.,0.694548266822,inf,0.
5.7,8058.,0.,1.,1917.,0.,0.,9976.,0.734669412354,inf,0.
5.72,8062.,0.,1.,1914.,0.,0.,9977.,0.775762851444,inf,0.
5.74,8068.,0.,0.,1911.,0.,0.,9979.,0.818001034172,inf,0.
5.76,8079.,0.,0.,1902.,0.,0.,9981.,0.861149965053,inf,0.
5.78,8078.,0.,0.,1899.,0.,0.,9977.,0.903265237992,inf,0.
5.8,8085.,0.,0.,1894.,0.,0.,9979.,0.944777398496,inf,0.
5.82,8093.,1.,0.,1888.,0.,0.,9982.,0.984726586542,51.2057825002,13.
5.84,8094.,2.,2.,1881.,0.,0.,9979.,1.02219862935,26.5771643631,26.
5.86,8096.,5.,3.,1877.,0.,0.,9981.,1.05645689987,10.9871517587,65.
5.88,8096.,7.,4.,1875.,0.,0.,9982.,1.08717357147,8.07614653093,91.
5.9,8096.,9.,7.,1869.,0.,0.,9981.,1.11423698133,6.43781366993,117.
5.92,8088.,11.,8.,1874.,0.,0.,9981.,1.13577185388,5.36910330926,143.
5.94,8079.,16.,10.,1877.,0.,0.,9982.,1.15235950448,3.74516838957,208.
5.96,8067.,20.,10.,1886.,0.,0.,9983.,1.16355046548,3.02523121025,260.
5.98,8067.,15.,13.,1889.,0.,0.,9984.,1.17132688512,4.06059986841,195.
6.,8055.,14.,15.,1901.,0.,0.,9985.,1.17210804523,4.353544168,182.
6.02,8039.,22.,21.,1905.,0.,0.,9987.,1.16691065617,2.75815246003,286.
6.04,8028.,27.,10.,1921.,0.,0.,9986.,1.1575774034,2.22940833248,351.
6.06,8021.,23.,15.,1927.,0.,0.,9986.,1.14362831685,2.58559445549,299.
6.08,8016.,23.,11.,1936.,0.,0.,9986.,1.12509750558,2.54369870827,299.
6.1,8009.,25.,11.,1941.,0.,0.,9986.,1.10171143355,2.29155978178,325.
6.12,7999.,21.,15.,1951.,0.,0.,9986.,1.07371763845,2.65872939045,273.
6.14,7976.,29.,15.,1963.,0.,0.,9983.,1.04058943966,1.8658845125,377.
6.16,7964.,32.,17.,1972.,0.,0.,9985.,1.00517643594,1.6334117084,416.
6.18,7947.,41.,16.,1982.,0.,0.,9986.,0.966574514505,1.22589938425,533.
6.2,7922.,54.,15.,1995.,0.,0.,9986.,0.925081018822,0.890818758866,702.
6.22,7907.,46.,23.,2009.,0.,0.,9985.,0.883435993909,0.998666775724,598.
6.24,7889.,44.,20.,2031.,0.,0.,9984.,0.840644971472,0.99348951174,572.
6.26,7870.,38.,19.,2056.,0.,0.,9983.,0.797606431162,1.09146143212,494.
6.28,7864.,35.,15.,2066.,0.,0.,9980.,0.756482909494,1.12391746553,455.
6.3,7860.,30.,14.,2077.,0.,0.,9981.,0.716258232079,1.24151426894,390.
6.32,7850.,30.,16.,2082.,0.,0.,9978.,0.677428166409,1.17420882177,390.
6.34,7848.,30.,13.,2086.,0.,0.,9977.,0.641388149244,1.11173945869,390.
6.36,7839.,24.,13.,2102.,0.,0.,9978.,0.60745386107,1.31615003232,312.
6.38,7830.,23.,9.,2113.,0.,0.,9975.,0.577108192085,1.30476634732,299.
6.4,7831.,16.,7.,2120.,0.,0.,9974.,0.55114926179,1.79123510082,208.
6.42,7830.,9.,11.,2123.,0.,0.,9973.,0.529202727637,3.05761575968,117.
6.44,7827.,11.,9.,2126.,0.,0.,9973.,0.511579482691,2.41837573636,143.
6.46,7830.,12.,4.,2128.,0.,0.,9974.,0.499077445268,2.16266892949,156.
6.48,7830.,8.,7.,2129.,0.,0.,9974.,0.491408689994,3.19415648496,104.
6.5,7832.,4.,8.,2132.,0.,0.,9976.,0.488865764396,6.35525493715,52.
6.52,7833.,6.,4.,2135.,0.,0.,9978.,0.491399896839,4.25879910594,78.
6.54,7836.,2.,5.,2131.,0.,0.,9974.,0.499459880092,12.9859568824,26.
6.56,7839.,0.,3.,2128.,0.,0.,9970.,0.512517984719,inf,0.
6.58,7840.,0.,1.,2126.,0.,0.,9967.,0.530197572979,inf,0.
6.6,7843.,0.,0.,2124.,0.,0.,9967.,0.552381502132,inf,0.
6.62,7843.,0.,0.,2119.,0.,0.,9962.,0.578820706635,inf,0.
6.64,7846.,1.,0.,2115.,0.,0.,9962.,0.608972804575,31.6665858379,13.
6.66,7851.,1.,0.,2110.,0.,0.,9962.,0.642599449453,33.4151713716,13.
6.68,7853.,1.,0.,2107.,0.,0.,9961.,0.678843634806,35.2998690099,13.
6.7,7861.,0.,1.,2102.,0.,0.,9964.,0.717571552889,inf,0.
6.72,7864.,1.,2.,2099.,0.,0.,9966.,0.757545598711,39.392371133,13.
6.74,7872.,1.,0.,2096.,0.,0.,9969.,0.798929532606,41.5443356955,13.
6.76,7881.,1.,0.,2089.,0.,0.,9971.,0.840887403911,43.7261450034,13.
6.78,7883.,0.,2.,2087.,0.,0.,9972.,0.881902709537,inf,0.
6.8,7883.,0.,1.,2091.,0.,0.,9975.,0.921541962991,inf,0.
6.82,7887.,1.,2.,2087.,0.,0.,9977.,0.96014219813,49.9273943027,13.
6.84,7888.,4.,1.,2082.,0.,0.,9975.,0.996582173552,12.9555682562,52.
6.86,7891.,3.,3.,2079.,0.,0.,9976.,1.03022229193,17.8571863934,39.
6.88,7889.,8.,4.,2076.,0.,0.,9977.,1.05990742928,6.88939829032,104.
6.9,7889.,9.,5.,2078.,0.,0.,9981.,1.08574796761,6.2732104795,117.
6.92,7892.,12.,4.,2077.,0.,0.,9985.,1.10780423839,4.800485033,156.
6.94,7892.,12.,3.,2075.,0.,0.,9982.,1.12568649701,4.87797482039,156.
6.96,7888.,12.,4.,2078.,0.,0.,9982.,1.13784622975,4.93066699557,156.
6.98,7889.,15.,3.,2075.,0.,0.,9982.,1.14571082793,3.97179753681,195.
7.,7892.,12.,7.,2071.,0.,0.,9982.,1.1487345475,4.97784970584,156.
7.02,7886.,16.,5.,2075.,0.,0.,9982.,1.14527514121,3.72214420894,208.
7.04,7880.,18.,9.,2077.,0.,0.,9984.,1.13646452471,3.28311973807,234.
7.06,7866.,25.,11.,2082.,0.,0.,9984.,1.12175319532,2.33324664627,325.
7.08,7852.,28.,19.,2082.,0.,0.,9981.,1.10263113213,2.0477435311,364.
7.1,7833.,37.,15.,2094.,0.,0.,9979.,1.0782568567,1.51538801482,481.
7.12,7821.,42.,15.,2102.,0.,0.,9980.,1.05045559132,1.30056406544,546.
7.14,7806.,32.,19.,2117.,0.,0.,9974.,1.01932933551,1.65641017021,416.
7.16,7794.,27.,17.,2134.,0.,0.,9972.,0.985002308824,1.89704148366,351.
7.18,7782.,30.,19.,2143.,0.,0.,9974.,0.947644728926,1.64258419681,390.
7.2,7766.,34.,16.,2158.,0.,0.,9974.,0.907955400186,1.38863767087,442.
7.22,7747.,39.,12.,2175.,0.,0.,9973.,0.866600942673,1.15546792356,507.
7.24,7743.,30.,22.,2181.,0.,0.,9976.,0.825748996436,1.43129826049,390.
7.26,7735.,24.,23.,2194.,0.,0.,9976.,0.784474558415,1.69969487657,312.
7.28,7725.,24.,19.,2207.,0.,0.,9975.,0.743484195597,1.61088242379,312.
7.3,7711.,20.,23.,2220.,0.,0.,9974.,0.703173467279,1.82825101492,260.
7.32,7702.,21.,16.,2237.,0.,0.,9976.,0.664789523373,1.64614548645,273.
7.34,7700.,20.,8.,2248.,0.,0.,9976.,0.629355734734,1.63632491031,260.
7.36,7704.,18.,4.,2253.,0.,0.,9979.,0.596932718254,1.72447229718,234.
7.38,7708.,13.,7.,2253.,0.,0.,9981.,0.567774693979,2.27109877592,169.
7.4,7713.,12.,6.,2254.,0.,0.,9985.,0.54224634348,2.34973415508,156.
7.42,7716.,9.,5.,2254.,0.,0.,9984.,0.520923293385,3.00977902844,117.
7.44,7717.,11.,3.,2252.,0.,0.,9983.,0.503884538939,2.38199963862,143.
7.46,7719.,9.,7.,2248.,0.,0.,9983.,0.491558844818,2.84011777006,117.
7.48,7722.,8.,4.,2247.,0.,0.,9981.,0.484290751865,3.14788988712,104.
7.5,7725.,5.,5.,2246.,0.,0.,9981.,0.481945376845,5.01223191919,65.
7.52,7735.,3.,1.,2243.,0.,0.,9982.,0.485057458078,8.40766260669,39.
7.54,7739.,1.,0.,2243.,0.,0.,9983.,0.492832478306,25.6272888719,13.
7.56,7750.,0.,2.,2233.,0.,0.,9985.,0.505937926973,inf,0.
7.58,7751.,2.,0.,2232.,0.,0.,9985.,0.523233809333,13.6040790427,26.
7.6,7754.,2.,0.,2229.,0.,0.,9985.,0.545128762783,14.1733478324,26.
7.62,7759.,1.,2.,2223.,0.,0.,9985.,0.571302420583,29.7077258703,13.
7.64,7763.,1.,1.,2220.,0.,0.,9985.,0.601142798772,31.2594255361,13.
7.66,7763.,1.,1.,2216.,0.,0.,9981.,0.634187152495,32.9777319297,13.
7.68,7765.,1.,0.,2215.,0.,0.,9981.,0.669891546396,34.8343604126,13.
7.7,7771.,1.,0.,2209.,0.,0.,9981.,0.708147928942,36.823692305,13.
7.72,7777.,1.,0.,2204.,0.,0.,9982.,0.747963991844,38.8941275759,13.
7.74,7783.,1.,1.,2196.,0.,0.,9981.,0.788947239053,41.0252564307,13.
7.76,7788.,0.,0.,2193.,0.,0.,9981.,0.830131938091,inf,0.
7.78,7792.,0.,0.,2188.,0.,0.,9980.,0.87102340062,inf,0.
7.8,7798.,1.,0.,2181.,0.,0.,9980.,0.911148539224,47.3797240396,13.
7.82,7803.,3.,1.,2174.,0.,0.,9981.,0.94953557391,16.4586166144,39.
7.84,7800.,2.,3.,2174.,0.,0.,9979.,0.98506910167,25.6117966434,26.
7.86,7794.,5.,3.,2175.,0.,0.,9977.,1.01745630934,10.5815456171,65.
7.88,7798.,6.,3.,2167.,0.,0.,9974.,1.04799646908,9.08263606538,78.
7.9,7801.,7.,4.,2163.,0.,0.,9975.,1.07428249258,7.98038423058,91.
7.92,7802.,7.,8.,2159.,0.,0.,9976.,1.09615891557,8.14289480137,91.
7.94,7803.,10.,8.,2159.,0.,0.,9980.,1.11321490156,5.78871748809,130.
7.96,7793.,16.,4.,2164.,0.,0.,9977.,1.12470581986,3.65529391455,208.
7.98,7791.,17.,5.,2166.,0.,0.,9979.,1.13181855313,3.46203322134,221.
8.,7788.,20.,9.,2162.,0.,0.,9979.,1.13393743125,2.94823732124,260.
8.02,7778.,21.,13.,2164.,0.,0.,9976.,1.1302698043,2.79876332492,273.
8.04,7765.,26.,7.,2176.,0.,0.,9974.,1.12100186362,2.24200372724,338.
8.06,7761.,25.,8.,2181.,0.,0.,9975.,1.10777797104,2.30417817977,325.
8.08,7755.,27.,10.,2187.,0.,0.,9979.,1.08922799408,2.09777243304,351.
8.1,7750.,25.,9.,2195.,0.,0.,9979.,1.06683143616,2.21900938721,325.
8.12,7750.,18.,11.,2202.,0.,0.,9981.,1.04081513616,3.00679928223,234.
8.14,7740.,22.,10.,2210.,0.,0.,9982.,1.00990084398,2.3870383585,286.
8.16,7732.,28.,10.,2210.,0.,0.,9980.,0.976383475939,1.81328359817,364.
8.18,7721.,29.,15.,2215.,0.,0.,9980.,0.939651258719,1.68489191219,377.
8.2,7709.,34.,14.,2224.,0.,0.,9981.,0.900659187915,1.37747875799,442.
8.22,7693.,37.,16.,2235.,0.,0.,9981.,0.859870593827,1.20846678051,481.
8.24,7681.,34.,18.,2246.,0.,0.,9979.,0.818890774116,1.25242118394,442.
8.26,7669.,31.,22.,2257.,0.,0.,9979.,0.777547091109,1.30427253993,403.
8.28,7647.,38.,12.,2283.,0.,0.,9980.,0.735608444672,1.00662208218,494.
8.3,7638.,28.,18.,2296.,0.,0.,9980.,0.696097780027,1.29275302005,364.
8.32,7628.,24.,27.,2301.,0.,0.,9980.,0.658138407369,1.4259665493,312.
8.34,7618.,22.,20.,2320.,0.,0.,9980.,0.622403944308,1.47113659564,286.
8.36,7617.,23.,13.,2330.,0.,0.,9983.,0.58995517695,1.33381170441,299.
8.38,7611.,18.,11.,2339.,0.,0.,9979.,0.560741992902,1.61992131283,234.
8.4,7606.,14.,9.,2347.,0.,0.,9976.,0.53520634145,1.98790926824,182.
8.42,7605.,12.,7.,2350.,0.,0.,9974.,0.513944219142,2.22709161628,156.
8.44,7607.,7.,12.,2347.,0.,0.,9973.,0.497200092607,3.69348640222,91.
8.46,7609.,9.,9.,2352.,0.,0.,9979.,0.484748090058,2.80076674256,117.
8.48,7610.,5.,6.,2355.,0.,0.,9976.,0.477505799169,4.96606031136,65.
8.5,7606.,4.,5.,2359.,0.,0.,9974.,0.474854265215,6.17310544779,52.
8.52,7611.,2.,1.,2361.,0.,0.,9975.,0.477616422863,12.4180269944,26.
8.54,7618.,1.,1.,2358.,0.,0.,9978.,0.485370094016,25.2392448888,13.
8.56,7623.,2.,0.,2355.,0.,0.,9980.,0.497896395382,12.9453062799,26.
8.58,7628.,2.,0.,2349.,0.,0.,9979.,0.515240262369,13.3962468216,26.
8.6,7632.,0.,1.,2339.,0.,0.,9972.,0.537251283667,inf,0.
8.62,7639.,1.,1.,2332.,0.,0.,9973.,0.563143495822,29.2834617827,13.
8.64,7640.,0.,1.,2328.,0.,0.,9969.,0.592567590232,inf,0.
8.66,7644.,2.,0.,2324.,0.,0.,9970.,0.625154597264,16.2540195289,26.
8.68,7645.,2.,0.,2321.,0.,0.,9968.,0.660399222462,17.170379784,26.
8.7,7647.,3.,0.,2317.,0.,0.,9967.,0.697826998303,12.0956679706,39.
8.72,7656.,3.,1.,2311.,0.,0.,9971.,0.737138960459,12.7770753146,39.
8.74,7659.,4.,0.,2309.,0.,0.,9972.,0.777078307348,10.1020179955,52.
8.76,7664.,4.,2.,2302.,0.,0.,9972.,0.817651922082,10.6294749871,52.
8.78,7674.,3.,2.,2295.,0.,0.,9974.,0.858348892594,14.8780474716,39.
8.8,7677.,4.,2.,2291.,0.,0.,9974.,0.89755003956,11.6681505143,52.
8.82,7680.,2.,6.,2288.,0.,0.,9976.,0.935036293247,24.3109436244,26.
8.84,7684.,6.,2.,2288.,0.,0.,9980.,0.970322119647,8.40945837028,78.
8.86,7682.,10.,2.,2284.,0.,0.,9978.,1.0027349288,5.21422162976,130.
8.88,7689.,4.,10.,2276.,0.,0.,9979.,1.03282987299,13.4267883489,52.
8.9,7684.,10.,2.,2283.,0.,0.,9979.,1.05774616199,5.50028004235,130.
8.92,7695.,11.,3.,2274.,0.,0.,9983.,1.08036764171,5.10719248809,143.
8.94,7694.,12.,4.,2272.,0.,0.,9982.,1.09744448911,4.75559278612,156.
8.96,7692.,10.,6.,2277.,0.,0.,9985.,1.10923980233,5.76804697212,130.
8.98,7700.,9.,5.,2277.,0.,0.,9991.,1.11725522205,6.45525239407,117.
9.,7693.,15.,6.,2277.,0.,0.,9991.,1.1187600375,3.87836813,195.
9.02,7688.,22.,5.,2278.,0.,0.,9993.,1.11529078599,2.6361418578,286.
9.04,7683.,20.,11.,2275.,0.,0.,9989.,1.10749827504,2.87949551511,260.
9.06,7675.,17.,15.,2283.,0.,0.,9990.,1.09385773326,3.34591777231,221.
9.08,7657.,31.,13.,2291.,0.,0.,9992.,1.07406418898,1.80165605893,403.
9.1,7638.,43.,11.,2301.,0.,0.,9993.,1.0499409905,1.26969608153,559.
9.12,7629.,42.,9.,2314.,0.,0.,9994.,1.02323225603,1.26685898366,546.
9.14,7617.,33.,22.,2322.,0.,0.,9994.,0.992658693676,1.5641894567,429.
9.16,7608.,32.,21.,2335.,0.,0.,9996.,0.959187197121,1.55867919532,416.
9.18,7584.,38.,21.,2354.,0.,0.,9997.,0.921408726184,1.26087509899,494.
9.2,7567.,42.,19.,2369.,0.,0.,9997.,0.882654085058,1.0928098196,546.
9.22,7560.,37.,16.,2387.,0.,0.,10000.,0.843399260122,1.18531787909,481.
9.24,7546.,33.,17.,2402.,0.,0.,9998.,0.802969231646,1.26528484987,429.
9.26,7540.,29.,12.,2420.,0.,0.,10001.,0.762786335309,1.36775480814,377.
9.28,7535.,33.,9.,2428.,0.,0.,10005.,0.723023346617,1.13930951588,429.
9.3,7524.,31.,15.,2434.,0.,0.,10004.,0.684063219112,1.14746088367,403.
9.32,7518.,24.,13.,2443.,0.,0.,9998.,0.647479886316,1.40287308702,312.
9.34,7518.,24.,4.,2451.,0.,0.,9997.,0.61318925838,1.32857672649,312.
9.36,7518.,17.,6.,2453.,0.,0.,9994.,0.581646485486,1.7791539556,221.
9.38,7517.,12.,11.,2451.,0.,0.,9991.,0.553151345049,2.39698916188,156.
9.4,7514.,14.,7.,2455.,0.,0.,9990.,0.527991672,1.96111192457,182.
9.42,7510.,14.,4.,2461.,0.,0.,9989.,0.506762015592,1.88225891506,182.
9.44,7513.,11.,4.,2462.,0.,0.,9990.,0.490220540266,2.31740619035,143.
9.46,7515.,9.,4.,2464.,0.,0.,9992.,0.478136727388,2.76256775824,117.
9.48,7516.,7.,4.,2465.,0.,0.,9992.,0.470852390973,3.49776061865,91.
9.5,7522.,5.,3.,2464.,0.,0.,9994.,0.468670232262,4.87417041552,65.
9.52,7522.,5.,3.,2460.,0.,0.,9990.,0.471322611002,4.90175515442,65.
9.54,7521.,4.,4.,2459.,0.,0.,9988.,0.478710110632,6.22323143821,52.
9.56,7533.,0.,4.,2453.,0.,0.,9990.,0.491525533053,inf,0.
9.58,7540.,0.,1.,2452.,0.,0.,9993.,0.508582707417,inf,0.
9.6,7541.,1.,0.,2450.,0.,0.,9992.,0.529782837896,27.5487075706,13.
9.62,7548.,0.,2.,2443.,0.,0.,9993.,0.555321368927,inf,0.
9.64,7556.,0.,0.,2436.,0.,0.,9992.,0.584703449355,inf,0.
9.66,7565.,0.,0.,2427.,0.,0.,9992.,0.617331469141,inf,0.
9.68,7564.,1.,0.,2420.,0.,0.,9985.,0.652289734485,33.9190661932,13.
9.7,7571.,1.,0.,2414.,0.,0.,9986.,0.689577083748,35.8580083549,13.
9.72,7575.,1.,0.,2411.,0.,0.,9987.,0.728171613349,37.8649238941,13.
9.74,7580.,1.,0.,2403.,0.,0.,9984.,0.768138652305,39.9432099199,13.
9.76,7587.,0.,1.,2398.,0.,0.,9986.,0.808302194897,inf,0.
9.78,7587.,1.,1.,2392.,0.,0.,9981.,0.848022643359,44.0971774547,13.
9.8,7591.,3.,0.,2386.,0.,0.,9980.,0.886961857046,15.3740055221,39.
9.82,7600.,2.,0.,2380.,0.,0.,9982.,0.924740152937,24.0432439764,26.
9.84,7608.,5.,0.,2374.,0.,0.,9987.,0.960051589307,9.9845365288,65.
9.86,7604.,6.,2.,2371.,0.,0.,9983.,0.992056431694,8.59782240802,78.
9.88,7611.,6.,2.,2367.,0.,0.,9986.,1.02163582276,8.85417713056,78.
9.9,7615.,6.,1.,2364.,0.,0.,9986.,1.04751311855,9.07844702743,78.
9.92,7616.,5.,5.,2360.,0.,0.,9986.,1.06895491548,11.117131121,65.
9.94,7619.,4.,3.,2362.,0.,0.,9988.,1.08609392738,14.119221056,52.
9.96,7611.,7.,5.,2361.,0.,0.,9984.,1.09766897178,8.15411236177,91.
9.98,7605.,13.,1.,2368.,0.,0.,9987.,1.10391286729,4.41565146916,169.
10.,7599.,12.,10.,2367.,0.,0.,9988.,1.10542194546,4.79016176366,156.
