t,cases
5.01,1.69
5.02,1.69
5.03,2.275
5.04,2.275
5.05,2.73
5.06,2.73
5.07,2.665
5.08,2.665
5.09,2.665
5.1,2.665
5.11,2.925
5.12,2.925
5.13,2.795
5.14,2.795
5.15,3.445
5.16,3.445
5.17,4.81
5.18,4.81
5.19,5.98
5.2,5.98
5.21,6.89
5.22,6.89
5.23,5.72
5.24,5.72
5.25,4.355
5.26,4.355
5.27,4.55
5.28,4.55
5.29,4.615
5.3,4.615
5.31,3.835
5.32,3.835
5.33,3.445
5.34,3.445
5.35,3.51
5.36,3.51
5.37,2.99
5.38,2.99
5.39,2.145
5.4,2.145
5.41,1.495
5.42,1.495
5.43,1.04
5.44,1.04
5.45,1.17
5.46,1.17
5.47,1.235
5.48,1.235
5.49,0.78
5.5,0.78
5.51,0.52
5.52,0.52
5.53,0.325
5.54,0.325
5.55,0.26
5.56,0.26
5.57,0.26
5.58,0.26
5.59,0.13
5.6,0.13
5.61,0.
5.62,0.
5.63,0.065
5.64,0.065
5.65,0.13
5.66,0.13
5.67,0.065
5.68,0.065
5.69,0.065
5.7,0.065
5.71,0.13
5.72,0.13
5.73,0.065
5.74,0.065
5.75,0.195
5.76,0.195
5.77,0.39
5.78,0.39
5.79,0.455
5.8,0.455
5.81,0.585
5.82,0.585
5.83,1.04
5.84,1.04
5.85,1.17
5.86,1.17
5.87,1.04
5.88,1.04
5.89,1.43
5.9,1.43
5.91,1.495
5.92,1.495
5.93,1.95
5.94,1.95
5.95,2.21
5.96,2.21
5.97,1.885
5.98,1.885
5.99,1.95
6.,1.95
6.01,2.145
6.02,2.145
6.03,2.99
6.04,2.99
6.05,3.315
6.06,3.315
6.07,3.25
6.08,3.25
6.09,3.25
6.1,3.25
6.11,3.575
6.12,3.575
6.13,4.68
6.14,4.68
6.15,4.615
6.16,4.615
6.17,4.355
6.18,4.355
6.19,4.81
6.2,4.81
6.21,5.07
6.22,5.07
6.23,4.29
6.24,4.29
6.25,3.9
6.26,3.9
6.27,3.77
6.28,3.77
6.29,3.185
6.3,3.185
6.31,2.86
6.32,2.86
6.33,2.21
6.34,2.21
6.35,1.69
6.36,1.69
6.37,1.365
6.38,1.365
6.39,1.235
6.4,1.235
6.41,1.3
6.42,1.3
6.43,1.3
6.44,1.3
6.45,1.04
6.46,1.04
6.47,0.845
6.48,0.845
6.49,0.78
6.5,0.78
6.51,0.585
6.52,0.585
6.53,0.39
6.54,0.39
6.55,0.325
6.56,0.325
6.57,0.26
6.58,0.26
6.59,0.26
6.6,0.26
6.61,0.13
6.62,0.13
6.63,0.065
6.64,0.065
6.65,0.13
6.66,0.13
6.67,0.13
6.68,0.13
6.69,0.065
6.7,0.065
6.71,0.
6.72,0.
6.73,0.
6.74,0.
6.75,0.065
6.76,0.065
6.77,0.13
6.78,0.13
6.79,0.195
6.8,0.195
6.81,0.26
6.82,0.26
6.83,0.325
6.84,0.325
6.85,0.455
6.86,0.455
6.87,0.65
6.88,0.65
6.89,0.845
6.9,0.845
6.91,0.975
6.92,0.975
6.93,1.495
6.94,1.495
6.95,1.95
6.96,1.95
6.97,2.015
6.98,2.015
6.99,2.21
7.,2.21
7.01,2.665
7.02,2.665
7.03,3.315
7.04,3.315
7.05,3.25
7.06,3.25
7.07,3.705
7.08,3.705
7.09,4.225
7.1,4.225
7.11,4.03
7.12,4.03
7.13,4.16
7.14,4.16
7.15,4.095
7.16,4.095
7.17,4.615
7.18,4.615
7.19,4.745
7.2,4.745
7.21,4.81
7.22,4.81
7.23,5.135
7.24,5.135
7.25,4.615
7.26,4.615
7.27,4.29
7.28,4.29
7.29,4.03
7.3,4.03
7.31,3.77
7.32,3.77
7.33,3.445
7.34,3.445
7.35,2.6
7.36,2.6
7.37,1.95
7.38,1.95
7.39,1.885
7.4,1.885
7.41,1.95
7.42,1.95
7.43,1.43
7.44,1.43
7.45,0.65
7.46,0.65
7.47,0.585
7.48,0.585
7.49,0.715
7.5,0.715
7.51,0.325
7.52,0.325
7.53,0.
7.54,0.
7.55,0.0649999999999
7.56,0.0650000000001
7.57,0.195
7.58,0.195
7.59,0.195
7.6,0.195
7.61,0.13
7.62,0.13
7.63,0.13
7.64,0.13
7.65,0.0649999999999
7.66,0.0650000000001
7.67,0.
7.68,0.
7.69,0.
7.7,0.
7.71,0.
7.72,0.
7.73,0.
7.74,0.
7.75,0.
7.76,0.
7.77,0.
7.78,0.
7.79,0.0649999999999
7.8,0.0650000000001
7.81,0.26
7.82,0.26
7.83,0.455
7.84,0.455
7.85,0.715
7.86,0.715
7.87,0.975
7.88,0.975
7.89,1.365
7.9,1.365
7.91,1.56
7.92,1.56
7.93,1.56
7.94,1.56
7.95,2.405
7.96,2.405
7.97,2.925
7.98,2.925
7.99,2.73
8.,2.73
8.01,2.6
8.02,2.6
8.03,2.665
8.04,2.665
8.05,2.73
8.06,2.73
8.07,3.12
8.08,3.12
8.09,3.705
8.1,3.705
8.11,4.42
8.12,4.42
8.13,5.005
8.14,5.005
8.15,5.2
8.16,5.2
8.17,5.85
8.18,5.85
8.19,5.525
8.2,5.525
8.21,4.225
8.22,4.225
8.23,3.77
8.24,3.77
8.25,3.705
8.26,3.705
8.27,3.51
8.28,3.51
8.29,3.705
8.3,3.705
8.31,2.795
8.32,2.795
8.33,1.82
8.34,1.82
8.35,1.69
8.36,1.69
8.37,1.495
8.38,1.495
8.39,1.365
8.4,1.365
8.41,1.17
8.42,1.17
8.43,1.235
8.44,1.235
8.45,1.105
8.46,1.105
8.47,0.975
8.48,0.975
8.49,1.105
8.5,1.105
8.51,0.845
8.52,0.845
8.53,0.325
8.54,0.325
8.55,0.13
8.56,0.13
8.57,0.0649999999999
8.58,0.0650000000001
8.59,0.
8.6,0.
8.61,0.
8.62,0.
8.63,0.
8.64,0.
8.65,0.
8.66,0.
8.67,0.
8.68,0.
8.69,0.
8.7,0.
8.71,0.
8.72,0.
8.73,0.
8.74,0.
8.75,0.0650000000001
8.76,0.0649999999999
8.77,0.13
8.78,0.13
8.79,0.195
8.8,0.195
8.81,0.39
8.82,0.39
8.83,0.585
8.84,0.585
8.85,0.715
8.86,0.715
8.87,1.04
8.88,1.04
8.89,1.235
8.9,1.235
8.91,0.91
8.92,0.91
8.93,1.105
8.94,1.105
8.95,1.82
8.96,1.82
8.97,1.82
8.98,1.82
8.99,1.56
9.,1.56
9.01,1.755
9.02,1.755
9.03,1.885
9.04,1.885
9.05,2.015
9.06,2.015
9.07,2.535
9.08,2.535
9.09,2.795
9.1,2.795
9.11,3.12
9.12,3.12
9.13,3.38
9.14,3.38
9.15,3.705
9.16,3.705
9.17,4.355
9.18,4.355
9.19,4.16
9.2,4.16
9.21,4.225
9.22,4.225
9.23,4.615
9.24,4.615
9.25,4.355
9.26,4.355
9.27,3.705
9.28,3.705
9.29,3.315
9.3,3.315
9.31,3.445
9.32,3.445
9.33,2.99
9.34,2.99
9.35,2.47
9.36,2.47
9.37,2.275
9.38,2.275
9.39,1.82
9.4,1.82
9.41,1.365
9.42,1.365
9.43,1.235
9.44,1.235
9.45,1.3
9.46,1.3
9.47,0.975
9.48,0.975
9.49,0.52
9.5,0.52
9.51,0.325
9.52,0.325
9.53,0.26
9.54,0.26
9.55,0.325
9.56,0.325
9.57,0.26
9.58,0.26
9.59,0.0649999999999
9.6,0.0650000000001
9.61,0.
9.62,0.
9.63,0.
9.64,0.
9.65,0.
9.66,0.
9.67,0.
9.68,0.
9.69,0.
9.7,0.
9.71,0.
9.72,0.
9.73,0.0650000000001
9.74,0.0649999999999
9.75,0.0650000000001
9.76,0.0649999999999
9.77,0.0649999999999
9.78,0.0650000000001
9.79,0.13
9.8,0.13
9.81,0.13
9.82,0.13
9.83,0.195
9.84,0.195
9.85,0.52
9.86,0.52
9.87,0.91
9.88,0.91
9.89,0.975
9.9,0.975
9.91,0.91
9.92,0.91
9.93,1.04
9.94,1.04
9.95,1.82
9.96,1.82
9.97,2.015
9.98,2.015
9.99,1.625
10.,1.625
