t,s,e,i,r,c,o,n,reff,coal,reportr
5.,5538.,7.,12.,4444.,0.,0.,10001.,1.14715753618,8.52174169733,91.
5.02,5540.,15.,10.,4438.,0.,0.,10003.,1.14475748012,3.96849259776,195.
5.04,5539.,24.,13.,4429.,0.,0.,10005.,1.13661105979,2.4626572962,312.
5.06,5532.,27.,12.,4435.,0.,0.,10006.,1.12236208065,2.16158622941,351.
5.08,5532.,22.,14.,4436.,0.,0.,10004.,1.10508547441,2.61202021224,286.
5.1,5526.,30.,16.,4435.,0.,0.,10007.,1.08156213013,1.87470769222,390.
5.12,5515.,35.,15.,4443.,0.,0.,10008.,1.05319197095,1.56474235684,455.
5.14,5512.,32.,11.,4448.,0.,0.,10003.,1.02328744841,1.66284210367,416.
5.16,5515.,22.,19.,4445.,0.,0.,10001.,0.990888010059,2.34209893287,286.
5.18,5503.,36.,16.,4441.,0.,0.,9996.,0.953367452171,1.3770863198,468.
5.2,5488.,39.,19.,4448.,0.,0.,9994.,0.913008074342,1.21734409912,507.
5.22,5484.,34.,22.,4456.,0.,0.,9996.,0.872661840934,1.33465928613,442.
5.24,5464.,46.,14.,4471.,0.,0.,9995.,0.829251937734,0.93741523396,598.
5.26,5459.,37.,20.,4479.,0.,0.,9995.,0.787895552008,1.10731266769,481.
5.28,5457.,34.,19.,4486.,0.,0.,9996.,0.747269455133,1.14288269609,442.
5.3,5453.,28.,15.,4497.,0.,0.,9993.,0.707659128564,1.31422409591,364.
5.32,5462.,21.,17.,4496.,0.,0.,9996.,0.670850747803,1.66115423266,273.
5.34,5458.,23.,11.,4504.,0.,0.,9996.,0.634793630042,1.43518559836,299.
5.36,5458.,19.,11.,4507.,0.,0.,9995.,0.602019047017,1.64763107605,247.
5.38,5463.,19.,5.,4508.,0.,0.,9995.,0.57295452092,1.56808605726,247.
5.4,5470.,18.,8.,4501.,0.,0.,9997.,0.547649091107,1.58209737431,234.
5.42,5476.,15.,6.,4502.,0.,0.,9999.,0.526327872172,1.8246032902,195.
5.44,5481.,7.,7.,4506.,0.,0.,10001.,0.509358250856,3.78380414921,91.
5.46,5485.,8.,3.,4500.,0.,0.,9996.,0.497381120787,3.23297728512,104.
5.48,5495.,6.,4.,4492.,0.,0.,9997.,0.490582221756,4.25171258855,78.
5.5,5506.,5.,3.,4484.,0.,0.,9998.,0.488944795548,5.0850258737,65.
5.52,5517.,5.,0.,4479.,0.,0.,10001.,0.492349337367,5.12043310861,65.
5.54,5532.,2.,2.,4468.,0.,0.,10004.,0.501241938093,13.0322903904,26.
5.56,5546.,1.,1.,4456.,0.,0.,10004.,0.51524424883,26.7927009392,13.
5.58,5559.,1.,0.,4446.,0.,0.,10006.,0.533931659948,27.7644463173,13.
5.6,5565.,1.,1.,4437.,0.,0.,10004.,0.556770507857,28.9520664086,13.
5.62,5572.,1.,0.,4431.,0.,0.,10004.,0.583860605359,30.3607514787,13.
5.64,5583.,0.,0.,4422.,0.,0.,10005.,0.615191085902,inf,0.
5.66,5588.,0.,0.,4416.,0.,0.,10004.,0.64939357968,inf,0.
5.68,5599.,0.,0.,4404.,0.,0.,10003.,0.687196056418,inf,0.
5.7,5604.,1.,1.,4397.,0.,0.,10003.,0.72652800735,37.7794563822,13.
5.72,5616.,2.,1.,4382.,0.,0.,10001.,0.76865807902,19.9851100545,26.
5.74,5622.,1.,0.,4380.,0.,0.,10003.,0.810772342394,42.1601618045,13.
5.76,5635.,1.,1.,4366.,0.,0.,10003.,0.854520044388,44.4350423082,13.
5.78,5646.,2.,0.,4356.,0.,0.,10004.,0.897722226647,23.3407778928,26.
5.8,5659.,1.,1.,4343.,0.,0.,10004.,0.94051531448,48.906796353,13.
5.82,5670.,1.,1.,4332.,0.,0.,10004.,0.981513848473,51.0387201206,13.
5.84,5682.,3.,2.,4322.,0.,0.,10009.,1.02007716097,17.6813374568,39.
5.86,5687.,4.,3.,4313.,0.,0.,10007.,1.05535369614,13.7195980499,52.
5.88,5691.,5.,3.,4307.,0.,0.,10006.,1.08701967923,11.305004664,65.
5.9,5696.,7.,2.,4299.,0.,0.,10004.,1.11516925943,8.2841144986,91.
5.92,5697.,6.,4.,4294.,0.,0.,10001.,1.1383876465,9.86602626966,78.
5.94,5707.,4.,6.,4287.,0.,0.,10004.,1.15809850798,15.0552806037,52.
5.96,5707.,10.,3.,4286.,0.,0.,10006.,1.17096787204,6.08903293461,130.
5.98,5705.,14.,2.,4286.,0.,0.,10007.,1.17838103157,4.37684383154,182.
6.,5707.,17.,6.,4277.,0.,0.,10007.,1.18145588839,3.61386507036,221.
6.02,5700.,18.,8.,4281.,0.,0.,10007.,1.17734826993,3.40122833535,234.
6.04,5700.,19.,10.,4279.,0.,0.,10008.,1.16929788581,3.20018368749,247.
6.06,5682.,28.,11.,4280.,0.,0.,10001.,1.15337123176,2.1419751447,364.
6.08,5672.,32.,11.,4283.,0.,0.,9998.,1.13373217463,1.84231478377,416.
6.1,5674.,35.,9.,4285.,0.,0.,10003.,1.11097312768,1.65058864684,455.
6.12,5659.,31.,15.,4296.,0.,0.,10001.,1.08144786144,1.81404157402,403.
6.14,5646.,37.,11.,4307.,0.,0.,10001.,1.04837378708,1.47339018725,481.
6.16,5641.,31.,19.,4313.,0.,0.,10004.,1.01322267551,1.69959932667,403.
6.18,5640.,24.,19.,4319.,0.,0.,10002.,0.976515878593,2.11578440362,312.
6.2,5628.,29.,25.,4327.,0.,0.,10009.,0.934895910869,1.67636508156,377.
6.22,5618.,33.,25.,4335.,0.,0.,10011.,0.892645583781,1.40659304111,429.
6.24,5609.,40.,13.,4354.,0.,0.,10016.,0.849473288143,1.10431527459,520.
6.26,5598.,42.,12.,4362.,0.,0.,10014.,0.806424400324,0.998430209926,546.
6.28,5604.,34.,8.,4369.,0.,0.,10015.,0.765943433641,1.17144289851,442.
6.3,5606.,22.,10.,4377.,0.,0.,10015.,0.725916457934,1.71580253693,286.
6.32,5607.,28.,5.,4378.,0.,0.,10018.,0.687147528238,1.27613112387,364.
6.34,5613.,22.,4.,4381.,0.,0.,10020.,0.651257288788,1.53933540986,286.
6.36,5623.,15.,8.,4377.,0.,0.,10023.,0.618485969779,2.14408469523,195.
6.38,5628.,10.,11.,4375.,0.,0.,10024.,0.588551917959,3.06046997339,130.
6.4,5632.,11.,7.,4373.,0.,0.,10023.,0.562405621223,2.65864475487,143.
6.42,5634.,9.,5.,4373.,0.,0.,10021.,0.540325269216,3.12187933325,117.
6.44,5644.,7.,4.,4368.,0.,0.,10023.,0.523354840631,3.88777881612,91.
6.46,5643.,9.,2.,4366.,0.,0.,10020.,0.510482949495,2.94945704153,117.
6.48,5655.,6.,5.,4352.,0.,0.,10018.,0.503808375368,4.36633925319,78.
6.5,5663.,6.,2.,4348.,0.,0.,10019.,0.501832678157,4.34921654403,78.
6.52,5669.,4.,6.,4340.,0.,0.,10019.,0.505005236538,6.56506807499,52.
6.54,5688.,2.,2.,4330.,0.,0.,10022.,0.514451101562,13.3757286406,26.
6.56,5703.,0.,3.,4317.,0.,0.,10023.,0.528825771814,inf,0.
6.58,5709.,0.,0.,4314.,0.,0.,10023.,0.547408845274,inf,0.
6.6,5720.,0.,0.,4304.,0.,0.,10024.,0.571136226491,inf,0.
6.62,5736.,0.,0.,4292.,0.,0.,10028.,0.59960682274,inf,0.
6.64,5743.,0.,0.,4283.,0.,0.,10026.,0.631496016061,inf,0.
6.66,5760.,0.,0.,4272.,0.,0.,10032.,0.667513780841,inf,0.
6.68,5763.,3.,0.,4265.,0.,0.,10031.,0.705350289687,12.2260716879,39.
6.7,5773.,1.,2.,4252.,0.,0.,10028.,0.746572064366,38.821747347,13.
6.72,5788.,1.,0.,4244.,0.,0.,10033.,0.78967290077,41.0629908401,13.
6.74,5805.,2.,0.,4229.,0.,0.,10036.,0.834410814705,21.6946811823,26.
6.76,5805.,2.,0.,4226.,0.,0.,10033.,0.877667495726,22.8193548889,26.
6.78,5807.,2.,1.,4219.,0.,0.,10029.,0.921019832307,23.94651564,26.
6.8,5817.,0.,1.,4210.,0.,0.,10028.,0.964460841216,inf,0.
6.82,5827.,2.,0.,4201.,0.,0.,10030.,1.00607681497,26.1579971893,26.
6.84,5840.,3.,0.,4188.,0.,0.,10031.,1.04614311362,18.1331473027,39.
6.86,5848.,3.,2.,4176.,0.,0.,10029.,1.08285034608,18.7694059988,39.
6.88,5848.,7.,0.,4175.,0.,0.,10030.,1.1143349461,8.27791674249,91.
6.9,5851.,6.,2.,4167.,0.,0.,10026.,1.14300173465,9.90601503361,78.
6.92,5858.,8.,3.,4160.,0.,0.,10029.,1.16729094905,7.5873911688,104.
6.94,5861.,10.,4.,4150.,0.,0.,10025.,1.18685770267,6.17166005389,130.
6.96,5872.,8.,7.,4141.,0.,0.,10028.,1.20217952527,7.81416691422,104.
6.98,5866.,13.,4.,4140.,0.,0.,10023.,1.20970178745,4.83880714978,169.
7.,5865.,16.,6.,4138.,0.,0.,10025.,1.21198480101,3.9389506033,208.
7.02,5863.,18.,9.,4137.,0.,0.,10027.,1.20860078868,3.49151338953,234.
7.04,5855.,18.,11.,4139.,0.,0.,10023.,1.1992970751,3.46463599473,234.
7.06,5856.,20.,8.,4137.,0.,0.,10021.,1.18631854229,3.08442820995,260.
7.08,5855.,23.,3.,4138.,0.,0.,10019.,1.16785763644,2.64037378674,299.
7.1,5859.,20.,9.,4130.,0.,0.,10018.,1.14547855322,2.97824423837,260.
7.12,5864.,19.,15.,4122.,0.,0.,10020.,1.11849889556,3.06115487206,247.
7.14,5851.,32.,9.,4127.,0.,0.,10019.,1.08448719514,1.76229169211,416.
7.16,5842.,37.,13.,4128.,0.,0.,10020.,1.04765023562,1.47237330411,481.
7.18,5833.,31.,25.,4129.,0.,0.,10018.,1.00831912544,1.69137401687,403.
7.2,5822.,43.,12.,4144.,0.,0.,10021.,0.965964130031,1.16814266887,559.
7.22,5822.,29.,30.,4138.,0.,0.,10019.,0.924320556628,1.6574023774,377.
7.24,5798.,40.,21.,4159.,0.,0.,10018.,0.877921705354,1.14129821696,520.
7.26,5796.,39.,15.,4171.,0.,0.,10021.,0.834364211439,1.11248561525,507.
7.28,5796.,31.,20.,4175.,0.,0.,10022.,0.791632294319,1.32789933241,403.
7.3,5779.,31.,19.,4195.,0.,0.,10024.,0.747646215834,1.25411623301,403.
7.32,5770.,26.,16.,4212.,0.,0.,10024.,0.706700201336,1.41340040267,338.
7.34,5763.,26.,10.,4227.,0.,0.,10026.,0.668261121973,1.33652224395,338.
7.36,5764.,16.,19.,4231.,0.,0.,10030.,0.633552396696,2.05904528926,208.
7.38,5771.,15.,12.,4237.,0.,0.,10035.,0.602844698499,2.08986162146,195.
7.4,5772.,18.,6.,4239.,0.,0.,10035.,0.575696623919,1.66312358021,234.
7.42,5773.,14.,12.,4235.,0.,0.,10034.,0.552938663942,2.05377218036,182.
7.44,5783.,9.,11.,4232.,0.,0.,10035.,0.535602735177,3.09459358102,117.
7.46,5790.,8.,5.,4229.,0.,0.,10032.,0.523154484443,3.40050414888,104.
7.48,5800.,10.,0.,4225.,0.,0.,10035.,0.515851167523,2.68242607112,130.
7.5,5807.,8.,1.,4218.,0.,0.,10034.,0.513824114477,3.3398567441,104.
7.52,5813.,4.,2.,4212.,0.,0.,10031.,0.517213549503,6.72377614354,52.
7.54,5823.,3.,1.,4207.,0.,0.,10034.,0.526031323262,9.11787626987,39.
7.56,5827.,3.,0.,4204.,0.,0.,10034.,0.539731657627,9.35534873221,39.
7.58,5838.,1.,2.,4195.,0.,0.,10036.,0.559052940373,29.0707528994,13.
7.6,5849.,0.,1.,4185.,0.,0.,10035.,0.583376568486,inf,0.
7.62,5861.,1.,0.,4172.,0.,0.,10034.,0.612307209832,31.8399749113,13.
7.64,5868.,0.,1.,4163.,0.,0.,10032.,0.64485501361,inf,0.
7.66,5875.,2.,0.,4155.,0.,0.,10032.,0.680840878896,17.7018628513,26.
7.68,5879.,2.,1.,4147.,0.,0.,10029.,0.71969135967,18.7119753514,26.
7.7,5887.,2.,3.,4134.,0.,0.,10026.,0.761466564587,19.7981306793,26.
7.72,5895.,1.,1.,4128.,0.,0.,10025.,0.804913020113,41.8554770459,13.
7.74,5906.,2.,2.,4114.,0.,0.,10024.,0.849944831908,22.0985656296,26.
7.76,5910.,2.,2.,4109.,0.,0.,10023.,0.894434110574,23.2552868749,26.
7.78,5919.,2.,0.,4101.,0.,0.,10022.,0.939439309797,24.4254220547,26.
7.8,5928.,3.,1.,4091.,0.,0.,10023.,0.983354988625,17.0448198028,39.
7.82,5932.,3.,2.,4085.,0.,0.,10022.,1.02502344669,17.7670730759,39.
7.84,5936.,6.,0.,4081.,0.,0.,10023.,1.06418870665,9.22296879098,78.
7.86,5945.,6.,2.,4076.,0.,0.,10029.,1.10081144108,9.54036582273,78.
7.88,5958.,7.,1.,4067.,0.,0.,10033.,1.13495595038,8.43110134565,91.
7.9,5964.,8.,4.,4052.,0.,0.,10028.,1.16484409157,7.57148659518,104.
7.92,5969.,8.,4.,4048.,0.,0.,10029.,1.18940929923,7.73116044496,104.
7.94,5972.,8.,4.,4045.,0.,0.,10029.,1.20885296585,7.85754427805,104.
7.96,5982.,13.,2.,4032.,0.,0.,10029.,1.22457780242,4.89831120969,169.
7.98,5980.,20.,3.,4024.,0.,0.,10027.,1.23271920797,3.20506994072,260.
8.,5980.,15.,12.,4017.,0.,0.,10024.,1.23587248793,4.28435795815,195.
8.02,5978.,16.,15.,4013.,0.,0.,10022.,1.2329217282,4.00699561665,208.
8.04,5965.,25.,9.,4024.,0.,0.,10023.,1.22182870247,2.54140370114,325.
8.06,5960.,33.,8.,4026.,0.,0.,10027.,1.20666455947,1.90141082098,429.
8.08,5957.,32.,12.,4024.,0.,0.,10025.,1.18749174943,1.92967409282,416.
8.1,5952.,27.,18.,4028.,0.,0.,10025.,1.16284822128,2.23955953728,351.
8.12,5936.,34.,20.,4036.,0.,0.,10026.,1.13155459226,1.73061290581,442.
8.14,5923.,36.,11.,4057.,0.,0.,10027.,1.09695654759,1.58449279096,468.
8.16,5913.,31.,17.,4066.,0.,0.,10027.,1.05964244962,1.7774647542,403.
8.18,5903.,22.,19.,4080.,0.,0.,10024.,1.0198088605,2.41045730665,286.
8.2,5887.,35.,13.,4088.,0.,0.,10023.,0.97655378172,1.45087990427,455.
8.22,5878.,29.,18.,4094.,0.,0.,10019.,0.933211307431,1.67334441332,377.
8.24,5865.,33.,18.,4102.,0.,0.,10018.,0.888066712988,1.39937785077,429.
8.26,5858.,34.,18.,4116.,0.,0.,10026.,0.84286888119,1.289093583,442.
8.28,5850.,36.,15.,4127.,0.,0.,10028.,0.798529684412,1.15343176637,468.
8.3,5842.,34.,18.,4133.,0.,0.,10027.,0.75557058254,1.155578538,442.
8.32,5846.,29.,15.,4141.,0.,0.,10031.,0.715508900488,1.28298147674,377.
8.34,5841.,28.,14.,4150.,0.,0.,10033.,0.676833225957,1.25697599106,364.
8.36,5824.,30.,18.,4155.,0.,0.,10027.,0.640338848093,1.10992067003,390.
8.38,5832.,18.,14.,4165.,0.,0.,10029.,0.609581295448,1.7610126313,234.
8.4,5833.,18.,3.,4175.,0.,0.,10029.,0.582128794919,1.68170540754,234.
8.42,5834.,17.,3.,4174.,0.,0.,10028.,0.559115584211,1.71023590465,221.
8.44,5839.,12.,7.,4172.,0.,0.,10030.,0.541058859733,2.34458839218,156.
8.46,5846.,9.,5.,4171.,0.,0.,10031.,0.5282670133,3.05220941018,117.
8.48,5859.,8.,3.,4165.,0.,0.,10035.,0.521098619054,3.38714102385,104.
8.5,5871.,7.,5.,4154.,0.,0.,10037.,0.519331791602,3.85789330904,91.
8.52,5882.,4.,2.,4149.,0.,0.,10037.,0.523039992606,6.79951990387,52.
8.54,5891.,0.,4.,4146.,0.,0.,10041.,0.531803226404,inf,0.
8.56,5901.,0.,0.,4139.,0.,0.,10040.,0.546259336055,inf,0.
8.58,5916.,0.,0.,4126.,0.,0.,10042.,0.566183809628,inf,0.
8.6,5926.,0.,0.,4117.,0.,0.,10043.,0.590585692372,inf,0.
8.62,5937.,0.,0.,4110.,0.,0.,10047.,0.619444491397,inf,0.
8.64,5942.,0.,0.,4101.,0.,0.,10043.,0.65227192161,inf,0.
8.66,5957.,0.,0.,4088.,0.,0.,10045.,0.689450252883,inf,0.
8.68,5961.,0.,0.,4079.,0.,0.,10040.,0.72893007449,inf,0.
8.7,5967.,0.,0.,4074.,0.,0.,10041.,0.770661340901,inf,0.
8.72,5969.,1.,0.,4067.,0.,0.,10037.,0.814042686943,42.3302197211,13.
8.74,5981.,0.,0.,4058.,0.,0.,10039.,0.859452147417,inf,0.
8.76,5986.,0.,0.,4052.,0.,0.,10038.,0.904582379823,inf,0.
8.78,5989.,1.,0.,4050.,0.,0.,10040.,0.948845249317,49.3399529645,13.
8.8,5996.,1.,0.,4043.,0.,0.,10040.,0.992950896107,51.6334465976,13.
8.82,6001.,2.,0.,4036.,0.,0.,10039.,1.03519038194,26.9149499305,26.
8.84,6011.,0.,2.,4026.,0.,0.,10039.,1.07591697028,inf,0.
8.86,6018.,7.,2.,4016.,0.,0.,10043.,1.11277517338,8.26632985938,91.
8.88,6018.,10.,3.,4010.,0.,0.,10041.,1.14547215322,5.95645519676,130.
8.9,6017.,13.,3.,4009.,0.,0.,10042.,1.17355726443,4.69422905772,169.
8.92,6023.,9.,4.,4007.,0.,0.,10043.,1.19849653437,6.92464664301,117.
8.94,6027.,7.,6.,4002.,0.,0.,10042.,1.21840672391,9.05102137761,91.
8.96,6025.,14.,4.,4000.,0.,0.,10043.,1.23166101165,4.57474090043,182.
8.98,6029.,9.,4.,3999.,0.,0.,10041.,1.24108724096,7.17072628112,117.
9.,6031.,12.,3.,3993.,0.,0.,10039.,1.24455018196,5.39305078847,156.
9.02,6038.,14.,4.,3984.,0.,0.,10040.,1.24306371602,4.61709380235,182.
9.04,6034.,15.,11.,3977.,0.,0.,10037.,1.23423820946,4.27869245945,195.
9.06,6032.,24.,7.,3977.,0.,0.,10040.,1.21966042614,2.64259758998,312.
9.08,6025.,27.,11.,3979.,0.,0.,10042.,1.19901389567,2.30921194722,351.
9.1,6019.,25.,12.,3986.,0.,0.,10042.,1.17394734496,2.44181047751,325.
9.12,6017.,29.,7.,3991.,0.,0.,10044.,1.14493973283,2.052995383,377.
9.14,6016.,29.,9.,3991.,0.,0.,10045.,1.11218387338,1.99426073847,377.
9.16,6018.,26.,15.,3988.,0.,0.,10047.,1.07631220497,2.15262440995,338.
9.18,5995.,37.,9.,4004.,0.,0.,10045.,1.03353765056,1.45253940078,481.
9.2,5990.,30.,16.,4008.,0.,0.,10044.,0.991562238086,1.71870787935,390.
9.22,5979.,36.,17.,4012.,0.,0.,10044.,0.946883691496,1.36772088772,468.
9.24,5970.,31.,13.,4026.,0.,0.,10040.,0.90198480442,1.5130067687,403.
9.26,5969.,25.,14.,4032.,0.,0.,10040.,0.85764235158,1.78389609129,325.
9.28,5963.,29.,9.,4036.,0.,0.,10037.,0.813224416526,1.4581955055,377.
9.3,5968.,21.,13.,4037.,0.,0.,10039.,0.770944054022,1.90900432425,273.
9.32,5967.,21.,7.,4044.,0.,0.,10039.,0.729736456523,1.80696646377,273.
9.34,5973.,14.,14.,4040.,0.,0.,10041.,0.69157744988,2.56871624241,182.
9.36,5976.,19.,7.,4040.,0.,0.,10042.,0.656069533985,1.79555872459,247.
9.38,5982.,13.,6.,4043.,0.,0.,10044.,0.624326045607,2.49730418243,169.
9.4,5983.,13.,9.,4040.,0.,0.,10045.,0.596147598465,2.38459039386,169.
9.42,5984.,12.,5.,4042.,0.,0.,10043.,0.572634645545,2.48141679736,156.
9.44,5981.,12.,7.,4038.,0.,0.,10038.,0.553775300917,2.39969297064,156.
9.46,5986.,8.,8.,4034.,0.,0.,10036.,0.540648462195,3.51421500427,104.
9.48,5988.,7.,4.,4033.,0.,0.,10032.,0.532731122459,3.95743119541,91.
9.5,5993.,6.,0.,4032.,0.,0.,10031.,0.530440652229,4.59715231932,78.
9.52,6000.,4.,2.,4026.,0.,0.,10032.,0.533798719899,6.93938335868,52.
9.54,6013.,1.,6.,4014.,0.,0.,10034.,0.543195319727,28.2461566258,13.
9.56,6020.,3.,1.,4006.,0.,0.,10030.,0.557830850418,9.66906807392,39.
9.58,6026.,2.,2.,3999.,0.,0.,10029.,0.577458786708,15.0139284544,26.
9.6,6031.,2.,0.,3993.,0.,0.,10026.,0.602069137056,15.6537975635,26.
9.62,6039.,2.,0.,3985.,0.,0.,10026.,0.631406542817,16.4165701132,26.
9.64,6043.,0.,1.,3978.,0.,0.,10022.,0.664749003378,inf,0.
9.66,6051.,0.,1.,3968.,0.,0.,10020.,0.70207693826,inf,0.
9.68,6064.,0.,1.,3959.,0.,0.,10024.,0.742708842444,inf,0.
9.7,6075.,1.,0.,3953.,0.,0.,10029.,0.785548771863,40.8485361369,13.
9.72,6083.,2.,1.,3945.,0.,0.,10031.,0.830086040501,21.582237053,26.
9.74,6087.,2.,0.,3942.,0.,0.,10031.,0.875381621053,22.7599221474,26.
9.76,6099.,1.,2.,3930.,0.,0.,10032.,0.922209756826,47.9549073549,13.
9.78,6110.,1.,0.,3920.,0.,0.,10031.,0.968883962009,50.3819660245,13.
9.8,6120.,1.,1.,3913.,0.,0.,10035.,1.01399054645,52.7275084153,13.
9.82,6129.,4.,2.,3899.,0.,0.,10034.,1.05779760747,13.7513688971,52.
9.84,6137.,6.,3.,3891.,0.,0.,10037.,1.09868876376,9.52196928592,78.
9.86,6138.,8.,6.,3883.,0.,0.,10035.,1.13586891451,7.3831479443,104.
9.88,6139.,11.,2.,3883.,0.,0.,10035.,1.16920207128,5.52713706423,143.
9.9,6140.,6.,5.,3887.,0.,0.,10038.,1.19802442233,10.3828783268,78.
9.92,6142.,10.,6.,3885.,0.,0.,10043.,1.22217594456,6.35531491171,130.
9.94,6151.,8.,6.,3879.,0.,0.,10044.,1.24322671993,8.08097367954,104.
9.96,6145.,8.,9.,3882.,0.,0.,10044.,1.25606695046,8.16443517797,104.
9.98,6144.,13.,1.,3885.,0.,0.,10043.,1.26450845747,5.05803382989,169.
10.,6146.,9.,4.,3885.,0.,0.,10044.,1.26765008617,7.32420049786,117.
