t,s,e,i,r,c,o,n,reff,coal,reportr
5.,6799.,11.,9.,3182.,0.,0.,10001.,1.15960643081,5.48177585475,143.
5.02,6791.,18.,9.,3184.,0.,0.,10002.,1.15551699458,3.33816020655,234.
5.04,6778.,21.,13.,3190.,0.,0.,10002.,1.14553346932,2.83655906689,273.
5.06,6770.,24.,10.,3201.,0.,0.,10005.,1.13104100748,2.45058884955,312.
5.08,6760.,29.,11.,3203.,0.,0.,10003.,1.11198587858,1.99390571331,377.
5.1,6746.,34.,17.,3210.,0.,0.,10007.,1.08713228056,1.66267289968,442.
5.12,6727.,39.,17.,3227.,0.,0.,10010.,1.05752862728,1.41003816971,507.
5.14,6716.,38.,19.,3236.,0.,0.,10009.,1.0259688334,1.40395735097,494.
5.16,6686.,46.,28.,3249.,0.,0.,10009.,0.988311001407,1.11722113203,598.
5.18,6660.,44.,18.,3287.,0.,0.,10009.,0.948781173567,1.12128684149,572.
5.2,6659.,37.,22.,3293.,0.,0.,10011.,0.910598387848,1.27975989644,481.
5.22,6634.,46.,23.,3310.,0.,0.,10013.,0.86772378326,0.980905146294,598.
5.24,6622.,46.,16.,3329.,0.,0.,10013.,0.825998057328,0.933736934371,598.
5.26,6615.,38.,18.,3343.,0.,0.,10014.,0.784614043582,1.07368237543,494.
5.28,6611.,33.,21.,3347.,0.,0.,10012.,0.744202806445,1.17268321016,429.
5.3,6610.,29.,22.,3355.,0.,0.,10016.,0.704672152929,1.26355006732,377.
5.32,6602.,28.,25.,3359.,0.,0.,10014.,0.666444296624,1.23768226516,364.
5.34,6601.,28.,11.,3375.,0.,0.,10015.,0.630927588528,1.17172266441,364.
5.36,6598.,22.,14.,3380.,0.,0.,10014.,0.598080559592,1.41364495903,286.
5.38,6597.,17.,1.,3399.,0.,0.,10014.,0.568599022052,1.73924406745,221.
5.4,6599.,14.,5.,3397.,0.,0.,10015.,0.543009433633,2.01689218207,182.
5.42,6604.,10.,5.,3398.,0.,0.,10017.,0.521692209834,2.71279949114,130.
5.44,6605.,5.,9.,3399.,0.,0.,10018.,0.504538402918,5.24719939034,65.
5.46,6603.,10.,3.,3401.,0.,0.,10017.,0.49196929532,2.55824033566,130.
5.48,6608.,6.,5.,3395.,0.,0.,10014.,0.484921802911,4.20265562523,78.
5.5,6611.,7.,0.,3400.,0.,0.,10018.,0.482412270393,3.58363400863,91.
5.52,6618.,3.,4.,3393.,0.,0.,10018.,0.485461730198,8.4146699901,39.
5.54,6620.,2.,2.,3392.,0.,0.,10016.,0.493285158024,12.8254141086,26.
5.56,6624.,2.,1.,3388.,0.,0.,10015.,0.506141332016,13.1596746324,26.
5.58,6632.,1.,1.,3382.,0.,0.,10016.,0.523956415688,27.2457336158,13.
5.6,6643.,2.,0.,3376.,0.,0.,10021.,0.546302754385,14.203871614,26.
5.62,6653.,2.,1.,3366.,0.,0.,10022.,0.572967959003,14.8971669341,26.
5.64,6656.,3.,2.,3365.,0.,0.,10026.,0.602615884141,10.4453419918,39.
5.66,6655.,3.,0.,3364.,0.,0.,10022.,0.635644656488,11.0178407125,39.
5.68,6662.,2.,1.,3356.,0.,0.,10021.,0.672031281533,17.4728133199,26.
5.7,6668.,1.,0.,3350.,0.,0.,10019.,0.710642505713,36.9534102971,13.
5.72,6674.,0.,1.,3343.,0.,0.,10018.,0.750844773712,inf,0.
5.74,6680.,0.,0.,3338.,0.,0.,10018.,0.792007420908,inf,0.
5.76,6686.,0.,0.,3329.,0.,0.,10015.,0.833814578828,inf,0.
5.78,6690.,1.,0.,3324.,0.,0.,10015.,0.874873806828,45.4934379551,13.
5.8,6693.,1.,2.,3318.,0.,0.,10014.,0.914973595965,47.5786269902,13.
5.82,6703.,2.,2.,3309.,0.,0.,10016.,0.954239570831,24.8102288416,26.
5.84,6707.,3.,4.,3302.,0.,0.,10016.,0.990722296933,17.1725198135,39.
5.86,6708.,6.,3.,3298.,0.,0.,10015.,1.02413278735,8.87581749034,78.
5.88,6722.,8.,0.,3289.,0.,0.,10019.,1.05579332967,6.86265664289,104.
5.9,6729.,10.,1.,3279.,0.,0.,10019.,1.08309389081,5.63208823223,130.
5.92,6732.,10.,2.,3275.,0.,0.,10019.,1.10561157193,5.74918017402,130.
5.94,6734.,7.,7.,3271.,0.,0.,10019.,1.12345455886,8.34566243725,91.
5.96,6723.,15.,8.,3272.,0.,0.,10018.,1.13442333728,3.93266756922,195.
5.98,6722.,14.,10.,3271.,0.,0.,10017.,1.14206360373,4.24195052813,182.
6.,6707.,19.,8.,3281.,0.,0.,10015.,1.14231624757,3.12633920388,247.
6.02,6701.,18.,12.,3280.,0.,0.,10011.,1.13917806368,3.29095885064,234.
6.04,6694.,22.,9.,3285.,0.,0.,10010.,1.13043266616,2.67193175637,286.
6.06,6689.,18.,14.,3290.,0.,0.,10011.,1.11683884296,3.22642332411,234.
6.08,6678.,26.,10.,3295.,0.,0.,10009.,1.09783878675,2.19567757351,338.
6.1,6672.,26.,14.,3300.,0.,0.,10012.,1.07467006365,2.1493401273,338.
6.12,6668.,29.,10.,3304.,0.,0.,10011.,1.04814872922,1.87943910066,377.
6.14,6654.,37.,15.,3303.,0.,0.,10009.,1.01649741177,1.42859095709,481.
6.16,6635.,41.,15.,3317.,0.,0.,10008.,0.980870283355,1.24403060328,533.
6.18,6629.,36.,19.,3320.,0.,0.,10004.,0.944836918526,1.36476443787,468.
6.2,6612.,44.,19.,3326.,0.,0.,10001.,0.905075358908,1.06963451507,572.
6.22,6603.,40.,18.,3338.,0.,0.,9999.,0.864878256751,1.12434173378,520.
6.24,6601.,34.,20.,3345.,0.,0.,10000.,0.824449005369,1.26092200821,442.
6.26,6596.,30.,20.,3356.,0.,0.,10002.,0.783299072822,1.35771839289,390.
6.28,6582.,28.,16.,3374.,0.,0.,10000.,0.741827391237,1.37767944087,364.
6.3,6567.,36.,6.,3388.,0.,0.,9997.,0.701418619161,1.01316022768,468.
6.32,6567.,31.,12.,3388.,0.,0.,9998.,0.663972063044,1.11375958962,403.
6.34,6575.,26.,14.,3391.,0.,0.,10006.,0.629007751827,1.25801550365,338.
6.36,6573.,28.,6.,3400.,0.,0.,10007.,0.596231194563,1.10728650419,364.
6.38,6581.,20.,6.,3401.,0.,0.,10008.,0.567560033276,1.47565608652,260.
6.4,6587.,16.,5.,3404.,0.,0.,10012.,0.542184405846,1.762099319,208.
6.42,6594.,9.,5.,3404.,0.,0.,10012.,0.521162384814,3.01116044559,117.
6.44,6601.,9.,3.,3398.,0.,0.,10011.,0.504585428709,2.91538247699,117.
6.46,6606.,9.,4.,3394.,0.,0.,10013.,0.492389437645,2.84491675084,117.
6.48,6605.,6.,6.,3396.,0.,0.,10013.,0.484750057997,4.2011671693,78.
6.5,6611.,6.,4.,3393.,0.,0.,10014.,0.482604965528,4.18257636791,78.
6.52,6617.,4.,0.,3393.,0.,0.,10014.,0.485582259362,6.3125693717,52.
6.54,6623.,0.,3.,3385.,0.,0.,10011.,0.493755184366,inf,0.
6.56,6630.,0.,0.,3384.,0.,0.,10014.,0.506650382522,inf,0.
6.58,6640.,0.,0.,3376.,0.,0.,10016.,0.524588449965,inf,0.
6.6,6646.,0.,0.,3369.,0.,0.,10015.,0.546876904974,inf,0.
6.62,6652.,0.,0.,3363.,0.,0.,10015.,0.573282253921,inf,0.
6.64,6656.,0.,0.,3356.,0.,0.,10012.,0.603458535197,inf,0.
6.66,6664.,0.,0.,3347.,0.,0.,10011.,0.637203666502,inf,0.
6.68,6676.,1.,0.,3339.,0.,0.,10016.,0.673779719676,35.0365454231,13.
6.7,6682.,1.,1.,3330.,0.,0.,10014.,0.712490126046,37.0494865544,13.
6.72,6688.,1.,1.,3323.,0.,0.,10013.,0.752795536661,39.1453679064,13.
6.74,6697.,1.,1.,3315.,0.,0.,10014.,0.794340173828,41.305689039,13.
6.76,6701.,1.,0.,3313.,0.,0.,10015.,0.835685236723,43.4556323096,13.
6.78,6709.,1.,0.,3303.,0.,0.,10013.,0.877533744632,45.6317547209,13.
6.8,6714.,1.,2.,3297.,0.,0.,10014.,0.917844423026,47.7279099973,13.
6.82,6725.,2.,1.,3288.,0.,0.,10016.,0.957371492442,24.8916588035,26.
6.84,6733.,4.,2.,3281.,0.,0.,10020.,0.994165847284,12.9241560147,52.
6.86,6740.,7.,3.,3271.,0.,0.,10021.,1.02840221718,7.63955932762,91.
6.88,6744.,9.,0.,3270.,0.,0.,10023.,1.05882604029,6.11766156614,117.
6.9,6750.,9.,2.,3260.,0.,0.,10021.,1.0862571928,6.27615266953,117.
6.92,6747.,6.,2.,3265.,0.,0.,10020.,1.10796446949,9.60235873557,78.
6.94,6758.,6.,4.,3256.,0.,0.,10024.,1.12689617535,9.76643351966,78.
6.96,6753.,13.,4.,3253.,0.,0.,10023.,1.13891703196,4.55566812785,169.
6.98,6751.,14.,7.,3250.,0.,0.,10022.,1.1464184492,4.25812566846,182.
7.,6736.,25.,4.,3252.,0.,0.,10017.,1.14702637944,2.38581486924,325.
7.02,6724.,26.,12.,3254.,0.,0.,10016.,1.14251746033,2.28503492065,338.
7.04,6722.,22.,15.,3261.,0.,0.,10020.,1.13402820148,2.68043029442,286.
7.06,6706.,30.,15.,3267.,0.,0.,10018.,1.11889490744,1.93941783956,390.
7.08,6695.,28.,17.,3279.,0.,0.,10019.,1.09953497832,2.04199353117,364.
7.1,6670.,42.,10.,3296.,0.,0.,10018.,1.07370446981,1.32934839119,546.
7.12,6661.,32.,17.,3306.,0.,0.,10016.,1.04652570522,1.70060427099,416.
7.14,6650.,36.,18.,3314.,0.,0.,10018.,1.01497369738,1.46607311843,468.
7.16,6643.,26.,23.,3323.,0.,0.,10015.,0.981366537889,1.96273307578,338.
7.18,6631.,32.,16.,3336.,0.,0.,10015.,0.944083903137,1.5341363426,416.
7.2,6625.,37.,15.,3342.,0.,0.,10019.,0.905225604502,1.27220895768,481.
7.22,6619.,31.,18.,3351.,0.,0.,10019.,0.865243319008,1.45137588995,403.
7.24,6601.,35.,24.,3356.,0.,0.,10016.,0.823131994178,1.22293896278,455.
7.26,6590.,36.,19.,3372.,0.,0.,10017.,0.781414663307,1.12871006922,468.
7.28,6581.,35.,19.,3381.,0.,0.,10016.,0.740529838028,1.10021575936,455.
7.3,6575.,32.,23.,3385.,0.,0.,10015.,0.701010897656,1.13914270869,416.
7.32,6561.,25.,30.,3399.,0.,0.,10015.,0.662239386693,1.37745792432,325.
7.34,6546.,32.,19.,3419.,0.,0.,10016.,0.62560818801,1.01661330552,416.
7.36,6554.,24.,10.,3433.,0.,0.,10021.,0.593677154234,1.28630050084,312.
7.38,6557.,15.,16.,3435.,0.,0.,10023.,0.56464393119,1.95743229479,195.
7.4,6561.,14.,2.,3444.,0.,0.,10021.,0.539559291212,2.00407736736,182.
7.42,6568.,11.,6.,3437.,0.,0.,10022.,0.518589484831,2.45151392829,143.
7.44,6566.,13.,6.,3432.,0.,0.,10017.,0.501609367336,2.00643746934,169.
7.46,6570.,10.,4.,3434.,0.,0.,10018.,0.489461703345,2.54520085739,130.
7.48,6572.,8.,1.,3438.,0.,0.,10019.,0.482039294417,3.13325541371,104.
7.5,6581.,6.,3.,3428.,0.,0.,10018.,0.480223135903,4.16193384449,78.
7.52,6588.,4.,3.,3424.,0.,0.,10019.,0.483212853259,6.28176709237,52.
7.54,6595.,1.,3.,3422.,0.,0.,10021.,0.491177102428,25.5412093263,13.
7.56,6604.,2.,0.,3421.,0.,0.,10027.,0.504009222302,13.1042397799,26.
7.58,6611.,0.,1.,3413.,0.,0.,10025.,0.521828430356,inf,0.
7.6,6616.,1.,0.,3411.,0.,0.,10028.,0.543702551561,28.2725326812,13.
7.62,6620.,2.,0.,3404.,0.,0.,10026.,0.569898482487,14.8173605447,26.
7.64,6634.,0.,2.,3396.,0.,0.,10032.,0.600264839893,inf,0.
7.66,6633.,0.,0.,3395.,0.,0.,10028.,0.633164287208,inf,0.
7.68,6636.,1.,0.,3392.,0.,0.,10029.,0.668874545322,34.7814763568,13.
7.7,6643.,2.,0.,3385.,0.,0.,10030.,0.70720168259,18.3872437473,26.
7.72,6650.,1.,1.,3379.,0.,0.,10031.,0.747175120197,38.8531062502,13.
7.74,6652.,2.,1.,3372.,0.,0.,10027.,0.787979721807,20.487472767,26.
7.76,6659.,2.,0.,3365.,0.,0.,10026.,0.829536271404,21.5679430565,26.
7.78,6663.,0.,0.,3363.,0.,0.,10026.,0.870386934353,inf,0.
7.8,6672.,0.,0.,3359.,0.,0.,10031.,0.910556986124,inf,0.
7.82,6674.,0.,0.,3354.,0.,0.,10028.,0.948974178813,inf,0.
7.84,6675.,4.,0.,3348.,0.,0.,10027.,0.984913753018,12.8038787892,52.
7.86,6678.,4.,3.,3341.,0.,0.,10026.,1.01843398756,13.2396418383,52.
7.88,6676.,10.,5.,3336.,0.,0.,10027.,1.0477317274,5.4482049825,130.
7.9,6678.,7.,5.,3337.,0.,0.,10027.,1.07402738342,7.978489134,91.
7.92,6673.,17.,5.,3333.,0.,0.,10028.,1.09493829294,3.34922301369,221.
7.94,6675.,12.,6.,3334.,0.,0.,10027.,1.1127229117,4.82179928404,156.
7.96,6661.,18.,7.,3342.,0.,0.,10028.,1.12284077861,3.24376224931,234.
7.98,6657.,18.,12.,3341.,0.,0.,10028.,1.12977949596,3.26380743277,234.
8.,6649.,22.,12.,3345.,0.,0.,10028.,1.13096980181,2.67320134972,286.
8.02,6642.,18.,10.,3355.,0.,0.,10025.,1.12757112766,3.25742770213,234.
8.04,6636.,23.,6.,3358.,0.,0.,10023.,1.11918457339,2.53033033984,299.
8.06,6635.,25.,8.,3358.,0.,0.,10026.,1.1061652279,2.30082367403,325.
8.08,6633.,24.,14.,3360.,0.,0.,10031.,1.088049395,2.35744035583,312.
8.1,6623.,24.,14.,3368.,0.,0.,10029.,1.06496927486,2.30743342886,312.
8.12,6607.,23.,14.,3380.,0.,0.,10024.,1.03721319051,2.34500373507,299.
8.14,6586.,30.,12.,3393.,0.,0.,10021.,1.00490459976,1.74183463958,390.
8.16,6580.,27.,13.,3398.,0.,0.,10018.,0.971768490515,1.87155412988,351.
8.18,6571.,26.,11.,3408.,0.,0.,10016.,0.935448041165,1.87089608233,338.
8.2,6559.,31.,12.,3416.,0.,0.,10018.,0.896296967637,1.5034658812,403.
8.22,6547.,34.,14.,3425.,0.,0.,10020.,0.855745983597,1.30878797491,442.
8.24,6535.,29.,22.,3434.,0.,0.,10020.,0.814576611069,1.46062013019,377.
8.26,6521.,37.,19.,3444.,0.,0.,10021.,0.77292428661,1.08627197037,481.
8.28,6518.,31.,12.,3460.,0.,0.,10021.,0.733074784229,1.22967383161,403.
8.3,6516.,24.,18.,3462.,0.,0.,10020.,0.694373790767,1.50447654666,312.
8.32,6512.,24.,12.,3470.,0.,0.,10018.,0.657096701699,1.42370952035,312.
8.34,6515.,24.,11.,3469.,0.,0.,10019.,0.622459045601,1.34866126547,312.
8.36,6521.,25.,9.,3465.,0.,0.,10020.,0.590746885398,1.22875352163,325.
8.38,6522.,21.,13.,3465.,0.,0.,10021.,0.561742061509,1.39098034278,273.
8.4,6528.,19.,3.,3470.,0.,0.,10020.,0.536899035862,1.46940788762,247.
8.42,6531.,14.,8.,3463.,0.,0.,10016.,0.51597698294,1.91648593663,182.
8.44,6537.,11.,6.,3461.,0.,0.,10015.,0.49949364242,2.36124267326,143.
8.46,6545.,8.,4.,3458.,0.,0.,10015.,0.487745276563,3.17034429766,104.
8.48,6546.,5.,4.,3460.,0.,0.,10015.,0.480324026555,4.99536987617,65.
8.5,6552.,2.,4.,3461.,0.,0.,10019.,0.478059252534,12.4295405659,26.
8.52,6554.,2.,2.,3460.,0.,0.,10018.,0.48076702625,12.4999426825,26.
8.54,6559.,2.,2.,3454.,0.,0.,10017.,0.488690990157,12.7059657441,26.
8.56,6563.,0.,0.,3457.,0.,0.,10020.,0.501230068601,inf,0.
8.58,6569.,2.,0.,3447.,0.,0.,10018.,0.518875536423,13.490763947,26.
8.6,6581.,2.,0.,3433.,0.,0.,10016.,0.541474208074,14.0783294099,26.
8.62,6590.,0.,0.,3426.,0.,0.,10016.,0.567882270571,inf,0.
8.64,6594.,0.,0.,3423.,0.,0.,10017.,0.597538965577,inf,0.
8.66,6604.,0.,0.,3411.,0.,0.,10015.,0.631214330349,inf,0.
8.68,6612.,0.,0.,3401.,0.,0.,10013.,0.667520413532,inf,0.
8.7,6614.,0.,0.,3399.,0.,0.,10013.,0.705309835801,inf,0.
8.72,6622.,0.,0.,3390.,0.,0.,10012.,0.745441080665,inf,0.
8.74,6630.,0.,0.,3381.,0.,0.,10011.,0.786628872488,inf,0.
8.76,6639.,0.,0.,3374.,0.,0.,10013.,0.82811855974,inf,0.
8.78,6651.,0.,2.,3361.,0.,0.,10014.,0.869860501389,inf,0.
8.8,6653.,3.,0.,3359.,0.,0.,10015.,0.909414539632,15.7631853536,39.
8.82,6658.,1.,4.,3352.,0.,0.,10015.,0.947928008911,49.2922564633,13.
8.84,6665.,5.,0.,3345.,0.,0.,10015.,0.984616585131,10.2400124854,65.
8.86,6669.,6.,4.,3333.,0.,0.,10012.,1.01848361441,8.82685799154,78.
8.88,6673.,8.,2.,3331.,0.,0.,10014.,1.0486204431,6.81603288017,104.
8.9,6674.,6.,7.,3327.,0.,0.,10014.,1.07477750909,9.31473841213,78.
8.92,6676.,9.,5.,3325.,0.,0.,10015.,1.09685247435,6.3373698518,117.
8.94,6676.,14.,5.,3321.,0.,0.,10016.,1.11411183478,4.13812967204,182.
8.96,6681.,12.,8.,3314.,0.,0.,10015.,1.12767404961,4.88658754833,156.
8.98,6682.,17.,5.,3311.,0.,0.,10015.,1.13549434215,3.47327681129,221.
9.,6686.,17.,6.,3308.,0.,0.,10017.,1.13851222877,3.48250799387,221.
9.02,6685.,18.,6.,3309.,0.,0.,10018.,1.13566395316,3.28080697581,234.
9.04,6681.,20.,9.,3306.,0.,0.,10016.,1.12756146235,2.93165980211,260.
9.06,6676.,24.,10.,3310.,0.,0.,10020.,1.11366707956,2.41294533904,312.
9.08,6669.,28.,7.,3317.,0.,0.,10021.,1.09504634563,2.03365749902,364.
9.1,6663.,26.,19.,3316.,0.,0.,10024.,1.07193563775,2.14387127551,338.
9.12,6652.,27.,16.,3330.,0.,0.,10025.,1.04417343872,2.0110006968,351.
9.14,6639.,35.,19.,3331.,0.,0.,10024.,1.01268827229,1.50456543312,455.
9.16,6631.,35.,21.,3341.,0.,0.,10028.,0.978323868692,1.45350974777,455.
9.18,6621.,40.,15.,3353.,0.,0.,10029.,0.941344252167,1.22374752782,520.
9.2,6612.,33.,26.,3360.,0.,0.,10031.,0.902368524019,1.42191403785,429.
9.22,6601.,40.,15.,3376.,0.,0.,10032.,0.861772158968,1.12030380666,520.
9.24,6597.,36.,16.,3385.,0.,0.,10034.,0.82115747957,1.18611635938,468.
9.26,6583.,36.,16.,3397.,0.,0.,10032.,0.779417490463,1.125825264,468.
9.28,6581.,30.,19.,3403.,0.,0.,10033.,0.739275078011,1.28141013522,390.
9.3,6575.,26.,17.,3414.,0.,0.,10032.,0.699822980465,1.39964596093,338.
9.32,6577.,25.,11.,3422.,0.,0.,10035.,0.66253128058,1.37806506361,325.
9.34,6566.,27.,15.,3424.,0.,0.,10032.,0.626518780577,1.20662876259,351.
9.36,6565.,20.,16.,3429.,0.,0.,10030.,0.594139955421,1.54476388409,260.
9.38,6571.,17.,11.,3434.,0.,0.,10033.,0.565285526951,1.72910867067,221.
9.4,6568.,18.,5.,3437.,0.,0.,10028.,0.539757913944,1.55930064028,234.
9.42,6576.,6.,12.,3437.,0.,0.,10031.,0.518755285843,4.49587914398,78.
9.44,6575.,7.,6.,3443.,0.,0.,10031.,0.501595879599,3.72614081988,91.
9.46,6586.,8.,5.,3431.,0.,0.,10030.,0.490066671952,3.18543336769,104.
9.48,6590.,5.,3.,3431.,0.,0.,10029.,0.482877586256,5.02192689706,65.
9.5,6595.,2.,4.,3428.,0.,0.,10029.,0.480716893525,12.4986392316,26.
9.52,6603.,2.,3.,3426.,0.,0.,10034.,0.483589056704,12.5733154743,26.
9.54,6605.,4.,4.,3419.,0.,0.,10032.,0.49138248636,6.38797232269,52.
9.56,6609.,3.,1.,3416.,0.,0.,10029.,0.504290229739,8.74103064881,39.
9.58,6621.,1.,2.,3407.,0.,0.,10031.,0.522305162343,27.1598684418,13.
9.6,6632.,1.,1.,3398.,0.,0.,10032.,0.544800119191,28.3296061979,13.
9.62,6635.,0.,1.,3395.,0.,0.,10031.,0.570905080959,inf,0.
9.64,6647.,1.,0.,3386.,0.,0.,10034.,0.601321239474,31.2687044526,13.
9.66,6655.,1.,0.,3381.,0.,0.,10037.,0.634694704326,33.0041246249,13.
9.68,6665.,0.,1.,3372.,0.,0.,10038.,0.67119526664,inf,0.
9.7,6672.,2.,0.,3363.,0.,0.,10037.,0.709793600367,18.4546336095,26.
9.72,6678.,2.,0.,3357.,0.,0.,10037.,0.749872587603,19.4966872777,26.
9.74,6680.,1.,1.,3352.,0.,0.,10034.,0.790744502955,41.1187141537,13.
9.76,6682.,1.,1.,3348.,0.,0.,10032.,0.831903618748,43.2589881749,13.
9.78,6691.,2.,0.,3340.,0.,0.,10033.,0.87343475238,22.7093035619,26.
9.8,6700.,1.,1.,3330.,0.,0.,10032.,0.914287122281,47.5429303586,13.
9.82,6705.,1.,1.,3325.,0.,0.,10032.,0.953001923687,49.5561000317,13.
9.84,6712.,2.,2.,3315.,0.,0.,10031.,0.989978275026,25.7394351507,26.
9.86,6717.,5.,2.,3305.,0.,0.,10029.,1.02407528937,10.6503830094,65.
9.88,6718.,8.,1.,3303.,0.,0.,10030.,1.0540078583,6.85105107896,104.
9.9,6726.,9.,2.,3294.,0.,0.,10031.,1.08131589512,6.24760294956,117.
9.92,6728.,11.,6.,3282.,0.,0.,10027.,1.10407305945,5.21925446285,143.
9.94,6729.,11.,3.,3284.,0.,0.,10027.,1.12172471503,5.30269865288,143.
9.96,6734.,11.,4.,3274.,0.,0.,10023.,1.13571261561,5.36882327381,143.
9.98,6738.,12.,1.,3273.,0.,0.,10024.,1.14398256497,4.95725778154,156.
10.,6738.,12.,6.,3269.,0.,0.,10025.,1.14645134093,4.96795581068,156.
