t,prevalence
5.,8
5.02,7
5.04,9
5.06,3
5.08,7
5.1,5
5.12,6
5.14,10
5.16,8
5.18,6
5.2,14
5.22,12
5.24,7
5.26,9
5.28,4
5.3,11
5.32,5
5.34,10
5.36,5
5.38,8
5.4,5
5.42,1
5.44,2
5.46,2
5.48,1
5.5,3
5.52,1
5.54,0
5.56,1
5.58,0
5.6,1
5.62,1
5.64,0
5.66,1
5.68,0
5.7,0
5.72,1
5.74,0
5.76,0
5.78,0
5.8,1
5.82,0
5.84,0
5.86,2
5.88,1
5.9,2
5.92,3
5.94,3
5.96,5
5.98,8
6.,3
6.02,6
6.04,6
6.06,5
6.08,8
6.1,11
6.12,11
6.14,8
6.16,6
6.18,12
6.2,12
6.22,7
6.24,7
6.26,4
6.28,8
6.3,9
6.32,3
6.34,4
6.36,7
6.38,2
6.4,5
6.42,6
6.44,3
6.46,4
6.48,1
6.5,5
6.52,2
6.54,0
6.56,2
6.58,0
6.6,1
6.62,0
6.64,1
6.66,0
6.68,0
6.7,1
6.72,0
6.74,0
6.76,0
6.78,2
6.8,0
6.82,1
6.84,3
6.86,4
6.88,7
6.9,5
6.92,6
6.94,5
6.96,4
6.98,1
7.,0
7.02,3
7.04,4
7.06,5
7.08,8
7.1,12
7.12,8
7.14,4
7.16,10
7.18,11
7.2,9
7.22,10
7.24,13
7.26,11
7.28,7
7.3,12
7.32,5
7.34,6
7.36,5
7.38,5
7.4,5
7.42,5
7.44,3
7.46,3
7.48,1
7.5,1
7.52,1
7.54,0
7.56,0
7.58,0
7.6,0
7.62,0
7.64,0
7.66,0
7.68,0
7.7,0
7.72,0
7.74,1
7.76,0
7.78,0
7.8,0
7.82,1
7.84,1
7.86,1
7.88,0
7.9,1
7.92,1
7.94,5
7.96,8
7.98,1
8.,2
8.02,5
8.04,8
8.06,2
8.08,3
8.1,2
8.12,2
8.14,5
8.16,2
8.18,4
8.2,10
8.22,6
8.24,7
8.26,10
8.28,3
8.3,9
8.32,5
8.34,9
8.36,4
8.38,3
8.4,6
8.42,2
8.44,2
8.46,1
8.48,1
8.5,0
8.52,1
8.54,1
8.56,0
8.58,0
8.6,0
8.62,0
8.64,0
8.66,2
8.68,0
8.7,1
8.72,0
8.74,0
8.76,1
8.78,0
8.8,1
8.82,2
8.84,1
8.86,2
8.88,0
8.9,2
8.92,4
8.94,4
8.96,3
8.98,2
9.,2
9.02,8
9.04,2
9.06,6
9.08,4
9.1,10
9.12,8
9.14,4
9.16,7
9.18,8
9.2,6
9.22,5
9.24,10
9.26,4
9.28,13
9.3,5
9.32,1
9.34,4
9.36,6
9.38,3
9.4,3
9.42,9
9.44,4
9.46,5
9.48,0
9.5,1
9.52,0
9.54,0
9.56,3
9.58,1
9.6,0
9.62,0
9.64,0
9.66,0
9.68,2
9.7,3
9.72,0
9.74,1
9.76,2
9.78,1
9.8,1
9.82,2
9.84,1
9.86,0
9.88,3
9.9,2
9.92,4
9.94,1
9.96,3
9.98,3
10.,2
