t,s,e,i,r,c,o,n,reff,coal,reportr
5.,7462.,24.,6.,2507.,0.,0.,9999.,1.18796224374,2.57391819476,312.
5.02,7459.,17.,16.,2510.,0.,0.,10002.,1.18445393267,3.62303555875,221.
5.04,7460.,21.,13.,2512.,0.,0.,10006.,1.17615987055,2.91239586993,273.
5.06,7450.,23.,10.,2523.,0.,0.,10006.,1.16144195486,2.6258687675,299.
5.08,7444.,15.,16.,2534.,0.,0.,10009.,1.14207199044,3.9591829002,195.
5.1,7423.,36.,8.,2542.,0.,0.,10009.,1.1161528851,1.61222083404,468.
5.12,7415.,35.,15.,2548.,0.,0.,10013.,1.08754361234,1.61577908119,455.
5.14,7410.,36.,13.,2557.,0.,0.,10016.,1.05568177085,1.52487366901,468.
5.16,7402.,32.,19.,2563.,0.,0.,10016.,1.02039347313,1.65813939383,416.
5.18,7385.,34.,19.,2577.,0.,0.,10015.,0.981244024387,1.50072615494,442.
5.2,7369.,30.,25.,2592.,0.,0.,10016.,0.939949507367,1.62924581277,390.
5.22,7345.,39.,18.,2611.,0.,0.,10013.,0.896587736741,1.19545031565,507.
5.24,7335.,33.,22.,2626.,0.,0.,10016.,0.853600829283,1.34506797342,429.
5.26,7320.,33.,15.,2645.,0.,0.,10013.,0.810355606167,1.27692398548,429.
5.28,7306.,28.,15.,2662.,0.,0.,10011.,0.7676127047,1.42556645159,364.
5.3,7302.,30.,9.,2671.,0.,0.,10012.,0.726768195948,1.25973153964,390.
5.32,7302.,26.,15.,2672.,0.,0.,10015.,0.687831020348,1.3756620407,338.
5.34,7305.,24.,16.,2675.,0.,0.,10020.,0.651280684498,1.41110814974,312.
5.36,7300.,21.,19.,2680.,0.,0.,10020.,0.617170360342,1.52823136847,273.
5.38,7297.,16.,17.,2690.,0.,0.,10020.,0.586595593823,1.90643567992,208.
5.4,7295.,17.,5.,2702.,0.,0.,10019.,0.559984594997,1.71289405528,221.
5.42,7302.,13.,3.,2707.,0.,0.,10025.,0.53789482813,2.15157931252,169.
5.44,7302.,11.,5.,2706.,0.,0.,10024.,0.520233320022,2.45928478556,143.
5.46,7305.,12.,4.,2705.,0.,0.,10026.,0.507483416982,2.19909480692,156.
5.48,7301.,10.,7.,2706.,0.,0.,10024.,0.499511527072,2.59745994077,130.
5.5,7306.,8.,2.,2709.,0.,0.,10025.,0.497190089114,3.23173557924,104.
5.52,7310.,3.,3.,2706.,0.,0.,10022.,0.500227084734,8.67060280206,39.
5.54,7317.,2.,1.,2702.,0.,0.,10022.,0.508519945794,13.2215185907,26.
5.56,7324.,4.,0.,2697.,0.,0.,10025.,0.521748667095,6.78273267224,52.
5.58,7330.,2.,0.,2692.,0.,0.,10024.,0.540011287744,14.0402934813,26.
5.6,7338.,0.,2.,2687.,0.,0.,10027.,0.562835980318,inf,0.
5.62,7341.,1.,0.,2684.,0.,0.,10026.,0.589779530705,30.6685355966,13.
5.64,7346.,1.,0.,2674.,0.,0.,10021.,0.620997403263,32.2918649697,13.
5.66,7358.,0.,1.,2666.,0.,0.,10025.,0.655678739235,inf,0.
5.68,7360.,0.,0.,2664.,0.,0.,10024.,0.692672011197,inf,0.
5.7,7374.,0.,0.,2653.,0.,0.,10027.,0.732836420183,inf,0.
5.72,7378.,1.,0.,2647.,0.,0.,10026.,0.774017710873,40.2489209654,13.
5.74,7385.,1.,0.,2640.,0.,0.,10026.,0.816491326177,42.4575489612,13.
5.76,7388.,2.,0.,2637.,0.,0.,10027.,0.858825434643,22.3294613007,26.
5.78,7396.,2.,0.,2627.,0.,0.,10025.,0.90173251863,23.4450454844,26.
5.8,7403.,2.,1.,2622.,0.,0.,10028.,0.943156382506,24.5220659452,26.
5.82,7410.,2.,2.,2615.,0.,0.,10029.,0.983191364952,25.5629754887,26.
5.84,7414.,4.,4.,2608.,0.,0.,10030.,1.02062113111,13.2680747044,52.
5.86,7412.,11.,5.,2604.,0.,0.,10032.,1.05428254778,4.98388113495,143.
5.88,7422.,9.,5.,2595.,0.,0.,10031.,1.08661691764,6.27823107972,117.
5.9,7417.,6.,10.,2596.,0.,0.,10029.,1.11302664871,9.64623095552,78.
5.92,7411.,10.,5.,2604.,0.,0.,10030.,1.13462849323,5.90006816481,130.
5.94,7411.,12.,7.,2601.,0.,0.,10031.,1.15248244472,4.99409059379,156.
5.96,7412.,14.,11.,2597.,0.,0.,10034.,1.16533111532,4.32837271404,182.
5.98,7406.,16.,12.,2601.,0.,0.,10035.,1.17217039444,3.80955378192,208.
6.,7402.,20.,4.,2611.,0.,0.,10037.,1.17394869731,3.052266613,260.
6.02,7398.,16.,12.,2609.,0.,0.,10035.,1.17090420984,3.80543868196,208.
6.04,7389.,21.,10.,2610.,0.,0.,10030.,1.16217830031,2.87777483885,273.
6.06,7381.,23.,11.,2612.,0.,0.,10027.,1.14827504404,2.59610009957,299.
6.08,7376.,22.,9.,2619.,0.,0.,10026.,1.12972050908,2.67024847601,286.
6.1,7366.,23.,9.,2625.,0.,0.,10023.,1.10603507334,2.50060103538,299.
6.12,7359.,30.,11.,2625.,0.,0.,10025.,1.07803823505,1.86859960743,390.
6.14,7356.,24.,18.,2626.,0.,0.,10024.,1.04715215986,2.26882967969,312.
6.16,7348.,25.,17.,2636.,0.,0.,10026.,1.01193904798,2.1048332198,325.
6.18,7339.,29.,10.,2644.,0.,0.,10022.,0.974450916152,1.74729129793,377.
6.2,7328.,24.,21.,2648.,0.,0.,10021.,0.934253390172,2.02421567871,312.
6.22,7307.,35.,16.,2660.,0.,0.,10018.,0.891503988388,1.32452021132,455.
6.24,7294.,28.,21.,2677.,0.,0.,10020.,0.848490654943,1.57576835918,364.
6.26,7276.,34.,14.,2694.,0.,0.,10018.,0.80508259751,1.23130279619,442.
6.28,7275.,30.,13.,2700.,0.,0.,10018.,0.76382156894,1.32395738616,390.
6.3,7265.,29.,16.,2709.,0.,0.,10019.,0.72258038523,1.29566138041,377.
6.32,7258.,26.,13.,2721.,0.,0.,10018.,0.683481587703,1.36696317541,338.
6.34,7254.,20.,8.,2733.,0.,0.,10015.,0.647056638248,1.68234725945,260.
6.36,7243.,21.,12.,2735.,0.,0.,10011.,0.61290186956,1.51766177224,273.
6.38,7243.,18.,10.,2737.,0.,0.,10008.,0.582952756588,1.68408574125,234.
6.4,7237.,15.,11.,2742.,0.,0.,10005.,0.556309709459,1.92854032612,195.
6.42,7239.,10.,9.,2745.,0.,0.,10003.,0.534426800485,2.77901936252,130.
6.44,7238.,10.,6.,2749.,0.,0.,10003.,0.516756209424,2.68713228901,130.
6.46,7233.,13.,0.,2755.,0.,0.,10001.,0.50373760525,2.014950421,169.
6.48,7242.,8.,4.,2747.,0.,0.,10001.,0.496614410467,3.22799366804,104.
6.5,7239.,10.,2.,2750.,0.,0.,10001.,0.493812780333,2.56782645773,130.
6.52,7245.,4.,5.,2748.,0.,0.,10002.,0.496770461011,6.45801599314,52.
6.54,7256.,0.,5.,2743.,0.,0.,10004.,0.505187884158,inf,0.
6.56,7257.,3.,2.,2739.,0.,0.,10001.,0.518216324504,8.9824162914,39.
6.58,7267.,3.,0.,2732.,0.,0.,10002.,0.536547568645,9.30015785651,39.
6.6,7271.,2.,1.,2727.,0.,0.,10001.,0.559146843562,14.5378179326,26.
6.62,7276.,0.,1.,2723.,0.,0.,10000.,0.586077248148,inf,0.
6.64,7285.,0.,0.,2719.,0.,0.,10004.,0.616887251571,inf,0.
6.66,7291.,0.,0.,2715.,0.,0.,10006.,0.650942007774,inf,0.
6.68,7293.,0.,0.,2714.,0.,0.,10007.,0.687532443921,inf,0.
6.7,7303.,0.,0.,2705.,0.,0.,10008.,0.727158240645,inf,0.
6.72,7309.,0.,0.,2698.,0.,0.,10007.,0.768234859201,inf,0.
6.74,7316.,0.,0.,2694.,0.,0.,10010.,0.810155520001,inf,0.
6.76,7329.,1.,0.,2680.,0.,0.,10010.,0.853413817618,44.3775185161,13.
6.78,7334.,1.,1.,2676.,0.,0.,10012.,0.89533440852,46.557389243,13.
6.8,7338.,0.,1.,2670.,0.,0.,10009.,0.936649923772,inf,0.
6.82,7341.,1.,2.,2664.,0.,0.,10008.,0.97607998254,50.7561590921,13.
6.84,7347.,4.,1.,2661.,0.,0.,10013.,1.01311496573,13.1704945545,52.
6.86,7351.,5.,2.,2655.,0.,0.,10013.,1.04758998245,10.8949358175,65.
6.88,7351.,6.,1.,2655.,0.,0.,10013.,1.07815685696,9.34402609362,78.
6.9,7351.,4.,1.,2658.,0.,0.,10014.,1.10477477756,14.3620721083,52.
6.92,7352.,7.,4.,2654.,0.,0.,10017.,1.12705634914,8.37241859361,91.
6.94,7348.,12.,3.,2655.,0.,0.,10018.,1.14416815498,4.95806200492,156.
6.96,7342.,15.,9.,2652.,0.,0.,10018.,1.15616916213,4.0080530954,195.
6.98,7340.,15.,9.,2657.,0.,0.,10021.,1.16334737729,4.03293757459,195.
7.,7342.,16.,7.,2657.,0.,0.,10022.,1.16617558119,3.79007063886,208.
7.02,7338.,16.,10.,2659.,0.,0.,10023.,1.16279831659,3.77909452891,208.
7.04,7330.,20.,10.,2664.,0.,0.,10024.,1.15358857271,2.99933028905,260.
7.06,7314.,24.,8.,2678.,0.,0.,10024.,1.13819227541,2.46608326339,312.
7.08,7308.,24.,10.,2684.,0.,0.,10026.,1.11930551523,2.42516194967,312.
7.1,7304.,25.,8.,2690.,0.,0.,10027.,1.09628801044,2.28027906171,325.
7.12,7310.,25.,6.,2689.,0.,0.,10030.,1.07032627447,2.2262786509,325.
7.14,7309.,23.,10.,2689.,0.,0.,10031.,1.03973547429,2.35070628969,299.
7.16,7298.,28.,8.,2698.,0.,0.,10032.,1.00445212679,1.86541109262,364.
7.18,7289.,23.,13.,2703.,0.,0.,10028.,0.967232996803,2.18678764495,299.
7.2,7274.,22.,19.,2713.,0.,0.,10028.,0.926721535371,2.19043271997,286.
7.22,7266.,25.,20.,2718.,0.,0.,10029.,0.885529375784,1.84190110163,325.
7.24,7249.,38.,20.,2722.,0.,0.,10029.,0.84249919478,1.15289363496,494.
7.26,7234.,36.,24.,2737.,0.,0.,10031.,0.799397986624,1.15468598068,468.
7.28,7214.,27.,26.,2762.,0.,0.,10029.,0.756586267408,1.4571291076,351.
7.3,7206.,35.,15.,2770.,0.,0.,10026.,0.716211819408,1.06408613169,455.
7.32,7203.,29.,21.,2774.,0.,0.,10027.,0.677693441871,1.21517444749,377.
7.34,7200.,24.,12.,2792.,0.,0.,10028.,0.641407258887,1.38971572759,312.
7.36,7206.,17.,8.,2797.,0.,0.,10028.,0.608737217416,1.86201972386,221.
7.38,7207.,17.,4.,2799.,0.,0.,10027.,0.578956159683,1.77092472374,221.
7.4,7210.,13.,9.,2797.,0.,0.,10029.,0.552907897993,2.21163159197,169.
7.42,7204.,11.,8.,2802.,0.,0.,10025.,0.530675752102,2.50864900994,143.
7.44,7208.,10.,4.,2803.,0.,0.,10025.,0.513485034465,2.67012217922,130.
7.46,7209.,10.,2.,2798.,0.,0.,10019.,0.501164135535,2.60605350478,130.
7.48,7213.,5.,4.,2795.,0.,0.,10017.,0.493835700336,5.1358912835,65.
7.5,7221.,5.,3.,2790.,0.,0.,10019.,0.491699928031,5.11367925152,65.
7.52,7223.,4.,2.,2788.,0.,0.,10017.,0.494520347086,6.42876451211,52.
7.54,7231.,1.,2.,2783.,0.,0.,10017.,0.5027939267,26.1452841884,13.
7.56,7231.,3.,3.,2780.,0.,0.,10017.,0.51553491278,8.93593848819,39.
7.58,7239.,1.,2.,2775.,0.,0.,10017.,0.533679872741,27.7513533825,13.
7.6,7239.,0.,0.,2776.,0.,0.,10015.,0.555907819874,inf,0.
7.62,7248.,0.,0.,2770.,0.,0.,10018.,0.582772874491,inf,0.
7.64,7261.,0.,0.,2764.,0.,0.,10025.,0.613566977682,inf,0.
7.66,7270.,0.,0.,2755.,0.,0.,10025.,0.64783697122,inf,0.
7.68,7273.,0.,0.,2748.,0.,0.,10021.,0.684689091214,inf,0.
7.7,7279.,1.,0.,2742.,0.,0.,10022.,0.723756116869,37.6353180772,13.
7.72,7288.,1.,0.,2736.,0.,0.,10025.,0.764652178667,39.7619132907,13.
7.74,7293.,2.,0.,2726.,0.,0.,10021.,0.806722049848,20.9747732961,26.
7.76,7299.,1.,2.,2718.,0.,0.,10020.,0.849072290982,44.1517591311,13.
7.78,7308.,2.,2.,2709.,0.,0.,10021.,0.891359067977,23.1753357674,26.
7.8,7318.,1.,2.,2700.,0.,0.,10021.,0.93297848107,48.5148810156,13.
7.82,7317.,0.,4.,2697.,0.,0.,10018.,0.971917734297,inf,0.
7.84,7319.,3.,2.,2695.,0.,0.,10019.,1.00864950023,17.483258004,39.
7.86,7328.,5.,4.,2685.,0.,0.,10022.,1.04337443783,10.8510941535,65.
7.88,7331.,11.,1.,2684.,0.,0.,10027.,1.0737222364,5.07577784482,143.
7.9,7332.,9.,5.,2680.,0.,0.,10026.,1.10060041161,6.35902460043,117.
7.92,7326.,12.,6.,2682.,0.,0.,10026.,1.12206242537,4.86227050993,156.
7.94,7323.,12.,5.,2684.,0.,0.,10024.,1.13959284015,4.93823564063,156.
7.96,7323.,13.,4.,2687.,0.,0.,10027.,1.15214210416,4.60856841662,169.
7.98,7324.,14.,10.,2681.,0.,0.,10029.,1.15988550631,4.30814616631,182.
8.,7319.,19.,11.,2683.,0.,0.,10032.,1.16136353382,3.17846861886,247.
8.02,7309.,18.,11.,2694.,0.,0.,10032.,1.15716384452,3.34291777305,234.
8.04,7300.,24.,7.,2698.,0.,0.,10029.,1.14829442809,2.48797126087,312.
8.06,7301.,16.,10.,2702.,0.,0.,10029.,1.13560279552,3.69070908544,208.
8.08,7285.,28.,11.,2705.,0.,0.,10029.,1.11544902981,2.07154819822,364.
8.1,7274.,34.,15.,2705.,0.,0.,10028.,1.09167631087,1.6696225931,442.
8.12,7266.,33.,19.,2714.,0.,0.,10032.,1.06367172005,1.67608877099,429.
8.14,7250.,30.,18.,2735.,0.,0.,10033.,1.03113689026,1.78730394312,390.
8.16,7245.,31.,17.,2741.,0.,0.,10034.,0.996958774905,1.672317945,403.
8.18,7228.,37.,14.,2756.,0.,0.,10035.,0.958469386393,1.34703805655,481.
8.2,7218.,36.,19.,2761.,0.,0.,10034.,0.919037145471,1.32749809901,468.
8.22,7215.,37.,16.,2768.,0.,0.,10036.,0.878700539903,1.23493048851,481.
8.24,7203.,39.,7.,2785.,0.,0.,10034.,0.836735787099,1.11564771613,507.
8.26,7195.,31.,16.,2793.,0.,0.,10035.,0.794771339592,1.3331648277,403.
8.28,7185.,28.,17.,2802.,0.,0.,10032.,0.753319477628,1.39902188702,364.
8.3,7182.,30.,12.,2813.,0.,0.,10037.,0.713044119983,1.2359431413,390.
8.32,7182.,22.,13.,2822.,0.,0.,10039.,0.674909948124,1.59524169557,286.
8.34,7184.,19.,13.,2826.,0.,0.,10042.,0.639089682104,1.74908755102,247.
8.36,7190.,22.,8.,2829.,0.,0.,10049.,0.60611630417,1.43263853713,286.
8.38,7188.,22.,7.,2833.,0.,0.,10050.,0.576108361394,1.36171067239,286.
8.4,7187.,18.,13.,2832.,0.,0.,10050.,0.549992469712,1.58886713472,234.
8.42,7190.,16.,12.,2835.,0.,0.,10053.,0.528169269537,1.716550126,208.
8.44,7194.,9.,14.,2840.,0.,0.,10057.,0.510857033649,2.95161841664,117.
8.46,7198.,9.,7.,2841.,0.,0.,10055.,0.498607839782,2.88084529652,117.
8.48,7200.,8.,6.,2842.,0.,0.,10056.,0.491033877469,3.19172020355,104.
8.5,7204.,7.,4.,2845.,0.,0.,10060.,0.488543117898,3.62917744724,91.
8.52,7204.,5.,6.,2845.,0.,0.,10060.,0.491111323502,5.10755776442,65.
8.54,7209.,3.,4.,2845.,0.,0.,10061.,0.499072008143,8.65058147447,39.
8.56,7214.,2.,3.,2840.,0.,0.,10059.,0.512175409979,13.3165606595,26.
8.58,7220.,2.,1.,2836.,0.,0.,10059.,0.5300566783,13.7814736358,26.
8.6,7223.,0.,2.,2832.,0.,0.,10057.,0.552362676029,inf,0.
8.62,7230.,2.,0.,2826.,0.,0.,10058.,0.57901369748,15.0543561345,26.
8.64,7238.,0.,2.,2820.,0.,0.,10060.,0.609495523611,inf,0.
8.66,7236.,0.,0.,2822.,0.,0.,10058.,0.642691603905,inf,0.
8.68,7250.,0.,0.,2811.,0.,0.,10061.,0.679810300398,inf,0.
8.7,7256.,0.,0.,2802.,0.,0.,10058.,0.718886898856,inf,0.
8.72,7265.,0.,0.,2797.,0.,0.,10062.,0.759436127351,inf,0.
8.74,7263.,2.,1.,2791.,0.,0.,10057.,0.800527711197,20.8137204911,26.
8.76,7271.,2.,0.,2789.,0.,0.,10062.,0.842284594929,21.8993994681,26.
8.78,7277.,2.,0.,2784.,0.,0.,10063.,0.883873498919,22.9807109719,26.
8.8,7279.,4.,0.,2780.,0.,0.,10063.,0.924133110281,12.0137304336,52.
8.82,7278.,7.,0.,2774.,0.,0.,10059.,0.962796986002,7.15220618173,91.
8.84,7285.,6.,3.,2768.,0.,0.,10062.,0.999673432184,8.66383641226,78.
8.86,7291.,6.,3.,2760.,0.,0.,10060.,1.03418503185,8.96293694272,78.
8.88,7294.,6.,3.,2756.,0.,0.,10059.,1.06490457675,9.22917299849,78.
8.9,7294.,8.,3.,2755.,0.,0.,10060.,1.09119581864,7.09277282119,104.
8.92,7300.,8.,3.,2751.,0.,0.,10062.,1.11407993482,7.24151957633,104.
8.94,7296.,12.,5.,2749.,0.,0.,10062.,1.13110324457,4.90144739314,156.
8.96,7294.,15.,7.,2745.,0.,0.,10061.,1.14370136295,3.96483139156,195.
8.98,7294.,15.,5.,2746.,0.,0.,10060.,1.15157491387,3.99212636809,195.
9.,7290.,17.,9.,2744.,0.,0.,10060.,1.15354225922,3.52848220468,221.
9.02,7281.,19.,13.,2747.,0.,0.,10060.,1.14952247709,3.14606151625,247.
9.04,7263.,32.,18.,2749.,0.,0.,10062.,1.13872737143,1.85043197858,416.
9.06,7249.,33.,7.,2770.,0.,0.,10059.,1.12415197401,1.77139098935,429.
9.08,7239.,35.,12.,2768.,0.,0.,10054.,1.10564956917,1.64267935991,455.
9.1,7230.,26.,21.,2778.,0.,0.,10055.,1.08215915337,2.16431830673,338.
9.12,7220.,25.,16.,2793.,0.,0.,10054.,1.05462499341,2.19361998628,325.
9.14,7208.,23.,21.,2800.,0.,0.,10052.,1.02322567333,2.31337978318,299.
9.16,7200.,25.,16.,2813.,0.,0.,10054.,0.988795594215,2.05669483597,325.
9.18,7193.,24.,16.,2822.,0.,0.,10055.,0.951930987533,2.06251713965,312.
9.2,7184.,27.,15.,2828.,0.,0.,10054.,0.912888480174,1.75815559145,351.
9.22,7168.,39.,13.,2834.,0.,0.,10054.,0.871413585173,1.16188478023,507.
9.24,7165.,30.,16.,2842.,0.,0.,10053.,0.830748447234,1.43996397521,390.
9.26,7155.,31.,11.,2852.,0.,0.,10049.,0.789251776241,1.32390620531,403.
9.28,7151.,28.,17.,2856.,0.,0.,10052.,0.748262956743,1.38963120538,364.
9.3,7146.,24.,11.,2870.,0.,0.,10051.,0.708481745955,1.5350437829,312.
9.32,7143.,22.,11.,2874.,0.,0.,10050.,0.670510327548,1.58484259239,286.
9.34,7145.,19.,13.,2875.,0.,0.,10052.,0.634987904337,1.73786163292,247.
9.36,7148.,14.,15.,2880.,0.,0.,10057.,0.60209637984,2.23635798226,182.
9.38,7144.,12.,12.,2886.,0.,0.,10054.,0.572354019025,2.48020074911,156.
9.4,7144.,14.,4.,2887.,0.,0.,10049.,0.546756254675,2.03080894594,182.
9.42,7151.,8.,4.,2886.,0.,0.,10049.,0.525513470812,3.41583756028,104.
9.44,7152.,6.,5.,2884.,0.,0.,10047.,0.508380047587,4.40596041242,78.
9.46,7151.,7.,5.,2880.,0.,0.,10043.,0.495944011731,3.68415551571,91.
9.48,7152.,7.,5.,2876.,0.,0.,10040.,0.488537625566,3.62913664706,91.
9.5,7156.,5.,4.,2875.,0.,0.,10040.,0.486254681301,5.05704868553,65.
9.52,7162.,2.,0.,2876.,0.,0.,10040.,0.489220703902,12.7197383014,26.
9.54,7164.,1.,1.,2874.,0.,0.,10040.,0.49699406186,25.8436912167,13.
9.56,7174.,1.,0.,2865.,0.,0.,10040.,0.510299395004,26.5355685402,13.
9.58,7187.,0.,1.,2853.,0.,0.,10041.,0.528579844699,inf,0.
9.6,7197.,0.,0.,2846.,0.,0.,10043.,0.55114160959,inf,0.
9.62,7200.,0.,0.,2842.,0.,0.,10042.,0.577529870239,inf,0.
9.64,7213.,0.,0.,2830.,0.,0.,10043.,0.608418473,inf,0.
9.66,7216.,1.,0.,2828.,0.,0.,10045.,0.641744688555,33.3707238049,13.
9.68,7225.,1.,0.,2820.,0.,0.,10046.,0.678477673027,35.2808389974,13.
9.7,7233.,1.,0.,2812.,0.,0.,10046.,0.71746417023,37.308136852,13.
9.72,7240.,0.,1.,2806.,0.,0.,10047.,0.757952712534,inf,0.
9.74,7243.,1.,0.,2803.,0.,0.,10047.,0.799117900352,41.5541308183,13.
9.76,7249.,3.,0.,2798.,0.,0.,10050.,0.840738748701,14.5728049775,39.
9.78,7252.,2.,0.,2795.,0.,0.,10049.,0.882064126406,22.9336672865,26.
9.8,7259.,4.,0.,2788.,0.,0.,10051.,0.922694235452,11.9950250609,52.
9.82,7264.,4.,2.,2783.,0.,0.,10053.,0.961518471806,12.4997401335,52.
9.84,7268.,6.,0.,2778.,0.,0.,10052.,0.998332813426,8.65221771636,78.
9.86,7270.,6.,1.,2775.,0.,0.,10052.,1.03202700404,8.944234035,78.
9.88,7275.,7.,1.,2768.,0.,0.,10051.,1.06297602034,7.89639329396,91.
9.9,7278.,4.,6.,2761.,0.,0.,10049.,1.08999403159,14.1699224107,52.
9.92,7283.,5.,5.,2754.,0.,0.,10047.,1.11314493103,11.5767072827,65.
9.94,7292.,8.,1.,2747.,0.,0.,10048.,1.13205823799,7.35837854696,104.
9.96,7294.,6.,5.,2743.,0.,0.,10048.,1.14518107212,9.92490262503,78.
9.98,7294.,10.,5.,2739.,0.,0.,10048.,1.15295020238,5.9953410524,130.
10.,7298.,11.,6.,2736.,0.,0.,10051.,1.15584220288,5.46398132271,143.
