t,s,e,i,r,c,o,n,reff,coal,reportr
5.,8143.,25.,12.,1820.,0.,0.,10000.,1.17015522291,2.43392286364,325.
5.02,8144.,18.,15.,1828.,0.,0.,10005.,1.16707876811,3.37156088566,234.
5.04,8131.,26.,14.,1834.,0.,0.,10005.,1.15736401684,2.31472803369,338.
5.06,8135.,25.,7.,1842.,0.,0.,10009.,1.14452078178,2.3806032261,325.
5.08,8126.,18.,19.,1847.,0.,0.,10010.,1.12531893051,3.2509213548,234.
5.1,8107.,31.,12.,1862.,0.,0.,10012.,1.1000928093,1.84531697045,403.
5.12,8089.,34.,10.,1877.,0.,0.,10010.,1.07131103814,1.63847570539,442.
5.14,8082.,26.,18.,1882.,0.,0.,10008.,1.0402452914,2.08049058279,338.
5.16,8062.,41.,11.,1894.,0.,0.,10008.,1.00406882549,1.27345314453,533.
5.18,8058.,35.,12.,1905.,0.,0.,10010.,0.966998373324,1.43668329751,455.
5.2,8053.,29.,13.,1916.,0.,0.,10011.,0.927738544834,1.66353118384,377.
5.22,8040.,23.,14.,1929.,0.,0.,10006.,0.886575732702,2.00443209133,299.
5.24,8033.,23.,15.,1938.,0.,0.,10009.,0.844483527661,1.90926710602,299.
5.26,8022.,31.,19.,1939.,0.,0.,10011.,0.801842462966,1.34502606691,403.
5.28,8009.,37.,17.,1950.,0.,0.,10013.,0.759467343149,1.06735950929,481.
5.3,7998.,33.,23.,1962.,0.,0.,10016.,0.71831856203,1.13189591593,429.
5.32,7990.,30.,7.,1991.,0.,0.,10018.,0.679221952739,1.17731805142,390.
5.34,7989.,20.,15.,1997.,0.,0.,10021.,0.642912896321,1.67157353043,260.
5.36,7979.,18.,13.,2013.,0.,0.,10023.,0.608773495376,1.75867898664,234.
5.38,7974.,14.,12.,2023.,0.,0.,10023.,0.578489861122,2.14867662702,182.
5.4,7971.,16.,8.,2028.,0.,0.,10023.,0.552135050761,1.79443891497,208.
5.42,7972.,9.,14.,2031.,0.,0.,10026.,0.530071665421,3.0626362891,117.
5.44,7971.,9.,11.,2035.,0.,0.,10026.,0.512551586055,2.96140916387,117.
5.46,7973.,6.,3.,2044.,0.,0.,10026.,0.500009755988,4.33341788523,78.
5.48,7981.,5.,1.,2042.,0.,0.,10029.,0.492673250175,5.12380180182,65.
5.5,7987.,4.,2.,2035.,0.,0.,10028.,0.490514233976,6.37668504169,52.
5.52,7991.,3.,4.,2031.,0.,0.,10029.,0.493290557843,8.55036966928,39.
5.54,7989.,0.,5.,2030.,0.,0.,10024.,0.501113124717,inf,0.
5.56,7992.,1.,1.,2031.,0.,0.,10025.,0.513953190999,26.725565932,13.
5.58,7996.,1.,0.,2025.,0.,0.,10022.,0.531879665864,27.6577426249,13.
5.6,7997.,1.,0.,2019.,0.,0.,10017.,0.554267815738,28.8219264184,13.
5.62,8002.,1.,0.,2014.,0.,0.,10017.,0.580868898993,30.2051827476,13.
5.64,8001.,0.,0.,2013.,0.,0.,10014.,0.611000667369,inf,0.
5.66,8003.,0.,2.,2010.,0.,0.,10015.,0.644425387987,inf,0.
5.68,8006.,0.,1.,2010.,0.,0.,10017.,0.680650039532,inf,0.
5.7,8007.,0.,1.,2006.,0.,0.,10014.,0.719270496791,inf,0.
5.72,8011.,2.,2.,2001.,0.,0.,10016.,0.759429463578,19.745166053,26.
5.74,8012.,4.,2.,1998.,0.,0.,10016.,0.800443126858,10.4057606491,52.
5.76,8013.,3.,3.,1996.,0.,0.,10015.,0.841876320215,14.5925228837,39.
5.78,8018.,3.,3.,1990.,0.,0.,10014.,0.883443448244,15.3130197696,39.
5.8,8018.,3.,4.,1989.,0.,0.,10014.,0.923429677143,16.0061144038,39.
5.82,8018.,5.,4.,1986.,0.,0.,10013.,0.961909898154,10.0038629408,65.
5.84,8013.,9.,3.,1989.,0.,0.,10014.,0.99736825669,5.76257214977,117.
5.86,8017.,6.,2.,1990.,0.,0.,10015.,1.03115781887,8.93670109685,78.
5.88,8015.,7.,4.,1990.,0.,0.,10016.,1.06087455382,7.88078239977,91.
5.9,8017.,7.,5.,1987.,0.,0.,10016.,1.08744565314,8.07816770904,91.
5.92,8013.,11.,6.,1989.,0.,0.,10019.,1.10867345776,5.24100180033,143.
5.94,8006.,15.,8.,1993.,0.,0.,10022.,1.12491058196,3.89969001747,195.
5.96,7995.,20.,8.,1998.,0.,0.,10021.,1.13618882542,2.9540909461,260.
5.98,7995.,16.,7.,2003.,0.,0.,10021.,1.14389695054,3.71766508927,208.
6.,7992.,24.,5.,2003.,0.,0.,10024.,1.14570671325,2.48236454538,312.
6.02,7990.,19.,14.,1998.,0.,0.,10021.,1.14318156784,3.12870744881,247.
6.04,7973.,22.,4.,2023.,0.,0.,10022.,1.1329492946,2.67788015087,286.
6.06,7966.,23.,9.,2020.,0.,0.,10018.,1.11973715596,2.53157965696,299.
6.08,7952.,22.,7.,2033.,0.,0.,10014.,1.1007828852,2.60185045593,286.
6.1,7940.,27.,11.,2037.,0.,0.,10015.,1.07710872204,2.07443161281,351.
6.12,7931.,32.,5.,2050.,0.,0.,10018.,1.04954664387,1.70551329629,416.
6.14,7923.,28.,7.,2060.,0.,0.,10018.,1.01876223571,1.89198700917,364.
6.16,7914.,28.,7.,2068.,0.,0.,10017.,0.984750836194,1.8288229815,364.
6.18,7912.,28.,10.,2071.,0.,0.,10021.,0.948435441303,1.76138010528,364.
6.2,7908.,28.,11.,2076.,0.,0.,10023.,0.909943219581,1.68989455065,364.
6.22,7901.,29.,12.,2083.,0.,0.,10025.,0.869596874108,1.55927715357,377.
6.24,7896.,21.,16.,2091.,0.,0.,10024.,0.828839016431,2.05236327878,273.
6.26,7881.,25.,14.,2102.,0.,0.,10022.,0.786884125819,1.6367189817,325.
6.28,7870.,28.,7.,2115.,0.,0.,10020.,0.745765068809,1.38499227065,364.
6.3,7866.,24.,13.,2119.,0.,0.,10022.,0.706040394431,1.52975418793,312.
6.32,7861.,21.,13.,2131.,0.,0.,10026.,0.667722572784,1.65340827547,273.
6.34,7857.,18.,14.,2137.,0.,0.,10026.,0.631974902094,1.82570527272,234.
6.36,7851.,19.,16.,2136.,0.,0.,10022.,0.599067252925,1.63955248169,247.
6.38,7846.,16.,11.,2147.,0.,0.,10020.,0.5693742641,1.85046635832,208.
6.4,7838.,18.,12.,2152.,0.,0.,10020.,0.543084961338,1.56891211053,234.
6.42,7832.,20.,10.,2158.,0.,0.,10020.,0.521074664384,1.3547941274,260.
6.44,7835.,10.,12.,2163.,0.,0.,10020.,0.504108188729,2.62136258139,130.
6.46,7837.,11.,5.,2167.,0.,0.,10020.,0.49177510481,2.32475504092,143.
6.48,7837.,10.,5.,2163.,0.,0.,10015.,0.484460302952,2.51919357535,130.
6.5,7838.,7.,2.,2169.,0.,0.,10016.,0.481940249987,3.58012757133,91.
6.52,7842.,6.,1.,2168.,0.,0.,10017.,0.484672598919,4.20049585729,78.
6.54,7846.,3.,3.,2166.,0.,0.,10018.,0.49243814971,8.53559459498,39.
6.56,7855.,0.,2.,2165.,0.,0.,10022.,0.505294142562,inf,0.
6.58,7865.,0.,1.,2160.,0.,0.,10026.,0.522957055762,inf,0.
6.6,7871.,0.,0.,2155.,0.,0.,10026.,0.545045114668,inf,0.
6.62,7869.,1.,0.,2152.,0.,0.,10022.,0.570929386953,29.6883281216,13.
6.64,7871.,1.,0.,2148.,0.,0.,10020.,0.600713223424,31.2370876181,13.
6.66,7876.,1.,1.,2143.,0.,0.,10021.,0.633819247894,32.9586008905,13.
6.68,7880.,1.,1.,2139.,0.,0.,10021.,0.669670421997,34.8228619438,13.
6.7,7885.,2.,2.,2131.,0.,0.,10020.,0.70788707264,18.4050638886,26.
6.72,7888.,4.,1.,2125.,0.,0.,10018.,0.747619983203,9.71905978165,52.
6.74,7890.,1.,4.,2121.,0.,0.,10016.,0.788254651886,40.989241898,13.
6.76,7898.,2.,0.,2119.,0.,0.,10019.,0.829462693766,21.5660300379,26.
6.78,7900.,1.,2.,2117.,0.,0.,10020.,0.869920688141,45.2358757833,13.
6.8,7905.,2.,0.,2114.,0.,0.,10021.,0.909779559464,23.6542685461,26.
6.82,7905.,1.,2.,2110.,0.,0.,10018.,0.947880098185,49.2897651056,13.
6.84,7905.,4.,0.,2110.,0.,0.,10019.,0.983434599636,12.7846497953,52.
6.86,7903.,6.,3.,2109.,0.,0.,10021.,1.0158863596,8.80434844984,78.
6.88,7909.,5.,3.,2103.,0.,0.,10020.,1.04642637085,10.8828342568,65.
6.9,7909.,6.,3.,2102.,0.,0.,10020.,1.07236800479,9.29385604147,78.
6.92,7907.,8.,4.,2100.,0.,0.,10019.,1.09400736684,7.11104788449,104.
6.94,7901.,11.,4.,2104.,0.,0.,10020.,1.11037878388,5.24906334196,143.
6.96,7908.,10.,8.,2099.,0.,0.,10025.,1.12337663559,5.84155850505,130.
6.98,7900.,16.,5.,2108.,0.,0.,10029.,1.12940305007,3.67055991272,208.
7.,7898.,16.,8.,2105.,0.,0.,10027.,1.13189242913,3.67865039466,208.
7.02,7890.,17.,7.,2113.,0.,0.,10027.,1.12819841317,3.45095985206,221.
7.04,7884.,20.,9.,2114.,0.,0.,10027.,1.119743908,2.91133416079,260.
7.06,7881.,16.,12.,2117.,0.,0.,10026.,1.10690523663,3.59744201905,208.
7.08,7860.,28.,12.,2122.,0.,0.,10022.,1.08717894231,2.01904660715,364.
7.1,7847.,27.,20.,2129.,0.,0.,10023.,1.06364307308,2.04849777037,351.
7.12,7835.,32.,9.,2148.,0.,0.,10024.,1.03622189497,1.68386057933,416.
7.14,7831.,25.,14.,2155.,0.,0.,10025.,1.00622951476,2.0929573907,325.
7.16,7827.,25.,16.,2158.,0.,0.,10026.,0.973051036605,2.02394615614,325.
7.18,7817.,27.,18.,2165.,0.,0.,10027.,0.936486788545,1.80360418535,351.
7.2,7806.,29.,12.,2179.,0.,0.,10026.,0.897937707764,1.61009520013,377.
7.22,7785.,34.,10.,2190.,0.,0.,10019.,0.857342848877,1.31123023946,442.
7.24,7778.,32.,18.,2192.,0.,0.,10020.,0.816778546945,1.32726513879,416.
7.26,7767.,33.,15.,2206.,0.,0.,10021.,0.775579101302,1.22212464448,429.
7.28,7753.,37.,11.,2224.,0.,0.,10025.,0.734311668305,1.03200558789,481.
7.3,7744.,32.,19.,2229.,0.,0.,10024.,0.694951171786,1.12929565415,416.
7.32,7739.,26.,9.,2251.,0.,0.,10025.,0.657425321539,1.31485064308,338.
7.34,7735.,25.,12.,2253.,0.,0.,10025.,0.622223938049,1.29422579114,325.
7.36,7731.,15.,19.,2256.,0.,0.,10021.,0.589969570845,2.0452278456,195.
7.38,7726.,16.,16.,2264.,0.,0.,10022.,0.560554129318,1.82180092028,208.
7.4,7723.,10.,10.,2275.,0.,0.,10018.,0.535223589976,2.78316266787,130.
7.42,7723.,12.,4.,2280.,0.,0.,10019.,0.513874016323,2.22678740406,156.
7.44,7730.,10.,0.,2283.,0.,0.,10023.,0.49720356791,2.58545855313,130.
7.46,7736.,9.,1.,2276.,0.,0.,10022.,0.485340437236,2.80418919292,117.
7.48,7743.,6.,5.,2268.,0.,0.,10022.,0.47831518012,4.14539822771,78.
7.5,7746.,4.,5.,2269.,0.,0.,10024.,0.475903271175,6.18674252527,52.
7.52,7753.,5.,0.,2271.,0.,0.,10029.,0.478598635334,4.97742580748,65.
7.54,7759.,2.,3.,2263.,0.,0.,10027.,0.486540672747,12.6500574914,26.
7.56,7767.,1.,2.,2260.,0.,0.,10030.,0.49923479319,25.9602092459,13.
7.58,7764.,1.,2.,2259.,0.,0.,10026.,0.516241396178,26.8445526012,13.
7.6,7765.,2.,2.,2254.,0.,0.,10023.,0.537865847341,13.9845120309,26.
7.62,7773.,1.,0.,2251.,0.,0.,10025.,0.563795411695,29.3173614081,13.
7.64,7783.,0.,0.,2245.,0.,0.,10028.,0.59352320933,inf,0.
7.66,7786.,0.,0.,2241.,0.,0.,10027.,0.626201585467,inf,0.
7.68,7792.,1.,0.,2239.,0.,0.,10032.,0.661465781485,34.3962206372,13.
7.7,7795.,1.,0.,2235.,0.,0.,10031.,0.699039785883,36.3500688659,13.
7.72,7803.,0.,2.,2227.,0.,0.,10032.,0.738531646835,inf,0.
7.74,7812.,0.,0.,2224.,0.,0.,10036.,0.778906695475,inf,0.
7.76,7819.,0.,0.,2217.,0.,0.,10036.,0.819774991757,inf,0.
7.78,7820.,2.,0.,2210.,0.,0.,10032.,0.860081327199,22.3621145072,26.
7.8,7827.,2.,1.,2202.,0.,0.,10032.,0.899814885297,23.3951870177,26.
7.82,7828.,2.,3.,2197.,0.,0.,10030.,0.937524103001,24.375626678,26.
7.84,7827.,3.,4.,2196.,0.,0.,10030.,0.972662980359,16.8594916595,39.
7.86,7823.,5.,3.,2199.,0.,0.,10030.,1.00470047242,10.4488849131,65.
7.88,7826.,5.,4.,2194.,0.,0.,10029.,1.03451557607,10.7589619911,65.
7.9,7827.,6.,4.,2191.,0.,0.,10028.,1.06040313348,9.1901604902,78.
7.92,7822.,9.,1.,2196.,0.,0.,10028.,1.08127551975,6.24736966965,117.
7.94,7820.,9.,2.,2198.,0.,0.,10029.,1.09800909272,6.3440525357,117.
7.96,7822.,10.,0.,2197.,0.,0.,10029.,1.11071666493,5.77572665762,130.
7.98,7829.,8.,6.,2191.,0.,0.,10034.,1.11869498878,7.27151742708,104.
8.,7827.,13.,7.,2186.,0.,0.,10033.,1.1210463324,4.48418532961,169.
8.02,7821.,21.,5.,2190.,0.,0.,10037.,1.11721782975,2.76644414987,273.
8.04,7814.,26.,7.,2193.,0.,0.,10040.,1.10836499639,2.21672999279,338.
8.06,7808.,22.,14.,2197.,0.,0.,10041.,1.09501395117,2.58821479366,286.
8.08,7808.,24.,19.,2195.,0.,0.,10046.,1.07740631094,2.33438034037,312.
8.1,7787.,37.,12.,2211.,0.,0.,10047.,1.05298883496,1.47987620048,481.
8.12,7774.,33.,17.,2221.,0.,0.,10045.,1.02600485754,1.61673492704,429.
8.14,7764.,39.,10.,2236.,0.,0.,10049.,0.995237862309,1.32698381641,507.
8.16,7754.,33.,20.,2242.,0.,0.,10049.,0.9617693585,1.51551535279,429.
8.18,7738.,34.,18.,2259.,0.,0.,10049.,0.924992980684,1.41469514693,442.
8.2,7727.,34.,20.,2267.,0.,0.,10048.,0.886904071835,1.35644152163,442.
8.22,7709.,37.,15.,2285.,0.,0.,10046.,0.846691424769,1.18994470508,481.
8.24,7702.,30.,22.,2290.,0.,0.,10044.,0.806865070791,1.3985661227,390.
8.26,7694.,34.,12.,2304.,0.,0.,10044.,0.766530311203,1.17234047596,442.
8.28,7693.,23.,15.,2312.,0.,0.,10043.,0.727322958002,1.64438233983,299.
8.3,7689.,27.,8.,2322.,0.,0.,10046.,0.688504356047,1.32600838942,351.
8.32,7689.,25.,14.,2321.,0.,0.,10049.,0.65161785627,1.35536514104,325.
8.34,7685.,21.,10.,2333.,0.,0.,10049.,0.616725355559,1.52712945186,273.
8.36,7682.,16.,9.,2339.,0.,0.,10046.,0.58477140844,1.90050707743,208.
8.38,7676.,14.,12.,2338.,0.,0.,10040.,0.555927943202,2.06487521761,182.
8.4,7676.,17.,10.,2338.,0.,0.,10041.,0.530747843456,1.62346399175,221.
8.42,7675.,17.,5.,2346.,0.,0.,10043.,0.509459801053,1.55834762675,221.
8.44,7673.,17.,1.,2345.,0.,0.,10036.,0.492897957446,1.50768786984,221.
8.46,7679.,10.,8.,2338.,0.,0.,10035.,0.481140267313,2.50192939003,130.
8.48,7681.,8.,3.,2341.,0.,0.,10033.,0.473964982338,3.0807723852,104.
8.5,7682.,6.,3.,2342.,0.,0.,10033.,0.471547824865,4.0867478155,78.
8.52,7692.,3.,1.,2338.,0.,0.,10034.,0.474596446509,8.22633840615,39.
8.54,7700.,1.,2.,2335.,0.,0.,10038.,0.482311867659,25.0802171183,13.
8.56,7705.,1.,2.,2331.,0.,0.,10039.,0.494805663317,25.7298944925,13.
8.58,7708.,3.,2.,2327.,0.,0.,10040.,0.511803195809,8.87125539402,39.
8.6,7710.,0.,4.,2322.,0.,0.,10036.,0.53336432604,inf,0.
8.62,7712.,3.,0.,2319.,0.,0.,10034.,0.558869198966,9.68706611541,39.
8.64,7719.,2.,1.,2312.,0.,0.,10034.,0.588290649342,15.2955568829,26.
8.66,7729.,1.,0.,2307.,0.,0.,10037.,0.620997942934,32.2918930326,13.
8.68,7735.,2.,0.,2299.,0.,0.,10036.,0.656365321599,17.0654983616,26.
8.7,7742.,2.,0.,2293.,0.,0.,10037.,0.693871816929,18.0406672402,26.
8.72,7750.,0.,0.,2290.,0.,0.,10040.,0.732930873942,inf,0.
8.74,7753.,0.,0.,2287.,0.,0.,10040.,0.772716037924,inf,0.
8.76,7754.,1.,0.,2281.,0.,0.,10036.,0.812960133787,42.2739269569,13.
8.78,7754.,2.,1.,2276.,0.,0.,10033.,0.852737327058,22.1711705035,26.
8.8,7753.,2.,0.,2277.,0.,0.,10032.,0.891307628173,23.1739983325,26.
8.82,7758.,3.,1.,2271.,0.,0.,10033.,0.928862694734,16.1002867087,39.
8.84,7757.,5.,2.,2269.,0.,0.,10033.,0.963675827207,10.022228603,65.
8.86,7761.,5.,1.,2266.,0.,0.,10033.,0.996439833367,10.362974267,65.
8.88,7769.,6.,4.,2258.,0.,0.,10037.,1.02616221461,8.89340585994,78.
8.9,7769.,5.,6.,2257.,0.,0.,10037.,1.05160148609,10.9366554553,65.
8.92,7764.,14.,3.,2260.,0.,0.,10041.,1.0718683416,3.98122526881,182.
8.94,7766.,13.,4.,2258.,0.,0.,10041.,1.08912376342,4.35649505366,169.
8.96,7761.,14.,6.,2256.,0.,0.,10037.,1.10117632841,4.09008350552,182.
8.98,7758.,15.,13.,2253.,0.,0.,10039.,1.10799759396,3.84105832571,195.
9.,7757.,20.,9.,2256.,0.,0.,10042.,1.11002462922,2.88606403598,260.
9.02,7746.,17.,13.,2261.,0.,0.,10037.,1.10650419502,3.38460106713,221.
9.04,7734.,31.,3.,2271.,0.,0.,10039.,1.09712679312,1.8403417175,403.
9.06,7734.,23.,9.,2272.,0.,0.,10038.,1.08496016032,2.45295340594,299.
9.08,7726.,26.,6.,2280.,0.,0.,10038.,1.06694098129,2.13388196259,338.
9.1,7730.,20.,10.,2285.,0.,0.,10045.,1.04548918995,2.71827189388,260.
9.12,7715.,28.,17.,2285.,0.,0.,10045.,1.0182180957,1.89097646344,364.
9.14,7698.,31.,25.,2292.,0.,0.,10046.,0.987072249116,1.65573409529,403.
9.16,7682.,34.,25.,2306.,0.,0.,10047.,0.953028496507,1.45757299466,442.
9.18,7668.,35.,23.,2322.,0.,0.,10048.,0.916716473533,1.36197876068,455.
9.2,7649.,38.,25.,2337.,0.,0.,10049.,0.877863874785,1.2012874076,494.
9.22,7635.,35.,28.,2349.,0.,0.,10047.,0.838480425905,1.24574234706,455.
9.24,7610.,40.,30.,2368.,0.,0.,10048.,0.796909740898,1.03598266317,520.
9.26,7589.,50.,23.,2383.,0.,0.,10045.,0.755994205599,0.786233973823,650.
9.28,7576.,42.,30.,2397.,0.,0.,10045.,0.716118760827,0.886623227691,546.
9.3,7564.,34.,23.,2427.,0.,0.,10048.,0.677176532111,1.03568175499,442.
9.32,7565.,23.,19.,2445.,0.,0.,10052.,0.640917919909,1.44903181892,299.
9.34,7556.,27.,4.,2463.,0.,0.,10050.,0.606312701018,1.16771335011,351.
9.36,7557.,21.,9.,2462.,0.,0.,10049.,0.575084387236,1.42401848268,273.
9.38,7549.,15.,11.,2471.,0.,0.,10046.,0.546403537397,1.89419892964,195.
9.4,7549.,13.,10.,2472.,0.,0.,10044.,0.521810676286,2.08724270514,169.
9.42,7552.,8.,7.,2477.,0.,0.,10044.,0.501245258497,3.25809418023,104.
9.44,7551.,10.,3.,2476.,0.,0.,10040.,0.484867673525,2.52131190233,130.
9.46,7554.,6.,3.,2478.,0.,0.,10041.,0.473025363144,4.09955314725,78.
9.48,7562.,7.,1.,2477.,0.,0.,10047.,0.465971735083,3.46150431776,91.
9.5,7575.,6.,1.,2469.,0.,0.,10051.,0.464147076686,4.02260799795,78.
9.52,7586.,3.,3.,2465.,0.,0.,10057.,0.466985817941,8.09442084432,39.
9.54,7593.,0.,3.,2460.,0.,0.,10056.,0.474758281982,inf,0.
9.56,7599.,2.,0.,2456.,0.,0.,10057.,0.487125054376,12.6652514138,26.
9.58,7598.,1.,1.,2456.,0.,0.,10056.,0.503696606281,26.1922235266,13.
9.6,7603.,0.,1.,2455.,0.,0.,10059.,0.524759635295,inf,0.
9.62,7606.,1.,0.,2449.,0.,0.,10056.,0.549981786174,28.599052881,13.
9.64,7615.,1.,0.,2441.,0.,0.,10057.,0.579037190816,30.1099339224,13.
9.66,7627.,1.,0.,2434.,0.,0.,10062.,0.611280035395,31.7865618405,13.
9.68,7635.,0.,3.,2424.,0.,0.,10062.,0.646205560128,inf,0.
9.7,7644.,2.,0.,2414.,0.,0.,10060.,0.683522323362,17.7715804074,26.
9.72,7653.,2.,0.,2404.,0.,0.,10059.,0.722390343194,18.782148923,26.
9.74,7660.,0.,2.,2397.,0.,0.,10059.,0.76200499215,inf,0.
9.76,7658.,2.,2.,2396.,0.,0.,10058.,0.801138929402,20.8296121644,26.
9.78,7667.,1.,2.,2391.,0.,0.,10061.,0.84082304019,43.7227980899,13.
9.8,7674.,5.,0.,2385.,0.,0.,10064.,0.879420387677,9.14597203184,65.
9.82,7674.,0.,5.,2383.,0.,0.,10062.,0.916157286034,inf,0.
9.84,7680.,2.,1.,2384.,0.,0.,10067.,0.95088749815,24.7230749519,26.
9.86,7685.,4.,0.,2380.,0.,0.,10069.,0.983154429491,12.7810075834,52.
9.88,7684.,6.,3.,2374.,0.,0.,10067.,1.01191051615,8.76989113999,78.
9.9,7689.,7.,6.,2368.,0.,0.,10070.,1.03736211722,7.70611858505,91.
9.92,7686.,6.,2.,2373.,0.,0.,10067.,1.0583594594,9.17244864816,78.
9.94,7690.,7.,4.,2365.,0.,0.,10066.,1.07578684312,7.99155940605,91.
9.96,7691.,11.,2.,2365.,0.,0.,10069.,1.08777626443,5.14221506823,143.
9.98,7689.,11.,5.,2361.,0.,0.,10066.,1.09519746812,5.17729712201,143.
10.,7694.,12.,5.,2360.,0.,0.,10071.,1.0978389289,4.75730202522,156.
