t,prevalence
5.,4
5.02,7
5.04,2
5.06,4
5.08,7
5.1,10
5.12,8
5.14,14
5.16,6
5.18,8
5.2,10
5.22,6
5.24,8
5.26,5
5.28,14
5.3,4
5.32,7
5.34,5
5.36,5
5.38,6
5.4,5
5.42,5
5.44,3
5.46,0
5.48,2
5.5,1
5.52,0
5.54,3
5.56,1
5.58,0
5.6,1
5.62,0
5.64,0
5.66,0
5.68,0
5.7,0
5.72,0
5.74,0
5.76,1
5.78,0
5.8,0
5.82,0
5.84,0
5.86,1
5.88,1
5.9,0
5.92,4
5.94,2
5.96,1
5.98,2
6.,1
6.02,2
6.04,3
6.06,6
6.08,5
6.1,10
6.12,12
6.14,8
6.16,5
6.18,7
6.2,11
6.22,7
6.24,9
6.26,7
6.28,9
6.3,3
6.32,3
6.34,7
6.36,9
6.38,6
6.4,6
6.42,8
6.44,5
6.46,0
6.48,3
6.5,1
6.52,1
6.54,1
6.56,0
6.58,1
6.6,1
6.62,1
6.64,1
6.66,0
6.68,0
6.7,0
6.72,0
6.74,0
6.76,0
6.78,1
6.8,2
6.82,0
6.84,0
6.86,2
6.88,6
6.9,1
6.92,1
6.94,2
6.96,1
6.98,1
7.,2
7.02,3
7.04,5
7.06,2
7.08,5
7.1,10
7.12,11
7.14,8
7.16,9
7.18,10
7.2,7
7.22,9
7.24,7
7.26,5
7.28,3
7.3,1
7.32,4
7.34,3
7.36,5
7.38,7
7.4,5
7.42,3
7.44,3
7.46,6
7.48,1
7.5,2
7.52,0
7.54,0
7.56,0
7.58,0
7.6,0
7.62,0
7.64,0
7.66,0
7.68,0
7.7,0
7.72,0
7.74,1
7.76,1
7.78,2
7.8,2
7.82,0
7.84,2
7.86,2
7.88,0
7.9,1
7.92,2
7.94,1
7.96,2
7.98,4
8.,7
8.02,3
8.04,11
8.06,7
8.08,9
8.1,10
8.12,8
8.14,8
8.16,8
8.18,10
8.2,7
8.22,11
8.24,21
8.26,8
8.28,12
8.3,9
8.32,8
8.34,3
8.36,2
8.38,4
8.4,6
8.42,4
8.44,2
8.46,3
8.48,1
8.5,1
8.52,3
8.54,0
8.56,3
8.58,0
8.6,0
8.62,0
8.64,0
8.66,0
8.68,0
8.7,1
8.72,0
8.74,1
8.76,0
8.78,1
8.8,0
8.82,0
8.84,3
8.86,1
8.88,0
8.9,4
8.92,2
8.94,2
8.96,4
8.98,6
9.,4
9.02,7
9.04,8
9.06,2
9.08,5
9.1,10
9.12,9
9.14,9
9.16,13
9.18,6
9.2,10
9.22,9
9.24,5
9.26,5
9.28,2
9.3,9
9.32,5
9.34,4
9.36,4
9.38,6
9.4,3
9.42,2
9.44,0
9.46,1
9.48,0
9.5,0
9.52,1
9.54,1
9.56,0
9.58,0
9.6,0
9.62,0
9.64,0
9.66,0
9.68,0
9.7,0
9.72,0
9.74,0
9.76,0
9.78,1
9.8,0
9.82,0
9.84,0
9.86,0
9.88,4
9.9,6
9.92,1
9.94,2
9.96,1
9.98,6
10.,5
