t,neff
5.,0.210262954414
5.02,0.227039108695
5.04,0.277982015185
5.06,0.397635227384
5.08,0.387612914567
5.1,0.344485479128
5.12,0.530764921131
5.14,0.492014018634
5.16,0.415301397483
5.18,0.64779369444
5.2,0.778452069018
5.22,0.793996299351
5.24,0.92438557521
5.26,0.640604713134
5.28,0.726293376186
5.3,0.820655593113
5.32,0.980713415906
5.34,0.917628394109
5.36,0.468588595638
5.38,0.394420949521
5.4,0.275372907817
5.42,0.179244192359
5.44,0.296485583258
5.46,0.303829070036
5.48,0.192722037573
5.5,0.116217870522
5.52,0.115591762084
5.54,0.0379325095194
5.56,0.0739783444737
5.58,0.0715236816285
5.6,0.0686352133633
5.62,0.0654913786579
5.64,0.0311270257548
5.66,0.
5.68,0.0279194085144
5.7,0.026413174702
5.72,0.
5.74,0.0237375980235
5.76,0.0451417406962
5.78,0.
5.8,0.0617504903382
5.82,0.0790249208987
5.84,0.0571009765253
5.86,0.0920629309198
5.88,0.107301188076
5.9,0.0872235375748
5.92,0.0855188032225
5.94,0.117899513115
5.96,0.216728656707
5.98,0.182236618462
6.,0.264920052885
6.02,0.348880004857
6.04,0.334673870271
6.06,0.321742559983
6.08,0.447821746441
6.1,0.439826740624
6.12,0.415101874316
6.14,0.632428574924
6.16,0.44240170506
6.18,0.619463485114
6.2,0.541818522078
6.22,0.633198172061
6.24,0.779992554923
6.26,0.870176687561
6.28,0.790407171781
6.3,0.754280456551
6.32,0.740442301895
6.34,0.752250499452
6.36,0.602602855144
6.38,0.467144631869
6.4,0.27939104353
6.42,0.254525780563
6.44,0.375928249944
6.46,0.154110395866
6.48,0.195624741044
6.5,0.196618127438
6.52,0.117280439006
6.54,0.115433955009
6.56,0.0375150172389
6.58,0.0362687608569
6.6,0.
6.62,0.
6.64,0.
6.66,0.
6.68,0.
6.7,0.
6.72,0.0507804818861
6.74,0.0481565212194
6.76,0.0228790711878
6.78,0.04362802205
6.8,0.0208643954538
6.82,0.0200233273559
6.84,0.
6.86,0.0559705817698
6.88,0.0725583260813
6.9,0.212639724648
6.92,0.173633503087
6.94,0.170854175612
6.96,0.185897099582
6.98,0.28578503326
7.,0.319117905424
7.02,0.337074732179
7.04,0.254577422941
7.06,0.429877863381
7.08,0.349490905722
7.1,0.464074597108
7.12,0.512973229683
7.14,0.604204234572
7.16,0.527565773889
7.18,0.712212954991
7.2,0.998901530482
7.22,0.868184984053
7.24,0.818515578792
7.26,0.91252877067
7.28,0.832040885494
7.3,0.686341233593
7.32,0.609145693176
7.34,0.704575449143
7.36,0.581586382871
7.38,0.509757998161
7.4,0.42715388188
7.42,0.333559638225
7.44,0.191521936396
7.46,0.157103879631
7.48,0.199404708517
7.5,0.240365384362
7.52,0.0796475813163
7.54,0.0784066526269
7.56,0.
7.58,0.
7.6,0.
7.62,0.
7.64,0.
7.66,0.
7.68,0.
7.7,0.027309499449
7.72,0.0258673572228
7.74,0.0245372812316
7.76,0.0233359912898
7.78,0.0222399334815
7.8,0.10639266945
7.82,0.0408408464066
7.84,0.0590161593236
7.86,0.114207537024
7.88,0.203478588
7.9,0.180523657991
7.92,0.176999044559
7.94,0.104536580143
7.96,0.155114720889
7.98,0.171288186671
8.,0.222352260121
8.02,0.222936551975
8.04,0.31100500148
8.06,0.349842061686
8.08,0.462713876005
8.1,0.600361376882
8.12,0.522528033233
8.14,0.712464758997
8.16,0.718243708049
8.18,0.892901683193
8.2,0.845211446756
8.22,0.862818849509
8.24,0.882414767219
8.26,0.803925902454
8.28,0.742674107027
8.3,0.896841578598
8.32,0.830210595927
8.34,0.783524605714
8.36,0.595059950943
8.38,0.312900938972
8.4,0.473817235549
8.42,0.265578360346
8.44,0.235247753152
8.46,0.200916644463
8.48,0.122357189425
8.5,0.0409761705768
8.52,0.
8.54,0.
8.56,0.
8.58,0.
8.6,0.
8.62,0.
8.64,0.
8.66,0.0311504797224
8.68,0.
8.7,0.
8.72,0.
8.74,0.
8.76,0.
8.78,0.0226819278255
8.8,0.
8.82,0.0624574483654
8.84,0.0200584320663
8.86,0.116429970183
8.88,0.131974092609
8.9,0.0920236062157
8.92,0.144393549246
8.94,0.302454141568
8.96,0.281485104995
8.98,0.227302047836
9.,0.279315499812
9.02,0.245007229726
9.04,0.193870299758
9.06,0.213994420443
9.08,0.271981044662
9.1,0.481612552831
9.12,0.532172447528
9.14,0.587931359899
9.16,0.771114318536
9.18,0.780640189523
9.2,0.726165735831
9.22,0.853092192178
9.24,1.01785393347
9.26,0.867231013409
9.28,0.915898015128
9.3,0.882760385684
9.32,1.11389410799
9.34,0.572426389686
9.36,0.536853181745
9.38,0.529376013375
9.4,0.591474053462
9.42,0.500474402799
9.44,0.357928833499
9.46,0.244547583521
9.48,0.165470004721
9.5,0.124627316199
9.52,0.
9.54,0.
9.56,0.
9.58,0.0382516629549
9.6,0.0734248279141
9.62,0.0350148706698
9.64,0.0332714800876
9.66,0.0315336161785
9.68,0.0596557232447
9.7,0.0564463738277
9.72,0.
9.74,0.025357166225
9.76,0.0482292449973
9.78,0.0229827018944
9.8,0.0439583208491
9.82,0.021090768769
9.84,0.0406410994833
9.86,0.0786350732296
9.88,0.0381990394034
9.9,0.11188754346
9.92,0.164599523827
9.94,0.161942617442
9.96,0.213581243746
9.98,0.106052762657
10.,0.264675755813
