t,s,e,i,r,c,o,n,reff,coal,reportr
5.,6625.,27.,12.,3336.,0.,0.,10000.,1.10110032113,2.1206376555,351.
5.02,6619.,23.,15.,3343.,0.,0.,10000.,1.09762462919,2.48158611817,299.
5.04,6616.,27.,10.,3347.,0.,0.,10000.,1.0897341733,2.09874729673,351.
5.06,6609.,25.,15.,3349.,0.,0.,9998.,1.07661741452,2.2393642222,325.
5.08,6596.,31.,12.,3357.,0.,0.,9996.,1.0579600047,1.77464258853,403.
5.1,6581.,29.,21.,3361.,0.,0.,9992.,1.03493107033,1.85573847094,377.
5.12,6561.,38.,16.,3373.,0.,0.,9988.,1.00722916334,1.37831359195,494.
5.14,6553.,37.,9.,3388.,0.,0.,9987.,0.977577716405,1.37389300684,481.
5.16,6543.,32.,19.,3390.,0.,0.,9984.,0.944761746076,1.53523783737,416.
5.18,6527.,35.,16.,3410.,0.,0.,9988.,0.907924223014,1.34891598848,455.
5.2,6509.,35.,17.,3423.,0.,0.,9984.,0.86963503569,1.29202919588,455.
5.22,6491.,43.,13.,3440.,0.,0.,9987.,0.829428233944,1.00302949221,559.
5.24,6486.,25.,23.,3451.,0.,0.,9985.,0.790523793829,1.64428949117,325.
5.26,6479.,28.,17.,3462.,0.,0.,9986.,0.750900233498,1.39452900507,364.
5.28,6470.,27.,15.,3478.,0.,0.,9990.,0.711239364267,1.36979433118,351.
5.3,6469.,24.,14.,3484.,0.,0.,9991.,0.673659073205,1.45959465861,312.
5.32,6475.,20.,14.,3482.,0.,0.,9991.,0.638349822473,1.65970953843,260.
5.34,6474.,18.,14.,3482.,0.,0.,9988.,0.604570435844,1.74653681466,234.
5.36,6466.,15.,17.,3490.,0.,0.,9988.,0.572590494301,1.98498038024,195.
5.38,6471.,13.,13.,3494.,0.,0.,9991.,0.544705371083,2.17882148433,169.
5.4,6479.,9.,7.,3495.,0.,0.,9990.,0.52078047936,3.00895388075,117.
5.42,6490.,7.,3.,3492.,0.,0.,9992.,0.500805670595,3.72027069585,91.
5.44,6502.,5.,2.,3487.,0.,0.,9996.,0.485014984919,5.04415584315,65.
5.46,6508.,6.,0.,3482.,0.,0.,9996.,0.473464778837,4.10336141659,78.
5.48,6511.,5.,2.,3474.,0.,0.,9992.,0.466591195362,4.85254843176,65.
5.5,6524.,6.,1.,3464.,0.,0.,9995.,0.464938355649,4.02946574895,78.
5.52,6535.,3.,3.,3456.,0.,0.,9997.,0.468076857233,8.11333219204,39.
5.54,6538.,1.,1.,3457.,0.,0.,9997.,0.47559973569,24.7311862559,13.
5.56,6544.,1.,1.,3449.,0.,0.,9995.,0.488196803121,25.3862337623,13.
5.58,6552.,2.,1.,3441.,0.,0.,9996.,0.505387629741,13.1400783733,26.
5.6,6558.,1.,0.,3437.,0.,0.,9996.,0.526814075724,27.3943319377,13.
5.62,6566.,1.,0.,3430.,0.,0.,9997.,0.552370406627,28.7232611446,13.
5.64,6578.,0.,0.,3420.,0.,0.,9998.,0.581925922949,inf,0.
5.66,6590.,0.,0.,3410.,0.,0.,10000.,0.614664539575,inf,0.
5.68,6599.,0.,0.,3400.,0.,0.,9999.,0.65005407955,inf,0.
5.7,6605.,0.,0.,3393.,0.,0.,9998.,0.687340066894,inf,0.
5.72,6611.,1.,0.,3387.,0.,0.,9999.,0.726085194876,37.7564301336,13.
5.74,6623.,0.,1.,3381.,0.,0.,10005.,0.766131789687,inf,0.
5.76,6628.,0.,0.,3376.,0.,0.,10004.,0.806296710108,inf,0.
5.78,6637.,1.,0.,3367.,0.,0.,10005.,0.846558510753,44.0210425591,13.
5.8,6655.,1.,0.,3352.,0.,0.,10008.,0.887009134228,46.1244749799,13.
5.82,6667.,1.,0.,3343.,0.,0.,10011.,0.925267947235,48.1139332562,13.
5.84,6674.,0.,1.,3336.,0.,0.,10011.,0.961078126529,inf,0.
5.86,6677.,1.,1.,3330.,0.,0.,10009.,0.993886661794,51.6821064133,13.
5.88,6679.,2.,3.,3327.,0.,0.,10011.,1.02298854307,26.5977021198,26.
5.9,6682.,5.,2.,3323.,0.,0.,10012.,1.04871526671,10.9066387738,65.
5.92,6684.,5.,1.,3320.,0.,0.,10010.,1.07057528729,11.1339829878,65.
5.94,6694.,4.,3.,3312.,0.,0.,10013.,1.08883048759,14.1547963387,52.
5.96,6690.,12.,2.,3307.,0.,0.,10011.,1.10071207334,4.76975231781,156.
5.98,6690.,10.,7.,3306.,0.,0.,10013.,1.10795816915,5.76138247959,130.
6.,6690.,14.,9.,3301.,0.,0.,10014.,1.11034908085,4.12415372886,182.
6.02,6686.,14.,10.,3302.,0.,0.,10012.,1.1074063097,4.11322343604,182.
6.04,6681.,20.,9.,3296.,0.,0.,10006.,1.09978058084,2.85942951019,260.
6.06,6673.,28.,8.,3301.,0.,0.,10010.,1.08573997549,2.01637424019,364.
6.08,6668.,20.,21.,3296.,0.,0.,10005.,1.06854630908,2.77822040361,260.
6.1,6652.,31.,17.,3307.,0.,0.,10007.,1.0445285156,1.75211234874,403.
6.12,6630.,38.,21.,3316.,0.,0.,10005.,1.01609244726,1.39044229625,494.
6.14,6608.,44.,20.,3330.,0.,0.,10002.,0.984304248015,1.16326865675,572.
6.16,6601.,30.,23.,3348.,0.,0.,10002.,0.951421222738,1.64913011941,390.
6.18,6592.,36.,16.,3358.,0.,0.,10002.,0.915682411907,1.32265237275,468.
6.2,6596.,27.,19.,3363.,0.,0.,10005.,0.87940895355,1.69367650313,351.
6.22,6584.,26.,24.,3372.,0.,0.,10006.,0.839714358128,1.67942871626,338.
6.24,6563.,33.,19.,3391.,0.,0.,10006.,0.798229872963,1.25781676952,429.
6.26,6551.,33.,19.,3402.,0.,0.,10005.,0.75780301287,1.19411383846,429.
6.28,6553.,30.,10.,3415.,0.,0.,10008.,0.719067837304,1.24638425133,390.
6.3,6561.,17.,11.,3422.,0.,0.,10011.,0.681874654195,2.08573423636,221.
6.32,6559.,19.,6.,3426.,0.,0.,10010.,0.645403745716,1.76636814617,247.
6.34,6559.,17.,10.,3423.,0.,0.,10009.,0.611222997189,1.86962328552,221.
6.36,6554.,16.,8.,3429.,0.,0.,10007.,0.57928129399,1.88266420547,208.
6.38,6557.,18.,12.,3423.,0.,0.,10010.,0.550896892998,1.59147991311,234.
6.4,6560.,15.,13.,3425.,0.,0.,10013.,0.526080044801,1.82374415531,195.
6.42,6563.,18.,10.,3430.,0.,0.,10021.,0.504973175134,1.45881139483,234.
6.44,6574.,13.,5.,3430.,0.,0.,10022.,0.489113601791,1.95645440716,169.
6.46,6579.,11.,1.,3431.,0.,0.,10022.,0.477388407161,2.25674519749,143.
6.48,6585.,7.,6.,3423.,0.,0.,10021.,0.470528557061,3.49535499531,91.
6.5,6589.,7.,4.,3421.,0.,0.,10021.,0.468352310234,3.47918859031,91.
6.52,6595.,2.,5.,3416.,0.,0.,10018.,0.471384222003,12.2559897721,26.
6.54,6601.,3.,4.,3409.,0.,0.,10017.,0.479223867168,8.30654703091,39.
6.56,6606.,1.,0.,3406.,0.,0.,10013.,0.491936211436,25.5806829947,13.
6.58,6618.,1.,0.,3398.,0.,0.,10017.,0.509408345174,26.4892339491,13.
6.6,6624.,2.,0.,3388.,0.,0.,10014.,0.531159486055,13.8101466374,26.
6.62,6635.,2.,0.,3379.,0.,0.,10016.,0.557116252539,14.485022566,26.
6.64,6641.,2.,0.,3375.,0.,0.,10018.,0.586326360847,15.244485382,26.
6.66,6649.,1.,0.,3368.,0.,0.,10018.,0.619053310056,32.1907721229,13.
6.68,6652.,2.,0.,3362.,0.,0.,10016.,0.654162813841,17.0082331599,26.
6.7,6659.,1.,0.,3357.,0.,0.,10017.,0.691645112612,35.9655458558,13.
6.72,6667.,1.,0.,3349.,0.,0.,10017.,0.730919879593,38.0078337388,13.
6.74,6676.,1.,0.,3340.,0.,0.,10017.,0.771337552352,40.1095527223,13.
6.76,6682.,1.,0.,3335.,0.,0.,10018.,0.811729846865,42.209952037,13.
6.78,6689.,1.,1.,3327.,0.,0.,10018.,0.852084026869,44.3083693972,13.
6.8,6696.,2.,1.,3318.,0.,0.,10017.,0.89167194032,23.1834704483,26.
6.82,6700.,1.,1.,3312.,0.,0.,10014.,0.929569230233,48.3375999721,13.
6.84,6704.,2.,1.,3306.,0.,0.,10013.,0.965205397022,25.0953403226,26.
6.86,6712.,4.,3.,3300.,0.,0.,10019.,0.998099289724,12.9752907664,52.
6.88,6711.,6.,2.,3298.,0.,0.,10017.,1.02727413349,8.90304249022,78.
6.9,6715.,6.,2.,3295.,0.,0.,10018.,1.05326329452,9.12828188583,78.
6.92,6721.,6.,3.,3290.,0.,0.,10020.,1.07542721893,9.32036923072,78.
6.94,6728.,3.,5.,3285.,0.,0.,10021.,1.09348719459,18.9537780396,39.
6.96,6726.,13.,2.,3279.,0.,0.,10020.,1.10564120393,4.42256481574,169.
6.98,6730.,9.,8.,3271.,0.,0.,10018.,1.11402644215,6.43659722133,117.
7.,6732.,15.,4.,3266.,0.,0.,10017.,1.11698525515,3.8722155512,195.
7.02,6729.,17.,2.,3264.,0.,0.,10012.,1.11452842626,3.40914577445,221.
7.04,6727.,17.,7.,3260.,0.,0.,10011.,1.10679971859,3.38550502157,221.
7.06,6722.,19.,8.,3260.,0.,0.,10009.,1.09382186324,2.99361773096,247.
7.08,6718.,19.,8.,3263.,0.,0.,10008.,1.07623609443,2.94548825843,247.
7.1,6714.,20.,14.,3258.,0.,0.,10006.,1.05436941215,2.7413604716,260.
7.12,6698.,32.,12.,3265.,0.,0.,10007.,1.02630874909,1.66775171727,416.
7.14,6687.,36.,14.,3271.,0.,0.,10008.,0.995474642528,1.43790781699,468.
7.16,6671.,38.,24.,3275.,0.,0.,10008.,0.960934080048,1.31496242533,494.
7.18,6663.,39.,21.,3285.,0.,0.,10008.,0.924990006314,1.23332000842,507.
7.2,6645.,40.,16.,3309.,0.,0.,10010.,0.885499329747,1.15114912867,520.
7.22,6632.,43.,13.,3323.,0.,0.,10011.,0.845413759093,1.02236082495,559.
7.24,6625.,39.,15.,3332.,0.,0.,10011.,0.805368227531,1.07382430337,507.
7.26,6620.,34.,13.,3343.,0.,0.,10010.,0.765402247451,1.17061520198,442.
7.28,6615.,28.,17.,3349.,0.,0.,10009.,0.725798643081,1.34791176572,364.
7.3,6607.,32.,14.,3357.,0.,0.,10010.,0.686723960492,1.1159264358,416.
7.32,6611.,20.,11.,3367.,0.,0.,10009.,0.650585524574,1.69152236389,260.
7.34,6606.,16.,18.,3364.,0.,0.,10004.,0.615910532362,2.00170923018,208.
7.36,6600.,19.,7.,3374.,0.,0.,10000.,0.583755389062,1.59764632796,247.
7.38,6602.,14.,9.,3373.,0.,0.,9998.,0.555343386637,2.06270400751,182.
7.4,6600.,19.,5.,3374.,0.,0.,9998.,0.530081940545,1.45075057412,247.
7.42,6602.,14.,7.,3373.,0.,0.,9996.,0.509244372948,1.89147909952,182.
7.44,6607.,13.,4.,3374.,0.,0.,9998.,0.492748843179,1.97099537272,169.
7.46,6613.,11.,4.,3373.,0.,0.,10001.,0.480863126567,2.27317114377,143.
7.48,6623.,7.,5.,3366.,0.,0.,10001.,0.474190224979,3.52255595698,91.
7.5,6628.,3.,5.,3366.,0.,0.,10002.,0.472019424369,8.1816700224,39.
7.52,6635.,2.,3.,3363.,0.,0.,10003.,0.474954413562,12.3488147526,26.
7.54,6644.,3.,1.,3357.,0.,0.,10005.,0.48292413575,8.37068501967,39.
7.56,6643.,2.,2.,3352.,0.,0.,9999.,0.495384168222,12.8799883738,26.
7.58,6643.,2.,1.,3348.,0.,0.,9994.,0.512509445283,13.3252455774,26.
7.6,6651.,2.,0.,3341.,0.,0.,9994.,0.534391827758,13.8941875217,26.
7.62,6668.,0.,2.,3327.,0.,0.,9997.,0.5609512445,inf,0.
7.64,6673.,2.,0.,3324.,0.,0.,9999.,0.590271104566,15.3470487187,26.
7.66,6682.,0.,2.,3317.,0.,0.,10001.,0.623183274,inf,0.
7.68,6688.,0.,1.,3312.,0.,0.,10001.,0.658689537602,inf,0.
7.7,6696.,0.,1.,3306.,0.,0.,10003.,0.696461553904,inf,0.
7.72,6699.,0.,0.,3300.,0.,0.,9999.,0.735750222429,inf,0.
7.74,6704.,1.,1.,3293.,0.,0.,9999.,0.775967011139,40.3502845792,13.
7.76,6713.,0.,0.,3286.,0.,0.,9999.,0.817045325969,inf,0.
7.78,6721.,0.,0.,3279.,0.,0.,10000.,0.857701463107,inf,0.
7.8,6730.,0.,0.,3275.,0.,0.,10005.,0.897274447755,inf,0.
7.82,6735.,0.,0.,3272.,0.,0.,10007.,0.935078828982,inf,0.
7.84,6738.,4.,1.,3265.,0.,0.,10008.,0.970585194328,12.6176075263,52.
7.86,6745.,4.,1.,3253.,0.,0.,10003.,1.00461084122,13.0599409358,52.
7.88,6746.,8.,1.,3247.,0.,0.,10002.,1.03418033272,6.72217216267,104.
7.9,6756.,7.,3.,3239.,0.,0.,10005.,1.06107115348,7.88224285445,91.
7.92,6757.,6.,2.,3240.,0.,0.,10005.,1.08280854986,9.38434076545,78.
7.94,6755.,9.,3.,3237.,0.,0.,10004.,1.09974108782,6.35405961853,117.
7.96,6758.,12.,2.,3237.,0.,0.,10009.,1.1121223582,4.81919688551,156.
7.98,6760.,8.,5.,3237.,0.,0.,10010.,1.1198866843,7.27926344793,104.
8.,6763.,10.,4.,3233.,0.,0.,10010.,1.12291353503,5.83915038218,130.
8.02,6759.,9.,7.,3233.,0.,0.,10008.,1.11994478578,6.47079209561,117.
8.04,6760.,11.,6.,3232.,0.,0.,10009.,1.11245148585,5.25886156949,143.
8.06,6754.,20.,5.,3230.,0.,0.,10009.,1.09902898904,2.85747537149,260.
8.08,6754.,16.,10.,3230.,0.,0.,10010.,1.08178717689,3.51580832491,208.
8.1,6746.,19.,14.,3232.,0.,0.,10011.,1.05886559042,2.89794793168,247.
8.12,6737.,27.,16.,3231.,0.,0.,10011.,1.0318721088,1.98730924657,351.
8.14,6724.,28.,12.,3245.,0.,0.,10009.,1.00088271887,1.85878219219,364.
8.16,6715.,27.,19.,3248.,0.,0.,10009.,0.96717548501,1.8627083415,351.
8.18,6704.,31.,10.,3262.,0.,0.,10007.,0.930774828433,1.56129971221,403.
8.2,6697.,26.,20.,3265.,0.,0.,10008.,0.892607088194,1.78521417639,338.
8.22,6687.,30.,14.,3279.,0.,0.,10010.,0.852510037768,1.47768406546,390.
8.24,6681.,29.,14.,3284.,0.,0.,10008.,0.812419326391,1.4567518956,377.
8.26,6672.,34.,14.,3288.,0.,0.,10008.,0.771568630109,1.18004614017,442.
8.28,6664.,31.,18.,3294.,0.,0.,10007.,0.731321062019,1.22673210403,403.
8.3,6660.,30.,13.,3302.,0.,0.,10005.,0.692578662758,1.20046968211,390.
8.32,6653.,31.,16.,3307.,0.,0.,10007.,0.654849577756,1.09845735624,403.
8.34,6660.,25.,16.,3305.,0.,0.,10006.,0.620821108787,1.29130790628,325.
8.36,6661.,19.,14.,3312.,0.,0.,10006.,0.588797425566,1.61144558576,247.
8.38,6665.,17.,10.,3313.,0.,0.,10005.,0.56025053199,1.71370750962,221.
8.4,6668.,14.,7.,3318.,0.,0.,10007.,0.535061738946,1.98737217323,182.
8.42,6665.,10.,6.,3325.,0.,0.,10006.,0.513590073796,2.67066838374,130.
8.44,6668.,10.,3.,3323.,0.,0.,10004.,0.496999952321,2.58439975207,130.
8.46,6677.,8.,3.,3315.,0.,0.,10003.,0.485419801006,3.15522870654,104.
8.48,6679.,8.,5.,3313.,0.,0.,10005.,0.478008500549,3.10705525357,104.
8.5,6686.,6.,1.,3312.,0.,0.,10005.,0.476007176814,4.12539553239,78.
8.52,6692.,4.,0.,3308.,0.,0.,10004.,0.478986770633,6.22682801823,52.
8.54,6699.,1.,3.,3303.,0.,0.,10006.,0.486873189118,25.3174058341,13.
8.56,6713.,0.,1.,3294.,0.,0.,10008.,0.500154049557,inf,0.
8.58,6721.,0.,0.,3288.,0.,0.,10009.,0.51775007734,inf,0.
8.6,6725.,0.,0.,3282.,0.,0.,10007.,0.539635602041,inf,0.
8.62,6731.,0.,0.,3279.,0.,0.,10010.,0.56551578264,inf,0.
8.64,6745.,1.,0.,3266.,0.,0.,10012.,0.595865279728,30.9849945458,13.
8.66,6748.,1.,0.,3263.,0.,0.,10012.,0.628647188328,32.6896537931,13.
8.68,6753.,1.,0.,3256.,0.,0.,10010.,0.66449329087,34.5536511252,13.
8.7,6762.,1.,0.,3244.,0.,0.,10007.,0.703045184591,36.5583495987,13.
8.72,6768.,1.,0.,3236.,0.,0.,10005.,0.742882708466,38.6299008402,13.
8.74,6775.,0.,1.,3228.,0.,0.,10004.,0.783793103107,inf,0.
8.76,6778.,0.,0.,3222.,0.,0.,10000.,0.824874039341,inf,0.
8.78,6787.,0.,0.,3213.,0.,0.,10000.,0.8661240634,inf,0.
8.8,6793.,1.,0.,3205.,0.,0.,9999.,0.906217355207,47.1233024708,13.
8.82,6799.,1.,0.,3197.,0.,0.,9997.,0.944908755317,49.1352552765,13.
8.84,6801.,3.,0.,3190.,0.,0.,9994.,0.981032470261,17.0045628179,39.
8.86,6810.,4.,2.,3180.,0.,0.,9996.,1.01500233135,13.1950303075,52.
8.88,6812.,5.,2.,3176.,0.,0.,9995.,1.04502968854,10.8683087608,65.
8.9,6817.,7.,4.,3167.,0.,0.,9995.,1.07172276404,7.96136910426,91.
8.92,6809.,7.,8.,3165.,0.,0.,9989.,1.09288929347,8.11860618004,91.
8.94,6800.,15.,4.,3165.,0.,0.,9984.,1.1092849511,3.84552116382,195.
8.96,6800.,18.,3.,3163.,0.,0.,9984.,1.12183610743,3.24085986591,234.
8.98,6805.,12.,9.,3162.,0.,0.,9988.,1.12982468245,4.89590695727,156.
9.,6798.,17.,7.,3168.,0.,0.,9990.,1.13098456691,3.45948220466,221.
9.02,6789.,25.,2.,3170.,0.,0.,9986.,1.1273939744,2.34497946676,325.
9.04,6785.,22.,3.,3176.,0.,0.,9986.,1.1191372828,2.64523357754,286.
9.06,6778.,18.,11.,3182.,0.,0.,9989.,1.10514263118,3.19263426785,234.
9.08,6766.,22.,11.,3184.,0.,0.,9983.,1.08664021269,2.5684223209,286.
9.1,6751.,26.,16.,3188.,0.,0.,9981.,1.06283540308,2.12567080616,338.
9.12,6734.,32.,10.,3204.,0.,0.,9980.,1.03461640069,1.68125165113,416.
9.14,6730.,34.,6.,3210.,0.,0.,9980.,1.0046868044,1.53657981849,442.
9.16,6725.,24.,18.,3210.,0.,0.,9977.,0.971722521937,2.10539879753,312.
9.18,6711.,29.,17.,3214.,0.,0.,9971.,0.935110743371,1.67675029846,377.
9.2,6700.,33.,13.,3225.,0.,0.,9971.,0.896320677567,1.41238409798,429.
9.22,6689.,31.,18.,3231.,0.,0.,9969.,0.856272222006,1.4363275982,403.
9.24,6681.,28.,17.,3241.,0.,0.,9967.,0.815761274057,1.51498522325,364.
9.26,6672.,29.,16.,3252.,0.,0.,9969.,0.774587105039,1.38891480904,377.
9.28,6662.,28.,18.,3258.,0.,0.,9966.,0.734109320701,1.3633458813,364.
9.3,6661.,29.,15.,3261.,0.,0.,9966.,0.695393332204,1.24691218188,377.
9.32,6658.,26.,14.,3270.,0.,0.,9968.,0.657905761482,1.31581152296,338.
9.34,6657.,15.,14.,3281.,0.,0.,9967.,0.622969584142,2.15962789169,195.
9.36,6655.,18.,8.,3287.,0.,0.,9968.,0.590509648178,1.7059167614,234.
9.38,6658.,13.,8.,3290.,0.,0.,9969.,0.561683170719,2.24673268288,169.
9.4,6656.,12.,10.,3293.,0.,0.,9971.,0.536027168362,2.32278439624,156.
9.42,6656.,12.,4.,3295.,0.,0.,9967.,0.51490347321,2.23124838391,156.
9.44,6655.,13.,2.,3295.,0.,0.,9965.,0.497972311695,1.99188924678,169.
9.46,6664.,9.,6.,3289.,0.,0.,9968.,0.486175802281,2.80901574651,117.
9.48,6667.,10.,3.,3284.,0.,0.,9964.,0.479113055915,2.49138789076,130.
9.5,6675.,5.,8.,3274.,0.,0.,9962.,0.477275294216,4.96366305985,65.
9.52,6679.,2.,6.,3278.,0.,0.,9965.,0.479927250175,12.4781085045,26.
9.54,6682.,1.,3.,3278.,0.,0.,9964.,0.487684702349,25.3596045221,13.
9.56,6691.,0.,0.,3274.,0.,0.,9965.,0.500666076266,inf,0.
9.58,6701.,0.,0.,3265.,0.,0.,9966.,0.518436656839,inf,0.
9.6,6709.,0.,0.,3257.,0.,0.,9966.,0.540566482885,inf,0.
9.62,6718.,0.,1.,3248.,0.,0.,9967.,0.566858623772,inf,0.
9.64,6726.,0.,0.,3239.,0.,0.,9965.,0.596989272579,inf,0.
9.66,6730.,0.,0.,3231.,0.,0.,9961.,0.630180366759,inf,0.
9.68,6744.,0.,0.,3221.,0.,0.,9965.,0.666604416566,inf,0.
9.7,6748.,0.,0.,3217.,0.,0.,9965.,0.704546630428,inf,0.
9.72,6759.,0.,0.,3209.,0.,0.,9968.,0.744648655638,inf,0.
9.74,6767.,1.,0.,3199.,0.,0.,9967.,0.785773791504,40.8602371582,13.
9.76,6774.,1.,0.,3191.,0.,0.,9966.,0.827199723452,43.0143856195,13.
9.78,6782.,1.,1.,3185.,0.,0.,9969.,0.868177337366,45.145221543,13.
9.8,6791.,0.,1.,3178.,0.,0.,9970.,0.908585708104,inf,0.
9.82,6794.,1.,3.,3175.,0.,0.,9973.,0.94648611563,49.2172780128,13.
9.84,6798.,5.,1.,3170.,0.,0.,9974.,0.982566037319,10.2186867881,65.
9.86,6803.,4.,3.,3162.,0.,0.,9972.,1.01639934486,13.2131914832,52.
9.88,6804.,2.,6.,3160.,0.,0.,9972.,1.04620989414,27.2014572476,26.
9.9,6810.,11.,1.,3155.,0.,0.,9977.,1.07255383393,5.07025448766,143.
9.92,6822.,10.,3.,3147.,0.,0.,9982.,1.09574374426,5.69786747016,130.
9.94,6829.,11.,1.,3140.,0.,0.,9981.,1.11435056607,5.26783903962,143.
9.96,6834.,9.,5.,3136.,0.,0.,9984.,1.12744528797,6.51412833049,117.
9.98,6834.,8.,8.,3132.,0.,0.,9982.,1.13532152343,7.37958990229,104.
10.,6830.,16.,2.,3133.,0.,0.,9981.,1.13733303742,3.69633237161,208.
