t,neff
5.,0.282622113905
5.02,0.441068463907
5.04,0.428917323424
5.06,0.417830735488
5.08,0.3921528363
5.1,0.40080027026
5.12,0.514075552661
5.14,0.406265870375
5.16,0.695954732344
5.18,0.609094454637
5.2,0.63512210717
5.22,0.727464472496
5.24,0.545046179107
5.26,0.75815143874
5.28,0.777385446401
5.3,1.05405535982
5.32,0.842763863927
5.34,0.890935928192
5.36,0.667191092654
5.38,0.542368681574
5.4,0.467847355085
5.42,0.417417182198
5.44,0.215785993254
5.46,0.258226471912
5.48,0.149810174843
5.5,0.188127765613
5.52,0.074811852754
5.54,0.110421882917
5.56,0.143551220945
5.58,0.104010622135
5.6,0.099789829675
5.62,0.0317314873769
5.64,0.0602982630747
5.66,0.
5.68,0.
5.7,0.0255975085216
5.72,0.
5.74,0.0459882662627
5.76,0.0218473725518
5.78,0.0416392131211
5.8,0.0796427312301
5.82,0.0763993970054
5.84,0.110400015789
5.86,0.124607842038
5.88,0.120979417198
5.9,0.117980598135
5.92,0.0991340776834
5.94,0.17909464174
5.96,0.289973156517
5.98,0.256121161944
6.,0.351576397654
6.02,0.336430089679
6.04,0.403517249914
6.06,0.441568561334
6.08,0.41594185312
6.1,0.407686841787
6.12,0.611059714322
6.14,0.61234420088
6.16,0.652587889067
6.18,0.659012439981
6.2,0.707718222976
6.22,0.634581607968
6.24,0.732895743277
6.26,0.724608908699
6.28,0.764504542231
6.3,0.912930939895
6.32,0.688965757261
6.34,0.582237640435
6.36,0.614286898812
6.38,0.51714174111
6.4,0.643777815291
6.42,0.529037232785
6.44,0.474177797437
6.46,0.224312292863
6.48,0.265707800572
6.5,0.152477003246
6.52,0.15158714877
6.54,0.
6.56,0.0363167738408
6.58,0.
6.6,0.0336500746317
6.62,0.
6.64,0.
6.66,0.
6.68,0.
6.7,0.
6.72,0.0489695025988
6.74,0.069667943866
6.76,0.0441347012005
6.78,0.0630958652699
6.8,0.0602998163458
6.82,0.0578631679145
6.84,0.0371563594683
6.86,0.143851920653
6.88,0.157202277606
6.9,0.17041419837
6.92,0.167096843041
6.94,0.180860169782
6.96,0.29283107392
6.98,0.323239836579
7.,0.339066869176
7.02,0.437466389209
7.04,0.391658129079
7.06,0.462744950175
7.08,0.537904598328
7.1,0.567163937857
7.12,0.671034678563
7.14,0.856038846095
7.16,0.602493451407
7.18,0.70494613696
7.2,0.797441505904
7.22,0.663040883182
7.24,0.673529626689
7.26,0.732936607996
7.28,0.648407585565
7.3,0.500341899871
7.32,0.724667888473
7.34,0.559414460129
7.36,0.465751926081
7.38,0.686238273162
7.4,0.547455750572
7.42,0.499065358051
7.44,0.405320289046
7.46,0.340220895195
7.48,0.345447338728
7.5,0.231392801167
7.52,0.0383131819051
7.54,0.0377131754599
7.56,0.
7.58,0.
7.6,0.
7.62,0.
7.64,0.
7.66,0.
7.68,0.
7.7,0.
7.72,0.
7.74,0.
7.76,0.0446902027235
7.78,0.0212956770006
7.8,0.
7.82,0.
7.84,0.0752174670365
7.86,0.0727543544484
7.88,0.105947979291
7.9,0.103362783382
7.92,0.0844254491493
7.94,0.282996956584
7.96,0.31299262283
7.98,0.360269587514
8.,0.343227339947
8.02,0.2457840916
8.04,0.280606787368
8.06,0.317072964419
8.08,0.441039724851
8.1,0.554361402938
8.12,0.337613824425
8.14,0.513389216906
8.16,0.683304670855
8.18,0.749590844093
8.2,0.782155660557
8.22,0.667542841341
8.24,0.701048566623
8.26,0.810103016191
8.28,0.854759008566
8.3,0.823349182702
8.32,0.758069631659
8.34,0.742468185723
8.36,0.720186341241
8.38,0.625185061913
8.4,0.482625896766
8.42,0.394714724904
8.44,0.296636301789
8.46,0.265898183154
8.48,0.231218455629
8.5,0.154837933217
8.52,0.11535896735
8.54,0.
8.56,0.0738159782024
8.58,0.0713637838531
8.6,0.0342269661957
8.62,0.0653338176888
8.64,0.
8.66,0.0293987249602
8.68,0.0277967442504
8.7,0.0262970128828
8.72,0.0248816082918
8.74,0.0235828436033
8.76,0.
8.78,0.0213615293139
8.8,0.0612791887816
8.82,0.0195879574048
8.84,0.0377356644547
8.86,0.109514966638
8.88,0.124051526286
8.9,0.13829444871
8.92,0.135468415167
8.94,0.21693146269
8.96,0.181579285205
8.98,0.344445382063
9.,0.245561169389
9.02,0.279163549158
9.04,0.397126358453
9.06,0.301274836988
9.08,0.25529681985
9.1,0.347877792389
9.12,0.589695770169
9.14,0.737626257873
9.16,0.78243379022
9.18,0.733171465717
9.2,0.516351872003
9.22,0.844157377654
9.24,0.909447202353
9.26,0.934137798003
9.28,0.859344624015
9.3,0.74748237464
9.32,0.676900527312
9.34,0.715099488729
9.36,0.565508014304
9.38,0.429540557579
9.4,0.553935484783
9.42,0.360088907708
9.44,0.297850956543
9.46,0.343330629446
9.48,0.232271714354
9.5,0.272173008364
9.52,0.154535829312
9.54,0.0380081710454
9.56,0.
9.58,0.
9.6,0.0343152933042
9.62,0.
9.64,0.
9.66,0.0294833505005
9.68,0.0278811802863
9.7,0.0791368501201
9.72,0.0499212501729
9.74,0.0473399940922
9.76,0.0674684955718
9.78,0.0643136588068
9.8,0.0819795524767
9.82,0.0786578386216
9.84,0.132722100287
9.86,0.0917462411221
9.88,0.178414505245
9.9,0.208855760491
9.92,0.204558856044
9.94,0.251907695471
9.96,0.249173721899
9.98,0.247406002185
10.,0.181011475258
