t,cases
5.01,3.12
5.02,3.12
5.03,3.12
5.04,3.12
5.05,3.77
5.06,3.77
5.07,4.225
5.08,4.225
5.09,4.03
5.1,4.03
5.11,3.705
5.12,3.705
5.13,4.03
5.14,4.03
5.15,4.81
5.16,4.81
5.17,5.07
5.18,5.07
5.19,4.875
5.2,4.875
5.21,4.68
5.22,4.68
5.23,4.16
5.24,4.16
5.25,4.095
5.26,4.095
5.27,4.745
5.28,4.745
5.29,5.395
5.3,5.395
5.31,4.875
5.32,4.875
5.33,4.095
5.34,4.095
5.35,3.965
5.36,3.965
5.37,3.25
5.38,3.25
5.39,2.535
5.4,2.535
5.41,2.275
5.42,2.275
5.43,1.69
5.44,1.69
5.45,1.17
5.46,1.17
5.47,0.845
5.48,0.845
5.49,0.455
5.5,0.455
5.51,0.26
5.52,0.26
5.53,0.195
5.54,0.195
5.55,0.065
5.56,0.065
5.57,0.
5.58,0.
5.59,0.
5.6,0.
5.61,0.
5.62,0.
5.63,0.
5.64,0.
5.65,0.
5.66,0.
5.67,0.
5.68,0.
5.69,0.
5.7,0.
5.71,0.
5.72,0.
5.73,0.
5.74,0.
5.75,0.13
5.76,0.13
5.77,0.26
5.78,0.26
5.79,0.13
5.8,0.13
5.81,0.065
5.82,0.065
5.83,0.325
5.84,0.325
5.85,0.585
5.86,0.585
5.87,0.65
5.88,0.65
5.89,0.78
5.9,0.78
5.91,0.91
5.92,0.91
5.93,1.43
5.94,1.43
5.95,1.885
5.96,1.885
5.97,1.625
5.98,1.625
5.99,1.82
6.,1.82
6.01,1.95
6.02,1.95
6.03,1.95
6.04,1.95
6.05,2.47
6.06,2.47
6.07,2.925
6.08,2.925
6.09,2.99
6.1,2.99
6.11,2.99
6.12,2.99
6.13,4.16
6.14,4.16
6.15,5.2
6.16,5.2
6.17,5.33
6.18,5.33
6.19,6.045
6.2,6.045
6.21,6.825
6.22,6.825
6.23,6.695
6.24,6.695
6.25,5.915
6.26,5.915
6.27,5.265
6.28,5.265
6.29,4.745
6.3,4.745
6.31,3.9
6.32,3.9
6.33,3.38
6.34,3.38
6.35,3.51
6.36,3.51
6.37,3.185
6.38,3.185
6.39,2.34
6.4,2.34
6.41,1.69
6.42,1.69
6.43,1.365
6.44,1.365
6.45,1.365
6.46,1.365
6.47,0.975
6.48,0.975
6.49,0.455
6.5,0.455
6.51,0.52
6.52,0.52
6.53,0.585
6.54,0.585
6.55,0.26
6.56,0.26
6.57,0.065
6.58,0.065
6.59,0.13
6.6,0.13
6.61,0.195
6.62,0.195
6.63,0.26
6.64,0.26
6.65,0.195
6.66,0.195
6.67,0.13
6.68,0.13
6.69,0.13
6.7,0.13
6.71,0.065
6.72,0.065
6.73,0.065
6.74,0.065
6.75,0.13
6.76,0.13
6.77,0.195
6.78,0.195
6.79,0.195
6.8,0.195
6.81,0.13
6.82,0.13
6.83,0.26
6.84,0.26
6.85,0.65
6.86,0.65
6.87,0.585
6.88,0.585
6.89,0.585
6.9,0.585
6.91,1.365
6.92,1.365
6.93,1.82
6.94,1.82
6.95,2.145
6.96,2.145
6.97,2.34
6.98,2.34
6.99,2.795
7.,2.795
7.01,3.25
7.02,3.25
7.03,3.315
7.04,3.315
7.05,3.315
7.06,3.315
7.07,3.185
7.08,3.185
7.09,3.38
7.1,3.38
7.11,3.575
7.12,3.575
7.13,3.9
7.14,3.9
7.15,3.575
7.16,3.575
7.17,3.64
7.18,3.64
7.19,3.965
7.2,3.965
7.21,3.965
7.22,3.965
7.23,4.03
7.24,4.03
7.25,4.03
7.26,4.03
7.27,4.29
7.28,4.29
7.29,3.445
7.3,3.445
7.31,2.795
7.32,2.795
7.33,2.665
7.34,2.665
7.35,2.21
7.36,2.21
7.37,1.885
7.38,1.885
7.39,1.755
7.4,1.755
7.41,1.495
7.42,1.495
7.43,1.105
7.44,1.105
7.45,0.975
7.46,0.975
7.47,0.845
7.48,0.845
7.49,0.65
7.5,0.65
7.51,0.455
7.52,0.455
7.53,0.455
7.54,0.455
7.55,0.325
7.56,0.325
7.57,0.13
7.58,0.13
7.59,0.13
7.6,0.13
7.61,0.0650000000001
7.62,0.0649999999999
7.63,0.
7.64,0.
7.65,0.
7.66,0.
7.67,0.
7.68,0.
7.69,0.0650000000001
7.7,0.0649999999999
7.71,0.195
7.72,0.195
7.73,0.195
7.74,0.195
7.75,0.0650000000001
7.76,0.0649999999999
7.77,0.0649999999999
7.78,0.0650000000001
7.79,0.13
7.8,0.13
7.81,0.13
7.82,0.13
7.83,0.26
7.84,0.26
7.85,0.52
7.86,0.52
7.87,0.585
7.88,0.585
7.89,0.78
7.9,0.78
7.91,0.91
7.92,0.91
7.93,1.04
7.94,1.04
7.95,1.43
7.96,1.43
7.97,1.82
7.98,1.82
7.99,1.95
8.,1.95
8.01,1.69
8.02,1.69
8.03,2.145
8.04,2.145
8.05,2.47
8.06,2.47
8.07,2.535
8.08,2.535
8.09,2.925
8.1,2.925
8.11,2.73
8.12,2.73
8.13,3.185
8.14,3.185
8.15,4.42
8.16,4.42
8.17,5.07
8.18,5.07
8.19,5.07
8.2,5.07
8.21,4.745
8.22,4.745
8.23,4.29
8.24,4.29
8.25,4.095
8.26,4.095
8.27,4.095
8.28,4.095
8.29,4.03
8.3,4.03
8.31,3.9
8.32,3.9
8.33,3.77
8.34,3.77
8.35,3.38
8.36,3.38
8.37,2.86
8.38,2.86
8.39,2.665
8.4,2.665
8.41,2.6
8.42,2.6
8.43,2.015
8.44,2.015
8.45,1.43
8.46,1.43
8.47,1.3
8.48,1.3
8.49,0.91
8.5,0.91
8.51,0.52
8.52,0.52
8.53,0.26
8.54,0.26
8.55,0.13
8.56,0.13
8.57,0.0650000000001
8.58,0.0649999999999
8.59,0.0649999999999
8.6,0.0650000000001
8.61,0.195
8.62,0.195
8.63,0.195
8.64,0.195
8.65,0.13
8.66,0.13
8.67,0.195
8.68,0.195
8.69,0.26
8.7,0.26
8.71,0.26
8.72,0.26
8.73,0.195
8.74,0.195
8.75,0.195
8.76,0.195
8.77,0.26
8.78,0.26
8.79,0.325
8.8,0.325
8.81,0.39
8.82,0.39
8.83,0.52
8.84,0.52
8.85,0.78
8.86,0.78
8.87,0.91
8.88,0.91
8.89,1.235
8.9,1.235
8.91,2.015
8.92,2.015
8.93,2.145
8.94,2.145
8.95,2.015
8.96,2.015
8.97,2.08
8.98,2.08
8.99,1.755
9.,1.755
9.01,1.95
9.02,1.95
9.03,2.73
9.04,2.73
9.05,3.445
9.06,3.445
9.07,3.77
9.08,3.77
9.09,3.835
9.1,3.835
9.11,3.38
9.12,3.38
9.13,3.185
9.14,3.185
9.15,3.055
9.16,3.055
9.17,3.185
9.18,3.185
9.19,3.575
9.2,3.575
9.21,3.51
9.22,3.51
9.23,3.51
9.24,3.51
9.25,3.64
9.26,3.64
9.27,3.9
9.28,3.9
9.29,3.835
9.3,3.835
9.31,3.315
9.32,3.315
9.33,3.185
9.34,3.185
9.35,3.51
9.36,3.51
9.37,2.86
9.38,2.86
9.39,2.405
9.4,2.405
9.41,1.95
9.42,1.95
9.43,1.495
9.44,1.495
9.45,1.56
9.46,1.56
9.47,1.17
9.48,1.17
9.49,0.975
9.5,0.975
9.51,0.845
9.52,0.845
9.53,0.585
9.54,0.585
9.55,0.455
9.56,0.455
9.57,0.39
9.58,0.39
9.59,0.26
9.6,0.26
9.61,0.13
9.62,0.13
9.63,0.0649999999999
9.64,0.0650000000001
9.65,0.
9.66,0.
9.67,0.
9.68,0.
9.69,0.
9.7,0.
9.71,0.
9.72,0.
9.73,0.
9.74,0.
9.75,0.0650000000001
9.76,0.0649999999999
9.77,0.195
9.78,0.195
9.79,0.39
9.8,0.39
9.81,0.455
9.82,0.455
9.83,0.39
9.84,0.39
9.85,0.52
9.86,0.52
9.87,0.585
9.88,0.585
9.89,0.585
9.9,0.585
9.91,0.975
9.92,0.975
9.93,1.43
9.94,1.43
9.95,1.3
9.96,1.3
9.97,1.04
9.98,1.04
9.99,0.975
10.,0.975
