t,cases
5.01,3.055
5.02,3.055
5.03,3.64
5.04,3.64
5.05,3.64
5.06,3.64
5.07,3.51
5.08,3.51
5.09,3.64
5.1,3.64
5.11,3.445
5.12,3.445
5.13,2.99
5.14,2.99
5.15,3.575
5.16,3.575
5.17,4.55
5.18,4.55
5.19,4.485
5.2,4.485
5.21,5.07
5.22,5.07
5.23,4.615
5.24,4.615
5.25,3.77
5.26,3.77
5.27,4.355
5.28,4.355
5.29,4.55
5.3,4.55
5.31,4.485
5.32,4.485
5.33,4.225
5.34,4.225
5.35,3.705
5.36,3.705
5.37,2.795
5.38,2.795
5.39,2.015
5.4,2.015
5.41,1.69
5.42,1.69
5.43,1.365
5.44,1.365
5.45,1.3
5.46,1.3
5.47,1.04
5.48,1.04
5.49,0.585
5.5,0.585
5.51,0.585
5.52,0.585
5.53,0.455
5.54,0.455
5.55,0.13
5.56,0.13
5.57,0.
5.58,0.
5.59,0.065
5.6,0.065
5.61,0.065
5.62,0.065
5.63,0.
5.64,0.
5.65,0.
5.66,0.
5.67,0.
5.68,0.
5.69,0.
5.7,0.
5.71,0.065
5.72,0.065
5.73,0.065
5.74,0.065
5.75,0.
5.76,0.
5.77,0.13
5.78,0.13
5.79,0.13
5.8,0.13
5.81,0.26
5.82,0.26
5.83,0.65
5.84,0.65
5.85,0.975
5.86,0.975
5.87,0.975
5.88,0.975
5.89,0.975
5.9,0.975
5.91,0.78
5.92,0.78
5.93,1.105
5.94,1.105
5.95,2.21
5.96,2.21
5.97,2.6
5.98,2.6
5.99,2.6
6.,2.6
6.01,2.73
6.02,2.73
6.03,2.795
6.04,2.795
6.05,2.535
6.06,2.535
6.07,2.795
6.08,2.795
6.09,3.575
6.1,3.575
6.11,4.745
6.12,4.745
6.13,5.07
6.14,5.07
6.15,4.29
6.16,4.29
6.17,4.29
6.18,4.29
6.19,4.42
6.2,4.42
6.21,4.225
6.22,4.225
6.23,4.225
6.24,4.225
6.25,4.42
6.26,4.42
6.27,4.29
6.28,4.29
6.29,4.16
6.3,4.16
6.31,3.575
6.32,3.575
6.33,2.73
6.34,2.73
6.35,2.535
6.36,2.535
6.37,2.275
6.38,2.275
6.39,1.82
6.4,1.82
6.41,1.43
6.42,1.43
6.43,1.3
6.44,1.3
6.45,1.3
6.46,1.3
6.47,1.17
6.48,1.17
6.49,0.975
6.5,0.975
6.51,0.715
6.52,0.715
6.53,0.52
6.54,0.52
6.55,0.52
6.56,0.52
6.57,0.455
6.58,0.455
6.59,0.39
6.6,0.39
6.61,0.325
6.62,0.325
6.63,0.26
6.64,0.26
6.65,0.26
6.66,0.26
6.67,0.195
6.68,0.195
6.69,0.26
6.7,0.26
6.71,0.325
6.72,0.325
6.73,0.195
6.74,0.195
6.75,0.13
6.76,0.13
6.77,0.195
6.78,0.195
6.79,0.195
6.8,0.195
6.81,0.26
6.82,0.26
6.83,0.52
6.84,0.52
6.85,1.105
6.86,1.105
6.87,1.235
6.88,1.235
6.89,1.365
6.9,1.365
6.91,1.56
6.92,1.56
6.93,1.365
6.94,1.365
6.95,1.69
6.96,1.69
6.97,1.69
6.98,1.69
6.99,2.145
7.,2.145
7.01,2.73
7.02,2.73
7.03,2.47
7.04,2.47
7.05,2.535
7.06,2.535
7.07,2.73
7.08,2.73
7.09,3.185
7.1,3.185
7.11,3.835
7.12,3.835
7.13,4.095
7.14,4.095
7.15,4.03
7.16,4.03
7.17,4.355
7.18,4.355
7.19,4.355
7.2,4.355
7.21,4.095
7.22,4.095
7.23,3.9
7.24,3.9
7.25,3.38
7.26,3.38
7.27,3.575
7.28,3.575
7.29,3.575
7.3,3.575
7.31,3.25
7.32,3.25
7.33,2.795
7.34,2.795
7.35,2.275
7.36,2.275
7.37,2.405
7.38,2.405
7.39,2.275
7.4,2.275
7.41,1.625
7.42,1.625
7.43,1.04
7.44,1.04
7.45,0.78
7.46,0.78
7.47,0.585
7.48,0.585
7.49,0.325
7.5,0.325
7.51,0.195
7.52,0.195
7.53,0.13
7.54,0.13
7.55,0.0649999999999
7.56,0.0650000000001
7.57,0.
7.58,0.
7.59,0.
7.6,0.
7.61,0.0650000000001
7.62,0.0649999999999
7.63,0.0649999999999
7.64,0.0650000000001
7.65,0.
7.66,0.
7.67,0.
7.68,0.
7.69,0.
7.7,0.
7.71,0.
7.72,0.
7.73,0.
7.74,0.
7.75,0.0650000000001
7.76,0.0649999999999
7.77,0.195
7.78,0.195
7.79,0.13
7.8,0.13
7.81,0.195
7.82,0.195
7.83,0.65
7.84,0.65
7.85,0.91
7.86,0.91
7.87,0.845
7.88,0.845
7.89,0.91
7.9,0.91
7.91,1.17
7.92,1.17
7.93,1.495
7.94,1.495
7.95,1.755
7.96,1.755
7.97,2.21
7.98,2.21
7.99,2.795
8.,2.795
8.01,3.315
8.02,3.315
8.03,3.51
8.04,3.51
8.05,2.99
8.06,2.99
8.07,2.795
8.08,2.795
8.09,3.315
8.1,3.315
8.11,4.225
8.12,4.225
8.13,4.615
8.14,4.615
8.15,5.2
8.16,5.2
8.17,5.005
8.18,5.005
8.19,4.16
8.2,4.16
8.21,4.03
8.22,4.03
8.23,3.64
8.24,3.64
8.25,4.29
8.26,4.29
8.27,4.42
8.28,4.42
8.29,4.095
8.3,4.095
8.31,3.64
8.32,3.64
8.33,2.665
8.34,2.665
8.35,2.405
8.36,2.405
8.37,1.82
8.38,1.82
8.39,1.235
8.4,1.235
8.41,1.105
8.42,1.105
8.43,0.975
8.44,0.975
8.45,0.91
8.46,0.91
8.47,0.845
8.48,0.845
8.49,0.78
8.5,0.78
8.51,0.585
8.52,0.585
8.53,0.455
8.54,0.455
8.55,0.455
8.56,0.455
8.57,0.52
8.58,0.52
8.59,0.52
8.6,0.52
8.61,0.26
8.62,0.26
8.63,0.0649999999999
8.64,0.0650000000001
8.65,0.
8.66,0.
8.67,0.13
8.68,0.13
8.69,0.26
8.7,0.26
8.71,0.26
8.72,0.26
8.73,0.195
8.74,0.195
8.75,0.13
8.76,0.13
8.77,0.195
8.78,0.195
8.79,0.26
8.8,0.26
8.81,0.26
8.82,0.26
8.83,0.39
8.84,0.39
8.85,0.52
8.86,0.52
8.87,0.65
8.88,0.65
8.89,0.715
8.9,0.715
8.91,0.91
8.92,0.91
8.93,1.43
8.94,1.43
8.95,1.43
8.96,1.43
8.97,1.56
8.98,1.56
8.99,1.82
9.,1.82
9.01,1.56
9.02,1.56
9.03,1.625
9.04,1.625
9.05,2.015
9.06,2.015
9.07,2.21
9.08,2.21
9.09,3.12
9.1,3.12
9.11,4.225
9.12,4.225
9.13,3.77
9.14,3.77
9.15,3.705
9.16,3.705
9.17,4.485
9.18,4.485
9.19,4.29
9.2,4.29
9.21,3.9
9.22,3.9
9.23,3.64
9.24,3.64
9.25,3.64
9.26,3.64
9.27,3.9
9.28,3.9
9.29,3.575
9.3,3.575
9.31,2.86
9.32,2.86
9.33,2.275
9.34,2.275
9.35,2.21
9.36,2.21
9.37,2.08
9.38,2.08
9.39,1.95
9.4,1.95
9.41,1.625
9.42,1.625
9.43,1.365
9.44,1.365
9.45,1.365
9.46,1.365
9.47,0.975
9.48,0.975
9.49,0.65
9.5,0.65
9.51,0.39
9.52,0.39
9.53,0.13
9.54,0.13
9.55,0.
9.56,0.
9.57,0.
9.58,0.
9.59,0.0649999999999
9.6,0.0650000000001
9.61,0.0649999999999
9.62,0.0650000000001
9.63,0.
9.64,0.
9.65,0.0650000000001
9.66,0.0649999999999
9.67,0.13
9.68,0.13
9.69,0.0649999999999
9.7,0.0650000000001
9.71,0.
9.72,0.
9.73,0.
9.74,0.
9.75,0.195
9.76,0.195
9.77,0.26
9.78,0.26
9.79,0.26
9.8,0.26
9.81,0.325
9.82,0.325
9.83,0.195
9.84,0.195
9.85,0.195
9.86,0.195
9.87,0.52
9.88,0.52
9.89,0.715
9.9,0.715
9.91,0.715
9.92,0.715
9.93,1.17
9.94,1.17
9.95,1.56
9.96,1.56
9.97,2.08
9.98,2.08
9.99,2.99
10.,2.99
