t,s,e,i,r,c,o,n,reff,coal,reportr
5.,8313.,1.,18.,1669.,0.,0.,10001.,1.16975799322,60.8274156472,13.
5.02,8305.,10.,8.,1679.,0.,0.,10002.,1.16588284087,6.06259077251,130.
5.04,8288.,22.,7.,1684.,0.,0.,10001.,1.15577168468,2.73182398198,286.
5.06,8277.,23.,7.,1694.,0.,0.,10001.,1.14132405416,2.58038481809,299.
5.08,8274.,23.,3.,1704.,0.,0.,10004.,1.12278692207,2.53847478034,299.
5.1,8265.,23.,6.,1706.,0.,0.,10000.,1.09965253427,2.48617094705,299.
5.12,8249.,29.,11.,1709.,0.,0.,9998.,1.07118780692,1.92075055034,377.
5.14,8243.,28.,10.,1718.,0.,0.,9999.,1.03995744504,1.93134954079,364.
5.16,8234.,27.,14.,1721.,0.,0.,9996.,1.00548415003,1.93648799266,351.
5.18,8221.,33.,12.,1730.,0.,0.,9996.,0.967505820402,1.52455462609,429.
5.2,8201.,35.,16.,1741.,0.,0.,9993.,0.926912875946,1.37712770141,455.
5.22,8183.,35.,19.,1756.,0.,0.,9993.,0.884829474332,1.31460379044,455.
5.24,8173.,36.,16.,1772.,0.,0.,9997.,0.84243914655,1.21685654502,468.
5.26,8167.,37.,10.,1784.,0.,0.,9998.,0.800489990752,1.12501295998,481.
5.28,8159.,30.,20.,1787.,0.,0.,9996.,0.758976518824,1.31555929929,390.
5.3,8141.,34.,13.,1807.,0.,0.,9995.,0.717542433548,1.09741783954,442.
5.32,8131.,27.,15.,1817.,0.,0.,9990.,0.678808172861,1.30733425884,351.
5.34,8130.,27.,8.,1829.,0.,0.,9994.,0.642457800562,1.23732613442,351.
5.36,8121.,25.,10.,1838.,0.,0.,9994.,0.608552140464,1.26578845216,325.
5.38,8109.,31.,8.,1846.,0.,0.,9994.,0.5777870899,0.969191247575,403.
5.4,8110.,24.,11.,1853.,0.,0.,9998.,0.551519139783,1.1949581362,312.
5.42,8113.,19.,8.,1861.,0.,0.,10001.,0.529609390025,1.44945727796,247.
5.44,8116.,14.,4.,1864.,0.,0.,9998.,0.512511962302,1.90361585998,182.
5.46,8110.,16.,6.,1863.,0.,0.,9995.,0.499626077422,1.62378475162,208.
5.48,8114.,9.,3.,1869.,0.,0.,9995.,0.492191530113,2.8437732851,117.
5.5,8114.,8.,3.,1870.,0.,0.,9995.,0.489617675703,3.18251489207,104.
5.52,8122.,7.,0.,1869.,0.,0.,9998.,0.492528973847,3.65878666286,91.
5.54,8122.,7.,2.,1867.,0.,0.,9998.,0.500215211886,3.71588443115,91.
5.56,8124.,5.,2.,1867.,0.,0.,9998.,0.513017149057,5.33537835019,65.
5.58,8132.,2.,1.,1866.,0.,0.,10001.,0.530849693046,13.8020920192,26.
5.6,8138.,1.,0.,1863.,0.,0.,10002.,0.553201949869,28.7665013932,13.
5.62,8139.,1.,0.,1860.,0.,0.,10000.,0.579576712199,30.1379890344,13.
5.64,8143.,0.,1.,1855.,0.,0.,9999.,0.609895593149,inf,0.
5.66,8152.,0.,0.,1850.,0.,0.,10002.,0.643681054759,inf,0.
5.68,8154.,0.,0.,1848.,0.,0.,10002.,0.679911593585,inf,0.
5.7,8163.,1.,0.,1844.,0.,0.,10008.,0.718546920921,37.3644398879,13.
5.72,8164.,0.,2.,1842.,0.,0.,10008.,0.758531033484,inf,0.
5.74,8168.,0.,0.,1838.,0.,0.,10006.,0.799947919581,inf,0.
5.76,8173.,0.,0.,1837.,0.,0.,10010.,0.841345069737,inf,0.
5.78,8180.,0.,0.,1830.,0.,0.,10010.,0.883002927229,inf,0.
5.8,8185.,0.,0.,1829.,0.,0.,10014.,0.923164482576,inf,0.
5.82,8185.,1.,0.,1827.,0.,0.,10013.,0.96163365267,50.0049499388,13.
5.84,8179.,5.,0.,1827.,0.,0.,10011.,0.997271391218,10.3716224687,65.
5.86,8182.,4.,3.,1819.,0.,0.,10008.,1.03133324011,13.4073321214,52.
5.88,8180.,8.,2.,1820.,0.,0.,10010.,1.06095429572,6.89620292217,104.
5.9,8182.,10.,3.,1814.,0.,0.,10009.,1.08763057415,5.6556789856,130.
5.92,8177.,11.,4.,1818.,0.,0.,10010.,1.10895885276,5.24235094031,143.
5.94,8175.,9.,6.,1819.,0.,0.,10009.,1.12635817267,6.50784721989,117.
5.96,8175.,8.,7.,1819.,0.,0.,10009.,1.1391025063,7.40416629097,104.
5.98,8168.,17.,5.,1819.,0.,0.,10009.,1.14584840295,3.50494805609,221.
6.,8164.,15.,13.,1816.,0.,0.,10008.,1.14798805092,3.97969190986,195.
6.02,8152.,26.,12.,1822.,0.,0.,10012.,1.14326117198,2.28652234396,338.
6.04,8144.,29.,10.,1830.,0.,0.,10013.,1.13432964999,2.03397040689,377.
6.06,8134.,25.,16.,1837.,0.,0.,10012.,1.12037334943,2.33037656682,325.
6.08,8119.,28.,17.,1847.,0.,0.,10011.,1.10098294621,2.04468261439,364.
6.1,8104.,29.,9.,1866.,0.,0.,10008.,1.07736969985,1.93183532387,377.
6.12,8094.,33.,14.,1869.,0.,0.,10010.,1.0498000085,1.65423031643,429.
6.14,8080.,35.,16.,1877.,0.,0.,10008.,1.01847623809,1.5131646966,455.
6.16,8067.,33.,16.,1891.,0.,0.,10007.,0.984008320975,1.55055856639,429.
6.18,8052.,30.,17.,1905.,0.,0.,10004.,0.946858906739,1.64122210501,390.
6.2,8041.,33.,7.,1925.,0.,0.,10006.,0.907648207196,1.43023353861,429.
6.22,8027.,31.,18.,1929.,0.,0.,10005.,0.866920129344,1.45418860406,403.
6.24,8014.,33.,22.,1935.,0.,0.,10004.,0.825472078177,1.30074388076,429.
6.26,8003.,31.,25.,1945.,0.,0.,10004.,0.783945039801,1.31500458289,403.
6.28,7986.,37.,18.,1966.,0.,0.,10007.,0.742066900116,1.0429048326,481.
6.3,7975.,26.,25.,1981.,0.,0.,10007.,0.70206839822,1.40413679644,338.
6.32,7966.,29.,13.,1996.,0.,0.,10004.,0.664102643177,1.19080473949,377.
6.34,7963.,20.,15.,2006.,0.,0.,10004.,0.628631933573,1.63444302729,260.
6.36,7954.,21.,8.,2022.,0.,0.,10005.,0.595382578507,1.47428067059,273.
6.38,7950.,17.,10.,2026.,0.,0.,10003.,0.565948272034,1.73113589093,221.
6.4,7955.,12.,11.,2027.,0.,0.,10005.,0.540599896109,2.34259954981,156.
6.42,7954.,12.,8.,2033.,0.,0.,10007.,0.518918692028,2.24864766546,156.
6.44,7958.,10.,9.,2033.,0.,0.,10010.,0.501932084914,2.61004684155,130.
6.46,7959.,8.,5.,2037.,0.,0.,10009.,0.48963770932,3.18264511058,104.
6.48,7958.,8.,3.,2040.,0.,0.,10009.,0.482053429033,3.13334728871,104.
6.5,7962.,9.,0.,2037.,0.,0.,10008.,0.479821561285,2.77230235409,117.
6.52,7967.,5.,1.,2036.,0.,0.,10009.,0.482598601295,5.01902545347,65.
6.54,7978.,1.,0.,2034.,0.,0.,10013.,0.490610521642,25.5117471254,13.
6.56,7981.,1.,0.,2031.,0.,0.,10013.,0.503231936917,26.1680607197,13.
6.58,7984.,1.,0.,2027.,0.,0.,10012.,0.520615765223,27.0720197916,13.
6.6,7992.,1.,0.,2023.,0.,0.,10016.,0.542517842839,28.2109278276,13.
6.62,7996.,1.,0.,2018.,0.,0.,10015.,0.568540896819,29.5641266346,13.
6.64,7999.,2.,0.,2015.,0.,0.,10016.,0.598093399831,15.5504283956,26.
6.66,7998.,1.,1.,2014.,0.,0.,10014.,0.630764465099,32.7997521852,13.
6.68,8004.,0.,2.,2010.,0.,0.,10016.,0.666471148925,inf,0.
6.7,8008.,1.,1.,2003.,0.,0.,10013.,0.704551073893,36.6366558424,13.
6.72,8011.,1.,1.,2000.,0.,0.,10013.,0.743943870387,38.6850812601,13.
6.74,8010.,1.,1.,1999.,0.,0.,10011.,0.784082096563,40.7722690213,13.
6.76,8012.,3.,0.,1998.,0.,0.,10013.,0.824524295515,14.2917544556,39.
6.78,8021.,0.,0.,1994.,0.,0.,10015.,0.865407151593,inf,0.
6.8,8024.,1.,1.,1988.,0.,0.,10014.,0.905005718777,47.0602973764,13.
6.82,8022.,1.,0.,1989.,0.,0.,10012.,0.942577356095,49.0140225169,13.
6.84,8026.,3.,1.,1985.,0.,0.,10015.,0.978225130347,16.9559022593,39.
6.86,8028.,6.,0.,1980.,0.,0.,10014.,1.01131538386,8.76473332679,78.
6.88,8033.,5.,2.,1973.,0.,0.,10013.,1.04157608597,10.8323912941,65.
6.9,8033.,9.,4.,1968.,0.,0.,10014.,1.06729088747,6.16656957205,117.
6.92,8031.,12.,4.,1969.,0.,0.,10016.,1.08850598673,4.71685927584,156.
6.94,8034.,12.,6.,1963.,0.,0.,10015.,1.10626791368,4.79382762596,156.
6.96,8028.,16.,9.,1966.,0.,0.,10019.,1.11750306394,3.6318849578,208.
6.98,8017.,18.,11.,1971.,0.,0.,10017.,1.12376715295,3.24643844185,234.
7.,8009.,20.,8.,1980.,0.,0.,10017.,1.12518073622,2.92546991416,260.
7.02,8006.,20.,9.,1983.,0.,0.,10018.,1.12211322877,2.9174943948,260.
7.04,7995.,16.,9.,1997.,0.,0.,10017.,1.11313164562,3.61767784826,208.
7.06,7988.,25.,7.,1998.,0.,0.,10018.,1.09960440595,2.28717716438,325.
7.08,7979.,26.,11.,2004.,0.,0.,10020.,1.08102628897,2.16205257794,338.
7.1,7961.,37.,11.,2008.,0.,0.,10017.,1.05740795099,1.48608685004,481.
7.12,7952.,29.,14.,2020.,0.,0.,10015.,1.03086754564,1.8484521508,377.
7.14,7946.,24.,19.,2027.,0.,0.,10016.,1.00078567827,2.16836896958,312.
7.16,7926.,27.,23.,2036.,0.,0.,10012.,0.966326391597,1.86107305048,351.
7.18,7901.,40.,16.,2057.,0.,0.,10014.,0.928174558975,1.20662692667,520.
7.2,7892.,38.,26.,2058.,0.,0.,10014.,0.890117788209,1.21805592071,494.
7.22,7882.,33.,21.,2077.,0.,0.,10013.,0.850579930869,1.34030776985,429.
7.24,7869.,39.,22.,2088.,0.,0.,10018.,0.809403821697,1.0792050956,507.
7.26,7856.,30.,21.,2108.,0.,0.,10015.,0.768700217395,1.33241371015,390.
7.28,7842.,37.,11.,2126.,0.,0.,10016.,0.728031509809,1.02317941919,481.
7.3,7825.,38.,14.,2140.,0.,0.,10017.,0.688175655708,0.941714055179,494.
7.32,7815.,30.,19.,2150.,0.,0.,10014.,0.650863601564,1.12816357604,390.
7.34,7802.,26.,15.,2169.,0.,0.,10012.,0.615429785184,1.23085957037,338.
7.36,7804.,20.,6.,2182.,0.,0.,10012.,0.583746176136,1.51774005795,260.
7.38,7801.,17.,5.,2187.,0.,0.,10010.,0.554952840729,1.69750280694,221.
7.4,7803.,16.,1.,2190.,0.,0.,10010.,0.53000552431,1.72251795401,208.
7.42,7800.,10.,5.,2194.,0.,0.,10009.,0.508770054384,2.64560428279,130.
7.44,7802.,9.,4.,2196.,0.,0.,10011.,0.49204359756,2.84291856368,117.
7.46,7802.,11.,4.,2193.,0.,0.,10010.,0.479931118785,2.2687652888,143.
7.48,7802.,7.,3.,2196.,0.,0.,10008.,0.47265099909,3.51112170753,91.
7.5,7801.,3.,2.,2200.,0.,0.,10006.,0.470213032942,8.15035923766,39.
7.52,7807.,3.,0.,2197.,0.,0.,10007.,0.473001165139,8.19868686241,39.
7.54,7813.,1.,2.,2191.,0.,0.,10007.,0.480751852695,24.9990963401,13.
7.56,7819.,1.,1.,2187.,0.,0.,10008.,0.493263541832,25.6497041753,13.
7.58,7831.,1.,2.,2177.,0.,0.,10011.,0.510690043048,26.5558822385,13.
7.6,7835.,1.,1.,2174.,0.,0.,10011.,0.532125910538,27.670547348,13.
7.62,7839.,0.,0.,2176.,0.,0.,10015.,0.55737770012,inf,0.
7.64,7842.,3.,0.,2171.,0.,0.,10016.,0.586354349478,10.1634753909,39.
7.66,7843.,2.,2.,2169.,0.,0.,10016.,0.618416837106,16.0788377647,26.
7.68,7844.,3.,0.,2170.,0.,0.,10017.,0.653083183335,11.3201085111,39.
7.7,7845.,2.,3.,2166.,0.,0.,10016.,0.690003454365,17.9400898135,26.
7.72,7848.,2.,0.,2168.,0.,0.,10018.,0.728443078796,18.9395200487,26.
7.74,7854.,1.,1.,2166.,0.,0.,10022.,0.767967747519,39.934322871,13.
7.76,7855.,0.,1.,2164.,0.,0.,10020.,0.807802514182,inf,0.
7.78,7861.,1.,1.,2159.,0.,0.,10022.,0.847551925734,44.0727001381,13.
7.8,7863.,2.,1.,2157.,0.,0.,10023.,0.886050624279,23.0373162313,26.
7.82,7870.,1.,2.,2151.,0.,0.,10024.,0.923610496739,48.0277458304,13.
7.84,7872.,5.,2.,2148.,0.,0.,10027.,0.958307052447,9.96639334545,65.
7.86,7870.,8.,4.,2146.,0.,0.,10028.,0.99002746767,6.43517853985,104.
7.88,7867.,9.,2.,2149.,0.,0.,10027.,1.01862794073,5.88540587977,117.
7.9,7869.,7.,1.,2150.,0.,0.,10027.,1.04414581443,7.75651176433,91.
7.92,7871.,7.,5.,2141.,0.,0.,10024.,1.06596848805,7.9186230541,91.
7.94,7871.,10.,4.,2139.,0.,0.,10024.,1.08284999009,5.63081994845,130.
7.96,7871.,14.,2.,2137.,0.,0.,10024.,1.09510204443,4.06752187932,182.
7.98,7868.,15.,7.,2135.,0.,0.,10025.,1.10200126717,3.82027105953,195.
8.,7858.,24.,8.,2137.,0.,0.,10027.,1.10286582135,2.38954261292,312.
8.02,7857.,16.,10.,2142.,0.,0.,10025.,1.10046059433,3.57649693157,208.
8.04,7849.,18.,17.,2145.,0.,0.,10029.,1.0914967153,3.1532127331,234.
8.06,7840.,23.,14.,2152.,0.,0.,10029.,1.07804744309,2.43732465394,299.
8.08,7825.,30.,14.,2160.,0.,0.,10029.,1.05921037696,1.8359646534,390.
8.1,7815.,28.,14.,2172.,0.,0.,10029.,1.03677370174,1.92543687465,364.
8.12,7796.,34.,17.,2183.,0.,0.,10030.,1.00913285682,1.54337966338,442.
8.14,7781.,36.,14.,2198.,0.,0.,10029.,0.97873387714,1.41372671142,468.
8.16,7772.,41.,23.,2198.,0.,0.,10034.,0.945473387197,1.19913697888,533.
8.18,7749.,36.,32.,2219.,0.,0.,10036.,0.908322754451,1.31202175643,468.
8.2,7730.,40.,17.,2247.,0.,0.,10034.,0.870108453049,1.13114098896,520.
8.22,7721.,37.,14.,2257.,0.,0.,10029.,0.831876466162,1.16912368217,481.
8.24,7716.,27.,12.,2275.,0.,0.,10030.,0.792716720345,1.52671368363,351.
8.26,7703.,31.,15.,2281.,0.,0.,10030.,0.752602137739,1.26242939234,403.
8.28,7695.,29.,13.,2292.,0.,0.,10029.,0.713458386126,1.27930469236,377.
8.3,7692.,20.,13.,2303.,0.,0.,10028.,0.675736819187,1.75691572989,260.
8.32,7686.,19.,11.,2308.,0.,0.,10024.,0.639481392364,1.75015960015,247.
8.34,7688.,17.,11.,2309.,0.,0.,10025.,0.605650945377,1.85257936233,221.
8.36,7682.,21.,10.,2312.,0.,0.,10025.,0.57387532333,1.42102461015,273.
8.38,7679.,16.,13.,2318.,0.,0.,10026.,0.545402150131,1.77255698793,208.
8.4,7681.,14.,11.,2322.,0.,0.,10028.,0.52078240962,1.9343346643,182.
8.42,7681.,10.,9.,2326.,0.,0.,10026.,0.500158544736,2.60082443263,130.
8.44,7683.,11.,6.,2324.,0.,0.,10024.,0.483910310731,2.28757601436,143.
8.46,7681.,10.,5.,2325.,0.,0.,10021.,0.471969294411,2.45424033094,130.
8.48,7685.,5.,5.,2323.,0.,0.,10018.,0.465098324983,4.83702257982,65.
8.5,7691.,2.,3.,2323.,0.,0.,10019.,0.462981158951,12.0375101327,26.
8.52,7692.,1.,3.,2319.,0.,0.,10015.,0.465661414337,24.2143935455,13.
8.54,7698.,1.,0.,2315.,0.,0.,10014.,0.473344528907,24.6139155032,13.
8.56,7709.,0.,1.,2309.,0.,0.,10019.,0.485790222634,inf,0.
8.58,7711.,0.,2.,2303.,0.,0.,10016.,0.50261334463,inf,0.
8.6,7713.,2.,0.,2301.,0.,0.,10016.,0.523578593821,13.6130434393,26.
8.62,7716.,0.,2.,2296.,0.,0.,10014.,0.548686797487,inf,0.
8.64,7718.,0.,1.,2293.,0.,0.,10012.,0.577313299259,inf,0.
8.66,7723.,0.,0.,2289.,0.,0.,10012.,0.609198183923,inf,0.
8.68,7728.,0.,0.,2283.,0.,0.,10011.,0.643810776331,inf,0.
8.7,7732.,0.,0.,2276.,0.,0.,10008.,0.680608206856,inf,0.
8.72,7743.,0.,0.,2266.,0.,0.,10009.,0.719343335351,inf,0.
8.74,7751.,0.,1.,2261.,0.,0.,10013.,0.758577581083,inf,0.
8.76,7758.,0.,0.,2257.,0.,0.,10015.,0.798225420473,inf,0.
8.78,7764.,0.,0.,2250.,0.,0.,10014.,0.837762384707,inf,0.
8.8,7770.,0.,1.,2247.,0.,0.,10018.,0.87600781792,inf,0.
8.82,7777.,0.,1.,2242.,0.,0.,10020.,0.913060516621,inf,0.
8.84,7776.,3.,1.,2240.,0.,0.,10020.,0.947281692719,16.4195493405,39.
8.86,7776.,7.,1.,2237.,0.,0.,10021.,0.97888579582,7.27172305466,91.
8.88,7784.,6.,0.,2234.,0.,0.,10024.,1.00818264845,8.73758295327,78.
8.9,7785.,9.,2.,2231.,0.,0.,10027.,1.03299976685,5.96844309735,117.
8.92,7791.,7.,5.,2227.,0.,0.,10030.,1.05450291174,7.83345020152,91.
8.94,7785.,13.,3.,2225.,0.,0.,10026.,1.07080492283,4.28321969133,169.
8.96,7784.,14.,4.,2223.,0.,0.,10025.,1.08288959626,4.02216135755,182.
8.98,7784.,16.,5.,2226.,0.,0.,10031.,1.08958400898,3.5411480292,208.
9.,7783.,14.,6.,2227.,0.,0.,10030.,1.09201289238,4.05604788597,182.
9.02,7780.,14.,8.,2227.,0.,0.,10029.,1.08924127443,4.04575330504,182.
9.04,7774.,19.,5.,2230.,0.,0.,10028.,1.08117487897,2.95900493193,247.
9.06,7763.,18.,12.,2236.,0.,0.,10029.,1.06745947713,3.08377182283,234.
9.08,7750.,33.,11.,2234.,0.,0.,10028.,1.04916281373,1.65322625194,429.
9.1,7747.,31.,20.,2232.,0.,0.,10030.,1.02765004237,1.72380007107,403.
9.12,7737.,34.,13.,2249.,0.,0.,10033.,1.00119629542,1.531241393,442.
9.14,7735.,31.,19.,2249.,0.,0.,10034.,0.972462936983,1.63122815236,403.
9.16,7713.,39.,13.,2269.,0.,0.,10034.,0.938295964418,1.25106128589,507.
9.18,7705.,38.,13.,2280.,0.,0.,10036.,0.903165159768,1.23591021863,494.
9.2,7697.,35.,16.,2288.,0.,0.,10036.,0.866221231937,1.28695725888,455.
9.22,7687.,38.,15.,2294.,0.,0.,10034.,0.827800532604,1.13277967619,494.
9.24,7674.,42.,19.,2302.,0.,0.,10037.,0.787851930267,0.975435723187,546.
9.26,7667.,34.,21.,2320.,0.,0.,10042.,0.748189706544,1.14429013942,442.
9.28,7656.,37.,14.,2331.,0.,0.,10038.,0.709205977992,0.996721915016,481.
9.3,7660.,26.,23.,2330.,0.,0.,10039.,0.672188299003,1.34437659801,338.
9.32,7651.,25.,16.,2345.,0.,0.,10037.,0.635744874604,1.32234933918,325.
9.34,7641.,27.,8.,2361.,0.,0.,10037.,0.601228669429,1.15792188186,351.
9.36,7637.,25.,7.,2363.,0.,0.,10032.,0.570115562365,1.18584036972,325.
9.38,7642.,16.,13.,2363.,0.,0.,10034.,0.542341471437,1.76260978217,208.
9.4,7644.,13.,10.,2367.,0.,0.,10034.,0.517963847953,2.07185539181,169.
9.42,7645.,10.,11.,2367.,0.,0.,10033.,0.49746703291,2.58682857113,130.
9.44,7642.,11.,6.,2373.,0.,0.,10032.,0.480944110025,2.27355397466,143.
9.46,7644.,9.,2.,2375.,0.,0.,10030.,0.469274318222,2.71136272751,117.
9.48,7647.,4.,5.,2373.,0.,0.,10029.,0.462290948124,6.00978232561,52.
9.5,7657.,6.,4.,2367.,0.,0.,10034.,0.460245375434,3.98879325376,78.
9.52,7659.,4.,3.,2369.,0.,0.,10035.,0.46273955399,6.01561420188,52.
9.54,7658.,4.,1.,2369.,0.,0.,10032.,0.470040068162,6.11052088611,52.
9.56,7664.,3.,0.,2368.,0.,0.,10035.,0.482184471249,8.35786416832,39.
9.58,7669.,3.,1.,2363.,0.,0.,10036.,0.498879562914,8.64724575718,39.
9.6,7675.,1.,2.,2357.,0.,0.,10035.,0.520012608884,27.040655662,13.
9.62,7681.,2.,0.,2354.,0.,0.,10037.,0.544946313997,14.1686041639,26.
9.64,7684.,1.,2.,2349.,0.,0.,10036.,0.5733955689,29.8165695828,13.
9.66,7685.,1.,0.,2349.,0.,0.,10035.,0.604811306111,31.4501879178,13.
9.68,7695.,2.,0.,2338.,0.,0.,10035.,0.639528402685,16.6277384698,26.
9.7,7706.,2.,0.,2329.,0.,0.,10037.,0.676359685344,17.5853518189,26.
9.72,7713.,2.,0.,2320.,0.,0.,10035.,0.714699714784,18.5821925844,26.
9.74,7716.,2.,0.,2318.,0.,0.,10036.,0.753421569028,19.5889607947,26.
9.76,7718.,1.,1.,2312.,0.,0.,10032.,0.792764115246,41.2237339928,13.
9.78,7719.,1.,0.,2312.,0.,0.,10032.,0.83141227959,43.2334385387,13.
9.8,7721.,2.,0.,2308.,0.,0.,10031.,0.869355313023,22.6032381386,26.
9.82,7725.,1.,1.,2307.,0.,0.,10034.,0.905690009232,47.09588048,13.
9.84,7725.,2.,2.,2302.,0.,0.,10031.,0.940036834682,24.4409577017,26.
9.86,7723.,6.,3.,2299.,0.,0.,10031.,0.971244653998,8.41745366798,78.
9.88,7731.,8.,3.,2295.,0.,0.,10037.,1.00002118054,6.5001376735,104.
9.9,7729.,8.,7.,2294.,0.,0.,10038.,1.02444521314,6.65889388538,104.
9.92,7734.,9.,6.,2292.,0.,0.,10041.,1.04564126204,6.04148284736,117.
9.94,7724.,17.,2.,2299.,0.,0.,10042.,1.06072179016,3.24456076989,221.
9.96,7726.,15.,7.,2296.,0.,0.,10044.,1.07278757553,3.71899692851,195.
9.98,7726.,15.,1.,2300.,0.,0.,10042.,1.08028068395,3.74497303768,195.
10.,7730.,9.,6.,2298.,0.,0.,10043.,1.08317268471,6.25833106723,117.
