t,prevalence
5.,2
5.02,3
5.04,5
5.06,6
5.08,8
5.1,5
5.12,8
5.14,4
5.16,6
5.18,11
5.2,9
5.22,4
5.24,10
5.26,11
5.28,4
5.3,10
5.32,6
5.34,8
5.36,4
5.38,3
5.4,1
5.42,1
5.44,4
5.46,3
5.48,3
5.5,0
5.52,1
5.54,0
5.56,0
5.58,0
5.6,2
5.62,1
5.64,0
5.66,0
5.68,0
5.7,0
5.72,0
5.74,0
5.76,0
5.78,0
5.8,0
5.82,0
5.84,0
5.86,1
5.88,1
5.9,2
5.92,0
5.94,3
5.96,2
5.98,1
6.,2
6.02,4
6.04,6
6.06,5
6.08,9
6.1,10
6.12,10
6.14,9
6.16,6
6.18,6
6.2,10
6.22,7
6.24,7
6.26,5
6.28,8
6.3,10
6.32,6
6.34,7
6.36,2
6.38,4
6.4,2
6.42,2
6.44,8
6.46,1
6.48,2
6.5,1
6.52,2
6.54,2
6.56,1
6.58,1
6.6,0
6.62,0
6.64,0
6.66,0
6.68,0
6.7,0
6.72,0
6.74,0
6.76,1
6.78,2
6.8,1
6.82,0
6.84,2
6.86,0
6.88,2
6.9,2
6.92,1
6.94,1
6.96,5
6.98,4
7.,5
7.02,4
7.04,5
7.06,4
7.08,6
7.1,8
7.12,13
7.14,9
7.16,7
7.18,7
7.2,9
7.22,12
7.24,13
7.26,10
7.28,6
7.3,5
7.32,9
7.34,6
7.36,6
7.38,2
7.4,6
7.42,5
7.44,3
7.46,2
7.48,2
7.5,3
7.52,1
7.54,2
7.56,2
7.58,0
7.6,0
7.62,0
7.64,0
7.66,0
7.68,0
7.7,0
7.72,0
7.74,1
7.76,1
7.78,1
7.8,1
7.82,3
7.84,0
7.86,0
7.88,1
7.9,5
7.92,2
7.94,4
7.96,1
7.98,5
8.,5
8.02,9
8.04,6
8.06,6
8.08,10
8.1,13
8.12,5
8.14,8
8.16,4
8.18,6
8.2,10
8.22,1
8.24,10
8.26,9
8.28,10
8.3,3
8.32,10
8.34,6
8.36,2
8.38,4
8.4,0
8.42,0
8.44,3
8.46,4
8.48,1
8.5,2
8.52,0
8.54,3
8.56,1
8.58,1
8.6,0
8.62,0
8.64,0
8.66,0
8.68,0
8.7,0
8.72,0
8.74,0
8.76,0
8.78,0
8.8,0
8.82,0
8.84,0
8.86,0
8.88,0
8.9,1
8.92,4
8.94,2
8.96,1
8.98,3
9.,1
9.02,2
9.04,3
9.06,1
9.08,7
9.1,8
9.12,7
9.14,4
9.16,7
9.18,2
9.2,9
9.22,6
9.24,7
9.26,7
9.28,6
9.3,7
9.32,7
9.34,5
9.36,2
9.38,6
9.4,6
9.42,9
9.44,3
9.46,1
9.48,0
9.5,1
9.52,1
9.54,0
9.56,1
9.58,0
9.6,0
9.62,0
9.64,0
9.66,2
9.68,1
9.7,1
9.72,1
9.74,0
9.76,0
9.78,0
9.8,1
9.82,1
9.84,0
9.86,0
9.88,1
9.9,0
9.92,1
9.94,1
9.96,1
9.98,1
10.,1
