t,cases
5.01,2.405
5.02,2.405
5.03,2.925
5.04,2.925
5.05,2.795
5.06,2.795
5.07,2.73
5.08,2.73
5.09,3.315
5.1,3.315
5.11,3.575
5.12,3.575
5.13,3.315
5.14,3.315
5.15,4.55
5.16,4.55
5.17,5.46
5.18,5.46
5.19,5.135
5.2,5.135
5.21,5.33
5.22,5.33
5.23,4.875
5.24,4.875
5.25,4.29
5.26,4.29
5.27,4.03
5.28,4.03
5.29,3.185
5.3,3.185
5.31,2.665
5.32,2.665
5.33,2.795
5.34,2.795
5.35,2.665
5.36,2.665
5.37,2.145
5.38,2.145
5.39,1.365
5.4,1.365
5.41,0.91
5.42,0.91
5.43,0.78
5.44,0.78
5.45,0.65
5.46,0.65
5.47,0.52
5.48,0.52
5.49,0.65
5.5,0.65
5.51,0.65
5.52,0.65
5.53,0.39
5.54,0.39
5.55,0.26
5.56,0.26
5.57,0.195
5.58,0.195
5.59,0.26
5.6,0.26
5.61,0.26
5.62,0.26
5.63,0.13
5.64,0.13
5.65,0.13
5.66,0.13
5.67,0.13
5.68,0.13
5.69,0.195
5.7,0.195
5.71,0.195
5.72,0.195
5.73,0.13
5.74,0.13
5.75,0.195
5.76,0.195
5.77,0.26
5.78,0.26
5.79,0.195
5.8,0.195
5.81,0.195
5.82,0.195
5.83,0.325
5.84,0.325
5.85,0.65
5.86,0.65
5.87,0.975
5.88,0.975
5.89,0.845
5.9,0.845
5.91,0.78
5.92,0.78
5.93,0.975
5.94,0.975
5.95,1.43
5.96,1.43
5.97,1.755
5.98,1.755
5.99,1.95
6.,1.95
6.01,2.405
6.02,2.405
6.03,2.47
6.04,2.47
6.05,2.795
6.06,2.795
6.07,3.185
6.08,3.185
6.09,3.25
6.1,3.25
6.11,4.03
6.12,4.03
6.13,4.745
6.14,4.745
6.15,4.55
6.16,4.55
6.17,4.355
6.18,4.355
6.19,5.005
6.2,5.005
6.21,5.655
6.22,5.655
6.23,5.85
6.24,5.85
6.25,5.135
6.26,5.135
6.27,4.225
6.28,4.225
6.29,3.965
6.3,3.965
6.31,3.51
6.32,3.51
6.33,3.12
6.34,3.12
6.35,3.055
6.36,3.055
6.37,2.925
6.38,2.925
6.39,2.21
6.4,2.21
6.41,1.69
6.42,1.69
6.43,1.69
6.44,1.69
6.45,1.56
6.46,1.56
6.47,1.235
6.48,1.235
6.49,0.975
6.5,0.975
6.51,0.845
6.52,0.845
6.53,0.715
6.54,0.715
6.55,0.455
6.56,0.455
6.57,0.26
6.58,0.26
6.59,0.325
6.6,0.325
6.61,0.325
6.62,0.325
6.63,0.195
6.64,0.195
6.65,0.195
6.66,0.195
6.67,0.13
6.68,0.13
6.69,0.065
6.7,0.065
6.71,0.13
6.72,0.13
6.73,0.13
6.74,0.13
6.75,0.13
6.76,0.13
6.77,0.26
6.78,0.26
6.79,0.325
6.8,0.325
6.81,0.325
6.82,0.325
6.83,0.455
6.84,0.455
6.85,0.585
6.86,0.585
6.87,0.52
6.88,0.52
6.89,0.65
6.9,0.65
6.91,0.845
6.92,0.845
6.93,1.105
6.94,1.105
6.95,1.56
6.96,1.56
6.97,1.56
6.98,1.56
6.99,1.56
7.,1.56
7.01,1.95
7.02,1.95
7.03,2.405
7.04,2.405
7.05,2.6
7.06,2.6
7.07,2.535
7.08,2.535
7.09,2.47
7.1,2.47
7.11,2.665
7.12,2.665
7.13,3.64
7.14,3.64
7.15,4.68
7.16,4.68
7.17,4.94
7.18,4.94
7.19,5.135
7.2,5.135
7.21,5.395
7.22,5.395
7.23,4.81
7.24,4.81
7.25,3.965
7.26,3.965
7.27,3.9
7.28,3.9
7.29,4.03
7.3,4.03
7.31,3.705
7.32,3.705
7.33,3.055
7.34,3.055
7.35,2.47
7.36,2.47
7.37,2.47
7.38,2.47
7.39,2.47
7.4,2.47
7.41,1.885
7.42,1.885
7.43,1.43
7.44,1.43
7.45,1.04
7.46,1.04
7.47,0.78
7.48,0.78
7.49,0.52
7.5,0.52
7.51,0.26
7.52,0.26
7.53,0.26
7.54,0.26
7.55,0.13
7.56,0.13
7.57,0.
7.58,0.
7.59,0.0649999999999
7.6,0.0650000000001
7.61,0.13
7.62,0.13
7.63,0.13
7.64,0.13
7.65,0.0650000000001
7.66,0.0649999999999
7.67,0.
7.68,0.
7.69,0.
7.7,0.
7.71,0.0649999999999
7.72,0.0650000000001
7.73,0.13
7.74,0.13
7.75,0.13
7.76,0.13
7.77,0.13
7.78,0.13
7.79,0.195
7.8,0.195
7.81,0.26
7.82,0.26
7.83,0.26
7.84,0.26
7.85,0.39
7.86,0.39
7.87,0.845
7.88,0.845
7.89,1.495
7.9,1.495
7.91,1.495
7.92,1.495
7.93,1.365
7.94,1.365
7.95,1.885
7.96,1.885
7.97,1.95
7.98,1.95
7.99,1.95
8.,1.95
8.01,2.47
8.02,2.47
8.03,2.535
8.04,2.535
8.05,2.405
8.06,2.405
8.07,2.275
8.08,2.275
8.09,2.795
8.1,2.795
8.11,3.77
8.12,3.77
8.13,3.9
8.14,3.9
8.15,4.225
8.16,4.225
8.17,4.355
8.18,4.355
8.19,3.64
8.2,3.64
8.21,3.705
8.22,3.705
8.23,3.965
8.24,3.965
8.25,4.03
8.26,4.03
8.27,3.64
8.28,3.64
8.29,3.64
8.3,3.64
8.31,3.835
8.32,3.835
8.33,3.12
8.34,3.12
8.35,2.665
8.36,2.665
8.37,2.275
8.38,2.275
8.39,2.08
8.4,2.08
8.41,1.82
8.42,1.82
8.43,1.495
8.44,1.495
8.45,1.235
8.46,1.235
8.47,0.715
8.48,0.715
8.49,0.455
8.5,0.455
8.51,0.455
8.52,0.455
8.53,0.325
8.54,0.325
8.55,0.195
8.56,0.195
8.57,0.13
8.58,0.13
8.59,0.195
8.6,0.195
8.61,0.325
8.62,0.325
8.63,0.39
8.64,0.39
8.65,0.26
8.66,0.26
8.67,0.195
8.68,0.195
8.69,0.325
8.7,0.325
8.71,0.455
8.72,0.455
8.73,0.52
8.74,0.52
8.75,0.325
8.76,0.325
8.77,0.26
8.78,0.26
8.79,0.325
8.8,0.325
8.81,0.325
8.82,0.325
8.83,0.585
8.84,0.585
8.85,0.975
8.86,0.975
8.87,1.17
8.88,1.17
8.89,0.91
8.9,0.91
8.91,0.65
8.92,0.65
8.93,0.845
8.94,0.845
8.95,1.105
8.96,1.105
8.97,1.755
8.98,1.755
8.99,2.665
9.,2.665
9.01,2.665
9.02,2.665
9.03,2.665
9.04,2.665
9.05,3.12
9.06,3.12
9.07,2.925
9.08,2.925
9.09,2.73
9.1,2.73
9.11,3.055
9.12,3.055
9.13,3.835
9.14,3.835
9.15,4.225
9.16,4.225
9.17,4.485
9.18,4.485
9.19,4.68
9.2,4.68
9.21,4.16
9.22,4.16
9.23,4.095
9.24,4.095
9.25,4.485
9.26,4.485
9.27,4.16
9.28,4.16
9.29,2.99
9.3,2.99
9.31,2.015
9.32,2.015
9.33,2.08
9.34,2.08
9.35,2.21
9.36,2.21
9.37,1.885
9.38,1.885
9.39,1.69
9.4,1.69
9.41,1.495
9.42,1.495
9.43,1.17
9.44,1.17
9.45,0.715
9.46,0.715
9.47,0.52
9.48,0.52
9.49,0.455
9.5,0.455
9.51,0.325
9.52,0.325
9.53,0.26
9.54,0.26
9.55,0.195
9.56,0.195
9.57,0.0650000000001
9.58,0.0649999999999
9.59,0.
9.6,0.
9.61,0.
9.62,0.
9.63,0.0649999999999
9.64,0.0650000000001
9.65,0.0650000000001
9.66,0.0649999999999
9.67,0.
9.68,0.
9.69,0.0649999999999
9.7,0.0650000000001
9.71,0.13
9.72,0.13
9.73,0.26
9.74,0.26
9.75,0.455
9.76,0.455
9.77,0.455
9.78,0.455
9.79,0.455
9.8,0.455
9.81,0.65
9.82,0.65
9.83,0.455
9.84,0.455
9.85,0.195
9.86,0.195
9.87,0.585
9.88,0.585
9.89,0.78
9.9,0.78
9.91,0.65
9.92,0.65
9.93,0.715
9.94,0.715
9.95,1.04
9.96,1.04
9.97,1.56
9.98,1.56
9.99,1.82
10.,1.82
