t,s,e,i,r,c,o,n,reff,coal,reportr
5.,7819.,14.,7.,2160.,0.,0.,10000.,1.2277581019,4.56024437849,182.
5.02,7818.,14.,6.,2160.,0.,0.,9998.,1.22508038096,4.55029855786,182.
5.04,7810.,25.,4.,2159.,0.,0.,9998.,1.21558005061,2.52840650527,325.
5.06,7805.,19.,10.,2161.,0.,0.,9995.,1.20157111248,3.28851041311,247.
5.08,7799.,24.,11.,2162.,0.,0.,9996.,1.18181122899,2.56059099615,312.
5.1,7793.,22.,11.,2168.,0.,0.,9994.,1.15759829901,2.73614143403,286.
5.12,7783.,24.,19.,2170.,0.,0.,9996.,1.12791964192,2.44382589083,312.
5.14,7774.,29.,12.,2183.,0.,0.,9998.,1.09445565121,1.96247220218,377.
5.16,7754.,33.,13.,2193.,0.,0.,9993.,1.05681860502,1.66528992307,429.
5.18,7742.,28.,22.,2203.,0.,0.,9995.,1.01672963299,1.88821217556,364.
5.2,7720.,36.,21.,2217.,0.,0.,9994.,0.973477399113,1.40613402094,468.
5.22,7701.,40.,20.,2235.,0.,0.,9996.,0.928846011014,1.20749981432,520.
5.24,7689.,38.,21.,2249.,0.,0.,9997.,0.884314668213,1.21011480913,494.
5.26,7681.,34.,17.,2262.,0.,0.,9994.,0.840358950529,1.28525486551,442.
5.28,7679.,30.,15.,2271.,0.,0.,9995.,0.797112189912,1.38166112918,390.
5.3,7674.,26.,21.,2275.,0.,0.,9996.,0.754619646037,1.50923929207,338.
5.32,7664.,30.,14.,2288.,0.,0.,9996.,0.713473366226,1.23668716812,390.
5.34,7657.,22.,23.,2298.,0.,0.,10000.,0.674733045398,1.59482356185,286.
5.36,7649.,21.,13.,2319.,0.,0.,10002.,0.639036062034,1.58237501075,273.
5.38,7650.,15.,12.,2329.,0.,0.,10006.,0.607464275222,2.1058761541,195.
5.4,7647.,17.,5.,2337.,0.,0.,10006.,0.57978020812,1.77344534248,221.
5.42,7647.,15.,3.,2340.,0.,0.,10005.,0.556764520586,1.9301170047,195.
5.44,7652.,8.,5.,2343.,0.,0.,10008.,0.538620269072,3.50103174897,104.
5.46,7652.,11.,4.,2340.,0.,0.,10007.,0.525361243107,2.48352587651,143.
5.48,7655.,11.,3.,2336.,0.,0.,10005.,0.517594866437,2.44681209588,143.
5.5,7660.,4.,6.,2336.,0.,0.,10006.,0.515172985291,6.69724880878,52.
5.52,7665.,6.,5.,2333.,0.,0.,10009.,0.518063897106,4.48988710825,78.
5.54,7674.,3.,6.,2327.,0.,0.,10010.,0.526713787406,9.12970564837,39.
5.56,7681.,3.,1.,2326.,0.,0.,10011.,0.540499543624,9.36865875615,39.
5.58,7687.,0.,0.,2324.,0.,0.,10011.,0.559341412583,inf,0.
5.6,7692.,0.,0.,2322.,0.,0.,10014.,0.582726116545,inf,0.
5.62,7701.,0.,0.,2316.,0.,0.,10017.,0.610842513206,inf,0.
5.64,7707.,1.,0.,2309.,0.,0.,10017.,0.642917491341,33.4317095497,13.
5.66,7717.,1.,0.,2300.,0.,0.,10018.,0.678798394226,35.2975164998,13.
5.68,7729.,1.,0.,2293.,0.,0.,10023.,0.717586226171,37.3144837609,13.
5.7,7734.,1.,0.,2289.,0.,0.,10024.,0.758395364692,39.436558964,13.
5.72,7738.,1.,0.,2284.,0.,0.,10023.,0.800992734093,41.6516221729,13.
5.74,7743.,1.,0.,2279.,0.,0.,10023.,0.844691140117,43.9239392861,13.
5.76,7744.,1.,0.,2276.,0.,0.,10021.,0.888507180934,46.2023734086,13.
5.78,7750.,2.,1.,2270.,0.,0.,10023.,0.932238031819,24.2381888273,26.
5.8,7757.,1.,0.,2263.,0.,0.,10021.,0.975507577405,50.7263940251,13.
5.82,7763.,0.,4.,2258.,0.,0.,10025.,1.01643665376,inf,0.
5.84,7765.,6.,1.,2253.,0.,0.,10025.,1.0549396602,9.14281038838,78.
5.86,7774.,5.,2.,2247.,0.,0.,10028.,1.09118145202,11.348287101,65.
5.88,7773.,7.,6.,2241.,0.,0.,10027.,1.12298777739,8.34219491779,91.
5.9,7768.,11.,5.,2246.,0.,0.,10030.,1.14974315506,5.43514946026,143.
5.92,7769.,7.,5.,2250.,0.,0.,10031.,1.17315752395,8.71488446365,91.
5.94,7759.,14.,3.,2253.,0.,0.,10029.,1.19043994282,4.42163407334,182.
5.96,7765.,9.,6.,2250.,0.,0.,10030.,1.20472019245,6.96060555639,117.
5.98,7758.,18.,4.,2248.,0.,0.,10028.,1.21204153068,3.50145331085,234.
6.,7752.,16.,10.,2250.,0.,0.,10028.,1.21383885269,3.94497627124,208.
6.02,7745.,18.,8.,2252.,0.,0.,10023.,1.21061414222,3.4973297442,234.
6.04,7747.,17.,6.,2256.,0.,0.,10026.,1.20240706204,3.6779510133,221.
6.06,7738.,24.,11.,2255.,0.,0.,10028.,1.18733636653,2.57256212749,312.
6.08,7731.,24.,13.,2260.,0.,0.,10028.,1.16776858343,2.5301652641,312.
6.1,7706.,36.,9.,2272.,0.,0.,10023.,1.14136308775,1.6486355712,468.
6.12,7700.,29.,14.,2280.,0.,0.,10023.,1.1128852118,1.99551831081,377.
6.14,7688.,31.,15.,2286.,0.,0.,10020.,1.07997180472,1.81156560792,403.
6.16,7670.,38.,17.,2292.,0.,0.,10017.,1.04286533392,1.42707887799,494.
6.18,7661.,32.,15.,2308.,0.,0.,10016.,1.00398276933,1.63147200016,416.
6.2,7646.,34.,19.,2317.,0.,0.,10016.,0.962028405937,1.47133756202,442.
6.22,7634.,34.,23.,2325.,0.,0.,10016.,0.918926305874,1.4054167031,442.
6.24,7621.,40.,12.,2342.,0.,0.,10015.,0.874918637497,1.13739422875,520.
6.26,7618.,32.,7.,2360.,0.,0.,10017.,0.831552559378,1.35127290899,416.
6.28,7614.,24.,20.,2359.,0.,0.,10017.,0.788629067255,1.70869631239,312.
6.3,7601.,22.,14.,2381.,0.,0.,10018.,0.745799804808,1.76279953864,286.
6.32,7595.,26.,9.,2390.,0.,0.,10020.,0.705356339044,1.41071267809,338.
6.34,7587.,22.,18.,2392.,0.,0.,10019.,0.667296797888,1.57724697683,286.
6.36,7575.,25.,5.,2413.,0.,0.,10018.,0.631842981958,1.31423340247,325.
6.38,7579.,14.,15.,2409.,0.,0.,10017.,0.601165485988,2.23290037653,182.
6.4,7583.,12.,5.,2419.,0.,0.,10019.,0.574181867603,2.48812142628,156.
6.42,7590.,8.,4.,2421.,0.,0.,10023.,0.551622028144,3.58554318293,104.
6.44,7593.,11.,1.,2422.,0.,0.,10027.,0.533454536581,2.52178508202,143.
6.46,7595.,10.,2.,2419.,0.,0.,10026.,0.520459628339,2.70639006736,130.
6.48,7602.,10.,3.,2414.,0.,0.,10029.,0.512781197459,2.66646222678,130.
6.5,7603.,5.,4.,2417.,0.,0.,10029.,0.510166772663,5.3057344357,65.
6.52,7608.,6.,2.,2416.,0.,0.,10032.,0.513032453526,4.44628126389,78.
6.54,7604.,3.,4.,2416.,0.,0.,10027.,0.521024400534,9.03108960926,39.
6.56,7610.,3.,4.,2410.,0.,0.,10027.,0.534648890212,9.26724743034,39.
6.58,7612.,2.,2.,2410.,0.,0.,10026.,0.553055396686,14.3794403138,26.
6.6,7616.,1.,1.,2406.,0.,0.,10024.,0.576392965068,29.9724341835,13.
6.62,7620.,1.,1.,2399.,0.,0.,10021.,0.604176341298,31.4171697475,13.
6.64,7626.,3.,1.,2390.,0.,0.,10020.,0.635970008847,11.0234801534,39.
6.66,7631.,2.,2.,2383.,0.,0.,10018.,0.671233710812,17.4520764811,26.
6.68,7632.,2.,1.,2381.,0.,0.,10016.,0.709075635499,18.435966523,26.
6.7,7636.,2.,1.,2376.,0.,0.,10015.,0.749458390846,19.485918162,26.
6.72,7637.,1.,1.,2375.,0.,0.,10014.,0.791248291129,41.1449111387,13.
6.74,7633.,3.,0.,2372.,0.,0.,10008.,0.83393917511,14.4549457019,39.
6.76,7639.,1.,1.,2366.,0.,0.,10007.,0.877686200561,45.6396824292,13.
6.78,7646.,1.,0.,2359.,0.,0.,10006.,0.921290598914,47.9071111435,13.
6.8,7655.,0.,1.,2352.,0.,0.,10008.,0.963930708868,inf,0.
6.82,7654.,3.,1.,2349.,0.,0.,10007.,1.00396753874,17.4021040049,39.
6.84,7658.,3.,0.,2352.,0.,0.,10013.,1.04164968511,18.0552612085,39.
6.86,7651.,4.,0.,2350.,0.,0.,10005.,1.07638558537,13.9930126098,52.
6.88,7654.,5.,0.,2347.,0.,0.,10006.,1.10811628152,11.5244093278,65.
6.9,7658.,0.,5.,2343.,0.,0.,10006.,1.13618071184,inf,0.
6.92,7666.,7.,1.,2335.,0.,0.,10009.,1.16014845204,8.61824564375,91.
6.94,7667.,4.,6.,2332.,0.,0.,10009.,1.17867519444,15.3227775278,52.
6.96,7661.,11.,7.,2332.,0.,0.,10011.,1.19084068421,5.62942868897,143.
6.98,7660.,14.,4.,2331.,0.,0.,10009.,1.19900261867,4.45343829793,182.
7.,7651.,18.,6.,2333.,0.,0.,10008.,1.20041800524,3.46787423735,234.
7.02,7643.,23.,7.,2334.,0.,0.,10007.,1.19658074776,2.70531299494,299.
7.04,7632.,27.,8.,2338.,0.,0.,10005.,1.18704431201,2.28615941573,351.
7.06,7621.,20.,15.,2350.,0.,0.,10006.,1.17195472102,3.04708227464,260.
7.08,7609.,27.,8.,2363.,0.,0.,10007.,1.15175239375,2.21818979538,351.
7.1,7602.,27.,15.,2362.,0.,0.,10006.,1.12787226057,2.17219842776,351.
7.12,7582.,33.,18.,2372.,0.,0.,10005.,1.09780211659,1.7298700019,429.
7.14,7562.,39.,19.,2384.,0.,0.,10004.,1.06397091019,1.41862788025,507.
7.16,7544.,38.,17.,2404.,0.,0.,10003.,1.02716911372,1.40559983983,494.
7.18,7525.,42.,12.,2422.,0.,0.,10001.,0.987638906353,1.22279102691,546.
7.2,7511.,45.,20.,2427.,0.,0.,10003.,0.946270739438,1.09346841002,585.
7.22,7506.,30.,22.,2443.,0.,0.,10001.,0.904873723952,1.56844778818,390.
7.24,7486.,36.,15.,2466.,0.,0.,10003.,0.860451139253,1.24287386781,468.
7.26,7486.,35.,11.,2474.,0.,0.,10006.,0.818042249432,1.2153770563,455.
7.28,7476.,29.,21.,2477.,0.,0.,10003.,0.775419298474,1.39040701795,377.
7.3,7462.,27.,21.,2493.,0.,0.,10003.,0.733259226039,1.41220295385,351.
7.32,7462.,25.,13.,2506.,0.,0.,10006.,0.693974101378,1.44346613087,325.
7.34,7460.,18.,14.,2512.,0.,0.,10004.,0.657110607327,1.89831953228,234.
7.36,7453.,16.,11.,2522.,0.,0.,10002.,0.622661232885,2.02364900688,208.
7.38,7452.,13.,9.,2529.,0.,0.,10003.,0.591919139712,2.36767655885,169.
7.4,7450.,8.,15.,2532.,0.,0.,10005.,0.564900519274,3.67185337528,104.
7.42,7449.,13.,11.,2532.,0.,0.,10005.,0.542348491415,2.16939396566,169.
7.44,7445.,10.,12.,2535.,0.,0.,10002.,0.52436401449,2.72669287535,130.
7.46,7448.,7.,4.,2546.,0.,0.,10005.,0.511457491594,3.79939850898,91.
7.48,7454.,4.,3.,2540.,0.,0.,10001.,0.504205779355,6.55467513161,52.
7.5,7457.,6.,1.,2539.,0.,0.,10003.,0.501670639576,4.34781220966,78.
7.52,7465.,4.,0.,2535.,0.,0.,10004.,0.504798420382,6.56237946497,52.
7.54,7482.,0.,2.,2524.,0.,0.,10008.,0.513638272328,inf,0.
7.56,7491.,1.,2.,2515.,0.,0.,10009.,0.52723488212,27.4162138702,13.
7.58,7496.,1.,1.,2509.,0.,0.,10007.,0.545661400396,28.3743928206,13.
7.6,7506.,1.,2.,2502.,0.,0.,10011.,0.568805638539,29.577893204,13.
7.62,7511.,0.,1.,2501.,0.,0.,10013.,0.596009732406,inf,0.
7.64,7516.,1.,0.,2495.,0.,0.,10012.,0.627297398861,32.6194647408,13.
7.66,7527.,1.,0.,2486.,0.,0.,10014.,0.662350185607,34.4422096516,13.
7.68,7535.,1.,1.,2475.,0.,0.,10012.,0.70034322667,36.4178477868,13.
7.7,7544.,1.,1.,2467.,0.,0.,10013.,0.740576665172,38.509986589,13.
7.72,7551.,1.,1.,2460.,0.,0.,10013.,0.782416202985,40.6856425552,13.
7.74,7547.,1.,0.,2460.,0.,0.,10008.,0.82454329288,42.8762512298,13.
7.76,7550.,1.,2.,2457.,0.,0.,10010.,0.867200528991,45.0944275075,13.
7.78,7553.,1.,2.,2455.,0.,0.,10011.,0.909630193908,47.3007700832,13.
7.8,7558.,3.,2.,2451.,0.,0.,10014.,0.951146071302,16.4865319026,39.
7.82,7557.,6.,2.,2449.,0.,0.,10014.,0.990551244739,8.58477745441,78.
7.84,7565.,3.,4.,2446.,0.,0.,10018.,1.02848614615,17.8270931999,39.
7.86,7567.,5.,0.,2446.,0.,0.,10018.,1.06318654253,11.0571400423,65.
7.88,7569.,5.,2.,2440.,0.,0.,10016.,1.09471625307,11.3850490319,65.
7.9,7571.,7.,3.,2435.,0.,0.,10016.,1.12215146075,8.33598227988,91.
7.92,7573.,7.,0.,2438.,0.,0.,10018.,1.14504450965,8.5060449288,91.
7.94,7573.,6.,5.,2432.,0.,0.,10016.,1.16341058481,10.082891735,78.
7.96,7561.,14.,5.,2435.,0.,0.,10015.,1.17482707597,4.36364342502,182.
7.98,7557.,11.,6.,2441.,0.,0.,10015.,1.18217159454,5.58844753785,143.
8.,7553.,15.,8.,2437.,0.,0.,10013.,1.18445035952,4.10609457967,195.
8.02,7548.,24.,8.,2434.,0.,0.,10014.,1.18088160001,2.55857680002,312.
8.04,7545.,20.,8.,2444.,0.,0.,10017.,1.17210692802,3.04747801286,260.
8.06,7543.,18.,13.,2445.,0.,0.,10019.,1.15845482002,3.34664725783,234.
8.08,7536.,22.,12.,2454.,0.,0.,10024.,1.13876804272,2.69163355552,286.
8.1,7523.,29.,9.,2465.,0.,0.,10026.,1.11392489578,1.99738257174,377.
8.12,7519.,28.,8.,2471.,0.,0.,10026.,1.08640001069,2.01760001985,364.
8.14,7507.,29.,13.,2478.,0.,0.,10027.,1.05380963525,1.8895896908,377.
8.16,7490.,43.,17.,2481.,0.,0.,10031.,1.01696996876,1.22982414827,559.
8.18,7474.,39.,21.,2494.,0.,0.,10028.,0.978304116898,1.3044054892,507.
8.2,7465.,41.,8.,2516.,0.,0.,10030.,0.937943756698,1.18958720362,533.
8.22,7457.,39.,10.,2524.,0.,0.,10030.,0.896367402435,1.19515653658,507.
8.24,7454.,27.,18.,2532.,0.,0.,10031.,0.854381464592,1.64547541329,351.
8.26,7440.,29.,20.,2541.,0.,0.,10030.,0.811070139351,1.45433266366,377.
8.28,7435.,29.,17.,2551.,0.,0.,10032.,0.768937481506,1.3787844496,377.
8.3,7421.,34.,13.,2560.,0.,0.,10028.,0.727412343729,1.11251299629,442.
8.32,7422.,29.,9.,2566.,0.,0.,10026.,0.688877129848,1.23522795697,377.
8.34,7424.,25.,11.,2569.,0.,0.,10029.,0.652309442624,1.35680364066,325.
8.36,7416.,21.,9.,2583.,0.,0.,10029.,0.617902064185,1.53004320655,273.
8.38,7416.,15.,14.,2583.,0.,0.,10028.,0.587591089796,2.03698244463,195.
8.4,7411.,14.,10.,2590.,0.,0.,10025.,0.560822237991,2.08305402682,182.
8.42,7413.,10.,4.,2600.,0.,0.,10027.,0.53854319228,2.80042459986,130.
8.44,7421.,6.,6.,2594.,0.,0.,10027.,0.521370488077,4.51854423,78.
8.46,7425.,7.,2.,2594.,0.,0.,10028.,0.508708626188,3.77897836597,91.
8.48,7428.,6.,1.,2594.,0.,0.,10029.,0.501044295544,4.34238389471,78.
8.5,7428.,4.,3.,2590.,0.,0.,10025.,0.498623019175,6.48209924928,52.
8.52,7432.,3.,0.,2589.,0.,0.,10024.,0.501564166299,8.69377888251,39.
8.54,7434.,2.,0.,2588.,0.,0.,10024.,0.50952848502,13.2477406105,26.
8.56,7437.,0.,3.,2581.,0.,0.,10021.,0.5228074254,inf,0.
8.58,7446.,0.,2.,2575.,0.,0.,10023.,0.541156471878,inf,0.
8.6,7450.,0.,0.,2574.,0.,0.,10024.,0.563829778066,inf,0.
8.62,7452.,1.,0.,2570.,0.,0.,10023.,0.590738018012,30.7183769366,13.
8.64,7462.,1.,0.,2561.,0.,0.,10024.,0.622044913141,32.3463354833,13.
8.66,7473.,1.,0.,2551.,0.,0.,10025.,0.656876816482,34.157594457,13.
8.68,7476.,1.,0.,2546.,0.,0.,10023.,0.694096859471,36.0930366925,13.
8.7,7480.,2.,0.,2538.,0.,0.,10020.,0.73378095651,19.0783048693,26.
8.72,7481.,1.,2.,2535.,0.,0.,10019.,0.774698757942,40.284335413,13.
8.74,7485.,1.,0.,2533.,0.,0.,10019.,0.816871676747,42.4773271909,13.
8.76,7491.,1.,0.,2529.,0.,0.,10021.,0.859479247466,44.6929208682,13.
8.78,7495.,0.,2.,2525.,0.,0.,10022.,0.901654351883,inf,0.
8.8,7497.,4.,0.,2519.,0.,0.,10020.,0.942904497367,12.2577584658,52.
8.82,7503.,3.,1.,2516.,0.,0.,10023.,0.982589975261,17.0315595712,39.
8.84,7506.,3.,2.,2511.,0.,0.,10022.,1.02005761596,17.6809986766,39.
8.86,7510.,3.,1.,2507.,0.,0.,10021.,1.05486197897,18.2842743021,39.
8.88,7513.,2.,2.,2506.,0.,0.,10023.,1.08585799951,28.2323079873,26.
8.9,7517.,6.,1.,2501.,0.,0.,10025.,1.11314750642,9.64727838897,78.
8.92,7519.,8.,2.,2498.,0.,0.,10027.,1.13585922386,7.3830849551,104.
8.94,7521.,5.,7.,2493.,0.,0.,10026.,1.154269601,12.0044038504,65.
8.96,7517.,12.,3.,2493.,0.,0.,10025.,1.16682528472,5.05624290047,156.
8.98,7517.,17.,1.,2488.,0.,0.,10023.,1.17497566263,3.59404320335,221.
9.,7514.,13.,5.,2485.,0.,0.,10017.,1.17786390297,4.71145561189,169.
9.02,7521.,14.,3.,2483.,0.,0.,10021.,1.17583552658,4.36738909872,182.
9.04,7506.,19.,5.,2488.,0.,0.,10018.,1.1659319283,3.19097159325,247.
9.06,7502.,24.,1.,2492.,0.,0.,10019.,1.15215803523,2.49634240968,312.
9.08,7500.,22.,8.,2488.,0.,0.,10018.,1.13400684304,2.68037981083,286.
9.1,7499.,18.,12.,2493.,0.,0.,10022.,1.11081440752,3.20901939951,234.
9.12,7489.,24.,10.,2501.,0.,0.,10024.,1.08228128661,2.34494278765,312.
9.14,7481.,28.,11.,2506.,0.,0.,10026.,1.05026457865,1.95049136035,364.
9.16,7478.,30.,4.,2519.,0.,0.,10031.,1.01534064438,1.75992378359,390.
9.18,7466.,28.,15.,2523.,0.,0.,10032.,0.976867306485,1.81418214061,364.
9.2,7452.,34.,12.,2538.,0.,0.,10036.,0.935750593982,1.43114796727,442.
9.22,7446.,26.,18.,2545.,0.,0.,10035.,0.894599187619,1.78919837524,338.
9.24,7437.,33.,12.,2551.,0.,0.,10033.,0.852262989676,1.34295986252,429.
9.26,7433.,27.,15.,2559.,0.,0.,10034.,0.809984011195,1.55996920675,351.
9.28,7427.,29.,17.,2563.,0.,0.,10036.,0.767803969048,1.3767519445,377.
9.3,7425.,21.,10.,2580.,0.,0.,10036.,0.727224271938,1.80074581623,273.
9.32,7419.,21.,14.,2581.,0.,0.,10035.,0.687981105856,1.70357226212,273.
9.34,7412.,23.,11.,2587.,0.,0.,10033.,0.650995417941,1.47181572752,299.
9.36,7412.,20.,3.,2597.,0.,0.,10032.,0.617384104016,1.60519867044,260.
9.38,7420.,8.,13.,2594.,0.,0.,10035.,0.58749792108,3.81873648702,104.
9.4,7416.,12.,8.,2599.,0.,0.,10035.,0.560641366233,2.42944592034,156.
9.42,7413.,12.,7.,2600.,0.,0.,10032.,0.538274779605,2.33252404495,156.
9.44,7418.,8.,4.,2604.,0.,0.,10034.,0.520796144142,3.38517493693,104.
9.46,7420.,4.,3.,2604.,0.,0.,10031.,0.508214022957,6.60678229845,52.
9.48,7420.,8.,1.,2604.,0.,0.,10033.,0.500305124495,3.25198330922,104.
9.5,7429.,6.,1.,2596.,0.,0.,10032.,0.498342177068,4.31896553459,78.
9.52,7431.,1.,4.,2595.,0.,0.,10031.,0.501146716403,26.0596292529,13.
9.54,7439.,0.,0.,2593.,0.,0.,10032.,0.509464590607,inf,0.
9.56,7441.,0.,0.,2590.,0.,0.,10031.,0.52256714599,inf,0.
9.58,7446.,1.,0.,2582.,0.,0.,10029.,0.540832716885,28.123301278,13.
9.6,7451.,0.,1.,2577.,0.,0.,10029.,0.563624322484,inf,0.
9.62,7458.,0.,1.,2569.,0.,0.,10028.,0.590918871049,inf,0.
9.64,7460.,0.,0.,2565.,0.,0.,10025.,0.621816157029,inf,0.
9.66,7464.,0.,0.,2561.,0.,0.,10025.,0.656085716341,inf,0.
9.68,7469.,0.,0.,2556.,0.,0.,10025.,0.693308612512,inf,0.
9.7,7476.,1.,0.,2551.,0.,0.,10028.,0.732803487631,38.1057813568,13.
9.72,7476.,0.,0.,2550.,0.,0.,10026.,0.773640459069,inf,0.
9.74,7480.,0.,0.,2546.,0.,0.,10026.,0.815756057942,inf,0.
9.76,7485.,0.,0.,2542.,0.,0.,10027.,0.858276950968,inf,0.
9.78,7481.,2.,0.,2539.,0.,0.,10022.,0.899970140952,23.3992236648,26.
9.8,7488.,2.,0.,2533.,0.,0.,10023.,0.941490675759,24.4787575697,26.
9.82,7488.,3.,1.,2527.,0.,0.,10019.,0.981017087438,17.0042961823,39.
9.84,7492.,3.,3.,2519.,0.,0.,10017.,1.01866324403,17.6568295632,39.
9.86,7494.,4.,3.,2516.,0.,0.,10017.,1.05303493452,13.6894541488,52.
9.88,7501.,6.,2.,2512.,0.,0.,10021.,1.0843400033,9.3976133619,78.
9.9,7503.,10.,4.,2503.,0.,0.,10020.,1.11162875858,5.78046954463,130.
9.92,7511.,5.,6.,2502.,0.,0.,10024.,1.1349902825,11.8038989379,65.
9.94,7512.,8.,2.,2503.,0.,0.,10025.,1.15300334632,7.49452175111,104.
9.96,7521.,8.,3.,2497.,0.,0.,10029.,1.16698055602,7.58537361412,104.
9.98,7522.,10.,1.,2497.,0.,0.,10030.,1.1749366399,6.10967052746,130.
10.,7527.,12.,2.,2488.,0.,0.,10029.,1.1784899419,5.10678974824,156.
