t,s,e,i,r,c,o,n,reff,coal,reportr
5.,7202.,4.,30.,2765.,0.,0.,10001.,1.19605500152,15.5487150198,52.
5.02,7187.,20.,12.,2784.,0.,0.,10003.,1.19063677785,3.09565562242,260.
5.04,7178.,29.,11.,2784.,0.,0.,10002.,1.18125084602,2.11810496527,377.
5.06,7173.,28.,12.,2790.,0.,0.,10003.,1.16710464616,2.16748005715,364.
5.08,7172.,25.,7.,2802.,0.,0.,10006.,1.14840503449,2.38868247173,325.
5.1,7162.,17.,17.,2804.,0.,0.,10000.,1.12462240571,3.4400214763,221.
5.12,7149.,33.,11.,2809.,0.,0.,10002.,1.09520568551,1.72577865595,429.
5.14,7145.,27.,19.,2814.,0.,0.,10005.,1.06324113532,2.04772366803,351.
5.16,7131.,28.,19.,2828.,0.,0.,10006.,1.02669239506,1.90671444796,364.
5.18,7115.,38.,14.,2837.,0.,0.,10004.,0.987452469845,1.35125074821,494.
5.2,7107.,32.,16.,2851.,0.,0.,10006.,0.9467898663,1.53853353274,416.
5.22,7094.,30.,13.,2871.,0.,0.,10008.,0.90395455605,1.56685456382,390.
5.24,7079.,36.,12.,2879.,0.,0.,10006.,0.860395122808,1.24279295517,468.
5.26,7079.,27.,9.,2895.,0.,0.,10010.,0.8179073502,1.57522897076,351.
5.28,7078.,24.,10.,2899.,0.,0.,10011.,0.775908562661,1.6811352191,312.
5.3,7078.,19.,17.,2901.,0.,0.,10015.,0.734804878517,2.01104493068,247.
5.32,7079.,12.,8.,2917.,0.,0.,10016.,0.695674331974,3.01458877189,156.
5.34,7078.,14.,5.,2919.,0.,0.,10016.,0.658672363842,2.44649735141,182.
5.36,7082.,13.,7.,2915.,0.,0.,10017.,0.624893016193,2.49957206477,169.
5.38,7085.,9.,8.,2915.,0.,0.,10017.,0.594431550988,3.43449340571,117.
5.4,7095.,8.,4.,2908.,0.,0.,10015.,0.568478581538,3.69511078,104.
5.42,7089.,10.,5.,2907.,0.,0.,10011.,0.545613285,2.837189082,130.
5.44,7091.,9.,5.,2909.,0.,0.,10014.,0.527636453194,3.04856617401,117.
5.46,7091.,10.,3.,2912.,0.,0.,10016.,0.514493633454,2.67536689396,130.
5.48,7093.,8.,7.,2909.,0.,0.,10017.,0.506680290029,3.29342188519,104.
5.5,7106.,5.,4.,2904.,0.,0.,10019.,0.504853652907,5.25047799023,65.
5.52,7109.,3.,3.,2906.,0.,0.,10021.,0.507620527996,8.79875581859,39.
5.54,7118.,0.,6.,2899.,0.,0.,10023.,0.516091954521,inf,0.
5.56,7126.,0.,1.,2897.,0.,0.,10024.,0.529711807973,inf,0.
5.58,7128.,1.,0.,2893.,0.,0.,10022.,0.548012814483,28.4966663531,13.
5.6,7134.,0.,1.,2886.,0.,0.,10021.,0.571261167614,inf,0.
5.62,7142.,0.,0.,2878.,0.,0.,10020.,0.599034446053,inf,0.
5.64,7140.,0.,1.,2874.,0.,0.,10015.,0.630136564012,inf,0.
5.66,7148.,0.,0.,2870.,0.,0.,10018.,0.665053703113,inf,0.
5.68,7155.,0.,0.,2865.,0.,0.,10020.,0.702862381611,inf,0.
5.7,7156.,0.,0.,2862.,0.,0.,10018.,0.742680003661,inf,0.
5.72,7168.,1.,0.,2854.,0.,0.,10023.,0.784833828364,40.8113590749,13.
5.74,7178.,1.,1.,2850.,0.,0.,10030.,0.827692075447,43.0399879233,13.
5.76,7178.,1.,0.,2849.,0.,0.,10028.,0.870513789139,45.2667170352,13.
5.78,7181.,1.,1.,2843.,0.,0.,10026.,0.91339774904,47.4966829501,13.
5.8,7184.,2.,0.,2836.,0.,0.,10022.,0.955519840668,24.8435158574,26.
5.82,7188.,3.,0.,2831.,0.,0.,10022.,0.995792037081,17.2603953094,39.
5.84,7197.,4.,1.,2823.,0.,0.,10025.,1.03423094631,13.445002302,52.
5.86,7199.,7.,1.,2816.,0.,0.,10023.,1.06935295422,7.94376480275,91.
5.88,7201.,9.,0.,2810.,0.,0.,10020.,1.10119018594,6.36243218544,117.
5.9,7206.,8.,3.,2803.,0.,0.,10020.,1.12927301716,7.34027461152,104.
5.92,7210.,9.,3.,2798.,0.,0.,10020.,1.15287666424,6.66106517119,117.
5.94,7210.,12.,3.,2794.,0.,0.,10019.,1.17125140278,5.07542274539,156.
5.96,7222.,9.,5.,2790.,0.,0.,10026.,1.18564674291,6.8504034035,117.
5.98,7221.,14.,5.,2785.,0.,0.,10025.,1.19364416971,4.43353548749,182.
6.,7219.,18.,1.,2787.,0.,0.,10025.,1.19600810361,3.45513452154,234.
6.02,7223.,12.,5.,2787.,0.,0.,10027.,1.19373662133,5.17285869243,156.
6.04,7215.,19.,6.,2784.,0.,0.,10024.,1.18473387456,3.24242955143,247.
6.06,7216.,20.,7.,2782.,0.,0.,10025.,1.17152451018,3.04596372648,260.
6.08,7210.,26.,6.,2786.,0.,0.,10028.,1.15195693815,2.30391387629,338.
6.1,7214.,20.,16.,2780.,0.,0.,10030.,1.12939957492,2.93643889479,260.
6.12,7197.,27.,18.,2790.,0.,0.,10032.,1.09926201712,2.11709721815,351.
6.14,7178.,37.,16.,2800.,0.,0.,10031.,1.06538322408,1.49729534195,481.
6.16,7165.,41.,18.,2809.,0.,0.,10033.,1.02881145161,1.30483403619,533.
6.18,7153.,42.,19.,2820.,0.,0.,10034.,0.989758197505,1.2254149112,546.
6.2,7146.,32.,24.,2834.,0.,0.,10036.,0.949139708953,1.54235202705,416.
6.22,7119.,52.,10.,2852.,0.,0.,10033.,0.904879795534,0.904879795534,676.
6.24,7110.,45.,12.,2865.,0.,0.,10032.,0.861923265069,0.996000217413,585.
6.26,7107.,29.,21.,2877.,0.,0.,10034.,0.819178404867,1.46887162252,377.
6.28,7097.,31.,16.,2888.,0.,0.,10032.,0.776362821027,1.30228602237,403.
6.3,7095.,30.,16.,2895.,0.,0.,10036.,0.735028491102,1.27404938458,390.
6.32,7087.,31.,13.,2903.,0.,0.,10034.,0.695211134675,1.166160613,403.
6.34,7084.,25.,21.,2909.,0.,0.,10039.,0.657720378163,1.36805838658,325.
6.36,7078.,26.,11.,2921.,0.,0.,10036.,0.623357699394,1.24671539879,338.
6.38,7081.,20.,9.,2929.,0.,0.,10039.,0.592794017408,1.54126444526,260.
6.4,7082.,15.,8.,2937.,0.,0.,10042.,0.565911299732,1.96182583907,195.
6.42,7079.,10.,15.,2938.,0.,0.,10042.,0.543161672113,2.82444069499,130.
6.44,7076.,9.,6.,2948.,0.,0.,10039.,0.525209126314,3.0345416187,117.
6.46,7076.,6.,1.,2956.,0.,0.,10039.,0.512229050666,4.4393184391,78.
6.48,7079.,4.,5.,2952.,0.,0.,10040.,0.504521785371,6.55878320982,52.
6.5,7085.,5.,2.,2951.,0.,0.,10043.,0.502158789019,5.22245140579,65.
6.52,7088.,4.,3.,2945.,0.,0.,10040.,0.505163217221,6.56712182387,52.
6.54,7096.,4.,1.,2939.,0.,0.,10040.,0.513625680315,6.67713384409,52.
6.56,7100.,3.,2.,2935.,0.,0.,10040.,0.526938013567,9.13359223517,39.
6.58,7114.,1.,0.,2926.,0.,0.,10041.,0.545901534515,28.3868797948,13.
6.6,7121.,0.,1.,2919.,0.,0.,10041.,0.569084397817,inf,0.
6.62,7128.,0.,1.,2910.,0.,0.,10039.,0.596728676187,inf,0.
6.64,7132.,1.,0.,2907.,0.,0.,10040.,0.627863221553,32.6488875207,13.
6.66,7139.,1.,1.,2899.,0.,0.,10040.,0.662760884222,34.4635659795,13.
6.68,7150.,0.,0.,2886.,0.,0.,10036.,0.701251450136,inf,0.
6.7,7160.,0.,0.,2878.,0.,0.,10038.,0.741614576474,inf,0.
6.72,7167.,0.,0.,2870.,0.,0.,10037.,0.783629772853,inf,0.
6.74,7176.,1.,0.,2863.,0.,0.,10040.,0.826637291515,42.9851391588,13.
6.76,7183.,0.,1.,2854.,0.,0.,10038.,0.87025234298,inf,0.
6.78,7191.,1.,0.,2848.,0.,0.,10040.,0.913394277742,47.4965024426,13.
6.8,7195.,1.,1.,2841.,0.,0.,10038.,0.955457537688,49.6837919598,13.
6.82,7195.,3.,2.,2839.,0.,0.,10039.,0.995073872297,17.2479471198,39.
6.84,7190.,5.,4.,2837.,0.,0.,10036.,1.03209255423,10.733762564,65.
6.86,7188.,7.,2.,2839.,0.,0.,10036.,1.06633593791,7.92135268159,91.
6.88,7193.,7.,6.,2831.,0.,0.,10037.,1.09810376091,8.15734222391,91.
6.9,7189.,12.,4.,2829.,0.,0.,10034.,1.12503699022,4.87516029094,156.
6.92,7192.,11.,7.,2826.,0.,0.,10036.,1.14816507275,5.42768943484,143.
6.94,7190.,14.,3.,2825.,0.,0.,10032.,1.16648887933,4.33267298038,182.
6.96,7188.,11.,7.,2824.,0.,0.,10030.,1.17959429699,5.57626394941,143.
6.98,7183.,17.,5.,2825.,0.,0.,10030.,1.18677079635,3.63012243589,221.
7.,7187.,15.,11.,2820.,0.,0.,10033.,1.1897570703,4.12449117704,195.
7.02,7181.,21.,11.,2824.,0.,0.,10037.,1.1856129109,2.93580339841,273.
7.04,7179.,21.,13.,2827.,0.,0.,10040.,1.17694391888,2.91433732294,273.
7.06,7173.,23.,16.,2828.,0.,0.,10040.,1.1628035633,2.62894718659,299.
7.08,7162.,34.,4.,2840.,0.,0.,10040.,1.14292020195,1.74799560298,442.
7.1,7163.,26.,11.,2841.,0.,0.,10041.,1.12018666669,2.24037333337,338.
7.12,7155.,30.,12.,2848.,0.,0.,10045.,1.09143264586,1.89181658615,390.
7.14,7139.,29.,16.,2858.,0.,0.,10042.,1.05843403183,1.89788171225,377.
7.16,7125.,29.,17.,2873.,0.,0.,10044.,1.02194746771,1.83245752831,377.
7.18,7111.,36.,12.,2887.,0.,0.,10046.,0.98277134218,1.41955860537,468.
7.2,7105.,31.,18.,2891.,0.,0.,10045.,0.942848523317,1.58155236169,403.
7.22,7087.,31.,16.,2909.,0.,0.,10043.,0.899915393338,1.5095354985,403.
7.24,7070.,38.,23.,2912.,0.,0.,10043.,0.85613544403,1.17155376552,494.
7.26,7061.,33.,17.,2933.,0.,0.,10044.,0.813065968358,1.28119485923,429.
7.28,7050.,32.,19.,2942.,0.,0.,10043.,0.770376634169,1.25186203052,416.
7.3,7042.,32.,11.,2960.,0.,0.,10045.,0.728884149394,1.18443674276,416.
7.32,7046.,24.,15.,2958.,0.,0.,10043.,0.690569764202,1.4962344891,312.
7.34,7050.,24.,11.,2961.,0.,0.,10046.,0.654107520966,1.41723296209,312.
7.36,7052.,20.,6.,2968.,0.,0.,10046.,0.620449661806,1.6131691207,260.
7.38,7056.,19.,6.,2966.,0.,0.,10047.,0.590230763557,1.61536840552,247.
7.4,7061.,13.,6.,2972.,0.,0.,10052.,0.563671908912,2.25468763565,169.
7.42,7065.,12.,5.,2969.,0.,0.,10051.,0.541602068717,2.34694229777,156.
7.44,7073.,9.,3.,2966.,0.,0.,10051.,0.52435966714,3.02963363236,117.
7.46,7073.,9.,1.,2967.,0.,0.,10050.,0.511451470749,2.9550529421,117.
7.48,7079.,11.,1.,2962.,0.,0.,10053.,0.503869364878,2.3819279067,143.
7.5,7086.,5.,6.,2956.,0.,0.,10053.,0.501730083466,5.21799286805,65.
7.52,7087.,4.,0.,2959.,0.,0.,10050.,0.504589367964,6.55966178353,52.
7.54,7095.,2.,2.,2952.,0.,0.,10051.,0.512991255678,13.3377726476,26.
7.56,7101.,2.,1.,2946.,0.,0.,10050.,0.52648783991,13.6886838377,26.
7.58,7106.,3.,0.,2938.,0.,0.,10047.,0.544962002612,9.44600804528,39.
7.6,7115.,2.,1.,2930.,0.,0.,10048.,0.568208777614,14.773428218,26.
7.62,7117.,0.,2.,2927.,0.,0.,10046.,0.595392642858,inf,0.
7.64,7124.,1.,1.,2920.,0.,0.,10046.,0.626784371909,32.5927873393,13.
7.66,7139.,1.,0.,2911.,0.,0.,10051.,0.662035546472,34.4258484165,13.
7.68,7145.,3.,0.,2904.,0.,0.,10052.,0.699645646974,12.1271912142,39.
7.7,7152.,2.,0.,2900.,0.,0.,10054.,0.739607065319,19.2297836983,26.
7.72,7152.,1.,0.,2895.,0.,0.,10048.,0.781133614316,40.6189479444,13.
7.74,7164.,2.,0.,2885.,0.,0.,10051.,0.824351780645,21.4331462968,26.
7.76,7167.,2.,0.,2882.,0.,0.,10051.,0.867190791615,22.546960582,26.
7.78,7169.,1.,2.,2877.,0.,0.,10049.,0.909784314049,47.3087843306,13.
7.8,7172.,2.,2.,2871.,0.,0.,10047.,0.951550107524,24.7403027956,26.
7.82,7173.,7.,0.,2866.,0.,0.,10046.,0.991340013705,7.36424010181,91.
7.84,7178.,6.,1.,2863.,0.,0.,10048.,1.02913947012,8.91920874104,78.
7.86,7186.,3.,2.,2857.,0.,0.,10048.,1.06476610295,18.4559457844,39.
7.88,7186.,2.,3.,2854.,0.,0.,10045.,1.09616142461,28.50019704,26.
7.9,7189.,5.,0.,2851.,0.,0.,10045.,1.12380499351,11.6875719325,65.
7.92,7196.,5.,1.,2846.,0.,0.,10048.,1.14743167289,11.933289398,65.
7.94,7201.,5.,3.,2840.,0.,0.,10049.,1.16629711308,12.129489976,65.
7.96,7202.,9.,4.,2835.,0.,0.,10050.,1.17953975826,6.8151186033,117.
7.98,7203.,14.,2.,2835.,0.,0.,10054.,1.18723434402,4.40972756349,182.
8.,7203.,14.,4.,2834.,0.,0.,10055.,1.18979681377,4.41924530831,182.
8.02,7195.,16.,7.,2835.,0.,0.,10053.,1.18603371051,3.85460955917,208.
8.04,7192.,12.,14.,2835.,0.,0.,10053.,1.17755045594,5.10271864242,156.
8.06,7175.,30.,9.,2840.,0.,0.,10054.,1.16150814723,2.01328078853,390.
8.08,7164.,32.,12.,2847.,0.,0.,10055.,1.14153388534,1.85499256367,416.
8.1,7152.,29.,17.,2855.,0.,0.,10053.,1.11713134652,2.00313206961,377.
8.12,7141.,33.,16.,2862.,0.,0.,10052.,1.08853850493,1.71527279565,429.
8.14,7123.,29.,20.,2879.,0.,0.,10051.,1.05511622568,1.8919325426,377.
8.16,7101.,40.,14.,2897.,0.,0.,10052.,1.01769452931,1.32300288811,520.
8.18,7099.,36.,21.,2902.,0.,0.,10058.,0.979942343328,1.4154722737,468.
8.2,7091.,39.,14.,2913.,0.,0.,10057.,0.939867904779,1.25315720637,507.
8.22,7078.,29.,22.,2927.,0.,0.,10056.,0.897610665304,1.60950877917,377.
8.24,7067.,38.,13.,2941.,0.,0.,10059.,0.854410957311,1.16919394158,494.
8.26,7065.,32.,13.,2948.,0.,0.,10058.,0.812394194277,1.3201405657,416.
8.28,7060.,29.,14.,2954.,0.,0.,10057.,0.770395431303,1.38139870441,377.
8.3,7054.,30.,9.,2965.,0.,0.,10058.,0.729182522028,1.26391637151,390.
8.32,7050.,29.,11.,2966.,0.,0.,10056.,0.690068551116,1.23736429855,377.
8.34,7049.,26.,11.,2972.,0.,0.,10058.,0.653234447763,1.30646889553,338.
8.36,7052.,17.,11.,2977.,0.,0.,10057.,0.619771035349,1.89577022577,221.
8.38,7053.,14.,10.,2982.,0.,0.,10059.,0.589275991882,2.18873939842,182.
8.4,7050.,14.,5.,2990.,0.,0.,10059.,0.562402145991,2.08892225654,182.
8.42,7052.,11.,1.,2995.,0.,0.,10059.,0.540175542546,2.55355711022,143.
8.44,7058.,10.,0.,2990.,0.,0.,10058.,0.522883474966,2.71899406982,130.
8.46,7069.,6.,2.,2983.,0.,0.,10060.,0.510654115594,4.42566900182,78.
8.48,7073.,7.,1.,2978.,0.,0.,10059.,0.503142002976,3.73762630782,91.
8.5,7079.,6.,0.,2974.,0.,0.,10059.,0.50093546598,4.34144070516,78.
8.52,7088.,0.,4.,2971.,0.,0.,10063.,0.50400861581,inf,0.
8.54,7096.,0.,1.,2969.,0.,0.,10066.,0.512299009573,inf,0.
8.56,7100.,2.,0.,2963.,0.,0.,10065.,0.525629175978,13.6663585754,26.
8.58,7105.,2.,0.,2955.,0.,0.,10062.,0.54407302045,14.1458985317,26.
8.6,7109.,1.,0.,2951.,0.,0.,10061.,0.566996039803,29.4837940697,13.
8.62,7115.,1.,0.,2942.,0.,0.,10058.,0.594515175721,30.9147891375,13.
8.64,7119.,1.,0.,2938.,0.,0.,10058.,0.625597182351,32.5310534822,13.
8.66,7130.,1.,0.,2929.,0.,0.,10060.,0.660609399343,34.3516887658,13.
8.68,7136.,1.,1.,2923.,0.,0.,10061.,0.698139282881,36.3032427098,13.
8.7,7141.,1.,0.,2923.,0.,0.,10065.,0.737662455967,38.3584477103,13.
8.72,7145.,1.,1.,2919.,0.,0.,10066.,0.778973627626,40.5066286366,13.
8.74,7154.,1.,1.,2910.,0.,0.,10066.,0.821974388799,42.7426682175,13.
8.76,7159.,1.,0.,2908.,0.,0.,10068.,0.864760176834,44.9675291954,13.
8.78,7162.,2.,0.,2904.,0.,0.,10068.,0.907180738004,23.5866991881,26.
8.8,7165.,1.,1.,2901.,0.,0.,10068.,0.948638555931,49.3292049084,13.
8.82,7174.,3.,2.,2890.,0.,0.,10069.,0.989213445117,17.146366382,39.
8.84,7179.,4.,2.,2883.,0.,0.,10068.,1.02723818226,13.3540963694,52.
8.86,7180.,3.,4.,2879.,0.,0.,10066.,1.06197464645,18.4075605385,39.
8.88,7185.,7.,6.,2871.,0.,0.,10069.,1.09339648757,8.1223739077,91.
8.9,7183.,12.,5.,2867.,0.,0.,10067.,1.12041318978,4.85512382236,156.
8.92,7181.,11.,5.,2869.,0.,0.,10066.,1.14299230358,5.40323634421,143.
8.94,7181.,11.,1.,2874.,0.,0.,10067.,1.16097827777,5.48826094947,143.
8.96,7183.,11.,6.,2869.,0.,0.,10069.,1.17420805247,5.5508017026,143.
8.98,7187.,13.,7.,2865.,0.,0.,10072.,1.18248011208,4.72992044832,169.
9.,7185.,13.,8.,2867.,0.,0.,10073.,1.18470276003,4.73881104012,169.
9.02,7183.,18.,4.,2868.,0.,0.,10073.,1.18170466469,3.41381347576,234.
9.04,7190.,19.,4.,2863.,0.,0.,10076.,1.17453580451,3.21451904391,247.
9.06,7189.,16.,8.,2866.,0.,0.,10079.,1.16088787272,3.77288558633,208.
9.08,7178.,21.,11.,2864.,0.,0.,10074.,1.14160749887,2.82683761625,273.
9.1,7169.,27.,7.,2874.,0.,0.,10077.,1.11711976765,2.15148992288,351.
9.12,7157.,25.,11.,2883.,0.,0.,10076.,1.08837886873,2.26382804696,325.
9.14,7149.,32.,3.,2892.,0.,0.,10076.,1.05634010517,1.71655267091,416.
9.16,7143.,30.,9.,2889.,0.,0.,10071.,1.02178250258,1.77108967113,390.
9.18,7131.,31.,16.,2894.,0.,0.,10072.,0.98299135499,1.6488887245,403.
9.2,7117.,31.,17.,2906.,0.,0.,10071.,0.942002713693,1.58013358426,403.
9.22,7103.,35.,17.,2916.,0.,0.,10071.,0.899439444141,1.3363100313,455.
9.24,7088.,37.,16.,2929.,0.,0.,10070.,0.856013796747,1.20304641705,481.
9.26,7078.,38.,15.,2938.,0.,0.,10069.,0.812999902726,1.11252618268,494.
9.28,7076.,36.,13.,2944.,0.,0.,10069.,0.771221149833,1.11398610531,468.
9.3,7075.,25.,17.,2951.,0.,0.,10068.,0.730626909702,1.51970397218,325.
9.32,7061.,27.,12.,2966.,0.,0.,10066.,0.690458640216,1.32977219597,351.
9.34,7062.,24.,8.,2969.,0.,0.,10063.,0.654113993431,1.41724698577,312.
9.36,7059.,21.,12.,2968.,0.,0.,10060.,0.620201230484,1.53573638025,273.
9.38,7067.,14.,5.,2977.,0.,0.,10063.,0.590210987931,2.19221224089,182.
9.4,7072.,11.,9.,2975.,0.,0.,10067.,0.56370883781,2.6648054151,143.
9.42,7079.,10.,7.,2972.,0.,0.,10068.,0.541758990004,2.81714674802,130.
9.44,7073.,7.,9.,2975.,0.,0.,10064.,0.523682334502,3.89021162773,91.
9.46,7077.,2.,6.,2979.,0.,0.,10064.,0.511028831396,13.2867496163,26.
9.48,7080.,3.,1.,2976.,0.,0.,10060.,0.503589888468,8.72889140011,39.
9.5,7084.,4.,1.,2971.,0.,0.,10060.,0.50123945399,6.51611290188,52.
9.52,7085.,3.,3.,2969.,0.,0.,10060.,0.503945531044,8.73505587143,39.
9.54,7086.,1.,3.,2968.,0.,0.,10058.,0.511983956552,26.6231657407,13.
9.56,7090.,2.,1.,2968.,0.,0.,10061.,0.525097535772,13.6525359301,26.
9.58,7102.,1.,1.,2960.,0.,0.,10064.,0.543735215256,28.2742311933,13.
9.6,7100.,1.,2.,2959.,0.,0.,10062.,0.566221943445,29.4435410591,13.
9.62,7109.,0.,0.,2956.,0.,0.,10065.,0.593600703345,inf,0.
9.64,7119.,0.,0.,2946.,0.,0.,10065.,0.625162092408,inf,0.
9.66,7119.,0.,0.,2943.,0.,0.,10062.,0.659459121164,inf,0.
9.68,7127.,0.,0.,2936.,0.,0.,10063.,0.697120203393,inf,0.
9.7,7135.,1.,0.,2929.,0.,0.,10065.,0.737042658357,38.3262182345,13.
9.72,7141.,2.,1.,2923.,0.,0.,10067.,0.778460197618,20.2399651381,26.
9.74,7149.,1.,0.,2916.,0.,0.,10066.,0.821399902924,42.7127949521,13.
9.76,7157.,0.,2.,2913.,0.,0.,10072.,0.86417525455,inf,0.
9.78,7156.,3.,4.,2909.,0.,0.,10072.,0.906060766504,15.7050532861,39.
9.8,7162.,3.,3.,2903.,0.,0.,10071.,0.947958892155,16.431287464,39.
9.82,7166.,4.,1.,2898.,0.,0.,10069.,0.988110335615,12.845434363,52.
9.84,7172.,5.,1.,2895.,0.,0.,10073.,1.0257271574,10.667562437,65.
9.86,7181.,8.,2.,2888.,0.,0.,10079.,1.06075261696,6.89489201026,104.
9.88,7187.,6.,7.,2882.,0.,0.,10082.,1.09229059583,9.46651849715,78.
9.9,7185.,8.,10.,2881.,0.,0.,10084.,1.11883579012,7.27243263579,104.
9.92,7187.,7.,11.,2879.,0.,0.,10084.,1.14190536458,8.48272556543,91.
9.94,7176.,13.,10.,2882.,0.,0.,10081.,1.15855872241,4.63423488962,169.
9.96,7176.,15.,2.,2888.,0.,0.,10081.,1.17166739356,4.06178029768,195.
9.98,7178.,18.,6.,2879.,0.,0.,10081.,1.17994497922,3.40872993998,234.
10.,7181.,10.,15.,2876.,0.,0.,10082.,1.18298624606,6.15152847949,130.
