t,prevalence
5.,8
5.02,10
5.04,12
5.06,7
5.08,7
5.1,9
5.12,7
5.14,12
5.16,7
5.18,9
5.2,17
5.22,8
5.24,11
5.26,11
5.28,7
5.3,2
5.32,5
5.34,6
5.36,3
5.38,2
5.4,3
5.42,0
5.44,6
5.46,3
5.48,4
5.5,5
5.52,0
5.54,0
5.56,0
5.58,0
5.6,0
5.62,0
5.64,0
5.66,0
5.68,0
5.7,0
5.72,0
5.74,2
5.76,0
5.78,0
5.8,0
5.82,0
5.84,0
5.86,0
5.88,3
5.9,0
5.92,2
5.94,4
5.96,4
5.98,0
6.,3
6.02,5
6.04,5
6.06,3
6.08,6
6.1,8
6.12,7
6.14,10
6.16,6
6.18,11
6.2,15
6.22,8
6.24,12
6.26,12
6.28,7
6.3,7
6.32,6
6.34,6
6.36,7
6.38,3
6.4,2
6.42,3
6.44,2
6.46,4
6.48,2
6.5,4
6.52,3
6.54,3
6.56,2
6.58,0
6.6,1
6.62,0
6.64,0
6.66,0
6.68,2
6.7,0
6.72,0
6.74,0
6.76,1
6.78,1
6.8,0
6.82,0
6.84,3
6.86,4
6.88,5
6.9,11
6.92,6
6.94,6
6.96,5
6.98,1
7.,1
7.02,4
7.04,3
7.06,8
7.08,5
7.1,4
7.12,6
7.14,5
7.16,8
7.18,9
7.2,7
7.22,7
7.24,9
7.26,10
7.28,5
7.3,12
7.32,9
7.34,5
7.36,3
7.38,3
7.4,3
7.42,2
7.44,2
7.46,2
7.48,2
7.5,4
7.52,0
7.54,0
7.56,1
7.58,1
7.6,0
7.62,0
7.64,0
7.66,0
7.68,0
7.7,0
7.72,0
7.74,2
7.76,1
7.78,0
7.8,0
7.82,0
7.84,1
7.86,1
7.88,2
7.9,3
7.92,2
7.94,4
7.96,5
7.98,2
8.,2
8.02,5
8.04,5
8.06,4
8.08,5
8.1,5
8.12,3
8.14,8
8.16,7
8.18,7
8.2,12
8.22,9
8.24,6
8.26,4
8.28,8
8.3,8
8.32,8
8.34,6
8.36,2
8.38,4
8.4,4
8.42,0
8.44,4
8.46,1
8.48,3
8.5,0
8.52,0
8.54,3
8.56,0
8.58,0
8.6,0
8.62,0
8.64,0
8.66,2
8.68,0
8.7,0
8.72,0
8.74,0
8.76,0
8.78,0
8.8,0
8.82,1
8.84,1
8.86,3
8.88,1
8.9,0
8.92,1
8.94,7
8.96,2
8.98,3
9.,0
9.02,4
9.04,6
9.06,6
9.08,7
9.1,8
9.12,10
9.14,4
9.16,12
9.18,10
9.2,9
9.22,8
9.24,10
9.26,8
9.28,10
9.3,6
9.32,3
9.34,5
9.36,4
9.38,5
9.4,5
9.42,6
9.44,1
9.46,0
9.48,0
9.5,1
9.52,1
9.54,2
9.56,2
9.58,1
9.6,0
9.62,0
9.64,0
9.66,0
9.68,1
9.7,0
9.72,0
9.74,0
9.76,0
9.78,1
9.8,1
9.82,1
9.84,1
9.86,1
9.88,2
9.9,4
9.92,2
9.94,2
9.96,5
9.98,5
10.,3
