t,s,e,i,r,c,o,n,reff,coal,reportr
5.,9068.,18.,5.,908.,0.,0.,9999.,1.24780268797,3.60476332081,234.
5.02,9061.,15.,13.,912.,0.,0.,10001.,1.24378161378,4.3117762611,195.
5.04,9049.,22.,4.,926.,0.,0.,10001.,1.23376430663,2.91617017931,286.
5.06,9034.,24.,7.,937.,0.,0.,10002.,1.21781686464,2.63860320671,312.
5.08,9029.,16.,11.,947.,0.,0.,10003.,1.19804795354,3.89365584901,208.
5.1,9020.,22.,7.,953.,0.,0.,10002.,1.17311777259,2.77282382613,286.
5.12,9016.,25.,6.,957.,0.,0.,10004.,1.14400250345,2.37952520718,325.
5.14,8998.,28.,11.,965.,0.,0.,10002.,1.10957146912,2.06063272837,364.
5.16,8984.,30.,19.,969.,0.,0.,10002.,1.07197044645,1.85808210718,390.
5.18,8967.,36.,15.,980.,0.,0.,9998.,1.03156958407,1.49004495476,468.
5.2,8952.,36.,12.,998.,0.,0.,9998.,0.98874485625,1.42818701458,468.
5.22,8939.,27.,19.,1008.,0.,0.,9993.,0.945029297244,1.82005642432,351.
5.24,8936.,27.,14.,1022.,0.,0.,9999.,0.900373345809,1.73405236971,351.
5.26,8927.,29.,14.,1032.,0.,0.,10002.,0.855134587804,1.53334477813,377.
5.28,8910.,37.,14.,1043.,0.,0.,10004.,0.80971275529,1.13797468311,481.
5.3,8901.,26.,20.,1054.,0.,0.,10001.,0.766579696002,1.533159392,338.
5.32,8892.,24.,14.,1071.,0.,0.,10001.,0.724993181329,1.57081855955,312.
5.34,8884.,22.,12.,1083.,0.,0.,10001.,0.68591110495,1.62124442988,286.
5.36,8880.,20.,11.,1092.,0.,0.,10003.,0.650009391346,1.6900244175,260.
5.38,8870.,11.,18.,1100.,0.,0.,9999.,0.617612724896,2.91962379042,143.
5.4,8862.,17.,16.,1105.,0.,0.,10000.,0.589106640327,1.80197325276,221.
5.42,8860.,14.,10.,1118.,0.,0.,10002.,0.565423435509,2.10014418903,182.
5.44,8859.,11.,6.,1128.,0.,0.,10004.,0.546632469289,2.58408076391,143.
5.46,8863.,7.,4.,1132.,0.,0.,10006.,0.533257040765,3.96133801711,91.
5.48,8862.,7.,1.,1137.,0.,0.,10007.,0.524951380735,3.89963882832,91.
5.5,8862.,4.,2.,1136.,0.,0.,10004.,0.522362811984,6.79071655579,52.
5.52,8864.,3.,2.,1135.,0.,0.,10004.,0.525227311148,9.10394005989,39.
5.54,8863.,1.,3.,1134.,0.,0.,10001.,0.533523642625,27.7432294165,13.
5.56,8864.,0.,1.,1133.,0.,0.,9998.,0.547269217684,inf,0.
5.58,8863.,1.,0.,1132.,0.,0.,9996.,0.565954392874,29.4296284295,13.
5.6,8865.,0.,0.,1132.,0.,0.,9997.,0.589482911958,inf,0.
5.62,8867.,0.,0.,1128.,0.,0.,9995.,0.617650921792,inf,0.
5.64,8868.,1.,1.,1124.,0.,0.,9994.,0.649715568918,33.7852095838,13.
5.66,8875.,0.,2.,1120.,0.,0.,9997.,0.685490406525,inf,0.
5.68,8883.,0.,1.,1114.,0.,0.,9998.,0.724476703841,inf,0.
5.7,8888.,0.,0.,1111.,0.,0.,9999.,0.765613205978,inf,0.
5.72,8890.,0.,0.,1110.,0.,0.,10000.,0.808218376329,inf,0.
5.74,8894.,0.,0.,1107.,0.,0.,10001.,0.852058642835,inf,0.
5.76,8895.,0.,0.,1104.,0.,0.,9999.,0.896242268462,inf,0.
5.78,8899.,0.,0.,1101.,0.,0.,10000.,0.940141944868,inf,0.
5.8,8904.,0.,0.,1098.,0.,0.,10002.,0.983049976601,inf,0.
5.82,8906.,1.,0.,1095.,0.,0.,10002.,1.02414236501,53.2554029805,13.
5.84,8909.,4.,0.,1090.,0.,0.,10003.,1.06291517981,13.8178973375,52.
5.86,8911.,5.,1.,1084.,0.,0.,10001.,1.09895310087,11.429112249,65.
5.88,8911.,6.,2.,1084.,0.,0.,10003.,1.13079252697,9.80020190039,78.
5.9,8911.,4.,3.,1084.,0.,0.,10002.,1.1589415157,15.066239704,52.
5.92,8907.,8.,3.,1082.,0.,0.,10000.,1.1822144674,7.68439403809,104.
5.94,8903.,9.,5.,1083.,0.,0.,10000.,1.20039760799,6.93563062393,117.
5.96,8902.,10.,4.,1086.,0.,0.,10002.,1.21360059457,6.31072309177,130.
5.98,8894.,13.,5.,1087.,0.,0.,9999.,1.22110212261,4.88440849043,169.
6.,8883.,17.,6.,1091.,0.,0.,9997.,1.22259029431,3.73968795906,221.
6.02,8876.,20.,6.,1093.,0.,0.,9995.,1.21911850799,3.16970812076,260.
6.04,8871.,18.,11.,1099.,0.,0.,9999.,1.20973724474,3.49479648482,234.
6.06,8862.,24.,11.,1104.,0.,0.,10001.,1.19475007481,2.58862516208,312.
6.08,8852.,29.,10.,1113.,0.,0.,10004.,1.17444461145,2.10590068259,377.
6.1,8828.,31.,15.,1126.,0.,0.,10000.,1.14837638062,1.92630876749,403.
6.12,8815.,32.,20.,1136.,0.,0.,10003.,1.11861027104,1.81774169044,416.
6.14,8787.,43.,15.,1158.,0.,0.,10003.,1.0834440777,1.3102114428,559.
6.16,8775.,36.,17.,1175.,0.,0.,10003.,1.04692790468,1.51222919565,468.
6.18,8757.,34.,19.,1186.,0.,0.,9996.,1.00761260863,1.54105457791,442.
6.2,8734.,44.,6.,1208.,0.,0.,9992.,0.965246106064,1.14074539808,572.
6.22,8731.,37.,8.,1219.,0.,0.,9995.,0.922854878461,1.29698523459,481.
6.24,8727.,34.,15.,1221.,0.,0.,9997.,0.879490842895,1.34510364208,442.
6.26,8710.,36.,14.,1235.,0.,0.,9995.,0.834932073881,1.20601299561,468.
6.28,8694.,37.,16.,1246.,0.,0.,9993.,0.790953055643,1.11160969982,481.
6.3,8683.,32.,14.,1265.,0.,0.,9994.,0.748328687307,1.21603411687,416.
6.32,8677.,26.,14.,1277.,0.,0.,9994.,0.707959065922,1.41591813184,338.
6.34,8668.,22.,17.,1288.,0.,0.,9995.,0.6696360343,1.58277608107,286.
6.36,8668.,14.,16.,1300.,0.,0.,9998.,0.634808458157,2.35785998744,182.
6.38,8664.,14.,8.,1312.,0.,0.,9998.,0.603329408705,2.24093780376,182.
6.4,8654.,14.,5.,1321.,0.,0.,9994.,0.575625093561,2.1380360618,182.
6.42,8658.,5.,14.,1320.,0.,0.,9997.,0.55280864077,5.74920986401,65.
6.44,8657.,8.,0.,1335.,0.,0.,10000.,0.53438200311,3.47348302022,104.
6.46,8661.,5.,1.,1334.,0.,0.,10001.,0.521363902603,5.42218458707,65.
6.48,8663.,4.,2.,1332.,0.,0.,10001.,0.513471240213,6.67512612276,52.
6.5,8663.,1.,4.,1331.,0.,0.,9999.,0.510888273643,26.5661902294,13.
6.52,8668.,1.,4.,1331.,0.,0.,10004.,0.513613530351,26.7079035782,13.
6.54,8671.,2.,1.,1333.,0.,0.,10007.,0.521652909481,13.5629756465,26.
6.56,8671.,1.,0.,1332.,0.,0.,10004.,0.535032186613,27.8216737039,13.
6.58,8676.,1.,0.,1329.,0.,0.,10006.,0.553459667904,28.779902731,13.
6.6,8674.,1.,0.,1327.,0.,0.,10002.,0.576493931432,29.9776844345,13.
6.62,8681.,0.,1.,1322.,0.,0.,10004.,0.604150663885,inf,0.
6.64,8683.,0.,0.,1320.,0.,0.,10003.,0.635589137957,inf,0.
6.66,8689.,0.,0.,1316.,0.,0.,10005.,0.670587441429,inf,0.
6.68,8691.,0.,0.,1312.,0.,0.,10003.,0.708463330378,inf,0.
6.7,8694.,0.,0.,1308.,0.,0.,10002.,0.748677400957,inf,0.
6.72,8700.,0.,0.,1306.,0.,0.,10006.,0.790470585372,inf,0.
6.74,8703.,1.,0.,1303.,0.,0.,10007.,0.83326064775,43.329553683,13.
6.76,8702.,2.,3.,1301.,0.,0.,10008.,0.876007491941,22.7761947905,26.
6.78,8697.,4.,2.,1301.,0.,0.,10004.,0.918434120285,11.9396435637,52.
6.8,8699.,4.,1.,1299.,0.,0.,10003.,0.960320849927,12.484171049,52.
6.82,8701.,5.,1.,1298.,0.,0.,10005.,1.00026844095,10.4027917859,65.
6.84,8703.,6.,1.,1296.,0.,0.,10006.,1.03802641247,8.99622890808,78.
6.86,8705.,5.,4.,1295.,0.,0.,10009.,1.07268999161,11.1559759128,65.
6.88,8700.,7.,3.,1297.,0.,0.,10007.,1.10357564575,8.19799051131,91.
6.9,8702.,5.,2.,1293.,0.,0.,10002.,1.13175951853,11.7702989927,65.
6.92,8697.,4.,6.,1294.,0.,0.,10001.,1.15422601929,15.0049382508,52.
6.94,8692.,10.,0.,1299.,0.,0.,10001.,1.17183114988,6.09352197936,130.
6.96,8699.,7.,3.,1295.,0.,0.,10004.,1.18568872097,8.80797335579,91.
6.98,8699.,7.,6.,1290.,0.,0.,10002.,1.19397136177,8.86950154457,91.
7.,8693.,11.,6.,1292.,0.,0.,10002.,1.19584200183,5.65307128139,143.
7.02,8692.,15.,2.,1296.,0.,0.,10005.,1.19265286041,4.13452991608,195.
7.04,8687.,19.,3.,1297.,0.,0.,10006.,1.18381643163,3.23991865499,247.
7.06,8682.,17.,6.,1301.,0.,0.,10006.,1.16989808727,3.57851179635,221.
7.08,8673.,19.,9.,1306.,0.,0.,10007.,1.15035070777,3.14832825285,247.
7.1,8660.,22.,12.,1312.,0.,0.,10006.,1.12584685892,2.66109257562,286.
7.12,8640.,29.,17.,1320.,0.,0.,10006.,1.09607430999,1.96537462481,377.
7.14,8634.,28.,12.,1336.,0.,0.,10010.,1.06383459532,1.97569281988,364.
7.16,8622.,32.,12.,1343.,0.,0.,10009.,1.02805712783,1.67059283272,416.
7.18,8606.,28.,20.,1352.,0.,0.,10006.,0.989248349387,1.837175506,364.
7.2,8583.,38.,17.,1368.,0.,0.,10006.,0.947231015923,1.29621086389,494.
7.22,8570.,37.,12.,1391.,0.,0.,10010.,0.904479997754,1.27116107793,481.
7.24,8560.,29.,22.,1398.,0.,0.,10009.,0.86162663099,1.54498568315,377.
7.26,8543.,26.,19.,1419.,0.,0.,10007.,0.81794159643,1.63588319286,338.
7.28,8533.,29.,13.,1436.,0.,0.,10011.,0.774909961833,1.38949372467,377.
7.3,8524.,29.,14.,1445.,0.,0.,10012.,0.733304818091,1.31489139796,377.
7.32,8515.,26.,8.,1461.,0.,0.,10010.,0.693630960887,1.38726192177,338.
7.34,8506.,25.,15.,1467.,0.,0.,10013.,0.655939634924,1.36435444064,325.
7.36,8497.,24.,13.,1481.,0.,0.,10015.,0.621228825367,1.34599578829,312.
7.38,8500.,14.,12.,1490.,0.,0.,10016.,0.590845311628,2.19456830033,182.
7.4,8494.,17.,10.,1495.,0.,0.,10016.,0.563741638174,1.72438618736,221.
7.42,8489.,11.,13.,1503.,0.,0.,10016.,0.540989892464,2.55740676437,143.
7.44,8486.,11.,7.,1513.,0.,0.,10017.,0.522937467942,2.47206803027,143.
7.46,8484.,6.,3.,1521.,0.,0.,10014.,0.510046087287,4.42039942316,78.
7.48,8483.,3.,1.,1522.,0.,0.,10009.,0.502400443592,8.7082743556,39.
7.5,8482.,3.,1.,1520.,0.,0.,10006.,0.499864112654,8.664311286,39.
7.52,8482.,3.,1.,1519.,0.,0.,10005.,0.502542055278,8.71072895816,39.
7.54,8488.,1.,0.,1516.,0.,0.,10005.,0.510745590024,26.5587706813,13.
7.56,8492.,1.,0.,1513.,0.,0.,10006.,0.523882502012,27.2418901046,13.
7.58,8493.,1.,0.,1511.,0.,0.,10005.,0.541839877581,28.1756736342,13.
7.6,8494.,1.,0.,1507.,0.,0.,10002.,0.564530718652,29.3555973699,13.
7.62,8494.,1.,0.,1505.,0.,0.,10000.,0.59137292954,30.7513923361,13.
7.64,8497.,1.,0.,1504.,0.,0.,10002.,0.622036261352,32.3458855903,13.
7.66,8509.,1.,0.,1498.,0.,0.,10008.,0.656498802959,34.1379377539,13.
7.68,8510.,0.,2.,1498.,0.,0.,10010.,0.693223661438,inf,0.
7.7,8509.,2.,0.,1500.,0.,0.,10011.,0.732087515321,19.0342753983,26.
7.72,8509.,1.,1.,1499.,0.,0.,10010.,0.772807638276,40.1859971904,13.
7.74,8513.,1.,0.,1496.,0.,0.,10010.,0.814824997801,42.3708998857,13.
7.76,8514.,2.,0.,1491.,0.,0.,10007.,0.857167673805,22.2863595189,26.
7.78,8517.,1.,2.,1487.,0.,0.,10007.,0.899155841438,46.7561037548,13.
7.8,8524.,2.,0.,1482.,0.,0.,10008.,0.940531705829,24.4538243515,26.
7.82,8528.,1.,1.,1482.,0.,0.,10012.,0.979694887808,50.944134166,13.
7.84,8531.,2.,1.,1479.,0.,0.,10013.,1.01680025169,26.4368065438,26.
7.86,8535.,5.,2.,1474.,0.,0.,10016.,1.05100637906,10.9304663422,65.
7.88,8539.,5.,1.,1472.,0.,0.,10017.,1.082071839,11.2535471256,65.
7.9,8539.,7.,2.,1469.,0.,0.,10017.,1.10889714876,8.23752167651,91.
7.92,8536.,6.,5.,1468.,0.,0.,10015.,1.13127520953,9.80438514925,78.
7.94,8528.,8.,7.,1470.,0.,0.,10013.,1.14834325406,7.46423115142,104.
7.96,8516.,18.,1.,1476.,0.,0.,10011.,1.15993387592,3.35092008598,234.
7.98,8517.,13.,6.,1475.,0.,0.,10011.,1.16794022253,4.67176089013,169.
8.,8508.,15.,7.,1480.,0.,0.,10010.,1.16945732243,4.05411871774,195.
8.02,8499.,20.,6.,1484.,0.,0.,10009.,1.16570475883,3.03083237296,260.
8.04,8489.,26.,12.,1481.,0.,0.,10008.,1.15660290218,2.31320580435,338.
8.06,8477.,21.,16.,1492.,0.,0.,10006.,1.14227437063,2.82848891774,273.
8.08,8465.,27.,16.,1497.,0.,0.,10005.,1.1229868917,2.16278956921,351.
8.1,8449.,34.,16.,1505.,0.,0.,10004.,1.09863531251,1.68026577207,442.
8.12,8436.,31.,18.,1517.,0.,0.,10002.,1.07062276998,1.7958833561,403.
8.14,8417.,29.,17.,1540.,0.,0.,10003.,1.03782278388,1.86092361248,377.
8.16,8407.,33.,13.,1554.,0.,0.,10007.,1.00262162373,1.5798886192,429.
8.18,8395.,36.,14.,1564.,0.,0.,10009.,0.964704939739,1.39346269073,468.
8.2,8385.,34.,22.,1571.,0.,0.,10012.,0.924824916817,1.41443810807,442.
8.22,8371.,35.,19.,1586.,0.,0.,10011.,0.883389236048,1.31246400784,455.
8.24,8364.,30.,19.,1599.,0.,0.,10012.,0.841645530297,1.45885225251,390.
8.26,8348.,24.,20.,1617.,0.,0.,10009.,0.799111792072,1.73140888282,312.
8.28,8341.,26.,20.,1627.,0.,0.,10014.,0.757246882145,1.51449376429,338.
8.3,8327.,29.,18.,1640.,0.,0.,10014.,0.716214181341,1.28424611827,377.
8.32,8317.,25.,15.,1653.,0.,0.,10010.,0.677501902724,1.40920395767,325.
8.34,8315.,21.,12.,1664.,0.,0.,10012.,0.641274726603,1.58791837064,273.
8.36,8309.,20.,13.,1671.,0.,0.,10013.,0.607605193328,1.57977350265,260.
8.38,8305.,19.,12.,1677.,0.,0.,10013.,0.577463587404,1.58042666026,247.
8.4,8302.,16.,11.,1685.,0.,0.,10014.,0.55110876008,1.79110347026,208.
8.42,8307.,10.,10.,1690.,0.,0.,10017.,0.52933848499,2.75256012195,130.
8.44,8313.,8.,5.,1692.,0.,0.,10018.,0.512225457715,3.32946547515,104.
8.46,8320.,8.,1.,1695.,0.,0.,10024.,0.499687650047,3.24796972531,104.
8.48,8323.,4.,4.,1694.,0.,0.,10025.,0.492137829777,6.39779178709,52.
8.5,8327.,2.,8.,1690.,0.,0.,10027.,0.489701842651,12.7322479089,26.
8.52,8328.,0.,5.,1694.,0.,0.,10027.,0.492335257582,inf,0.
8.54,8328.,2.,2.,1696.,0.,0.,10028.,0.499968610318,12.9991838683,26.
8.56,8328.,1.,0.,1696.,0.,0.,10025.,0.512791409705,26.6651533047,13.
8.58,8334.,0.,1.,1691.,0.,0.,10026.,0.530582264815,inf,0.
8.6,8339.,0.,0.,1688.,0.,0.,10027.,0.552847221516,inf,0.
8.62,8343.,0.,0.,1685.,0.,0.,10028.,0.579238075836,inf,0.
8.64,8345.,1.,0.,1682.,0.,0.,10028.,0.609324934024,31.6848965693,13.
8.66,8352.,0.,1.,1678.,0.,0.,10031.,0.64290820266,inf,0.
8.68,8355.,0.,0.,1678.,0.,0.,10033.,0.679037153305,inf,0.
8.7,8361.,2.,0.,1676.,0.,0.,10039.,0.717347695695,18.6510400881,26.
8.72,8363.,3.,0.,1669.,0.,0.,10035.,0.757655324613,13.1326922933,39.
8.74,8364.,2.,2.,1665.,0.,0.,10033.,0.798728167199,20.7669323472,26.
8.76,8366.,2.,0.,1665.,0.,0.,10033.,0.84008472117,21.8422027504,26.
8.78,8372.,3.,0.,1663.,0.,0.,10038.,0.881118360236,15.2727182441,39.
8.8,8372.,2.,2.,1659.,0.,0.,10035.,0.921274687626,23.9531418783,26.
8.82,8380.,2.,0.,1656.,0.,0.,10038.,0.96019915265,24.9651779689,26.
8.84,8381.,5.,1.,1654.,0.,0.,10041.,0.996136360574,10.35981815,65.
8.86,8382.,5.,4.,1648.,0.,0.,10039.,1.02980108404,10.709931274,65.
8.88,8384.,4.,3.,1651.,0.,0.,10042.,1.05978509556,13.7772062423,52.
8.9,8391.,5.,5.,1645.,0.,0.,10046.,1.08653188195,11.2999315723,65.
8.92,8387.,9.,0.,1649.,0.,0.,10045.,1.10820860837,6.40298307057,117.
8.94,8389.,5.,5.,1647.,0.,0.,10046.,1.12591542383,11.7095204078,65.
8.96,8378.,14.,6.,1648.,0.,0.,10046.,1.13716169723,4.22374344684,182.
8.98,8375.,9.,14.,1653.,0.,0.,10051.,1.14389713471,6.609183445,117.
9.,8360.,14.,13.,1660.,0.,0.,10047.,1.14488232045,4.2524200474,182.
9.02,8348.,17.,13.,1668.,0.,0.,10046.,1.14077684113,3.48943504347,221.
9.04,8334.,25.,9.,1675.,0.,0.,10043.,1.13152739833,2.35357698853,325.
9.06,8324.,27.,13.,1677.,0.,0.,10041.,1.11774787383,2.15269960885,351.
9.08,8314.,26.,13.,1687.,0.,0.,10040.,1.09910991287,2.19821982575,338.
9.1,8303.,26.,14.,1695.,0.,0.,10038.,1.07599381168,2.15198762335,338.
9.12,8286.,33.,12.,1706.,0.,0.,10037.,1.04791910851,1.65126647402,429.
9.14,8270.,34.,17.,1715.,0.,0.,10036.,1.01634463573,1.55440944289,442.
9.16,8256.,35.,17.,1729.,0.,0.,10037.,0.981670362346,1.4584816812,455.
9.18,8235.,39.,24.,1742.,0.,0.,10040.,0.943396763086,1.25786235078,507.
9.2,8223.,33.,27.,1759.,0.,0.,10042.,0.904247609454,1.42487502096,429.
9.22,8203.,35.,26.,1780.,0.,0.,10044.,0.862816079612,1.28189817542,455.
9.24,8192.,36.,21.,1796.,0.,0.,10045.,0.821629531814,1.18679821262,468.
9.26,8172.,38.,19.,1815.,0.,0.,10044.,0.779538272166,1.06673658296,494.
9.28,8159.,31.,16.,1836.,0.,0.,10042.,0.738658459271,1.2390399962,403.
9.3,8149.,29.,16.,1846.,0.,0.,10040.,0.699089120265,1.2535391122,377.
9.32,8146.,22.,12.,1862.,0.,0.,10042.,0.661457711457,1.56344549981,286.
9.34,8139.,20.,15.,1870.,0.,0.,10044.,0.625701298151,1.62682337519,260.
9.36,8133.,18.,12.,1881.,0.,0.,10044.,0.592899388831,1.71282045662,234.
9.38,8136.,16.,13.,1879.,0.,0.,10044.,0.563966645974,1.83289159941,208.
9.4,8134.,10.,14.,1885.,0.,0.,10043.,0.538397305536,2.79966598879,130.
9.42,8135.,11.,5.,1895.,0.,0.,10046.,0.516881890909,2.44344166611,143.
9.44,8140.,12.,5.,1889.,0.,0.,10046.,0.500167694048,2.16739334087,156.
9.46,8149.,9.,5.,1887.,0.,0.,10050.,0.488151472376,2.82043072928,117.
9.48,8147.,6.,5.,1890.,0.,0.,10048.,0.480628285974,4.16544514511,78.
9.5,8150.,4.,3.,1893.,0.,0.,10050.,0.478195775853,6.21654508609,52.
9.52,8151.,3.,3.,1894.,0.,0.,10051.,0.48072073673,8.33249276999,39.
9.54,8152.,2.,1.,1897.,0.,0.,10052.,0.488234021085,12.6940845482,26.
9.56,8156.,2.,1.,1894.,0.,0.,10053.,0.50080186854,13.020848582,26.
9.58,8161.,1.,0.,1892.,0.,0.,10054.,0.518121280673,26.942306595,13.
9.6,8163.,0.,1.,1889.,0.,0.,10053.,0.539779375245,inf,0.
9.62,8164.,0.,1.,1886.,0.,0.,10051.,0.5655134089,inf,0.
9.64,8172.,0.,1.,1881.,0.,0.,10054.,0.595149963744,inf,0.
9.66,8171.,2.,0.,1880.,0.,0.,10053.,0.627598995082,16.3175738721,26.
9.68,8177.,1.,0.,1877.,0.,0.,10055.,0.663116475069,34.4820567036,13.
9.7,8186.,1.,0.,1872.,0.,0.,10059.,0.700936814509,36.4487143545,13.
9.72,8193.,2.,0.,1866.,0.,0.,10061.,0.740335825174,19.2487314545,26.
9.74,8202.,2.,0.,1860.,0.,0.,10064.,0.78084516426,20.3019742708,26.
9.76,8202.,1.,1.,1857.,0.,0.,10061.,0.821324265769,42.70886182,13.
9.78,8204.,2.,0.,1858.,0.,0.,10064.,0.861206395229,22.3913662759,26.
9.8,8204.,1.,2.,1855.,0.,0.,10062.,0.900365063251,46.8189832891,13.
9.82,8202.,3.,3.,1851.,0.,0.,10059.,0.937841502812,16.2559193821,39.
9.84,8205.,5.,3.,1849.,0.,0.,10062.,0.97318227796,10.1210956908,65.
9.86,8206.,6.,3.,1850.,0.,0.,10065.,1.00557362963,8.7149714568,78.
9.88,8209.,8.,2.,1848.,0.,0.,10067.,1.03508720912,6.72806685925,104.
9.9,8215.,8.,2.,1842.,0.,0.,10067.,1.06152304332,6.89989978158,104.
9.92,8213.,7.,5.,1840.,0.,0.,10065.,1.08306085896,8.04559495229,91.
9.94,8213.,5.,8.,1839.,0.,0.,10065.,1.10021304901,11.4422157097,65.
9.96,8211.,12.,9.,1836.,0.,0.,10068.,1.11205914552,4.81892296392,156.
9.98,8209.,13.,7.,1839.,0.,0.,10068.,1.11933086201,4.47732344803,169.
10.,8198.,19.,8.,1838.,0.,0.,10063.,1.12091173285,3.06775842676,247.
