t,cases
5.01,1.43
5.02,1.43
5.03,2.405
5.04,2.405
5.05,3.315
5.06,3.315
5.07,3.575
5.08,3.575
5.09,3.38
5.1,3.38
5.11,4.095
5.12,4.095
5.13,5.33
5.14,5.33
5.15,5.265
5.16,5.265
5.17,4.68
5.18,4.68
5.19,5.135
5.2,5.135
5.21,5.265
5.22,5.265
5.23,4.81
5.24,4.81
5.25,4.745
5.26,4.745
5.27,4.81
5.28,4.81
5.29,4.94
5.3,4.94
5.31,5.135
5.32,5.135
5.33,4.55
5.34,4.55
5.35,3.185
5.36,3.185
5.37,2.73
5.38,2.73
5.39,2.47
5.4,2.47
5.41,1.885
5.42,1.885
5.43,1.365
5.44,1.365
5.45,1.365
5.46,1.365
5.47,1.43
5.48,1.43
5.49,0.91
5.5,0.91
5.51,0.39
5.52,0.39
5.53,0.195
5.54,0.195
5.55,0.13
5.56,0.13
5.57,0.13
5.58,0.13
5.59,0.13
5.6,0.13
5.61,0.065
5.62,0.065
5.63,0.
5.64,0.
5.65,0.
5.66,0.
5.67,0.
5.68,0.
5.69,0.
5.7,0.
5.71,0.065
5.72,0.065
5.73,0.13
5.74,0.13
5.75,0.13
5.76,0.13
5.77,0.065
5.78,0.065
5.79,0.
5.8,0.
5.81,0.13
5.82,0.13
5.83,0.39
5.84,0.39
5.85,0.65
5.86,0.65
5.87,0.845
5.88,0.845
5.89,0.585
5.9,0.585
5.91,0.455
5.92,0.455
5.93,0.845
5.94,0.845
5.95,0.975
5.96,0.975
5.97,1.105
5.98,1.105
5.99,1.17
6.,1.17
6.01,1.69
6.02,1.69
6.03,2.6
6.04,2.6
6.05,2.925
6.06,2.925
6.07,3.445
6.08,3.445
6.09,3.965
6.1,3.965
6.11,4.16
6.12,4.16
6.13,4.485
6.14,4.485
6.15,4.68
6.16,4.68
6.17,4.42
6.18,4.42
6.19,4.42
6.2,4.42
6.21,4.225
6.22,4.225
6.23,3.575
6.24,3.575
6.25,3.705
6.26,3.705
6.27,3.575
6.28,3.575
6.29,3.445
6.3,3.445
6.31,3.51
6.32,3.51
6.33,3.185
6.34,3.185
6.35,2.73
6.36,2.73
6.37,2.275
6.38,2.275
6.39,1.885
6.4,1.885
6.41,1.3
6.42,1.3
6.43,0.975
6.44,0.975
6.45,0.91
6.46,0.91
6.47,0.585
6.48,0.585
6.49,0.26
6.5,0.26
6.51,0.26
6.52,0.26
6.53,0.195
6.54,0.195
6.55,0.065
6.56,0.065
6.57,0.065
6.58,0.065
6.59,0.325
6.6,0.325
6.61,0.455
6.62,0.455
6.63,0.26
6.64,0.26
6.65,0.195
6.66,0.195
6.67,0.13
6.68,0.13
6.69,0.
6.7,0.
6.71,0.
6.72,0.
6.73,0.065
6.74,0.065
6.75,0.195
6.76,0.195
6.77,0.195
6.78,0.195
6.79,0.195
6.8,0.195
6.81,0.325
6.82,0.325
6.83,0.52
6.84,0.52
6.85,0.585
6.86,0.585
6.87,0.975
6.88,0.975
6.89,1.3
6.9,1.3
6.91,1.105
6.92,1.105
6.93,1.43
6.94,1.43
6.95,1.95
6.96,1.95
6.97,1.755
6.98,1.755
6.99,2.015
7.,2.015
7.01,2.47
7.02,2.47
7.03,2.73
7.04,2.73
7.05,3.12
7.06,3.12
7.07,3.575
7.08,3.575
7.09,3.445
7.1,3.445
7.11,2.86
7.12,2.86
7.13,2.99
7.14,2.99
7.15,3.575
7.16,3.575
7.17,3.9
7.18,3.9
7.19,4.16
7.2,4.16
7.21,4.355
7.22,4.355
7.23,4.485
7.24,4.485
7.25,4.355
7.26,4.355
7.27,3.965
7.28,3.965
7.29,3.835
7.3,3.835
7.31,3.64
7.32,3.64
7.33,3.185
7.34,3.185
7.35,2.275
7.36,2.275
7.37,1.885
7.38,1.885
7.39,1.69
7.4,1.69
7.41,1.495
7.42,1.495
7.43,1.495
7.44,1.495
7.45,1.17
7.46,1.17
7.47,0.845
7.48,0.845
7.49,0.52
7.5,0.52
7.51,0.26
7.52,0.26
7.53,0.13
7.54,0.13
7.55,0.
7.56,0.
7.57,0.
7.58,0.
7.59,0.
7.6,0.
7.61,0.
7.62,0.
7.63,0.
7.64,0.
7.65,0.
7.66,0.
7.67,0.0650000000001
7.68,0.0649999999999
7.69,0.0650000000001
7.7,0.0649999999999
7.71,0.
7.72,0.
7.73,0.
7.74,0.
7.75,0.0650000000001
7.76,0.0649999999999
7.77,0.13
7.78,0.13
7.79,0.13
7.8,0.13
7.81,0.13
7.82,0.13
7.83,0.325
7.84,0.325
7.85,0.78
7.86,0.78
7.87,0.91
7.88,0.91
7.89,1.105
7.9,1.105
7.91,1.365
7.92,1.365
7.93,1.3
7.94,1.3
7.95,1.235
7.96,1.235
7.97,1.3
7.98,1.3
7.99,1.755
8.,1.755
8.01,1.95
8.02,1.95
8.03,2.405
8.04,2.405
8.05,2.795
8.06,2.795
8.07,2.86
8.08,2.86
8.09,3.835
8.1,3.835
8.11,4.29
8.12,4.29
8.13,3.77
8.14,3.77
8.15,3.315
8.16,3.315
8.17,3.38
8.18,3.38
8.19,3.64
8.2,3.64
8.21,3.575
8.22,3.575
8.23,3.445
8.24,3.445
8.25,3.38
8.26,3.38
8.27,3.575
8.28,3.575
8.29,3.705
8.3,3.705
8.31,3.185
8.32,3.185
8.33,2.21
8.34,2.21
8.35,1.495
8.36,1.495
8.37,0.975
8.38,0.975
8.39,0.975
8.4,0.975
8.41,1.17
8.42,1.17
8.43,1.04
8.44,1.04
8.45,0.78
8.46,0.78
8.47,0.65
8.48,0.65
8.49,0.585
8.5,0.585
8.51,0.26
8.52,0.26
8.53,0.0649999999999
8.54,0.0650000000001
8.55,0.
8.56,0.
8.57,0.
8.58,0.
8.59,0.
8.6,0.
8.61,0.
8.62,0.
8.63,0.
8.64,0.
8.65,0.
8.66,0.
8.67,0.0650000000001
8.68,0.0649999999999
8.69,0.0649999999999
8.7,0.0650000000001
8.71,0.
8.72,0.
8.73,0.
8.74,0.
8.75,0.
8.76,0.
8.77,0.0649999999999
8.78,0.0650000000001
8.79,0.26
8.8,0.26
8.81,0.26
8.82,0.26
8.83,0.455
8.84,0.455
8.85,0.845
8.86,0.845
8.87,0.91
8.88,0.91
8.89,0.585
8.9,0.585
8.91,0.52
8.92,0.52
8.93,0.91
8.94,0.91
8.95,1.17
8.96,1.17
8.97,1.365
8.98,1.365
8.99,1.365
9.,1.365
9.01,1.43
9.02,1.43
9.03,1.885
9.04,1.885
9.05,2.47
9.06,2.47
9.07,2.665
9.08,2.665
9.09,2.99
9.1,2.99
9.11,3.38
9.12,3.38
9.13,3.445
9.14,3.445
9.15,3.64
9.16,3.64
9.17,3.77
9.18,3.77
9.19,3.705
9.2,3.705
9.21,4.485
9.22,4.485
9.23,4.745
9.24,4.745
9.25,4.29
9.26,4.29
9.27,3.51
9.28,3.51
9.29,3.25
9.3,3.25
9.31,3.315
9.32,3.315
9.33,2.535
9.34,2.535
9.35,2.405
9.36,2.405
9.37,2.08
9.38,2.08
9.39,1.755
9.4,1.755
9.41,1.625
9.42,1.625
9.43,1.17
9.44,1.17
9.45,0.975
9.46,0.975
9.47,1.235
9.48,1.235
9.49,1.105
9.5,1.105
9.51,0.52
9.52,0.52
9.53,0.26
9.54,0.26
9.55,0.26
9.56,0.26
9.57,0.26
9.58,0.26
9.59,0.195
9.6,0.195
9.61,0.0649999999999
9.62,0.0650000000001
9.63,0.
9.64,0.
9.65,0.0649999999999
9.66,0.0650000000001
9.67,0.13
9.68,0.13
9.69,0.13
9.7,0.13
9.71,0.13
9.72,0.13
9.73,0.0650000000001
9.74,0.0649999999999
9.75,0.
9.76,0.
9.77,0.
9.78,0.
9.79,0.
9.8,0.
9.81,0.0649999999999
9.82,0.0650000000001
9.83,0.195
9.84,0.195
9.85,0.39
9.86,0.39
9.87,0.585
9.88,0.585
9.89,0.65
9.9,0.65
9.91,0.715
9.92,0.715
9.93,0.585
9.94,0.585
9.95,1.235
9.96,1.235
9.97,2.015
9.98,2.015
9.99,1.95
10.,1.95
