t,prevalence
5.,4
5.02,6
5.04,4
5.06,7
5.08,6
5.1,9
5.12,8
5.14,5
5.16,4
5.18,8
5.2,10
5.22,8
5.24,7
5.26,9
5.28,6
5.3,7
5.32,5
5.34,5
5.36,4
5.38,4
5.4,8
5.42,1
5.44,1
5.46,2
5.48,2
5.5,1
5.52,1
5.54,1
5.56,0
5.58,0
5.6,0
5.62,0
5.64,0
5.66,1
5.68,0
5.7,1
5.72,0
5.74,0
5.76,0
5.78,0
5.8,0
5.82,0
5.84,0
5.86,0
5.88,0
5.9,1
5.92,2
5.94,1
5.96,3
5.98,8
6.,3
6.02,6
6.04,2
6.06,4
6.08,3
6.1,9
6.12,5
6.14,7
6.16,5
6.18,6
6.2,9
6.22,12
6.24,4
6.26,8
6.28,5
6.3,8
6.32,5
6.34,4
6.36,6
6.38,5
6.4,1
6.42,6
6.44,3
6.46,4
6.48,0
6.5,1
6.52,1
6.54,1
6.56,2
6.58,1
6.6,1
6.62,1
6.64,1
6.66,0
6.68,0
6.7,0
6.72,0
6.74,0
6.76,2
6.78,0
6.8,0
6.82,1
6.84,1
6.86,2
6.88,0
6.9,2
6.92,10
6.94,4
6.96,3
6.98,7
7.,3
7.02,8
7.04,6
7.06,15
7.08,11
7.1,9
7.12,10
7.14,10
7.16,12
7.18,17
7.2,12
7.22,13
7.24,11
7.26,7
7.28,7
7.3,7
7.32,12
7.34,12
7.36,6
7.38,11
7.4,5
7.42,0
7.44,4
7.46,1
7.48,0
7.5,1
7.52,0
7.54,0
7.56,0
7.58,0
7.6,0
7.62,0
7.64,0
7.66,0
7.68,0
7.7,0
7.72,0
7.74,0
7.76,0
7.78,0
7.8,0
7.82,0
7.84,0
7.86,1
7.88,2
7.9,2
7.92,1
7.94,5
7.96,5
7.98,6
8.,7
8.02,5
8.04,5
8.06,8
8.08,5
8.1,10
8.12,16
8.14,11
8.16,8
8.18,5
8.2,12
8.22,7
8.24,20
8.26,17
8.28,9
8.3,10
8.32,4
8.34,4
8.36,3
8.38,3
8.4,7
8.42,3
8.44,1
8.46,3
8.48,0
8.5,3
8.52,0
8.54,2
8.56,3
8.58,0
8.6,0
8.62,0
8.64,0
8.66,1
8.68,1
8.7,1
8.72,1
8.74,0
8.76,0
8.78,0
8.8,0
8.82,2
8.84,0
8.86,1
8.88,3
8.9,1
8.92,3
8.94,4
8.96,5
8.98,3
9.,2
9.02,2
9.04,11
9.06,5
9.08,5
9.1,8
9.12,9
9.14,3
9.16,8
9.18,11
9.2,10
9.22,6
9.24,9
9.26,9
9.28,10
9.3,7
9.32,10
9.34,8
9.36,8
9.38,6
9.4,3
9.42,0
9.44,5
9.46,1
9.48,2
9.5,1
9.52,1
9.54,0
9.56,1
9.58,0
9.6,0
9.62,1
9.64,0
9.66,0
9.68,0
9.7,0
9.72,0
9.74,0
9.76,0
9.78,0
9.8,1
9.82,0
9.84,1
9.86,0
9.88,1
9.9,2
9.92,1
9.94,3
9.96,3
9.98,0
10.,2
