t,cases
5.01,3.185
5.02,3.185
5.03,3.77
5.04,3.77
5.05,4.225
5.06,4.225
5.07,4.55
5.08,4.55
5.09,4.485
5.1,4.485
5.11,4.745
5.12,4.745
5.13,4.81
5.14,4.81
5.15,4.745
5.16,4.745
5.17,4.615
5.18,4.615
5.19,4.68
5.2,4.68
5.21,4.55
5.22,4.55
5.23,4.03
5.24,4.03
5.25,4.095
5.26,4.095
5.27,3.575
5.28,3.575
5.29,3.25
5.3,3.25
5.31,3.055
5.32,3.055
5.33,2.535
5.34,2.535
5.35,2.21
5.36,2.21
5.37,1.885
5.38,1.885
5.39,1.95
5.4,1.95
5.41,1.95
5.42,1.95
5.43,1.56
5.44,1.56
5.45,1.365
5.46,1.365
5.47,1.43
5.48,1.43
5.49,1.17
5.5,1.17
5.51,0.91
5.52,0.91
5.53,0.78
5.54,0.78
5.55,0.39
5.56,0.39
5.57,0.13
5.58,0.13
5.59,0.13
5.6,0.13
5.61,0.065
5.62,0.065
5.63,0.
5.64,0.
5.65,0.
5.66,0.
5.67,0.
5.68,0.
5.69,0.
5.7,0.
5.71,0.
5.72,0.
5.73,0.
5.74,0.
5.75,0.
5.76,0.
5.77,0.13
5.78,0.13
5.79,0.325
5.8,0.325
5.81,0.39
5.82,0.39
5.83,0.585
5.84,0.585
5.85,0.91
5.86,0.91
5.87,0.975
5.88,0.975
5.89,1.17
5.9,1.17
5.91,1.43
5.92,1.43
5.93,1.625
5.94,1.625
5.95,1.69
5.96,1.69
5.97,1.43
5.98,1.43
5.99,1.885
6.,1.885
6.01,2.47
6.02,2.47
6.03,2.86
6.04,2.86
6.05,2.99
6.06,2.99
6.07,2.795
6.08,2.795
6.09,3.51
6.1,3.51
6.11,3.835
6.12,3.835
6.13,4.225
6.14,4.225
6.15,4.615
6.16,4.615
6.17,4.095
6.18,4.095
6.19,3.965
6.2,3.965
6.21,4.225
6.22,4.225
6.23,4.03
6.24,4.03
6.25,3.64
6.26,3.64
6.27,3.575
6.28,3.575
6.29,3.12
6.3,3.12
6.31,2.86
6.32,2.86
6.33,2.34
6.34,2.34
6.35,1.885
6.36,1.885
6.37,2.405
6.38,2.405
6.39,2.405
6.4,2.405
6.41,1.755
6.42,1.755
6.43,1.495
6.44,1.495
6.45,1.17
6.46,1.17
6.47,0.78
6.48,0.78
6.49,0.585
6.5,0.585
6.51,0.52
6.52,0.52
6.53,0.585
6.54,0.585
6.55,0.39
6.56,0.39
6.57,0.195
6.58,0.195
6.59,0.195
6.6,0.195
6.61,0.195
6.62,0.195
6.63,0.065
6.64,0.065
6.65,0.
6.66,0.
6.67,0.
6.68,0.
6.69,0.065
6.7,0.065
6.71,0.065
6.72,0.065
6.73,0.065
6.74,0.065
6.75,0.065
6.76,0.065
6.77,0.065
6.78,0.065
6.79,0.13
6.8,0.13
6.81,0.195
6.82,0.195
6.83,0.52
6.84,0.52
6.85,0.78
6.86,0.78
6.87,0.975
6.88,0.975
6.89,1.105
6.9,1.105
6.91,1.235
6.92,1.235
6.93,1.43
6.94,1.43
6.95,1.69
6.96,1.69
6.97,1.82
6.98,1.82
6.99,2.08
7.,2.08
7.01,2.47
7.02,2.47
7.03,2.99
7.04,2.99
7.05,3.38
7.06,3.38
7.07,3.38
7.08,3.38
7.09,3.51
7.1,3.51
7.11,3.64
7.12,3.64
7.13,4.615
7.14,4.615
7.15,5.525
7.16,5.525
7.17,5.46
7.18,5.46
7.19,5.46
7.2,5.46
7.21,4.875
7.22,4.875
7.23,4.355
7.24,4.355
7.25,4.42
7.26,4.42
7.27,3.575
7.28,3.575
7.29,3.12
7.3,3.12
7.31,3.38
7.32,3.38
7.33,3.575
7.34,3.575
7.35,2.925
7.36,2.925
7.37,1.82
7.38,1.82
7.39,1.755
7.4,1.755
7.41,1.82
7.42,1.82
7.43,1.56
7.44,1.56
7.45,1.495
7.46,1.495
7.47,1.105
7.48,1.105
7.49,0.845
7.5,0.845
7.51,0.975
7.52,0.975
7.53,0.715
7.54,0.715
7.55,0.39
7.56,0.39
7.57,0.26
7.58,0.26
7.59,0.26
7.6,0.26
7.61,0.26
7.62,0.26
7.63,0.195
7.64,0.195
7.65,0.13
7.66,0.13
7.67,0.26
7.68,0.26
7.69,0.325
7.7,0.325
7.71,0.26
7.72,0.26
7.73,0.325
7.74,0.325
7.75,0.325
7.76,0.325
7.77,0.39
7.78,0.39
7.79,0.65
7.8,0.65
7.81,0.78
7.82,0.78
7.83,0.845
7.84,0.845
7.85,0.91
7.86,0.91
7.87,1.04
7.88,1.04
7.89,1.235
7.9,1.235
7.91,1.43
7.92,1.43
7.93,1.56
7.94,1.56
7.95,1.56
7.96,1.56
7.97,1.43
7.98,1.43
7.99,1.56
8.,1.56
8.01,1.95
8.02,1.95
8.03,2.47
8.04,2.47
8.05,2.6
8.06,2.6
8.07,2.925
8.08,2.925
8.09,3.9
8.1,3.9
8.11,4.68
8.12,4.68
8.13,5.2
8.14,5.2
8.15,5.915
8.16,5.915
8.17,6.11
8.18,6.11
8.19,5.785
8.2,5.785
8.21,5.135
8.22,5.135
8.23,3.835
8.24,3.835
8.25,3.64
8.26,3.64
8.27,3.965
8.28,3.965
8.29,3.64
8.3,3.64
8.31,2.925
8.32,2.925
8.33,2.275
8.34,2.275
8.35,2.405
8.36,2.405
8.37,2.08
8.38,2.08
8.39,1.495
8.4,1.495
8.41,1.365
8.42,1.365
8.43,1.3
8.44,1.3
8.45,1.17
8.46,1.17
8.47,0.845
8.48,0.845
8.49,0.78
8.5,0.78
8.51,0.585
8.52,0.585
8.53,0.195
8.54,0.195
8.55,0.
8.56,0.
8.57,0.13
8.58,0.13
8.59,0.195
8.6,0.195
8.61,0.26
8.62,0.26
8.63,0.39
8.64,0.39
8.65,0.195
8.66,0.195
8.67,0.
8.68,0.
8.69,0.0649999999999
8.7,0.0650000000001
8.71,0.0650000000001
8.72,0.0649999999999
8.73,0.0649999999999
8.74,0.0650000000001
8.75,0.13
8.76,0.13
8.77,0.0649999999999
8.78,0.0650000000001
8.79,0.13
8.8,0.13
8.81,0.39
8.82,0.39
8.83,0.585
8.84,0.585
8.85,0.78
8.86,0.78
8.87,0.975
8.88,0.975
8.89,1.17
8.9,1.17
8.91,1.235
8.92,1.235
8.93,1.235
8.94,1.235
8.95,1.495
8.96,1.495
8.97,2.015
8.98,2.015
8.99,2.08
9.,2.08
9.01,2.08
9.02,2.08
9.03,2.73
9.04,2.73
9.05,3.51
9.06,3.51
9.07,3.38
9.08,3.38
9.09,3.12
9.1,3.12
9.11,3.51
9.12,3.51
9.13,3.705
9.14,3.705
9.15,4.03
9.16,4.03
9.17,4.225
9.18,4.225
9.19,4.225
9.2,4.225
9.21,4.03
9.22,4.03
9.23,3.77
9.24,3.77
9.25,3.835
9.26,3.835
9.27,4.55
9.28,4.55
9.29,5.005
9.3,5.005
9.31,4.485
9.32,4.485
9.33,3.9
9.34,3.9
9.35,3.055
9.36,3.055
9.37,2.47
9.38,2.47
9.39,2.275
9.4,2.275
9.41,1.755
9.42,1.755
9.43,1.365
9.44,1.365
9.45,1.04
9.46,1.04
9.47,0.715
9.48,0.715
9.49,0.715
9.5,0.715
9.51,0.455
9.52,0.455
9.53,0.0649999999999
9.54,0.0650000000001
9.55,0.
9.56,0.
9.57,0.
9.58,0.
9.59,0.0649999999999
9.6,0.0650000000001
9.61,0.13
9.62,0.13
9.63,0.13
9.64,0.13
9.65,0.0649999999999
9.66,0.0650000000001
9.67,0.
9.68,0.
9.69,0.0650000000001
9.7,0.0649999999999
9.71,0.0650000000001
9.72,0.0649999999999
9.73,0.0650000000001
9.74,0.0649999999999
9.75,0.195
9.76,0.195
9.77,0.26
9.78,0.26
9.79,0.195
9.8,0.195
9.81,0.26
9.82,0.26
9.83,0.39
9.84,0.39
9.85,0.52
9.86,0.52
9.87,0.52
9.88,0.52
9.89,0.715
9.9,0.715
9.91,0.975
9.92,0.975
9.93,1.56
9.94,1.56
9.95,2.08
9.96,2.08
9.97,2.34
9.98,2.34
9.99,2.795
10.,2.795
