t,prevalence
5.,4
5.02,4
5.04,7
5.06,4
5.08,7
5.1,7
5.12,7
5.14,12
5.16,3
5.18,10
5.2,12
5.22,4
5.24,7
5.26,13
5.28,9
5.3,7
5.32,6
5.34,6
5.36,8
5.38,6
5.4,7
5.42,0
5.44,3
5.46,2
5.48,1
5.5,4
5.52,3
5.54,0
5.56,0
5.58,1
5.6,0
5.62,0
5.64,0
5.66,1
5.68,0
5.7,1
5.72,0
5.74,0
5.76,0
5.78,0
5.8,0
5.82,0
5.84,0
5.86,0
5.88,1
5.9,4
5.92,3
5.94,0
5.96,4
5.98,5
6.,1
6.02,5
6.04,2
6.06,3
6.08,5
6.1,4
6.12,7
6.14,10
6.16,8
6.18,10
6.2,10
6.22,8
6.24,7
6.26,7
6.28,5
6.3,11
6.32,8
6.34,5
6.36,6
6.38,5
6.4,5
6.42,7
6.44,1
6.46,3
6.48,0
6.5,5
6.52,0
6.54,0
6.56,2
6.58,0
6.6,1
6.62,0
6.64,0
6.66,0
6.68,1
6.7,1
6.72,0
6.74,0
6.76,1
6.78,1
6.8,0
6.82,0
6.84,2
6.86,1
6.88,4
6.9,3
6.92,1
6.94,4
6.96,3
6.98,3
7.,2
7.02,5
7.04,4
7.06,6
7.08,5
7.1,6
7.12,11
7.14,8
7.16,6
7.18,11
7.2,8
7.22,13
7.24,4
7.26,9
7.28,5
7.3,7
7.32,6
7.34,12
7.36,3
7.38,9
7.4,5
7.42,7
7.44,6
7.46,5
7.48,3
7.5,5
7.52,1
7.54,0
7.56,0
7.58,0
7.6,0
7.62,0
7.64,0
7.66,0
7.68,1
7.7,0
7.72,1
7.74,0
7.76,0
7.78,0
7.8,0
7.82,0
7.84,0
7.86,0
7.88,2
7.9,2
7.92,3
7.94,2
7.96,3
7.98,2
8.,4
8.02,7
8.04,3
8.06,5
8.08,2
8.1,5
8.12,9
8.14,6
8.16,4
8.18,5
8.2,8
8.22,7
8.24,12
8.26,13
8.28,10
8.3,8
8.32,6
8.34,5
8.36,7
8.38,5
8.4,4
8.42,0
8.44,0
8.46,1
8.48,2
8.5,0
8.52,2
8.54,0
8.56,0
8.58,0
8.6,0
8.62,1
8.64,1
8.66,1
8.68,1
8.7,1
8.72,1
8.74,1
8.76,1
8.78,0
8.8,2
8.82,1
8.84,2
8.86,0
8.88,2
8.9,1
8.92,3
8.94,3
8.96,5
8.98,8
9.,4
9.02,10
9.04,7
9.06,7
9.08,3
9.1,9
9.12,12
9.14,8
9.16,10
9.18,4
9.2,10
9.22,5
9.24,14
9.26,7
9.28,16
9.3,7
9.32,4
9.34,8
9.36,7
9.38,2
9.4,2
9.42,6
9.44,2
9.46,1
9.48,0
9.5,0
9.52,2
9.54,2
9.56,2
9.58,0
9.6,0
9.62,0
9.64,0
9.66,0
9.68,0
9.7,0
9.72,0
9.74,0
9.76,0
9.78,1
9.8,0
9.82,1
9.84,1
9.86,0
9.88,3
9.9,1
9.92,3
9.94,2
9.96,2
9.98,2
10.,3
