t,s,e,i,r,c,o,n,reff,coal,reportr
5.,8625.,1.,38.,1336.,0.,0.,10000.,1.23278383904,64.1047596303,13.
5.02,8604.,18.,14.,1368.,0.,0.,10004.,1.22652104124,3.54328300802,234.
5.04,8583.,25.,16.,1380.,0.,0.,10004.,1.2152827269,2.52778807194,325.
5.06,8559.,36.,15.,1392.,0.,0.,10002.,1.19856551776,1.73126130343,468.
5.08,8541.,40.,10.,1406.,0.,0.,9997.,1.17798755447,1.53138382081,520.
5.1,8527.,26.,18.,1424.,0.,0.,9995.,1.15284852031,2.30569704061,338.
5.12,8510.,29.,18.,1438.,0.,0.,9995.,1.12271718796,2.01314806117,377.
5.14,8495.,27.,24.,1448.,0.,0.,9994.,1.08907311074,2.0974741392,351.
5.16,8479.,34.,13.,1471.,0.,0.,9997.,1.05150590845,1.60818550704,442.
5.18,8467.,32.,21.,1474.,0.,0.,9994.,1.01225879937,1.64492054898,416.
5.2,8454.,35.,18.,1490.,0.,0.,9997.,0.970078104725,1.44125889845,455.
5.22,8440.,31.,15.,1512.,0.,0.,9998.,0.926442333386,1.55403230116,403.
5.24,8434.,26.,15.,1526.,0.,0.,10001.,0.882598251008,1.76519650202,338.
5.26,8420.,30.,14.,1537.,0.,0.,10001.,0.837956178287,1.4524573757,390.
5.28,8410.,34.,15.,1545.,0.,0.,10004.,0.793937156265,1.21425682723,442.
5.3,8397.,36.,18.,1557.,0.,0.,10008.,0.750715961514,1.08436749997,468.
5.32,8390.,29.,15.,1572.,0.,0.,10006.,0.710258128129,1.27356629871,377.
5.34,8382.,29.,15.,1582.,0.,0.,10008.,0.671799886793,1.20460669356,377.
5.36,8375.,22.,19.,1593.,0.,0.,10009.,0.636455312358,1.50434892012,286.
5.38,8357.,25.,10.,1613.,0.,0.,10005.,0.604114622689,1.25655841519,325.
5.4,8354.,15.,14.,1624.,0.,0.,10007.,0.57648710648,1.9984886358,195.
5.42,8348.,13.,12.,1634.,0.,0.,10007.,0.553149251309,2.21259700524,169.
5.44,8341.,9.,4.,1648.,0.,0.,10002.,0.534752140907,3.08967903635,117.
5.46,8341.,9.,4.,1645.,0.,0.,9999.,0.521692694668,3.01422445808,117.
5.48,8343.,6.,7.,1643.,0.,0.,9999.,0.513799605616,4.45292991534,78.
5.5,8343.,3.,0.,1651.,0.,0.,9997.,0.511215007689,8.86106013328,39.
5.52,8342.,2.,1.,1649.,0.,0.,9994.,0.513995044326,13.3638711525,26.
5.54,8354.,1.,1.,1639.,0.,0.,9995.,0.522714894095,27.1811744929,13.
5.56,8363.,1.,0.,1635.,0.,0.,9999.,0.53632345381,27.8888195981,13.
5.58,8366.,1.,0.,1630.,0.,0.,9997.,0.554896462841,28.8546160677,13.
5.6,8374.,1.,0.,1628.,0.,0.,10003.,0.578098330351,30.0611131782,13.
5.62,8383.,0.,1.,1619.,0.,0.,10003.,0.606115285008,inf,0.
5.64,8390.,0.,0.,1616.,0.,0.,10006.,0.637786396192,inf,0.
5.66,8388.,1.,0.,1615.,0.,0.,10004.,0.672549579116,34.972578114,13.
5.68,8391.,2.,0.,1609.,0.,0.,10002.,0.710626863746,18.4762984574,26.
5.7,8392.,3.,0.,1604.,0.,0.,9999.,0.750944256711,13.0163671163,39.
5.72,8399.,2.,1.,1598.,0.,0.,10000.,0.793215872383,20.6236126819,26.
5.74,8406.,1.,0.,1595.,0.,0.,10002.,0.836479262419,43.4969216458,13.
5.76,8411.,1.,1.,1590.,0.,0.,10003.,0.880015369662,45.7607992224,13.
5.78,8422.,0.,1.,1584.,0.,0.,10007.,0.923635070653,inf,0.
5.8,8418.,4.,1.,1583.,0.,0.,10006.,0.965078351892,12.5460185746,52.
5.82,8418.,6.,1.,1580.,0.,0.,10005.,1.00529419433,8.71254968419,78.
5.84,8416.,6.,3.,1578.,0.,0.,10003.,1.04306706377,9.03991455267,78.
5.86,8409.,9.,7.,1578.,0.,0.,10003.,1.07707781588,6.22311626955,117.
5.88,8407.,8.,6.,1582.,0.,0.,10003.,1.10824144737,7.20356940788,104.
5.9,8396.,10.,5.,1586.,0.,0.,9997.,1.13491025358,5.90153331864,130.
5.92,8404.,7.,7.,1583.,0.,0.,10001.,1.15862871803,8.6069561911,91.
5.94,8404.,10.,8.,1584.,0.,0.,10006.,1.17638952324,6.11722552086,130.
5.96,8402.,9.,11.,1587.,0.,0.,10009.,1.18906031217,6.8701262481,117.
5.98,8390.,11.,9.,1596.,0.,0.,10006.,1.19577576334,5.65275815398,143.
6.,8382.,19.,5.,1600.,0.,0.,10006.,1.1973330945,3.27691162706,247.
6.02,8377.,20.,5.,1603.,0.,0.,10005.,1.1940422849,3.10450994073,260.
6.04,8371.,17.,8.,1608.,0.,0.,10004.,1.1852652577,3.62551725885,221.
6.06,8359.,22.,6.,1617.,0.,0.,10004.,1.17032436059,2.76622121595,286.
6.08,8349.,25.,8.,1622.,0.,0.,10004.,1.1507008936,2.3934578587,325.
6.1,8341.,33.,11.,1624.,0.,0.,10009.,1.12612399903,1.77449842271,429.
6.12,8325.,38.,13.,1636.,0.,0.,10012.,1.09644540294,1.50039897245,494.
6.14,8306.,39.,7.,1659.,0.,0.,10011.,1.06303475277,1.41737967036,507.
6.16,8296.,35.,11.,1669.,0.,0.,10011.,1.0273727828,1.52638242016,455.
6.18,8288.,35.,10.,1681.,0.,0.,10014.,0.988879790407,1.46919283146,455.
6.2,8279.,38.,8.,1690.,0.,0.,10015.,0.948289801639,1.29765972856,494.
6.22,8261.,39.,14.,1701.,0.,0.,10015.,0.90525461193,1.20700614924,507.
6.24,8252.,37.,19.,1708.,0.,0.,10016.,0.862259119982,1.21182362808,481.
6.26,8242.,35.,14.,1724.,0.,0.,10015.,0.819095046851,1.21694121246,455.
6.28,8235.,25.,14.,1742.,0.,0.,10016.,0.776485056826,1.6150889182,325.
6.3,8229.,26.,14.,1748.,0.,0.,10017.,0.735035275166,1.47007055033,338.
6.32,8221.,24.,11.,1761.,0.,0.,10017.,0.695187131887,1.50623878576,312.
6.34,8216.,21.,8.,1772.,0.,0.,10017.,0.65790369164,1.62909485549,273.
6.36,8214.,23.,5.,1778.,0.,0.,10020.,0.623534899783,1.40973107777,299.
6.38,8211.,18.,14.,1776.,0.,0.,10019.,0.59273109935,1.71233428701,234.
6.4,8212.,15.,8.,1788.,0.,0.,10023.,0.56578344752,1.96138261807,195.
6.42,8214.,9.,1.,1797.,0.,0.,10021.,0.543509856878,3.14027917307,117.
6.44,8215.,6.,7.,1796.,0.,0.,10024.,0.525518211432,4.55449116574,78.
6.46,8215.,9.,5.,1793.,0.,0.,10022.,0.512632778101,2.96187827347,117.
6.48,8217.,4.,7.,1792.,0.,0.,10020.,0.504979393989,6.56473212185,52.
6.5,8217.,4.,7.,1792.,0.,0.,10020.,0.502338667035,6.53040267145,52.
6.52,8218.,6.,3.,1795.,0.,0.,10022.,0.504940062994,4.37614721262,78.
6.54,8224.,4.,1.,1797.,0.,0.,10026.,0.512989651062,6.66886546381,52.
6.56,8226.,6.,2.,1795.,0.,0.,10029.,0.525959537545,4.55831599206,78.
6.58,8230.,1.,4.,1794.,0.,0.,10029.,0.544134161281,28.2949763866,13.
6.6,8229.,1.,0.,1795.,0.,0.,10025.,0.566841591008,29.4757627324,13.
6.62,8235.,1.,0.,1789.,0.,0.,10025.,0.594107809309,30.8936060841,13.
6.64,8234.,0.,1.,1788.,0.,0.,10023.,0.62486603888,inf,0.
6.66,8237.,0.,0.,1786.,0.,0.,10023.,0.659190442756,inf,0.
6.68,8238.,1.,0.,1783.,0.,0.,10022.,0.696277144205,36.2064114986,13.
6.7,8240.,0.,0.,1783.,0.,0.,10023.,0.735577225911,inf,0.
6.72,8246.,0.,0.,1780.,0.,0.,10026.,0.776746750111,inf,0.
6.74,8250.,0.,0.,1776.,0.,0.,10026.,0.818990551492,inf,0.
6.76,8257.,0.,0.,1771.,0.,0.,10028.,0.861749127573,inf,0.
6.78,8260.,0.,0.,1766.,0.,0.,10026.,0.904151952676,inf,0.
6.8,8263.,1.,0.,1761.,0.,0.,10025.,0.945513039347,49.1666780461,13.
6.82,8260.,1.,1.,1760.,0.,0.,10022.,0.984752279861,51.2071185528,13.
6.84,8262.,3.,3.,1754.,0.,0.,10022.,1.02203923077,17.7153466666,39.
6.86,8264.,7.,0.,1749.,0.,0.,10020.,1.05670943305,7.84984150267,91.
6.88,8263.,5.,2.,1745.,0.,0.,10015.,1.08795368851,11.3147183605,65.
6.9,8263.,6.,0.,1743.,0.,0.,10012.,1.11525888994,9.66557704619,78.
6.92,8262.,12.,2.,1741.,0.,0.,10017.,1.13723230806,4.92800666824,156.
6.94,8259.,8.,5.,1744.,0.,0.,10016.,1.15493821892,7.507098423,104.
6.96,8250.,14.,6.,1745.,0.,0.,10015.,1.16684962419,4.33401288984,182.
6.98,8239.,19.,14.,1742.,0.,0.,10014.,1.17331655969,3.21118216335,247.
7.,8232.,17.,14.,1752.,0.,0.,10015.,1.17484950117,3.59365729769,221.
7.02,8227.,16.,10.,1766.,0.,0.,10019.,1.17102294595,3.80582457435,208.
7.04,8221.,21.,6.,1771.,0.,0.,10019.,1.16228375379,2.87803596176,273.
7.06,8208.,22.,10.,1778.,0.,0.,10018.,1.14757723222,2.71245527616,286.
7.08,8196.,28.,12.,1784.,0.,0.,10020.,1.12780989486,2.09450409045,364.
7.1,8180.,27.,16.,1799.,0.,0.,10022.,1.1029547293,2.12420910827,351.
7.12,8173.,26.,14.,1812.,0.,0.,10025.,1.07503035518,2.15006071037,338.
7.14,8157.,24.,23.,1820.,0.,0.,10024.,1.04261123776,2.25899101515,312.
7.16,8130.,40.,16.,1838.,0.,0.,10024.,1.00550969368,1.30716260179,520.
7.18,8112.,39.,20.,1853.,0.,0.,10024.,0.966914849557,1.28921979941,507.
7.2,8092.,36.,20.,1877.,0.,0.,10025.,0.925945965678,1.33747750598,468.
7.22,8076.,32.,22.,1893.,0.,0.,10023.,0.884275632251,1.43694790241,416.
7.24,8061.,41.,15.,1908.,0.,0.,10025.,0.841545172382,1.06732558448,533.
7.26,8049.,32.,18.,1927.,0.,0.,10026.,0.79903696351,1.2984350657,416.
7.28,8038.,30.,14.,1944.,0.,0.,10026.,0.757153817293,1.31239994997,390.
7.3,8032.,29.,12.,1954.,0.,0.,10027.,0.716723225684,1.28515888743,377.
7.32,8029.,23.,11.,1963.,0.,0.,10026.,0.678341688042,1.53364207731,299.
7.34,8022.,21.,14.,1966.,0.,0.,10023.,0.6419844278,1.58967572598,273.
7.36,8016.,20.,11.,1973.,0.,0.,10020.,0.60850447488,1.58211163469,260.
7.38,8019.,11.,11.,1982.,0.,0.,10023.,0.578640093075,2.7353895309,143.
7.4,8018.,11.,11.,1985.,0.,0.,10025.,0.552307191238,2.61090672222,143.
7.42,8015.,10.,6.,1994.,0.,0.,10025.,0.530130673928,2.75667950443,130.
7.44,8025.,5.,8.,1993.,0.,0.,10031.,0.513005559515,5.33525781895,65.
7.46,8022.,5.,7.,1996.,0.,0.,10030.,0.500189910396,5.20197506812,65.
7.48,8018.,7.,3.,1997.,0.,0.,10025.,0.492503999896,3.65860114208,91.
7.5,8024.,7.,1.,1996.,0.,0.,10028.,0.490148455108,3.64110280937,91.
7.52,8026.,2.,1.,1999.,0.,0.,10028.,0.49284791259,12.8140457273,26.
7.54,8029.,1.,1.,1995.,0.,0.,10026.,0.500826107536,26.0429575919,13.
7.56,8039.,2.,0.,1986.,0.,0.,10027.,0.514105529175,13.3667437586,26.
7.58,8046.,1.,1.,1986.,0.,0.,10034.,0.531703745746,27.6485947788,13.
7.6,8051.,1.,1.,1980.,0.,0.,10033.,0.55413813881,28.8151832181,13.
7.62,8053.,0.,2.,1978.,0.,0.,10033.,0.580514304475,inf,0.
7.64,8057.,0.,1.,1977.,0.,0.,10035.,0.610702610127,inf,0.
7.66,8056.,0.,0.,1975.,0.,0.,10031.,0.644191208627,inf,0.
7.68,8056.,0.,0.,1973.,0.,0.,10029.,0.680419225711,inf,0.
7.7,8064.,0.,0.,1967.,0.,0.,10031.,0.719291754744,inf,0.
7.72,8066.,1.,0.,1964.,0.,0.,10031.,0.759412605853,39.4894555044,13.
7.74,8072.,0.,1.,1962.,0.,0.,10035.,0.800601537062,inf,0.
7.76,8076.,1.,0.,1958.,0.,0.,10035.,0.842270958627,43.7980898486,13.
7.78,8079.,1.,0.,1954.,0.,0.,10034.,0.883634347708,45.9489860808,13.
7.8,8083.,2.,0.,1949.,0.,0.,10034.,0.924086515841,24.0262494119,26.
7.82,8081.,2.,1.,1948.,0.,0.,10032.,0.962451667562,25.0237433566,26.
7.84,8082.,4.,0.,1945.,0.,0.,10031.,0.998875566281,12.9853823616,52.
7.86,8085.,5.,1.,1939.,0.,0.,10030.,1.03279015299,10.7410175911,65.
7.88,8086.,11.,2.,1936.,0.,0.,10035.,1.06252698824,5.0228548535,143.
7.9,8082.,10.,4.,1937.,0.,0.,10033.,1.08854607405,5.66043958505,130.
7.92,8078.,15.,1.,1940.,0.,0.,10034.,1.11002158636,3.84807483271,195.
7.94,8079.,14.,4.,1936.,0.,0.,10033.,1.12785273956,4.18916731836,182.
7.96,8078.,15.,6.,1936.,0.,0.,10035.,1.14024550209,3.9528510739,195.
7.98,8075.,14.,6.,1941.,0.,0.,10036.,1.14744046849,4.26192174011,182.
8.,8072.,18.,6.,1944.,0.,0.,10040.,1.14914615726,3.31975556541,234.
8.02,8065.,16.,10.,1945.,0.,0.,10036.,1.14601948958,3.72456334115,208.
8.04,8050.,20.,12.,1955.,0.,0.,10037.,1.13606675711,2.95377356849,260.
8.06,8032.,30.,14.,1961.,0.,0.,10037.,1.1208445348,1.94279719365,390.
8.08,8003.,33.,19.,1978.,0.,0.,10033.,1.09982522703,1.73305793351,429.
8.1,7988.,37.,17.,1993.,0.,0.,10035.,1.07567100269,1.51175384162,481.
8.12,7971.,38.,9.,2015.,0.,0.,10033.,1.0476244042,1.43359128996,494.
8.14,7964.,24.,26.,2019.,0.,0.,10033.,1.01702923343,2.20356333909,312.
8.16,7943.,34.,18.,2039.,0.,0.,10034.,0.981402680984,1.50096880621,442.
8.18,7924.,32.,28.,2047.,0.,0.,10031.,0.943846962451,1.53375131398,416.
8.2,7902.,39.,24.,2066.,0.,0.,10031.,0.903663926472,1.2048852353,507.
8.22,7879.,43.,26.,2082.,0.,0.,10030.,0.862103175889,1.04254337549,559.
8.24,7864.,46.,17.,2101.,0.,0.,10028.,0.820733334048,0.927785508054,598.
8.26,7852.,37.,12.,2127.,0.,0.,10028.,0.779325001054,1.09526756905,481.
8.28,7849.,31.,13.,2136.,0.,0.,10029.,0.739129459718,1.23983006146,403.
8.3,7839.,32.,15.,2145.,0.,0.,10031.,0.699222230337,1.1362361243,416.
8.32,7837.,26.,12.,2157.,0.,0.,10032.,0.661724285139,1.32344857028,338.
8.34,7843.,21.,6.,2167.,0.,0.,10037.,0.626783936102,1.5520364132,273.
8.36,7844.,18.,7.,2167.,0.,0.,10036.,0.594498443224,1.71743994709,234.
8.38,7849.,13.,12.,2159.,0.,0.,10033.,0.565808614905,2.26323445962,169.
8.4,7847.,13.,7.,2165.,0.,0.,10032.,0.540150965149,2.1606038606,169.
8.42,7848.,11.,9.,2166.,0.,0.,10034.,0.518619313524,2.45165493666,143.
8.44,7850.,9.,5.,2170.,0.,0.,10034.,0.501668486955,2.89852903574,117.
8.46,7857.,4.,6.,2171.,0.,0.,10038.,0.489511348072,6.36364752494,52.
8.48,7855.,9.,2.,2172.,0.,0.,10038.,0.481866893642,2.78411982993,117.
8.5,7861.,5.,5.,2165.,0.,0.,10036.,0.479808775797,4.99001126829,65.
8.52,7866.,1.,3.,2167.,0.,0.,10037.,0.482589767615,25.094667916,13.
8.54,7868.,2.,1.,2164.,0.,0.,10035.,0.490343222511,12.7489237853,26.
8.56,7871.,1.,1.,2161.,0.,0.,10034.,0.503010530041,26.1565475621,13.
8.58,7872.,0.,1.,2160.,0.,0.,10033.,0.520257154736,inf,0.
8.6,7876.,0.,0.,2157.,0.,0.,10033.,0.542093153803,inf,0.
8.62,7884.,0.,0.,2153.,0.,0.,10037.,0.56810515525,inf,0.
8.64,7884.,0.,0.,2148.,0.,0.,10032.,0.597768301429,inf,0.
8.66,7891.,0.,0.,2144.,0.,0.,10035.,0.63074560501,inf,0.
8.68,7892.,0.,0.,2139.,0.,0.,10031.,0.666434691489,inf,0.
8.7,7893.,1.,0.,2136.,0.,0.,10030.,0.704109109506,36.6136736943,13.
8.72,7904.,1.,0.,2123.,0.,0.,10028.,0.744382956595,38.707913743,13.
8.74,7909.,1.,0.,2119.,0.,0.,10029.,0.784904081443,40.8150122351,13.
8.76,7917.,1.,2.,2112.,0.,0.,10032.,0.825935274405,42.948634269,13.
8.78,7921.,1.,2.,2109.,0.,0.,10033.,0.866439570838,45.0548576836,13.
8.8,7925.,1.,1.,2108.,0.,0.,10035.,0.905932927591,47.1085122347,13.
8.82,7924.,1.,1.,2107.,0.,0.,10033.,0.943658813948,49.0702583253,13.
8.84,7926.,1.,0.,2111.,0.,0.,10038.,0.978911996616,50.903423824,13.
8.86,7924.,4.,0.,2107.,0.,0.,10035.,1.01171942232,13.1523524901,52.
8.88,7924.,6.,2.,2104.,0.,0.,10036.,1.04113590509,9.02317784412,78.
8.9,7917.,9.,2.,2102.,0.,0.,10030.,1.06664154182,6.16281779719,117.
8.92,7910.,11.,3.,2103.,0.,0.,10027.,1.08769502198,5.14183101302,143.
8.94,7914.,11.,3.,2101.,0.,0.,10029.,1.10525889188,5.22486021615,143.
8.96,7919.,10.,10.,2096.,0.,0.,10035.,1.11780194739,5.81257012643,130.
8.98,7919.,14.,6.,2094.,0.,0.,10033.,1.12560966912,4.18083591389,182.
9.,7909.,13.,9.,2102.,0.,0.,10033.,1.12672671581,4.50690686323,169.
9.02,7901.,14.,9.,2108.,0.,0.,10032.,1.12316308917,4.17174861692,182.
9.04,7894.,18.,9.,2110.,0.,0.,10031.,1.1147174184,3.22029476425,234.
9.06,7887.,21.,13.,2108.,0.,0.,10029.,1.10148810718,2.72749436064,273.
9.08,7881.,22.,11.,2114.,0.,0.,10028.,1.08359919713,2.56123446595,286.
9.1,7867.,24.,9.,2126.,0.,0.,10026.,1.06032800465,2.29737734341,312.
9.12,7860.,22.,14.,2127.,0.,0.,10023.,1.03406639686,2.44415693802,286.
9.14,7851.,31.,6.,2140.,0.,0.,10028.,1.00309865803,1.68261710379,403.
9.16,7853.,25.,10.,2143.,0.,0.,10031.,0.970572855977,2.01879154043,325.
9.18,7847.,24.,13.,2148.,0.,0.,10032.,0.9345821353,2.02492795982,312.
9.2,7831.,31.,7.,2158.,0.,0.,10027.,0.895901698677,1.50280284939,403.
9.22,7830.,27.,12.,2165.,0.,0.,10034.,0.856400166179,1.64936328301,351.
9.24,7820.,33.,11.,2173.,0.,0.,10037.,0.815409415648,1.28488756405,429.
9.26,7811.,35.,12.,2182.,0.,0.,10040.,0.774329077535,1.15043177234,455.
9.28,7815.,28.,8.,2191.,0.,0.,10042.,0.73497502212,1.36495361251,364.
9.3,7806.,26.,16.,2197.,0.,0.,10045.,0.695308276815,1.39061655363,338.
9.32,7800.,29.,7.,2208.,0.,0.,10044.,0.657813298181,1.17952729329,377.
9.34,7804.,20.,12.,2209.,0.,0.,10045.,0.623170499822,1.62024329954,260.
9.36,7795.,16.,12.,2218.,0.,0.,10041.,0.590490536511,1.91909424366,208.
9.38,7808.,11.,11.,2220.,0.,0.,10050.,0.561900969895,2.65625913041,143.
9.4,7805.,13.,10.,2222.,0.,0.,10050.,0.536297624088,2.14519049635,169.
9.42,7799.,11.,6.,2231.,0.,0.,10047.,0.514714385592,2.43319527734,143.
9.44,7802.,9.,2.,2233.,0.,0.,10046.,0.498005378424,2.87736440867,117.
9.46,7804.,6.,7.,2227.,0.,0.,10044.,0.48591886387,4.2112968202,78.
9.48,7802.,4.,4.,2233.,0.,0.,10043.,0.478377312516,6.2189050627,52.
9.5,7808.,3.,4.,2227.,0.,0.,10042.,0.476289087213,8.25567751169,39.
9.52,7816.,2.,4.,2223.,0.,0.,10045.,0.479140300593,12.4576478154,26.
9.54,7819.,1.,1.,2222.,0.,0.,10043.,0.486901321093,25.3188686968,13.
9.56,7830.,1.,1.,2214.,0.,0.,10046.,0.499792631769,25.989216852,13.
9.58,7830.,0.,1.,2211.,0.,0.,10042.,0.517017607123,inf,0.
9.6,7834.,1.,1.,2205.,0.,0.,10041.,0.538772756878,28.0161833576,13.
9.62,7835.,3.,1.,2200.,0.,0.,10039.,0.56446183777,9.78400518802,39.
9.64,7841.,4.,0.,2195.,0.,0.,10040.,0.594034311196,7.72244604555,52.
9.66,7842.,4.,1.,2189.,0.,0.,10036.,0.626766465349,8.14796404954,52.
9.68,7839.,8.,0.,2189.,0.,0.,10036.,0.661629349418,4.30059077122,104.
9.7,7848.,2.,7.,2188.,0.,0.,10045.,0.699049366698,18.1752835341,26.
9.72,7855.,0.,0.,2190.,0.,0.,10045.,0.738516262195,inf,0.
9.74,7861.,0.,0.,2185.,0.,0.,10046.,0.778820304848,inf,0.
9.76,7868.,0.,0.,2177.,0.,0.,10045.,0.819761094901,inf,0.
9.78,7871.,0.,0.,2174.,0.,0.,10045.,0.85994177865,inf,0.
9.8,7873.,2.,0.,2170.,0.,0.,10045.,0.899092678996,23.3764096539,26.
9.82,7879.,2.,0.,2165.,0.,0.,10046.,0.937085618273,24.3642260751,26.
9.84,7886.,2.,1.,2160.,0.,0.,10049.,0.972905594449,25.2955454557,26.
9.86,7887.,3.,2.,2154.,0.,0.,10046.,1.00589271841,17.4354737857,39.
9.88,7890.,6.,0.,2151.,0.,0.,10047.,1.03553363746,8.97462485802,78.
9.9,7891.,7.,3.,2148.,0.,0.,10049.,1.06112850012,7.88266885807,91.
9.92,7889.,11.,5.,2142.,0.,0.,10047.,1.0826478709,5.11797175334,143.
9.94,7891.,9.,6.,2141.,0.,0.,10047.,1.10007233752,6.35597350565,117.
9.96,7888.,15.,1.,2146.,0.,0.,10050.,1.11176432991,3.85411634368,195.
9.98,7893.,16.,0.,2141.,0.,0.,10050.,1.12001625424,3.64005282627,208.
10.,7889.,19.,2.,2139.,0.,0.,10049.,1.12208805332,3.07097783013,247.
