t,s,e,i,r,c,o,n,reff,coal,reportr
5.,6201.,26.,1.,3772.,0.,0.,10000.,1.22201760023,2.44403520045,338.
5.02,6202.,22.,8.,3771.,0.,0.,10003.,1.2190953601,2.88149812387,286.
5.04,6202.,24.,13.,3764.,0.,0.,10003.,1.2108805121,2.62357444289,312.
5.06,6193.,27.,12.,3770.,0.,0.,10002.,1.19571515462,2.30285881631,351.
5.08,6186.,25.,12.,3776.,0.,0.,9999.,1.17609639976,2.4462805115,325.
5.1,6182.,29.,11.,3776.,0.,0.,9998.,1.15202671721,2.06570307914,377.
5.12,6168.,32.,16.,3783.,0.,0.,9999.,1.12150007594,1.82243762341,416.
5.14,6153.,34.,17.,3793.,0.,0.,9997.,1.08727179267,1.66288627115,442.
5.16,6146.,37.,20.,3795.,0.,0.,9998.,1.05076137117,1.47674571083,481.
5.18,6122.,42.,22.,3813.,0.,0.,9999.,1.00861634965,1.24876309957,546.
5.2,6112.,40.,19.,3827.,0.,0.,9998.,0.966879305682,1.25694309739,520.
5.22,6111.,28.,26.,3831.,0.,0.,9996.,0.925045329305,1.71794132585,364.
5.24,6095.,35.,18.,3843.,0.,0.,9991.,0.880289547195,1.30785875583,455.
5.26,6081.,35.,22.,3852.,0.,0.,9990.,0.835314574913,1.24103879701,455.
5.28,6071.,43.,19.,3859.,0.,0.,9992.,0.791151258113,0.956741056323,559.
5.3,6069.,33.,23.,3869.,0.,0.,9994.,0.749142587303,1.18046710727,429.
5.32,6060.,32.,19.,3882.,0.,0.,9993.,0.708238265807,1.15088718194,416.
5.34,6056.,21.,22.,3893.,0.,0.,9992.,0.670287172915,1.65975871389,273.
5.36,6056.,16.,13.,3909.,0.,0.,9994.,0.635489254712,2.06534007781,208.
5.38,6054.,18.,8.,3913.,0.,0.,9993.,0.604116181877,1.74522452542,234.
5.4,6055.,15.,3.,3916.,0.,0.,9989.,0.577137192563,2.00074226755,195.
5.42,6067.,10.,6.,3908.,0.,0.,9991.,0.55515815676,2.88682241515,130.
5.44,6072.,4.,13.,3901.,0.,0.,9990.,0.537372498569,6.9858424814,52.
5.46,6070.,8.,3.,3905.,0.,0.,9986.,0.524129051731,3.40683883625,104.
5.48,6079.,7.,5.,3897.,0.,0.,9988.,0.516737050491,3.83861808936,91.
5.5,6089.,2.,6.,3894.,0.,0.,9991.,0.514725826177,13.3828714806,26.
5.52,6094.,4.,3.,3890.,0.,0.,9991.,0.51785656128,6.73213529664,52.
5.54,6100.,0.,0.,3887.,0.,0.,9987.,0.52666673487,inf,0.
5.56,6102.,1.,0.,3881.,0.,0.,9984.,0.54035203679,28.0983059131,13.
5.58,6116.,0.,1.,3871.,0.,0.,9988.,0.559809974406,inf,0.
5.6,6126.,1.,0.,3861.,0.,0.,9988.,0.583963075254,30.3660799132,13.
5.62,6136.,0.,1.,3847.,0.,0.,9984.,0.6128507449,inf,0.
5.64,6144.,0.,0.,3841.,0.,0.,9985.,0.645304699679,inf,0.
5.66,6149.,1.,1.,3832.,0.,0.,9983.,0.681194118111,35.4220941418,13.
5.68,6159.,1.,0.,3820.,0.,0.,9980.,0.720746121198,37.4787983023,13.
5.7,6169.,2.,1.,3809.,0.,0.,9981.,0.762478160589,19.8244321753,26.
5.72,6183.,2.,1.,3796.,0.,0.,9982.,0.806553901838,20.9704014478,26.
5.74,6193.,1.,3.,3786.,0.,0.,9983.,0.851295921909,44.2673879393,13.
5.76,6195.,2.,3.,3782.,0.,0.,9982.,0.895539072957,23.2840158969,26.
5.78,6203.,3.,1.,3777.,0.,0.,9984.,0.940100291248,16.295071715,39.
5.8,6205.,4.,0.,3773.,0.,0.,9982.,0.983164689002,12.781140957,52.
5.82,6219.,2.,0.,3763.,0.,0.,9984.,1.02613672565,26.679554867,26.
5.84,6227.,4.,1.,3754.,0.,0.,9986.,1.06588899697,13.8565569606,52.
5.86,6228.,7.,3.,3747.,0.,0.,9985.,1.10184735354,8.18515176912,91.
5.88,6229.,9.,5.,3743.,0.,0.,9986.,1.13406586839,6.55238057294,117.
5.9,6223.,12.,5.,3745.,0.,0.,9985.,1.16117697231,5.03176688001,156.
5.92,6228.,14.,4.,3741.,0.,0.,9987.,1.18550428277,4.40330162171,182.
5.94,6235.,11.,7.,3739.,0.,0.,9992.,1.20502910416,5.69650121965,143.
5.96,6227.,8.,8.,3747.,0.,0.,9990.,1.21734359234,7.91273335022,104.
5.98,6223.,13.,6.,3748.,0.,0.,9990.,1.22481500446,4.89926001785,169.
6.,6227.,12.,5.,3747.,0.,0.,9991.,1.22824678586,5.32240273871,156.
6.02,6223.,13.,8.,3745.,0.,0.,9989.,1.22493762084,4.89975048336,169.
6.04,6224.,13.,8.,3746.,0.,0.,9991.,1.21663532384,4.86654129537,169.
6.06,6222.,19.,8.,3746.,0.,0.,9995.,1.20215567819,3.29011027716,247.
6.08,6224.,14.,15.,3742.,0.,0.,9995.,1.18379461145,4.39695141396,182.
6.1,6208.,21.,19.,3745.,0.,0.,9993.,1.15745070467,2.86606841156,273.
6.12,6197.,28.,21.,3751.,0.,0.,9997.,1.12699843952,2.09299710196,364.
6.14,6177.,33.,19.,3768.,0.,0.,9997.,1.09151273579,1.71995946246,429.
6.16,6163.,38.,17.,3778.,0.,0.,9996.,1.05387862305,1.4421496947,494.
6.18,6154.,36.,18.,3788.,0.,0.,9996.,1.01419272597,1.46494504863,468.
6.2,6146.,28.,19.,3802.,0.,0.,9995.,0.972549711486,1.8061637499,364.
6.22,6131.,31.,15.,3818.,0.,0.,9995.,0.928165659135,1.55692304113,403.
6.24,6123.,31.,14.,3826.,0.,0.,9994.,0.884068075935,1.48295290157,403.
6.26,6125.,21.,16.,3829.,0.,0.,9991.,0.841274408861,2.08315567909,273.
6.28,6111.,28.,11.,3840.,0.,0.,9990.,0.796523348923,1.479257648,364.
6.3,6110.,25.,14.,3840.,0.,0.,9989.,0.754581044536,1.56952857264,325.
6.32,6109.,24.,8.,3851.,0.,0.,9992.,0.714036398512,1.54707886344,312.
6.34,6109.,19.,10.,3858.,0.,0.,9996.,0.675882722949,1.84978429439,247.
6.36,6107.,19.,11.,3858.,0.,0.,9995.,0.640776847935,1.75370505751,247.
6.38,6103.,23.,11.,3858.,0.,0.,9995.,0.608883928792,1.37660714336,299.
6.4,6106.,18.,6.,3867.,0.,0.,9997.,0.581532560202,1.67998295169,234.
6.42,6110.,13.,9.,3865.,0.,0.,9997.,0.558757296399,2.2350291856,169.
6.44,6116.,9.,6.,3867.,0.,0.,9998.,0.54083340236,3.12481521364,117.
6.46,6125.,9.,4.,3862.,0.,0.,10000.,0.528137732329,3.05146245345,117.
6.48,6135.,7.,5.,3850.,0.,0.,9997.,0.521027765246,3.8704919704,91.
6.5,6136.,4.,2.,3850.,0.,0.,9992.,0.518646999636,6.74241099527,52.
6.52,6145.,5.,2.,3838.,0.,0.,9990.,0.522242715862,5.43132424497,65.
6.54,6161.,6.,1.,3826.,0.,0.,9994.,0.531560825291,4.60686048586,78.
6.56,6169.,2.,5.,3819.,0.,0.,9995.,0.545683891473,14.1877811783,26.
6.58,6176.,3.,0.,3819.,0.,0.,9998.,0.564736482001,9.78876568801,39.
6.6,6185.,2.,2.,3807.,0.,0.,9996.,0.589115412162,15.3170007162,26.
6.62,6191.,2.,1.,3799.,0.,0.,9993.,0.617787129501,16.062465367,26.
6.64,6202.,4.,0.,3789.,0.,0.,9995.,0.650744720958,8.45968137246,52.
6.66,6209.,4.,0.,3782.,0.,0.,9995.,0.687015173073,8.93119724995,52.
6.68,6213.,1.,0.,3777.,0.,0.,9991.,0.726264883679,37.7657739513,13.
6.7,6223.,0.,0.,3769.,0.,0.,9992.,0.768305725845,inf,0.
6.72,6237.,0.,0.,3758.,0.,0.,9995.,0.812539834162,inf,0.
6.74,6248.,0.,0.,3748.,0.,0.,9996.,0.857739316512,inf,0.
6.76,6258.,0.,0.,3736.,0.,0.,9994.,0.903560022734,inf,0.
6.78,6260.,0.,0.,3729.,0.,0.,9989.,0.948264076894,inf,0.
6.8,6271.,1.,0.,3718.,0.,0.,9990.,0.992826508758,51.6269784554,13.
6.82,6275.,4.,0.,3709.,0.,0.,9988.,1.03496209292,13.4545072079,52.
6.84,6280.,2.,2.,3704.,0.,0.,9988.,1.07474587055,27.9433926343,26.
6.86,6283.,6.,3.,3696.,0.,0.,9988.,1.11124398763,9.63078122611,78.
6.88,6289.,7.,2.,3690.,0.,0.,9988.,1.14476033143,8.50393389066,91.
6.9,6295.,9.,2.,3682.,0.,0.,9988.,1.17425896245,6.78460733863,117.
6.92,6299.,9.,4.,3672.,0.,0.,9984.,1.19937946608,6.92974802624,117.
6.94,6302.,12.,3.,3669.,0.,0.,9986.,1.21870990512,5.28107625553,156.
6.96,6306.,10.,7.,3664.,0.,0.,9987.,1.23315796719,6.41242142937,130.
6.98,6302.,17.,5.,3662.,0.,0.,9986.,1.24086067819,3.79557383916,221.
7.,6301.,18.,5.,3657.,0.,0.,9981.,1.24408815049,3.59403243475,234.
7.02,6308.,14.,10.,3651.,0.,0.,9983.,1.24241532236,4.61468548305,182.
7.04,6302.,20.,6.,3656.,0.,0.,9984.,1.23274605993,3.20513975581,260.
7.06,6304.,15.,12.,3655.,0.,0.,9986.,1.21909667437,4.22620180449,195.
7.08,6288.,27.,7.,3664.,0.,0.,9986.,1.19704518629,2.30542035879,351.
7.1,6284.,28.,10.,3666.,0.,0.,9988.,1.17220704052,2.17695593239,364.
7.12,6280.,26.,18.,3663.,0.,0.,9987.,1.14323656014,2.28647312027,338.
7.14,6271.,29.,18.,3670.,0.,0.,9988.,1.10912160535,1.98876977511,377.
7.16,6255.,34.,17.,3682.,0.,0.,9988.,1.07046742361,1.63718547141,442.
7.18,6239.,30.,16.,3701.,0.,0.,9986.,1.02923055521,1.78399962903,390.
7.2,6231.,32.,11.,3710.,0.,0.,9984.,0.987086542119,1.60401563094,416.
7.22,6222.,28.,15.,3719.,0.,0.,9984.,0.942979850418,1.75124829363,364.
7.24,6212.,37.,15.,3723.,0.,0.,9987.,0.897546982427,1.26141738071,481.
7.26,6200.,34.,23.,3728.,0.,0.,9985.,0.85208744116,1.30319255707,442.
7.28,6183.,31.,28.,3744.,0.,0.,9986.,0.806230827974,1.35238719531,403.
7.3,6171.,35.,24.,3755.,0.,0.,9985.,0.762419808804,1.13273800165,455.
7.32,6162.,28.,22.,3773.,0.,0.,9985.,0.720736100681,1.33850990126,364.
7.34,6156.,29.,17.,3787.,0.,0.,9989.,0.681559954754,1.22210750508,377.
7.36,6155.,21.,9.,3802.,0.,0.,9987.,0.646330570054,1.60043760204,273.
7.38,6154.,22.,6.,3807.,0.,0.,9989.,0.614340884253,1.45207845369,286.
7.4,6157.,19.,7.,3809.,0.,0.,9992.,0.58668320578,1.60565930003,247.
7.42,6164.,16.,6.,3806.,0.,0.,9992.,0.563977650371,1.83292736371,208.
7.44,6167.,10.,8.,3809.,0.,0.,9994.,0.545561563301,2.83692012917,130.
7.46,6171.,10.,2.,3810.,0.,0.,9993.,0.532476888303,2.76887981918,130.
7.48,6177.,6.,5.,3803.,0.,0.,9991.,0.524909743851,4.54921778004,78.
7.5,6180.,2.,6.,3804.,0.,0.,9992.,0.522366111107,13.5815188888,26.
7.52,6188.,1.,2.,3798.,0.,0.,9989.,0.525949787701,27.3493889604,13.
7.54,6195.,0.,2.,3793.,0.,0.,9990.,0.534708300427,inf,0.
7.56,6206.,1.,0.,3786.,0.,0.,9993.,0.549066624699,28.5514644844,13.
7.58,6214.,0.,1.,3778.,0.,0.,9993.,0.568495525341,inf,0.
7.6,6219.,1.,0.,3769.,0.,0.,9989.,0.592768984402,30.8239871889,13.
7.62,6221.,0.,1.,3767.,0.,0.,9989.,0.621029353418,inf,0.
7.64,6230.,0.,0.,3759.,0.,0.,9989.,0.654075261854,inf,0.
7.66,6236.,0.,1.,3751.,0.,0.,9988.,0.690486258816,inf,0.
7.68,6243.,2.,0.,3745.,0.,0.,9990.,0.729844765787,18.9759639105,26.
7.7,6251.,4.,1.,3735.,0.,0.,9991.,0.771839915282,10.0339188987,52.
7.72,6257.,1.,3.,3729.,0.,0.,9990.,0.81555336184,42.4087748157,13.
7.74,6264.,1.,1.,3720.,0.,0.,9986.,0.860796973477,44.7614426208,13.
7.76,6269.,1.,0.,3713.,0.,0.,9983.,0.906145614027,47.1195719294,13.
7.78,6275.,1.,0.,3709.,0.,0.,9985.,0.950917060849,49.4476871642,13.
7.8,6284.,2.,1.,3701.,0.,0.,9988.,0.99508388846,25.8721811,26.
7.82,6286.,1.,5.,3695.,0.,0.,9987.,1.03688018169,53.9177694478,13.
7.84,6290.,9.,3.,3684.,0.,0.,9986.,1.07667284261,6.22077642395,117.
7.86,6300.,12.,1.,3676.,0.,0.,9989.,1.11413914808,4.82793630836,156.
7.88,6302.,9.,8.,3668.,0.,0.,9987.,1.14724152898,6.62850661187,117.
7.9,6303.,10.,3.,3665.,0.,0.,9981.,1.17657586193,6.11819448204,130.
7.92,6309.,11.,4.,3661.,0.,0.,9985.,1.20116323643,5.67822620856,143.
7.94,6312.,14.,3.,3658.,0.,0.,9987.,1.2205215281,4.53336567581,182.
7.96,6312.,18.,3.,3657.,0.,0.,9990.,1.23396061584,3.56477511244,234.
7.98,6312.,17.,4.,3656.,0.,0.,9989.,1.24245641375,3.80045491264,221.
8.,6309.,12.,9.,3658.,0.,0.,9988.,1.24479467924,5.39411027672,156.
8.02,6297.,16.,12.,3662.,0.,0.,9987.,1.23975203165,4.02919410287,208.
8.04,6290.,25.,10.,3662.,0.,0.,9987.,1.23002911729,2.55846056395,325.
8.06,6289.,23.,15.,3661.,0.,0.,9988.,1.21595237358,2.74910971418,299.
8.08,6285.,25.,12.,3666.,0.,0.,9988.,1.19623449463,2.48816774884,325.
8.1,6273.,34.,13.,3669.,0.,0.,9989.,1.17003797421,1.78946984291,442.
8.12,6267.,41.,15.,3664.,0.,0.,9987.,1.14086998764,1.44695705749,533.
8.14,6262.,36.,10.,3680.,0.,0.,9988.,1.10752981864,1.59976529359,468.
8.16,6255.,37.,20.,3675.,0.,0.,9987.,1.0705746097,1.50459134336,481.
8.18,6232.,44.,23.,3693.,0.,0.,9992.,1.02745844525,1.21426907166,572.
8.2,6224.,42.,22.,3707.,0.,0.,9995.,0.984892516155,1.21939073429,546.
8.22,6211.,36.,17.,3729.,0.,0.,9993.,0.940464962309,1.35844939,468.
8.24,6210.,22.,23.,3736.,0.,0.,9991.,0.896898783935,2.11994258021,286.
8.26,6202.,28.,19.,3744.,0.,0.,9993.,0.851679940573,1.58169131821,364.
8.28,6179.,43.,11.,3759.,0.,0.,9992.,0.805225436317,0.973760992755,559.
8.3,6183.,30.,23.,3761.,0.,0.,9997.,0.762985436762,1.32250809039,390.
8.32,6175.,27.,16.,3779.,0.,0.,9997.,0.721389672918,1.38934307377,351.
8.34,6177.,18.,17.,3786.,0.,0.,9998.,0.683269344755,1.97388921818,234.
8.36,6170.,18.,14.,3796.,0.,0.,9998.,0.647192866637,1.8696682814,234.
8.38,6182.,16.,2.,3800.,0.,0.,10000.,0.616457215725,2.00348595111,208.
8.4,6187.,12.,6.,3797.,0.,0.,10002.,0.588952397431,2.55212705554,156.
8.42,6193.,8.,10.,3791.,0.,0.,10002.,0.56606449928,3.67941924532,104.
8.44,6202.,9.,7.,3786.,0.,0.,10004.,0.548109387979,3.16685424166,117.
8.46,6202.,9.,8.,3784.,0.,0.,10003.,0.534616793068,3.08889702662,117.
8.48,6210.,4.,2.,3787.,0.,0.,10003.,0.527080954353,6.85205240659,52.
8.5,6219.,4.,2.,3776.,0.,0.,10001.,0.525189547242,6.82746411415,52.
8.52,6224.,2.,1.,3772.,0.,0.,9999.,0.528480549416,13.7404942848,26.
8.54,6233.,1.,2.,3765.,0.,0.,10001.,0.537396462085,27.9446160284,13.
8.56,6239.,0.,0.,3764.,0.,0.,10003.,0.55143442994,inf,0.
8.58,6257.,0.,0.,3752.,0.,0.,10009.,0.571514370332,inf,0.
8.6,6270.,0.,0.,3740.,0.,0.,10010.,0.59637632098,inf,0.
8.62,6274.,0.,0.,3735.,0.,0.,10009.,0.625068717911,inf,0.
8.64,6276.,1.,0.,3731.,0.,0.,10008.,0.657653791801,34.1979971736,13.
8.66,6285.,0.,1.,3724.,0.,0.,10010.,0.694382347815,inf,0.
8.68,6291.,0.,0.,3721.,0.,0.,10012.,0.733840193969,inf,0.
8.7,6298.,1.,0.,3713.,0.,0.,10012.,0.776012129459,40.3526307319,13.
8.72,6310.,0.,1.,3702.,0.,0.,10013.,0.820572311692,inf,0.
8.74,6320.,2.,0.,3689.,0.,0.,10011.,0.866323630972,22.5244144053,26.
8.76,6326.,1.,1.,3681.,0.,0.,10009.,0.912009353198,47.4244863663,13.
8.78,6334.,1.,0.,3674.,0.,0.,10009.,0.957556366668,49.7929310668,13.
8.8,6339.,1.,2.,3667.,0.,0.,10009.,1.00168717741,52.0877332252,13.
8.82,6345.,3.,0.,3664.,0.,0.,10012.,1.04399887914,18.0959805718,39.
8.84,6356.,5.,0.,3653.,0.,0.,10014.,1.08492814701,11.283252729,65.
8.86,6361.,5.,5.,3646.,0.,0.,10017.,1.12178239499,11.6665369079,65.
8.88,6366.,6.,1.,3645.,0.,0.,10018.,1.15530623615,10.0126540466,78.
8.9,6368.,6.,3.,3642.,0.,0.,10019.,1.18420082948,10.2630738555,78.
8.92,6364.,9.,6.,3639.,0.,0.,10018.,1.20764341294,6.97749527477,117.
8.94,6370.,10.,4.,3636.,0.,0.,10020.,1.22768009533,6.38393649571,130.
8.96,6372.,13.,4.,3631.,0.,0.,10020.,1.24196066788,4.96784267151,169.
8.98,6367.,11.,9.,3627.,0.,0.,10014.,1.25015380785,5.90981800076,143.
9.,6358.,19.,7.,3628.,0.,0.,10012.,1.25145550259,3.42503611235,247.
9.02,6358.,21.,8.,3626.,0.,0.,10013.,1.24851134383,3.09155189901,273.
9.04,6360.,22.,12.,3620.,0.,0.,10014.,1.24036449213,2.93177061775,286.
9.06,6353.,24.,9.,3631.,0.,0.,10017.,1.22477040976,2.65366922114,312.
9.08,6344.,26.,11.,3635.,0.,0.,10016.,1.2040885641,2.40817712821,338.
9.1,6336.,30.,11.,3639.,0.,0.,10016.,1.17860298191,2.04291183531,390.
9.12,6321.,35.,9.,3648.,0.,0.,10013.,1.14771242907,1.70517275176,455.
9.14,6304.,44.,9.,3655.,0.,0.,10012.,1.11228546427,1.31451918505,572.
9.16,6303.,33.,16.,3659.,0.,0.,10011.,1.0762037991,1.6958362895,429.
9.18,6298.,40.,12.,3663.,0.,0.,10013.,1.0361620621,1.34701068073,520.
9.2,6284.,35.,18.,3674.,0.,0.,10011.,0.992797710313,1.47501374104,455.
9.22,6277.,34.,13.,3689.,0.,0.,10013.,0.948560183533,1.45073910423,442.
9.24,6270.,35.,15.,3695.,0.,0.,10015.,0.903394373084,1.34218592572,455.
9.26,6259.,29.,22.,3703.,0.,0.,10013.,0.857790593403,1.53810727093,377.
9.28,6249.,30.,7.,3725.,0.,0.,10011.,0.812802028554,1.40885684949,390.
9.3,6251.,21.,11.,3728.,0.,0.,10011.,0.770297931633,1.90740440214,273.
9.32,6252.,21.,11.,3724.,0.,0.,10008.,0.729582357856,1.80658488612,273.
9.34,6260.,17.,9.,3726.,0.,0.,10012.,0.691482127703,2.11512180239,221.
9.36,6259.,15.,6.,3730.,0.,0.,10010.,0.65574134071,2.27323664779,195.
9.38,6266.,12.,6.,3728.,0.,0.,10012.,0.624084633498,2.70436674516,156.
9.4,6277.,9.,4.,3724.,0.,0.,10014.,0.596803648888,3.44819886024,117.
9.42,6282.,10.,2.,3721.,0.,0.,10015.,0.573454107216,2.98196135752,130.
9.44,6288.,6.,1.,3718.,0.,0.,10013.,0.555210254458,4.8118222053,78.
9.46,6294.,3.,3.,3711.,0.,0.,10011.,0.542113697345,9.39663742065,39.
9.48,6304.,2.,1.,3706.,0.,0.,10013.,0.534524948765,13.8976486679,26.
9.5,6311.,4.,0.,3696.,0.,0.,10011.,0.532426499972,6.92154449963,52.
9.52,6321.,0.,1.,3689.,0.,0.,10011.,0.536073477963,inf,0.
9.54,6328.,0.,2.,3679.,0.,0.,10009.,0.545151089762,inf,0.
9.56,6331.,1.,0.,3678.,0.,0.,10010.,0.559174551264,29.0770766657,13.
9.58,6339.,1.,1.,3670.,0.,0.,10011.,0.578888576596,30.102205983,13.
9.6,6346.,2.,1.,3667.,0.,0.,10016.,0.603243540331,15.6843320486,26.
9.62,6356.,1.,1.,3659.,0.,0.,10017.,0.632732517636,32.9020909171,13.
9.64,6362.,0.,0.,3657.,0.,0.,10019.,0.665933677284,inf,0.
9.66,6366.,1.,0.,3653.,0.,0.,10020.,0.70262950062,36.5367340322,13.
9.68,6372.,0.,0.,3646.,0.,0.,10018.,0.742843608199,inf,0.
9.7,6381.,1.,0.,3638.,0.,0.,10020.,0.785611292207,40.8517871948,13.
9.72,6387.,0.,1.,3631.,0.,0.,10019.,0.830088228363,inf,0.
9.74,6399.,0.,0.,3622.,0.,0.,10021.,0.876277361843,inf,0.
9.76,6407.,0.,0.,3613.,0.,0.,10020.,0.922672966661,inf,0.
9.78,6420.,0.,0.,3603.,0.,0.,10023.,0.969201942998,inf,0.
9.8,6427.,0.,0.,3591.,0.,0.,10018.,1.01468052384,inf,0.
9.82,6437.,2.,0.,3579.,0.,0.,10018.,1.05850211148,27.5210548986,26.
9.84,6447.,3.,1.,3567.,0.,0.,10018.,1.10002186566,19.0670456714,39.
9.86,6452.,6.,1.,3559.,0.,0.,10018.,1.13771695315,9.86021359393,78.
9.88,6457.,3.,2.,3556.,0.,0.,10018.,1.17182098128,20.3115636755,39.
9.9,6460.,4.,2.,3551.,0.,0.,10017.,1.20154911265,15.6201384645,52.
9.92,6469.,5.,3.,3540.,0.,0.,10017.,1.22769093919,12.7679857676,65.
9.94,6465.,12.,5.,3535.,0.,0.,10017.,1.24636245854,5.40090398699,156.
9.96,6469.,10.,7.,3532.,0.,0.,10018.,1.26111856906,6.55781655914,130.
9.98,6467.,9.,9.,3534.,0.,0.,10019.,1.26915501319,7.33289563178,117.
10.,6461.,18.,5.,3537.,0.,0.,10021.,1.27058700275,3.67058467461,234.
