t,s,e,i,r,c,o,n,reff,coal,reportr
5.,6118.,29.,1.,3851.,0.,0.,9999.,1.13552544949,2.03611459909,377.
5.02,6128.,24.,7.,3844.,0.,0.,10003.,1.13436524323,2.45779136033,312.
5.04,6129.,19.,16.,3843.,0.,0.,10007.,1.12645476499,3.0829288305,247.
5.06,6117.,25.,14.,3853.,0.,0.,10009.,1.11144898428,2.31181388729,325.
5.08,6111.,31.,7.,3856.,0.,0.,10005.,1.09348543387,1.83423363101,403.
5.1,6105.,25.,19.,3855.,0.,0.,10004.,1.07074709873,2.22715396537,325.
5.12,6090.,35.,10.,3869.,0.,0.,10004.,1.04227749017,1.54852655682,455.
5.14,6080.,32.,25.,3867.,0.,0.,10004.,1.01106489755,1.64298045851,416.
5.16,6072.,33.,13.,3892.,0.,0.,10010.,0.976451324254,1.53865057155,429.
5.18,6055.,37.,18.,3899.,0.,0.,10009.,0.938514406139,1.31899321944,481.
5.2,6058.,32.,23.,3900.,0.,0.,10013.,0.90114638114,1.46436286935,416.
5.22,6045.,39.,19.,3908.,0.,0.,10011.,0.860446872728,1.14726249697,507.
5.24,6038.,38.,20.,3917.,0.,0.,10013.,0.819441443522,1.12134092271,494.
5.26,6028.,37.,13.,3935.,0.,0.,10013.,0.777996798379,1.09340090583,481.
5.28,6021.,31.,20.,3941.,0.,0.,10013.,0.737368133296,1.23687557843,403.
5.3,6027.,25.,18.,3946.,0.,0.,10016.,0.699071839709,1.45406942659,325.
5.32,6023.,30.,13.,3950.,0.,0.,10016.,0.661377531134,1.14638772063,390.
5.34,6010.,27.,14.,3961.,0.,0.,10012.,0.625186133251,1.20406218256,351.
5.36,6000.,27.,14.,3970.,0.,0.,10011.,0.591920958399,1.13999591988,351.
5.38,6002.,14.,11.,3982.,0.,0.,10009.,0.563128463975,2.09162000905,182.
5.4,6004.,15.,9.,3983.,0.,0.,10011.,0.53774748592,1.86419128452,195.
5.42,6013.,11.,7.,3982.,0.,0.,10013.,0.517019490227,2.44409213562,143.
5.44,6013.,9.,9.,3983.,0.,0.,10014.,0.499943604321,2.88856304719,117.
5.46,6020.,7.,7.,3982.,0.,0.,10016.,0.488058091138,3.62557439131,91.
5.48,6027.,4.,5.,3981.,0.,0.,10017.,0.481069416785,6.25390241821,52.
5.5,6027.,3.,4.,3981.,0.,0.,10015.,0.478649291478,8.29658771896,39.
5.52,6036.,4.,2.,3974.,0.,0.,10016.,0.481835890055,6.26386657072,52.
5.54,6044.,4.,2.,3966.,0.,0.,10016.,0.490003837681,6.37004988985,52.
5.56,6051.,2.,2.,3960.,0.,0.,10015.,0.503052833355,13.0793736672,26.
5.58,6060.,1.,1.,3949.,0.,0.,10011.,0.521164817872,27.1005705294,13.
5.6,6061.,1.,0.,3944.,0.,0.,10006.,0.543123947155,28.242445252,13.
5.62,6069.,2.,0.,3940.,0.,0.,10011.,0.569300878639,14.8018228446,26.
5.64,6072.,2.,1.,3933.,0.,0.,10008.,0.599203573452,15.5792929098,26.
5.66,6082.,1.,2.,3924.,0.,0.,10009.,0.632865516028,32.9090068335,13.
5.68,6090.,0.,1.,3917.,0.,0.,10008.,0.669269271163,inf,0.
5.7,6097.,2.,1.,3907.,0.,0.,10007.,0.707827167791,18.4035063626,26.
5.72,6104.,1.,4.,3895.,0.,0.,10004.,0.748205326614,38.9066769839,13.
5.74,6107.,3.,1.,3889.,0.,0.,10000.,0.789217492051,13.6797698622,39.
5.76,6118.,3.,1.,3880.,0.,0.,10002.,0.831211713444,14.4076696997,39.
5.78,6122.,1.,2.,3875.,0.,0.,10000.,0.872365620541,45.3630122681,13.
5.8,6128.,1.,2.,3871.,0.,0.,10002.,0.912561613817,47.4532039185,13.
5.82,6140.,1.,3.,3859.,0.,0.,10003.,0.952260099725,49.5175251857,13.
5.84,6151.,0.,4.,3850.,0.,0.,10005.,0.989649814022,inf,0.
5.86,6156.,6.,2.,3844.,0.,0.,10008.,1.02329405481,8.86854847499,78.
5.88,6164.,4.,2.,3838.,0.,0.,10008.,1.05452063452,13.7087682488,52.
5.9,6171.,5.,4.,3830.,0.,0.,10010.,1.08167399814,11.2494095807,65.
5.92,6171.,7.,2.,3829.,0.,0.,10009.,1.10378037638,8.19951136736,91.
5.94,6177.,4.,3.,3825.,0.,0.,10009.,1.12235088702,14.5905615312,52.
5.96,6177.,8.,5.,3822.,0.,0.,10012.,1.13470977283,7.37561352338,104.
5.98,6171.,12.,6.,3821.,0.,0.,10010.,1.14152622285,4.94661363236,156.
6.,6171.,17.,4.,3820.,0.,0.,10012.,1.14387527645,3.49891261032,221.
6.02,6171.,18.,6.,3817.,0.,0.,10012.,1.14129819125,3.2970836636,234.
6.04,6180.,17.,6.,3816.,0.,0.,10019.,1.13446769476,3.4701364781,221.
6.06,6189.,15.,11.,3810.,0.,0.,10025.,1.12273650444,3.8921532154,195.
6.08,6180.,18.,16.,3812.,0.,0.,10026.,1.10351587775,3.18793475795,234.
6.1,6156.,35.,9.,3823.,0.,0.,10023.,1.07764520758,1.60107287983,455.
6.12,6152.,31.,22.,3821.,0.,0.,10026.,1.05057817752,1.76226016874,403.
6.14,6137.,31.,17.,3841.,0.,0.,10026.,1.01830425735,1.70812327039,403.
6.16,6129.,37.,13.,3845.,0.,0.,10024.,0.984241055412,1.3832576995,481.
6.18,6126.,39.,10.,3847.,0.,0.,10022.,0.948287616515,1.26438348869,507.
6.2,6117.,29.,15.,3861.,0.,0.,10022.,0.909105682185,1.63012053357,377.
6.22,6112.,28.,15.,3870.,0.,0.,10025.,0.868768730371,1.61342764212,364.
6.24,6103.,31.,12.,3881.,0.,0.,10027.,0.827106411279,1.38740430279,403.
6.26,6104.,33.,9.,3880.,0.,0.,10026.,0.786784158384,1.23978109806,429.
6.28,6103.,27.,16.,3878.,0.,0.,10024.,0.74659016708,1.43787735882,351.
6.3,6098.,26.,14.,3882.,0.,0.,10020.,0.707024772865,1.41404954573,338.
6.32,6090.,28.,14.,3888.,0.,0.,10020.,0.668467751077,1.24144010914,364.
6.34,6087.,26.,14.,3893.,0.,0.,10020.,0.632690459794,1.26538091959,338.
6.36,6087.,22.,8.,3902.,0.,0.,10019.,0.600024320281,1.41823930248,286.
6.38,6086.,16.,15.,3898.,0.,0.,10015.,0.570667542772,1.85466951401,208.
6.4,6091.,20.,7.,3897.,0.,0.,10015.,0.545321740685,1.41783652578,260.
6.42,6096.,13.,6.,3898.,0.,0.,10013.,0.524156130455,2.09662452182,169.
6.44,6097.,10.,5.,3901.,0.,0.,10013.,0.506978309565,2.63628720974,130.
6.46,6099.,7.,3.,3900.,0.,0.,10009.,0.494808652931,3.67572142178,91.
6.48,6102.,7.,4.,3892.,0.,0.,10005.,0.487640020493,3.62246872366,91.
6.5,6108.,5.,1.,3887.,0.,0.,10001.,0.485761156282,5.05191602533,65.
6.52,6122.,2.,2.,3877.,0.,0.,10003.,0.489336134519,12.7227394975,26.
6.54,6130.,2.,1.,3871.,0.,0.,10004.,0.497572228988,12.9368779537,26.
6.56,6137.,2.,0.,3861.,0.,0.,10000.,0.510967788987,13.2851625137,26.
6.58,6142.,1.,1.,3854.,0.,0.,9998.,0.528903702376,27.5029925236,13.
6.6,6151.,3.,0.,3846.,0.,0.,10000.,0.551519526842,9.55967179859,39.
6.62,6158.,0.,3.,3840.,0.,0.,10001.,0.578227090942,inf,0.
6.64,6167.,2.,0.,3835.,0.,0.,10004.,0.608821798723,15.8293667668,26.
6.66,6179.,1.,1.,3823.,0.,0.,10004.,0.64328024988,33.4505729937,13.
6.68,6190.,4.,0.,3811.,0.,0.,10005.,0.680462890054,8.8460175707,52.
6.7,6196.,2.,3.,3799.,0.,0.,10000.,0.719824031429,18.7154248172,26.
6.72,6203.,1.,4.,3793.,0.,0.,10001.,0.760568452991,39.5495595555,13.
6.74,6211.,2.,4.,3784.,0.,0.,10001.,0.802577322606,20.8670103878,26.
6.76,6218.,5.,2.,3777.,0.,0.,10002.,0.844798044164,8.78589965931,65.
6.78,6226.,5.,3.,3766.,0.,0.,10000.,0.887185291324,9.22672702977,65.
6.8,6236.,2.,3.,3762.,0.,0.,10003.,0.928551782149,24.1423463359,26.
6.82,6238.,7.,3.,3754.,0.,0.,10002.,0.967555765986,7.18755711875,91.
6.84,6253.,6.,4.,3739.,0.,0.,10002.,1.0063626077,8.72180926671,78.
6.86,6257.,6.,3.,3737.,0.,0.,10003.,1.04060287788,9.01855827499,78.
6.88,6260.,8.,4.,3730.,0.,0.,10002.,1.07158649572,6.96531222218,104.
6.9,6268.,8.,4.,3721.,0.,0.,10001.,1.09966520006,7.14782380041,104.
6.92,6276.,7.,2.,3718.,0.,0.,10003.,1.12323461205,8.34402854668,91.
6.94,6279.,7.,7.,3709.,0.,0.,10002.,1.14168258087,8.48107060072,91.
6.96,6276.,11.,3.,3711.,0.,0.,10001.,1.15416404944,5.4560482337,143.
6.98,6280.,10.,7.,3707.,0.,0.,10004.,1.16238603638,6.04440738918,130.
7.,6279.,13.,11.,3701.,0.,0.,10004.,1.1648252273,4.6593009092,169.
7.02,6276.,10.,16.,3703.,0.,0.,10005.,1.1615295566,6.0399536943,130.
7.04,6271.,19.,10.,3706.,0.,0.,10006.,1.15266826684,3.15467104608,247.
7.06,6262.,27.,12.,3705.,0.,0.,10006.,1.13813638312,2.1919663675,351.
7.08,6251.,26.,13.,3712.,0.,0.,10002.,1.11887214046,2.23774428091,338.
7.1,6248.,26.,17.,3709.,0.,0.,10000.,1.09626599247,2.19253198494,338.
7.12,6230.,28.,22.,3715.,0.,0.,9995.,1.06719798639,1.98193911758,364.
7.14,6219.,33.,19.,3722.,0.,0.,9993.,1.03531809814,1.63141033647,429.
7.16,6215.,34.,14.,3729.,0.,0.,9992.,1.0012479063,1.53132032728,442.
7.18,6203.,36.,22.,3732.,0.,0.,9993.,0.962993551416,1.39099068538,468.
7.2,6187.,32.,22.,3751.,0.,0.,9992.,0.922269785219,1.49868840098,416.
7.22,6174.,40.,12.,3769.,0.,0.,9995.,0.880215563715,1.14428023283,520.
7.24,6181.,29.,13.,3771.,0.,0.,9994.,0.840443322011,1.50700181878,377.
7.26,6175.,31.,13.,3776.,0.,0.,9995.,0.798404444307,1.33925906787,403.
7.28,6164.,34.,14.,3785.,0.,0.,9997.,0.756088951243,1.1563713372,442.
7.3,6163.,34.,15.,3786.,0.,0.,9998.,0.716133463248,1.09526294379,442.
7.32,6157.,32.,16.,3788.,0.,0.,9993.,0.67764799157,1.1011779863,416.
7.34,6148.,31.,14.,3802.,0.,0.,9995.,0.640629253136,1.07460390849,403.
7.36,6142.,26.,15.,3810.,0.,0.,9993.,0.607021191979,1.21404238396,338.
7.38,6141.,18.,12.,3821.,0.,0.,9992.,0.57715019933,1.66732279806,234.
7.4,6144.,12.,9.,3829.,0.,0.,9994.,0.551222616665,2.38863133888,156.
7.42,6141.,13.,6.,3833.,0.,0.,9993.,0.529082183769,2.11632873508,169.
7.44,6149.,7.,8.,3830.,0.,0.,9994.,0.512274275838,3.80546604908,91.
7.46,6160.,5.,2.,3828.,0.,0.,9995.,0.500457561332,5.20475863785,65.
7.48,6161.,3.,1.,3826.,0.,0.,9991.,0.493044910748,8.54611178629,39.
7.5,6173.,2.,0.,3820.,0.,0.,9995.,0.491225225921,12.771855874,26.
7.52,6182.,2.,1.,3805.,0.,0.,9990.,0.494774994921,12.864149868,26.
7.54,6194.,2.,0.,3796.,0.,0.,9992.,0.50337091391,13.0876437617,26.
7.56,6195.,2.,0.,3793.,0.,0.,9990.,0.516313193228,13.4241430239,26.
7.58,6199.,1.,0.,3786.,0.,0.,9986.,0.534453594234,27.7915869002,13.
7.6,6205.,2.,0.,3780.,0.,0.,9987.,0.557085561263,14.4842245928,26.
7.62,6213.,2.,0.,3774.,0.,0.,9989.,0.584092350321,15.1864011083,26.
7.64,6220.,2.,1.,3763.,0.,0.,9986.,0.615160939389,15.9941844241,26.
7.66,6232.,1.,0.,3757.,0.,0.,9990.,0.649707173796,33.7847730374,13.
7.68,6241.,1.,0.,3747.,0.,0.,9989.,0.687168208337,35.7327468335,13.
7.7,6251.,1.,0.,3737.,0.,0.,9989.,0.727013404297,37.8046970234,13.
7.72,6262.,1.,0.,3729.,0.,0.,9992.,0.768494195743,39.9616981786,13.
7.74,6262.,2.,0.,3723.,0.,0.,9987.,0.810301785185,21.0678464148,26.
7.76,6269.,3.,0.,3714.,0.,0.,9986.,0.853091746691,14.7869236093,39.
7.78,6280.,1.,2.,3708.,0.,0.,9991.,0.895686237999,46.575684376,13.
7.8,6286.,3.,2.,3702.,0.,0.,9993.,0.936933525941,16.2401811163,39.
7.82,6285.,2.,1.,3699.,0.,0.,9987.,0.976309954274,25.3840588111,26.
7.84,6291.,5.,2.,3686.,0.,0.,9984.,1.01430373845,10.5487588798,65.
7.86,6290.,5.,4.,3682.,0.,0.,9981.,1.04839689569,10.9033277152,65.
7.88,6292.,8.,0.,3682.,0.,0.,9982.,1.0792222671,7.01494473613,104.
7.9,6293.,9.,4.,3674.,0.,0.,9980.,1.10637438299,6.39238532393,117.
7.92,6292.,13.,3.,3671.,0.,0.,9979.,1.12880650333,4.51522601331,169.
7.94,6294.,12.,7.,3666.,0.,0.,9979.,1.14704764605,4.97053979956,156.
7.96,6291.,14.,8.,3666.,0.,0.,9979.,1.1594731536,4.30661457051,182.
7.98,6294.,17.,6.,3660.,0.,0.,9977.,1.16813003284,3.57310362988,221.
8.,6286.,21.,10.,3659.,0.,0.,9976.,1.16939680801,2.89564923889,273.
8.02,6279.,20.,12.,3664.,0.,0.,9975.,1.16557977287,3.03050740947,260.
8.04,6276.,22.,14.,3667.,0.,0.,9979.,1.15670855381,2.7340383999,286.
8.06,6268.,24.,11.,3674.,0.,0.,9977.,1.14253827443,2.4754995946,312.
8.08,6258.,29.,11.,3675.,0.,0.,9973.,1.12338223383,2.01434055721,377.
8.1,6246.,31.,6.,3688.,0.,0.,9971.,1.09910247223,1.84365575987,403.
8.12,6239.,33.,9.,3692.,0.,0.,9973.,1.07109727773,1.68778964976,429.
8.14,6235.,30.,19.,3692.,0.,0.,9976.,1.03975053814,1.80223426612,390.
8.16,6225.,33.,8.,3712.,0.,0.,9978.,1.00426602276,1.58247979344,429.
8.18,6227.,26.,14.,3714.,0.,0.,9981.,0.967881737203,1.93576347441,338.
8.2,6214.,28.,17.,3721.,0.,0.,9980.,0.92740834146,1.722329777,364.
8.22,6200.,25.,21.,3734.,0.,0.,9980.,0.88525087538,1.84132182079,325.
8.24,6184.,31.,19.,3746.,0.,0.,9980.,0.842030789036,1.4124387429,403.
8.26,6178.,24.,19.,3755.,0.,0.,9976.,0.800313689795,1.73401299456,312.
8.28,6166.,30.,19.,3763.,0.,0.,9978.,0.757774478939,1.31347576349,390.
8.3,6158.,25.,15.,3779.,0.,0.,9977.,0.717058593309,1.49148187408,325.
8.32,6152.,21.,16.,3779.,0.,0.,9968.,0.678795862991,1.68082785122,273.
8.34,6146.,23.,14.,3784.,0.,0.,9967.,0.64221996611,1.45197557555,299.
8.36,6156.,21.,9.,3784.,0.,0.,9970.,0.609808370423,1.51000167914,273.
8.38,6165.,10.,10.,3785.,0.,0.,9970.,0.580684321991,3.01955847436,130.
8.4,6167.,9.,11.,3782.,0.,0.,9969.,0.554673629372,3.2047809697,117.
8.42,6169.,9.,7.,3786.,0.,0.,9971.,0.532667232299,3.07763289773,117.
8.44,6172.,11.,7.,3784.,0.,0.,9974.,0.51522147148,2.43559241063,143.
8.46,6181.,9.,6.,3777.,0.,0.,9973.,0.503271417649,2.90779041308,117.
8.48,6187.,10.,3.,3773.,0.,0.,9973.,0.496019245604,2.57930007714,130.
8.5,6193.,8.,2.,3771.,0.,0.,9974.,0.493854367251,3.21005338713,104.
8.52,6206.,2.,5.,3765.,0.,0.,9978.,0.497293178747,12.9296226474,26.
8.54,6213.,4.,0.,3761.,0.,0.,9978.,0.50562343603,6.57310466839,52.
8.56,6221.,4.,0.,3749.,0.,0.,9974.,0.519311855812,6.75105412556,52.
8.58,6229.,1.,3.,3742.,0.,0.,9975.,0.537632301834,27.9568796954,13.
8.6,6237.,3.,1.,3738.,0.,0.,9979.,0.560407434203,9.71372885951,39.
8.62,6247.,1.,2.,3730.,0.,0.,9980.,0.587818354406,30.5665544291,13.
8.64,6258.,1.,0.,3725.,0.,0.,9984.,0.619043139549,32.1902432566,13.
8.66,6271.,0.,1.,3717.,0.,0.,9989.,0.653838505602,inf,0.
8.68,6284.,0.,0.,3706.,0.,0.,9990.,0.691833483806,inf,0.
8.7,6293.,0.,1.,3693.,0.,0.,9987.,0.732044722986,inf,0.
8.72,6304.,0.,0.,3687.,0.,0.,9991.,0.773726014869,inf,0.
8.74,6311.,2.,0.,3678.,0.,0.,9991.,0.816315426037,21.224201077,26.
8.76,6322.,3.,1.,3666.,0.,0.,9992.,0.859787443633,14.9029823563,39.
8.78,6327.,2.,0.,3660.,0.,0.,9989.,0.902570298933,23.4668277723,26.
8.8,6333.,1.,1.,3653.,0.,0.,9988.,0.944411451516,49.1093954789,13.
8.82,6340.,3.,1.,3645.,0.,0.,9989.,0.984656449613,17.06737846,39.
8.84,6341.,6.,2.,3640.,0.,0.,9989.,1.02185353905,8.85606400508,78.
8.86,6350.,7.,2.,3631.,0.,0.,9990.,1.05744399075,7.85529821696,91.
8.88,6352.,5.,3.,3625.,0.,0.,9985.,1.08918629771,11.3275374961,65.
8.9,6360.,8.,3.,3619.,0.,0.,9990.,1.1170344019,7.26072361234,104.
8.92,6369.,8.,2.,3614.,0.,0.,9993.,1.14101977958,7.41662856726,104.
8.94,6377.,9.,2.,3608.,0.,0.,9996.,1.16019746331,6.70336312132,117.
8.96,6377.,11.,4.,3604.,0.,0.,9996.,1.17332467622,5.54662574212,143.
8.98,6376.,18.,1.,3601.,0.,0.,9996.,1.1810994967,3.41206521268,234.
9.,6386.,9.,6.,3596.,0.,0.,9997.,1.18550445387,6.84958128902,117.
9.02,6383.,19.,5.,3587.,0.,0.,9994.,1.18263280807,3.23667926419,247.
9.04,6381.,20.,8.,3586.,0.,0.,9995.,1.17417811384,3.05286309598,260.
9.06,6381.,18.,11.,3585.,0.,0.,9995.,1.16104135263,3.35411946314,234.
9.08,6381.,15.,20.,3581.,0.,0.,9997.,1.14271219982,3.9614022927,195.
9.1,6363.,27.,11.,3592.,0.,0.,9993.,1.11722580167,2.15169413656,351.
9.12,6359.,32.,7.,3596.,0.,0.,9994.,1.08940466037,1.7702825731,416.
9.14,6351.,31.,12.,3600.,0.,0.,9994.,1.05718721917,1.77334630313,403.
9.16,6342.,33.,21.,3597.,0.,0.,9993.,1.02160559703,1.60980275895,429.
9.18,6332.,32.,17.,3613.,0.,0.,9994.,0.982921978715,1.59724821541,416.
9.2,6331.,28.,16.,3618.,0.,0.,9993.,0.943640813353,1.75247579623,364.
9.22,6319.,34.,8.,3632.,0.,0.,9993.,0.9010682447,1.37810437425,442.
9.24,6311.,34.,15.,3631.,0.,0.,9991.,0.858377358022,1.31281242992,442.
9.26,6312.,30.,9.,3639.,0.,0.,9990.,0.816526500272,1.41531260047,390.
9.28,6304.,27.,11.,3644.,0.,0.,9986.,0.774113420244,1.49088510566,351.
9.3,6304.,27.,14.,3642.,0.,0.,9987.,0.733324318084,1.41232831631,351.
9.32,6304.,22.,15.,3646.,0.,0.,9987.,0.694243854317,1.6409400193,286.
9.34,6302.,20.,18.,3650.,0.,0.,9990.,0.657004911628,1.70821277023,260.
9.36,6300.,19.,20.,3651.,0.,0.,9990.,0.622823498525,1.70456957491,247.
9.38,6301.,15.,15.,3658.,0.,0.,9989.,0.592365346752,2.05353320208,195.
9.4,6305.,16.,9.,3663.,0.,0.,9993.,0.565723695863,1.83860201156,208.
9.42,6313.,12.,5.,3663.,0.,0.,9993.,0.543900965011,2.35690418171,156.
9.44,6321.,8.,8.,3654.,0.,0.,9991.,0.52676174961,3.42395137247,104.
9.46,6324.,13.,3.,3652.,0.,0.,9992.,0.513935689307,2.05574275723,169.
9.48,6330.,6.,4.,3651.,0.,0.,9991.,0.50656943435,4.39026843104,78.
9.5,6338.,8.,1.,3644.,0.,0.,9991.,0.504557258693,3.2796221815,104.
9.52,6342.,4.,5.,3636.,0.,0.,9987.,0.507733031714,6.60052941228,52.
9.54,6352.,2.,2.,3633.,0.,0.,9989.,0.516366213283,13.4255215454,26.
9.56,6363.,2.,3.,3623.,0.,0.,9991.,0.530261827681,13.7868075197,26.
9.58,6368.,5.,0.,3621.,0.,0.,9994.,0.548584631889,5.70528017165,65.
9.6,6374.,1.,4.,3613.,0.,0.,9992.,0.571972040986,29.7425461313,13.
9.62,6384.,2.,0.,3607.,0.,0.,9993.,0.599928051089,15.5981293283,26.
9.64,6392.,0.,0.,3602.,0.,0.,9994.,0.631665779589,inf,0.
9.66,6400.,0.,0.,3594.,0.,0.,9994.,0.666954695664,inf,0.
9.68,6406.,0.,0.,3588.,0.,0.,9994.,0.704982730562,inf,0.
9.7,6412.,0.,0.,3578.,0.,0.,9990.,0.745663625136,inf,0.
9.72,6421.,1.,0.,3569.,0.,0.,9991.,0.788086094777,40.9804769284,13.
9.74,6430.,1.,1.,3560.,0.,0.,9992.,0.831624604397,43.2444794286,13.
9.76,6435.,2.,1.,3548.,0.,0.,9986.,0.875681191571,22.7677109808,26.
9.78,6446.,1.,1.,3541.,0.,0.,9989.,0.91954609561,47.8163969717,13.
9.8,6457.,1.,1.,3534.,0.,0.,9993.,0.962421218104,50.0459033414,13.
9.82,6470.,1.,0.,3523.,0.,0.,9994.,1.00434384117,52.2258797408,13.
9.84,6470.,3.,1.,3519.,0.,0.,9993.,1.04222456839,18.0652258522,39.
9.86,6479.,5.,1.,3506.,0.,0.,9991.,1.078817934,11.2197065136,65.
9.88,6482.,8.,1.,3500.,0.,0.,9991.,1.1108100917,7.22026559606,104.
9.9,6490.,9.,0.,3492.,0.,0.,9991.,1.13975277672,6.5852382655,117.
9.92,6498.,6.,4.,3481.,0.,0.,9989.,1.16459656653,10.0931702432,78.
9.94,6505.,10.,1.,3473.,0.,0.,9989.,1.18431445438,6.15843516279,130.
9.96,6510.,8.,4.,3465.,0.,0.,9987.,1.19887519209,7.79268874858,104.
9.98,6509.,12.,8.,3459.,0.,0.,9988.,1.20670235797,5.22904355121,156.
10.,6512.,12.,7.,3459.,0.,0.,9990.,1.20974231389,5.24221669353,156.
