t,s,e,i,r,c,o,n,reff,coal,reportr
5.,6025.,2.,20.,3953.,0.,0.,10000.,1.16721330324,30.3475458842,26.
5.02,6003.,21.,17.,3958.,0.,0.,9999.,1.16044726194,2.87348845814,273.
5.04,5988.,32.,12.,3966.,0.,0.,9998.,1.14986248168,1.86852653273,416.
5.06,5978.,33.,12.,3976.,0.,0.,9999.,1.13498544982,1.78846192093,429.
5.08,5981.,30.,16.,3977.,0.,0.,10004.,1.11729316123,1.93664147946,390.
5.1,5964.,33.,25.,3979.,0.,0.,10001.,1.09224065654,1.72110648909,429.
5.12,5953.,35.,17.,3993.,0.,0.,9998.,1.0641717083,1.58105510947,455.
5.14,5939.,44.,19.,3997.,0.,0.,9999.,1.03146644188,1.21900579495,572.
5.16,5931.,37.,23.,4009.,0.,0.,10000.,0.996621029827,1.40065658246,481.
5.18,5919.,40.,19.,4023.,0.,0.,10001.,0.958454735643,1.24599115634,520.
5.2,5918.,32.,22.,4026.,0.,0.,9998.,0.920325230416,1.49552849943,416.
5.22,5907.,40.,10.,4042.,0.,0.,9999.,0.878748969668,1.14237366057,520.
5.24,5900.,34.,13.,4050.,0.,0.,9997.,0.837183309495,1.28039800276,442.
5.26,5896.,30.,16.,4054.,0.,0.,9996.,0.795699745893,1.37921289288,390.
5.28,5897.,32.,18.,4051.,0.,0.,9998.,0.755000360225,1.22687558537,416.
5.3,5897.,30.,18.,4055.,0.,0.,10000.,0.71514691563,1.23958798709,390.
5.32,5894.,30.,15.,4062.,0.,0.,10001.,0.676623072959,1.17281332646,390.
5.34,5889.,31.,11.,4069.,0.,0.,10000.,0.640245404105,1.07396003269,403.
5.36,5887.,22.,14.,4075.,0.,0.,9998.,0.607043819175,1.43483084532,286.
5.38,5889.,23.,8.,4079.,0.,0.,9999.,0.577346282258,1.30530463815,299.
5.4,5902.,13.,14.,4072.,0.,0.,10001.,0.552357371165,2.20942948466,169.
5.42,5901.,15.,4.,4081.,0.,0.,10001.,0.530287419993,1.83832972264,195.
5.44,5908.,12.,6.,4078.,0.,0.,10004.,0.513278902172,2.22420857608,156.
5.46,5908.,14.,2.,4076.,0.,0.,10000.,0.500793908853,1.86009166146,182.
5.48,5911.,9.,2.,4077.,0.,0.,9999.,0.49339850717,2.85074693032,117.
5.5,5922.,8.,6.,4064.,0.,0.,10000.,0.491682549978,3.19593657486,104.
5.52,5925.,9.,4.,4059.,0.,0.,9997.,0.494666047652,2.85807049754,117.
5.54,5930.,1.,7.,4057.,0.,0.,9995.,0.502910202478,26.1513305288,13.
5.56,5944.,1.,1.,4049.,0.,0.,9995.,0.516871530964,26.8773196101,13.
5.58,5957.,1.,0.,4037.,0.,0.,9995.,0.535641156133,27.8533401189,13.
5.6,5967.,0.,1.,4026.,0.,0.,9994.,0.558831745232,inf,0.
5.62,5977.,2.,0.,4015.,0.,0.,9994.,0.586266796448,15.2429367076,26.
5.64,5981.,0.,2.,4007.,0.,0.,9990.,0.617230605273,inf,0.
5.66,5989.,1.,0.,3998.,0.,0.,9988.,0.651899570227,33.8987776518,13.
5.68,5995.,2.,0.,3989.,0.,0.,9986.,0.689251507577,17.920539197,26.
5.7,6001.,3.,0.,3986.,0.,0.,9990.,0.728487796036,12.627121798,39.
5.72,6008.,1.,3.,3975.,0.,0.,9987.,0.77005906488,40.0430713737,13.
5.74,6014.,0.,1.,3974.,0.,0.,9989.,0.812193300094,inf,0.
5.76,6027.,1.,0.,3964.,0.,0.,9992.,0.855631979344,44.4928629259,13.
5.78,6034.,1.,0.,3955.,0.,0.,9990.,0.898450684618,46.7194356001,13.
5.8,6049.,1.,0.,3940.,0.,0.,9990.,0.941450729087,48.9554379125,13.
5.82,6056.,1.,1.,3928.,0.,0.,9986.,0.982111959487,51.0698218933,13.
5.84,6061.,4.,2.,3921.,0.,0.,9988.,1.01968932636,13.2559612427,52.
5.86,6072.,4.,3.,3912.,0.,0.,9991.,1.05540986697,13.7203282706,52.
5.88,6080.,8.,5.,3898.,0.,0.,9991.,1.08763601228,7.06963407983,104.
5.9,6080.,11.,5.,3893.,0.,0.,9989.,1.11482242708,5.2700696553,143.
5.92,6084.,9.,8.,3889.,0.,0.,9990.,1.13812703149,6.5758450708,117.
5.94,6089.,7.,10.,3883.,0.,0.,9989.,1.15721728684,8.59647127368,91.
5.96,6088.,11.,7.,3881.,0.,0.,9987.,1.17035290766,5.53257738169,143.
5.98,6079.,16.,5.,3886.,0.,0.,9986.,1.17666873711,3.8241733956,208.
6.,6080.,14.,5.,3883.,0.,0.,9982.,1.17999234867,4.38282872362,182.
6.02,6084.,16.,3.,3883.,0.,0.,9986.,1.1776365515,3.82731879237,208.
6.04,6068.,24.,7.,3883.,0.,0.,9982.,1.16709242731,2.52870025918,312.
6.06,6068.,21.,8.,3883.,0.,0.,9980.,1.15426621063,2.85818299775,273.
6.08,6060.,23.,14.,3880.,0.,0.,9977.,1.13511450448,2.56634583622,299.
6.1,6051.,29.,9.,3886.,0.,0.,9975.,1.1110622175,1.99224949346,377.
6.12,6050.,30.,7.,3889.,0.,0.,9976.,1.08389669684,1.87875427453,390.
6.14,6038.,37.,8.,3891.,0.,0.,9974.,1.05128892903,1.4774871435,481.
6.16,6028.,37.,12.,3896.,0.,0.,9973.,1.01566280345,1.42741799403,481.
6.18,6021.,32.,12.,3907.,0.,0.,9972.,0.977806797859,1.58893604652,416.
6.2,6012.,38.,13.,3911.,0.,0.,9974.,0.937193154755,1.28247484335,494.
6.22,6014.,29.,17.,3919.,0.,0.,9979.,0.896459817004,1.60744518911,377.
6.24,6010.,37.,13.,3920.,0.,0.,9980.,0.854244463259,1.2005597862,481.
6.26,6009.,30.,20.,3926.,0.,0.,9985.,0.811843142794,1.40719478084,390.
6.28,5995.,29.,17.,3941.,0.,0.,9982.,0.768777714438,1.37849797072,377.
6.3,5980.,33.,16.,3955.,0.,0.,9984.,0.726374774757,1.14459055416,429.
6.32,5974.,24.,18.,3964.,0.,0.,9980.,0.687250043433,1.48904176077,312.
6.34,5970.,33.,4.,3973.,0.,0.,9980.,0.650352336956,1.02479762187,429.
6.36,5974.,21.,11.,3973.,0.,0.,9979.,0.617187801499,1.52827455609,273.
6.38,5980.,19.,7.,3975.,0.,0.,9981.,0.587325038787,1.60741589563,247.
6.4,5985.,13.,11.,3975.,0.,0.,9984.,0.561078927963,2.24431571185,169.
6.42,5992.,7.,6.,3975.,0.,0.,9980.,0.53959808599,4.0084429245,91.
6.44,5996.,4.,9.,3970.,0.,0.,9979.,0.522229272119,6.78898053754,52.
6.46,5999.,7.,7.,3963.,0.,0.,9976.,0.5097309133,3.7865724988,91.
6.48,6003.,8.,3.,3962.,0.,0.,9976.,0.502233113052,3.26451523484,104.
6.5,6001.,9.,4.,3961.,0.,0.,9975.,0.499490364279,2.88594432695,117.
6.52,6000.,11.,2.,3958.,0.,0.,9971.,0.502233843043,2.37419634893,143.
6.54,6005.,5.,5.,3957.,0.,0.,9972.,0.510445398549,5.30863214491,65.
6.56,6018.,1.,6.,3947.,0.,0.,9972.,0.524513322178,27.2746927533,13.
6.58,6026.,1.,2.,3942.,0.,0.,9971.,0.543149705248,28.2437846729,13.
6.6,6036.,0.,2.,3936.,0.,0.,9974.,0.566427386783,inf,0.
6.62,6052.,0.,0.,3929.,0.,0.,9981.,0.594396510826,inf,0.
6.64,6059.,0.,0.,3917.,0.,0.,9976.,0.626157591312,inf,0.
6.66,6058.,1.,0.,3913.,0.,0.,9972.,0.660468203493,34.3443465816,13.
6.68,6069.,0.,0.,3902.,0.,0.,9971.,0.698809049183,inf,0.
6.7,6079.,0.,0.,3896.,0.,0.,9975.,0.739066268369,inf,0.
6.72,6088.,0.,0.,3889.,0.,0.,9977.,0.781094959072,inf,0.
6.74,6096.,0.,0.,3881.,0.,0.,9977.,0.824257633925,inf,0.
6.76,6109.,1.,0.,3870.,0.,0.,9980.,0.868316044267,45.1524343019,13.
6.78,6120.,2.,0.,3861.,0.,0.,9983.,0.911894880175,23.7092668845,26.
6.8,6126.,2.,1.,3853.,0.,0.,9982.,0.954198933386,24.809172268,26.
6.82,6131.,2.,2.,3847.,0.,0.,9982.,0.994673265879,25.8615049128,26.
6.84,6137.,7.,2.,3838.,0.,0.,9984.,1.03288905142,7.67289009629,91.
6.86,6148.,9.,1.,3827.,0.,0.,9985.,1.06926200702,6.17795826278,117.
6.88,6159.,8.,2.,3817.,0.,0.,9986.,1.10231978132,7.16507857859,104.
6.9,6171.,4.,5.,3808.,0.,0.,9988.,1.13162137845,14.7110779199,52.
6.92,6166.,13.,4.,3801.,0.,0.,9984.,1.15415986829,4.61663947317,169.
6.94,6178.,8.,4.,3798.,0.,0.,9988.,1.17424933255,7.63262066157,104.
6.96,6184.,9.,5.,3789.,0.,0.,9987.,1.18880788124,6.86866775828,117.
6.98,6193.,9.,3.,3780.,0.,0.,9985.,1.1988549588,6.92671753976,117.
7.,6203.,12.,2.,3774.,0.,0.,9991.,1.20277945088,5.21204428715,156.
7.02,6203.,15.,2.,3768.,0.,0.,9988.,1.2004301114,4.16149105286,195.
7.04,6195.,19.,11.,3764.,0.,0.,9989.,1.19068406684,3.25871428818,247.
7.06,6192.,19.,9.,3768.,0.,0.,9988.,1.17691030546,3.22101767811,247.
7.08,6188.,21.,10.,3773.,0.,0.,9992.,1.15735049262,2.86582026743,273.
7.1,6179.,27.,12.,3776.,0.,0.,9994.,1.13240813573,2.18093418734,351.
7.12,6172.,24.,17.,3783.,0.,0.,9996.,1.10354139473,2.39100635525,312.
7.14,6168.,32.,9.,3791.,0.,0.,10000.,1.07113130241,1.74058836641,416.
7.16,6166.,31.,14.,3791.,0.,0.,10002.,1.03590229011,1.73764255115,403.
7.18,6156.,35.,15.,3798.,0.,0.,10004.,0.996532857942,1.48056310323,455.
7.2,6151.,38.,15.,3802.,0.,0.,10006.,0.955794942803,1.30792992173,494.
7.22,6139.,41.,20.,3806.,0.,0.,10006.,0.912623318306,1.15747347688,533.
7.24,6136.,30.,29.,3812.,0.,0.,10007.,0.869800580276,1.50765433915,390.
7.26,6129.,32.,24.,3829.,0.,0.,10014.,0.825657682548,1.34169373414,416.
7.28,6115.,39.,21.,3848.,0.,0.,10023.,0.780958389114,1.04127785215,507.
7.3,6107.,34.,24.,3859.,0.,0.,10024.,0.738841028395,1.12999216107,442.
7.32,6104.,33.,13.,3876.,0.,0.,10026.,0.698983499377,1.10142854447,429.
7.34,6095.,30.,15.,3884.,0.,0.,10024.,0.661054958679,1.14582859504,390.
7.36,6105.,20.,12.,3892.,0.,0.,10029.,0.627577225902,1.63170078734,260.
7.38,6110.,14.,13.,3894.,0.,0.,10031.,0.597101782237,2.21780661974,182.
7.4,6106.,14.,10.,3903.,0.,0.,10033.,0.569626734275,2.11575644159,182.
7.42,6108.,15.,9.,3902.,0.,0.,10034.,0.547084069539,1.89655810774,195.
7.44,6112.,16.,5.,3899.,0.,0.,10032.,0.529520077785,1.7209402528,208.
7.46,6120.,13.,3.,3899.,0.,0.,10035.,0.516954829084,2.06781931634,169.
7.48,6122.,6.,12.,3898.,0.,0.,10038.,0.509025540929,4.41155468805,78.
7.5,6126.,7.,3.,3903.,0.,0.,10039.,0.506644031063,3.76364137361,91.
7.52,6134.,6.,1.,3897.,0.,0.,10038.,0.510023304159,4.42020196938,78.
7.54,6145.,2.,3.,3891.,0.,0.,10041.,0.518756404413,13.4876665147,26.
7.56,6147.,0.,3.,3890.,0.,0.,10040.,0.532127998132,inf,0.
7.58,6157.,0.,0.,3882.,0.,0.,10039.,0.551198258137,inf,0.
7.6,6166.,0.,0.,3873.,0.,0.,10039.,0.574880320892,inf,0.
7.62,6176.,0.,1.,3867.,0.,0.,10044.,0.60277047423,inf,0.
7.64,6183.,0.,0.,3861.,0.,0.,10044.,0.634646195024,inf,0.
7.66,6189.,1.,1.,3853.,0.,0.,10044.,0.669913444861,34.8354991328,13.
7.68,6200.,0.,1.,3847.,0.,0.,10048.,0.708422199612,inf,0.
7.7,6209.,0.,0.,3837.,0.,0.,10046.,0.749536226818,inf,0.
7.72,6214.,1.,0.,3830.,0.,0.,10045.,0.791863766517,41.1769158589,13.
7.74,6220.,1.,1.,3824.,0.,0.,10046.,0.835247535435,43.4328718426,13.
7.76,6225.,3.,2.,3819.,0.,0.,10049.,0.878728579414,15.2312953765,39.
7.78,6239.,3.,1.,3808.,0.,0.,10051.,0.923336787408,16.0045043151,39.
7.8,6242.,4.,2.,3803.,0.,0.,10051.,0.965592738648,12.5527056024,52.
7.82,6253.,4.,1.,3794.,0.,0.,10052.,1.00740161697,13.0962210206,52.
7.84,6257.,1.,5.,3787.,0.,0.,10050.,1.04616988966,54.4008342621,13.
7.86,6260.,4.,3.,3783.,0.,0.,10050.,1.08169947169,14.0620931319,52.
7.88,6267.,7.,1.,3776.,0.,0.,10051.,1.11439557853,8.2783671548,91.
7.9,6268.,6.,2.,3775.,0.,0.,10051.,1.14220444406,9.89910518185,78.
7.92,6271.,7.,3.,3770.,0.,0.,10051.,1.16598925687,8.66163447958,91.
7.94,6265.,11.,5.,3770.,0.,0.,10051.,1.18332149642,5.59388343763,143.
7.96,6272.,6.,9.,3769.,0.,0.,10056.,1.19745176803,10.3779153229,78.
7.98,6269.,6.,8.,3772.,0.,0.,10055.,1.20511870714,10.4443621285,78.
8.,6266.,13.,4.,3770.,0.,0.,10053.,1.20750207437,4.8300082975,169.
8.02,6265.,12.,5.,3768.,0.,0.,10050.,1.20494894773,5.22144544014,156.
8.04,6267.,19.,3.,3766.,0.,0.,10055.,1.19661616205,3.27494949615,247.
8.06,6267.,24.,6.,3759.,0.,0.,10056.,1.18311069896,2.56340651441,312.
8.08,6251.,29.,5.,3768.,0.,0.,10053.,1.16203935737,2.08365677874,377.
8.1,6257.,21.,12.,3762.,0.,0.,10052.,1.14008650706,2.82307135082,273.
8.12,6246.,30.,11.,3764.,0.,0.,10051.,1.11066136644,1.9251463685,390.
8.14,6248.,31.,13.,3760.,0.,0.,10052.,1.07941111819,1.81062510148,403.
8.16,6239.,28.,19.,3764.,0.,0.,10050.,1.04316029112,1.93729768352,364.
8.18,6225.,32.,16.,3777.,0.,0.,10050.,1.00309020322,1.63002158024,416.
8.2,6221.,29.,18.,3786.,0.,0.,10054.,0.962057036271,1.72506778917,377.
8.22,6215.,27.,19.,3793.,0.,0.,10054.,0.919510469434,1.77090905224,351.
8.24,6207.,23.,22.,3803.,0.,0.,10055.,0.875664840495,1.97976398721,299.
8.26,6199.,25.,14.,3815.,0.,0.,10053.,0.831847940599,1.73024371645,325.
8.28,6189.,27.,7.,3828.,0.,0.,10051.,0.788207155544,1.51802859586,351.
8.3,6181.,23.,10.,3839.,0.,0.,10053.,0.745636575448,1.68578704014,299.
8.32,6182.,16.,11.,3843.,0.,0.,10052.,0.706084405445,2.29477431769,208.
8.34,6170.,19.,13.,3849.,0.,0.,10051.,0.667391707848,1.82654572674,247.
8.36,6175.,16.,9.,3855.,0.,0.,10055.,0.633131651285,2.05767786668,208.
8.38,6172.,15.,11.,3855.,0.,0.,10053.,0.601840794979,2.08638142259,195.
8.4,6172.,12.,6.,3863.,0.,0.,10053.,0.574638356022,2.49009954276,156.
8.42,6172.,12.,7.,3860.,0.,0.,10051.,0.551881430731,2.39148619984,156.
8.44,6180.,7.,8.,3856.,0.,0.,10051.,0.534399215469,3.96982274348,91.
8.46,6180.,7.,10.,3849.,0.,0.,10046.,0.521451417709,3.87363910298,91.
8.48,6183.,7.,7.,3849.,0.,0.,10046.,0.513688109226,3.81596881139,91.
8.5,6194.,8.,4.,3840.,0.,0.,10046.,0.511910950016,3.3274211751,104.
8.52,6198.,4.,4.,3837.,0.,0.,10043.,0.515088138943,6.69614580626,52.
8.54,6209.,3.,0.,3835.,0.,0.,10047.,0.523846213263,9.0800010299,39.
8.56,6215.,2.,0.,3828.,0.,0.,10045.,0.537746759142,13.9814157377,26.
8.58,6220.,1.,1.,3822.,0.,0.,10044.,0.556561060351,28.9411751383,13.
8.6,6231.,2.,1.,3813.,0.,0.,10047.,0.580477947075,15.092426624,26.
8.62,6243.,1.,2.,3806.,0.,0.,10052.,0.608824670864,31.658882885,13.
8.64,6252.,1.,1.,3800.,0.,0.,10054.,0.641090330643,33.3366971934,13.
8.66,6256.,0.,2.,3794.,0.,0.,10052.,0.676626768868,inf,0.
8.68,6264.,0.,0.,3789.,0.,0.,10053.,0.715378964124,inf,0.
8.7,6278.,0.,1.,3777.,0.,0.,10056.,0.75711210309,inf,0.
8.72,6288.,0.,0.,3769.,0.,0.,10057.,0.800337647503,inf,0.
8.74,6295.,0.,0.,3763.,0.,0.,10058.,0.844310315036,inf,0.
8.76,6298.,0.,0.,3758.,0.,0.,10056.,0.888414490557,inf,0.
8.78,6306.,0.,0.,3749.,0.,0.,10055.,0.932881150224,inf,0.
8.8,6316.,0.,0.,3741.,0.,0.,10057.,0.976457107713,inf,0.
8.82,6324.,2.,0.,3735.,0.,0.,10061.,1.01792881214,26.4661491158,26.
8.84,6333.,2.,0.,3728.,0.,0.,10063.,1.05750916116,27.4952381901,26.
8.86,6339.,3.,0.,3724.,0.,0.,10066.,1.09360924223,18.9558935319,39.
8.88,6347.,2.,1.,3720.,0.,0.,10070.,1.12649167452,29.2887835375,26.
8.9,6351.,7.,2.,3710.,0.,0.,10070.,1.15514571902,8.58108248415,91.
8.92,6352.,9.,5.,3701.,0.,0.,10067.,1.17917277075,6.81299823103,117.
8.94,6356.,13.,7.,3697.,0.,0.,10073.,1.19788742619,4.79154970475,169.
8.96,6348.,21.,3.,3700.,0.,0.,10072.,1.21003642981,2.99628068333,273.
8.98,6351.,20.,6.,3692.,0.,0.,10069.,1.21918442251,3.16987949853,260.
9.,6357.,19.,6.,3688.,0.,0.,10070.,1.22297032287,3.34707667313,247.
9.02,6356.,13.,10.,3688.,0.,0.,10067.,1.22038666383,4.88154665532,169.
9.04,6351.,16.,8.,3691.,0.,0.,10066.,1.21132988306,3.93682211996,208.
9.06,6337.,23.,11.,3694.,0.,0.,10065.,1.19525585455,2.70231758419,299.
9.08,6329.,34.,10.,3693.,0.,0.,10066.,1.17501981601,1.79708913036,442.
9.1,6314.,40.,13.,3697.,0.,0.,10064.,1.14910067622,1.49383087908,520.
9.12,6300.,39.,15.,3710.,0.,0.,10064.,1.1188165447,1.49175539294,507.
9.14,6292.,39.,19.,3720.,0.,0.,10070.,1.0850695834,1.44675944454,507.
9.16,6286.,33.,22.,3728.,0.,0.,10069.,1.04903543622,1.65302553586,429.
9.18,6275.,43.,12.,3739.,0.,0.,10069.,1.00923913836,1.22047523708,559.
9.2,6270.,40.,14.,3745.,0.,0.,10069.,0.968190238767,1.2586473104,520.
9.22,6262.,39.,13.,3756.,0.,0.,10070.,0.924992090319,1.23332278709,507.
9.24,6249.,41.,17.,3766.,0.,0.,10073.,0.880014711838,1.11611621989,533.
9.26,6238.,40.,27.,3770.,0.,0.,10075.,0.835253506583,1.08582955856,520.
9.28,6233.,35.,22.,3785.,0.,0.,10075.,0.791919861987,1.17656665209,455.
9.3,6212.,42.,16.,3805.,0.,0.,10075.,0.747739863503,0.925773164338,546.
9.32,6214.,31.,16.,3811.,0.,0.,10072.,0.708329991645,1.1881664376,403.
9.34,6212.,30.,16.,3816.,0.,0.,10074.,0.67040063326,1.16202776432,390.
9.36,6212.,28.,12.,3821.,0.,0.,10073.,0.635787157601,1.1807475784,364.
9.38,6205.,23.,19.,3827.,0.,0.,10074.,0.60379738383,1.36510712866,299.
9.4,6214.,7.,19.,3836.,0.,0.,10076.,0.577228101886,4.28798018544,91.
9.42,6213.,11.,7.,3848.,0.,0.,10079.,0.554004185102,2.61892887503,143.
9.44,6218.,6.,7.,3849.,0.,0.,10080.,0.536138253651,4.64653153165,78.
9.46,6229.,6.,6.,3840.,0.,0.,10081.,0.523761133036,4.53926315298,78.
9.48,6231.,5.,4.,3842.,0.,0.,10082.,0.515827507883,5.36460608198,65.
9.5,6232.,3.,3.,3838.,0.,0.,10076.,0.513518008067,8.90097880649,39.
9.52,6244.,2.,0.,3830.,0.,0.,10076.,0.517211503643,13.4474990947,26.
9.54,6252.,0.,1.,3821.,0.,0.,10074.,0.526060355494,inf,0.
9.56,6257.,0.,1.,3816.,0.,0.,10074.,0.539822296275,inf,0.
9.58,6264.,0.,1.,3809.,0.,0.,10074.,0.55882900545,inf,0.
9.6,6271.,0.,1.,3803.,0.,0.,10075.,0.582580738982,inf,0.
9.62,6278.,0.,1.,3797.,0.,0.,10076.,0.610779623851,inf,0.
9.64,6296.,0.,1.,3781.,0.,0.,10078.,0.644064709727,inf,0.
9.66,6304.,1.,0.,3774.,0.,0.,10079.,0.679991798445,35.3595735191,13.
9.68,6314.,1.,1.,3767.,0.,0.,10083.,0.718943744604,37.3850747194,13.
9.7,6317.,2.,0.,3764.,0.,0.,10083.,0.759775441928,19.7541614901,26.
9.72,6329.,2.,1.,3752.,0.,0.,10084.,0.803399250334,20.8883805087,26.
9.74,6340.,3.,1.,3741.,0.,0.,10085.,0.848069310185,14.6998680432,39.
9.76,6352.,2.,2.,3729.,0.,0.,10085.,0.893455298673,23.2298377655,26.
9.78,6356.,4.,1.,3724.,0.,0.,10085.,0.937480865556,12.1872512522,52.
9.8,6369.,3.,2.,3714.,0.,0.,10088.,0.981625146203,17.0148358675,39.
9.82,6370.,4.,4.,3707.,0.,0.,10085.,1.02289304247,13.2976095522,52.
9.84,6379.,5.,0.,3705.,0.,0.,10089.,1.06244535742,11.0494317172,65.
9.86,6384.,8.,1.,3697.,0.,0.,10090.,1.09875296048,7.14189424312,104.
9.88,6390.,10.,0.,3689.,0.,0.,10089.,1.13198766566,5.88633586142,130.
9.9,6395.,7.,5.,3679.,0.,0.,10086.,1.1613034487,8.62682561892,91.
9.92,6398.,13.,5.,3670.,0.,0.,10086.,1.18547470887,4.74189883549,169.
9.94,6399.,12.,6.,3668.,0.,0.,10085.,1.20455645518,5.21974463909,156.
9.96,6395.,13.,4.,3671.,0.,0.,10083.,1.21766556953,4.87066227813,169.
9.98,6396.,16.,4.,3668.,0.,0.,10084.,1.22599655899,3.98448881673,208.
10.,6391.,18.,9.,3662.,0.,0.,10080.,1.22829154663,3.54839780138,234.
