t,s,e,i,r,c,o,n,reff,coal,reportr
5.,8888.,17.,8.,1087.,0.,0.,10000.,1.21014102849,3.70160785186,221.
5.02,8879.,17.,9.,1094.,0.,0.,9999.,1.20631265203,3.68989752385,221.
5.04,8876.,21.,12.,1093.,0.,0.,10002.,1.1974198407,2.96503960554,273.
5.06,8863.,26.,12.,1101.,0.,0.,10002.,1.1822889017,2.3645778034,338.
5.08,8855.,30.,10.,1107.,0.,0.,10002.,1.16280662779,2.01553148817,390.
5.1,8836.,31.,19.,1115.,0.,0.,10001.,1.13730034976,1.90772961895,403.
5.12,8812.,41.,18.,1131.,0.,0.,10002.,1.10666292059,1.40357248465,533.
5.14,8797.,35.,11.,1156.,0.,0.,9999.,1.07377955774,1.59532962864,455.
5.16,8787.,37.,18.,1155.,0.,0.,9997.,1.03803457505,1.45885940277,481.
5.18,8761.,48.,13.,1175.,0.,0.,9997.,0.997446119531,1.08056662949,624.
5.2,8747.,40.,28.,1182.,0.,0.,9997.,0.95610963837,1.24294252988,520.
5.22,8718.,38.,28.,1211.,0.,0.,9995.,0.911858088052,1.2478058047,494.
5.24,8698.,40.,19.,1236.,0.,0.,9993.,0.867761783691,1.1280903188,520.
5.26,8677.,37.,22.,1254.,0.,0.,9990.,0.82349480394,1.15734404878,481.
5.28,8656.,44.,16.,1272.,0.,0.,9988.,0.779662488221,0.921419304261,572.
5.3,8649.,26.,29.,1285.,0.,0.,9989.,0.737983731518,1.47596746304,338.
5.32,8633.,33.,19.,1298.,0.,0.,9983.,0.697781628229,1.09953468691,429.
5.34,8628.,31.,10.,1314.,0.,0.,9983.,0.66037822204,1.10773121116,403.
5.36,8621.,19.,10.,1330.,0.,0.,9980.,0.625900075558,1.71298968047,247.
5.38,8613.,22.,6.,1340.,0.,0.,9981.,0.594525574549,1.40524226712,286.
5.4,8618.,18.,6.,1341.,0.,0.,9983.,0.567869517285,1.64051193882,234.
5.42,8618.,16.,7.,1342.,0.,0.,9983.,0.545272151616,1.77213449275,208.
5.44,8621.,10.,7.,1346.,0.,0.,9984.,0.527446536147,2.74272198796,130.
5.46,8618.,5.,11.,1349.,0.,0.,9983.,0.51428366705,5.34855013732,65.
5.48,8618.,6.,3.,1357.,0.,0.,9984.,0.506330535791,4.38819797686,78.
5.5,8620.,4.,1.,1360.,0.,0.,9985.,0.503749178429,6.54873931957,52.
5.52,8626.,3.,1.,1359.,0.,0.,9989.,0.506546877849,8.78014588272,39.
5.54,8629.,1.,0.,1358.,0.,0.,9988.,0.514682318432,26.7634805584,13.
5.56,8627.,1.,0.,1356.,0.,0.,9984.,0.52781362572,27.4463085375,13.
5.58,8628.,0.,1.,1355.,0.,0.,9984.,0.545850186747,inf,0.
5.6,8630.,0.,0.,1354.,0.,0.,9984.,0.568603281203,inf,0.
5.62,8632.,0.,0.,1353.,0.,0.,9985.,0.595598385907,inf,0.
5.64,8637.,0.,0.,1348.,0.,0.,9985.,0.626747702424,inf,0.
5.66,8638.,0.,0.,1346.,0.,0.,9984.,0.661077391413,inf,0.
5.68,8645.,0.,1.,1340.,0.,0.,9986.,0.698541635846,inf,0.
5.7,8645.,0.,0.,1339.,0.,0.,9984.,0.738011840181,inf,0.
5.72,8650.,0.,0.,1336.,0.,0.,9986.,0.779278099607,inf,0.
5.74,8653.,0.,0.,1335.,0.,0.,9988.,0.821381513291,inf,0.
5.76,8659.,0.,0.,1329.,0.,0.,9988.,0.86430337703,inf,0.
5.78,8667.,1.,0.,1324.,0.,0.,9992.,0.90679592448,47.153388073,13.
5.8,8669.,1.,1.,1320.,0.,0.,9991.,0.948152743058,49.303942639,13.
5.82,8673.,1.,0.,1320.,0.,0.,9994.,0.987723662578,51.361630454,13.
5.84,8673.,2.,0.,1316.,0.,0.,9991.,1.02518270851,26.6547504211,26.
5.86,8676.,0.,4.,1312.,0.,0.,9992.,1.05975195432,inf,0.
5.88,8669.,7.,3.,1312.,0.,0.,9991.,1.08990279072,8.09642073103,91.
5.9,8665.,12.,3.,1311.,0.,0.,9991.,1.11640687137,4.83776310927,156.
5.92,8665.,11.,3.,1310.,0.,0.,9989.,1.13933735621,5.38595841117,143.
5.94,8661.,13.,5.,1309.,0.,0.,9988.,1.15696232957,4.62784931829,169.
5.96,8661.,14.,1.,1315.,0.,0.,9991.,1.16970160604,4.3446059653,182.
5.98,8664.,12.,7.,1310.,0.,0.,9993.,1.17780922464,5.10383997343,156.
6.,8657.,14.,11.,1311.,0.,0.,9993.,1.17951500385,4.38105572858,182.
6.02,8645.,18.,12.,1317.,0.,0.,9992.,1.1753439264,3.39543800959,234.
6.04,8631.,23.,8.,1331.,0.,0.,9993.,1.16541669651,2.63485513993,299.
6.06,8621.,22.,10.,1340.,0.,0.,9993.,1.15104279687,2.72064661079,286.
6.08,8614.,22.,10.,1351.,0.,0.,9997.,1.13172512737,2.67498666469,286.
6.1,8600.,23.,11.,1359.,0.,0.,9993.,1.10781044765,2.50461492512,299.
6.12,8592.,23.,11.,1369.,0.,0.,9995.,1.07978972501,2.44126372611,299.
6.14,8577.,23.,16.,1379.,0.,0.,9995.,1.047344894,2.36791019513,299.
6.16,8552.,37.,14.,1388.,0.,0.,9991.,1.01088003265,1.4206962621,481.
6.18,8540.,34.,21.,1397.,0.,0.,9992.,0.972771643161,1.48776839542,442.
6.2,8517.,33.,20.,1418.,0.,0.,9988.,0.931807872689,1.46830331454,429.
6.22,8487.,35.,21.,1439.,0.,0.,9982.,0.888852759411,1.32058124255,455.
6.24,8467.,33.,16.,1463.,0.,0.,9979.,0.845901005263,1.33293491738,429.
6.26,8456.,22.,24.,1476.,0.,0.,9978.,0.803485842191,1.89914835427,286.
6.28,8435.,28.,16.,1498.,0.,0.,9977.,0.760594254081,1.41253218615,364.
6.3,8421.,29.,17.,1505.,0.,0.,9972.,0.719754355554,1.29059401686,377.
6.32,8411.,24.,18.,1519.,0.,0.,9972.,0.680587900827,1.47460711846,312.
6.34,8404.,22.,16.,1527.,0.,0.,9969.,0.644136820253,1.52250521151,286.
6.36,8394.,28.,8.,1543.,0.,0.,9973.,0.609847216619,1.13257340229,364.
6.38,8397.,23.,12.,1543.,0.,0.,9975.,0.57996448338,1.31122404938,299.
6.4,8391.,17.,13.,1555.,0.,0.,9976.,0.553299679644,1.69244607891,221.
6.42,8392.,14.,4.,1568.,0.,0.,9978.,0.531238907278,1.97317308418,182.
6.44,8395.,7.,6.,1571.,0.,0.,9979.,0.513876845712,3.81737085386,91.
6.46,8401.,5.,4.,1575.,0.,0.,9985.,0.50123366087,5.21283007305,65.
6.48,8405.,5.,0.,1576.,0.,0.,9986.,0.49371731474,5.13466007329,65.
6.5,8407.,2.,2.,1577.,0.,0.,9988.,0.491153980372,12.7700034897,26.
6.52,8407.,2.,0.,1578.,0.,0.,9987.,0.49378534879,12.8384190685,26.
6.54,8408.,0.,1.,1576.,0.,0.,9985.,0.501651305868,inf,0.
6.56,8414.,0.,0.,1575.,0.,0.,9989.,0.514524271431,inf,0.
6.58,8421.,0.,0.,1569.,0.,0.,9990.,0.532434364768,inf,0.
6.6,8430.,0.,0.,1567.,0.,0.,9997.,0.55470364626,inf,0.
6.62,8435.,0.,0.,1562.,0.,0.,9997.,0.581306989009,inf,0.
6.64,8435.,0.,0.,1559.,0.,0.,9994.,0.611538272349,inf,0.
6.66,8441.,0.,0.,1556.,0.,0.,9997.,0.645160671853,inf,0.
6.68,8441.,1.,0.,1554.,0.,0.,9996.,0.681375500142,35.4315260074,13.
6.7,8447.,0.,1.,1550.,0.,0.,9998.,0.720099096324,inf,0.
6.72,8450.,1.,0.,1546.,0.,0.,9997.,0.760422471454,39.5419685156,13.
6.74,8450.,0.,1.,1544.,0.,0.,9995.,0.801550084965,inf,0.
6.76,8451.,1.,0.,1541.,0.,0.,9993.,0.843119663598,43.8422225071,13.
6.78,8457.,0.,1.,1538.,0.,0.,9996.,0.884470335362,inf,0.
6.8,8459.,1.,0.,1535.,0.,0.,9995.,0.924814197603,48.0903382753,13.
6.82,8464.,2.,0.,1533.,0.,0.,9999.,0.963439711227,25.0494324919,26.
6.84,8464.,3.,1.,1531.,0.,0.,9999.,0.999677624051,17.3277454835,39.
6.86,8463.,6.,4.,1527.,0.,0.,10000.,1.0329075432,8.95186537437,78.
6.88,8459.,11.,3.,1525.,0.,0.,9998.,1.06275611654,5.02393800546,143.
6.9,8458.,7.,6.,1527.,0.,0.,9998.,1.08897382543,8.08951984602,91.
6.92,8453.,11.,4.,1529.,0.,0.,9997.,1.11057261454,5.24997963238,143.
6.94,8454.,11.,6.,1526.,0.,0.,9997.,1.12829396478,5.33375328806,143.
6.96,8450.,9.,14.,1524.,0.,0.,9997.,1.14052030993,6.5896729018,117.
6.98,8434.,20.,7.,1536.,0.,0.,9997.,1.14608360469,2.97981737219,260.
7.,8438.,17.,7.,1539.,0.,0.,10001.,1.14875663631,3.51384382871,221.
7.02,8434.,24.,3.,1540.,0.,0.,10001.,1.14562521708,2.48218797035,312.
7.04,8435.,16.,12.,1538.,0.,0.,10001.,1.13804036491,3.69863118595,208.
7.06,8422.,15.,15.,1548.,0.,0.,10000.,1.1236859503,3.89544462772,195.
7.08,8398.,23.,16.,1561.,0.,0.,9998.,1.10323624411,2.49427324755,299.
7.1,8379.,28.,21.,1571.,0.,0.,9999.,1.0786946253,2.00329001842,364.
7.12,8366.,32.,18.,1586.,0.,0.,10002.,1.05065161072,1.70730886741,416.
7.14,8352.,39.,14.,1600.,0.,0.,10005.,1.01885058898,1.35846745197,507.
7.16,8337.,36.,17.,1613.,0.,0.,10003.,0.984283982348,1.42174353006,468.
7.18,8332.,34.,19.,1622.,0.,0.,10007.,0.947656221927,1.44935657471,442.
7.2,8325.,38.,14.,1632.,0.,0.,10009.,0.90889102467,1.24374561271,494.
7.22,8320.,32.,18.,1644.,0.,0.,10014.,0.86857820512,1.41143958332,416.
7.24,8311.,23.,24.,1657.,0.,0.,10015.,0.827331066694,1.87048762905,299.
7.26,8292.,31.,11.,1680.,0.,0.,10014.,0.785070141787,1.31689185074,403.
7.28,8288.,27.,9.,1691.,0.,0.,10015.,0.744503449439,1.43385849522,351.
7.3,8283.,28.,6.,1694.,0.,0.,10011.,0.705201299843,1.30965955685,364.
7.32,8275.,22.,13.,1696.,0.,0.,10006.,0.667308051465,1.57727357619,286.
7.34,8274.,18.,9.,1704.,0.,0.,10005.,0.63189089984,1.82546259954,234.
7.36,8281.,12.,9.,1704.,0.,0.,10006.,0.599653242348,2.59849738351,156.
7.38,8282.,13.,5.,1707.,0.,0.,10007.,0.570192467836,2.28076987135,169.
7.4,8287.,11.,6.,1706.,0.,0.,10010.,0.544585908495,2.57440611289,143.
7.42,8292.,5.,5.,1707.,0.,0.,10009.,0.523282852214,5.44214166303,65.
7.44,8296.,6.,2.,1709.,0.,0.,10013.,0.506092497284,4.38613497646,78.
7.46,8293.,5.,3.,1709.,0.,0.,10010.,0.493554255942,5.13296426179,65.
7.48,8295.,5.,0.,1711.,0.,0.,10011.,0.486039014025,5.05480574587,65.
7.5,8294.,4.,2.,1711.,0.,0.,10011.,0.48343904563,6.28470759319,52.
7.52,8293.,2.,3.,1710.,0.,0.,10008.,0.486067485615,12.637754626,26.
7.54,8296.,3.,0.,1710.,0.,0.,10009.,0.493782128509,8.55889022749,39.
7.56,8296.,1.,2.,1708.,0.,0.,10007.,0.506395940372,26.3325888994,13.
7.58,8299.,0.,2.,1705.,0.,0.,10006.,0.52388162405,inf,0.
7.6,8301.,1.,0.,1704.,0.,0.,10006.,0.545723999659,28.3776479823,13.
7.62,8304.,1.,1.,1698.,0.,0.,10004.,0.571878549678,29.7376845832,13.
7.64,8314.,1.,0.,1693.,0.,0.,10008.,0.601922563762,31.2999733156,13.
7.66,8314.,2.,0.,1691.,0.,0.,10007.,0.63481882621,16.5052894815,26.
7.68,8310.,3.,0.,1688.,0.,0.,10001.,0.670465534186,11.6214025926,39.
7.7,8314.,3.,0.,1684.,0.,0.,10001.,0.708548359804,12.2815049033,39.
7.72,8319.,1.,1.,1680.,0.,0.,10001.,0.748334249849,38.9133809921,13.
7.74,8320.,1.,0.,1680.,0.,0.,10001.,0.788745061418,41.0147431937,13.
7.76,8326.,3.,0.,1674.,0.,0.,10003.,0.829818555213,14.3835216237,39.
7.78,8328.,2.,2.,1672.,0.,0.,10004.,0.870282442221,22.6273434978,26.
7.8,8335.,3.,2.,1663.,0.,0.,10003.,0.910528611584,15.7824959341,39.
7.82,8340.,2.,4.,1663.,0.,0.,10009.,0.948376574848,24.6577909461,26.
7.84,8344.,6.,3.,1660.,0.,0.,10013.,0.984126585825,8.52909707715,78.
7.86,8345.,6.,2.,1660.,0.,0.,10013.,1.01718332727,8.81558883638,78.
7.88,8344.,9.,3.,1659.,0.,0.,10015.,1.04652850598,6.04660914564,117.
7.9,8345.,9.,5.,1660.,0.,0.,10019.,1.07217297726,6.19477720196,117.
7.92,8341.,7.,4.,1666.,0.,0.,10018.,1.09356065648,8.12359344813,91.
7.94,8333.,12.,2.,1668.,0.,0.,10015.,1.11014611114,4.81063314829,156.
7.96,8335.,12.,3.,1666.,0.,0.,10016.,1.12286435339,4.86574553135,156.
7.98,8329.,8.,10.,1667.,0.,0.,10014.,1.12989391616,7.34431045507,104.
8.,8320.,11.,10.,1672.,0.,0.,10013.,1.13133454828,5.34812695552,143.
8.02,8306.,24.,10.,1674.,0.,0.,10014.,1.12677378649,2.44134320406,312.
8.04,8296.,21.,9.,1686.,0.,0.,10012.,1.11805690736,2.76852186583,273.
8.06,8282.,26.,15.,1690.,0.,0.,10013.,1.10357212902,2.20714425804,338.
8.08,8272.,24.,17.,1698.,0.,0.,10011.,1.08527262274,2.35142401595,312.
8.1,8264.,32.,16.,1702.,0.,0.,10014.,1.06229616647,1.72623127051,416.
8.12,8245.,40.,10.,1716.,0.,0.,10011.,1.03452483106,1.34488228038,520.
8.14,8240.,35.,13.,1723.,0.,0.,10011.,1.00458539161,1.49252686753,455.
8.16,8236.,31.,16.,1727.,0.,0.,10010.,0.97167973534,1.62991439476,403.
8.18,8219.,41.,11.,1740.,0.,0.,10011.,0.934430436477,1.18513128529,533.
8.2,8211.,33.,16.,1747.,0.,0.,10007.,0.896624112953,1.41286223859,429.
8.22,8196.,36.,13.,1762.,0.,0.,10007.,0.856231573346,1.23677893928,468.
8.24,8189.,31.,12.,1775.,0.,0.,10007.,0.815838085078,1.36850259432,403.
8.26,8188.,23.,11.,1790.,0.,0.,10012.,0.775378486603,1.75302962188,299.
8.28,8175.,29.,12.,1796.,0.,0.,10012.,0.734572804709,1.31716502913,377.
8.3,8158.,30.,14.,1805.,0.,0.,10007.,0.694836630119,1.20438349221,390.
8.32,8153.,26.,12.,1819.,0.,0.,10010.,0.657207068595,1.31441413719,338.
8.34,8152.,21.,15.,1826.,0.,0.,10014.,0.622014145485,1.54022550311,273.
8.36,8144.,23.,13.,1834.,0.,0.,10014.,0.589261515135,1.33224342552,299.
8.38,8143.,17.,9.,1846.,0.,0.,10015.,0.560174881324,1.71347610758,221.
8.4,8140.,12.,12.,1849.,0.,0.,10013.,0.534765432963,2.31731687617,156.
8.42,8135.,15.,6.,1856.,0.,0.,10012.,0.513221232708,1.77916694005,195.
8.44,8131.,10.,12.,1857.,0.,0.,10010.,0.496175430758,2.58011223994,130.
8.46,8132.,6.,3.,1869.,0.,0.,10010.,0.48397241159,4.19442756711,78.
8.48,8141.,4.,3.,1865.,0.,0.,10013.,0.476920225666,6.19996293366,52.
8.5,8146.,5.,1.,1865.,0.,0.,10017.,0.474528046667,4.93509168534,65.
8.52,8149.,4.,1.,1863.,0.,0.,10017.,0.477198254277,6.2035773056,52.
8.54,8150.,2.,3.,1861.,0.,0.,10016.,0.484753112385,12.603580922,26.
8.56,8150.,1.,4.,1860.,0.,0.,10015.,0.497086566735,25.8485014702,13.
8.58,8155.,2.,3.,1857.,0.,0.,10017.,0.514226188646,13.3698809048,26.
8.6,8157.,2.,1.,1859.,0.,0.,10019.,0.535561345336,13.9245949787,26.
8.62,8168.,1.,0.,1856.,0.,0.,10025.,0.561334192861,29.1893780288,13.
8.64,8172.,0.,1.,1854.,0.,0.,10027.,0.590520859498,inf,0.
8.66,8171.,1.,2.,1851.,0.,0.,10025.,0.622779784026,32.3845487693,13.
8.68,8176.,2.,1.,1842.,0.,0.,10021.,0.658337632983,17.1167784576,26.
8.7,8177.,1.,0.,1838.,0.,0.,10016.,0.695829098041,36.1831130981,13.
8.72,8183.,1.,0.,1835.,0.,0.,10019.,0.734777924639,38.2084520812,13.
8.74,8181.,0.,1.,1833.,0.,0.,10015.,0.77448354149,inf,0.
8.76,8187.,1.,0.,1830.,0.,0.,10018.,0.814743242236,42.3666485963,13.
8.78,8187.,2.,0.,1825.,0.,0.,10014.,0.854693481408,22.2220305166,26.
8.8,8195.,2.,1.,1817.,0.,0.,10015.,0.894162116936,23.2482150403,26.
8.82,8196.,4.,2.,1813.,0.,0.,10015.,0.931443364021,12.1087637323,52.
8.84,8199.,5.,2.,1813.,0.,0.,10019.,0.966445559192,10.0510338156,65.
8.86,8200.,5.,1.,1812.,0.,0.,10018.,0.999010224726,10.3897063371,65.
8.88,8202.,5.,4.,1806.,0.,0.,10017.,1.02851306258,10.6965358508,65.
8.9,8196.,5.,6.,1805.,0.,0.,10012.,1.05376556258,10.9591618509,65.
8.92,8189.,15.,2.,1806.,0.,0.,10012.,1.07427585144,3.72415628499,195.
8.94,8191.,8.,8.,1807.,0.,0.,10014.,1.09133743499,7.09369332745,104.
8.96,8178.,17.,6.,1809.,0.,0.,10010.,1.102374187,3.37196810142,221.
8.98,8176.,13.,9.,1813.,0.,0.,10011.,1.1094706468,4.43788258718,169.
9.,8177.,17.,8.,1817.,0.,0.,10019.,1.11122386704,3.39903771096,221.
9.02,8164.,24.,8.,1822.,0.,0.,10018.,1.10706816901,2.39864769952,312.
9.04,8157.,26.,10.,1826.,0.,0.,10019.,1.09855572646,2.19711145293,338.
9.06,8145.,26.,13.,1837.,0.,0.,10021.,1.08445051727,2.16890103455,338.
9.08,8134.,31.,12.,1843.,0.,0.,10020.,1.06620871913,1.78847914176,403.
9.1,8125.,28.,12.,1853.,0.,0.,10018.,1.04401138593,1.93887828815,364.
9.12,8117.,24.,17.,1862.,0.,0.,10020.,1.01754949961,2.2046905825,312.
9.14,8102.,25.,13.,1879.,0.,0.,10019.,0.98697231434,2.05290241383,325.
9.16,8094.,21.,16.,1888.,0.,0.,10019.,0.954068832309,2.36245615619,273.
9.18,8085.,23.,10.,1903.,0.,0.,10021.,0.918278506,2.07610792661,299.
9.2,8080.,28.,3.,1911.,0.,0.,10022.,0.880998612047,1.63614027952,364.
9.22,8078.,21.,11.,1910.,0.,0.,10020.,0.842809293145,2.08695634493,273.
9.24,8072.,20.,15.,1912.,0.,0.,10019.,0.80321864392,2.08836847419,260.
9.26,8051.,27.,10.,1926.,0.,0.,10014.,0.762252738969,1.46804231209,351.
9.28,8047.,22.,11.,1935.,0.,0.,10015.,0.722854640159,1.7085655131,286.
9.3,8036.,25.,12.,1940.,0.,0.,10013.,0.684035460282,1.42279375739,325.
9.32,8032.,22.,7.,1950.,0.,0.,10011.,0.647388677328,1.53019141914,286.
9.34,8030.,19.,9.,1950.,0.,0.,10008.,0.613072627187,1.67788297967,247.
9.36,8032.,15.,6.,1958.,0.,0.,10011.,0.581331877942,2.01528384353,195.
9.38,8030.,15.,6.,1962.,0.,0.,10013.,0.552511699604,1.91537389196,195.
9.4,8033.,11.,5.,1965.,0.,0.,10014.,0.527683261239,2.49450268949,143.
9.42,8035.,8.,4.,1967.,0.,0.,10014.,0.506811187623,3.29427271955,104.
9.44,8039.,5.,4.,1967.,0.,0.,10015.,0.490316430673,5.099290879,65.
9.46,8045.,4.,3.,1964.,0.,0.,10016.,0.478507826888,6.22060174955,52.
9.48,8042.,7.,3.,1963.,0.,0.,10015.,0.471026474046,3.4990538072,91.
9.5,8043.,6.,2.,1967.,0.,0.,10018.,0.468481230321,4.06017066278,78.
9.52,8048.,2.,3.,1962.,0.,0.,10015.,0.471377898921,12.255825372,26.
9.54,8049.,2.,2.,1961.,0.,0.,10014.,0.478841357813,12.4498753031,26.
9.56,8061.,1.,3.,1951.,0.,0.,10016.,0.491609172156,25.5636769521,13.
9.58,8064.,0.,3.,1950.,0.,0.,10017.,0.508488042335,inf,0.
9.6,8066.,1.,1.,1948.,0.,0.,10016.,0.529745211795,27.5467510134,13.
9.62,8070.,2.,0.,1947.,0.,0.,10019.,0.554931410649,14.4282166769,26.
9.64,8071.,1.,3.,1943.,0.,0.,10018.,0.583746406544,30.3548131403,13.
9.66,8069.,1.,1.,1944.,0.,0.,10015.,0.615619601133,32.0122192589,13.
9.68,8072.,2.,1.,1939.,0.,0.,10014.,0.650417813584,16.9108631532,26.
9.7,8077.,3.,3.,1933.,0.,0.,10016.,0.687319508974,11.9135381555,39.
9.72,8084.,1.,2.,1931.,0.,0.,10018.,0.725960854209,37.7499644189,13.
9.74,8083.,2.,2.,1929.,0.,0.,10016.,0.76512962362,19.8933702141,26.
9.76,8084.,5.,1.,1929.,0.,0.,10019.,0.804412725155,8.36589234161,65.
9.78,8083.,2.,3.,1929.,0.,0.,10017.,0.843583532594,21.9331718475,26.
9.8,8081.,3.,3.,1929.,0.,0.,10016.,0.881635466604,15.2816814211,39.
9.82,8083.,5.,0.,1926.,0.,0.,10014.,0.918693087419,9.55440810916,65.
9.84,8088.,3.,3.,1920.,0.,0.,10014.,0.953837605148,16.5331851559,39.
9.86,8083.,4.,4.,1920.,0.,0.,10011.,0.985444626255,12.8107801413,52.
9.88,8085.,5.,5.,1916.,0.,0.,10011.,1.01444915211,10.5502711819,65.
9.9,8084.,10.,6.,1913.,0.,0.,10013.,1.03926184112,5.40416157383,130.
9.92,8091.,7.,6.,1908.,0.,0.,10012.,1.06141969886,7.88483204869,91.
9.94,8089.,10.,7.,1906.,0.,0.,10012.,1.07796263719,5.60540571339,130.
9.96,8084.,12.,9.,1907.,0.,0.,10012.,1.08948553991,4.72110400626,156.
9.98,8079.,14.,13.,1905.,0.,0.,10011.,1.09630789573,4.07200075556,182.
10.,8062.,26.,8.,1912.,0.,0.,10008.,1.09679998707,2.19359997414,338.
