t,s,e,i,r,c,o,n,reff,coal,reportr
5.,7621.,18.,9.,2352.,0.,0.,10000.,1.18687127323,3.42873923378,234.
5.02,7628.,17.,7.,2353.,0.,0.,10005.,1.18469267675,3.62376583475,221.
5.04,7625.,21.,11.,2351.,0.,0.,10008.,1.17589427286,2.91173819946,273.
5.06,7617.,25.,6.,2361.,0.,0.,10009.,1.16140234162,2.41571687056,325.
5.08,7611.,22.,19.,2359.,0.,0.,10011.,1.14216740192,2.69966840454,286.
5.1,7598.,30.,16.,2366.,0.,0.,10010.,1.11760367648,1.9371797059,390.
5.12,7590.,30.,15.,2376.,0.,0.,10011.,1.08931065681,1.8881384718,390.
5.14,7570.,39.,10.,2388.,0.,0.,10007.,1.05606051503,1.40808068671,507.
5.16,7568.,32.,10.,2398.,0.,0.,10008.,1.02149072812,1.65992243319,416.
5.18,7564.,28.,18.,2401.,0.,0.,10011.,0.983646912027,1.82677283662,364.
5.2,7552.,33.,19.,2407.,0.,0.,10011.,0.942893189839,1.48577108702,429.
5.22,7535.,30.,24.,2418.,0.,0.,10007.,0.90039331617,1.56068174803,390.
5.24,7523.,29.,18.,2438.,0.,0.,10008.,0.857196691831,1.53704234397,377.
5.26,7512.,35.,16.,2446.,0.,0.,10009.,0.813919327112,1.20925157171,455.
5.28,7501.,30.,17.,2460.,0.,0.,10008.,0.771257697503,1.33684667567,390.
5.3,7496.,19.,21.,2471.,0.,0.,10007.,0.73027813787,1.99865595628,247.
5.32,7486.,22.,15.,2486.,0.,0.,10009.,0.690299743119,1.63161757464,286.
5.34,7485.,15.,13.,2492.,0.,0.,10005.,0.653849967209,2.26667988632,195.
5.36,7480.,16.,13.,2499.,0.,0.,10008.,0.619429548555,2.0131460328,208.
5.38,7478.,16.,6.,2508.,0.,0.,10008.,0.58882742731,1.91368913876,208.
5.4,7476.,17.,2.,2511.,0.,0.,10006.,0.562175156603,1.71959459667,221.
5.42,7471.,14.,7.,2512.,0.,0.,10004.,0.539551208634,2.00404734636,182.
5.44,7473.,12.,5.,2512.,0.,0.,10002.,0.522027306725,2.26211832914,156.
5.46,7477.,7.,8.,2510.,0.,0.,10002.,0.509398381762,3.78410226452,91.
5.48,7483.,3.,6.,2514.,0.,0.,10006.,0.501772858525,8.69739621444,39.
5.5,7483.,3.,0.,2518.,0.,0.,10004.,0.499248689614,8.65364395331,39.
5.52,7488.,2.,0.,2514.,0.,0.,10004.,0.502208515196,13.0574213951,26.
5.54,7492.,0.,1.,2510.,0.,0.,10003.,0.510369285723,inf,0.
5.56,7500.,0.,0.,2501.,0.,0.,10001.,0.523965781047,inf,0.
5.58,7511.,1.,0.,2491.,0.,0.,10003.,0.542494212746,28.2096990628,13.
5.6,7515.,0.,4.,2487.,0.,0.,10006.,0.565107852043,inf,0.
5.62,7516.,0.,1.,2487.,0.,0.,10004.,0.592056229824,inf,0.
5.64,7518.,1.,1.,2484.,0.,0.,10004.,0.62282531414,32.3869163353,13.
5.66,7518.,1.,0.,2484.,0.,0.,10003.,0.656863979617,34.1569269401,13.
5.68,7525.,0.,0.,2481.,0.,0.,10006.,0.694104058801,inf,0.
5.7,7529.,1.,0.,2476.,0.,0.,10006.,0.733566381635,38.145451845,13.
5.72,7532.,2.,0.,2473.,0.,0.,10007.,0.774522528002,20.137585728,26.
5.74,7541.,0.,2.,2464.,0.,0.,10007.,0.817224752422,inf,0.
5.76,7544.,2.,1.,2459.,0.,0.,10006.,0.859761319421,22.353794305,26.
5.78,7548.,0.,2.,2456.,0.,0.,10006.,0.902036889158,inf,0.
5.8,7553.,2.,1.,2452.,0.,0.,10008.,0.94330072255,24.5258187863,26.
5.82,7560.,2.,0.,2446.,0.,0.,10008.,0.983421441409,25.5689574766,26.
5.84,7564.,3.,0.,2442.,0.,0.,10009.,1.02084882487,17.6947129645,39.
5.86,7570.,6.,1.,2435.,0.,0.,10012.,1.05553311765,9.14795368629,78.
5.88,7578.,6.,3.,2426.,0.,0.,10013.,1.08737119124,9.42388365742,78.
5.9,7574.,8.,6.,2423.,0.,0.,10011.,1.11396218778,7.24075422057,104.
5.92,7572.,13.,4.,2424.,0.,0.,10013.,1.13608778278,4.54435113111,169.
5.94,7564.,13.,6.,2428.,0.,0.,10011.,1.15309075398,4.61236301592,169.
5.96,7564.,9.,9.,2428.,0.,0.,10010.,1.16625405432,6.73835675827,117.
5.98,7558.,14.,7.,2432.,0.,0.,10011.,1.17311756812,4.35729382443,182.
6.,7550.,19.,4.,2436.,0.,0.,10009.,1.17475666899,3.21512351513,247.
6.02,7544.,19.,8.,2438.,0.,0.,10009.,1.17117853163,3.20533071815,247.
6.04,7539.,24.,8.,2437.,0.,0.,10008.,1.16263172762,2.51903540984,312.
6.06,7536.,27.,8.,2438.,0.,0.,10009.,1.14905186378,2.21298877469,351.
6.08,7520.,27.,19.,2442.,0.,0.,10008.,1.12884949841,2.17408051545,351.
6.1,7513.,28.,18.,2453.,0.,0.,10012.,1.1048801162,2.0519202158,364.
6.12,7501.,33.,15.,2462.,0.,0.,10011.,1.07653744884,1.6963620406,429.
6.14,7485.,35.,20.,2471.,0.,0.,10011.,1.0437852819,1.55076670454,455.
6.16,7468.,48.,13.,2482.,0.,0.,10011.,1.00769116337,1.09166542698,624.
6.18,7450.,42.,18.,2498.,0.,0.,10008.,0.969112399273,1.19985344672,546.
6.2,7438.,36.,20.,2510.,0.,0.,10004.,0.929309699521,1.34233623264,468.
6.22,7429.,35.,17.,2526.,0.,0.,10007.,0.887726867396,1.3189084887,455.
6.24,7420.,35.,10.,2543.,0.,0.,10008.,0.845460514873,1.25611276495,455.
6.26,7411.,36.,11.,2552.,0.,0.,10010.,0.802895838686,1.15973843366,468.
6.28,7402.,33.,13.,2565.,0.,0.,10013.,0.760698407961,1.19867627921,429.
6.3,7401.,25.,15.,2575.,0.,0.,10016.,0.72037512796,1.49838026616,325.
6.32,7394.,30.,10.,2582.,0.,0.,10016.,0.681339721432,1.18098885048,390.
6.34,7394.,23.,11.,2585.,0.,0.,10013.,0.645384639364,1.459130489,299.
6.36,7394.,14.,16.,2589.,0.,0.,10013.,0.612002008576,2.27315031757,182.
6.38,7397.,14.,4.,2596.,0.,0.,10011.,0.582274839346,2.16273511757,182.
6.4,7397.,13.,5.,2596.,0.,0.,10011.,0.555956756713,2.22382702685,169.
6.42,7404.,9.,5.,2593.,0.,0.,10011.,0.534338620716,3.08728980858,117.
6.44,7406.,8.,4.,2593.,0.,0.,10011.,0.516881913028,3.35973243468,104.
6.46,7405.,6.,2.,2595.,0.,0.,10008.,0.504190660572,4.36965239162,78.
6.48,7412.,5.,5.,2586.,0.,0.,10008.,0.496912627809,5.16789132921,65.
6.5,7416.,6.,2.,2583.,0.,0.,10007.,0.494630272706,4.28679569679,78.
6.52,7421.,4.,3.,2581.,0.,0.,10009.,0.497466295695,6.46706184403,52.
6.54,7424.,2.,4.,2582.,0.,0.,10012.,0.505282378668,13.1373418454,26.
6.56,7428.,2.,2.,2579.,0.,0.,10011.,0.518417344042,13.4788509451,26.
6.58,7431.,0.,3.,2573.,0.,0.,10007.,0.536501546144,inf,0.
6.6,7435.,1.,3.,2571.,0.,0.,10010.,0.558868653112,29.0611699618,13.
6.62,7434.,3.,1.,2571.,0.,0.,10009.,0.585304326548,10.1452749935,39.
6.64,7437.,2.,2.,2565.,0.,0.,10006.,0.615991756636,16.0157856725,26.
6.66,7442.,1.,1.,2565.,0.,0.,10009.,0.649833911229,33.7913633839,13.
6.68,7451.,0.,1.,2561.,0.,0.,10013.,0.68679784768,inf,0.
6.7,7454.,1.,1.,2557.,0.,0.,10013.,0.725751251888,37.7390650982,13.
6.72,7460.,0.,1.,2557.,0.,0.,10018.,0.766276386987,inf,0.
6.74,7459.,1.,0.,2554.,0.,0.,10014.,0.807773295071,42.0042113437,13.
6.76,7458.,5.,1.,2551.,0.,0.,10015.,0.849196404253,8.83164260423,65.
6.78,7461.,3.,4.,2546.,0.,0.,10014.,0.890927487996,15.4427431253,39.
6.8,7462.,5.,2.,2548.,0.,0.,10017.,0.931098334957,9.68342268355,65.
6.82,7457.,7.,3.,2548.,0.,0.,10015.,0.969344975598,7.20084839015,91.
6.84,7457.,6.,6.,2545.,0.,0.,10014.,1.00590544335,8.71784717572,78.
6.86,7459.,7.,3.,2547.,0.,0.,10016.,1.03964032586,7.72304242066,91.
6.88,7462.,7.,2.,2541.,0.,0.,10012.,1.07083323475,7.95476117241,91.
6.9,7458.,7.,4.,2539.,0.,0.,10008.,1.09723004795,8.15085178476,91.
6.92,7455.,9.,5.,2539.,0.,0.,10008.,1.11909215567,6.4658657883,117.
6.94,7456.,11.,4.,2539.,0.,0.,10010.,1.13674028917,5.37368136697,143.
6.96,7450.,12.,11.,2538.,0.,0.,10011.,1.14856224221,4.97710304958,156.
6.98,7443.,15.,10.,2544.,0.,0.,10012.,1.15515241527,4.00452837293,195.
7.,7433.,22.,10.,2545.,0.,0.,10010.,1.1564362909,2.7333948694,286.
7.02,7433.,19.,7.,2555.,0.,0.,10014.,1.15337001933,3.15659163186,247.
7.04,7427.,23.,12.,2552.,0.,0.,10014.,1.14467332069,2.58795707286,299.
7.06,7416.,27.,13.,2556.,0.,0.,10012.,1.13041603971,2.17709755795,351.
7.08,7396.,29.,16.,2568.,0.,0.,10009.,1.110124567,1.99056818911,377.
7.1,7388.,28.,19.,2572.,0.,0.,10007.,1.08704017977,2.01878890529,364.
7.12,7379.,29.,15.,2587.,0.,0.,10010.,1.0591339046,1.89913665653,377.
7.14,7375.,23.,19.,2593.,0.,0.,10010.,1.02854849388,2.32541398616,299.
7.16,7359.,25.,16.,2608.,0.,0.,10008.,0.9932809551,2.06602438661,325.
7.18,7337.,33.,18.,2620.,0.,0.,10008.,0.954413110532,1.50392368932,429.
7.2,7326.,29.,18.,2634.,0.,0.,10007.,0.915041926665,1.64076483402,377.
7.22,7305.,35.,20.,2646.,0.,0.,10006.,0.872996750834,1.2970237441,455.
7.24,7295.,30.,24.,2656.,0.,0.,10005.,0.831466822325,1.4412091587,390.
7.26,7288.,33.,14.,2673.,0.,0.,10008.,0.789728004024,1.24441988513,429.
7.28,7286.,30.,15.,2678.,0.,0.,10009.,0.749076409938,1.29839911056,390.
7.3,7282.,27.,13.,2691.,0.,0.,10013.,0.709004643983,1.36549042545,351.
7.32,7283.,21.,15.,2695.,0.,0.,10014.,0.671245366941,1.66213138481,273.
7.34,7284.,19.,10.,2706.,0.,0.,10019.,0.635402552482,1.73899645943,247.
7.36,7281.,17.,12.,2710.,0.,0.,10020.,0.602227976702,1.84210910521,221.
7.38,7276.,20.,3.,2720.,0.,0.,10019.,0.572292666373,1.48796093257,260.
7.4,7272.,12.,11.,2723.,0.,0.,10018.,0.546179880691,2.36677948299,156.
7.42,7273.,14.,3.,2727.,0.,0.,10017.,0.524570097088,1.94840321775,182.
7.44,7277.,7.,6.,2723.,0.,0.,10013.,0.507777260039,3.77205964601,91.
7.46,7281.,8.,4.,2720.,0.,0.,10013.,0.495500212908,3.2207513839,104.
7.48,7281.,9.,5.,2718.,0.,0.,10013.,0.487886424894,2.81889934383,117.
7.5,7282.,5.,7.,2718.,0.,0.,10012.,0.485450223243,5.04868232173,65.
7.52,7285.,5.,4.,2720.,0.,0.,10014.,0.488105710341,5.07629938754,65.
7.54,7289.,1.,4.,2720.,0.,0.,10014.,0.495995108737,25.7917456543,13.
7.56,7298.,1.,0.,2715.,0.,0.,10014.,0.509191752921,26.4779711519,13.
7.58,7302.,1.,0.,2710.,0.,0.,10013.,0.526872133101,27.3973509213,13.
7.6,7304.,0.,0.,2706.,0.,0.,10010.,0.54902174073,inf,0.
7.62,7302.,0.,0.,2703.,0.,0.,10005.,0.575141363327,inf,0.
7.64,7311.,0.,0.,2695.,0.,0.,10006.,0.605555429981,inf,0.
7.66,7313.,0.,0.,2691.,0.,0.,10004.,0.638888814895,inf,0.
7.68,7321.,0.,0.,2683.,0.,0.,10004.,0.675422154855,inf,0.
7.7,7325.,0.,0.,2678.,0.,0.,10003.,0.713904273361,inf,0.
7.72,7330.,0.,1.,2671.,0.,0.,10002.,0.754127481108,inf,0.
7.74,7329.,3.,1.,2668.,0.,0.,10001.,0.794726629796,13.7752615831,39.
7.76,7333.,1.,1.,2666.,0.,0.,10001.,0.836132258085,43.4788774204,13.
7.78,7341.,2.,2.,2658.,0.,0.,10003.,0.877562104313,22.8166147121,26.
7.8,7341.,3.,2.,2656.,0.,0.,10002.,0.917373842949,15.9011466111,39.
7.82,7342.,3.,4.,2653.,0.,0.,10002.,0.955636445066,16.5643650478,39.
7.84,7346.,5.,4.,2648.,0.,0.,10003.,0.992021894679,10.3170277047,65.
7.86,7351.,7.,4.,2640.,0.,0.,10002.,1.0260213501,7.62187288645,91.
7.88,7349.,8.,2.,2640.,0.,0.,9999.,1.05598832549,6.86392411566,104.
7.9,7346.,13.,3.,2639.,0.,0.,10001.,1.08150892256,4.32603569022,169.
7.92,7346.,10.,4.,2641.,0.,0.,10001.,1.10350167616,5.73820871606,130.
7.94,7347.,11.,5.,2638.,0.,0.,10001.,1.12113017982,5.29988812279,143.
7.96,7341.,14.,9.,2635.,0.,0.,9999.,1.13311601966,4.20871664445,182.
7.98,7330.,18.,12.,2635.,0.,0.,9995.,1.13954974593,3.29203259935,234.
8.,7320.,24.,13.,2639.,0.,0.,9996.,1.14045063243,2.47097637027,312.
8.02,7310.,24.,20.,2644.,0.,0.,9998.,1.13609946934,2.46154885023,312.
8.04,7293.,20.,19.,2667.,0.,0.,9999.,1.12570700604,2.92683821572,260.
8.06,7278.,22.,15.,2679.,0.,0.,9994.,1.11137887405,2.62689552048,286.
8.08,7258.,32.,18.,2688.,0.,0.,9996.,1.09082784858,1.77259525394,416.
8.1,7244.,28.,20.,2702.,0.,0.,9994.,1.06723904749,1.98201537391,364.
8.12,7233.,30.,8.,2725.,0.,0.,9996.,1.03963204031,1.80202886987,390.
8.14,7225.,22.,14.,2735.,0.,0.,9996.,1.0090401084,2.38500389258,286.
8.16,7210.,31.,8.,2748.,0.,0.,9997.,0.974240489408,1.6342098532,403.
8.18,7198.,30.,19.,2749.,0.,0.,9996.,0.9374557322,1.62492326915,390.
8.2,7182.,34.,20.,2757.,0.,0.,9993.,0.898312602482,1.37388986262,442.
8.22,7169.,35.,14.,2776.,0.,0.,9994.,0.857772543739,1.27440492213,455.
8.24,7154.,28.,19.,2789.,0.,0.,9990.,0.816620294556,1.51658054703,364.
8.26,7150.,27.,22.,2791.,0.,0.,9990.,0.776170307651,1.49484651844,351.
8.28,7140.,29.,16.,2804.,0.,0.,9989.,0.735535843747,1.31889185775,377.
8.3,7127.,27.,12.,2822.,0.,0.,9988.,0.695650091369,1.33977054634,351.
8.32,7129.,21.,15.,2824.,0.,0.,9989.,0.658696233085,1.63105733907,273.
8.34,7125.,22.,13.,2825.,0.,0.,9985.,0.623648947954,1.47407933153,286.
8.36,7125.,24.,10.,2825.,0.,0.,9984.,0.591449833353,1.28147463893,312.
8.38,7125.,13.,22.,2824.,0.,0.,9984.,0.562380383088,2.24952153235,169.
8.4,7124.,15.,9.,2835.,0.,0.,9983.,0.536939921613,1.86139172826,195.
8.42,7130.,12.,6.,2835.,0.,0.,9983.,0.516007572613,2.23603281465,156.
8.44,7134.,10.,6.,2834.,0.,0.,9984.,0.499244882369,2.59607338832,130.
8.46,7137.,9.,6.,2836.,0.,0.,9988.,0.486916165908,2.81329340302,117.
8.48,7150.,4.,6.,2838.,0.,0.,9998.,0.479827162014,6.23775310618,52.
8.5,7152.,3.,1.,2840.,0.,0.,9996.,0.477547009552,8.27748149891,39.
8.52,7160.,3.,0.,2837.,0.,0.,10000.,0.480402149304,8.32697058794,39.
8.54,7173.,2.,1.,2826.,0.,0.,10002.,0.488687253227,12.7058685839,26.
8.56,7174.,1.,1.,2822.,0.,0.,9998.,0.501341122396,26.0697383646,13.
8.58,7190.,1.,0.,2812.,0.,0.,10003.,0.519309464737,27.0040921663,13.
8.6,7197.,0.,1.,2806.,0.,0.,10004.,0.541303300354,inf,0.
8.62,7202.,0.,1.,2801.,0.,0.,10004.,0.567321576263,inf,0.
8.64,7210.,0.,0.,2794.,0.,0.,10004.,0.597309193263,inf,0.
8.66,7212.,0.,0.,2789.,0.,0.,10001.,0.630254108389,inf,0.
8.68,7216.,1.,0.,2783.,0.,0.,10000.,0.6660013397,34.6320696644,13.
8.7,7221.,0.,0.,2782.,0.,0.,10003.,0.7037682946,inf,0.
8.72,7225.,0.,0.,2776.,0.,0.,10001.,0.743399161477,inf,0.
8.74,7230.,1.,0.,2772.,0.,0.,10003.,0.783834725525,40.7594057273,13.
8.76,7235.,1.,0.,2769.,0.,0.,10005.,0.82462816443,42.8806645504,13.
8.78,7241.,1.,0.,2762.,0.,0.,10004.,0.865521319805,45.0071086299,13.
8.8,7246.,0.,0.,2758.,0.,0.,10004.,0.905321065169,inf,0.
8.82,7254.,0.,0.,2749.,0.,0.,10003.,0.944087954472,inf,0.
8.84,7261.,1.,0.,2742.,0.,0.,10004.,0.980445270647,50.9831540737,13.
8.86,7265.,3.,0.,2738.,0.,0.,10006.,1.01361247154,17.5692828401,39.
8.88,7274.,3.,1.,2726.,0.,0.,10004.,1.04468907139,18.1079439042,39.
8.9,7277.,5.,2.,2720.,0.,0.,10004.,1.07102917661,11.1387034367,65.
8.92,7276.,7.,5.,2718.,0.,0.,10006.,1.09244024829,8.11527041589,91.
8.94,7278.,9.,7.,2712.,0.,0.,10006.,1.11004601911,6.41359922154,117.
8.96,7274.,10.,5.,2719.,0.,0.,10008.,1.1217645824,5.83317582846,130.
8.98,7268.,16.,9.,2714.,0.,0.,10007.,1.12855604482,3.66780714568,208.
9.,7261.,21.,3.,2722.,0.,0.,10007.,1.13001496183,2.79813228644,273.
9.02,7262.,20.,12.,2715.,0.,0.,10009.,1.12739905842,2.93123755189,260.
9.04,7255.,26.,10.,2715.,0.,0.,10006.,1.11905811791,2.23811623582,338.
9.06,7243.,31.,15.,2719.,0.,0.,10008.,1.10448702791,1.85268791779,403.
9.08,7228.,28.,23.,2729.,0.,0.,10008.,1.08501651256,2.01503066619,364.
9.1,7208.,40.,13.,2747.,0.,0.,10008.,1.06044974331,1.3785846663,520.
9.12,7206.,32.,17.,2755.,0.,0.,10010.,1.03430260422,1.68074173186,416.
9.14,7186.,33.,17.,2770.,0.,0.,10006.,1.00259039512,1.57983941049,429.
9.16,7168.,38.,23.,2774.,0.,0.,10003.,0.967984337199,1.32461014564,494.
9.18,7154.,42.,16.,2789.,0.,0.,10001.,0.931259428216,1.15298786351,546.
9.2,7145.,36.,24.,2796.,0.,0.,10001.,0.892969827809,1.28984530683,468.
9.22,7137.,41.,19.,2807.,0.,0.,10004.,0.853090133884,1.08196797468,533.
9.24,7121.,36.,28.,2816.,0.,0.,10001.,0.811959335855,1.17283015179,468.
9.26,7111.,37.,20.,2834.,0.,0.,10002.,0.771010512673,1.08358234214,481.
9.28,7107.,30.,20.,2843.,0.,0.,10000.,0.731330958395,1.26764032789,390.
9.3,7101.,28.,17.,2858.,0.,0.,10004.,0.692003754869,1.28514983047,364.
9.32,7094.,26.,20.,2865.,0.,0.,10005.,0.654414132157,1.30882826431,338.
9.34,7081.,23.,16.,2881.,0.,0.,10001.,0.6188060651,1.39903979936,299.
9.36,7082.,22.,5.,2890.,0.,0.,9999.,0.586998472964,1.3874509361,286.
9.38,7079.,11.,14.,2891.,0.,0.,9995.,0.558134644404,2.63845468264,143.
9.4,7069.,18.,15.,2893.,0.,0.,9995.,0.532154867126,1.53733628281,234.
9.42,7071.,16.,7.,2901.,0.,0.,9995.,0.511123271834,1.66115063346,208.
9.44,7077.,11.,8.,2900.,0.,0.,9996.,0.494661416974,2.3383994257,143.
9.46,7082.,11.,4.,2898.,0.,0.,9995.,0.482825450642,2.28244758485,143.
9.48,7091.,10.,1.,2893.,0.,0.,9995.,0.476010580809,2.47525502021,130.
9.5,7098.,10.,1.,2888.,0.,0.,9997.,0.47389396102,2.4642485973,130.
9.52,7103.,5.,3.,2884.,0.,0.,9995.,0.476816126849,4.95888771923,65.
9.54,7108.,4.,3.,2880.,0.,0.,9995.,0.484598037724,6.29977449042,52.
9.56,7117.,0.,1.,2879.,0.,0.,9997.,0.497407538283,inf,0.
9.58,7119.,0.,0.,2875.,0.,0.,9994.,0.514644415118,inf,0.
9.6,7126.,0.,0.,2871.,0.,0.,9997.,0.536338510174,inf,0.
9.62,7132.,0.,0.,2867.,0.,0.,9999.,0.562088413354,inf,0.
9.64,7135.,1.,0.,2860.,0.,0.,9996.,0.591568918048,30.7615837385,13.
9.66,7138.,1.,0.,2855.,0.,0.,9994.,0.624224188015,32.4596577768,13.
9.68,7146.,1.,0.,2847.,0.,0.,9994.,0.659936645676,34.3167055752,13.
9.7,7149.,0.,1.,2842.,0.,0.,9992.,0.697518118352,inf,0.
9.72,7158.,0.,0.,2833.,0.,0.,9991.,0.737242524912,inf,0.
9.74,7164.,0.,0.,2826.,0.,0.,9990.,0.777690081679,inf,0.
9.76,7172.,0.,0.,2822.,0.,0.,9994.,0.818347305812,inf,0.
9.78,7181.,1.,0.,2816.,0.,0.,9998.,0.858864594485,44.6609589132,13.
9.8,7189.,0.,2.,2806.,0.,0.,9997.,0.898828367632,inf,0.
9.82,7193.,1.,0.,2806.,0.,0.,10000.,0.936429818571,48.6943505657,13.
9.84,7202.,3.,0.,2797.,0.,0.,10002.,0.972673018893,16.8596656608,39.
9.86,7203.,3.,1.,2791.,0.,0.,9998.,1.00576636496,17.4332836593,39.
9.88,7210.,4.,2.,2780.,0.,0.,9996.,1.03632614553,13.4722398919,52.
9.9,7206.,8.,2.,2778.,0.,0.,9994.,1.06164060964,6.90066396266,104.
9.92,7211.,8.,1.,2772.,0.,0.,9992.,1.08419792217,7.04728649408,104.
9.94,7213.,11.,1.,2770.,0.,0.,9995.,1.10134292112,5.20634835438,143.
9.96,7211.,13.,2.,2766.,0.,0.,9992.,1.11382969989,4.45531879954,169.
9.98,7207.,13.,2.,2765.,0.,0.,9987.,1.1213252059,4.48530082362,169.
10.,7199.,13.,1.,2767.,0.,0.,9980.,1.12339707574,4.49358830296,169.
