t,prevalence
5.,7
5.02,6
5.04,9
5.06,6
5.08,7
5.1,9
5.12,8
5.14,9
5.16,11
5.18,12
5.2,13
5.22,7
5.24,10
5.26,12
5.28,10
5.3,7
5.32,8
5.34,3
5.36,4
5.38,5
5.4,3
5.42,1
5.44,2
5.46,0
5.48,1
5.5,2
5.52,2
5.54,1
5.56,0
5.58,0
5.6,1
5.62,0
5.64,0
5.66,0
5.68,0
5.7,0
5.72,0
5.74,0
5.76,0
5.78,0
5.8,0
5.82,2
5.84,1
5.86,2
5.88,0
5.9,1
5.92,0
5.94,4
5.96,2
5.98,1
6.,4
6.02,7
6.04,4
6.06,5
6.08,3
6.1,7
6.12,10
6.14,8
6.16,14
6.18,13
6.2,15
6.22,15
6.24,6
6.26,10
6.28,9
6.3,8
6.32,8
6.34,10
6.36,3
6.38,2
6.4,4
6.42,4
6.44,1
6.46,2
6.48,4
6.5,2
6.52,1
6.54,2
6.56,1
6.58,0
6.6,0
6.62,0
6.64,0
6.66,0
6.68,0
6.7,0
6.72,0
6.74,0
6.76,0
6.78,0
6.8,2
6.82,1
6.84,1
6.86,2
6.88,2
6.9,1
6.92,2
6.94,1
6.96,4
6.98,1
7.,6
7.02,7
7.04,4
7.06,5
7.08,6
7.1,9
7.12,12
7.14,11
7.16,11
7.18,6
7.2,7
7.22,7
7.24,13
7.26,13
7.28,10
7.3,10
7.32,8
7.34,8
7.36,10
7.38,3
7.4,5
7.42,3
7.44,0
7.46,0
7.48,2
7.5,0
7.52,0
7.54,1
7.56,0
7.58,1
7.6,0
7.62,2
7.64,0
7.66,0
7.68,0
7.7,0
7.72,0
7.74,0
7.76,0
7.78,0
7.8,0
7.82,0
7.84,1
7.86,2
7.88,3
7.9,3
7.92,1
7.94,1
7.96,3
7.98,2
8.,4
8.02,2
8.04,5
8.06,8
8.08,6
8.1,7
8.12,7
8.14,7
8.16,4
8.18,9
8.2,17
8.22,5
8.24,14
8.26,5
8.28,5
8.3,7
8.32,5
8.34,7
8.36,1
8.38,5
8.4,3
8.42,2
8.44,4
8.46,5
8.48,0
8.5,1
8.52,2
8.54,0
8.56,1
8.58,2
8.6,0
8.62,1
8.64,2
8.66,1
8.68,0
8.7,0
8.72,0
8.74,1
8.76,1
8.78,1
8.8,0
8.82,0
8.84,1
8.86,1
8.88,2
8.9,3
8.92,2
8.94,4
8.96,3
8.98,4
9.,10
9.02,6
9.04,5
9.06,4
9.08,7
9.1,10
9.12,13
9.14,8
9.16,7
9.18,13
9.2,9
9.22,9
9.24,16
9.26,8
9.28,10
9.3,11
9.32,7
9.34,9
9.36,7
9.38,4
9.4,7
9.42,8
9.44,1
9.46,2
9.48,2
9.5,2
9.52,0
9.54,2
9.56,1
9.58,0
9.6,0
9.62,0
9.64,0
9.66,0
9.68,0
9.7,0
9.72,0
9.74,0
9.76,0
9.78,0
9.8,0
9.82,3
9.84,0
9.86,2
9.88,0
9.9,2
9.92,4
9.94,1
9.96,2
9.98,7
10.,6
