t,s,e,i,r,c,o,n,reff,coal,reportr
5.,7798.,12.,15.,2176.,0.,0.,10001.,1.14463114045,4.96006827528,156.
5.02,7784.,24.,13.,2181.,0.,0.,10002.,1.13988801164,2.46975735854,312.
5.04,7777.,29.,10.,2185.,0.,0.,10001.,1.13130183655,2.02854122416,377.
5.06,7768.,33.,6.,2195.,0.,0.,10002.,1.11723850324,1.76049703541,429.
5.08,7759.,31.,16.,2194.,0.,0.,10000.,1.09876634592,1.84309193509,403.
5.1,7743.,34.,10.,2212.,0.,0.,9999.,1.07475481028,1.64374265102,442.
5.12,7733.,31.,11.,2222.,0.,0.,9997.,1.04761052404,1.75728216935,403.
5.14,7718.,35.,13.,2227.,0.,0.,9993.,1.01634184989,1.50999360555,455.
5.16,7702.,38.,11.,2240.,0.,0.,9991.,0.981588031126,1.3432257268,494.
5.18,7697.,40.,11.,2246.,0.,0.,9994.,0.945107940993,1.22864032329,520.
5.2,7693.,35.,16.,2250.,0.,0.,9994.,0.906918921873,1.34742239821,455.
5.22,7677.,45.,10.,2263.,0.,0.,9995.,0.865756467196,1.00042969543,585.
5.24,7661.,37.,21.,2274.,0.,0.,9993.,0.824062957823,1.15814253532,481.
5.26,7644.,37.,22.,2288.,0.,0.,9991.,0.782100002545,1.09916757114,481.
5.28,7629.,36.,17.,2310.,0.,0.,9992.,0.740588440259,1.06973885815,468.
5.3,7617.,31.,14.,2329.,0.,0.,9991.,0.700602551562,1.17520428004,403.
5.32,7620.,23.,16.,2333.,0.,0.,9992.,0.663460727929,1.49999816749,299.
5.34,7615.,24.,17.,2337.,0.,0.,9993.,0.62778583384,1.36020263999,312.
5.36,7618.,23.,14.,2341.,0.,0.,9996.,0.595369297658,1.34605232514,299.
5.38,7618.,18.,12.,2351.,0.,0.,9999.,0.565937358623,1.63493014713,234.
5.4,7614.,17.,11.,2357.,0.,0.,9999.,0.540073982543,1.65199100543,221.
5.42,7619.,11.,6.,2363.,0.,0.,9999.,0.518923236648,2.45309166415,143.
5.44,7616.,9.,4.,2371.,0.,0.,10000.,0.501586825663,2.89805721494,117.
5.46,7616.,12.,1.,2370.,0.,0.,9999.,0.489239478078,2.12003773834,156.
5.48,7619.,8.,3.,2368.,0.,0.,9998.,0.481959846354,3.1327390013,104.
5.5,7623.,8.,0.,2368.,0.,0.,9999.,0.479643230653,3.11768099925,104.
5.52,7629.,6.,2.,2365.,0.,0.,10002.,0.482399424236,4.18079501005,78.
5.54,7637.,1.,4.,2359.,0.,0.,10001.,0.490490376105,25.5054995575,13.
5.56,7641.,2.,0.,2355.,0.,0.,9998.,0.503333982827,13.0866835535,26.
5.58,7643.,2.,0.,2350.,0.,0.,9995.,0.520766182365,13.5399207415,26.
5.6,7648.,1.,1.,2344.,0.,0.,9994.,0.542757066101,28.2233674372,13.
5.62,7653.,0.,0.,2343.,0.,0.,9996.,0.568708120381,inf,0.
5.64,7656.,0.,0.,2339.,0.,0.,9995.,0.598398974222,inf,0.
5.66,7661.,0.,0.,2336.,0.,0.,9997.,0.631325398402,inf,0.
5.68,7669.,0.,0.,2330.,0.,0.,9999.,0.667259620742,inf,0.
5.7,7674.,0.,0.,2326.,0.,0.,10000.,0.705210082592,inf,0.
5.72,7676.,0.,0.,2324.,0.,0.,10000.,0.744554864587,inf,0.
5.74,7683.,1.,0.,2321.,0.,0.,10005.,0.784990332237,40.8194972763,13.
5.76,7689.,1.,0.,2315.,0.,0.,10005.,0.826082811439,42.9563061948,13.
5.78,7694.,1.,0.,2306.,0.,0.,10001.,0.867153051984,45.0919587032,13.
5.8,7702.,2.,0.,2300.,0.,0.,10004.,0.907072304647,23.5838799208,26.
5.82,7702.,2.,1.,2297.,0.,0.,10002.,0.944965460424,24.569101971,26.
5.84,7706.,4.,0.,2294.,0.,0.,10004.,0.980821597903,12.7506807727,52.
5.86,7708.,5.,1.,2288.,0.,0.,10002.,1.01411166392,10.5467613047,65.
5.88,7705.,7.,2.,2286.,0.,0.,10000.,1.04350414276,7.75174506052,91.
5.9,7710.,9.,5.,2280.,0.,0.,10004.,1.06963942452,6.18013889725,117.
5.92,7709.,10.,2.,2279.,0.,0.,10000.,1.09168575341,5.67676591771,130.
5.94,7713.,11.,4.,2273.,0.,0.,10001.,1.10943900816,5.24462076585,143.
5.96,7714.,14.,5.,2270.,0.,0.,10003.,1.12191301506,4.16710548451,182.
5.98,7706.,16.,5.,2273.,0.,0.,10000.,1.12869139428,3.6682470314,208.
6.,7698.,16.,11.,2277.,0.,0.,10002.,1.12983964585,3.67197884901,208.
6.02,7689.,18.,9.,2285.,0.,0.,10001.,1.12608880957,3.25314544988,234.
6.04,7678.,31.,2.,2293.,0.,0.,10004.,1.116565604,1.8729487551,403.
6.06,7677.,21.,11.,2294.,0.,0.,10003.,1.10403997716,2.73381327679,273.
6.08,7663.,25.,10.,2300.,0.,0.,9998.,1.08538868603,2.25760846695,325.
6.1,7649.,36.,8.,2301.,0.,0.,9994.,1.06223846201,1.53434444513,468.
6.12,7640.,30.,13.,2309.,0.,0.,9992.,1.03552948143,1.79491776781,390.
6.14,7631.,35.,10.,2316.,0.,0.,9992.,1.00498585747,1.49312184538,455.
6.16,7625.,31.,9.,2327.,0.,0.,9992.,0.971677444458,1.62991055199,403.
6.18,7617.,33.,10.,2330.,0.,0.,9990.,0.935659298929,1.47437222862,429.
6.2,7612.,34.,14.,2335.,0.,0.,9995.,0.897280143152,1.37231080717,442.
6.22,7601.,33.,16.,2344.,0.,0.,9994.,0.857271507584,1.35085207256,429.
6.24,7594.,32.,13.,2356.,0.,0.,9995.,0.81669258436,1.32712544958,416.
6.26,7585.,36.,15.,2364.,0.,0.,10000.,0.775364928524,1.11997156342,468.
6.28,7576.,35.,17.,2372.,0.,0.,10000.,0.734855087821,1.09178470191,455.
6.3,7569.,33.,9.,2392.,0.,0.,10003.,0.69535239443,1.09570680334,429.
6.32,7568.,30.,7.,2398.,0.,0.,10003.,0.658208565296,1.14089484651,390.
6.34,7568.,24.,18.,2399.,0.,0.,10009.,0.622913761367,1.34964648296,312.
6.36,7564.,25.,10.,2411.,0.,0.,10010.,0.590322255604,1.22787029166,325.
6.38,7564.,20.,13.,2415.,0.,0.,10012.,0.561196098104,1.45910985507,260.
6.4,7566.,17.,4.,2423.,0.,0.,10010.,0.536079514385,1.63977263224,221.
6.42,7567.,11.,7.,2427.,0.,0.,10012.,0.514712370421,2.43318575108,143.
6.44,7570.,8.,8.,2425.,0.,0.,10011.,0.498009472966,3.23706157428,104.
6.46,7569.,8.,7.,2429.,0.,0.,10013.,0.485540449754,3.1560129234,104.
6.48,7574.,6.,4.,2430.,0.,0.,10014.,0.478347743728,4.14568044564,78.
6.5,7578.,3.,3.,2432.,0.,0.,10016.,0.476002521409,8.25071037108,39.
6.52,7579.,5.,1.,2432.,0.,0.,10017.,0.478520171147,4.97660977993,65.
6.54,7583.,3.,4.,2425.,0.,0.,10015.,0.486341387599,8.42991738505,39.
6.56,7591.,4.,0.,2420.,0.,0.,10015.,0.499191547973,6.48949012365,52.
6.58,7592.,2.,1.,2417.,0.,0.,10012.,0.516412887041,13.4267350631,26.
6.6,7599.,1.,1.,2410.,0.,0.,10011.,0.538363905709,27.9949230969,13.
6.62,7605.,1.,0.,2405.,0.,0.,10011.,0.564294374241,29.3433074605,13.
6.64,7610.,0.,1.,2398.,0.,0.,10009.,0.593971601856,inf,0.
6.66,7617.,0.,1.,2392.,0.,0.,10010.,0.626884265449,inf,0.
6.68,7618.,0.,0.,2389.,0.,0.,10007.,0.662292357331,inf,0.
6.7,7622.,1.,1.,2383.,0.,0.,10007.,0.699941530311,36.3969595762,13.
6.72,7626.,1.,1.,2381.,0.,0.,10009.,0.739039840348,38.4300716981,13.
6.74,7630.,2.,1.,2374.,0.,0.,10007.,0.779419390558,20.2649041545,26.
6.76,7635.,1.,1.,2367.,0.,0.,10004.,0.82036321074,42.6588869585,13.
6.78,7635.,2.,0.,2364.,0.,0.,10001.,0.860503450987,22.3730897257,26.
6.8,7644.,1.,0.,2359.,0.,0.,10004.,0.900241586175,46.8125624811,13.
6.82,7650.,1.,1.,2350.,0.,0.,10002.,0.93858553262,48.8064476962,13.
6.84,7655.,2.,1.,2343.,0.,0.,10001.,0.974622575075,25.3401869519,26.
6.86,7656.,6.,0.,2337.,0.,0.,9999.,1.00757243689,8.73229445305,78.
6.88,7661.,4.,2.,2330.,0.,0.,9997.,1.03785648838,13.492134349,52.
6.9,7666.,8.,1.,2324.,0.,0.,9999.,1.06406694765,6.9164351597,104.
6.92,7669.,9.,4.,2318.,0.,0.,10000.,1.0860212794,6.27478961429,117.
6.94,7668.,9.,8.,2315.,0.,0.,10000.,1.10307649843,6.37333087983,117.
6.96,7662.,14.,4.,2323.,0.,0.,10003.,1.11435021019,4.13901506642,182.
6.98,7659.,12.,11.,2317.,0.,0.,9999.,1.12191953542,4.86165132017,156.
7.,7650.,21.,6.,2323.,0.,0.,10000.,1.12301921868,2.78080949387,273.
7.02,7642.,20.,8.,2327.,0.,0.,9997.,1.11965326362,2.91109848542,260.
7.04,7643.,21.,9.,2325.,0.,0.,9998.,1.11214278226,2.75387736559,273.
7.06,7637.,18.,13.,2329.,0.,0.,9997.,1.09894669216,3.17473488847,234.
7.08,7623.,24.,16.,2333.,0.,0.,9996.,1.07993910993,2.33986807151,312.
7.1,7611.,21.,16.,2346.,0.,0.,9994.,1.05696129355,2.61723748879,273.
7.12,7598.,31.,24.,2344.,0.,0.,9997.,1.02932170718,1.72660415398,403.
7.14,7578.,41.,19.,2361.,0.,0.,9999.,0.997307200464,1.26487742498,533.
7.16,7562.,45.,21.,2368.,0.,0.,9996.,0.963263544779,1.11310454063,585.
7.18,7531.,48.,20.,2394.,0.,0.,9993.,0.924817482524,1.00188560607,624.
7.2,7509.,49.,22.,2414.,0.,0.,9994.,0.885227373502,0.939424967798,637.
7.22,7482.,48.,33.,2429.,0.,0.,9992.,0.844019111684,0.914354037657,624.
7.24,7465.,40.,25.,2462.,0.,0.,9992.,0.803060388418,1.04397850494,520.
7.26,7454.,42.,22.,2474.,0.,0.,9992.,0.762583722511,0.94415127549,546.
7.28,7432.,45.,13.,2497.,0.,0.,9987.,0.721825782795,0.834109793452,585.
7.3,7433.,29.,21.,2504.,0.,0.,9987.,0.683952278946,1.22639718983,377.
7.32,7424.,29.,17.,2518.,0.,0.,9988.,0.646654202653,1.15951788062,377.
7.34,7417.,27.,17.,2526.,0.,0.,9987.,0.611829932862,1.17833912996,351.
7.36,7413.,25.,12.,2538.,0.,0.,9988.,0.57981197475,1.20600890748,325.
7.38,7414.,21.,9.,2543.,0.,0.,9987.,0.551444101126,1.36548063136,273.
7.4,7417.,13.,12.,2545.,0.,0.,9987.,0.526732579468,2.10693031787,169.
7.42,7412.,8.,17.,2551.,0.,0.,9988.,0.505380627133,3.28497407636,104.
7.44,7411.,9.,7.,2561.,0.,0.,9988.,0.48867201106,2.82343828612,117.
7.46,7415.,4.,11.,2559.,0.,0.,9989.,0.476804416433,6.19845741363,52.
7.48,7418.,7.,1.,2564.,0.,0.,9990.,0.469620835513,3.48861192095,91.
7.5,7418.,7.,0.,2563.,0.,0.,9988.,0.467258557001,3.47106356629,91.
7.52,7427.,1.,3.,2558.,0.,0.,9989.,0.470237680889,24.4523594062,13.
7.54,7437.,2.,0.,2551.,0.,0.,9990.,0.478171205747,12.4324513494,26.
7.56,7444.,2.,0.,2546.,0.,0.,9992.,0.490651493126,12.7569388213,26.
7.58,7450.,2.,1.,2541.,0.,0.,9994.,0.507666657379,13.1993330919,26.
7.6,7456.,0.,0.,2537.,0.,0.,9993.,0.529184315898,inf,0.
7.62,7464.,0.,0.,2526.,0.,0.,9990.,0.554996323327,inf,0.
7.64,7475.,0.,0.,2519.,0.,0.,9994.,0.5843103323,inf,0.
7.66,7478.,0.,1.,2516.,0.,0.,9995.,0.616368099707,inf,0.
7.68,7483.,0.,1.,2514.,0.,0.,9998.,0.651141368141,inf,0.
7.7,7489.,0.,0.,2510.,0.,0.,9999.,0.688278146101,inf,0.
7.72,7492.,0.,0.,2506.,0.,0.,9998.,0.726852645866,inf,0.
7.74,7496.,0.,0.,2502.,0.,0.,9998.,0.766420324832,inf,0.
7.76,7499.,1.,0.,2497.,0.,0.,9997.,0.806314517646,41.9283549176,13.
7.78,7501.,1.,0.,2492.,0.,0.,9994.,0.845993103327,43.991641373,13.
7.8,7507.,1.,0.,2486.,0.,0.,9994.,0.884991595802,46.0195629817,13.
7.82,7511.,5.,0.,2477.,0.,0.,9993.,0.922361454155,9.59255912321,65.
7.84,7514.,3.,1.,2476.,0.,0.,9994.,0.957340748082,16.5939063001,39.
7.86,7524.,6.,0.,2469.,0.,0.,9999.,0.990200498323,8.58173765213,78.
7.88,7527.,8.,1.,2466.,0.,0.,10002.,1.01919339462,6.62475706503,104.
7.9,7531.,7.,3.,2464.,0.,0.,10005.,1.04470160353,7.76064048336,91.
7.92,7528.,11.,7.,2458.,0.,0.,10004.,1.06562775741,5.03751303503,143.
7.94,7532.,10.,10.,2459.,0.,0.,10011.,1.08232172912,5.62807299141,130.
7.96,7524.,14.,8.,2466.,0.,0.,10012.,1.09329601825,4.06081378208,182.
7.98,7520.,17.,1.,2472.,0.,0.,10010.,1.10034778159,3.36576968488,221.
8.,7525.,11.,8.,2468.,0.,0.,10012.,1.10334521719,5.21581375397,143.
8.02,7521.,17.,8.,2468.,0.,0.,10014.,1.10005452221,3.36487265618,221.
8.04,7521.,16.,7.,2472.,0.,0.,10016.,1.09242364908,3.55037685949,208.
8.06,7514.,23.,8.,2471.,0.,0.,10016.,1.07919618767,2.43992181559,299.
8.08,7501.,30.,9.,2478.,0.,0.,10018.,1.06032190912,1.83789130914,390.
8.1,7489.,28.,12.,2488.,0.,0.,10017.,1.03763082165,1.92702866878,364.
8.12,7473.,30.,19.,2495.,0.,0.,10017.,1.01036627854,1.75130154947,390.
8.14,7455.,43.,9.,2508.,0.,0.,10015.,0.979552271875,1.18457484041,559.
8.16,7444.,34.,14.,2522.,0.,0.,10014.,0.946528023132,1.4476310942,442.
8.18,7429.,33.,22.,2528.,0.,0.,10012.,0.91056046107,1.43482254472,429.
8.2,7408.,42.,15.,2547.,0.,0.,10012.,0.871750506699,1.07931015115,546.
8.22,7398.,32.,20.,2560.,0.,0.,10010.,0.833042678456,1.35369435249,416.
8.24,7384.,38.,13.,2578.,0.,0.,10013.,0.792680709954,1.08472097152,494.
8.26,7377.,35.,15.,2588.,0.,0.,10015.,0.752972989787,1.11870272768,455.
8.28,7368.,31.,21.,2594.,0.,0.,10014.,0.713680399588,1.19714131544,403.
8.3,7361.,29.,13.,2611.,0.,0.,10014.,0.675500926012,1.21124303975,377.
8.32,7356.,28.,10.,2622.,0.,0.,10016.,0.638940003206,1.1866028631,364.
8.34,7354.,19.,14.,2627.,0.,0.,10014.,0.604997429882,1.65578243968,247.
8.36,7351.,22.,7.,2637.,0.,0.,10017.,0.573298047979,1.3550681134,286.
8.38,7353.,18.,6.,2639.,0.,0.,10016.,0.54532350028,1.57537900081,234.
8.4,7355.,14.,7.,2639.,0.,0.,10015.,0.520869197542,1.93465701944,182.
8.42,7359.,8.,10.,2637.,0.,0.,10014.,0.500464099294,3.25301664541,104.
8.44,7361.,8.,4.,2638.,0.,0.,10011.,0.484259937979,3.14768959686,104.
8.46,7364.,5.,5.,2636.,0.,0.,10010.,0.472531570401,4.91432833217,65.
8.48,7367.,6.,1.,2636.,0.,0.,10010.,0.465460260759,4.03398892658,78.
8.5,7368.,5.,1.,2634.,0.,0.,10008.,0.463181589363,4.81708852938,65.
8.52,7374.,4.,0.,2630.,0.,0.,10008.,0.465995639324,6.05794331121,52.
8.54,7382.,2.,0.,2626.,0.,0.,10010.,0.473686590535,12.3158513539,26.
8.56,7384.,0.,1.,2624.,0.,0.,10009.,0.485870111948,inf,0.
8.58,7391.,0.,1.,2620.,0.,0.,10012.,0.502740733419,inf,0.
8.6,7396.,0.,0.,2618.,0.,0.,10014.,0.523825055242,inf,0.
8.62,7401.,2.,0.,2612.,0.,0.,10015.,0.548938149736,14.2723918931,26.
8.64,7404.,3.,0.,2610.,0.,0.,10017.,0.577431471532,10.0088121732,39.
8.66,7409.,2.,2.,2605.,0.,0.,10018.,0.6092787883,15.8412484958,26.
8.68,7417.,0.,2.,2602.,0.,0.,10021.,0.643917001131,inf,0.
8.7,7419.,0.,0.,2596.,0.,0.,10015.,0.680755463462,inf,0.
8.72,7424.,0.,0.,2591.,0.,0.,10015.,0.719032877819,inf,0.
8.74,7428.,0.,0.,2586.,0.,0.,10014.,0.758254289621,inf,0.
8.76,7435.,1.,0.,2578.,0.,0.,10014.,0.798075913373,41.4999474954,13.
8.78,7445.,0.,1.,2570.,0.,0.,10016.,0.837832858052,inf,0.
8.8,7440.,2.,1.,2566.,0.,0.,10009.,0.875778586308,22.770243244,26.
8.82,7444.,4.,2.,2560.,0.,0.,10010.,0.912581284201,11.8635566946,52.
8.84,7449.,3.,1.,2555.,0.,0.,10008.,0.947731632863,16.427348303,39.
8.86,7455.,4.,2.,2549.,0.,0.,10010.,0.980041558724,12.7405402634,52.
8.88,7456.,7.,1.,2548.,0.,0.,10012.,1.0085712704,7.49224372301,91.
8.9,7464.,8.,2.,2542.,0.,0.,10016.,1.03427022343,6.72275645229,104.
8.92,7463.,9.,4.,2540.,0.,0.,10016.,1.05516098068,6.09648566615,117.
8.94,7465.,8.,8.,2536.,0.,0.,10017.,1.07205154222,6.9683350244,104.
8.96,7457.,9.,11.,2539.,0.,0.,10016.,1.0831276627,6.25807094003,117.
8.98,7449.,12.,8.,2546.,0.,0.,10015.,1.08941469654,4.72079701832,156.
9.,7447.,14.,6.,2552.,0.,0.,10019.,1.09114566265,4.052826747,182.
9.02,7445.,14.,9.,2555.,0.,0.,10023.,1.08796063246,4.04099663486,182.
9.04,7443.,18.,7.,2554.,0.,0.,10022.,1.08044693309,3.12129114004,234.
9.06,7430.,20.,11.,2556.,0.,0.,10017.,1.06702517866,2.7742654645,260.
9.08,7421.,26.,7.,2566.,0.,0.,10020.,1.04880393267,2.09760786535,338.
9.1,7410.,29.,8.,2568.,0.,0.,10015.,1.02689008601,1.84132015422,377.
9.12,7402.,27.,16.,2571.,0.,0.,10016.,1.00086683691,1.9275953896,351.
9.14,7385.,35.,17.,2578.,0.,0.,10015.,0.970354597961,1.4416696884,455.
9.16,7383.,29.,26.,2583.,0.,0.,10021.,0.938115918117,1.68213888766,377.
9.18,7364.,41.,18.,2598.,0.,0.,10021.,0.901782884829,1.14372463442,533.
9.2,7368.,30.,17.,2615.,0.,0.,10030.,0.865487420385,1.50017819533,390.
9.22,7360.,33.,19.,2622.,0.,0.,10034.,0.826781442089,1.30280712087,429.
9.24,7336.,40.,18.,2635.,0.,0.,10029.,0.786271454928,1.02215289141,520.
9.26,7334.,35.,20.,2641.,0.,0.,10030.,0.747464447238,1.11051860733,455.
9.28,7336.,32.,14.,2652.,0.,0.,10034.,0.709164464403,1.15239225465,416.
9.3,7331.,23.,21.,2661.,0.,0.,10036.,0.671273163222,1.51766106468,299.
9.32,7326.,25.,10.,2678.,0.,0.,10039.,0.634876329058,1.32054276444,325.
9.34,7325.,20.,16.,2679.,0.,0.,10040.,0.601051115436,1.56273290013,260.
9.36,7318.,21.,10.,2691.,0.,0.,10040.,0.569416970508,1.40998487935,273.
9.38,7314.,20.,12.,2695.,0.,0.,10041.,0.541080586971,1.40680952612,260.
9.4,7312.,19.,6.,2704.,0.,0.,10041.,0.516483162174,1.4135328649,247.
9.42,7309.,19.,7.,2705.,0.,0.,10040.,0.49577652844,1.35686207784,247.
9.44,7312.,14.,5.,2710.,0.,0.,10041.,0.47959914629,1.78136825765,182.
9.46,7316.,7.,9.,2709.,0.,0.,10041.,0.468002159373,3.47658746963,91.
9.48,7321.,5.,7.,2707.,0.,0.,10040.,0.46117176517,4.79618635777,65.
9.5,7325.,5.,2.,2705.,0.,0.,10037.,0.459147974725,4.77513893714,65.
9.52,7330.,6.,3.,2702.,0.,0.,10041.,0.461692716855,4.00133687941,78.
9.54,7331.,3.,4.,2704.,0.,0.,10042.,0.468915004503,8.12786007805,39.
9.56,7332.,4.,1.,2705.,0.,0.,10042.,0.480863070189,6.25121991246,52.
9.58,7340.,2.,2.,2700.,0.,0.,10044.,0.49768100909,12.9397062364,26.
9.6,7344.,1.,3.,2692.,0.,0.,10040.,0.518795150036,26.9773478019,13.
9.62,7350.,3.,0.,2690.,0.,0.,10043.,0.54363553887,9.42301600709,39.
9.64,7360.,2.,2.,2683.,0.,0.,10047.,0.572286005779,14.8794361503,26.
9.66,7367.,1.,2.,2680.,0.,0.,10050.,0.603895925381,31.4025881198,13.
9.68,7368.,2.,3.,2674.,0.,0.,10047.,0.638007655419,16.5881990409,26.
9.7,7372.,2.,1.,2674.,0.,0.,10049.,0.674154128335,17.5280073367,26.
9.72,7374.,2.,0.,2672.,0.,0.,10048.,0.711844684268,18.507961791,26.
9.74,7375.,4.,0.,2667.,0.,0.,10046.,0.750445950981,9.75579736275,52.
9.76,7384.,1.,3.,2660.,0.,0.,10048.,0.789919580888,41.0758182062,13.
9.78,7394.,2.,0.,2656.,0.,0.,10052.,0.829113465624,21.5569501062,26.
9.8,7394.,3.,1.,2651.,0.,0.,10049.,0.866899346876,15.0262553458,39.
9.82,7401.,2.,3.,2644.,0.,0.,10050.,0.903698607775,23.4961638021,26.
9.84,7403.,6.,2.,2639.,0.,0.,10050.,0.937942870412,8.12883821024,78.
9.86,7405.,6.,3.,2636.,0.,0.,10050.,0.969594008508,8.40314807373,78.
9.88,7410.,8.,2.,2632.,0.,0.,10052.,0.998360207372,6.48934134792,104.
9.9,7411.,8.,1.,2634.,0.,0.,10054.,1.02304476892,6.64979099796,104.
9.92,7408.,11.,2.,2633.,0.,0.,10054.,1.04342608562,4.9325596775,143.
9.94,7408.,9.,2.,2635.,0.,0.,10054.,1.05995058873,6.12415895709,117.
9.96,7407.,7.,6.,2633.,0.,0.,10053.,1.07190545869,7.96272626454,91.
9.98,7407.,9.,7.,2630.,0.,0.,10053.,1.079177473,6.23524762175,117.
10.,7395.,17.,8.,2629.,0.,0.,10049.,1.08029181483,3.30442202184,221.
