t,s,e,i,r,c,o,n,reff,coal,reportr
5.,7109.,8.,26.,2857.,0.,0.,10000.,1.14592102121,7.44848663787,104.
5.02,7101.,23.,8.,2872.,0.,0.,10004.,1.14159604993,2.58099976505,299.
5.04,7098.,22.,14.,2870.,0.,0.,10004.,1.13342438272,2.67900308643,286.
5.06,7093.,20.,20.,2871.,0.,0.,10004.,1.11995409778,2.91188065424,260.
5.08,7076.,26.,18.,2884.,0.,0.,10004.,1.09985176726,2.19970353451,338.
5.1,7058.,33.,11.,2901.,0.,0.,10003.,1.07529718929,1.69440769222,429.
5.12,7051.,34.,14.,2902.,0.,0.,10001.,1.04845366129,1.60351736432,442.
5.14,7044.,38.,12.,2912.,0.,0.,10006.,1.01720898938,1.391970196,494.
5.16,7034.,34.,15.,2925.,0.,0.,10008.,0.982675627922,1.50291566623,442.
5.18,7032.,30.,17.,2929.,0.,0.,10008.,0.946784751697,1.64109356961,390.
5.2,7017.,37.,19.,2936.,0.,0.,10009.,0.906970751107,1.27466159615,481.
5.22,7013.,35.,12.,2951.,0.,0.,10011.,0.867029348735,1.28815788955,455.
5.24,6993.,44.,9.,2964.,0.,0.,10010.,0.824557008264,0.974476464311,572.
5.26,6987.,39.,11.,2972.,0.,0.,10009.,0.783557804341,1.04474373912,507.
5.28,6985.,33.,19.,2974.,0.,0.,10011.,0.743140802623,1.17100974959,429.
5.3,6972.,30.,22.,2984.,0.,0.,10008.,0.702954504965,1.21845447527,390.
5.32,6969.,28.,13.,2999.,0.,0.,10009.,0.665139697946,1.23525943904,364.
5.34,6970.,24.,10.,3002.,0.,0.,10006.,0.630130047831,1.3652817703,312.
5.36,6965.,15.,13.,3010.,0.,0.,10003.,0.597286893192,2.07059456307,195.
5.38,6972.,16.,8.,3011.,0.,0.,10007.,0.568274097496,1.84689081686,208.
5.4,6975.,18.,6.,3011.,0.,0.,10010.,0.542659618551,1.56768334248,234.
5.42,6977.,9.,7.,3019.,0.,0.,10012.,0.521110727746,3.01086198253,117.
5.44,6977.,9.,2.,3023.,0.,0.,10011.,0.504000382478,2.91200220987,117.
5.46,6984.,7.,4.,3015.,0.,0.,10010.,0.492086781507,3.65550180548,91.
5.48,6993.,3.,3.,3013.,0.,0.,10012.,0.485052918598,8.40758392237,39.
5.5,6995.,5.,2.,3010.,0.,0.,10012.,0.482654394497,5.01960570277,65.
5.52,7008.,4.,3.,3000.,0.,0.,10015.,0.485947748556,6.31732073123,52.
5.54,7017.,1.,3.,2995.,0.,0.,10016.,0.494115760542,25.6940195482,13.
5.56,7030.,0.,1.,2989.,0.,0.,10020.,0.507372831201,inf,0.
5.58,7037.,0.,0.,2984.,0.,0.,10021.,0.52512007407,inf,0.
5.6,7045.,0.,0.,2978.,0.,0.,10023.,0.547394762613,inf,0.
5.62,7057.,0.,0.,2967.,0.,0.,10024.,0.574226778744,inf,0.
5.64,7064.,1.,0.,2961.,0.,0.,10026.,0.604387012131,31.4281246308,13.
5.66,7071.,1.,0.,2952.,0.,0.,10024.,0.638113142225,33.1818833957,13.
5.68,7087.,1.,1.,2942.,0.,0.,10031.,0.674918443009,35.0957590364,13.
5.7,7092.,3.,0.,2936.,0.,0.,10031.,0.713414009212,12.3658428263,39.
5.72,7096.,3.,1.,2932.,0.,0.,10032.,0.753369860008,13.0584109068,39.
5.74,7099.,2.,2.,2929.,0.,0.,10032.,0.794292824602,20.6516134396,26.
5.76,7105.,3.,4.,2921.,0.,0.,10033.,0.835842609031,14.4879385565,39.
5.78,7108.,3.,2.,2918.,0.,0.,10031.,0.877022246277,15.2017189355,39.
5.8,7112.,4.,0.,2915.,0.,0.,10031.,0.917233719584,11.9240383546,52.
5.82,7117.,3.,3.,2906.,0.,0.,10029.,0.956222644248,16.5745258336,39.
5.84,7119.,5.,2.,2902.,0.,0.,10028.,0.992566893082,10.3226956881,65.
5.86,7126.,5.,4.,2896.,0.,0.,10031.,1.02648575859,10.6754518893,65.
5.88,7123.,8.,4.,2897.,0.,0.,10032.,1.05588683266,6.86326441232,104.
5.9,7121.,8.,6.,2898.,0.,0.,10033.,1.08165135562,7.03073381153,104.
5.92,7114.,11.,7.,2900.,0.,0.,10032.,1.10267201632,5.21263134986,143.
5.94,7116.,13.,5.,2897.,0.,0.,10031.,1.12056139251,4.48224557006,169.
5.96,7114.,14.,8.,2894.,0.,0.,10030.,1.13303458617,4.2084141772,182.
5.98,7108.,17.,3.,2898.,0.,0.,10026.,1.14021394098,3.48771323122,221.
6.,7112.,10.,9.,2897.,0.,0.,10028.,1.14320363004,5.94465887621,130.
6.02,7102.,18.,3.,2904.,0.,0.,10027.,1.139137846,3.29084266623,234.
6.04,7107.,19.,4.,2899.,0.,0.,10029.,1.13203257283,3.09819440985,247.
6.06,7102.,19.,6.,2902.,0.,0.,10029.,1.11857982752,3.06137637005,247.
6.08,7097.,21.,8.,2904.,0.,0.,10030.,1.10025636085,2.72444432211,273.
6.1,7089.,25.,12.,2907.,0.,0.,10033.,1.07679068389,2.23972462249,325.
6.12,7081.,28.,13.,2911.,0.,0.,10033.,1.04955628918,1.94917596562,364.
6.14,7065.,29.,7.,2930.,0.,0.,10031.,1.01769883306,1.82483928687,377.
6.16,7064.,31.,9.,2929.,0.,0.,10033.,0.984407686104,1.65126450572,403.
6.18,7048.,30.,17.,2933.,0.,0.,10028.,0.947046404468,1.64154710108,390.
6.2,7041.,29.,18.,2942.,0.,0.,10030.,0.908167394851,1.62843808732,377.
6.22,7029.,37.,19.,2947.,0.,0.,10032.,0.867188361919,1.21875121135,481.
6.24,7020.,37.,14.,2961.,0.,0.,10032.,0.825925405385,1.16076002919,481.
6.26,7007.,32.,12.,2978.,0.,0.,10029.,0.784233649366,1.27437968022,416.
6.28,6998.,25.,19.,2981.,0.,0.,10023.,0.743632506513,1.54675561355,325.
6.3,6997.,21.,12.,2996.,0.,0.,10026.,0.704208577117,1.74375457191,273.
6.32,6992.,24.,7.,3001.,0.,0.,10024.,0.666336272803,1.44372859107,312.
6.34,6990.,21.,4.,3004.,0.,0.,10019.,0.631118206793,1.56276889301,273.
6.36,6995.,16.,6.,3001.,0.,0.,10018.,0.598961384859,1.94662450079,208.
6.38,7000.,15.,6.,2996.,0.,0.,10017.,0.569986734764,1.97595401385,195.
6.4,7010.,15.,3.,2993.,0.,0.,10021.,0.544783978014,1.88858445712,195.
6.42,7019.,13.,4.,2987.,0.,0.,10023.,0.523672350138,2.09468940055,169.
6.44,7021.,13.,4.,2983.,0.,0.,10021.,0.506672712362,2.02669084945,169.
6.46,7028.,12.,2.,2978.,0.,0.,10020.,0.494692786011,2.14366873938,156.
6.48,7036.,10.,2.,2973.,0.,0.,10021.,0.487597200471,2.53550544245,130.
6.5,7046.,9.,2.,2964.,0.,0.,10021.,0.485736750973,2.80647900562,117.
6.52,7050.,5.,6.,2958.,0.,0.,10019.,0.488664933425,5.08211530762,65.
6.54,7059.,2.,2.,2956.,0.,0.,10019.,0.496924433389,12.9200352681,26.
6.56,7067.,0.,2.,2952.,0.,0.,10021.,0.509992317086,inf,0.
6.58,7075.,0.,0.,2948.,0.,0.,10023.,0.527850388549,inf,0.
6.6,7079.,0.,0.,2944.,0.,0.,10023.,0.550036554228,inf,0.
6.62,7088.,1.,0.,2936.,0.,0.,10025.,0.576691711887,29.9879690181,13.
6.64,7104.,1.,0.,2924.,0.,0.,10029.,0.607627546599,31.5966324232,13.
6.66,7104.,2.,1.,2919.,0.,0.,10026.,0.640963298309,16.665045756,26.
6.68,7105.,2.,2.,2917.,0.,0.,10026.,0.676970081505,17.6012221191,26.
6.7,7113.,3.,0.,2912.,0.,0.,10028.,0.715740545825,12.406169461,39.
6.72,7119.,2.,2.,2906.,0.,0.,10029.,0.756037817485,19.6569832546,26.
6.74,7125.,1.,2.,2901.,0.,0.,10029.,0.797440381295,41.4668998273,13.
6.76,7130.,1.,1.,2890.,0.,0.,10022.,0.839704282266,43.6646226778,13.
6.78,7137.,2.,2.,2884.,0.,0.,10025.,0.88112746072,22.9093139787,26.
6.8,7143.,1.,0.,2881.,0.,0.,10025.,0.921783146242,47.9327236046,13.
6.82,7149.,2.,0.,2876.,0.,0.,10027.,0.960713672804,24.9785554929,26.
6.84,7150.,6.,0.,2869.,0.,0.,10025.,0.997187390386,8.64229071667,78.
6.86,7148.,8.,1.,2868.,0.,0.,10025.,1.03027106595,6.69676192868,104.
6.88,7150.,7.,4.,2865.,0.,0.,10026.,1.06052349589,7.87817454091,91.
6.9,7152.,9.,4.,2860.,0.,0.,10025.,1.08722705216,6.28175630137,117.
6.92,7159.,15.,1.,2849.,0.,0.,10024.,1.11053262127,3.84984642041,195.
6.94,7161.,10.,9.,2844.,0.,0.,10024.,1.12843503672,5.86786219092,130.
6.96,7153.,20.,6.,2845.,0.,0.,10024.,1.13992796036,2.96381269694,260.
6.98,7144.,26.,0.,2854.,0.,0.,10024.,1.14621744956,2.29243489911,338.
7.,7143.,19.,6.,2854.,0.,0.,10022.,1.1488740602,3.14428690161,247.
7.02,7136.,23.,6.,2854.,0.,0.,10019.,1.1455052727,2.58983800785,299.
7.04,7138.,20.,11.,2853.,0.,0.,10022.,1.13776451417,2.95818773685,260.
7.06,7132.,19.,12.,2858.,0.,0.,10021.,1.12420165087,3.0767624129,247.
7.08,7115.,19.,12.,2871.,0.,0.,10017.,1.10447844969,3.02278312546,247.
7.1,7105.,26.,11.,2875.,0.,0.,10017.,1.08094484289,2.16188968578,338.
7.12,7096.,26.,18.,2874.,0.,0.,10014.,1.0537751988,2.1075503976,338.
7.14,7084.,36.,16.,2879.,0.,0.,10015.,1.02206599611,1.47631754993,468.
7.16,7061.,45.,11.,2899.,0.,0.,10016.,0.985659729597,1.13898457642,585.
7.18,7048.,43.,17.,2908.,0.,0.,10016.,0.948181044729,1.14663754246,559.
7.2,7037.,38.,24.,2918.,0.,0.,10017.,0.908829408332,1.24366129561,494.
7.22,7017.,37.,31.,2931.,0.,0.,10016.,0.867090806643,1.21861410663,481.
7.24,6985.,56.,16.,2956.,0.,0.,10013.,0.823366950781,0.764555025725,728.
7.26,6970.,48.,25.,2973.,0.,0.,10016.,0.781105055778,0.84619714376,624.
7.28,6958.,37.,26.,2997.,0.,0.,10018.,0.739750990197,1.03965004028,481.
7.3,6955.,39.,6.,3021.,0.,0.,10021.,0.700330771372,0.93377436183,507.
7.32,6949.,28.,13.,3028.,0.,0.,10018.,0.662635010061,1.23060787583,364.
7.34,6947.,23.,12.,3038.,0.,0.,10020.,0.627173193118,1.41795678444,299.
7.36,6946.,24.,9.,3043.,0.,0.,10022.,0.594528274199,1.2881445941,312.
7.38,6948.,24.,5.,3046.,0.,0.,10023.,0.56541387501,1.22506339585,312.
7.4,6946.,18.,3.,3053.,0.,0.,10020.,0.539864074599,1.55960732662,234.
7.42,6947.,14.,8.,3051.,0.,0.,10020.,0.518455766283,1.92569284619,182.
7.44,6950.,12.,6.,3053.,0.,0.,10021.,0.501548974635,2.17337889009,156.
7.46,6958.,5.,9.,3049.,0.,0.,10021.,0.489716693105,5.09305360829,65.
7.48,6955.,12.,2.,3050.,0.,0.,10019.,0.482080086804,2.08901370948,156.
7.5,6952.,8.,4.,3051.,0.,0.,10015.,0.479543707536,3.11703409898,104.
7.52,6959.,6.,3.,3045.,0.,0.,10013.,0.48264638216,4.18293531205,78.
7.54,6960.,4.,4.,3045.,0.,0.,10013.,0.490248833917,6.37323484092,52.
7.56,6966.,3.,0.,3043.,0.,0.,10012.,0.503155510745,8.72136218625,39.
7.58,6969.,2.,1.,3042.,0.,0.,10014.,0.520409252252,13.5306405585,26.
7.6,6973.,1.,1.,3038.,0.,0.,10013.,0.542341477323,28.2017568208,13.
7.62,6979.,1.,0.,3035.,0.,0.,10015.,0.568390259687,29.5562935037,13.
7.64,6988.,1.,0.,3028.,0.,0.,10017.,0.598421729989,31.1179299595,13.
7.66,6996.,0.,1.,3016.,0.,0.,10013.,0.632038443068,inf,0.
7.68,7005.,1.,0.,3012.,0.,0.,10018.,0.667974995752,34.7346997791,13.
7.7,7016.,1.,0.,3006.,0.,0.,10023.,0.706332170071,36.7292728437,13.
7.72,7026.,1.,0.,2997.,0.,0.,10024.,0.746533404616,38.81973704,13.
7.74,7027.,0.,3.,2991.,0.,0.,10021.,0.787099937665,inf,0.
7.76,7031.,2.,2.,2985.,0.,0.,10020.,0.828210272637,21.5334670886,26.
7.78,7037.,0.,2.,2981.,0.,0.,10020.,0.869215076354,inf,0.
7.8,7043.,1.,1.,2976.,0.,0.,10021.,0.909241229807,47.28054395,13.
7.82,7047.,5.,0.,2970.,0.,0.,10022.,0.947478933565,9.85378090908,65.
7.84,7054.,5.,1.,2964.,0.,0.,10024.,0.98389672498,10.2325259398,65.
7.86,7059.,7.,3.,2959.,0.,0.,10028.,1.01713874391,7.55588781194,91.
7.88,7057.,8.,3.,2956.,0.,0.,10024.,1.04693811883,6.80509777236,104.
7.9,7060.,11.,3.,2951.,0.,0.,10025.,1.07324146927,5.07350512748,143.
7.92,7059.,11.,6.,2953.,0.,0.,10029.,1.09447429567,5.17387848864,143.
7.94,7069.,9.,7.,2948.,0.,0.,10033.,1.11293837055,6.43031058538,117.
7.96,7072.,14.,1.,2948.,0.,0.,10035.,1.12578410973,4.18148383614,182.
7.98,7067.,17.,3.,2948.,0.,0.,10035.,1.13262030275,3.46448563195,221.
8.,7072.,14.,5.,2943.,0.,0.,10034.,1.13609416015,4.21977830912,182.
8.02,7059.,15.,14.,2945.,0.,0.,10033.,1.13156367497,3.92275407324,195.
8.04,7047.,23.,7.,2958.,0.,0.,10035.,1.12180438649,2.53625339554,299.
8.06,7047.,20.,8.,2963.,0.,0.,10038.,1.10892206874,2.88319737873,260.
8.08,7033.,20.,11.,2971.,0.,0.,10035.,1.08979109889,2.83345685712,260.
8.1,7030.,17.,15.,2974.,0.,0.,10036.,1.06750962086,3.26532354617,221.
8.12,7019.,28.,12.,2979.,0.,0.,10038.,1.03984834345,1.93114692355,364.
8.14,7010.,31.,8.,2993.,0.,0.,10042.,1.00867008714,1.69196272681,403.
8.16,7008.,29.,9.,2996.,0.,0.,10042.,0.975728507388,1.74958215118,377.
8.18,7006.,27.,11.,2996.,0.,0.,10040.,0.940277642214,1.81090508871,351.
8.2,7000.,33.,9.,2999.,0.,0.,10041.,0.901889991306,1.4211599863,429.
8.22,6997.,26.,13.,3002.,0.,0.,10038.,0.862724444472,1.72544888894,338.
8.24,6995.,28.,12.,3006.,0.,0.,10041.,0.822246414337,1.5270290552,364.
8.26,6991.,26.,13.,3012.,0.,0.,10042.,0.781429984547,1.56285996909,338.
8.28,6980.,27.,18.,3017.,0.,0.,10042.,0.740316388761,1.4257945265,351.
8.3,6977.,28.,16.,3023.,0.,0.,10044.,0.70093727473,1.30174065307,364.
8.32,6973.,26.,15.,3032.,0.,0.,10046.,0.663070314347,1.32614062869,338.
8.34,6972.,22.,18.,3035.,0.,0.,10047.,0.627738674642,1.48374595824,286.
8.36,6970.,19.,9.,3050.,0.,0.,10048.,0.59503879904,1.62852723948,247.
8.38,6975.,19.,6.,3051.,0.,0.,10051.,0.566029832524,1.54913427849,247.
8.4,6977.,17.,8.,3047.,0.,0.,10049.,0.540708563136,1.65393207547,221.
8.42,6980.,12.,5.,3052.,0.,0.,10049.,0.519415264105,2.25079947779,156.
8.44,6985.,6.,4.,3054.,0.,0.,10049.,0.502670233691,4.35647535866,78.
8.46,6991.,8.,0.,3051.,0.,0.,10050.,0.49061947824,3.18902660856,104.
8.48,7000.,5.,3.,3041.,0.,0.,10049.,0.483750724653,5.03100753639,65.
8.5,7006.,2.,3.,3036.,0.,0.,10047.,0.481729361617,12.524963402,26.
8.52,7010.,2.,0.,3032.,0.,0.,10044.,0.484682956912,12.6017568797,26.
8.54,7017.,1.,0.,3027.,0.,0.,10045.,0.49268924416,25.6198406963,13.
8.56,7022.,0.,1.,3020.,0.,0.,10043.,0.505634812233,inf,0.
8.58,7029.,0.,0.,3014.,0.,0.,10043.,0.523374082258,inf,0.
8.6,7031.,0.,0.,3008.,0.,0.,10039.,0.545436270632,inf,0.
8.62,7035.,0.,0.,3002.,0.,0.,10037.,0.571695218466,inf,0.
8.64,7040.,0.,1.,2997.,0.,0.,10038.,0.601613538045,inf,0.
8.66,7046.,0.,1.,2991.,0.,0.,10038.,0.634970220023,inf,0.
8.68,7056.,0.,0.,2980.,0.,0.,10036.,0.671631432603,inf,0.
8.7,7060.,0.,0.,2973.,0.,0.,10033.,0.710053423258,inf,0.
8.72,7066.,0.,0.,2970.,0.,0.,10036.,0.749885815151,inf,0.
8.74,7068.,0.,0.,2965.,0.,0.,10033.,0.790745474667,inf,0.
8.76,7074.,0.,0.,2958.,0.,0.,10032.,0.832278677734,inf,0.
8.78,7081.,0.,0.,2951.,0.,0.,10032.,0.873603754552,inf,0.
8.8,7081.,0.,0.,2946.,0.,0.,10027.,0.913599964219,inf,0.
8.82,7086.,0.,3.,2938.,0.,0.,10027.,0.952247459153,inf,0.
8.84,7089.,5.,0.,2936.,0.,0.,10030.,0.98818705617,10.2771453842,65.
8.86,7091.,6.,0.,2930.,0.,0.,10027.,1.02185155745,8.85604683124,78.
8.88,7096.,8.,2.,2925.,0.,0.,10031.,1.05198931719,6.83793056175,104.
8.9,7096.,6.,4.,2919.,0.,0.,10025.,1.07871408866,9.34885543509,78.
8.92,7095.,8.,2.,2917.,0.,0.,10022.,1.10082432385,7.15535810505,104.
8.94,7102.,8.,4.,2915.,0.,0.,10029.,1.11857982752,7.27076887886,104.
8.96,7102.,13.,3.,2912.,0.,0.,10030.,1.13112336674,4.52449346695,169.
8.98,7101.,9.,8.,2911.,0.,0.,10029.,1.13875031244,6.57944624966,117.
9.,7097.,15.,3.,2912.,0.,0.,10027.,1.14090625834,3.95514169558,195.
9.02,7103.,15.,3.,2908.,0.,0.,10029.,1.139071042,3.94877961228,195.
9.04,7095.,16.,6.,2911.,0.,0.,10028.,1.1302338594,3.67326004303,208.
9.06,7090.,23.,2.,2908.,0.,0.,10023.,1.11735827885,2.52620132609,299.
9.08,7094.,24.,5.,2904.,0.,0.,10027.,1.10012031623,2.3835940185,312.
9.1,7091.,21.,12.,2903.,0.,0.,10027.,1.07773899237,2.66868702871,273.
9.12,7088.,21.,13.,2905.,0.,0.,10027.,1.05122249846,2.60302713903,273.
9.14,7072.,27.,15.,2910.,0.,0.,10024.,1.01941855647,1.96332462727,351.
9.16,7064.,22.,19.,2917.,0.,0.,10022.,0.985488157522,2.32933564505,286.
9.18,7051.,27.,14.,2928.,0.,0.,10020.,0.948205964017,1.82617444922,351.
9.2,7045.,28.,13.,2933.,0.,0.,10019.,0.909680981878,1.68940753777,364.
9.22,7038.,28.,19.,2934.,0.,0.,10019.,0.86942536604,1.61464710836,364.
9.24,7033.,28.,13.,2944.,0.,0.,10018.,0.828611252292,1.53884946854,364.
9.26,7025.,28.,15.,2948.,0.,0.,10016.,0.787268725515,1.46207049024,364.
9.28,7013.,29.,17.,2953.,0.,0.,10012.,0.746045226743,1.33773626864,377.
9.3,7007.,31.,15.,2958.,0.,0.,10011.,0.706271680908,1.18471378733,403.
9.32,6997.,22.,19.,2973.,0.,0.,10011.,0.667678675963,1.57814959773,286.
9.34,6994.,21.,11.,2987.,0.,0.,10013.,0.631857757407,1.5646001612,273.
9.36,6999.,22.,7.,2987.,0.,0.,10015.,0.599483415042,1.41696079919,286.
9.38,7005.,12.,12.,2988.,0.,0.,10017.,0.570393868146,2.47170676197,156.
9.4,7011.,8.,17.,2983.,0.,0.,10019.,0.544970458959,3.54230798323,104.
9.42,7015.,7.,12.,2989.,0.,0.,10023.,0.523373918823,3.88792053983,91.
9.44,7015.,7.,7.,2993.,0.,0.,10022.,0.506189207598,3.76026268501,91.
9.46,7019.,5.,7.,2991.,0.,0.,10022.,0.493960691479,5.13719119138,65.
9.48,7022.,2.,4.,2993.,0.,0.,10021.,0.486626995694,12.6523018881,26.
9.5,7022.,3.,0.,2992.,0.,0.,10017.,0.484275544604,8.39410943981,39.
9.52,7028.,3.,0.,2984.,0.,0.,10015.,0.487334585738,8.44713281946,39.
9.54,7037.,2.,2.,2977.,0.,0.,10018.,0.495425172854,12.8810544942,26.
9.56,7043.,3.,1.,2970.,0.,0.,10017.,0.508463308513,8.81336401423,39.
9.58,7048.,0.,2.,2966.,0.,0.,10016.,0.526203474361,inf,0.
9.6,7056.,0.,0.,2960.,0.,0.,10016.,0.548632621463,inf,0.
9.62,7063.,0.,0.,2951.,0.,0.,10014.,0.57528890915,inf,0.
9.64,7064.,0.,0.,2947.,0.,0.,10011.,0.605292596506,inf,0.
9.66,7068.,0.,0.,2940.,0.,0.,10008.,0.638862143223,inf,0.
9.68,7073.,0.,0.,2938.,0.,0.,10011.,0.674930866812,inf,0.
9.7,7078.,0.,2.,2935.,0.,0.,10015.,0.713143193375,inf,0.
9.72,7077.,0.,0.,2935.,0.,0.,10012.,0.752853567611,inf,0.
9.74,7085.,0.,0.,2928.,0.,0.,10013.,0.794230617428,inf,0.
9.76,7092.,1.,0.,2922.,0.,0.,10015.,0.835812784599,43.4622647992,13.
9.78,7096.,2.,0.,2915.,0.,0.,10013.,0.877115552279,22.8050043592,26.
9.8,7099.,4.,1.,2911.,0.,0.,10015.,0.917019808599,11.9212575118,52.
9.82,7102.,5.,2.,2908.,0.,0.,10017.,0.955350386538,9.93564401999,65.
9.84,7106.,7.,2.,2903.,0.,0.,10018.,0.991743341715,7.36723625274,91.
9.86,7111.,5.,3.,2896.,0.,0.,10015.,1.02596150456,10.6699996474,65.
9.88,7112.,7.,4.,2891.,0.,0.,10014.,1.05615124209,7.84569494122,91.
9.9,7113.,8.,2.,2891.,0.,0.,10014.,1.0824861465,7.03615995226,104.
9.92,7117.,6.,3.,2888.,0.,0.,10014.,1.10511988778,9.57770569409,78.
9.94,7121.,3.,5.,2885.,0.,0.,10014.,1.12325237373,19.4697078113,39.
9.96,7120.,7.,0.,2886.,0.,0.,10013.,1.13591547635,8.4382292529,91.
9.98,7127.,3.,4.,2875.,0.,0.,10009.,1.14520358094,19.850195403,39.
10.,7125.,7.,4.,2875.,0.,0.,10011.,1.14723814721,8.52234052215,91.
