t,prevalence
5.,6
5.02,5
5.04,8
5.06,6
5.08,7
5.1,6
5.12,9
5.14,4
5.16,11
5.18,10
5.2,9
5.22,4
5.24,6
5.26,5
5.28,5
5.3,6
5.32,8
5.34,3
5.36,0
5.38,4
5.4,2
5.42,2
5.44,8
5.46,2
5.48,3
5.5,0
5.52,1
5.54,1
5.56,0
5.58,0
5.6,0
5.62,0
5.64,0
5.66,0
5.68,0
5.7,1
5.72,1
5.74,1
5.76,0
5.78,0
5.8,0
5.82,2
5.84,0
5.86,3
5.88,2
5.9,2
5.92,4
5.94,2
5.96,4
5.98,2
6.,3
6.02,6
6.04,5
6.06,4
6.08,3
6.1,9
6.12,3
6.14,9
6.16,10
6.18,6
6.2,10
6.22,8
6.24,7
6.26,11
6.28,13
6.3,7
6.32,5
6.34,5
6.36,6
6.38,8
6.4,2
6.42,2
6.44,0
6.46,0
6.48,3
6.5,2
6.52,2
6.54,0
6.56,0
6.58,0
6.6,0
6.62,0
6.64,0
6.66,0
6.68,0
6.7,0
6.72,0
6.74,0
6.76,0
6.78,0
6.8,0
6.82,0
6.84,0
6.86,0
6.88,0
6.9,2
6.92,2
6.94,3
6.96,0
6.98,1
7.,1
7.02,2
7.04,6
7.06,2
7.08,5
7.1,6
7.12,4
7.14,8
7.16,4
7.18,4
7.2,7
7.22,8
7.24,8
7.26,15
7.28,13
7.3,6
7.32,14
7.34,11
7.36,7
7.38,2
7.4,5
7.42,4
7.44,3
7.46,3
7.48,2
7.5,3
7.52,1
7.54,2
7.56,1
7.58,1
7.6,1
7.62,0
7.64,2
7.66,1
7.68,0
7.7,0
7.72,0
7.74,2
7.76,1
7.78,3
7.8,1
7.82,1
7.84,0
7.86,1
7.88,1
7.9,4
7.92,2
7.94,3
7.96,3
7.98,4
8.,2
8.02,5
8.04,11
8.06,9
8.08,8
8.1,2
8.12,10
8.14,7
8.16,13
8.18,16
8.2,17
8.22,16
8.24,10
8.26,12
8.28,10
8.3,5
8.32,5
8.34,7
8.36,6
8.38,5
8.4,7
8.42,6
8.44,6
8.46,1
8.48,3
8.5,1
8.52,1
8.54,1
8.56,0
8.58,1
8.6,0
8.62,0
8.64,0
8.66,0
8.68,0
8.7,0
8.72,0
8.74,0
8.76,0
8.78,1
8.8,0
8.82,0
8.84,1
8.86,1
8.88,4
8.9,3
8.92,1
8.94,2
8.96,3
8.98,3
9.,5
9.02,6
9.04,6
9.06,8
9.08,9
9.1,8
9.12,5
9.14,17
9.16,10
9.18,4
9.2,9
9.22,9
9.24,5
9.26,14
9.28,2
9.3,3
9.32,7
9.34,4
9.36,6
9.38,13
9.4,7
9.42,3
9.44,3
9.46,4
9.48,1
9.5,3
9.52,4
9.54,0
9.56,1
9.58,0
9.6,0
9.62,0
9.64,0
9.66,1
9.68,0
9.7,0
9.72,0
9.74,0
9.76,1
9.78,0
9.8,2
9.82,0
9.84,1
9.86,0
9.88,0
9.9,1
9.92,2
9.94,1
9.96,2
9.98,0
10.,3
