t,s,e,i,r,c,o,n,reff,coal,reportr
5.,6627.,21.,11.,3341.,0.,0.,10000.,1.12664258126,2.78978162979,273.
5.02,6613.,23.,16.,3346.,0.,0.,9998.,1.12195396229,2.53659156693,299.
5.04,6594.,36.,13.,3356.,0.,0.,9999.,1.11108077272,1.60489444948,468.
5.06,6588.,29.,15.,3370.,0.,0.,10002.,1.09732103688,1.96761013509,377.
5.08,6577.,26.,15.,3380.,0.,0.,9998.,1.07884174747,2.15768349493,338.
5.1,6568.,23.,20.,3388.,0.,0.,9999.,1.05578799551,2.38699894637,299.
5.12,6555.,35.,13.,3396.,0.,0.,9999.,1.02820828614,1.5276237394,455.
5.14,6543.,38.,13.,3404.,0.,0.,9998.,0.997328310431,1.36476505638,494.
5.16,6536.,28.,22.,3414.,0.,0.,10000.,0.963807229738,1.78992771237,364.
5.18,6531.,31.,19.,3425.,0.,0.,10006.,0.927602463277,1.5559783255,403.
5.2,6518.,36.,22.,3427.,0.,0.,10003.,0.889077460496,1.28422299849,468.
5.22,6507.,36.,26.,3434.,0.,0.,10003.,0.849143280888,1.22654029462,468.
5.24,6497.,31.,20.,3456.,0.,0.,10004.,0.808450509005,1.35611053123,403.
5.26,6494.,27.,19.,3468.,0.,0.,10008.,0.768172919343,1.47944414096,351.
5.28,6494.,25.,13.,3476.,0.,0.,10008.,0.728903715966,1.51611972921,325.
5.3,6493.,23.,12.,3479.,0.,0.,10007.,0.690528580456,1.56119505147,299.
5.32,6484.,30.,10.,3482.,0.,0.,10006.,0.652887899885,1.1316723598,390.
5.34,6489.,19.,18.,3481.,0.,0.,10007.,0.618663939727,1.69318551925,247.
5.36,6490.,15.,13.,3487.,0.,0.,10005.,0.586871142733,2.03448662814,195.
5.38,6489.,16.,15.,3486.,0.,0.,10006.,0.557884989553,1.81312621605,208.
5.4,6490.,16.,4.,3495.,0.,0.,10005.,0.532804633685,1.73161505948,208.
5.42,6496.,9.,11.,3488.,0.,0.,10004.,0.512126776507,2.95895470871,117.
5.44,6497.,8.,4.,3496.,0.,0.,10005.,0.49528867389,3.21937638029,104.
5.46,6503.,9.,5.,3488.,0.,0.,10005.,0.483494151971,2.79352176694,117.
5.48,6508.,6.,6.,3483.,0.,0.,10003.,0.476526139824,4.12989321181,78.
5.5,6516.,3.,2.,3481.,0.,0.,10002.,0.47466436736,8.2275157009,39.
5.52,6522.,4.,1.,3479.,0.,0.,10006.,0.477408062688,6.20630481495,52.
5.54,6526.,1.,1.,3478.,0.,0.,10006.,0.48515569686,25.2280962367,13.
5.56,6540.,1.,2.,3465.,0.,0.,10008.,0.498417261451,25.9176975955,13.
5.58,6548.,1.,1.,3458.,0.,0.,10008.,0.516019988046,26.8330393784,13.
5.6,6554.,0.,0.,3457.,0.,0.,10011.,0.537736312854,inf,0.
5.62,6562.,0.,0.,3450.,0.,0.,10012.,0.563822997274,inf,0.
5.64,6568.,0.,0.,3444.,0.,0.,10012.,0.593509198869,inf,0.
5.66,6573.,0.,0.,3438.,0.,0.,10011.,0.626422140835,inf,0.
5.68,6583.,0.,0.,3429.,0.,0.,10012.,0.662459185555,inf,0.
5.7,6597.,0.,0.,3415.,0.,0.,10012.,0.701238574884,inf,0.
5.72,6606.,1.,0.,3404.,0.,0.,10011.,0.7412526938,38.5451400776,13.
5.74,6618.,0.,1.,3392.,0.,0.,10011.,0.782606240453,inf,0.
5.76,6623.,1.,1.,3388.,0.,0.,10013.,0.823388494177,42.8162016972,13.
5.78,6629.,1.,1.,3381.,0.,0.,10012.,0.864286277437,44.9428864267,13.
5.8,6636.,2.,1.,3374.,0.,0.,10013.,0.904269065628,23.5109957063,26.
5.82,6643.,2.,2.,3366.,0.,0.,10013.,0.942850301567,24.5141078407,26.
5.84,6643.,5.,1.,3365.,0.,0.,10014.,0.978216089145,10.1734473271,65.
5.86,6646.,8.,4.,3357.,0.,0.,10015.,1.01130869832,6.57350653909,104.
5.88,6658.,8.,2.,3348.,0.,0.,10016.,1.0425921406,6.77684891392,104.
5.9,6664.,3.,5.,3344.,0.,0.,10016.,1.06940156787,18.536293843,39.
5.92,6665.,8.,3.,3341.,0.,0.,10017.,1.09120290714,7.09281889638,104.
5.94,6668.,12.,6.,3326.,0.,0.,10012.,1.10953681042,4.80799284514,156.
5.96,6665.,8.,8.,3329.,0.,0.,10010.,1.12181006965,7.29176545269,104.
5.98,6657.,17.,2.,3333.,0.,0.,10009.,1.12817770788,3.45089651823,221.
6.,6654.,18.,6.,3332.,0.,0.,10010.,1.1301026928,3.26474111253,234.
6.02,6646.,21.,10.,3331.,0.,0.,10008.,1.1264260529,2.78924546432,273.
6.04,6647.,20.,9.,3330.,0.,0.,10006.,1.11922766887,2.90999193906,260.
6.06,6641.,22.,16.,3326.,0.,0.,10005.,1.10581722917,2.6137498144,286.
6.08,6626.,32.,12.,3332.,0.,0.,10002.,1.08644467513,1.76547259708,416.
6.1,6614.,36.,13.,3338.,0.,0.,10001.,1.0629697542,1.53540075607,468.
6.12,6609.,30.,25.,3337.,0.,0.,10001.,1.03647133688,1.79655031726,390.
6.14,6587.,38.,18.,3353.,0.,0.,9996.,1.00423597538,1.37421765052,494.
6.16,6582.,40.,17.,3360.,0.,0.,9999.,0.970687519507,1.26189377536,520.
6.18,6564.,38.,17.,3380.,0.,0.,9999.,0.932942144083,1.27665767085,494.
6.2,6560.,31.,20.,3391.,0.,0.,10002.,0.894895866684,1.50111564734,403.
6.22,6545.,37.,10.,3406.,0.,0.,9998.,0.85452929932,1.20096009634,481.
6.24,6544.,28.,19.,3408.,0.,0.,9999.,0.814706117523,1.51302564683,364.
6.26,6530.,32.,15.,3420.,0.,0.,9997.,0.773281275828,1.25658207322,416.
6.28,6527.,28.,13.,3425.,0.,0.,9993.,0.733707404508,1.36259946551,364.
6.3,6521.,29.,16.,3426.,0.,0.,9992.,0.694547464395,1.2453954534,377.
6.32,6523.,24.,9.,3433.,0.,0.,9989.,0.657932708646,1.42552086873,312.
6.34,6522.,23.,5.,3439.,0.,0.,9989.,0.622930664207,1.40836497995,299.
6.36,6521.,20.,8.,3436.,0.,0.,9985.,0.590855499755,1.53622429936,260.
6.38,6519.,17.,15.,3432.,0.,0.,9983.,0.561755471008,1.71831085249,221.
6.4,6512.,16.,15.,3434.,0.,0.,9977.,0.536111112021,1.74236111407,208.
6.42,6516.,14.,2.,3450.,0.,0.,9982.,0.51483570719,1.91224691242,182.
6.44,6515.,10.,2.,3451.,0.,0.,9978.,0.498004816885,2.5896250478,130.
6.46,6517.,11.,2.,3446.,0.,0.,9976.,0.485943575682,2.29718781232,143.
6.48,6527.,7.,5.,3438.,0.,0.,9977.,0.479162799772,3.55949508402,91.
6.5,6537.,5.,3.,3431.,0.,0.,9976.,0.477435216162,4.96532624808,65.
6.52,6535.,5.,2.,3425.,0.,0.,9967.,0.480231437568,4.99440695071,65.
6.54,6548.,2.,1.,3420.,0.,0.,9971.,0.488499944774,12.7009985641,26.
6.56,6555.,1.,2.,3413.,0.,0.,9971.,0.501414169736,26.0735368263,13.
6.58,6561.,1.,0.,3411.,0.,0.,9973.,0.518859017589,26.9806689146,13.
6.6,6565.,4.,0.,3403.,0.,0.,9972.,0.540745420205,7.02969046266,52.
6.62,6572.,2.,0.,3396.,0.,0.,9970.,0.567061023328,14.7435866065,26.
6.64,6568.,2.,1.,3394.,0.,0.,9965.,0.596308489622,15.5040207302,26.
6.66,6578.,1.,0.,3387.,0.,0.,9966.,0.629729320636,32.7459246731,13.
6.68,6580.,0.,1.,3385.,0.,0.,9966.,0.66521360514,inf,0.
6.7,6587.,0.,0.,3379.,0.,0.,9966.,0.703407404936,inf,0.
6.72,6594.,0.,0.,3373.,0.,0.,9967.,0.743172551953,inf,0.
6.74,6600.,1.,0.,3367.,0.,0.,9968.,0.783844492811,40.7599136262,13.
6.76,6606.,2.,0.,3362.,0.,0.,9970.,0.824817119067,21.4452450957,26.
6.78,6612.,1.,0.,3358.,0.,0.,9971.,0.865614590572,45.0119587098,13.
6.8,6613.,2.,0.,3352.,0.,0.,9967.,0.905293865435,23.5376405013,26.
6.82,6620.,3.,0.,3346.,0.,0.,9969.,0.943732913001,16.3580371587,39.
6.84,6620.,4.,0.,3346.,0.,0.,9970.,0.979131375287,12.7287078787,52.
6.86,6628.,4.,0.,3339.,0.,0.,9971.,1.0130202872,13.1692637336,52.
6.88,6632.,6.,0.,3333.,0.,0.,9971.,1.04320767387,9.04113317352,78.
6.9,6643.,5.,2.,3323.,0.,0.,9973.,1.07062795098,11.1345306902,65.
6.92,6651.,5.,7.,3313.,0.,0.,9976.,1.09338608298,11.371215263,65.
6.94,6655.,8.,3.,3313.,0.,0.,9979.,1.11103566955,7.22173185208,104.
6.96,6653.,12.,1.,3313.,0.,0.,9979.,1.12326896171,4.86749883406,156.
6.98,6655.,8.,9.,3305.,0.,0.,9977.,1.13145616717,7.35446508661,104.
7.,6654.,16.,4.,3304.,0.,0.,9978.,1.13372699488,3.68461273336,208.
7.02,6658.,17.,5.,3298.,0.,0.,9978.,1.13185276883,3.46213788112,221.
7.04,6657.,17.,3.,3300.,0.,0.,9977.,1.12416961461,3.43863646822,221.
7.06,6655.,20.,10.,3295.,0.,0.,9980.,1.11092434333,2.88840329266,260.
7.08,6638.,27.,11.,3298.,0.,0.,9974.,1.09146777659,2.10208608825,351.
7.1,6640.,23.,14.,3298.,0.,0.,9975.,1.06992988668,2.4189719177,299.
7.12,6634.,25.,12.,3302.,0.,0.,9973.,1.0433130026,2.17009104541,325.
7.14,6628.,29.,16.,3305.,0.,0.,9978.,1.01230960951,1.81517585154,377.
7.16,6611.,35.,21.,3309.,0.,0.,9976.,0.977212138355,1.45185803413,455.
7.18,6599.,39.,11.,3330.,0.,0.,9979.,0.939796479414,1.25306197255,507.
7.2,6595.,39.,15.,3331.,0.,0.,9980.,0.901653705037,1.20220494005,507.
7.22,6593.,29.,15.,3343.,0.,0.,9980.,0.862348821108,1.54628064475,377.
7.24,6585.,32.,14.,3351.,0.,0.,9982.,0.821206671383,1.334460841,416.
7.26,6580.,29.,16.,3361.,0.,0.,9986.,0.780060589834,1.3987293335,377.
7.28,6578.,27.,13.,3371.,0.,0.,9989.,0.739736473678,1.42467765301,351.
7.3,6575.,28.,13.,3375.,0.,0.,9991.,0.700369062218,1.30068540126,364.
7.32,6566.,28.,14.,3380.,0.,0.,9988.,0.662336146345,1.23005284321,364.
7.34,6558.,25.,15.,3388.,0.,0.,9986.,0.626557278111,1.30323913847,325.
7.36,6549.,20.,19.,3394.,0.,0.,9982.,0.593570865665,1.54328425073,260.
7.38,6553.,13.,13.,3409.,0.,0.,9988.,0.564402638188,2.25761055275,169.
7.4,6558.,12.,5.,3414.,0.,0.,9989.,0.539249546474,2.33674803472,156.
7.42,6563.,12.,2.,3413.,0.,0.,9990.,0.518133969781,2.24524720238,156.
7.44,6566.,11.,2.,3411.,0.,0.,9990.,0.501300356148,2.36978350179,143.
7.46,6573.,9.,4.,3405.,0.,0.,9991.,0.48938340438,2.82754855864,117.
7.48,6577.,8.,2.,3405.,0.,0.,9992.,0.482108590276,3.13370583679,104.
7.5,6584.,2.,3.,3400.,0.,0.,9989.,0.48024208347,12.4862941702,26.
7.52,6587.,4.,0.,3402.,0.,0.,9993.,0.482793294324,6.27631282621,52.
7.54,6596.,0.,3.,3394.,0.,0.,9993.,0.490997548832,inf,0.
7.56,6600.,0.,0.,3394.,0.,0.,9994.,0.503694505498,inf,0.
7.58,6611.,0.,0.,3380.,0.,0.,9991.,0.52187122159,inf,0.
7.6,6625.,0.,0.,3369.,0.,0.,9994.,0.544486262407,inf,0.
7.62,6636.,0.,0.,3359.,0.,0.,9995.,0.571151050259,inf,0.
7.64,6646.,0.,0.,3353.,0.,0.,9999.,0.601338375349,inf,0.
7.66,6662.,0.,0.,3344.,0.,0.,10006.,0.635221308866,inf,0.
7.68,6670.,1.,0.,3336.,0.,0.,10007.,0.671549525081,34.9205753042,13.
7.7,6673.,1.,1.,3328.,0.,0.,10003.,0.709955309331,36.9176760852,13.
7.72,6681.,1.,1.,3317.,0.,0.,10000.,0.750493004458,39.0256362318,13.
7.74,6682.,1.,0.,3314.,0.,0.,9997.,0.791281085004,41.1466164202,13.
7.76,6692.,2.,0.,3306.,0.,0.,10000.,0.833048309463,21.659256046,26.
7.78,6702.,2.,0.,3297.,0.,0.,10001.,0.874765075512,22.7438919633,26.
7.8,6705.,3.,0.,3293.,0.,0.,10001.,0.914767797835,15.8559751625,39.
7.82,6712.,2.,2.,3287.,0.,0.,10003.,0.953595926146,24.7934940798,26.
7.84,6712.,7.,3.,3279.,0.,0.,10001.,0.989661457049,7.3517708238,91.
7.86,6717.,7.,4.,3273.,0.,0.,10001.,1.02354344274,7.60346557463,91.
7.88,6719.,5.,4.,3272.,0.,0.,10000.,1.05382770731,10.959808156,65.
7.9,6716.,6.,5.,3274.,0.,0.,10001.,1.07936269568,9.35447669586,78.
7.92,6724.,6.,3.,3271.,0.,0.,10004.,1.10229301674,9.5532061451,78.
7.94,6729.,7.,6.,3263.,0.,0.,10005.,1.12047043142,8.32349463341,91.
7.96,6732.,7.,7.,3261.,0.,0.,10007.,1.13342676844,8.41974170841,91.
7.98,6730.,10.,7.,3259.,0.,0.,10006.,1.14089115202,5.93263399049,130.
8.,6738.,14.,11.,3247.,0.,0.,10010.,1.14436909289,4.25051377358,182.
8.02,6737.,14.,12.,3250.,0.,0.,10013.,1.14127939791,4.23903776365,182.
8.04,6729.,23.,6.,3257.,0.,0.,10015.,1.13201669643,2.55934209627,299.
8.06,6728.,21.,11.,3256.,0.,0.,10016.,1.11907355203,2.7710392717,273.
8.08,6717.,25.,18.,3251.,0.,0.,10011.,1.10037552302,2.28878108789,325.
8.1,6704.,28.,14.,3262.,0.,0.,10008.,1.07668051333,1.99954952475,364.
8.12,6691.,31.,12.,3272.,0.,0.,10006.,1.04880682092,1.7592888609,403.
8.14,6674.,35.,15.,3282.,0.,0.,10006.,1.01648286742,1.51020311731,455.
8.16,6662.,32.,23.,3288.,0.,0.,10005.,0.981896408668,1.59558166409,416.
8.18,6650.,38.,16.,3303.,0.,0.,10007.,0.944409731535,1.29235015894,494.
8.2,6639.,33.,20.,3316.,0.,0.,10008.,0.905129844546,1.42626520959,429.
8.22,6631.,29.,21.,3327.,0.,0.,10008.,0.86489257899,1.55084186578,377.
8.24,6613.,36.,20.,3335.,0.,0.,10004.,0.822884903194,1.18861152684,468.
8.26,6605.,35.,17.,3345.,0.,0.,10002.,0.781771757439,1.1614894682,455.
8.28,6598.,34.,13.,3358.,0.,0.,10003.,0.740947128137,1.1332132548,442.
8.3,6591.,24.,23.,3359.,0.,0.,9997.,0.701652011929,1.52024602585,312.
8.32,6589.,31.,12.,3364.,0.,0.,9996.,0.66412430169,1.11401495767,403.
8.34,6583.,22.,18.,3372.,0.,0.,9995.,0.628379466436,1.48526055703,286.
8.36,6588.,20.,7.,3383.,0.,0.,9998.,0.596150083926,1.54999021821,260.
8.38,6591.,11.,16.,3382.,0.,0.,10000.,0.566994325493,2.68033681142,143.
8.4,6581.,18.,9.,3391.,0.,0.,9999.,0.540599589686,1.56173214798,234.
8.42,6582.,18.,8.,3392.,0.,0.,10000.,0.519114342726,1.49966365676,234.
8.44,6585.,11.,4.,3396.,0.,0.,9996.,0.502449195089,2.37521437679,143.
8.46,6590.,9.,4.,3395.,0.,0.,9998.,0.490305592215,2.83287675502,117.
8.48,6597.,6.,4.,3392.,0.,0.,9999.,0.483236098242,4.18804618476,78.
8.5,6602.,6.,1.,3391.,0.,0.,10000.,0.481025306958,4.16888599364,78.
8.52,6609.,3.,2.,3384.,0.,0.,9998.,0.484163530075,8.39216785463,39.
8.54,6610.,2.,1.,3377.,0.,0.,9990.,0.492187450052,12.7968737013,26.
8.56,6614.,0.,3.,3370.,0.,0.,9987.,0.505116742384,inf,0.
8.58,6619.,0.,1.,3364.,0.,0.,9984.,0.522869078295,inf,0.
8.6,6632.,0.,0.,3353.,0.,0.,9985.,0.545552860997,inf,0.
8.62,6640.,0.,0.,3344.,0.,0.,9984.,0.572124976851,inf,0.
8.64,6646.,0.,0.,3334.,0.,0.,9980.,0.602483207927,inf,0.
8.66,6652.,0.,0.,3331.,0.,0.,9983.,0.635729109625,inf,0.
8.68,6666.,1.,0.,3315.,0.,0.,9982.,0.672827689328,34.9870398451,13.
8.7,6673.,0.,1.,3310.,0.,0.,9984.,0.711306386142,inf,0.
8.72,6680.,1.,0.,3302.,0.,0.,9983.,0.751658491457,39.0862415558,13.
8.74,6686.,1.,0.,3292.,0.,0.,9979.,0.7931829219,41.2455119388,13.
8.76,6694.,1.,0.,3287.,0.,0.,9982.,0.834799917728,43.4095957219,13.
8.78,6700.,1.,0.,3278.,0.,0.,9979.,0.876431987109,45.5744633297,13.
8.8,6708.,3.,0.,3268.,0.,0.,9979.,0.917194716528,15.8980417532,39.
8.82,6714.,2.,0.,3264.,0.,0.,9980.,0.956078393536,24.8580382319,26.
8.84,6714.,5.,0.,3258.,0.,0.,9977.,0.99233772261,10.3203123151,65.
8.86,6714.,7.,1.,3257.,0.,0.,9979.,1.02534182608,7.61682499377,91.
8.88,6718.,6.,1.,3252.,0.,0.,9977.,1.05609989413,9.15286574909,78.
8.9,6728.,1.,6.,3240.,0.,0.,9975.,1.08410968035,56.3737033785,13.
8.92,6723.,10.,3.,3237.,0.,0.,9973.,1.10555493257,5.74888564939,130.
8.94,6723.,12.,6.,3231.,0.,0.,9972.,1.12317597786,4.86709590407,156.
8.96,6728.,16.,7.,3218.,0.,0.,9969.,1.13707116016,3.69548127053,208.
8.98,6726.,21.,11.,3210.,0.,0.,9968.,1.14455977833,2.83414802254,273.
9.,6721.,16.,14.,3220.,0.,0.,9971.,1.14594657216,3.72432635951,208.
9.02,6722.,24.,8.,3222.,0.,0.,9976.,1.14296179569,2.47641722399,312.
9.04,6728.,24.,9.,3216.,0.,0.,9977.,1.1361594062,2.46167871344,312.
9.06,6719.,21.,8.,3223.,0.,0.,9971.,1.12262029631,2.7798216861,273.
9.08,6714.,23.,12.,3222.,0.,0.,9971.,1.10429639657,2.49667011399,299.
9.1,6703.,36.,13.,3219.,0.,0.,9971.,1.08051461895,1.56074333848,468.
9.12,6687.,37.,13.,3228.,0.,0.,9965.,1.05249245686,1.47917858802,481.
9.14,6676.,35.,14.,3239.,0.,0.,9964.,1.02107341399,1.51702335793,455.
9.16,6663.,39.,9.,3250.,0.,0.,9961.,0.986381706856,1.31517560914,507.
9.18,6655.,36.,13.,3259.,0.,0.,9963.,0.949293784914,1.37120213376,468.
9.2,6652.,30.,17.,3266.,0.,0.,9965.,0.910815579321,1.57874700416,390.
9.22,6643.,30.,15.,3277.,0.,0.,9965.,0.870196613703,1.50834079709,390.
9.24,6634.,29.,12.,3290.,0.,0.,9965.,0.828728776207,1.4859964263,377.
9.26,6628.,30.,11.,3299.,0.,0.,9968.,0.78716989369,1.36442781573,390.
9.28,6626.,21.,18.,3302.,0.,0.,9967.,0.746779091484,1.84916727415,273.
9.3,6618.,23.,14.,3311.,0.,0.,9966.,0.706717808694,1.59779678487,299.
9.32,6613.,27.,5.,3323.,0.,0.,9968.,0.668415643593,1.28731901729,351.
9.34,6615.,21.,5.,3322.,0.,0.,9963.,0.63346211537,1.56857285711,273.
9.36,6615.,21.,3.,3324.,0.,0.,9963.,0.600696179173,1.48743815795,273.
9.38,6615.,18.,6.,3323.,0.,0.,9962.,0.571229610943,1.65021887606,234.
9.4,6616.,11.,12.,3322.,0.,0.,9961.,0.545547972098,2.57895404992,143.
9.42,6617.,11.,3.,3327.,0.,0.,9958.,0.524075868849,2.47744956183,143.
9.44,6625.,8.,5.,3319.,0.,0.,9957.,0.50748124713,3.29862810635,104.
9.46,6629.,7.,5.,3313.,0.,0.,9954.,0.495387389524,3.68002060789,91.
9.48,6628.,8.,4.,3313.,0.,0.,9953.,0.487750753577,3.17037989825,104.
9.5,6631.,5.,4.,3312.,0.,0.,9952.,0.48546851157,5.04887252033,65.
9.52,6641.,0.,5.,3309.,0.,0.,9955.,0.488609232882,inf,0.
9.54,6644.,0.,0.,3309.,0.,0.,9953.,0.496558229841,inf,0.
9.56,6654.,0.,0.,3297.,0.,0.,9951.,0.510010001985,inf,0.
9.58,6663.,0.,0.,3290.,0.,0.,9953.,0.527984240238,inf,0.
9.6,6668.,1.,0.,3283.,0.,0.,9952.,0.550333073028,28.6173197975,13.
9.62,6679.,0.,0.,3277.,0.,0.,9956.,0.577103829748,inf,0.
9.64,6688.,0.,0.,3269.,0.,0.,9957.,0.607691145841,inf,0.
9.66,6692.,0.,0.,3266.,0.,0.,9958.,0.641157517764,inf,0.
9.68,6696.,1.,0.,3261.,0.,0.,9958.,0.677484611812,35.2291998142,13.
9.7,6701.,0.,0.,3251.,0.,0.,9952.,0.716587793292,inf,0.
9.72,6713.,0.,0.,3238.,0.,0.,9951.,0.757800866654,inf,0.
9.74,6717.,0.,1.,3233.,0.,0.,9951.,0.799102753666,inf,0.
9.76,6722.,2.,0.,3226.,0.,0.,9950.,0.840987774529,21.8656821378,26.
9.78,6726.,0.,2.,3223.,0.,0.,9951.,0.882308729798,inf,0.
9.8,6732.,1.,1.,3219.,0.,0.,9953.,0.922880811508,47.9898021984,13.
9.82,6737.,1.,1.,3211.,0.,0.,9950.,0.962246133404,50.036798937,13.
9.84,6744.,1.,3.,3204.,0.,0.,9952.,0.999275709045,51.9623368703,13.
9.86,6749.,5.,3.,3199.,0.,0.,9956.,1.03306797707,10.7439069615,65.
9.88,6750.,6.,6.,3197.,0.,0.,9959.,1.0630483366,9.21308558385,78.
9.9,6754.,8.,4.,3194.,0.,0.,9960.,1.08993816962,7.08459810251,104.
9.92,6757.,5.,6.,3193.,0.,0.,9961.,1.1124846138,11.5698399836,65.
9.94,6759.,7.,5.,3187.,0.,0.,9958.,1.13077784113,8.40006396271,91.
9.96,6760.,11.,4.,3185.,0.,0.,9960.,1.14351170727,5.40569170712,143.
9.98,6756.,13.,7.,3182.,0.,0.,9958.,1.15081937591,4.60327750365,169.
10.,6756.,16.,6.,3183.,0.,0.,9961.,1.15307058006,3.7474793852,208.
