t,prevalence
5.,4
5.02,3
5.04,4
5.06,10
5.08,7
5.1,7
5.12,9
5.14,6
5.16,10
5.18,9
5.2,11
5.22,11
5.24,11
5.26,12
5.28,6
5.3,10
5.32,9
5.34,8
5.36,8
5.38,9
5.4,7
5.42,4
5.44,3
5.46,3
5.48,0
5.5,1
5.52,2
5.54,3
5.56,2
5.58,1
5.6,0
5.62,0
5.64,1
5.66,0
5.68,0
5.7,1
5.72,1
5.74,0
5.76,0
5.78,0
5.8,0
5.82,0
5.84,1
5.86,0
5.88,2
5.9,1
5.92,0
5.94,0
5.96,0
5.98,3
6.,4
6.02,6
6.04,7
6.06,2
6.08,5
6.1,2
6.12,7
6.14,6
6.16,5
6.18,4
6.2,8
6.22,12
6.24,6
6.26,7
6.28,3
6.3,3
6.32,5
6.34,6
6.36,1
6.38,2
6.4,1
6.42,4
6.44,3
6.46,1
6.48,0
6.5,3
6.52,1
6.54,0
6.56,0
6.58,0
6.6,0
6.62,0
6.64,0
6.66,0
6.68,0
6.7,1
6.72,0
6.74,0
6.76,0
6.78,1
6.8,0
6.82,1
6.84,1
6.86,0
6.88,0
6.9,2
6.92,5
6.94,3
6.96,2
6.98,0
7.,1
7.02,6
7.04,6
7.06,4
7.08,5
7.1,8
7.12,8
7.14,6
7.16,9
7.18,6
7.2,5
7.22,12
7.24,16
7.26,9
7.28,7
7.3,6
7.32,3
7.34,6
7.36,3
7.38,3
7.4,7
7.42,2
7.44,4
7.46,0
7.48,2
7.5,1
7.52,1
7.54,0
7.56,0
7.58,1
7.6,0
7.62,0
7.64,0
7.66,0
7.68,0
7.7,0
7.72,0
7.74,0
7.76,0
7.78,0
7.8,0
7.82,1
7.84,3
7.86,2
7.88,3
7.9,2
7.92,3
7.94,1
7.96,1
7.98,1
8.,2
8.02,5
8.04,5
8.06,3
8.08,7
8.1,3
8.12,5
8.14,5
8.16,4
8.18,6
8.2,7
8.22,6
8.24,6
8.26,11
8.28,13
8.3,3
8.32,5
8.34,4
8.36,1
8.38,4
8.4,1
8.42,3
8.44,2
8.46,0
8.48,0
8.5,1
8.52,2
8.54,1
8.56,0
8.58,0
8.6,0
8.62,1
8.64,0
8.66,1
8.68,0
8.7,0
8.72,0
8.74,1
8.76,1
8.78,0
8.8,0
8.82,0
8.84,1
8.86,0
8.88,1
8.9,0
8.92,2
8.94,3
8.96,3
8.98,4
9.,4
9.02,4
9.04,6
9.06,5
9.08,6
9.1,6
9.12,9
9.14,8
9.16,8
9.18,9
9.2,10
9.22,7
9.24,4
9.26,3
9.28,7
9.3,5
9.32,3
9.34,6
9.36,8
9.38,4
9.4,3
9.42,5
9.44,0
9.46,3
9.48,3
9.5,2
9.52,1
9.54,0
9.56,1
9.58,0
9.6,0
9.62,1
9.64,1
9.66,0
9.68,0
9.7,0
9.72,0
9.74,0
9.76,1
9.78,2
9.8,0
9.82,0
9.84,1
9.86,0
9.88,1
9.9,4
9.92,4
9.94,5
9.96,3
9.98,3
10.,8
