t,s,e,i,r,c,o,n,reff,coal,reportr
5.,6682.,5.,20.,3295.,0.,0.,10002.,1.11677365527,11.6144460148,65.
5.02,6669.,16.,10.,3304.,0.,0.,9999.,1.11242347237,3.6153762852,208.
5.04,6664.,22.,8.,3306.,0.,0.,10000.,1.10398861507,2.60942763563,286.
5.06,6659.,22.,10.,3305.,0.,0.,9996.,1.09125458371,2.57932901603,286.
5.08,6655.,23.,11.,3306.,0.,0.,9995.,1.07370418113,2.42750510516,299.
5.1,6643.,31.,6.,3315.,0.,0.,9995.,1.05040782056,1.76197440868,403.
5.12,6637.,27.,10.,3319.,0.,0.,9993.,1.0242765986,1.97268085657,351.
5.14,6636.,28.,13.,3314.,0.,0.,9991.,0.995286529633,1.84838926932,364.
5.16,6626.,33.,9.,3324.,0.,0.,9992.,0.961509303851,1.51510556971,429.
5.18,6619.,27.,17.,3329.,0.,0.,9992.,0.925676017944,1.78278344197,351.
5.2,6606.,29.,18.,3338.,0.,0.,9991.,0.887077312339,1.59062138764,377.
5.22,6596.,32.,21.,3337.,0.,0.,9986.,0.84780480448,1.37768280728,416.
5.24,6585.,32.,16.,3352.,0.,0.,9985.,0.807231896022,1.31175183104,416.
5.26,6574.,28.,21.,3359.,0.,0.,9982.,0.766624135517,1.42373053739,364.
5.28,6561.,35.,8.,3378.,0.,0.,9982.,0.72599561484,1.07862205633,455.
5.3,6553.,27.,15.,3382.,0.,0.,9977.,0.68731638883,1.32372045256,351.
5.32,6555.,27.,13.,3382.,0.,0.,9977.,0.650886381013,1.25355895602,351.
5.34,6554.,22.,10.,3390.,0.,0.,9976.,0.616321436963,1.45675976009,286.
5.36,6557.,16.,11.,3397.,0.,0.,9981.,0.584416713979,1.89935432043,208.
5.38,6559.,14.,11.,3398.,0.,0.,9982.,0.555806747469,2.06442506203,182.
5.4,6559.,17.,10.,3396.,0.,0.,9982.,0.530684988947,1.6232717309,221.
5.42,6563.,12.,7.,3403.,0.,0.,9985.,0.509724881923,2.20880782167,156.
5.44,6560.,9.,5.,3408.,0.,0.,9982.,0.49286189829,2.84764652345,117.
5.46,6571.,8.,6.,3400.,0.,0.,9985.,0.481342612785,3.1287269831,104.
5.48,6571.,5.,0.,3407.,0.,0.,9983.,0.474041319194,4.93002971962,65.
5.5,6578.,3.,2.,3399.,0.,0.,9982.,0.472112019862,8.18327501095,39.
5.52,6587.,1.,3.,3393.,0.,0.,9984.,0.47514798632,24.7076952887,13.
5.54,6600.,0.,4.,3385.,0.,0.,9989.,0.483273337471,inf,0.
5.56,6603.,1.,1.,3378.,0.,0.,9983.,0.496042854194,25.7942284181,13.
5.58,6616.,1.,0.,3368.,0.,0.,9985.,0.513841203536,26.7197425839,13.
5.6,6621.,2.,1.,3361.,0.,0.,9985.,0.535540422122,13.9240509752,26.
5.62,6633.,0.,1.,3354.,0.,0.,9988.,0.561739822942,inf,0.
5.64,6640.,0.,1.,3346.,0.,0.,9987.,0.59145884305,inf,0.
5.66,6652.,1.,1.,3335.,0.,0.,9989.,0.624723013167,32.4855966847,13.
5.68,6662.,1.,0.,3330.,0.,0.,9993.,0.66045191186,34.3434994167,13.
5.7,6667.,1.,2.,3328.,0.,0.,9998.,0.697804597711,36.285839081,13.
5.72,6677.,2.,0.,3321.,0.,0.,10000.,0.73750148901,19.1750387142,26.
5.74,6687.,3.,0.,3311.,0.,0.,10001.,0.778320106252,13.4908818417,39.
5.76,6694.,2.,1.,3304.,0.,0.,10001.,0.819281002273,21.3013060591,26.
5.78,6699.,2.,1.,3297.,0.,0.,9999.,0.859924252442,22.3580305635,26.
5.8,6702.,3.,0.,3296.,0.,0.,10001.,0.899068657222,15.5838567252,39.
5.82,6708.,3.,0.,3288.,0.,0.,9999.,0.937466035557,16.249411283,39.
5.84,6714.,3.,0.,3281.,0.,0.,9998.,0.973694438146,16.8773702612,39.
5.86,6716.,2.,1.,3276.,0.,0.,9995.,1.00688204607,26.1789331979,26.
5.88,6718.,4.,3.,3272.,0.,0.,9997.,1.03636235157,13.4727105704,52.
5.9,6720.,6.,2.,3269.,0.,0.,9997.,1.06237067325,9.2072125015,78.
5.92,6725.,7.,2.,3260.,0.,0.,9994.,1.08510640386,8.06079042864,91.
5.94,6733.,6.,0.,3256.,0.,0.,9995.,1.10349184883,9.56359602319,78.
5.96,6745.,7.,1.,3247.,0.,0.,10000.,1.11740744428,8.30074101464,91.
5.98,6748.,6.,3.,3242.,0.,0.,9999.,1.12560107836,9.75520934575,78.
6.,6750.,12.,4.,3235.,0.,0.,10001.,1.12825140974,4.88908944222,156.
6.02,6746.,17.,6.,3229.,0.,0.,9998.,1.12538001733,3.44233887655,221.
6.04,6742.,17.,11.,3229.,0.,0.,9999.,1.11702215282,3.41677364392,221.
6.06,6737.,24.,7.,3233.,0.,0.,10001.,1.10348499879,2.39088416404,312.
6.08,6734.,21.,14.,3234.,0.,0.,10003.,1.08558098142,2.68810528731,273.
6.1,6737.,21.,15.,3232.,0.,0.,10005.,1.06420659734,2.63517824104,273.
6.12,6725.,27.,15.,3237.,0.,0.,10004.,1.03671629789,1.99663879594,351.
6.14,6709.,36.,16.,3241.,0.,0.,10002.,1.00512864391,1.45185248565,468.
6.16,6701.,31.,14.,3252.,0.,0.,9998.,0.971809119752,1.63013142668,403.
6.18,6686.,41.,9.,3260.,0.,0.,9996.,0.934671889618,1.18543751854,533.
6.2,6672.,36.,10.,3275.,0.,0.,9993.,0.895760714923,1.29387658822,468.
6.22,6667.,29.,13.,3279.,0.,0.,9988.,0.856759067671,1.53625763858,377.
6.24,6663.,32.,13.,3281.,0.,0.,9989.,0.816466563335,1.32675816542,416.
6.26,6644.,32.,14.,3293.,0.,0.,9983.,0.774709544256,1.25890300942,416.
6.28,6645.,29.,14.,3296.,0.,0.,9984.,0.735143189485,1.31818778804,377.
6.3,6638.,25.,20.,3299.,0.,0.,9982.,0.695882934899,1.44743650459,325.
6.32,6632.,22.,19.,3307.,0.,0.,9980.,0.658334230379,1.55606272635,286.
6.34,6623.,26.,6.,3325.,0.,0.,9980.,0.62256039765,1.2451207953,338.
6.36,6626.,18.,17.,3317.,0.,0.,9978.,0.590744153081,1.70659422001,234.
6.38,6630.,15.,7.,3323.,0.,0.,9975.,0.562217517875,1.94902072863,195.
6.4,6634.,13.,9.,3323.,0.,0.,9979.,0.536914561452,2.14765824581,169.
6.42,6633.,11.,9.,3325.,0.,0.,9978.,0.515522941281,2.4370175406,143.
6.44,6645.,9.,2.,3324.,0.,0.,9980.,0.499348115892,2.88512244738,117.
6.46,6649.,7.,1.,3320.,0.,0.,9977.,0.487446856252,3.6210337893,91.
6.48,6656.,6.,3.,3313.,0.,0.,9978.,0.480413956545,4.16358762339,78.
6.5,6660.,3.,6.,3308.,0.,0.,9977.,0.478236821154,8.28943823334,39.
6.52,6670.,4.,1.,3302.,0.,0.,9977.,0.481472696059,6.25914504876,52.
6.54,6673.,4.,3.,3294.,0.,0.,9974.,0.489353472007,6.36159513609,52.
6.56,6681.,5.,2.,3290.,0.,0.,9978.,0.50215401992,5.22240180717,65.
6.58,6687.,0.,2.,3288.,0.,0.,9977.,0.519771963401,inf,0.
6.6,6692.,0.,1.,3282.,0.,0.,9975.,0.541825905965,inf,0.
6.62,6701.,0.,0.,3275.,0.,0.,9976.,0.568181287929,inf,0.
6.64,6712.,0.,0.,3265.,0.,0.,9977.,0.59847150272,inf,0.
6.66,6720.,0.,0.,3261.,0.,0.,9981.,0.631615086097,inf,0.
6.68,6726.,1.,0.,3255.,0.,0.,9982.,0.667531490559,34.711637509,13.
6.7,6737.,0.,0.,3250.,0.,0.,9987.,0.705907833606,inf,0.
6.72,6740.,1.,0.,3243.,0.,0.,9984.,0.745653137265,38.7739631378,13.
6.74,6747.,1.,1.,3237.,0.,0.,9986.,0.786483294266,40.8971313018,13.
6.76,6753.,2.,1.,3230.,0.,0.,9986.,0.827743524054,21.5213316254,26.
6.78,6768.,1.,0.,3220.,0.,0.,9989.,0.869651248975,45.2218649467,13.
6.8,6779.,1.,0.,3213.,0.,0.,9993.,0.910126182024,47.3265614652,13.
6.82,6785.,1.,1.,3205.,0.,0.,9992.,0.948891340346,49.342349698,13.
6.84,6792.,2.,2.,3197.,0.,0.,9993.,0.985499196677,25.6229791136,26.
6.86,6794.,4.,1.,3192.,0.,0.,9991.,1.01898382796,13.2467897634,52.
6.88,6795.,2.,5.,3188.,0.,0.,9990.,1.04897537524,27.2733597561,26.
6.9,6791.,8.,3.,3188.,0.,0.,9990.,1.07434739416,6.98325806204,104.
6.92,6792.,9.,2.,3186.,0.,0.,9989.,1.09646569135,6.33513510557,117.
6.94,6798.,9.,1.,3183.,0.,0.,9991.,1.11459095594,6.43985885656,117.
6.96,6798.,14.,1.,3177.,0.,0.,9990.,1.12731498084,4.18716992882,182.
6.98,6803.,11.,7.,3171.,0.,0.,9992.,1.13557033974,5.36815069695,143.
7.,6802.,13.,6.,3170.,0.,0.,9991.,1.1380810916,4.55232436641,169.
7.02,6795.,15.,10.,3169.,0.,0.,9989.,1.13457560897,3.93319544443,195.
7.04,6794.,16.,7.,3174.,0.,0.,9991.,1.12653889263,3.66125140104,208.
7.06,6790.,22.,13.,3170.,0.,0.,9995.,1.1128337522,2.63033432338,286.
7.08,6781.,31.,9.,3176.,0.,0.,9997.,1.09381389296,1.83478459464,403.
7.1,6782.,26.,18.,3174.,0.,0.,10000.,1.07185065575,2.14370131149,338.
7.12,6773.,32.,18.,3178.,0.,0.,10001.,1.04442911209,1.69719730715,416.
7.14,6755.,34.,18.,3195.,0.,0.,10002.,1.01202026973,1.54779570664,442.
7.16,6733.,42.,16.,3211.,0.,0.,10002.,0.97605940163,1.20845449726,546.
7.18,6715.,44.,20.,3225.,0.,0.,10004.,0.937975275055,1.10851623416,572.
7.2,6708.,29.,22.,3247.,0.,0.,10006.,0.899423886089,1.61276007161,377.
7.22,6687.,41.,24.,3256.,0.,0.,10008.,0.857611931761,1.08770293784,533.
7.24,6676.,35.,23.,3273.,0.,0.,10007.,0.816588072121,1.21321656429,455.
7.26,6664.,25.,22.,3292.,0.,0.,10003.,0.775487984767,1.61301500831,325.
7.28,6649.,28.,20.,3307.,0.,0.,10004.,0.734115130408,1.36335667076,364.
7.3,6638.,34.,12.,3320.,0.,0.,10004.,0.694352604574,1.06195104229,442.
7.32,6631.,31.,10.,3329.,0.,0.,10001.,0.656852808851,1.10181761485,403.
7.34,6626.,27.,11.,3338.,0.,0.,10002.,0.621472417646,1.19690984139,351.
7.36,6630.,16.,14.,3342.,0.,0.,10002.,0.589682416778,1.91646785453,208.
7.38,6630.,11.,10.,3352.,0.,0.,10003.,0.560643780946,2.65031605538,143.
7.4,6626.,16.,7.,3354.,0.,0.,10003.,0.534980436352,1.73868641814,208.
7.42,6626.,10.,10.,3355.,0.,0.,10001.,0.513794561733,2.67173172101,130.
7.44,6629.,6.,7.,3359.,0.,0.,10001.,0.497099771276,4.30819801773,78.
7.46,6628.,7.,2.,3361.,0.,0.,9998.,0.484886709389,3.60201555546,91.
7.48,6634.,6.,0.,3361.,0.,0.,10001.,0.477724860042,4.14028212037,78.
7.5,6645.,5.,1.,3354.,0.,0.,10005.,0.475824331695,4.94857304963,65.
7.52,6653.,3.,2.,3352.,0.,0.,10010.,0.478662327153,8.29681367065,39.
7.54,6660.,1.,4.,3350.,0.,0.,10015.,0.486400696998,25.2928362439,13.
7.56,6670.,0.,1.,3346.,0.,0.,10017.,0.499375385267,inf,0.
7.58,6681.,0.,1.,3338.,0.,0.,10020.,0.517077034142,inf,0.
7.6,6693.,0.,0.,3329.,0.,0.,10022.,0.539365500896,inf,0.
7.62,6701.,1.,0.,3320.,0.,0.,10022.,0.565573391376,29.4098163516,13.
7.64,6708.,0.,1.,3312.,0.,0.,10021.,0.595488654772,inf,0.
7.66,6714.,0.,0.,3312.,0.,0.,10026.,0.628218778059,inf,0.
7.68,6726.,1.,0.,3299.,0.,0.,10026.,0.664601968757,34.5593023754,13.
7.7,6731.,1.,0.,3294.,0.,0.,10026.,0.702535693479,36.5318560609,13.
7.72,6741.,0.,1.,3285.,0.,0.,10027.,0.742565619094,inf,0.
7.74,6743.,0.,0.,3287.,0.,0.,10030.,0.782568892351,inf,0.
7.76,6749.,1.,0.,3279.,0.,0.,10029.,0.823706324424,42.83272887,13.
7.78,6762.,1.,0.,3265.,0.,0.,10028.,0.865501110137,45.0060577271,13.
7.8,6767.,3.,1.,3258.,0.,0.,10029.,0.905253904706,15.6910676816,39.
7.82,6764.,9.,4.,3254.,0.,0.,10031.,0.942276641054,5.4442650372,117.
7.84,6763.,10.,10.,3244.,0.,0.,10027.,0.977963975384,5.085412672,130.
7.86,6768.,7.,8.,3244.,0.,0.,10027.,1.01143980921,7.51355286839,91.
7.88,6770.,12.,1.,3241.,0.,0.,10024.,1.04157112365,4.51347486913,156.
7.9,6773.,10.,5.,3235.,0.,0.,10023.,1.06797192929,5.5534540323,130.
7.92,6782.,10.,4.,3226.,0.,0.,10022.,1.09124626431,5.67448057441,130.
7.94,6785.,14.,4.,3219.,0.,0.,10022.,1.10901843928,4.1192113459,182.
7.96,6784.,13.,1.,3224.,0.,0.,10022.,1.12140127923,4.48560511692,169.
7.98,6776.,13.,8.,3223.,0.,0.,10020.,1.12790278951,4.51161115803,169.
8.,6770.,20.,11.,3220.,0.,0.,10021.,1.12933593087,2.93627342025,260.
8.02,6760.,24.,14.,3221.,0.,0.,10019.,1.12535181131,2.43826225784,312.
8.04,6756.,25.,9.,3228.,0.,0.,10018.,1.11721876065,2.32381502215,325.
8.06,6748.,27.,13.,3229.,0.,0.,10017.,1.10352128315,2.12530024903,351.
8.08,6741.,27.,12.,3237.,0.,0.,10017.,1.08519063273,2.08999677415,351.
8.1,6739.,28.,16.,3240.,0.,0.,10023.,1.06261078274,1.97342002508,364.
8.12,6725.,36.,14.,3250.,0.,0.,10025.,1.03454462285,1.49434223301,468.
8.14,6716.,37.,16.,3256.,0.,0.,10025.,1.00386893272,1.41084282436,481.
8.16,6704.,35.,20.,3263.,0.,0.,10022.,0.969915929345,1.44101795217,455.
8.18,6684.,39.,21.,3278.,0.,0.,10022.,0.931968211879,1.24262428251,507.
8.2,6659.,49.,29.,3286.,0.,0.,10023.,0.891339486216,0.945911291494,637.
8.22,6655.,41.,19.,3308.,0.,0.,10023.,0.852230587728,1.08087781858,533.
8.24,6649.,32.,15.,3327.,0.,0.,10023.,0.811987243211,1.31947927022,416.
8.26,6640.,32.,14.,3335.,0.,0.,10021.,0.771307174339,1.2533741583,416.
8.28,6642.,36.,4.,3343.,0.,0.,10025.,0.731806083115,1.05705323117,468.
8.3,6638.,38.,5.,3341.,0.,0.,10022.,0.693105513486,0.94846017635,494.
8.32,6638.,25.,14.,3346.,0.,0.,10023.,0.656102931896,1.36469409834,325.
8.34,6638.,23.,7.,3357.,0.,0.,10025.,0.621169529409,1.40438328388,299.
8.36,6641.,20.,9.,3356.,0.,0.,10026.,0.589246864037,1.5320418465,260.
8.38,6649.,16.,4.,3362.,0.,0.,10031.,0.5606810164,1.8222133033,208.
8.4,6656.,8.,9.,3360.,0.,0.,10033.,0.535795718574,3.48267217073,104.
8.42,6657.,9.,2.,3364.,0.,0.,10032.,0.514603259081,2.97326327469,117.
8.44,6666.,8.,3.,3358.,0.,0.,10035.,0.498180706348,3.23817459126,104.
8.46,6668.,6.,0.,3359.,0.,0.,10033.,0.486111272344,4.21296436032,78.
8.48,6677.,4.,3.,3353.,0.,0.,10037.,0.479096782272,6.22825816954,52.
8.5,6683.,4.,0.,3350.,0.,0.,10037.,0.477019673667,6.20125575767,52.
8.52,6693.,3.,1.,3337.,0.,0.,10034.,0.480388420328,8.32673261902,39.
8.54,6703.,0.,4.,3325.,0.,0.,10032.,0.48871155662,inf,0.
8.56,6705.,3.,1.,3321.,0.,0.,10030.,0.501345153227,8.68998265594,39.
8.58,6714.,3.,0.,3314.,0.,0.,10031.,0.519061246559,8.99706160702,39.
8.6,6720.,0.,1.,3309.,0.,0.,10030.,0.541109399366,inf,0.
8.62,6727.,1.,1.,3300.,0.,0.,10029.,0.567371538021,29.5033199771,13.
8.64,6734.,1.,0.,3290.,0.,0.,10025.,0.597558227939,31.0730278528,13.
8.66,6743.,1.,0.,3281.,0.,0.,10025.,0.63099519988,32.8117503938,13.
8.68,6748.,1.,0.,3277.,0.,0.,10026.,0.666775808084,34.6723420204,13.
8.7,6759.,0.,1.,3267.,0.,0.,10027.,0.705387785912,inf,0.
8.72,6760.,0.,0.,3263.,0.,0.,10023.,0.744955774357,inf,0.
8.74,6764.,1.,0.,3254.,0.,0.,10019.,0.785867947715,40.8651332812,13.
8.76,6766.,1.,1.,3249.,0.,0.,10017.,0.826770407084,42.9920611684,13.
8.78,6769.,1.,2.,3244.,0.,0.,10016.,0.867435089683,45.1066246635,13.
8.8,6776.,1.,3.,3237.,0.,0.,10017.,0.907543781102,47.1922766173,13.
8.82,6781.,1.,0.,3232.,0.,0.,10014.,0.946248521509,49.2049231184,13.
8.84,6788.,3.,0.,3227.,0.,0.,10018.,0.982460935607,17.0293228839,39.
8.86,6791.,5.,1.,3219.,0.,0.,10016.,1.01599161218,10.5663127667,65.
8.88,6800.,4.,2.,3215.,0.,0.,10021.,1.04649985128,13.6044980666,52.
8.9,6804.,8.,3.,3207.,0.,0.,10022.,1.07296708399,6.97428604593,104.
8.92,6797.,10.,1.,3211.,0.,0.,10019.,1.09398728974,5.68873390663,130.
8.94,6806.,11.,4.,3202.,0.,0.,10023.,1.112339931,5.25833421928,143.
8.96,6803.,14.,3.,3205.,0.,0.,10025.,1.12420547496,4.17562033556,182.
8.98,6800.,10.,9.,3206.,0.,0.,10025.,1.13133318513,5.88293256267,130.
9.,6792.,13.,9.,3209.,0.,0.,10023.,1.13277977442,4.53111909768,169.
9.02,6786.,16.,10.,3211.,0.,0.,10023.,1.12922925239,3.66999507027,208.
9.04,6769.,26.,11.,3215.,0.,0.,10021.,1.11903342348,2.23806684697,338.
9.06,6762.,32.,9.,3219.,0.,0.,10022.,1.10525905474,1.79604596395,416.
9.08,6756.,28.,15.,3227.,0.,0.,10026.,1.08662908069,2.01802543557,364.
9.1,6754.,20.,19.,3232.,0.,0.,10025.,1.06476353041,2.76838517907,260.
9.12,6742.,27.,13.,3245.,0.,0.,10027.,1.03695295518,1.99709458035,351.
9.14,6733.,24.,20.,3249.,0.,0.,10026.,1.00630961463,2.18033749836,312.
9.16,6719.,28.,23.,3255.,0.,0.,10025.,0.971795188721,1.80476249334,364.
9.18,6702.,36.,21.,3265.,0.,0.,10024.,0.934291552476,1.34953224247,468.
9.2,6684.,36.,22.,3277.,0.,0.,10019.,0.895043053287,1.29283996586,468.
9.22,6675.,40.,19.,3286.,0.,0.,10020.,0.855047687222,1.11156199339,520.
9.24,6666.,40.,17.,3299.,0.,0.,10022.,0.814144539895,1.05838790186,520.
9.26,6662.,34.,25.,3300.,0.,0.,10021.,0.773862710158,1.18355473318,442.
9.28,6662.,26.,26.,3310.,0.,0.,10024.,0.734082879804,1.46816575961,338.
9.3,6651.,25.,14.,3334.,0.,0.,10024.,0.694324345989,1.44419463966,325.
9.32,6645.,27.,14.,3336.,0.,0.,10022.,0.656860350376,1.2650643785,351.
9.34,6642.,21.,11.,3345.,0.,0.,10019.,0.621916059753,1.53998262415,273.
9.36,6639.,15.,12.,3352.,0.,0.,10018.,0.589539815557,2.04373802727,195.
9.38,6645.,14.,9.,3350.,0.,0.,10018.,0.561070851918,2.08397744998,182.
9.4,6646.,12.,11.,3346.,0.,0.,10015.,0.535952278041,2.32245987151,156.
9.42,6651.,7.,8.,3351.,0.,0.,10017.,0.51490934395,3.82504084077,91.
9.44,6653.,5.,3.,3355.,0.,0.,10016.,0.498152345112,5.18078438916,65.
9.46,6657.,5.,0.,3355.,0.,0.,10017.,0.486084526287,5.05527907338,65.
9.48,6664.,4.,0.,3353.,0.,0.,10021.,0.478927448494,6.22605683043,52.
9.5,6675.,2.,1.,3348.,0.,0.,10026.,0.476971383473,12.4012559703,26.
9.52,6682.,1.,2.,3340.,0.,0.,10025.,0.480029460649,24.9615319538,13.
9.54,6695.,1.,0.,3331.,0.,0.,10027.,0.488371688543,25.3953278043,13.
9.56,6699.,0.,1.,3329.,0.,0.,10029.,0.50094646703,inf,0.
9.58,6711.,0.,1.,3320.,0.,0.,10032.,0.518777598271,inf,0.
9.6,6717.,0.,0.,3315.,0.,0.,10032.,0.540760004155,inf,0.
9.62,6720.,0.,1.,3311.,0.,0.,10032.,0.566611649031,inf,0.
9.64,6724.,0.,0.,3307.,0.,0.,10031.,0.596313956949,inf,0.
9.66,6728.,0.,0.,3299.,0.,0.,10027.,0.629465953427,inf,0.
9.68,6736.,0.,0.,3292.,0.,0.,10028.,0.665457331216,inf,0.
9.7,6744.,0.,0.,3287.,0.,0.,10031.,0.703541685859,inf,0.
9.72,6750.,0.,0.,3276.,0.,0.,10026.,0.743631191344,inf,0.
9.74,6757.,1.,0.,3272.,0.,0.,10030.,0.78419368317,40.7780715248,13.
9.76,6762.,1.,1.,3267.,0.,0.,10031.,0.825128408355,42.9066772344,13.
9.78,6771.,0.,1.,3260.,0.,0.,10032.,0.866307508252,inf,0.
9.8,6782.,2.,0.,3246.,0.,0.,10030.,0.907170071648,23.5864218628,26.
9.82,6793.,2.,0.,3235.,0.,0.,10030.,0.946410910212,24.6066836655,26.
9.84,6797.,1.,1.,3231.,0.,0.,10030.,0.982586564979,51.0945013789,13.
9.86,6801.,2.,1.,3226.,0.,0.,10030.,1.0160674755,26.417754363,26.
9.88,6800.,5.,1.,3221.,0.,0.,10027.,1.04587364213,10.8770858782,65.
9.9,6806.,4.,5.,3213.,0.,0.,10028.,1.07264030561,13.944323973,52.
9.92,6815.,6.,3.,3204.,0.,0.,10028.,1.09589997704,9.49779980105,78.
9.94,6816.,11.,0.,3200.,0.,0.,10027.,1.11352989308,5.26395949457,143.
9.96,6831.,9.,3.,3189.,0.,0.,10032.,1.12804485274,6.51759248252,117.
9.98,6825.,12.,4.,3187.,0.,0.,10028.,1.13515280171,4.91899547408,156.
10.,6820.,16.,7.,3182.,0.,0.,10025.,1.13722273308,3.69597388251,208.
