t,s,e,i,r,c,o,n,reff,coal,reportr
5.,7910.,21.,3.,2066.,0.,0.,10000.,1.22808000711,3.04096001761,273.
5.02,7908.,18.,6.,2067.,0.,0.,9999.,1.22512591238,3.53925263576,234.
5.04,7898.,18.,11.,2067.,0.,0.,9994.,1.21593967422,3.51271461442,234.
5.06,7894.,18.,4.,2078.,0.,0.,9994.,1.20172675094,3.47165505828,234.
5.08,7886.,22.,7.,2080.,0.,0.,9995.,1.18167485888,2.79304966643,286.
5.1,7881.,25.,13.,2074.,0.,0.,9993.,1.15762146509,2.40785264739,325.
5.12,7865.,31.,17.,2078.,0.,0.,9991.,1.12754978576,1.89137383417,403.
5.14,7845.,34.,18.,2089.,0.,0.,9986.,1.09334376472,1.67217281664,442.
5.16,7825.,37.,28.,2098.,0.,0.,9988.,1.05503030771,1.48274529733,481.
5.18,7809.,38.,14.,2129.,0.,0.,9990.,1.0145036868,1.38826820298,494.
5.2,7792.,37.,19.,2144.,0.,0.,9992.,0.971701825266,1.36563499767,481.
5.22,7773.,35.,17.,2163.,0.,0.,9988.,0.927729914457,1.37834158719,455.
5.24,7761.,41.,14.,2171.,0.,0.,9987.,0.883441660922,1.12046259434,533.
5.26,7759.,24.,22.,2181.,0.,0.,9986.,0.840019141263,1.82004147274,312.
5.28,7741.,33.,10.,2198.,0.,0.,9982.,0.795546676204,1.2535887019,429.
5.3,7736.,33.,12.,2201.,0.,0.,9982.,0.753216868956,1.18688718745,429.
5.32,7726.,29.,14.,2211.,0.,0.,9980.,0.712297240237,1.27722263767,377.
5.34,7723.,24.,15.,2219.,0.,0.,9981.,0.674176941899,1.46071670745,312.
5.36,7715.,23.,10.,2232.,0.,0.,9980.,0.638706781696,1.44403272383,299.
5.38,7714.,17.,12.,2239.,0.,0.,9982.,0.607114292233,1.85705548213,221.
5.4,7711.,14.,5.,2250.,0.,0.,9980.,0.579564182827,2.15266696479,182.
5.42,7705.,16.,7.,2251.,0.,0.,9979.,0.556124153542,1.80740349901,208.
5.44,7702.,16.,6.,2255.,0.,0.,9979.,0.537601041795,1.74720338583,208.
5.46,7706.,12.,3.,2260.,0.,0.,9981.,0.524481894421,2.27275487583,156.
5.48,7708.,10.,3.,2260.,0.,0.,9981.,0.516556809228,2.68609540799,130.
5.5,7715.,6.,7.,2257.,0.,0.,9985.,0.514116158247,4.45567337147,78.
5.52,7717.,3.,7.,2258.,0.,0.,9985.,0.516952775545,8.96051477611,39.
5.54,7725.,1.,1.,2261.,0.,0.,9988.,0.525406578135,27.321142063,13.
5.56,7731.,3.,1.,2253.,0.,0.,9988.,0.539139001006,9.34507601743,39.
5.58,7736.,2.,0.,2250.,0.,0.,9988.,0.557858512792,14.5043213326,26.
5.6,7744.,1.,1.,2246.,0.,0.,9992.,0.581345473441,30.2299646189,13.
5.62,7743.,1.,1.,2245.,0.,0.,9990.,0.608908671444,31.6632509151,13.
5.64,7745.,2.,0.,2246.,0.,0.,9993.,0.64035628001,16.6492632803,26.
5.66,7750.,1.,2.,2239.,0.,0.,9992.,0.675789115592,35.1410340108,13.
5.68,7759.,2.,0.,2233.,0.,0.,9994.,0.714337592774,18.5727774121,26.
5.7,7763.,1.,3.,2228.,0.,0.,9995.,0.754862637253,39.2528571371,13.
5.72,7765.,1.,1.,2228.,0.,0.,9995.,0.796975232847,41.4427121081,13.
5.74,7768.,1.,0.,2225.,0.,0.,9994.,0.840320317099,43.6966564892,13.
5.76,7776.,0.,1.,2219.,0.,0.,9996.,0.884352171518,inf,0.
5.78,7781.,2.,1.,2214.,0.,0.,9998.,0.927755866963,24.121652541,26.
5.8,7781.,0.,2.,2214.,0.,0.,9997.,0.969844758981,inf,0.
5.82,7784.,1.,1.,2211.,0.,0.,9997.,1.01054772845,52.5484818796,13.
5.84,7787.,2.,1.,2208.,0.,0.,9998.,1.04885672099,27.2702747457,26.
5.86,7792.,4.,1.,2201.,0.,0.,9998.,1.08465383915,14.100499909,52.
5.88,7797.,2.,5.,2198.,0.,0.,10002.,1.11657176822,29.0308659737,26.
5.9,7791.,5.,5.,2201.,0.,0.,10002.,1.14337182231,11.8910669521,65.
5.92,7785.,10.,4.,2202.,0.,0.,10001.,1.16584069553,6.06237161678,130.
5.94,7781.,14.,3.,2203.,0.,0.,10001.,1.18369534564,4.39658271237,182.
5.96,7779.,18.,2.,2202.,0.,0.,10001.,1.19678073329,3.45736656284,234.
5.98,7784.,10.,8.,2202.,0.,0.,10004.,1.20531282479,6.26762668889,130.
6.,7770.,15.,8.,2206.,0.,0.,9999.,1.20646472426,4.18241104408,195.
6.02,7757.,22.,9.,2211.,0.,0.,9999.,1.20173263813,2.84045896285,286.
6.04,7752.,19.,13.,2216.,0.,0.,10000.,1.1927461099,3.26435777445,247.
6.06,7739.,24.,12.,2221.,0.,0.,9996.,1.17789492634,2.55210567375,312.
6.08,7728.,31.,9.,2229.,0.,0.,9997.,1.15776773582,1.94206200846,403.
6.1,7731.,24.,6.,2236.,0.,0.,9997.,1.13513394794,2.4594568872,312.
6.12,7733.,13.,10.,2239.,0.,0.,9995.,1.10818220108,4.43272880433,169.
6.14,7712.,31.,8.,2242.,0.,0.,9993.,1.07405489765,1.80164047348,403.
6.16,7704.,27.,13.,2249.,0.,0.,9993.,1.03819637918,1.99948932287,351.
6.18,7694.,28.,11.,2258.,0.,0.,9991.,0.999463452931,1.85614641259,364.
6.2,7686.,29.,11.,2266.,0.,0.,9992.,0.958483088937,1.71865933189,377.
6.22,7678.,31.,16.,2269.,0.,0.,9994.,0.91584122619,1.53624979877,403.
6.24,7671.,31.,21.,2276.,0.,0.,9999.,0.872148938339,1.46295950947,403.
6.26,7660.,34.,15.,2291.,0.,0.,10000.,0.828139999588,1.26656705819,442.
6.28,7660.,29.,8.,2302.,0.,0.,9999.,0.785883851549,1.40917104416,377.
6.3,7654.,28.,10.,2304.,0.,0.,9996.,0.744189182335,1.38206562434,364.
6.32,7653.,27.,12.,2307.,0.,0.,9999.,0.704226306396,1.35628770121,351.
6.34,7652.,17.,16.,2312.,0.,0.,9997.,0.666909931284,2.03995978981,221.
6.36,7651.,16.,4.,2328.,0.,0.,9999.,0.632204775317,2.05466551978,208.
6.38,7646.,15.,5.,2332.,0.,0.,9998.,0.600799481368,2.08277153541,195.
6.4,7641.,13.,9.,2333.,0.,0.,9996.,0.573383681204,2.29353472482,169.
6.42,7646.,12.,5.,2334.,0.,0.,9997.,0.550872051349,2.38711222251,156.
6.44,7650.,7.,8.,2333.,0.,0.,9998.,0.53295668339,3.9591067909,91.
6.46,7646.,11.,4.,2337.,0.,0.,9998.,0.519513350694,2.45588129419,143.
6.48,7648.,11.,2.,2335.,0.,0.,9996.,0.511766757387,2.41926103492,143.
6.5,7652.,8.,0.,2341.,0.,0.,10001.,0.509102144567,3.30916393969,104.
6.52,7656.,5.,4.,2337.,0.,0.,10002.,0.51199475848,5.32474548819,65.
6.54,7658.,7.,3.,2334.,0.,0.,10002.,0.520120610062,3.86375310331,91.
6.56,7665.,7.,1.,2328.,0.,0.,10001.,0.533841512004,3.96567980346,91.
6.58,7667.,0.,4.,2325.,0.,0.,9996.,0.55244030085,inf,0.
6.6,7669.,1.,1.,2325.,0.,0.,9996.,0.575484812348,29.9252102421,13.
6.62,7678.,1.,0.,2319.,0.,0.,9998.,0.603313944277,31.3723251024,13.
6.64,7681.,1.,0.,2313.,0.,0.,9995.,0.634937686164,33.0167596805,13.
6.66,7684.,1.,1.,2309.,0.,0.,9995.,0.669832897527,34.8313106714,13.
6.68,7686.,1.,1.,2306.,0.,0.,9994.,0.707616798306,36.7960735119,13.
6.7,7688.,0.,1.,2304.,0.,0.,9993.,0.747719366873,inf,0.
6.72,7691.,0.,1.,2300.,0.,0.,9992.,0.789617108699,inf,0.
6.74,7695.,1.,1.,2293.,0.,0.,9990.,0.832756685776,43.3033476604,13.
6.76,7700.,2.,0.,2291.,0.,0.,9993.,0.875971708488,22.7752644207,26.
6.78,7706.,2.,1.,2285.,0.,0.,9994.,0.919181100419,23.8987086109,26.
6.8,7704.,4.,2.,2285.,0.,0.,9995.,0.960439417496,12.4857124275,52.
6.82,7707.,3.,3.,2283.,0.,0.,9996.,1.00065139825,17.3446242363,39.
6.84,7708.,5.,0.,2281.,0.,0.,9994.,1.03863148605,10.8017674549,65.
6.86,7717.,5.,1.,2270.,0.,0.,9993.,1.07475125067,11.177413007,65.
6.88,7716.,4.,3.,2266.,0.,0.,9989.,1.10641018409,14.3833323932,52.
6.9,7711.,9.,2.,2262.,0.,0.,9984.,1.13367158599,6.55010249681,117.
6.92,7710.,7.,3.,2263.,0.,0.,9983.,1.15669092509,8.59256115778,91.
6.94,7709.,11.,2.,2259.,0.,0.,9981.,1.17509219583,5.55498128939,143.
6.96,7711.,10.,5.,2253.,0.,0.,9979.,1.18893448861,6.18245934079,130.
6.98,7705.,11.,7.,2254.,0.,0.,9977.,1.19630881875,5.65527805227,143.
7.,7698.,16.,7.,2258.,0.,0.,9979.,1.19768072937,3.89246237046,208.
7.02,7694.,13.,12.,2261.,0.,0.,9980.,1.19424181671,4.77696726683,169.
7.04,7689.,17.,9.,2269.,0.,0.,9984.,1.18494865766,3.6245488352,221.
7.06,7691.,21.,4.,2272.,0.,0.,9988.,1.1715268042,2.90092351516,273.
7.08,7684.,26.,5.,2276.,0.,0.,9991.,1.15186721826,2.30373443652,338.
7.1,7683.,25.,9.,2274.,0.,0.,9991.,1.12876362388,2.34782833767,325.
7.12,7672.,32.,9.,2277.,0.,0.,9990.,1.09999083006,1.78748509885,416.
7.14,7657.,29.,16.,2288.,0.,0.,9990.,1.06671525318,1.9127307988,377.
7.16,7641.,37.,8.,2304.,0.,0.,9990.,1.03001567668,1.44758959966,481.
7.18,7635.,32.,11.,2314.,0.,0.,9992.,0.991699995038,1.61151249194,416.
7.2,7625.,28.,16.,2322.,0.,0.,9991.,0.950971253559,1.76608947089,364.
7.22,7612.,30.,16.,2332.,0.,0.,9990.,0.908332216523,1.57444250864,390.
7.24,7595.,32.,18.,2346.,0.,0.,9991.,0.864199600729,1.40432435118,416.
7.26,7581.,29.,11.,2371.,0.,0.,9992.,0.820255334409,1.47080266859,377.
7.28,7570.,29.,19.,2376.,0.,0.,9994.,0.777038787522,1.39331092935,377.
7.3,7563.,27.,13.,2393.,0.,0.,9996.,0.735341362164,1.4162129938,351.
7.32,7556.,21.,12.,2406.,0.,0.,9995.,0.695578660588,1.72238525479,273.
7.34,7553.,23.,5.,2414.,0.,0.,9995.,0.658413310128,1.4885866142,299.
7.36,7552.,21.,4.,2416.,0.,0.,9993.,0.624399047984,1.54613097596,273.
7.38,7550.,12.,10.,2422.,0.,0.,9994.,0.593493537545,2.57180532936,156.
7.4,7554.,10.,8.,2426.,0.,0.,9998.,0.566741772865,2.9470572189,130.
7.42,7556.,5.,4.,2433.,0.,0.,9998.,0.544333363563,5.66106698106,65.
7.44,7559.,6.,3.,2430.,0.,0.,9998.,0.526616937221,4.56401345592,78.
7.46,7561.,6.,5.,2426.,0.,0.,9998.,0.513737960319,4.4523956561,78.
7.48,7559.,6.,5.,2429.,0.,0.,9999.,0.505659554072,4.38238280196,78.
7.5,7563.,4.,3.,2428.,0.,0.,9998.,0.503331789373,6.54331326185,52.
7.52,7570.,1.,4.,2423.,0.,0.,9998.,0.506446049105,26.3351945534,13.
7.54,7578.,4.,2.,2419.,0.,0.,10003.,0.514635669085,6.69026369811,52.
7.56,7580.,0.,6.,2411.,0.,0.,9997.,0.528132779411,inf,0.
7.58,7590.,1.,2.,2406.,0.,0.,9999.,0.546728035879,28.4298578657,13.
7.6,7590.,1.,1.,2399.,0.,0.,9991.,0.569841655747,29.6317660989,13.
7.62,7595.,0.,1.,2397.,0.,0.,9993.,0.597090661158,inf,0.
7.64,7606.,0.,0.,2387.,0.,0.,9993.,0.628863765753,inf,0.
7.66,7609.,0.,0.,2379.,0.,0.,9988.,0.663759830123,inf,0.
7.68,7614.,0.,0.,2373.,0.,0.,9987.,0.701479399895,inf,0.
7.7,7616.,1.,0.,2367.,0.,0.,9984.,0.741384505611,38.5519942918,13.
7.72,7622.,0.,1.,2357.,0.,0.,9980.,0.783473960432,inf,0.
7.74,7632.,1.,1.,2348.,0.,0.,9982.,0.826600737314,42.9832383403,13.
7.76,7639.,0.,3.,2342.,0.,0.,9984.,0.869815574741,inf,0.
7.78,7636.,1.,3.,2344.,0.,0.,9984.,0.911743705926,47.4106727081,13.
7.8,7641.,1.,1.,2344.,0.,0.,9987.,0.953348417103,49.5741176894,13.
7.82,7644.,3.,1.,2339.,0.,0.,9987.,0.993366073769,17.2183452787,39.
7.84,7639.,9.,2.,2334.,0.,0.,9984.,1.03036491214,5.95321949236,117.
7.86,7636.,7.,6.,2335.,0.,0.,9984.,1.0644289889,7.90718677469,91.
7.88,7630.,13.,6.,2333.,0.,0.,9982.,1.09484573579,4.37938294318,169.
7.9,7626.,12.,7.,2334.,0.,0.,9979.,1.1217366491,4.86085881278,156.
7.92,7620.,15.,3.,2341.,0.,0.,9979.,1.14364693417,3.96464270511,195.
7.94,7615.,14.,6.,2341.,0.,0.,9976.,1.16134544022,4.31356877795,182.
7.96,7618.,11.,9.,2339.,0.,0.,9977.,1.17483057591,5.55374454065,143.
7.98,7615.,11.,5.,2346.,0.,0.,9977.,1.18233506227,5.58922029436,143.
8.,7609.,16.,6.,2347.,0.,0.,9978.,1.18395245445,3.84784547697,208.
8.02,7599.,21.,7.,2351.,0.,0.,9978.,1.17973259367,2.9212426129,273.
8.04,7586.,21.,13.,2356.,0.,0.,9976.,1.17001287994,2.89717475033,273.
8.06,7572.,34.,7.,2364.,0.,0.,9977.,1.15467186807,1.7659687394,442.
8.08,7571.,28.,11.,2367.,0.,0.,9977.,1.13652055655,2.11068103358,364.
8.1,7560.,24.,14.,2376.,0.,0.,9974.,1.11258592774,2.41060284343,312.
8.12,7542.,29.,11.,2392.,0.,0.,9974.,1.08308645093,1.94208604994,377.
8.14,7531.,27.,12.,2404.,0.,0.,9974.,1.05084492229,2.02384947997,351.
8.16,7514.,33.,13.,2412.,0.,0.,9972.,1.01472426114,1.5989594418,429.
8.18,7502.,36.,12.,2425.,0.,0.,9975.,0.976085475783,1.4099012428,468.
8.2,7489.,41.,7.,2439.,0.,0.,9976.,0.935414052947,1.18637879886,533.
8.22,7481.,36.,10.,2450.,0.,0.,9977.,0.893863305268,1.29113588539,468.
8.24,7478.,28.,21.,2455.,0.,0.,9982.,0.851653895788,1.58164294932,364.
8.26,7463.,36.,17.,2470.,0.,0.,9986.,0.807973044368,1.1670721752,468.
8.28,7461.,26.,22.,2481.,0.,0.,9990.,0.766156896906,1.53231379381,338.
8.3,7449.,30.,19.,2490.,0.,0.,9988.,0.724837381698,1.25638479494,390.
8.32,7440.,24.,16.,2510.,0.,0.,9990.,0.685242903326,1.48469295721,312.
8.34,7426.,22.,17.,2522.,0.,0.,9987.,0.647860960463,1.53130772473,286.
8.36,7423.,22.,8.,2532.,0.,0.,9985.,0.614225057567,1.45180468152,286.
8.38,7426.,18.,10.,2531.,0.,0.,9985.,0.58427225474,1.6878976248,234.
8.4,7429.,17.,7.,2535.,0.,0.,9988.,0.557921632738,1.70658381779,221.
8.42,7432.,15.,3.,2538.,0.,0.,9988.,0.535936461617,1.85791306694,195.
8.44,7440.,10.,7.,2533.,0.,0.,9990.,0.518741576201,2.69745619624,130.
8.46,7443.,9.,8.,2533.,0.,0.,9993.,0.505973396869,2.92340184857,117.
8.48,7445.,6.,4.,2537.,0.,0.,9992.,0.498382422902,4.31931433182,78.
8.5,7447.,5.,3.,2538.,0.,0.,9993.,0.495859751978,5.15694142057,65.
8.52,7451.,2.,5.,2534.,0.,0.,9992.,0.498784074284,12.9683859314,26.
8.54,7455.,1.,2.,2535.,0.,0.,9993.,0.506789154058,26.353036011,13.
8.56,7460.,4.,2.,2531.,0.,0.,9997.,0.519771838312,6.75703389805,52.
8.58,7461.,2.,4.,2529.,0.,0.,9996.,0.537597115514,13.9775250034,26.
8.6,7466.,4.,2.,2525.,0.,0.,9997.,0.560195569578,7.28254240452,52.
8.62,7469.,4.,2.,2521.,0.,0.,9996.,0.587008783643,7.63111418736,52.
8.64,7469.,6.,3.,2521.,0.,0.,9999.,0.61716605239,5.34877245405,78.
8.66,7481.,5.,1.,2517.,0.,0.,10004.,0.651550207149,6.77612215435,65.
8.68,7480.,5.,4.,2515.,0.,0.,10004.,0.687962892795,7.15481408507,65.
8.7,7490.,3.,1.,2511.,0.,0.,10005.,0.72758856852,12.6115351877,39.
8.72,7487.,5.,1.,2510.,0.,0.,10003.,0.767827615855,7.98540720489,65.
8.74,7495.,4.,0.,2507.,0.,0.,10006.,0.809815585442,10.5276026107,52.
8.76,7498.,3.,1.,2504.,0.,0.,10006.,0.851883447222,14.7659797518,39.
8.78,7494.,2.,1.,2506.,0.,0.,10003.,0.893089218399,23.2203196784,26.
8.8,7501.,3.,1.,2497.,0.,0.,10002.,0.934477427283,16.1976087396,39.
8.82,7500.,2.,1.,2495.,0.,0.,9998.,0.973580408657,25.3130906251,26.
8.84,7507.,4.,1.,2489.,0.,0.,10001.,1.01083928476,13.1409107019,52.
8.86,7513.,4.,3.,2482.,0.,0.,10002.,1.04539852973,13.5901808864,52.
8.88,7517.,5.,1.,2476.,0.,0.,9999.,1.07679725722,11.198691475,65.
8.9,7519.,3.,5.,2472.,0.,0.,9999.,1.10378540543,19.1322803609,39.
8.92,7512.,9.,7.,2469.,0.,0.,9997.,1.12540776804,6.50235599314,117.
8.94,7517.,10.,2.,2467.,0.,0.,9996.,1.14410597769,5.94935108398,130.
8.96,7521.,12.,3.,2464.,0.,0.,10000.,1.15720375291,5.01454959593,156.
8.98,7519.,8.,8.,2465.,0.,0.,10000.,1.16474463366,7.57084011879,104.
9.,7512.,17.,6.,2466.,0.,0.,10001.,1.16617124804,3.56711205282,221.
9.02,7508.,15.,14.,2463.,0.,0.,10000.,1.16304065827,4.031874282,195.
9.04,7494.,22.,12.,2470.,0.,0.,9998.,1.15328010746,2.72593479945,286.
9.06,7481.,23.,10.,2481.,0.,0.,9995.,1.13874060835,2.57454398409,299.
9.08,7474.,23.,14.,2482.,0.,0.,9993.,1.12016301042,2.53254245833,299.
9.1,7466.,25.,10.,2490.,0.,0.,9991.,1.09688262604,2.28151586217,325.
9.12,7467.,29.,8.,2493.,0.,0.,9997.,1.0698488348,1.91834963482,377.
9.14,7460.,31.,9.,2498.,0.,0.,9998.,1.03843912219,1.74189788238,403.
9.16,7449.,33.,12.,2504.,0.,0.,9998.,1.00333038585,1.58100545649,429.
9.18,7437.,24.,22.,2517.,0.,0.,10000.,0.965209252758,2.09128671431,312.
9.2,7418.,29.,14.,2540.,0.,0.,10001.,0.924229660262,1.65723939082,377.
9.22,7409.,32.,20.,2543.,0.,0.,10004.,0.882871176126,1.43466566121,416.
9.24,7403.,33.,15.,2554.,0.,0.,10005.,0.841174112288,1.32548647997,429.
9.26,7387.,27.,23.,2566.,0.,0.,10003.,0.798385833723,1.53763197606,351.
9.28,7379.,21.,24.,2582.,0.,0.,10006.,0.756524810556,1.8732995309,273.
9.3,7363.,33.,10.,2599.,0.,0.,10005.,0.715251619494,1.12706315799,429.
9.32,7367.,21.,13.,2609.,0.,0.,10010.,0.677163734698,1.67678639068,273.
9.34,7363.,16.,14.,2614.,0.,0.,10007.,0.641080867896,2.08351282066,208.
9.36,7364.,19.,5.,2623.,0.,0.,10011.,0.607760480572,1.66334447314,247.
9.38,7369.,13.,10.,2618.,0.,0.,10010.,0.578339515563,2.31335806225,169.
9.4,7369.,16.,7.,2618.,0.,0.,10010.,0.552199304563,1.79464773983,208.
9.42,7376.,9.,7.,2617.,0.,0.,10009.,0.530782207219,3.06674164171,117.
9.44,7380.,7.,3.,2618.,0.,0.,10008.,0.513632712046,3.81555728949,91.
9.46,7382.,4.,2.,2615.,0.,0.,10003.,0.501324955026,6.51722441534,52.
9.48,7388.,5.,0.,2612.,0.,0.,10005.,0.493924119328,5.13681084101,65.
9.5,7393.,4.,1.,2606.,0.,0.,10004.,0.491722878805,6.39239742446,52.
9.52,7399.,1.,1.,2604.,0.,0.,10005.,0.494659523404,25.722295217,13.
9.54,7405.,0.,1.,2605.,0.,0.,10011.,0.502485059087,inf,0.
9.56,7416.,0.,0.,2599.,0.,0.,10015.,0.515777481838,inf,0.
9.58,7428.,0.,0.,2590.,0.,0.,10018.,0.534043956836,inf,0.
9.6,7431.,0.,0.,2585.,0.,0.,10016.,0.556511728777,inf,0.
9.62,7436.,0.,1.,2577.,0.,0.,10014.,0.583364748215,inf,0.
9.64,7446.,0.,0.,2570.,0.,0.,10016.,0.614221273845,inf,0.
9.66,7448.,0.,0.,2567.,0.,0.,10015.,0.647963630176,inf,0.
9.68,7456.,1.,0.,2561.,0.,0.,10018.,0.684797192488,35.6094540094,13.
9.7,7461.,1.,1.,2551.,0.,0.,10014.,0.724120087536,37.6542445518,13.
9.72,7466.,1.,2.,2545.,0.,0.,10014.,0.764832901664,39.7713108865,13.
9.74,7466.,3.,1.,2543.,0.,0.,10013.,0.806118265175,13.9727165964,39.
9.76,7471.,3.,2.,2539.,0.,0.,10015.,0.848053058707,14.6995863509,39.
9.78,7481.,3.,1.,2530.,0.,0.,10015.,0.890471712098,15.4348430097,39.
9.8,7491.,3.,1.,2525.,0.,0.,10020.,0.931555159492,16.1469560979,39.
9.82,7495.,4.,1.,2522.,0.,0.,10022.,0.9706014456,12.6178187928,52.
9.84,7498.,4.,4.,2519.,0.,0.,10025.,1.00721034558,13.0937344925,52.
9.86,7499.,7.,3.,2515.,0.,0.,10024.,1.04116040087,7.73433440643,91.
9.88,7499.,8.,4.,2511.,0.,0.,10022.,1.07175350873,6.96639780674,104.
9.9,7496.,8.,4.,2510.,0.,0.,10018.,1.09832199655,7.13909297755,104.
9.92,7490.,12.,7.,2507.,0.,0.,10016.,1.11998323867,4.85326070088,156.
9.94,7481.,13.,11.,2510.,0.,0.,10015.,1.13646653823,4.54586615294,169.
9.96,7487.,14.,5.,2512.,0.,0.,10018.,1.14990258566,4.27106674675,182.
9.98,7481.,19.,0.,2516.,0.,0.,10016.,1.15700696208,3.1665453699,247.
10.,7483.,12.,7.,2513.,0.,0.,10015.,1.16004535463,5.02686320338,156.
