t,s,e,i,r,c,o,n,reff,coal,reportr
5.,7225.,28.,2.,2746.,0.,0.,10001.,1.15068324707,2.13698317313,364.
5.02,7222.,19.,12.,2748.,0.,0.,10001.,1.14761410799,3.14083861133,247.
5.04,7222.,17.,13.,2752.,0.,0.,10004.,1.13953910733,3.48564903418,221.
5.06,7210.,28.,5.,2762.,0.,0.,10005.,1.12480519109,2.08892392632,364.
5.08,7213.,24.,12.,2758.,0.,0.,10007.,1.10750894384,2.39960271165,312.
5.1,7212.,22.,17.,2759.,0.,0.,10010.,1.08496058168,2.56445228397,286.
5.12,7205.,28.,11.,2764.,0.,0.,10008.,1.05789809627,1.96466789307,364.
5.14,7200.,28.,12.,2769.,0.,0.,10009.,1.027089624,1.90745215886,364.
5.16,7187.,34.,15.,2771.,0.,0.,10007.,0.992233890494,1.51753418546,442.
5.18,7177.,35.,21.,2776.,0.,0.,10009.,0.954744445368,1.41847746169,455.
5.2,7164.,36.,11.,2798.,0.,0.,10009.,0.914982054357,1.32164074518,468.
5.22,7149.,40.,15.,2807.,0.,0.,10011.,0.873354275283,1.13536055787,520.
5.24,7146.,27.,19.,2819.,0.,0.,10011.,0.832514834568,1.60336190361,351.
5.26,7125.,37.,14.,2834.,0.,0.,10010.,0.789472436462,1.10952882962,481.
5.28,7113.,33.,18.,2843.,0.,0.,10007.,0.748076928648,1.17878788757,429.
5.3,7105.,30.,18.,2853.,0.,0.,10006.,0.708004331023,1.22720750711,390.
5.32,7103.,28.,9.,2869.,0.,0.,10009.,0.669883703893,1.2440697358,364.
5.34,7094.,19.,14.,2882.,0.,0.,10009.,0.633539355919,1.73389718462,247.
5.36,7096.,16.,18.,2881.,0.,0.,10011.,0.6008187427,1.95266091378,208.
5.38,7087.,15.,11.,2900.,0.,0.,10013.,0.570450273609,1.97756094851,195.
5.4,7088.,12.,3.,2909.,0.,0.,10012.,0.544797909709,2.36079094207,156.
5.42,7098.,6.,8.,2906.,0.,0.,10018.,0.523542922903,4.5373719985,78.
5.44,7106.,9.,5.,2900.,0.,0.,10020.,0.506771613264,2.92801376553,117.
5.46,7112.,4.,6.,2903.,0.,0.,10025.,0.494417809879,6.42743152842,52.
5.48,7116.,5.,3.,2905.,0.,0.,10029.,0.486900181926,5.06376189203,65.
5.5,7120.,5.,4.,2902.,0.,0.,10031.,0.484529634196,5.03910819563,65.
5.52,7127.,5.,2.,2900.,0.,0.,10034.,0.487409837976,5.06906231495,65.
5.54,7131.,2.,3.,2898.,0.,0.,10034.,0.495294014377,12.8776443738,26.
5.56,7136.,2.,0.,2893.,0.,0.,10031.,0.50835302158,13.2171785611,26.
5.58,7145.,1.,1.,2886.,0.,0.,10033.,0.526221691815,27.3635279744,13.
5.6,7148.,2.,0.,2884.,0.,0.,10034.,0.548205024636,14.2533306405,26.
5.62,7161.,0.,1.,2874.,0.,0.,10036.,0.575085737914,inf,0.
5.64,7166.,1.,0.,2870.,0.,0.,10037.,0.605173923564,31.4690440253,13.
5.66,7175.,2.,0.,2862.,0.,0.,10039.,0.63885831992,16.6103163179,26.
5.68,7184.,2.,1.,2855.,0.,0.,10042.,0.675296337229,17.5577047679,26.
5.7,7188.,2.,1.,2847.,0.,0.,10038.,0.7139917732,18.5637861032,26.
5.72,7196.,2.,1.,2844.,0.,0.,10043.,0.754093233716,19.6064240766,26.
5.74,7202.,0.,1.,2838.,0.,0.,10041.,0.795540566888,inf,0.
5.76,7209.,0.,0.,2836.,0.,0.,10045.,0.837011673301,inf,0.
5.78,7218.,0.,0.,2831.,0.,0.,10049.,0.878449189302,inf,0.
5.8,7228.,0.,0.,2823.,0.,0.,10051.,0.919298516448,inf,0.
5.82,7232.,0.,0.,2819.,0.,0.,10051.,0.958040851009,inf,0.
5.84,7237.,2.,0.,2813.,0.,0.,10052.,0.994664010284,25.8612642674,26.
5.86,7237.,4.,0.,2810.,0.,0.,10051.,1.02805378013,13.3646991417,52.
5.88,7243.,5.,2.,2802.,0.,0.,10052.,1.05882247787,11.0117537699,65.
5.9,7249.,4.,3.,2798.,0.,0.,10054.,1.08575425038,14.1148052549,52.
5.92,7249.,9.,2.,2787.,0.,0.,10047.,1.1086051894,6.40527442763,117.
5.94,7247.,9.,2.,2786.,0.,0.,10044.,1.12618748677,6.50686103469,117.
5.96,7248.,11.,4.,2782.,0.,0.,10045.,1.13897364955,5.3842390706,143.
5.98,7248.,14.,4.,2778.,0.,0.,10044.,1.14681483519,4.25959795927,182.
6.,7247.,15.,7.,2778.,0.,0.,10047.,1.14890263397,3.98286246445,195.
6.02,7246.,18.,4.,2778.,0.,0.,10046.,1.14627013545,3.31144705797,234.
6.04,7238.,21.,2.,2785.,0.,0.,10046.,1.1372889985,2.81614418677,273.
6.06,7231.,21.,11.,2782.,0.,0.,10045.,1.12358921193,2.78222090572,273.
6.08,7228.,21.,14.,2782.,0.,0.,10045.,1.10561370247,2.73771012041,273.
6.1,7223.,25.,14.,2783.,0.,0.,10045.,1.08282928593,2.25228491473,325.
6.12,7203.,35.,20.,2785.,0.,0.,10043.,1.05391867288,1.56582202827,455.
6.14,7196.,33.,22.,2795.,0.,0.,10046.,1.02273828964,1.61158760792,429.
6.16,7181.,39.,18.,2807.,0.,0.,10045.,0.987655069335,1.31687342578,507.
6.18,7164.,33.,24.,2818.,0.,0.,10039.,0.950167138587,1.49723306687,429.
6.2,7144.,38.,16.,2842.,0.,0.,10040.,0.909610408859,1.24473003318,494.
6.22,7134.,32.,18.,2854.,0.,0.,10038.,0.869177606312,1.41241361026,416.
6.24,7122.,31.,23.,2866.,0.,0.,10042.,0.827157444403,1.38748990674,403.
6.26,7111.,34.,17.,2878.,0.,0.,10040.,0.785566846184,1.20145517652,442.
6.28,7102.,29.,15.,2895.,0.,0.,10041.,0.74439089581,1.33476988214,377.
6.3,7092.,28.,14.,2911.,0.,0.,10045.,0.703965079822,1.30736371967,364.
6.32,7081.,37.,9.,2919.,0.,0.,10046.,0.665349305783,0.935085510831,481.
6.34,7076.,35.,4.,2933.,0.,0.,10048.,0.629479080414,0.935226062329,455.
6.36,7083.,23.,8.,2936.,0.,0.,10050.,0.597390767921,1.35062260574,299.
6.38,7082.,16.,7.,2943.,0.,0.,10048.,0.568062174876,1.84620206835,208.
6.4,7083.,12.,9.,2944.,0.,0.,10048.,0.542463073239,2.35067331737,156.
6.42,7095.,11.,3.,2941.,0.,0.,10050.,0.521655347476,2.46600709716,143.
6.44,7089.,5.,5.,2947.,0.,0.,10046.,0.504250805759,5.24420837989,65.
6.46,7092.,5.,5.,2942.,0.,0.,10044.,0.492094785115,5.1177857652,65.
6.48,7094.,3.,2.,2945.,0.,0.,10044.,0.484669966659,8.40094608875,39.
6.5,7097.,2.,3.,2941.,0.,0.,10043.,0.482387364251,12.5420714705,26.
6.52,7101.,4.,0.,2939.,0.,0.,10044.,0.485148214441,6.30692678773,52.
6.54,7107.,2.,2.,2933.,0.,0.,10044.,0.493135594728,12.8215254629,26.
6.56,7112.,2.,1.,2930.,0.,0.,10045.,0.505937191022,13.1543669666,26.
6.58,7117.,0.,0.,2929.,0.,0.,10046.,0.523481234177,inf,0.
6.6,7126.,0.,0.,2918.,0.,0.,10044.,0.54597364436,inf,0.
6.62,7133.,3.,1.,2910.,0.,0.,10047.,0.572209940217,9.91830563042,39.
6.64,7140.,3.,1.,2903.,0.,0.,10047.,0.602378047147,10.4412194839,39.
6.66,7146.,4.,2.,2896.,0.,0.,10048.,0.635706261819,8.26418140365,52.
6.68,7153.,3.,2.,2889.,0.,0.,10047.,0.672047717312,11.6488271001,39.
6.7,7162.,2.,1.,2879.,0.,0.,10044.,0.710984189622,18.4855889302,26.
6.72,7173.,2.,0.,2876.,0.,0.,10051.,0.751084690665,19.5282019573,26.
6.74,7180.,3.,1.,2868.,0.,0.,10052.,0.792242515186,13.7322035966,39.
6.76,7187.,3.,1.,2861.,0.,0.,10052.,0.833876232142,14.4538546905,39.
6.78,7191.,3.,2.,2856.,0.,0.,10052.,0.874902028992,15.1649685025,39.
6.8,7197.,5.,3.,2851.,0.,0.,10056.,0.914900629405,9.51496654581,65.
6.82,7210.,2.,8.,2840.,0.,0.,10060.,0.954271969937,24.8110712184,26.
6.84,7210.,6.,2.,2842.,0.,0.,10060.,0.990165055985,8.5814304852,78.
6.86,7209.,7.,3.,2836.,0.,0.,10055.,1.02366884353,7.60439712338,91.
6.88,7213.,8.,5.,2831.,0.,0.,10057.,1.0539126788,6.85043241218,104.
6.9,7217.,5.,3.,2833.,0.,0.,10058.,1.08053140351,11.2375265965,65.
6.92,7215.,6.,2.,2832.,0.,0.,10055.,1.10252760017,9.55523920146,78.
6.94,7217.,3.,6.,2824.,0.,0.,10050.,1.12085590407,19.4281690038,39.
6.96,7219.,7.,1.,2825.,0.,0.,10052.,1.13362651417,8.42122553386,91.
6.98,7221.,5.,5.,2820.,0.,0.,10051.,1.14174703831,11.8741691984,65.
7.,7229.,9.,5.,2813.,0.,0.,10056.,1.14502330506,6.61569020701,117.
7.02,7230.,8.,8.,2808.,0.,0.,10054.,1.14282896256,7.42838825663,104.
7.04,7224.,17.,3.,2813.,0.,0.,10057.,1.13384769174,3.46823999828,221.
7.06,7217.,17.,9.,2811.,0.,0.,10054.,1.12040996975,3.42713637806,221.
7.08,7205.,26.,8.,2815.,0.,0.,10054.,1.10110900399,2.20221800798,338.
7.1,7210.,25.,12.,2810.,0.,0.,10057.,1.07959069793,2.24554865169,325.
7.12,7195.,30.,9.,2825.,0.,0.,10059.,1.05107362248,1.82186094563,390.
7.14,7201.,26.,10.,2823.,0.,0.,10060.,1.02202463657,2.04404927314,338.
7.16,7189.,27.,13.,2828.,0.,0.,10057.,0.987575585736,1.90199742438,351.
7.18,7175.,29.,13.,2840.,0.,0.,10057.,0.949922858928,1.70330995394,377.
7.2,7162.,31.,13.,2850.,0.,0.,10056.,0.91045134192,1.52720870258,403.
7.22,7151.,28.,13.,2864.,0.,0.,10056.,0.869689302727,1.61513727649,364.
7.24,7154.,23.,16.,2864.,0.,0.,10057.,0.829634714751,1.87569587683,299.
7.26,7140.,29.,18.,2867.,0.,0.,10054.,0.787672188363,1.41237771706,377.
7.28,7132.,25.,15.,2881.,0.,0.,10053.,0.746643010571,1.55301746199,325.
7.3,7128.,25.,6.,2891.,0.,0.,10050.,0.707186497415,1.47094791462,325.
7.32,7131.,23.,8.,2889.,0.,0.,10051.,0.669714112971,1.51413625541,299.
7.34,7128.,21.,13.,2893.,0.,0.,10055.,0.633663541061,1.56907162548,273.
7.36,7123.,23.,9.,2901.,0.,0.,10056.,0.60040597616,1.35743959827,299.
7.38,7119.,26.,12.,2903.,0.,0.,10060.,0.570348873875,1.14069774775,338.
7.4,7118.,18.,9.,2912.,0.,0.,10057.,0.544655756647,1.57344996365,234.
7.42,7120.,16.,9.,2910.,0.,0.,10055.,0.523233141527,1.70050770996,208.
7.44,7124.,16.,11.,2906.,0.,0.,10057.,0.506186151103,1.64510499108,208.
7.46,7125.,11.,6.,2914.,0.,0.,10056.,0.493794608548,2.33430178586,143.
7.48,7123.,10.,8.,2915.,0.,0.,10056.,0.486070549449,2.52756685714,130.
7.5,7122.,7.,5.,2916.,0.,0.,10050.,0.483749454541,3.59356737659,91.
7.52,7132.,3.,4.,2910.,0.,0.,10049.,0.487023723801,8.44174454589,39.
7.54,7141.,2.,0.,2908.,0.,0.,10051.,0.495149676791,12.8738915966,26.
7.56,7151.,1.,1.,2902.,0.,0.,10055.,0.50820566452,26.426694555,13.
7.58,7158.,1.,0.,2901.,0.,0.,10060.,0.525764233783,27.3397401567,13.
7.6,7160.,1.,0.,2894.,0.,0.,10055.,0.547978490923,28.494881528,13.
7.62,7164.,2.,1.,2889.,0.,0.,10056.,0.574182416428,14.9287428271,26.
7.64,7169.,2.,0.,2883.,0.,0.,10054.,0.604403577354,15.7144930112,26.
7.66,7176.,1.,1.,2877.,0.,0.,10055.,0.637930635613,33.1723930519,13.
7.68,7179.,2.,0.,2872.,0.,0.,10053.,0.674087941519,17.5262864795,26.
7.7,7186.,1.,1.,2866.,0.,0.,10054.,0.71265717612,37.0581731582,13.
7.72,7193.,1.,0.,2864.,0.,0.,10058.,0.752654705326,39.1380446769,13.
7.74,7195.,2.,1.,2860.,0.,0.,10058.,0.793424026195,20.6290246811,26.
7.76,7200.,2.,2.,2856.,0.,0.,10060.,0.834720243663,21.7027263352,26.
7.78,7202.,2.,2.,2854.,0.,0.,10060.,0.875543546363,22.7641322054,26.
7.8,7205.,5.,1.,2846.,0.,0.,10057.,0.915826536755,9.52459598225,65.
7.82,7213.,2.,2.,2838.,0.,0.,10055.,0.955143755319,24.8337376383,26.
7.84,7215.,6.,0.,2837.,0.,0.,10058.,0.991048744495,8.58908911896,78.
7.86,7218.,5.,2.,2832.,0.,0.,10057.,1.02474300455,10.6573272473,65.
7.88,7232.,6.,2.,2821.,0.,0.,10061.,1.05626871193,9.1543288367,78.
7.9,7239.,5.,2.,2814.,0.,0.,10060.,1.08360977789,11.26954169,65.
7.92,7237.,6.,5.,2810.,0.,0.,10058.,1.10555957701,9.5815163341,78.
7.94,7242.,9.,4.,2803.,0.,0.,10058.,1.12384399519,6.49332086109,117.
7.96,7235.,14.,1.,2806.,0.,0.,10056.,1.13568712905,4.21826647933,182.
7.98,7240.,13.,4.,2799.,0.,0.,10056.,1.14418203153,4.57672812611,169.
8.,7240.,11.,6.,2804.,0.,0.,10061.,1.14619572214,5.41837977741,143.
8.02,7238.,13.,6.,2802.,0.,0.,10059.,1.14352481212,4.57409924849,169.
8.04,7235.,15.,9.,2801.,0.,0.,10060.,1.13523556359,3.93548328712,195.
8.06,7234.,20.,7.,2800.,0.,0.,10061.,1.12226778272,2.91789623507,260.
8.08,7229.,18.,16.,2798.,0.,0.,10061.,1.10400816526,3.18935692187,234.
8.1,7217.,27.,16.,2798.,0.,0.,10058.,1.08053140351,2.08102344379,351.
8.12,7205.,27.,16.,2807.,0.,0.,10055.,1.0529531723,2.02790981332,351.
8.14,7189.,31.,16.,2817.,0.,0.,10053.,1.02103195833,1.71269876882,403.
8.16,7181.,26.,26.,2824.,0.,0.,10057.,0.986476600524,1.97295320105,338.
8.18,7169.,29.,23.,2840.,0.,0.,10061.,0.948751148782,1.70120895644,377.
8.2,7157.,31.,19.,2853.,0.,0.,10060.,0.909453973665,1.52553569776,403.
8.22,7138.,32.,25.,2864.,0.,0.,10059.,0.867849365631,1.41025521915,416.
8.24,7125.,35.,23.,2878.,0.,0.,10061.,0.825943139421,1.22711552143,455.
8.26,7111.,31.,23.,2891.,0.,0.,10056.,0.784316938712,1.31562841332,403.
8.28,7108.,30.,20.,2900.,0.,0.,10058.,0.743760551294,1.28918495558,390.
8.3,7103.,26.,13.,2918.,0.,0.,10060.,0.704005682459,1.40801136492,338.
8.32,7110.,18.,16.,2917.,0.,0.,10061.,0.667078186221,1.92711476019,234.
8.34,7103.,21.,6.,2929.,0.,0.,10059.,0.631190001003,1.56294666915,273.
8.36,7104.,16.,2.,2938.,0.,0.,10060.,0.598566350786,1.94534064005,208.
8.38,7110.,15.,3.,2936.,0.,0.,10064.,0.569401423837,1.97392493597,195.
8.4,7119.,11.,6.,2930.,0.,0.,10066.,0.544245230183,2.57279563359,143.
8.42,7124.,13.,0.,2931.,0.,0.,10068.,0.522851104232,2.09140441693,169.
8.44,7129.,10.,4.,2925.,0.,0.,10068.,0.505987987095,2.63113753289,130.
8.46,7135.,7.,4.,2922.,0.,0.,10068.,0.493898276194,3.66895862316,91.
8.48,7137.,6.,1.,2923.,0.,0.,10067.,0.486493740609,4.21627908528,78.
8.5,7149.,3.,3.,2913.,0.,0.,10068.,0.484715235857,8.40173075486,39.
8.52,7156.,1.,1.,2910.,0.,0.,10068.,0.487740426539,25.36250218,13.
8.54,7159.,4.,0.,2908.,0.,0.,10071.,0.495411982081,6.44035576705,52.
8.56,7165.,2.,3.,2902.,0.,0.,10072.,0.508341160399,13.2168701704,26.
8.58,7171.,1.,3.,2897.,0.,0.,10072.,0.526091555772,27.3567609001,13.
8.6,7185.,1.,0.,2887.,0.,0.,10073.,0.548909191574,28.5432779619,13.
8.62,7190.,0.,0.,2885.,0.,0.,10075.,0.575179516957,inf,0.
8.64,7188.,0.,0.,2883.,0.,0.,10071.,0.604982481787,inf,0.
8.66,7192.,0.,0.,2877.,0.,0.,10069.,0.63846404009,inf,0.
8.68,7196.,1.,0.,2873.,0.,0.,10070.,0.674543515403,35.0762628009,13.
8.7,7204.,1.,0.,2863.,0.,0.,10068.,0.713448826462,37.099338976,13.
8.72,7217.,1.,0.,2854.,0.,0.,10072.,0.75411632114,39.2140486993,13.
8.74,7222.,3.,1.,2849.,0.,0.,10075.,0.795057630029,13.7809989205,39.
8.76,7222.,1.,2.,2851.,0.,0.,10076.,0.835941248915,43.4689449436,13.
8.78,7230.,2.,2.,2840.,0.,0.,10074.,0.87772600491,22.8208761277,26.
8.8,7233.,2.,2.,2837.,0.,0.,10074.,0.917834138187,23.8636875929,26.
8.82,7237.,1.,0.,2832.,0.,0.,10070.,0.956894339335,49.7585056454,13.
8.84,7235.,7.,2.,2829.,0.,0.,10073.,0.992316043662,7.37149061006,91.
8.86,7245.,4.,2.,2826.,0.,0.,10077.,1.02653477443,13.3449520676,52.
8.88,7247.,6.,2.,2820.,0.,0.,10075.,1.0569887225,9.1605689283,78.
8.9,7242.,7.,3.,2819.,0.,0.,10071.,1.08287479157,8.04421273734,91.
8.92,7242.,2.,8.,2818.,0.,0.,10070.,1.10500504194,28.7301310905,26.
8.94,7243.,8.,2.,2820.,0.,0.,10073.,1.12232539922,7.29511509491,104.
8.96,7246.,11.,5.,2814.,0.,0.,10076.,1.13515614367,5.36619267915,143.
8.98,7245.,9.,7.,2815.,0.,0.,10076.,1.14269954037,6.60226401104,117.
9.,7245.,14.,2.,2817.,0.,0.,10078.,1.14505250671,4.2530521678,182.
9.02,7244.,11.,4.,2819.,0.,0.,10078.,1.14231507808,5.40003491454,143.
9.04,7238.,18.,4.,2814.,0.,0.,10074.,1.13412798084,3.27636972242,234.
9.06,7234.,19.,12.,2807.,0.,0.,10072.,1.12104211298,3.06811525657,247.
9.08,7233.,19.,16.,2806.,0.,0.,10074.,1.10319358628,3.01926665718,247.
9.1,7212.,31.,12.,2817.,0.,0.,10072.,1.07828191249,1.80873094998,403.
9.12,7208.,30.,20.,2815.,0.,0.,10073.,1.0515092347,1.82261600682,390.
9.14,7193.,35.,17.,2825.,0.,0.,10070.,1.01987541867,1.51524347917,455.
9.16,7190.,33.,11.,2835.,0.,0.,10069.,0.986535825557,1.55454130088,429.
9.18,7180.,33.,19.,2836.,0.,0.,10068.,0.949546245119,1.49625468928,429.
9.2,7168.,32.,23.,2846.,0.,0.,10069.,0.910037616197,1.47881112632,416.
9.22,7151.,37.,16.,2865.,0.,0.,10069.,0.868566454288,1.22068798981,481.
9.24,7141.,35.,18.,2870.,0.,0.,10064.,0.827551128825,1.22950453425,455.
9.26,7132.,32.,24.,2877.,0.,0.,10065.,0.785929763103,1.27713586504,416.
9.28,7126.,26.,20.,2888.,0.,0.,10060.,0.745495779839,1.49099155968,338.
9.3,7117.,27.,15.,2898.,0.,0.,10057.,0.705603694968,1.35894044957,351.
9.32,7107.,30.,12.,2910.,0.,0.,10059.,0.666929295771,1.15601077934,390.
9.34,7101.,30.,8.,2921.,0.,0.,10060.,0.63094955122,1.09364588878,390.
9.36,7104.,25.,9.,2921.,0.,0.,10059.,0.598625856338,1.24514178118,325.
9.38,7103.,15.,8.,2929.,0.,0.,10055.,0.569349988107,1.97374662544,195.
9.4,7105.,16.,3.,2933.,0.,0.,10057.,0.543661021492,1.76689831985,208.
9.42,7101.,11.,7.,2935.,0.,0.,10054.,0.521888776721,2.46711058086,143.
9.44,7106.,10.,8.,2931.,0.,0.,10055.,0.50500761461,2.62603959597,130.
9.46,7113.,11.,5.,2924.,0.,0.,10053.,0.493110063678,2.33106575557,143.
9.48,7116.,11.,1.,2925.,0.,0.,10053.,0.485737782208,2.29621497044,143.
9.5,7122.,5.,5.,2923.,0.,0.,10055.,0.483508902848,5.02849258962,65.
9.52,7124.,2.,6.,2921.,0.,0.,10053.,0.486283861784,12.6433804064,26.
9.54,7132.,1.,1.,2919.,0.,0.,10053.,0.494427242253,25.7102165972,13.
9.56,7139.,0.,0.,2918.,0.,0.,10057.,0.507251955744,inf,0.
9.58,7146.,0.,0.,2911.,0.,0.,10057.,0.525039390853,inf,0.
9.6,7154.,0.,0.,2904.,0.,0.,10058.,0.547355982473,inf,0.
9.62,7159.,0.,0.,2899.,0.,0.,10058.,0.573667580344,inf,0.
9.64,7163.,0.,0.,2896.,0.,0.,10059.,0.603597551935,inf,0.
9.66,7171.,0.,0.,2893.,0.,0.,10064.,0.636916057635,inf,0.
9.68,7171.,2.,0.,2891.,0.,0.,10064.,0.672600803688,17.4876208959,26.
9.7,7174.,6.,0.,2882.,0.,0.,10062.,0.710901433575,6.16114575765,78.
9.72,7182.,3.,0.,2878.,0.,0.,10063.,0.751130297724,13.0195918272,39.
9.74,7186.,0.,0.,2874.,0.,0.,10060.,0.792274015882,inf,0.
9.76,7191.,1.,0.,2869.,0.,0.,10061.,0.833593981133,43.3468870189,13.
9.78,7200.,0.,1.,2860.,0.,0.,10061.,0.875213408016,inf,0.
9.8,7199.,4.,1.,2854.,0.,0.,10058.,0.914972898887,11.8946476855,52.
9.82,7199.,3.,3.,2851.,0.,0.,10056.,0.95319508051,16.5220480622,39.
9.84,7201.,5.,1.,2848.,0.,0.,10055.,0.989420826171,10.2899765922,65.
9.86,7212.,5.,2.,2838.,0.,0.,10057.,1.0238911816,10.6484682887,65.
9.88,7219.,5.,2.,2830.,0.,0.,10056.,1.05489424801,10.9709001794,65.
9.9,7220.,2.,4.,2828.,0.,0.,10054.,1.08141063425,28.1166764906,26.
9.92,7218.,7.,3.,2827.,0.,0.,10055.,1.1029860316,8.19361052048,91.
9.94,7216.,12.,7.,2820.,0.,0.,10055.,1.1201433111,4.85395434812,156.
9.96,7217.,12.,7.,2819.,0.,0.,10055.,1.13297431271,4.90955535509,156.
9.98,7213.,16.,2.,2823.,0.,0.,10054.,1.14014181285,3.70546089177,208.
10.,7207.,19.,4.,2824.,0.,0.,10054.,1.14176573961,3.12483255052,247.
