t,s,e,i,r,c,o,n,reff,coal,reportr
5.,7694.,30.,1.,2276.,0.,0.,10001.,1.13892704955,1.97414021922,390.
5.02,7694.,19.,10.,2280.,0.,0.,10003.,1.13613390835,3.1094191176,247.
5.04,7684.,18.,8.,2292.,0.,0.,10002.,1.12712407408,3.25613621401,234.
5.06,7680.,24.,13.,2285.,0.,0.,10002.,1.11393358199,2.41352276097,312.
5.08,7673.,19.,17.,2294.,0.,0.,10003.,1.09545849094,2.99809692258,247.
5.1,7655.,32.,12.,2305.,0.,0.,10004.,1.07100036321,1.74037559022,416.
5.12,7648.,24.,23.,2311.,0.,0.,10006.,1.04392744332,2.26184279386,312.
5.14,7633.,38.,11.,2326.,0.,0.,10008.,1.01213929757,1.385032723,494.
5.16,7626.,27.,13.,2342.,0.,0.,10008.,0.978465692138,1.88445244412,351.
5.18,7617.,34.,14.,2347.,0.,0.,10012.,0.941507502042,1.43995265018,442.
5.2,7606.,36.,10.,2358.,0.,0.,10010.,0.90280866518,1.30405696082,468.
5.22,7598.,32.,13.,2366.,0.,0.,10009.,0.862893110838,1.40220130511,416.
5.24,7579.,35.,13.,2383.,0.,0.,10010.,0.820748403965,1.21939762875,455.
5.26,7567.,26.,19.,2398.,0.,0.,10010.,0.779294522773,1.55858904555,338.
5.28,7538.,38.,12.,2414.,0.,0.,10002.,0.737212043971,1.00881648122,494.
5.3,7537.,22.,21.,2422.,0.,0.,10002.,0.698344605273,1.65063270337,286.
5.32,7538.,19.,4.,2443.,0.,0.,10004.,0.661083814613,1.80928201894,247.
5.34,7533.,12.,9.,2449.,0.,0.,10003.,0.625657405401,2.71118209007,156.
5.36,7531.,10.,9.,2450.,0.,0.,10000.,0.593315591495,3.08524107577,130.
5.38,7530.,12.,7.,2452.,0.,0.,10001.,0.564023126919,2.44410021665,156.
5.4,7532.,4.,9.,2456.,0.,0.,10001.,0.538673034345,7.00274944649,52.
5.42,7530.,5.,6.,2455.,0.,0.,9996.,0.517358800748,5.38053152778,65.
5.44,7530.,8.,6.,2453.,0.,0.,9997.,0.500271623286,3.25176555136,104.
5.46,7531.,8.,6.,2451.,0.,0.,9996.,0.4880214678,3.1721395407,104.
5.48,7531.,10.,2.,2453.,0.,0.,9996.,0.480522597153,2.49871750519,130.
5.5,7539.,5.,3.,2452.,0.,0.,9999.,0.478373972622,4.97508931527,65.
5.52,7545.,3.,3.,2448.,0.,0.,9999.,0.481271441222,8.34203831451,39.
5.54,7549.,3.,1.,2447.,0.,0.,10000.,0.488992222918,8.47586519725,39.
5.56,7554.,2.,1.,2444.,0.,0.,10001.,0.501665388142,13.0433000917,26.
5.58,7559.,1.,2.,2443.,0.,0.,10005.,0.518884102276,26.9819733183,13.
5.6,7566.,0.,3.,2438.,0.,0.,10007.,0.540780208219,inf,0.
5.62,7566.,0.,1.,2438.,0.,0.,10005.,0.566493077255,inf,0.
5.64,7570.,1.,1.,2430.,0.,0.,10002.,0.596268878958,31.0059817058,13.
5.66,7571.,0.,2.,2430.,0.,0.,10003.,0.628813516034,inf,0.
5.68,7575.,3.,1.,2424.,0.,0.,10003.,0.664395133523,11.5161823144,39.
5.7,7576.,4.,0.,2420.,0.,0.,10000.,0.702098561933,9.12728130513,52.
5.72,7582.,2.,1.,2414.,0.,0.,9999.,0.741737695358,19.2851800793,26.
5.74,7588.,2.,1.,2412.,0.,0.,10003.,0.782004083279,20.3321061652,26.
5.76,7594.,1.,1.,2411.,0.,0.,10007.,0.822619329827,42.776205151,13.
5.78,7598.,3.,0.,2408.,0.,0.,10009.,0.862893110838,14.9568139212,39.
5.8,7601.,3.,1.,2405.,0.,0.,10010.,0.902215180651,15.6383964646,39.
5.82,7611.,4.,1.,2397.,0.,0.,10013.,0.940671911123,12.2287348446,52.
5.84,7615.,5.,1.,2391.,0.,0.,10012.,0.976663966868,10.1573052554,65.
5.86,7619.,6.,1.,2386.,0.,0.,10012.,1.00987926236,8.75228694043,78.
5.88,7617.,6.,4.,2385.,0.,0.,10012.,1.03907297291,9.00529909858,78.
5.9,7612.,9.,3.,2389.,0.,0.,10013.,1.06402705179,6.14771185481,117.
5.92,7610.,12.,6.,2388.,0.,0.,10016.,1.0850539629,4.70190050589,156.
5.94,7605.,9.,10.,2390.,0.,0.,10014.,1.1017335085,6.36557138246,117.
5.96,7601.,11.,6.,2397.,0.,0.,10015.,1.11350199338,5.26382760506,143.
5.98,7597.,11.,7.,2399.,0.,0.,10014.,1.12057814466,5.29727850203,143.
6.,7589.,17.,4.,2405.,0.,0.,10015.,1.12181373258,3.43143024083,221.
6.02,7583.,18.,11.,2405.,0.,0.,10017.,1.11817812216,3.2302923529,234.
6.04,7581.,17.,9.,2410.,0.,0.,10017.,1.11035037302,3.39636584688,221.
6.06,7571.,25.,11.,2409.,0.,0.,10016.,1.09658893004,2.28090497447,325.
6.08,7572.,25.,8.,2417.,0.,0.,10022.,1.07898946271,2.24429808244,325.
6.1,7572.,23.,9.,2418.,0.,0.,10022.,1.05748523675,2.39083618742,299.
6.12,7561.,31.,9.,2422.,0.,0.,10023.,1.03030175995,1.72824811346,403.
6.14,7556.,27.,16.,2426.,0.,0.,10025.,1.00023003047,1.92636894756,351.
6.16,7541.,36.,18.,2433.,0.,0.,10028.,0.965629919969,1.39479877329,468.
6.18,7527.,35.,18.,2445.,0.,0.,10025.,0.929176473314,1.38049076035,455.
6.2,7529.,28.,24.,2443.,0.,0.,10024.,0.892420862371,1.65735303012,364.
6.22,7517.,30.,22.,2455.,0.,0.,10024.,0.852416590934,1.47752209095,390.
6.24,7499.,35.,19.,2471.,0.,0.,10024.,0.810950811813,1.20484120612,455.
6.26,7475.,37.,17.,2489.,0.,0.,10018.,0.769205068024,1.08104496047,481.
6.28,7465.,26.,19.,2506.,0.,0.,10016.,0.729052217146,1.45810443429,338.
6.3,7458.,23.,19.,2514.,0.,0.,10014.,0.690196749221,1.56044482433,299.
6.32,7446.,30.,13.,2526.,0.,0.,10015.,0.65229815871,1.13065014176,390.
6.34,7439.,31.,17.,2526.,0.,0.,10013.,0.617233136337,1.03535880934,403.
6.36,7441.,26.,12.,2536.,0.,0.,10015.,0.585347091077,1.17069418215,338.
6.38,7443.,13.,11.,2549.,0.,0.,10016.,0.556671601145,2.22668640458,169.
6.4,7444.,13.,11.,2548.,0.,0.,10016.,0.531582163158,2.12632865263,169.
6.42,7445.,11.,8.,2553.,0.,0.,10017.,0.510446394789,2.41301932082,143.
6.44,7444.,8.,5.,2557.,0.,0.,10014.,0.493718456465,3.20916996702,104.
6.46,7447.,9.,2.,2556.,0.,0.,10014.,0.481710700273,2.78321737936,117.
6.48,7451.,6.,3.,2555.,0.,0.,10015.,0.474516179765,4.11247355797,78.
6.5,7454.,3.,3.,2553.,0.,0.,10013.,0.472319134345,8.18686499531,39.
6.52,7465.,2.,1.,2548.,0.,0.,10016.,0.475360303513,12.3593678913,26.
6.54,7470.,2.,0.,2547.,0.,0.,10019.,0.48295731886,12.5568902904,26.
6.56,7468.,0.,2.,2545.,0.,0.,10015.,0.49526078401,inf,0.
6.58,7474.,0.,0.,2545.,0.,0.,10019.,0.512332409182,inf,0.
6.6,7476.,0.,0.,2542.,0.,0.,10018.,0.533760727865,inf,0.
6.62,7484.,0.,0.,2532.,0.,0.,10016.,0.559738044198,inf,0.
6.64,7488.,2.,0.,2527.,0.,0.,10017.,0.588926742359,15.3120953013,26.
6.66,7491.,2.,1.,2524.,0.,0.,10018.,0.621237495824,16.1521748914,26.
6.68,7501.,3.,0.,2519.,0.,0.,10023.,0.656591882883,11.38092597,39.
6.7,7505.,0.,0.,2519.,0.,0.,10024.,0.693853456471,inf,0.
6.72,7513.,0.,0.,2513.,0.,0.,10026.,0.733008190535,inf,0.
6.74,7523.,0.,0.,2506.,0.,0.,10029.,0.773295348539,inf,0.
6.76,7523.,2.,0.,2501.,0.,0.,10026.,0.813383913169,21.1479817424,26.
6.78,7533.,2.,0.,2491.,0.,0.,10026.,0.85406056393,22.2055746622,26.
6.8,7538.,3.,1.,2483.,0.,0.,10025.,0.893398516573,15.4855742873,39.
6.82,7544.,6.,0.,2478.,0.,0.,10028.,0.930996449343,8.0686358943,78.
6.84,7550.,4.,3.,2471.,0.,0.,10028.,0.966782375781,12.5681708852,52.
6.86,7546.,6.,3.,2472.,0.,0.,10027.,0.998707031172,8.65546093682,78.
6.88,7553.,5.,5.,2467.,0.,0.,10030.,1.02849334447,10.6963307824,65.
6.9,7551.,10.,6.,2463.,0.,0.,10030.,1.05371131441,5.47929883492,130.
6.92,7551.,14.,1.,2465.,0.,0.,10031.,1.07503161511,3.9929745704,182.
6.94,7554.,12.,5.,2462.,0.,0.,10033.,1.09227274073,4.73318187651,156.
6.96,7546.,17.,5.,2462.,0.,0.,10030.,1.10379160782,3.37630374158,221.
6.98,7543.,22.,4.,2461.,0.,0.,10030.,1.11083814169,2.62561742581,286.
7.,7538.,21.,11.,2459.,0.,0.,10029.,1.11271938655,2.75530514765,273.
7.02,7531.,20.,14.,2465.,0.,0.,10030.,1.10907093266,2.88358442492,260.
7.04,7513.,26.,8.,2477.,0.,0.,10024.,1.09962233082,2.19924466164,338.
7.06,7500.,28.,12.,2483.,0.,0.,10023.,1.0855465717,2.01601506172,364.
7.08,7485.,31.,19.,2490.,0.,0.,10025.,1.06627301897,1.78858699956,403.
7.1,7481.,26.,17.,2502.,0.,0.,10026.,1.04435959369,2.08871918738,338.
7.12,7465.,38.,14.,2512.,0.,0.,10029.,1.01661172602,1.39115288824,494.
7.14,7448.,36.,13.,2529.,0.,0.,10026.,0.985835128042,1.42398407384,468.
7.16,7440.,36.,10.,2539.,0.,0.,10025.,0.952981901044,1.37652941262,468.
7.18,7430.,28.,19.,2548.,0.,0.,10025.,0.91720223153,1.70337557284,364.
7.2,7414.,37.,18.,2557.,0.,0.,10026.,0.878614480485,1.23480954014,481.
7.22,7417.,30.,16.,2564.,0.,0.,10027.,0.840825096466,1.45743016721,390.
7.24,7405.,32.,16.,2576.,0.,0.,10029.,0.800386304614,1.300627745,416.
7.26,7395.,38.,15.,2582.,0.,0.,10030.,0.760062336962,1.04008530321,494.
7.28,7390.,30.,8.,2599.,0.,0.,10027.,0.720935750517,1.24962196756,390.
7.3,7390.,28.,8.,2602.,0.,0.,10028.,0.682948932625,1.26833373202,364.
7.32,7390.,18.,18.,2602.,0.,0.,10028.,0.646553083807,1.86782001989,234.
7.34,7383.,20.,16.,2610.,0.,0.,10029.,0.61160936651,1.59018435293,260.
7.36,7386.,15.,5.,2617.,0.,0.,10023.,0.580556760187,2.01259676865,195.
7.38,7388.,9.,7.,2619.,0.,0.,10023.,0.552172176896,3.19032813318,117.
7.4,7385.,11.,6.,2621.,0.,0.,10023.,0.527000613495,2.49127562743,143.
7.42,7387.,2.,10.,2622.,0.,0.,10021.,0.506267617464,13.1629580541,26.
7.44,7383.,9.,0.,2630.,0.,0.,10022.,0.489281792951,2.82696147038,117.
7.46,7388.,6.,3.,2621.,0.,0.,10018.,0.477703459104,4.14009664557,78.
7.48,7391.,5.,4.,2617.,0.,0.,10017.,0.470601106594,4.89425150858,65.
7.5,7396.,3.,2.,2614.,0.,0.,10015.,0.468550403752,8.12154033169,39.
7.52,7403.,2.,2.,2608.,0.,0.,10015.,0.471459304631,12.2579419204,26.
7.54,7406.,2.,0.,2604.,0.,0.,10012.,0.479154303871,12.4580119006,26.
7.56,7414.,0.,2.,2598.,0.,0.,10014.,0.491728725985,inf,0.
7.58,7419.,1.,0.,2597.,0.,0.,10017.,0.50866377474,26.4505162865,13.
7.6,7428.,1.,0.,2587.,0.,0.,10016.,0.530439589997,27.5828586799,13.
7.62,7436.,0.,1.,2582.,0.,0.,10019.,0.555981534071,inf,0.
7.64,7441.,0.,0.,2581.,0.,0.,10022.,0.584938247568,inf,0.
7.66,7451.,0.,0.,2574.,0.,0.,10025.,0.617488782972,inf,0.
7.68,7460.,1.,0.,2566.,0.,0.,10027.,0.65274249459,33.9426097187,13.
7.7,7462.,1.,1.,2563.,0.,0.,10027.,0.689671607508,35.8629235904,13.
7.72,7474.,1.,1.,2552.,0.,0.,10028.,0.729057709944,37.9110009171,13.
7.74,7483.,0.,1.,2544.,0.,0.,10028.,0.769260419289,inf,0.
7.76,7489.,0.,0.,2540.,0.,0.,10029.,0.80946563609,inf,0.
7.78,7496.,0.,0.,2532.,0.,0.,10028.,0.84969615754,inf,0.
7.8,7507.,0.,0.,2526.,0.,0.,10033.,0.889014979749,inf,0.
7.82,7510.,1.,0.,2523.,0.,0.,10034.,0.926246351997,48.1648103039,13.
7.84,7514.,3.,2.,2516.,0.,0.,10035.,0.961501380847,16.6660239347,39.
7.86,7509.,4.,5.,2514.,0.,0.,10032.,0.993314790897,12.9130922817,52.
7.88,7505.,8.,4.,2517.,0.,0.,10034.,1.02154977827,6.64007355873,104.
7.9,7505.,9.,2.,2518.,0.,0.,10034.,1.04687470426,6.04860940237,117.
7.92,7508.,8.,5.,2514.,0.,0.,10035.,1.0684836567,6.94514376855,104.
7.94,7503.,15.,4.,2516.,0.,0.,10038.,1.0843579858,3.75910768409,195.
7.96,7508.,13.,1.,2513.,0.,0.,10035.,1.09768595415,4.39074381658,169.
7.98,7506.,10.,5.,2515.,0.,0.,10036.,1.10472839271,5.7445876421,130.
8.,7505.,13.,6.,2512.,0.,0.,10036.,1.10707539051,4.42830156206,169.
8.02,7499.,15.,8.,2515.,0.,0.,10037.,1.10358817413,3.82577233699,195.
8.04,7483.,25.,10.,2518.,0.,0.,10036.,1.09392188904,2.2753575292,325.
8.06,7478.,25.,15.,2522.,0.,0.,10040.,1.08052961658,2.24750160249,325.
8.08,7465.,27.,14.,2533.,0.,0.,10039.,1.06194091631,2.04521954252,351.
8.1,7448.,31.,18.,2542.,0.,0.,10039.,1.03840631329,1.7418428481,403.
8.12,7433.,34.,17.,2555.,0.,0.,10039.,1.01124552449,1.54661080216,442.
8.14,7410.,38.,26.,2563.,0.,0.,10037.,0.97973044825,1.34068377129,494.
8.16,7394.,37.,26.,2578.,0.,0.,10035.,0.94614602209,1.32971873375,481.
8.18,7376.,39.,22.,2597.,0.,0.,10034.,0.909719453041,1.21295927072,507.
8.2,7362.,40.,17.,2615.,0.,0.,10034.,0.871756494714,1.13328344313,520.
8.22,7361.,32.,18.,2624.,0.,0.,10035.,0.833811426977,1.35494356884,416.
8.24,7358.,36.,14.,2629.,0.,0.,10037.,0.794672302944,1.14785999314,468.
8.26,7354.,32.,10.,2638.,0.,0.,10034.,0.755547018608,1.22776390524,416.
8.28,7345.,27.,15.,2645.,0.,0.,10032.,0.716188619271,1.37932622971,351.
8.3,7340.,25.,9.,2657.,0.,0.,10031.,0.67812529898,1.41050062188,325.
8.32,7337.,18.,14.,2659.,0.,0.,10028.,0.641916099579,1.85442428767,234.
8.34,7335.,23.,8.,2662.,0.,0.,10028.,0.607693629447,1.37391603179,299.
8.36,7335.,13.,15.,2662.,0.,0.,10025.,0.576433019644,2.30573207858,169.
8.38,7335.,14.,14.,2664.,0.,0.,10027.,0.547992312776,2.03540001888,182.
8.4,7330.,11.,10.,2674.,0.,0.,10025.,0.522971406996,2.47222846943,143.
8.42,7337.,10.,4.,2674.,0.,0.,10025.,0.502640235597,2.6137292251,130.
8.44,7339.,3.,4.,2675.,0.,0.,10021.,0.486414385734,8.43118268606,39.
8.46,7347.,2.,1.,2671.,0.,0.,10021.,0.474910207676,12.3476653996,26.
8.48,7351.,2.,0.,2666.,0.,0.,10019.,0.467960785943,12.1669804345,26.
8.5,7358.,3.,0.,2657.,0.,0.,10018.,0.466003441184,8.07739298053,39.
8.52,7362.,3.,1.,2652.,0.,0.,10018.,0.468707822042,8.1242689154,39.
8.54,7367.,2.,2.,2646.,0.,0.,10017.,0.476393165958,12.3862223149,26.
8.56,7369.,3.,2.,2642.,0.,0.,10016.,0.488646537587,8.46987331817,39.
8.58,7372.,1.,2.,2640.,0.,0.,10015.,0.505542283053,26.2881987188,13.
8.6,7374.,3.,1.,2635.,0.,0.,10013.,0.5267411755,9.13018037533,39.
8.62,7379.,2.,2.,2629.,0.,0.,10012.,0.552105447725,14.3547416409,26.
8.64,7385.,0.,0.,2631.,0.,0.,10016.,0.580883843477,inf,0.
8.66,7391.,1.,0.,2625.,0.,0.,10017.,0.613005567885,31.87628953,13.
8.68,7394.,1.,1.,2621.,0.,0.,10017.,0.647613430574,33.6758983898,13.
8.7,7399.,1.,0.,2620.,0.,0.,10020.,0.684326602832,35.5849833473,13.
8.72,7404.,2.,0.,2613.,0.,0.,10019.,0.72287827407,18.7948351258,26.
8.74,7408.,0.,0.,2610.,0.,0.,10018.,0.762310520925,inf,0.
8.76,7415.,0.,0.,2604.,0.,0.,10019.,0.802267124686,inf,0.
8.78,7423.,0.,0.,2597.,0.,0.,10020.,0.842093161894,inf,0.
8.8,7427.,2.,0.,2594.,0.,0.,10023.,0.880418518377,22.8908814778,26.
8.82,7432.,2.,1.,2589.,0.,0.,10024.,0.917540648365,23.8560568575,26.
8.84,7440.,3.,2.,2581.,0.,0.,10026.,0.952886849987,16.5167053998,39.
8.86,7441.,10.,2.,2577.,0.,0.,10030.,0.984515806186,5.11948219217,130.
8.88,7447.,9.,7.,2566.,0.,0.,10029.,1.01416041844,5.85959352877,117.
8.9,7445.,16.,5.,2563.,0.,0.,10029.,1.0390230374,3.37682487155,208.
8.92,7442.,15.,4.,2567.,0.,0.,10028.,1.05983031303,3.67407841849,195.
8.94,7445.,16.,2.,2566.,0.,0.,10029.,1.07694121488,3.50005894835,208.
8.96,7452.,13.,5.,2561.,0.,0.,10031.,1.08993308481,4.35973233926,169.
8.98,7447.,8.,11.,2563.,0.,0.,10029.,1.09680982239,7.12926384551,104.
9.,7431.,24.,7.,2567.,0.,0.,10029.,1.0969246168,2.37667000307,312.
9.02,7429.,19.,7.,2572.,0.,0.,10027.,1.09437698702,2.99513701711,247.
9.04,7427.,17.,11.,2572.,0.,0.,10027.,1.08670991346,3.32405385295,221.
9.06,7419.,22.,9.,2576.,0.,0.,10026.,1.07350135733,2.5373668446,286.
9.08,7411.,25.,9.,2583.,0.,0.,10028.,1.05541554015,2.19526432352,325.
9.1,7414.,24.,5.,2592.,0.,0.,10035.,1.03407802952,2.24050239728,312.
9.12,7411.,27.,10.,2589.,0.,0.,10037.,1.00845337343,1.94220649698,351.
9.14,7409.,19.,15.,2590.,0.,0.,10033.,0.979988781391,2.6820745596,247.
9.16,7400.,26.,16.,2593.,0.,0.,10035.,0.946913790028,1.89382758006,338.
9.18,7385.,32.,14.,2601.,0.,0.,10032.,0.911011053465,1.48039296188,416.
9.2,7368.,40.,16.,2606.,0.,0.,10030.,0.872814915665,1.13465939036,520.
9.22,7362.,35.,17.,2615.,0.,0.,10029.,0.83442360917,1.23971507648,455.
9.24,7345.,38.,17.,2628.,0.,0.,10028.,0.793980236279,1.0864992707,494.
9.26,7336.,34.,16.,2642.,0.,0.,10028.,0.754148661754,1.15340383562,442.
9.28,7332.,34.,12.,2650.,0.,0.,10028.,0.71520619873,1.09384477453,442.
9.3,7328.,30.,15.,2657.,0.,0.,10030.,0.677084146432,1.17361252048,390.
9.32,7323.,26.,10.,2668.,0.,0.,10027.,0.640755132424,1.28151026485,338.
9.34,7323.,19.,15.,2670.,0.,0.,10027.,0.606759954217,1.66060619049,247.
9.36,7319.,15.,12.,2680.,0.,0.,10026.,0.575118264965,1.99374331855,195.
9.38,7318.,17.,10.,2685.,0.,0.,10030.,0.546558729511,1.67182670203,221.
9.4,7319.,17.,2.,2693.,0.,0.,10031.,0.521874249461,1.59632123365,221.
9.42,7319.,15.,0.,2696.,0.,0.,10030.,0.501157145171,1.73734476993,195.
9.44,7326.,11.,2.,2691.,0.,0.,10030.,0.485117081057,2.29328074681,143.
9.46,7333.,9.,1.,2690.,0.,0.,10033.,0.473438312023,2.73542135835,117.
9.48,7340.,3.,7.,2684.,0.,0.,10034.,0.466562015896,8.0870749422,39.
9.5,7342.,4.,3.,2687.,0.,0.,10036.,0.464156134986,6.03402975481,52.
9.52,7351.,4.,2.,2682.,0.,0.,10039.,0.467028500285,6.07137050371,52.
9.54,7352.,3.,2.,2679.,0.,0.,10036.,0.474523114706,8.22506732158,39.
9.56,7357.,2.,0.,2675.,0.,0.,10034.,0.486975648401,12.6613668584,26.
9.58,7368.,2.,0.,2668.,0.,0.,10038.,0.50411026202,13.1068668125,26.
9.6,7373.,1.,1.,2661.,0.,0.,10036.,0.525462748055,27.3240628989,13.
9.62,7378.,1.,0.,2658.,0.,0.,10037.,0.550655637444,28.6340931471,13.
9.64,7387.,1.,0.,2650.,0.,0.,10038.,0.579767706559,30.1479207411,13.
9.66,7390.,0.,1.,2647.,0.,0.,10038.,0.611640363509,inf,0.
9.68,7394.,1.,0.,2642.,0.,0.,10037.,0.646322978386,33.6087948761,13.
9.7,7397.,1.,0.,2639.,0.,0.,10037.,0.682982871325,35.5151093089,13.
9.72,7405.,1.,0.,2633.,0.,0.,10039.,0.721535573038,37.519849798,13.
9.74,7418.,1.,1.,2623.,0.,0.,10043.,0.761439379677,39.5948477432,13.
9.76,7421.,2.,1.,2620.,0.,0.,10044.,0.800917798306,20.8238627559,26.
9.78,7426.,3.,0.,2617.,0.,0.,10046.,0.840253195514,14.5643887222,39.
9.8,7429.,1.,2.,2612.,0.,0.,10044.,0.878814329126,45.6983451146,13.
9.82,7430.,3.,1.,2611.,0.,0.,10045.,0.915376044906,15.8665181117,39.
9.84,7434.,6.,2.,2607.,0.,0.,10049.,0.949939198598,8.23280638785,78.
9.86,7435.,4.,4.,2604.,0.,0.,10047.,0.982057444384,12.766746777,52.
9.88,7436.,7.,4.,2601.,0.,0.,10048.,1.01074752995,7.5084102225,91.
9.9,7434.,5.,7.,2601.,0.,0.,10047.,1.03562913702,10.770543025,65.
9.92,7437.,9.,2.,2602.,0.,0.,10050.,1.05679978507,6.10595431372,117.
9.94,7444.,10.,2.,2598.,0.,0.,10054.,1.0741190292,5.58541895183,130.
9.96,7444.,9.,3.,2599.,0.,0.,10055.,1.08616426284,6.27561574088,117.
9.98,7443.,11.,3.,2595.,0.,0.,10052.,1.09371242935,5.17027693876,143.
10.,7446.,13.,7.,2587.,0.,0.,10053.,1.09651481099,4.38605924396,169.
