t,s,e,i,r,c,o,n,reff,coal,reportr
5.,4491.,16.,8.,5485.,0.,0.,10000.,1.02729254823,3.33870078173,208.
5.02,4496.,18.,11.,5474.,0.,0.,9999.,1.02622188626,2.96464100475,234.
5.04,4500.,25.,5.,5469.,0.,0.,9999.,1.02021356855,2.12204422257,325.
5.06,4504.,20.,11.,5466.,0.,0.,10001.,1.0094941616,2.62468482015,260.
5.08,4505.,30.,12.,5457.,0.,0.,10004.,0.993678832928,1.72237664374,390.
5.1,4518.,21.,14.,5454.,0.,0.,10007.,0.976392338211,2.4177334089,273.
5.12,4516.,20.,17.,5456.,0.,0.,10009.,0.952160383573,2.47561699729,260.
5.14,4521.,20.,11.,5459.,0.,0.,10011.,0.926004926204,2.40761280813,260.
5.16,4525.,27.,12.,5453.,0.,0.,10017.,0.896274288663,1.72615788928,351.
5.18,4523.,32.,11.,5454.,0.,0.,10020.,0.8631444181,1.40260967941,416.
5.2,4516.,33.,12.,5458.,0.,0.,10019.,0.827498017046,1.30393626929,429.
5.22,4510.,32.,15.,5462.,0.,0.,10019.,0.790613993492,1.28474773942,416.
5.24,4509.,27.,16.,5471.,0.,0.,10023.,0.753492011198,1.45116979934,351.
5.26,4502.,24.,17.,5477.,0.,0.,10020.,0.715671407077,1.550621382,312.
5.28,4505.,28.,15.,5475.,0.,0.,10023.,0.679335224094,1.26162255903,364.
5.3,4513.,26.,13.,5471.,0.,0.,10023.,0.644747475821,1.28949495164,338.
5.32,4510.,26.,10.,5476.,0.,0.,10022.,0.610042578018,1.22008515604,338.
5.34,4510.,24.,15.,5473.,0.,0.,10022.,0.577676850295,1.25163317564,312.
5.36,4508.,24.,15.,5476.,0.,0.,10023.,0.547498861529,1.18624753331,312.
5.38,4514.,21.,6.,5482.,0.,0.,10023.,0.521282466201,1.29079467821,273.
5.4,4532.,11.,10.,5474.,0.,0.,10027.,0.499506527183,2.36130358304,143.
5.42,4537.,15.,2.,5473.,0.,0.,10027.,0.480158704917,1.66455017704,195.
5.44,4551.,12.,5.,5457.,0.,0.,10025.,0.46587238635,2.01878034085,156.
5.46,4561.,8.,6.,5448.,0.,0.,10023.,0.455447999081,2.96041199403,104.
5.48,4580.,7.,3.,5432.,0.,0.,10022.,0.450362711315,3.34555156977,91.
5.5,4592.,5.,6.,5421.,0.,0.,10024.,0.449091793347,4.67055465081,65.
5.52,4602.,6.,2.,5413.,0.,0.,10023.,0.452480876888,3.92150093303,78.
5.54,4614.,2.,1.,5408.,0.,0.,10025.,0.460648504373,11.9768611137,26.
5.56,4623.,2.,1.,5401.,0.,0.,10027.,0.47314841933,12.3018589026,26.
5.58,4630.,1.,2.,5392.,0.,0.,10025.,0.49009881462,25.4851383602,13.
5.6,4641.,0.,2.,5384.,0.,0.,10027.,0.511520254337,inf,0.
5.62,4650.,0.,0.,5374.,0.,0.,10024.,0.536934349102,inf,0.
5.64,4664.,1.,0.,5359.,0.,0.,10024.,0.566388630897,29.4522088066,13.
5.66,4670.,0.,1.,5353.,0.,0.,10024.,0.59805158149,inf,0.
5.68,4679.,1.,1.,5342.,0.,0.,10023.,0.632839121647,32.9076343256,13.
5.7,4696.,0.,0.,5327.,0.,0.,10023.,0.670891678807,inf,0.
5.72,4711.,0.,0.,5312.,0.,0.,10023.,0.710399165529,inf,0.
5.74,4726.,0.,0.,5299.,0.,0.,10025.,0.75090540995,inf,0.
5.76,4739.,0.,0.,5284.,0.,0.,10023.,0.791926955216,inf,0.
5.78,4751.,0.,0.,5270.,0.,0.,10021.,0.832695657642,inf,0.
5.8,4767.,0.,0.,5254.,0.,0.,10021.,0.873316156764,inf,0.
5.82,4784.,1.,1.,5236.,0.,0.,10022.,0.912770031507,47.4640416384,13.
5.84,4793.,4.,1.,5225.,0.,0.,10023.,0.948789187762,12.3342594409,52.
5.86,4803.,5.,2.,5214.,0.,0.,10024.,0.982489188607,10.2178875615,65.
5.88,4809.,7.,3.,5204.,0.,0.,10023.,1.01252069972,7.52158234081,91.
5.9,4817.,8.,5.,5194.,0.,0.,10024.,1.03924423581,6.75508753276,104.
5.92,4823.,12.,7.,5186.,0.,0.,10028.,1.06127482703,4.59885758378,156.
5.94,4832.,8.,8.,5180.,0.,0.,10028.,1.08009376065,7.02060944424,104.
5.96,4829.,14.,3.,5180.,0.,0.,10026.,1.0918542149,4.05545851249,182.
5.98,4829.,15.,5.,5171.,0.,0.,10020.,1.0999198059,3.8130553271,195.
6.,4839.,16.,6.,5161.,0.,0.,10022.,1.10446588666,3.58951413166,208.
6.02,4844.,14.,10.,5155.,0.,0.,10023.,1.10300617192,4.09688006712,182.
6.04,4841.,24.,5.,5155.,0.,0.,10025.,1.09467664172,2.37179939038,312.
6.06,4838.,21.,9.,5155.,0.,0.,10023.,1.08197441335,2.67917473782,273.
6.08,4840.,22.,13.,5148.,0.,0.,10023.,1.06554687008,2.51856532927,286.
6.1,4836.,29.,13.,5145.,0.,0.,10023.,1.04344748798,1.8710092888,377.
6.12,4837.,26.,20.,5145.,0.,0.,10028.,1.01790823055,2.03581646109,338.
6.14,4828.,37.,8.,5158.,0.,0.,10031.,0.986913937878,1.38701418296,481.
6.16,4833.,30.,17.,5150.,0.,0.,10030.,0.956039619549,1.65713534055,390.
6.18,4826.,29.,12.,5161.,0.,0.,10028.,0.920232553289,1.65007216452,377.
6.2,4824.,36.,12.,5155.,0.,0.,10027.,0.883229750457,1.27577630622,468.
6.22,4829.,38.,10.,5151.,0.,0.,10028.,0.845775716469,1.15737729622,494.
6.24,4825.,25.,21.,5152.,0.,0.,10023.,0.806298282109,1.67710042679,325.
6.26,4823.,29.,11.,5155.,0.,0.,10018.,0.766853019236,1.37504679311,377.
6.28,4813.,34.,16.,5155.,0.,0.,10018.,0.726142578555,1.1105710025,442.
6.3,4817.,31.,14.,5158.,0.,0.,10020.,0.688384324369,1.15470918926,403.
6.32,4827.,22.,14.,5159.,0.,0.,10022.,0.652921402238,1.54326876893,286.
6.34,4825.,26.,6.,5167.,0.,0.,10024.,0.617901259248,1.2358025185,338.
6.36,4835.,18.,9.,5166.,0.,0.,10028.,0.58692038879,1.69554778984,234.
6.38,4833.,14.,7.,5173.,0.,0.,10027.,0.55789834503,2.07219385297,182.
6.4,4843.,6.,8.,5172.,0.,0.,10029.,0.533677777615,4.62520740599,78.
6.42,4852.,7.,5.,5166.,0.,0.,10030.,0.513342122048,3.81339862093,91.
6.44,4864.,9.,5.,5150.,0.,0.,10028.,0.497764312096,2.875971581,117.
6.46,4871.,6.,6.,5142.,0.,0.,10025.,0.486306646034,4.21465759896,78.
6.48,4881.,9.,5.,5130.,0.,0.,10025.,0.479817155538,2.77227689866,117.
6.5,4900.,6.,4.,5121.,0.,0.,10031.,0.478879390894,4.15028805442,78.
6.52,4915.,3.,1.,5110.,0.,0.,10029.,0.482966754079,8.37142373737,39.
6.54,4924.,3.,0.,5100.,0.,0.,10027.,0.491499958915,8.51933262119,39.
6.56,4934.,3.,0.,5091.,0.,0.,10028.,0.504927860995,8.75208292392,39.
6.58,4951.,2.,0.,5076.,0.,0.,10029.,0.523868562865,13.6205826345,26.
6.6,4957.,0.,0.,5075.,0.,0.,10032.,0.546076738165,inf,0.
6.62,4963.,0.,0.,5067.,0.,0.,10030.,0.572733564256,inf,0.
6.64,4981.,0.,0.,5050.,0.,0.,10031.,0.604462488487,inf,0.
6.66,4996.,2.,0.,5035.,0.,0.,10033.,0.639226010014,16.6198762604,26.
6.68,5005.,1.,0.,5024.,0.,0.,10030.,0.676458491887,35.1758415781,13.
6.7,5023.,1.,0.,5005.,0.,0.,10029.,0.717179049395,37.2933105685,13.
6.72,5030.,2.,0.,4995.,0.,0.,10027.,0.758200451766,19.7132117459,26.
6.74,5046.,2.,0.,4979.,0.,0.,10027.,0.801589700689,20.8413322179,26.
6.76,5058.,0.,1.,4970.,0.,0.,10029.,0.844728877208,inf,0.
6.78,5063.,1.,0.,4960.,0.,0.,10024.,0.887113525871,46.1299033453,13.
6.8,5074.,1.,1.,4949.,0.,0.,10025.,0.929187773674,48.317764231,13.
6.82,5085.,2.,2.,4940.,0.,0.,10029.,0.969522575283,25.2075869574,26.
6.84,5093.,2.,3.,4931.,0.,0.,10029.,1.00757196056,26.1968709745,26.
6.86,5102.,3.,0.,4925.,0.,0.,10030.,1.04302753283,18.0791439023,39.
6.88,5116.,5.,0.,4911.,0.,0.,10032.,1.07619228955,11.1923998113,65.
6.9,5125.,7.,1.,4899.,0.,0.,10032.,1.10481199887,8.20717484874,91.
6.92,5128.,8.,6.,4891.,0.,0.,10033.,1.12782607391,7.33086948039,104.
6.94,5124.,12.,6.,4895.,0.,0.,10037.,1.14433729942,4.95879496417,156.
6.96,5128.,11.,8.,4890.,0.,0.,10037.,1.1581884835,5.47507283107,143.
6.98,5137.,15.,3.,4885.,0.,0.,10040.,1.16774331932,4.04817684032,195.
7.,5139.,16.,10.,4874.,0.,0.,10039.,1.17095241392,3.80559534523,208.
7.02,5130.,16.,10.,4882.,0.,0.,10038.,1.16638442617,3.79074938504,208.
7.04,5128.,26.,6.,4877.,0.,0.,10037.,1.1581884835,2.31637696699,338.
7.06,5134.,24.,8.,4870.,0.,0.,10036.,1.14668483423,2.48448380749,312.
7.08,5123.,27.,14.,4872.,0.,0.,10036.,1.12638959408,2.16934292193,351.
7.1,5117.,32.,11.,4876.,0.,0.,10036.,1.10264776207,1.79180261336,416.
7.12,5121.,23.,14.,4880.,0.,0.,10038.,1.07660018067,2.43405258238,299.
7.14,5112.,27.,17.,4884.,0.,0.,10040.,1.0440309749,2.01072632202,351.
7.16,5111.,28.,10.,4893.,0.,0.,10042.,1.00982400939,1.875387446,364.
7.18,5105.,28.,12.,4892.,0.,0.,10037.,0.972560041864,1.80618293489,364.
7.2,5096.,35.,11.,4892.,0.,0.,10034.,0.932379524689,1.38524957954,455.
7.22,5083.,36.,13.,4900.,0.,0.,10032.,0.889907604244,1.28542209502,468.
7.24,5089.,25.,21.,4897.,0.,0.,10032.,0.849651981464,1.76727612144,325.
7.26,5089.,29.,16.,4898.,0.,0.,10032.,0.808017607582,1.44885915842,377.
7.28,5081.,28.,16.,4905.,0.,0.,10030.,0.765658892103,1.42193794248,364.
7.3,5076.,26.,15.,4911.,0.,0.,10028.,0.724818610063,1.44963722013,338.
7.32,5078.,22.,14.,4915.,0.,0.,10029.,0.686393353475,1.62238429003,286.
7.34,5086.,15.,16.,4916.,0.,0.,10033.,0.650741290418,2.25590314012,195.
7.36,5092.,15.,8.,4917.,0.,0.,10032.,0.617871146531,2.14195330797,195.
7.38,5093.,15.,6.,4915.,0.,0.,10029.,0.587794255994,2.03768675411,195.
7.4,5099.,13.,10.,4905.,0.,0.,10027.,0.561999951921,2.24799980768,169.
7.42,5104.,8.,10.,4904.,0.,0.,10026.,0.540219190514,3.51142473834,104.
7.44,5103.,10.,3.,4907.,0.,0.,10023.,0.522483226946,2.71691278012,130.
7.46,5112.,8.,6.,4896.,0.,0.,10022.,0.510520167777,3.31838109055,104.
7.48,5122.,9.,3.,4886.,0.,0.,10020.,0.503759440623,2.91061010138,117.
7.5,5131.,3.,6.,4878.,0.,0.,10018.,0.502105853985,8.70316813574,39.
7.52,5147.,1.,4.,4865.,0.,0.,10017.,0.506369850787,26.3312322409,13.
7.54,5161.,2.,3.,4853.,0.,0.,10019.,0.515567982255,13.4047675386,26.
7.56,5175.,2.,1.,4842.,0.,0.,10020.,0.530013763587,13.7803578533,26.
7.58,5187.,0.,1.,4834.,0.,0.,10022.,0.549223222477,inf,0.
7.6,5201.,0.,0.,4820.,0.,0.,10021.,0.573585379834,inf,0.
7.62,5211.,0.,0.,4811.,0.,0.,10022.,0.601832958655,inf,0.
7.64,5223.,0.,0.,4801.,0.,0.,10024.,0.634272688502,inf,0.
7.66,5235.,1.,0.,4791.,0.,0.,10027.,0.670206277989,34.8507264554,13.
7.68,5245.,1.,0.,4781.,0.,0.,10027.,0.709108158087,36.8736242205,13.
7.7,5255.,2.,1.,4768.,0.,0.,10026.,0.750528290925,19.5137355641,26.
7.72,5260.,2.,3.,4760.,0.,0.,10025.,0.793027835799,20.6187237308,26.
7.74,5271.,3.,1.,4755.,0.,0.,10030.,0.83708195597,14.5094205702,39.
7.76,5281.,4.,1.,4745.,0.,0.,10031.,0.881795918382,11.463346939,52.
7.78,5290.,4.,2.,4735.,0.,0.,10031.,0.926240514012,12.0411266822,52.
7.8,5303.,5.,0.,4729.,0.,0.,10037.,0.969962865954,10.0876138059,65.
7.82,5314.,5.,1.,4717.,0.,0.,10037.,1.01237689764,10.5287197355,65.
7.84,5311.,7.,3.,4713.,0.,0.,10034.,1.05017634821,7.80131001526,91.
7.86,5315.,5.,3.,4712.,0.,0.,10035.,1.0860308034,11.2947203553,65.
7.88,5320.,8.,2.,4706.,0.,0.,10036.,1.11865931551,7.2712855508,104.
7.9,5318.,8.,6.,4706.,0.,0.,10038.,1.14573235532,7.4472603096,104.
7.92,5320.,10.,7.,4702.,0.,0.,10039.,1.16935426636,6.08064218507,130.
7.94,5319.,10.,8.,4702.,0.,0.,10039.,1.18764978119,6.17577886219,130.
7.96,5323.,14.,5.,4698.,0.,0.,10040.,1.20187113008,4.46409276885,182.
7.98,5324.,12.,9.,4693.,0.,0.,10038.,1.2104933109,5.24547101389,156.
8.,5322.,18.,12.,4685.,0.,0.,10037.,1.21289171319,3.50390939366,234.
8.02,5320.,23.,6.,4692.,0.,0.,10041.,1.20922245592,2.73389424816,299.
8.04,5324.,23.,10.,4684.,0.,0.,10041.,1.20197719953,2.71751366851,299.
8.06,5318.,25.,12.,4686.,0.,0.,10041.,1.18718998119,2.46935516088,325.
8.08,5317.,26.,14.,4687.,0.,0.,10044.,1.1681130685,2.33622613699,338.
8.1,5318.,30.,11.,4687.,0.,0.,10046.,1.14481996643,1.98435460848,390.
8.12,5312.,28.,20.,4687.,0.,0.,10047.,1.11575419397,2.07211493166,364.
8.14,5310.,30.,17.,4691.,0.,0.,10048.,1.08360536378,1.87824929722,390.
8.16,5307.,36.,17.,4691.,0.,0.,10051.,1.04761050069,1.51321516766,468.
8.18,5298.,38.,15.,4702.,0.,0.,10053.,1.00772230533,1.37898841782,494.
8.2,5292.,34.,19.,4707.,0.,0.,10052.,0.966506458989,1.47818634904,442.
8.22,5287.,33.,20.,4714.,0.,0.,10054.,0.923597526426,1.45536579922,429.
8.24,5284.,34.,23.,4715.,0.,0.,10056.,0.880103385177,1.34604047145,442.
8.26,5284.,31.,14.,4727.,0.,0.,10056.,0.836976841378,1.40396115328,403.
8.28,5276.,28.,15.,4733.,0.,0.,10052.,0.79330350974,1.47327794666,364.
8.3,5286.,26.,9.,4736.,0.,0.,10057.,0.752628666733,1.50525733347,338.
8.32,5295.,20.,18.,4728.,0.,0.,10061.,0.713448812928,1.85496691361,260.
8.34,5302.,20.,11.,4731.,0.,0.,10064.,0.676288365132,1.75834974934,260.
8.36,5309.,17.,4.,4736.,0.,0.,10066.,0.642026335195,1.9638452606,221.
8.38,5316.,13.,4.,4735.,0.,0.,10068.,0.611154562529,2.44461825012,169.
8.4,5324.,8.,7.,4732.,0.,0.,10071.,0.584235217061,3.7975289109,104.
8.42,5328.,11.,1.,4735.,0.,0.,10075.,0.561185193233,2.65287545892,143.
8.44,5337.,5.,3.,4730.,0.,0.,10075.,0.543621548181,5.65366410108,65.
8.46,5343.,6.,1.,4726.,0.,0.,10076.,0.530729797979,4.59965824915,78.
8.48,5359.,6.,2.,4709.,0.,0.,10076.,0.524139564686,4.54254289394,78.
8.5,5373.,2.,5.,4699.,0.,0.,10079.,0.522605159257,13.5877341407,26.
8.52,5384.,2.,1.,4692.,0.,0.,10079.,0.526427964487,13.6871270767,26.
8.54,5393.,2.,1.,4685.,0.,0.,10081.,0.535430691835,13.9211979877,26.
8.56,5402.,3.,0.,4675.,0.,0.,10080.,0.549969446284,9.53280373559,39.
8.58,5416.,2.,1.,4662.,0.,0.,10081.,0.570114495466,14.8229768821,26.
8.6,5422.,0.,0.,4654.,0.,0.,10076.,0.594694108149,inf,0.
8.62,5435.,1.,0.,4641.,0.,0.,10077.,0.624277356616,32.462422544,13.
8.64,5448.,1.,0.,4628.,0.,0.,10077.,0.658116658197,34.2220662262,13.
8.66,5459.,1.,0.,4621.,0.,0.,10081.,0.69514003296,36.1472817139,13.
8.68,5468.,0.,1.,4613.,0.,0.,10082.,0.735224239902,inf,0.
8.7,5483.,0.,0.,4598.,0.,0.,10081.,0.778819252042,inf,0.
8.72,5486.,1.,0.,4594.,0.,0.,10081.,0.82250634574,42.7703299785,13.
8.74,5500.,1.,0.,4581.,0.,0.,10082.,0.868944209768,45.1850989079,13.
8.76,5509.,1.,0.,4571.,0.,0.,10081.,0.915303883062,47.5958019192,13.
8.78,5520.,0.,1.,4562.,0.,0.,10083.,0.961527350406,inf,0.
8.8,5527.,1.,0.,4557.,0.,0.,10085.,1.00612274523,52.3183827518,13.
8.82,5536.,0.,3.,4549.,0.,0.,10088.,1.04933850162,inf,0.
8.84,5536.,5.,2.,4545.,0.,0.,10088.,1.08880733055,11.3235962377,65.
8.86,5538.,11.,3.,4534.,0.,0.,10086.,1.12587516395,5.32231895687,143.
8.88,5542.,11.,3.,4528.,0.,0.,10084.,1.15979317386,5.48265864006,143.
8.9,5550.,9.,2.,4523.,0.,0.,10084.,1.19026094075,6.8770632132,117.
8.92,5553.,12.,3.,4514.,0.,0.,10082.,1.21536270917,5.26657173976,156.
8.94,5549.,17.,7.,4508.,0.,0.,10081.,1.23384318614,3.77410856936,221.
8.96,5545.,18.,12.,4504.,0.,0.,10079.,1.24715161979,3.60288245719,234.
8.98,5548.,15.,18.,4495.,0.,0.,10076.,1.25666590431,4.35644180161,195.
9.,5539.,27.,8.,4503.,0.,0.,10077.,1.25733553368,2.42153510189,351.
9.02,5534.,30.,11.,4502.,0.,0.,10077.,1.25337040186,2.17250869655,390.
9.04,5533.,34.,8.,4504.,0.,0.,10079.,1.24445264424,1.90328051472,442.
9.06,5533.,25.,19.,4503.,0.,0.,10080.,1.23040757185,2.55924774945,325.
9.08,5517.,34.,19.,4509.,0.,0.,10079.,1.20784294015,1.84728920259,442.
9.1,5503.,37.,20.,4520.,0.,0.,10080.,1.18064957939,1.65929130077,481.
9.12,5500.,29.,20.,4529.,0.,0.,10078.,1.15168894834,2.0650974246,377.
9.14,5497.,35.,14.,4529.,0.,0.,10075.,1.11876000848,1.66215772689,455.
9.16,5497.,33.,11.,4534.,0.,0.,10075.,1.08253191854,1.70580787164,429.
9.18,5484.,33.,21.,4536.,0.,0.,10074.,1.04092658322,1.64024794932,429.
9.2,5470.,42.,19.,4545.,0.,0.,10076.,0.996636004834,1.2339302917,546.
9.22,5455.,35.,20.,4561.,0.,0.,10071.,0.951337224824,1.41341530545,455.
9.24,5447.,28.,17.,4578.,0.,0.,10070.,0.905991351351,1.68255536679,364.
9.26,5437.,29.,25.,4581.,0.,0.,10072.,0.859843699147,1.54178870192,377.
9.28,5429.,32.,16.,4597.,0.,0.,10074.,0.814526022803,1.32360478705,416.
9.3,5422.,33.,12.,4606.,0.,0.,10073.,0.770766315662,1.21454086104,429.
9.32,5434.,25.,17.,4596.,0.,0.,10072.,0.731378048332,1.52126634053,325.
9.34,5437.,20.,11.,4605.,0.,0.,10073.,0.692888446256,1.80150996027,260.
9.36,5438.,13.,20.,4600.,0.,0.,10071.,0.657300027889,2.62920011156,169.
9.38,5440.,14.,6.,4613.,0.,0.,10073.,0.625099798135,2.32179925022,182.
9.4,5438.,14.,8.,4608.,0.,0.,10068.,0.596922951589,2.21714239162,182.
9.42,5433.,15.,8.,4610.,0.,0.,10066.,0.5727562294,1.98555492859,195.
9.44,5443.,11.,7.,4605.,0.,0.,10066.,0.554914308565,2.62323127685,143.
9.46,5447.,7.,3.,4609.,0.,0.,10066.,0.541597817717,4.02329807447,91.
9.48,5450.,5.,3.,4605.,0.,0.,10063.,0.533728476878,5.55077615953,65.
9.5,5459.,6.,3.,4595.,0.,0.,10063.,0.531814187544,4.60905629205,78.
9.52,5472.,2.,5.,4583.,0.,0.,10062.,0.535936235249,13.9343421165,26.
9.54,5476.,5.,1.,4581.,0.,0.,10063.,0.544643623363,5.66429368298,65.
9.56,5484.,2.,3.,4573.,0.,0.,10062.,0.559316521714,14.5422295646,26.
9.58,5498.,0.,1.,4567.,0.,0.,10066.,0.579608641494,inf,0.
9.6,5508.,0.,0.,4555.,0.,0.,10063.,0.604907181182,inf,0.
9.62,5519.,0.,0.,4546.,0.,0.,10065.,0.634681599775,inf,0.
9.64,5533.,0.,0.,4534.,0.,0.,10067.,0.669048567279,inf,0.
9.66,5540.,1.,0.,4524.,0.,0.,10065.,0.706575876775,36.7419455923,13.
9.68,5549.,2.,0.,4512.,0.,0.,10063.,0.747524199143,19.4356291777,26.
9.7,5565.,1.,1.,4496.,0.,0.,10063.,0.791880672759,41.1777949835,13.
9.72,5575.,1.,0.,4482.,0.,0.,10058.,0.837761328409,43.5635890773,13.
9.74,5588.,3.,1.,4468.,0.,0.,10060.,0.884777997142,15.3361519505,39.
9.76,5598.,1.,4.,4459.,0.,0.,10062.,0.931847250909,48.4560570473,13.
9.78,5611.,0.,3.,4448.,0.,0.,10062.,0.979418464545,inf,0.
9.8,5612.,4.,0.,4442.,0.,0.,10058.,1.02433835867,13.3163986627,52.
9.82,5619.,4.,0.,4432.,0.,0.,10055.,1.06856650621,13.8913645807,52.
9.84,5627.,3.,2.,4427.,0.,0.,10059.,1.10989561422,19.2381906466,39.
9.86,5633.,3.,3.,4419.,0.,0.,10058.,1.14837669753,19.9051960906,39.
9.88,5640.,8.,3.,4407.,0.,0.,10058.,1.1833530557,7.69179486205,104.
9.9,5646.,7.,6.,4399.,0.,0.,10058.,1.21397929181,9.01813188199,91.
9.92,5650.,10.,5.,4395.,0.,0.,10060.,1.23929698616,6.44434432805,130.
9.94,5656.,11.,5.,4391.,0.,0.,10063.,1.25988465118,5.95581835105,143.
9.96,5668.,9.,5.,4386.,0.,0.,10068.,1.27620894572,7.37365168636,117.
9.98,5672.,14.,2.,4381.,0.,0.,10069.,1.28564604978,4.77525675632,182.
10.,5681.,11.,4.,4371.,0.,0.,10067.,1.29085007238,6.10220034215,143.
