t,s,e,i,r,c,o,n,reff,coal,reportr
5.,6454.,9.,4.,3534.,0.,0.,10001.,1.12968222327,6.52705284555,117.
5.02,6452.,11.,4.,3534.,0.,0.,10001.,1.12678783093,5.32663338256,143.
5.04,6456.,13.,4.,3532.,0.,0.,10005.,1.11944112283,4.47776449132,169.
5.06,6462.,10.,9.,3526.,0.,0.,10007.,1.10772406066,5.76016511543,130.
5.08,6458.,17.,6.,3526.,0.,0.,10007.,1.08977977962,3.33344403177,221.
5.1,6452.,20.,9.,3525.,0.,0.,10006.,1.06717483193,2.77465456301,260.
5.12,6449.,22.,10.,3525.,0.,0.,10006.,1.04087462314,2.46024910923,286.
5.14,6447.,24.,9.,3527.,0.,0.,10007.,1.01095005447,2.19039178468,312.
5.16,6441.,30.,8.,3532.,0.,0.,10011.,0.976912224664,1.69331452275,390.
5.18,6441.,27.,11.,3535.,0.,0.,10014.,0.941217493447,1.81271517256,351.
5.2,6432.,22.,18.,3541.,0.,0.,10013.,0.902482735973,2.1331410123,286.
5.22,6428.,25.,12.,3549.,0.,0.,10014.,0.862780440198,1.79458331561,325.
5.24,6424.,24.,12.,3551.,0.,0.,10011.,0.822515131475,1.7821161182,312.
5.26,6412.,24.,14.,3556.,0.,0.,10006.,0.781139484066,1.69246888214,312.
5.28,6412.,25.,10.,3559.,0.,0.,10006.,0.741207426461,1.54171144704,325.
5.3,6411.,21.,4.,3572.,0.,0.,10008.,0.701972672817,1.73821804698,273.
5.32,6411.,16.,10.,3573.,0.,0.,10010.,0.664430227274,2.15939823864,208.
5.34,6408.,15.,13.,3574.,0.,0.,10010.,0.628884548458,2.18013310132,195.
5.36,6410.,17.,7.,3578.,0.,0.,10012.,0.596422350786,1.82435072005,221.
5.38,6412.,19.,7.,3576.,0.,0.,10014.,0.567172150346,1.552260622,247.
5.4,6417.,17.,3.,3578.,0.,0.,10015.,0.541904859092,1.65759133369,221.
5.42,6422.,17.,4.,3576.,0.,0.,10019.,0.52053824698,1.59223463782,221.
5.44,6424.,13.,8.,3574.,0.,0.,10019.,0.503553186906,2.01421274762,169.
5.46,6426.,11.,9.,3571.,0.,0.,10017.,0.491359301987,2.32278942757,143.
5.48,6434.,13.,3.,3568.,0.,0.,10018.,0.484363103057,1.93745241223,169.
5.5,6446.,7.,4.,3564.,0.,0.,10021.,0.482584328743,3.58491215638,91.
5.52,6452.,3.,6.,3561.,0.,0.,10022.,0.485524314686,8.41575478788,39.
5.54,6454.,4.,6.,3557.,0.,0.,10021.,0.493303314675,6.41294309078,52.
5.56,6458.,5.,0.,3556.,0.,0.,10019.,0.506218318966,5.26467051725,65.
5.58,6467.,3.,0.,3553.,0.,0.,10023.,0.523976550108,9.08226020187,39.
5.6,6481.,0.,5.,3539.,0.,0.,10025.,0.546763606779,inf,0.
5.62,6489.,1.,3.,3533.,0.,0.,10026.,0.573296175999,29.8114011519,13.
5.64,6497.,0.,1.,3528.,0.,0.,10026.,0.60367318922,inf,0.
5.66,6501.,0.,1.,3521.,0.,0.,10023.,0.637184106389,inf,0.
5.68,6510.,0.,0.,3513.,0.,0.,10023.,0.673815412561,inf,0.
5.7,6516.,0.,0.,3506.,0.,0.,10022.,0.712472986699,inf,0.
5.72,6519.,0.,0.,3499.,0.,0.,10018.,0.752673629735,inf,0.
5.74,6530.,0.,0.,3485.,0.,0.,10015.,0.794799898632,inf,0.
5.76,6541.,0.,0.,3477.,0.,0.,10018.,0.836910366074,inf,0.
5.78,6551.,1.,0.,3464.,0.,0.,10016.,0.879114196419,45.7139382138,13.
5.8,6560.,4.,0.,3457.,0.,0.,10021.,0.919707780445,11.9562011458,52.
5.82,6568.,4.,2.,3442.,0.,0.,10016.,0.959584239825,12.4745951177,52.
5.84,6569.,6.,1.,3438.,0.,0.,10014.,0.996027619067,8.63223936524,78.
5.86,6573.,3.,4.,3434.,0.,0.,10014.,1.02998754904,17.8531175168,39.
5.88,6579.,8.,3.,3426.,0.,0.,10016.,1.06079658406,6.89517779641,104.
5.9,6576.,10.,3.,3423.,0.,0.,10012.,1.08703287298,5.65257093949,130.
5.92,6573.,12.,6.,3422.,0.,0.,10013.,1.10852124464,4.80359206012,156.
5.94,6577.,9.,5.,3421.,0.,0.,10012.,1.1268744603,6.51083021506,117.
5.96,6574.,15.,8.,3415.,0.,0.,10012.,1.13910481283,3.94889668449,195.
5.98,6570.,15.,11.,3414.,0.,0.,10010.,1.14636391953,3.97406158769,195.
6.,6570.,19.,6.,3413.,0.,0.,10008.,1.1491820501,3.14512982132,247.
6.02,6573.,17.,5.,3413.,0.,0.,10008.,1.14711656749,3.50882714762,221.
6.04,6564.,25.,10.,3402.,0.,0.,10001.,1.13862305467,2.36833595372,325.
6.06,6559.,26.,10.,3408.,0.,0.,10003.,1.12480152694,2.24960305389,338.
6.08,6553.,28.,16.,3406.,0.,0.,10003.,1.10625310775,2.05447005726,364.
6.1,6528.,40.,13.,3419.,0.,0.,10000.,1.08039324445,1.40451121779,520.
6.12,6510.,42.,21.,3429.,0.,0.,10002.,1.0511402841,1.30141178031,546.
6.14,6494.,48.,22.,3439.,0.,0.,10003.,1.01872730107,1.10362124282,624.
6.16,6489.,38.,20.,3457.,0.,0.,10004.,0.984881086785,1.34773201349,494.
6.18,6478.,30.,28.,3467.,0.,0.,10003.,0.947665244324,1.64261975683,390.
6.2,6465.,37.,23.,3480.,0.,0.,10005.,0.90783833895,1.27588090879,481.
6.22,6453.,34.,23.,3496.,0.,0.,10006.,0.866828489038,1.32573768912,442.
6.24,6438.,34.,25.,3511.,0.,0.,10008.,0.824554755961,1.26108374441,442.
6.26,6431.,33.,18.,3526.,0.,0.,10008.,0.78329758633,1.23428710573,429.
6.28,6434.,27.,13.,3535.,0.,0.,10009.,0.743527634081,1.43197914712,351.
6.3,6433.,24.,13.,3537.,0.,0.,10007.,0.704451952483,1.52631256371,312.
6.32,6433.,17.,16.,3543.,0.,0.,10009.,0.666776898406,2.03955286571,221.
6.34,6438.,21.,9.,3543.,0.,0.,10011.,0.631765651057,1.56437208833,273.
6.36,6434.,17.,9.,3550.,0.,0.,10010.,0.598775056869,1.83154723278,221.
6.38,6432.,15.,6.,3552.,0.,0.,10005.,0.569453037487,1.97410386329,195.
6.4,6435.,11.,10.,3551.,0.,0.,10007.,0.543859364661,2.57097154203,143.
6.42,6439.,10.,1.,3552.,0.,0.,10002.,0.522803270127,2.71857700466,130.
6.44,6438.,8.,3.,3551.,0.,0.,10000.,0.505609430354,3.2864612973,104.
6.46,6442.,8.,3.,3544.,0.,0.,9997.,0.493568191164,3.20819324256,104.
6.48,6451.,6.,3.,3536.,0.,0.,9996.,0.486711735565,4.21816837489,78.
6.5,6452.,8.,1.,3533.,0.,0.,9994.,0.484338496464,3.14820022702,104.
6.52,6459.,2.,3.,3533.,0.,0.,9997.,0.487266569301,12.6689308018,26.
6.54,6467.,0.,2.,3528.,0.,0.,9997.,0.495483621896,inf,0.
6.56,6469.,1.,0.,3525.,0.,0.,9995.,0.508298169737,26.4315048263,13.
6.58,6481.,1.,0.,3515.,0.,0.,9997.,0.526476571841,27.3767817357,13.
6.6,6487.,1.,1.,3506.,0.,0.,9995.,0.548912421952,28.5434459415,13.
6.62,6499.,0.,0.,3496.,0.,0.,9995.,0.575960512637,inf,0.
6.64,6511.,0.,0.,3483.,0.,0.,9994.,0.606911087851,inf,0.
6.66,6519.,0.,0.,3473.,0.,0.,9992.,0.640930670531,inf,0.
6.68,6527.,1.,0.,3464.,0.,0.,9992.,0.677670951222,35.2388894635,13.
6.7,6530.,1.,0.,3458.,0.,0.,9989.,0.716362582953,37.2508543135,13.
6.72,6541.,1.,0.,3447.,0.,0.,9989.,0.757406247176,39.3851248531,13.
6.74,6545.,3.,0.,3442.,0.,0.,9990.,0.798619183433,13.8427325128,39.
6.76,6555.,3.,1.,3434.,0.,0.,9993.,0.840799866285,14.5738643489,39.
6.78,6561.,3.,2.,3427.,0.,0.,9993.,0.882482618292,15.2963653837,39.
6.8,6567.,4.,0.,3422.,0.,0.,9993.,0.92326891145,12.0024958489,52.
6.82,6577.,2.,2.,3414.,0.,0.,9995.,0.962918036698,25.0358689542,26.
6.84,6581.,4.,1.,3408.,0.,0.,9994.,0.999844016921,12.99797222,52.
6.86,6591.,7.,1.,3399.,0.,0.,9998.,1.03446096839,7.68456719378,91.
6.88,6597.,8.,2.,3392.,0.,0.,9999.,1.06550736928,6.92579790029,104.
6.9,6605.,9.,2.,3386.,0.,0.,10002.,1.09291826984,6.31463889241,117.
6.92,6610.,8.,3.,3381.,0.,0.,10002.,1.11598720118,7.25391680768,104.
6.94,6611.,8.,3.,3379.,0.,0.,10001.,1.13394571711,7.37064716118,104.
6.96,6606.,7.,8.,3377.,0.,0.,9998.,1.1462524183,8.51501796454,91.
6.98,6606.,8.,8.,3380.,0.,0.,10002.,1.15356729757,7.49818743419,104.
7.,6604.,15.,7.,3379.,0.,0.,10005.,1.15547547649,4.00564831849,195.
7.02,6598.,13.,15.,3378.,0.,0.,10004.,1.15193996225,4.60775984899,169.
7.04,6586.,21.,10.,3390.,0.,0.,10007.,1.14175429656,2.82720111528,273.
7.06,6586.,21.,11.,3388.,0.,0.,10006.,1.1290931249,2.79584964261,273.
7.08,6583.,24.,8.,3391.,0.,0.,10006.,1.11098440091,2.40713286863,312.
7.1,6583.,23.,14.,3385.,0.,0.,10005.,1.08895134667,2.46197695768,299.
7.12,6574.,26.,13.,3390.,0.,0.,10003.,1.06136795934,2.12273591867,338.
7.14,6560.,22.,18.,3401.,0.,0.,10001.,1.02928665408,2.43285936419,286.
7.16,6552.,23.,14.,3414.,0.,0.,10003.,0.994542453563,2.24853076458,299.
7.18,6539.,21.,16.,3422.,0.,0.,9998.,0.957067311509,2.36988096183,273.
7.2,6521.,30.,14.,3432.,0.,0.,9997.,0.916434839995,1.58848705599,390.
7.22,6518.,24.,20.,3439.,0.,0.,10001.,0.87599764499,1.89799489748,312.
7.24,6506.,31.,16.,3448.,0.,0.,10001.,0.833847165901,1.39871137506,403.
7.26,6504.,29.,13.,3458.,0.,0.,10004.,0.79250575551,1.42104480298,377.
7.28,6503.,24.,11.,3465.,0.,0.,10003.,0.751952196221,1.62922975848,312.
7.3,6503.,22.,8.,3470.,0.,0.,10003.,0.71240213242,1.68385958572,286.
7.32,6505.,18.,10.,3469.,0.,0.,10002.,0.674711532042,1.94916664812,234.
7.34,6505.,22.,8.,3467.,0.,0.,10002.,0.638914801576,1.51016225827,286.
7.36,6510.,14.,3.,3476.,0.,0.,10003.,0.606271902364,2.25186706592,182.
7.38,6523.,12.,2.,3467.,0.,0.,10004.,0.577567392603,2.50279203461,156.
7.4,6527.,6.,6.,3462.,0.,0.,10001.,0.551965768799,4.78370332959,78.
7.42,6533.,9.,1.,3460.,0.,0.,10003.,0.530382407019,3.064431685,117.
7.44,6538.,11.,1.,3458.,0.,0.,10008.,0.513052505441,2.42533911663,143.
7.46,6538.,7.,5.,3457.,0.,0.,10007.,0.500422872133,3.71742705013,91.
7.48,6544.,12.,6.,3450.,0.,0.,10012.,0.492939333271,2.13607044417,156.
7.5,6549.,5.,12.,3444.,0.,0.,10010.,0.490834282527,5.10467653828,65.
7.52,6555.,2.,6.,3449.,0.,0.,10012.,0.493767929338,12.8379661628,26.
7.54,6552.,3.,4.,3450.,0.,0.,10009.,0.501394232752,8.69083336769,39.
7.56,6568.,3.,1.,3437.,0.,0.,10009.,0.515355182908,8.93282317041,39.
7.58,6578.,0.,2.,3436.,0.,0.,10016.,0.533342600104,inf,0.
7.6,6582.,0.,0.,3431.,0.,0.,10013.,0.555949855062,inf,0.
7.62,6589.,0.,0.,3424.,0.,0.,10013.,0.582886856389,inf,0.
7.64,6598.,0.,0.,3420.,0.,0.,10018.,0.613547238075,inf,0.
7.66,6609.,0.,0.,3409.,0.,0.,10018.,0.648092839683,inf,0.
7.68,6614.,0.,0.,3403.,0.,0.,10017.,0.684989949267,inf,0.
7.7,6619.,0.,0.,3392.,0.,0.,10011.,0.72453045482,inf,0.
7.72,6625.,0.,0.,3387.,0.,0.,10012.,0.765370622599,inf,0.
7.74,6632.,0.,0.,3379.,0.,0.,10011.,0.807537374602,inf,0.
7.76,6638.,1.,0.,3372.,0.,0.,10011.,0.849915230811,44.1955920022,13.
7.78,6654.,1.,0.,3361.,0.,0.,10016.,0.892936324678,46.4326888833,13.
7.8,6655.,4.,0.,3357.,0.,0.,10016.,0.93349248747,12.1354023371,52.
7.82,6665.,3.,4.,3348.,0.,0.,10020.,0.973367206629,16.8716982482,39.
7.84,6671.,2.,4.,3338.,0.,0.,10015.,1.01139241771,26.2962028605,26.
7.86,6671.,5.,5.,3333.,0.,0.,10014.,1.04534412592,10.8715789096,65.
7.88,6670.,9.,2.,3333.,0.,0.,10014.,1.0756841982,6.21506425628,117.
7.9,6668.,10.,2.,3333.,0.,0.,10013.,1.10213067284,5.73107949874,130.
7.92,6670.,11.,3.,3330.,0.,0.,10014.,1.12476773951,5.31708385949,143.
7.94,6671.,11.,2.,3327.,0.,0.,10011.,1.14309418224,5.40371795241,143.
7.96,6673.,12.,7.,3319.,0.,0.,10011.,1.15637446082,5.01095599691,156.
7.98,6667.,13.,7.,3322.,0.,0.,10009.,1.16340515146,4.65362060583,169.
8.,6674.,13.,7.,3317.,0.,0.,10011.,1.16702323261,4.66809293045,169.
8.02,6676.,19.,9.,3310.,0.,0.,10014.,1.16439399639,3.18676251645,247.
8.04,6673.,18.,15.,3306.,0.,0.,10012.,1.15625896198,3.34030366793,234.
8.06,6671.,22.,10.,3310.,0.,0.,10013.,1.14286586022,2.70131930598,286.
8.08,6668.,22.,12.,3311.,0.,0.,10013.,1.12454277488,2.65801019517,286.
8.1,6659.,31.,13.,3311.,0.,0.,10014.,1.10053318351,1.84605566266,403.
8.12,6647.,33.,16.,3318.,0.,0.,10014.,1.07197494235,1.68917263642,429.
8.14,6640.,37.,12.,3324.,0.,0.,10013.,1.04059034679,1.46245129819,481.
8.16,6631.,40.,11.,3331.,0.,0.,10013.,1.00552880963,1.30718745252,520.
8.18,6626.,37.,16.,3337.,0.,0.,10016.,0.968058034878,1.36051399496,481.
8.2,6619.,31.,19.,3348.,0.,0.,10017.,0.928350104357,1.55723243312,403.
8.22,6609.,31.,20.,3357.,0.,0.,10017.,0.886808991542,1.48755056646,403.
8.24,6595.,33.,26.,3364.,0.,0.,10018.,0.843819578697,1.3296550937,429.
8.26,6574.,38.,14.,3389.,0.,0.,10015.,0.800155365024,1.09494944687,494.
8.28,6565.,34.,20.,3399.,0.,0.,10018.,0.757984718395,1.15927074578,442.
8.3,6560.,30.,14.,3412.,0.,0.,10016.,0.717713721105,1.24403711658,390.
8.32,6559.,26.,10.,3421.,0.,0.,10016.,0.679361603333,1.35872320667,338.
8.34,6559.,21.,13.,3427.,0.,0.,10020.,0.643061350316,1.59234239126,273.
8.36,6562.,22.,11.,3426.,0.,0.,10021.,0.61001692608,1.44185818892,286.
8.38,6561.,22.,13.,3426.,0.,0.,10022.,0.579888652558,1.37064590605,286.
8.4,6566.,16.,7.,3432.,0.,0.,10021.,0.554155663127,1.80100590516,208.
8.42,6570.,13.,5.,3432.,0.,0.,10020.,0.532481309819,2.12992523927,169.
8.44,6577.,10.,8.,3426.,0.,0.,10021.,0.515443387997,2.68030561758,130.
8.46,6576.,10.,9.,3426.,0.,0.,10021.,0.502628230137,2.61366679671,130.
8.48,6577.,11.,2.,3432.,0.,0.,10022.,0.494930783895,2.33967279659,143.
8.5,6587.,4.,6.,3425.,0.,0.,10022.,0.493091187238,6.41018543409,52.
8.52,6595.,2.,6.,3418.,0.,0.,10021.,0.496334839991,12.9047058398,26.
8.54,6600.,0.,4.,3419.,0.,0.,10023.,0.504361978728,inf,0.
8.56,6607.,0.,0.,3413.,0.,0.,10020.,0.517846181875,inf,0.
8.58,6616.,0.,0.,3406.,0.,0.,10022.,0.536102482977,inf,0.
8.6,6624.,0.,0.,3401.,0.,0.,10025.,0.558827670314,inf,0.
8.62,6629.,1.,0.,3396.,0.,0.,10026.,0.585665025535,30.4545813278,13.
8.64,6634.,1.,0.,3390.,0.,0.,10025.,0.61646412427,32.0561344621,13.
8.66,6642.,0.,0.,3383.,0.,0.,10025.,0.650874097844,inf,0.
8.68,6650.,0.,0.,3374.,0.,0.,10024.,0.688237400786,inf,0.
8.7,6655.,0.,0.,3367.,0.,0.,10022.,0.727671535678,inf,0.
8.72,6666.,0.,0.,3358.,0.,0.,10024.,0.769185339778,inf,0.
8.74,6675.,0.,0.,3349.,0.,0.,10024.,0.811719141648,inf,0.
8.76,6680.,0.,0.,3344.,0.,0.,10024.,0.854183601859,inf,0.
8.78,6685.,1.,1.,3338.,0.,0.,10025.,0.896291009387,46.6071324881,13.
8.8,6688.,3.,1.,3332.,0.,0.,10024.,0.937372675617,16.247793044,39.
8.82,6695.,3.,2.,3322.,0.,0.,10022.,0.977553333945,16.9442577884,39.
8.84,6698.,6.,3.,3314.,0.,0.,10021.,1.01487788154,8.79560830664,78.
8.86,6697.,6.,5.,3313.,0.,0.,10021.,1.04868526637,9.0886056419,78.
8.88,6697.,8.,2.,3312.,0.,0.,10019.,1.07949954685,7.01674705454,104.
8.9,6700.,5.,8.,3308.,0.,0.,10021.,1.10653576292,11.5079719344,65.
8.92,6701.,9.,4.,3313.,0.,0.,10027.,1.12853025744,6.52039704297,117.
8.94,6701.,8.,7.,3308.,0.,0.,10024.,1.1467456334,7.45384661712,104.
8.96,6697.,17.,6.,3303.,0.,0.,10023.,1.15914401341,3.54561698219,221.
8.98,6703.,17.,2.,3301.,0.,0.,10023.,1.16805342081,3.57286928717,221.
9.,6699.,16.,8.,3298.,0.,0.,10021.,1.17022582107,3.80323391846,208.
9.02,6697.,19.,9.,3298.,0.,0.,10023.,1.16700787097,3.19391627846,247.
9.04,6693.,23.,13.,3295.,0.,0.,10024.,1.15833610933,2.61884685587,299.
9.06,6684.,27.,12.,3297.,0.,0.,10020.,1.14429303584,2.20382362458,351.
9.08,6677.,23.,15.,3305.,0.,0.,10020.,1.12527393497,2.54409759212,299.
9.1,6670.,25.,17.,3309.,0.,0.,10021.,1.10158112518,2.29128874037,325.
9.12,6653.,38.,11.,3320.,0.,0.,10022.,1.07208610448,1.46706519561,494.
9.14,6643.,35.,13.,3330.,0.,0.,10021.,1.04022938995,1.54548366507,455.
9.16,6640.,30.,20.,3332.,0.,0.,10022.,1.00598936007,1.74371489079,390.
9.18,6622.,41.,14.,3345.,0.,0.,10022.,0.9668944253,1.22630512477,533.
9.2,6612.,35.,15.,3358.,0.,0.,10020.,0.927090661783,1.37739184036,455.
9.22,6606.,36.,18.,3360.,0.,0.,10020.,0.886141054321,1.27998152291,468.
9.24,6598.,28.,16.,3379.,0.,0.,10021.,0.843950693549,1.56733700231,364.
9.26,6589.,32.,20.,3379.,0.,0.,10020.,0.801580902037,1.30256896581,416.
9.28,6588.,31.,15.,3388.,0.,0.,10022.,0.760336674513,1.27540345402,403.
9.3,6583.,20.,18.,3398.,0.,0.,10019.,0.720014436156,1.87203753401,260.
9.32,6580.,26.,17.,3401.,0.,0.,10024.,0.680992796567,1.36198559313,338.
9.34,6581.,25.,14.,3404.,0.,0.,10024.,0.644960817916,1.34151850127,325.
9.36,6581.,23.,10.,3409.,0.,0.,10023.,0.611661129031,1.38288603085,299.
9.38,6580.,17.,16.,3411.,0.,0.,10024.,0.58145191701,1.77855880497,221.
9.4,6585.,17.,5.,3416.,0.,0.,10023.,0.555648323701,1.69963016662,221.
9.42,6587.,16.,4.,3414.,0.,0.,10021.,0.533805841303,1.73486898423,208.
9.44,6590.,8.,9.,3413.,0.,0.,10020.,0.516513748836,3.35733936743,104.
9.46,6594.,6.,4.,3417.,0.,0.,10021.,0.504004037336,4.36803499025,78.
9.48,6595.,5.,2.,3412.,0.,0.,10014.,0.496681788651,5.16549060197,65.
9.5,6598.,4.,0.,3411.,0.,0.,10013.,0.494358573847,6.42666146,52.
9.52,6602.,0.,4.,3405.,0.,0.,10011.,0.49735797054,inf,0.
9.54,6614.,0.,0.,3400.,0.,0.,10014.,0.505886090171,inf,0.
9.56,6631.,0.,0.,3384.,0.,0.,10015.,0.519986738233,inf,0.
9.58,6638.,0.,0.,3376.,0.,0.,10014.,0.538314876136,inf,0.
9.6,6647.,0.,0.,3367.,0.,0.,10014.,0.561384026642,inf,0.
9.62,6652.,0.,0.,3363.,0.,0.,10015.,0.588342549324,inf,0.
9.64,6653.,1.,0.,3357.,0.,0.,10011.,0.619094268887,32.1929019821,13.
9.66,6662.,2.,0.,3345.,0.,0.,10009.,0.653877566789,17.0008167365,26.
9.68,6669.,1.,1.,3336.,0.,0.,10007.,0.69137631904,35.9515685901,13.
9.7,6675.,0.,1.,3331.,0.,0.,10007.,0.730952399009,inf,0.
9.72,6683.,0.,0.,3323.,0.,0.,10006.,0.772534190742,inf,0.
9.74,6697.,0.,0.,3310.,0.,0.,10007.,0.815777972803,inf,0.
9.76,6701.,0.,0.,3303.,0.,0.,10004.,0.858581962187,inf,0.
9.78,6704.,1.,0.,3295.,0.,0.,10000.,0.901085529431,46.8564475304,13.
9.8,6719.,1.,0.,3279.,0.,0.,9999.,0.944072084285,49.0917483828,13.
9.82,6723.,3.,0.,3272.,0.,0.,9998.,0.983998093787,17.055966959,39.
9.84,6729.,2.,2.,3266.,0.,0.,9999.,1.02181827659,26.5672751913,26.
9.86,6744.,4.,0.,3256.,0.,0.,10004.,1.05783956936,13.7519144017,52.
9.88,6751.,4.,0.,3248.,0.,0.,10003.,1.08994449247,14.1692784021,52.
9.9,6758.,4.,1.,3238.,0.,0.,10001.,1.11834673549,14.5385075613,52.
9.92,6757.,8.,1.,3232.,0.,0.,9998.,1.14126208956,7.41820358212,104.
9.94,6758.,8.,2.,3228.,0.,0.,9996.,1.15973956921,7.53830719985,104.
9.96,6758.,10.,4.,3221.,0.,0.,9993.,1.17321370617,6.10071127207,130.
9.98,6753.,14.,6.,3221.,0.,0.,9994.,1.18018100725,4.38352945551,182.
10.,6755.,14.,6.,3220.,0.,0.,9995.,1.18307782936,4.39428908047,182.
