t,s,e,i,r,c,o,n,reff,coal,reportr
5.,9122.,16.,8.,854.,0.,0.,10000.,1.18230722255,3.84249847327,208.
5.02,9122.,15.,9.,859.,0.,0.,10005.,1.17905402537,4.08738728793,195.
5.04,9116.,17.,11.,864.,0.,0.,10008.,1.16998787657,3.57878644599,221.
5.06,9105.,21.,10.,870.,0.,0.,10006.,1.15573296413,2.86181495879,273.
5.08,9093.,20.,20.,874.,0.,0.,10007.,1.1361022232,2.95386578032,260.
5.1,9075.,26.,10.,892.,0.,0.,10003.,1.11169996731,2.22339993462,338.
5.12,9060.,24.,15.,903.,0.,0.,10002.,1.08312206516,2.34676447451,312.
5.14,9035.,38.,14.,915.,0.,0.,10002.,1.0495104085,1.43617213795,494.
5.16,9021.,33.,18.,931.,0.,0.,10003.,1.01384983364,1.59758155604,429.
5.18,9000.,37.,20.,945.,0.,0.,10002.,0.974921058383,1.3701593253,481.
5.2,8978.,45.,17.,961.,0.,0.,10001.,0.93381913923,1.07907989422,585.
5.22,8963.,41.,15.,982.,0.,0.,10001.,0.891890406888,1.13117807703,533.
5.24,8957.,31.,19.,995.,0.,0.,10002.,0.849886759051,1.42561649905,403.
5.26,8946.,31.,17.,1009.,0.,0.,10003.,0.807167587704,1.35395853421,403.
5.28,8926.,35.,18.,1021.,0.,0.,10000.,0.764421939597,1.13571259597,455.
5.3,8914.,31.,16.,1041.,0.,0.,10002.,0.723097764494,1.2129381856,403.
5.32,8903.,28.,24.,1048.,0.,0.,10003.,0.683649185588,1.26963420181,364.
5.34,8891.,26.,20.,1066.,0.,0.,10003.,0.646505693654,1.29301138731,338.
5.36,8883.,24.,14.,1080.,0.,0.,10001.,0.612635939025,1.32737786789,312.
5.38,8875.,16.,15.,1092.,0.,0.,9998.,0.582175217594,1.89206945718,208.
5.4,8869.,16.,10.,1102.,0.,0.,9997.,0.555541409209,1.80550957993,208.
5.42,8867.,14.,7.,1108.,0.,0.,9996.,0.533367679684,1.98107995311,182.
5.44,8870.,7.,7.,1113.,0.,0.,9997.,0.515926261497,3.8325950854,91.
5.46,8878.,5.,5.,1117.,0.,0.,10005.,0.503226723808,5.23355792761,65.
5.48,8878.,7.,0.,1120.,0.,0.,10005.,0.495494211292,3.68081414103,91.
5.5,8879.,5.,2.,1119.,0.,0.,10005.,0.492958605531,5.12676949752,65.
5.52,8880.,2.,4.,1117.,0.,0.,10003.,0.495704925667,12.8883280674,26.
5.54,8883.,3.,2.,1114.,0.,0.,10002.,0.503661158857,8.73012675352,39.
5.56,8893.,3.,0.,1111.,0.,0.,10007.,0.516747161296,8.95695079579,39.
5.58,8894.,2.,1.,1107.,0.,0.,10004.,0.534563961069,13.8986629878,26.
5.6,8895.,1.,1.,1108.,0.,0.,10005.,0.556724498577,28.949673926,13.
5.62,8892.,1.,1.,1108.,0.,0.,10002.,0.58305710063,30.3189692327,13.
5.64,8895.,0.,0.,1108.,0.,0.,10003.,0.61334088992,inf,0.
5.66,8893.,0.,0.,1107.,0.,0.,10000.,0.646845118233,inf,0.
5.68,8894.,1.,0.,1105.,0.,0.,10000.,0.683162975331,35.5244747172,13.
5.7,8896.,1.,0.,1104.,0.,0.,10001.,0.721709772985,37.5289081952,13.
5.72,8896.,1.,0.,1104.,0.,0.,10001.,0.761776564294,39.6123813433,13.
5.74,8900.,0.,1.,1101.,0.,0.,10002.,0.803097447582,inf,0.
5.76,8899.,2.,0.,1101.,0.,0.,10002.,0.844383417304,21.9539688499,26.
5.78,8903.,1.,2.,1098.,0.,0.,10004.,0.88565425582,46.0540213026,13.
5.8,8903.,1.,1.,1099.,0.,0.,10004.,0.92574054982,48.1385085906,13.
5.82,8902.,0.,3.,1099.,0.,0.,10004.,0.964112467366,inf,0.
5.84,8903.,2.,2.,1098.,0.,0.,10005.,1.00038806231,26.01008962,26.
5.86,8900.,6.,2.,1098.,0.,0.,10006.,1.03341545313,8.95626726043,78.
5.88,8899.,8.,3.,1096.,0.,0.,10006.,1.06344923713,6.91242004138,104.
5.9,8898.,9.,2.,1098.,0.,0.,10007.,1.08958152225,6.29535990631,117.
5.92,8897.,8.,4.,1098.,0.,0.,10007.,1.11161349167,7.22548769588,104.
5.94,8894.,11.,5.,1100.,0.,0.,10010.,1.12849878692,5.33472153816,143.
5.96,8889.,13.,2.,1104.,0.,0.,10008.,1.14085368965,4.56341475861,169.
5.98,8888.,10.,6.,1105.,0.,0.,10009.,1.14834950381,5.97141741983,130.
6.,8880.,14.,10.,1107.,0.,0.,10011.,1.14967683062,4.27022822803,182.
6.02,8873.,17.,12.,1109.,0.,0.,10011.,1.14618243986,3.50596981605,221.
6.04,8867.,16.,10.,1118.,0.,0.,10011.,1.13768907817,3.69748950405,208.
6.06,8852.,24.,11.,1122.,0.,0.,10009.,1.12328191035,2.43377747243,312.
6.08,8842.,22.,15.,1132.,0.,0.,10011.,1.10430024264,2.61016420987,286.
6.1,8820.,35.,13.,1142.,0.,0.,10010.,1.07970654907,1.60413544434,455.
6.12,8809.,32.,12.,1157.,0.,0.,10010.,1.05227339067,1.70994425985,416.
6.14,8791.,35.,10.,1171.,0.,0.,10007.,1.02065701218,1.51640470381,455.
6.16,8779.,26.,23.,1175.,0.,0.,10003.,0.986651999728,1.97330399946,338.
6.18,8761.,31.,17.,1187.,0.,0.,9996.,0.949601134807,1.5928793229,403.
6.2,8748.,36.,16.,1202.,0.,0.,10002.,0.909805423073,1.31416338888,468.
6.22,8719.,41.,29.,1214.,0.,0.,10003.,0.867436979316,1.10016397377,533.
6.24,8710.,43.,12.,1239.,0.,0.,10004.,0.826284890093,0.999228239183,559.
6.26,8705.,33.,19.,1244.,0.,0.,10001.,0.785580034565,1.23788369083,429.
6.28,8695.,31.,16.,1260.,0.,0.,10002.,0.744490219679,1.24882230398,403.
6.3,8685.,36.,16.,1268.,0.,0.,10005.,0.704310185658,1.01733693484,468.
6.32,8673.,29.,15.,1289.,0.,0.,10006.,0.665788123826,1.19382698065,377.
6.34,8663.,29.,16.,1300.,0.,0.,10008.,0.629612048498,1.12895953524,377.
6.36,8661.,23.,12.,1314.,0.,0.,10010.,0.596788157456,1.34926018207,299.
6.38,8655.,15.,7.,1334.,0.,0.,10011.,0.567006575919,1.96562279652,195.
6.4,8653.,17.,2.,1340.,0.,0.,10012.,0.54119943698,1.65543357194,221.
6.42,8654.,11.,8.,1340.,0.,0.,10013.,0.519671511103,2.45662896158,143.
6.44,8651.,8.,7.,1345.,0.,0.,10011.,0.502484370325,3.26614840711,104.
6.46,8650.,8.,8.,1347.,0.,0.,10013.,0.489911393688,3.18442405897,104.
6.48,8646.,2.,10.,1351.,0.,0.,10009.,0.482353105938,12.5411807544,26.
6.5,8641.,10.,3.,1356.,0.,0.,10010.,0.479505305827,2.4934275903,130.
6.52,8640.,6.,2.,1360.,0.,0.,10008.,0.482066534265,4.17790996363,78.
6.54,8641.,5.,3.,1362.,0.,0.,10011.,0.489499432072,5.09079409355,65.
6.56,8644.,2.,1.,1365.,0.,0.,10012.,0.502027634977,13.0527185094,26.
6.58,8649.,1.,1.,1363.,0.,0.,10014.,0.519319397274,27.0046086583,13.
6.6,8652.,2.,0.,1362.,0.,0.,10016.,0.54092078328,14.0639403653,26.
6.62,8654.,2.,0.,1361.,0.,0.,10017.,0.566601476554,14.7316383904,26.
6.64,8661.,0.,1.,1358.,0.,0.,10020.,0.596192560492,inf,0.
6.66,8664.,0.,0.,1357.,0.,0.,10021.,0.628867852083,inf,0.
6.68,8666.,0.,0.,1355.,0.,0.,10021.,0.664254979567,inf,0.
6.7,8671.,0.,0.,1353.,0.,0.,10024.,0.701842022054,inf,0.
6.72,8672.,0.,0.,1350.,0.,0.,10022.,0.741039113478,inf,0.
6.74,8675.,0.,0.,1346.,0.,0.,10021.,0.781310229624,inf,0.
6.76,8679.,1.,0.,1338.,0.,0.,10018.,0.822193426315,42.7540581684,13.
6.78,8682.,0.,1.,1337.,0.,0.,10020.,0.862290464464,inf,0.
6.8,8676.,1.,2.,1335.,0.,0.,10014.,0.901236045593,46.8642743709,13.
6.82,8671.,2.,2.,1334.,0.,0.,10009.,0.938625371093,24.4042596484,26.
6.84,8676.,2.,1.,1331.,0.,0.,10010.,0.97439419078,25.3342489603,26.
6.86,8674.,5.,1.,1329.,0.,0.,10009.,1.00687178706,10.4714665854,65.
6.88,8675.,4.,3.,1327.,0.,0.,10009.,1.03637004092,13.4728105319,52.
6.9,8669.,8.,2.,1327.,0.,0.,10006.,1.06164601126,6.90069907317,104.
6.92,8666.,9.,2.,1331.,0.,0.,10008.,1.08264358375,6.25527403946,117.
6.94,8665.,5.,6.,1332.,0.,0.,10008.,1.099662257,11.4364874728,65.
6.96,8657.,11.,9.,1331.,0.,0.,10008.,1.11107778055,5.25236768988,143.
6.98,8649.,10.,13.,1337.,0.,0.,10009.,1.1174701686,5.8108448767,130.
7.,8637.,20.,6.,1347.,0.,0.,10010.,1.11832778941,2.90765225248,260.
7.02,8631.,16.,10.,1354.,0.,0.,10011.,1.11492174444,3.62349566944,208.
7.04,8622.,23.,10.,1358.,0.,0.,10013.,1.10603315078,2.50059668873,299.
7.06,8613.,17.,18.,1366.,0.,0.,10014.,1.09240809345,3.34148357997,221.
7.08,8602.,24.,15.,1374.,0.,0.,10015.,1.07389693529,2.32677669314,312.
7.1,8588.,30.,14.,1387.,0.,0.,10019.,1.05036172353,1.82062698745,390.
7.12,8570.,36.,20.,1395.,0.,0.,10021.,1.02260006411,1.47708898149,468.
7.14,8561.,33.,11.,1413.,0.,0.,10018.,0.992862054598,1.56450990422,429.
7.16,8556.,25.,16.,1422.,0.,0.,10019.,0.960053907375,1.99691212734,325.
7.18,8541.,29.,21.,1428.,0.,0.,10019.,0.923630226991,1.65616454495,377.
7.2,8515.,41.,19.,1445.,0.,0.,10020.,0.883982215736,1.12114817605,533.
7.22,8498.,39.,21.,1459.,0.,0.,10017.,0.844268481861,1.12569130915,507.
7.24,8475.,40.,20.,1483.,0.,0.,10018.,0.802867759883,1.04372808785,520.
7.26,8460.,31.,26.,1499.,0.,0.,10016.,0.76232670956,1.27874157733,403.
7.28,8448.,29.,20.,1522.,0.,0.,10019.,0.722114040428,1.29482517594,377.
7.3,8446.,27.,13.,1537.,0.,0.,10023.,0.68369843545,1.31675254235,351.
7.32,8445.,24.,14.,1537.,0.,0.,10020.,0.647379776839,1.40265618315,312.
7.34,8436.,26.,15.,1543.,0.,0.,10020.,0.612379807731,1.22475961546,338.
7.36,8430.,23.,7.,1560.,0.,0.,10020.,0.580291338754,1.31196302675,299.
7.38,8430.,14.,12.,1567.,0.,0.,10023.,0.551605171419,2.04881920813,182.
7.4,8423.,12.,7.,1578.,0.,0.,10020.,0.526393541948,2.28103868177,156.
7.42,8424.,8.,9.,1580.,0.,0.,10021.,0.505456202731,3.28546531775,104.
7.44,8426.,8.,2.,1584.,0.,0.,10020.,0.488975883742,3.17834324432,104.
7.46,8423.,9.,0.,1585.,0.,0.,10017.,0.476864261369,2.75521573235,117.
7.48,8421.,3.,5.,1586.,0.,0.,10015.,0.469519086055,8.13833082496,39.
7.5,8425.,3.,3.,1582.,0.,0.,10013.,0.467378986856,8.10123577216,39.
7.52,8427.,1.,2.,1579.,0.,0.,10009.,0.470135279175,24.4470345171,13.
7.54,8434.,0.,2.,1573.,0.,0.,10009.,0.477868667433,inf,0.
7.56,8434.,0.,0.,1572.,0.,0.,10006.,0.490124943392,inf,0.
7.58,8437.,0.,0.,1569.,0.,0.,10006.,0.506995126737,inf,0.
7.6,8439.,0.,0.,1566.,0.,0.,10005.,0.528184153287,inf,0.
7.62,8446.,0.,0.,1558.,0.,0.,10004.,0.553701728033,inf,0.
7.64,8453.,0.,0.,1553.,0.,0.,10006.,0.582688713209,inf,0.
7.66,8465.,0.,0.,1545.,0.,0.,10010.,0.615098825142,inf,0.
7.68,8469.,0.,0.,1542.,0.,0.,10011.,0.649803232869,inf,0.
7.7,8474.,0.,0.,1537.,0.,0.,10011.,0.68678727154,inf,0.
7.72,8480.,0.,0.,1533.,0.,0.,10013.,0.725283665828,inf,0.
7.74,8486.,0.,0.,1528.,0.,0.,10014.,0.764822277707,inf,0.
7.76,8487.,1.,0.,1526.,0.,0.,10014.,0.804325716003,41.8249372321,13.
7.78,8493.,1.,0.,1522.,0.,0.,10016.,0.843855978846,43.8805109,13.
7.8,8496.,1.,0.,1519.,0.,0.,10016.,0.882361976644,45.8828227855,13.
7.82,8504.,1.,0.,1513.,0.,0.,10018.,0.919720816555,47.8254824609,13.
7.84,8502.,3.,1.,1510.,0.,0.,10016.,0.954280402327,16.540860307,39.
7.86,8499.,5.,1.,1509.,0.,0.,10014.,0.986065321459,10.2550793432,65.
7.88,8505.,7.,2.,1507.,0.,0.,10021.,1.01484405429,7.53884154612,91.
7.9,8508.,6.,4.,1507.,0.,0.,10025.,1.03995447468,9.01293878054,78.
7.92,8507.,7.,2.,1507.,0.,0.,10023.,1.06118919862,7.88311976121,91.
7.94,8507.,10.,3.,1504.,0.,0.,10024.,1.07788747073,5.60501484781,130.
7.96,8501.,13.,3.,1505.,0.,0.,10022.,1.08953192318,4.35812769271,169.
7.98,8499.,14.,3.,1506.,0.,0.,10022.,1.09666544955,4.0733288126,182.
8.,8497.,11.,8.,1505.,0.,0.,10021.,1.0989927587,5.19523849569,143.
8.02,8483.,16.,13.,1507.,0.,0.,10019.,1.09492865275,3.55851812144,208.
8.04,8476.,24.,8.,1512.,0.,0.,10020.,1.08654462637,2.35418002381,312.
8.06,8469.,22.,10.,1518.,0.,0.,10019.,1.07360816367,2.53761929596,286.
8.08,8445.,30.,16.,1527.,0.,0.,10018.,1.05398091016,1.82690024427,390.
8.1,8430.,37.,15.,1536.,0.,0.,10018.,1.03114033457,1.44917019994,481.
8.12,8416.,41.,16.,1544.,0.,0.,10017.,1.00462529499,1.27415891072,533.
8.14,8412.,34.,24.,1553.,0.,0.,10023.,0.975095106668,1.49132192785,442.
8.16,8393.,36.,13.,1582.,0.,0.,10024.,0.941294205762,1.3596471861,468.
8.18,8372.,38.,21.,1587.,0.,0.,10018.,0.905444811407,1.23902974193,494.
8.2,8349.,40.,17.,1611.,0.,0.,10017.,0.867008558054,1.12711112547,520.
8.22,8338.,38.,17.,1626.,0.,0.,10019.,0.828207268719,1.13333626246,494.
8.24,8337.,27.,22.,1633.,0.,0.,10019.,0.789715685268,1.52093391237,351.
8.26,8326.,28.,17.,1650.,0.,0.,10021.,0.74987769128,1.39262999809,364.
8.28,8330.,26.,7.,1661.,0.,0.,10024.,0.711672532286,1.42334506457,338.
8.3,8328.,18.,12.,1664.,0.,0.,10022.,0.674213675656,1.94772839634,234.
8.32,8321.,23.,7.,1668.,0.,0.,10019.,0.637937807724,1.44229417398,299.
8.34,8321.,17.,14.,1672.,0.,0.,10024.,0.603790779428,1.84688944296,221.
8.36,8313.,22.,8.,1680.,0.,0.,10023.,0.572066195895,1.35215646302,286.
8.38,8320.,13.,6.,1687.,0.,0.,10026.,0.544244577712,2.17697831085,169.
8.4,8315.,14.,2.,1692.,0.,0.,10023.,0.51948857008,1.92952897458,182.
8.42,8316.,12.,3.,1692.,0.,0.,10023.,0.498876428807,2.16179785816,156.
8.44,8317.,8.,3.,1693.,0.,0.,10021.,0.48260225446,3.13691465399,104.
8.46,8317.,3.,7.,1694.,0.,0.,10021.,0.470675169691,8.15836960798,39.
8.48,8315.,4.,0.,1703.,0.,0.,10022.,0.463285163728,6.02270712846,52.
8.5,8316.,4.,2.,1701.,0.,0.,10023.,0.460871910978,5.99133484271,52.
8.52,8310.,3.,3.,1702.,0.,0.,10018.,0.463191449611,8.02865179326,39.
8.54,8310.,4.,0.,1704.,0.,0.,10018.,0.47041985632,6.11545813217,52.
8.56,8319.,2.,1.,1700.,0.,0.,10022.,0.482670140597,12.5494236555,26.
8.58,8323.,1.,0.,1700.,0.,0.,10024.,0.499246548369,25.9608205152,13.
8.6,8335.,1.,0.,1693.,0.,0.,10029.,0.520426552204,27.0621807146,13.
8.62,8339.,1.,0.,1688.,0.,0.,10028.,0.545378651066,28.3596898554,13.
8.64,8338.,2.,0.,1683.,0.,0.,10023.,0.573786592249,14.9184513985,26.
8.66,8341.,1.,1.,1680.,0.,0.,10023.,0.605302410458,31.4757253438,13.
8.68,8343.,1.,0.,1681.,0.,0.,10025.,0.639241642149,33.2405653918,13.
8.7,8344.,1.,1.,1680.,0.,0.,10026.,0.675239492027,35.1124535854,13.
8.72,8347.,1.,0.,1677.,0.,0.,10025.,0.713053790553,37.0787971088,13.
8.74,8355.,1.,1.,1671.,0.,0.,10028.,0.75196429216,39.1021431923,13.
8.76,8366.,1.,0.,1662.,0.,0.,10029.,0.791672515981,41.166970831,13.
8.78,8372.,1.,1.,1659.,0.,0.,10033.,0.830424074182,43.1820518575,13.
8.8,8379.,2.,0.,1656.,0.,0.,10037.,0.868390099277,22.5781425812,26.
8.82,8382.,3.,0.,1652.,0.,0.,10037.,0.904810276314,15.6833781228,39.
8.84,8386.,2.,1.,1649.,0.,0.,10038.,0.939197411474,24.4191326983,26.
8.86,8389.,4.,0.,1645.,0.,0.,10038.,0.97097589045,12.6226865759,52.
8.88,8390.,4.,0.,1645.,0.,0.,10039.,0.999326864247,12.9912492352,52.
8.9,8387.,2.,2.,1642.,0.,0.,10033.,1.02434690305,26.6330194794,26.
8.92,8384.,5.,3.,1638.,0.,0.,10030.,1.04511590008,10.8692053608,65.
8.94,8383.,5.,5.,1637.,0.,0.,10030.,1.06154053424,11.0400215561,65.
8.96,8380.,7.,7.,1638.,0.,0.,10032.,1.07295334224,7.97051054237,91.
8.98,8371.,13.,6.,1640.,0.,0.,10030.,1.07928748035,4.31714992141,169.
9.,8371.,7.,12.,1641.,0.,0.,10031.,1.08161670537,8.0348669542,91.
9.02,8365.,13.,9.,1645.,0.,0.,10032.,1.07829887526,4.31319550105,169.
9.04,8355.,23.,7.,1646.,0.,0.,10031.,1.06985905209,2.41881176995,299.
9.06,8349.,20.,10.,1651.,0.,0.,10030.,1.05723510919,2.7488112839,260.
9.08,8328.,23.,10.,1663.,0.,0.,10024.,1.03875655386,2.3484930783,299.
9.1,8317.,25.,12.,1671.,0.,0.,10025.,1.01660805899,2.1145447627,325.
9.12,8309.,23.,13.,1678.,0.,0.,10023.,0.991258865278,2.24110699976,299.
9.14,8292.,32.,14.,1686.,0.,0.,10024.,0.961089159712,1.56176988453,416.
9.16,8283.,32.,15.,1697.,0.,0.,10027.,0.928679516587,1.50910421445,416.
9.18,8271.,26.,19.,1705.,0.,0.,10021.,0.894253710353,1.78850742071,338.
9.2,8257.,32.,15.,1720.,0.,0.,10024.,0.856855963496,1.39239094068,416.
9.22,8249.,33.,14.,1729.,0.,0.,10025.,0.818876571465,1.2903509611,429.
9.24,8235.,28.,21.,1738.,0.,0.,10022.,0.779820314063,1.44823772612,364.
9.26,8225.,30.,18.,1750.,0.,0.,10023.,0.740633352465,1.28376447761,390.
9.28,8225.,24.,20.,1758.,0.,0.,10027.,0.702491627209,1.52206519229,312.
9.3,8212.,19.,23.,1772.,0.,0.,10026.,0.664557371587,1.81878859592,247.
9.32,8200.,22.,17.,1787.,0.,0.,10026.,0.628222299749,1.48488907213,286.
9.34,8194.,25.,9.,1795.,0.,0.,10023.,0.594634690241,1.2368401557,325.
9.36,8194.,18.,12.,1801.,0.,0.,10025.,0.563764615059,1.62865333239,234.
9.38,8196.,16.,0.,1814.,0.,0.,10026.,0.536133240256,1.74243303083,208.
9.4,8193.,12.,4.,1810.,0.,0.,10019.,0.51207084715,2.21897367098,156.
9.42,8198.,8.,8.,1807.,0.,0.,10021.,0.491895768042,3.19732249227,104.
9.44,8199.,7.,2.,1813.,0.,0.,10021.,0.475755186283,3.53418138382,91.
9.46,8197.,9.,2.,1809.,0.,0.,10017.,0.464069375572,2.68128972553,117.
9.48,8198.,8.,3.,1806.,0.,0.,10015.,0.457085556048,2.97105611431,104.
9.5,8206.,3.,5.,1803.,0.,0.,10017.,0.455048124028,7.88750081649,39.
9.52,8212.,2.,2.,1801.,0.,0.,10017.,0.45777471859,11.9021426834,26.
9.54,8215.,1.,2.,1797.,0.,0.,10015.,0.465181315642,24.1894284134,13.
9.56,8217.,0.,1.,1797.,0.,0.,10015.,0.477085305626,inf,0.
9.58,8227.,0.,0.,1792.,0.,0.,10019.,0.493734363759,inf,0.
9.6,8233.,0.,0.,1785.,0.,0.,10018.,0.514622252535,inf,0.
9.62,8238.,0.,0.,1781.,0.,0.,10019.,0.539257129837,inf,0.
9.64,8241.,0.,0.,1777.,0.,0.,10018.,0.567394500637,inf,0.
9.66,8248.,0.,0.,1770.,0.,0.,10018.,0.598852183598,inf,0.
9.68,8257.,0.,0.,1764.,0.,0.,10021.,0.632904842636,inf,0.
9.7,8268.,0.,0.,1760.,0.,0.,10028.,0.668955736066,inf,0.
9.72,8271.,1.,0.,1756.,0.,0.,10028.,0.706350010962,36.73020057,13.
9.74,8273.,0.,1.,1753.,0.,0.,10027.,0.744658409808,inf,0.
9.76,8272.,1.,0.,1750.,0.,0.,10023.,0.78324590781,40.7287872061,13.
9.78,8275.,1.,0.,1746.,0.,0.,10022.,0.821703482541,42.7285810922,13.
9.8,8277.,2.,0.,1744.,0.,0.,10023.,0.859017125115,22.334445253,26.
9.82,8291.,0.,3.,1732.,0.,0.,10026.,0.895969048159,inf,0.
9.84,8294.,4.,1.,1729.,0.,0.,10028.,0.929820091084,12.0876611841,52.
9.86,8296.,4.,0.,1726.,0.,0.,10026.,0.96136097023,12.497692613,52.
9.88,8291.,4.,1.,1724.,0.,0.,10020.,0.989407616911,12.8622990198,52.
9.9,8287.,5.,2.,1725.,0.,0.,10019.,1.01354769479,10.5408960258,65.
9.92,8283.,10.,5.,1723.,0.,0.,10021.,1.03345296982,5.37395544305,130.
9.94,8280.,11.,6.,1723.,0.,0.,10020.,1.04954403377,4.96148088692,143.
9.96,8278.,16.,3.,1723.,0.,0.,10020.,1.06116286186,3.44877930104,208.
9.98,8281.,17.,4.,1717.,0.,0.,10019.,1.06885584975,3.26944142277,221.
10.,8265.,21.,16.,1715.,0.,0.,10017.,1.06941299925,2.64807028387,273.
