t,prevalence
5.,7
5.02,5
5.04,7
5.06,11
5.08,10
5.1,11
5.12,8
5.14,15
5.16,12
5.18,6
5.2,13
5.22,10
5.24,13
5.26,11
5.28,13
5.3,7
5.32,8
5.34,9
5.36,3
5.38,5
5.4,3
5.42,1
5.44,4
5.46,2
5.48,2
5.5,2
5.52,1
5.54,1
5.56,0
5.58,0
5.6,0
5.62,0
5.64,0
5.66,0
5.68,0
5.7,0
5.72,0
5.74,0
5.76,0
5.78,0
5.8,1
5.82,1
5.84,1
5.86,0
5.88,1
5.9,1
5.92,4
5.94,4
5.96,3
5.98,5
6.,4
6.02,6
6.04,4
6.06,7
6.08,7
6.1,7
6.12,2
6.14,4
6.16,5
6.18,5
6.2,10
6.22,8
6.24,6
6.26,7
6.28,13
6.3,5
6.32,6
6.34,9
6.36,9
6.38,3
6.4,6
6.42,6
6.44,4
6.46,4
6.48,1
6.5,4
6.52,1
6.54,1
6.56,0
6.58,0
6.6,1
6.62,0
6.64,1
6.66,0
6.68,0
6.7,0
6.72,0
6.74,0
6.76,2
6.78,0
6.8,0
6.82,1
6.84,3
6.86,4
6.88,2
6.9,4
6.92,2
6.94,1
6.96,2
6.98,3
7.,2
7.02,4
7.04,3
7.06,7
7.08,7
7.1,5
7.12,7
7.14,6
7.16,7
7.18,9
7.2,8
7.22,10
7.24,8
7.26,9
7.28,2
7.3,5
7.32,6
7.34,9
7.36,7
7.38,7
7.4,2
7.42,2
7.44,4
7.46,3
7.48,1
7.5,0
7.52,4
7.54,0
7.56,2
7.58,1
7.6,0
7.62,1
7.64,0
7.66,0
7.68,0
7.7,0
7.72,0
7.74,0
7.76,0
7.78,0
7.8,0
7.82,0
7.84,0
7.86,2
7.88,0
7.9,1
7.92,1
7.94,2
7.96,0
7.98,4
8.,6
8.02,8
8.04,4
8.06,7
8.08,6
8.1,7
8.12,8
8.14,11
8.16,11
8.18,13
8.2,8
8.22,8
8.24,9
8.26,12
8.28,8
8.3,5
8.32,8
8.34,11
8.36,10
8.38,5
8.4,6
8.42,0
8.44,0
8.46,1
8.48,1
8.5,0
8.52,1
8.54,0
8.56,0
8.58,0
8.6,1
8.62,0
8.64,0
8.66,0
8.68,0
8.7,0
8.72,0
8.74,0
8.76,0
8.78,0
8.8,0
8.82,0
8.84,3
8.86,2
8.88,0
8.9,0
8.92,1
8.94,1
8.96,1
8.98,3
9.,8
9.02,4
9.04,8
9.06,7
9.08,4
9.1,7
9.12,11
9.14,7
9.16,8
9.18,10
9.2,6
9.22,11
9.24,9
9.26,12
9.28,12
9.3,12
9.32,11
9.34,7
9.36,13
9.38,2
9.4,3
9.42,7
9.44,3
9.46,1
9.48,2
9.5,2
9.52,1
9.54,0
9.56,0
9.58,0
9.6,0
9.62,0
9.64,0
9.66,0
9.68,0
9.7,0
9.72,1
9.74,0
9.76,0
9.78,0
9.8,0
9.82,0
9.84,2
9.86,1
9.88,1
9.9,2
9.92,0
9.94,2
9.96,2
9.98,2
10.,4
