t,s,e,i,r,c,o,n,reff,coal,reportr
5.,5961.,25.,3.,4010.,0.,0.,9999.,1.16696604998,2.42728938396,325.
5.02,5958.,16.,14.,4009.,0.,0.,9997.,1.16398378531,3.78294730224,208.
5.04,5954.,23.,14.,4009.,0.,0.,10000.,1.15501750268,2.61134391911,299.
5.06,5936.,33.,12.,4018.,0.,0.,9999.,1.13875623047,1.7944037571,429.
5.08,5936.,32.,17.,4017.,0.,0.,10002.,1.12066692312,1.82108375007,416.
5.1,5925.,36.,14.,4028.,0.,0.,10003.,1.09618715103,1.58338144037,468.
5.12,5909.,40.,13.,4043.,0.,0.,10005.,1.06656750058,1.38653775076,520.
5.14,5915.,29.,14.,4047.,0.,0.,10005.,1.03738148536,1.86013231858,377.
5.16,5913.,31.,16.,4046.,0.,0.,10006.,1.00334893491,1.68303692307,403.
5.18,5905.,35.,16.,4052.,0.,0.,10008.,0.965476685097,1.43442250357,455.
5.2,5896.,29.,13.,4069.,0.,0.,10007.,0.925626043413,1.65974325026,377.
5.22,5898.,29.,9.,4073.,0.,0.,10009.,0.885668086344,1.58809449965,377.
5.24,5902.,24.,15.,4067.,0.,0.,10008.,0.84526452211,1.83140646457,312.
5.26,5899.,29.,10.,4069.,0.,0.,10007.,0.803516832248,1.44078880265,377.
5.28,5902.,25.,16.,4065.,0.,0.,10008.,0.76275236429,1.58652491772,325.
5.3,5896.,21.,25.,4068.,0.,0.,10010.,0.721755380357,1.78720379898,273.
5.32,5883.,28.,16.,4084.,0.,0.,10011.,0.681716768278,1.2660454268,364.
5.34,5875.,28.,16.,4091.,0.,0.,10010.,0.644734929359,1.19736486881,364.
5.36,5881.,20.,13.,4101.,0.,0.,10015.,0.611704752219,1.59043235577,260.
5.38,5881.,16.,12.,4107.,0.,0.,10016.,0.58158171221,1.89014056468,208.
5.4,5885.,16.,10.,4104.,0.,0.,10015.,0.555728129521,1.80611642094,208.
5.42,5887.,12.,3.,4112.,0.,0.,10014.,0.533848560981,2.31334376425,156.
5.44,5891.,8.,3.,4111.,0.,0.,10013.,0.516670787043,3.35836011578,104.
5.46,5897.,6.,4.,4101.,0.,0.,10008.,0.504666960037,4.37378032032,78.
5.48,5902.,5.,0.,4099.,0.,0.,10006.,0.497433050501,5.17330372521,65.
5.5,5917.,1.,3.,4087.,0.,0.,10008.,0.495990268244,25.7914939487,13.
5.52,5921.,1.,0.,4084.,0.,0.,10006.,0.499034410711,25.949789357,13.
5.54,5930.,2.,0.,4074.,0.,0.,10006.,0.50759254691,13.1974062197,26.
5.56,5936.,0.,3.,4067.,0.,0.,10006.,0.520981730604,inf,0.
5.58,5945.,1.,1.,4063.,0.,0.,10010.,0.539323580548,28.0448261885,13.
5.6,5945.,1.,1.,4061.,0.,0.,10008.,0.561786668473,29.2129067606,13.
5.62,5951.,2.,1.,4055.,0.,0.,10009.,0.588915709205,15.3118084393,26.
5.64,5960.,1.,1.,4051.,0.,0.,10013.,0.620045660367,32.2423743391,13.
5.66,5971.,1.,1.,4043.,0.,0.,10016.,0.654877638411,34.0536371974,13.
5.68,5981.,0.,1.,4034.,0.,0.,10016.,0.692726937573,inf,0.
5.7,5991.,0.,1.,4020.,0.,0.,10012.,0.733238248464,inf,0.
5.72,6002.,0.,1.,4013.,0.,0.,10016.,0.775056440062,inf,0.
5.74,6010.,0.,0.,4006.,0.,0.,10016.,0.817900810665,inf,0.
5.76,6016.,0.,0.,3997.,0.,0.,10013.,0.861160981085,inf,0.
5.78,6019.,1.,0.,3994.,0.,0.,10014.,0.903386659879,46.9761063137,13.
5.8,6024.,1.,0.,3988.,0.,0.,10013.,0.945154349789,49.148026189,13.
5.82,6023.,2.,0.,3983.,0.,0.,10008.,0.984769868644,25.6040165847,26.
5.84,6025.,3.,2.,3980.,0.,0.,10010.,1.02194515094,17.7137159497,39.
5.86,6026.,3.,3.,3979.,0.,0.,10011.,1.05621541768,18.3077339065,39.
5.88,6023.,8.,2.,3974.,0.,0.,10007.,1.08692708877,7.06502607698,104.
5.9,6024.,6.,4.,3975.,0.,0.,10009.,1.11383508888,9.65323743692,78.
5.92,6033.,7.,3.,3968.,0.,0.,10011.,1.1379557527,8.45338559145,91.
5.94,6033.,9.,7.,3964.,0.,0.,10013.,1.15574640548,6.67764589831,117.
5.96,6029.,15.,5.,3964.,0.,0.,10013.,1.16804830302,4.04923411715,195.
5.98,6036.,12.,8.,3961.,0.,0.,10017.,1.17686780179,5.09976047441,156.
6.,6035.,15.,6.,3958.,0.,0.,10014.,1.17968309349,4.08956805745,195.
6.02,6033.,15.,12.,3954.,0.,0.,10014.,1.17663526895,4.07900226568,195.
6.04,6023.,21.,14.,3954.,0.,0.,10012.,1.16700242186,2.8897202827,273.
6.06,6009.,28.,11.,3960.,0.,0.,10008.,1.15172382146,2.13891566842,364.
6.08,6000.,29.,13.,3967.,0.,0.,10009.,1.13195737364,2.02971666998,377.
6.1,5983.,30.,17.,3978.,0.,0.,10008.,1.10636474296,1.91769888779,390.
6.12,5971.,34.,22.,3982.,0.,0.,10009.,1.07732771141,1.64767767628,442.
6.14,5949.,47.,22.,3990.,0.,0.,10008.,1.04303170272,1.15399252216,611.
6.16,5935.,38.,31.,4004.,0.,0.,10008.,1.0068807552,1.37783682291,494.
6.18,5902.,48.,23.,4032.,0.,0.,10005.,0.96527553161,1.04571515924,624.
6.2,5895.,40.,22.,4048.,0.,0.,10005.,0.925654052517,1.20335026827,520.
6.22,5889.,36.,19.,4064.,0.,0.,10008.,0.884404970073,1.27747384566,468.
6.24,5872.,39.,14.,4080.,0.,0.,10005.,0.841220187678,1.1216269169,507.
6.26,5869.,32.,11.,4095.,0.,0.,10007.,0.799430460834,1.29907449886,416.
6.28,5863.,26.,12.,4107.,0.,0.,10008.,0.757712150429,1.51542430086,338.
6.3,5861.,30.,11.,4107.,0.,0.,10009.,0.717542558467,1.24374043468,390.
6.32,5867.,22.,11.,4110.,0.,0.,10010.,0.679930620967,1.60710874047,286.
6.34,5868.,26.,7.,4109.,0.,0.,10010.,0.64396673455,1.2879334691,338.
6.36,5873.,18.,11.,4109.,0.,0.,10011.,0.611116722939,1.76544831071,234.
6.38,5873.,16.,10.,4109.,0.,0.,10008.,0.581254840175,1.88907823057,208.
6.4,5881.,9.,11.,4107.,0.,0.,10008.,0.555738838905,3.21093551367,117.
6.42,5884.,11.,4.,4109.,0.,0.,10008.,0.533896403128,2.5238739057,143.
6.44,5896.,10.,5.,4102.,0.,0.,10013.,0.517109312579,2.68896842541,130.
6.46,5894.,8.,3.,4105.,0.,0.,10010.,0.50430943791,3.27801134641,104.
6.48,5895.,7.,2.,4099.,0.,0.,10003.,0.496992083907,3.69194119474,91.
6.5,5907.,6.,0.,4098.,0.,0.,10011.,0.495003639672,4.29003154382,78.
6.52,5909.,3.,2.,4094.,0.,0.,10008.,0.49792350033,8.63067400572,39.
6.54,5921.,1.,0.,4088.,0.,0.,10010.,0.506619644022,26.3442214891,13.
6.56,5934.,0.,1.,4076.,0.,0.,10011.,0.520546080706,inf,0.
6.58,5941.,1.,0.,4073.,0.,0.,10015.,0.538691628399,28.0119646767,13.
6.6,5943.,1.,0.,4067.,0.,0.,10011.,0.56142937962,29.1943277403,13.
6.62,5945.,0.,0.,4064.,0.,0.,10009.,0.588321944416,inf,0.
6.64,5950.,0.,0.,4057.,0.,0.,10007.,0.619376458688,inf,0.
6.66,5954.,0.,0.,4050.,0.,0.,10004.,0.653796442474,inf,0.
6.68,5963.,0.,0.,4041.,0.,0.,10004.,0.691470594159,inf,0.
6.7,5972.,0.,0.,4033.,0.,0.,10005.,0.731424222526,inf,0.
6.72,5979.,0.,0.,4023.,0.,0.,10002.,0.773167085186,inf,0.
6.74,5991.,1.,0.,4012.,0.,0.,10004.,0.816293087873,42.4472405694,13.
6.76,5995.,0.,1.,4005.,0.,0.,10001.,0.85918461673,inf,0.
6.78,6002.,0.,1.,3996.,0.,0.,9999.,0.902186531997,inf,0.
6.8,6012.,3.,0.,3981.,0.,0.,9996.,0.944875775554,16.3778467763,39.
6.82,6021.,1.,2.,3972.,0.,0.,9996.,0.985624669693,51.252482824,13.
6.84,6023.,3.,2.,3965.,0.,0.,9993.,1.02334386266,17.7379602861,39.
6.86,6027.,4.,1.,3963.,0.,0.,9995.,1.0580817647,13.7550629411,52.
6.88,6037.,5.,2.,3950.,0.,0.,9994.,1.09087070706,11.3450553534,65.
6.9,6046.,8.,0.,3940.,0.,0.,9994.,1.11958074074,7.27727481482,104.
6.92,6048.,10.,2.,3935.,0.,0.,9995.,1.14261124999,5.94157849993,130.
6.94,6054.,13.,4.,3924.,0.,0.,9995.,1.16185802069,4.64743208277,169.
6.96,6057.,13.,5.,3921.,0.,0.,9996.,1.17546867819,4.70187471277,169.
6.98,6056.,18.,8.,3912.,0.,0.,9994.,1.18348469271,3.41895577893,234.
7.,6055.,22.,10.,3906.,0.,0.,9993.,1.18607985071,2.80346146531,286.
7.02,6049.,25.,10.,3905.,0.,0.,9989.,1.18270843748,2.46003354995,325.
7.04,6036.,23.,16.,3911.,0.,0.,9986.,1.17256628985,2.65101943792,299.
7.06,6026.,35.,9.,3913.,0.,0.,9983.,1.15787452387,1.72027072117,455.
7.08,6014.,31.,24.,3914.,0.,0.,9983.,1.13755358736,1.9081544046,403.
7.1,5997.,37.,23.,3927.,0.,0.,9984.,1.11161934961,1.5622758427,481.
7.12,5981.,40.,26.,3937.,0.,0.,9984.,1.08183413161,1.4063843711,520.
7.14,5956.,47.,24.,3954.,0.,0.,9981.,1.04708387168,1.15847577292,611.
7.16,5960.,45.,19.,3959.,0.,0.,9983.,1.0136541486,1.17133368283,585.
7.18,5948.,36.,21.,3974.,0.,0.,9979.,0.975333458047,1.40881499496,468.
7.2,5932.,45.,24.,3981.,0.,0.,9982.,0.933610155523,1.07883840194,585.
7.22,5930.,35.,25.,3995.,0.,0.,9985.,0.892613685295,1.32616890387,455.
7.24,5914.,44.,13.,4015.,0.,0.,9986.,0.848849096846,1.00318529627,572.
7.26,5918.,29.,18.,4017.,0.,0.,9982.,0.808123763658,1.44904950725,377.
7.28,5916.,28.,19.,4015.,0.,0.,9978.,0.766860414078,1.42416934043,364.
7.3,5907.,24.,18.,4030.,0.,0.,9979.,0.725348272213,1.57158792313,312.
7.32,5908.,19.,12.,4040.,0.,0.,9979.,0.686809120148,1.8796881183,247.
7.34,5897.,22.,18.,4042.,0.,0.,9979.,0.649159640404,1.53437733186,286.
7.36,5903.,20.,15.,4039.,0.,0.,9977.,0.616331606578,1.6024621771,260.
7.38,5903.,22.,10.,4044.,0.,0.,9979.,0.585921775659,1.38490601519,286.
7.4,5906.,14.,12.,4048.,0.,0.,9980.,0.559667087523,2.07876346794,182.
7.42,5912.,14.,9.,4045.,0.,0.,9980.,0.537942072405,1.99807055465,182.
7.44,5920.,11.,7.,4044.,0.,0.,9982.,0.520826701723,2.46208986269,143.
7.46,5933.,8.,7.,4037.,0.,0.,9985.,0.508917424833,3.30796326142,104.
7.48,5945.,7.,5.,4036.,0.,0.,9993.,0.50170901212,3.72698123289,91.
7.5,5945.,8.,5.,4031.,0.,0.,9989.,0.499285241216,3.2453540679,104.
7.52,5952.,3.,4.,4028.,0.,0.,9987.,0.502601526595,8.71175979431,39.
7.54,5963.,2.,3.,4016.,0.,0.,9984.,0.511541978437,13.3000914394,26.
7.56,5966.,2.,0.,4016.,0.,0.,9984.,0.524768522997,13.6439815979,26.
7.58,5974.,0.,2.,4007.,0.,0.,9983.,0.543420196043,inf,0.
7.6,5981.,0.,0.,4004.,0.,0.,9985.,0.566490459152,inf,0.
7.62,5982.,1.,0.,4000.,0.,0.,9983.,0.593525272051,30.8633141467,13.
7.64,5993.,0.,0.,3995.,0.,0.,9988.,0.625039368772,inf,0.
7.66,6003.,0.,0.,3985.,0.,0.,9988.,0.660232981658,inf,0.
7.68,6009.,0.,0.,3977.,0.,0.,9986.,0.698060769736,inf,0.
7.7,6024.,0.,0.,3960.,0.,0.,9984.,0.739344801356,inf,0.
7.72,6028.,0.,0.,3955.,0.,0.,9983.,0.78098703902,inf,0.
7.74,6033.,0.,0.,3946.,0.,0.,9979.,0.824075087415,inf,0.
7.76,6040.,2.,0.,3938.,0.,0.,9980.,0.867455349825,22.5538390954,26.
7.78,6051.,2.,0.,3929.,0.,0.,9982.,0.911100960076,23.688624962,26.
7.8,6056.,3.,0.,3921.,0.,0.,9980.,0.953316951547,16.5241604935,39.
7.82,6062.,4.,1.,3914.,0.,0.,9981.,0.993827618927,12.919759046,52.
7.84,6070.,1.,4.,3907.,0.,0.,9982.,1.03246595295,53.6882295537,13.
7.86,6075.,4.,3.,3900.,0.,0.,9982.,1.06789745969,13.882666976,52.
7.88,6082.,6.,0.,3893.,0.,0.,9981.,1.10043351624,9.53709047405,78.
7.9,6092.,3.,6.,3884.,0.,0.,9985.,1.12911570152,19.5713388263,39.
7.92,6103.,8.,7.,3871.,0.,0.,9989.,1.15369462302,7.49901504963,104.
7.94,6097.,18.,7.,3865.,0.,0.,9987.,1.17104770526,3.38302670408,234.
7.96,6097.,19.,6.,3865.,0.,0.,9987.,1.18429768472,3.2412357687,247.
7.98,6103.,14.,6.,3867.,0.,0.,9990.,1.19314714241,4.43168938609,182.
8.,6092.,22.,7.,3864.,0.,0.,9985.,1.19428366854,2.82285230746,286.
8.02,6089.,18.,7.,3870.,0.,0.,9984.,1.19112550869,3.44102924734,234.
8.04,6089.,19.,9.,3865.,0.,0.,9982.,1.18333618145,3.23860428608,247.
8.06,6092.,21.,9.,3862.,0.,0.,9984.,1.17043894654,2.89822977238,273.
8.08,6096.,16.,14.,3858.,0.,0.,9984.,1.152948471,3.74708253074,208.
8.1,6084.,33.,7.,3861.,0.,0.,9985.,1.12763294945,1.77687616276,429.
8.12,6083.,27.,11.,3863.,0.,0.,9984.,1.1002837356,2.11906497226,351.
8.14,6073.,24.,15.,3868.,0.,0.,9980.,1.06775982556,2.31347962205,312.
8.16,6064.,26.,10.,3882.,0.,0.,9982.,1.03144539353,2.06289078706,338.
8.18,6063.,27.,17.,3877.,0.,0.,9984.,0.993692887428,1.91377889431,351.
8.2,6055.,31.,13.,3886.,0.,0.,9985.,0.952682238903,1.59804762655,403.
8.22,6057.,27.,17.,3885.,0.,0.,9986.,0.911639068759,1.75574931761,351.
8.24,6051.,30.,13.,3892.,0.,0.,9986.,0.86851300051,1.50542253422,390.
8.26,6041.,26.,15.,3903.,0.,0.,9985.,0.824671999564,1.64934399913,338.
8.28,6034.,25.,16.,3908.,0.,0.,9983.,0.781764398382,1.62606994864,325.
8.3,6029.,21.,20.,3912.,0.,0.,9982.,0.740106725919,1.83264522609,273.
8.32,6022.,28.,14.,3916.,0.,0.,9980.,0.699991553187,1.29998431306,364.
8.34,6024.,21.,14.,3924.,0.,0.,9983.,0.662874477706,1.6414034686,273.
8.36,6019.,24.,9.,3927.,0.,0.,9979.,0.628317201195,1.36135393592,312.
8.38,6013.,23.,7.,3936.,0.,0.,9979.,0.596840189232,1.34937781913,299.
8.4,6012.,21.,8.,3941.,0.,0.,9982.,0.569597760413,1.41043254959,273.
8.42,6005.,19.,4.,3947.,0.,0.,9975.,0.546678173869,1.49617184427,247.
8.44,6006.,16.,5.,3942.,0.,0.,9969.,0.529081811935,1.71951588879,208.
8.46,6008.,9.,13.,3936.,0.,0.,9966.,0.516333238145,2.98325870928,117.
8.48,6017.,10.,3.,3939.,0.,0.,9969.,0.509007693022,2.64684000371,130.
8.5,6025.,7.,3.,3932.,0.,0.,9967.,0.507120860554,3.76718353554,91.
8.52,6031.,3.,2.,3928.,0.,0.,9964.,0.510448039715,8.84776602172,39.
8.54,6040.,0.,4.,3919.,0.,0.,9963.,0.519239651928,inf,0.
8.56,6049.,0.,0.,3911.,0.,0.,9960.,0.53335128579,inf,0.
8.58,6060.,1.,0.,3898.,0.,0.,9959.,0.552571548229,28.7337205079,13.
8.6,6071.,0.,0.,3889.,0.,0.,9960.,0.576458120082,inf,0.
8.62,6081.,1.,0.,3879.,0.,0.,9961.,0.604680469333,31.4433844053,13.
8.64,6087.,1.,0.,3871.,0.,0.,9959.,0.636691714211,33.107969139,13.
8.66,6095.,0.,1.,3859.,0.,0.,9955.,0.672573654439,inf,0.
8.68,6104.,0.,1.,3851.,0.,0.,9956.,0.711233536457,inf,0.
8.7,6115.,0.,0.,3847.,0.,0.,9962.,0.752170950601,inf,0.
8.72,6126.,0.,0.,3836.,0.,0.,9962.,0.795357002564,inf,0.
8.74,6131.,1.,0.,3829.,0.,0.,9961.,0.838974688469,43.6266838004,13.
8.76,6137.,1.,0.,3820.,0.,0.,9958.,0.883333566361,45.9333454508,13.
8.78,6140.,3.,0.,3812.,0.,0.,9955.,0.927009155986,16.0681587038,39.
8.8,6153.,3.,1.,3799.,0.,0.,9956.,0.970921274954,16.8293020992,39.
8.82,6156.,4.,0.,3796.,0.,0.,9956.,1.01177258737,13.1530436358,52.
8.84,6165.,1.,3.,3789.,0.,0.,9958.,1.0511521248,54.6599104898,13.
8.86,6174.,1.,1.,3781.,0.,0.,9957.,1.08802520105,56.5773104548,13.
8.88,6181.,4.,0.,3773.,0.,0.,9958.,1.12092891141,14.5720758483,52.
8.9,6186.,7.,1.,3762.,0.,0.,9956.,1.14987769313,8.54194857757,91.
8.92,6193.,5.,3.,3757.,0.,0.,9958.,1.17435248139,12.2132658064,65.
8.94,6192.,5.,5.,3752.,0.,0.,9954.,1.19323711532,12.4096659994,65.
8.96,6182.,13.,3.,3749.,0.,0.,9947.,1.20563713945,4.82254855781,169.
8.98,6188.,14.,6.,3740.,0.,0.,9948.,1.21487236213,4.51238305932,182.
9.,6178.,20.,10.,3740.,0.,0.,9948.,1.21564787543,3.16068447613,260.
9.02,6168.,24.,10.,3743.,0.,0.,9945.,1.21131111212,2.62450740959,312.
9.04,6162.,24.,13.,3742.,0.,0.,9941.,1.20246198482,2.60533430044,312.
9.06,6151.,26.,13.,3752.,0.,0.,9942.,1.18676686043,2.37353372086,338.
9.08,6143.,27.,16.,3752.,0.,0.,9938.,1.16721546908,2.24797053304,351.
9.1,6133.,35.,12.,3759.,0.,0.,9939.,1.14197578596,1.69664973914,455.
9.12,6120.,32.,22.,3764.,0.,0.,9938.,1.11210009763,1.80716265864,416.
9.14,6105.,44.,18.,3771.,0.,0.,9938.,1.07792243866,1.2739083366,572.
9.16,6093.,36.,18.,3784.,0.,0.,9931.,1.04170034926,1.50467828226,468.
9.18,6079.,29.,20.,3799.,0.,0.,9927.,1.00203595902,1.79675413341,377.
9.2,6073.,32.,16.,3808.,0.,0.,9929.,0.960903467967,1.56146813545,416.
9.22,6066.,37.,7.,3819.,0.,0.,9929.,0.918234935679,1.29049234203,481.
9.24,6066.,33.,11.,3819.,0.,0.,9929.,0.87566426658,1.37983460188,429.
9.26,6064.,28.,16.,3819.,0.,0.,9927.,0.832648402673,1.54634703354,364.
9.28,6062.,20.,14.,3828.,0.,0.,9924.,0.790061375329,2.05415957586,260.
9.3,6055.,28.,9.,3829.,0.,0.,9921.,0.747868653695,1.38889892829,364.
9.32,6061.,24.,12.,3830.,0.,0.,9927.,0.708286316457,1.53462035232,312.
9.34,6065.,16.,9.,3839.,0.,0.,9929.,0.671015728937,2.18080111904,208.
9.36,6062.,16.,11.,3836.,0.,0.,9925.,0.636248901151,2.06780892874,208.
9.38,6068.,14.,9.,3837.,0.,0.,9928.,0.605393399766,2.24860405627,182.
9.4,6076.,15.,4.,3835.,0.,0.,9930.,0.57867588346,2.00607639599,195.
9.42,6081.,11.,8.,3832.,0.,0.,9932.,0.55599376348,2.62833415463,143.
9.44,6079.,10.,9.,3833.,0.,0.,9931.,0.537561629609,2.79532047397,130.
9.46,6084.,11.,5.,3834.,0.,0.,9934.,0.52454903395,2.47968634231,143.
9.48,6100.,9.,2.,3828.,0.,0.,9939.,0.517586660708,2.99050070631,117.
9.5,6108.,5.,1.,3824.,0.,0.,9938.,0.515607135251,5.36231420661,65.
9.52,6116.,2.,3.,3817.,0.,0.,9938.,0.518996483243,13.4939085643,26.
9.54,6127.,0.,2.,3810.,0.,0.,9939.,0.527990649647,inf,0.
9.56,6134.,2.,0.,3803.,0.,0.,9939.,0.541988636865,14.0917045585,26.
9.58,6142.,2.,0.,3796.,0.,0.,9940.,0.561119104392,14.5890967142,26.
9.6,6153.,1.,1.,3787.,0.,0.,9942.,0.585302019976,30.4357050388,13.
9.62,6166.,0.,2.,3772.,0.,0.,9940.,0.61442802197,inf,0.
9.64,6175.,0.,2.,3765.,0.,0.,9942.,0.647000821089,inf,0.
9.66,6184.,1.,0.,3761.,0.,0.,9946.,0.683012153965,35.5166320062,13.
9.68,6199.,0.,0.,3751.,0.,0.,9950.,0.72273842526,inf,0.
9.7,6209.,1.,0.,3741.,0.,0.,9951.,0.764577592992,39.7580348356,13.
9.72,6210.,0.,1.,3736.,0.,0.,9947.,0.807478813582,inf,0.
9.74,6219.,0.,0.,3727.,0.,0.,9946.,0.852300188363,inf,0.
9.76,6225.,1.,0.,3720.,0.,0.,9946.,0.897080947972,46.6482092946,13.
9.78,6228.,0.,1.,3715.,0.,0.,9944.,0.941335430344,inf,0.
9.8,6236.,1.,1.,3705.,0.,0.,9943.,0.985304933768,51.2358565559,13.
9.82,6241.,2.,1.,3699.,0.,0.,9943.,1.02708391663,26.7041818323,26.
9.84,6241.,3.,2.,3694.,0.,0.,9940.,1.06603732715,18.4779803373,39.
9.86,6248.,4.,3.,3686.,0.,0.,9941.,1.10283815684,14.3368960389,52.
9.88,6257.,8.,2.,3676.,0.,0.,9943.,1.13642339224,7.38675204958,104.
9.9,6261.,6.,4.,3675.,0.,0.,9946.,1.164989122,10.0965723907,78.
9.92,6263.,6.,6.,3672.,0.,0.,9947.,1.18893963595,10.3041435115,78.
9.94,6263.,8.,3.,3676.,0.,0.,9950.,1.20740445292,7.84812894399,104.
9.96,6267.,7.,3.,3675.,0.,0.,9952.,1.22160010802,9.07474365955,91.
9.98,6274.,7.,5.,3665.,0.,0.,9951.,1.23138514989,9.14743254207,91.
10.,6269.,11.,6.,3666.,0.,0.,9952.,1.23305818546,5.82900233128,143.
