t,cases
5.01,3.38
5.02,3.38
5.03,3.705
5.04,3.705
5.05,3.38
5.06,3.38
5.07,3.575
5.08,3.575
5.09,4.095
5.1,4.095
5.11,4.615
5.12,4.615
5.13,4.745
5.14,4.745
5.15,4.16
5.16,4.16
5.17,4.16
5.18,4.16
5.19,4.095
5.2,4.095
5.21,4.615
5.22,4.615
5.23,4.81
5.24,4.81
5.25,4.16
5.26,4.16
5.27,4.225
5.28,4.225
5.29,3.77
5.3,3.77
5.31,3.185
5.32,3.185
5.33,3.445
5.34,3.445
5.35,3.055
5.36,3.055
5.37,2.34
5.38,2.34
5.39,1.82
5.4,1.82
5.41,1.43
5.42,1.43
5.43,1.365
5.44,1.365
5.45,1.17
5.46,1.17
5.47,0.845
5.48,0.845
5.49,0.715
5.5,0.715
5.51,0.585
5.52,0.585
5.53,0.39
5.54,0.39
5.55,0.195
5.56,0.195
5.57,0.13
5.58,0.13
5.59,0.13
5.6,0.13
5.61,0.13
5.62,0.13
5.63,0.065
5.64,0.065
5.65,0.
5.66,0.
5.67,0.065
5.68,0.065
5.69,0.13
5.7,0.13
5.71,0.195
5.72,0.195
5.73,0.13
5.74,0.13
5.75,0.13
5.76,0.13
5.77,0.26
5.78,0.26
5.79,0.195
5.8,0.195
5.81,0.195
5.82,0.195
5.83,0.195
5.84,0.195
5.85,0.39
5.86,0.39
5.87,0.65
5.88,0.65
5.89,0.585
5.9,0.585
5.91,0.78
5.92,0.78
5.93,1.105
5.94,1.105
5.95,1.56
5.96,1.56
5.97,2.015
5.98,2.015
5.99,1.755
6.,1.755
6.01,2.015
6.02,2.015
6.03,3.055
6.04,3.055
6.05,3.51
6.06,3.51
6.07,3.705
6.08,3.705
6.09,3.77
6.1,3.77
6.11,3.965
6.12,3.965
6.13,4.03
6.14,4.03
6.15,4.42
6.16,4.42
6.17,5.2
6.18,5.2
6.19,4.94
6.2,4.94
6.21,4.42
6.22,4.42
6.23,4.55
6.24,4.55
6.25,4.94
6.26,4.94
6.27,4.42
6.28,4.42
6.29,3.835
6.3,3.835
6.31,3.185
6.32,3.185
6.33,2.86
6.34,2.86
6.35,2.795
6.36,2.795
6.37,2.145
6.38,2.145
6.39,1.885
6.4,1.885
6.41,1.56
6.42,1.56
6.43,1.235
6.44,1.235
6.45,1.04
6.46,1.04
6.47,0.975
6.48,0.975
6.49,0.91
6.5,0.91
6.51,0.585
6.52,0.585
6.53,0.26
6.54,0.26
6.55,0.26
6.56,0.26
6.57,0.26
6.58,0.26
6.59,0.065
6.6,0.065
6.61,0.
6.62,0.
6.63,0.
6.64,0.
6.65,0.
6.66,0.
6.67,0.
6.68,0.
6.69,0.065
6.7,0.065
6.71,0.13
6.72,0.13
6.73,0.195
6.74,0.195
6.75,0.26
6.76,0.26
6.77,0.455
6.78,0.455
6.79,0.715
6.8,0.715
6.81,0.65
6.82,0.65
6.83,0.52
6.84,0.52
6.85,0.52
6.86,0.52
6.87,0.975
6.88,0.975
6.89,1.105
6.9,1.105
6.91,0.78
6.92,0.78
6.93,1.04
6.94,1.04
6.95,1.3
6.96,1.3
6.97,1.755
6.98,1.755
6.99,2.73
7.,2.73
7.01,2.925
7.02,2.925
7.03,3.185
7.04,3.185
7.05,3.77
7.06,3.77
7.07,3.835
7.08,3.835
7.09,4.16
7.1,4.16
7.11,4.615
7.12,4.615
7.13,4.615
7.14,4.615
7.15,4.485
7.16,4.485
7.17,4.355
7.18,4.355
7.19,4.225
7.2,4.225
7.21,4.42
7.22,4.42
7.23,4.355
7.24,4.355
7.25,3.9
7.26,3.9
7.27,3.25
7.28,3.25
7.29,3.185
7.3,3.185
7.31,3.12
7.32,3.12
7.33,2.405
7.34,2.405
7.35,2.21
7.36,2.21
7.37,2.405
7.38,2.405
7.39,2.21
7.4,2.21
7.41,1.95
7.42,1.95
7.43,1.495
7.44,1.495
7.45,0.975
7.46,0.975
7.47,0.78
7.48,0.78
7.49,0.65
7.5,0.65
7.51,0.455
7.52,0.455
7.53,0.195
7.54,0.195
7.55,0.0649999999999
7.56,0.0650000000001
7.57,0.
7.58,0.
7.59,0.0650000000001
7.6,0.0649999999999
7.61,0.0650000000001
7.62,0.0649999999999
7.63,0.
7.64,0.
7.65,0.
7.66,0.
7.67,0.
7.68,0.
7.69,0.
7.7,0.
7.71,0.
7.72,0.
7.73,0.
7.74,0.
7.75,0.
7.76,0.
7.77,0.13
7.78,0.13
7.79,0.26
7.8,0.26
7.81,0.325
7.82,0.325
7.83,0.455
7.84,0.455
7.85,0.715
7.86,0.715
7.87,0.78
7.88,0.78
7.89,0.715
7.9,0.715
7.91,0.975
7.92,0.975
7.93,1.235
7.94,1.235
7.95,1.235
7.96,1.235
7.97,1.3
7.98,1.3
7.99,1.755
8.,1.755
8.01,2.145
8.02,2.145
8.03,2.73
8.04,2.73
8.05,3.9
8.06,3.9
8.07,3.9
8.08,3.9
8.09,3.185
8.1,3.185
8.11,3.51
8.12,3.51
8.13,4.03
8.14,4.03
8.15,4.55
8.16,4.55
8.17,4.095
8.18,4.095
8.19,3.51
8.2,3.51
8.21,3.705
8.22,3.705
8.23,4.29
8.24,4.29
8.25,4.42
8.26,4.42
8.27,4.355
8.28,4.355
8.29,4.745
8.3,4.745
8.31,4.485
8.32,4.485
8.33,3.705
8.34,3.705
8.35,3.185
8.36,3.185
8.37,2.665
8.38,2.665
8.39,1.82
8.4,1.82
8.41,1.755
8.42,1.755
8.43,1.495
8.44,1.495
8.45,0.845
8.46,0.845
8.47,0.65
8.48,0.65
8.49,0.585
8.5,0.585
8.51,0.26
8.52,0.26
8.53,0.0649999999999
8.54,0.0650000000001
8.55,0.0650000000001
8.56,0.0649999999999
8.57,0.
8.58,0.
8.59,0.
8.6,0.
8.61,0.
8.62,0.
8.63,0.
8.64,0.
8.65,0.
8.66,0.
8.67,0.
8.68,0.
8.69,0.
8.7,0.
8.71,0.
8.72,0.
8.73,0.
8.74,0.
8.75,0.
8.76,0.
8.77,0.0649999999999
8.78,0.0650000000001
8.79,0.195
8.8,0.195
8.81,0.13
8.82,0.13
8.83,0.26
8.84,0.26
8.85,0.845
8.86,0.845
8.87,1.04
8.88,1.04
8.89,0.975
8.9,0.975
8.91,1.105
8.92,1.105
8.93,1.235
8.94,1.235
8.95,1.495
8.96,1.495
8.97,1.755
8.98,1.755
8.99,1.885
9.,1.885
9.01,2.08
9.02,2.08
9.03,2.145
9.04,2.145
9.05,2.795
9.06,2.795
9.07,3.575
9.08,3.575
9.09,3.77
9.1,3.77
9.11,4.03
9.12,4.03
9.13,4.485
9.14,4.485
9.15,5.265
9.16,5.265
9.17,5.46
9.18,5.46
9.19,4.875
9.2,4.875
9.21,4.55
9.22,4.55
9.23,4.42
9.24,4.42
9.25,4.42
9.26,4.42
9.27,4.16
9.28,4.16
9.29,3.185
9.3,3.185
9.31,2.535
9.32,2.535
9.33,2.6
9.34,2.6
9.35,2.47
9.36,2.47
9.37,2.275
9.38,2.275
9.39,1.95
9.4,1.95
9.41,1.625
9.42,1.625
9.43,1.495
9.44,1.495
9.45,1.04
9.46,1.04
9.47,0.52
9.48,0.52
9.49,0.26
9.5,0.26
9.51,0.195
9.52,0.195
9.53,0.195
9.54,0.195
9.55,0.26
9.56,0.26
9.57,0.195
9.58,0.195
9.59,0.26
9.6,0.26
9.61,0.325
9.62,0.325
9.63,0.195
9.64,0.195
9.65,0.195
9.66,0.195
9.67,0.195
9.68,0.195
9.69,0.195
9.7,0.195
9.71,0.26
9.72,0.26
9.73,0.26
9.74,0.26
9.75,0.26
9.76,0.26
9.77,0.195
9.78,0.195
9.79,0.195
9.8,0.195
9.81,0.26
9.82,0.26
9.83,0.325
9.84,0.325
9.85,0.52
9.86,0.52
9.87,0.585
9.88,0.585
9.89,0.52
9.9,0.52
9.91,0.65
9.92,0.65
9.93,0.91
9.94,0.91
9.95,1.105
9.96,1.105
9.97,1.495
9.98,1.495
9.99,1.82
10.,1.82
