t,s,e,i,r,c,o,n,reff,coal,reportr
5.,7517.,7.,20.,2454.,0.,0.,9998.,1.19764293101,8.89677605894,91.
5.02,7499.,26.,5.,2465.,0.,0.,9995.,1.19244113277,2.38488226553,338.
5.04,7492.,34.,5.,2465.,0.,0.,9996.,1.18318192342,1.80957235346,442.
5.06,7485.,29.,14.,2464.,0.,0.,9992.,1.16931922789,2.09671033966,377.
5.08,7479.,29.,8.,2477.,0.,0.,9993.,1.15005186632,2.06216196719,377.
5.1,7463.,36.,16.,2479.,0.,0.,9994.,1.1246075308,1.62443310004,468.
5.12,7449.,35.,14.,2493.,0.,0.,9991.,1.09567243054,1.62785618252,455.
5.14,7434.,33.,12.,2511.,0.,0.,9990.,1.06257152832,1.67435513554,429.
5.16,7429.,25.,18.,2521.,0.,0.,9993.,1.02716296924,2.13649897603,325.
5.18,7417.,28.,17.,2532.,0.,0.,9994.,0.988230807998,1.83528578628,364.
5.2,7405.,33.,20.,2538.,0.,0.,9996.,0.947067809464,1.49234927552,429.
5.22,7391.,36.,14.,2552.,0.,0.,9993.,0.904616492496,1.30666826694,468.
5.24,7374.,31.,15.,2567.,0.,0.,9987.,0.861210042404,1.44461039371,403.
5.26,7362.,31.,15.,2582.,0.,0.,9990.,0.817430949601,1.37117449611,403.
5.28,7363.,20.,10.,2597.,0.,0.,9990.,0.77574902039,2.01694745301,260.
5.3,7351.,21.,11.,2604.,0.,0.,9987.,0.733969942548,1.81744938155,273.
5.32,7347.,20.,12.,2608.,0.,0.,9987.,0.694476971057,1.80564012475,260.
5.34,7345.,18.,14.,2609.,0.,0.,9986.,0.657518404846,1.899497614,234.
5.36,7342.,19.,12.,2612.,0.,0.,9985.,0.623315905575,1.70591721526,247.
5.38,7342.,17.,11.,2616.,0.,0.,9986.,0.592620903394,1.81272276332,221.
5.4,7337.,15.,8.,2623.,0.,0.,9983.,0.565619774324,1.96081521766,195.
5.42,7337.,17.,5.,2628.,0.,0.,9987.,0.542894405648,1.66061818198,221.
5.44,7333.,9.,12.,2632.,0.,0.,9986.,0.524782680106,3.03207770728,117.
5.46,7331.,6.,9.,2640.,0.,0.,9986.,0.511673551947,4.43450411688,78.
5.48,7334.,4.,5.,2640.,0.,0.,9983.,0.504168879546,6.5541954341,52.
5.5,7336.,6.,1.,2639.,0.,0.,9982.,0.501719417583,4.34823495239,78.
5.52,7341.,3.,2.,2635.,0.,0.,9981.,0.504751210062,8.7490209744,39.
5.54,7344.,0.,1.,2636.,0.,0.,9981.,0.512837676637,inf,0.
5.56,7349.,0.,0.,2632.,0.,0.,9981.,0.526191176984,inf,0.
5.58,7354.,0.,0.,2627.,0.,0.,9981.,0.544479417536,inf,0.
5.6,7354.,0.,0.,2624.,0.,0.,9978.,0.567214418687,inf,0.
5.62,7363.,0.,0.,2617.,0.,0.,9980.,0.594673255103,inf,0.
5.64,7368.,0.,0.,2612.,0.,0.,9980.,0.625836623518,inf,0.
5.66,7374.,0.,0.,2607.,0.,0.,9981.,0.660445146709,inf,0.
5.68,7382.,1.,0.,2598.,0.,0.,9981.,0.698204822816,36.3066507864,13.
5.7,7385.,1.,1.,2594.,0.,0.,9981.,0.737807976807,38.366014794,13.
5.72,7385.,1.,0.,2592.,0.,0.,9978.,0.779002629507,40.5081367344,13.
5.74,7388.,2.,0.,2586.,0.,0.,9976.,0.821469036663,21.3581949532,26.
5.76,7391.,2.,0.,2582.,0.,0.,9975.,0.864233904392,22.4700815142,26.
5.78,7402.,0.,2.,2569.,0.,0.,9973.,0.907779661229,inf,0.
5.8,7410.,0.,2.,2564.,0.,0.,9976.,0.949607262581,inf,0.
5.82,7413.,3.,1.,2561.,0.,0.,9978.,0.989281654465,17.1475486774,39.
5.84,7414.,2.,2.,2555.,0.,0.,9973.,1.02714473831,26.705763196,26.
5.86,7421.,4.,2.,2553.,0.,0.,9980.,1.06177622508,13.8030909261,52.
5.88,7424.,4.,4.,2547.,0.,0.,9979.,1.09330833567,14.2130083637,52.
5.9,7419.,9.,1.,2547.,0.,0.,9976.,1.11999432337,6.47107831283,117.
5.92,7418.,11.,4.,2545.,0.,0.,9978.,1.14238662737,5.40037314756,143.
5.94,7421.,13.,3.,2543.,0.,0.,9980.,1.16071501396,4.64286005585,169.
5.96,7423.,16.,4.,2541.,0.,0.,9984.,1.17369402279,3.81450557407,208.
5.98,7415.,13.,5.,2549.,0.,0.,9982.,1.18061958438,4.72247833751,169.
6.,7413.,15.,5.,2548.,0.,0.,9981.,1.18308482034,4.10136071051,195.
6.02,7410.,17.,4.,2550.,0.,0.,9981.,1.1799416891,3.60923340196,221.
6.04,7402.,17.,11.,2552.,0.,0.,9982.,1.17060808656,3.58068355889,221.
6.06,7403.,17.,9.,2554.,0.,0.,9983.,1.15755168126,3.54074631914,221.
6.08,7393.,21.,9.,2559.,0.,0.,9982.,1.13808034222,2.81810370454,273.
6.1,7387.,26.,8.,2561.,0.,0.,9982.,1.11449320347,2.22898640694,338.
6.12,7381.,29.,10.,2568.,0.,0.,9988.,1.08599641189,1.94730391097,377.
6.14,7372.,36.,12.,2569.,0.,0.,9989.,1.05381510588,1.52217737516,468.
6.16,7365.,34.,19.,2567.,0.,0.,9985.,1.01912995079,1.5586693365,442.
6.18,7348.,30.,25.,2580.,0.,0.,9983.,0.980116118553,1.69886793883,390.
6.2,7324.,41.,20.,2597.,0.,0.,9982.,0.938022012432,1.18968645479,533.
6.22,7310.,41.,22.,2610.,0.,0.,9983.,0.895598777908,1.13588137686,533.
6.24,7296.,42.,14.,2629.,0.,0.,9981.,0.852612649737,1.05561566158,546.
6.26,7289.,36.,15.,2642.,0.,0.,9982.,0.809974108986,1.16996260187,468.
6.28,7281.,34.,18.,2651.,0.,0.,9984.,0.767570689341,1.17393164252,442.
6.3,7274.,23.,20.,2668.,0.,0.,9985.,0.726427254202,1.64235727037,299.
6.32,7263.,25.,23.,2674.,0.,0.,9985.,0.686674364163,1.42828267746,325.
6.34,7264.,18.,25.,2680.,0.,0.,9987.,0.65020223958,1.87836202545,234.
6.36,7249.,30.,19.,2688.,0.,0.,9986.,0.61535882925,1.0666219707,390.
6.38,7247.,31.,9.,2700.,0.,0.,9987.,0.584894259805,0.98111295193,403.
6.4,7253.,20.,16.,2701.,0.,0.,9990.,0.55875230209,1.45275598543,260.
6.42,7263.,10.,11.,2708.,0.,0.,9992.,0.537149920773,2.79317958802,130.
6.44,7267.,12.,6.,2708.,0.,0.,9993.,0.519695124688,2.25201220698,156.
6.46,7268.,10.,7.,2709.,0.,0.,9994.,0.50687034712,2.63572580502,130.
6.48,7271.,7.,9.,2707.,0.,0.,9994.,0.499287852355,3.70899547464,91.
6.5,7269.,9.,3.,2712.,0.,0.,9993.,0.496589958829,2.86918642879,117.
6.52,7285.,2.,7.,2703.,0.,0.,9997.,0.500099089995,13.0025763399,26.
6.54,7288.,0.,4.,2706.,0.,0.,9998.,0.508061800466,inf,0.
6.56,7300.,0.,1.,2700.,0.,0.,10001.,0.521637497478,inf,0.
6.58,7303.,0.,0.,2700.,0.,0.,10003.,0.539514261198,inf,0.
6.6,7313.,0.,0.,2692.,0.,0.,10005.,0.56252990692,inf,0.
6.62,7321.,1.,0.,2684.,0.,0.,10006.,0.589744712837,30.6667250675,13.
6.64,7328.,0.,1.,2679.,0.,0.,10008.,0.62069759442,inf,0.
6.66,7335.,0.,1.,2673.,0.,0.,10009.,0.655114337606,inf,0.
6.68,7336.,1.,1.,2666.,0.,0.,10004.,0.692258821488,35.9974587174,13.
6.7,7337.,1.,0.,2664.,0.,0.,10002.,0.731473456331,38.0366197292,13.
6.72,7337.,2.,0.,2661.,0.,0.,10000.,0.772236709499,20.078154447,26.
6.74,7350.,2.,0.,2651.,0.,0.,10003.,0.815037933891,21.1909862812,26.
6.76,7354.,2.,0.,2645.,0.,0.,10001.,0.857671937117,22.2994703651,26.
6.78,7358.,1.,1.,2643.,0.,0.,10003.,0.899677172221,46.7832129555,13.
6.8,7362.,2.,0.,2636.,0.,0.,10000.,0.94119166617,24.4709833204,26.
6.82,7366.,3.,1.,2630.,0.,0.,10000.,0.980846777246,17.0013441389,39.
6.84,7369.,4.,3.,2627.,0.,0.,10003.,1.01784857,13.23203141,52.
6.86,7371.,4.,4.,2625.,0.,0.,10004.,1.05209228126,13.6771996564,52.
6.88,7368.,7.,3.,2623.,0.,0.,10001.,1.08267450141,8.04272486759,91.
6.9,7369.,5.,4.,2624.,0.,0.,10002.,1.10955439285,11.5393656856,65.
6.92,7374.,8.,6.,2615.,0.,0.,10003.,1.13277236571,7.3630203771,104.
6.94,7376.,7.,7.,2614.,0.,0.,10004.,1.15090886905,8.54960874151,91.
6.96,7374.,13.,0.,2615.,0.,0.,10002.,1.16384806193,4.6553922477,169.
6.98,7372.,16.,5.,2613.,0.,0.,10006.,1.1709577391,3.80561265207,208.
7.,7368.,20.,3.,2611.,0.,0.,10002.,1.17343409981,3.05092865949,260.
7.02,7371.,15.,9.,2610.,0.,0.,10005.,1.17091592193,4.05917519604,195.
7.04,7352.,28.,3.,2619.,0.,0.,10002.,1.16037577316,2.15498357872,364.
7.06,7351.,21.,7.,2621.,0.,0.,10000.,1.14746681519,2.84134639951,273.
7.08,7340.,26.,12.,2622.,0.,0.,10000.,1.12788764972,2.25577529944,338.
7.1,7332.,27.,10.,2632.,0.,0.,10001.,1.10409366974,2.1264026232,351.
7.12,7329.,28.,10.,2640.,0.,0.,10007.,1.07629801823,1.99883917671,364.
7.14,7322.,32.,7.,2643.,0.,0.,10004.,1.04509831548,1.69828476266,416.
7.16,7321.,28.,8.,2647.,0.,0.,10004.,1.01111745311,1.87778955577,364.
7.18,7317.,25.,19.,2647.,0.,0.,10008.,0.973543167789,2.024969789,325.
7.2,7313.,27.,13.,2657.,0.,0.,10010.,0.933993289338,1.79880189058,351.
7.22,7313.,30.,12.,2658.,0.,0.,10013.,0.893281919452,1.54835532705,390.
7.24,7304.,33.,14.,2664.,0.,0.,10015.,0.850649816992,1.34041789344,429.
7.26,7298.,29.,8.,2680.,0.,0.,10015.,0.808302007614,1.4493691171,377.
7.28,7296.,31.,9.,2682.,0.,0.,10018.,0.766541587076,1.28581169445,403.
7.3,7300.,29.,9.,2686.,0.,0.,10024.,0.726187391838,1.3021291164,377.
7.32,7301.,17.,20.,2686.,0.,0.,10024.,0.687581446887,2.10319030812,221.
7.34,7305.,14.,13.,2694.,0.,0.,10026.,0.65132867026,2.41922077525,182.
7.36,7301.,13.,5.,2703.,0.,0.,10022.,0.617546761123,2.47018704449,169.
7.38,7307.,7.,11.,2698.,0.,0.,10023.,0.587618587271,4.3651666483,91.
7.4,7307.,10.,6.,2699.,0.,0.,10022.,0.56111495676,2.91779777515,130.
7.42,7312.,7.,7.,2697.,0.,0.,10023.,0.539101263365,4.00475224214,91.
7.44,7321.,6.,4.,2692.,0.,0.,10023.,0.521989835685,4.52391190927,78.
7.46,7321.,6.,3.,2693.,0.,0.,10023.,0.509089321937,4.41210745679,78.
7.48,7323.,6.,4.,2692.,0.,0.,10025.,0.501303634303,4.3446314973,78.
7.5,7333.,1.,4.,2689.,0.,0.,10027.,0.499263506235,25.9617023242,13.
7.52,7337.,1.,2.,2690.,0.,0.,10030.,0.502011639095,26.104605233,13.
7.54,7337.,1.,2.,2689.,0.,0.,10029.,0.50989669751,26.5146282705,13.
7.56,7346.,1.,0.,2681.,0.,0.,10028.,0.523511189406,27.2225818491,13.
7.58,7354.,1.,0.,2672.,0.,0.,10027.,0.54198155644,28.1830409349,13.
7.6,7352.,1.,2.,2667.,0.,0.,10022.,0.564570570973,29.3576696906,13.
7.62,7362.,1.,0.,2661.,0.,0.,10024.,0.591982546935,30.7830924406,13.
7.64,7367.,0.,1.,2656.,0.,0.,10024.,0.623004968403,inf,0.
7.66,7371.,0.,0.,2653.,0.,0.,10024.,0.657344492577,inf,0.
7.68,7375.,0.,0.,2649.,0.,0.,10024.,0.69455049593,inf,0.
7.7,7380.,0.,0.,2645.,0.,0.,10025.,0.734072378348,inf,0.
7.72,7382.,0.,0.,2639.,0.,0.,10021.,0.775344842414,inf,0.
7.74,7389.,0.,0.,2632.,0.,0.,10021.,0.817890862944,inf,0.
7.76,7398.,0.,0.,2625.,0.,0.,10023.,0.860909695095,inf,0.
7.78,7403.,0.,0.,2621.,0.,0.,10024.,0.903283085393,inf,0.
7.8,7415.,0.,0.,2612.,0.,0.,10027.,0.945414807979,inf,0.
7.82,7415.,0.,2.,2606.,0.,0.,10023.,0.985105808809,inf,0.
7.84,7416.,1.,0.,2605.,0.,0.,10022.,1.02239850516,53.1647222682,13.
7.86,7419.,3.,0.,2599.,0.,0.,10021.,1.05714708158,18.3238827474,39.
7.88,7424.,4.,2.,2592.,0.,0.,10022.,1.08861742982,14.1520265876,52.
7.9,7428.,7.,1.,2591.,0.,0.,10027.,1.11564948937,8.28768192101,91.
7.92,7420.,10.,4.,2591.,0.,0.,10025.,1.13733735972,5.91415427057,130.
7.94,7418.,9.,8.,2590.,0.,0.,10025.,1.1550376996,6.67355115322,117.
7.96,7411.,17.,0.,2596.,0.,0.,10024.,1.16712066826,3.57001616175,221.
7.98,7409.,13.,7.,2592.,0.,0.,10021.,1.1750732123,4.70029284921,169.
8.,7405.,13.,7.,2593.,0.,0.,10018.,1.1774432196,4.7097728784,169.
8.02,7398.,18.,6.,2594.,0.,0.,10016.,1.17391433081,3.39130806679,234.
8.04,7392.,18.,7.,2596.,0.,0.,10013.,1.16540733373,3.36673229745,234.
8.06,7380.,27.,9.,2594.,0.,0.,10010.,1.15084277661,2.21643794013,351.
8.08,7378.,16.,20.,2597.,0.,0.,10011.,1.13248112085,3.68056364278,208.
8.1,7361.,19.,17.,2613.,0.,0.,10010.,1.10746403437,3.03095419932,247.
8.12,7347.,27.,13.,2625.,0.,0.,10012.,1.07840257852,2.07692348456,351.
8.14,7340.,28.,18.,2623.,0.,0.,10009.,1.04714416466,1.9446963058,364.
8.16,7330.,27.,20.,2630.,0.,0.,10007.,1.0120569648,1.94914674703,351.
8.18,7313.,30.,19.,2643.,0.,0.,10005.,0.973302716277,1.68705804155,390.
8.2,7290.,34.,19.,2661.,0.,0.,10004.,0.931614212014,1.42482173602,442.
8.22,7282.,30.,10.,2679.,0.,0.,10001.,0.89056256142,1.54364177313,390.
8.24,7276.,23.,14.,2690.,0.,0.,10003.,0.848405399045,1.91813394567,299.
8.26,7258.,21.,25.,2697.,0.,0.,10001.,0.804997049653,1.99332602771,273.
8.28,7249.,29.,12.,2710.,0.,0.,10000.,0.76297450009,1.36809220706,377.
8.3,7239.,24.,14.,2722.,0.,0.,9999.,0.721919728793,1.56415941238,312.
8.32,7244.,15.,16.,2728.,0.,0.,10003.,0.683645614061,2.36997146208,195.
8.34,7234.,19.,15.,2736.,0.,0.,10004.,0.646416594323,1.76914015289,247.
8.36,7227.,26.,3.,2747.,0.,0.,10003.,0.612448653516,1.22489730703,338.
8.38,7230.,20.,8.,2749.,0.,0.,10007.,0.582355987795,1.51412556827,260.
8.4,7229.,16.,7.,2755.,0.,0.,10007.,0.555957330822,1.80686132517,208.
8.42,7230.,10.,7.,2760.,0.,0.,10007.,0.533907835773,2.77632074602,130.
8.44,7234.,12.,7.,2758.,0.,0.,10011.,0.516404969509,2.23775486787,156.
8.46,7242.,11.,4.,2756.,0.,0.,10013.,0.504098744391,2.38301224621,143.
8.48,7245.,9.,8.,2749.,0.,0.,10011.,0.496657649357,2.86957752962,117.
8.5,7247.,8.,4.,2750.,0.,0.,10009.,0.494295577017,3.21292125061,104.
8.52,7250.,5.,2.,2753.,0.,0.,10010.,0.49705005865,5.16932060996,65.
8.54,7258.,3.,3.,2749.,0.,0.,10013.,0.505212467107,8.75701609652,39.
8.56,7263.,5.,1.,2740.,0.,0.,10009.,0.518578759869,5.39321910263,65.
8.58,7266.,2.,6.,2735.,0.,0.,10009.,0.536459081261,13.9479361128,26.
8.6,7278.,1.,2.,2732.,0.,0.,10013.,0.559390351533,29.0882982797,13.
8.62,7284.,2.,0.,2728.,0.,0.,10014.,0.586295414885,15.243680787,26.
8.64,7292.,2.,0.,2724.,0.,0.,10018.,0.617031777298,16.0428262098,26.
8.66,7297.,2.,0.,2719.,0.,0.,10018.,0.651134931071,16.9295082078,26.
8.68,7307.,2.,0.,2711.,0.,0.,10020.,0.688421214101,17.8989515666,26.
8.7,7308.,0.,2.,2708.,0.,0.,10018.,0.727418619834,inf,0.
8.72,7317.,2.,0.,2703.,0.,0.,10022.,0.768441091504,19.9794683791,26.
8.74,7330.,1.,1.,2691.,0.,0.,10023.,0.811198233701,42.1823081524,13.
8.76,7340.,1.,0.,2682.,0.,0.,10023.,0.854160200324,44.4163304168,13.
8.78,7343.,0.,1.,2681.,0.,0.,10025.,0.895872763655,inf,0.
8.8,7345.,1.,3.,2678.,0.,0.,10027.,0.936489786191,48.6974688819,13.
8.82,7347.,2.,1.,2675.,0.,0.,10025.,0.975877069805,25.3728038149,26.
8.84,7348.,4.,1.,2673.,0.,0.,10026.,1.01261960289,13.1640548376,52.
8.86,7346.,2.,4.,2671.,0.,0.,10023.,1.04653630744,27.2099439934,26.
8.88,7344.,5.,1.,2671.,0.,0.,10021.,1.07699410154,11.200738656,65.
8.9,7347.,6.,0.,2668.,0.,0.,10021.,1.10414438588,9.56925134425,78.
8.92,7349.,6.,1.,2666.,0.,0.,10022.,1.12679167654,9.76552786335,78.
8.94,7350.,6.,3.,2663.,0.,0.,10022.,1.1447921757,9.92153218943,78.
8.96,7345.,14.,1.,2662.,0.,0.,10022.,1.15695750169,4.29727072057,182.
8.98,7347.,14.,6.,2657.,0.,0.,10024.,1.16489122864,4.32673884923,182.
9.,7348.,13.,8.,2655.,0.,0.,10024.,1.16768049896,4.67072199583,169.
9.02,7339.,19.,8.,2657.,0.,0.,10023.,1.16373889735,3.18496961381,247.
9.04,7324.,25.,7.,2665.,0.,0.,10021.,1.1537647818,2.39983074615,325.
9.06,7313.,30.,9.,2665.,0.,0.,10017.,1.13959782442,1.97530289567,390.
9.08,7305.,27.,9.,2674.,0.,0.,10015.,1.12082819656,2.15863208227,351.
9.1,7305.,30.,6.,2677.,0.,0.,10018.,1.09816117103,1.90347936312,390.
9.12,7302.,22.,8.,2686.,0.,0.,10018.,1.07115549478,2.53182207858,286.
9.14,7300.,23.,12.,2680.,0.,0.,10015.,1.04081373025,2.35314408578,299.
9.16,7297.,24.,13.,2682.,0.,0.,10016.,1.00659533531,2.18095655985,312.
9.18,7289.,30.,14.,2681.,0.,0.,10014.,0.96923662823,1.6800101556,390.
9.2,7270.,35.,17.,2689.,0.,0.,10011.,0.928408716868,1.37935009363,455.
9.22,7250.,43.,10.,2705.,0.,0.,10008.,0.886028917618,1.07147683061,559.
9.24,7245.,29.,13.,2720.,0.,0.,10007.,0.844453017744,1.51419161802,377.
9.26,7235.,33.,15.,2723.,0.,0.,10006.,0.802045098321,1.26382863978,429.
9.28,7228.,31.,13.,2733.,0.,0.,10005.,0.760384008113,1.27548285232,403.
9.3,7225.,26.,25.,2736.,0.,0.,10012.,0.719588000619,1.43917600124,338.
9.32,7209.,29.,20.,2752.,0.,0.,10010.,0.67986675833,1.21907142873,377.
9.34,7201.,27.,12.,2774.,0.,0.,10014.,0.642825208391,1.23803373468,351.
9.36,7206.,20.,8.,2783.,0.,0.,10017.,0.609815532874,1.58552038547,260.
9.38,7208.,18.,10.,2783.,0.,0.,10019.,0.579888570692,1.67523364867,234.
9.4,7206.,15.,7.,2792.,0.,0.,10020.,0.553469473541,1.91869417494,195.
9.42,7203.,11.,7.,2799.,0.,0.,10020.,0.531223881113,2.51124016526,143.
9.44,7203.,11.,3.,2802.,0.,0.,10019.,0.513781435795,2.42878496921,143.
9.46,7202.,8.,5.,2802.,0.,0.,10017.,0.501114252141,3.25724263892,104.
9.48,7205.,4.,6.,2800.,0.,0.,10015.,0.493718307813,6.41833800157,52.
9.5,7209.,4.,5.,2795.,0.,0.,10013.,0.491507287779,6.38959474113,52.
9.52,7213.,3.,0.,2798.,0.,0.,10014.,0.494315860569,8.5681415832,39.
9.54,7222.,1.,1.,2791.,0.,0.,10015.,0.502606200264,26.1355224137,13.
9.56,7226.,0.,2.,2788.,0.,0.,10016.,0.515576378073,inf,0.
9.58,7229.,0.,0.,2788.,0.,0.,10017.,0.533301061587,inf,0.
9.6,7235.,0.,0.,2783.,0.,0.,10018.,0.555807809106,inf,0.
9.62,7242.,1.,0.,2774.,0.,0.,10017.,0.582740221161,30.3024915004,13.
9.64,7244.,1.,1.,2768.,0.,0.,10014.,0.6132149762,31.8871787624,13.
9.66,7253.,0.,1.,2761.,0.,0.,10015.,0.647402540432,inf,0.
9.68,7259.,0.,2.,2752.,0.,0.,10013.,0.684377053001,inf,0.
9.7,7261.,0.,0.,2752.,0.,0.,10013.,0.723101267544,inf,0.
9.72,7262.,1.,0.,2750.,0.,0.,10013.,0.763350425472,39.6942221245,13.
9.74,7262.,0.,1.,2745.,0.,0.,10008.,0.804877338614,inf,0.
9.76,7263.,4.,0.,2740.,0.,0.,10007.,0.846551037664,11.0051634896,52.
9.78,7269.,2.,0.,2734.,0.,0.,10005.,0.888617296527,23.1040497097,26.
9.8,7271.,1.,2.,2732.,0.,0.,10006.,0.929000410772,48.3080213601,13.
9.82,7272.,3.,1.,2725.,0.,0.,10001.,0.968233038783,16.7827060056,39.
9.84,7275.,8.,0.,2721.,0.,0.,10004.,1.00476430424,6.53096797758,104.
9.86,7274.,6.,5.,2720.,0.,0.,10005.,1.03814331087,8.99724202755,78.
9.88,7278.,10.,0.,2723.,0.,0.,10011.,1.06838137546,5.55558315237,130.
9.9,7285.,5.,6.,2716.,0.,0.,10012.,1.09581087478,11.3964330977,65.
9.92,7286.,5.,9.,2715.,0.,0.,10015.,1.11791296922,11.6262948799,65.
9.94,7284.,9.,4.,2715.,0.,0.,10012.,1.13564556185,6.56150769071,117.
9.96,7283.,13.,3.,2714.,0.,0.,10013.,1.14822262061,4.59289048245,169.
9.98,7283.,13.,5.,2707.,0.,0.,10008.,1.15658992949,4.62635971796,169.
10.,7290.,14.,4.,2702.,0.,0.,10010.,1.16008387032,4.30888294692,182.
