t,s,e,i,r,c,o,n,reff,coal,reportr
5.,7348.,15.,7.,2630.,0.,0.,10000.,1.18349023026,4.10276613156,195.
5.02,7343.,13.,8.,2633.,0.,0.,9997.,1.18037450699,4.72149802797,169.
5.04,7344.,18.,9.,2626.,0.,0.,9997.,1.1725802437,3.38745403736,234.
5.06,7347.,16.,10.,2625.,0.,0.,9998.,1.15981897901,3.76941168178,208.
5.08,7340.,19.,17.,2624.,0.,0.,10000.,1.14042159659,3.12115384331,247.
5.1,7325.,26.,17.,2628.,0.,0.,9996.,1.11585525841,2.23171051683,338.
5.12,7320.,28.,13.,2637.,0.,0.,9998.,1.08790070769,2.02038702857,364.
5.14,7311.,31.,15.,2639.,0.,0.,9996.,1.05596915994,1.77130310699,403.
5.16,7295.,39.,13.,2649.,0.,0.,9996.,1.01953824991,1.35938433321,507.
5.18,7287.,30.,25.,2653.,0.,0.,9995.,0.981601058277,1.70144183435,390.
5.2,7264.,37.,31.,2664.,0.,0.,9996.,0.939358652203,1.32017972742,481.
5.22,7251.,45.,20.,2680.,0.,0.,9996.,0.897074343687,1.03661924159,585.
5.24,7243.,37.,20.,2693.,0.,0.,9993.,0.854797398429,1.20133688428,481.
5.26,7225.,30.,27.,2709.,0.,0.,9991.,0.811053002632,1.40582520456,390.
5.28,7201.,40.,21.,2729.,0.,0.,9991.,0.767035328655,0.997145927251,520.
5.3,7186.,27.,27.,2748.,0.,0.,9988.,0.725396028206,1.39705901729,351.
5.32,7173.,36.,7.,2772.,0.,0.,9988.,0.685495720968,0.990160485842,468.
5.34,7169.,24.,14.,2776.,0.,0.,9983.,0.649089788153,1.40636120766,312.
5.36,7163.,21.,7.,2793.,0.,0.,9984.,0.61493876173,1.52270550524,273.
5.38,7167.,16.,5.,2796.,0.,0.,9984.,0.585041362435,1.90138442791,208.
5.4,7166.,14.,5.,2800.,0.,0.,9985.,0.558464360227,2.07429619513,182.
5.42,7171.,10.,6.,2800.,0.,0.,9987.,0.536507950019,2.7898413401,130.
5.44,7175.,12.,3.,2799.,0.,0.,9989.,0.519025689549,2.24911132138,156.
5.46,7176.,8.,7.,2796.,0.,0.,9987.,0.506370367933,3.29140739156,104.
5.48,7186.,6.,6.,2791.,0.,0.,9989.,0.499184385272,4.32626467236,78.
5.5,7185.,3.,8.,2788.,0.,0.,9984.,0.496753509893,8.61039417148,39.
5.52,7186.,2.,3.,2792.,0.,0.,9983.,0.499484405938,12.9865945544,26.
5.54,7188.,2.,3.,2790.,0.,0.,9983.,0.507420373475,13.1929297103,26.
5.56,7193.,3.,1.,2785.,0.,0.,9982.,0.52069266114,9.02533945976,39.
5.58,7197.,2.,1.,2782.,0.,0.,9982.,0.538722886841,14.0067950579,26.
5.6,7207.,2.,2.,2776.,0.,0.,9987.,0.56154711496,14.600224989,26.
5.62,7213.,2.,0.,2773.,0.,0.,9988.,0.588560535498,15.302573923,26.
5.64,7220.,0.,2.,2767.,0.,0.,9989.,0.619521916257,inf,0.
5.66,7226.,0.,2.,2756.,0.,0.,9984.,0.654185106048,inf,0.
5.68,7232.,2.,0.,2747.,0.,0.,9981.,0.691618836416,17.9820897468,26.
5.7,7239.,0.,2.,2742.,0.,0.,9983.,0.731112147256,inf,0.
5.72,7239.,0.,0.,2740.,0.,0.,9979.,0.772010255318,inf,0.
5.74,7246.,0.,0.,2732.,0.,0.,9978.,0.81447015351,inf,0.
5.76,7250.,1.,0.,2725.,0.,0.,9976.,0.85708157701,44.5682420045,13.
5.78,7253.,2.,0.,2718.,0.,0.,9973.,0.899391205887,23.3841713531,26.
5.8,7265.,3.,0.,2707.,0.,0.,9975.,0.941465838607,16.3187412025,39.
5.82,7272.,1.,3.,2699.,0.,0.,9975.,0.981544542616,51.040316216,13.
5.84,7274.,3.,5.,2696.,0.,0.,9978.,1.01843724204,17.6529121953,39.
5.86,7278.,3.,2.,2696.,0.,0.,9979.,1.05299358836,18.2518888649,39.
5.88,7282.,5.,3.,2693.,0.,0.,9983.,1.08387927986,11.2723445105,65.
5.9,7285.,8.,3.,2687.,0.,0.,9983.,1.11120699802,7.22284548711,104.
5.92,7281.,14.,3.,2686.,0.,0.,9984.,1.1330676282,4.20853690476,182.
5.94,7282.,14.,7.,2680.,0.,0.,9983.,1.15128516147,4.27620202832,182.
5.96,7276.,13.,4.,2688.,0.,0.,9981.,1.16358531442,4.65434125766,169.
5.98,7272.,11.,10.,2687.,0.,0.,9980.,1.17095259699,5.53541227666,143.
6.,7274.,12.,5.,2690.,0.,0.,9981.,1.17380179866,5.08647446087,156.
6.02,7275.,11.,11.,2685.,0.,0.,9982.,1.17120095363,5.53658632625,143.
6.04,7270.,21.,7.,2683.,0.,0.,9981.,1.16262578832,2.87888290441,273.
6.06,7264.,14.,18.,2687.,0.,0.,9983.,1.14843935909,4.26563190521,182.
6.08,7240.,37.,7.,2699.,0.,0.,9983.,1.12680007775,1.58361092008,481.
6.1,7241.,29.,18.,2696.,0.,0.,9984.,1.10438489474,1.98027636298,377.
6.12,7228.,36.,8.,2709.,0.,0.,9981.,1.07605730203,1.55430499183,468.
6.14,7217.,31.,13.,2719.,0.,0.,9980.,1.04406337713,1.75133211648,403.
6.16,7208.,30.,21.,2720.,0.,0.,9979.,1.00909540916,1.7490987092,390.
6.18,7200.,25.,19.,2734.,0.,0.,9978.,0.971534089115,2.02079090536,325.
6.2,7193.,28.,14.,2745.,0.,0.,9980.,0.931668411518,1.73024133568,364.
6.22,7172.,35.,16.,2757.,0.,0.,9980.,0.888723200925,1.32038875566,455.
6.24,7168.,40.,6.,2766.,0.,0.,9980.,0.847048054484,1.10116247083,520.
6.26,7161.,32.,18.,2766.,0.,0.,9977.,0.804996598939,1.30811947328,416.
6.28,7159.,31.,11.,2776.,0.,0.,9977.,0.763631624576,1.28093046703,403.
6.3,7151.,26.,16.,2784.,0.,0.,9977.,0.72265880734,1.44531761468,338.
6.32,7151.,21.,13.,2794.,0.,0.,9979.,0.684009614776,1.69373809373,273.
6.34,7147.,18.,9.,2801.,0.,0.,9975.,0.647616857727,1.87089314454,234.
6.36,7152.,17.,9.,2796.,0.,0.,9974.,0.614610014049,1.87998357239,221.
6.38,7155.,16.,9.,2796.,0.,0.,9976.,0.584530177394,1.89972307653,208.
6.4,7153.,14.,12.,2797.,0.,0.,9976.,0.557954150714,2.07240113122,182.
6.42,7150.,15.,8.,2804.,0.,0.,9977.,0.535472976948,1.85630632008,195.
6.44,7145.,15.,6.,2809.,0.,0.,9975.,0.517580958587,1.79428065643,195.
6.46,7152.,12.,7.,2805.,0.,0.,9976.,0.505233301608,2.18934430697,156.
6.48,7153.,3.,10.,2807.,0.,0.,9973.,0.497689179007,8.62661243612,39.
6.5,7156.,3.,5.,2808.,0.,0.,9972.,0.49534388533,8.58596067905,39.
6.52,7157.,5.,3.,2808.,0.,0.,9973.,0.497967489746,5.17886189335,65.
6.54,7168.,4.,4.,2804.,0.,0.,9980.,0.506160626116,6.58008813951,52.
6.56,7171.,1.,5.,2802.,0.,0.,9979.,0.519256165224,27.0013205916,13.
6.58,7179.,0.,0.,2800.,0.,0.,9979.,0.537537070134,inf,0.
6.6,7187.,0.,0.,2794.,0.,0.,9981.,0.560325409782,inf,0.
6.62,7195.,0.,0.,2789.,0.,0.,9984.,0.587326999124,inf,0.
6.64,7197.,0.,0.,2786.,0.,0.,9983.,0.61791952998,inf,0.
6.66,7200.,0.,0.,2781.,0.,0.,9981.,0.652027192535,inf,0.
6.68,7200.,0.,0.,2780.,0.,0.,9980.,0.688627569923,inf,0.
6.7,7205.,1.,0.,2773.,0.,0.,9979.,0.727969957223,37.8544377756,13.
6.72,7213.,0.,1.,2762.,0.,0.,9976.,0.769468786237,inf,0.
6.74,7217.,1.,1.,2760.,0.,0.,9979.,0.811129182692,42.1787175,13.
6.76,7218.,0.,2.,2756.,0.,0.,9976.,0.853298596256,inf,0.
6.78,7227.,0.,1.,2751.,0.,0.,9979.,0.89562830521,inf,0.
6.8,7232.,2.,0.,2745.,0.,0.,9979.,0.936813728989,24.3571569537,26.
6.82,7236.,0.,2.,2740.,0.,0.,9978.,0.97639175956,inf,0.
6.84,7246.,1.,4.,2730.,0.,0.,9981.,1.01421201025,52.7390245329,13.
6.86,7245.,7.,1.,2728.,0.,0.,9981.,1.04800904856,7.78521007502,91.
6.88,7253.,6.,0.,2722.,0.,0.,9981.,1.0797791383,9.35808586529,78.
6.9,7255.,4.,1.,2719.,0.,0.,9979.,1.10707457508,14.3919694761,52.
6.92,7254.,6.,2.,2713.,0.,0.,9975.,1.12988441973,9.79233163762,78.
6.94,7249.,9.,5.,2710.,0.,0.,9973.,1.14721702773,6.62836504912,117.
6.96,7247.,11.,5.,2707.,0.,0.,9970.,1.16022628334,5.48470606672,143.
6.98,7233.,20.,10.,2703.,0.,0.,9966.,1.16630884028,3.03240298474,260.
7.,7226.,20.,10.,2712.,0.,0.,9968.,1.16757680154,3.03569968401,260.
7.02,7225.,20.,12.,2715.,0.,0.,9972.,1.16431787997,3.02722648792,260.
7.04,7223.,22.,6.,2722.,0.,0.,9973.,1.15603608995,2.73244893987,286.
7.06,7224.,19.,14.,2718.,0.,0.,9975.,1.14303133605,3.12829628814,247.
7.08,7218.,24.,13.,2720.,0.,0.,9975.,1.12427705288,2.43593361457,312.
7.1,7213.,31.,10.,2723.,0.,0.,9977.,1.10088623812,1.8466478833,403.
7.12,7209.,28.,16.,2727.,0.,0.,9980.,1.07333624442,1.99333873963,364.
7.14,7202.,25.,16.,2737.,0.,0.,9980.,1.04189336873,2.16713820695,325.
7.16,7193.,31.,12.,2745.,0.,0.,9981.,1.00679367785,1.68881520156,403.
7.18,7181.,32.,18.,2750.,0.,0.,9981.,0.968679074142,1.57410349548,416.
7.2,7167.,37.,22.,2755.,0.,0.,9981.,0.928207772488,1.30450822079,481.
7.22,7155.,43.,13.,2772.,0.,0.,9983.,0.886350196563,1.07186535398,559.
7.24,7138.,40.,24.,2782.,0.,0.,9984.,0.843164989609,1.09611448649,520.
7.26,7129.,35.,17.,2806.,0.,0.,9987.,0.800596908659,1.18945826429,455.
7.28,7122.,39.,10.,2819.,0.,0.,9990.,0.758696353294,1.01159513773,507.
7.3,7130.,25.,15.,2822.,0.,0.,9992.,0.719454939501,1.49646627416,325.
7.32,7129.,20.,15.,2827.,0.,0.,9991.,0.681086240684,1.77082422578,260.
7.34,7122.,21.,8.,2840.,0.,0.,9991.,0.644318020061,1.59545414491,273.
7.36,7121.,19.,8.,2843.,0.,0.,9991.,0.610904771156,1.67194990001,247.
7.38,7129.,15.,5.,2842.,0.,0.,9991.,0.581531702378,2.01597656824,195.
7.4,7129.,10.,10.,2839.,0.,0.,9988.,0.555413982884,2.888152711,130.
7.42,7129.,11.,3.,2847.,0.,0.,9990.,0.533205494011,2.52060778987,143.
7.44,7130.,13.,2.,2845.,0.,0.,9990.,0.515718847488,2.06287538995,169.
7.46,7135.,11.,1.,2841.,0.,0.,9988.,0.503426817986,2.37983586684,143.
7.48,7142.,6.,6.,2835.,0.,0.,9989.,0.496127870806,4.29977488032,78.
7.5,7144.,5.,4.,2835.,0.,0.,9988.,0.493721064213,5.13469906782,65.
7.52,7150.,3.,1.,2834.,0.,0.,9988.,0.496733328743,8.61004436488,39.
7.54,7155.,2.,2.,2826.,0.,0.,9985.,0.504989644246,13.1297307504,26.
7.56,7157.,0.,1.,2826.,0.,0.,9984.,0.51798288084,inf,0.
7.58,7160.,1.,0.,2824.,0.,0.,9985.,0.535792268257,27.8611979494,13.
7.6,7165.,3.,0.,2819.,0.,0.,9987.,0.558274605063,9.67675982109,39.
7.62,7172.,4.,0.,2813.,0.,0.,9989.,0.585156464736,7.60703404157,52.
7.64,7178.,4.,1.,2808.,0.,0.,9991.,0.615794754579,8.00533180953,52.
7.66,7187.,1.,2.,2800.,0.,0.,9990.,0.650263569935,33.8137056366,13.
7.68,7196.,1.,0.,2798.,0.,0.,9995.,0.68721211511,35.7350299857,13.
7.7,7201.,2.,0.,2791.,0.,0.,9994.,0.726473806209,18.8883189614,26.
7.72,7202.,1.,1.,2789.,0.,0.,9993.,0.766988310701,39.8833921564,13.
7.74,7210.,1.,2.,2784.,0.,0.,9997.,0.808883388344,42.0619361939,13.
7.76,7215.,2.,1.,2781.,0.,0.,9999.,0.850981974547,22.1255313382,26.
7.78,7216.,2.,0.,2779.,0.,0.,9997.,0.892654936001,23.209028336,26.
7.8,7216.,4.,0.,2773.,0.,0.,9993.,0.93343157797,12.1346105136,52.
7.82,7219.,5.,1.,2767.,0.,0.,9992.,0.972733030761,10.1164235199,65.
7.84,7223.,4.,3.,2762.,0.,0.,9992.,1.00987975153,13.1284367699,52.
7.86,7228.,6.,4.,2756.,0.,0.,9994.,1.04418992115,9.04964598328,78.
7.88,7233.,7.,3.,2753.,0.,0.,9996.,1.07518582044,7.98709466616,91.
7.9,7243.,7.,3.,2745.,0.,0.,9998.,1.10314305603,8.19477698765,91.
7.92,7245.,7.,6.,2740.,0.,0.,9998.,1.12588654888,8.36372864881,91.
7.94,7246.,8.,4.,2738.,0.,0.,9996.,1.14410368915,7.43667397946,104.
7.96,7248.,11.,4.,2736.,0.,0.,9999.,1.15702092375,5.46955345774,143.
7.98,7244.,12.,5.,2736.,0.,0.,9997.,1.1644604288,5.04599519145,156.
8.,7241.,12.,7.,2735.,0.,0.,9995.,1.16683991932,5.05630631705,156.
8.02,7238.,19.,9.,2730.,0.,0.,9996.,1.16361233536,3.18462323362,247.
8.04,7241.,20.,11.,2726.,0.,0.,9998.,1.15601910532,3.00564967383,260.
8.06,7238.,20.,8.,2731.,0.,0.,9997.,1.14272621464,2.97108815807,260.
8.08,7231.,16.,14.,2734.,0.,0.,9995.,1.12404820461,3.653156665,208.
8.1,7228.,18.,12.,2737.,0.,0.,9995.,1.10118890805,3.18121240104,234.
8.12,7215.,27.,5.,2750.,0.,0.,9997.,1.07240283633,2.06536842552,351.
8.14,7209.,25.,12.,2754.,0.,0.,10000.,1.04082022724,2.16490607265,325.
8.16,7207.,22.,14.,2755.,0.,0.,9998.,1.0070380138,2.38027166899,286.
8.18,7189.,32.,14.,2759.,0.,0.,9994.,0.968496789435,1.57380728283,416.
8.2,7171.,39.,20.,2764.,0.,0.,9994.,0.927517749443,1.23669033259,507.
8.22,7155.,43.,16.,2781.,0.,0.,9995.,0.885286044251,1.07057847212,559.
8.24,7154.,40.,12.,2789.,0.,0.,9995.,0.844124938895,1.09736242056,520.
8.26,7136.,32.,8.,2819.,0.,0.,9995.,0.800741591554,1.30120508628,416.
8.28,7135.,32.,8.,2820.,0.,0.,9995.,0.759700993753,1.23451411485,416.
8.3,7129.,26.,15.,2824.,0.,0.,9994.,0.719210076998,1.438420154,338.
8.32,7130.,27.,13.,2826.,0.,0.,9996.,0.680841050921,1.3112494314,351.
8.34,7131.,17.,19.,2833.,0.,0.,10000.,0.644551619269,1.97156965894,221.
8.36,7125.,21.,8.,2846.,0.,0.,10000.,0.610697804753,1.51220408796,273.
8.38,7125.,20.,11.,2843.,0.,0.,9999.,0.58074040079,1.50992504205,260.
8.4,7126.,22.,4.,2848.,0.,0.,10000.,0.554514039273,1.31066954737,286.
8.42,7129.,16.,4.,2851.,0.,0.,10000.,0.532672288517,1.73118493768,208.
8.44,7135.,13.,4.,2849.,0.,0.,10001.,0.51551286987,2.06205147948,169.
8.46,7133.,9.,8.,2848.,0.,0.,9998.,0.50278231687,2.90496449747,117.
8.48,7139.,7.,4.,2850.,0.,0.,10000.,0.495373960673,3.67992085072,91.
8.5,7142.,6.,5.,2848.,0.,0.,10001.,0.492941250892,4.27215750773,78.
8.52,7146.,6.,3.,2845.,0.,0.,10000.,0.495859689448,4.29745064189,78.
8.54,7154.,1.,3.,2842.,0.,0.,10000.,0.504161687081,26.2164077282,13.
8.56,7161.,0.,1.,2838.,0.,0.,10000.,0.517443142244,inf,0.
8.58,7169.,1.,1.,2833.,0.,0.,10004.,0.535446872784,27.8432373848,13.
8.6,7175.,3.,0.,2826.,0.,0.,10004.,0.558103762675,9.67379855303,39.
8.62,7187.,0.,3.,2816.,0.,0.,10006.,0.585384051303,inf,0.
8.64,7191.,1.,0.,2813.,0.,0.,10005.,0.616046771558,32.034432121,13.
8.66,7199.,0.,0.,2810.,0.,0.,10009.,0.650112852033,inf,0.
8.68,7205.,0.,0.,2801.,0.,0.,10006.,0.687315182836,inf,0.
8.7,7212.,0.,0.,2791.,0.,0.,10003.,0.726928913816,inf,0.
8.72,7223.,1.,0.,2785.,0.,0.,10009.,0.767995085816,39.9357444624,13.
8.74,7228.,2.,0.,2780.,0.,0.,10010.,0.809849671578,21.056091461,26.
8.76,7234.,3.,0.,2776.,0.,0.,10013.,0.852029991436,14.7685198516,39.
8.78,7240.,1.,0.,2770.,0.,0.,10011.,0.894371359205,46.5073106787,13.
8.8,7252.,1.,0.,2759.,0.,0.,10012.,0.936308155736,48.6880240983,13.
8.82,7256.,2.,0.,2753.,0.,0.,10011.,0.975863017021,25.3724384425,26.
8.84,7260.,5.,0.,2748.,0.,0.,10013.,1.01292404251,10.5344100421,65.
8.86,7265.,4.,3.,2739.,0.,0.,10011.,1.04775286107,13.6207871939,52.
8.88,7267.,7.,2.,2736.,0.,0.,10012.,1.07851360988,8.01181538772,91.
8.9,7263.,6.,3.,2735.,0.,0.,10007.,1.10519427652,9.57835039652,78.
8.92,7265.,6.,5.,2730.,0.,0.,10006.,1.1280919322,9.77679674577,78.
8.94,7261.,7.,10.,2724.,0.,0.,10002.,1.14578436123,8.51154096911,91.
8.96,7256.,18.,4.,2724.,0.,0.,10002.,1.15795056888,3.34519053231,234.
8.98,7253.,19.,8.,2722.,0.,0.,10002.,1.16532432616,3.18930868213,247.
9.,7248.,22.,7.,2724.,0.,0.,10001.,1.16726721298,2.75899523068,286.
9.02,7244.,19.,10.,2726.,0.,0.,9999.,1.16422751342,3.18630687883,247.
9.04,7241.,25.,5.,2729.,0.,0.,10000.,1.1557879015,2.40403883511,325.
9.06,7243.,19.,10.,2728.,0.,0.,10000.,1.14317255359,3.12868277824,247.
9.08,7233.,24.,10.,2734.,0.,0.,10001.,1.12368455364,2.43464986621,312.
9.1,7226.,21.,14.,2741.,0.,0.,10002.,1.10011374234,2.72409117151,273.
9.12,7220.,22.,11.,2747.,0.,0.,10000.,1.07282406843,2.53576597993,286.
9.14,7209.,31.,10.,2751.,0.,0.,10001.,1.04071615562,1.74571742233,403.
9.16,7201.,33.,9.,2756.,0.,0.,9999.,1.00609900053,1.58536812204,429.
9.18,7193.,34.,16.,2760.,0.,0.,10003.,0.968163795952,1.48072109969,442.
9.2,7189.,29.,18.,2769.,0.,0.,10005.,0.928823601821,1.66547680327,377.
9.22,7176.,34.,12.,2787.,0.,0.,10009.,0.886642447684,1.35604139058,442.
9.24,7171.,27.,13.,2799.,0.,0.,10010.,0.844862898752,1.62714336056,351.
9.26,7166.,20.,14.,2807.,0.,0.,10007.,0.803143683384,2.0881735768,260.
9.28,7150.,23.,16.,2818.,0.,0.,10007.,0.760385203978,1.71913176552,299.
9.3,7136.,25.,13.,2832.,0.,0.,10006.,0.719052891395,1.4956300141,325.
9.32,7131.,28.,11.,2837.,0.,0.,10007.,0.680188034309,1.26320634943,364.
9.34,7133.,15.,19.,2840.,0.,0.,10007.,0.644281396831,2.23350884235,195.
9.36,7125.,20.,12.,2850.,0.,0.,10007.,0.610270615322,1.58670359984,260.
9.38,7118.,20.,8.,2854.,0.,0.,10000.,0.580111831833,1.50829076276,260.
9.4,7120.,17.,12.,2853.,0.,0.,10002.,0.55393635834,1.69439356669,221.
9.42,7121.,12.,6.,2863.,0.,0.,10002.,0.531968142286,2.30519528324,156.
9.44,7124.,11.,6.,2863.,0.,0.,10004.,0.51456375212,2.43248319184,143.
9.46,7121.,11.,1.,2868.,0.,0.,10001.,0.501785909431,2.37207884458,143.
9.48,7131.,8.,4.,2861.,0.,0.,10004.,0.494620993676,3.21503645889,104.
9.5,7138.,4.,5.,2859.,0.,0.,10006.,0.492418985788,6.40144681524,52.
9.52,7145.,1.,3.,2856.,0.,0.,10005.,0.495542528359,25.7682114747,13.
9.54,7148.,2.,1.,2853.,0.,0.,10004.,0.503537435914,13.0919733338,26.
9.56,7153.,1.,0.,2849.,0.,0.,10003.,0.516710061199,26.8689231823,13.
9.58,7156.,0.,0.,2848.,0.,0.,10004.,0.534475913188,inf,0.
9.6,7156.,0.,0.,2842.,0.,0.,9998.,0.556959899563,inf,0.
9.62,7166.,0.,0.,2830.,0.,0.,9996.,0.584257499981,inf,0.
9.64,7168.,0.,0.,2827.,0.,0.,9995.,0.614690764956,inf,0.
9.66,7179.,0.,0.,2818.,0.,0.,9997.,0.649084933688,inf,0.
9.68,7184.,0.,0.,2813.,0.,0.,9997.,0.685928870522,inf,0.
9.7,7188.,0.,0.,2808.,0.,0.,9996.,0.72501720905,inf,0.
9.72,7192.,0.,0.,2805.,0.,0.,9997.,0.765616883705,inf,0.
9.74,7197.,0.,0.,2800.,0.,0.,9997.,0.807424930085,inf,0.
9.76,7203.,1.,0.,2792.,0.,0.,9996.,0.849821591887,44.1907227781,13.
9.78,7203.,1.,0.,2787.,0.,0.,9991.,0.891581881282,46.3622578267,13.
9.8,7207.,1.,0.,2783.,0.,0.,9991.,0.932453997048,48.4876078465,13.
9.82,7214.,0.,3.,2775.,0.,0.,9992.,0.972059299613,inf,0.
9.84,7223.,1.,3.,2766.,0.,0.,9993.,1.00977869281,52.5084920264,13.
9.86,7220.,6.,1.,2767.,0.,0.,9994.,1.04303420458,9.039629773,78.
9.88,7219.,7.,4.,2761.,0.,0.,9991.,1.07364175542,7.97562446883,91.
9.9,7221.,7.,1.,2764.,0.,0.,9993.,1.10034263366,8.17397385002,91.
9.92,7214.,15.,2.,2764.,0.,0.,9995.,1.12140557988,3.88753934357,195.
9.94,7215.,12.,5.,2760.,0.,0.,9992.,1.13966500746,4.93854836567,156.
9.96,7209.,13.,5.,2762.,0.,0.,9989.,1.1519472942,4.60778917679,169.
9.98,7204.,16.,2.,2765.,0.,0.,9987.,1.15919003611,3.76736761736,208.
10.,7205.,16.,7.,2761.,0.,0.,9989.,1.16173614452,3.77564246968,208.
