t,cases
5.01,2.08
5.02,2.08
5.03,2.405
5.04,2.405
5.05,2.99
5.06,2.99
5.07,3.51
5.08,3.51
5.09,3.445
5.1,3.445
5.11,3.315
5.12,3.315
5.13,3.77
5.14,3.77
5.15,4.03
5.16,4.03
5.17,3.51
5.18,3.51
5.19,3.64
5.2,3.64
5.21,4.55
5.22,4.55
5.23,4.615
5.24,4.615
5.25,4.29
5.26,4.29
5.27,4.55
5.28,4.55
5.29,4.225
5.3,4.225
5.31,4.03
5.32,4.03
5.33,4.095
5.34,4.095
5.35,3.575
5.36,3.575
5.37,2.925
5.38,2.925
5.39,2.405
5.4,2.405
5.41,2.275
5.42,2.275
5.43,1.82
5.44,1.82
5.45,1.56
5.46,1.56
5.47,1.43
5.48,1.43
5.49,0.845
5.5,0.845
5.51,0.52
5.52,0.52
5.53,0.455
5.54,0.455
5.55,0.325
5.56,0.325
5.57,0.26
5.58,0.26
5.59,0.26
5.6,0.26
5.61,0.195
5.62,0.195
5.63,0.065
5.64,0.065
5.65,0.
5.66,0.
5.67,0.065
5.68,0.065
5.69,0.065
5.7,0.065
5.71,0.
5.72,0.
5.73,0.
5.74,0.
5.75,0.
5.76,0.
5.77,0.
5.78,0.
5.79,0.065
5.8,0.065
5.81,0.13
5.82,0.13
5.83,0.26
5.84,0.26
5.85,0.52
5.86,0.52
5.87,0.845
5.88,0.845
5.89,1.105
5.9,1.105
5.91,1.56
5.92,1.56
5.93,2.08
5.94,2.08
5.95,1.95
5.96,1.95
5.97,1.755
5.98,1.755
5.99,2.145
6.,2.145
6.01,2.6
6.02,2.6
6.03,2.99
6.04,2.99
6.05,3.25
6.06,3.25
6.07,3.25
6.08,3.25
6.09,3.185
6.1,3.185
6.11,2.925
6.12,2.925
6.13,3.38
6.14,3.38
6.15,3.705
6.16,3.705
6.17,3.9
6.18,3.9
6.19,3.835
6.2,3.835
6.21,3.185
6.22,3.185
6.23,3.445
6.24,3.445
6.25,4.03
6.26,4.03
6.27,4.745
6.28,4.745
6.29,4.68
6.3,4.68
6.31,3.705
6.32,3.705
6.33,2.535
6.34,2.535
6.35,2.08
6.36,2.08
6.37,2.275
6.38,2.275
6.39,1.95
6.4,1.95
6.41,1.56
6.42,1.56
6.43,1.43
6.44,1.43
6.45,1.495
6.46,1.495
6.47,1.495
6.48,1.495
6.49,1.04
6.5,1.04
6.51,0.65
6.52,0.65
6.53,0.39
6.54,0.39
6.55,0.065
6.56,0.065
6.57,0.
6.58,0.
6.59,0.
6.6,0.
6.61,0.065
6.62,0.065
6.63,0.065
6.64,0.065
6.65,0.
6.66,0.
6.67,0.
6.68,0.
6.69,0.
6.7,0.
6.71,0.
6.72,0.
6.73,0.
6.74,0.
6.75,0.13
6.76,0.13
6.77,0.26
6.78,0.26
6.79,0.325
6.8,0.325
6.81,0.325
6.82,0.325
6.83,0.13
6.84,0.13
6.85,0.13
6.86,0.13
6.87,0.39
6.88,0.39
6.89,0.65
6.9,0.65
6.91,0.975
6.92,0.975
6.93,1.625
6.94,1.625
6.95,2.015
6.96,2.015
6.97,2.21
6.98,2.21
6.99,2.665
7.,2.665
7.01,2.665
7.02,2.665
7.03,2.665
7.04,2.665
7.05,2.795
7.06,2.795
7.07,3.25
7.08,3.25
7.09,3.38
7.1,3.38
7.11,3.185
7.12,3.185
7.13,4.16
7.14,4.16
7.15,4.485
7.16,4.485
7.17,4.225
7.18,4.225
7.19,4.94
7.2,4.94
7.21,5.2
7.22,5.2
7.23,4.875
7.24,4.875
7.25,4.745
7.26,4.745
7.27,4.55
7.28,4.55
7.29,3.835
7.3,3.835
7.31,3.185
7.32,3.185
7.33,2.925
7.34,2.925
7.35,2.34
7.36,2.34
7.37,2.21
7.38,2.21
7.39,2.21
7.4,2.21
7.41,2.015
7.42,2.015
7.43,1.755
7.44,1.755
7.45,1.235
7.46,1.235
7.47,0.65
7.48,0.65
7.49,0.325
7.5,0.325
7.51,0.39
7.52,0.39
7.53,0.325
7.54,0.325
7.55,0.26
7.56,0.26
7.57,0.26
7.58,0.26
7.59,0.13
7.6,0.13
7.61,0.
7.62,0.
7.63,0.13
7.64,0.13
7.65,0.13
7.66,0.13
7.67,0.13
7.68,0.13
7.69,0.13
7.7,0.13
7.71,0.0649999999999
7.72,0.0650000000001
7.73,0.0649999999999
7.74,0.0650000000001
7.75,0.0650000000001
7.76,0.0649999999999
7.77,0.0649999999999
7.78,0.0650000000001
7.79,0.
7.8,0.
7.81,0.0649999999999
7.82,0.0650000000001
7.83,0.325
7.84,0.325
7.85,0.26
7.86,0.26
7.87,0.52
7.88,0.52
7.89,1.235
7.9,1.235
7.91,1.3
7.92,1.3
7.93,1.3
7.94,1.3
7.95,1.3
7.96,1.3
7.97,1.365
7.98,1.365
7.99,1.755
8.,1.755
8.01,2.21
8.02,2.21
8.03,2.405
8.04,2.405
8.05,2.665
8.06,2.665
8.07,2.665
8.08,2.665
8.09,3.25
8.1,3.25
8.11,5.265
8.12,5.265
8.13,5.46
8.14,5.46
8.15,4.81
8.16,4.81
8.17,5.2
8.18,5.2
8.19,5.46
8.2,5.46
8.21,5.2
8.22,5.2
8.23,5.005
8.24,5.005
8.25,4.875
8.26,4.875
8.27,3.705
8.28,3.705
8.29,2.99
8.3,2.99
8.31,3.12
8.32,3.12
8.33,2.99
8.34,2.99
8.35,2.535
8.36,2.535
8.37,2.275
8.38,2.275
8.39,2.145
8.4,2.145
8.41,1.885
8.42,1.885
8.43,1.56
8.44,1.56
8.45,1.3
8.46,1.3
8.47,1.105
8.48,1.105
8.49,0.845
8.5,0.845
8.51,0.52
8.52,0.52
8.53,0.325
8.54,0.325
8.55,0.195
8.56,0.195
8.57,0.0649999999999
8.58,0.0650000000001
8.59,0.0650000000001
8.6,0.0649999999999
8.61,0.
8.62,0.
8.63,0.
8.64,0.
8.65,0.
8.66,0.
8.67,0.
8.68,0.
8.69,0.
8.7,0.
8.71,0.
8.72,0.
8.73,0.13
8.74,0.13
8.75,0.39
8.76,0.39
8.77,0.455
8.78,0.455
8.79,0.39
8.8,0.39
8.81,0.585
8.82,0.585
8.83,0.91
8.84,0.91
8.85,1.105
8.86,1.105
8.87,0.91
8.88,0.91
8.89,0.65
8.9,0.65
8.91,0.78
8.92,0.78
8.93,1.105
8.94,1.105
8.95,1.3
8.96,1.3
8.97,1.43
8.98,1.43
8.99,1.43
9.,1.43
9.01,1.625
9.02,1.625
9.03,2.08
9.04,2.08
9.05,2.795
9.06,2.795
9.07,3.055
9.08,3.055
9.09,2.73
9.1,2.73
9.11,2.73
9.12,2.73
9.13,3.38
9.14,3.38
9.15,3.575
9.16,3.575
9.17,3.9
9.18,3.9
9.19,4.55
9.2,4.55
9.21,4.095
9.22,4.095
9.23,3.38
9.24,3.38
9.25,3.055
9.26,3.055
9.27,2.99
9.28,2.99
9.29,3.38
9.3,3.38
9.31,3.835
9.32,3.835
9.33,3.575
9.34,3.575
9.35,2.925
9.36,2.925
9.37,2.405
9.38,2.405
9.39,2.145
9.4,2.145
9.41,1.495
9.42,1.495
9.43,1.105
9.44,1.105
9.45,0.975
9.46,0.975
9.47,0.845
9.48,0.845
9.49,0.78
9.5,0.78
9.51,0.65
9.52,0.65
9.53,0.585
9.54,0.585
9.55,0.39
9.56,0.39
9.57,0.195
9.58,0.195
9.59,0.195
9.6,0.195
9.61,0.13
9.62,0.13
9.63,0.
9.64,0.
9.65,0.
9.66,0.
9.67,0.
9.68,0.
9.69,0.
9.7,0.
9.71,0.0650000000001
9.72,0.0649999999999
9.73,0.195
9.74,0.195
9.75,0.195
9.76,0.195
9.77,0.0649999999999
9.78,0.0650000000001
9.79,0.13
9.8,0.13
9.81,0.13
9.82,0.13
9.83,0.195
9.84,0.195
9.85,0.585
9.86,0.585
9.87,0.975
9.88,0.975
9.89,0.845
9.9,0.845
9.91,0.975
9.92,0.975
9.93,1.625
9.94,1.625
9.95,1.495
9.96,1.495
9.97,1.755
9.98,1.755
9.99,2.21
10.,2.21
