t,s,e,i,r,c,o,n,reff,coal,reportr
5.,5726.,22.,11.,4241.,0.,0.,10000.,1.13259369939,2.67703965311,286.
5.02,5726.,22.,11.,4240.,0.,0.,9999.,1.13015504644,2.6712755643,286.
5.04,5719.,26.,11.,4242.,0.,0.,9998.,1.12127936229,2.24255872458,338.
5.06,5717.,23.,18.,4242.,0.,0.,10000.,1.10812502834,2.50532615103,299.
5.08,5705.,28.,19.,4246.,0.,0.,9998.,1.08877755066,2.02201545123,364.
5.1,5700.,30.,21.,4248.,0.,0.,9999.,1.06603641025,1.84779644444,390.
5.12,5691.,38.,20.,4252.,0.,0.,10001.,1.03839774673,1.42096533763,494.
5.14,5680.,37.,23.,4258.,0.,0.,9998.,1.00731005604,1.41567899767,481.
5.16,5666.,34.,30.,4267.,0.,0.,9997.,0.972385829329,1.48717832721,442.
5.18,5652.,43.,20.,4280.,0.,0.,9995.,0.935008738339,1.13070824171,559.
5.2,5647.,40.,19.,4292.,0.,0.,9998.,0.89663105211,1.16562036774,520.
5.22,5632.,36.,19.,4310.,0.,0.,9997.,0.855612263106,1.23588438004,468.
5.24,5624.,33.,22.,4313.,0.,0.,9992.,0.8151935761,1.28454745325,429.
5.26,5606.,38.,21.,4326.,0.,0.,9991.,0.772843834388,1.05757577337,494.
5.28,5597.,40.,24.,4332.,0.,0.,9993.,0.732012004243,0.951615605516,520.
5.3,5591.,32.,14.,4354.,0.,0.,9991.,0.692905957804,1.12597218143,416.
5.32,5595.,24.,14.,4360.,0.,0.,9993.,0.656317406536,1.42202104749,312.
5.34,5596.,21.,18.,4365.,0.,0.,10000.,0.621172529301,1.53814150113,273.
5.36,5593.,20.,6.,4382.,0.,0.,10001.,0.588667623361,1.53053582074,260.
5.38,5602.,15.,7.,4376.,0.,0.,10000.,0.560691680674,1.94373115967,195.
5.4,5611.,12.,6.,4373.,0.,0.,10002.,0.536101984343,2.32310859882,156.
5.42,5620.,12.,4.,4366.,0.,0.,10002.,0.515594436647,2.2342425588,156.
5.44,5623.,9.,6.,4362.,0.,0.,10000.,0.498981349722,2.88300335395,117.
5.46,5628.,8.,3.,4361.,0.,0.,10000.,0.487082201372,3.16603430892,104.
5.48,5637.,8.,5.,4351.,0.,0.,10001.,0.480316679079,3.12205841401,104.
5.5,5640.,9.,2.,4345.,0.,0.,9996.,0.478298334795,2.76350148992,117.
5.52,5656.,6.,3.,4335.,0.,0.,10000.,0.481983821888,4.17719312303,78.
5.54,5663.,2.,2.,4333.,0.,0.,10000.,0.49011131954,12.742894308,26.
5.56,5679.,2.,3.,4320.,0.,0.,10004.,0.503749253468,13.0974805902,26.
5.58,5686.,2.,0.,4314.,0.,0.,10002.,0.52164946028,13.5628859673,26.
5.6,5698.,0.,1.,4302.,0.,0.,10001.,0.544468819667,inf,0.
5.62,5709.,0.,0.,4294.,0.,0.,10003.,0.571229703022,inf,0.
5.64,5723.,0.,0.,4281.,0.,0.,10004.,0.602169592199,inf,0.
5.66,5729.,0.,0.,4275.,0.,0.,10004.,0.635681649493,inf,0.
5.68,5736.,1.,0.,4265.,0.,0.,10002.,0.672251858518,34.9570966429,13.
5.7,5741.,0.,1.,4256.,0.,0.,9998.,0.710997668673,inf,0.
5.72,5751.,0.,0.,4250.,0.,0.,10001.,0.751551461912,inf,0.
5.74,5757.,0.,0.,4239.,0.,0.,9996.,0.7932637234,inf,0.
5.76,5769.,1.,0.,4225.,0.,0.,9995.,0.835960202563,43.4699305333,13.
5.78,5781.,1.,0.,4215.,0.,0.,9997.,0.87824831197,45.6689122224,13.
5.8,5793.,1.,1.,4207.,0.,0.,10002.,0.919445090642,47.8111447134,13.
5.82,5796.,4.,1.,4202.,0.,0.,10003.,0.95806378258,12.4548291735,52.
5.84,5797.,4.,3.,4197.,0.,0.,10001.,0.99446983936,12.9281079117,52.
5.86,5797.,8.,0.,4192.,0.,0.,9997.,1.02816206122,6.68305339791,104.
5.88,5800.,6.,3.,4186.,0.,0.,9995.,1.0589215187,9.1773198287,78.
5.9,5802.,7.,4.,4181.,0.,0.,9994.,1.08565573344,8.06487116266,91.
5.92,5801.,12.,8.,4174.,0.,0.,9995.,1.1074310813,4.79886801898,156.
5.94,5797.,22.,8.,4173.,0.,0.,10000.,1.12363141321,2.65585606758,286.
5.96,5791.,24.,5.,4178.,0.,0.,9998.,1.13539583616,2.46002431168,312.
5.98,5798.,20.,8.,4176.,0.,0.,10002.,1.14402262673,2.97445882949,260.
6.,5804.,15.,5.,4178.,0.,0.,10002.,1.14779241694,3.97901371205,195.
6.02,5800.,21.,8.,4173.,0.,0.,10002.,1.14441725336,2.83379510357,273.
6.04,5800.,22.,8.,4174.,0.,0.,10004.,1.13647837197,2.68622160647,286.
6.06,5801.,22.,11.,4170.,0.,0.,10004.,1.12395714959,2.65662598994,286.
6.08,5797.,28.,15.,4164.,0.,0.,10004.,1.10567186491,2.05339060626,364.
6.1,5788.,31.,12.,4171.,0.,0.,10002.,1.08216983282,1.81525262279,403.
6.12,5771.,39.,5.,4183.,0.,0.,9998.,1.0533107598,1.4044143464,507.
6.14,5769.,33.,11.,4184.,0.,0.,9997.,1.02319595155,1.61230877215,429.
6.16,5761.,35.,10.,4189.,0.,0.,9995.,0.988887346663,1.4692040579,455.
6.18,5759.,32.,20.,4180.,0.,0.,9991.,0.953091144811,1.54877311032,416.
6.2,5745.,35.,21.,4190.,0.,0.,9991.,0.912830608163,1.35620547498,455.
6.22,5725.,41.,23.,4202.,0.,0.,9991.,0.870263118237,1.10374834508,533.
6.24,5711.,45.,17.,4216.,0.,0.,9989.,0.828052760009,0.956860967121,585.
6.26,5701.,42.,16.,4234.,0.,0.,9993.,0.785783247598,0.972874497026,546.
6.28,5698.,28.,21.,4247.,0.,0.,9994.,0.745146873205,1.38384419309,364.
6.3,5688.,31.,13.,4261.,0.,0.,9993.,0.704786314793,1.18222220546,403.
6.32,5696.,16.,16.,4266.,0.,0.,9994.,0.668098281465,2.17131941476,208.
6.34,5696.,18.,17.,4263.,0.,0.,9994.,0.632652416128,1.82766253548,234.
6.36,5701.,14.,19.,4262.,0.,0.,9996.,0.600334845219,2.22981513939,182.
6.38,5701.,17.,10.,4271.,0.,0.,9999.,0.570657435526,1.74554039102,221.
6.4,5698.,16.,9.,4275.,0.,0.,9998.,0.544632192988,1.77005462721,208.
6.42,5706.,10.,11.,4271.,0.,0.,9998.,0.52369375154,2.72320750801,130.
6.44,5713.,9.,9.,4268.,0.,0.,9999.,0.507018592836,2.92944075861,117.
6.46,5714.,8.,5.,4270.,0.,0.,9997.,0.494673579516,3.21537826685,104.
6.48,5720.,10.,4.,4264.,0.,0.,9998.,0.487535176979,2.53518292029,130.
6.5,5731.,5.,5.,4255.,0.,0.,9996.,0.4860155597,5.05456182088,65.
6.52,5744.,4.,5.,4246.,0.,0.,9999.,0.489531816146,6.3639136099,52.
6.54,5752.,4.,1.,4243.,0.,0.,10000.,0.497813934309,6.47158114602,52.
6.56,5765.,2.,0.,4234.,0.,0.,10001.,0.511531183916,13.2998107818,26.
6.58,5776.,2.,0.,4224.,0.,0.,10002.,0.529906310689,13.7775640779,26.
6.6,5786.,1.,1.,4215.,0.,0.,10003.,0.552767062169,28.7438872328,13.
6.62,5794.,1.,0.,4206.,0.,0.,10001.,0.579850547224,30.1522284556,13.
6.64,5802.,0.,2.,4195.,0.,0.,9999.,0.610787182008,inf,0.
6.66,5814.,0.,0.,4185.,0.,0.,9999.,0.645435716795,inf,0.
6.68,5820.,0.,0.,4178.,0.,0.,9998.,0.682369444206,inf,0.
6.7,5837.,1.,0.,4162.,0.,0.,10000.,0.722742270226,37.5825980517,13.
6.72,5847.,1.,0.,4149.,0.,0.,9997.,0.76440265238,39.7489379238,13.
6.74,5856.,2.,0.,4139.,0.,0.,9997.,0.806824333784,20.9774326784,26.
6.76,5862.,2.,2.,4131.,0.,0.,9997.,0.849266481812,22.0809285271,26.
6.78,5875.,3.,1.,4118.,0.,0.,9997.,0.892528772327,15.4704987203,39.
6.8,5883.,6.,1.,4105.,0.,0.,9995.,0.934383519628,8.09799050344,78.
6.82,5890.,6.,1.,4099.,0.,0.,9996.,0.974283532961,8.44379061899,78.
6.84,5895.,7.,5.,4090.,0.,0.,9997.,1.01168628025,7.51538379614,91.
6.86,5900.,6.,5.,4085.,0.,0.,9996.,1.04653493523,9.06996943868,78.
6.88,5901.,8.,6.,4080.,0.,0.,9995.,1.07736135894,7.00284883308,104.
6.9,5903.,9.,4.,4078.,0.,0.,9994.,1.10455460091,6.38187102747,117.
6.92,5913.,4.,4.,4073.,0.,0.,9994.,1.12892521994,14.6760278592,52.
6.94,5914.,6.,3.,4071.,0.,0.,9994.,1.14699769969,9.94064673064,78.
6.96,5921.,8.,5.,4062.,0.,0.,9996.,1.16111618368,7.54725519392,104.
6.98,5919.,12.,8.,4056.,0.,0.,9995.,1.16871547564,5.06443372775,156.
7.,5918.,14.,3.,4059.,0.,0.,9994.,1.17127375849,4.35044538868,182.
7.02,5926.,8.,11.,4050.,0.,0.,9995.,1.17009763619,7.60563463524,104.
7.04,5921.,16.,9.,4048.,0.,0.,9994.,1.16134854633,3.77438277559,208.
7.06,5924.,22.,11.,4037.,0.,0.,9994.,1.14893716147,2.71566965439,286.
7.08,5914.,30.,10.,4045.,0.,0.,9999.,1.12855152799,1.95615598185,390.
7.1,5912.,28.,12.,4049.,0.,0.,10001.,1.10546436877,2.05300525629,364.
7.12,5905.,25.,17.,4051.,0.,0.,9998.,1.07776815744,2.24175776748,325.
7.14,5903.,29.,12.,4060.,0.,0.,10004.,1.04622975291,1.87599817763,377.
7.16,5898.,30.,19.,4062.,0.,0.,10009.,1.01098758415,1.7523784792,390.
7.18,5894.,34.,20.,4066.,0.,0.,10014.,0.973192737708,1.48841242238,442.
7.2,5884.,34.,14.,4083.,0.,0.,10015.,0.932676062088,1.42644574202,442.
7.22,5865.,37.,18.,4097.,0.,0.,10017.,0.889230579559,1.24972946316,481.
7.24,5864.,37.,16.,4102.,0.,0.,10019.,0.847690755655,1.19134917011,481.
7.26,5856.,37.,18.,4108.,0.,0.,10019.,0.80505268638,1.13142539707,481.
7.28,5856.,30.,15.,4119.,0.,0.,10020.,0.763821942187,1.32395803312,390.
7.3,5849.,30.,11.,4130.,0.,0.,10020.,0.722782555251,1.25282309577,390.
7.32,5850.,28.,16.,4126.,0.,0.,10020.,0.684380873366,1.27099305054,364.
7.34,5846.,24.,16.,4139.,0.,0.,10025.,0.647305005231,1.402494178,312.
7.36,5844.,21.,8.,4153.,0.,0.,10026.,0.613551843391,1.51927123125,273.
7.38,5841.,20.,10.,4157.,0.,0.,10028.,0.582980312536,1.51574881259,260.
7.4,5846.,18.,6.,4153.,0.,0.,10023.,0.557384743109,1.6102225912,234.
7.42,5848.,17.,5.,4153.,0.,0.,10023.,0.535387701661,1.6376564992,221.
7.44,5851.,11.,11.,4148.,0.,0.,10021.,0.518125856602,2.44932223121,143.
7.46,5852.,11.,7.,4148.,0.,0.,10018.,0.505558552252,2.3899131561,143.
7.48,5858.,11.,5.,4145.,0.,0.,10019.,0.498250853192,2.35536766963,143.
7.5,5866.,10.,0.,4142.,0.,0.,10018.,0.496371735255,2.58113302332,130.
7.52,5884.,3.,6.,4125.,0.,0.,10018.,0.500512233565,8.67554538179,39.
7.54,5883.,4.,0.,4129.,0.,0.,10016.,0.50833814984,6.60839594793,52.
7.56,5887.,1.,2.,4125.,0.,0.,10015.,0.521626098255,27.1245571092,13.
7.58,5897.,1.,1.,4116.,0.,0.,10015.,0.54030493139,28.0958564323,13.
7.6,5913.,2.,0.,4105.,0.,0.,10020.,0.563941627994,14.6624823279,26.
7.62,5919.,0.,2.,4102.,0.,0.,10023.,0.591060065225,inf,0.
7.64,5924.,0.,0.,4097.,0.,0.,10021.,0.622261234153,inf,0.
7.66,5929.,0.,0.,4091.,0.,0.,10020.,0.656822867172,inf,0.
7.68,5937.,0.,0.,4083.,0.,0.,10020.,0.694558845329,inf,0.
7.7,5947.,0.,0.,4075.,0.,0.,10022.,0.73474612167,inf,0.
7.72,5957.,0.,0.,4066.,0.,0.,10023.,0.776763219906,inf,0.
7.74,5965.,0.,0.,4056.,0.,0.,10021.,0.819873780579,inf,0.
7.76,5974.,2.,0.,4042.,0.,0.,10018.,0.863678389297,22.4556381217,26.
7.78,5982.,3.,0.,4038.,0.,0.,10023.,0.906426773133,15.711397401,39.
7.8,5987.,4.,0.,4036.,0.,0.,10027.,0.947866911802,12.3222698534,52.
7.82,5989.,4.,1.,4030.,0.,0.,10024.,0.987892231017,12.8425990032,52.
7.84,5994.,3.,1.,4028.,0.,0.,10026.,1.02570100598,17.7788174369,39.
7.86,6003.,2.,4.,4016.,0.,0.,10025.,1.06172471812,27.6048426712,26.
7.88,6017.,2.,2.,4007.,0.,0.,10028.,1.09492473017,28.4680429844,26.
7.9,6021.,5.,3.,3995.,0.,0.,10024.,1.12326265482,11.6819316102,65.
7.92,6027.,9.,1.,3992.,0.,0.,10029.,1.1466746235,6.625231158,117.
7.94,6030.,11.,3.,3986.,0.,0.,10030.,1.16529786553,5.50868081885,143.
7.96,6026.,16.,1.,3989.,0.,0.,10032.,1.17746625229,3.82676531995,208.
7.98,6020.,18.,7.,3984.,0.,0.,10029.,1.18462832675,3.42225961062,234.
8.,6025.,19.,10.,3980.,0.,0.,10034.,1.18769725351,3.25053985172,247.
8.02,6018.,24.,9.,3982.,0.,0.,10033.,1.18376262667,2.56481902445,312.
8.04,6013.,30.,9.,3982.,0.,0.,10034.,1.17469189384,2.03613261599,390.
8.06,6003.,34.,11.,3992.,0.,0.,10040.,1.15892465561,1.77247300269,442.
8.08,5996.,31.,14.,3997.,0.,0.,10038.,1.13975386637,1.91184519521,403.
8.1,5991.,29.,13.,4004.,0.,0.,10037.,1.11621832053,2.00149491958,377.
8.12,5980.,27.,18.,4009.,0.,0.,10034.,1.08754106838,2.0945235391,351.
8.14,5964.,33.,15.,4022.,0.,0.,10034.,1.05388082891,1.6606607001,429.
8.16,5953.,37.,22.,4024.,0.,0.,10036.,1.01767000221,1.43023892202,481.
8.18,5937.,42.,20.,4036.,0.,0.,10035.,0.978241283971,1.21115587539,546.
8.2,5936.,39.,20.,4042.,0.,0.,10037.,0.938856220464,1.25180829395,507.
8.22,5916.,36.,17.,4065.,0.,0.,10034.,0.895443349128,1.29341817096,468.
8.24,5908.,34.,17.,4075.,0.,0.,10034.,0.852774591403,1.30424349273,442.
8.26,5897.,34.,19.,4082.,0.,0.,10032.,0.809638620791,1.2382708318,442.
8.28,5895.,27.,20.,4090.,0.,0.,10032.,0.767989123652,1.47909016407,351.
8.3,5896.,34.,10.,4099.,0.,0.,10039.,0.727211574918,1.11220593811,442.
8.32,5894.,27.,14.,4100.,0.,0.,10035.,0.688497668307,1.32599550933,351.
8.34,5891.,17.,20.,4105.,0.,0.,10033.,0.65176756769,1.99364197176,221.
8.36,5891.,17.,18.,4110.,0.,0.,10036.,0.617870027515,1.88995537828,221.
8.38,5891.,14.,10.,4121.,0.,0.,10036.,0.587502038511,2.18215042876,182.
8.4,5904.,6.,9.,4120.,0.,0.,10039.,0.562017567378,4.87081891728,78.
8.42,5905.,10.,2.,4121.,0.,0.,10038.,0.539798244505,2.80695087143,130.
8.44,5917.,7.,1.,4114.,0.,0.,10039.,0.523030897321,3.8853723801,91.
8.46,5927.,7.,2.,4106.,0.,0.,10042.,0.510814105903,3.79461907243,91.
8.48,5933.,5.,3.,4101.,0.,0.,10042.,0.503474166503,5.23613133164,65.
8.5,5947.,5.,0.,4091.,0.,0.,10043.,0.501973150373,5.22052076388,65.
8.52,5957.,0.,2.,4085.,0.,0.,10044.,0.505410146379,inf,0.
8.54,5962.,1.,0.,4079.,0.,0.,10042.,0.513830554985,26.7191888592,13.
8.56,5968.,1.,1.,4074.,0.,0.,10044.,0.527276408335,27.4183732334,13.
8.58,5984.,2.,0.,4060.,0.,0.,10046.,0.546584319305,14.2111923019,26.
8.6,5994.,0.,1.,4051.,0.,0.,10046.,0.570187327779,inf,0.
8.62,6004.,1.,0.,4046.,0.,0.,10051.,0.597877787007,31.0896449244,13.
8.64,6013.,0.,0.,4037.,0.,0.,10050.,0.629787302556,inf,0.
8.66,6023.,0.,0.,4024.,0.,0.,10047.,0.665443207486,inf,0.
8.68,6033.,1.,0.,4015.,0.,0.,10049.,0.703752901149,36.5951508598,13.
8.7,6042.,0.,0.,4007.,0.,0.,10049.,0.744477603124,inf,0.
8.72,6047.,0.,0.,3998.,0.,0.,10045.,0.786771846869,inf,0.
8.74,6058.,0.,0.,3989.,0.,0.,10047.,0.830501610246,inf,0.
8.76,6063.,0.,0.,3983.,0.,0.,10046.,0.874102286836,inf,0.
8.78,6073.,1.,0.,3973.,0.,0.,10047.,0.918017426381,47.7369061718,13.
8.8,6084.,1.,0.,3964.,0.,0.,10049.,0.961115274023,49.9779942492,13.
8.82,6091.,0.,1.,3954.,0.,0.,10046.,1.00251698805,inf,0.
8.84,6093.,3.,3.,3948.,0.,0.,10047.,1.04046270809,18.0346869402,39.
8.86,6104.,4.,2.,3938.,0.,0.,10048.,1.07711696146,14.002520499,52.
8.88,6109.,8.,0.,3932.,0.,0.,10049.,1.1093430264,7.2107296716,104.
8.9,6113.,7.,1.,3929.,0.,0.,10050.,1.13747558834,8.44981865627,91.
8.92,6124.,5.,2.,3916.,0.,0.,10047.,1.16304206086,12.095637433,65.
8.94,6128.,7.,2.,3908.,0.,0.,10045.,1.18246797469,8.78404781202,91.
8.96,6131.,10.,2.,3901.,0.,0.,10044.,1.19655172381,6.22206896382,130.
8.98,6131.,13.,7.,3891.,0.,0.,10042.,1.20490928871,4.81963715485,169.
9.,6133.,9.,12.,3889.,0.,0.,10043.,1.20790366676,6.9789989635,117.
9.02,6132.,14.,7.,3890.,0.,0.,10043.,1.20498582148,4.47566162263,182.
9.04,6127.,13.,16.,3886.,0.,0.,10042.,1.19600922097,4.78403688387,169.
9.06,6109.,28.,13.,3893.,0.,0.,10043.,1.17903645741,2.18963913519,364.
9.08,6102.,30.,11.,3900.,0.,0.,10043.,1.15932548237,2.00949750278,390.
9.1,6095.,28.,14.,3904.,0.,0.,10041.,1.13514278673,2.10812231822,364.
9.12,6085.,26.,19.,3909.,0.,0.,10039.,1.10608552036,2.21217104072,338.
9.14,6080.,32.,14.,3915.,0.,0.,10041.,1.07362985206,1.74464850959,416.
9.16,6077.,32.,18.,3914.,0.,0.,10041.,1.03835058615,1.68731970249,416.
9.18,6069.,33.,18.,3920.,0.,0.,10040.,0.999492960389,1.57495860425,429.
9.2,6058.,40.,13.,3928.,0.,0.,10039.,0.957961233905,1.24534960408,520.
9.22,6058.,36.,23.,3925.,0.,0.,10042.,0.916205930152,1.32340856577,468.
9.24,6049.,38.,19.,3939.,0.,0.,10045.,0.872170725525,1.1934967823,494.
9.26,6047.,31.,23.,3947.,0.,0.,10048.,0.828911098036,1.39043151929,403.
9.28,6033.,33.,18.,3963.,0.,0.,10047.,0.784794058901,1.23664518372,429.
9.3,6031.,23.,21.,3972.,0.,0.,10047.,0.74327014441,1.68043684823,299.
9.32,6024.,22.,15.,3985.,0.,0.,10046.,0.702912891625,1.66143047111,286.
9.34,6026.,20.,10.,3993.,0.,0.,10049.,0.665642152874,1.73066959747,260.
9.36,6033.,15.,18.,3985.,0.,0.,10051.,0.631819187354,2.19030651616,195.
9.38,6034.,14.,7.,3993.,0.,0.,10048.,0.601044582787,2.2324513075,182.
9.4,6037.,15.,8.,3987.,0.,0.,10047.,0.5742206016,1.99063141888,195.
9.42,6035.,8.,11.,3990.,0.,0.,10044.,0.551352473963,3.58379108076,104.
9.44,6030.,9.,7.,3997.,0.,0.,10043.,0.532807193132,3.07844156032,117.
9.46,6032.,12.,4.,3995.,0.,0.,10043.,0.519811689387,2.25251732068,156.
9.48,6040.,4.,7.,3991.,0.,0.,10042.,0.512554182653,6.66320437449,52.
9.5,6044.,3.,5.,3989.,0.,0.,10041.,0.510262321899,8.84454691292,39.
9.52,6049.,0.,4.,3989.,0.,0.,10042.,0.513317922329,inf,0.
9.54,6059.,1.,0.,3988.,0.,0.,10048.,0.521878610621,27.1376877523,13.
9.56,6066.,0.,0.,3982.,0.,0.,10048.,0.535721417759,inf,0.
9.58,6074.,0.,0.,3972.,0.,0.,10046.,0.554805005926,inf,0.
9.6,6080.,0.,0.,3964.,0.,0.,10044.,0.578483360581,inf,0.
9.62,6089.,0.,0.,3953.,0.,0.,10042.,0.606885504946,inf,0.
9.64,6104.,0.,0.,3945.,0.,0.,10049.,0.639382045982,inf,0.
9.66,6113.,1.,0.,3935.,0.,0.,10049.,0.675252320032,35.1131206417,13.
9.68,6120.,0.,1.,3930.,0.,0.,10051.,0.713759445101,inf,0.
9.7,6127.,1.,0.,3922.,0.,0.,10050.,0.754875935497,39.2535486458,13.
9.72,6134.,0.,1.,3915.,0.,0.,10050.,0.797694308675,inf,0.
9.74,6145.,0.,0.,3908.,0.,0.,10053.,0.841925797108,inf,0.
9.76,6156.,1.,0.,3893.,0.,0.,10050.,0.887156852499,46.1321563299,13.
9.78,6165.,0.,0.,3885.,0.,0.,10050.,0.931646304551,inf,0.
9.8,6178.,0.,0.,3871.,0.,0.,10049.,0.97596485255,inf,0.
9.82,6181.,2.,0.,3867.,0.,0.,10050.,1.01692517018,26.4400544247,26.
9.84,6189.,2.,2.,3856.,0.,0.,10049.,1.05664567463,27.4727875403,26.
9.86,6197.,5.,1.,3846.,0.,0.,10049.,1.09341899992,11.3715575992,65.
9.88,6201.,5.,2.,3838.,0.,0.,10046.,1.12638572073,11.7144114956,65.
9.9,6204.,4.,2.,3836.,0.,0.,10046.,1.15486804912,15.0132846386,52.
9.92,6208.,3.,2.,3832.,0.,0.,10045.,1.17922969918,20.4399814525,39.
9.94,6212.,5.,5.,3827.,0.,0.,10049.,1.19819960662,12.4612759088,65.
9.96,6204.,15.,3.,3828.,0.,0.,10050.,1.21007584567,4.19492959833,195.
9.98,6207.,18.,5.,3821.,0.,0.,10051.,1.21875307847,3.5208422267,234.
10.,6211.,16.,9.,3813.,0.,0.,10049.,1.22253550458,3.9732403899,208.
