t,s,e,i,r,c,o,n,reff,coal,reportr
0.,3508.,0.,76.,416.,0.,0.,4000.,2.464527444,2.59423941474,13485.8941736
0.002738,3421.,0.,138.,440.,0.,0.,3999.,2.40400704108,1.39362727019,23886.2139602
0.005476,3358.,0.,182.,460.,0.,0.,4000.,2.35914571179,1.03698712606,30914.2454073
0.008214,3209.,0.,254.,537.,0.,0.,4000.,2.25446652446,0.71006819668,41229.6837993
0.010952,3099.,0.,331.,571.,0.,0.,4001.,2.1766424269,0.526076719491,51873.7423178
0.01369,2968.,0.,424.,610.,0.,0.,4002.,2.08411115246,0.393228519332,63623.7452623
0.016428,2663.,0.,576.,764.,0.,0.,4003.,1.86947491302,0.259649293475,77530.8635928
0.019166,2448.,0.,711.,844.,0.,0.,4003.,1.71854096398,0.193366071896,87975.549028
0.021904,2217.,0.,833.,953.,0.,0.,4003.,1.55637472105,0.149471761926,93345.13027
0.024642,1816.,0.,931.,1258.,0.,0.,4005.,1.27422871875,0.109493337809,85414.0994752
0.02738,1661.,0.,924.,1420.,0.,0.,4005.,1.16547021027,0.100906511711,77536.4021486
0.030118,1498.,0.,926.,1582.,0.,0.,4006.,1.05083597839,0.0907849657357,70061.3363513
0.032856,1182.,0.,947.,1877.,0.,0.,4006.,0.829164303376,0.0700455588914,56535.7388614
0.035594,1038.,0.,948.,2020.,0.,0.,4006.,0.728149362864,0.0614472036172,49700.5629116
0.038332,925.,0.,923.,2158.,0.,0.,4006.,0.648880694267,0.0562410135876,43122.0154182
0.04107,785.,0.,774.,2447.,0.,0.,4006.,0.550671724324,0.0569169740903,30687.8338531
0.043808,724.,0.,702.,2580.,0.,0.,4006.,0.507880673134,0.0578781393885,25670.3207429
0.046546,667.,0.,639.,2699.,0.,0.,4005.,0.468012420378,0.0585931042726,21532.3154367
0.049284,574.,0.,521.,2910.,0.,0.,4005.,0.402757315288,0.0618437336334,15108.2324111
0.052022,545.,0.,468.,2992.,0.,0.,4005.,0.382408949184,0.0653690511426,12885.6519517
0.05476,521.,0.,410.,3074.,0.,0.,4005.,0.365568922064,0.0713305213784,10791.5945793
0.057498,470.,0.,355.,3181.,0.,0.,4006.,0.329701541952,0.0742989390314,8427.17141229
0.060236,448.,0.,326.,3232.,0.,0.,4006.,0.314268703818,0.0771211543111,7376.51501601
0.062974,434.,0.,268.,3304.,0.,0.,4006.,0.304447806824,0.0908799423354,5874.62488047
0.065712,405.,0.,229.,3372.,0.,0.,4006.,0.284104520192,0.0992504874035,4684.31532893
0.06845,391.,0.,208.,3407.,0.,0.,4006.,0.274283623198,0.10549370123,4107.67154102
0.071188,375.,0.,166.,3465.,0.,0.,4006.,0.263059740919,0.126775778756,3144.09002346
0.073926,371.,0.,134.,3501.,0.,0.,4006.,0.260253770349,0.155375385283,2510.92837633
0.076664,365.,0.,116.,3525.,0.,0.,4006.,0.256044814494,0.176582630686,2138.48629066
0.079402,354.,0.,97.,3555.,0.,0.,4006.,0.248328395427,0.204806924064,1734.32551367
0.08214,350.,0.,92.,3564.,0.,0.,4006.,0.245522424858,0.213497760746,1626.34054226
