t,s,e,i,r,c,o,n,reff,coal,reportr
0.,3481.,0.,77.,442.,0.,0.,4000.,2.75282985352,2.86008296469,15261.6887079
0.002738,3403.,0.,129.,468.,0.,0.,4000.,2.69114621991,1.66892788832,24995.3660906
0.005476,3323.,0.,190.,487.,0.,0.,4000.,2.62788095468,1.10647619144,35949.41146
0.008214,3167.,0.,256.,577.,0.,0.,4000.,2.50451368747,0.782660527335,46163.1962875
0.010952,3048.,0.,333.,619.,0.,0.,4000.,2.41040660544,0.579076661966,57791.9087719
0.01369,2906.,0.,430.,665.,0.,0.,4001.,2.29753637555,0.427448628009,71131.726187
0.016428,2585.,0.,592.,824.,0.,0.,4001.,2.0437479459,0.276182154852,87112.7124462
0.019166,2366.,0.,708.,927.,0.,0.,4001.,1.87060256867,0.211367521883,95355.8365405
0.021904,2121.,0.,844.,1035.,0.,0.,4000.,1.67732034453,0.158987710382,101927.402696
0.024642,1744.,0.,919.,1339.,0.,0.,4002.,1.37849353534,0.119999437244,91212.1602467
0.02738,1560.,0.,919.,1523.,0.,0.,4002.,1.233056144,0.107338946159,81588.8589363
0.030118,1360.,0.,937.,1705.,0.,0.,4002.,1.07497202298,0.091779895238,72521.912558
0.032856,1030.,0.,963.,2010.,0.,0.,4003.,0.813929842513,0.0676161862939,56434.6395604
0.035594,888.,0.,954.,2161.,0.,0.,4003.,0.701718155487,0.0588442897683,48199.6166641
0.038332,785.,0.,899.,2319.,0.,0.,4003.,0.620325171235,0.0552013500543,40152.4076837
0.04107,616.,0.,782.,2604.,0.,0.,4002.,0.486899092759,0.0498106488756,27414.3665187
0.043808,568.,0.,712.,2722.,0.,0.,4002.,0.448958903713,0.0504448206419,23015.42924
0.046546,529.,0.,638.,2835.,0.,0.,4002.,0.418132500113,0.0524304075377,19207.3345252
0.049284,451.,0.,519.,3032.,0.,0.,4002.,0.356479692913,0.0549487002564,13320.9331648
0.052022,433.,0.,460.,3109.,0.,0.,4002.,0.342252122021,0.0595221081775,11335.3902813
0.05476,401.,0.,409.,3192.,0.,0.,4002.,0.316958662657,0.0619968044316,9333.79869791
0.057498,349.,0.,357.,3295.,0.,0.,4001.,0.275925738151,0.0618320981851,7092.39517343
0.060236,333.,0.,329.,3339.,0.,0.,4001.,0.263275847577,0.0640184431798,6236.4782774
0.062974,322.,0.,278.,3401.,0.,0.,4001.,0.254579047807,0.0732601576423,5095.6542209
0.065712,297.,0.,227.,3477.,0.,0.,4001.,0.234813593785,0.0827536894395,3837.79337682
0.06845,280.,0.,208.,3513.,0.,0.,4001.,0.22137308505,0.0851434942498,3315.2833217
0.071188,262.,0.,159.,3581.,0.,0.,4002.,0.207090198544,0.104196326311,2370.76859293
0.073926,257.,0.,140.,3606.,0.,0.,4003.,0.203087349054,0.116049913745,2047.12047847
0.076664,254.,0.,121.,3628.,0.,0.,4003.,0.20071667961,0.132705242717,1748.64371276
0.079402,247.,0.,99.,3658.,0.,0.,4004.,0.195136370042,0.157685955589,1390.93204566
0.08214,242.,0.,93.,3669.,0.,0.,4004.,0.191186241093,0.164461282661,1280.18307036
