t,s,e,i,r,c,o,n,reff,coal,reportr
0.,3461.,0.,78.,461.,0.,0.,4000.,2.59280191981,2.65928402032,14561.1755817
0.002738,3373.,0.,136.,492.,0.,0.,4001.,2.52624531689,1.48602665699,24736.994143
0.005476,3311.,0.,185.,505.,0.,0.,4001.,2.47980973739,1.07235015671,33031.0657021
0.008214,3168.,0.,254.,579.,0.,0.,4001.,2.37270832016,0.747309707138,43392.0897591
0.010952,3061.,0.,324.,615.,0.,0.,4000.,2.29314263986,0.566208059224,53494.4315025
0.01369,2922.,0.,422.,656.,0.,0.,4000.,2.18901104007,0.414978396222,66510.9114415
0.016428,2607.,0.,580.,813.,0.,0.,4000.,1.95302935711,0.269383359601,81558.5059528
0.019166,2396.,0.,713.,892.,0.,0.,4001.,1.79451045932,0.201347597118,92122.9889394
0.021904,2161.,0.,838.,1002.,0.,0.,4001.,1.6185046338,0.154511182224,97654.0955849
0.024642,1759.,0.,931.,1311.,0.,0.,4001.,1.31742232802,0.113204926146,88309.4534918
0.02738,1580.,0.,939.,1482.,0.,0.,4001.,1.18335831624,0.100818599893,80004.4890446
0.030118,1429.,0.,921.,1651.,0.,0.,4001.,1.07026521134,0.0929654906698,70971.4266941
0.032856,1106.,0.,947.,1948.,0.,0.,4001.,0.82835082137,0.0699768381305,56480.2724043
0.035594,981.,0.,946.,2074.,0.,0.,4001.,0.734730701414,0.0621336745382,50043.9775347
0.038332,861.,0.,895.,2245.,0.,0.,4001.,0.644855386256,0.0576407049168,41554.4810904
0.04107,692.,0.,784.,2524.,0.,0.,4000.,0.518410554322,0.0528990361553,29263.2389704
0.043808,621.,0.,715.,2664.,0.,0.,4000.,0.46522103213,0.0520527028957,23949.5787341
0.046546,571.,0.,646.,2783.,0.,0.,4000.,0.427763622136,0.0529738231747,19896.1415928
0.049284,499.,0.,519.,2982.,0.,0.,4000.,0.373824951744,0.057622343236,13969.0907968
0.052022,465.,0.,473.,3062.,0.,0.,4000.,0.348353912948,0.058918209378,11863.5408593
0.05476,440.,0.,424.,3137.,0.,0.,4001.,0.329542822245,0.0621778909896,10060.2832775
0.057498,393.,0.,356.,3252.,0.,0.,4001.,0.294341657141,0.0661441926161,7544.56535585
0.060236,358.,0.,327.,3316.,0.,0.,4001.,0.268128023554,0.0655970699826,6312.80618655
0.062974,349.,0.,278.,3374.,0.,0.,4001.,0.261387374917,0.0752193884653,5231.92969634
0.065712,331.,0.,227.,3443.,0.,0.,4001.,0.247906077643,0.0873677806673,4051.776933
0.06845,324.,0.,192.,3485.,0.,0.,4001.,0.242663350926,0.101109729552,3354.5781632
0.071188,308.,0.,163.,3529.,0.,0.,4000.,0.230737645565,0.113245470216,2707.93700835
0.073926,304.,0.,137.,3559.,0.,0.,4000.,0.227741052766,0.132987476068,2246.43774448
0.076664,301.,0.,124.,3575.,0.,0.,4000.,0.225493608166,0.145479747204,2013.20693371
0.079402,292.,0.,101.,3606.,0.,0.,3999.,0.218805975861,0.173311664048,1591.15705646
0.08214,286.,0.,93.,3620.,0.,0.,3999.,0.214309962658,0.18435265605,1435.01950996
