t,s,e,i,r,c,o,n,reff,coal,reportr
0.,3465.,0.,76.,459.,0.,0.,4000.,2.44824891539,2.57710412146,13396.818065
0.002738,3377.,0.,140.,483.,0.,0.,4000.,2.38607116516,1.36346923723,24051.5973448
0.005476,3310.,0.,191.,499.,0.,0.,4000.,2.33873128714,0.979573313985,32162.2326607
0.008214,3163.,0.,252.,584.,0.,0.,3999.,2.2354250379,0.709658742189,40559.5518876
0.010952,3052.,0.,324.,624.,0.,0.,4000.,2.1564374285,0.53245368605,50305.3723321
0.01369,2914.,0.,429.,657.,0.,0.,4000.,2.05893141109,0.383949913491,63596.2734259
0.016428,2612.,0.,584.,804.,0.,0.,4000.,1.84554867734,0.252814887307,77601.6307849
0.019166,2397.,0.,715.,888.,0.,0.,4000.,1.69363712848,0.189497860529,87188.4393742
0.021904,2167.,0.,848.,985.,0.,0.,4000.,1.53112709946,0.14444595278,93484.4961849
0.024642,1785.,0.,933.,1283.,0.,0.,4001.,1.26090391225,0.108116091083,84702.4812094
0.02738,1632.,0.,916.,1453.,0.,0.,4001.,1.15282643406,0.100683531359,76031.2089791
0.030118,1467.,0.,929.,1605.,0.,0.,4001.,1.03627229091,0.0892376569136,69314.1809944
0.032856,1148.,0.,940.,1910.,0.,0.,3998.,0.811542785784,0.0690674711306,54925.2157419
0.035594,1002.,0.,951.,2044.,0.,0.,3997.,0.708509856626,0.0596012497687,48513.0869029
0.038332,900.,0.,894.,2203.,0.,0.,3997.,0.636386098766,0.056947301903,40962.9004054
0.04107,729.,0.,781.,2486.,0.,0.,3996.,0.515601737182,0.0528145185334,28993.3168852
0.043808,672.,0.,713.,2612.,0.,0.,3997.,0.475168287078,0.0533148148195,24393.2391855
0.046546,612.,0.,658.,2727.,0.,0.,3997.,0.432742547161,0.0526130756426,20501.6109143
0.049284,529.,0.,516.,2952.,0.,0.,3997.,0.374053606941,0.0579928072777,13896.8396051
0.052022,487.,0.,473.,3037.,0.,0.,3997.,0.344355588999,0.0582419600844,11727.3739389
0.05476,461.,0.,422.,3114.,0.,0.,3997.,0.325971101701,0.0617954695168,9904.30595409
0.057498,401.,0.,359.,3237.,0.,0.,3997.,0.283545361783,0.0631855959406,7329.08051138
0.060236,381.,0.,330.,3286.,0.,0.,3997.,0.269403448478,0.0653099269036,6401.02593583
0.062974,363.,0.,274.,3360.,0.,0.,3997.,0.256675726502,0.0749418179568,5063.69873244
0.065712,342.,0.,220.,3435.,0.,0.,3997.,0.241826717531,0.0879369881931,3830.53520569
0.06845,332.,0.,198.,3467.,0.,0.,3997.,0.234755760878,0.094850812476,3346.67812708
0.071188,320.,0.,162.,3516.,0.,0.,3998.,0.226214016943,0.111710625651,2638.56029363
0.073926,316.,0.,137.,3545.,0.,0.,3998.,0.223386341732,0.130444579113,2203.48287484
0.076664,314.,0.,116.,3569.,0.,0.,3999.,0.221916997123,0.153046204912,1853.45075997
0.079402,303.,0.,99.,3597.,0.,0.,3999.,0.214142834803,0.173044714993,1526.41012648
0.08214,299.,0.,94.,3606.,0.,0.,3999.,0.211315866687,0.179843290797,1430.18578574
