t,s,e,i,r,c,o,n,reff,coal,reportr
0.,3411.,0.,81.,508.,0.,0.,4000.,2.71036329576,2.6769020205,15806.8387409
0.002738,3329.,0.,131.,540.,0.,0.,4000.,2.64520651175,1.61539328962,24949.5878189
0.005476,3253.,0.,185.,562.,0.,0.,4000.,2.58481729731,1.11775883127,34429.7664001
0.008214,3101.,0.,256.,643.,0.,0.,4000.,2.46403886841,0.770012146379,45417.1644226
0.010952,2996.,0.,325.,679.,0.,0.,4000.,2.38060640108,0.585995421806,55706.1897854
0.01369,2865.,0.,414.,721.,0.,0.,4000.,2.27651446566,0.439906176939,67858.3431923
0.016428,2535.,0.,578.,887.,0.,0.,4000.,2.01429813977,0.27879559028,83827.0313847
0.019166,2315.,0.,709.,976.,0.,0.,4000.,1.83948725584,0.207558505596,93902.1454364
0.021904,2075.,0.,844.,1081.,0.,0.,4000.,1.64878447338,0.156282888472,100193.334878
0.024642,1669.,0.,927.,1405.,0.,0.,4001.,1.32584747118,0.114420493737,88492.3636164
0.02738,1493.,0.,937.,1571.,0.,0.,4001.,1.18603371748,0.101262217074,80014.578716
0.030118,1338.,0.,919.,1744.,0.,0.,4001.,1.06290228666,0.0925268584689,70330.1185038
0.032856,1015.,0.,953.,2032.,0.,0.,4000.,0.806513850835,0.0677031564185,55339.7543889
0.035594,893.,0.,937.,2170.,0.,0.,4000.,0.709573269749,0.0605825630522,47870.6510704
0.038332,783.,0.,893.,2324.,0.,0.,4000.,0.622167827787,0.0557373193986,40002.9026554
0.04107,635.,0.,778.,2587.,0.,0.,4000.,0.504567778601,0.0518835762058,28263.8686861
0.043808,571.,0.,694.,2735.,0.,0.,4000.,0.453713703278,0.0523012914441,22671.1663254
0.046546,515.,0.,631.,2854.,0.,0.,4000.,0.409216387369,0.0518816338979,18591.518911
0.049284,445.,0.,516.,3041.,0.,0.,4002.,0.353418033468,0.0547934935609,13130.1867794
0.052022,420.,0.,470.,3111.,0.,0.,4001.,0.333646457697,0.0567908864164,11290.5961285
0.05476,402.,0.,415.,3184.,0.,0.,4001.,0.319347323795,0.0615609298882,9542.098035
0.057498,353.,0.,353.,3295.,0.,0.,4001.,0.280421903731,0.0635517062279,7127.20310522
0.060236,334.,0.,317.,3350.,0.,0.,4001.,0.265328373502,0.0669598418931,6055.8547968
0.062974,323.,0.,277.,3401.,0.,0.,4001.,0.256590013895,0.0741054191755,5117.43123713
0.065712,301.,0.,230.,3471.,0.,0.,4002.,0.239053546233,0.0831490595593,3958.72672562
0.06845,294.,0.,202.,3506.,0.,0.,4002.,0.233494161437,0.0924729352226,3395.93908394
0.071188,281.,0.,165.,3557.,0.,0.,4003.,0.223113839088,0.108176406831,2650.59240837
0.073926,279.,0.,142.,3582.,0.,0.,4003.,0.221525840234,0.124803290272,2264.88019055
0.076664,275.,0.,117.,3611.,0.,0.,4003.,0.218349842524,0.149299037623,1839.37907342
0.079402,265.,0.,95.,3643.,0.,0.,4003.,0.21040984825,0.177187240632,1439.20336203
0.08214,257.,0.,91.,3655.,0.,0.,4003.,0.204057852832,0.179391518973,1336.98705175
