t,s,e,i,r,c,o,n,reff,coal,reportr
0.,3395.,0.,78.,527.,0.,0.,4000.,2.78690635035,2.85836548754,15651.2660636
0.002738,3316.,0.,132.,552.,0.,0.,4000.,2.72205639404,1.6497311479,25870.423969
0.005476,3242.,0.,187.,571.,0.,0.,4000.,2.66131086535,1.13852871245,35831.889491
0.008214,3090.,0.,255.,655.,0.,0.,4000.,2.53653626586,0.795776083407,46570.8058412
0.010952,2960.,0.,337.,703.,0.,0.,4000.,2.42982114788,0.57681214193,58957.1803321
0.01369,2806.,0.,430.,764.,0.,0.,4000.,2.30340477735,0.428540423693,71313.4119067
0.016428,2483.,0.,588.,930.,0.,0.,4001.,2.03774931611,0.277244804913,86270.1550469
0.019166,2270.,0.,704.,1027.,0.,0.,4001.,1.86294440096,0.211698227381,94428.9257957
0.021904,2021.,0.,834.,1146.,0.,0.,4001.,1.6585949931,0.159097841065,99595.3121455
0.024642,1601.,0.,923.,1478.,0.,0.,4002.,1.31358093175,0.113853168516,87295.3344003
0.02738,1434.,0.,936.,1632.,0.,0.,4002.,1.17656155911,0.100560817018,79290.8365912
0.030118,1283.,0.,932.,1787.,0.,0.,4002.,1.05266979103,0.0903579219765,70638.353657
0.032856,1002.,0.,948.,2051.,0.,0.,4001.,0.82232171355,0.0693942374304,56128.39088
0.035594,874.,0.,943.,2184.,0.,0.,4001.,0.717274628386,0.0608504456743,48700.0781689
0.038332,765.,0.,891.,2344.,0.,0.,4000.,0.627977425043,0.0563840561206,40286.0077714
0.04107,598.,0.,787.,2615.,0.,0.,4000.,0.490889542713,0.0498998264512,27815.7650483
0.043808,522.,0.,731.,2747.,0.,0.,4000.,0.428502242971,0.0468949103114,22552.930052
0.046546,477.,0.,645.,2878.,0.,0.,4000.,0.391562394439,0.04856587838,18184.1575977
0.049284,406.,0.,527.,3067.,0.,0.,4000.,0.33327952231,0.0505927168593,12645.9581945
0.052022,372.,0.,463.,3165.,0.,0.,4000.,0.305369414531,0.0527636137418,10179.7948028
0.05476,348.,0.,413.,3239.,0.,0.,4000.,0.28566816198,0.0553352371875,8494.62846465
0.057498,298.,0.,364.,3339.,0.,0.,4001.,0.244562745148,0.0537500538786,6409.50042483
0.060236,284.,0.,325.,3392.,0.,0.,4001.,0.233073220208,0.0573718695896,5453.91335286
0.062974,274.,0.,270.,3457.,0.,0.,4001.,0.224866416679,0.0666270864235,4371.40314024
0.065712,253.,0.,226.,3522.,0.,0.,4001.,0.20763212927,0.0734980988565,3378.59000747
0.06845,245.,0.,202.,3554.,0.,0.,4001.,0.201066686447,0.07963037087,2924.31388768
0.071188,231.,0.,157.,3612.,0.,0.,4000.,0.189624555797,0.0966239774764,2143.51597873
0.073926,221.,0.,139.,3640.,0.,0.,4000.,0.181415700568,0.104411913996,1815.60833128
0.076664,219.,0.,119.,3662.,0.,0.,4000.,0.179773929522,0.120856423208,1540.30302815
0.079402,212.,0.,101.,3687.,0.,0.,4000.,0.174027730862,0.137843747217,1265.52965883
0.08214,208.,0.,92.,3701.,0.,0.,4001.,0.170701513392,0.148436098601,1130.72682471
