t,s,e,i,r,c,o,n,reff,coal,reportr
0.,3449.,0.,79.,472.,0.,0.,4000.,2.70614068683,2.74039563224,15392.5282267
0.002738,3355.,0.,135.,510.,0.,0.,4000.,2.63238678003,1.55993290668,25586.7995019
0.005476,3292.,0.,181.,527.,0.,0.,4000.,2.58295597015,1.14163799786,33661.082203
0.008214,3140.,0.,254.,607.,0.,0.,4001.,2.46307856398,0.775772776056,45044.7807781
0.010952,3035.,0.,328.,638.,0.,0.,4001.,2.38071447187,0.58066206631,56222.9529677
0.01369,2870.,0.,430.,701.,0.,0.,4001.,2.25128518427,0.418843755214,69699.7893051
0.016428,2553.,0.,590.,858.,0.,0.,4001.,2.0026240681,0.271542246522,85071.470413
0.019166,2361.,0.,694.,946.,0.,0.,4001.,1.85201544253,0.213488811819,92541.5076325
0.021904,2126.,0.,832.,1042.,0.,0.,4000.,1.66809367939,0.160393623018,99925.48377
0.024642,1748.,0.,918.,1333.,0.,0.,3999.,1.37185178306,0.119551353644,90673.9154533
0.02738,1591.,0.,920.,1488.,0.,0.,3999.,1.2486362625,0.108577066305,82709.6660281
0.030118,1438.,0.,951.,1610.,0.,0.,3999.,1.12855999087,0.0949366974446,77274.759695
0.032856,1112.,0.,951.,1936.,0.,0.,3999.,0.872711202955,0.0734141916261,59756.2814888
0.035594,969.,0.,955.,2074.,0.,0.,3998.,0.760673269526,0.0637213210074,52303.8940126
0.038332,878.,0.,901.,2218.,0.,0.,3997.,0.689409931627,0.0612128685129,44723.4010845
0.04107,703.,0.,782.,2512.,0.,0.,3997.,0.551999068261,0.0564704929168,31079.7555394
0.043808,644.,0.,716.,2637.,0.,0.,3997.,0.505671977184,0.0564996622552,26068.4017678
0.046546,581.,0.,648.,2768.,0.,0.,3997.,0.456204066372,0.0563214896756,21284.6569207
0.049284,503.,0.,520.,2974.,0.,0.,3997.,0.394958081558,0.0607627817782,14787.2305735
0.052022,466.,0.,464.,3067.,0.,0.,3997.,0.365905499018,0.0630871550031,12224.1709112
0.05476,446.,0.,414.,3137.,0.,0.,3997.,0.350201400348,0.0676717681832,10438.8033416
0.057498,397.,0.,356.,3244.,0.,0.,3997.,0.311726358606,0.0700508671024,7990.17002378
0.060236,378.,0.,322.,3297.,0.,0.,3997.,0.296807464869,0.0737409850606,6881.18426552
0.062974,368.,0.,270.,3359.,0.,0.,3997.,0.288955415534,0.0856164194174,5617.29327797
0.065712,343.,0.,229.,3425.,0.,0.,3997.,0.269325292196,0.0940874383217,4440.63541772
0.06845,335.,0.,202.,3460.,0.,0.,3997.,0.263043652728,0.104175704051,3825.70688527
0.071188,315.,0.,160.,3521.,0.,0.,3996.,0.247401450843,0.123700725421,2850.06471371
0.073926,311.,0.,143.,3542.,0.,0.,3996.,0.244259845118,0.136648864402,2514.89936533
0.076664,306.,0.,117.,3573.,0.,0.,3996.,0.240332837961,0.164330145615,2024.56382699
0.079402,286.,0.,100.,3611.,0.,0.,3997.,0.224568610985,0.179654888788,1616.8939991
0.08214,281.,0.,94.,3622.,0.,0.,3997.,0.220642586318,0.187780924526,1493.3090242
