t,s,e,i,r,c,o,n,reff,coal,reportr
0.,3478.,0.,77.,445.,0.,0.,4000.,2.74553759197,2.85250658906,15221.2604099
0.002738,3398.,0.,129.,474.,0.,0.,4001.,2.68171506218,1.66307910833,24907.7694975
0.005476,3322.,0.,181.,498.,0.,0.,4001.,2.62173556108,1.15877814854,34166.457832
0.008214,3164.,0.,254.,583.,0.,0.,4001.,2.49704133512,0.786469711849,45665.8919367
0.010952,3054.,0.,322.,624.,0.,0.,4000.,2.41083145655,0.59896433703,55892.7164886
0.01369,2910.,0.,426.,664.,0.,0.,4000.,2.29715767471,0.431391112621,70458.4201986
0.016428,2581.,0.,581.,838.,0.,0.,4000.,2.03744465925,0.280543154458,85230.3849857
0.019166,2363.,0.,703.,934.,0.,0.,4000.,1.86535518396,0.212273705145,94416.8179914
0.021904,2120.,0.,851.,1029.,0.,0.,4000.,1.67353067711,0.157323682924,102540.571648
0.024642,1719.,0.,918.,1364.,0.,0.,4001.,1.35664161033,0.118225848394,89668.5838761
0.02738,1542.,0.,931.,1528.,0.,0.,4001.,1.21695250909,0.104571644175,81574.7605892
0.030118,1373.,0.,926.,1702.,0.,0.,4001.,1.08357703954,0.0936135671313,72244.2483805
0.032856,1052.,0.,963.,1986.,0.,0.,4001.,0.830242567808,0.068971345197,57565.6986816
0.035594,923.,0.,959.,2119.,0.,0.,4001.,0.728435256737,0.0607662362241,50296.9976072
0.038332,807.,0.,898.,2296.,0.,0.,4001.,0.636887597169,0.0567383160061,41178.6044825
0.04107,651.,0.,804.,2548.,0.,0.,4003.,0.513515085759,0.0510960284337,29726.3612844
0.043808,584.,0.,715.,2703.,0.,0.,4002.,0.460779947493,0.0515557983209,23720.9516969
0.046546,537.,0.,639.,2826.,0.,0.,4002.,0.423696629801,0.0530449614774,19493.4345439
0.049284,448.,0.,518.,3036.,0.,0.,4002.,0.353475028214,0.0545907379481,13183.2046523
0.052022,421.,0.,465.,3116.,0.,0.,4002.,0.33217184571,0.0571478444232,11121.1133944
0.05476,397.,0.,411.,3194.,0.,0.,4002.,0.313235683484,0.06097044934,9269.27034566
0.057498,342.,0.,365.,3295.,0.,0.,4002.,0.269840311717,0.0591430820201,7091.40339192
0.060236,326.,0.,322.,3354.,0.,0.,4002.,0.257216203566,0.0639046468488,5963.30046348
0.062974,314.,0.,283.,3405.,0.,0.,4002.,0.247748122453,0.0700348049338,5048.11574311
0.065712,288.,0.,230.,3485.,0.,0.,4003.,0.227177180797,0.0790181498423,3762.05411399
0.06845,281.,0.,204.,3518.,0.,0.,4003.,0.221655513208,0.0869237306697,3255.676178
0.071188,274.,0.,165.,3565.,0.,0.,4004.,0.216079866137,0.104765995703,2567.02880971
0.073926,270.,0.,138.,3597.,0.,0.,4005.,0.212872250639,0.123404203269,2115.09868235
0.076664,266.,0.,117.,3621.,0.,0.,4004.,0.209770964936,0.143433138418,1767.11060862
0.079402,261.,0.,100.,3643.,0.,0.,4004.,0.205827901685,0.164662321348,1481.96089213
0.08214,256.,0.,88.,3660.,0.,0.,4004.,0.201884838435,0.183531671304,1279.14233632
