t,s,e,i,r,c,o,n,reff,coal,reportr
0.,3450.,0.,80.,470.,0.,0.,4000.,2.53314973935,2.53314973935,14590.9424986
0.002738,3370.,0.,134.,496.,0.,0.,4000.,2.47441003525,1.47725972254,23873.1080201
0.005476,3301.,0.,185.,514.,0.,0.,4000.,2.42374704046,1.04810682831,32284.3105789
0.008214,3148.,0.,251.,601.,0.,0.,4000.,2.31140735637,0.736703539878,41771.7537443
0.010952,3042.,0.,327.,632.,0.,0.,4001.,2.23301899369,0.546304340963,52574.1991873
0.01369,2906.,0.,420.,675.,0.,0.,4001.,2.13318645485,0.406321229495,64507.5583946
0.016428,2606.,0.,582.,815.,0.,0.,4003.,1.9120118522,0.262819498584,80120.9446544
0.019166,2388.,0.,703.,912.,0.,0.,4003.,1.75206611782,0.199381635029,88682.5786196
0.021904,2152.,0.,836.,1015.,0.,0.,4003.,1.57891385492,0.151092234921,95037.9827554
0.024642,1759.,0.,924.,1321.,0.,0.,4004.,1.29024899492,0.11170986969,85837.6851342
0.02738,1586.,0.,936.,1482.,0.,0.,4004.,1.16335128252,0.0994317335484,78400.5696313
0.030118,1412.,0.,926.,1666.,0.,0.,4004.,1.03572005732,0.0894790546283,69053.5276618
0.032856,1110.,0.,952.,1940.,0.,0.,4002.,0.814606091353,0.068454293391,55836.3599257
0.035594,976.,0.,937.,2090.,0.,0.,4003.,0.716087324537,0.0611387256808,48310.1152625
0.038332,861.,0.,892.,2250.,0.,0.,4003.,0.631712281174,0.0566558099708,40571.0895461
0.04107,687.,0.,776.,2540.,0.,0.,4003.,0.504049172087,0.0519638321739,28162.2353428
0.043808,626.,0.,717.,2660.,0.,0.,4003.,0.459293714303,0.0512461605917,23710.5787072
0.046546,577.,0.,642.,2784.,0.,0.,4003.,0.423342608871,0.052752973068,19568.5887524
0.049284,495.,0.,523.,2985.,0.,0.,4003.,0.363179534473,0.0555532748716,13675.8885501
0.052022,460.,0.,465.,3078.,0.,0.,4003.,0.33750017345,0.0580645459698,11299.5058071
0.05476,444.,0.,409.,3150.,0.,0.,4003.,0.325761036982,0.063718540241,9593.01101704
0.057498,394.,0.,356.,3253.,0.,0.,4003.,0.28907623552,0.0649609518022,7409.60206885
0.060236,380.,0.,325.,3298.,0.,0.,4003.,0.278804491111,0.0686287978118,6524.02509199
0.062974,367.,0.,272.,3364.,0.,0.,4003.,0.269266442731,0.0791960125678,5273.31401443
0.065712,339.,0.,228.,3436.,0.,0.,4003.,0.248722953912,0.0872712118989,4083.03601142
0.06845,327.,0.,203.,3472.,0.,0.,4002.,0.239978551237,0.0945728280735,3507.52650487
0.071188,305.,0.,166.,3532.,0.,0.,4003.,0.223777288918,0.107844476587,2674.58615714
0.073926,301.,0.,139.,3563.,0.,0.,4003.,0.220842504801,0.127103599885,2210.19178805
0.076664,294.,0.,118.,3591.,0.,0.,4003.,0.215706632596,0.146241784811,1832.64355054
0.079402,287.,0.,101.,3615.,0.,0.,4003.,0.210570760391,0.166788721102,1531.27056957
0.08214,284.,0.,93.,3626.,0.,0.,4003.,0.208369672304,0.179242728863,1395.24332575
