t,s,e,i,r,c,o,n,reff,coal,reportr
0.,3407.,0.,81.,512.,0.,0.,4000.,2.63521506993,2.60268155055,15368.5742878
0.002738,3328.,0.,133.,540.,0.,0.,4001.,2.57346750859,1.54795038111,24643.5248623
0.005476,3261.,0.,178.,563.,0.,0.,4002.,2.52102781689,1.13304620984,32309.4925013
0.008214,3100.,0.,253.,649.,0.,0.,4002.,2.39656124881,0.757805928478,43655.7597083
0.010952,2986.,0.,323.,693.,0.,0.,4002.,2.3084296416,0.571747279652,53684.839745
0.01369,2842.,0.,430.,730.,0.,0.,4002.,2.19710550617,0.408763815101,68022.386471
0.016428,2541.,0.,569.,891.,0.,0.,4001.,1.96489811879,0.276259840955,80497.9461306
0.019166,2323.,0.,707.,971.,0.,0.,4001.,1.79632362454,0.203261513385,91440.0577835
0.021904,2082.,0.,838.,1081.,0.,0.,4001.,1.60996374786,0.153695823185,97138.7726911
0.024642,1712.,0.,913.,1375.,0.,0.,4000.,1.3241820369,0.116029094142,87046.4303777
0.02738,1527.,0.,921.,1552.,0.,0.,4000.,1.18108993595,0.102591959692,78320.4358328
0.030118,1368.,0.,921.,1710.,0.,0.,3999.,1.05837266938,0.0919324794252,70182.8084521
0.032856,1035.,0.,953.,2012.,0.,0.,4000.,0.800542294505,0.0672018715219,54930.0100798
0.035594,906.,0.,949.,2145.,0.,0.,4000.,0.700764559248,0.0590739354477,47881.8408043
0.038332,807.,0.,900.,2293.,0.,0.,4000.,0.624190948469,0.0554836398639,40447.5734608
0.04107,636.,0.,774.,2589.,0.,0.,3999.,0.492050451555,0.0508579278093,27420.9875643
0.043808,579.,0.,722.,2698.,0.,0.,3999.,0.447951590331,0.0496345252444,23286.3154718
0.046546,528.,0.,644.,2827.,0.,0.,3999.,0.408494714499,0.0507446850309,18941.0829219
0.049284,446.,0.,513.,3040.,0.,0.,3999.,0.345054247474,0.0538096292357,12744.9236847
0.052022,422.,0.,466.,3111.,0.,0.,3999.,0.326486305906,0.0560491512285,10954.2685358
0.05476,399.,0.,417.,3183.,0.,0.,3999.,0.30869202857,0.0592214922916,9268.16946578
0.057498,348.,0.,362.,3289.,0.,0.,3999.,0.269235152738,0.059499481268,7017.34502095
0.060236,333.,0.,325.,3341.,0.,0.,3999.,0.257630189258,0.0634166619711,6028.54642863
0.062974,315.,0.,277.,3407.,0.,0.,3999.,0.243704233082,0.0703838940308,4860.43722458
0.065712,292.,0.,228.,3478.,0.,0.,3998.,0.225966461487,0.0792864777148,3709.46543177
0.06845,277.,0.,205.,3516.,0.,0.,3998.,0.214358595315,0.083652134757,3163.93286685
0.071188,261.,0.,160.,3577.,0.,0.,3998.,0.201976871398,0.100988435699,2326.7735585
0.073926,255.,0.,142.,3601.,0.,0.,3998.,0.197333724929,0.111173929537,2017.54000367
0.076664,252.,0.,121.,3625.,0.,0.,3998.,0.195012151694,0.128933654013,1698.94586556
0.079402,241.,0.,102.,3655.,0.,0.,3998.,0.186499716501,0.146274287452,1369.65391799
0.08214,235.,0.,92.,3671.,0.,0.,3998.,0.181856570033,0.158136147854,1204.6179199
