t,s,e,i,r,c,o,n,reff,coal,reportr
0.,3423.,0.,77.,500.,0.,0.,4000.,2.7457689709,2.85274698275,15222.5431747
0.002738,3333.,0.,130.,536.,0.,0.,3999.,2.67424378151,1.64568848093,25030.921795
0.005476,3266.,0.,181.,552.,0.,0.,3999.,2.62048610574,1.15822590309,34150.17493
0.008214,3119.,0.,255.,625.,0.,0.,3999.,2.50254016038,0.78511063855,45946.6373445
0.010952,3002.,0.,334.,663.,0.,0.,3999.,2.40866481611,0.576925704458,57923.5714979
0.01369,2856.,0.,423.,720.,0.,0.,3999.,2.29152122412,0.433384628676,69790.5704019
0.016428,2529.,0.,589.,879.,0.,0.,3997.,2.03016700954,0.275744245778,86095.3225406
0.019166,2328.,0.,712.,957.,0.,0.,3997.,1.86881328518,0.209979020806,95802.8442513
0.021904,2095.,0.,833.,1069.,0.,0.,3997.,1.68177140569,0.16151466081,100865.921828
0.024642,1699.,0.,919.,1379.,0.,0.,3997.,1.36388048605,0.118727354607,90245.2440007
0.02738,1520.,0.,917.,1560.,0.,0.,3997.,1.22018736833,0.106450370192,80561.6508065
0.030118,1368.,0.,927.,1702.,0.,0.,3997.,1.0981686315,0.0947718344332,73296.1671405
0.032856,1048.,0.,943.,2006.,0.,0.,3997.,0.841287080268,0.0713711202773,57120.0276019
0.035594,903.,0.,925.,2169.,0.,0.,3997.,0.724887627368,0.0626929839886,48277.5159827
0.038332,800.,0.,902.,2295.,0.,0.,3997.,0.642203878067,0.0569582153496,41707.2886572
0.04107,614.,0.,789.,2594.,0.,0.,3997.,0.492891476417,0.0499763220701,28000.1789923
0.043808,558.,0.,713.,2726.,0.,0.,3997.,0.447937204952,0.0502594339357,22995.3043534
0.046546,509.,0.,643.,2845.,0.,0.,3997.,0.40860221742,0.0508369788392,18916.6482577
0.049284,436.,0.,511.,3050.,0.,0.,3997.,0.350001113547,0.0547946948801,12877.2409696
0.052022,402.,0.,462.,3133.,0.,0.,3997.,0.322707448729,0.055880077702,10734.5405745
0.05476,376.,0.,412.,3208.,0.,0.,3996.,0.301911357182,0.0586235645013,8955.89849944
0.057498,316.,0.,363.,3317.,0.,0.,3996.,0.253734012951,0.0559193416971,6631.59216248
0.060236,306.,0.,323.,3367.,0.,0.,3996.,0.245704455579,0.060855592713,5714.10281894
0.062974,293.,0.,278.,3425.,0.,0.,3996.,0.235266030995,0.0677024549627,4709.0848764
0.065712,273.,0.,229.,3494.,0.,0.,3996.,0.219206916252,0.0765788353718,3614.28363516
0.06845,264.,0.,200.,3532.,0.,0.,3996.,0.211980314617,0.0847921258468,3052.51653048
0.071188,253.,0.,161.,3582.,0.,0.,3996.,0.203147801508,0.10094300696,2354.88931508
0.073926,246.,0.,142.,3608.,0.,0.,3996.,0.197527111348,0.111282879632,2019.51718642
0.076664,243.,0.,125.,3628.,0.,0.,3996.,0.195118244136,0.124875676247,1756.06419722
0.079402,235.,0.,100.,3662.,0.,0.,3997.,0.188647389182,0.150917911346,1358.26120211
0.08214,230.,0.,90.,3677.,0.,0.,3997.,0.184633614944,0.164118768839,1196.42582484
