t,s,e,i,r,c,o,n,reff,coal,reportr
0.,3515.,0.,75.,410.,0.,0.,4000.,2.70058481353,2.88062380109,14583.157993
0.002738,3437.,0.,134.,429.,0.,0.,4000.,2.64065718466,1.57651175204,25477.0605176
0.005476,3361.,0.,187.,452.,0.,0.,4000.,2.58226616167,1.10471279644,34767.6316007
0.008214,3211.,0.,255.,534.,0.,0.,4000.,2.46702072155,0.773967285191,45294.5004476
0.010952,3093.,0.,327.,580.,0.,0.,4000.,2.37636097532,0.581372715674,55949.0428028
0.01369,2952.,0.,426.,622.,0.,0.,4000.,2.2680302616,0.425921175888,69565.0241838
0.016428,2646.,0.,574.,781.,0.,0.,4001.,2.03242145839,0.283264314758,83995.9140323
0.019166,2443.,0.,700.,858.,0.,0.,4001.,1.87649494438,0.214456565073,94575.345197
0.021904,2211.,0.,823.,967.,0.,0.,4001.,1.6982932141,0.165083179985,100634.062694
0.024642,1792.,0.,922.,1287.,0.,0.,4001.,1.37645474431,0.119432081935,91374.571746
0.02738,1622.,0.,912.,1467.,0.,0.,4001.,1.24587589021,0.109287358791,81809.194455
0.030118,1439.,0.,936.,1626.,0.,0.,4001.,1.10531159434,0.0944710764392,74489.1589657
0.032856,1127.,0.,942.,1932.,0.,0.,4001.,0.865660991536,0.0735168570306,58712.5910899
0.035594,989.,0.,940.,2072.,0.,0.,4001.,0.75966168645,0.0646520584212,51413.9029389
0.038332,870.,0.,899.,2232.,0.,0.,4001.,0.668256488586,0.0594666508196,43254.9059932
0.04107,689.,0.,790.,2521.,0.,0.,4000.,0.529360721627,0.0536061490255,30110.0378462
0.043808,621.,0.,721.,2659.,0.,0.,4001.,0.476996872887,0.0529261440097,24761.8616653
0.046546,572.,0.,653.,2776.,0.,0.,4001.,0.439359438472,0.0538265774545,20656.9233592
0.049284,495.,0.,526.,2979.,0.,0.,4000.,0.380309952403,0.0578418178559,14403.0985174
0.052022,456.,0.,473.,3071.,0.,0.,4000.,0.350346137971,0.0592551607562,11931.3880747
0.05476,432.,0.,416.,3152.,0.,0.,4000.,0.331906867551,0.0638282437599,9941.2744969
0.057498,381.,0.,358.,3261.,0.,0.,4000.,0.29272341791,0.0654130542816,7545.23882005
0.060236,366.,0.,319.,3315.,0.,0.,4000.,0.281198873898,0.0705200937675,6458.57573568
0.062974,350.,0.,277.,3373.,0.,0.,4000.,0.268906026951,0.0776623904553,5363.06180152
0.065712,323.,0.,217.,3460.,0.,0.,4000.,0.248161847729,0.0914882387943,3877.28070892
0.06845,313.,0.,201.,3486.,0.,0.,4000.,0.240478818388,0.0957129625425,3480.20945971
0.071188,297.,0.,167.,3536.,0.,0.,4000.,0.228185971442,0.109310645002,2743.70812061
0.073926,291.,0.,141.,3568.,0.,0.,4000.,0.223576153837,0.126851718489,2269.74511375
0.076664,285.,0.,114.,3601.,0.,0.,4000.,0.218966336232,0.153660586829,1797.27568779
0.079402,272.,0.,100.,3628.,0.,0.,4000.,0.208978398088,0.16718271847,1504.64446623
0.08214,269.,0.,91.,3640.,0.,0.,4000.,0.206673489286,0.181690979592,1354.1247018
