t,s,e,i,r,c,o,n,reff,coal,reportr
0.,3511.,0.,81.,408.,0.,0.,4000.,2.54286055953,2.51146721929,14829.9627832
0.002738,3434.,0.,134.,431.,0.,0.,3999.,2.48771482573,1.48520288103,24001.4726386
0.005476,3356.,0.,190.,453.,0.,0.,3999.,2.43120878135,1.0236668553,33258.9361288
0.008214,3223.,0.,255.,521.,0.,0.,3999.,2.33485873131,0.732504700019,42868.0063069
0.010952,3102.,0.,332.,565.,0.,0.,3999.,2.24720191887,0.541494438282,53717.1146687
0.01369,2967.,0.,422.,610.,0.,0.,3999.,2.1494029959,0.407469762257,65307.4606275
0.016428,2618.,0.,606.,775.,0.,0.,3999.,1.89657466912,0.250372893613,82751.345963
0.019166,2417.,0.,718.,864.,0.,0.,3999.,1.75096293937,0.195093363718,90517.7801135
0.021904,2187.,0.,835.,977.,0.,0.,3999.,1.58434255209,0.151793298404,95250.6742315
0.024642,1794.,0.,914.,1291.,0.,0.,3999.,1.29963902078,0.113753962431,85526.6446794
0.02738,1618.,0.,907.,1474.,0.,0.,3999.,1.17213820269,0.10338594952,76545.3131883
0.030118,1446.,0.,931.,1622.,0.,0.,3999.,1.04753513046,0.0900137598677,70218.374865
0.032856,1138.,0.,962.,1899.,0.,0.,3999.,0.8244086988,0.0685578959501,57101.8441137
0.035594,1011.,0.,923.,2065.,0.,0.,3999.,0.732405267563,0.0634804132232,48672.7244612
0.038332,902.,0.,877.,2220.,0.,0.,3999.,0.653441692722,0.0596069959153,41260.9222452
0.04107,718.,0.,780.,2500.,0.,0.,3998.,0.520275484295,0.0533615881328,29218.671198
0.043808,644.,0.,722.,2632.,0.,0.,3998.,0.466653777,0.0517067896953,24258.5299436
0.046546,591.,0.,641.,2766.,0.,0.,3998.,0.428249040694,0.0534476181833,19764.5497261
0.049284,520.,0.,522.,2955.,0.,0.,3997.,0.376895457397,0.0577617559229,14165.2388708
0.052022,496.,0.,464.,3037.,0.,0.,3997.,0.35950028244,0.0619828073173,12010.1854358
0.05476,469.,0.,419.,3109.,0.,0.,3997.,0.339930710614,0.0649032383034,10255.0296778
0.057498,425.,0.,360.,3212.,0.,0.,3997.,0.308039556526,0.0684532347837,7984.38530517
0.060236,400.,0.,325.,3272.,0.,0.,3997.,0.289919582613,0.0713648203355,6784.11823315
0.062974,386.,0.,288.,3323.,0.,0.,3997.,0.279772397222,0.0777145547838,5801.36042879
0.065712,360.,0.,228.,3410.,0.,0.,3998.,0.260862359813,0.0915306525661,4282.3164987
0.06845,347.,0.,201.,3450.,0.,0.,3998.,0.251442330154,0.100076549315,3638.87340198
0.071188,328.,0.,162.,3508.,0.,0.,3998.,0.237674594497,0.117370170122,2772.23647021
0.073926,322.,0.,138.,3538.,0.,0.,3998.,0.2333268885,0.135261964348,2318.33596413
0.076664,316.,0.,118.,3564.,0.,0.,3998.,0.228979182503,0.155240123731,1945.40713455
0.079402,312.,0.,94.,3592.,0.,0.,3998.,0.226080711838,0.192409116458,1530.11425772
0.08214,306.,0.,94.,3598.,0.,0.,3998.,0.221733005841,0.188708941142,1500.68898354
