t,s,e,i,r,c,o,n,reff,coal,reportr
0.,3541.,0.,75.,384.,0.,0.,4000.,2.51866948198,2.68658078078,13600.8152027
0.002738,3450.,0.,138.,412.,0.,0.,4000.,2.45394230805,1.42257525105,24382.3707728
0.005476,3383.,0.,179.,438.,0.,0.,4000.,2.40628603714,1.0754351004,31012.2144467
0.008214,3240.,0.,254.,506.,0.,0.,4000.,2.30457190669,0.725849419431,42146.0110296
0.010952,3125.,0.,323.,553.,0.,0.,4001.,2.22221827519,0.550394619242,51679.9082078
0.01369,2972.,0.,426.,603.,0.,0.,4001.,2.11341846844,0.396886097359,64822.7712639
0.016428,2665.,0.,579.,757.,0.,0.,4001.,1.89510774508,0.261845629718,79003.251677
0.019166,2448.,0.,709.,843.,0.,0.,4000.,1.74123210728,0.196471887987,88886.4166125
0.021904,2219.,0.,841.,940.,0.,0.,4000.,1.57834724104,0.15014004671,95572.0821392
0.024642,1856.,0.,910.,1234.,0.,0.,4000.,1.32014983297,0.116057128173,86496.2170563
0.02738,1677.,0.,924.,1399.,0.,0.,4000.,1.192829348,0.103275268225,79356.5508639
0.030118,1491.,0.,942.,1567.,0.,0.,4000.,1.06052984965,0.0900662292701,71929.376523
0.032856,1182.,0.,955.,1861.,0.,0.,3998.,0.841162554646,0.0704638789232,57838.3372574
0.035594,1043.,0.,938.,2017.,0.,0.,3998.,0.742244115478,0.063304402173,50128.1985829
0.038332,933.,0.,895.,2170.,0.,0.,3998.,0.663963336281,0.0593486781033,42785.79739
0.04107,765.,0.,789.,2444.,0.,0.,3998.,0.544407237144,0.0551997198625,30926.6863277
0.043808,701.,0.,708.,2589.,0.,0.,3998.,0.49886205652,0.0563685939571,25429.9921932
0.046546,650.,0.,626.,2722.,0.,0.,3998.,0.46256824071,0.0591141521675,20848.8757453
0.049284,566.,0.,509.,2923.,0.,0.,3998.,0.402790191142,0.0633069062698,14761.454925
0.052022,536.,0.,465.,2997.,0.,0.,3998.,0.381440887724,0.0656242387483,12770.640921
0.05476,504.,0.,416.,3077.,0.,0.,3997.,0.358758031787,0.0689919291899,10745.5205681
0.057498,457.,0.,355.,3186.,0.,0.,3998.,0.325221055392,0.0732892519193,8312.65017581
0.060236,436.,0.,330.,3232.,0.,0.,3998.,0.310276543,0.0752185558787,7372.17066167
0.062974,426.,0.,274.,3298.,0.,0.,3998.,0.303160108527,0.0885139002999,5980.74262102
0.065712,393.,0.,230.,3376.,0.,0.,3999.,0.279605938315,0.097254239414,4630.2743385
0.06845,386.,0.,206.,3407.,0.,0.,3999.,0.274625679872,0.106650749465,4073.24808386
0.071188,366.,0.,159.,3474.,0.,0.,3999.,0.260396370034,0.131017041527,2981.01764415
0.073926,362.,0.,134.,3503.,0.,0.,3999.,0.257550508066,0.153761497353,2484.84730182
0.076664,358.,0.,117.,3525.,0.,0.,4000.,0.254640969937,0.174113483718,2145.09553075
0.079402,346.,0.,104.,3550.,0.,0.,4000.,0.246105518431,0.189311937255,1842.83812201
0.08214,338.,0.,95.,3567.,0.,0.,4000.,0.240415217427,0.202454919938,1644.4400872
