t,s,e,i,r,c,o,n,reff,coal,reportr
0.,3505.,0.,77.,418.,0.,0.,4000.,2.59475461393,2.69584894954,14385.3195796
0.002738,3412.,0.,146.,441.,0.,0.,3999.,2.52653826587,1.38440452925,26558.9702509
0.005476,3351.,0.,187.,461.,0.,0.,3999.,2.48136861927,1.06154807241,33409.1470898
0.008214,3210.,0.,256.,534.,0.,0.,4000.,2.37636585185,0.742614328702,43801.1753812
0.010952,3100.,0.,328.,572.,0.,0.,4000.,2.29493275412,0.559739696127,54197.1319213
0.01369,2954.,0.,429.,617.,0.,0.,4000.,2.18684882441,0.40780397658,67547.3864883
0.016428,2660.,0.,581.,759.,0.,0.,4000.,1.96920036321,0.271146349496,82375.5895939
0.019166,2439.,0.,710.,851.,0.,0.,4000.,1.80559386687,0.203447196267,92301.9584744
0.021904,2192.,0.,829.,979.,0.,0.,4000.,1.62273954743,0.156597302526,96858.0781069
0.024642,1794.,0.,922.,1284.,0.,0.,4000.,1.32809979384,0.115236424628,88164.576714
0.02738,1629.,0.,913.,1458.,0.,0.,4000.,1.20595014724,0.105669235246,79274.3388793
0.030118,1460.,0.,944.,1596.,0.,0.,4000.,1.0808392971,0.0915965506018,73462.4853454
0.032856,1160.,0.,948.,1893.,0.,0.,4001.,0.858534396974,0.0724501600822,58600.1237999
0.035594,1019.,0.,931.,2051.,0.,0.,4001.,0.75417806079,0.064805848403,50554.0637709
0.038332,890.,0.,899.,2211.,0.,0.,4000.,0.658867790699,0.0586311715861,42647.1943563
0.04107,715.,0.,780.,2505.,0.,0.,4000.,0.529315135224,0.0542887318179,29726.3379942
0.043808,649.,0.,717.,2634.,0.,0.,4000.,0.480455276588,0.0536072833013,24803.0231986
0.046546,594.,0.,629.,2777.,0.,0.,4000.,0.439738727725,0.055928614019,19914.8875012
0.049284,510.,0.,517.,2972.,0.,0.,3999.,0.377647865063,0.058436806973,14057.5641291
0.052022,477.,0.,470.,3052.,0.,0.,3999.,0.353211826736,0.0601211619975,11952.6882167
0.05476,454.,0.,408.,3136.,0.,0.,3998.,0.336264735713,0.0659342619045,9878.1128763
0.057498,401.,0.,358.,3239.,0.,0.,3998.,0.297009160839,0.0663707621987,7655.70812979
0.060236,385.,0.,322.,3292.,0.,0.,3999.,0.285087113822,0.0708290966018,6609.45964685
0.062974,375.,0.,281.,3342.,0.,0.,3998.,0.277751709014,0.0790752196481,5619.47257677
0.065712,353.,0.,226.,3419.,0.,0.,3998.,0.261456942085,0.0925511299417,4254.42736161
0.06845,342.,0.,201.,3455.,0.,0.,3998.,0.253309558621,0.100819724824,3665.89593236
0.071188,330.,0.,161.,3508.,0.,0.,3999.,0.244360383276,0.12142130846,2832.62556294
0.073926,325.,0.,137.,3537.,0.,0.,3999.,0.240657953227,0.140530191665,2373.85005063
0.076664,319.,0.,117.,3563.,0.,0.,3999.,0.236215037167,0.161514555328,1989.87547309
0.079402,312.,0.,95.,3591.,0.,0.,3998.,0.2310894219,0.194601618442,1580.65164579
0.08214,306.,0.,89.,3603.,0.,0.,3998.,0.226645394555,0.203726197353,1452.34368831
