t,s,e,i,r,c,o,n,reff,coal,reportr
0.,3363.,0.,77.,560.,0.,0.,4000.,2.6220573986,2.72421547907,14536.6862178
0.002738,3288.,0.,127.,585.,0.,0.,4000.,2.56358154225,1.61485451481,23441.3896224
0.005476,3212.,0.,183.,605.,0.,0.,4000.,2.50432600782,1.09478732582,32996.9994791
0.008214,3075.,0.,251.,674.,0.,0.,4000.,2.39751011023,0.764146648678,43327.802712
0.010952,2950.,0.,326.,723.,0.,0.,3999.,2.30062550603,0.564570676325,54000.2818774
0.01369,2811.,0.,423.,764.,0.,0.,3998.,2.19277148163,0.414708554445,66783.0482444
0.016428,2477.,0.,601.,921.,0.,0.,3999.,1.93174555201,0.257137511083,83590.4935265
0.019166,2289.,0.,708.,1002.,0.,0.,3999.,1.78512941807,0.201709538764,90998.7572153
0.021904,2060.,0.,825.,1114.,0.,0.,3999.,1.60653848895,0.155785550444,95428.3862438
0.024642,1647.,0.,929.,1424.,0.,0.,4000.,1.28412980538,0.110581683994,85892.8744223
0.02738,1475.,0.,915.,1610.,0.,0.,4000.,1.15002517482,0.100548649165,75763.6585175
0.030118,1305.,0.,920.,1775.,0.,0.,4000.,1.01747990044,0.0884765130816,67397.868605
0.032856,1012.,0.,935.,2054.,0.,0.,4001.,0.788837012389,0.0674940759264,53104.5076741
0.035594,880.,0.,940.,2181.,0.,0.,4001.,0.685945228165,0.0583783172906,46424.7730422
0.038332,769.,0.,892.,2340.,0.,0.,4001.,0.59942259143,0.0537598736709,38497.316512
0.04107,611.,0.,787.,2603.,0.,0.,4001.,0.476264243646,0.0484131378548,26987.037102
0.043808,553.,0.,726.,2722.,0.,0.,4001.,0.431054217244,0.0474990872997,22532.0660438
0.046546,501.,0.,639.,2860.,0.,0.,4000.,0.390618720398,0.0489037521625,17971.5860881
0.049284,420.,0.,520.,3060.,0.,0.,4000.,0.327464795543,0.0503791993144,12260.2819451
0.052022,392.,0.,473.,3135.,0.,0.,4000.,0.305633809174,0.0516928218476,10408.6650052
0.05476,372.,0.,412.,3216.,0.,0.,4000.,0.290040247481,0.0563184946565,8603.75390128
0.057498,322.,0.,361.,3317.,0.,0.,4000.,0.25105634325,0.0556357547368,6525.45647375
0.060236,311.,0.,321.,3369.,0.,0.,4001.,0.242419279499,0.0604160198129,5602.79438778
0.062974,294.,0.,283.,3424.,0.,0.,4001.,0.229168064864,0.0647824918344,4669.52848967
0.065712,272.,0.,230.,3498.,0.,0.,4000.,0.212072439019,0.0737643266151,3511.91959015
0.06845,262.,0.,207.,3531.,0.,0.,4000.,0.204275658172,0.0789471142695,3044.5244094
0.071188,248.,0.,163.,3589.,0.,0.,4000.,0.193360164987,0.0949006944724,2269.27489629
0.073926,243.,0.,137.,3620.,0.,0.,4000.,0.189461774564,0.110634612884,1868.8509443
0.076664,237.,0.,116.,3647.,0.,0.,4000.,0.184783706057,0.12743703866,1543.31351298
0.079402,226.,0.,100.,3673.,0.,0.,3999.,0.176251309953,0.141001047963,1269.00943166
0.08214,224.,0.,92.,3683.,0.,0.,3999.,0.174691563847,0.151905707693,1157.15691893
