t,s,e,i,r,c,o,n,reff,coal,reportr
0.,3307.,0.,74.,619.,0.,0.,4000.,2.42700086986,2.62378472418,12931.0606346
0.002738,3228.,0.,133.,639.,0.,0.,4000.,2.36902292347,1.42497619457,22685.7635151
0.005476,3163.,0.,179.,658.,0.,0.,4000.,2.32131954986,1.03746125133,29917.1663585
0.008214,3019.,0.,246.,735.,0.,0.,4000.,2.21563822985,0.720532757675,39243.3843271
0.010952,2906.,0.,331.,763.,0.,0.,4000.,2.13270774957,0.515458066361,50826.6910877
0.01369,2777.,0.,422.,801.,0.,0.,4000.,2.0380349004,0.386357327089,61923.6524136
0.016428,2464.,0.,589.,947.,0.,0.,4000.,1.80832480899,0.245612877283,76687.4384998
0.019166,2266.,0.,695.,1039.,0.,0.,4000.,1.66301299398,0.191425956142,83217.170219
0.021904,2044.,0.,822.,1134.,0.,0.,4000.,1.50008762564,0.145993929503,88781.186036
0.024642,1667.,0.,926.,1407.,0.,0.,4000.,1.22340805868,0.10569400075,81567.0620884
0.02738,1515.,0.,927.,1557.,0.,0.,3999.,1.11213358763,0.095977008641,74228.2441726
0.030118,1355.,0.,938.,1706.,0.,0.,3999.,0.994680535469,0.0848341608076,67176.7446434
0.032856,1031.,0.,949.,2020.,0.,0.,4000.,0.756648895321,0.0637849437573,51700.3057195
0.035594,915.,0.,928.,2157.,0.,0.,4000.,0.671516720872,0.057889372489,44868.0612218
0.038332,808.,0.,894.,2298.,0.,0.,4000.,0.592989628923,0.0530639488969,38169.5564345
0.04107,648.,0.,782.,2570.,0.,0.,4000.,0.475565940027,0.0486512470616,26776.2646873
0.043808,590.,0.,720.,2690.,0.,0.,4000.,0.432999852803,0.0481110947559,22446.7123693
0.046546,532.,0.,639.,2829.,0.,0.,4000.,0.390433765578,0.0488805966295,17963.0766867
0.049284,451.,0.,519.,3031.,0.,0.,4001.,0.33090529675,0.0510065968016,12365.269129
0.052022,426.,0.,461.,3114.,0.,0.,4001.,0.312562431077,0.0542407689504,10374.5722123
0.05476,408.,0.,417.,3176.,0.,0.,4001.,0.299355567792,0.0574303247563,8987.85156739
0.057498,366.,0.,361.,3274.,0.,0.,4001.,0.26853955346,0.0595101503513,6979.88007354
0.060236,349.,0.,326.,3325.,0.,0.,4000.,0.256130421404,0.062854091142,6011.89325119
0.062974,337.,0.,279.,3384.,0.,0.,4000.,0.247323644736,0.070917174118,4968.23737547
0.065712,313.,0.,227.,3459.,0.,0.,3999.,0.229767533285,0.080975342127,3755.32056402
0.06845,299.,0.,206.,3494.,0.,0.,3999.,0.219490391222,0.0852389868822,3255.4814826
0.071188,285.,0.,165.,3547.,0.,0.,3997.,0.209317934296,0.101487483295,2486.69705944
0.073926,282.,0.,140.,3575.,0.,0.,3997.,0.207114587619,0.118351192925,2087.7150432
0.076664,280.,0.,122.,3596.,0.,0.,3998.,0.205594252694,0.134815903406,1805.93991566
0.079402,267.,0.,102.,3629.,0.,0.,3998.,0.196048805247,0.153763768821,1439.78242574
0.08214,266.,0.,94.,3639.,0.,0.,3999.,0.195265699214,0.166183573799,1321.55825228
