t,s,e,i,r,c,o,n,reff,coal,reportr
0.,3543.,0.,78.,379.,0.,0.,4000.,2.63617706178,2.70377134541,14804.7703789
0.002738,3460.,0.,135.,405.,0.,0.,4000.,2.57442072643,1.5255826527,25023.3694609
0.005476,3402.,0.,181.,417.,0.,0.,4000.,2.53126569691,1.11879146825,32987.4545622
0.008214,3255.,0.,255.,489.,0.,0.,3999.,2.42249564256,0.759998632961,44477.0199975
0.010952,3160.,0.,319.,521.,0.,0.,4000.,2.35120505651,0.589643901319,54002.4777379
0.01369,3014.,0.,414.,572.,0.,0.,4000.,2.24257343048,0.433347522798,66846.6288158
0.016428,2689.,0.,576.,735.,0.,0.,4000.,2.00075645473,0.277882840935,82975.3716907
0.019166,2463.,0.,703.,834.,0.,0.,4000.,1.83260065006,0.208546304416,92758.9145034
0.021904,2231.,0.,828.,942.,0.,0.,4001.,1.65956564058,0.160344506336,98936.6652286
0.024642,1854.,0.,920.,1227.,0.,0.,4001.,1.3791280581,0.119924178965,91353.4425687
0.02738,1657.,0.,935.,1409.,0.,0.,4001.,1.2325864036,0.105461938276,82977.7166904
0.030118,1480.,0.,946.,1576.,0.,0.,4002.,1.10064698146,0.0930779688336,74967.267201
0.032856,1143.,0.,959.,1899.,0.,0.,4001.,0.850239142617,0.0709271443267,58707.3123194
0.035594,1002.,0.,937.,2062.,0.,0.,4001.,0.745353999039,0.0636374812414,50284.5621912
0.038332,887.,0.,893.,2221.,0.,0.,4001.,0.659809378391,0.0591094627898,42423.103793
0.04107,710.,0.,779.,2512.,0.,0.,4001.,0.52814504922,0.0542382592267,29622.5995206
0.043808,637.,0.,716.,2648.,0.,0.,4001.,0.473842811765,0.0529433309234,24427.5446321
0.046546,600.,0.,626.,2774.,0.,0.,4000.,0.446431339844,0.0570519284145,20121.5533494
0.049284,519.,0.,514.,2967.,0.,0.,4000.,0.386163108965,0.060103207621,14291.1243366
0.052022,485.,0.,466.,3050.,0.,0.,4001.,0.360775139256,0.0619356462241,12104.7274723
0.05476,466.,0.,413.,3122.,0.,0.,4001.,0.346641680192,0.0671460881728,10307.7370022
0.057498,417.,0.,361.,3223.,0.,0.,4001.,0.310192233133,0.0687406610821,8062.5165236
0.060236,389.,0.,331.,3281.,0.,0.,4001.,0.289363977671,0.0699369130323,6896.12231585
0.062974,376.,0.,271.,3353.,0.,0.,4000.,0.279763639635,0.0825870522909,5458.74813657
0.065712,350.,0.,222.,3428.,0.,0.,4000.,0.260418281576,0.093844425793,4162.5258127
0.06845,337.,0.,204.,3459.,0.,0.,4000.,0.250745602546,0.0983316088414,3682.95141019
0.071188,315.,0.,164.,3521.,0.,0.,4000.,0.234376453418,0.114329977277,2767.51716196
0.073926,311.,0.,138.,3551.,0.,0.,4000.,0.231400244486,0.134145069267,2299.19282921
0.076664,301.,0.,121.,3578.,0.,0.,4000.,0.223959722155,0.148072543574,1951.13709941
0.079402,289.,0.,99.,3612.,0.,0.,4000.,0.215031095358,0.173762501299,1532.74164771
0.08214,283.,0.,96.,3620.,0.,0.,3999.,0.210619436819,0.175516197349,1455.80154729
