t,s,e,i,r,c,o,n,reff,coal,reportr
0.,3462.,0.,81.,457.,0.,0.,4000.,2.69086114927,2.65764064125,15693.1022225
0.002738,3381.,0.,130.,489.,0.,0.,4000.,2.62790339274,1.61717131861,24597.1757561
0.005476,3305.,0.,184.,511.,0.,0.,4000.,2.56883191748,1.11688344238,34031.8852428
0.008214,3150.,0.,255.,595.,0.,0.,4000.,2.44835719821,0.768112062183,44951.8381591
0.010952,3046.,0.,323.,631.,0.,0.,4000.,2.36752254785,0.586383293586,55059.1043729
0.01369,2908.,0.,419.,673.,0.,0.,4000.,2.26026118488,0.431553448188,68187.5594256
0.016428,2591.,0.,583.,826.,0.,0.,4000.,2.01387095256,0.27634592831,84534.2471046
0.019166,2371.,0.,710.,919.,0.,0.,4000.,1.84287457681,0.207647839641,94207.7483665
0.021904,2132.,0.,845.,1024.,0.,0.,4001.,1.65669615821,0.156846973558,100793.394265
0.024642,1723.,0.,930.,1348.,0.,0.,4001.,1.33887780516,0.115172284314,89651.2578332
0.02738,1548.,0.,939.,1514.,0.,0.,4001.,1.20289195727,0.102482807861,81325.1194473
0.030118,1390.,0.,924.,1687.,0.,0.,4001.,1.08011616318,0.093516550925,71857.9681043
0.032856,1053.,0.,952.,1996.,0.,0.,4001.,0.818246273261,0.0687601910303,56085.8725544
0.035594,929.,0.,938.,2134.,0.,0.,4001.,0.721890586761,0.0615684935404,48753.6026675
0.038332,832.,0.,888.,2281.,0.,0.,4001.,0.646515573935,0.0582446463004,41335.6197351
0.04107,680.,0.,777.,2544.,0.,0.,4001.,0.528402151774,0.0544043399509,29560.9299788
0.043808,604.,0.,705.,2691.,0.,0.,4000.,0.469462777053,0.0532723718642,23829.9305632
0.046546,541.,0.,643.,2816.,0.,0.,4000.,0.420495633089,0.0523167195134,19467.2658295
0.049284,473.,0.,520.,3008.,0.,0.,4001.,0.367550320278,0.0565462031197,13761.0839912
0.052022,447.,0.,476.,3078.,0.,0.,4001.,0.347346708592,0.0583775980827,11904.2663969
0.05476,426.,0.,420.,3154.,0.,0.,4000.,0.331111163948,0.063068793133,10012.8015978
0.057498,383.,0.,356.,3261.,0.,0.,4000.,0.297689145052,0.0668964370903,7630.36816597
0.060236,369.,0.,316.,3315.,0.,0.,4000.,0.286807557504,0.0726095082289,6525.44554834
0.062974,358.,0.,279.,3363.,0.,0.,4000.,0.278257738717,0.0797871652235,5589.64145535
0.065712,330.,0.,230.,3441.,0.,0.,4001.,0.256430456008,0.0891932020897,4246.48835149
0.06845,321.,0.,204.,3476.,0.,0.,4001.,0.249436898117,0.0978183914183,3663.72915954
0.071188,309.,0.,161.,3531.,0.,0.,4001.,0.240112154262,0.119310387211,2783.3800922
0.073926,304.,0.,138.,3559.,0.,0.,4001.,0.236226844322,0.136943098158,2347.14992519
0.076664,299.,0.,116.,3586.,0.,0.,4001.,0.232341534383,0.160235540954,1940.51649516
0.079402,289.,0.,97.,3615.,0.,0.,4001.,0.224570914504,0.185213125364,1568.40326689
0.08214,284.,0.,90.,3627.,0.,0.,4001.,0.220685604564,0.196164981835,1430.04271758
