t,s,e,i,r,c,o,n,reff,coal,reportr
0.,3432.,0.,80.,488.,0.,0.,4000.,2.7056537232,2.7056537232,15584.5654457
0.002738,3360.,0.,128.,512.,0.,0.,4000.,2.64889175698,1.65555734811,24412.1864324
0.005476,3286.,0.,182.,532.,0.,0.,4000.,2.59055306948,1.13870464592,33946.6074224
0.008214,3132.,0.,255.,613.,0.,0.,4000.,2.46914553062,0.774633891958,45333.5119421
0.010952,3013.,0.,331.,656.,0.,0.,4000.,2.37533061422,0.574098033649,56608.8791982
0.01369,2867.,0.,430.,703.,0.,0.,4000.,2.2602299605,0.420507899627,69976.719577
0.016428,2575.,0.,584.,842.,0.,0.,4001.,2.02952127273,0.278016612702,85337.3104756
0.019166,2376.,0.,701.,924.,0.,0.,4001.,1.87267671612,0.213714889143,94517.7392158
0.021904,2136.,0.,827.,1038.,0.,0.,4001.,1.68351745186,0.162855376238,100243.363154
0.024642,1748.,0.,911.,1342.,0.,0.,4001.,1.37770997465,0.120984410507,90366.7526573
0.02738,1562.,0.,933.,1506.,0.,0.,4001.,1.23111154485,0.105561547254,82701.1491371
0.030118,1415.,0.,928.,1658.,0.,0.,4001.,1.1152514955,0.0961423703016,74516.6439232
0.032856,1108.,0.,961.,1932.,0.,0.,4001.,0.873285269974,0.0726980453672,60424.3544
0.035594,970.,0.,941.,2090.,0.,0.,4001.,0.764518693027,0.064996275709,51797.67049
0.038332,851.,0.,895.,2254.,0.,0.,4000.,0.670894906307,0.0599682597817,43232.4677625
0.04107,669.,0.,771.,2559.,0.,0.,3999.,0.52754515576,0.054738796966,29285.0866865
0.043808,609.,0.,708.,2683.,0.,0.,4000.,0.480111630953,0.0542499018026,24474.1704995
0.046546,556.,0.,650.,2794.,0.,0.,4000.,0.438328516929,0.0539481251605,20513.7745923
0.049284,481.,0.,516.,3003.,0.,0.,4000.,0.379201468782,0.0587909253926,14088.0929682
0.052022,454.,0.,466.,3080.,0.,0.,4000.,0.35791573145,0.0614447607639,12008.7886216
0.05476,433.,0.,411.,3156.,0.,0.,4000.,0.341360157968,0.0664447996046,10101.5297946
0.057498,383.,0.,355.,3262.,0.,0.,4000.,0.30194212587,0.0680432959708,7717.64073725
0.060236,364.,0.,325.,3311.,0.,0.,4000.,0.286963273673,0.0706371135196,6714.94060395
0.062974,353.,0.,271.,3376.,0.,0.,4000.,0.278291306612,0.0821524152359,5430.01997461
0.065712,334.,0.,227.,3441.,0.,0.,4002.,0.263180863982,0.0927509652802,4301.42804093
0.06845,320.,0.,208.,3474.,0.,0.,4002.,0.252149330762,0.0969805118314,3776.18837749
0.071188,306.,0.,164.,3532.,0.,0.,4002.,0.241117797541,0.117618437825,2847.11895336
0.073926,305.,0.,140.,3557.,0.,0.,4002.,0.240329830882,0.137331331933,2422.52469529
0.076664,300.,0.,119.,3583.,0.,0.,4002.,0.236389997589,0.158917645438,2025.38949934
0.079402,296.,0.,97.,3610.,0.,0.,4003.,0.233179865121,0.192313290822,1628.52817801
0.08214,292.,0.,88.,3623.,0.,0.,4003.,0.230028785863,0.209117078057,1457.46238723
