t,s,e,i,r,c,o,n,reff,coal,reportr
5.,6250.,5.,3.,3734.,0.,0.,9992.,0.902164038923,9.3825060048,65.
5.02,6249.,9.,0.,3734.,0.,0.,9992.,0.902019692677,5.21166933547,117.
5.04,6255.,6.,4.,3727.,0.,0.,9992.,0.902885770155,7.82501000801,78.
5.06,6262.,8.,1.,3720.,0.,0.,9991.,0.903986664922,5.87591332199,104.
5.08,6263.,5.,5.,3715.,0.,0.,9988.,0.904402590801,9.40578694433,65.
5.1,6267.,7.,2.,3714.,0.,0.,9990.,0.904799029799,6.72136422136,91.
5.12,6273.,4.,3.,3710.,0.,0.,9990.,0.905665280665,11.7736486486,52.
5.14,6274.,8.,4.,3705.,0.,0.,9991.,0.905718993248,5.88717345611,104.
5.16,6279.,9.,4.,3700.,0.,0.,9992.,0.906350080064,5.23668935148,117.
5.18,6279.,8.,5.,3697.,0.,0.,9989.,0.906622284513,5.89304484933,104.
5.2,6281.,9.,3.,3697.,0.,0.,9990.,0.90682028182,5.23940607274,117.
5.22,6290.,9.,2.,3689.,0.,0.,9990.,0.90811965812,5.24691358025,117.
5.24,6293.,7.,4.,3687.,0.,0.,9991.,0.908461846431,6.74857371634,91.
5.26,6305.,6.,3.,3679.,0.,0.,9993.,0.910012008406,7.88677073952,78.
5.28,6312.,3.,7.,3671.,0.,0.,9993.,0.911022331016,15.7910537376,39.
5.3,6321.,2.,3.,3668.,0.,0.,9994.,0.912230030326,23.7179807885,26.
5.32,6327.,2.,1.,3665.,0.,0.,9995.,0.913004579213,23.7381190595,26.
5.34,6337.,4.,2.,3655.,0.,0.,9998.,0.914173219259,11.8842518504,52.
5.36,6345.,3.,2.,3646.,0.,0.,9996.,0.915510434943,15.868847539,39.
5.38,6354.,6.,2.,3633.,0.,0.,9995.,0.916900758071,7.94647323662,78.
5.4,6355.,7.,0.,3633.,0.,0.,9995.,0.917045060992,6.8123347388,91.
5.42,6362.,1.,7.,3627.,0.,0.,9997.,0.917871515301,47.7293187956,13.
5.44,6357.,7.,2.,3630.,0.,0.,9996.,0.917241896759,6.81379694735,91.
5.46,6356.,10.,2.,3626.,0.,0.,9994.,0.917281137914,4.76986191715,130.
5.48,6365.,6.,4.,3624.,0.,0.,9999.,0.91812065822,7.95704570457,78.
5.5,6372.,7.,0.,3624.,0.,0.,10003.,0.918762832689,6.82509532854,91.
5.52,6377.,7.,0.,3618.,0.,0.,10002.,0.919575700245,6.83113377325,91.
5.54,6383.,4.,4.,3609.,0.,0.,10000.,0.920625,11.968125,52.
5.56,6387.,3.,5.,3609.,0.,0.,10004.,0.920833589641,15.9611155538,39.
5.58,6400.,4.,3.,3597.,0.,0.,10004.,0.922707839941,11.9952019192,52.
5.6,6411.,6.,1.,3586.,0.,0.,10004.,0.924293744041,8.01054578169,78.
5.62,6417.,6.,2.,3580.,0.,0.,10005.,0.925066312997,8.01724137931,78.
5.64,6418.,3.,4.,3581.,0.,0.,10006.,0.925118006119,16.0353787727,39.
5.66,6420.,4.,3.,3578.,0.,0.,10005.,0.925498789067,12.0314842579,52.
5.68,6424.,5.,0.,3573.,0.,0.,10002.,0.9263531909,9.63407318536,65.
5.7,6435.,3.,2.,3558.,0.,0.,9998.,0.928310662132,16.0907181436,39.
5.72,6439.,3.,4.,3551.,0.,0.,9997.,0.928980617262,16.1023306992,39.
5.74,6445.,3.,3.,3547.,0.,0.,9998.,0.929753258344,16.1157231446,39.
5.76,6454.,4.,1.,3540.,0.,0.,9999.,0.930958480463,12.102460246,52.
5.78,6460.,5.,1.,3534.,0.,0.,10000.,0.931730769231,9.69,65.
5.8,6458.,1.,5.,3534.,0.,0.,9998.,0.931628633419,48.4446889378,13.
5.82,6460.,7.,3.,3532.,0.,0.,10002.,0.931544460339,6.92004456252,91.
5.84,6468.,5.,3.,3527.,0.,0.,10003.,0.932604833934,9.69909027292,65.
5.86,6474.,5.,3.,3518.,0.,0.,10000.,0.93375,9.711,65.
5.88,6482.,7.,3.,3509.,0.,0.,10001.,0.934810365117,6.94430556944,91.
5.9,6481.,5.,6.,3507.,0.,0.,9999.,0.934853100695,9.72247224722,65.
5.92,6479.,10.,1.,3510.,0.,0.,10000.,0.934471153846,4.85925,130.
5.94,6490.,9.,4.,3499.,0.,0.,10002.,0.935870518204,5.40725188296,117.
5.96,6492.,8.,3.,3497.,0.,0.,10000.,0.936346153846,6.08625,104.
5.98,6499.,5.,3.,3492.,0.,0.,9999.,0.937449514182,9.74947494749,65.
6.,6511.,3.,1.,3488.,0.,0.,10003.,0.938804896992,16.2726182145,39.
6.02,6516.,2.,3.,3481.,0.,0.,10002.,0.939619768354,24.4301139772,26.
6.04,6513.,8.,1.,3475.,0.,0.,9997.,0.939656897069,6.10776983095,104.
6.06,6520.,6.,2.,3467.,0.,0.,9995.,0.940855042906,8.15407703852,78.
6.08,6522.,7.,3.,3464.,0.,0.,9996.,0.941049496722,6.99065340422,91.
6.1,6531.,8.,2.,3456.,0.,0.,9997.,0.942253829995,6.12464989497,104.
6.12,6535.,6.,6.,3448.,0.,0.,9995.,0.943019586716,8.17283641821,78.
6.14,6529.,14.,2.,3450.,0.,0.,9995.,0.942153769192,3.49942828557,182.
6.16,6536.,10.,7.,3441.,0.,0.,9994.,0.94325826265,4.90494296578,130.
6.18,6535.,11.,7.,3441.,0.,0.,9994.,0.94311394529,4.45835683228,143.
6.2,6541.,16.,4.,3440.,0.,0.,10001.,0.943319129625,3.06578717128,208.
6.22,6540.,18.,7.,3435.,0.,0.,10000.,0.943269230769,2.725,234.
6.24,6546.,17.,7.,3430.,0.,0.,10000.,0.944134615385,2.88794117647,221.
6.26,6550.,13.,4.,3431.,0.,0.,9998.,0.944900518565,3.77960207426,169.
6.28,6554.,17.,4.,3423.,0.,0.,9998.,0.94547755705,2.89204899803,221.
6.3,6550.,18.,5.,3423.,0.,0.,9996.,0.945089574291,2.73025877017,234.
6.32,6548.,16.,10.,3422.,0.,0.,9996.,0.944800997322,3.0706032413,208.
6.34,6539.,19.,14.,3424.,0.,0.,9996.,0.94350240096,2.58221709737,247.
6.36,6533.,19.,14.,3430.,0.,0.,9996.,0.942636670053,2.57984772857,247.
6.38,6532.,20.,8.,3437.,0.,0.,9997.,0.942398104047,2.45023507052,260.
6.4,6530.,17.,10.,3440.,0.,0.,9997.,0.942109555944,2.881746877,221.
6.42,6520.,26.,13.,3433.,0.,0.,9992.,0.941137525405,1.88227505081,338.
6.44,6517.,27.,11.,3435.,0.,0.,9990.,0.940892815893,1.81208986765,351.
6.46,6506.,29.,12.,3442.,0.,0.,9989.,0.939398723211,1.6844390899,377.
6.48,6498.,21.,15.,3453.,0.,0.,9987.,0.938431499411,2.3237351414,273.
6.5,6486.,25.,14.,3459.,0.,0.,9984.,0.93697993713,1.94891826923,325.
6.52,6483.,26.,8.,3468.,0.,0.,9985.,0.936452756057,1.87290551211,338.
6.54,6482.,22.,6.,3473.,0.,0.,9983.,0.936495889165,2.21353573803,286.
6.56,6482.,22.,10.,3469.,0.,0.,9983.,0.936495889165,2.21353573803,286.
6.58,6492.,18.,5.,3468.,0.,0.,9983.,0.937940652956,2.70960633076,234.
6.6,6495.,12.,12.,3462.,0.,0.,9981.,0.938562114171,4.06710249474,156.
6.62,6493.,19.,6.,3464.,0.,0.,9982.,0.938179107008,2.56764808234,247.
6.64,6496.,16.,8.,3463.,0.,0.,9983.,0.938518558472,3.05018531504,208.
6.66,6497.,16.,7.,3462.,0.,0.,9982.,0.938757070419,3.05096047886,208.
6.68,6491.,10.,13.,3461.,0.,0.,9975.,0.938548293811,4.88045112782,130.
6.7,6492.,15.,5.,3462.,0.,0.,9974.,0.938787000046,3.25446160016,195.
6.72,6491.,16.,2.,3460.,0.,0.,9969.,0.939113173916,3.05211781523,208.
6.74,6486.,16.,7.,3457.,0.,0.,9966.,0.938672254897,3.05068482842,208.
6.76,6489.,16.,7.,3452.,0.,0.,9964.,0.939294923262,3.0527085006,208.
6.78,6485.,17.,10.,3450.,0.,0.,9962.,0.938904375087,2.87194279438,221.
6.8,6480.,19.,8.,3455.,0.,0.,9962.,0.938180470403,2.56765181373,247.
6.82,6477.,17.,15.,3456.,0.,0.,9965.,0.937463815663,2.86753637732,221.
6.84,6468.,24.,10.,3467.,0.,0.,9969.,0.935785550591,2.02753535961,312.
6.86,6466.,20.,14.,3465.,0.,0.,9965.,0.935871704813,2.43326643251,260.
6.88,6462.,24.,8.,3474.,0.,0.,9968.,0.935011266823,2.02585774478,312.
6.9,6462.,20.,9.,3479.,0.,0.,9970.,0.934823701875,2.43054162487,260.
6.92,6463.,20.,5.,3479.,0.,0.,9967.,0.935249785832,2.43164944316,260.
6.94,6461.,17.,8.,3480.,0.,0.,9966.,0.935054184226,2.86016573999,221.
6.96,6466.,22.,5.,3476.,0.,0.,9969.,0.935496192041,2.21117281755,286.
6.98,6465.,16.,14.,3472.,0.,0.,9967.,0.935539202445,3.04050240795,208.
7.,6455.,25.,11.,3475.,0.,0.,9966.,0.934185847265,1.94310656231,325.
7.02,6455.,26.,11.,3478.,0.,0.,9970.,0.93381104853,1.86762209706,338.
7.04,6459.,24.,9.,3477.,0.,0.,9969.,0.934483437117,2.02471411375,312.
7.06,6452.,16.,17.,3480.,0.,0.,9965.,0.933845381914,3.03499749122,208.
7.08,6441.,17.,16.,3489.,0.,0.,9963.,0.932440414148,2.85217067857,221.
7.1,6441.,20.,11.,3494.,0.,0.,9966.,0.93215972769,2.42361529199,260.
7.12,6430.,21.,16.,3499.,0.,0.,9966.,0.930567776594,2.30426306585,273.
7.14,6421.,27.,14.,3506.,0.,0.,9968.,0.929078821459,1.78933698948,351.
7.16,6414.,26.,12.,3519.,0.,0.,9971.,0.927786735379,1.85557347076,338.
7.18,6413.,25.,11.,3523.,0.,0.,9972.,0.927549060446,1.92930204573,325.
7.2,6398.,29.,9.,3533.,0.,0.,9969.,0.925658001343,1.65980055413,377.
7.22,6391.,26.,18.,3535.,0.,0.,9970.,0.924552503665,1.84910500733,338.
7.24,6367.,41.,18.,3544.,0.,0.,9970.,0.92108054934,1.16819972111,533.
7.26,6364.,23.,26.,3558.,0.,0.,9971.,0.92055422263,2.08125302508,299.
7.28,6352.,33.,15.,3571.,0.,0.,9971.,0.918818419571,1.44783508538,429.
7.3,6350.,29.,12.,3573.,0.,0.,9964.,0.9191744125,1.64817480862,377.
7.32,6347.,24.,15.,3580.,0.,0.,9966.,0.918555781966,1.99020419426,312.
7.34,6352.,26.,10.,3583.,0.,0.,9971.,0.918818419571,1.83763683914,338.
7.36,6348.,22.,14.,3587.,0.,0.,9971.,0.918239818551,2.17038502567,286.
7.38,6350.,24.,10.,3593.,0.,0.,9977.,0.917976731097,1.98894958404,312.
7.4,6354.,23.,10.,3593.,0.,0.,9980.,0.918278865423,2.07610873922,299.
7.42,6368.,14.,14.,3585.,0.,0.,9981.,0.920209937342,3.41792262441,182.
7.44,6367.,17.,13.,3586.,0.,0.,9983.,0.919881105572,2.81375396998,221.
7.46,6351.,27.,13.,3594.,0.,0.,9985.,0.917385693926,1.766816892,351.
7.48,6345.,24.,12.,3600.,0.,0.,9981.,0.916886314767,1.98658701533,312.
7.5,6341.,28.,8.,3602.,0.,0.,9979.,0.916491940768,1.70205646143,364.
7.52,6339.,22.,15.,3602.,0.,0.,9978.,0.916294694482,2.16578745968,286.
7.54,6332.,27.,1.,3620.,0.,0.,9980.,0.915099429628,1.76241371632,351.
7.56,6336.,19.,9.,3615.,0.,0.,9979.,0.915769269312,2.50631589496,247.
7.58,6341.,18.,2.,3616.,0.,0.,9977.,0.916675661714,2.64817413384,234.
7.6,6336.,14.,6.,3617.,0.,0.,9973.,0.916320218436,3.40347509705,182.
7.62,6339.,11.,4.,3617.,0.,0.,9971.,0.916937966256,4.33461584048,143.
7.64,6343.,12.,6.,3608.,0.,0.,9969.,0.917700641219,3.97670277861,156.
7.66,6350.,10.,4.,3608.,0.,0.,9972.,0.918437008238,4.77587244284,130.
7.68,6364.,8.,4.,3598.,0.,0.,9974.,0.920277336459,5.98180268699,104.
7.7,6366.,5.,6.,3595.,0.,0.,9972.,0.920751180228,9.57581227437,65.
7.72,6367.,7.,5.,3592.,0.,0.,9971.,0.920988173395,6.84162643094,91.
7.74,6375.,9.,4.,3583.,0.,0.,9971.,0.922145375435,5.32795105807,117.
7.76,6380.,10.,5.,3582.,0.,0.,9977.,0.922313629039,4.796030871,130.
7.78,6385.,12.,5.,3577.,0.,0.,9979.,0.922851449583,3.99902294819,156.
7.8,6392.,10.,2.,3576.,0.,0.,9980.,0.923770618159,4.80360721443,130.
7.82,6398.,8.,5.,3570.,0.,0.,9981.,0.924545097223,6.00954313195,104.
7.84,6398.,10.,5.,3568.,0.,0.,9981.,0.924545097223,4.80763450556,130.
7.86,6405.,6.,3.,3569.,0.,0.,9983.,0.925371207977,8.01988380246,78.
7.88,6410.,6.,5.,3563.,0.,0.,9984.,0.926000832101,8.02534054487,78.
7.9,6410.,11.,7.,3554.,0.,0.,9982.,0.926186366228,4.37833554944,143.
7.92,6414.,16.,7.,3543.,0.,0.,9980.,0.926950053954,3.01258767535,208.
7.94,6422.,16.,7.,3539.,0.,0.,9984.,0.927734375,3.01513671875,208.
7.96,6426.,13.,9.,3534.,0.,0.,9982.,0.928498219873,3.71399287949,169.
7.98,6430.,15.,7.,3531.,0.,0.,9983.,0.928983117454,3.22047480717,195.
8.,6429.,16.,8.,3533.,0.,0.,9986.,0.928559598823,3.01781869617,208.
8.02,6428.,16.,9.,3537.,0.,0.,9990.,0.928043428043,3.01614114114,208.
8.04,6430.,19.,8.,3535.,0.,0.,9992.,0.928146363244,2.54019004677,247.
8.06,6430.,23.,8.,3530.,0.,0.,9991.,0.928239261489,2.09862789554,299.
8.08,6423.,19.,9.,3538.,0.,0.,9989.,0.927414386594,2.53818674226,247.
8.1,6411.,28.,9.,3543.,0.,0.,9991.,0.925496408306,1.718779044,364.
8.12,6419.,21.,8.,3548.,0.,0.,9996.,0.926187782805,2.29341736695,273.
8.14,6415.,22.,8.,3547.,0.,0.,9992.,0.925981169551,2.18868276439,286.
8.16,6415.,17.,8.,3553.,0.,0.,9993.,0.92588850657,2.83212954951,221.
8.18,6410.,17.,8.,3558.,0.,0.,9993.,0.925166847563,2.82992212196,221.
8.2,6409.,24.,9.,3548.,0.,0.,9990.,0.9253003003,2.00481731732,312.
8.22,6406.,27.,14.,3542.,0.,0.,9989.,0.924959763432,1.78140398883,351.
8.24,6402.,31.,10.,3548.,0.,0.,9991.,0.924197162061,1.55026620733,403.
8.26,6393.,30.,10.,3555.,0.,0.,9988.,0.923175117834,1.60017020425,390.
8.28,6394.,25.,18.,3551.,0.,0.,9988.,0.923319521888,1.92050460553,325.
8.3,6387.,27.,16.,3558.,0.,0.,9988.,0.922308693509,1.77629822454,351.
8.32,6386.,29.,11.,3565.,0.,0.,9991.,0.92188739096,1.65303945965,377.
8.34,6383.,26.,11.,3570.,0.,0.,9990.,0.921546546547,1.84309309309,338.
8.36,6381.,28.,12.,3567.,0.,0.,9988.,0.921442269185,1.71124992849,364.
8.38,6373.,23.,20.,3573.,0.,0.,9989.,0.920194906705,2.08044065864,299.
8.4,6371.,23.,12.,3584.,0.,0.,9990.,0.919814044814,2.07957957958,299.
8.42,6364.,21.,11.,3595.,0.,0.,9991.,0.918711455695,2.27490455696,273.
8.44,6362.,21.,14.,3594.,0.,0.,9991.,0.918422734307,2.27418962781,273.
8.46,6360.,21.,17.,3598.,0.,0.,9996.,0.917674762213,2.27233750643,273.
8.48,6357.,24.,11.,3603.,0.,0.,9995.,0.917333666833,1.98755627814,312.
8.5,6354.,20.,13.,3606.,0.,0.,9993.,0.917084266679,2.38441909337,260.
8.52,6349.,25.,10.,3610.,0.,0.,9994.,0.916270916396,1.9058435061,325.
8.54,6354.,20.,17.,3606.,0.,0.,9997.,0.916717322889,2.38346503951,260.
8.56,6350.,24.,6.,3617.,0.,0.,9997.,0.916140226683,1.98497049115,312.
8.58,6347.,25.,14.,3613.,0.,0.,9999.,0.915524244732,1.90429042904,325.
8.6,6344.,23.,12.,3621.,0.,0.,10000.,0.915,2.06869565217,299.
8.62,6337.,25.,18.,3617.,0.,0.,9997.,0.914264664015,1.90167050115,325.
8.64,6327.,31.,15.,3624.,0.,0.,9997.,0.9128219235,1.531185162,403.
8.66,6303.,35.,14.,3641.,0.,0.,9993.,0.909723344803,1.35158896942,455.
8.68,6301.,33.,14.,3644.,0.,0.,9992.,0.909525697481,1.43319200815,429.
8.7,6294.,39.,5.,3653.,0.,0.,9991.,0.908606207125,1.21147494283,507.
8.72,6287.,30.,12.,3651.,0.,0.,9980.,0.90859603823,1.5748997996,390.
8.74,6284.,33.,6.,3656.,0.,0.,9979.,0.908253486167,1.43118731154,429.
8.76,6288.,26.,15.,3650.,0.,0.,9979.,0.908831623332,1.81766324666,338.
8.78,6282.,27.,9.,3664.,0.,0.,9982.,0.907691537074,1.748146664,351.
8.8,6279.,25.,9.,3668.,0.,0.,9981.,0.90734896303,1.8872858431,325.
8.82,6276.,25.,6.,3677.,0.,0.,9984.,0.906642936391,1.88581730769,325.
8.84,6274.,20.,12.,3679.,0.,0.,9985.,0.906263241015,2.35628442664,260.
8.86,6269.,21.,6.,3687.,0.,0.,9983.,0.905722420422,2.24274123152,273.
8.88,6267.,19.,7.,3687.,0.,0.,9980.,0.905705642053,2.47877333615,247.
8.9,6277.,9.,10.,3683.,0.,0.,9979.,0.907241746128,5.24184119985,117.
8.92,6276.,12.,5.,3685.,0.,0.,9978.,0.90718812156,3.93114852676,156.
8.94,6290.,5.,8.,3679.,0.,0.,9982.,0.908847463897,9.45201362452,65.
8.96,6289.,10.,2.,3679.,0.,0.,9980.,0.908885077848,4.72620240481,130.
8.98,6296.,8.,1.,3678.,0.,0.,9983.,0.909623282657,5.91255133727,104.
9.,6300.,6.,2.,3672.,0.,0.,9980.,0.910474795745,7.89078156313,78.
9.02,6304.,4.,2.,3673.,0.,0.,9983.,0.91077909369,11.840128218,52.
9.04,6308.,5.,2.,3666.,0.,0.,9981.,0.911539617581,9.48001202284,65.
9.06,6314.,6.,1.,3661.,0.,0.,9982.,0.912315244363,7.90673211781,78.
9.08,6327.,6.,2.,3652.,0.,0.,9987.,0.913735933637,7.91904475819,78.
9.1,6330.,6.,4.,3647.,0.,0.,9987.,0.914169189177,7.92279963953,78.
9.12,6335.,11.,3.,3637.,0.,0.,9986.,0.914982899136,4.32537370501,143.
9.14,6336.,14.,3.,3632.,0.,0.,9985.,0.91521898232,3.39938479147,182.
9.16,6346.,8.,4.,3629.,0.,0.,9987.,0.916479885389,5.95711925503,104.
9.18,6349.,4.,4.,3632.,0.,0.,9989.,0.916729556358,11.9174842327,52.
9.2,6354.,6.,2.,3629.,0.,0.,9991.,0.917267848756,7.94965468922,78.
9.22,6356.,8.,4.,3626.,0.,0.,9994.,0.917281137914,5.96232739644,104.
9.24,6362.,7.,3.,3621.,0.,0.,9993.,0.918238921091,6.82120341382,91.
9.26,6365.,8.,4.,3618.,0.,0.,9995.,0.918488090199,5.97017258629,104.
9.28,6365.,8.,5.,3615.,0.,0.,9993.,0.918671916495,5.97136745722,104.
9.3,6372.,9.,2.,3613.,0.,0.,9996.,0.919406224028,5.31212484994,117.
9.32,6374.,8.,4.,3608.,0.,0.,9994.,0.919878850387,5.97921252752,104.
9.34,6375.,7.,5.,3607.,0.,0.,9994.,0.920023167747,6.83445781755,91.
9.36,6377.,8.,7.,3600.,0.,0.,9992.,0.920496012194,5.98322407926,104.
9.38,6375.,6.,6.,3601.,0.,0.,9988.,0.92057584486,7.97832398879,78.
9.4,6377.,9.,3.,3597.,0.,0.,9986.,0.921049084102,5.32161693037,117.
9.42,6378.,10.,6.,3590.,0.,0.,9984.,0.921378051036,4.79116586538,130.
9.44,6370.,14.,7.,3590.,0.,0.,9981.,0.920498948001,3.41899609258,182.
9.46,6369.,14.,9.,3588.,0.,0.,9980.,0.920446662556,3.41880188949,182.
9.48,6369.,16.,1.,3595.,0.,0.,9981.,0.920354442672,2.99115193868,208.
9.5,6371.,11.,6.,3591.,0.,0.,9979.,0.920827969505,4.35300494675,143.
9.52,6378.,12.,8.,3583.,0.,0.,9981.,0.921654990636,3.99383829276,156.
9.54,6380.,13.,7.,3579.,0.,0.,9979.,0.922128778126,3.68851511251,169.
9.56,6380.,14.,4.,3583.,0.,0.,9981.,0.921944001295,3.42436343338,182.
9.58,6389.,12.,2.,3578.,0.,0.,9981.,0.923244549259,4.00072638012,156.
9.6,6398.,11.,6.,3568.,0.,0.,9983.,0.924359873323,4.36970121935,143.
9.62,6402.,14.,3.,3565.,0.,0.,9984.,0.924845136834,3.43513907967,182.
9.64,6407.,9.,5.,3561.,0.,0.,9982.,0.92575289367,5.34879449676,117.
9.66,6416.,7.,7.,3551.,0.,0.,9981.,0.927146193152,6.88737172055,91.
9.68,6416.,12.,4.,3549.,0.,0.,9981.,0.927146193152,4.01763350366,156.
9.7,6421.,11.,6.,3550.,0.,0.,9988.,0.927218431348,4.38321440274,143.
9.72,6429.,8.,6.,3547.,0.,0.,9990.,0.928187803188,6.03322072072,104.
9.74,6432.,5.,5.,3543.,0.,0.,9985.,0.929085936597,9.66249374061,65.
9.76,6444.,5.,1.,3536.,0.,0.,9986.,0.930726093454,9.67955137192,65.
9.78,6451.,4.,2.,3530.,0.,0.,9987.,0.931643829286,12.1113697807,52.
9.8,6452.,5.,3.,3526.,0.,0.,9986.,0.931881557257,9.69156819547,65.
9.82,6451.,7.,3.,3522.,0.,0.,9983.,0.932017121414,6.92355575908,91.
9.84,6457.,6.,4.,3517.,0.,0.,9984.,0.93279054179,8.08418469551,78.
9.86,6458.,7.,7.,3512.,0.,0.,9984.,0.932935003698,6.93037431319,91.
9.88,6455.,10.,4.,3515.,0.,0.,9984.,0.932501617973,4.84900841346,130.
9.9,6448.,11.,4.,3518.,0.,0.,9981.,0.931770363691,4.40473262836,143.
9.92,6454.,13.,1.,3513.,0.,0.,9981.,0.932637395667,3.73054958267,169.
9.94,6460.,13.,3.,3505.,0.,0.,9981.,0.933504427643,3.73401771057,169.
9.96,6459.,9.,9.,3505.,0.,0.,9982.,0.933266418014,5.39220597075,117.
9.98,6462.,8.,8.,3504.,0.,0.,9982.,0.933699890572,6.06904928872,104.
10.,6459.,14.,9.,3505.,0.,0.,9987.,0.932799177392,3.46468265889,182.
