t,cases
5.01,0.585
5.02,0.585
5.03,0.52
5.04,0.52
5.05,0.78
5.06,0.78
5.07,0.91
5.08,0.91
5.09,0.715
5.1,0.715
5.11,0.715
5.12,0.715
5.13,0.65
5.14,0.65
5.15,0.39
5.16,0.39
5.17,0.455
5.18,0.455
5.19,0.65
5.2,0.65
5.21,0.52
5.22,0.52
5.23,0.52
5.24,0.52
5.25,0.78
5.26,0.78
5.27,1.17
5.28,1.17
5.29,1.235
5.3,1.235
5.31,0.91
5.32,0.91
5.33,1.235
5.34,1.235
5.35,1.69
5.36,1.69
5.37,1.69
5.38,1.69
5.39,1.495
5.4,1.495
5.41,1.235
5.42,1.235
5.43,1.43
5.44,1.43
5.45,1.56
5.46,1.56
5.47,1.885
5.48,1.885
5.49,2.405
5.5,2.405
5.51,1.95
5.52,1.95
5.53,1.755
5.54,1.755
5.55,1.95
5.56,1.95
5.57,1.69
5.58,1.69
5.59,1.56
5.6,1.56
5.61,1.43
5.62,1.43
5.63,1.56
5.64,1.56
5.65,1.56
5.66,1.56
5.67,1.755
5.68,1.755
5.69,2.405
5.7,2.405
5.71,2.6
5.72,2.6
5.73,3.315
5.74,3.315
5.75,3.12
5.76,3.12
5.77,2.6
5.78,2.6
5.79,2.795
5.8,2.795
5.81,2.405
5.82,2.405
5.83,2.34
5.84,2.34
5.85,2.405
5.86,2.405
5.87,2.08
5.88,2.08
5.89,1.69
5.9,1.69
5.91,1.17
5.92,1.17
5.93,1.17
5.94,1.17
5.95,1.755
5.96,1.755
5.97,2.08
5.98,2.08
5.99,2.47
6.,2.47
6.01,2.6
6.02,2.6
6.03,2.47
6.04,2.47
6.05,2.86
6.06,2.86
6.07,3.445
6.08,3.445
6.09,3.64
6.1,3.64
6.11,3.575
6.12,3.575
6.13,3.12
6.14,3.12
6.15,3.445
6.16,3.445
6.17,4.03
6.18,4.03
6.19,4.225
6.2,4.225
6.21,4.225
6.22,4.225
6.23,3.965
6.24,3.965
6.25,3.965
6.26,3.965
6.27,3.9
6.28,3.9
6.29,4.03
6.3,4.03
6.31,4.355
6.32,4.355
6.33,4.225
6.34,4.225
6.35,4.03
6.36,4.03
6.37,4.03
6.38,4.03
6.39,4.03
6.4,4.03
6.41,4.485
6.42,4.485
6.43,4.615
6.44,4.615
6.45,3.77
6.46,3.77
6.47,3.055
6.48,3.055
6.49,2.535
6.5,2.535
6.51,2.665
6.52,2.665
6.53,3.315
6.54,3.315
6.55,3.055
6.56,3.055
6.57,2.795
6.58,2.795
6.59,2.665
6.6,2.665
6.61,2.47
6.62,2.47
6.63,1.69
6.64,1.69
6.65,1.56
6.66,1.56
6.67,2.145
6.68,2.145
6.69,2.015
6.7,2.015
6.71,2.08
6.72,2.08
6.73,2.405
6.74,2.405
6.75,2.015
6.76,2.015
6.77,1.105
6.78,1.105
6.79,1.04
6.8,1.04
6.81,1.3
6.82,1.3
6.83,1.495
6.84,1.495
6.85,2.145
6.86,2.145
6.87,2.145
6.88,2.145
6.89,1.69
6.9,1.69
6.91,1.625
6.92,1.625
6.93,1.56
6.94,1.56
6.95,1.43
6.96,1.43
6.97,1.235
6.98,1.235
6.99,0.91
7.,0.91
7.01,0.845
7.02,0.845
7.03,0.78
7.04,0.78
7.05,0.52
7.06,0.52
7.07,0.455
7.08,0.455
7.09,0.325
7.1,0.325
7.11,0.585
7.12,0.585
7.13,0.845
7.14,0.845
7.15,0.52
7.16,0.52
7.17,0.325
7.18,0.325
7.19,0.26
7.2,0.26
7.21,0.39
7.22,0.39
7.23,0.585
7.24,0.585
7.25,0.78
7.26,0.78
7.27,0.975
7.28,0.975
7.29,1.105
7.3,1.105
7.31,1.56
7.32,1.56
7.33,1.69
7.34,1.69
7.35,1.82
7.36,1.82
7.37,2.21
7.38,2.21
7.39,2.21
7.4,2.21
7.41,2.015
7.42,2.015
7.43,1.885
7.44,1.885
7.45,1.56
7.46,1.56
7.47,1.3
7.48,1.3
7.49,1.43
7.5,1.43
7.51,1.495
7.52,1.495
7.53,1.885
7.54,1.885
7.55,2.015
7.56,2.015
7.57,1.69
7.58,1.69
7.59,2.08
7.6,2.08
7.61,2.34
7.62,2.34
7.63,2.275
7.64,2.275
7.65,1.95
7.66,1.95
7.67,2.015
7.68,2.015
7.69,2.665
7.7,2.665
7.71,2.47
7.72,2.47
7.73,1.69
7.74,1.69
7.75,1.365
7.76,1.365
7.77,1.495
7.78,1.495
7.79,1.495
7.8,1.495
7.81,1.82
7.82,1.82
7.83,2.275
7.84,2.275
7.85,2.275
7.86,2.275
7.87,2.535
7.88,2.535
7.89,2.925
7.9,2.925
7.91,2.535
7.92,2.535
7.93,2.405
7.94,2.405
7.95,2.73
7.96,2.73
7.97,2.99
7.98,2.99
7.99,3.055
8.,3.055
8.01,2.795
8.02,2.795
8.03,2.405
8.04,2.405
8.05,2.08
8.06,2.08
8.07,2.015
8.08,2.015
8.09,1.885
8.1,1.885
8.11,1.755
8.12,1.755
8.13,1.82
8.14,1.82
8.15,2.21
8.16,2.21
8.17,2.145
8.18,2.145
8.19,1.495
8.2,1.495
8.21,1.495
8.22,1.495
8.23,1.885
8.24,1.885
8.25,2.015
8.26,2.015
8.27,2.73
8.28,2.73
8.29,2.925
8.3,2.925
8.31,2.275
8.32,2.275
8.33,3.055
8.34,3.055
8.35,4.55
8.36,4.55
8.37,4.94
8.38,4.94
8.39,4.225
8.4,4.225
8.41,3.38
8.42,3.38
8.43,3.575
8.44,3.575
8.45,3.965
8.46,3.965
8.47,3.51
8.48,3.51
8.49,3.315
8.5,3.315
8.51,3.575
8.52,3.575
8.53,3.575
8.54,3.575
8.55,3.12
8.56,3.12
8.57,2.86
8.58,2.86
8.59,3.51
8.6,3.51
8.61,4.29
8.62,4.29
8.63,4.29
8.64,4.29
8.65,3.965
8.66,3.965
8.67,3.835
8.68,3.835
8.69,3.77
8.7,3.77
8.71,3.77
8.72,3.77
8.73,3.25
8.74,3.25
8.75,2.795
8.76,2.795
8.77,2.86
8.78,2.86
8.79,2.73
8.8,2.73
8.81,2.795
8.82,2.795
8.83,2.665
8.84,2.665
8.85,1.885
8.86,1.885
8.87,1.56
8.88,1.56
8.89,1.625
8.9,1.625
8.91,1.95
8.92,1.95
8.93,2.73
8.94,2.73
8.95,2.73
8.96,2.73
8.97,2.015
8.98,2.015
8.99,1.69
9.,1.69
9.01,1.69
9.02,1.69
9.03,2.015
9.04,2.015
9.05,2.21
9.06,2.21
9.07,2.665
9.08,2.665
9.09,2.47
9.1,2.47
9.11,1.95
9.12,1.95
9.13,2.405
9.14,2.405
9.15,2.925
9.16,2.925
9.17,2.99
9.18,2.99
9.19,2.535
9.2,2.535
9.21,2.21
9.22,2.21
9.23,2.21
9.24,2.21
9.25,2.145
9.26,2.145
9.27,2.275
9.28,2.275
9.29,2.665
9.3,2.665
9.31,2.535
9.32,2.535
9.33,2.6
9.34,2.6
9.35,2.73
9.36,2.73
9.37,2.34
9.38,2.34
9.39,2.015
9.4,2.015
9.41,2.21
9.42,2.21
9.43,2.47
9.44,2.47
9.45,2.145
9.46,2.145
9.47,1.69
9.48,1.69
9.49,1.56
9.5,1.56
9.51,1.56
9.52,1.56
9.53,1.755
9.54,1.755
9.55,2.275
9.56,2.275
9.57,2.08
9.58,2.08
9.59,1.365
9.6,1.365
9.61,1.105
9.62,1.105
9.63,0.845
9.64,0.845
9.65,0.845
9.66,0.845
9.67,0.975
9.68,0.975
9.69,1.17
9.7,1.17
9.71,1.43
9.72,1.43
9.73,2.015
9.74,2.015
9.75,2.73
9.76,2.73
9.77,3.055
9.78,3.055
9.79,2.99
9.8,2.99
9.81,2.73
9.82,2.73
9.83,2.665
9.84,2.665
9.85,2.34
9.86,2.34
9.87,2.665
9.88,2.665
9.89,2.925
9.9,2.925
9.91,3.055
9.92,3.055
9.93,3.055
9.94,3.055
9.95,2.47
9.96,2.47
9.97,2.535
9.98,2.535
9.99,2.275
10.,2.275
