t,neff
5.,0.106581333333
5.02,0.149061850727
5.04,0.127576192756
5.06,0.0424425698976
5.08,0.169780324737
5.1,0.127327709693
5.12,0.105942167143
5.14,0.0423499523659
5.16,0.0634480570976
5.18,0.0634004119793
5.2,0.0633328058237
5.22,0.084383272689
5.24,0.0843312773474
5.26,0.126400252725
5.28,0.105217208373
5.3,0.105227726938
5.32,0.105233812004
5.34,0.147284768212
5.36,0.168255569567
5.38,0.0210136022268
5.4,0.23124560021
5.42,0.209991603694
5.44,0.230990764064
5.46,0.230802644004
5.48,0.188690045605
5.5,0.251644374508
5.52,0.209580712788
5.54,0.230492662474
5.56,0.230324743348
5.58,0.209132276793
5.6,0.0418157096538
5.62,0.209224647924
5.64,0.146396608573
5.66,0.146288104575
5.68,0.125325388114
5.7,0.208732894599
5.72,0.208688387636
5.74,0.27120642872
5.76,0.291960569551
5.78,0.354836621776
5.8,0.418240769793
5.82,0.481066499374
5.84,0.46041960969
5.86,0.418211280122
5.88,0.418211280122
5.9,0.334616912303
5.92,0.334807843137
5.94,0.272031372549
5.96,0.419299072765
5.98,0.314299182904
6.,0.398824517213
6.02,0.420170185944
6.04,0.357221521648
6.06,0.230997689561
6.08,0.44157753589
6.1,0.399539432177
6.12,0.378690231971
6.14,0.210097189388
6.16,0.294000734561
6.18,0.209931309318
6.2,0.209721349256
6.22,0.125814867201
6.24,0.293815741178
6.26,0.272840515886
6.28,0.209868386556
6.3,0.272805664831
6.32,0.272692569871
6.34,0.209640574243
6.36,0.230278867786
6.38,0.125429467085
6.4,0.229990071589
6.42,0.208948055338
6.44,0.208808182008
6.46,0.250416275431
6.48,0.125168961202
6.5,0.125111841076
6.52,0.208543263965
6.54,0.145890818082
6.56,0.166687513029
6.58,0.166722969451
6.6,0.208457166693
6.62,0.313010803194
6.64,0.438451653345
6.66,0.292392747035
6.68,0.187875939849
6.7,0.313175622748
6.72,0.312814895948
6.74,0.229054912994
6.76,0.249707949399
6.78,0.187193256322
6.8,0.270586275122
6.82,0.207936755604
6.84,0.186849400405
6.86,0.145366157681
6.88,0.145374266272
6.9,0.145314431116
6.92,0.165936997249
6.94,0.16574895007
6.96,0.0827614759615
6.98,0.103354525249
7.,0.103157894737
7.02,0.0411851393827
7.04,0.123601485149
7.06,0.144179427688
7.08,0.205893869139
7.1,0.288178025035
7.12,0.246881853282
7.14,0.308619091752
7.16,0.370480754367
7.18,0.349898490236
7.2,0.390988093398
7.22,0.267163087698
7.24,0.246484483557
7.26,0.225628853268
7.28,0.184530046225
7.3,0.143369771619
7.32,0.163727422003
7.34,0.266071336926
7.36,0.266028521596
7.38,0.224997179921
7.4,0.163500896746
7.42,0.184012298232
7.44,0.26594300943
7.46,0.306668715427
7.48,0.265465705079
7.5,0.183586756591
7.52,0.142753512133
7.54,0.244558823529
7.56,0.285375816994
7.58,0.326596082042
7.6,0.326696341776
7.62,0.573095384615
7.64,0.532541050903
7.66,0.471674886971
7.68,0.431327980234
7.7,0.473214709371
7.72,0.618226906385
7.74,0.53573804359
7.76,0.514996644468
7.78,0.598289909016
7.8,0.556713687801
7.82,0.556800000001
7.84,0.535899183969
7.86,0.494522924411
7.88,0.473771033343
7.9,0.370699690403
7.92,0.370618811881
7.94,0.308610295254
7.96,0.411607649091
7.98,0.185216584158
8.,0.308854489164
8.02,0.267574117041
8.04,0.267437760941
8.06,0.288036275571
8.08,0.267326018648
8.1,0.349834493426
8.12,0.308615622583
8.14,0.22631616927
8.16,0.1438036431
8.18,0.123208886146
8.2,0.102626574145
8.22,0.123127216654
8.24,0.123083564601
8.26,0.266693386774
8.28,0.328154541718
8.3,0.266436569081
8.32,0.28693168978
8.34,0.328055898068
8.36,0.390068426197
8.38,0.32846090535
8.4,0.205224724879
8.42,0.225642765356
8.44,0.328344391297
8.46,0.287110836932
8.48,0.26615329329
8.5,0.307211093991
8.52,0.204577175698
8.54,0.265882715099
8.56,0.22487234697
8.58,0.327354057659
8.6,0.368068933682
8.62,0.430032362459
8.64,0.492277288867
8.66,0.513371463905
8.68,0.472323544564
8.7,0.431451987011
8.72,0.328623692483
8.74,0.266771669755
8.76,0.286951426368
8.78,0.204714219689
8.8,0.245731012171
8.82,0.163659487179
8.84,0.16361025641
8.86,0.163501973448
8.88,0.122470046083
8.9,0.183714856353
8.92,0.183715998156
8.94,0.101996314496
8.96,0.265381698945
8.98,0.203836120914
9.,0.122143950995
9.02,0.142370461036
9.04,0.182946305645
9.06,0.203273672938
9.08,0.203097931316
9.1,0.162452762923
9.12,0.304830327117
9.14,0.264012223071
9.16,0.365742241247
9.18,0.345335779068
9.2,0.243543066585
9.22,0.141979452751
9.24,0.141914493417
9.26,0.2027756596
9.28,0.202621152088
9.3,0.12131426833
9.32,0.141533313051
9.34,0.222272865391
9.36,0.262526571515
9.38,0.201616651511
9.4,0.12095786602
9.42,0.181446550417
9.44,0.221756620174
9.46,0.282277803042
9.48,0.221778855872
9.5,0.322310760996
9.52,0.362837223401
9.54,0.302288225489
9.56,0.322424977266
9.58,0.342506311219
9.6,0.322261940826
9.62,0.484076433122
9.64,0.464068738944
9.66,0.545381696768
9.68,0.444408014571
9.7,0.505061241017
9.72,0.444408014571
9.74,0.404088241247
9.76,0.384330648837
9.78,0.242721749696
9.8,0.303615922212
9.82,0.263080194411
9.84,0.303461888855
9.86,0.242793805041
9.88,0.222494179573
9.9,0.121317747078
9.92,0.161683358624
9.94,0.181884387801
9.96,0.222337583485
9.98,0.121256639854
10.,0.161569579288
