t,prevalence
5.,1
5.02,3
5.04,4
5.06,2
5.08,2
5.1,0
5.12,0
5.14,4
5.16,1
5.18,2
5.2,1
5.22,2
5.24,2
5.26,4
5.28,5
5.3,3
5.32,4
5.34,4
5.36,2
5.38,3
5.4,5
5.42,5
5.44,3
5.46,3
5.48,0
5.5,1
5.52,4
5.54,1
5.56,3
5.58,1
5.6,1
5.62,3
5.64,0
5.66,0
5.68,1
5.7,0
5.72,0
5.74,0
5.76,2
5.78,1
5.8,1
5.82,3
5.84,2
5.86,1
5.88,0
5.9,1
5.92,2
5.94,2
5.96,2
5.98,4
6.,1
6.02,3
6.04,4
6.06,2
6.08,4
6.1,4
6.12,6
6.14,4
6.16,9
6.18,4
6.2,4
6.22,10
6.24,7
6.26,3
6.28,11
6.3,6
6.32,9
6.34,10
6.36,10
6.38,6
6.4,14
6.42,16
6.44,18
6.46,11
6.48,12
6.5,8
6.52,18
6.54,15
6.56,13
6.58,14
6.6,12
6.62,12
6.64,11
6.66,11
6.68,12
6.7,11
6.72,12
6.74,14
6.76,13
6.78,12
6.8,9
6.82,8
6.84,9
6.86,12
6.88,7
6.9,7
6.92,5
6.94,4
6.96,5
6.98,3
7.,5
7.02,10
7.04,10
7.06,8
7.08,7
7.1,8
7.12,8
7.14,9
7.16,6
7.18,7
7.2,5
7.22,6
7.24,6
7.26,9
7.28,0
7.3,3
7.32,6
7.34,6
7.36,0
7.38,1
7.4,4
7.42,5
7.44,4
7.46,4
7.48,7
7.5,7
7.52,3
7.54,1
7.56,5
7.58,8
7.6,6
7.62,3
7.64,6
7.66,8
7.68,9
7.7,9
7.72,4
7.74,7
7.76,1
7.78,5
7.8,4
7.82,3
7.84,1
7.86,4
7.88,3
7.9,6
7.92,3
7.94,2
7.96,2
7.98,0
8.,3
8.02,4
8.04,1
8.06,5
8.08,1
8.1,3
8.12,2
8.14,1
8.16,3
8.18,2
8.2,5
8.22,0
8.24,5
8.26,1
8.28,3
8.3,3
8.32,3
8.34,0
8.36,0
8.38,1
8.4,1
8.42,1
8.44,0
8.46,0
8.48,1
8.5,3
8.52,3
8.54,0
8.56,1
8.58,1
8.6,4
8.62,2
8.64,1
8.66,0
8.68,1
8.7,3
8.72,3
8.74,2
8.76,1
8.78,4
8.8,5
8.82,2
8.84,3
8.86,1
8.88,0
8.9,1
8.92,1
8.94,0
8.96,1
8.98,0
9.,2
9.02,1
9.04,3
9.06,3
9.08,4
9.1,6
9.12,3
9.14,2
9.16,5
9.18,8
9.2,4
9.22,2
9.24,2
9.26,2
9.28,2
9.3,1
9.32,3
9.34,4
9.36,1
9.38,3
9.4,5
9.42,4
9.44,8
9.46,8
9.48,7
9.5,11
9.52,9
9.54,10
9.56,13
9.58,9
9.6,10
9.62,11
9.64,15
9.66,14
9.68,16
9.7,9
9.72,4
9.74,13
9.76,6
9.78,8
9.8,8
9.82,10
9.84,10
9.86,8
9.88,8
9.9,7
9.92,7
9.94,5
9.96,5
9.98,6
10.,8
