t,s,e,i,r,c,o,n,reff,coal,reportr
5.,6250.,5.,3.,3734.,0.,0.,9992.,0.902164038923,9.3825060048,65.
5.02,6256.,5.,1.,3731.,0.,0.,9993.,0.902939750133,9.39057340138,65.
5.04,6264.,5.,3.,3724.,0.,0.,9996.,0.903823067689,9.39975990396,65.
5.06,6268.,4.,5.,3719.,0.,0.,9996.,0.904400221627,11.7572028812,52.
5.08,6272.,7.,4.,3715.,0.,0.,9998.,0.904796343884,6.72134426885,91.
5.1,6270.,12.,2.,3714.,0.,0.,9998.,0.904507824642,3.91953390678,156.
5.12,6269.,9.,5.,3715.,0.,0.,9998.,0.904363565021,5.22521170901,117.
5.14,6272.,6.,6.,3716.,0.,0.,10000.,0.904615384615,7.84,78.
5.16,6282.,9.,4.,3709.,0.,0.,10004.,0.905695414142,5.23290683727,117.
5.18,6278.,9.,4.,3707.,0.,0.,9998.,0.905661901611,5.23271320931,117.
5.2,6279.,6.,7.,3707.,0.,0.,9999.,0.905715571557,7.8495349535,78.
5.22,6285.,8.,3.,3704.,0.,0.,10000.,0.906490384615,5.8921875,104.
5.24,6288.,11.,2.,3700.,0.,0.,10001.,0.906832393684,4.28684404287,143.
5.26,6289.,10.,5.,3694.,0.,0.,9998.,0.907248757444,4.71769353871,130.
5.28,6283.,14.,6.,3696.,0.,0.,9999.,0.906292552332,3.36622948009,182.
5.3,6287.,18.,4.,3691.,0.,0.,10000.,0.906778846154,2.61958333333,234.
5.32,6292.,7.,12.,3688.,0.,0.,9999.,0.907590759076,6.74210278171,91.
5.34,6288.,11.,7.,3691.,0.,0.,9997.,0.907195235494,4.28855929506,143.
5.36,6286.,12.,10.,3689.,0.,0.,9997.,0.906906687391,3.92992897869,156.
5.38,6283.,15.,8.,3691.,0.,0.,9997.,0.906473865236,3.14244273282,195.
5.4,6283.,16.,10.,3690.,0.,0.,9999.,0.906292552332,2.94545079508,208.
5.42,6279.,18.,9.,3693.,0.,0.,9999.,0.905715571557,2.61651165117,234.
5.44,6280.,18.,3.,3698.,0.,0.,9999.,0.905859816751,2.6169283595,234.
5.46,6281.,11.,10.,3695.,0.,0.,9997.,0.906185317134,4.28378513554,143.
5.48,6274.,16.,9.,3697.,0.,0.,9996.,0.905265952535,2.94211434574,208.
5.5,6274.,13.,7.,3700.,0.,0.,9994.,0.905447114422,3.62178845769,169.
5.52,6277.,14.,5.,3699.,0.,0.,9995.,0.905789433178,3.3643607518,182.
5.54,6277.,10.,9.,3700.,0.,0.,9996.,0.905698817989,4.70963385354,130.
5.56,6282.,12.,4.,3699.,0.,0.,9997.,0.906329591185,3.92742822847,156.
5.58,6288.,3.,6.,3700.,0.,0.,9997.,0.907195235494,15.7247174152,39.
5.6,6292.,3.,4.,3697.,0.,0.,9996.,0.907863145258,15.7362945178,39.
5.62,6297.,8.,0.,3690.,0.,0.,9995.,0.908675491592,5.90639069535,104.
5.64,6308.,5.,5.,3678.,0.,0.,9996.,0.910171761012,9.46578631453,65.
5.66,6307.,10.,3.,3675.,0.,0.,9995.,0.910118520799,4.73261630815,130.
5.68,6312.,9.,10.,3668.,0.,0.,9999.,0.910475662951,5.26052605261,117.
5.7,6307.,13.,8.,3666.,0.,0.,9994.,0.910209587291,3.64083834916,169.
5.72,6307.,13.,6.,3668.,0.,0.,9994.,0.910209587291,3.64083834916,169.
5.74,6304.,6.,13.,3668.,0.,0.,9991.,0.910049814063,7.88709838855,78.
5.76,6301.,11.,7.,3674.,0.,0.,9993.,0.9094346812,4.29914576567,143.
5.78,6302.,14.,5.,3672.,0.,0.,9993.,0.909579013001,3.37843633401,182.
5.8,6307.,15.,5.,3672.,0.,0.,9999.,0.909754436982,3.15381538154,195.
5.82,6305.,17.,7.,3670.,0.,0.,9999.,0.909465946595,2.78189583664,221.
5.84,6298.,24.,7.,3665.,0.,0.,9994.,0.908910731054,1.96930658395,312.
5.86,6302.,16.,11.,3663.,0.,0.,9992.,0.909670043727,2.95642764211,208.
5.88,6306.,16.,4.,3666.,0.,0.,9992.,0.910247428712,2.95830414331,208.
5.9,6310.,13.,2.,3667.,0.,0.,9992.,0.910824813697,3.64329925479,169.
5.92,6313.,11.,6.,3659.,0.,0.,9989.,0.911531530838,4.30905814578,143.
5.94,6311.,14.,5.,3660.,0.,0.,9990.,0.911151536152,3.38427713428,182.
5.96,6315.,6.,12.,3656.,0.,0.,9989.,0.911820310033,7.90244268696,78.
5.98,6315.,12.,6.,3656.,0.,0.,9989.,0.911820310033,3.95122134348,156.
6.,6309.,20.,7.,3653.,0.,0.,9989.,0.910953972447,2.36848032836,260.
6.02,6307.,21.,5.,3651.,0.,0.,9984.,0.911121255547,2.25610977564,273.
6.04,6314.,23.,0.,3650.,0.,0.,9987.,0.911858492964,2.06159311453,299.
6.06,6310.,12.,14.,3648.,0.,0.,9984.,0.911554641272,3.95007011218,156.
6.08,6311.,12.,9.,3655.,0.,0.,9987.,0.911425237424,3.94950936217,156.
6.1,6316.,14.,7.,3655.,0.,0.,9992.,0.911690891174,3.38628045293,182.
6.12,6316.,11.,5.,3658.,0.,0.,9990.,0.911873411873,4.31067431067,143.
6.14,6320.,11.,6.,3657.,0.,0.,9994.,0.912085712966,4.31167791584,143.
6.16,6321.,12.,6.,3654.,0.,0.,9993.,0.91232131723,3.95339237466,156.
6.18,6322.,13.,10.,3648.,0.,0.,9993.,0.912465649031,3.64986259612,169.
6.2,6320.,16.,10.,3646.,0.,0.,9992.,0.912268276159,2.96487189752,208.
6.22,6310.,19.,6.,3653.,0.,0.,9988.,0.911189581344,2.4937820121,247.
6.24,6307.,23.,11.,3648.,0.,0.,9989.,0.910665193251,2.05889521952,299.
6.26,6300.,24.,8.,3657.,0.,0.,9989.,0.909654466067,1.97091800981,312.
6.28,6295.,21.,12.,3660.,0.,0.,9988.,0.909023520532,2.25091538418,273.
6.3,6288.,25.,8.,3666.,0.,0.,9987.,0.908103611618,1.88885551217,325.
6.32,6282.,23.,6.,3674.,0.,0.,9985.,0.907418820538,2.05155559426,299.
6.34,6280.,20.,7.,3681.,0.,0.,9988.,0.906857459721,2.35782939527,260.
6.36,6283.,17.,7.,3681.,0.,0.,9988.,0.907290671883,2.77524205517,221.
6.38,6288.,14.,11.,3675.,0.,0.,9988.,0.908012692154,3.37261857086,182.
6.4,6285.,13.,5.,3684.,0.,0.,9987.,0.907670356078,3.63068142431,169.
6.42,6288.,10.,8.,3682.,0.,0.,9988.,0.908012692154,4.7216659992,130.
6.44,6287.,13.,3.,3683.,0.,0.,9986.,0.908050116317,3.63220046527,169.
6.46,6293.,7.,8.,3678.,0.,0.,9986.,0.908916714169,6.75195273383,91.
6.48,6288.,16.,3.,3677.,0.,0.,9984.,0.90837647929,2.95222355769,208.
6.5,6293.,18.,6.,3668.,0.,0.,9985.,0.909007742383,2.62602236688,234.
6.52,6291.,13.,11.,3667.,0.,0.,9982.,0.908991954749,3.635967819,169.
6.54,6292.,15.,8.,3669.,0.,0.,9984.,0.908954326923,3.15104166667,195.
6.56,6289.,14.,9.,3670.,0.,0.,9982.,0.908702973044,3.37518247131,182.
6.58,6279.,11.,11.,3679.,0.,0.,9980.,0.90743987976,4.28971579523,143.
6.6,6274.,17.,3.,3684.,0.,0.,9978.,0.906899024007,2.77404407343,221.
6.62,6276.,14.,10.,3682.,0.,0.,9982.,0.906824591958,3.36820562727,182.
6.64,6270.,18.,10.,3685.,0.,0.,9983.,0.905866896801,2.61694881298,234.
6.66,6270.,12.,13.,3687.,0.,0.,9982.,0.905957646841,3.92581646965,156.
6.68,6264.,19.,10.,3688.,0.,0.,9981.,0.905181383089,2.47733852214,247.
6.7,6255.,22.,5.,3695.,0.,0.,9977.,0.904243220947,2.1373021586,286.
6.72,6254.,20.,11.,3690.,0.,0.,9975.,0.904279930596,2.35112781955,260.
6.74,6249.,15.,10.,3695.,0.,0.,9969.,0.90410078937,3.13421606982,195.
6.76,6248.,15.,9.,3696.,0.,0.,9968.,0.904046795901,3.13402889246,195.
6.78,6247.,14.,7.,3697.,0.,0.,9965.,0.904174225173,3.35836140778,182.
6.8,6250.,11.,13.,3690.,0.,0.,9964.,0.904699224902,4.27675997226,143.
6.82,6252.,13.,8.,3692.,0.,0.,9965.,0.904897911922,3.61959164769,169.
6.84,6252.,16.,11.,3688.,0.,0.,9967.,0.90471633313,2.94032808267,208.
6.86,6247.,18.,10.,3693.,0.,0.,9968.,0.903902102111,2.61127273943,234.
6.88,6237.,22.,3.,3701.,0.,0.,9963.,0.902908067542,2.13414634146,286.
6.9,6238.,22.,4.,3700.,0.,0.,9964.,0.90296220239,2.13427429656,286.
6.92,6238.,16.,9.,3700.,0.,0.,9963.,0.903052833947,2.93492171033,208.
6.94,6244.,18.,5.,3699.,0.,0.,9966.,0.903649330802,2.6105425112,234.
6.96,6245.,16.,9.,3694.,0.,0.,9964.,0.903975465522,2.93792026295,208.
6.98,6240.,15.,19.,3689.,0.,0.,9963.,0.903342366757,3.13158687142,195.
7.,6227.,27.,8.,3701.,0.,0.,9963.,0.901460403493,1.73614596228,351.
7.02,6229.,17.,13.,3706.,0.,0.,9965.,0.901568952874,2.75774032644,221.
7.04,6218.,29.,9.,3706.,0.,0.,9962.,0.900247864964,1.61423755097,377.
7.06,6223.,19.,17.,3705.,0.,0.,9964.,0.90079092425,2.46532252953,247.
7.08,6218.,24.,13.,3710.,0.,0.,9965.,0.899976842024,1.94994982439,312.
7.1,6216.,28.,5.,3719.,0.,0.,9968.,0.899416594641,1.67034510433,364.
7.12,6215.,23.,9.,3718.,0.,0.,9965.,0.899542629974,2.03374855472,299.
7.14,6211.,26.,10.,3717.,0.,0.,9964.,0.899053901739,1.79810780348,338.
7.16,6212.,26.,9.,3716.,0.,0.,9963.,0.899288907419,1.79857781484,338.
7.18,6211.,23.,16.,3714.,0.,0.,9964.,0.899053901739,2.03264360393,299.
7.2,6204.,26.,11.,3725.,0.,0.,9966.,0.897860417728,1.79572083546,338.
7.22,6204.,26.,13.,3724.,0.,0.,9967.,0.897770334411,1.79554066882,338.
7.24,6207.,24.,11.,3725.,0.,0.,9967.,0.898204459331,1.94610966188,312.
7.26,6202.,19.,12.,3734.,0.,0.,9967.,0.897480917798,2.4562635645,247.
7.28,6204.,17.,11.,3738.,0.,0.,9970.,0.897500192886,2.74529470765,221.
7.3,6203.,15.,13.,3738.,0.,0.,9969.,0.897445542721,3.1111445481,195.
7.32,6199.,18.,15.,3739.,0.,0.,9971.,0.89668693056,2.59042891051,234.
7.34,6193.,21.,17.,3740.,0.,0.,9971.,0.89581902903,2.21821854808,273.
7.36,6183.,29.,16.,3742.,0.,0.,9970.,0.894462232852,1.60386331408,377.
7.38,6176.,32.,14.,3749.,0.,0.,9971.,0.893359974696,1.45170995888,416.
7.4,6166.,38.,8.,3758.,0.,0.,9970.,0.892002931873,1.22063559098,494.
7.42,6153.,40.,17.,3755.,0.,0.,9965.,0.890568914277,1.15773958856,520.
7.44,6146.,39.,16.,3766.,0.,0.,9967.,0.889377252626,1.18583633683,507.
7.46,6137.,43.,11.,3771.,0.,0.,9962.,0.888520609084,1.07449003889,559.
7.48,6134.,38.,10.,3781.,0.,0.,9963.,0.887997127835,1.21515396441,494.
7.5,6119.,30.,26.,3781.,0.,0.,9956.,0.886448450104,1.53651064685,390.
7.52,6097.,46.,26.,3786.,0.,0.,9955.,0.883350075339,0.998569650383,598.
7.54,6066.,56.,33.,3799.,0.,0.,9954.,0.878947002365,0.816165073624,728.
7.56,6054.,50.,28.,3824.,0.,0.,9956.,0.877032017801,0.912113298513,650.
7.58,6034.,48.,21.,3852.,0.,0.,9955.,0.87422246262,0.947074334505,624.
7.6,6030.,38.,18.,3869.,0.,0.,9955.,0.873642931654,1.19551138016,494.
7.62,6019.,35.,25.,3879.,0.,0.,9958.,0.871786503314,1.29522566207,455.
7.64,6002.,42.,25.,3888.,0.,0.,9957.,0.869411546573,1.07641429576,546.
7.66,5993.,42.,26.,3895.,0.,0.,9956.,0.868195058256,1.07490816736,546.
7.68,5974.,47.,20.,3913.,0.,0.,9954.,0.865616451059,0.957703307555,611.
7.7,5962.,42.,20.,3926.,0.,0.,9950.,0.864224971009,1.06999282125,546.
7.72,5948.,34.,24.,3942.,0.,0.,9948.,0.862368933841,1.31891719293,442.
7.74,5937.,35.,24.,3954.,0.,0.,9950.,0.860601082335,1.27860732233,455.
7.76,5926.,39.,21.,3963.,0.,0.,9949.,0.859092912314,1.14545721642,507.
7.78,5920.,31.,18.,3978.,0.,0.,9947.,0.858395650795,1.43988947875,403.
7.8,5913.,32.,20.,3981.,0.,0.,9946.,0.857466859503,1.39338364669,416.
7.82,5911.,26.,23.,3991.,0.,0.,9951.,0.856746132975,1.71349226595,338.
7.84,5896.,32.,26.,3995.,0.,0.,9949.,0.85474380881,1.38895868932,416.
7.86,5886.,32.,12.,4018.,0.,0.,9948.,0.853379883084,1.38674231001,416.
7.88,5882.,28.,15.,4023.,0.,0.,9948.,0.852799944326,1.58377132518,364.
7.9,5895.,19.,15.,4023.,0.,0.,9952.,0.854341222483,2.33819702995,247.
7.92,5889.,27.,18.,4019.,0.,0.,9953.,0.853385913795,1.6435580562,351.
7.94,5864.,37.,18.,4029.,0.,0.,9948.,0.850190219913,1.19486193069,481.
7.96,5861.,28.,13.,4044.,0.,0.,9946.,0.849926139615,1.57843425929,364.
7.98,5861.,25.,8.,4050.,0.,0.,9944.,0.850097082121,1.76820193081,325.
8.,5870.,21.,10.,4042.,0.,0.,9943.,0.851488097541,2.10844671772,273.
8.02,5866.,20.,15.,4041.,0.,0.,9942.,0.850993454343,2.21258298129,260.
8.04,5870.,18.,12.,4045.,0.,0.,9945.,0.851316858104,2.4593598123,234.
8.06,5870.,18.,4.,4052.,0.,0.,9944.,0.851402469212,2.45960713328,234.
8.08,5873.,15.,7.,4049.,0.,0.,9944.,0.851837598242,2.95303700724,195.
8.1,5878.,14.,4.,4050.,0.,0.,9946.,0.852391374963,3.16602510701,182.
8.12,5879.,12.,5.,4052.,0.,0.,9948.,0.852364990257,3.69358162445,156.
8.14,5885.,10.,6.,4047.,0.,0.,9948.,0.853234898395,4.43682147165,130.
8.16,5894.,11.,2.,4044.,0.,0.,9951.,0.854282136314,4.03842464439,143.
8.18,5903.,11.,4.,4034.,0.,0.,9952.,0.855500633812,4.04418481438,143.
8.2,5908.,9.,5.,4031.,0.,0.,9953.,0.856139239039,4.94658227,117.
8.22,5910.,9.,7.,4027.,0.,0.,9953.,0.856429062749,4.94825680699,117.
8.24,5916.,11.,8.,4015.,0.,0.,9950.,0.857557015848,4.0539058931,143.
8.26,5921.,12.,1.,4014.,0.,0.,9948.,0.858454347221,3.71996883796,156.
8.28,5932.,8.,5.,4004.,0.,0.,9949.,0.859962733015,5.5897577646,104.
8.3,5939.,10.,3.,4000.,0.,0.,9952.,0.860717984789,4.4757335209,130.
8.32,5940.,10.,5.,3995.,0.,0.,9950.,0.861035948976,4.47738693467,130.
8.34,5943.,8.,3.,3998.,0.,0.,9952.,0.861297690453,5.59843498794,104.
8.36,5951.,4.,6.,3992.,0.,0.,9953.,0.862370448802,11.2108158344,52.
8.38,5961.,5.,3.,3983.,0.,0.,9952.,0.863906365941,8.98462620579,65.
8.4,5975.,3.,0.,3974.,0.,0.,9952.,0.865935335766,15.0095458199,39.
8.42,5982.,3.,1.,3965.,0.,0.,9951.,0.867036942557,15.0286403377,39.
8.44,5984.,5.,0.,3958.,0.,0.,9947.,0.867675603777,9.02382627928,65.
8.46,5999.,5.,0.,3946.,0.,0.,9950.,0.869588326247,9.04371859296,65.
8.48,6009.,3.,0.,3938.,0.,0.,9950.,0.871037881716,15.0979899497,39.
8.5,6020.,3.,1.,3927.,0.,0.,9951.,0.872544699798,15.1241081298,39.
8.52,6028.,3.,2.,3923.,0.,0.,9956.,0.873265444881,15.1366010446,39.
8.54,6036.,2.,3.,3915.,0.,0.,9956.,0.874424390395,22.7350341503,26.
8.56,6043.,2.,2.,3909.,0.,0.,9956.,0.87543846772,22.7614001607,26.
8.58,6047.,1.,5.,3901.,0.,0.,9954.,0.876193953726,45.5620855937,13.
8.6,6049.,6.,2.,3900.,0.,0.,9957.,0.876219667648,7.59390378628,78.
8.62,6059.,6.,4.,3890.,0.,0.,9959.,0.877491947755,7.60493021388,78.
8.64,6065.,8.,0.,3887.,0.,0.,9960.,0.878272706209,5.70877259036,104.
8.66,6079.,7.,5.,3874.,0.,0.,9965.,0.87985835038,6.53609060282,91.
8.68,6088.,5.,5.,3866.,0.,0.,9964.,0.881249420992,9.16499397832,65.
8.7,6096.,6.,4.,3863.,0.,0.,9969.,0.881964860298,7.64369545591,78.
8.72,6101.,7.,3.,3857.,0.,0.,9968.,0.882776808865,6.55777058014,91.
8.74,6113.,7.,4.,3846.,0.,0.,9970.,0.884335699406,6.56935090987,91.
8.76,6114.,10.,4.,3840.,0.,0.,9968.,0.884657828127,4.60022070626,130.
8.78,6115.,10.,5.,3835.,0.,0.,9965.,0.885068894979,4.60235825389,130.
8.8,6115.,11.,6.,3831.,0.,0.,9963.,0.885246566141,4.18480194903,143.
8.82,6119.,11.,3.,3830.,0.,0.,9963.,0.885825631761,4.18753935014,143.
8.84,6123.,7.,4.,3831.,0.,0.,9965.,0.886226793778,6.5833990395,91.
8.86,6128.,7.,5.,3825.,0.,0.,9965.,0.886950480528,6.58877499821,91.
8.88,6133.,6.,6.,3825.,0.,0.,9970.,0.887228994676,7.68931795386,78.
8.9,6130.,11.,2.,3829.,0.,0.,9972.,0.886617143386,4.19128104146,143.
8.92,6135.,11.,4.,3822.,0.,0.,9972.,0.887340322133,4.19469970463,143.
8.94,6138.,11.,7.,3815.,0.,0.,9971.,0.887863265007,4.19717179821,143.
8.96,6133.,11.,11.,3814.,0.,0.,9969.,0.887317993472,4.19459415096,143.
8.98,6135.,15.,3.,3818.,0.,0.,9971.,0.887429314242,3.07642162271,195.
9.,6131.,13.,5.,3823.,0.,0.,9972.,0.886761779135,3.54704711654,169.
9.02,6127.,15.,5.,3820.,0.,0.,9967.,0.8866277948,3.07364302197,195.
9.04,6131.,11.,6.,3819.,0.,0.,9967.,0.887206628026,4.19406769612,143.
9.06,6137.,8.,1.,3823.,0.,0.,9969.,0.887896710572,5.77132861872,104.
9.08,6145.,3.,5.,3815.,0.,0.,9968.,0.889143335597,15.411817817,39.
9.1,6153.,4.,2.,3810.,0.,0.,9969.,0.890211578972,11.5727505266,52.
9.12,6165.,3.,1.,3800.,0.,0.,9969.,0.891947730272,15.4604273247,39.
9.14,6165.,4.,4.,3795.,0.,0.,9968.,0.892037211384,11.596483748,52.
9.16,6169.,5.,2.,3792.,0.,0.,9968.,0.892615986542,9.28320626003,65.
9.18,6172.,4.,2.,3788.,0.,0.,9966.,0.893229287269,11.6119807345,52.
9.2,6175.,4.,1.,3787.,0.,0.,9967.,0.893573793519,11.6164593157,52.
9.22,6181.,3.,3.,3778.,0.,0.,9965.,0.894621560076,15.506773708,39.
9.24,6184.,5.,0.,3776.,0.,0.,9965.,0.895055772126,9.30858003011,65.
9.26,6184.,8.,1.,3769.,0.,0.,9962.,0.895325313113,5.81961453523,104.
9.28,6188.,6.,4.,3762.,0.,0.,9960.,0.896084337349,7.76606425703,78.
9.3,6184.,11.,4.,3758.,0.,0.,9957.,0.895774909032,4.23457229724,143.
9.32,6190.,12.,4.,3752.,0.,0.,9958.,0.896553988289,3.88506728259,156.
9.34,6197.,11.,3.,3749.,0.,0.,9960.,0.897387627433,4.24219605696,143.
9.36,6199.,11.,2.,3750.,0.,0.,9962.,0.897497027165,4.24271321932,143.
9.38,6203.,9.,3.,3744.,0.,0.,9959.,0.898346682939,5.19044750142,117.
9.4,6214.,10.,1.,3743.,0.,0.,9968.,0.899127207063,4.67546147673,130.
9.42,6230.,6.,3.,3731.,0.,0.,9970.,0.901261476738,7.8109327984,78.
9.44,6235.,10.,0.,3725.,0.,0.,9970.,0.901984800556,4.69032096289,130.
9.46,6248.,7.,6.,3713.,0.,0.,9974.,0.903502953834,6.71173622848,91.
9.48,6252.,8.,9.,3704.,0.,0.,9973.,0.904172033722,5.87711821919,104.
9.5,6257.,11.,5.,3704.,0.,0.,9977.,0.904532347476,4.27597109716,143.
9.52,6267.,9.,0.,3707.,0.,0.,9983.,0.905433467664,5.23139336873,117.
9.54,6275.,3.,6.,3701.,0.,0.,9985.,0.906407688456,15.7110665999,39.
9.56,6282.,5.,2.,3699.,0.,0.,9988.,0.907146267829,9.43432118542,65.
9.58,6281.,4.,3.,3696.,0.,0.,9984.,0.907365245932,11.7957481971,52.
9.6,6282.,7.,3.,3693.,0.,0.,9985.,0.907418820538,6.740825524,91.
9.62,6292.,9.,1.,3684.,0.,0.,9986.,0.908772281194,5.25068429134,117.
9.64,6302.,6.,4.,3674.,0.,0.,9986.,0.910216610948,7.88854396155,78.
9.66,6306.,7.,3.,3669.,0.,0.,9985.,0.910885559108,6.76657843909,91.
9.68,6302.,7.,4.,3665.,0.,0.,9978.,0.91094638975,6.76703032386,91.
9.7,6310.,8.,1.,3658.,0.,0.,9977.,0.912194200507,5.9292623033,104.
9.72,6314.,6.,3.,3650.,0.,0.,9973.,0.913138551011,7.91386744209,78.
9.74,6319.,9.,2.,3638.,0.,0.,9968.,0.914320054945,5.28273809524,117.
9.76,6322.,9.,2.,3635.,0.,0.,9968.,0.914754136313,5.28524612092,117.
9.78,6326.,7.,5.,3632.,0.,0.,9970.,0.915149294036,6.79825189855,91.
9.8,6335.,9.,1.,3629.,0.,0.,9974.,0.916083740803,5.2929282802,117.
9.82,6344.,8.,3.,3620.,0.,0.,9975.,0.917293233083,5.96240601504,104.
9.84,6351.,5.,3.,3617.,0.,0.,9976.,0.91821332737,9.54941860465,65.
9.86,6351.,6.,4.,3612.,0.,0.,9973.,0.918489537135,7.96024265517,78.
9.88,6354.,6.,5.,3609.,0.,0.,9974.,0.918831268992,7.96320433126,78.
9.9,6353.,7.,8.,3608.,0.,0.,9976.,0.918502482882,6.82316130141,91.
9.92,6360.,8.,7.,3601.,0.,0.,9976.,0.919514527173,5.97684442662,104.
9.94,6367.,9.,4.,3598.,0.,0.,9978.,0.920342060225,5.31753190352,117.
9.96,6372.,6.,6.,3595.,0.,0.,9979.,0.920972503796,7.98176169957,78.
9.98,6370.,12.,3.,3597.,0.,0.,9982.,0.920406732118,3.98842917251,156.
10.,6373.,6.,7.,3597.,0.,0.,9983.,0.920747963846,7.97981568667,78.
