t,cases
5.01,0.65
5.02,0.65
5.03,0.585
5.04,0.585
5.05,0.52
5.06,0.52
5.07,0.455
5.08,0.455
5.09,0.39
5.1,0.39
5.11,0.52
5.12,0.52
5.13,0.715
5.14,0.715
5.15,0.52
5.16,0.52
5.17,0.39
5.18,0.39
5.19,0.585
5.2,0.585
5.21,0.78
5.22,0.78
5.23,0.975
5.24,0.975
5.25,0.715
5.26,0.715
5.27,0.585
5.28,0.585
5.29,0.975
5.3,0.975
5.31,1.105
5.32,1.105
5.33,0.975
5.34,0.975
5.35,0.975
5.36,0.975
5.37,1.04
5.38,1.04
5.39,0.975
5.4,0.975
5.41,1.04
5.42,1.04
5.43,1.17
5.44,1.17
5.45,1.365
5.46,1.365
5.47,1.43
5.48,1.43
5.49,1.43
5.5,1.43
5.51,1.495
5.52,1.495
5.53,1.235
5.54,1.235
5.55,1.3
5.56,1.3
5.57,1.365
5.58,1.365
5.59,1.3
5.6,1.3
5.61,1.69
5.62,1.69
5.63,1.885
5.64,1.885
5.65,1.56
5.66,1.56
5.67,1.625
5.68,1.625
5.69,1.95
5.7,1.95
5.71,1.95
5.72,1.95
5.73,1.625
5.74,1.625
5.75,1.82
5.76,1.82
5.77,2.47
5.78,2.47
5.79,2.535
5.8,2.535
5.81,2.21
5.82,2.21
5.83,2.08
5.84,2.08
5.85,2.6
5.86,2.6
5.87,2.6
5.88,2.6
5.89,2.925
5.9,2.925
5.91,3.705
5.92,3.705
5.93,3.51
5.94,3.51
5.95,3.38
5.96,3.38
5.97,3.445
5.98,3.445
5.99,3.445
6.,3.445
6.01,3.25
6.02,3.25
6.03,2.925
6.04,2.925
6.05,3.055
6.06,3.055
6.07,3.38
6.08,3.38
6.09,3.445
6.1,3.445
6.11,3.315
6.12,3.315
6.13,3.25
6.14,3.25
6.15,3.51
6.16,3.51
6.17,3.64
6.18,3.64
6.19,3.705
6.2,3.705
6.21,3.445
6.22,3.445
6.23,3.25
6.24,3.25
6.25,3.315
6.26,3.315
6.27,3.315
6.28,3.315
6.29,3.12
6.3,3.12
6.31,2.99
6.32,2.99
6.33,2.6
6.34,2.6
6.35,2.47
6.36,2.47
6.37,3.705
6.38,3.705
6.39,4.225
6.4,4.225
6.41,3.575
6.42,3.575
6.43,3.445
6.44,3.445
6.45,3.77
6.46,3.77
6.47,3.51
6.48,3.51
6.49,3.25
6.5,3.25
6.51,3.185
6.52,3.185
6.53,3.315
6.54,3.315
6.55,3.9
6.56,3.9
6.57,4.16
6.58,4.16
6.59,3.835
6.6,3.835
6.61,3.705
6.62,3.705
6.63,3.12
6.64,3.12
6.65,1.95
6.66,1.95
6.67,1.885
6.68,1.885
6.69,2.6
6.7,2.6
6.71,2.795
6.72,2.795
6.73,2.925
6.74,2.925
6.75,3.965
6.76,3.965
6.77,4.355
6.78,4.355
6.79,4.16
6.8,4.16
6.81,4.16
6.82,4.16
6.83,4.615
6.84,4.615
6.85,5.655
6.86,5.655
6.87,5.33
6.88,5.33
6.89,4.81
6.9,4.81
6.91,4.485
6.92,4.485
6.93,4.225
6.94,4.225
6.95,4.225
6.96,4.225
6.97,3.64
6.98,3.64
6.99,3.705
7.,3.705
7.01,4.095
7.02,4.095
7.03,3.575
7.04,3.575
7.05,3.055
7.06,3.055
7.07,3.055
7.08,3.055
7.09,3.705
7.1,3.705
7.11,4.16
7.12,4.16
7.13,4.225
7.14,4.225
7.15,4.355
7.16,4.355
7.17,4.225
7.18,4.225
7.19,4.03
7.2,4.03
7.21,3.51
7.22,3.51
7.23,3.185
7.24,3.185
7.25,3.575
7.26,3.575
7.27,3.835
7.28,3.835
7.29,3.51
7.3,3.51
7.31,3.315
7.32,3.315
7.33,3.38
7.34,3.38
7.35,3.445
7.36,3.445
7.37,3.055
7.38,3.055
7.39,2.405
7.4,2.405
7.41,2.34
7.42,2.34
7.43,2.34
7.44,2.34
7.45,2.21
7.46,2.21
7.47,2.275
7.48,2.275
7.49,2.535
7.5,2.535
7.51,2.21
7.52,2.21
7.53,2.405
7.54,2.405
7.55,3.12
7.56,3.12
7.57,2.99
7.58,2.99
7.59,2.665
7.6,2.665
7.61,2.21
7.62,2.21
7.63,2.34
7.64,2.34
7.65,2.34
7.66,2.34
7.67,2.275
7.68,2.275
7.69,2.21
7.7,2.21
7.71,1.82
7.72,1.82
7.73,2.015
7.74,2.015
7.75,2.275
7.76,2.275
7.77,2.015
7.78,2.015
7.79,1.82
7.8,1.82
7.81,2.405
7.82,2.405
7.83,2.47
7.84,2.47
7.85,2.145
7.86,2.145
7.87,2.015
7.88,2.015
7.89,1.69
7.9,1.69
7.91,1.3
7.92,1.3
7.93,1.235
7.94,1.235
7.95,1.495
7.96,1.495
7.97,1.495
7.98,1.495
7.99,1.17
8.,1.17
8.01,1.3
8.02,1.3
8.03,1.365
8.04,1.365
8.05,1.105
8.06,1.105
8.07,1.17
8.08,1.17
8.09,0.975
8.1,0.975
8.11,0.845
8.12,0.845
8.13,1.17
8.14,1.17
8.15,1.3
8.16,1.3
8.17,1.17
8.18,1.17
8.19,1.495
8.2,1.495
8.21,1.95
8.22,1.95
8.23,2.145
8.24,2.145
8.25,1.82
8.26,1.82
8.27,1.56
8.28,1.56
8.29,1.495
8.3,1.495
8.31,1.56
8.32,1.56
8.33,1.755
8.34,1.755
8.35,2.015
8.36,2.015
8.37,2.665
8.38,2.665
8.39,2.405
8.4,2.405
8.41,1.43
8.42,1.43
8.43,1.17
8.44,1.17
8.45,1.365
8.46,1.365
8.47,1.3
8.48,1.3
8.49,1.56
8.5,1.56
8.51,1.755
8.52,1.755
8.53,1.56
8.54,1.56
8.55,1.69
8.56,1.69
8.57,1.69
8.58,1.69
8.59,1.235
8.6,1.235
8.61,1.235
8.62,1.235
8.63,1.495
8.64,1.495
8.65,1.17
8.66,1.17
8.67,1.105
8.68,1.105
8.69,1.235
8.7,1.235
8.71,1.3
8.72,1.3
8.73,1.495
8.74,1.495
8.75,1.625
8.76,1.625
8.77,1.69
8.78,1.69
8.79,1.95
8.8,1.95
8.81,2.015
8.82,2.015
8.83,1.625
8.84,1.625
8.85,1.495
8.86,1.495
8.87,1.69
8.88,1.69
8.89,1.95
8.9,1.95
8.91,1.95
8.92,1.95
8.93,1.625
8.94,1.625
8.95,1.56
8.96,1.56
8.97,1.82
8.98,1.82
8.99,1.885
9.,1.885
9.01,1.95
9.02,1.95
9.03,2.015
9.04,2.015
9.05,1.885
9.06,1.885
9.07,2.21
9.08,2.21
9.09,2.145
9.1,2.145
9.11,1.885
9.12,1.885
9.13,1.95
9.14,1.95
9.15,1.755
9.16,1.755
9.17,1.235
9.18,1.235
9.19,0.91
9.2,0.91
9.21,0.975
9.22,0.975
9.23,0.585
9.24,0.585
9.25,0.26
9.26,0.26
9.27,0.455
9.28,0.455
9.29,0.585
9.3,0.585
9.31,0.585
9.32,0.585
9.33,0.65
9.34,0.65
9.35,0.65
9.36,0.65
9.37,0.715
9.38,0.715
9.39,0.78
9.4,0.78
9.41,1.04
9.42,1.04
9.43,1.365
9.44,1.365
9.45,1.365
9.46,1.365
9.47,1.495
9.48,1.495
9.49,1.82
9.5,1.82
9.51,2.08
9.52,2.08
9.53,2.275
9.54,2.275
9.55,2.795
9.56,2.795
9.57,3.055
9.58,3.055
9.59,3.25
9.6,3.25
9.61,3.38
9.62,3.38
9.63,3.38
9.64,3.38
9.65,3.77
9.66,3.77
9.67,3.77
9.68,3.77
9.69,3.055
9.7,3.055
9.71,2.665
9.72,2.665
9.73,2.73
9.74,2.73
9.75,2.535
9.76,2.535
9.77,2.47
9.78,2.47
9.79,2.73
9.8,2.73
9.81,3.055
9.82,3.055
9.83,3.25
9.84,3.25
9.85,3.38
9.86,3.38
9.87,3.055
9.88,3.055
9.89,2.665
9.9,2.665
9.91,2.925
9.92,2.925
9.93,2.535
9.94,2.535
9.95,2.47
9.96,2.47
9.97,3.185
9.98,3.185
9.99,2.86
10.,2.86
