t,neff
5.,0.106581333333
5.02,0.127634563169
5.04,0.127382849857
5.06,0.169667622385
5.08,0.148347124974
5.1,0.211929378082
5.12,0.169331002702
5.14,0.169123029726
5.16,0.126648708604
5.18,0.168707310636
5.2,0.168457444005
5.22,0.168418391531
5.24,0.168198653199
5.26,0.168128747239
5.28,0.167960073549
5.3,0.12580604534
5.32,0.104772393539
5.34,0.0418586620566
5.36,0.0837257059036
5.38,0.23013718714
5.4,0.229933553079
5.42,0.250619025231
5.44,0.187907851434
5.46,0.187630220554
5.48,0.229241192412
5.5,0.208326819863
5.52,0.208217466021
5.54,0.145739438454
5.56,0.270501769727
5.58,0.145337072816
5.6,0.207712296019
5.62,0.0829934091026
5.64,0.186776756504
5.66,0.248996884735
5.68,0.124299268938
5.7,0.269312185767
5.72,0.26938394524
5.74,0.269332918352
5.76,0.165590461379
5.78,0.165496657858
5.8,0.20664389941
5.82,0.248308457711
5.84,0.289622142746
5.86,0.248106931924
5.88,0.330857290858
5.9,0.268740740741
5.92,0.289355089355
5.94,0.3515624676
5.96,0.165407983411
5.98,0.227544487678
6.,0.248398753894
6.02,0.393232653484
6.04,0.331246430982
6.06,0.351691302319
6.08,0.268662625007
6.1,0.351379131697
6.12,0.247980111871
6.14,0.206466966734
6.16,0.247606638747
6.18,0.206222222222
6.2,0.329970547202
6.22,0.288737342426
6.24,0.45415244596
6.26,0.330377036463
6.28,0.392587991719
6.3,0.351134564644
6.32,0.309954961951
6.34,0.289564090603
6.36,0.268841886988
6.38,0.310119695321
6.4,0.2482003422
6.42,0.289744307868
6.44,0.351652408358
6.46,0.372126865672
6.48,0.309703462195
6.5,0.226989547759
6.52,0.33018475392
6.54,0.24756404285
6.56,0.268140557884
6.58,0.392184408185
6.6,0.350741661488
6.62,0.351014357539
6.64,0.350975698222
6.66,0.330315091211
6.68,0.289189609582
6.7,0.517167939327
6.72,0.49699578849
6.74,0.434943820225
6.76,0.435176507341
6.78,0.602079682936
6.8,0.4777624713
6.82,0.581532842906
6.84,0.540508802173
6.86,0.708190954776
6.88,0.625141420488
6.9,0.458638985005
6.92,0.605513910762
6.94,0.521837270341
6.96,0.563826032145
6.98,0.396868925663
7.,0.565145385589
7.02,0.460125269751
7.04,0.502084649399
7.06,0.355423639617
7.08,0.397540923207
7.1,0.67147983956
7.12,0.736487273114
7.14,0.526371475429
7.16,0.717633587785
7.18,0.527565733673
7.2,0.48550678541
7.22,0.485632787232
7.24,0.507078490685
7.26,0.507686424474
7.28,0.52900860695
7.3,0.465324413295
7.32,0.444411858464
7.34,0.338579548473
7.36,0.424120496035
7.38,0.424188225275
7.4,0.403470290434
7.42,0.36133162612
7.44,0.467718568305
7.46,0.467821354251
7.48,0.468149097512
7.5,0.532147815871
7.52,0.703181526621
7.54,0.618244825928
7.56,0.662050787526
7.58,0.598654867257
7.6,0.578030620467
7.62,0.795142887957
7.64,0.687886928844
7.66,0.818006806025
7.68,0.5810178282
7.7,0.58087463557
7.72,0.710648508429
7.74,0.537975708502
7.76,0.538652827334
7.78,0.603930485626
7.8,0.626627635931
7.82,0.605564783151
7.84,0.476003692242
7.86,0.432703583061
7.88,0.520496407578
7.9,0.521124918248
7.92,0.674357462604
7.94,0.718786885248
7.96,0.675531496062
7.98,0.52319711144
8.,0.50166256225
8.02,0.392748768474
8.04,0.48081180407
8.06,0.458835143139
8.08,0.525179571663
8.1,0.525993399341
8.12,0.504395289975
8.14,0.438491147036
8.16,0.328651500165
8.18,0.438173726718
8.2,0.26278372591
8.22,0.37252238888
8.24,0.328976897689
8.26,0.394783757015
8.28,0.350687341911
8.3,0.460092378753
8.32,0.262582345191
8.34,0.393901876851
8.36,0.415690147027
8.38,0.28399890441
8.4,0.436809547271
8.42,0.415185185185
8.44,0.26180147662
8.46,0.239866622937
8.48,0.349240534033
8.5,0.349180076629
8.52,0.349202386818
8.54,0.436303955358
8.56,0.479860040458
8.58,0.305115262755
8.6,0.174205933682
8.62,0.239526769164
8.64,0.195976447498
8.66,0.217751608331
8.68,0.239533158813
8.7,0.282789126764
8.72,0.326028739386
8.74,0.282296223746
8.76,0.325587467363
8.78,0.216761718538
8.8,0.15162487789
8.82,0.129900732303
8.84,0.108138274816
8.86,0.0863755883781
8.88,0.151179687077
8.9,0.194330248417
8.92,0.150915869671
8.94,0.107633381885
8.96,0.042961287891
8.98,0.0429466882068
9.,0.0214555430047
9.02,0.0214547019582
9.04,0.0428609812456
9.06,0.0856477156817
9.08,0.0641698841699
9.1,0.106844615962
9.12,0.170968537278
9.14,0.128110539846
9.16,0.170622158027
9.18,0.106476587111
9.2,0.0425199872081
9.22,0.0849363786402
9.24,0.127257060795
9.26,0.127155612245
9.28,0.105844879758
9.3,0.06344520439
9.32,0.0422381028002
9.34,0.0633179869819
9.36,0.0843310621666
9.38,0.147492083597
9.4,0.0841940928271
9.42,0.0841239721696
9.44,0.0840490862168
9.46,0.0209815370049
9.48,0.104785920672
9.5,0.0418771653543
9.52,0.0627618748032
9.54,0.10454783611
9.56,0.0626964173476
9.58,0.0626338094491
9.6,0.104231974922
9.62,0.104111876435
9.64,0.0831879981246
9.66,0.103865563706
9.68,0.103740648379
9.7,0.103745259986
9.72,0.082905770029
9.74,0.103535510627
9.76,0.103617208989
9.78,0.082841292062
9.8,0.0620578178426
9.82,0.103329708456
9.84,0.0826078857501
9.86,0.0618988520012
9.88,0.0412275263485
9.9,0.0411745884295
9.92,0.0616406612081
9.94,0.0410237434474
9.96,0.164027949034
9.98,0.143443742618
10.,0.245812807881
