t,neff
5.,0.106581333333
5.02,0.106426023532
5.04,0.0637880963778
5.06,0.0850728800933
5.08,0.0637627551021
5.1,0.0636980410893
5.12,0.0636586530807
5.14,0.0635701796218
5.16,0.148253615128
5.18,0.105760990319
5.2,0.147877635124
5.22,0.211023123218
5.24,0.21087724851
5.26,0.147663235682
5.28,0.252806074027
5.3,0.126221380073
5.32,0.063060902493
5.34,0.189157994324
5.36,0.294300126104
5.38,0.294485804417
5.4,0.442172745934
5.42,0.463513926184
5.44,0.358077489998
5.46,0.443012181617
5.48,0.379522529644
5.5,0.337561284201
5.52,0.380177327423
5.54,0.422535508739
5.56,0.380041158778
5.58,0.421993779325
5.6,0.422359461599
5.62,0.485313092979
5.64,0.421860342557
5.66,0.316590226159
5.68,0.274476431509
5.7,0.337870590096
5.72,0.359178935148
5.74,0.295526038373
5.76,0.189883022447
5.78,0.168564661298
5.8,0.315940656566
5.82,0.147369195983
5.84,0.273826731892
5.86,0.294733743363
5.88,0.27398379118
5.9,0.231762972319
5.92,0.189542442411
5.94,0.273715846995
5.96,0.252595744681
5.98,0.273563435777
6.,0.168274268914
6.02,0.189300567108
6.04,0.189273672601
6.06,0.294391767732
6.08,0.210297590931
6.1,0.210020964361
6.12,0.125940594059
6.14,0.0838968241512
6.16,0.188749018992
6.18,0.167631000941
6.2,0.125615794422
6.22,0.125522855354
6.24,0.125424683247
6.26,0.146289347509
6.28,0.167256803253
6.3,0.146197916667
6.32,0.187773961911
6.34,0.187646233037
6.36,0.124948582113
6.38,0.083256490135
6.4,0.187268763625
6.42,0.207967631497
6.44,0.270144567076
6.46,0.228522892065
6.48,0.228439198634
6.5,0.249090344613
6.52,0.207363739787
6.54,0.228145620023
6.56,0.352698117111
6.58,0.269557933923
6.6,0.269265571738
6.62,0.207081655827
6.64,0.103450410026
6.66,0.165383624465
6.68,0.144584491813
6.7,0.144420446364
6.72,0.185712081469
6.74,0.103024700868
6.76,0.144242424243
6.78,0.288707273195
6.8,0.288647037665
6.82,0.309107720759
6.84,0.247158478362
6.86,0.164578461538
6.88,0.288142791198
6.9,0.185207756233
6.92,0.308774630542
6.94,0.226479885057
6.96,0.32938955576
6.98,0.144033630678
7.,0.185186096586
7.02,0.205580300005
7.04,0.308431884503
7.06,0.185060685205
7.08,0.20561187916
7.1,0.267322068613
7.12,0.26738749808
7.14,0.226191792037
7.16,0.246565424145
7.18,0.246501073291
7.2,0.328600040875
7.22,0.369391943636
7.24,0.328265441552
7.26,0.348728627571
7.28,0.266458556491
7.3,0.348285918222
7.32,0.327881291112
7.34,0.327813631034
7.36,0.266415825431
7.38,0.369103701437
7.4,0.348435478119
7.42,0.368838630807
7.44,0.286622920799
7.46,0.327384365152
7.48,0.409564509565
7.5,0.389205089059
7.52,0.265932814962
7.54,0.286112295665
7.56,0.204253591188
7.58,0.3678976234
7.6,0.225020074198
7.62,0.368307410796
7.64,0.266013929134
7.66,0.388967551622
7.68,0.327299700249
7.7,0.286387237718
7.72,0.388647769989
7.74,0.327594653657
7.76,0.512100874516
7.78,0.389235306082
7.8,0.327974773675
7.82,0.451213184801
7.84,0.389446393168
7.86,0.32791990649
7.88,0.307474069554
7.9,0.34873391322
7.92,0.410441154023
7.94,0.245926829268
7.96,0.163918699187
7.98,0.205004577358
8.,0.2663698282
8.02,0.24566813957
8.04,0.245669867398
8.06,0.266128212943
8.08,0.306601764527
8.1,0.224554796254
8.12,0.326722348773
8.14,0.203839547338
8.16,0.285476876421
8.18,0.203746907034
8.2,0.101801665405
8.22,0.162882664648
8.24,0.264548984016
8.26,0.121965230537
8.28,0.162578825426
8.3,0.0609425981874
8.32,0.121860465116
8.34,0.0811909072619
8.36,0.182404338656
8.38,0.101218594855
8.4,0.0809341953594
8.42,0.22255839599
8.44,0.283212585801
8.46,0.202365914787
8.48,0.283212585801
8.5,0.202142785621
8.52,0.242547311505
8.54,0.161528382095
8.56,0.100844451107
8.58,0.161399510171
8.6,0.221791298266
8.62,0.201447755978
8.64,0.201638197982
8.66,0.0403015326244
8.68,0.262194914831
8.7,0.20152763217
8.72,0.221646706587
8.74,0.261827973074
8.76,0.362748091604
8.78,0.382805547241
8.8,0.362639533143
8.82,0.423396226415
8.84,0.281842105263
8.86,0.241338512101
8.88,0.281449188812
8.9,0.261307052909
8.92,0.442588493369
8.94,0.341948472616
8.96,0.463166716552
8.98,0.605034462091
9.,0.50384231537
9.02,0.584632125388
9.04,0.605608037186
9.06,0.667467708021
9.08,0.627866205307
9.1,0.648965205603
9.12,0.7714925898
9.14,0.731949305976
9.16,0.816066202443
9.18,0.776596906277
9.2,0.633794498381
9.22,0.923189287891
9.24,1.028998779
9.26,0.886594324726
9.28,0.805053533188
9.3,0.827332618357
9.32,0.703208665439
9.34,0.517643448912
9.36,0.622160749963
9.38,0.477188989698
9.4,0.456818018574
9.42,0.477950297801
9.44,0.519940384419
9.46,0.457542129059
9.48,0.541172115979
9.5,0.520781893004
9.52,0.54222908941
9.54,0.522077788094
9.56,0.648636081837
9.58,0.775380316672
9.6,0.650487590032
9.62,0.630386052302
9.64,0.779077051144
9.66,0.716449445226
9.68,0.695869939035
9.7,0.675127443316
9.72,0.717576895005
9.74,0.697056981841
9.76,0.613693071897
9.78,0.805778336477
9.8,0.615032741369
9.82,0.572740135198
9.84,0.594478707783
9.86,0.360437742172
9.88,0.318264696637
9.9,0.318402013211
9.92,0.361416338324
9.94,0.425103723544
9.96,0.424902887139
9.98,0.339668554646
10.,0.361530295864
