t,s,e,i,r,c,o,n,reff,coal,reportr
5.,6250.,5.,3.,3734.,0.,0.,9992.,0.902164038923,9.3825060048,65.
5.02,6254.,9.,2.,3727.,0.,0.,9992.,0.902741423908,5.21583933814,117.
5.04,6260.,8.,4.,3718.,0.,0.,9990.,0.903788403788,5.87462462462,104.
5.06,6261.,7.,5.,3717.,0.,0.,9990.,0.903932778933,6.71492921493,91.
5.08,6255.,11.,8.,3713.,0.,0.,9987.,0.903337800679,4.27032414867,143.
5.1,6255.,10.,3.,3720.,0.,0.,9988.,0.903247358369,4.69688626352,130.
5.12,6261.,11.,2.,3713.,0.,0.,9987.,0.904204311759,4.27442038286,143.
5.14,6266.,12.,2.,3709.,0.,0.,9989.,0.904745219742,3.92056261888,156.
5.16,6270.,10.,6.,3703.,0.,0.,9989.,0.905322778133,4.70767844629,130.
5.18,6279.,11.,2.,3700.,0.,0.,9992.,0.906350080064,4.28456401485,143.
5.2,6283.,11.,2.,3693.,0.,0.,9989.,0.907199842904,4.28858107555,143.
5.22,6285.,11.,4.,3689.,0.,0.,9989.,0.9074886221,4.28994621356,143.
5.24,6292.,10.,2.,3685.,0.,0.,9989.,0.908499349284,4.72419661628,130.
5.26,6291.,7.,8.,3682.,0.,0.,9988.,0.908445904316,6.7484552892,91.
5.28,6296.,8.,1.,3685.,0.,0.,9990.,0.908985908986,5.90840840841,104.
5.3,6301.,5.,4.,3676.,0.,0.,9986.,0.910072177972,9.46475065091,65.
5.32,6300.,6.,6.,3670.,0.,0.,9982.,0.910292372424,7.88920056101,78.
5.34,6299.,9.,3.,3669.,0.,0.,9980.,0.910330275936,5.25968603874,117.
5.36,6312.,12.,1.,3657.,0.,0.,9982.,0.912026262657,3.95211380485,156.
5.38,6325.,2.,11.,3646.,0.,0.,9984.,0.913721569896,23.7567608173,26.
5.4,6323.,11.,6.,3644.,0.,0.,9984.,0.91343264608,4.31804523601,143.
5.42,6331.,10.,9.,3638.,0.,0.,9988.,0.91422206648,4.75395474569,130.
5.44,6337.,7.,4.,3639.,0.,0.,9987.,0.91518011877,6.79848088229,91.
5.46,6349.,5.,1.,3635.,0.,0.,9990.,0.916637791638,9.53303303303,65.
5.48,6356.,4.,2.,3630.,0.,0.,9992.,0.917464741024,11.9270416333,52.
5.5,6362.,4.,3.,3624.,0.,0.,9993.,0.918238921091,11.9371059742,52.
5.52,6367.,6.,4.,3619.,0.,0.,9996.,0.918684781605,7.96193477391,78.
5.54,6369.,5.,2.,3619.,0.,0.,9995.,0.919065301882,9.55827913957,65.
5.56,6377.,7.,1.,3612.,0.,0.,9997.,0.920035626072,6.83455036511,91.
5.58,6387.,7.,0.,3605.,0.,0.,9999.,0.921294052482,6.84389867558,91.
5.6,6395.,5.,2.,3597.,0.,0.,9999.,0.922448014032,9.59345934593,65.
5.62,6398.,4.,1.,3594.,0.,0.,9997.,0.923065381153,11.999849955,52.
5.64,6405.,4.,2.,3586.,0.,0.,9997.,0.924075299513,12.0129788937,52.
5.66,6412.,5.,3.,3581.,0.,0.,10001.,0.924715220786,9.61703829617,65.
5.68,6420.,6.,2.,3577.,0.,0.,10005.,0.925498789067,8.02098950525,78.
5.7,6431.,4.,4.,3569.,0.,0.,10008.,0.926806631618,12.048486211,52.
5.72,6437.,4.,4.,3560.,0.,0.,10005.,0.927949486795,12.0633433283,52.
5.74,6440.,6.,7.,3550.,0.,0.,10003.,0.928567583571,8.04758572428,78.
5.76,6445.,8.,3.,3550.,0.,0.,10006.,0.929009901751,6.03856436138,104.
5.78,6449.,6.,4.,3545.,0.,0.,10004.,0.92977232184,8.05802678928,78.
5.8,6453.,9.,0.,3544.,0.,0.,10006.,0.930163056013,5.37427543474,117.
5.82,6456.,11.,2.,3538.,0.,0.,10007.,0.930502494408,4.39873906447,143.
5.84,6462.,10.,3.,3535.,0.,0.,10010.,0.931088142627,4.84165834166,130.
5.86,6460.,8.,6.,3535.,0.,0.,10009.,0.930892965562,6.05080427615,104.
5.88,6456.,13.,6.,3536.,0.,0.,10011.,0.930130702381,3.72052280952,169.
5.9,6457.,14.,5.,3536.,0.,0.,10012.,0.930181858693,3.45496118943,182.
5.92,6458.,13.,10.,3528.,0.,0.,10009.,0.930604763405,3.72241905362,169.
5.94,6465.,15.,7.,3522.,0.,0.,10009.,0.931613470953,3.22959336597,195.
5.96,6456.,18.,4.,3530.,0.,0.,10008.,0.930409518539,2.68784972022,234.
5.98,6464.,11.,12.,3522.,0.,0.,10009.,0.931469369875,4.4033097485,143.
6.,6462.,13.,7.,3527.,0.,0.,10009.,0.931181167718,3.72472467087,169.
6.02,6456.,17.,4.,3530.,0.,0.,10007.,0.930502494408,2.84624292407,221.
6.04,6458.,14.,7.,3526.,0.,0.,10005.,0.930976819283,3.45791390019,182.
6.06,6462.,14.,2.,3528.,0.,0.,10006.,0.931460354556,3.45970988835,182.
6.08,6471.,8.,5.,3520.,0.,0.,10004.,0.93294413004,6.06413684526,104.
6.1,6479.,9.,1.,3518.,0.,0.,10007.,0.933817481609,5.39538989374,117.
6.12,6484.,9.,2.,3515.,0.,0.,10010.,0.934258049643,5.39793539794,117.
6.14,6488.,10.,6.,3503.,0.,0.,10007.,0.935114650514,4.86259618267,130.
6.16,6491.,13.,3.,3499.,0.,0.,10006.,0.935640538754,3.74256215501,169.
6.18,6492.,15.,6.,3495.,0.,0.,10008.,0.935597675706,3.24340527578,195.
6.2,6483.,14.,11.,3499.,0.,0.,10007.,0.934394001122,3.47060628988,182.
6.22,6486.,12.,8.,3505.,0.,0.,10011.,0.934452871073,4.04929577465,156.
6.24,6483.,20.,6.,3503.,0.,0.,10012.,0.933927364086,2.42821114662,260.
6.26,6477.,20.,9.,3501.,0.,0.,10007.,0.933529221852,2.42717597682,260.
6.28,6473.,18.,15.,3499.,0.,0.,10005.,0.933139199631,2.6957354656,234.
6.3,6467.,21.,15.,3508.,0.,0.,10011.,0.931715497568,2.3071050416,273.
6.32,6459.,22.,15.,3513.,0.,0.,10009.,0.930748864484,2.19995186151,286.
6.34,6453.,19.,16.,3523.,0.,0.,10011.,0.929698485512,2.54443796035,247.
6.36,6444.,21.,17.,3527.,0.,0.,10009.,0.92858734831,2.2993591482,273.
6.38,6427.,31.,13.,3539.,0.,0.,10010.,0.926045108737,1.55336598885,403.
6.4,6420.,28.,21.,3541.,0.,0.,10010.,0.92503650196,1.71792493221,364.
6.42,6398.,30.,18.,3557.,0.,0.,10003.,0.922511708026,1.59902029391,390.
6.44,6381.,35.,10.,3571.,0.,0.,9997.,0.920612722278,1.3677674731,455.
6.46,6379.,23.,12.,3582.,0.,0.,9996.,0.92041624342,2.08094107208,299.
6.48,6370.,23.,16.,3586.,0.,0.,9995.,0.919209604802,2.07821301955,299.
6.5,6360.,20.,20.,3595.,0.,0.,9995.,0.917766575595,2.38619309655,260.
6.52,6341.,30.,20.,3601.,0.,0.,9992.,0.91529954733,1.58651921537,390.
6.54,6322.,44.,20.,3605.,0.,0.,9991.,0.912648306553,1.07858436229,572.
6.56,6302.,48.,21.,3618.,0.,0.,9989.,0.909943245262,0.985771849034,624.
6.58,6288.,44.,25.,3631.,0.,0.,9988.,0.908012692154,1.07310590891,572.
6.6,6280.,45.,22.,3643.,0.,0.,9990.,0.906675906676,1.04771438105,585.
6.62,6266.,39.,27.,3658.,0.,0.,9990.,0.904654654655,1.20620620621,507.
6.64,6254.,45.,5.,3686.,0.,0.,9990.,0.902922152922,1.04337671004,585.
6.66,6259.,31.,14.,3689.,0.,0.,9993.,0.903372745537,1.515334928,403.
6.68,6246.,30.,19.,3697.,0.,0.,9992.,0.901586653939,1.56275020016,390.
6.7,6234.,36.,21.,3700.,0.,0.,9991.,0.899944565494,1.29991992794,468.
6.72,6232.,36.,11.,3717.,0.,0.,9996.,0.899205836181,1.29885287448,468.
6.74,6228.,26.,18.,3724.,0.,0.,9996.,0.898628682242,1.79725736448,338.
6.76,6230.,24.,12.,3729.,0.,0.,9995.,0.899007195906,1.94784892446,312.
6.78,6223.,28.,13.,3732.,0.,0.,9996.,0.897907239819,1.66754201681,364.
6.8,6223.,25.,10.,3738.,0.,0.,9996.,0.897907239819,1.86764705882,325.
6.82,6222.,23.,10.,3740.,0.,0.,9995.,0.89785277254,2.02992800748,299.
6.84,6223.,17.,15.,3743.,0.,0.,9998.,0.897727622448,2.74599037455,221.
6.86,6217.,21.,16.,3746.,0.,0.,10000.,0.896682692308,2.22035714286,273.
6.88,6210.,29.,13.,3746.,0.,0.,9998.,0.895852247373,1.60635575391,377.
6.9,6211.,24.,13.,3752.,0.,0.,10000.,0.895817307692,1.9409375,312.
6.92,6207.,24.,8.,3762.,0.,0.,10001.,0.895150869528,1.93949355064,312.
6.94,6207.,20.,12.,3762.,0.,0.,10001.,0.895150869528,2.32739226077,260.
6.96,6205.,15.,9.,3769.,0.,0.,9998.,0.895130949267,3.10312062412,195.
6.98,6197.,18.,13.,3769.,0.,0.,9997.,0.894066296812,2.58285819079,234.
7.,6185.,25.,8.,3779.,0.,0.,9997.,0.892335008195,1.85605681705,325.
7.02,6180.,28.,2.,3785.,0.,0.,9995.,0.891792049871,1.65618523547,364.
7.04,6178.,28.,6.,3783.,0.,0.,9995.,0.89150344403,1.6556492532,364.
7.06,6182.,19.,12.,3781.,0.,0.,9994.,0.892169917335,2.44172819481,247.
7.08,6181.,15.,12.,3786.,0.,0.,9994.,0.892025599975,3.09235541325,195.
7.1,6179.,17.,4.,3791.,0.,0.,9991.,0.892004727332,2.72848504831,221.
7.12,6179.,11.,9.,3791.,0.,0.,9990.,0.892094017094,4.21717171717,143.
7.14,6187.,9.,7.,3793.,0.,0.,9996.,0.892712854373,5.15789649193,117.
7.16,6198.,7.,4.,3789.,0.,0.,9998.,0.894121131919,6.64204269425,91.
7.18,6201.,10.,1.,3784.,0.,0.,9996.,0.894732893157,4.65261104442,130.
7.2,6204.,10.,4.,3778.,0.,0.,9996.,0.895165758611,4.65486194478,130.
7.22,6205.,15.,1.,3774.,0.,0.,9995.,0.895399622888,3.10405202601,195.
7.24,6212.,12.,4.,3769.,0.,0.,9997.,0.896230407584,3.88366509953,156.
7.26,6215.,10.,5.,3768.,0.,0.,9998.,0.896573545478,4.66218243649,130.
7.28,6222.,8.,6.,3763.,0.,0.,9999.,0.897493595513,5.83370837084,104.
7.3,6220.,15.,3.,3761.,0.,0.,9999.,0.897205105126,3.1103110311,195.
7.32,6220.,13.,3.,3764.,0.,0.,10000.,0.897115384615,3.58846153846,169.
7.34,6212.,14.,4.,3760.,0.,0.,9990.,0.896858396858,3.33118833119,182.
7.36,6211.,14.,6.,3757.,0.,0.,9988.,0.896893579988,3.33131901139,182.
7.38,6213.,13.,7.,3753.,0.,0.,9986.,0.897362076137,3.58944830455,169.
7.4,6210.,12.,8.,3755.,0.,0.,9985.,0.89701860483,3.88708062093,156.
7.42,6210.,14.,7.,3751.,0.,0.,9982.,0.897288195675,3.33278472679,182.
7.44,6209.,10.,4.,3758.,0.,0.,9981.,0.897233589975,4.66561466787,130.
7.46,6213.,9.,6.,3752.,0.,0.,9980.,0.897901572376,5.1878757515,117.
7.48,6215.,12.,4.,3749.,0.,0.,9980.,0.898190611993,3.89215931864,156.
7.5,6213.,12.,9.,3748.,0.,0.,9982.,0.897721668234,3.89012722901,156.
7.52,6211.,14.,8.,3749.,0.,0.,9982.,0.897432686528,3.3333214071,182.
7.54,6215.,14.,8.,3751.,0.,0.,9988.,0.897471196205,3.33346444305,182.
7.56,6215.,17.,2.,3753.,0.,0.,9987.,0.897561060147,2.74548088986,221.
7.58,6225.,11.,7.,3743.,0.,0.,9986.,0.899095271842,4.2502685578,143.
7.6,6221.,13.,11.,3741.,0.,0.,9986.,0.898517539941,3.59407015976,169.
7.62,6216.,21.,10.,3740.,0.,0.,9987.,0.897705478661,2.22288975668,273.
7.64,6221.,16.,11.,3742.,0.,0.,9990.,0.898157773158,2.91901276276,208.
7.66,6224.,13.,8.,3747.,0.,0.,9992.,0.898411036522,3.59364414609,169.
7.68,6218.,17.,13.,3743.,0.,0.,9991.,0.897634794392,2.7457064299,221.
7.7,6215.,19.,8.,3750.,0.,0.,9992.,0.897111920305,2.45525367663,247.
7.72,6215.,18.,7.,3754.,0.,0.,9994.,0.896932390203,2.59113801614,234.
7.74,6219.,19.,8.,3749.,0.,0.,9995.,0.897419863778,2.45609646929,247.
7.76,6217.,20.,10.,3749.,0.,0.,9996.,0.897041508911,2.33230792317,260.
7.78,6216.,17.,15.,3746.,0.,0.,9994.,0.897076707563,2.74399934078,221.
7.8,6215.,18.,13.,3752.,0.,0.,9998.,0.896573545478,2.5901013536,234.
7.82,6215.,21.,5.,3756.,0.,0.,9997.,0.896663229738,2.22030894983,273.
7.84,6224.,13.,14.,3745.,0.,0.,9996.,0.898051528304,3.59220611321,169.
7.86,6221.,18.,5.,3755.,0.,0.,9999.,0.89734935032,2.59234256759,234.
7.88,6223.,16.,10.,3752.,0.,0.,10001.,0.89745833109,2.91673957604,208.
7.9,6228.,20.,9.,3746.,0.,0.,10003.,0.89799983082,2.33479956013,260.
7.92,6229.,19.,13.,3744.,0.,0.,10005.,0.897964479299,2.45758699598,247.
7.94,6237.,11.,12.,3747.,0.,0.,10007.,0.898938051057,4.24952533227,143.
7.96,6241.,11.,6.,3750.,0.,0.,10008.,0.899424691016,4.25182581208,143.
7.98,6243.,7.,7.,3750.,0.,0.,10007.,0.899802830326,6.68424959671,91.
8.,6234.,20.,5.,3747.,0.,0.,10006.,0.89859545811,2.33634819109,260.
8.02,6237.,18.,7.,3744.,0.,0.,10006.,0.899027890958,2.59719168499,234.
8.04,6238.,16.,4.,3747.,0.,0.,10005.,0.899261907508,2.9226011994,208.
8.06,6238.,12.,11.,3744.,0.,0.,10005.,0.899261907508,3.8968015992,156.
8.08,6242.,12.,9.,3745.,0.,0.,10008.,0.899568806493,3.8981314948,156.
8.1,6248.,18.,7.,3738.,0.,0.,10011.,0.900163666121,2.60047281324,234.
8.12,6246.,25.,6.,3737.,0.,0.,10014.,0.899605936305,1.87118034751,325.
8.14,6241.,25.,4.,3746.,0.,0.,10016.,0.898706300688,1.86930910543,325.
8.16,6247.,11.,14.,3744.,0.,0.,10016.,0.8995703029,4.25251415916,143.
8.18,6246.,10.,14.,3739.,0.,0.,10009.,0.900055334814,4.68028774103,130.
8.2,6243.,10.,8.,3747.,0.,0.,10008.,0.89971292197,4.67850719424,130.
8.22,6248.,10.,7.,3742.,0.,0.,10007.,0.900523479718,4.68272209453,130.
8.24,6249.,14.,5.,3738.,0.,0.,10006.,0.90075762235,3.34567116873,182.
8.26,6250.,13.,10.,3736.,0.,0.,10009.,0.900631739127,3.60252695651,169.
8.28,6244.,17.,12.,3734.,0.,0.,10007.,0.899946960205,2.7527789371,221.
8.3,6238.,27.,6.,3732.,0.,0.,10003.,0.89944170595,1.73225810035,351.
8.32,6238.,22.,12.,3725.,0.,0.,9997.,0.899981532921,2.12722907781,286.
8.34,6231.,25.,9.,3735.,0.,0.,10000.,0.898701923077,1.8693,325.
8.36,6221.,26.,13.,3739.,0.,0.,9999.,0.89734935032,1.79469870064,338.
8.38,6214.,26.,7.,3751.,0.,0.,9998.,0.896429285857,1.79285857171,338.
8.4,6212.,22.,12.,3753.,0.,0.,9999.,0.896051143576,2.11793906663,286.
8.42,6212.,21.,10.,3759.,0.,0.,10002.,0.895782381985,2.21812780301,273.
8.44,6221.,18.,4.,3762.,0.,0.,10005.,0.89681120978,2.59078793936,234.
8.46,6226.,15.,9.,3754.,0.,0.,10004.,0.897621720543,3.11175529788,195.
8.48,6226.,13.,10.,3754.,0.,0.,10003.,0.897711455794,3.59084582318,169.
8.5,6218.,23.,6.,3753.,0.,0.,10000.,0.896826923077,2.02760869565,299.
8.52,6221.,19.,11.,3747.,0.,0.,9998.,0.897439103205,2.45614912456,247.
8.54,6222.,19.,12.,3748.,0.,0.,10001.,0.897314114742,2.45580705087,247.
8.56,6213.,23.,9.,3751.,0.,0.,9996.,0.896464354973,2.02678897646,299.
8.58,6217.,19.,14.,3744.,0.,0.,9994.,0.897221024923,2.45555227874,247.
8.6,6212.,15.,23.,3746.,0.,0.,9996.,0.896320066488,3.10724289716,195.
8.62,6199.,21.,13.,3761.,0.,0.,9994.,0.894623312449,2.21525772606,273.
8.64,6189.,25.,12.,3768.,0.,0.,9994.,0.893180138853,1.85781468881,325.
8.66,6187.,22.,15.,3772.,0.,0.,9996.,0.892712854373,2.11004856488,286.
8.68,6187.,26.,9.,3780.,0.,0.,10002.,0.892177333764,1.78435466753,338.
8.7,6187.,23.,8.,3787.,0.,0.,10005.,0.891909814324,2.01649175412,299.
8.72,6181.,19.,13.,3791.,0.,0.,10004.,0.891133931043,2.43889286391,247.
8.74,6172.,22.,15.,3797.,0.,0.,10006.,0.889658512585,2.10282921156,286.
8.76,6168.,18.,17.,3803.,0.,0.,10006.,0.889081935454,2.56845892465,234.
8.78,6169.,20.,10.,3803.,0.,0.,10002.,0.889581699045,2.31291241752,260.
8.8,6160.,25.,7.,3805.,0.,0.,9997.,0.888728156909,1.84855456637,325.
8.82,6160.,23.,13.,3800.,0.,0.,9996.,0.888817065288,2.00949945195,299.
8.84,6160.,21.,16.,3800.,0.,0.,9997.,0.888728156909,2.20066019806,273.
8.86,6157.,24.,12.,3804.,0.,0.,9997.,0.888295334754,1.92463989197,312.
8.88,6158.,20.,8.,3812.,0.,0.,9998.,0.888350747072,2.30971194239,260.
8.9,6156.,21.,9.,3809.,0.,0.,9995.,0.888328779775,2.1996712642,273.
8.92,6159.,17.,10.,3811.,0.,0.,9997.,0.888583882857,2.71802128874,221.
8.94,6153.,22.,12.,3810.,0.,0.,9997.,0.887718238548,2.0982431093,286.
8.96,6156.,19.,11.,3813.,0.,0.,9999.,0.887973412726,2.4302430243,247.
8.98,6154.,20.,14.,3812.,0.,0.,10000.,0.887596153846,2.30775,260.
9.,6154.,26.,4.,3813.,0.,0.,9997.,0.8878625126,1.7757250252,338.
9.02,6164.,23.,4.,3811.,0.,0.,10002.,0.888860689401,2.00959808038,299.
9.04,6170.,19.,9.,3806.,0.,0.,10004.,0.889548026943,2.43455249479,247.
9.06,6168.,21.,12.,3805.,0.,0.,10006.,0.889081935454,2.20153622112,273.
9.08,6162.,18.,13.,3810.,0.,0.,10003.,0.888483454964,2.56672998101,234.
9.1,6156.,22.,11.,3811.,0.,0.,10000.,0.887884615385,2.09863636364,286.
9.12,6153.,19.,12.,3814.,0.,0.,9998.,0.887629448967,2.4293016498,247.
9.14,6151.,20.,9.,3819.,0.,0.,9999.,0.887252186757,2.30685568557,260.
9.16,6153.,16.,8.,3822.,0.,0.,9999.,0.887540677145,2.88450720072,208.
9.18,6150.,16.,12.,3822.,0.,0.,10000.,0.887019230769,2.8828125,208.
9.2,6151.,22.,4.,3823.,0.,0.,10000.,0.887163461538,2.09693181818,286.
9.22,6156.,16.,8.,3823.,0.,0.,10003.,0.887618329886,2.88475957213,208.
9.24,6153.,14.,11.,3827.,0.,0.,10005.,0.887008418867,3.29460269865,182.
9.26,6142.,21.,14.,3832.,0.,0.,10009.,0.885068822675,2.19159898948,273.
9.28,6138.,24.,16.,3833.,0.,0.,10011.,0.884315714253,1.91601738088,312.
9.3,6137.,20.,21.,3836.,0.,0.,10014.,0.883906761303,2.29815757939,260.
9.32,6133.,27.,14.,3843.,0.,0.,10017.,0.88306609533,1.7007198873,351.
9.34,6126.,27.,21.,3847.,0.,0.,10021.,0.881706109478,1.69810065529,351.
9.36,6116.,33.,15.,3858.,0.,0.,10022.,0.880178990836,1.38694871283,429.
9.38,6108.,32.,12.,3870.,0.,0.,10022.,0.879027677571,1.42841997605,416.
9.4,6111.,30.,14.,3869.,0.,0.,10024.,0.879283949291,1.52409217877,390.
9.42,6107.,26.,12.,3877.,0.,0.,10022.,0.878883763413,1.75776752683,338.
9.44,6103.,25.,14.,3881.,0.,0.,10023.,0.878220477517,1.82669859324,325.
9.46,6094.,24.,16.,3888.,0.,0.,10022.,0.877012879358,1.90019457194,312.
9.48,6086.,24.,19.,3893.,0.,0.,10022.,0.875861566093,1.89770005987,312.
9.5,6082.,34.,8.,3897.,0.,0.,10021.,0.875373254627,1.33880615414,442.
9.52,6074.,30.,18.,3899.,0.,0.,10021.,0.874221826472,1.51531783255,390.
9.54,6077.,25.,12.,3906.,0.,0.,10020.,0.87474090281,1.81946107784,325.
9.56,6074.,23.,12.,3910.,0.,0.,10019.,0.874396339263,1.97689607138,299.
9.58,6074.,24.,10.,3908.,0.,0.,10016.,0.874658239125,1.89509285144,312.
9.6,6083.,15.,15.,3906.,0.,0.,10019.,0.875691954517,3.03573210899,195.
9.62,6069.,27.,8.,3917.,0.,0.,10021.,0.873502183875,1.68230050228,351.
9.64,6071.,22.,15.,3922.,0.,0.,10030.,0.873005982054,2.06346868485,286.
9.66,6054.,26.,11.,3935.,0.,0.,10026.,0.870908714266,1.74181742853,338.
9.68,6047.,24.,11.,3942.,0.,0.,10024.,0.870075280864,1.88516310854,312.
9.7,6052.,22.,8.,3942.,0.,0.,10024.,0.870794708085,2.05824203729,286.
9.72,6056.,18.,9.,3943.,0.,0.,10026.,0.871196427749,2.51678968016,234.
9.74,6055.,15.,10.,3946.,0.,0.,10026.,0.871052571008,3.01964891283,195.
9.76,6052.,19.,9.,3948.,0.,0.,10028.,0.870447362769,2.38227699284,247.
9.78,6056.,13.,11.,3945.,0.,0.,10025.,0.871283330136,3.48513332054,169.
9.8,6051.,20.,1.,3955.,0.,0.,10027.,0.870390330722,2.26301485988,260.
9.82,6062.,15.,6.,3946.,0.,0.,10029.,0.871798706827,3.022235517,195.
9.84,6067.,19.,2.,3944.,0.,0.,10032.,0.872256854987,2.38722928733,247.
9.86,6069.,13.,6.,3943.,0.,0.,10031.,0.87263138118,3.49052552472,169.
9.88,6071.,13.,3.,3946.,0.,0.,10033.,0.872744941692,3.49097976677,169.
9.9,6080.,10.,1.,3945.,0.,0.,10036.,0.873777478002,4.54364288561,130.
9.92,6086.,1.,8.,3942.,0.,0.,10037.,0.874552616856,45.4767360765,13.
9.94,6089.,0.,3.,3944.,0.,0.,10036.,0.875070898611,inf,0.
9.96,6097.,3.,1.,3933.,0.,0.,10034.,0.876395256129,15.1908511062,39.
9.98,6108.,1.,3.,3924.,0.,0.,10036.,0.87780145323,45.645675568,13.
10.,6117.,3.,4.,3911.,0.,0.,10035.,0.879182476716,15.2391629297,39.
