t,s,e,i,r,c,o,n,reff,coal,reportr
5.,6250.,5.,3.,3734.,0.,0.,9992.,0.902164038923,9.3825060048,65.
5.02,6251.,7.,5.,3729.,0.,0.,9992.,0.90230838517,6.70286228983,91.
5.04,6247.,13.,2.,3728.,0.,0.,9990.,0.901911526912,3.60764610765,169.
5.06,6252.,12.,5.,3720.,0.,0.,9989.,0.902723765373,3.91180298328,156.
5.08,6249.,15.,5.,3718.,0.,0.,9987.,0.9024712896,3.12856713728,195.
5.1,6243.,21.,5.,3715.,0.,0.,9984.,0.901875693417,2.23321600275,273.
5.12,6242.,14.,14.,3716.,0.,0.,9986.,0.901550632424,3.34861663472,182.
5.14,6231.,28.,6.,3720.,0.,0.,9985.,0.900052001079,1.67152514486,364.
5.16,6239.,18.,10.,3717.,0.,0.,9984.,0.901297845784,2.60374933226,234.
5.18,6236.,20.,14.,3712.,0.,0.,9982.,0.901044957847,2.3427168904,260.
5.2,6237.,21.,8.,3717.,0.,0.,9983.,0.901099176292,2.23129319844,273.
5.22,6237.,22.,10.,3716.,0.,0.,9985.,0.900918685721,2.12944416625,286.
5.24,6241.,23.,9.,3714.,0.,0.,9987.,0.901315941493,2.03775778077,299.
5.26,6236.,28.,9.,3718.,0.,0.,9991.,0.900233286881,1.67186181849,364.
5.28,6237.,21.,13.,3720.,0.,0.,9991.,0.900377647575,2.2295065559,273.
5.3,6237.,21.,12.,3721.,0.,0.,9991.,0.900377647575,2.2295065559,273.
5.32,6231.,23.,12.,3726.,0.,0.,9992.,0.899421460245,2.03347460577,299.
5.34,6226.,23.,13.,3730.,0.,0.,9992.,0.898699729014,2.0318428656,299.
5.36,6224.,20.,12.,3731.,0.,0.,9987.,0.898860826767,2.33703814959,260.
5.38,6223.,18.,7.,3735.,0.,0.,9983.,0.899076506985,2.59733213129,234.
5.4,6226.,13.,12.,3731.,0.,0.,9982.,0.89960004932,3.59840019728,169.
5.42,6228.,10.,12.,3732.,0.,0.,9982.,0.899889031025,4.67942296133,130.
5.44,6234.,13.,5.,3731.,0.,0.,9983.,0.900665747155,3.60266298862,169.
5.46,6229.,16.,11.,3728.,0.,0.,9984.,0.899853226701,2.92452298678,208.
5.48,6229.,15.,12.,3728.,0.,0.,9984.,0.899853226701,3.1194911859,195.
5.5,6223.,11.,16.,3731.,0.,0.,9981.,0.899256664586,4.25103150531,143.
5.52,6220.,10.,12.,3740.,0.,0.,9982.,0.898733104203,4.67341214186,130.
5.54,6221.,16.,6.,3741.,0.,0.,9984.,0.898697531435,2.92076697716,208.
5.56,6227.,12.,10.,3739.,0.,0.,9988.,0.899204044854,3.89655086103,156.
5.58,6215.,26.,0.,3744.,0.,0.,9985.,0.897740842032,1.79548168406,338.
5.6,6213.,20.,5.,3742.,0.,0.,9980.,0.897901572376,2.33454408818,260.
5.62,6218.,18.,10.,3736.,0.,0.,9982.,0.898444122497,2.59550524277,234.
5.64,6209.,23.,5.,3740.,0.,0.,9977.,0.897593310769,2.02934139826,299.
5.66,6209.,15.,11.,3739.,0.,0.,9974.,0.89786329071,3.11259274113,195.
5.68,6218.,12.,10.,3736.,0.,0.,9976.,0.898984485843,3.89559943865,156.
5.7,6210.,10.,10.,3744.,0.,0.,9974.,0.898007897456,4.66964106677,130.
5.72,6209.,12.,7.,3747.,0.,0.,9975.,0.897773279352,3.89035087719,156.
5.74,6206.,9.,10.,3750.,0.,0.,9975.,0.897339502603,5.18462823726,117.
5.76,6203.,17.,5.,3749.,0.,0.,9974.,0.896995650229,2.7437514007,221.
5.78,6207.,18.,3.,3752.,0.,0.,9980.,0.897034453522,2.59143286573,234.
5.8,6208.,20.,5.,3744.,0.,0.,9977.,0.897448747504,2.33336674351,260.
5.82,6205.,18.,5.,3746.,0.,0.,9974.,0.897284863723,2.59215627298,234.
5.84,6206.,10.,9.,3750.,0.,0.,9975.,0.897339502603,4.66616541353,130.
5.86,6212.,17.,3.,3744.,0.,0.,9976.,0.898117019308,2.74718147082,221.
5.88,6218.,7.,11.,3738.,0.,0.,9974.,0.899164751431,6.67950958206,91.
5.9,6214.,11.,6.,3743.,0.,0.,9974.,0.898586324444,4.24786262464,143.
5.92,6219.,11.,4.,3742.,0.,0.,9976.,0.899129063599,4.25042830065,143.
5.94,6217.,8.,6.,3745.,0.,0.,9976.,0.898839908087,5.84245940257,104.
5.96,6227.,9.,3.,3740.,0.,0.,9979.,0.900015031566,5.20008684905,117.
5.98,6222.,12.,5.,3735.,0.,0.,9974.,0.899743178418,3.89888710648,156.
6.,6227.,18.,1.,3731.,0.,0.,9977.,0.900195449534,2.60056463199,234.
6.02,6235.,19.,5.,3720.,0.,0.,9979.,0.901171305896,2.46636357403,247.
6.04,6242.,14.,10.,3713.,0.,0.,9979.,0.902183045935,3.35096559919,182.
6.06,6239.,13.,9.,3719.,0.,0.,9980.,0.901659087406,3.60663634962,169.
6.08,6236.,10.,10.,3728.,0.,0.,9984.,0.900864460059,4.68449519231,130.
6.1,6236.,10.,17.,3723.,0.,0.,9986.,0.900684034571,4.68355697977,130.
6.12,6238.,12.,4.,3735.,0.,0.,9989.,0.900702311004,3.90304334768,156.
6.14,6243.,15.,1.,3733.,0.,0.,9992.,0.9011536152,3.12399919936,195.
6.16,6253.,12.,7.,3721.,0.,0.,9993.,0.902506754728,3.91086260382,156.
6.18,6249.,13.,7.,3723.,0.,0.,9992.,0.902019692677,3.60807877071,169.
6.2,6250.,11.,5.,3726.,0.,0.,9992.,0.902164038923,4.26477545673,143.
6.22,6251.,8.,6.,3726.,0.,0.,9991.,0.902398697289,5.86559153238,104.
6.24,6244.,11.,9.,3726.,0.,0.,9990.,0.901478401478,4.26153426153,143.
6.26,6238.,11.,5.,3734.,0.,0.,9988.,0.900792489449,4.2582917683,143.
6.28,6237.,15.,6.,3729.,0.,0.,9987.,0.90073826744,3.12255932713,195.
6.3,6243.,11.,1.,3732.,0.,0.,9987.,0.90160477852,4.26213168028,143.
6.32,6244.,9.,3.,3730.,0.,0.,9986.,0.901839498375,5.21062821283,117.
6.34,6250.,9.,6.,3719.,0.,0.,9984.,0.902886926775,5.21668002137,117.
6.36,6253.,11.,4.,3717.,0.,0.,9985.,0.903229844767,4.26981381163,143.
6.38,6265.,11.,4.,3714.,0.,0.,9994.,0.904148258186,4.27415540233,143.
6.4,6273.,10.,2.,3709.,0.,0.,9994.,0.905302797063,4.70757454473,130.
6.42,6284.,8.,1.,3705.,0.,0.,9998.,0.906527459338,5.8924284857,104.
6.44,6287.,8.,1.,3701.,0.,0.,9997.,0.907050961442,5.89583124937,104.
6.46,6294.,6.,2.,3694.,0.,0.,9996.,0.908151722227,7.8706482593,78.
6.48,6308.,7.,2.,3683.,0.,0.,10000.,0.909807692308,6.75857142857,91.
6.5,6312.,6.,1.,3680.,0.,0.,9999.,0.910475662951,7.89078907891,78.
6.52,6321.,6.,4.,3668.,0.,0.,9999.,0.911773869695,7.90204020402,78.
6.54,6329.,7.,5.,3655.,0.,0.,9996.,0.913201819189,6.78378494255,91.
6.56,6336.,6.,3.,3652.,0.,0.,9997.,0.914120389963,7.92237671301,78.
6.58,6333.,9.,2.,3653.,0.,0.,9997.,0.913687567809,5.27908372512,117.
6.6,6340.,4.,5.,3646.,0.,0.,9995.,0.914880517182,11.8934467234,52.
6.62,6346.,5.,2.,3643.,0.,0.,9996.,0.915654723428,9.52280912365,65.
6.64,6355.,8.,0.,3637.,0.,0.,10000.,0.916586538462,5.9578125,104.
6.66,6365.,6.,3.,3628.,0.,0.,10002.,0.917845277098,7.95465906819,78.
6.68,6367.,8.,1.,3620.,0.,0.,9996.,0.918684781605,5.97145108043,104.
6.7,6370.,11.,3.,3613.,0.,0.,9997.,0.919025707712,4.34448516373,143.
6.72,6382.,9.,8.,3601.,0.,0.,10000.,0.920480769231,5.31833333333,117.
6.74,6382.,13.,3.,3603.,0.,0.,10001.,0.920388730358,3.68155492143,169.
6.76,6386.,13.,3.,3601.,0.,0.,10003.,0.92078145787,3.68312583148,169.
6.78,6377.,13.,2.,3607.,0.,0.,9999.,0.919851600545,3.67940640218,169.
6.8,6387.,10.,5.,3599.,0.,0.,10001.,0.921109812096,4.7897710229,130.
6.82,6389.,9.,5.,3593.,0.,0.,9996.,0.921859128267,5.32629718554,117.
6.84,6394.,9.,4.,3590.,0.,0.,9997.,0.922488284947,5.32993231303,117.
6.86,6395.,11.,6.,3589.,0.,0.,10001.,0.922263542876,4.3597912936,143.
6.88,6398.,13.,5.,3586.,0.,0.,10002.,0.92260394075,3.690415763,169.
6.9,6401.,11.,9.,3580.,0.,0.,10001.,0.923128840962,4.36388179364,143.
6.92,6395.,17.,10.,3579.,0.,0.,10001.,0.922263542876,2.82104142527,221.
6.94,6399.,13.,14.,3576.,0.,0.,10002.,0.922748142679,3.69099257072,169.
6.96,6396.,19.,10.,3574.,0.,0.,9999.,0.922592259226,2.52498934104,247.
6.98,6386.,24.,6.,3583.,0.,0.,9999.,0.921149807288,1.99582458246,312.
7.,6387.,19.,12.,3580.,0.,0.,9998.,0.921386200317,2.52168854824,247.
7.02,6382.,17.,11.,3591.,0.,0.,10001.,0.920388730358,2.81530670462,221.
7.04,6375.,9.,15.,3602.,0.,0.,10001.,0.919379215925,5.31196880312,117.
7.06,6378.,17.,1.,3609.,0.,0.,10005.,0.919444124092,2.81241732075,221.
7.08,6388.,12.,4.,3600.,0.,0.,10004.,0.920977762741,3.99090363854,156.
7.1,6390.,10.,4.,3602.,0.,0.,10006.,0.921081966205,4.78962622427,130.
7.12,6387.,9.,3.,3604.,0.,0.,10003.,0.920925645383,5.32090372888,117.
7.14,6396.,8.,2.,3597.,0.,0.,10003.,0.922223333,5.9944516645,104.
7.16,6406.,6.,5.,3586.,0.,0.,10003.,0.92366520813,8.00509847046,78.
7.18,6412.,7.,4.,3579.,0.,0.,10002.,0.924622767754,6.86862627475,91.
7.2,6418.,10.,3.,3574.,0.,0.,10005.,0.925210471687,4.81109445277,130.
7.22,6424.,7.,3.,3573.,0.,0.,10007.,0.925890338302,6.8780425131,91.
7.24,6435.,5.,4.,3565.,0.,0.,10009.,0.927290438605,9.64382056149,65.
7.26,6437.,9.,1.,3562.,0.,0.,10009.,0.927578640762,5.35934325773,117.
7.28,6440.,7.,1.,3559.,0.,0.,10007.,0.928196416355,6.89517337863,91.
7.3,6437.,7.,4.,3555.,0.,0.,10003.,0.928135021032,6.8947172991,91.
7.32,6438.,6.,7.,3549.,0.,0.,10000.,0.928557692308,8.0475,78.
7.34,6434.,12.,5.,3550.,0.,0.,10001.,0.927887980433,4.02084791521,156.
7.36,6441.,11.,6.,3544.,0.,0.,10002.,0.928804623691,4.39071276654,143.
7.38,6443.,14.,8.,3537.,0.,0.,10002.,0.929093027548,3.45091695947,182.
7.4,6443.,17.,8.,3529.,0.,0.,9997.,0.929557713468,2.8433530059,221.
7.42,6446.,13.,9.,3530.,0.,0.,9998.,0.929897517965,3.71959007186,169.
7.44,6437.,13.,11.,3535.,0.,0.,9996.,0.928784975529,3.71513990211,169.
7.46,6439.,16.,9.,3534.,0.,0.,9998.,0.928887700617,3.01888502701,208.
7.48,6432.,20.,6.,3537.,0.,0.,9995.,0.928156385885,2.4132066033,260.
7.5,6430.,17.,11.,3534.,0.,0.,9992.,0.928146363244,2.83903593463,221.
7.52,6429.,15.,6.,3543.,0.,0.,9993.,0.927909151791,3.21675172621,195.
7.54,6423.,13.,9.,3547.,0.,0.,9992.,0.927135939521,3.70854375808,169.
7.56,6417.,17.,9.,3547.,0.,0.,9990.,0.926455301455,2.83386327504,221.
7.58,6414.,18.,6.,3551.,0.,0.,9989.,0.926114880214,2.67544298729,234.
7.6,6423.,20.,4.,3550.,0.,0.,9997.,0.926672232439,2.40934780434,260.
7.62,6425.,18.,8.,3547.,0.,0.,9998.,0.926868065921,2.6776188571,234.
7.64,6421.,23.,9.,3543.,0.,0.,9996.,0.926476359775,2.09464220471,299.
7.66,6418.,27.,14.,3539.,0.,0.,9998.,0.925858248573,1.78313440466,351.
7.68,6410.,31.,11.,3547.,0.,0.,9999.,0.924611691938,1.55096154777,403.
7.7,6406.,29.,11.,3552.,0.,0.,9998.,0.924127133119,1.65705554904,377.
7.72,6405.,22.,13.,3556.,0.,0.,9996.,0.924167744021,2.18439648587,286.
7.74,6410.,19.,10.,3561.,0.,0.,10000.,0.924519230769,2.53026315789,247.
7.76,6414.,14.,14.,3560.,0.,0.,10002.,0.924911171612,3.4353843517,182.
7.78,6405.,16.,10.,3570.,0.,0.,10001.,0.923705706352,3.00204354565,208.
7.8,6407.,15.,6.,3572.,0.,0.,10000.,0.924086538462,3.2035,195.
7.82,6410.,14.,5.,3570.,0.,0.,9999.,0.924611691938,3.43427199863,182.
7.84,6408.,14.,4.,3575.,0.,0.,10001.,0.924138355395,3.43251389147,182.
7.86,6410.,16.,7.,3569.,0.,0.,10002.,0.924334363896,3.00408668266,208.
7.88,6409.,16.,7.,3567.,0.,0.,9999.,0.924467446745,3.00451920192,208.
7.9,6406.,21.,6.,3568.,0.,0.,10001.,0.9238499227,2.28762838002,273.
7.92,6406.,19.,8.,3567.,0.,0.,10000.,0.923942307692,2.52868421053,247.
7.94,6410.,16.,6.,3567.,0.,0.,9999.,0.924611691938,3.0049879988,208.
7.96,6402.,16.,10.,3569.,0.,0.,9997.,0.923642477359,3.00183805142,208.
7.98,6396.,17.,7.,3576.,0.,0.,9996.,0.922869147659,2.82289386343,221.
8.,6390.,28.,4.,3573.,0.,0.,9995.,0.922095663216,1.71246337454,364.
8.02,6389.,22.,6.,3579.,0.,0.,9996.,0.921859128267,2.17893975772,286.
8.04,6385.,21.,10.,3579.,0.,0.,9995.,0.921374148613,2.2814978918,273.
8.06,6379.,23.,10.,3580.,0.,0.,9992.,0.920784704687,2.08177411494,299.
8.08,6385.,23.,0.,3582.,0.,0.,9990.,0.921835296835,2.08414936676,299.
8.1,6393.,14.,7.,3576.,0.,0.,9990.,0.92299029799,3.42824967825,182.
8.12,6401.,12.,10.,3569.,0.,0.,9992.,0.923960322104,4.00382806245,156.
8.14,6399.,14.,8.,3572.,0.,0.,9993.,0.923579197746,3.4304370202,182.
8.16,6402.,15.,8.,3566.,0.,0.,9991.,0.924197162061,3.20388349515,195.
8.18,6400.,17.,10.,3566.,0.,0.,9993.,0.923723529548,2.82550726685,221.
8.2,6396.,14.,8.,3570.,0.,0.,9988.,0.923608329996,3.4305452257,182.
8.22,6391.,18.,9.,3567.,0.,0.,9985.,0.923163591541,2.66691704223,234.
8.24,6393.,18.,7.,3567.,0.,0.,9985.,0.923452486422,2.66775162744,234.
8.26,6393.,21.,2.,3570.,0.,0.,9986.,0.923360011709,2.28641526709,273.
8.28,6397.,19.,7.,3566.,0.,0.,9989.,0.923660257052,2.52791228246,247.
8.3,6389.,10.,14.,3570.,0.,0.,9983.,0.923059585911,4.79990984674,130.
8.32,6383.,20.,4.,3576.,0.,0.,9983.,0.922192727637,2.39770109186,260.
8.34,6383.,19.,9.,3574.,0.,0.,9985.,0.922008012018,2.52339034868,247.
8.36,6378.,22.,5.,3579.,0.,0.,9984.,0.921378051036,2.17780266608,286.
8.38,6376.,22.,10.,3574.,0.,0.,9982.,0.921273677234,2.17755596437,286.
8.4,6377.,20.,19.,3569.,0.,0.,9985.,0.921141327376,2.39496745118,260.
8.42,6365.,25.,11.,3583.,0.,0.,9984.,0.919500046228,1.91256009615,325.
8.44,6361.,20.,19.,3583.,0.,0.,9983.,0.919014247297,2.38943704297,260.
8.46,6353.,33.,5.,3592.,0.,0.,9983.,0.917858436265,1.44632238442,429.
8.48,6362.,21.,12.,3590.,0.,0.,9985.,0.91897461577,2.27555619143,273.
8.5,6366.,21.,12.,3588.,0.,0.,9987.,0.919368255655,2.27653091877,273.
8.52,6370.,21.,10.,3586.,0.,0.,9987.,0.919945929709,2.27796134975,273.
8.54,6370.,24.,8.,3587.,0.,0.,9989.,0.919761737912,1.99281709881,312.
8.56,6365.,22.,13.,3588.,0.,0.,9988.,0.919131804319,2.17249335566,286.
8.58,6361.,25.,7.,3597.,0.,0.,9990.,0.91837029337,1.91021021021,325.
8.6,6366.,19.,8.,3599.,0.,0.,9992.,0.918908203486,2.51490666217,247.
8.62,6367.,15.,8.,3600.,0.,0.,9990.,0.919236544237,3.18668668669,195.
8.64,6366.,15.,6.,3603.,0.,0.,9990.,0.919092169092,3.18618618619,195.
8.66,6361.,15.,6.,3605.,0.,0.,9987.,0.918646163089,3.18464003204,195.
8.68,6360.,13.,8.,3602.,0.,0.,9983.,0.918869770918,3.67547908367,169.
8.7,6369.,15.,6.,3596.,0.,0.,9986.,0.919893620299,3.18896455037,195.
8.72,6367.,16.,7.,3596.,0.,0.,9986.,0.919604754348,2.98871545163,208.
8.74,6366.,17.,5.,3600.,0.,0.,9988.,0.919276208373,2.8119036962,221.
8.76,6367.,15.,10.,3597.,0.,0.,9989.,0.919328569118,3.18700570628,195.
8.78,6366.,15.,8.,3599.,0.,0.,9988.,0.919276208373,3.18682418903,195.
8.8,6368.,14.,11.,3596.,0.,0.,9989.,0.919472958716,3.41518527523,182.
8.82,6360.,15.,7.,3609.,0.,0.,9991.,0.918134012919,3.18286457812,195.
8.84,6364.,16.,5.,3608.,0.,0.,9993.,0.918527584694,2.98521465026,208.
8.86,6374.,16.,5.,3597.,0.,0.,9992.,0.920062973456,2.99020466373,208.
8.88,6379.,13.,5.,3598.,0.,0.,9995.,0.920508331089,3.68203332435,169.
8.9,6385.,8.,6.,3595.,0.,0.,9994.,0.921466341343,5.98953121873,104.
8.92,6396.,9.,0.,3591.,0.,0.,9996.,0.922869147659,5.33213285314,117.
8.94,6401.,7.,2.,3587.,0.,0.,9997.,0.923498203307,6.86027236742,91.
8.96,6408.,6.,2.,3583.,0.,0.,9999.,0.924323201551,8.01080108011,78.
8.98,6412.,6.,3.,3575.,0.,0.,9996.,0.925177763413,8.01820728291,78.
9.,6419.,8.,2.,3570.,0.,0.,9999.,0.925909898682,6.01841434143,104.
9.02,6425.,7.,0.,3570.,0.,0.,10002.,0.926497392829,6.88255206102,91.
9.04,6432.,6.,2.,3563.,0.,0.,10003.,0.927414083467,8.03758872338,78.
9.06,6441.,7.,0.,3559.,0.,0.,10007.,0.928340546233,6.89624405773,91.
9.08,6452.,6.,0.,3554.,0.,0.,10012.,0.929461569194,8.05533359968,78.
9.1,6464.,4.,0.,3545.,0.,0.,10013.,0.931097265862,12.1042644562,52.
9.12,6465.,2.,0.,3543.,0.,0.,10010.,0.931520402674,24.2195304695,26.
9.14,6476.,1.,0.,3535.,0.,0.,10012.,0.932918958788,48.511785857,13.
9.16,6487.,0.,0.,3528.,0.,0.,10015.,0.934223664503,inf,0.
9.18,6499.,1.,0.,3515.,0.,0.,10015.,0.935951841469,48.6694957564,13.
9.2,6507.,2.,0.,3503.,0.,0.,10012.,0.93738475368,24.3720035957,26.
9.22,6509.,5.,0.,3497.,0.,0.,10011.,0.937766533736,9.75277195085,65.
9.24,6517.,5.,0.,3490.,0.,0.,10012.,0.938825332678,9.76378345985,65.
9.26,6527.,4.,3.,3478.,0.,0.,10012.,0.940265911675,12.2234568518,52.
9.28,6533.,4.,2.,3473.,0.,0.,10012.,0.941130259074,12.234693368,52.
9.3,6540.,2.,2.,3470.,0.,0.,10014.,0.941950500069,24.4907130018,26.
9.32,6545.,3.,0.,3462.,0.,0.,10010.,0.943047337278,16.3461538462,39.
9.34,6553.,3.,0.,3452.,0.,0.,10008.,0.944388719793,16.3694044764,39.
9.36,6555.,3.,1.,3448.,0.,0.,10007.,0.944771352361,16.3760367743,39.
9.38,6555.,4.,0.,3452.,0.,0.,10011.,0.944393859063,12.2771201678,52.
9.4,6563.,4.,1.,3445.,0.,0.,10013.,0.945357573616,12.289648457,52.
9.42,6567.,6.,1.,3434.,0.,0.,10008.,0.946406336469,8.2021882494,78.
9.44,6568.,3.,7.,3427.,0.,0.,10005.,0.94683427517,16.4117941029,39.
9.46,6570.,5.,4.,3426.,0.,0.,10005.,0.94712259255,9.85007496252,65.
9.48,6570.,8.,4.,3418.,0.,0.,10000.,0.947596153846,6.159375,104.
9.5,6579.,6.,2.,3414.,0.,0.,10001.,0.948799350834,8.22292770723,78.
9.52,6582.,7.,2.,3411.,0.,0.,10002.,0.949137095658,7.0507327106,91.
9.54,6586.,4.,6.,3407.,0.,0.,10003.,0.949618960466,12.3450464861,52.
9.56,6585.,7.,7.,3404.,0.,0.,10003.,0.949474772953,7.05324117051,91.
9.58,6579.,13.,5.,3406.,0.,0.,10003.,0.948609647875,3.7944385915,169.
9.6,6586.,10.,5.,3401.,0.,0.,10002.,0.949713903373,4.93851229754,130.
9.62,6582.,15.,3.,3400.,0.,0.,10000.,0.949326923077,3.291,195.
9.64,6584.,16.,4.,3395.,0.,0.,9999.,0.949710355651,3.08655865587,208.
9.66,6583.,20.,2.,3393.,0.,0.,9998.,0.949661086063,2.46911882376,260.
9.68,6594.,13.,6.,3387.,0.,0.,10000.,0.951057692308,3.80423076923,169.
9.7,6587.,11.,12.,3390.,0.,0.,10000.,0.950048076923,4.49113636364,143.
9.72,6585.,17.,6.,3394.,0.,0.,10002.,0.949569701444,2.90456614559,221.
9.74,6581.,23.,4.,3393.,0.,0.,10001.,0.949087783529,2.1457636845,299.
9.76,6581.,18.,10.,3390.,0.,0.,9999.,0.94927762007,2.74235756909,234.
9.78,6577.,20.,9.,3394.,0.,0.,10000.,0.948605769231,2.466375,260.
9.8,6580.,13.,12.,3395.,0.,0.,10000.,0.949038461538,3.79615384615,169.
9.82,6574.,21.,6.,3400.,0.,0.,10001.,0.948078269096,2.34762238062,273.
9.84,6571.,20.,5.,3406.,0.,0.,10002.,0.94755087444,2.46363227355,260.
9.86,6571.,17.,7.,3407.,0.,0.,10002.,0.94755087444,2.89839091005,221.
9.88,6573.,17.,8.,3404.,0.,0.,10002.,0.947839278298,2.89927308656,221.
9.9,6577.,15.,9.,3400.,0.,0.,10001.,0.948510918139,3.28817118288,195.
9.92,6577.,13.,14.,3399.,0.,0.,10003.,0.948321272849,3.7932850914,169.
9.94,6579.,18.,8.,3401.,0.,0.,10006.,0.948325235628,2.73960623626,234.
9.96,6577.,18.,11.,3398.,0.,0.,10004.,0.948226478639,2.73932093829,234.
9.98,6566.,25.,7.,3404.,0.,0.,10002.,0.946829864796,1.96940611878,325.
10.,6570.,18.,15.,3400.,0.,0.,10003.,0.947311960258,2.7366789963,234.
