t,s,e,i,r,c,o,n,reff,coal,reportr
5.,6250.,5.,3.,3734.,0.,0.,9992.,0.902164038923,9.3825060048,65.
5.02,6259.,8.,4.,3724.,0.,0.,9995.,0.903191980606,5.87074787394,104.
5.04,6258.,9.,5.,3722.,0.,0.,9994.,0.903138036668,5.21813087853,117.
5.06,6258.,14.,7.,3715.,0.,0.,9994.,0.903138036668,3.35451270762,182.
5.08,6260.,9.,10.,3713.,0.,0.,9992.,0.903607501386,5.22084334134,117.
5.1,6260.,16.,6.,3712.,0.,0.,9994.,0.903426671387,2.93613668201,208.
5.12,6255.,17.,8.,3716.,0.,0.,9996.,0.902524471327,2.76066308876,221.
5.14,6262.,21.,4.,3710.,0.,0.,9997.,0.903444110156,2.23709970134,273.
5.16,6261.,13.,9.,3715.,0.,0.,9998.,0.903209488051,3.61283795221,169.
5.18,6266.,14.,8.,3712.,0.,0.,10000.,0.90375,3.35678571429,182.
5.2,6262.,14.,6.,3717.,0.,0.,9999.,0.903263403263,3.35497835498,182.
5.22,6270.,9.,4.,3715.,0.,0.,9998.,0.904507824642,5.22604520904,117.
5.24,6276.,9.,4.,3711.,0.,0.,10000.,0.905192307692,5.23,117.
5.26,6276.,5.,6.,3709.,0.,0.,9996.,0.905554529504,9.41776710684,65.
5.28,6273.,11.,5.,3705.,0.,0.,9994.,0.905302797063,4.27961322248,143.
5.3,6276.,12.,4.,3701.,0.,0.,9993.,0.905826386163,3.92524767337,156.
5.32,6282.,10.,4.,3698.,0.,0.,9994.,0.9066016533,4.71432859716,130.
5.34,6288.,12.,0.,3696.,0.,0.,9996.,0.90728599132,3.93157262905,156.
5.36,6293.,10.,3.,3691.,0.,0.,9997.,0.907916605751,4.7211663499,130.
5.38,6290.,15.,3.,3691.,0.,0.,9999.,0.907302268688,3.14531453145,195.
5.4,6291.,13.,8.,3684.,0.,0.,9996.,0.907718856773,3.63087542709,169.
5.42,6285.,18.,4.,3690.,0.,0.,9997.,0.906762413339,2.61953586076,234.
5.44,6286.,17.,6.,3686.,0.,0.,9995.,0.907088159464,2.77462260542,221.
5.46,6286.,15.,7.,3692.,0.,0.,10000.,0.906634615385,3.143,195.
5.48,6291.,17.,5.,3684.,0.,0.,9997.,0.907628057648,2.77627405869,221.
5.5,6294.,13.,8.,3681.,0.,0.,9996.,0.908151722227,3.63260688891,169.
5.52,6287.,15.,9.,3682.,0.,0.,9993.,0.907414035979,3.14570199139,195.
5.54,6284.,18.,7.,3684.,0.,0.,9993.,0.906981040575,2.62016745055,234.
5.56,6283.,8.,12.,3691.,0.,0.,9994.,0.906745970659,5.89384880929,104.
5.58,6282.,9.,11.,3693.,0.,0.,9995.,0.906510947782,5.2376188094,117.
5.6,6282.,14.,6.,3691.,0.,0.,9993.,0.906692376972,3.36771454304,182.
5.62,6282.,21.,6.,3687.,0.,0.,9996.,0.906420260412,2.24446921626,273.
5.64,6284.,19.,6.,3686.,0.,0.,9995.,0.906799553623,2.48176719939,247.
5.66,6281.,18.,9.,3689.,0.,0.,9997.,0.906185317134,2.61786869394,234.
5.68,6282.,14.,6.,3697.,0.,0.,9999.,0.906148307138,3.36569371223,182.
5.7,6282.,12.,7.,3696.,0.,0.,9997.,0.906329591185,3.92742822847,156.
5.72,6284.,6.,12.,3694.,0.,0.,9996.,0.906708837381,7.8581432573,78.
5.74,6286.,10.,7.,3691.,0.,0.,9994.,0.907178922738,4.71733039824,130.
5.76,6288.,11.,3.,3695.,0.,0.,9997.,0.907195235494,4.28855929506,143.
5.78,6295.,12.,1.,3690.,0.,0.,9998.,0.908114315171,3.93516203241,156.
5.8,6301.,12.,5.,3682.,0.,0.,10000.,0.908798076923,3.938125,156.
5.82,6296.,16.,2.,3687.,0.,0.,10001.,0.907986124464,2.95095490451,208.
5.84,6300.,9.,7.,3686.,0.,0.,10002.,0.908472151724,5.24895020996,117.
5.86,6304.,11.,8.,3680.,0.,0.,10003.,0.908958081806,4.29689275036,143.
5.88,6301.,11.,9.,3682.,0.,0.,10003.,0.908525519267,4.29484790926,143.
5.9,6302.,12.,7.,3682.,0.,0.,10003.,0.90866970678,3.93756872938,156.
5.92,6298.,14.,9.,3679.,0.,0.,10000.,0.908365384615,3.37392857143,182.
5.94,6290.,19.,10.,3680.,0.,0.,9999.,0.907302268688,2.48314305115,247.
5.96,6291.,13.,13.,3683.,0.,0.,10000.,0.907355769231,3.62942307692,169.
5.98,6289.,15.,11.,3687.,0.,0.,10002.,0.906885930506,3.14387122575,195.
6.,6289.,16.,10.,3686.,0.,0.,10001.,0.906976610031,2.9476739826,208.
6.02,6284.,18.,7.,3691.,0.,0.,10000.,0.906346153846,2.61833333333,234.
6.04,6289.,13.,8.,3692.,0.,0.,10002.,0.906885930506,3.62754372202,169.
6.06,6292.,13.,3.,3698.,0.,0.,10006.,0.906955826504,3.62782330602,169.
6.08,6296.,7.,6.,3699.,0.,0.,10008.,0.907351042243,6.74032202809,91.
6.1,6292.,8.,6.,3701.,0.,0.,10007.,0.906865194364,5.89462376337,104.
6.12,6288.,10.,6.,3699.,0.,0.,10003.,0.906651081599,4.71458562431,130.
6.14,6297.,11.,2.,3692.,0.,0.,10002.,0.908039545937,4.29255058079,143.
6.16,6306.,10.,5.,3680.,0.,0.,10001.,0.90942828794,4.72902709729,130.
6.18,6309.,9.,4.,3679.,0.,0.,10001.,0.909860936983,5.25697430257,117.
6.2,6311.,9.,4.,3675.,0.,0.,9999.,0.910331417757,5.25969263593,117.
6.22,6312.,11.,3.,3674.,0.,0.,10000.,0.910384615385,4.30363636364,143.
6.24,6315.,9.,5.,3669.,0.,0.,9998.,0.910999507594,5.26355271054,117.
6.26,6316.,7.,9.,3661.,0.,0.,9993.,0.911599658222,6.77188317537,91.
6.28,6322.,6.,10.,3661.,0.,0.,9999.,0.911918114888,7.90329032903,78.
6.3,6323.,8.,8.,3661.,0.,0.,10000.,0.911971153846,5.9278125,104.
6.32,6313.,12.,5.,3665.,0.,0.,9995.,0.910984338323,3.9475987994,156.
6.34,6317.,13.,2.,3663.,0.,0.,9995.,0.911561550006,3.64624620002,169.
6.36,6319.,7.,7.,3660.,0.,0.,9993.,0.912032653627,6.77509971266,91.
6.38,6311.,14.,8.,3662.,0.,0.,9995.,0.910695732482,3.38258414922,182.
6.4,6309.,13.,5.,3670.,0.,0.,9997.,0.910224990574,3.6408999623,169.
6.42,6310.,12.,9.,3664.,0.,0.,9995.,0.910551429561,3.94572286143,156.
6.44,6312.,15.,7.,3661.,0.,0.,9995.,0.910840035402,3.15757878939,195.
6.46,6305.,17.,4.,3665.,0.,0.,9991.,0.910194174757,2.78412335808,221.
6.48,6305.,17.,5.,3663.,0.,0.,9990.,0.910285285285,2.78440204911,221.
6.5,6307.,14.,6.,3664.,0.,0.,9991.,0.910482896145,3.38179361425,182.
6.52,6311.,11.,9.,3662.,0.,0.,9993.,0.910877999215,4.30596872356,143.
6.54,6307.,15.,2.,3671.,0.,0.,9995.,0.910118520799,3.15507753877,195.
6.56,6315.,11.,8.,3666.,0.,0.,10000.,0.910817307692,4.30568181818,143.
6.58,6317.,13.,4.,3665.,0.,0.,9999.,0.91119688892,3.64478755568,169.
6.6,6321.,13.,4.,3662.,0.,0.,10000.,0.911682692308,3.64673076923,169.
6.62,6324.,17.,4.,3659.,0.,0.,10004.,0.911750684342,2.78888444622,221.
6.64,6312.,24.,6.,3658.,0.,0.,10000.,0.910384615385,1.9725,312.
6.66,6303.,21.,12.,3659.,0.,0.,9995.,0.909541309116,2.25219752734,273.
6.68,6300.,22.,9.,3663.,0.,0.,9994.,0.909199365773,2.14901668274,286.
6.7,6303.,19.,9.,3663.,0.,0.,9994.,0.909632317852,2.48952002781,247.
6.72,6296.,25.,8.,3665.,0.,0.,9994.,0.908622096335,1.88993396038,325.
6.74,6296.,24.,2.,3669.,0.,0.,9991.,0.908894928513,1.96927234511,312.
6.76,6289.,21.,12.,3665.,0.,0.,9987.,0.908248030131,2.24899512223,273.
6.78,6286.,22.,8.,3675.,0.,0.,9991.,0.907451321574,2.1448849419,286.
6.8,6297.,13.,16.,3669.,0.,0.,9995.,0.908675491592,3.63470196637,169.
6.82,6293.,17.,11.,3675.,0.,0.,9996.,0.908007433743,2.77743450321,221.
6.84,6296.,18.,6.,3680.,0.,0.,10000.,0.908076923077,2.62333333333,234.
6.86,6300.,21.,4.,3677.,0.,0.,10002.,0.908472151724,2.24955008998,273.
6.88,6307.,16.,7.,3673.,0.,0.,10003.,0.909390644345,2.95551959412,208.
6.9,6301.,19.,6.,3674.,0.,0.,10000.,0.908798076923,2.48723684211,247.
6.92,6303.,16.,4.,3675.,0.,0.,9998.,0.90926839214,2.95512227445,208.
6.94,6309.,11.,6.,3670.,0.,0.,9996.,0.910316049497,4.30331223398,143.
6.96,6312.,12.,3.,3670.,0.,0.,9997.,0.910657812728,3.94618385516,156.
6.98,6319.,9.,6.,3665.,0.,0.,9999.,0.911485379307,5.26635996933,117.
7.,6325.,8.,4.,3662.,0.,0.,9999.,0.91235085047,5.93028052805,104.
7.02,6328.,9.,0.,3662.,0.,0.,9999.,0.912783586051,5.27386071941,117.
7.04,6334.,11.,1.,3654.,0.,0.,10000.,0.913557692308,4.31863636364,143.
7.06,6337.,10.,4.,3650.,0.,0.,10001.,0.913898994716,4.75227477252,130.
7.08,6341.,11.,6.,3642.,0.,0.,10000.,0.914567307692,4.32340909091,143.
7.1,6347.,8.,2.,3645.,0.,0.,10002.,0.915249642379,5.94912267546,104.
7.12,6359.,9.,4.,3633.,0.,0.,10005.,0.916705108984,5.29651840746,117.
7.14,6365.,10.,4.,3628.,0.,0.,10007.,0.917386675481,4.7704107125,130.
7.16,6368.,8.,5.,3623.,0.,0.,10004.,0.918094300741,5.96761295482,104.
7.18,6370.,13.,1.,3624.,0.,0.,10008.,0.91801558753,3.67206235012,169.
7.2,6372.,13.,3.,3621.,0.,0.,10009.,0.918212070675,3.6728482827,169.
7.22,6382.,6.,8.,3613.,0.,0.,10009.,0.919653081457,7.97032670596,78.
7.24,6374.,12.,4.,3617.,0.,0.,10007.,0.918683844386,3.98096332567,156.
7.26,6378.,16.,3.,3611.,0.,0.,10008.,0.919168511345,2.98729766187,208.
7.28,6379.,19.,0.,3610.,0.,0.,10008.,0.919312626822,2.51601350499,247.
7.3,6386.,16.,7.,3600.,0.,0.,10009.,0.92022948577,2.99074582875,208.
7.32,6388.,14.,6.,3600.,0.,0.,10008.,0.920609666113,3.41940733128,182.
7.34,6381.,19.,7.,3601.,0.,0.,10008.,0.919600857775,2.5168023476,247.
7.36,6379.,18.,12.,3599.,0.,0.,10008.,0.919312626822,2.65579203304,234.
7.38,6387.,15.,14.,3596.,0.,0.,10012.,0.92009780571,3.18967239313,195.
7.4,6372.,25.,11.,3603.,0.,0.,10011.,0.918028630045,1.90949955049,325.
7.42,6365.,24.,10.,3611.,0.,0.,10010.,0.917111734419,1.98707542458,312.
7.44,6370.,21.,6.,3611.,0.,0.,10008.,0.91801558753,2.27318145484,273.
7.46,6369.,12.,13.,3611.,0.,0.,10005.,0.918146695883,3.97863568216,156.
7.48,6365.,14.,12.,3614.,0.,0.,10005.,0.917570061123,3.40811736989,182.
7.5,6366.,12.,8.,3617.,0.,0.,10003.,0.917897707611,3.97755673298,156.
7.52,6364.,17.,2.,3621.,0.,0.,10004.,0.917517608341,2.80652444904,221.
7.54,6368.,11.,5.,3620.,0.,0.,10004.,0.918094300741,4.34008214896,143.
7.56,6373.,9.,7.,3617.,0.,0.,10006.,0.9186315134,5.30764874409,117.
7.58,6368.,10.,7.,3619.,0.,0.,10004.,0.918094300741,4.77409036385,130.
7.6,6368.,13.,7.,3615.,0.,0.,10003.,0.918186082637,3.67274433055,169.
7.62,6364.,15.,10.,3613.,0.,0.,10002.,0.91770107517,3.18136372725,195.
7.64,6364.,13.,12.,3613.,0.,0.,10002.,0.91770107517,3.67080430068,169.
7.66,6361.,14.,11.,3614.,0.,0.,10000.,0.917451923077,3.40767857143,182.
7.68,6364.,11.,6.,3622.,0.,0.,10003.,0.917609332585,4.33778957222,143.
7.7,6364.,12.,6.,3620.,0.,0.,10002.,0.91770107517,3.97670465907,156.
7.72,6370.,9.,6.,3620.,0.,0.,10005.,0.918290854573,5.30568049309,117.
7.74,6365.,15.,4.,3618.,0.,0.,10002.,0.917845277098,3.18186362727,195.
7.76,6363.,12.,7.,3621.,0.,0.,10003.,0.917465145072,3.97568229531,156.
7.78,6359.,18.,5.,3622.,0.,0.,10004.,0.916796742841,2.64852392376,234.
7.8,6368.,17.,4.,3618.,0.,0.,10007.,0.917819065116,2.80744655212,221.
7.82,6379.,18.,6.,3608.,0.,0.,10011.,0.919037136073,2.65499617088,234.
7.84,6384.,18.,5.,3606.,0.,0.,10013.,0.919573784849,2.65654648956,234.
7.86,6380.,21.,9.,3605.,0.,0.,10015.,0.918814086562,2.27515869054,273.
7.88,6380.,19.,12.,3605.,0.,0.,10016.,0.918722351929,2.51439801581,247.
7.9,6381.,18.,9.,3606.,0.,0.,10014.,0.919049868645,2.65503295386,234.
7.92,6380.,14.,7.,3611.,0.,0.,10012.,0.919089400412,3.4137606301,182.
7.94,6389.,15.,8.,3602.,0.,0.,10014.,0.920202101673,3.19003395247,195.
7.96,6385.,16.,7.,3604.,0.,0.,10012.,0.919809689911,2.98938149221,208.
7.98,6392.,11.,8.,3604.,0.,0.,10015.,0.920542263528,4.35165433668,143.
8.,6394.,11.,11.,3602.,0.,0.,10018.,0.920554540289,4.35171237228,143.
8.02,6394.,13.,12.,3603.,0.,0.,10022.,0.920187126783,3.68074850713,169.
8.04,6387.,20.,5.,3610.,0.,0.,10022.,0.919179727676,2.38986729196,260.
8.06,6395.,16.,7.,3606.,0.,0.,10024.,0.920147415434,2.99047910016,208.
8.08,6397.,15.,10.,3606.,0.,0.,10028.,0.920068040257,3.18956920622,195.
8.1,6395.,12.,12.,3611.,0.,0.,10030.,0.919596978296,3.98492023928,156.
8.12,6399.,13.,8.,3608.,0.,0.,10028.,0.920355696358,3.68142278543,169.
8.14,6406.,14.,8.,3604.,0.,0.,10032.,0.920995123298,3.42083902939,182.
8.16,6404.,12.,12.,3603.,0.,0.,10031.,0.920799368113,3.99013059516,156.
8.18,6402.,15.,10.,3605.,0.,0.,10032.,0.920420040486,3.19078947368,195.
8.2,6403.,19.,1.,3613.,0.,0.,10036.,0.920196906521,2.5184336389,247.
8.22,6411.,13.,5.,3610.,0.,0.,10039.,0.921071283533,3.68428513413,169.
8.24,6409.,11.,4.,3616.,0.,0.,10040.,0.920692231076,4.35236327418,143.
8.26,6419.,8.,6.,3608.,0.,0.,10041.,0.922036956172,5.99324021512,104.
8.28,6418.,11.,5.,3604.,0.,0.,10038.,0.922168835349,4.35934358529,143.
8.3,6413.,10.,4.,3606.,0.,0.,10033.,0.921909621327,4.7939300309,130.
8.32,6413.,13.,7.,3602.,0.,0.,10035.,0.921725882488,3.68690352995,169.
8.34,6409.,19.,0.,3607.,0.,0.,10035.,0.921150971599,2.52104476438,247.
8.36,6412.,17.,2.,3606.,0.,0.,10037.,0.921398517792,2.81839546619,221.
8.38,6423.,12.,4.,3605.,0.,0.,10044.,0.922335952578,3.99678912784,156.
8.4,6429.,5.,8.,3599.,0.,0.,10041.,0.923473374549,9.60412309531,65.
8.42,6437.,6.,1.,3598.,0.,0.,10042.,0.924530433717,8.01259709221,78.
8.44,6447.,8.,1.,3586.,0.,0.,10042.,0.925966709053,6.01878360884,104.
8.46,6454.,9.,2.,3580.,0.,0.,10045.,0.926695255964,5.35423925668,117.
8.48,6454.,6.,7.,3575.,0.,0.,10042.,0.926972101788,8.03375821549,78.
8.5,6463.,8.,6.,3571.,0.,0.,10048.,0.927710451372,6.03011793392,104.
8.52,6463.,14.,3.,3566.,0.,0.,10046.,0.927895143877,3.44646767726,182.
8.54,6469.,11.,7.,3559.,0.,0.,10046.,0.92875656595,4.39048558449,143.
8.56,6469.,12.,5.,3560.,0.,0.,10046.,0.92875656595,4.02461178579,156.
8.58,6480.,12.,3.,3554.,0.,0.,10049.,0.930058099926,4.03025176634,156.
8.6,6487.,10.,4.,3550.,0.,0.,10051.,0.930877524624,4.84056312805,130.
8.62,6501.,6.,7.,3536.,0.,0.,10050.,0.932979334099,8.08582089552,78.
8.64,6504.,11.,6.,3530.,0.,0.,10051.,0.933317006345,4.41204402999,143.
8.66,6503.,11.,4.,3531.,0.,0.,10049.,0.933359232071,4.41224364252,143.
8.68,6514.,10.,4.,3521.,0.,0.,10049.,0.934938034401,4.86167777888,130.
8.7,6515.,9.,5.,3520.,0.,0.,10049.,0.935081561885,5.40269346867,117.
8.72,6531.,4.,9.,3510.,0.,0.,10054.,0.936911829964,12.1798537895,52.
8.74,6528.,10.,3.,3512.,0.,0.,10053.,0.936574616073,4.87018800358,130.
8.76,6532.,10.,5.,3507.,0.,0.,10054.,0.937055286071,4.87268748757,130.
8.78,6537.,9.,10.,3503.,0.,0.,10059.,0.937306430521,5.41554826524,117.
8.8,6531.,11.,10.,3508.,0.,0.,10060.,0.936353035632,4.42639616844,143.
8.82,6527.,19.,10.,3503.,0.,0.,10059.,0.935872582532,2.56133548904,247.
8.84,6522.,25.,7.,3504.,0.,0.,10058.,0.935248634841,1.94531716047,325.
8.86,6519.,19.,15.,3505.,0.,0.,10058.,0.934818437677,2.55845046101,247.
8.88,6508.,28.,7.,3513.,0.,0.,10056.,0.933426656875,1.73350664848,364.
8.9,6506.,27.,15.,3508.,0.,0.,10056.,0.933139801726,1.79715813666,351.
8.92,6497.,29.,12.,3519.,0.,0.,10057.,0.931756296801,1.67073542875,377.
8.94,6488.,30.,12.,3524.,0.,0.,10054.,0.930743217395,1.61328824349,390.
8.96,6482.,28.,16.,3526.,0.,0.,10052.,0.930067495179,1.72726820533,364.
8.98,6462.,35.,11.,3539.,0.,0.,10047.,0.927659232377,1.37823657382,455.
9.,6462.,26.,12.,3548.,0.,0.,10048.,0.927566909603,1.85513381921,338.
9.02,6455.,27.,18.,3549.,0.,0.,10049.,0.926469912812,1.78431242467,351.
9.04,6442.,36.,13.,3559.,0.,0.,10050.,0.924512055109,1.33540630182,468.
9.06,6438.,26.,13.,3572.,0.,0.,10049.,0.924029945574,1.84805989115,338.
9.08,6428.,25.,16.,3579.,0.,0.,10048.,0.922686489466,1.91918789809,325.
9.1,6418.,26.,21.,3581.,0.,0.,10046.,0.921434478323,1.84286895665,338.
9.12,6406.,39.,15.,3588.,0.,0.,10048.,0.919528570554,1.22603809407,507.
9.14,6403.,35.,15.,3597.,0.,0.,10050.,0.918915040184,1.36524520256,455.
9.16,6389.,39.,18.,3603.,0.,0.,10049.,0.916997098831,1.22266279844,507.
9.18,6377.,39.,14.,3617.,0.,0.,10047.,0.915456967637,1.22060929018,507.
9.2,6380.,28.,25.,3615.,0.,0.,10048.,0.915796484566,1.70076489991,364.
9.22,6371.,29.,17.,3630.,0.,0.,10047.,0.914595631302,1.63996458027,377.
9.24,6371.,22.,9.,3644.,0.,0.,10046.,0.914686672078,2.16198667946,286.
9.26,6366.,21.,10.,3648.,0.,0.,10045.,0.914059807788,2.26338619071,273.
9.28,6365.,22.,7.,3652.,0.,0.,10046.,0.913825250004,2.15995059092,286.
9.3,6364.,21.,7.,3648.,0.,0.,10040.,0.914227704566,2.26380193512,273.
9.32,6367.,15.,8.,3651.,0.,0.,10041.,0.914567580612,3.17050094612,195.
9.34,6369.,18.,7.,3649.,0.,0.,10043.,0.914672676721,2.64238773275,234.
9.36,6365.,23.,6.,3648.,0.,0.,10042.,0.914189251298,2.06686265511,299.
9.38,6367.,20.,2.,3655.,0.,0.,10044.,0.914294412278,2.37716547192,260.
9.4,6372.,16.,4.,3652.,0.,0.,10044.,0.915012406948,2.97379032258,208.
9.42,6373.,14.,11.,3648.,0.,0.,10046.,0.914973812769,3.39847416171,182.
9.44,6374.,14.,9.,3650.,0.,0.,10047.,0.915026299469,3.39866911231,182.
9.46,6370.,20.,9.,3648.,0.,0.,10047.,0.914452075246,2.37757539564,260.
9.48,6376.,14.,10.,3651.,0.,0.,10051.,0.914949143981,3.39838253479,182.
9.5,6383.,14.,5.,3652.,0.,0.,10054.,0.915680326238,3.4010983546,182.
9.52,6386.,13.,4.,3649.,0.,0.,10052.,0.91629296887,3.66517187548,169.
9.54,6387.,7.,5.,3648.,0.,0.,10047.,0.916892528194,6.81120163802,91.
9.56,6387.,9.,0.,3651.,0.,0.,10047.,0.916892528194,5.29760127401,117.
9.58,6390.,10.,3.,3639.,0.,0.,10042.,0.917779939638,4.77245568612,130.
9.6,6396.,13.,1.,3635.,0.,0.,10045.,0.918367346939,3.67346938776,169.
9.62,6399.,11.,3.,3629.,0.,0.,10042.,0.91907258744,4.34470677699,143.
9.64,6404.,8.,8.,3623.,0.,0.,10043.,0.919699139852,5.97804440904,104.
9.66,6406.,10.,6.,3622.,0.,0.,10044.,0.919894770701,4.78345280765,130.
9.68,6407.,12.,5.,3619.,0.,0.,10043.,0.920129979549,3.98722991138,156.
9.7,6422.,11.,1.,3610.,0.,0.,10044.,0.922192353644,4.35945476268,143.
9.72,6424.,12.,3.,3602.,0.,0.,10041.,0.92275516536,3.99860571656,156.
9.74,6424.,11.,10.,3599.,0.,0.,10044.,0.922479551512,4.36081242533,143.
9.76,6435.,9.,10.,3591.,0.,0.,10045.,0.923967147835,5.33847685416,117.
9.78,6435.,20.,7.,3586.,0.,0.,10048.,0.923691281847,2.4015973328,260.
9.8,6432.,20.,4.,3589.,0.,0.,10045.,0.92353639392,2.40119462419,260.
9.82,6435.,17.,8.,3582.,0.,0.,10042.,0.92424317865,2.82709678175,221.
9.84,6432.,13.,15.,3579.,0.,0.,10039.,0.924088363076,3.69635345231,169.
9.86,6428.,18.,3.,3590.,0.,0.,10039.,0.923513681258,2.66792841252,234.
9.88,6429.,19.,4.,3586.,0.,0.,10038.,0.923749367787,2.52815616447,247.
9.9,6435.,16.,6.,3581.,0.,0.,10038.,0.92461147639,3.00498729827,208.
9.92,6437.,13.,7.,3584.,0.,0.,10041.,0.924622509251,3.698490037,169.
9.94,6442.,11.,0.,3585.,0.,0.,10038.,0.92561726976,4.37564527523,143.
9.96,6447.,8.,3.,3579.,0.,0.,10037.,0.926427985684,6.02178190694,104.
9.98,6453.,7.,0.,3576.,0.,0.,10036.,0.927382576571,6.88912771167,91.
10.,6461.,5.,1.,3570.,0.,0.,10037.,0.92843977284,9.65577363754,65.
