t,s,e,i,r,c,o,n,reff,coal,reportr
5.,6250.,5.,3.,3734.,0.,0.,9992.,0.902164038923,9.3825060048,65.
5.02,6261.,3.,5.,3723.,0.,0.,9992.,0.903751847632,15.6650320256,39.
5.04,6265.,4.,5.,3720.,0.,0.,9994.,0.904148258186,11.7539273564,52.
5.06,6267.,11.,5.,3715.,0.,0.,9998.,0.904075045778,4.27380930732,143.
5.08,6265.,13.,6.,3718.,0.,0.,10002.,0.903425084214,3.61370033686,169.
5.1,6267.,12.,5.,3719.,0.,0.,10003.,0.903623143826,3.91570028991,156.
5.12,6262.,8.,12.,3717.,0.,0.,9999.,0.903263403263,5.87121212121,104.
5.14,6269.,11.,3.,3714.,0.,0.,9997.,0.904454028516,4.27560086208,143.
5.16,6270.,12.,7.,3710.,0.,0.,9999.,0.904417364813,3.91914191419,156.
5.18,6261.,17.,9.,3710.,0.,0.,9997.,0.903299836105,2.76303479279,221.
5.2,6256.,14.,7.,3719.,0.,0.,9996.,0.902668759812,3.3527696793,182.
5.22,6255.,15.,9.,3718.,0.,0.,9997.,0.902434191796,3.12843853156,195.
5.24,6257.,12.,8.,3719.,0.,0.,9996.,0.902813048296,3.91218987595,156.
5.26,6257.,12.,4.,3721.,0.,0.,9994.,0.902993719309,3.91297278367,156.
5.28,6265.,12.,0.,3718.,0.,0.,9995.,0.90405779813,3.9175837919,156.
5.3,6274.,7.,6.,3707.,0.,0.,9994.,0.905447114422,6.72617856428,91.
5.32,6270.,11.,4.,3713.,0.,0.,9998.,0.904507824642,4.27585517103,143.
5.34,6276.,8.,5.,3710.,0.,0.,9999.,0.905282835976,5.88433843384,104.
5.36,6273.,11.,5.,3708.,0.,0.,9997.,0.905031124722,4.27832895323,143.
5.38,6277.,10.,7.,3703.,0.,0.,9997.,0.905608220928,4.70916274882,130.
5.4,6280.,12.,1.,3705.,0.,0.,9998.,0.905950420853,3.92578515703,156.
5.42,6290.,11.,0.,3694.,0.,0.,9995.,0.907665371147,4.29078175451,143.
5.44,6299.,6.,4.,3685.,0.,0.,9994.,0.909055048414,7.87847708625,78.
5.46,6301.,12.,0.,3686.,0.,0.,9999.,0.90888896582,3.93851885189,156.
5.48,6309.,8.,4.,3678.,0.,0.,9999.,0.91004292737,5.9152790279,104.
5.5,6318.,8.,1.,3676.,0.,0.,10003.,0.910976706988,5.92134859542,104.
5.52,6333.,8.,2.,3667.,0.,0.,10010.,0.912500960578,5.93125624376,104.
5.54,6333.,8.,3.,3658.,0.,0.,10002.,0.913230815375,5.93600029994,104.
5.56,6336.,6.,4.,3655.,0.,0.,10001.,0.913754778368,7.91920807919,78.
5.58,6341.,4.,7.,3651.,0.,0.,10003.,0.914293019786,11.8858092572,52.
5.6,6342.,8.,1.,3652.,0.,0.,10003.,0.914437207299,5.94384184745,104.
5.62,6346.,8.,1.,3646.,0.,0.,10001.,0.915196941844,5.94878012199,104.
5.64,6353.,5.,2.,3642.,0.,0.,10002.,0.916114853952,9.5275944811,65.
5.66,6363.,3.,2.,3637.,0.,0.,10005.,0.917281743744,15.8995502249,39.
5.68,6371.,4.,0.,3632.,0.,0.,10007.,0.918251454751,11.9372689118,52.
5.7,6379.,4.,1.,3622.,0.,0.,10006.,0.919496379096,11.9534529282,52.
5.72,6386.,2.,3.,3614.,0.,0.,10005.,0.920597393611,23.9355322339,26.
5.74,6388.,9.,3.,3608.,0.,0.,10008.,0.920609666113,5.31907807088,117.
5.76,6394.,7.,3.,3605.,0.,0.,10009.,0.921382294397,6.84455418695,91.
5.78,6395.,6.,1.,3605.,0.,0.,10007.,0.92171057183,7.9881582892,78.
5.8,6401.,6.,5.,3599.,0.,0.,10011.,0.922206726447,7.99245829587,78.
5.82,6404.,7.,5.,3595.,0.,0.,10011.,0.922638943316,6.85388929321,91.
5.84,6410.,10.,3.,3584.,0.,0.,10007.,0.923872520005,4.80413710403,130.
5.86,6406.,14.,2.,3587.,0.,0.,10009.,0.923111507336,3.42869988439,182.
5.88,6408.,13.,3.,3582.,0.,0.,10006.,0.923676563293,3.69470625317,169.
5.9,6400.,12.,4.,3585.,0.,0.,10001.,0.922984624614,3.99960004,156.
5.92,6401.,10.,9.,3582.,0.,0.,10002.,0.923036546537,4.79979004199,130.
5.94,6397.,13.,7.,3583.,0.,0.,10000.,0.922644230769,3.69057692308,169.
5.96,6392.,19.,5.,3582.,0.,0.,9998.,0.922107498423,2.52366262726,247.
5.98,6396.,15.,8.,3578.,0.,0.,9997.,0.92277683305,3.19895968791,195.
6.,6395.,18.,10.,3572.,0.,0.,9995.,0.92281717782,2.66591629148,234.
6.02,6403.,18.,10.,3565.,0.,0.,9996.,0.923879167051,2.66898426037,234.
6.04,6404.,15.,8.,3570.,0.,0.,9997.,0.923931025461,3.20296088827,195.
6.06,6406.,18.,6.,3568.,0.,0.,9998.,0.924127133119,2.66970060679,234.
6.08,6412.,15.,5.,3565.,0.,0.,9997.,0.925085217873,3.20696208863,195.
6.1,6422.,11.,6.,3560.,0.,0.,9999.,0.926342634263,4.37907427106,143.
6.12,6424.,10.,4.,3566.,0.,0.,10004.,0.926167994341,4.81607357057,130.
6.14,6422.,11.,4.,3565.,0.,0.,10002.,0.926064787043,4.37776081147,143.
6.16,6423.,12.,0.,3568.,0.,0.,10003.,0.92611639585,4.01317104869,156.
6.18,6428.,10.,2.,3562.,0.,0.,10002.,0.926929998616,4.8200359928,130.
6.2,6431.,10.,5.,3557.,0.,0.,10003.,0.927269895954,4.82180345896,130.
6.22,6443.,8.,4.,3552.,0.,0.,10007.,0.92862880599,6.03608723893,104.
6.24,6449.,4.,1.,3553.,0.,0.,10007.,0.92949358526,12.0834166084,52.
6.26,6450.,5.,1.,3551.,0.,0.,10007.,0.929637715138,9.66823223743,65.
6.28,6453.,4.,4.,3546.,0.,0.,10007.,0.930070104773,12.090911362,52.
6.3,6456.,8.,3.,3544.,0.,0.,10011.,0.930130702381,6.04584956548,104.
6.32,6453.,12.,3.,3542.,0.,0.,10010.,0.929791362484,4.0290959041,156.
6.34,6455.,8.,8.,3537.,0.,0.,10008.,0.930265403062,6.0467251199,104.
6.36,6457.,8.,2.,3542.,0.,0.,10009.,0.930460662327,6.04799430513,104.
6.38,6475.,6.,3.,3526.,0.,0.,10010.,0.9329612695,8.08566433566,78.
6.4,6478.,7.,3.,3523.,0.,0.,10011.,0.933300292755,6.93308788904,91.
6.42,6483.,6.,5.,3516.,0.,0.,10010.,0.93411396296,8.09565434565,78.
6.44,6477.,11.,2.,3518.,0.,0.,10008.,0.933435943553,4.41260627861,143.
6.46,6473.,9.,6.,3520.,0.,0.,10008.,0.932859481645,5.38985478284,117.
6.48,6474.,7.,3.,3520.,0.,0.,10004.,0.93337664934,6.93365510938,91.
6.5,6484.,3.,3.,3517.,0.,0.,10007.,0.934538131001,16.1986609373,39.
6.52,6484.,5.,0.,3515.,0.,0.,10004.,0.93481838034,9.72211115554,65.
6.54,6491.,4.,2.,3508.,0.,0.,10005.,0.935734056049,12.1645427286,52.
6.56,6494.,5.,3.,3504.,0.,0.,10006.,0.936072971602,9.73515890466,65.
6.58,6497.,9.,2.,3498.,0.,0.,10006.,0.93650540445,5.4109201146,117.
6.6,6498.,9.,7.,3493.,0.,0.,10007.,0.936555949297,5.41121215149,117.
6.62,6498.,12.,2.,3496.,0.,0.,10008.,0.936462368567,4.05800359712,156.
6.64,6489.,13.,6.,3497.,0.,0.,10005.,0.935445738669,3.74178295468,169.
6.66,6501.,13.,4.,3486.,0.,0.,10004.,0.93726932304,3.74907729216,169.
6.68,6506.,9.,7.,3482.,0.,0.,10004.,0.93799018854,5.41949886712,117.
6.7,6512.,14.,5.,3471.,0.,0.,10002.,0.939042960639,3.4878738538,182.
6.72,6507.,13.,10.,3470.,0.,0.,10000.,0.938509615385,3.75403846154,169.
6.74,6509.,14.,7.,3473.,0.,0.,10003.,0.938516521966,3.48591851016,182.
6.76,6509.,15.,6.,3474.,0.,0.,10004.,0.93842270784,3.25319872051,195.
6.78,6509.,16.,3.,3476.,0.,0.,10004.,0.93842270784,3.04987380048,208.
6.8,6508.,15.,6.,3476.,0.,0.,10005.,0.938184753777,3.25237381309,195.
6.82,6508.,15.,9.,3473.,0.,0.,10005.,0.938184753777,3.25237381309,195.
6.84,6511.,14.,10.,3469.,0.,0.,10004.,0.93871105404,3.48664105786,182.
6.86,6514.,15.,6.,3470.,0.,0.,10005.,0.939049705916,3.25537231384,195.
6.88,6515.,15.,6.,3471.,0.,0.,10007.,0.939006157228,3.25522134506,195.
6.9,6515.,10.,10.,3472.,0.,0.,10007.,0.939006157228,4.88283201759,130.
6.92,6512.,8.,2.,3482.,0.,0.,10004.,0.93885522714,6.10255897641,104.
6.94,6512.,9.,4.,3482.,0.,0.,10007.,0.938573767593,5.42287065721,117.
6.96,6515.,8.,1.,3481.,0.,0.,10005.,0.939193864606,6.10476011994,104.
6.98,6522.,6.,2.,3478.,0.,0.,10008.,0.939921140011,8.14598321343,78.
7.,6526.,9.,1.,3475.,0.,0.,10011.,0.940215762661,5.43235773982,117.
7.02,6530.,6.,4.,3470.,0.,0.,10010.,0.94088603704,8.15434565435,78.
7.04,6532.,7.,1.,3468.,0.,0.,10008.,0.94136229478,6.99297704693,91.
7.06,6543.,5.,1.,3460.,0.,0.,10009.,0.942853355057,9.8056748926,65.
7.08,6545.,6.,1.,3456.,0.,0.,10008.,0.943235795979,8.17471023181,78.
7.1,6542.,9.,1.,3452.,0.,0.,10004.,0.94318042014,5.44948687192,117.
7.12,6555.,6.,3.,3440.,0.,0.,10004.,0.94505467044,8.19047381048,78.
7.14,6555.,7.,2.,3439.,0.,0.,10003.,0.945149147563,7.02110795333,91.
7.16,6561.,4.,4.,3435.,0.,0.,10004.,0.945919709039,12.2969562175,52.
7.18,6563.,6.,2.,3433.,0.,0.,10004.,0.946208055239,8.20046981208,78.
7.2,6570.,5.,2.,3429.,0.,0.,10006.,0.947027937084,9.84909054567,65.
7.22,6569.,4.,4.,3426.,0.,0.,10003.,0.947167772745,12.3131810457,52.
7.24,6568.,7.,5.,3424.,0.,0.,10004.,0.946928920739,7.03432912549,91.
7.26,6574.,5.,6.,3415.,0.,0.,10000.,0.948173076923,9.861,65.
7.28,6579.,4.,2.,3413.,0.,0.,9998.,0.949084047579,12.3380926185,52.
7.3,6587.,4.,2.,3404.,0.,0.,9997.,0.950333176876,12.3543312994,52.
7.32,6604.,5.,0.,3391.,0.,0.,10000.,0.9525,9.906,65.
7.34,6611.,6.,2.,3380.,0.,0.,9999.,0.953604975882,8.26457645765,78.
7.36,6626.,8.,2.,3366.,0.,0.,10002.,0.955481980527,6.21063287343,104.
7.38,6625.,9.,2.,3364.,0.,0.,10000.,0.955528846154,5.52083333333,117.
7.4,6631.,9.,1.,3360.,0.,0.,10001.,0.956298600909,5.52528080525,117.
7.42,6636.,9.,3.,3351.,0.,0.,9999.,0.957211105726,5.53055305531,117.
7.44,6636.,11.,3.,3348.,0.,0.,9998.,0.957306845985,4.52545054465,143.
7.46,6637.,8.,5.,3348.,0.,0.,9998.,0.957451105606,6.22343218644,104.
7.48,6634.,9.,2.,3350.,0.,0.,9995.,0.957305575865,5.53109888277,117.
7.5,6633.,6.,2.,3353.,0.,0.,9994.,0.957257046536,8.29622773664,78.
7.52,6630.,7.,4.,3351.,0.,0.,9992.,0.95701561249,7.10925883564,91.
7.54,6627.,11.,7.,3343.,0.,0.,9988.,0.956965666492,4.52383769614,143.
7.56,6623.,17.,9.,3342.,0.,0.,9991.,0.956100875403,2.92454385417,221.
7.58,6620.,20.,14.,3336.,0.,0.,9990.,0.955763455763,2.48498498498,260.
7.6,6613.,20.,12.,3343.,0.,0.,9988.,0.954944009735,2.48285442531,260.
7.62,6613.,16.,12.,3345.,0.,0.,9986.,0.955135266296,3.10418961546,208.
7.64,6613.,17.,8.,3345.,0.,0.,9983.,0.955422294824,2.92246819593,221.
7.66,6616.,21.,3.,3342.,0.,0.,9982.,0.955951481898,2.36711795518,273.
7.68,6621.,16.,5.,3339.,0.,0.,9981.,0.95676978567,3.10950180343,208.
7.7,6617.,19.,6.,3338.,0.,0.,9980.,0.95628757515,2.61720810041,247.
7.72,6619.,16.,5.,3339.,0.,0.,9979.,0.956672473733,3.10918553963,208.
7.74,6618.,12.,6.,3345.,0.,0.,9981.,0.956336269682,4.14412383529,156.
7.76,6627.,6.,2.,3345.,0.,0.,9980.,0.957732773239,8.3003507014,78.
7.78,6638.,8.,1.,3334.,0.,0.,9981.,0.959226376269,6.23497144575,104.
7.8,6646.,8.,2.,3330.,0.,0.,9986.,0.959901554484,6.23936010415,104.
7.82,6645.,6.,2.,3330.,0.,0.,9983.,0.960045538955,8.32039467094,78.
7.84,6651.,6.,3.,3322.,0.,0.,9982.,0.961008661745,8.32874173512,78.
7.86,6650.,7.,4.,3322.,0.,0.,9983.,0.96076792085,7.13713312631,91.
7.88,6651.,6.,3.,3323.,0.,0.,9983.,0.960912397229,8.32790744265,78.
7.9,6661.,7.,1.,3318.,0.,0.,9987.,0.961971717078,7.14607561258,91.
7.92,6669.,7.,2.,3310.,0.,0.,9988.,0.963030636764,7.1539418731,91.
7.94,6676.,3.,3.,3309.,0.,0.,9991.,0.963751992178,16.7050345311,39.
7.96,6677.,4.,3.,3310.,0.,0.,9994.,0.96360701036,12.5268911347,52.
7.98,6677.,10.,4.,3301.,0.,0.,9992.,0.963799886063,5.01175940753,130.
8.,6683.,7.,4.,3296.,0.,0.,9990.,0.964859089859,7.16752466752,91.
8.02,6684.,9.,4.,3290.,0.,0.,9987.,0.965293342884,5.57725042555,117.
8.04,6693.,12.,1.,3282.,0.,0.,9988.,0.966496334062,4.18815078094,156.
8.06,6704.,12.,2.,3271.,0.,0.,9989.,0.967987863573,4.19461407548,156.
8.08,6712.,9.,6.,3266.,0.,0.,9993.,0.968755051613,5.59725140932,117.
8.1,6708.,13.,5.,3267.,0.,0.,9993.,0.968177724407,3.87271089763,169.
8.12,6705.,13.,7.,3265.,0.,0.,9990.,0.968035343035,3.87214137214,169.
8.14,6711.,10.,6.,3265.,0.,0.,9992.,0.968707658434,5.03727982386,130.
8.16,6707.,14.,6.,3263.,0.,0.,9990.,0.968324093324,3.59663234663,182.
8.18,6708.,14.,12.,3258.,0.,0.,9992.,0.968274619696,3.59644858744,182.
8.2,6694.,30.,4.,3265.,0.,0.,9993.,0.966157079186,1.67467227059,390.
8.22,6695.,28.,8.,3262.,0.,0.,9993.,0.966301410988,1.79455976326,364.
8.24,6691.,26.,8.,3269.,0.,0.,9994.,0.965627453395,1.93125490679,338.
8.26,6691.,23.,9.,3273.,0.,0.,9996.,0.965434250623,2.18272091445,299.
8.28,6694.,21.,7.,3272.,0.,0.,9994.,0.966060405474,2.39214957546,273.
8.3,6690.,17.,15.,3272.,0.,0.,9994.,0.965483136035,2.95324253376,221.
8.32,6682.,19.,11.,3283.,0.,0.,9995.,0.964232116058,2.63895105447,247.
8.34,6676.,17.,13.,3289.,0.,0.,9995.,0.963366298534,2.9467675014,221.
8.36,6665.,22.,8.,3296.,0.,0.,9991.,0.962164024545,2.2742058762,286.
8.38,6663.,20.,12.,3296.,0.,0.,9991.,0.961875303157,2.50087578821,260.
8.4,6673.,17.,9.,3294.,0.,0.,9993.,0.963126111355,2.9460328112,221.
8.42,6668.,18.,8.,3296.,0.,0.,9990.,0.962693462693,2.78111444778,234.
8.44,6656.,21.,15.,3295.,0.,0.,9987.,0.961249624512,2.38023716546,273.
8.46,6645.,27.,9.,3303.,0.,0.,9984.,0.959949380547,1.84879139957,351.
8.48,6637.,26.,14.,3306.,0.,0.,9983.,0.958889727922,1.91777945584,338.
8.5,6622.,34.,13.,3312.,0.,0.,9981.,0.956914290999,1.46351597447,442.
8.52,6615.,32.,14.,3317.,0.,0.,9978.,0.956190156807,1.55380900481,416.
8.54,6601.,35.,16.,3329.,0.,0.,9981.,0.953879679083,1.41719266607,455.
8.56,6585.,33.,15.,3346.,0.,0.,9979.,0.951758307831,1.49974036386,429.
8.58,6582.,32.,12.,3355.,0.,0.,9981.,0.951134077825,1.54559287647,416.
8.6,6573.,29.,17.,3363.,0.,0.,9982.,0.949738375229,1.70297915558,377.
8.62,6564.,33.,13.,3372.,0.,0.,9982.,0.948437957554,1.49450829675,429.
8.64,6560.,26.,22.,3378.,0.,0.,9986.,0.9474803186,1.8949606372,338.
8.66,6546.,38.,13.,3388.,0.,0.,9985.,0.945552944802,1.29391455604,494.
8.68,6537.,33.,10.,3404.,0.,0.,9984.,0.944347494453,1.48806271853,429.
8.7,6532.,28.,10.,3415.,0.,0.,9985.,0.943530680636,1.75227126404,364.
8.72,6525.,21.,18.,3421.,0.,0.,9985.,0.942519548554,2.33385792975,273.
8.74,6514.,30.,19.,3425.,0.,0.,9988.,0.940648008379,1.63045654786,390.
8.76,6500.,35.,21.,3431.,0.,0.,9987.,0.938720336437,1.39467021414,455.
8.78,6492.,30.,14.,3452.,0.,0.,9988.,0.937471119189,1.62494993993,390.
8.8,6483.,27.,16.,3463.,0.,0.,9989.,0.936077762462,1.80281643141,351.
8.82,6478.,38.,15.,3459.,0.,0.,9990.,0.935262185262,1.27983246404,494.
8.84,6464.,41.,18.,3466.,0.,0.,9989.,0.933334360104,1.18374113964,533.
8.86,6445.,45.,16.,3482.,0.,0.,9988.,0.930684128647,1.07545721533,585.
8.88,6434.,43.,25.,3489.,0.,0.,9991.,0.928816704265,1.12322020051,559.
8.9,6408.,45.,24.,3510.,0.,0.,9987.,0.925433833214,1.06939020727,585.
8.92,6402.,39.,21.,3527.,0.,0.,9989.,0.924382205041,1.23250960672,507.
8.94,6392.,41.,21.,3537.,0.,0.,9991.,0.922753555123,1.17032158211,533.
8.96,6381.,33.,20.,3557.,0.,0.,9991.,0.92116558749,1.45153365301,429.
8.98,6371.,34.,21.,3565.,0.,0.,9991.,0.919721980552,1.40663361731,442.
9.,6358.,31.,22.,3580.,0.,0.,9991.,0.917845291532,1.53961145676,403.
9.02,6333.,32.,21.,3600.,0.,0.,9986.,0.914694033185,1.48637780393,416.
9.04,6329.,34.,16.,3605.,0.,0.,9984.,0.91429941753,1.39834028563,442.
9.06,6312.,31.,20.,3623.,0.,0.,9986.,0.911660940702,1.52923770698,403.
9.08,6293.,44.,17.,3630.,0.,0.,9984.,0.909098788831,1.07438947771,572.
9.1,6291.,39.,17.,3637.,0.,0.,9984.,0.908809865015,1.21174648669,507.
9.12,6282.,31.,24.,3647.,0.,0.,9984.,0.90750970784,1.52227434864,403.
9.14,6287.,26.,20.,3656.,0.,0.,9989.,0.907777401295,1.81555480259,338.
9.16,6277.,31.,22.,3661.,0.,0.,9991.,0.906152075329,1.51999702958,403.
9.18,6263.,33.,19.,3676.,0.,0.,9991.,0.904131025615,1.42469131309,429.
9.2,6262.,28.,20.,3684.,0.,0.,9994.,0.903715306107,1.67832842563,364.
9.22,6250.,26.,22.,3695.,0.,0.,9993.,0.902073759324,1.80414751865,338.
9.24,6242.,30.,16.,3707.,0.,0.,9995.,0.900738830954,1.56128064032,390.
9.26,6233.,31.,15.,3719.,0.,0.,9998.,0.899170218659,1.50828552807,403.
9.28,6223.,35.,6.,3733.,0.,0.,9997.,0.89781742215,1.33390017005,455.
9.3,6225.,27.,13.,3728.,0.,0.,9993.,0.898465464287,1.73037793122,351.
9.32,6224.,26.,9.,3735.,0.,0.,9994.,0.89823124644,1.79646249288,338.
9.34,6220.,27.,2.,3744.,0.,0.,9993.,0.897743805279,1.72898806943,351.
9.36,6218.,23.,9.,3741.,0.,0.,9991.,0.897634794392,2.02943518732,299.
9.38,6217.,20.,9.,3741.,0.,0.,9987.,0.897849897174,2.33440973265,260.
9.4,6215.,19.,5.,3751.,0.,0.,9990.,0.897291522292,2.4557452189,247.
9.42,6221.,17.,6.,3746.,0.,0.,9990.,0.898157773158,2.74730612966,221.
9.44,6220.,17.,10.,3743.,0.,0.,9990.,0.898013398013,2.74686451157,221.
9.46,6204.,20.,10.,3751.,0.,0.,9985.,0.896151920188,2.32999499249,260.
9.48,6200.,23.,7.,3758.,0.,0.,9988.,0.895305135393,2.02416813219,299.
9.5,6199.,15.,15.,3759.,0.,0.,9988.,0.895160731339,3.10322386864,195.
9.52,6195.,18.,15.,3763.,0.,0.,9991.,0.894314498433,2.5835752177,234.
9.54,6191.,19.,11.,3770.,0.,0.,9991.,0.893737055658,2.44601720496,247.
9.56,6191.,18.,7.,3775.,0.,0.,9991.,0.893737055658,2.58190704968,234.
9.58,6194.,16.,12.,3771.,0.,0.,9993.,0.89399117844,2.90547132993,208.
9.6,6189.,24.,9.,3772.,0.,0.,9994.,0.893180138853,1.93522363418,312.
9.62,6191.,21.,13.,3768.,0.,0.,9993.,0.893558183036,2.21262026276,273.
9.64,6188.,17.,9.,3772.,0.,0.,9986.,0.893751251752,2.7338273583,221.
9.66,6187.,23.,7.,3769.,0.,0.,9986.,0.893606818777,2.02032845984,299.
9.68,6190.,24.,9.,3765.,0.,0.,9988.,0.893861094852,1.93669903885,312.
9.7,6189.,22.,11.,3766.,0.,0.,9988.,0.893716690798,2.11242126916,286.
9.72,6189.,22.,5.,3769.,0.,0.,9985.,0.893985208582,2.11305594756,286.
9.74,6193.,14.,5.,3770.,0.,0.,9982.,0.894831851178,3.32366116152,182.
9.76,6201.,10.,9.,3763.,0.,0.,9983.,0.895898026645,4.65866973856,130.
9.78,6201.,14.,15.,3752.,0.,0.,9982.,0.895987778,3.327954604,182.
9.8,6199.,17.,9.,3755.,0.,0.,9980.,0.895878295052,2.74033360839,221.
9.82,6194.,15.,13.,3756.,0.,0.,9978.,0.895335121884,3.10382842253,195.
9.84,6188.,23.,11.,3759.,0.,0.,9981.,0.894198978058,2.02166725474,299.
9.86,6180.,25.,11.,3764.,0.,0.,9980.,0.893132418684,1.85771543086,325.
9.88,6184.,23.,5.,3766.,0.,0.,9978.,0.893889634118,2.02096786844,299.
9.9,6189.,25.,5.,3760.,0.,0.,9979.,0.894522728499,1.86060727528,325.
9.92,6186.,20.,15.,3756.,0.,0.,9977.,0.89426835568,2.32509772477,260.
9.94,6190.,17.,14.,3755.,0.,0.,9976.,0.894936308679,2.73745223831,221.
9.96,6182.,16.,15.,3760.,0.,0.,9973.,0.89404854646,2.905657776,208.
9.98,6179.,20.,5.,3767.,0.,0.,9971.,0.893793925461,2.3238642062,260.
10.,6195.,20.,2.,3758.,0.,0.,9975.,0.895748987854,2.32894736842,260.
