t,prevalence
5.,2
5.02,2
5.04,1
5.06,0
5.08,3
5.1,2
5.12,1
5.14,1
5.16,0
5.18,0
5.2,1
5.22,4
5.24,4
5.26,1
5.28,3
5.3,2
5.32,2
5.34,5
5.36,4
5.38,8
5.4,3
5.42,2
5.44,5
5.46,3
5.48,3
5.5,2
5.52,2
5.54,2
5.56,3
5.58,0
5.6,1
5.62,1
5.64,0
5.66,2
5.68,2
5.7,2
5.72,1
5.74,0
5.76,2
5.78,0
5.8,1
5.82,2
5.84,0
5.86,1
5.88,3
5.9,3
5.92,5
5.94,5
5.96,4
5.98,6
6.,1
6.02,3
6.04,3
6.06,5
6.08,5
6.1,4
6.12,2
6.14,0
6.16,4
6.18,2
6.2,2
6.22,3
6.24,1
6.26,3
6.28,7
6.3,4
6.32,1
6.34,9
6.36,3
6.38,1
6.4,7
6.42,3
6.44,4
6.46,4
6.48,3
6.5,3
6.52,6
6.54,9
6.56,5
6.58,8
6.6,10
6.62,8
6.64,9
6.66,5
6.68,6
6.7,11
6.72,4
6.74,6
6.76,7
6.78,11
6.8,7
6.82,9
6.84,5
6.86,10
6.88,5
6.9,7
6.92,1
6.94,1
6.96,1
6.98,1
7.,6
7.02,1
7.04,3
7.06,5
7.08,2
7.1,2
7.12,1
7.14,4
7.16,5
7.18,6
7.2,3
7.22,2
7.24,2
7.26,3
7.28,2
7.3,2
7.32,1
7.34,4
7.36,5
7.38,6
7.4,1
7.42,4
7.44,3
7.46,1
7.48,2
7.5,4
7.52,0
7.54,5
7.56,6
7.58,1
7.6,0
7.62,3
7.64,0
7.66,1
7.68,2
7.7,1
7.72,2
7.74,5
7.76,1
7.78,1
7.8,3
7.82,4
7.84,3
7.86,2
7.88,1
7.9,5
7.92,4
7.94,9
7.96,6
7.98,4
8.,4
8.02,6
8.04,4
8.06,1
8.08,3
8.1,2
8.12,3
8.14,6
8.16,4
8.18,2
8.2,2
8.22,7
8.24,4
8.26,4
8.28,3
8.3,5
8.32,1
8.34,2
8.36,5
8.38,8
8.4,4
8.42,7
8.44,2
8.46,5
8.48,5
8.5,2
8.52,1
8.54,7
8.56,6
8.58,5
8.6,4
8.62,8
8.64,7
8.66,11
8.68,4
8.7,7
8.72,10
8.74,5
8.76,11
8.78,8
8.8,5
8.82,6
8.84,10
8.86,5
8.88,6
8.9,4
8.92,5
8.94,10
8.96,9
8.98,7
9.,9
9.02,9
9.04,8
9.06,5
9.08,9
9.1,12
9.12,7
9.14,6
9.16,2
9.18,8
9.2,10
9.22,10
9.24,4
9.26,11
9.28,6
9.3,9
9.32,4
9.34,8
9.36,7
9.38,2
9.4,3
9.42,3
9.44,6
9.46,2
9.48,4
9.5,1
9.52,1
9.54,3
9.56,4
9.58,2
9.6,4
9.62,5
9.64,2
9.66,2
9.68,11
9.7,1
9.72,4
9.74,4
9.76,3
9.78,2
9.8,0
9.82,2
9.84,1
9.86,4
9.88,1
9.9,0
9.92,3
9.94,1
9.96,3
9.98,0
10.,3
