t,cases
5.01,0.585
5.02,0.585
5.03,0.52
5.04,0.52
5.05,0.65
5.06,0.65
5.07,1.04
5.08,1.04
5.09,1.04
5.1,1.04
5.11,1.04
5.12,1.04
5.13,1.17
5.14,1.17
5.15,0.975
5.16,0.975
5.17,0.975
5.18,0.975
5.19,0.975
5.2,0.975
5.21,1.04
5.22,1.04
5.23,1.105
5.24,1.105
5.25,1.17
5.26,1.17
5.27,1.43
5.28,1.43
5.29,1.495
5.3,1.495
5.31,1.365
5.32,1.365
5.33,1.3
5.34,1.3
5.35,1.365
5.36,1.365
5.37,1.3
5.38,1.3
5.39,1.3
5.4,1.3
5.41,1.3
5.42,1.3
5.43,1.56
5.44,1.56
5.45,2.34
5.46,2.34
5.47,2.145
5.48,2.145
5.49,1.625
5.5,1.625
5.51,1.755
5.52,1.755
5.53,1.82
5.54,1.82
5.55,1.56
5.56,1.56
5.57,1.56
5.58,1.56
5.59,2.145
5.6,2.145
5.61,2.47
5.62,2.47
5.63,2.275
5.64,2.275
5.65,2.145
5.66,2.145
5.67,1.95
5.68,1.95
5.69,1.885
5.7,1.885
5.71,1.95
5.72,1.95
5.73,2.08
5.74,2.08
5.75,2.275
5.76,2.275
5.77,1.755
5.78,1.755
5.79,1.43
5.8,1.43
5.81,1.43
5.82,1.43
5.83,1.17
5.84,1.17
5.85,1.365
5.86,1.365
5.87,1.365
5.88,1.365
5.89,1.105
5.9,1.105
5.91,1.235
5.92,1.235
5.93,1.17
5.94,1.17
5.95,1.105
5.96,1.105
5.97,1.17
5.98,1.17
5.99,1.365
6.,1.365
6.01,1.365
6.02,1.365
6.03,1.625
6.04,1.625
6.05,2.47
6.06,2.47
6.07,2.925
6.08,2.925
6.09,2.405
6.1,2.405
6.11,2.015
6.12,2.015
6.13,2.535
6.14,2.535
6.15,2.6
6.16,2.6
6.17,2.145
6.18,2.145
6.19,2.145
6.2,2.145
6.21,2.47
6.22,2.47
6.23,2.86
6.24,2.86
6.25,2.925
6.26,2.925
6.27,2.86
6.28,2.86
6.29,2.99
6.3,2.99
6.31,2.47
6.32,2.47
6.33,2.47
6.34,2.47
6.35,2.99
6.36,2.99
6.37,2.665
6.38,2.665
6.39,2.34
6.4,2.34
6.41,2.99
6.42,2.99
6.43,3.38
6.44,3.38
6.45,3.185
6.46,3.185
6.47,3.25
6.48,3.25
6.49,3.575
6.5,3.575
6.51,3.575
6.52,3.575
6.53,3.445
6.54,3.445
6.55,3.185
6.56,3.185
6.57,2.925
6.58,2.925
6.59,3.38
6.6,3.38
6.61,3.38
6.62,3.38
6.63,3.12
6.64,3.12
6.65,3.575
6.66,3.575
6.67,3.12
6.68,3.12
6.69,3.12
6.7,3.12
6.71,3.835
6.72,3.835
6.73,3.315
6.74,3.315
6.75,3.185
6.76,3.185
6.77,3.51
6.78,3.51
6.79,3.51
6.8,3.51
6.81,3.315
6.82,3.315
6.83,3.055
6.84,3.055
6.85,3.185
6.86,3.185
6.87,3.445
6.88,3.445
6.89,3.315
6.9,3.315
6.91,3.185
6.92,3.185
6.93,3.38
6.94,3.38
6.95,3.965
6.96,3.965
6.97,4.355
6.98,4.355
6.99,4.03
7.,4.03
7.01,3.185
7.02,3.185
7.03,3.185
7.04,3.185
7.05,3.38
7.06,3.38
7.07,3.445
7.08,3.445
7.09,3.575
7.1,3.575
7.11,3.315
7.12,3.315
7.13,3.315
7.14,3.315
7.15,3.185
7.16,3.185
7.17,3.055
7.18,3.055
7.19,2.6
7.2,2.6
7.21,2.405
7.22,2.405
7.23,2.99
7.24,2.99
7.25,3.12
7.26,3.12
7.27,2.925
7.28,2.925
7.29,2.665
7.3,2.665
7.31,2.34
7.32,2.34
7.33,2.405
7.34,2.405
7.35,2.34
7.36,2.34
7.37,2.21
7.38,2.21
7.39,2.34
7.4,2.34
7.41,2.275
7.42,2.275
7.43,2.145
7.44,2.145
7.45,2.6
7.46,2.6
7.47,2.73
7.48,2.73
7.49,2.535
7.5,2.535
7.51,2.665
7.52,2.665
7.53,2.47
7.54,2.47
7.55,2.405
7.56,2.405
7.57,2.405
7.58,2.405
7.59,2.47
7.6,2.47
7.61,1.82
7.62,1.82
7.63,1.755
7.64,1.755
7.65,2.6
7.66,2.6
7.67,2.6
7.68,2.6
7.69,2.665
7.7,2.665
7.71,2.86
7.72,2.86
7.73,3.055
7.74,3.055
7.75,3.25
7.76,3.25
7.77,3.445
7.78,3.445
7.79,3.965
7.8,3.965
7.81,4.16
7.82,4.16
7.83,4.03
7.84,4.03
7.85,4.355
7.86,4.355
7.87,5.07
7.88,5.07
7.89,5.2
7.9,5.2
7.91,4.42
7.92,4.42
7.93,4.16
7.94,4.16
7.95,3.9
7.96,3.9
7.97,4.225
7.98,4.225
7.99,4.68
8.,4.68
8.01,4.68
8.02,4.68
8.03,4.875
8.04,4.875
8.05,4.42
8.06,4.42
8.07,3.705
8.08,3.705
8.09,3.77
8.1,3.77
8.11,4.03
8.12,4.03
8.13,3.51
8.14,3.51
8.15,2.99
8.16,2.99
8.17,2.795
8.18,2.795
8.19,2.535
8.2,2.535
8.21,2.535
8.22,2.535
8.23,2.47
8.24,2.47
8.25,2.21
8.26,2.21
8.27,2.015
8.28,2.015
8.29,2.145
8.3,2.145
8.31,2.405
8.32,2.405
8.33,2.34
8.34,2.34
8.35,2.34
8.36,2.34
8.37,1.885
8.38,1.885
8.39,1.625
8.4,1.625
8.41,1.95
8.42,1.95
8.43,1.625
8.44,1.625
8.45,1.43
8.46,1.43
8.47,1.625
8.48,1.625
8.49,1.625
8.5,1.625
8.51,1.82
8.52,1.82
8.53,2.145
8.54,2.145
8.55,2.665
8.56,2.665
8.57,2.6
8.58,2.6
8.59,2.86
8.6,2.86
8.61,2.86
8.62,2.86
8.63,2.21
8.64,2.21
8.65,1.625
8.66,1.625
8.67,1.56
8.68,1.56
8.69,1.95
8.7,1.95
8.71,2.145
8.72,2.145
8.73,2.535
8.74,2.535
8.75,2.665
8.76,2.665
8.77,2.275
8.78,2.275
8.79,2.34
8.8,2.34
8.81,2.275
8.82,2.275
8.83,1.755
8.84,1.755
8.85,2.21
8.86,2.21
8.87,2.015
8.88,2.015
8.89,1.3
8.9,1.3
8.91,1.43
8.92,1.43
8.93,1.625
8.94,1.625
8.95,1.365
8.96,1.365
8.97,1.3
8.98,1.3
8.99,1.69
9.,1.69
9.01,1.885
9.02,1.885
9.03,1.69
9.04,1.69
9.05,1.495
9.06,1.495
9.07,1.43
9.08,1.43
9.09,1.105
9.1,1.105
9.11,0.975
9.12,0.975
9.13,0.975
9.14,0.975
9.15,0.65
9.16,0.65
9.17,1.04
9.18,1.04
9.19,1.3
9.2,1.3
9.21,0.975
9.22,0.975
9.23,0.975
9.24,0.975
9.25,0.78
9.26,0.78
9.27,0.585
9.28,0.585
9.29,0.715
9.3,0.715
9.31,0.975
9.32,0.975
9.33,1.105
9.34,1.105
9.35,1.04
9.36,1.04
9.37,1.04
9.38,1.04
9.39,1.04
9.4,1.04
9.41,0.78
9.42,0.78
9.43,0.845
9.44,0.845
9.45,1.105
9.46,1.105
9.47,1.105
9.48,1.105
9.49,1.3
9.5,1.3
9.51,1.43
9.52,1.43
9.53,1.56
9.54,1.56
9.55,1.755
9.56,1.755
9.57,1.365
9.58,1.365
9.59,1.69
9.6,1.69
9.61,2.405
9.62,2.405
9.63,2.21
9.64,2.21
9.65,2.21
9.66,2.21
9.67,2.795
9.68,2.795
9.69,2.795
9.7,2.795
9.71,2.73
9.72,2.73
9.73,2.86
9.74,2.86
9.75,2.795
9.76,2.795
9.77,2.6
9.78,2.6
9.79,2.6
9.8,2.6
9.81,2.535
9.82,2.535
9.83,2.47
9.84,2.47
9.85,2.535
9.86,2.535
9.87,1.755
9.88,1.755
9.89,1.365
9.9,1.365
9.91,1.56
9.92,1.56
9.93,1.495
9.94,1.495
9.95,1.04
9.96,1.04
9.97,0.845
9.98,0.845
9.99,1.04
10.,1.04
