t,s,e,i,r,c,o,n,reff,coal,reportr
5.,6250.,5.,3.,3734.,0.,0.,9992.,0.902164038923,9.3825060048,65.
5.02,6250.,8.,1.,3732.,0.,0.,9991.,0.902254336595,5.86465318787,104.
5.04,6253.,6.,5.,3725.,0.,0.,9989.,0.90286815497,7.82485734308,78.
5.06,6253.,7.,3.,3727.,0.,0.,9990.,0.902777777778,6.70634920635,91.
5.08,6252.,7.,3.,3727.,0.,0.,9989.,0.902723765373,6.70594797134,91.
5.1,6255.,7.,2.,3726.,0.,0.,9990.,0.903066528067,6.70849420849,91.
5.12,6268.,6.,3.,3713.,0.,0.,9990.,0.904943404943,7.84284284284,78.
5.14,6271.,2.,4.,3715.,0.,0.,9992.,0.905195310094,23.5350780624,26.
5.16,6275.,6.,3.,3707.,0.,0.,9991.,0.905863353942,7.85081573416,78.
5.18,6279.,9.,5.,3702.,0.,0.,9995.,0.90607803902,5.23511755878,117.
5.2,6292.,11.,2.,3691.,0.,0.,9996.,0.907863145258,4.29171668667,143.
5.22,6291.,12.,2.,3691.,0.,0.,9996.,0.907718856773,3.93344837935,156.
5.24,6301.,9.,6.,3680.,0.,0.,9996.,0.90916174162,5.25293450714,117.
5.26,6306.,7.,6.,3673.,0.,0.,9992.,0.910247428712,6.76183804186,91.
5.28,6306.,7.,4.,3674.,0.,0.,9991.,0.910338535451,6.76251483478,91.
5.3,6308.,6.,4.,3676.,0.,0.,9994.,0.91035390465,7.8897338403,78.
5.32,6311.,5.,5.,3671.,0.,0.,9992.,0.910969159943,9.47407926341,65.
5.34,6311.,9.,2.,3671.,0.,0.,9993.,0.910877999215,5.26285066213,117.
5.36,6321.,6.,4.,3667.,0.,0.,9998.,0.911865065321,7.90283056611,78.
5.38,6322.,5.,5.,3663.,0.,0.,9995.,0.912283064609,9.48774387194,65.
5.4,6329.,7.,6.,3653.,0.,0.,9995.,0.913293185054,6.7844636604,91.
5.42,6331.,6.,4.,3656.,0.,0.,9997.,0.913399019706,7.91612483745,78.
5.44,6332.,7.,2.,3655.,0.,0.,9996.,0.913634684643,6.78700051449,91.
5.46,6335.,5.,4.,3653.,0.,0.,9997.,0.913976115912,9.50535160548,65.
5.48,6344.,8.,1.,3644.,0.,0.,9997.,0.915274582375,5.94928478544,104.
5.5,6353.,6.,1.,3640.,0.,0.,10000.,0.916298076923,7.94125,78.
5.52,6355.,4.,3.,3635.,0.,0.,9997.,0.916861596941,11.9192007602,52.
5.54,6356.,3.,5.,3634.,0.,0.,9998.,0.916914152061,15.8931786357,39.
5.56,6353.,6.,6.,3627.,0.,0.,9992.,0.917031702285,7.94760808647,78.
5.58,6355.,11.,4.,3624.,0.,0.,9994.,0.917136820554,4.33555587898,143.
5.6,6355.,16.,7.,3615.,0.,0.,9993.,0.91722859848,2.98099294506,208.
5.62,6355.,17.,6.,3613.,0.,0.,9991.,0.91741220945,2.80620205244,221.
5.64,6355.,15.,12.,3608.,0.,0.,9990.,0.917504042504,3.18068068068,195.
5.66,6354.,16.,5.,3615.,0.,0.,9990.,0.91735966736,2.98141891892,208.
5.68,6353.,16.,8.,3616.,0.,0.,9993.,0.916939934877,2.98005478835,208.
5.7,6353.,14.,7.,3621.,0.,0.,9995.,0.916756455151,3.40509540485,182.
5.72,6349.,13.,11.,3618.,0.,0.,9991.,0.916546045287,3.66618418115,169.
5.74,6349.,18.,4.,3620.,0.,0.,9991.,0.916546045287,2.64779968638,234.
5.76,6348.,17.,6.,3619.,0.,0.,9990.,0.916493416493,2.80339162692,221.
5.78,6350.,13.,9.,3617.,0.,0.,9989.,0.916873945956,3.66749578382,169.
5.8,6345.,22.,6.,3620.,0.,0.,9993.,0.915785280466,2.16458339019,286.
5.82,6351.,15.,14.,3617.,0.,0.,9997.,0.916284500735,3.17645293588,195.
5.84,6333.,24.,19.,3619.,0.,0.,9995.,0.913870396737,1.98005252626,312.
5.86,6321.,23.,20.,3633.,0.,0.,9997.,0.911956279191,2.06181419643,299.
5.88,6317.,23.,11.,3644.,0.,0.,9995.,0.911561550006,2.06092176523,299.
5.9,6318.,24.,9.,3645.,0.,0.,9996.,0.911614645858,1.97516506603,312.
5.92,6314.,23.,13.,3646.,0.,0.,9996.,0.91103749192,2.05973693825,299.
5.94,6302.,28.,13.,3650.,0.,0.,9993.,0.909579013001,1.689218167,364.
5.96,6286.,30.,18.,3659.,0.,0.,9993.,0.907269704178,1.57260082057,390.
5.98,6278.,29.,20.,3665.,0.,0.,9992.,0.906205733818,1.62492062616,377.
6.,6269.,36.,16.,3673.,0.,0.,9994.,0.904725527624,1.30682576212,468.
6.02,6256.,38.,13.,3685.,0.,0.,9992.,0.903030116401,1.23572542244,494.
6.04,6252.,34.,20.,3688.,0.,0.,9994.,0.90227213251,1.37994561443,442.
6.06,6235.,40.,24.,3695.,0.,0.,9994.,0.899818737396,1.16976435862,520.
6.08,6218.,32.,34.,3715.,0.,0.,9999.,0.896916614738,1.45748949895,416.
6.1,6195.,44.,26.,3735.,0.,0.,10000.,0.893509615385,1.05596590909,572.
6.12,6182.,41.,25.,3752.,0.,0.,10000.,0.891634615385,1.13085365854,533.
6.14,6166.,31.,30.,3768.,0.,0.,9995.,0.889771808981,1.49252045378,403.
6.16,6136.,50.,18.,3788.,0.,0.,9992.,0.885708566853,0.921136909528,650.
6.18,6133.,39.,23.,3798.,0.,0.,9993.,0.885186938549,1.1802492514,507.
6.2,6128.,33.,20.,3815.,0.,0.,9996.,0.88419983378,1.39328458656,429.
6.22,6122.,34.,19.,3819.,0.,0.,9994.,0.883510875756,1.35125192763,442.
6.24,6114.,35.,14.,3827.,0.,0.,9990.,0.88270963271,1.31145431145,455.
6.26,6112.,31.,20.,3828.,0.,0.,9991.,0.882332560843,1.48004171496,403.
6.28,6107.,29.,9.,3848.,0.,0.,9993.,0.881434311711,1.58050290376,377.
6.3,6098.,31.,9.,3853.,0.,0.,9991.,0.880311511129,1.47665156706,403.
6.32,6105.,28.,10.,3853.,0.,0.,9996.,0.880881198633,1.63592222603,364.
6.34,6101.,32.,14.,3850.,0.,0.,9997.,0.880215987873,1.43035098029,416.
6.36,6108.,30.,14.,3847.,0.,0.,9999.,0.881049643426,1.52715271527,390.
6.38,6105.,26.,6.,3862.,0.,0.,9999.,0.880616907845,1.76123381569,338.
6.4,6113.,15.,10.,3860.,0.,0.,9998.,0.881859064121,3.05711142228,195.
6.42,6110.,14.,12.,3864.,0.,0.,10000.,0.88125,3.27321428571,182.
6.44,6118.,14.,12.,3857.,0.,0.,10001.,0.882315614592,3.27717228277,182.
6.46,6108.,26.,11.,3856.,0.,0.,10001.,0.880873451116,1.76174690223,338.
6.48,6102.,30.,13.,3857.,0.,0.,10002.,0.879920169812,1.52519496101,390.
6.5,6101.,26.,16.,3859.,0.,0.,10002.,0.879775967883,1.75955193577,338.
6.52,6096.,29.,2.,3876.,0.,0.,10003.,0.878967079107,1.57607890047,377.
6.54,6110.,22.,8.,3866.,0.,0.,10006.,0.88072156706,2.08170552214,286.
6.56,6110.,20.,9.,3867.,0.,0.,10006.,0.88072156706,2.28987607436,260.
6.58,6110.,19.,11.,3869.,0.,0.,10009.,0.880457588171,2.4096733992,247.
6.6,6109.,21.,3.,3872.,0.,0.,10005.,0.880665436513,2.1806953666,273.
6.62,6111.,19.,6.,3869.,0.,0.,10005.,0.880953753892,2.41103132644,247.
6.64,6120.,13.,8.,3862.,0.,0.,10003.,0.882427579418,3.52971031767,169.
6.66,6124.,13.,4.,3862.,0.,0.,10003.,0.88300432947,3.53201731788,169.
6.68,6131.,8.,10.,3854.,0.,0.,10003.,0.884013642061,5.7460886734,104.
6.7,6129.,12.,10.,3852.,0.,0.,10003.,0.883725267035,3.82947615715,156.
6.72,6119.,14.,8.,3863.,0.,0.,10004.,0.882195198844,3.27672502428,182.
6.74,6123.,14.,4.,3865.,0.,0.,10006.,0.882595442734,3.27821164444,182.
6.76,6127.,11.,4.,3867.,0.,0.,10009.,0.882907306501,4.17374363073,143.
6.78,6134.,7.,4.,3864.,0.,0.,10009.,0.883916014049,6.56623324722,91.
6.8,6140.,8.,2.,3858.,0.,0.,10008.,0.884869027855,5.75164868106,104.
6.82,6143.,7.,5.,3849.,0.,0.,10004.,0.885655353243,6.57915405266,91.
6.84,6151.,9.,3.,3841.,0.,0.,10004.,0.886808738043,5.12378381981,117.
6.86,6154.,8.,8.,3837.,0.,0.,10007.,0.886975271156,5.76533926252,104.
6.88,6143.,18.,5.,3840.,0.,0.,10006.,0.885478328388,2.55804850423,234.
6.9,6149.,12.,7.,3841.,0.,0.,10009.,0.886077530223,3.83966929763,156.
6.92,6158.,16.,4.,3834.,0.,0.,10012.,0.887108546667,2.88310277667,208.
6.94,6160.,10.,7.,3831.,0.,0.,10008.,0.887751337392,4.61630695444,130.
6.96,6168.,12.,7.,3822.,0.,0.,10009.,0.88881545071,3.85153361974,156.
6.98,6171.,6.,11.,3819.,0.,0.,10007.,0.889425479088,7.70835415209,78.
7.,6175.,8.,7.,3816.,0.,0.,10006.,0.890090945433,5.78559114531,104.
7.02,6178.,9.,0.,3818.,0.,0.,10005.,0.890612386115,5.14576045311,117.
7.04,6193.,9.,0.,3809.,0.,0.,10011.,0.892239690187,5.15516265441,117.
7.06,6193.,8.,5.,3801.,0.,0.,10007.,0.892596336411,5.80187618667,104.
7.08,6196.,7.,5.,3801.,0.,0.,10009.,0.892850280901,6.63260208669,91.
7.1,6192.,8.,8.,3799.,0.,0.,10007.,0.892452206532,5.80093934246,104.
7.12,6189.,10.,3.,3806.,0.,0.,10008.,0.89193068622,4.63803956835,130.
7.14,6190.,9.,6.,3802.,0.,0.,10007.,0.892163946776,5.15472502582,117.
7.16,6196.,9.,6.,3795.,0.,0.,10006.,0.893117975369,5.16023719102,117.
7.18,6187.,15.,3.,3801.,0.,0.,10006.,0.891820676825,3.09164501299,195.
7.2,6195.,15.,2.,3797.,0.,0.,10009.,0.892706179823,3.09471475672,195.
7.22,6203.,13.,3.,3789.,0.,0.,10008.,0.893948302896,3.57579321158,169.
7.24,6201.,11.,4.,3791.,0.,0.,10007.,0.893749375437,4.22499704752,143.
7.26,6201.,18.,6.,3784.,0.,0.,10009.,0.893570786292,2.58142671596,234.
7.28,6201.,11.,8.,3789.,0.,0.,10009.,0.893570786292,4.22415280793,143.
7.3,6200.,13.,11.,3784.,0.,0.,10008.,0.893515956466,3.57406382586,169.
7.32,6196.,20.,9.,3784.,0.,0.,10009.,0.892850280901,2.32141073034,260.
7.34,6199.,22.,8.,3782.,0.,0.,10011.,0.893104123925,2.11097338382,286.
7.36,6205.,13.,16.,3778.,0.,0.,10012.,0.893879267955,3.57551707182,169.
7.38,6203.,14.,9.,3784.,0.,0.,10010.,0.893769691847,3.31971599829,182.
7.4,6210.,16.,4.,3780.,0.,0.,10010.,0.894778298624,2.90802947053,208.
7.42,6207.,13.,6.,3779.,0.,0.,10005.,0.894792988121,3.57917195249,169.
7.44,6218.,10.,10.,3765.,0.,0.,10003.,0.89655795569,4.66210136959,130.
7.46,6224.,10.,6.,3764.,0.,0.,10004.,0.897333374343,4.66613354658,130.
7.48,6229.,12.,5.,3758.,0.,0.,10004.,0.898054239843,3.89156837265,156.
7.5,6233.,14.,6.,3752.,0.,0.,10005.,0.898541114058,3.33743842365,182.
7.52,6244.,13.,7.,3745.,0.,0.,10009.,0.899767132658,3.59906853063,169.
7.54,6250.,8.,6.,3745.,0.,0.,10009.,0.900631739127,5.85410630433,104.
7.56,6255.,7.,5.,3744.,0.,0.,10011.,0.901172172149,6.69442185025,91.
7.58,6253.,12.,5.,3742.,0.,0.,10012.,0.900794047143,3.90344087095,156.
7.6,6256.,15.,5.,3741.,0.,0.,10017.,0.900776372474,3.12269142458,195.
7.62,6263.,13.,8.,3737.,0.,0.,10021.,0.901424316627,3.60569726651,169.
7.64,6266.,15.,10.,3732.,0.,0.,10023.,0.901676144867,3.12581063554,195.
7.66,6264.,16.,4.,3738.,0.,0.,10022.,0.901478286232,2.92980443025,208.
7.68,6265.,10.,12.,3732.,0.,0.,10019.,0.9018921741,4.68983930532,130.
7.7,6269.,14.,7.,3731.,0.,0.,10021.,0.902287887743,3.35135501162,182.
7.72,6270.,12.,12.,3729.,0.,0.,10023.,0.902251744066,3.90975755762,156.
7.74,6272.,12.,11.,3732.,0.,0.,10027.,0.902179499965,3.90944449985,156.
7.76,6278.,14.,2.,3735.,0.,0.,10029.,0.902862468073,3.35348916713,182.
7.78,6285.,10.,6.,3730.,0.,0.,10031.,0.903688948874,4.69918253414,130.
7.8,6289.,11.,5.,3727.,0.,0.,10032.,0.904173951049,4.2742768595,143.
7.82,6292.,13.,6.,3719.,0.,0.,10030.,0.904785643071,3.61914257228,169.
7.84,6297.,14.,1.,3718.,0.,0.,10030.,0.905504639926,3.3633029483,182.
7.86,6302.,15.,5.,3709.,0.,0.,10031.,0.906133294479,3.14126208753,195.
7.88,6299.,16.,8.,3707.,0.,0.,10030.,0.905792238669,2.94382477567,208.
7.9,6296.,17.,9.,3711.,0.,0.,10033.,0.905090125662,2.76851097261,221.
7.92,6298.,18.,1.,3714.,0.,0.,10031.,0.905558154337,2.61605689031,234.
7.94,6299.,13.,7.,3709.,0.,0.,10028.,0.905972891289,3.62389156516,169.
7.96,6312.,8.,6.,3708.,0.,0.,10034.,0.907299796078,5.89744867451,104.
7.98,6313.,11.,2.,3707.,0.,0.,10033.,0.907533984007,4.29016065167,143.
8.,6324.,7.,1.,3704.,0.,0.,10036.,0.908843547843,6.75140921255,91.
8.02,6325.,7.,1.,3701.,0.,0.,10034.,0.90916844268,6.75382271705,91.
8.04,6328.,5.,3.,3695.,0.,0.,10031.,0.909871705406,9.46266573622,65.
8.06,6335.,3.,3.,3691.,0.,0.,10032.,0.910787403386,15.7869816587,39.
8.08,6349.,4.,2.,3679.,0.,0.,10034.,0.91261825179,11.8640372733,52.
8.1,6355.,3.,5.,3672.,0.,0.,10035.,0.9133896746,15.8320876931,39.
8.12,6366.,6.,4.,3662.,0.,0.,10038.,0.914697227459,7.92737597131,78.
8.14,6369.,5.,6.,3658.,0.,0.,10038.,0.91512828176,9.5173341303,65.
8.16,6372.,6.,6.,3654.,0.,0.,10038.,0.915559336061,7.9348475792,78.
8.18,6372.,8.,3.,3651.,0.,0.,10034.,0.915924318854,5.95350807255,104.
8.2,6369.,8.,8.,3650.,0.,0.,10035.,0.915401862711,5.95011210762,104.
8.22,6375.,7.,8.,3648.,0.,0.,10038.,0.915990390363,6.80450004269,91.
8.24,6377.,10.,1.,3653.,0.,0.,10041.,0.916003998989,4.76322079474,130.
8.26,6381.,6.,6.,3645.,0.,0.,10038.,0.916852498965,7.94605499103,78.
8.28,6378.,6.,4.,3647.,0.,0.,10035.,0.916695412211,7.9446935725,78.
8.3,6376.,4.,5.,3648.,0.,0.,10033.,0.916590635518,11.9156782617,52.
8.32,6381.,4.,3.,3646.,0.,0.,10034.,0.917217997271,11.9238339645,52.
8.34,6390.,7.,1.,3639.,0.,0.,10037.,0.918237137974,6.82119016781,91.
8.36,6404.,8.,1.,3627.,0.,0.,10040.,0.919973950352,5.97983067729,104.
8.38,6414.,4.,4.,3619.,0.,0.,10041.,0.921318746984,11.9771437108,52.
8.4,6428.,2.,1.,3610.,0.,0.,10041.,0.923329732711,24.0065730505,26.
8.42,6427.,4.,1.,3607.,0.,0.,10039.,0.923370010804,12.0038101405,52.
8.44,6439.,4.,1.,3602.,0.,0.,10046.,0.924449455581,12.0178429226,52.
8.46,6447.,5.,3.,3592.,0.,0.,10047.,0.925505891541,9.62526127202,65.
8.48,6452.,8.,3.,3587.,0.,0.,10050.,0.925947187141,6.01865671642,104.
8.5,6458.,5.,2.,3583.,0.,0.,10048.,0.926992742528,9.64072452229,65.
8.52,6459.,5.,3.,3581.,0.,0.,10048.,0.927136284297,9.64221735669,65.
8.54,6460.,9.,1.,3578.,0.,0.,10048.,0.927279826066,5.35761677282,117.
8.56,6465.,10.,3.,3569.,0.,0.,10047.,0.928089900544,4.82606748283,130.
8.58,6471.,5.,7.,3566.,0.,0.,10049.,0.928766352565,9.65917006667,65.
8.6,6480.,7.,2.,3563.,0.,0.,10052.,0.929780525881,6.9069410494,91.
8.62,6486.,9.,2.,3552.,0.,0.,10049.,0.930919264833,5.37864464126,117.
8.64,6489.,9.,7.,3545.,0.,0.,10050.,0.93125717566,5.38059701493,117.
8.66,6478.,13.,14.,3543.,0.,0.,10048.,0.929863577903,3.71945431161,169.
8.68,6465.,22.,21.,3543.,0.,0.,10051.,0.927720548281,2.19279402321,286.
8.7,6453.,32.,15.,3546.,0.,0.,10046.,0.92645944042,1.50549659068,416.
8.72,6453.,31.,17.,3547.,0.,0.,10048.,0.926275033684,1.55375166941,403.
8.74,6445.,24.,20.,3560.,0.,0.,10049.,0.925034637966,2.00424171559,312.
8.76,6429.,27.,17.,3576.,0.,0.,10049.,0.922738198213,1.77712541878,351.
8.78,6422.,31.,10.,3588.,0.,0.,10051.,0.921550094518,1.545825965,403.
8.8,6421.,37.,9.,3587.,0.,0.,10054.,0.921131658276,1.29456341163,481.
8.82,6413.,40.,13.,3590.,0.,0.,10056.,0.919801037268,1.19574134845,520.
8.84,6407.,35.,19.,3598.,0.,0.,10059.,0.918666406662,1.36487580418,455.
8.86,6409.,25.,17.,3607.,0.,0.,10058.,0.919044541658,1.91161264665,325.
8.88,6397.,30.,15.,3620.,0.,0.,10062.,0.916959084446,1.58939574637,390.
8.9,6390.,27.,14.,3632.,0.,0.,10063.,0.915864667976,1.7638875087,351.
8.92,6388.,26.,19.,3629.,0.,0.,10062.,0.915669006009,1.83133801202,338.
8.94,6384.,24.,11.,3641.,0.,0.,10060.,0.915277565377,1.98310139165,312.
8.96,6376.,29.,14.,3645.,0.,0.,10064.,0.913767274061,1.63847925004,377.
8.98,6371.,28.,18.,3644.,0.,0.,10061.,0.913322960709,1.69617121275,364.
9.,6353.,30.,16.,3662.,0.,0.,10061.,0.910742547384,1.57862041547,390.
9.02,6357.,27.,16.,3665.,0.,0.,10065.,0.910953800298,1.75442954131,351.
9.04,6343.,24.,12.,3682.,0.,0.,10061.,0.909308984426,1.97016946626,312.
9.06,6326.,26.,12.,3691.,0.,0.,10055.,0.907413074245,1.81482614849,338.
9.08,6327.,19.,13.,3698.,0.,0.,10057.,0.907376033532,2.48334493388,247.
9.1,6321.,24.,2.,3707.,0.,0.,10054.,0.90678604765,1.96470310324,312.
9.12,6322.,21.,9.,3703.,0.,0.,10055.,0.906839306889,2.24550685515,273.
9.14,6331.,13.,16.,3697.,0.,0.,10057.,0.907949686785,3.63179874714,169.
9.16,6328.,21.,12.,3700.,0.,0.,10061.,0.907158639988,2.24629758473,273.
9.18,6331.,27.,2.,3703.,0.,0.,10063.,0.907408327537,1.7476012234,351.
9.2,6338.,20.,8.,3698.,0.,0.,10064.,0.908321358689,2.36163553259,260.
9.22,6337.,19.,12.,3700.,0.,0.,10068.,0.907817227469,2.48455241202,247.
9.24,6322.,28.,10.,3704.,0.,0.,10064.,0.90602834169,1.68262406314,364.
9.26,6319.,24.,15.,3705.,0.,0.,10063.,0.905688393888,1.96232485342,312.
9.28,6311.,19.,24.,3710.,0.,0.,10064.,0.904451892503,2.47534202159,247.
9.3,6303.,19.,12.,3729.,0.,0.,10063.,0.903395149023,2.47244988154,247.
9.32,6301.,17.,10.,3731.,0.,0.,10059.,0.903467617977,2.76354800793,221.
9.34,6296.,19.,4.,3741.,0.,0.,10060.,0.902660957333,2.47044051481,247.
9.36,6290.,12.,12.,3742.,0.,0.,10056.,0.902159445566,3.90935759745,156.
9.38,6291.,14.,3.,3746.,0.,0.,10054.,0.902482364463,3.35207735372,182.
9.4,6293.,15.,7.,3740.,0.,0.,10055.,0.902679493555,3.12928891099,195.
9.42,6290.,20.,6.,3738.,0.,0.,10054.,0.902338908356,2.34608116173,260.
9.44,6293.,21.,7.,3734.,0.,0.,10055.,0.902679493555,2.23520636499,273.
9.46,6294.,17.,13.,3731.,0.,0.,10055.,0.902822935394,2.76157603768,221.
9.48,6290.,26.,14.,3730.,0.,0.,10060.,0.901800734057,1.80360146811,338.
9.5,6289.,21.,12.,3735.,0.,0.,10057.,0.901926327625,2.23334138269,273.
9.52,6278.,25.,13.,3740.,0.,0.,10056.,0.900438314669,1.87291169451,325.
9.54,6273.,21.,15.,3745.,0.,0.,10054.,0.89990015455,2.22832419222,273.
9.56,6273.,28.,7.,3753.,0.,0.,10061.,0.899274043718,1.6700803669,364.
9.58,6270.,26.,16.,3748.,0.,0.,10060.,0.898933323138,1.79786664628,338.
9.6,6256.,27.,17.,3763.,0.,0.,10063.,0.896658742232,1.72689831837,351.
9.62,6247.,27.,13.,3775.,0.,0.,10062.,0.895457777166,1.72458534862,351.
9.64,6247.,29.,7.,3781.,0.,0.,10064.,0.895279824508,1.6053293405,377.
9.66,6255.,17.,17.,3780.,0.,0.,10069.,0.895981191318,2.74064834991,221.
9.68,6250.,19.,11.,3791.,0.,0.,10071.,0.895087188653,2.44971230579,247.
9.7,6239.,21.,15.,3795.,0.,0.,10070.,0.893600565274,2.21272520925,273.
9.72,6237.,18.,8.,3804.,0.,0.,10067.,0.893580319551,2.58145425648,234.
9.74,6234.,18.,4.,3809.,0.,0.,10065.,0.893327983492,2.58072528564,234.
9.76,6243.,16.,2.,3805.,0.,0.,10066.,0.894528802213,2.90721860719,208.
9.78,6258.,8.,8.,3795.,0.,0.,10069.,0.896410918508,5.8266709703,104.
9.8,6264.,8.,8.,3795.,0.,0.,10075.,0.896736018324,5.82878411911,104.
9.82,6265.,16.,9.,3788.,0.,0.,10078.,0.896612194117,2.91398963088,208.
9.84,6266.,17.,5.,3791.,0.,0.,10079.,0.896666335946,2.74274408642,221.
9.86,6264.,9.,15.,3792.,0.,0.,10080.,0.896291208791,5.17857142857,117.
9.88,6260.,14.,12.,3792.,0.,0.,10078.,0.895896621735,3.32761602359,182.
9.9,6264.,16.,2.,3795.,0.,0.,10077.,0.896558041542,2.91381363501,208.
9.92,6261.,7.,12.,3790.,0.,0.,10070.,0.896751585058,6.66158320329,91.
9.94,6266.,15.,4.,3788.,0.,0.,10073.,0.897200436811,3.11029484761,195.
9.96,6276.,15.,3.,3781.,0.,0.,10075.,0.898453903417,3.11464019851,195.
9.98,6281.,12.,5.,3776.,0.,0.,10074.,0.899258945343,3.89678876315,156.
10.,6283.,14.,3.,3777.,0.,0.,10077.,0.899277486431,3.34017352103,182.
