t,prevalence
5.,1
5.02,3
5.04,0
5.06,4
5.08,3
5.1,3
5.12,0
5.14,0
5.16,2
5.18,0
5.2,1
5.22,3
5.24,0
5.26,1
5.28,1
5.3,2
5.32,3
5.34,2
5.36,3
5.38,7
5.4,4
5.42,3
5.44,3
5.46,5
5.48,8
5.5,5
5.52,8
5.54,6
5.56,4
5.58,5
5.6,6
5.62,5
5.64,3
5.66,6
5.68,1
5.7,7
5.72,4
5.74,4
5.76,1
5.78,4
5.8,5
5.82,6
5.84,2
5.86,4
5.88,4
5.9,1
5.92,1
5.94,2
5.96,2
5.98,3
6.,5
6.02,4
6.04,5
6.06,7
6.08,5
6.1,4
6.12,3
6.14,7
6.16,2
6.18,0
6.2,10
6.22,6
6.24,5
6.26,7
6.28,10
6.3,10
6.32,7
6.34,6
6.36,9
6.38,4
6.4,2
6.42,7
6.44,4
6.46,5
6.48,2
6.5,2
6.52,4
6.54,5
6.56,6
6.58,6
6.6,9
6.62,4
6.64,6
6.66,2
6.68,5
6.7,5
6.72,9
6.74,12
6.76,7
6.78,5
6.8,3
6.82,3
6.84,6
6.86,5
6.88,4
6.9,4
6.92,4
6.94,2
6.96,4
6.98,5
7.,3
7.02,5
7.04,4
7.06,9
7.08,0
7.1,5
7.12,4
7.14,1
7.16,3
7.18,1
7.2,3
7.22,1
7.24,4
7.26,4
7.28,3
7.3,4
7.32,5
7.34,5
7.36,4
7.38,3
7.4,3
7.42,3
7.44,5
7.46,4
7.48,2
7.5,5
7.52,4
7.54,5
7.56,6
7.58,3
7.6,5
7.62,2
7.64,2
7.66,4
7.68,5
7.7,1
7.72,11
7.74,5
7.76,4
7.78,4
7.8,4
7.82,6
7.84,2
7.86,2
7.88,3
7.9,7
7.92,9
7.94,4
7.96,2
7.98,3
8.,1
8.02,3
8.04,3
8.06,2
8.08,6
8.1,2
8.12,3
8.14,5
8.16,4
8.18,1
8.2,1
8.22,0
8.24,2
8.26,1
8.28,4
8.3,3
8.32,2
8.34,3
8.36,1
8.38,1
8.4,4
8.42,1
8.44,2
8.46,1
8.48,0
8.5,1
8.52,7
8.54,5
8.56,5
8.58,2
8.6,2
8.62,4
8.64,4
8.66,0
8.68,2
8.7,2
8.72,5
8.74,7
8.76,1
8.78,5
8.8,0
8.82,2
8.84,2
8.86,1
8.88,6
8.9,3
8.92,3
8.94,6
8.96,0
8.98,5
9.,2
9.02,4
9.04,0
9.06,3
9.08,5
9.1,2
9.12,1
9.14,9
9.16,2
9.18,4
9.2,6
9.22,4
9.24,7
9.26,5
9.28,7
9.3,4
9.32,8
9.34,7
9.36,5
9.38,9
9.4,2
9.42,11
9.44,8
9.46,5
9.48,9
9.5,2
9.52,8
9.54,7
9.56,3
9.58,7
9.6,7
9.62,3
9.64,4
9.66,6
9.68,10
9.7,6
9.72,8
9.74,6
9.76,6
9.78,3
9.8,5
9.82,5
9.84,1
9.86,3
9.88,7
9.9,5
9.92,1
9.94,10
9.96,1
9.98,2
10.,6
