t,cases
5.01,0.585
5.02,0.585
5.03,0.455
5.04,0.455
5.05,0.715
5.06,0.715
5.07,0.845
5.08,0.845
5.09,0.585
5.1,0.585
5.11,0.78
5.12,0.78
5.13,1.105
5.14,1.105
5.15,1.105
5.16,1.105
5.17,1.04
5.18,1.04
5.19,0.975
5.2,0.975
5.21,1.04
5.22,1.04
5.23,1.105
5.24,1.105
5.25,0.975
5.26,0.975
5.27,0.91
5.28,0.91
5.29,1.04
5.3,1.04
5.31,1.17
5.32,1.17
5.33,1.17
5.34,1.17
5.35,1.04
5.36,1.04
5.37,0.845
5.38,0.845
5.39,1.105
5.4,1.105
5.41,1.43
5.42,1.43
5.43,1.3
5.44,1.3
5.45,1.04
5.46,1.04
5.47,1.235
5.48,1.235
5.49,1.755
5.5,1.755
5.51,1.885
5.52,1.885
5.53,1.755
5.54,1.755
5.55,1.56
5.56,1.56
5.57,1.495
5.58,1.495
5.59,1.625
5.6,1.625
5.61,1.495
5.62,1.495
5.63,1.365
5.64,1.365
5.65,1.235
5.66,1.235
5.67,0.845
5.68,0.845
5.69,0.52
5.7,0.52
5.71,0.715
5.72,0.715
5.73,0.91
5.74,0.91
5.75,0.715
5.76,0.715
5.77,0.715
5.78,0.715
5.79,0.78
5.8,0.78
5.81,0.845
5.82,0.845
5.83,0.975
5.84,0.975
5.85,1.04
5.86,1.04
5.87,0.78
5.88,0.78
5.89,0.585
5.9,0.585
5.91,0.715
5.92,0.715
5.93,0.91
5.94,0.91
5.95,1.235
5.96,1.235
5.97,1.365
5.98,1.365
5.99,1.365
6.,1.365
6.01,1.43
6.02,1.43
6.03,1.625
6.04,1.625
6.05,1.82
6.06,1.82
6.07,1.625
6.08,1.625
6.09,1.495
6.1,1.495
6.11,1.56
6.12,1.56
6.13,1.495
6.14,1.495
6.15,1.625
6.16,1.625
6.17,2.015
6.18,2.015
6.19,2.015
6.2,2.015
6.21,2.015
6.22,2.015
6.23,2.015
6.24,2.015
6.25,2.015
6.26,2.015
6.27,2.21
6.28,2.21
6.29,2.145
6.3,2.145
6.31,2.34
6.32,2.34
6.33,2.145
6.34,2.145
6.35,2.21
6.36,2.21
6.37,3.12
6.38,3.12
6.39,3.38
6.4,3.38
6.41,3.12
6.42,3.12
6.43,3.12
6.44,3.12
6.45,2.73
6.46,2.73
6.47,2.405
6.48,2.405
6.49,2.665
6.5,2.665
6.51,2.535
6.52,2.535
6.53,1.885
6.54,1.885
6.55,1.3
6.56,1.3
6.57,1.56
6.58,1.56
6.59,1.95
6.6,1.95
6.61,1.495
6.62,1.495
6.63,1.625
6.64,1.625
6.65,2.08
6.66,2.08
6.67,2.08
6.68,2.08
6.69,2.21
6.7,2.21
6.71,2.275
6.72,2.275
6.73,2.275
6.74,2.275
6.75,2.145
6.76,2.145
6.77,2.275
6.78,2.275
6.79,2.34
6.8,2.34
6.81,2.015
6.82,2.015
6.83,2.015
6.84,2.015
6.85,2.08
6.86,2.08
6.87,2.99
6.88,2.99
6.89,3.64
6.9,3.64
6.91,3.25
6.92,3.25
6.93,3.12
6.94,3.12
6.95,2.99
6.96,2.99
6.97,3.055
6.98,3.055
6.99,3.25
7.,3.25
7.01,3.25
7.02,3.25
7.03,3.055
7.04,3.055
7.05,3.445
7.06,3.445
7.07,3.575
7.08,3.575
7.09,2.73
7.1,2.73
7.11,2.6
7.12,2.6
7.13,2.47
7.14,2.47
7.15,1.625
7.16,1.625
7.17,1.69
7.18,1.69
7.19,2.21
7.2,2.21
7.21,2.21
7.22,2.21
7.23,2.08
7.24,2.08
7.25,2.015
7.26,2.015
7.27,2.08
7.28,2.08
7.29,1.82
7.3,1.82
7.31,1.495
7.32,1.495
7.33,1.82
7.34,1.82
7.35,2.535
7.36,2.535
7.37,2.405
7.38,2.405
7.39,2.21
7.4,2.21
7.41,3.055
7.42,3.055
7.43,3.185
7.44,3.185
7.45,2.665
7.46,2.665
7.47,2.275
7.48,2.275
7.49,2.665
7.5,2.665
7.51,3.12
7.52,3.12
7.53,3.25
7.54,3.25
7.55,3.965
7.56,3.965
7.57,4.095
7.58,4.095
7.59,3.64
7.6,3.64
7.61,3.965
7.62,3.965
7.63,4.29
7.64,4.29
7.65,4.355
7.66,4.355
7.67,5.33
7.68,5.33
7.69,5.915
7.7,5.915
7.71,5.72
7.72,5.72
7.73,4.81
7.74,4.81
7.75,4.03
7.76,4.03
7.77,4.095
7.78,4.095
7.79,4.355
7.8,4.355
7.81,4.42
7.82,4.42
7.83,3.835
7.84,3.835
7.85,3.445
7.86,3.445
7.87,3.185
7.88,3.185
7.89,2.99
7.9,2.99
7.91,2.99
7.92,2.99
7.93,2.925
7.94,2.925
7.95,2.99
7.96,2.99
7.97,2.925
7.98,2.925
7.99,2.86
8.,2.86
8.01,2.86
8.02,2.86
8.03,2.795
8.04,2.795
8.05,3.055
8.06,3.055
8.07,3.38
8.08,3.38
8.09,3.185
8.1,3.185
8.11,3.835
8.12,3.835
8.13,4.615
8.14,4.615
8.15,4.485
8.16,4.485
8.17,5.005
8.18,5.005
8.19,5.135
8.2,5.135
8.21,5.46
8.22,5.46
8.23,5.655
8.24,5.655
8.25,5.135
8.26,5.135
8.27,5.07
8.28,5.07
8.29,5.135
8.3,5.135
8.31,4.81
8.32,4.81
8.33,4.875
8.34,4.875
8.35,5.525
8.36,5.525
8.37,5.59
8.38,5.59
8.39,5.46
8.4,5.46
8.41,5.07
8.42,5.07
8.43,4.875
8.44,4.875
8.45,5.005
8.46,5.005
8.47,5.2
8.48,5.2
8.49,5.005
8.5,5.005
8.51,4.29
8.52,4.29
8.53,4.355
8.54,4.355
8.55,5.005
8.56,5.005
8.57,5.46
8.58,5.46
8.59,5.915
8.6,5.915
8.61,5.525
8.62,5.525
8.63,4.745
8.64,4.745
8.65,4.16
8.66,4.16
8.67,3.64
8.68,3.64
8.69,3.315
8.7,3.315
8.71,2.795
8.72,2.795
8.73,3.575
8.74,3.575
8.75,4.485
8.76,4.485
8.77,4.16
8.78,4.16
8.79,3.9
8.8,3.9
8.81,3.835
8.82,3.835
8.83,3.25
8.84,3.25
8.85,2.47
8.86,2.47
8.87,2.925
8.88,2.925
8.89,3.64
8.9,3.64
8.91,4.225
8.92,4.225
8.93,4.29
8.94,4.29
8.95,3.055
8.96,3.055
8.97,2.21
8.98,2.21
8.99,2.21
9.,2.21
9.01,2.535
9.02,2.535
9.03,2.73
9.04,2.73
9.05,2.535
9.06,2.535
9.07,2.86
9.08,2.86
9.09,3.185
9.1,3.185
9.11,2.665
9.12,2.665
9.13,2.6
9.14,2.6
9.15,2.86
9.16,2.86
9.17,3.25
9.18,3.25
9.19,3.64
9.2,3.64
9.21,3.705
9.22,3.705
9.23,3.575
9.24,3.575
9.25,2.73
9.26,2.73
9.27,2.34
9.28,2.34
9.29,2.275
9.3,2.275
9.31,1.495
9.32,1.495
9.33,1.04
9.34,1.04
9.35,0.975
9.36,0.975
9.37,0.975
9.38,0.975
9.39,0.975
9.4,0.975
9.41,0.91
9.42,0.91
9.43,0.91
9.44,0.91
9.45,0.78
9.46,0.78
9.47,0.65
9.48,0.65
9.49,0.585
9.5,0.585
9.51,0.65
9.52,0.65
9.53,0.715
9.54,0.715
9.55,0.52
9.56,0.52
9.57,0.195
9.58,0.195
9.59,0.13
9.6,0.13
9.61,0.39
9.62,0.39
9.63,0.65
9.64,0.65
9.65,0.845
9.66,0.845
9.67,0.975
9.68,0.975
9.69,1.43
9.7,1.43
9.71,1.69
9.72,1.69
9.73,1.365
9.74,1.365
9.75,1.3
9.76,1.3
9.77,1.625
9.78,1.625
9.79,1.3
9.8,1.3
9.81,0.78
9.82,0.78
9.83,0.715
9.84,0.715
9.85,0.455
9.86,0.455
9.87,0.39
9.88,0.39
9.89,0.52
9.9,0.52
9.91,0.585
9.92,0.585
9.93,0.91
9.94,0.91
9.95,0.975
9.96,0.975
9.97,0.975
9.98,0.975
9.99,1.04
10.,1.04
