t,s,e,i,r,c,o,n,reff,coal,reportr
5.,6250.,5.,3.,3734.,0.,0.,9992.,0.902164038923,9.3825060048,65.
5.02,6253.,7.,1.,3727.,0.,0.,9988.,0.90295855026,6.70769208765,91.
5.04,6258.,9.,2.,3718.,0.,0.,9987.,0.903771056219,5.22178832482,117.
5.06,6259.,9.,2.,3715.,0.,0.,9985.,0.904096529409,5.22366883659,117.
5.08,6270.,8.,3.,3703.,0.,0.,9984.,0.905776164941,5.88754507212,104.
5.1,6277.,6.,2.,3697.,0.,0.,9982.,0.906969082811,7.86039871769,78.
5.12,6281.,7.,3.,3690.,0.,0.,9981.,0.907637973688,6.74245351883,91.
5.14,6287.,5.,4.,3682.,0.,0.,9978.,0.908778158102,9.45129284426,65.
5.16,6281.,7.,2.,3685.,0.,0.,9975.,0.908183921342,6.74650912997,91.
5.18,6291.,7.,1.,3676.,0.,0.,9975.,0.90962984384,6.75725026853,91.
5.2,6291.,8.,3.,3668.,0.,0.,9970.,0.910086027313,5.91555917753,104.
5.22,6292.,9.,2.,3665.,0.,0.,9968.,0.910413322632,5.2601658641,117.
5.24,6299.,10.,2.,3659.,0.,0.,9970.,0.911243345421,4.73846539619,130.
5.26,6301.,9.,6.,3657.,0.,0.,9973.,0.911258474805,5.26504896554,117.
5.28,6307.,7.,6.,3655.,0.,0.,9975.,0.911943319838,6.77443609023,91.
5.3,6315.,7.,3.,3653.,0.,0.,9978.,0.912825523845,6.7809896057,91.
5.32,6312.,9.,4.,3649.,0.,0.,9974.,0.912757785627,5.27371165029,117.
5.34,6313.,11.,4.,3645.,0.,0.,9973.,0.912993929764,4.31597130434,143.
5.36,6316.,17.,5.,3637.,0.,0.,9975.,0.913244650087,2.79345422379,221.
5.38,6315.,14.,13.,3633.,0.,0.,9975.,0.913100057837,3.39151450054,182.
5.4,6311.,19.,17.,3629.,0.,0.,9976.,0.912430217137,2.49717743637,247.
5.42,6308.,24.,9.,3636.,0.,0.,9977.,0.911905073978,1.97579432695,312.
5.44,6312.,20.,7.,3638.,0.,0.,9977.,0.912483327037,2.3724566503,260.
5.46,6308.,19.,11.,3639.,0.,0.,9977.,0.911905073978,2.49574020247,247.
5.48,6312.,14.,12.,3639.,0.,0.,9977.,0.912483327037,3.38922378614,182.
5.5,6306.,21.,10.,3639.,0.,0.,9976.,0.911707328357,2.25756100355,273.
5.52,6303.,18.,9.,3647.,0.,0.,9977.,0.911182257654,2.63230429989,234.
5.54,6299.,19.,14.,3645.,0.,0.,9977.,0.910604004595,2.492179381,247.
5.56,6283.,21.,19.,3650.,0.,0.,9973.,0.908655292366,2.2500035811,273.
5.58,6269.,30.,10.,3662.,0.,0.,9971.,0.906812448408,1.57180824391,390.
5.6,6258.,32.,14.,3666.,0.,0.,9970.,0.905312090117,1.47113214644,416.
5.62,6261.,23.,22.,3664.,0.,0.,9970.,0.905746084407,2.04777375605,299.
5.64,6251.,25.,15.,3675.,0.,0.,9966.,0.90466239059,1.88169777243,325.
5.66,6244.,27.,18.,3681.,0.,0.,9970.,0.903286783427,1.73966343475,351.
5.68,6235.,29.,17.,3688.,0.,0.,9969.,0.90207527952,1.61751429431,377.
5.7,6221.,29.,16.,3698.,0.,0.,9964.,0.900501420498,1.61469220227,377.
5.72,6210.,35.,11.,3711.,0.,0.,9967.,0.898638584251,1.33512018232,455.
5.74,6212.,33.,11.,3713.,0.,0.,9969.,0.898747656196,1.41620842794,429.
5.76,6216.,28.,12.,3714.,0.,0.,9970.,0.899236170049,1.67001003009,364.
5.78,6204.,28.,21.,3717.,0.,0.,9970.,0.897500192886,1.6667860725,364.
5.8,6188.,36.,15.,3726.,0.,0.,9965.,0.895634721525,1.29369459776,468.
5.82,6179.,34.,23.,3727.,0.,0.,9963.,0.894511616056,1.36807658926,442.
5.84,6147.,53.,11.,3753.,0.,0.,9964.,0.889789781676,0.873001295229,689.
5.86,6136.,55.,15.,3755.,0.,0.,9961.,0.888465013553,0.840003285541,715.
5.88,6119.,58.,22.,3762.,0.,0.,9961.,0.886003490536,0.794347957032,754.
5.9,6109.,51.,25.,3778.,0.,0.,9963.,0.884377967711,0.901718712176,663.
5.92,6099.,49.,31.,3787.,0.,0.,9966.,0.88266452091,0.936705205863,637.
5.94,6087.,51.,28.,3803.,0.,0.,9969.,0.880662746823,0.897930643819,663.
5.96,6076.,44.,22.,3826.,0.,0.,9968.,0.879159464131,1.03900663943,572.
5.98,6064.,35.,16.,3855.,0.,0.,9970.,0.877247125993,1.30333858719,455.
6.,6056.,40.,11.,3860.,0.,0.,9967.,0.876353505028,1.13925955654,520.
6.02,6047.,37.,20.,3863.,0.,0.,9967.,0.875051130268,1.22980158849,481.
6.04,6032.,41.,16.,3874.,0.,0.,9963.,0.873230954532,1.10751243014,533.
6.06,6017.,51.,16.,3879.,0.,0.,9963.,0.871059458458,0.888139055682,663.
6.08,6005.,50.,9.,3897.,0.,0.,9961.,0.869496806777,0.904276679048,650.
6.1,6007.,33.,12.,3917.,0.,0.,9969.,0.869088404824,1.3694726379,429.
6.12,6016.,27.,9.,3920.,0.,0.,9972.,0.870128667963,1.67580336052,351.
6.14,6019.,19.,13.,3924.,0.,0.,9975.,0.87030075188,2.38187574199,247.
6.16,6014.,20.,11.,3934.,0.,0.,9979.,0.869229227532,2.25999599158,260.
6.18,6011.,15.,10.,3941.,0.,0.,9977.,0.86896978435,3.01242858575,195.
6.2,6021.,15.,3.,3939.,0.,0.,9978.,0.870328183542,3.01713770295,195.
6.22,6027.,9.,9.,3934.,0.,0.,9979.,0.871108173318,5.03306944584,117.
6.24,6033.,10.,3.,3936.,0.,0.,9982.,0.871713314736,4.53290923663,130.
6.26,6035.,13.,4.,3931.,0.,0.,9983.,0.871914947719,3.48765979088,169.
6.28,6040.,18.,7.,3919.,0.,0.,9984.,0.872549926036,2.52069978632,234.
6.3,6041.,20.,6.,3918.,0.,0.,9985.,0.872606987404,2.26877816725,260.
6.32,6037.,16.,12.,3922.,0.,0.,9987.,0.87185456478,2.83352733554,208.
6.34,6038.,21.,6.,3917.,0.,0.,9982.,0.872435769,2.16031714228,273.
6.36,6035.,17.,7.,3921.,0.,0.,9980.,0.8721770464,2.66783567134,221.
6.38,6036.,11.,10.,3920.,0.,0.,9977.,0.872583865969,4.12494191185,143.
6.4,6036.,14.,9.,3915.,0.,0.,9974.,0.872846323518,3.24200063021,182.
6.42,6041.,12.,9.,3912.,0.,0.,9974.,0.873569357252,3.78546721476,156.
6.44,6042.,16.,9.,3909.,0.,0.,9976.,0.873538800814,2.83900110265,208.
6.46,6044.,14.,10.,3910.,0.,0.,9978.,0.873652805403,3.24499613435,182.
6.48,6037.,19.,13.,3906.,0.,0.,9975.,0.872903412377,2.38899881282,247.
6.5,6045.,19.,11.,3904.,0.,0.,9979.,0.87370979056,2.39120574259,247.
6.52,6044.,19.,7.,3911.,0.,0.,9981.,0.873390210631,2.39033110278,247.
6.54,6054.,16.,6.,3907.,0.,0.,9983.,0.874659998921,2.84264499649,208.
6.56,6053.,12.,12.,3906.,0.,0.,9983.,0.874515522542,3.78956726435,156.
6.58,6048.,22.,10.,3904.,0.,0.,9984.,0.873705621302,2.06512237762,286.
6.6,6038.,22.,12.,3905.,0.,0.,9977.,0.872872992498,2.0631543459,286.
6.62,6032.,19.,11.,3912.,0.,0.,9974.,0.872267896531,2.3872595063,247.
6.64,6037.,16.,12.,3916.,0.,0.,9981.,0.872378673325,2.83523068831,208.
6.66,6038.,16.,13.,3918.,0.,0.,9985.,0.872173645083,2.83456434652,208.
6.68,6043.,17.,5.,3918.,0.,0.,9983.,0.873070758751,2.67056937971,221.
6.7,6047.,16.,7.,3915.,0.,0.,9985.,0.873473672047,2.83878943415,208.
6.72,6050.,16.,11.,3907.,0.,0.,9984.,0.873994545118,2.84048227163,208.
6.74,6053.,19.,7.,3912.,0.,0.,9991.,0.873815279906,2.39149445027,247.
6.76,6050.,22.,9.,3908.,0.,0.,9989.,0.873557066619,2.06477124837,286.
6.78,6054.,20.,9.,3910.,0.,0.,9993.,0.873784726231,2.2718402882,260.
6.8,6059.,18.,8.,3909.,0.,0.,9994.,0.874418882098,2.52609899273,234.
6.82,6060.,16.,8.,3908.,0.,0.,9992.,0.87473825214,2.84289931946,208.
6.84,6061.,17.,8.,3906.,0.,0.,9992.,0.874882598386,2.67611147742,221.
6.86,6065.,12.,8.,3907.,0.,0.,9992.,0.875459983371,3.79365992794,156.
6.88,6065.,12.,0.,3912.,0.,0.,9989.,0.875722910586,3.79479927921,156.
6.9,6070.,8.,6.,3909.,0.,0.,9993.,0.876094035055,5.69461122786,104.
6.92,6074.,5.,3.,3910.,0.,0.,9992.,0.876759099587,9.11829463571,65.
6.94,6081.,4.,3.,3904.,0.,0.,9992.,0.877769523311,11.411003803,52.
6.96,6091.,1.,2.,3901.,0.,0.,9995.,0.87894908993,45.7053526763,13.
6.98,6097.,2.,1.,3895.,0.,0.,9995.,0.879814907454,22.8751875938,26.
7.,6104.,4.,2.,3883.,0.,0.,9993.,0.881001316306,11.453017112,52.
7.02,6113.,3.,3.,3873.,0.,0.,9992.,0.88238860319,15.2947357886,39.
7.04,6117.,3.,0.,3869.,0.,0.,9989.,0.883231169671,15.3093402743,39.
7.06,6125.,4.,2.,3859.,0.,0.,9990.,0.884297759298,11.4958708709,52.
7.08,6130.,5.,2.,3853.,0.,0.,9990.,0.88501963502,9.2042042042,65.
7.1,6138.,8.,0.,3842.,0.,0.,9988.,0.886352084039,5.76128854626,104.
7.12,6142.,4.,2.,3838.,0.,0.,9986.,0.887107334884,11.5323953535,52.
7.14,6146.,6.,5.,3829.,0.,0.,9986.,0.887685066786,7.69327057881,78.
7.16,6148.,5.,4.,3829.,0.,0.,9986.,0.887973932737,9.23492890046,65.
7.18,6149.,6.,4.,3829.,0.,0.,9988.,0.887940528634,7.6954845815,78.
7.2,6151.,6.,4.,3826.,0.,0.,9987.,0.888318275296,7.6987583859,78.
7.22,6147.,8.,5.,3825.,0.,0.,9985.,0.887918416086,5.77146970456,104.
7.24,6154.,6.,4.,3823.,0.,0.,9987.,0.888751530836,7.70251326725,78.
7.26,6156.,4.,5.,3820.,0.,0.,9985.,0.889218443049,11.5598397596,52.
7.28,6161.,3.,4.,3814.,0.,0.,9982.,0.89020814389,15.4302744941,39.
7.3,6173.,4.,1.,3806.,0.,0.,9984.,0.891763359837,11.5929236779,52.
7.32,6180.,3.,0.,3801.,0.,0.,9984.,0.892774593195,15.4747596154,39.
7.34,6187.,4.,1.,3791.,0.,0.,9983.,0.893875357338,11.6203796454,52.
7.36,6188.,5.,2.,3787.,0.,0.,9982.,0.894109396914,9.29873772791,65.
7.38,6190.,7.,4.,3783.,0.,0.,9984.,0.894219212278,6.64277129121,91.
7.4,6197.,10.,2.,3774.,0.,0.,9983.,0.895320121129,4.65566462987,130.
7.42,6205.,9.,4.,3769.,0.,0.,9987.,0.896116875014,5.17756416675,117.
7.44,6206.,12.,5.,3766.,0.,0.,9989.,0.896081843874,3.88302132346,156.
7.46,6208.,17.,3.,3758.,0.,0.,9986.,0.89663991126,2.74266325797,221.
7.48,6207.,16.,6.,3755.,0.,0.,9984.,0.896675064719,2.91419396034,208.
7.5,6211.,11.,9.,3754.,0.,0.,9985.,0.897163052271,4.24113442892,143.
7.52,6207.,15.,3.,3756.,0.,0.,9981.,0.896944579316,3.10940787496,195.
7.54,6213.,10.,7.,3754.,0.,0.,9984.,0.897541836169,4.66721754808,130.
7.56,6209.,17.,7.,3753.,0.,0.,9986.,0.896784344236,2.74310505296,221.
7.58,6217.,16.,3.,3754.,0.,0.,9990.,0.89758027258,2.91713588589,208.
7.6,6216.,19.,5.,3753.,0.,0.,9993.,0.897166478073,2.45540299262,247.
7.62,6220.,14.,11.,3746.,0.,0.,9991.,0.89792351578,3.33514448718,182.
7.64,6217.,14.,7.,3753.,0.,0.,9991.,0.897490433698,3.33353589659,182.
7.66,6215.,17.,4.,3753.,0.,0.,9989.,0.897381350255,2.74493118901,221.
7.68,6217.,15.,9.,3746.,0.,0.,9987.,0.897849897174,3.1125463102,195.
7.7,6214.,17.,10.,3744.,0.,0.,9985.,0.897596394592,2.74558897169,221.
7.72,6200.,24.,11.,3749.,0.,0.,9984.,0.895663831361,1.94060496795,312.
7.74,6198.,19.,6.,3758.,0.,0.,9981.,0.895644031352,2.45123629633,247.
7.76,6194.,20.,4.,3762.,0.,0.,9980.,0.895155696007,2.32740480962,260.
7.78,6199.,11.,7.,3762.,0.,0.,9979.,0.895968071412,4.23548542849,143.
7.8,6207.,2.,10.,3761.,0.,0.,9980.,0.897034453522,23.3228957916,26.
7.82,6207.,6.,6.,3756.,0.,0.,9975.,0.897484094853,7.77819548872,78.
7.84,6210.,7.,4.,3757.,0.,0.,9978.,0.897647902308,6.66824156,91.
7.86,6214.,6.,2.,3754.,0.,0.,9976.,0.89840617482,7.78618684844,78.
7.88,6216.,4.,5.,3747.,0.,0.,9972.,0.899055817828,11.6877256318,52.
7.9,6224.,5.,4.,3743.,0.,0.,9976.,0.899851952378,9.35846030473,65.
7.92,6228.,9.,2.,3738.,0.,0.,9977.,0.900340012799,5.20196451839,117.
7.94,6241.,11.,2.,3725.,0.,0.,9979.,0.902038511644,4.26418205504,143.
7.96,6243.,11.,6.,3721.,0.,0.,9981.,0.902146771173,4.26469382736,143.
7.98,6256.,6.,6.,3715.,0.,0.,9983.,0.903844227494,7.83331663829,78.
8.,6261.,6.,4.,3713.,0.,0.,9984.,0.904476007766,7.83879206731,78.
8.02,6266.,8.,4.,3705.,0.,0.,9983.,0.905288991285,5.88437844335,104.
8.04,6266.,10.,2.,3703.,0.,0.,9981.,0.905470393748,4.70844604749,130.
8.06,6278.,7.,2.,3695.,0.,0.,9982.,0.907113573663,6.73855797578,91.
8.08,6284.,4.,4.,3689.,0.,0.,9981.,0.908071489677,11.8049293658,52.
8.1,6282.,5.,2.,3688.,0.,0.,9977.,0.908146429095,9.44472286258,65.
8.12,6286.,7.,2.,3682.,0.,0.,9977.,0.908724682154,6.75052621028,91.
8.14,6291.,9.,2.,3674.,0.,0.,9976.,0.90953866202,5.25511226945,117.
8.16,6292.,6.,5.,3674.,0.,0.,9977.,0.909592061742,7.88313120176,78.
8.18,6299.,3.,1.,3676.,0.,0.,9979.,0.910421500536,15.7806393426,39.
8.2,6304.,3.,0.,3670.,0.,0.,9977.,0.911326820919,15.7963315626,39.
8.22,6310.,3.,1.,3663.,0.,0.,9977.,0.912194200507,15.8113661421,39.
8.24,6321.,4.,1.,3652.,0.,0.,9978.,0.913692816504,11.8780066146,52.
8.26,6324.,4.,2.,3641.,0.,0.,9971.,0.914768212431,11.8919867616,52.
8.28,6328.,4.,2.,3633.,0.,0.,9967.,0.915714164435,11.9042841377,52.
8.3,6328.,3.,1.,3633.,0.,0.,9965.,0.915897950519,15.8755644757,39.
8.32,6333.,4.,1.,3626.,0.,0.,9964.,0.916713630609,11.9172771979,52.
8.34,6340.,3.,1.,3620.,0.,0.,9964.,0.917726893741,15.9072661582,39.
8.36,6341.,3.,2.,3618.,0.,0.,9964.,0.917871645617,15.9097751907,39.
8.38,6345.,6.,2.,3608.,0.,0.,9961.,0.918727267111,7.96230298163,78.
8.4,6352.,7.,2.,3604.,0.,0.,9965.,0.919371646918,6.82961794853,91.
8.42,6348.,6.,4.,3604.,0.,0.,9962.,0.919069386747,7.96526801847,78.
8.44,6358.,5.,3.,3600.,0.,0.,9966.,0.920147733062,9.56953642384,65.
8.46,6369.,5.,4.,3588.,0.,0.,9966.,0.921739684157,9.58609271523,65.
8.48,6368.,7.,3.,3588.,0.,0.,9966.,0.92159496133,6.84613399845,91.
8.5,6368.,10.,3.,3586.,0.,0.,9967.,0.921502496701,4.79181298284,130.
8.52,6374.,8.,2.,3583.,0.,0.,9967.,0.922370746541,5.99540985251,104.
8.54,6377.,7.,0.,3583.,0.,0.,9967.,0.92280487146,6.85512190228,91.
8.56,6379.,4.,4.,3578.,0.,0.,9965.,0.923279555367,12.0026342198,52.
8.58,6387.,9.,2.,3572.,0.,0.,9970.,0.923973844611,5.33851554664,117.
8.6,6399.,7.,5.,3561.,0.,0.,9972.,0.925524159956,6.8753223311,91.
8.62,6402.,8.,2.,3559.,0.,0.,9971.,0.926050932319,6.01933106007,104.
8.64,6403.,7.,6.,3552.,0.,0.,9968.,0.926474333251,6.88238076129,91.
8.66,6401.,10.,4.,3554.,0.,0.,9969.,0.926092039168,4.81567860367,130.
8.68,6399.,9.,5.,3555.,0.,0.,9968.,0.925895558094,5.3496187801,117.
8.7,6403.,7.,7.,3550.,0.,0.,9967.,0.926567287433,6.88307127807,91.
8.72,6399.,11.,8.,3548.,0.,0.,9966.,0.926081368962,4.37783919873,143.
8.74,6391.,15.,1.,3556.,0.,0.,9963.,0.925202093901,3.20736725886,195.
8.76,6402.,11.,5.,3550.,0.,0.,9968.,0.926329639462,4.37901284109,143.
8.78,6405.,10.,5.,3548.,0.,0.,9968.,0.92676372083,4.81917134831,130.
8.8,6406.,14.,5.,3545.,0.,0.,9970.,0.926722475118,3.44211205044,182.
8.82,6405.,12.,9.,3541.,0.,0.,9967.,0.926856704046,4.01637905087,156.
8.84,6405.,12.,8.,3541.,0.,0.,9966.,0.926949705923,4.016782059,156.
8.86,6404.,13.,9.,3542.,0.,0.,9968.,0.92661902704,3.70647610816,169.
8.88,6407.,11.,6.,3546.,0.,0.,9970.,0.926867139881,4.38155375217,143.
8.9,6408.,13.,7.,3544.,0.,0.,9972.,0.9268258817,3.7073035268,169.
8.92,6410.,13.,5.,3544.,0.,0.,9972.,0.927115153198,3.70846061279,169.
8.94,6413.,13.,5.,3540.,0.,0.,9971.,0.927642085124,3.7105683405,169.
8.96,6410.,15.,6.,3538.,0.,0.,9969.,0.927394152642,3.21496639583,195.
8.98,6416.,17.,4.,3536.,0.,0.,9973.,0.927889918164,2.83825151438,221.
9.,6412.,18.,12.,3532.,0.,0.,9974.,0.927218460304,2.67863110755,234.
9.02,6408.,23.,10.,3532.,0.,0.,9973.,0.926732948191,2.09522231765,299.
9.04,6416.,14.,12.,3531.,0.,0.,9973.,0.927889918164,3.44644826747,182.
9.06,6418.,15.,8.,3538.,0.,0.,9979.,0.927621081194,3.21575308147,195.
9.08,6416.,17.,8.,3536.,0.,0.,9977.,0.92751790657,2.83711359657,221.
9.1,6412.,16.,8.,3544.,0.,0.,9980.,0.926661014336,3.01164829659,208.
9.12,6413.,22.,4.,3542.,0.,0.,9981.,0.926712677164,2.19041178239,286.
9.14,6417.,17.,11.,3537.,0.,0.,9982.,0.927197802198,2.83613445378,221.
9.16,6410.,19.,10.,3544.,0.,0.,9983.,0.926093589872,2.53457193018,247.
9.18,6410.,14.,17.,3544.,0.,0.,9985.,0.925908092909,3.43908720223,182.
9.2,6407.,19.,4.,3557.,0.,0.,9987.,0.925289414701,2.53237102971,247.
9.22,6405.,14.,11.,3554.,0.,0.,9984.,0.925278522559,3.43674879808,182.
9.24,6402.,15.,11.,3556.,0.,0.,9984.,0.924845136834,3.20612980769,195.
9.26,6396.,16.,6.,3564.,0.,0.,9982.,0.92416349429,3.00353135644,208.
9.28,6400.,19.,5.,3557.,0.,0.,9981.,0.924834107882,2.53112492683,247.
9.3,6402.,15.,9.,3551.,0.,0.,9977.,0.925494020863,3.20837927233,195.
9.32,6400.,15.,12.,3552.,0.,0.,9979.,0.925019463951,3.2067341417,195.
9.34,6392.,19.,7.,3560.,0.,0.,9978.,0.923955779638,2.52872108112,247.
9.36,6394.,20.,12.,3555.,0.,0.,9981.,0.923967075906,2.40231439735,260.
9.38,6390.,19.,11.,3561.,0.,0.,9981.,0.923389054588,2.52717004414,247.
9.4,6388.,20.,8.,3566.,0.,0.,9982.,0.923007567468,2.39981967542,260.
9.42,6382.,25.,8.,3563.,0.,0.,9978.,0.922510291873,1.9188214071,325.
9.44,6377.,23.,15.,3561.,0.,0.,9976.,0.921972349022,2.08445922388,299.
9.46,6369.,25.,14.,3570.,0.,0.,9978.,0.920631157778,1.91491280818,325.
9.48,6372.,25.,6.,3573.,0.,0.,9976.,0.921249460243,1.91619887731,325.
9.5,6376.,22.,8.,3575.,0.,0.,9981.,0.921365979977,2.17777413449,286.
9.52,6380.,19.,7.,3576.,0.,0.,9982.,0.921851640645,2.52296238492,247.
9.54,6382.,13.,9.,3576.,0.,0.,9980.,0.922325420071,3.68930168028,169.
9.56,6377.,18.,7.,3576.,0.,0.,9978.,0.92178754799,2.66294180531,234.
9.58,6380.,15.,11.,3572.,0.,0.,9978.,0.92222119432,3.19703347364,195.
9.6,6382.,17.,11.,3568.,0.,0.,9978.,0.922510291873,2.82179618691,221.
9.62,6369.,27.,8.,3570.,0.,0.,9974.,0.921000370193,1.77377849074,351.
9.64,6367.,20.,12.,3574.,0.,0.,9973.,0.92080347708,2.39408904041,260.
9.66,6361.,23.,16.,3574.,0.,0.,9974.,0.919843516219,2.07964621058,299.
9.68,6356.,24.,11.,3581.,0.,0.,9972.,0.919304822734,1.99182711592,312.
9.7,6361.,22.,9.,3580.,0.,0.,9972.,0.920028001481,2.17461163986,286.
9.72,6340.,27.,16.,3585.,0.,0.,9968.,0.917358624522,1.76676475834,351.
9.74,6330.,32.,7.,3598.,0.,0.,9967.,0.916003581048,1.4885058192,416.
9.76,6322.,32.,7.,3602.,0.,0.,9963.,0.915213211961,1.48722146944,416.
9.78,6321.,34.,12.,3596.,0.,0.,9963.,0.915068445556,1.39951644614,442.
9.8,6314.,38.,15.,3596.,0.,0.,9963.,0.914055080722,1.25081221572,494.
9.82,6306.,28.,22.,3607.,0.,0.,9963.,0.912896949482,1.69538004904,364.
9.84,6292.,33.,14.,3625.,0.,0.,9964.,0.910778803693,1.43516659976,429.
9.86,6288.,31.,10.,3634.,0.,0.,9963.,0.910291154194,1.52694000058,403.
9.88,6284.,22.,17.,3638.,0.,0.,9961.,0.909894743345,2.15066030245,286.
9.9,6275.,30.,14.,3642.,0.,0.,9961.,0.908591584101,1.57489207911,390.
9.92,6260.,35.,7.,3658.,0.,0.,9960.,0.906510658017,1.34681583477,455.
9.94,6259.,30.,12.,3657.,0.,0.,9958.,0.906547885735,1.57134966861,390.
9.96,6258.,21.,14.,3664.,0.,0.,9957.,0.906494078383,2.24465200362,273.
9.98,6248.,23.,15.,3674.,0.,0.,9960.,0.904772937905,2.04557359874,299.
10.,6242.,22.,12.,3683.,0.,0.,9959.,0.903994840384,2.13671507727,286.
