t,prevalence
5.,1
5.02,1
5.04,4
5.06,5
5.08,9
5.1,5
5.12,6
5.14,5
5.16,5
5.18,8
5.2,6
5.22,3
5.24,4
5.26,5
5.28,6
5.3,5
5.32,11
5.34,7
5.36,5
5.38,3
5.4,8
5.42,8
5.44,3
5.46,5
5.48,3
5.5,3
5.52,11
5.54,2
5.56,4
5.58,2
5.6,5
5.62,3
5.64,2
5.66,0
5.68,0
5.7,1
5.72,1
5.74,1
5.76,1
5.78,2
5.8,1
5.82,2
5.84,4
5.86,2
5.88,2
5.9,1
5.92,3
5.94,2
5.96,3
5.98,3
6.,2
6.02,3
6.04,5
6.06,1
6.08,2
6.1,7
6.12,7
6.14,2
6.16,0
6.18,0
6.2,3
6.22,5
6.24,5
6.26,8
6.28,6
6.3,1
6.32,4
6.34,6
6.36,4
6.38,6
6.4,8
6.42,8
6.44,5
6.46,5
6.48,5
6.5,4
6.52,10
6.54,6
6.56,4
6.58,8
6.6,2
6.62,3
6.64,4
6.66,6
6.68,6
6.7,5
6.72,5
6.74,6
6.76,3
6.78,4
6.8,3
6.82,5
6.84,3
6.86,4
6.88,5
6.9,4
6.92,3
6.94,1
6.96,8
6.98,7
7.,3
7.02,5
7.04,8
7.06,6
7.08,6
7.1,7
7.12,6
7.14,11
7.16,4
7.18,14
7.2,7
7.22,13
7.24,11
7.26,6
7.28,9
7.3,8
7.32,7
7.34,6
7.36,11
7.38,8
7.4,11
7.42,11
7.44,5
7.46,3
7.48,9
7.5,8
7.52,12
7.54,9
7.56,3
7.58,5
7.6,6
7.62,7
7.64,4
7.66,4
7.68,8
7.7,8
7.72,8
7.74,6
7.76,7
7.78,7
7.8,9
7.82,8
7.84,3
7.86,8
7.88,11
7.9,10
7.92,15
7.94,4
7.96,6
7.98,8
8.,6
8.02,8
8.04,12
8.06,12
8.08,11
8.1,9
8.12,2
8.14,3
8.16,10
8.18,3
8.2,12
8.22,5
8.24,5
8.26,7
8.28,6
8.3,9
8.32,11
8.34,8
8.36,9
8.38,9
8.4,2
8.42,4
8.44,7
8.46,6
8.48,8
8.5,6
8.52,5
8.54,6
8.56,2
8.58,3
8.6,4
8.62,4
8.64,6
8.66,5
8.68,3
8.7,2
8.72,3
8.74,4
8.76,2
8.78,4
8.8,4
8.82,1
8.84,2
8.86,0
8.88,1
8.9,1
8.92,0
8.94,0
8.96,2
8.98,1
9.,1
9.02,2
9.04,0
9.06,0
9.08,3
9.1,1
9.12,1
9.14,1
9.16,4
9.18,3
9.2,5
9.22,1
9.24,2
9.26,2
9.28,4
9.3,1
9.32,2
9.34,6
9.36,3
9.38,2
9.4,2
9.42,1
9.44,1
9.46,0
9.48,1
9.5,3
9.52,1
9.54,0
9.56,6
9.58,7
9.6,4
9.62,2
9.64,5
9.66,4
9.68,5
9.7,6
9.72,1
9.74,3
9.76,7
9.78,1
9.8,1
9.82,2
9.84,2
9.86,2
9.88,1
9.9,1
9.92,2
9.94,0
9.96,1
9.98,2
10.,2
