t,neff
5.,0.106581333333
5.02,0.106540860387
5.04,0.0638722044729
5.06,0.170485933504
5.08,0.127831229024
5.1,0.234240391781
5.12,0.170234487159
5.14,0.25537725315
5.16,0.212653386454
5.18,0.212551768079
5.2,0.106220806794
5.22,0.191227902532
5.24,0.169770992367
5.26,0.233314255432
5.28,0.127194153162
5.3,0.148251851852
5.32,0.190593839314
5.34,0.275007928957
5.36,0.274975692243
5.38,0.295999155048
5.4,0.338445606805
5.42,0.380690966719
5.44,0.401944312358
5.46,0.232359550562
5.48,0.253533786991
5.5,0.316780009489
5.52,0.380436847104
5.54,0.232204836415
5.56,0.189947842579
5.58,0.189846785658
5.6,0.189667034874
5.62,0.168472419414
5.64,0.168368816695
5.66,0.147124625807
5.68,0.231027134834
5.7,0.125890497168
5.72,0.125725058916
5.74,0.104654324861
5.76,0.125552941177
5.78,0.104463586531
5.8,0.167010954617
5.82,0.125055460084
5.84,0.104159508564
5.86,0.124943820225
5.88,0.0832605531295
5.9,0.0416131379275
5.92,0.0831152647973
5.94,0.103833981842
5.96,0.124544039838
5.98,0.0622277535781
6.,0.062191142191
6.02,0.165850424694
6.04,0.186430568499
6.06,0.144972558766
6.08,0.186403604163
6.1,0.165471571214
6.12,0.186013031337
6.14,0.186128531512
6.16,0.268741982206
6.18,0.289247945418
6.2,0.330759362715
6.22,0.28923490488
6.24,0.247633209417
6.26,0.268271872741
6.28,0.206366925065
6.3,0.206421591438
6.32,0.144503050988
6.34,0.227123939582
6.36,0.206325581395
6.38,0.12369154537
6.4,0.144179427688
6.42,0.206036217304
6.44,0.14409939169
6.46,0.267462255887
6.48,0.226079975297
6.5,0.225858523545
6.52,0.184773358002
6.54,0.164335441411
6.56,0.30858819895
6.58,0.308364197531
6.6,0.123408459401
6.62,0.164441702653
6.64,0.287955528104
6.66,0.267302469136
6.68,0.123288600956
6.7,0.143622920517
6.72,0.287407407407
6.74,0.328349255265
6.76,0.245667742431
6.78,0.184109336609
6.8,0.184054054054
6.82,0.245379183297
6.84,0.102284367957
6.86,0.409890222632
6.88,0.368728279256
6.9,0.554144838212
6.92,0.575023126735
6.94,0.410626380967
6.96,0.59703772418
6.98,0.515672605216
7.,0.496193728657
7.02,0.60021963222
7.04,0.725901707405
7.06,0.727341758983
7.08,0.832390182899
7.1,0.687973692453
7.12,0.584625359476
7.14,0.647892864616
7.16,0.628095537396
7.18,0.587397375328
7.2,0.609248567073
7.22,0.716212169142
7.24,0.526740506329
7.26,0.674936120788
7.28,0.718514992858
7.3,0.486322587474
7.32,0.487124827659
7.34,0.593364104197
7.36,0.571966900063
7.38,0.551452392333
7.4,0.679861709485
7.42,0.638146964857
7.44,0.788922682887
7.46,0.833200769723
7.48,0.705327342748
7.5,0.684901456728
7.52,0.49206553164
7.54,0.535295063514
7.56,0.492996405386
7.58,0.644465956759
7.6,0.623448498547
7.62,0.516552950687
7.64,0.387522224018
7.66,0.366162301972
7.68,0.40953983924
7.7,0.4958886371
7.72,0.388038834951
7.74,0.582848808946
7.76,0.388014884323
7.78,0.258515283843
7.8,0.34452523294
7.82,0.344337154852
7.84,0.279610501399
7.86,0.257945492663
7.88,0.365762565924
7.9,0.387355505327
7.92,0.494893479665
7.94,0.495510335916
7.96,0.431017770598
7.98,0.60451351789
8.,0.604527935223
8.02,0.53895893954
8.04,0.496453579328
8.06,0.5181223697
8.08,0.410287626139
8.1,0.431854969245
8.12,0.345217766279
8.14,0.237269543667
8.16,0.366548196015
8.18,0.344909560723
8.2,0.193835726965
8.22,0.237063351095
8.24,0.301582486149
8.26,0.215255603935
8.28,0.279898957325
8.3,0.365917808219
8.32,0.365696188942
8.34,0.300622422197
8.36,0.257495183045
8.38,0.235824375635
8.4,0.257164849263
8.42,0.364653502435
8.44,0.407366506154
8.46,0.38593293759
8.48,0.300085524909
8.5,0.449947123858
8.52,0.450569549175
8.54,0.493609328199
8.56,0.515215925511
8.58,0.51557840617
8.6,0.515432792678
8.62,0.364718343765
8.64,0.278902262879
8.66,0.321758664955
8.68,0.171432233258
8.7,0.278812770737
8.72,0.407831673627
8.74,0.429581993569
8.76,0.407930997536
8.78,0.49408776724
8.8,0.623643872352
8.82,0.603340857787
8.84,0.581592007733
8.86,0.56054597238
8.88,0.64670427075
8.9,0.668866666667
8.92,0.647732773923
8.94,0.475062684962
8.96,0.714288486419
8.98,0.757493393735
9.,0.584788732395
9.02,0.782075012177
9.04,0.761463414635
9.06,0.784878605183
9.08,0.632469437653
9.1,0.633191906005
9.12,0.546300832926
9.14,0.525684348396
9.16,0.394457002457
9.18,0.460016380016
9.2,0.372221858281
9.22,0.460016380016
9.24,0.372564060536
9.26,0.460255737706
9.28,0.350626024254
9.3,0.306618642217
9.32,0.328325969563
9.34,0.306167511307
9.36,0.131115830747
9.38,0.196532810969
9.4,0.19635474405
9.42,0.174382705991
9.44,0.130595509274
9.46,0.174031436314
9.48,0.130344379467
9.5,0.152176881808
9.52,0.17376427914
9.54,0.17360155743
9.56,0.325271518885
9.58,0.325409437327
9.6,0.216982865791
9.62,0.390910566466
9.64,0.325632706035
9.66,0.434436513087
9.68,0.282595238096
9.7,0.391607664826
9.72,0.435630689207
9.74,0.413703703703
9.76,0.326363636363
9.78,0.369754830329
9.8,0.369778066472
9.82,0.500875596011
9.84,0.566647141771
9.86,0.545528587717
9.88,0.611130302535
9.9,0.589651124878
9.92,0.612327619049
9.94,0.568957175548
9.96,0.437016484413
9.98,0.524833442196
10.,0.393022497555
