t,s,e,i,r,c,o,n,reff,coal,reportr
5.,6250.,5.,3.,3734.,0.,0.,9992.,0.902164038923,9.3825060048,65.
5.02,6253.,4.,2.,3731.,0.,0.,9990.,0.902777777778,11.7361111111,52.
5.04,6257.,8.,2.,3725.,0.,0.,9992.,0.903174462647,5.87063400721,104.
5.06,6262.,5.,4.,3719.,0.,0.,9990.,0.904077154077,9.4024024024,65.
5.08,6267.,8.,2.,3716.,0.,0.,9993.,0.904527399949,5.87942809967,104.
5.1,6276.,3.,4.,3712.,0.,0.,9995.,0.905645130257,15.6978489245,39.
5.12,6279.,7.,0.,3709.,0.,0.,9995.,0.90607803902,6.73086543272,91.
5.14,6284.,6.,2.,3702.,0.,0.,9994.,0.906890288019,7.8597158295,78.
5.16,6291.,4.,4.,3697.,0.,0.,9996.,0.907718856773,11.8003451381,52.
5.18,6300.,6.,2.,3691.,0.,0.,9999.,0.908744720626,7.87578757876,78.
5.2,6301.,6.,5.,3686.,0.,0.,9998.,0.908979872898,7.87782556511,78.
5.22,6304.,11.,3.,3679.,0.,0.,9997.,0.909503620317,4.29947165968,143.
5.24,6307.,10.,5.,3676.,0.,0.,9998.,0.909845430625,4.73119623925,130.
5.26,6308.,10.,3.,3673.,0.,0.,9994.,0.91035390465,4.73384030418,130.
5.28,6313.,4.,12.,3666.,0.,0.,9995.,0.910984338323,11.8427963982,52.
5.3,6313.,7.,10.,3663.,0.,0.,9993.,0.911166662818,6.76866663808,91.
5.32,6306.,16.,5.,3668.,0.,0.,9995.,0.909974217878,2.9574162081,208.
5.34,6308.,20.,5.,3664.,0.,0.,9997.,0.910080716523,2.36620986296,260.
5.36,6305.,12.,17.,3663.,0.,0.,9997.,0.909647894368,3.94180754226,156.
5.38,6302.,11.,9.,3674.,0.,0.,9996.,0.909306030104,4.29853759686,143.
5.4,6303.,15.,6.,3674.,0.,0.,9998.,0.90926839214,3.15213042609,195.
5.42,6305.,16.,6.,3671.,0.,0.,9998.,0.909556911382,2.95605996199,208.
5.44,6302.,16.,9.,3670.,0.,0.,9997.,0.909215072214,2.9549489847,208.
5.46,6295.,21.,4.,3673.,0.,0.,9993.,0.908568690391,2.24978913811,273.
5.48,6293.,15.,12.,3674.,0.,0.,9994.,0.908189144256,3.14838903342,195.
5.5,6295.,16.,5.,3679.,0.,0.,9995.,0.908386885751,2.95225737869,208.
5.52,6290.,16.,6.,3681.,0.,0.,9993.,0.907847031384,2.950502852,208.
5.54,6291.,13.,13.,3676.,0.,0.,9993.,0.907991363185,3.63196545274,169.
5.56,6291.,24.,10.,3668.,0.,0.,9993.,0.907991363185,1.96731462023,312.
5.58,6278.,21.,11.,3680.,0.,0.,9990.,0.906387156387,2.24438724439,273.
5.6,6273.,20.,12.,3684.,0.,0.,9989.,0.905755946926,2.35496546201,260.
5.62,6279.,16.,6.,3691.,0.,0.,9992.,0.906350080064,2.94563776021,208.
5.64,6277.,17.,4.,3694.,0.,0.,9992.,0.906061387572,2.7714818914,221.
5.66,6282.,18.,4.,3687.,0.,0.,9991.,0.906873878799,2.61985787208,234.
5.68,6283.,12.,6.,3690.,0.,0.,9991.,0.907018239492,3.93041237113,156.
5.7,6284.,16.,1.,3689.,0.,0.,9990.,0.907253407253,2.94857357357,208.
5.72,6298.,11.,3.,3680.,0.,0.,9992.,0.909092658742,4.29752893224,143.
5.74,6303.,11.,7.,3673.,0.,0.,9994.,0.909632317852,4.30008004803,143.
5.76,6304.,13.,2.,3673.,0.,0.,9992.,0.90995873622,3.63983494488,169.
5.78,6301.,13.,4.,3670.,0.,0.,9988.,0.909889944857,3.63955977943,169.
5.8,6313.,12.,4.,3661.,0.,0.,9990.,0.91144028644,3.94957457457,156.
5.82,6320.,11.,1.,3661.,0.,0.,9993.,0.912176985428,4.31210938566,143.
5.84,6325.,7.,7.,3653.,0.,0.,9992.,0.912990007391,6.78221148347,91.
5.86,6330.,9.,4.,3648.,0.,0.,9991.,0.913803192104,5.2797517766,117.
5.88,6330.,9.,5.,3646.,0.,0.,9990.,0.913894663895,5.28028028028,117.
5.9,6326.,11.,4.,3641.,0.,0.,9982.,0.914049134596,4.32095954536,143.
5.92,6328.,15.,4.,3636.,0.,0.,9983.,0.914246526788,3.16938795953,195.
5.94,6326.,16.,3.,3635.,0.,0.,9980.,0.914232310775,2.97125501002,208.
5.96,6329.,14.,7.,3634.,0.,0.,9984.,0.91429941753,3.39596926511,182.
5.98,6333.,14.,7.,3633.,0.,0.,9987.,0.914602444717,3.39709479466,182.
6.,6333.,13.,12.,3629.,0.,0.,9987.,0.914602444717,3.65840977887,169.
6.02,6331.,12.,11.,3635.,0.,0.,9989.,0.914130543598,3.96123235559,156.
6.04,6321.,18.,12.,3639.,0.,0.,9990.,0.912595287595,2.63638638639,234.
6.06,6321.,26.,9.,3637.,0.,0.,9993.,0.91232131723,1.82464263446,338.
6.08,6325.,23.,12.,3633.,0.,0.,9993.,0.912898644436,2.06394476133,299.
6.1,6314.,27.,11.,3639.,0.,0.,9991.,0.911493421002,1.75546881082,351.
6.12,6308.,32.,12.,3640.,0.,0.,9992.,0.910536121205,1.47962119696,416.
6.14,6296.,35.,18.,3644.,0.,0.,9993.,0.908713022192,1.35008791869,455.
6.16,6291.,28.,17.,3659.,0.,0.,9995.,0.907809674068,1.68593225184,364.
6.18,6280.,31.,22.,3664.,0.,0.,9997.,0.906041043082,1.51981078194,403.
6.2,6279.,30.,14.,3680.,0.,0.,10003.,0.905353393982,1.56927921624,390.
6.22,6279.,33.,10.,3682.,0.,0.,10004.,0.905262894842,1.4264748646,429.
6.24,6284.,25.,19.,3676.,0.,0.,10004.,0.905983760342,1.88444622151,325.
6.26,6281.,30.,16.,3677.,0.,0.,10004.,0.905551241042,1.56962215114,390.
6.28,6272.,38.,12.,3680.,0.,0.,10002.,0.904434497716,1.2376472074,494.
6.3,6267.,35.,18.,3682.,0.,0.,10002.,0.903713488072,1.34266003942,455.
6.32,6255.,33.,24.,3690.,0.,0.,10002.,0.901983064925,1.42130664776,429.
6.34,6241.,38.,21.,3700.,0.,0.,10000.,0.900144230769,1.23177631579,494.
6.36,6223.,40.,23.,3716.,0.,0.,10002.,0.897368603202,1.16657918416,520.
6.38,6210.,44.,15.,3734.,0.,0.,10003.,0.895404455586,1.05820526569,572.
6.4,6208.,41.,20.,3737.,0.,0.,10006.,0.894847706761,1.13492879882,533.
6.42,6210.,37.,8.,3753.,0.,0.,10008.,0.894957111234,1.25777756173,481.
6.44,6202.,32.,12.,3759.,0.,0.,10005.,0.894072194672,1.45286731634,416.
6.46,6196.,36.,11.,3763.,0.,0.,10006.,0.893117975369,1.29005929775,468.
6.48,6196.,19.,16.,3772.,0.,0.,10003.,0.893385830405,2.4450559569,247.
6.5,6193.,18.,12.,3776.,0.,0.,9999.,0.893310484895,2.58067473414,234.
6.52,6189.,19.,10.,3780.,0.,0.,9998.,0.892822795328,2.44351501879,247.
6.54,6192.,17.,10.,3781.,0.,0.,10000.,0.893076923077,2.73176470588,221.
6.56,6188.,18.,9.,3780.,0.,0.,9995.,0.892946473237,2.57962314491,234.
6.58,6186.,17.,5.,3786.,0.,0.,9994.,0.892747186774,2.73075610072,221.
6.6,6188.,14.,7.,3784.,0.,0.,9993.,0.893125187631,3.31732212549,182.
6.62,6193.,10.,7.,3785.,0.,0.,9995.,0.89366798784,4.64707353677,130.
6.64,6197.,12.,4.,3781.,0.,0.,9994.,0.89433467773,3.87545027016,156.
6.66,6195.,12.,4.,3783.,0.,0.,9994.,0.89404604301,3.87419951971,156.
6.68,6196.,14.,2.,3782.,0.,0.,9994.,0.89419036037,3.32127848137,182.
6.7,6201.,15.,3.,3771.,0.,0.,9990.,0.89527027027,3.1036036036,195.
6.72,6201.,13.,4.,3771.,0.,0.,9989.,0.895359895885,3.58143958354,169.
6.74,6204.,13.,4.,3768.,0.,0.,9989.,0.895793064679,3.58317225872,169.
6.76,6210.,12.,2.,3764.,0.,0.,9988.,0.896749175934,3.88591309571,156.
6.78,6207.,17.,3.,3755.,0.,0.,9982.,0.896854723117,2.74332032953,221.
6.8,6210.,18.,5.,3748.,0.,0.,9981.,0.897378095304,2.59242560866,234.
6.82,6210.,15.,7.,3745.,0.,0.,9977.,0.897737874033,3.11215796332,195.
6.84,6213.,16.,9.,3740.,0.,0.,9978.,0.898081548638,2.91876503307,208.
6.86,6216.,13.,9.,3739.,0.,0.,9977.,0.898605253622,3.59442101449,169.
6.88,6224.,6.,12.,3735.,0.,0.,9977.,0.89976175974,7.79793525108,78.
6.9,6222.,10.,9.,3737.,0.,0.,9978.,0.899382487627,4.67678893566,130.
6.92,6222.,12.,7.,3740.,0.,0.,9981.,0.899112159256,3.89615269011,156.
6.94,6221.,16.,7.,3739.,0.,0.,9983.,0.898787554227,2.92105955124,208.
6.96,6222.,12.,9.,3741.,0.,0.,9984.,0.898841993343,3.89498197115,156.
6.98,6223.,11.,4.,3746.,0.,0.,9984.,0.898986455251,4.2497541521,143.
7.,6226.,12.,4.,3742.,0.,0.,9984.,0.899419840976,3.89748597756,156.
7.02,6228.,11.,3.,3738.,0.,0.,9980.,0.900069369508,4.25487338313,143.
7.04,6226.,13.,3.,3738.,0.,0.,9980.,0.899780329891,3.59912131956,169.
7.06,6232.,12.,2.,3736.,0.,0.,9982.,0.900466994436,3.90202364256,156.
7.08,6236.,11.,7.,3730.,0.,0.,9984.,0.900864460059,4.25863199301,143.
7.1,6242.,10.,5.,3727.,0.,0.,9984.,0.901731231509,4.68900240385,130.
7.12,6245.,12.,1.,3723.,0.,0.,9981.,0.902435781832,3.9105550546,156.
7.14,6251.,12.,0.,3719.,0.,0.,9982.,0.903212320639,3.9139200561,156.
7.16,6259.,11.,3.,3708.,0.,0.,9981.,0.904458856443,4.275623685,143.
7.18,6263.,11.,8.,3701.,0.,0.,9983.,0.904855562148,4.27749902106,143.
7.2,6263.,13.,12.,3696.,0.,0.,9984.,0.904764931583,3.61905972633,169.
7.22,6258.,15.,6.,3699.,0.,0.,9978.,0.904586243582,3.13589897775,195.
7.24,6252.,11.,12.,3699.,0.,0.,9974.,0.904081380821,4.27383925479,143.
7.26,6254.,9.,4.,3707.,0.,0.,9974.,0.904370594314,5.22525232271,117.
7.28,6258.,6.,3.,3707.,0.,0.,9974.,0.904949021302,7.84289151795,78.
7.3,6266.,7.,6.,3696.,0.,0.,9975.,0.906015037594,6.73039742213,91.
7.32,6269.,10.,4.,3694.,0.,0.,9977.,0.906267106653,4.7125889546,130.
7.34,6273.,9.,0.,3692.,0.,0.,9974.,0.907118122503,5.24112693002,117.
7.36,6283.,5.,5.,3683.,0.,0.,9976.,0.908382039973,9.44717321572,65.
7.38,6286.,5.,5.,3678.,0.,0.,9974.,0.908998010211,9.4535793062,65.
7.4,6288.,3.,4.,3680.,0.,0.,9975.,0.909196067091,15.7593984962,39.
7.42,6295.,3.,4.,3669.,0.,0.,9971.,0.910573355037,15.7832714873,39.
7.44,6299.,6.,1.,3663.,0.,0.,9969.,0.911334753119,7.89823452703,78.
7.46,6304.,5.,3.,3659.,0.,0.,9971.,0.911875207332,9.48350215625,65.
7.48,6310.,7.,2.,3654.,0.,0.,9973.,0.912560066024,6.77901763332,91.
7.5,6321.,8.,0.,3647.,0.,0.,9976.,0.913875994695,5.94019396552,104.
7.52,6321.,7.,6.,3640.,0.,0.,9974.,0.914059246348,6.79015440144,91.
7.54,6325.,5.,4.,3640.,0.,0.,9974.,0.914637673335,9.51223180269,65.
7.56,6333.,6.,5.,3636.,0.,0.,9980.,0.915243949437,7.93211422846,78.
7.58,6337.,10.,3.,3630.,0.,0.,9980.,0.915822028673,4.7622745491,130.
7.6,6343.,9.,3.,3626.,0.,0.,9981.,0.916597304109,5.29589553485,117.
7.62,6346.,2.,10.,3622.,0.,0.,9980.,0.917122706952,23.8451903808,26.
7.64,6353.,9.,3.,3620.,0.,0.,9985.,0.917674588806,5.30211984644,117.
7.66,6355.,9.,4.,3616.,0.,0.,9984.,0.918055427145,5.30432024573,117.
7.68,6364.,12.,1.,3610.,0.,0.,9987.,0.919079418629,3.98267748072,156.
7.7,6368.,12.,5.,3605.,0.,0.,9990.,0.919380919381,3.98398398398,156.
7.72,6364.,15.,6.,3603.,0.,0.,9988.,0.918987400265,3.18582298759,195.
7.74,6370.,7.,9.,3600.,0.,0.,9986.,0.920038053275,6.83456839575,91.
7.76,6367.,14.,2.,3604.,0.,0.,9987.,0.919512674169,3.41533278977,182.
7.78,6365.,8.,11.,3603.,0.,0.,9987.,0.919223837142,5.97495494142,104.
7.8,6362.,15.,2.,3604.,0.,0.,9983.,0.919158723676,3.18641690874,195.
7.82,6360.,11.,6.,3604.,0.,0.,9981.,0.919053894708,4.34461841135,143.
7.84,6365.,12.,3.,3600.,0.,0.,9980.,0.91986858332,3.98609719439,156.
7.86,6367.,12.,5.,3595.,0.,0.,9979.,0.92024983234,3.98774927347,156.
7.88,6366.,12.,1.,3599.,0.,0.,9978.,0.920197511448,3.98752254961,156.
7.9,6366.,8.,5.,3595.,0.,0.,9974.,0.920566549953,5.98368257469,104.
7.92,6367.,7.,6.,3593.,0.,0.,9973.,0.92080347708,6.84025440117,91.
7.94,6374.,8.,6.,3585.,0.,0.,9973.,0.921815825807,5.99180286774,104.
7.96,6368.,13.,7.,3585.,0.,0.,9973.,0.920948098327,3.68379239331,169.
7.98,6372.,13.,4.,3580.,0.,0.,9969.,0.921896340193,3.68758536077,169.
8.,6374.,14.,7.,3571.,0.,0.,9966.,0.922463298291,3.4262922508,182.
8.02,6379.,11.,7.,3570.,0.,0.,9967.,0.923094288074,4.36371845271,143.
8.04,6379.,11.,3.,3568.,0.,0.,9961.,0.923650313144,4.36634693486,143.
8.06,6377.,10.,5.,3568.,0.,0.,9960.,0.923453429101,4.80195783133,130.
8.08,6386.,8.,8.,3559.,0.,0.,9961.,0.924663881445,6.01031522939,104.
8.1,6390.,9.,4.,3558.,0.,0.,9961.,0.925243063332,5.34584881036,117.
8.12,6392.,8.,10.,3551.,0.,0.,9961.,0.925532654275,6.01596225279,104.
8.14,6390.,8.,8.,3555.,0.,0.,9961.,0.925243063332,6.01407991166,104.
8.16,6385.,17.,5.,3551.,0.,0.,9958.,0.924797611507,2.82879269402,221.
8.18,6381.,17.,12.,3549.,0.,0.,9959.,0.924125452818,2.82673667921,221.
8.2,6375.,15.,12.,3553.,0.,0.,9955.,0.923627477495,3.20190858865,195.
8.22,6368.,22.,11.,3549.,0.,0.,9950.,0.923076923077,2.18181818182,286.
8.24,6354.,22.,8.,3557.,0.,0.,9941.,0.921881408,2.17899241891,286.
8.26,6353.,18.,8.,3561.,0.,0.,9940.,0.92182905123,2.66306170355,234.
8.28,6351.,15.,10.,3564.,0.,0.,9940.,0.921538848475,3.19466800805,195.
8.3,6361.,17.,9.,3558.,0.,0.,9945.,0.92252581506,2.82184366959,221.
8.32,6361.,18.,13.,3558.,0.,0.,9950.,0.922062234248,2.66373534338,234.
8.34,6359.,24.,13.,3557.,0.,0.,9953.,0.921494485621,1.99657138551,312.
8.36,6360.,24.,12.,3559.,0.,0.,9955.,0.921454236371,1.9964841788,312.
8.38,6352.,25.,14.,3565.,0.,0.,9956.,0.920202738202,1.91402169546,325.
8.4,6344.,19.,18.,3574.,0.,0.,9955.,0.919136112506,2.51553041318,247.
8.42,6337.,23.,13.,3582.,0.,0.,9955.,0.918121933315,2.07575393619,299.
8.44,6328.,30.,17.,3584.,0.,0.,9959.,0.916449751674,1.5885129029,390.
8.46,6318.,29.,22.,3594.,0.,0.,9963.,0.914634146341,1.64003364172,377.
8.48,6309.,28.,16.,3608.,0.,0.,9961.,0.913514630134,1.69652717025,364.
8.5,6296.,36.,12.,3616.,0.,0.,9960.,0.91172381835,1.31693440428,468.
8.52,6291.,30.,12.,3624.,0.,0.,9957.,0.911274248499,1.57954203073,390.
8.54,6286.,32.,4.,3637.,0.,0.,9959.,0.910367120579,1.47934657094,416.
8.56,6296.,20.,10.,3633.,0.,0.,9959.,0.911815366078,2.3707199518,260.
8.58,6297.,20.,10.,3632.,0.,0.,9959.,0.911960190628,2.37109649563,260.
8.6,6299.,20.,9.,3639.,0.,0.,9967.,0.911517623542,2.36994582121,260.
8.62,6298.,15.,13.,3638.,0.,0.,9964.,0.911647314949,3.16037735849,195.
8.64,6297.,17.,7.,3644.,0.,0.,9965.,0.911411092671,2.78784569523,221.
8.66,6306.,15.,4.,3643.,0.,0.,9968.,0.912439035683,3.16312199037,195.
8.68,6317.,5.,9.,3639.,0.,0.,9970.,0.913847311164,9.50401203611,65.
8.7,6321.,10.,2.,3637.,0.,0.,9970.,0.914425970218,4.75501504514,130.
8.72,6331.,6.,6.,3629.,0.,0.,9972.,0.915688929001,7.93597071801,78.
8.74,6337.,6.,3.,3627.,0.,0.,9973.,0.916464839683,7.94269527725,78.
8.76,6338.,8.,4.,3624.,0.,0.,9974.,0.916517561043,5.95736414678,104.
8.78,6339.,10.,3.,3620.,0.,0.,9972.,0.916846014996,4.76759927798,130.
8.8,6351.,11.,3.,3608.,0.,0.,9973.,0.918489537135,4.34195053918,143.
8.82,6342.,16.,5.,3608.,0.,0.,9971.,0.917371917021,2.98145873032,208.
8.84,6346.,13.,8.,3609.,0.,0.,9976.,0.917490438591,3.66996175436,169.
8.86,6348.,19.,6.,3606.,0.,0.,9979.,0.917503680807,2.51106270537,247.
8.88,6357.,15.,9.,3597.,0.,0.,9978.,0.918896572459,3.18550811786,195.
8.9,6351.,17.,10.,3601.,0.,0.,9979.,0.91793728368,2.80780816185,221.
8.92,6346.,22.,14.,3600.,0.,0.,9982.,0.916938951651,2.16731024936,286.
8.94,6346.,16.,14.,3606.,0.,0.,9982.,0.916938951651,2.98005159287,208.
8.96,6344.,10.,15.,3614.,0.,0.,9983.,0.916558148853,4.76610237404,130.
8.98,6340.,12.,9.,3618.,0.,0.,9979.,0.916347406477,3.9708387614,156.
9.,6345.,9.,6.,3621.,0.,0.,9981.,0.916886314767,5.29756537421,117.
9.02,6349.,10.,2.,3621.,0.,0.,9982.,0.91737242421,4.77033660589,130.
9.04,6361.,5.,6.,3613.,0.,0.,9985.,0.918830168329,9.55583375063,65.
9.06,6364.,5.,6.,3609.,0.,0.,9984.,0.91935558432,9.56129807692,65.
9.08,6361.,11.,5.,3605.,0.,0.,9982.,0.919106314443,4.34486621373,143.
9.1,6358.,11.,5.,3606.,0.,0.,9980.,0.918856944659,4.34368737475,143.
9.12,6358.,15.,10.,3599.,0.,0.,9982.,0.918672841885,3.18473251853,195.
9.14,6354.,15.,13.,3600.,0.,0.,9982.,0.918094878474,3.18272891204,195.
9.16,6344.,16.,9.,3612.,0.,0.,9981.,0.916741809438,2.97941088067,208.
9.18,6338.,15.,10.,3619.,0.,0.,9982.,0.915783024829,3.17471448607,195.
9.2,6340.,13.,14.,3622.,0.,0.,9989.,0.915430049978,3.66172019991,169.
9.22,6331.,22.,3.,3632.,0.,0.,9988.,0.91422206648,2.16088852077,286.
9.24,6335.,19.,5.,3627.,0.,0.,9986.,0.914982899136,2.50416372395,247.
9.26,6329.,19.,6.,3633.,0.,0.,9987.,0.914024770663,2.50154147761,247.
9.28,6329.,20.,10.,3628.,0.,0.,9987.,0.914024770663,2.37646440372,260.
9.3,6328.,24.,6.,3633.,0.,0.,9991.,0.913514470716,1.97928135322,312.
9.32,6325.,17.,13.,3637.,0.,0.,9992.,0.912990007391,2.79267531672,221.
9.34,6326.,15.,16.,3637.,0.,0.,9994.,0.912951617124,3.16489893936,195.
9.36,6320.,14.,13.,3646.,0.,0.,9993.,0.912176985428,3.38808594588,182.
9.38,6317.,17.,7.,3650.,0.,0.,9991.,0.911926503084,2.78942224473,221.
9.4,6323.,15.,10.,3647.,0.,0.,9995.,0.91242736753,3.16308154077,195.
9.42,6330.,15.,6.,3641.,0.,0.,9992.,0.913711738622,3.16753402722,195.
9.44,6328.,16.,1.,3645.,0.,0.,9990.,0.913605913606,2.96921921922,208.
9.46,6329.,8.,13.,3639.,0.,0.,9989.,0.913841764402,5.93997146862,104.
9.48,6331.,12.,9.,3639.,0.,0.,9991.,0.913947552798,3.96043939546,156.
9.5,6328.,13.,11.,3638.,0.,0.,9990.,0.913605913606,3.65442365442,169.
9.52,6325.,18.,9.,3639.,0.,0.,9991.,0.913081388634,2.63779067828,234.
9.54,6326.,17.,9.,3637.,0.,0.,9989.,0.913408595609,2.79395570422,221.
9.56,6319.,14.,13.,3639.,0.,0.,9985.,0.912763375833,3.39026396738,182.
9.58,6318.,14.,8.,3647.,0.,0.,9987.,0.912436167017,3.38904862035,182.
9.6,6319.,15.,8.,3646.,0.,0.,9988.,0.912489217831,3.16329595515,195.
9.62,6315.,17.,9.,3646.,0.,0.,9987.,0.912002911477,2.78965596452,221.
9.64,6314.,16.,10.,3648.,0.,0.,9988.,0.91176719756,2.96324339207,208.
9.66,6312.,16.,5.,3656.,0.,0.,9989.,0.91138714124,2.96200820903,208.
9.68,6308.,13.,13.,3656.,0.,0.,9990.,0.910718410718,3.64287364287,169.
9.7,6308.,17.,8.,3660.,0.,0.,9993.,0.91044500381,2.78489059989,221.
9.72,6312.,19.,10.,3653.,0.,0.,9994.,0.910931174089,2.49307479224,247.
9.74,6309.,17.,16.,3653.,0.,0.,9995.,0.91040712664,2.78477474031,221.
9.76,6301.,21.,10.,3662.,0.,0.,9994.,0.909343683133,2.25170816776,273.
9.78,6296.,25.,14.,3661.,0.,0.,9996.,0.908440299197,1.88955582233,325.
9.8,6284.,33.,14.,3663.,0.,0.,9994.,0.906890288019,1.42903924173,429.
9.82,6279.,30.,13.,3668.,0.,0.,9990.,0.906531531532,1.57132132132,390.
9.84,6272.,30.,13.,3672.,0.,0.,9987.,0.905792915405,1.57004105337,390.
9.86,6260.,32.,14.,3678.,0.,0.,9984.,0.904331545858,1.46953876202,416.
9.88,6248.,36.,12.,3688.,0.,0.,9984.,0.902598002959,1.30375267094,468.
9.9,6245.,29.,18.,3691.,0.,0.,9983.,0.902254987325,1.617836529,377.
9.92,6239.,29.,20.,3699.,0.,0.,9987.,0.901027104467,1.61563480801,377.
9.94,6227.,32.,20.,3710.,0.,0.,9989.,0.899114025428,1.46106029132,416.
9.96,6214.,34.,24.,3718.,0.,0.,9990.,0.897147147147,1.37210740152,442.
9.98,6186.,40.,24.,3737.,0.,0.,9987.,0.893372923262,1.16138480024,520.
10.,6172.,43.,22.,3751.,0.,0.,9988.,0.891261821879,1.0778049939,559.
