t,s,e,i,r,c,o,n,reff,coal,reportr
5.,6250.,5.,3.,3734.,0.,0.,9992.,0.902164038923,9.3825060048,65.
5.02,6253.,5.,3.,3731.,0.,0.,9992.,0.902597077662,9.38700960769,65.
5.04,6262.,5.,1.,3729.,0.,0.,9997.,0.903444110156,9.39581874562,65.
5.06,6265.,7.,2.,3721.,0.,0.,9995.,0.90405779813,6.71585792896,91.
5.08,6271.,8.,3.,3710.,0.,0.,9992.,0.905195310094,5.88376951561,104.
5.1,6276.,7.,4.,3705.,0.,0.,9992.,0.905917041325,6.72966944985,91.
5.12,6279.,9.,3.,3702.,0.,0.,9993.,0.906259381567,5.23616531572,117.
5.14,6288.,10.,3.,3696.,0.,0.,9997.,0.907195235494,4.71741522457,130.
5.16,6292.,12.,3.,3688.,0.,0.,9995.,0.907953976988,3.93446723362,156.
5.18,6295.,15.,3.,3682.,0.,0.,9995.,0.908386885751,3.14907453727,195.
5.2,6299.,9.,8.,3679.,0.,0.,9995.,0.908964097433,5.25179256295,117.
5.22,6296.,13.,10.,3674.,0.,0.,9993.,0.908713022192,3.63485208877,169.
5.24,6292.,19.,12.,3671.,0.,0.,9994.,0.908044826896,2.48517531572,247.
5.26,6288.,14.,12.,3679.,0.,0.,9993.,0.907558367781,3.37093108033,182.
5.28,6279.,23.,11.,3679.,0.,0.,9992.,0.906350080064,2.04913931145,299.
5.3,6275.,23.,13.,3680.,0.,0.,9991.,0.905863353942,2.04803888717,299.
5.32,6272.,22.,12.,3685.,0.,0.,9991.,0.90543027186,2.14010791531,286.
5.34,6264.,22.,12.,3693.,0.,0.,9991.,0.904275386309,2.13737818582,286.
5.36,6263.,16.,19.,3694.,0.,0.,9992.,0.904040540124,2.9381317554,208.
5.38,6261.,19.,14.,3699.,0.,0.,9993.,0.90366140914,2.47317859344,247.
5.4,6258.,18.,12.,3702.,0.,0.,9990.,0.9034996535,2.61011011011,234.
5.42,6258.,25.,11.,3697.,0.,0.,9991.,0.903409222146,1.87909118206,325.
5.44,6254.,29.,11.,3696.,0.,0.,9990.,0.902922152922,1.61903282593,377.
5.46,6242.,35.,15.,3695.,0.,0.,9987.,0.901460360006,1.33931253487,455.
5.48,6227.,34.,15.,3711.,0.,0.,9987.,0.899294082307,1.37539094941,442.
5.5,6210.,40.,12.,3726.,0.,0.,9988.,0.896749175934,1.16577392871,520.
5.52,6202.,40.,9.,3735.,0.,0.,9986.,0.895773313408,1.16450530743,520.
5.54,6205.,31.,12.,3737.,0.,0.,9985.,0.896296367628,1.50346487473,403.
5.56,6200.,25.,9.,3749.,0.,0.,9983.,0.895753550266,1.86316738455,325.
5.58,6202.,17.,10.,3754.,0.,0.,9983.,0.896042503024,2.7408358916,221.
5.6,6201.,19.,10.,3753.,0.,0.,9983.,0.895898026645,2.45193144135,247.
5.62,6199.,16.,15.,3753.,0.,0.,9983.,0.895609073887,2.91072949013,208.
5.64,6195.,20.,12.,3755.,0.,0.,9982.,0.895120832884,2.3273141655,260.
5.66,6193.,26.,13.,3752.,0.,0.,9984.,0.894652598003,1.78930519601,338.
5.68,6185.,25.,17.,3758.,0.,0.,9985.,0.893407418821,1.85828743115,325.
5.7,6184.,18.,22.,3765.,0.,0.,9989.,0.892905272723,2.5795041212,234.
5.72,6175.,26.,12.,3779.,0.,0.,9992.,0.891338070456,1.78267614091,338.
5.74,6179.,20.,15.,3775.,0.,0.,9989.,0.892183324734,2.31967664431,260.
5.76,6176.,21.,3.,3783.,0.,0.,9983.,0.892286117168,2.20947038537,273.
5.78,6181.,14.,14.,3774.,0.,0.,9983.,0.893008499064,3.31688871081,182.
5.8,6183.,18.,12.,3772.,0.,0.,9985.,0.89311852394,2.58012018027,234.
5.82,6176.,28.,12.,3773.,0.,0.,9989.,0.891750155941,1.65610743246,364.
5.84,6165.,30.,8.,3786.,0.,0.,9989.,0.890161870365,1.54294724197,390.
5.86,6164.,30.,7.,3790.,0.,0.,9991.,0.889839316924,1.54238814933,390.
5.88,6168.,26.,6.,3789.,0.,0.,9989.,0.890595039158,1.78119007832,338.
5.9,6165.,27.,14.,3780.,0.,0.,9986.,0.890429293318,1.71490086121,351.
5.92,6161.,22.,13.,3791.,0.,0.,9987.,0.889762460429,2.10307490647,286.
5.94,6151.,24.,15.,3797.,0.,0.,9987.,0.888318275296,1.92468959648,312.
5.96,6147.,24.,15.,3804.,0.,0.,9990.,0.887474012474,1.92286036036,312.
5.98,6144.,32.,13.,3802.,0.,0.,9991.,0.886952103047,1.44129716745,416.
6.,6141.,30.,18.,3801.,0.,0.,9990.,0.886607761608,1.53678678679,390.
6.02,6133.,35.,13.,3812.,0.,0.,9993.,0.885186938549,1.31513488013,455.
6.04,6132.,33.,18.,3807.,0.,0.,9990.,0.885308385308,1.39503139503,429.
6.06,6115.,38.,17.,3819.,0.,0.,9989.,0.882942390476,1.20823695539,494.
6.08,6112.,34.,8.,3839.,0.,0.,9993.,0.882155970718,1.34917971992,442.
6.1,6104.,36.,12.,3839.,0.,0.,9991.,0.881177675292,1.27281219764,468.
6.12,6098.,31.,12.,3852.,0.,0.,9993.,0.880135325497,1.47635602987,403.
6.14,6101.,28.,11.,3854.,0.,0.,9994.,0.880480211204,1.63517753509,364.
6.16,6092.,21.,17.,3862.,0.,0.,9992.,0.879357332019,2.17745625071,273.
6.18,6093.,27.,10.,3866.,0.,0.,9996.,0.879149736818,1.69317727091,351.
6.2,6089.,24.,10.,3873.,0.,0.,9996.,0.878572582879,1.90357392957,312.
6.22,6080.,24.,9.,3877.,0.,0.,9990.,0.877800877801,1.9019019019,312.
6.24,6071.,21.,15.,3879.,0.,0.,9986.,0.876852593631,2.17125404137,273.
6.26,6065.,25.,9.,3885.,0.,0.,9984.,0.876161473743,1.82241586538,325.
6.28,6064.,21.,14.,3889.,0.,0.,9988.,0.875666184036,2.16831626523,273.
6.3,6061.,18.,18.,3893.,0.,0.,9990.,0.875057750058,2.52794461128,234.
6.32,6051.,24.,11.,3903.,0.,0.,9989.,0.873701456217,1.8930198218,312.
6.34,6055.,24.,7.,3900.,0.,0.,9986.,0.874541666025,1.89484027639,312.
6.36,6055.,19.,12.,3899.,0.,0.,9985.,0.87462925157,2.39372216219,247.
6.38,6050.,19.,14.,3901.,0.,0.,9984.,0.873994545118,2.39198507085,247.
6.4,6048.,20.,8.,3908.,0.,0.,9984.,0.873705621302,2.27163461538,260.
6.42,6046.,13.,11.,3913.,0.,0.,9983.,0.873504187889,3.49401675155,169.
6.44,6040.,23.,10.,3908.,0.,0.,9981.,0.872812189314,1.97331451497,299.
6.46,6039.,23.,9.,3912.,0.,0.,9983.,0.872492853235,1.97259253775,299.
6.48,6044.,19.,10.,3910.,0.,0.,9983.,0.87321523513,2.38985222246,247.
6.5,6034.,27.,7.,3915.,0.,0.,9983.,0.87177047134,1.67896535221,351.
6.52,6038.,21.,9.,3917.,0.,0.,9985.,0.872173645083,2.15966807354,273.
6.54,6042.,18.,12.,3919.,0.,0.,9991.,0.872227312273,2.51976779101,234.
6.56,6036.,20.,16.,3923.,0.,0.,9995.,0.871012429292,2.26463231616,260.
6.58,6029.,29.,12.,3926.,0.,0.,9996.,0.869915273802,1.55984807716,377.
6.6,6031.,27.,12.,3934.,0.,0.,10004.,0.869507966044,1.6746079346,351.
6.62,6038.,20.,7.,3937.,0.,0.,10002.,0.870691246366,2.26379724055,260.
6.64,6041.,13.,13.,3937.,0.,0.,10004.,0.870949697044,3.48379878818,169.
6.66,6036.,23.,5.,3943.,0.,0.,10007.,0.869967945515,1.96688405073,299.
6.68,6042.,14.,9.,3942.,0.,0.,10007.,0.870832724785,3.2345215492,182.
6.7,6036.,15.,8.,3946.,0.,0.,10005.,0.870141852151,3.01649175412,195.
6.72,6037.,18.,8.,3941.,0.,0.,10004.,0.870373004644,2.51441090231,234.
6.74,6035.,20.,9.,3943.,0.,0.,10007.,0.869823815637,2.26154192066,260.
6.76,6036.,23.,4.,3944.,0.,0.,10007.,0.869967945515,1.96688405073,299.
6.78,6036.,15.,10.,3947.,0.,0.,10008.,0.869881018262,3.01558752998,195.
6.8,6027.,22.,5.,3955.,0.,0.,10009.,0.868497198675,2.0528115605,286.
6.82,6033.,19.,2.,3953.,0.,0.,10007.,0.86953555588,2.37978152136,247.
6.84,6039.,11.,6.,3952.,0.,0.,10008.,0.870313364693,4.11420863309,143.
6.86,6044.,12.,10.,3942.,0.,0.,10008.,0.871033942077,3.77448041567,156.
6.88,6048.,7.,7.,3948.,0.,0.,10010.,0.871436256052,6.47352647353,91.
6.9,6048.,10.,2.,3951.,0.,0.,10011.,0.871349208179,4.53101588253,130.
6.92,6047.,15.,0.,3948.,0.,0.,10010.,0.871292169369,3.02047952048,195.
6.94,6051.,11.,7.,3942.,0.,0.,10011.,0.871781425048,4.12114855477,143.
6.96,6052.,10.,6.,3942.,0.,0.,10010.,0.872012602782,4.53446553447,130.
6.98,6054.,10.,8.,3938.,0.,0.,10010.,0.872300776147,4.53596403596,130.
7.,6058.,8.,4.,3940.,0.,0.,10010.,0.872877122877,5.6737012987,104.
7.02,6062.,8.,3.,3938.,0.,0.,10011.,0.873366220235,5.67688043153,104.
7.04,6064.,4.,4.,3938.,0.,0.,10010.,0.873741642972,11.3586413586,52.
7.06,6066.,4.,6.,3935.,0.,0.,10011.,0.873942509394,11.3612526221,52.
7.08,6067.,2.,7.,3936.,0.,0.,10012.,0.87399927779,22.7239812225,26.
7.1,6070.,5.,6.,3930.,0.,0.,10011.,0.874518798552,9.09499550494,65.
7.12,6077.,3.,4.,3929.,0.,0.,10013.,0.875352426461,15.172775392,39.
7.14,6084.,3.,1.,3927.,0.,0.,10015.,0.876185721418,15.1872191712,39.
7.16,6091.,5.,1.,3918.,0.,0.,10015.,0.877193824648,9.12281577634,65.
7.18,6100.,5.,1.,3909.,0.,0.,10015.,0.878489957372,9.13629555667,65.
7.2,6109.,7.,1.,3900.,0.,0.,10017.,0.879610431497,6.53424891969,91.
7.22,6112.,8.,2.,3895.,0.,0.,10017.,0.880042389476,5.7202755316,104.
7.24,6106.,10.,2.,3893.,0.,0.,10011.,0.879705400982,4.57446808511,130.
7.26,6110.,9.,6.,3882.,0.,0.,10007.,0.88063355651,5.08810499317,117.
7.28,6107.,10.,4.,3888.,0.,0.,10009.,0.880025284936,4.57613148167,130.
7.3,6116.,11.,5.,3878.,0.,0.,10010.,0.881234150465,4.16583416583,143.
7.32,6120.,10.,4.,3878.,0.,0.,10012.,0.881634346477,4.58449860168,130.
7.34,6123.,11.,5.,3875.,0.,0.,10014.,0.881890353505,4.16893621657,143.
7.36,6121.,12.,7.,3873.,0.,0.,10013.,0.881690341018,3.82065814441,156.
7.38,6132.,8.,9.,3864.,0.,0.,10013.,0.883274819658,5.74128632777,104.
7.4,6135.,11.,3.,3863.,0.,0.,10012.,0.883795214973,4.17794101624,143.
7.42,6145.,10.,6.,3850.,0.,0.,10011.,0.885324220281,4.60368594546,130.
7.44,6147.,10.,5.,3850.,0.,0.,10012.,0.88552390977,4.6047243308,130.
7.46,6152.,13.,2.,3848.,0.,0.,10015.,0.885978724221,3.54391489689,169.
7.48,6156.,10.,6.,3842.,0.,0.,10014.,0.886643314744,4.61054523667,130.
7.5,6155.,12.,9.,3838.,0.,0.,10014.,0.886499285616,3.84149690433,156.
7.52,6147.,15.,7.,3846.,0.,0.,10015.,0.885258650486,3.06889665502,195.
7.54,6156.,17.,2.,3842.,0.,0.,10017.,0.88637777317,2.71127318852,221.
7.56,6154.,7.,11.,3842.,0.,0.,10014.,0.886355256487,6.5843533339,91.
7.58,6150.,13.,4.,3848.,0.,0.,10015.,0.885690694727,3.54276277891,169.
7.6,6155.,9.,6.,3846.,0.,0.,10016.,0.886322268985,5.12097310969,117.
7.62,6157.,7.,11.,3839.,0.,0.,10014.,0.886787343872,6.58756312591,91.
7.64,6150.,14.,9.,3838.,0.,0.,10011.,0.886044581729,3.29102273214,182.
7.66,6154.,17.,10.,3831.,0.,0.,10012.,0.886532315068,2.71174590491,221.
7.68,6153.,20.,10.,3828.,0.,0.,10011.,0.886476798598,2.30483967636,260.
7.7,6142.,21.,12.,3834.,0.,0.,10009.,0.885068822675,2.19159898948,273.
7.72,6128.,34.,11.,3835.,0.,0.,10008.,0.883139642132,1.35068415856,442.
7.74,6123.,32.,19.,3836.,0.,0.,10010.,0.882242757243,1.43364448052,416.
7.76,6118.,33.,20.,3839.,0.,0.,10010.,0.88152232383,1.38906547997,429.
7.78,6103.,32.,21.,3853.,0.,0.,10009.,0.879448880623,1.42910443101,416.
7.8,6092.,25.,25.,3868.,0.,0.,10010.,0.877776070084,1.82577422577,325.
7.82,6067.,37.,23.,3877.,0.,0.,10004.,0.874698197644,1.22930557507,481.
7.84,6064.,33.,12.,3895.,0.,0.,10004.,0.874265678344,1.37763076588,429.
7.86,6059.,29.,12.,3900.,0.,0.,10000.,0.873894230769,1.56698275862,377.
7.88,6056.,33.,16.,3895.,0.,0.,10000.,0.873461538462,1.37636363636,429.
7.9,6050.,20.,23.,3911.,0.,0.,10004.,0.872247254944,2.26784286285,260.
7.92,6038.,26.,13.,3926.,0.,0.,10003.,0.870604203354,1.74120840671,338.
7.94,6039.,21.,18.,3928.,0.,0.,10006.,0.870487322991,2.15549241883,273.
7.96,6034.,24.,9.,3937.,0.,0.,10004.,0.869940485344,1.88487105158,312.
7.98,6033.,17.,15.,3939.,0.,0.,10004.,0.869796312244,2.66055342569,221.
8.,6042.,17.,6.,3944.,0.,0.,10009.,0.870658714849,2.66319136307,221.
8.02,6043.,18.,9.,3939.,0.,0.,10009.,0.870802815927,2.51565257935,234.
8.04,6044.,21.,6.,3936.,0.,0.,10007.,0.871120984542,2.15706148553,273.
8.06,6054.,16.,10.,3927.,0.,0.,10007.,0.872562283325,2.83582742081,208.
8.08,6056.,21.,6.,3924.,0.,0.,10007.,0.872850543081,2.16134420192,273.
8.1,6058.,18.,6.,3927.,0.,0.,10009.,0.872964332101,2.5218969594,234.
8.12,6065.,16.,6.,3924.,0.,0.,10011.,0.873798437104,2.83984492059,208.
8.14,6069.,12.,5.,3927.,0.,0.,10013.,0.87420007836,3.78820033956,156.
8.16,6073.,10.,3.,3928.,0.,0.,10014.,0.874688897083,4.54838226483,130.
8.18,6075.,9.,3.,3925.,0.,0.,10012.,0.875151740988,5.05643228126,117.
8.2,6080.,8.,6.,3920.,0.,0.,10014.,0.875697100982,5.69203115638,104.
8.22,6082.,11.,3.,3913.,0.,0.,10009.,0.876422757979,4.14308940136,143.
8.24,6092.,9.,3.,3905.,0.,0.,10009.,0.877863768762,5.07210177507,117.
8.26,6093.,13.,2.,3903.,0.,0.,10011.,0.877832461216,3.51132984486,169.
8.28,6101.,12.,4.,3891.,0.,0.,10008.,0.879248524258,3.81007693845,156.
8.3,6104.,14.,5.,3888.,0.,0.,10011.,0.879417256403,3.26640695235,182.
8.32,6113.,15.,4.,3882.,0.,0.,10014.,0.880450062221,3.05222688236,195.
8.34,6119.,14.,5.,3874.,0.,0.,10012.,0.881490288577,3.27410678614,182.
8.36,6123.,13.,2.,3873.,0.,0.,10011.,0.882154629907,3.52861851963,169.
8.38,6125.,13.,3.,3867.,0.,0.,10008.,0.882707295702,3.53082918281,169.
8.4,6121.,12.,5.,3866.,0.,0.,10004.,0.882483545044,3.82409536186,156.
8.42,6126.,6.,11.,3862.,0.,0.,10005.,0.883116134241,7.65367316342,78.
8.44,6125.,11.,11.,3862.,0.,0.,10009.,0.882619104345,4.17238122054,143.
8.46,6122.,13.,4.,3868.,0.,0.,10007.,0.88236311505,3.5294524602,169.
8.48,6125.,9.,9.,3864.,0.,0.,10007.,0.882795504685,5.10059624929,117.
8.5,6127.,7.,6.,3865.,0.,0.,10005.,0.88326029293,6.56136217605,91.
8.52,6130.,8.,3.,3861.,0.,0.,10002.,0.88395782382,5.74572585483,104.
8.54,6137.,11.,1.,3856.,0.,0.,10005.,0.884701879829,4.18222706828,143.
8.56,6139.,9.,3.,3854.,0.,0.,10005.,0.884990197209,5.11327669499,117.
8.58,6139.,11.,2.,3850.,0.,0.,10002.,0.885255641179,4.18484484921,143.
8.6,6146.,6.,5.,3848.,0.,0.,10005.,0.885999308038,7.67866066967,78.
8.62,6155.,7.,0.,3843.,0.,0.,10005.,0.887296736247,6.59134718355,91.
8.64,6170.,5.,4.,3832.,0.,0.,10011.,0.888926027524,9.24483068625,65.
8.66,6173.,4.,3.,3829.,0.,0.,10009.,0.889535956101,11.5639674293,52.
8.68,6184.,5.,1.,3820.,0.,0.,10010.,0.891032044878,9.26673326673,65.
8.7,6195.,4.,2.,3813.,0.,0.,10014.,0.892260450754,11.5993858598,52.
8.72,6196.,4.,3.,3811.,0.,0.,10014.,0.892404479882,11.6012582385,52.
8.74,6197.,8.,3.,3806.,0.,0.,10014.,0.89254850901,5.80156530857,104.
8.76,6208.,9.,4.,3795.,0.,0.,10016.,0.893954288523,5.16506922258,117.
8.78,6213.,7.,1.,3795.,0.,0.,10016.,0.894674290366,6.64615187129,91.
8.8,6216.,4.,4.,3789.,0.,0.,10013.,0.895374474721,11.6398681714,52.
8.82,6220.,5.,2.,3784.,0.,0.,10011.,0.896129642009,9.3197482769,65.
8.84,6227.,5.,4.,3776.,0.,0.,10012.,0.89704854175,9.3293048342,65.
8.86,6226.,8.,4.,3773.,0.,0.,10011.,0.896994075747,5.83046149236,104.
8.88,6233.,7.,2.,3771.,0.,0.,10013.,0.897823214437,6.66954387867,91.
8.9,6239.,5.,0.,3769.,0.,0.,10013.,0.898687475513,9.34634974533,65.
8.92,6243.,3.,3.,3761.,0.,0.,10010.,0.899533159149,15.5919080919,39.
8.94,6245.,7.,4.,3751.,0.,0.,10007.,0.900091090083,6.6863909549,91.
8.96,6254.,9.,2.,3742.,0.,0.,10007.,0.901388258988,5.20802105193,117.
8.98,6252.,9.,5.,3740.,0.,0.,10006.,0.901190055198,5.20687587448,117.
9.,6254.,13.,4.,3738.,0.,0.,10009.,0.90120814344,3.60483257376,169.
9.02,6261.,14.,4.,3732.,0.,0.,10011.,0.902036605887,3.35042167901,182.
9.04,6266.,10.,13.,3721.,0.,0.,10010.,0.902847152847,4.69480519481,130.
9.06,6260.,15.,7.,3726.,0.,0.,10008.,0.902162885077,3.1274980016,195.
9.08,6257.,16.,6.,3725.,0.,0.,10004.,0.902091086642,2.93179603159,208.
9.1,6253.,18.,7.,3724.,0.,0.,10002.,0.901694661068,2.60489568753,234.
9.12,6260.,17.,4.,3724.,0.,0.,10005.,0.902433398685,2.76038451363,221.
9.14,6262.,13.,7.,3721.,0.,0.,10003.,0.902902206261,3.61160882504,169.
9.16,6261.,14.,10.,3717.,0.,0.,10002.,0.902848276499,3.35343645557,182.
9.18,6255.,10.,17.,3721.,0.,0.,10003.,0.90189289367,4.68984304709,130.
9.2,6258.,15.,7.,3720.,0.,0.,10000.,0.902596153846,3.129,195.
9.22,6253.,18.,7.,3722.,0.,0.,10000.,0.901875,2.60541666667,234.
9.24,6250.,16.,8.,3722.,0.,0.,9996.,0.901803028904,2.93085984394,208.
9.26,6250.,12.,12.,3723.,0.,0.,9997.,0.901712821539,3.90742222667,156.
9.28,6253.,13.,7.,3725.,0.,0.,9998.,0.902055411082,3.60822164433,169.
9.3,6255.,15.,4.,3727.,0.,0.,10001.,0.902073254213,3.12718728127,195.
9.32,6265.,8.,9.,3721.,0.,0.,10003.,0.9033347688,5.8716759972,104.
9.34,6256.,15.,6.,3725.,0.,0.,10002.,0.902127266854,3.12737452509,195.
9.36,6263.,13.,9.,3717.,0.,0.,10002.,0.903136680356,3.61254672142,169.
9.38,6265.,16.,5.,3718.,0.,0.,10004.,0.903244471442,2.93554453219,208.
9.4,6260.,13.,11.,3718.,0.,0.,10002.,0.90270407457,3.61081629828,169.
9.42,6252.,22.,13.,3715.,0.,0.,10002.,0.901550459139,2.13093744887,286.
9.44,6230.,34.,17.,3719.,0.,0.,10000.,0.898557692308,1.37426470588,442.
9.46,6213.,33.,18.,3735.,0.,0.,9999.,0.89619538877,1.41218667321,429.
9.48,6200.,33.,21.,3748.,0.,0.,10002.,0.894051958839,1.40880914726,429.
9.5,6185.,29.,26.,3762.,0.,0.,10002.,0.891888929906,1.59924911569,377.
9.52,6166.,38.,17.,3776.,0.,0.,9997.,0.889593801217,1.21733888588,494.
9.54,6165.,28.,19.,3785.,0.,0.,9997.,0.889449527166,1.65183483617,364.
9.56,6157.,28.,18.,3789.,0.,0.,9992.,0.888739838024,1.65051684205,364.
9.58,6154.,25.,16.,3798.,0.,0.,9993.,0.888217906381,1.84749324527,325.
9.6,6146.,27.,11.,3805.,0.,0.,9989.,0.887418468007,1.70910223468,351.
9.62,6151.,22.,16.,3799.,0.,0.,9988.,0.888229336743,2.09945115957,286.
9.64,6142.,29.,10.,3809.,0.,0.,9990.,0.886752136752,1.59003831418,377.
9.66,6140.,28.,11.,3810.,0.,0.,9989.,0.88655213042,1.6464539565,364.
9.68,6148.,25.,16.,3801.,0.,0.,9990.,0.887618387618,1.84624624625,325.
9.7,6136.,31.,12.,3812.,0.,0.,9991.,0.885797217496,1.48585339709,403.
9.72,6131.,30.,18.,3810.,0.,0.,9989.,0.88525262404,1.53443788167,390.
9.74,6128.,28.,12.,3822.,0.,0.,9990.,0.884730884731,1.64307164307,364.
9.76,6128.,26.,11.,3824.,0.,0.,9989.,0.884819455247,1.76963891049,338.
9.78,6124.,22.,11.,3830.,0.,0.,9987.,0.884418975437,2.09044485103,286.
9.8,6114.,22.,14.,3835.,0.,0.,9985.,0.883151650553,2.08744935585,286.
9.82,6114.,26.,12.,3836.,0.,0.,9988.,0.882886386741,1.76577277348,338.
9.84,6106.,30.,9.,3842.,0.,0.,9987.,0.881819442198,1.52848703314,390.
9.86,6105.,17.,14.,3852.,0.,0.,9988.,0.881586750254,2.6966182949,221.
9.88,6103.,12.,12.,3861.,0.,0.,9988.,0.881297942146,3.8189577493,156.
9.9,6099.,14.,10.,3867.,0.,0.,9990.,0.880544005544,3.27059202059,182.
9.92,6094.,18.,8.,3869.,0.,0.,9989.,0.879910208922,2.54196282578,234.
9.94,6087.,20.,13.,3865.,0.,0.,9985.,0.879251569662,2.28605408112,260.
9.96,6094.,14.,7.,3871.,0.,0.,9986.,0.880174552065,3.26921976481,182.
9.98,6096.,15.,9.,3867.,0.,0.,9987.,0.880375257065,3.05196755783,195.
10.,6097.,16.,10.,3865.,0.,0.,9988.,0.880431517821,2.86140243292,208.
