t,s,e,i,r,c,o,n,reff,coal,reportr
5.,6250.,5.,3.,3734.,0.,0.,9992.,0.902164038923,9.3825060048,65.
5.02,6255.,4.,4.,3728.,0.,0.,9991.,0.902976140065,11.7386898208,52.
5.04,6262.,7.,0.,3728.,0.,0.,9997.,0.903444110156,6.71129910402,91.
5.06,6265.,3.,2.,3722.,0.,0.,9992.,0.904329232617,15.675040032,39.
5.08,6272.,8.,2.,3712.,0.,0.,9994.,0.905158479703,5.88353011807,104.
5.1,6278.,11.,1.,3701.,0.,0.,9991.,0.906296436023,4.28431042484,143.
5.12,6289.,10.,2.,3690.,0.,0.,9991.,0.907884403656,4.72099889901,130.
5.14,6297.,7.,7.,3678.,0.,0.,9989.,0.909221297273,6.75421535117,91.
5.16,6304.,5.,5.,3678.,0.,0.,9992.,0.90995873622,9.46357085669,65.
5.18,6309.,5.,2.,3676.,0.,0.,9992.,0.910680467451,9.47107686149,65.
5.2,6312.,9.,2.,3668.,0.,0.,9991.,0.911204699614,5.26473826444,117.
5.22,6312.,7.,3.,3663.,0.,0.,9985.,0.91175224375,6.77301666786,91.
5.24,6318.,10.,1.,3656.,0.,0.,9985.,0.912618928393,4.74561842764,130.
5.26,6325.,8.,1.,3650.,0.,0.,9984.,0.913721569896,5.93919020433,104.
5.28,6324.,10.,0.,3646.,0.,0.,9980.,0.913943271158,4.75250501002,130.
5.3,6329.,9.,4.,3637.,0.,0.,9979.,0.914757529273,5.28526572469,117.
5.32,6332.,12.,3.,3629.,0.,0.,9976.,0.915466350009,3.96702085004,156.
5.34,6332.,13.,4.,3625.,0.,0.,9974.,0.915649920563,3.66259968225,169.
5.36,6343.,12.,3.,3621.,0.,0.,9979.,0.91678100935,3.97271770719,156.
5.38,6349.,11.,1.,3614.,0.,0.,9975.,0.918016194332,4.33971291866,143.
5.4,6355.,10.,3.,3608.,0.,0.,9976.,0.918791638394,4.77771651965,130.
5.42,6365.,9.,5.,3599.,0.,0.,9978.,0.920052962672,5.3158615621,117.
5.44,6365.,10.,11.,3594.,0.,0.,9980.,0.91986858332,4.78331663327,130.
5.46,6364.,19.,7.,3591.,0.,0.,9981.,0.919631916025,2.51688734912,247.
5.48,6362.,21.,5.,3593.,0.,0.,9981.,0.919342905366,2.27646814662,273.
5.5,6369.,14.,7.,3590.,0.,0.,9980.,0.920446662556,3.41880188949,182.
5.52,6368.,14.,10.,3592.,0.,0.,9984.,0.919933431953,3.4168956044,182.
5.54,6357.,17.,12.,3595.,0.,0.,9981.,0.91862037872,2.80989762902,221.
5.56,6356.,17.,13.,3597.,0.,0.,9983.,0.918291865402,2.80889276476,221.
5.58,6353.,13.,14.,3604.,0.,0.,9984.,0.917766503328,3.67106601331,169.
5.6,6352.,19.,6.,3609.,0.,0.,9986.,0.917438259717,2.51088365817,247.
5.62,6359.,16.,6.,3603.,0.,0.,9984.,0.918633274778,2.98555814303,208.
5.64,6363.,20.,0.,3606.,0.,0.,9989.,0.918751010727,2.38875262789,260.
5.66,6364.,18.,8.,3600.,0.,0.,9990.,0.918803418803,2.65432098765,234.
5.68,6357.,21.,6.,3600.,0.,0.,9984.,0.918344350962,2.27399553571,273.
5.7,6357.,19.,8.,3602.,0.,0.,9986.,0.918160424594,2.51286010942,247.
5.72,6347.,23.,9.,3606.,0.,0.,9985.,0.916807904164,2.07278308767,299.
5.74,6348.,15.,15.,3609.,0.,0.,9987.,0.916768722416,3.17813157104,195.
5.76,6346.,23.,11.,3611.,0.,0.,9991.,0.916112963205,2.07121191681,299.
5.78,6350.,24.,9.,3609.,0.,0.,9992.,0.916598663546,1.98596377102,312.
5.8,6347.,30.,9.,3607.,0.,0.,9993.,0.916073944069,1.58786150305,390.
5.82,6350.,22.,9.,3611.,0.,0.,9992.,0.916598663546,2.16650593202,286.
5.84,6347.,23.,5.,3618.,0.,0.,9993.,0.916073944069,2.07112369963,299.
5.86,6348.,22.,8.,3615.,0.,0.,9993.,0.91621827587,2.16560683387,286.
5.88,6350.,18.,9.,3615.,0.,0.,9992.,0.916598663546,2.64795169469,234.
5.9,6348.,22.,6.,3616.,0.,0.,9992.,0.916309971054,2.16582356795,286.
5.92,6344.,22.,9.,3618.,0.,0.,9993.,0.915640948664,2.1642422423,286.
5.94,6345.,18.,11.,3617.,0.,0.,9991.,0.915968602511,2.64613151837,234.
5.96,6345.,16.,7.,3623.,0.,0.,9991.,0.915968602511,2.97689795816,208.
5.98,6343.,17.,9.,3620.,0.,0.,9989.,0.915863218771,2.8014639633,221.
6.,6347.,13.,8.,3623.,0.,0.,9991.,0.916257323899,3.6650292956,169.
6.02,6355.,14.,4.,3621.,0.,0.,9994.,0.917136820554,3.40650819063,182.
6.04,6355.,12.,4.,3623.,0.,0.,9994.,0.917136820554,3.97425955573,156.
6.06,6354.,17.,2.,3618.,0.,0.,9991.,0.917267848756,2.80576047855,221.
6.08,6373.,12.,8.,3602.,0.,0.,9995.,0.919642513564,3.98511755878,156.
6.1,6371.,17.,6.,3601.,0.,0.,9995.,0.919353907723,2.8121413648,221.
6.12,6374.,18.,5.,3601.,0.,0.,9998.,0.919510825242,2.65636460625,234.
6.14,6367.,13.,12.,3603.,0.,0.,9995.,0.91877669604,3.67510678416,169.
6.16,6368.,21.,5.,3601.,0.,0.,9995.,0.918920998961,2.275423426,273.
6.18,6373.,24.,9.,3594.,0.,0.,10000.,0.919182692308,1.9915625,312.
6.2,6375.,20.,7.,3599.,0.,0.,10001.,0.919379215925,2.3903859614,260.
6.22,6372.,18.,14.,3596.,0.,0.,10000.,0.919038461538,2.655,234.
6.24,6370.,18.,13.,3597.,0.,0.,9998.,0.918933786757,2.65469760619,234.
6.26,6360.,17.,14.,3607.,0.,0.,9998.,0.917491190546,2.80644364167,221.
6.28,6356.,26.,9.,3606.,0.,0.,9997.,0.917005870992,1.83401174198,338.
6.3,6350.,25.,12.,3613.,0.,0.,10000.,0.915865384615,1.905,325.
6.32,6349.,21.,11.,3617.,0.,0.,9998.,0.915904334713,2.26795359072,273.
6.34,6338.,26.,14.,3619.,0.,0.,9997.,0.914408938066,1.82881787613,338.
6.36,6328.,31.,19.,3618.,0.,0.,9996.,0.913057530705,1.53158037409,403.
6.38,6316.,29.,23.,3628.,0.,0.,9996.,0.911326068889,1.63410191663,377.
6.4,6296.,35.,20.,3646.,0.,0.,9997.,0.908349427905,1.34954772146,455.
6.42,6285.,36.,11.,3664.,0.,0.,9996.,0.906853125866,1.30989895958,468.
6.44,6289.,19.,21.,3666.,0.,0.,9995.,0.907521068226,2.48374187094,247.
6.46,6282.,24.,10.,3679.,0.,0.,9995.,0.906510947782,1.96410705353,312.
6.48,6283.,20.,9.,3681.,0.,0.,9993.,0.906836708773,2.35777544281,260.
6.5,6276.,22.,8.,3683.,0.,0.,9989.,0.90618911572,2.14190154625,286.
6.52,6282.,18.,1.,3689.,0.,0.,9990.,0.906964656965,2.62012012012,234.
6.54,6291.,16.,5.,3680.,0.,0.,9992.,0.908082235019,2.95126726381,208.
6.56,6296.,8.,11.,3679.,0.,0.,9994.,0.908622096335,5.90604362618,104.
6.58,6290.,16.,9.,3677.,0.,0.,9992.,0.907937888773,2.95079813851,208.
6.6,6284.,19.,6.,3684.,0.,0.,9993.,0.906981040575,2.48226390052,247.
6.62,6282.,19.,3.,3689.,0.,0.,9993.,0.906692376972,2.48147387382,247.
6.64,6282.,17.,8.,3684.,0.,0.,9991.,0.906873878799,2.77396715868,221.
6.66,6281.,20.,4.,3684.,0.,0.,9989.,0.906911063709,2.35796876564,260.
6.68,6281.,22.,6.,3679.,0.,0.,9988.,0.907001863775,2.1438225871,286.
6.7,6287.,18.,5.,3679.,0.,0.,9989.,0.907777401295,2.62246804819,234.
6.72,6285.,17.,10.,3676.,0.,0.,9988.,0.907579479991,2.77612546821,221.
6.74,6278.,19.,10.,3681.,0.,0.,9988.,0.906568651613,2.48113525705,247.
6.76,6277.,12.,16.,3683.,0.,0.,9988.,0.906424247559,3.92783840609,156.
6.78,6269.,22.,8.,3691.,0.,0.,9990.,0.905087780088,2.1392983893,286.
6.8,6271.,13.,14.,3692.,0.,0.,9990.,0.905376530377,3.62150612151,169.
6.82,6267.,16.,8.,3700.,0.,0.,9991.,0.904708468391,2.94030252227,208.
6.84,6263.,17.,7.,3701.,0.,0.,9988.,0.904402590801,2.7664079248,221.
6.86,6258.,16.,11.,3703.,0.,0.,9988.,0.903680570531,2.93696185423,208.
6.88,6261.,12.,12.,3703.,0.,0.,9988.,0.904113782693,3.91782639167,156.
6.9,6262.,12.,12.,3702.,0.,0.,9988.,0.904258186747,3.91845214257,156.
6.92,6261.,16.,8.,3702.,0.,0.,9987.,0.904204311759,2.93866401322,208.
6.94,6268.,17.,6.,3696.,0.,0.,9987.,0.905215241352,2.76889367943,221.
6.96,6274.,10.,7.,3698.,0.,0.,9989.,0.905900336524,4.71068174992,130.
6.98,6277.,12.,4.,3699.,0.,0.,9992.,0.906061387572,3.92626601281,156.
7.,6279.,8.,2.,3701.,0.,0.,9990.,0.906531531532,5.89245495495,104.
7.02,6286.,6.,0.,3699.,0.,0.,9991.,0.907451321574,7.86457812031,78.
7.04,6289.,3.,4.,3695.,0.,0.,9991.,0.907884403656,15.7366629967,39.
7.06,6296.,5.,3.,3687.,0.,0.,9991.,0.908894928513,9.45250725653,65.
7.08,6301.,5.,2.,3682.,0.,0.,9990.,0.909707784708,9.46096096096,65.
7.1,6312.,2.,2.,3681.,0.,0.,9997.,0.910657812728,23.6771031309,26.
7.12,6315.,4.,1.,3679.,0.,0.,9999.,0.910908398532,11.8418091809,52.
7.14,6321.,3.,0.,3674.,0.,0.,9998.,0.911865065321,15.8056611322,39.
7.16,6328.,2.,0.,3667.,0.,0.,9997.,0.912966197552,23.7371211363,26.
7.18,6332.,4.,3.,3661.,0.,0.,10000.,0.913269230769,11.8725,52.
7.2,6333.,6.,2.,3657.,0.,0.,9998.,0.913596180775,7.91783356671,78.
7.22,6332.,9.,2.,3657.,0.,0.,10000.,0.913269230769,5.27666666667,117.
7.24,6340.,8.,5.,3647.,0.,0.,10000.,0.914423076923,5.94375,104.
7.26,6344.,7.,5.,3648.,0.,0.,10004.,0.914634146341,6.79442508711,91.
7.28,6340.,12.,8.,3643.,0.,0.,10003.,0.914148832273,3.96131160652,156.
7.3,6340.,9.,7.,3647.,0.,0.,10003.,0.914148832273,5.28174880869,117.
7.32,6340.,5.,12.,3646.,0.,0.,10003.,0.914148832273,9.50714785564,65.
7.34,6338.,12.,2.,3655.,0.,0.,10007.,0.913495168766,3.95847906465,156.
7.36,6344.,10.,3.,3648.,0.,0.,10005.,0.914542728636,4.75562218891,130.
7.38,6348.,5.,10.,3640.,0.,0.,10003.,0.915302332377,9.51914425672,65.
7.4,6345.,7.,10.,3641.,0.,0.,10003.,0.914869769838,6.79617543308,91.
7.42,6339.,11.,8.,3646.,0.,0.,10004.,0.913913280842,4.32031732761,143.
7.44,6333.,13.,10.,3645.,0.,0.,10001.,0.913322129326,3.6532885173,169.
7.46,6334.,10.,7.,3651.,0.,0.,10002.,0.913375017304,4.74955008998,130.
7.48,6331.,8.,12.,3650.,0.,0.,10001.,0.91303369663,5.9347190281,104.
7.5,6328.,14.,1.,3660.,0.,0.,10003.,0.912418582118,3.38898330501,182.
7.52,6332.,9.,5.,3657.,0.,0.,10003.,0.91299533217,5.27508414142,117.
7.54,6338.,12.,2.,3654.,0.,0.,10006.,0.913586463507,3.95887467519,156.
7.56,6346.,5.,9.,3649.,0.,0.,10009.,0.91446544264,9.51044060346,65.
7.58,6337.,14.,6.,3652.,0.,0.,10009.,0.913168532936,3.39176883662,182.
7.6,6331.,14.,7.,3657.,0.,0.,10009.,0.912303926466,3.38855744116,182.
7.62,6333.,11.,7.,3660.,0.,0.,10011.,0.912409810747,4.31321001444,143.
7.64,6337.,11.,7.,3659.,0.,0.,10014.,0.912712586994,4.31464132033,143.
7.66,6333.,17.,6.,3653.,0.,0.,10009.,0.912592128623,2.79145827579,221.
7.68,6327.,13.,9.,3652.,0.,0.,10001.,0.91245683124,3.64982732496,169.
7.7,6331.,15.,4.,3652.,0.,0.,10002.,0.912942411518,3.16486702659,195.
7.72,6331.,12.,3.,3656.,0.,0.,10002.,0.912942411518,3.95608378324,156.
7.74,6328.,11.,8.,3652.,0.,0.,9999.,0.912783586051,4.31497695224,143.
7.76,6335.,12.,9.,3645.,0.,0.,10001.,0.913610562021,3.95897910209,156.
7.78,6333.,12.,8.,3645.,0.,0.,9998.,0.913596180775,3.95891678336,156.
7.8,6339.,12.,5.,3645.,0.,0.,10001.,0.914187427411,3.96147885211,156.
7.82,6340.,11.,1.,3651.,0.,0.,10003.,0.914148832273,4.32143084347,143.
7.84,6344.,10.,4.,3644.,0.,0.,10002.,0.914817036593,4.75704859028,130.
7.86,6345.,11.,6.,3639.,0.,0.,10001.,0.915052725497,4.32570379326,143.
7.88,6347.,18.,5.,3632.,0.,0.,10002.,0.915249642379,2.64405452243,234.
7.9,6347.,18.,7.,3627.,0.,0.,9999.,0.915524244732,2.64484781812,234.
7.92,6355.,14.,3.,3630.,0.,0.,10002.,0.91640325781,3.40378352901,182.
7.94,6355.,15.,8.,3623.,0.,0.,10001.,0.916494888973,3.17718228177,195.
7.96,6350.,18.,3.,3630.,0.,0.,10001.,0.915773807235,2.64556877646,234.
7.98,6356.,18.,2.,3625.,0.,0.,10001.,0.91663910532,2.64806852648,234.
8.,6354.,22.,0.,3624.,0.,0.,10000.,0.916442307692,2.16613636364,286.
8.02,6362.,15.,11.,3611.,0.,0.,9999.,0.917687922638,3.18131813181,195.
8.04,6363.,18.,6.,3614.,0.,0.,10001.,0.917648619753,2.65098490151,234.
8.06,6361.,14.,10.,3615.,0.,0.,10000.,0.917451923077,3.40767857143,182.
8.08,6357.,19.,11.,3614.,0.,0.,10001.,0.916783321668,2.50909119614,247.
8.1,6356.,23.,10.,3614.,0.,0.,10003.,0.916455832481,2.07198709952,299.
8.12,6352.,25.,6.,3624.,0.,0.,10007.,0.915512987063,1.90426701309,325.
8.14,6353.,21.,7.,3625.,0.,0.,10006.,0.915748627746,2.26756803061,273.
8.16,6347.,23.,7.,3628.,0.,0.,10005.,0.914975204705,2.06863959325,299.
8.18,6351.,21.,9.,3629.,0.,0.,10010.,0.915094520864,2.26594833738,273.
8.2,6343.,28.,7.,3633.,0.,0.,10011.,0.913850533644,1.69715099105,364.
8.22,6340.,29.,5.,3636.,0.,0.,10010.,0.913509567356,1.63801715526,377.
8.24,6342.,27.,10.,3630.,0.,0.,10009.,0.913889038327,1.76008259233,351.
8.26,6342.,29.,6.,3630.,0.,0.,10007.,0.91407168828,1.63902509623,377.
8.28,6334.,27.,9.,3633.,0.,0.,10003.,0.913283707196,1.75891676941,351.
8.3,6334.,20.,18.,3632.,0.,0.,10004.,0.913192415342,2.37430027989,260.
8.32,6323.,20.,17.,3647.,0.,0.,10007.,0.911333220592,2.36946637354,260.
8.34,6313.,27.,8.,3659.,0.,0.,10007.,0.909891921809,1.752384442,351.
8.36,6306.,26.,13.,3665.,0.,0.,10010.,0.908610620149,1.8172212403,338.
8.38,6299.,32.,13.,3668.,0.,0.,10012.,0.907420710532,1.47455865461,416.
8.4,6289.,28.,22.,3669.,0.,0.,10008.,0.906342233905,1.68320700582,364.
8.42,6280.,25.,23.,3678.,0.,0.,10006.,0.905226095112,1.88287027783,325.
8.44,6258.,40.,11.,3698.,0.,0.,10007.,0.901964778501,1.17255421205,520.
8.46,6254.,30.,20.,3702.,0.,0.,10006.,0.901478343763,1.56256246252,390.
8.48,6255.,28.,22.,3702.,0.,0.,10007.,0.901532388866,1.67427443647,364.
8.5,6244.,28.,20.,3713.,0.,0.,10005.,0.900126859647,1.67166416792,364.
8.52,6226.,33.,21.,3723.,0.,0.,10003.,0.897711455794,1.41457562731,429.
8.54,6208.,39.,26.,3729.,0.,0.,10002.,0.89520557427,1.19360743236,507.
8.56,6192.,41.,15.,3752.,0.,0.,10000.,0.893076923077,1.13268292683,533.
8.58,6186.,35.,18.,3760.,0.,0.,9999.,0.892300768538,1.32570399897,455.
8.6,6179.,33.,22.,3764.,0.,0.,9998.,0.891380199117,1.40459910164,429.
8.62,6160.,39.,18.,3781.,0.,0.,9998.,0.888639266315,1.18485235509,507.
8.64,6151.,32.,30.,3785.,0.,0.,9998.,0.887340929724,1.4419290108,416.
8.66,6128.,43.,25.,3800.,0.,0.,9996.,0.88419983378,1.06926491527,559.
8.68,6119.,40.,28.,3805.,0.,0.,9992.,0.883254680668,1.14823108487,520.
8.7,6102.,40.,24.,3827.,0.,0.,9993.,0.880712652703,1.14492644851,520.
8.72,6098.,34.,23.,3839.,0.,0.,9994.,0.880047259125,1.3459546316,442.
8.74,6085.,36.,12.,3858.,0.,0.,9991.,0.878434822109,1.2688502986,468.
8.76,6073.,35.,17.,3864.,0.,0.,9989.,0.876878027369,1.30279021209,455.
8.78,6065.,43.,21.,3861.,0.,0.,9990.,0.875635250635,1.05890774495,559.
8.8,6056.,39.,20.,3877.,0.,0.,9992.,0.874160867155,1.16554782287,507.
8.82,6057.,29.,15.,3895.,0.,0.,9996.,0.873955351371,1.56709235418,377.
8.84,6048.,33.,6.,3908.,0.,0.,9995.,0.87274406434,1.37523307108,429.
8.86,6050.,31.,7.,3911.,0.,0.,9999.,0.872683422188,1.46385606303,403.
8.88,6050.,25.,10.,3915.,0.,0.,10000.,0.872596153846,1.815,325.
8.9,6044.,26.,14.,3912.,0.,0.,9996.,0.872079601071,1.74415920214,338.
8.92,6038.,31.,11.,3918.,0.,0.,9998.,0.871039592534,1.46109867135,403.
8.94,6029.,35.,9.,3924.,0.,0.,9997.,0.869828256169,1.29231626631,455.
8.96,6020.,31.,18.,3926.,0.,0.,9995.,0.868703582561,1.457180203,403.
8.98,6014.,30.,21.,3930.,0.,0.,9995.,0.867837765036,1.50425212606,390.
9.,6005.,34.,18.,3940.,0.,0.,9997.,0.866365678934,1.3250298619,442.
9.02,6000.,30.,22.,3948.,0.,0.,10000.,0.865384615385,1.5,390.
9.04,5991.,31.,13.,3970.,0.,0.,10005.,0.863654711106,1.44871112831,403.
9.06,5995.,27.,13.,3973.,0.,0.,10008.,0.863972283711,1.66394662048,351.
9.08,5993.,25.,12.,3981.,0.,0.,10011.,0.863425232245,1.79592448307,325.
9.1,5989.,25.,11.,3987.,0.,0.,10012.,0.862762761609,1.79454654415,325.
9.12,5992.,24.,9.,3983.,0.,0.,10008.,0.863539937281,1.87100319744,312.
9.14,6001.,21.,11.,3976.,0.,0.,10009.,0.86475057064,2.1412871273,273.
9.16,5996.,19.,16.,3981.,0.,0.,10012.,0.863771166907,2.3640052989,247.
9.18,6003.,16.,16.,3979.,0.,0.,10014.,0.864606858091,2.8099722888,208.
9.2,5995.,20.,14.,3985.,0.,0.,10014.,0.863454625063,2.24498202516,260.
9.22,5991.,27.,6.,3990.,0.,0.,10014.,0.86287850855,1.66184009054,351.
9.24,5992.,22.,6.,3992.,0.,0.,10012.,0.863194935308,2.040278938,286.
9.26,5991.,13.,6.,4001.,0.,0.,10011.,0.863137087665,3.45254835066,169.
9.28,5995.,15.,1.,4000.,0.,0.,10011.,0.863713376824,2.99420637299,195.
9.3,6000.,14.,2.,3995.,0.,0.,10011.,0.864433738273,3.21075388501,182.
9.32,6009.,9.,7.,3987.,0.,0.,10012.,0.865643919604,5.00149820216,117.
9.34,6007.,14.,5.,3987.,0.,0.,10013.,0.865269380574,3.21385769928,182.
9.36,6013.,8.,4.,3985.,0.,0.,10010.,0.866393222162,5.63155594406,104.
9.38,6018.,8.,6.,3976.,0.,0.,10008.,0.867286939679,5.63736510791,104.
9.4,6023.,8.,5.,3972.,0.,0.,10008.,0.868007517063,5.64204886091,104.
9.42,6025.,10.,5.,3969.,0.,0.,10009.,0.868208996519,4.5146867819,130.
9.44,6032.,9.,3.,3966.,0.,0.,10010.,0.869130869131,5.02164502165,117.
9.46,6036.,9.,5.,3955.,0.,0.,10005.,0.870141852151,5.02748625687,117.
9.48,6045.,4.,7.,3949.,0.,0.,10005.,0.87143928036,11.3287106447,52.
9.5,6049.,5.,5.,3943.,0.,0.,10002.,0.872277467583,9.07168566287,65.
9.52,6051.,9.,3.,3938.,0.,0.,10001.,0.872653119303,5.04199580042,117.
9.54,6056.,7.,4.,3937.,0.,0.,10004.,0.873112293544,6.48597703776,91.
9.56,6065.,8.,3.,3929.,0.,0.,10005.,0.874322454158,5.68309595202,104.
9.58,6069.,6.,5.,3926.,0.,0.,10006.,0.874811651471,7.58170097941,78.
9.6,6073.,7.,5.,3921.,0.,0.,10006.,0.875388228601,6.5028839839,91.
9.62,6080.,8.,0.,3921.,0.,0.,10009.,0.876134555823,5.69487461285,104.
9.64,6075.,15.,2.,3919.,0.,0.,10011.,0.875239160001,3.03416242134,195.
9.66,6079.,11.,6.,3914.,0.,0.,10010.,0.875902943211,4.14063209518,143.
9.68,6083.,8.,10.,3913.,0.,0.,10014.,0.876129188367,5.69483972439,104.
9.7,6081.,13.,10.,3907.,0.,0.,10011.,0.876103593739,3.50441437496,169.
9.72,6079.,21.,6.,3908.,0.,0.,10014.,0.875553071853,2.16803617792,273.
9.74,6088.,13.,10.,3903.,0.,0.,10014.,0.876849334009,3.50739733604,169.
9.76,6092.,14.,8.,3901.,0.,0.,10015.,0.877337839395,3.25868340347,182.
9.78,6097.,12.,12.,3897.,0.,0.,10018.,0.877794969056,3.80377819924,156.
9.8,6102.,13.,5.,3901.,0.,0.,10021.,0.878251825014,3.51300730005,169.
9.82,6111.,12.,1.,3895.,0.,0.,10019.,0.87972275753,3.8121319493,156.
9.84,6120.,8.,4.,3888.,0.,0.,10020.,0.880930446799,5.72604790419,104.
9.86,6128.,8.,4.,3883.,0.,0.,10023.,0.881817972509,5.73181682131,104.
9.88,6131.,9.,3.,3881.,0.,0.,10024.,0.882161658174,5.09693402501,117.
9.9,6135.,6.,2.,3874.,0.,0.,10017.,0.883354067316,7.65573525007,78.
9.92,6133.,10.,2.,3872.,0.,0.,10017.,0.88306609533,4.59194369572,130.
9.94,6136.,9.,6.,3866.,0.,0.,10017.,0.883498053309,5.10465541912,117.
9.96,6141.,12.,3.,3860.,0.,0.,10016.,0.884306263824,3.8319938099,156.
9.98,6142.,10.,5.,3859.,0.,0.,10016.,0.884450264193,4.5991413738,130.
10.,6145.,9.,13.,3849.,0.,0.,10016.,0.884882265299,5.11265308839,117.
