t,neff
5.,0.106581333333
5.02,0.149222808983
5.04,0.234568059335
5.06,0.298475489411
5.08,0.341442682471
5.1,0.29865470852
5.12,0.213043246414
5.14,0.191524448706
5.16,0.234183716965
5.18,0.233931460196
5.2,0.148684420348
5.22,0.212385052889
5.24,0.255009572431
5.26,0.21251596424
5.28,0.318602425016
5.3,0.489206349205
5.32,0.382453341841
5.34,0.446738053379
5.36,0.403804353611
5.38,0.4681140421
5.4,0.446898976983
5.42,0.404425967381
5.44,0.425924741498
5.46,0.340651212363
5.48,0.362072273744
5.5,0.319144180105
5.52,0.276459197787
5.54,0.318883572568
5.56,0.361668262581
5.58,0.255239310785
5.6,0.212640195609
5.62,0.404290576473
5.64,0.382943709138
5.66,0.297892610314
5.68,0.382867166321
5.7,0.340224312975
5.72,0.297524173839
5.74,0.212699425654
5.76,0.212661457503
5.78,0.297684210526
5.8,0.233620048848
5.82,0.318706182281
5.84,0.31867431485
5.86,0.339865116032
5.88,0.254741200828
5.9,0.191014169718
5.92,0.23338744761
5.94,0.211967986431
5.96,0.148180374722
5.98,0.190423607806
6.,0.232514656948
6.02,0.126687777074
6.04,0.168703352309
6.06,0.10529417956
6.08,0.126251379908
6.1,0.12605984252
6.12,0.125955303746
6.14,0.125805944331
6.16,0.083843050972
6.18,0.0838035396379
6.2,0.0837329985355
6.22,0.0627576470587
6.24,0.0836411140725
6.26,0.0626888122844
6.28,0.
6.3,0.104484468807
6.32,0.125295774648
6.34,0.125084322298
6.36,0.12502418474
6.38,0.145754221876
6.4,0.145669781931
6.42,0.0831528728483
6.44,0.145456053068
6.46,0.145435131913
6.48,0.166298428505
6.5,0.166307708269
6.52,0.207699880823
6.54,0.124445824278
6.56,0.24881166615
6.58,0.22824174687
6.6,0.103660049628
6.62,0.207483310045
6.64,0.228208870258
6.66,0.331851851852
6.68,0.3109525287
6.7,0.331671581562
6.72,0.394060963618
6.74,0.352479163432
6.76,0.332002901253
6.78,0.310859447719
6.8,0.560441199316
6.82,0.414819414261
6.84,0.331612903226
6.86,0.310625774474
6.88,0.373077042319
6.9,0.24889716147
6.92,0.37328372093
6.94,0.602061791649
6.96,0.623701399689
6.98,0.519422001244
7.,0.478234105394
7.02,0.562892768081
7.04,0.647503905031
7.06,0.647346768735
7.08,0.5013
7.1,0.796724192031
7.12,0.755589066916
7.14,0.79872916011
7.16,0.651519916142
7.18,0.757795275591
7.2,0.674204635033
7.22,0.717586860391
7.24,0.591795034002
7.26,0.784201289778
7.28,0.742872267219
7.3,0.616526717558
7.32,0.723731295765
7.34,0.681674102401
7.36,0.489875205777
7.38,0.448116219669
7.4,0.555176307659
7.42,0.491539773939
7.44,0.470667093608
7.46,0.492435897437
7.48,0.493108578157
7.5,0.579517839921
7.52,0.429574821725
7.54,0.429713059802
7.56,0.49424954404
7.58,0.407948965369
7.6,0.537630942787
7.62,0.581074020319
7.64,0.68988802756
7.66,0.49611631664
7.68,0.647068324989
7.7,0.648284789645
7.72,0.561692025465
7.74,0.670319131702
7.76,0.475716753021
7.78,0.30264961416
7.8,0.367658839406
7.82,0.41054504286
7.84,0.367238834114
7.86,0.388841118475
7.88,0.497173971643
7.9,0.43168657841
7.92,0.302087433457
7.94,0.562240896358
7.96,0.389422983676
7.98,0.346093236325
8.,0.281036414566
8.02,0.302617124394
8.04,0.323781865118
8.06,0.345409941898
8.08,0.172593548387
8.1,0.323934108527
8.12,0.258834920123
8.14,0.193993548387
8.16,0.323511376472
8.18,0.150895410083
8.2,0.237221505376
8.22,0.215482138061
8.24,0.279873322598
8.26,0.215148589207
8.28,0.0644783796819
8.3,0.193478051134
8.32,0.0858503183011
8.34,0.12858974359
8.36,0.107145145787
8.38,0.0856578596208
8.4,0.0856048236483
8.42,0.149572075673
8.44,0.0640638977638
8.46,0.149348230913
8.48,0.191931056495
8.5,0.234259908618
8.52,0.277111997872
8.54,0.29833306739
8.56,0.404832243314
8.58,0.383128384836
8.6,0.255327281414
8.62,0.170089631397
8.64,0.27636807213
8.66,0.276488881813
8.68,0.425545469024
8.7,0.468295895066
8.72,0.340476873241
8.74,0.361735159818
8.76,0.340456621004
8.78,0.468267176789
8.8,0.361490208565
8.82,0.297668099559
8.84,0.255189550812
8.86,0.361648345812
8.88,0.468313938042
8.9,0.447196172249
8.92,0.596713495106
8.94,0.532248630829
8.96,0.468126893034
8.98,0.340401657635
9.,0.340279415671
9.02,0.297560405714
9.04,0.339933089055
9.06,0.254975306675
9.08,0.38260038241
9.1,0.446704944178
9.12,0.404499813661
9.14,0.361848480009
9.16,0.38334025891
9.18,0.383639270866
9.2,0.234244941427
9.22,0.21289052105
9.24,0.213001118032
9.26,0.340842911877
9.28,0.36193606723
9.3,0.319291527047
9.32,0.426206455737
9.34,0.469211326187
9.36,0.405276577586
9.38,0.405446881169
9.4,0.341394802839
9.42,0.534273654966
9.44,0.727778669662
9.46,0.685711836253
9.48,0.578918918919
9.5,0.644422952935
9.52,0.493311876409
9.54,0.471588654765
9.56,0.342939252587
9.58,0.386063435839
9.6,0.407742143432
9.62,0.38600128783
9.64,0.278778707878
9.66,0.300126595859
9.68,0.364836180041
9.7,0.386430183811
9.72,0.494159273001
9.74,0.365351839896
9.76,0.300688913967
9.78,0.343699881759
9.8,0.301040288312
9.82,0.365290766419
9.84,0.171831802803
9.86,0.236317316995
9.88,0.128687811947
9.9,0.257261464199
9.92,0.235832260832
9.94,0.278699919549
9.96,0.300071846013
9.98,0.278610262184
10.,0.300278090944
