t,s,e,i,r,c,o,n,reff,coal,reportr
5.,6250.,5.,3.,3734.,0.,0.,9992.,0.902164038923,9.3825060048,65.
5.02,6261.,4.,3.,3727.,0.,0.,9995.,0.903480586447,11.7452476238,52.
5.04,6272.,3.,5.,3712.,0.,0.,9992.,0.90533965634,15.6925540432,39.
5.06,6268.,13.,3.,3706.,0.,0.,9990.,0.904943404943,3.61977361977,169.
5.08,6274.,11.,0.,3706.,0.,0.,9991.,0.905718993248,4.28158069535,143.
5.1,6280.,9.,5.,3695.,0.,0.,9989.,0.906766674111,5.23909633931,117.
5.12,6288.,6.,4.,3691.,0.,0.,9989.,0.907921790893,7.86865552107,78.
5.14,6297.,6.,4.,3682.,0.,0.,9989.,0.909221297273,7.8799179097,78.
5.16,6296.,9.,4.,3677.,0.,0.,9986.,0.909350013095,5.25402229788,117.
5.18,6299.,8.,7.,3674.,0.,0.,9988.,0.909601136749,5.91240738887,104.
5.2,6298.,7.,5.,3673.,0.,0.,9983.,0.909912235416,6.75934803452,91.
5.22,6308.,6.,3.,3665.,0.,0.,9982.,0.911448299246,7.89921859347,78.
5.24,6316.,5.,2.,3661.,0.,0.,9984.,0.912421412722,9.48918269231,65.
5.26,6321.,6.,3.,3653.,0.,0.,9983.,0.913235192134,7.9147049985,78.
5.28,6321.,8.,7.,3648.,0.,0.,9984.,0.913143722263,5.93543419471,104.
5.3,6325.,15.,10.,3640.,0.,0.,9990.,0.913172788173,3.16566566567,195.
5.32,6332.,13.,10.,3637.,0.,0.,9992.,0.914000431114,3.65600172446,169.
5.34,6327.,19.,5.,3642.,0.,0.,9993.,0.913187308039,2.49924947463,247.
5.36,6318.,26.,8.,3640.,0.,0.,9992.,0.911979583667,1.82395916733,338.
5.38,6309.,26.,9.,3646.,0.,0.,9990.,0.910862785863,1.82172557173,338.
5.4,6313.,14.,9.,3653.,0.,0.,9989.,0.911531530838,3.38568854311,182.
5.42,6307.,11.,11.,3657.,0.,0.,9986.,0.910938775825,4.30625603117,143.
5.44,6307.,9.,9.,3660.,0.,0.,9985.,0.911030006548,5.26372892672,117.
5.46,6312.,15.,5.,3658.,0.,0.,9990.,0.911295911296,3.15915915916,195.
5.48,6314.,16.,3.,3655.,0.,0.,9988.,0.91176719756,2.96324339207,208.
5.5,6321.,11.,6.,3652.,0.,0.,9990.,0.912595287595,4.31408681409,143.
5.52,6328.,11.,8.,3643.,0.,0.,9990.,0.913605913606,4.31886431886,143.
5.54,6336.,14.,7.,3637.,0.,0.,9994.,0.914394790721,3.39632350839,182.
5.56,6335.,16.,11.,3633.,0.,0.,9995.,0.914159002578,2.97101675838,208.
5.58,6330.,19.,13.,3634.,0.,0.,9996.,0.913346107674,2.49968408416,247.
5.6,6319.,20.,15.,3638.,0.,0.,9992.,0.912123929913,2.37152221777,260.
5.62,6321.,19.,6.,3647.,0.,0.,9993.,0.91232131723,2.49687939452,247.
5.64,6329.,17.,8.,3641.,0.,0.,9995.,0.913293185054,2.79360268369,221.
5.66,6334.,11.,9.,3643.,0.,0.,9997.,0.91383184186,4.31993234334,143.
5.68,6337.,8.,10.,3646.,0.,0.,10001.,0.913898994716,5.94034346565,104.
5.7,6328.,17.,7.,3648.,0.,0.,10000.,0.912692307692,2.79176470588,221.
5.72,6324.,20.,9.,3645.,0.,0.,9998.,0.912297844184,2.37197439488,260.
5.74,6320.,16.,16.,3641.,0.,0.,9993.,0.912176985428,2.96457520264,208.
5.76,6305.,28.,7.,3651.,0.,0.,9991.,0.910194174757,1.69036061026,364.
5.78,6311.,24.,8.,3651.,0.,0.,9994.,0.910786856729,1.97337152291,312.
5.8,6306.,25.,12.,3650.,0.,0.,9993.,0.910156340207,1.89312518763,325.
5.82,6304.,30.,10.,3650.,0.,0.,9994.,0.909776635212,1.5769461677,390.
5.84,6299.,25.,13.,3660.,0.,0.,9997.,0.90878225006,1.89026708012,325.
5.86,6291.,24.,9.,3672.,0.,0.,9996.,0.907718856773,1.96672418968,312.
5.88,6285.,27.,19.,3665.,0.,0.,9996.,0.906853125866,1.74653194611,351.
5.9,6276.,28.,21.,3668.,0.,0.,9993.,0.905826386163,1.68224900287,364.
5.92,6267.,30.,16.,3684.,0.,0.,9997.,0.904165480413,1.56722016605,390.
5.94,6253.,39.,15.,3693.,0.,0.,10000.,0.901875,1.2025,507.
5.96,6242.,43.,10.,3702.,0.,0.,9997.,0.900558629127,1.08904764453,559.
5.98,6235.,34.,17.,3709.,0.,0.,9995.,0.899728710509,1.3760556749,442.
6.,6224.,36.,19.,3714.,0.,0.,9993.,0.898321132485,1.29757496915,468.
6.02,6215.,35.,14.,3728.,0.,0.,9992.,0.897111920305,1.33285199588,455.
6.04,6210.,39.,16.,3725.,0.,0.,9990.,0.89656964657,1.19542619543,507.
6.06,6203.,35.,18.,3733.,0.,0.,9989.,0.895648675081,1.33067803155,455.
6.08,6190.,37.,13.,3747.,0.,0.,9987.,0.893950597315,1.25636300163,481.
6.1,6184.,33.,17.,3750.,0.,0.,9984.,0.893352440828,1.40770687646,429.
6.12,6182.,33.,12.,3756.,0.,0.,9983.,0.893152975443,1.40739256736,429.
6.14,6167.,27.,14.,3773.,0.,0.,9981.,0.891164366142,1.71631655701,351.
6.16,6163.,29.,8.,3780.,0.,0.,9980.,0.890675581933,1.59707345726,377.
6.18,6165.,22.,10.,3783.,0.,0.,9980.,0.890964621551,2.10591637821,286.
6.2,6158.,31.,12.,3779.,0.,0.,9980.,0.889952982889,1.49282435839,403.
6.22,6162.,25.,13.,3778.,0.,0.,9978.,0.890709561034,1.85267588695,325.
6.24,6164.,24.,13.,3780.,0.,0.,9981.,0.890730850154,1.929916842,312.
6.26,6161.,26.,7.,3788.,0.,0.,9982.,0.89020814389,1.78041628778,338.
6.28,6153.,29.,14.,3786.,0.,0.,9982.,0.889052217068,1.59416259612,377.
6.3,6146.,33.,16.,3788.,0.,0.,9983.,0.887951825796,1.39919681641,429.
6.32,6142.,30.,16.,3798.,0.,0.,9986.,0.887107334884,1.5376527138,390.
6.34,6137.,30.,13.,3804.,0.,0.,9984.,0.886562731139,1.53670873397,390.
6.36,6127.,32.,14.,3809.,0.,0.,9982.,0.885295454896,1.43860511421,416.
6.38,6126.,32.,14.,3814.,0.,0.,9986.,0.884796407278,1.43779416183,416.
6.4,6124.,26.,10.,3827.,0.,0.,9987.,0.884418975437,1.76883795087,338.
6.42,6121.,27.,8.,3830.,0.,0.,9986.,0.884074242401,1.70266150388,351.
6.44,6122.,21.,13.,3829.,0.,0.,9985.,0.884307230076,2.18971314114,273.
6.46,6122.,21.,11.,3834.,0.,0.,9988.,0.884041619174,2.18905543795,273.
6.48,6118.,23.,14.,3835.,0.,0.,9990.,0.883287133287,1.996996997,299.
6.5,6120.,24.,12.,3839.,0.,0.,9995.,0.88313387463,1.91345672836,312.
6.52,6122.,23.,10.,3838.,0.,0.,9993.,0.883599288733,1.99770273974,299.
6.54,6126.,25.,10.,3833.,0.,0.,9994.,0.884088145195,1.83890334201,325.
6.56,6118.,26.,12.,3838.,0.,0.,9994.,0.882933606318,1.76586721264,338.
6.58,6107.,28.,15.,3847.,0.,0.,9997.,0.881081632182,1.63629445977,364.
6.6,6097.,31.,20.,3848.,0.,0.,9996.,0.879726890756,1.47567091353,403.
6.62,6098.,25.,19.,3853.,0.,0.,9995.,0.879959210374,1.83031515758,325.
6.64,6097.,25.,13.,3862.,0.,0.,9997.,0.879638891668,1.82964889467,325.
6.66,6093.,25.,6.,3873.,0.,0.,9997.,0.879061795462,1.82844853456,325.
6.68,6096.,20.,4.,3879.,0.,0.,9999.,0.879318701101,2.28622862286,260.
6.7,6099.,11.,5.,3881.,0.,0.,9996.,0.880015467726,4.16007312016,143.
6.72,6102.,10.,7.,3877.,0.,0.,9996.,0.880448333179,4.57833133253,130.
6.74,6097.,12.,7.,3879.,0.,0.,9995.,0.879814907454,3.81253126563,156.
6.76,6098.,13.,8.,3876.,0.,0.,9995.,0.879959210374,3.5198368415,169.
6.78,6091.,15.,8.,3877.,0.,0.,9991.,0.879300986272,3.04824341908,195.
6.8,6093.,15.,7.,3876.,0.,0.,9991.,0.87958970766,3.04924431989,195.
6.82,6089.,18.,10.,3875.,0.,0.,9992.,0.878924293281,2.53911462503,234.
6.84,6081.,19.,6.,3884.,0.,0.,9990.,0.877945252945,2.40279753438,247.
6.86,6082.,19.,6.,3887.,0.,0.,9994.,0.87773818137,2.40223081217,247.
6.88,6082.,18.,11.,3884.,0.,0.,9995.,0.877650363643,2.53543438386,234.
6.9,6080.,21.,10.,3883.,0.,0.,9994.,0.877449546651,2.17273221076,273.
6.92,6079.,22.,11.,3882.,0.,0.,9994.,0.877305229291,2.07363054196,286.
6.94,6077.,24.,6.,3888.,0.,0.,9995.,0.87692884904,1.90001250625,312.
6.96,6077.,19.,11.,3887.,0.,0.,9994.,0.877016594572,2.40025594304,247.
6.98,6070.,21.,8.,3896.,0.,0.,9995.,0.875918728595,2.16894161366,273.
7.,6076.,11.,12.,3893.,0.,0.,9992.,0.87704779208,4.14604410801,143.
7.02,6076.,10.,14.,3889.,0.,0.,9989.,0.877311196162,4.56201822004,130.
7.04,6075.,14.,10.,3892.,0.,0.,9991.,0.876991215171,3.25739594206,182.
7.06,6081.,7.,13.,3890.,0.,0.,9991.,0.877857379334,6.52122624648,91.
7.08,6075.,12.,7.,3896.,0.,0.,9990.,0.877079002079,3.80067567568,156.
7.1,6072.,14.,8.,3891.,0.,0.,9985.,0.877084858056,3.25774375849,182.
7.12,6075.,12.,10.,3885.,0.,0.,9982.,0.877781930552,3.80372169906,156.
7.14,6077.,19.,5.,3881.,0.,0.,9982.,0.878070912257,2.40314144407,247.
7.16,6076.,12.,7.,3884.,0.,0.,9979.,0.878190353589,3.80549153222,156.
7.18,6077.,11.,9.,3883.,0.,0.,9980.,0.878246878372,4.15171251594,143.
7.2,6084.,17.,7.,3874.,0.,0.,9982.,0.879082348227,2.68895777105,221.
7.22,6089.,16.,7.,3872.,0.,0.,9984.,0.879628559541,2.85879281851,208.
7.24,6095.,15.,3.,3871.,0.,0.,9984.,0.880495330991,3.0523838141,195.
7.26,6096.,12.,4.,3870.,0.,0.,9982.,0.88081623846,3.81687036666,156.
7.28,6105.,13.,3.,3863.,0.,0.,9984.,0.881939950074,3.5277598003,169.
7.3,6115.,6.,7.,3858.,0.,0.,9986.,0.883207644549,7.65446625275,78.
7.32,6116.,10.,3.,3860.,0.,0.,9989.,0.883086780073,4.59205125638,130.
7.34,6128.,3.,10.,3850.,0.,0.,9991.,0.884642331945,15.3338004204,39.
7.36,6130.,5.,4.,3850.,0.,0.,9989.,0.885108234443,9.2051256382,65.
7.38,6138.,5.,1.,3847.,0.,0.,9991.,0.886085938883,9.21529376439,65.
7.4,6146.,5.,4.,3834.,0.,0.,9989.,0.887418468007,9.22915206727,65.
7.42,6158.,5.,2.,3825.,0.,0.,9990.,0.889062139062,9.24624624625,65.
7.44,6164.,6.,0.,3820.,0.,0.,9990.,0.889928389928,7.71271271271,78.
7.46,6176.,4.,3.,3808.,0.,0.,9991.,0.89157164525,11.5904313882,52.
7.48,6183.,3.,1.,3807.,0.,0.,9994.,0.892314234695,15.466780068,39.
7.5,6187.,4.,0.,3801.,0.,0.,9992.,0.893070225411,11.6099129303,52.
7.52,6187.,4.,1.,3795.,0.,0.,9987.,0.893517341775,11.6157254431,52.
7.54,6191.,4.,4.,3786.,0.,0.,9985.,0.894274103463,11.625563345,52.
7.56,6197.,5.,4.,3780.,0.,0.,9986.,0.895051148531,9.30853194472,65.
7.58,6196.,7.,5.,3776.,0.,0.,9984.,0.895085983728,6.64921016484,91.
7.6,6201.,10.,4.,3771.,0.,0.,9986.,0.895628880433,4.65727017825,130.
7.62,6208.,9.,7.,3760.,0.,0.,9984.,0.896819526627,5.18162393162,117.
7.64,6210.,17.,5.,3753.,0.,0.,9985.,0.89701860483,2.74382161478,221.
7.66,6212.,18.,7.,3751.,0.,0.,9988.,0.897037984042,2.59144306501,234.
7.68,6214.,20.,3.,3752.,0.,0.,9989.,0.897236960657,2.33281609771,260.
7.7,6224.,16.,6.,3743.,0.,0.,9989.,0.898680856635,2.92071278406,208.
7.72,6219.,21.,3.,3749.,0.,0.,9992.,0.89768930529,2.22284970834,273.
7.74,6223.,18.,3.,3750.,0.,0.,9994.,0.898086929081,2.59447335068,234.
7.76,6228.,16.,5.,3743.,0.,0.,9992.,0.898988421506,2.9217123699,208.
7.78,6229.,14.,14.,3735.,0.,0.,9992.,0.899132767753,3.33963599451,182.
7.8,6215.,24.,0.,3753.,0.,0.,9992.,0.897111920305,1.943742494,312.
7.82,6216.,15.,12.,3748.,0.,0.,9991.,0.897346073004,3.11079971975,195.
7.84,6215.,22.,8.,3748.,0.,0.,9993.,0.897022146272,2.12023416391,286.
7.86,6212.,27.,10.,3743.,0.,0.,9992.,0.896678881567,1.72693710524,351.
7.88,6209.,28.,4.,3752.,0.,0.,9993.,0.896156155463,1.664290003,364.
7.9,6213.,23.,12.,3744.,0.,0.,9992.,0.896823227813,2.02760034114,299.
7.92,6212.,25.,11.,3748.,0.,0.,9996.,0.896320066488,1.8643457383,325.
7.94,6214.,23.,6.,3758.,0.,0.,10001.,0.896160383962,2.02610173765,299.
7.96,6210.,19.,15.,3753.,0.,0.,9997.,0.895941859481,2.4520514049,247.
7.98,6211.,17.,10.,3758.,0.,0.,9996.,0.896175778004,2.74124355625,221.
8.,6208.,22.,9.,3758.,0.,0.,9997.,0.895653311378,2.11699873598,286.
8.02,6206.,19.,12.,3759.,0.,0.,9996.,0.89545433558,2.45071712896,247.
8.04,6202.,24.,10.,3761.,0.,0.,9997.,0.894787667069,1.93870661198,312.
8.06,6205.,13.,15.,3764.,0.,0.,9997.,0.895220489224,3.58088195689,169.
8.08,6195.,25.,8.,3770.,0.,0.,9998.,0.893688353055,1.85887177435,325.
8.1,6192.,17.,12.,3775.,0.,0.,9996.,0.893434296796,2.73285784902,221.
8.12,6199.,20.,2.,3778.,0.,0.,9999.,0.894175956057,2.32485748575,260.
8.14,6203.,18.,10.,3768.,0.,0.,9999.,0.894752936832,2.58484181752,234.
8.16,6209.,11.,9.,3774.,0.,0.,10003.,0.895260268073,4.23213944907,143.
8.18,6205.,17.,4.,3771.,0.,0.,9997.,0.895220489224,2.73832149645,221.
8.2,6209.,13.,6.,3771.,0.,0.,9999.,0.895618407995,3.58247363198,169.
8.22,6209.,12.,6.,3771.,0.,0.,9998.,0.895707987751,3.88140128026,156.
8.24,6215.,13.,4.,3767.,0.,0.,9999.,0.896483879157,3.58593551663,169.
8.26,6217.,15.,6.,3763.,0.,0.,10001.,0.896593033004,3.10818918108,195.
8.28,6223.,16.,4.,3759.,0.,0.,10002.,0.897368603202,2.91644796041,208.
8.3,6232.,11.,11.,3749.,0.,0.,10003.,0.898576580872,4.24781656412,143.
8.32,6229.,11.,9.,3755.,0.,0.,10004.,0.898054239843,4.24534731562,143.
8.34,6226.,14.,10.,3753.,0.,0.,10003.,0.897711455794,3.33435683581,182.
8.36,6224.,16.,9.,3755.,0.,0.,10004.,0.897333374343,2.91633346661,208.
8.38,6223.,17.,4.,3761.,0.,0.,10005.,0.897099527159,2.7440691419,221.
8.4,6225.,11.,7.,3764.,0.,0.,10007.,0.897208492517,4.24134923735,143.
8.42,6230.,13.,8.,3758.,0.,0.,10009.,0.897749717562,3.59099887025,169.
8.44,6226.,18.,4.,3765.,0.,0.,10013.,0.896814909848,2.59079862845,234.
8.46,6225.,21.,1.,3765.,0.,0.,10012.,0.89676042595,2.22054962616,273.
8.48,6227.,17.,7.,3763.,0.,0.,10014.,0.896869382864,2.74336517111,221.
8.5,6231.,8.,9.,3772.,0.,0.,10020.,0.896908106863,5.82990269461,104.
8.52,6240.,8.,7.,3767.,0.,0.,10022.,0.898024346438,5.83715825185,104.
8.54,6237.,10.,7.,3768.,0.,0.,10022.,0.897592603964,4.66748154061,130.
8.56,6235.,13.,6.,3766.,0.,0.,10020.,0.897483878397,3.58993551359,169.
8.58,6235.,16.,5.,3763.,0.,0.,10019.,0.897573456586,2.91711373391,208.
8.6,6230.,19.,5.,3763.,0.,0.,10017.,0.897032736655,2.45503696348,247.
8.62,6229.,14.,7.,3764.,0.,0.,10014.,0.897157441121,3.33229906702,182.
8.64,6231.,17.,3.,3764.,0.,0.,10015.,0.897355889243,2.74485330827,221.
8.66,6229.,10.,15.,3763.,0.,0.,10017.,0.896888750662,4.66382150344,130.
8.68,6228.,9.,8.,3771.,0.,0.,10016.,0.896834295896,5.18170926518,117.
8.7,6234.,8.,7.,3770.,0.,0.,10019.,0.897429499336,5.83329174568,104.
8.72,6241.,12.,4.,3764.,0.,0.,10021.,0.898257889202,3.89245085321,156.
8.74,6254.,9.,4.,3754.,0.,0.,10021.,0.900128959953,5.20074510195,117.
8.76,6255.,6.,5.,3752.,0.,0.,10018.,0.900542485065,7.80470153723,78.
8.78,6260.,3.,3.,3753.,0.,0.,10019.,0.901172387848,15.6203213894,39.
8.8,6277.,4.,4.,3737.,0.,0.,10022.,0.903349170287,11.7435392137,52.
8.82,6277.,6.,4.,3737.,0.,0.,10024.,0.903168933022,7.82746408619,78.
8.84,6285.,2.,7.,3733.,0.,0.,10027.,0.904049451097,23.5052857285,26.
8.86,6297.,4.,1.,3730.,0.,0.,10032.,0.905324116673,11.7692135167,52.
8.88,6297.,5.,0.,3726.,0.,0.,10028.,0.905685235188,9.41912644595,65.
8.9,6298.,5.,2.,3716.,0.,0.,10021.,0.906461814804,9.42720287396,65.
8.92,6300.,8.,3.,3709.,0.,0.,10020.,0.906840165822,5.89446107784,104.
8.94,6302.,14.,1.,3704.,0.,0.,10021.,0.907037528882,3.36899653585,182.
8.96,6304.,16.,4.,3698.,0.,0.,10022.,0.907234852555,2.9485132708,208.
8.98,6298.,16.,4.,3701.,0.,0.,10019.,0.906642763365,2.94658898094,208.
9.,6302.,14.,6.,3697.,0.,0.,10019.,0.907218592367,3.36966905736,182.
9.02,6307.,13.,6.,3696.,0.,0.,10022.,0.907666595029,3.63066638012,169.
9.04,6304.,12.,7.,3698.,0.,0.,10021.,0.90732538592,3.93174333899,156.
9.06,6305.,14.,6.,3694.,0.,0.,10019.,0.907650464118,3.37127315244,182.
9.08,6306.,14.,6.,3694.,0.,0.,10020.,0.907703823123,3.37147134303,182.
9.1,6308.,10.,2.,3698.,0.,0.,10018.,0.908172980942,4.7224995009,130.
9.12,6310.,10.,2.,3693.,0.,0.,10015.,0.908733054265,4.72541188218,130.
9.14,6315.,10.,3.,3686.,0.,0.,10014.,0.909543946168,4.72962852007,130.
9.16,6320.,9.,5.,3681.,0.,0.,10015.,0.910173201736,5.25877849892,117.
9.18,6327.,7.,4.,3679.,0.,0.,10017.,0.910999377981,6.76742395071,91.
9.2,6330.,8.,3.,3676.,0.,0.,10017.,0.91143133596,5.92430368374,104.
9.22,6334.,8.,4.,3671.,0.,0.,10017.,0.912007279932,5.92804731956,104.
9.24,6335.,9.,8.,3668.,0.,0.,10020.,0.911878166743,5.26862940785,117.
9.26,6336.,10.,2.,3669.,0.,0.,10017.,0.912295251918,4.74393530997,130.
9.28,6338.,12.,4.,3665.,0.,0.,10019.,0.912401053383,3.95373789799,156.
9.3,6330.,9.,10.,3667.,0.,0.,10016.,0.911522333497,5.26657348243,117.
9.32,6324.,18.,0.,3673.,0.,0.,10015.,0.910749260724,2.63105341987,234.
9.34,6327.,12.,9.,3666.,0.,0.,10014.,0.911272295709,3.94884661474,156.
9.36,6331.,9.,9.,3669.,0.,0.,10018.,0.911484328209,5.26635389632,117.
9.38,6329.,13.,4.,3671.,0.,0.,10017.,0.911287349967,3.64514939987,169.
9.4,6327.,14.,7.,3669.,0.,0.,10017.,0.910999377981,3.38371197536,182.
9.42,6330.,16.,3.,3671.,0.,0.,10020.,0.911158452326,2.96126497006,208.
9.44,6331.,11.,8.,3669.,0.,0.,10019.,0.91139335263,4.30840493971,143.
9.46,6333.,15.,8.,3664.,0.,0.,10020.,0.911590280977,3.16017964072,195.
9.48,6332.,17.,4.,3668.,0.,0.,10021.,0.911355384462,2.78767529365,221.
9.5,6339.,18.,6.,3662.,0.,0.,10025.,0.911998849031,2.63466334165,234.
9.52,6343.,14.,7.,3660.,0.,0.,10024.,0.912665372337,3.3898999544,182.
9.54,6343.,11.,6.,3663.,0.,0.,10023.,0.912756429443,4.31484857555,143.
9.56,6341.,12.,6.,3660.,0.,0.,10019.,0.912832925135,3.95560934225,156.
9.58,6338.,15.,4.,3662.,0.,0.,10019.,0.912401053383,3.1629903184,195.
9.6,6339.,10.,12.,3657.,0.,0.,10018.,0.912636101172,4.74570772609,130.
9.62,6331.,14.,8.,3662.,0.,0.,10015.,0.911757363954,3.38652735183,182.
9.64,6334.,14.,8.,3662.,0.,0.,10018.,0.91191624307,3.38711747426,182.
9.66,6337.,19.,6.,3660.,0.,0.,10022.,0.911984019772,2.49595626464,247.
9.68,6338.,16.,10.,3658.,0.,0.,10022.,0.91212793393,2.96441578527,208.
9.7,6331.,21.,7.,3660.,0.,0.,10019.,0.91139335263,2.25678353985,273.
9.72,6334.,15.,6.,3664.,0.,0.,10019.,0.911825224381,3.16099411119,195.
9.74,6334.,15.,5.,3666.,0.,0.,10020.,0.91173422386,3.16067864271,195.
9.76,6334.,12.,11.,3661.,0.,0.,10018.,0.91191624307,3.9516370533,156.
9.78,6328.,21.,7.,3662.,0.,0.,10018.,0.911052413348,2.25593930924,273.
9.8,6321.,15.,15.,3664.,0.,0.,10015.,0.910317216483,3.15576635047,195.
9.82,6312.,23.,12.,3667.,0.,0.,10014.,0.909111858782,2.0553833329,299.
9.84,6313.,25.,7.,3671.,0.,0.,10016.,0.90907432723,1.89087460064,325.
9.86,6312.,25.,14.,3669.,0.,0.,10020.,0.908567480424,1.88982035928,325.
9.88,6303.,27.,9.,3677.,0.,0.,10016.,0.907634323544,1.74803647497,351.
9.9,6307.,26.,12.,3675.,0.,0.,10020.,0.907847766006,1.81569553201,338.
9.92,6295.,29.,11.,3685.,0.,0.,10020.,0.906120451405,1.62476770597,377.
9.94,6293.,25.,14.,3692.,0.,0.,10024.,0.905471100129,1.88337988827,325.
9.96,6286.,26.,4.,3709.,0.,0.,10025.,0.904373681182,1.80874736236,338.
9.98,6276.,27.,9.,3709.,0.,0.,10021.,0.903295387379,1.73968000532,351.
10.,6281.,25.,7.,3711.,0.,0.,10024.,0.903744474799,1.87978850758,325.
