t,neff
5.,0.106581333333
5.02,0.213171225937
5.04,0.106394079753
5.06,0.212788159506
5.08,0.212516616154
5.1,0.169942061341
5.12,0.254660085974
5.14,0.190793701288
5.16,0.318229581277
5.18,0.318248407643
5.2,0.233071500504
5.22,0.211743508214
5.24,0.254223918575
5.26,0.190687022901
5.28,0.233048179361
5.3,0.211727316065
5.32,0.232619614063
5.34,0.211505922166
5.36,0.169076394396
5.38,0.232406321019
5.4,0.211513227513
5.42,0.274951065968
5.44,0.190309376487
5.46,0.253977128335
5.48,0.254138588684
5.5,0.211824539097
5.52,0.360760327068
5.54,0.296907566593
5.56,0.339525250916
5.58,0.317995226731
5.6,0.296807720861
5.62,0.212026726058
5.64,0.296949440288
5.66,0.296813070232
5.68,0.339067005937
5.7,0.38182165605
5.72,0.33958559133
5.74,0.360615907402
5.76,0.339315177575
5.78,0.233125265393
5.8,0.211839592616
5.82,0.127068554159
5.84,0.105829358771
5.86,0.0634233089868
5.88,0.211234528721
5.9,0.147746947836
5.92,0.274533819874
5.94,0.210996672477
5.96,0.23199577725
5.98,0.295284552846
6.,0.105329748537
6.02,0.21079284697
6.04,0.189582542694
6.06,0.126348403415
6.08,0.210535187526
6.1,0.126293838863
6.12,0.168275716916
6.14,0.189109254296
6.16,0.189008980621
6.18,0.230743246787
6.2,0.209745607134
6.22,0.2724081932
6.24,0.293438122184
6.26,0.230486067463
6.28,0.272283679028
6.3,0.398032683846
6.32,0.314038944724
6.34,0.355946398659
6.36,0.46070886341
6.38,0.334712066531
6.4,0.292760530992
6.42,0.313725490196
6.44,0.229682067345
6.46,0.188020686413
6.48,0.250755249138
6.5,0.1671679198
6.52,0.27176384535
6.54,0.313488955036
6.56,0.396837325818
6.58,0.208721961398
6.6,0.229594157538
6.62,0.166823063288
6.64,0.166621895986
6.66,0.166456578263
6.68,0.103899880563
6.7,0.166263759086
6.72,0.145388525781
6.74,0.228373781373
6.76,0.145269051322
6.78,0.269809286899
6.8,0.26959971001
6.82,0.228087397743
6.84,0.353051146384
6.86,0.415872026593
6.88,0.499775280898
6.9,0.43702525725
6.92,0.228859444012
6.94,0.416893193772
6.96,0.437675
6.98,0.375149999999
7.,0.291679425089
7.02,0.500882629108
7.04,0.438571652311
7.06,0.396785714286
7.08,0.480572622779
7.1,0.375885947047
7.12,0.418246495082
7.14,0.355423010516
7.16,0.27188314748
7.18,0.355758051846
7.2,0.334955464739
7.22,0.460991926182
7.24,0.335247680453
7.26,0.398721863687
7.28,0.461605288007
7.3,0.461605288007
7.32,0.378012285399
7.34,0.42036891061
7.36,0.335952980689
7.38,0.209835378001
7.4,0.14684698852
7.42,0.146792413287
7.44,0.272832939942
7.46,0.335794387621
7.48,0.398967091797
7.5,0.399235454737
7.52,0.378618732262
7.54,0.357794960812
7.56,0.463433322807
7.58,0.379516358464
7.6,0.421369545766
7.62,0.316145339652
7.64,0.358256475048
7.66,0.252926867793
7.68,0.358730560388
7.7,0.443130434782
7.72,0.379924098671
7.74,0.443602976096
7.76,0.485773979106
7.78,0.316595475399
7.8,0.359226991922
7.82,0.338222926572
7.84,0.338471297177
7.86,0.380862944162
7.88,0.27469624934
7.9,0.190306106265
7.92,0.14771990924
7.94,0.147507374631
7.96,0.189663347558
7.98,0.0841861444515
8.,0.168468952441
8.02,0.210501922368
8.04,0.2735502211
8.06,0.252478686454
8.08,0.336377886487
8.1,0.357422138047
8.12,0.18892530728
8.14,0.146817800168
8.16,0.272571848123
8.18,0.272373165618
8.2,0.272303096997
8.22,0.0837376911797
8.24,0.272116451984
8.26,0.397765562012
8.28,0.37648092921
8.3,0.250526315789
8.32,0.376126705347
8.34,0.565318246109
8.36,0.418951781971
8.38,0.335113487446
8.4,0.356246525046
8.42,0.293178197065
8.44,0.356205757433
8.46,0.209191792295
8.48,0.167241144771
8.5,0.0835644807029
8.52,0.208869365129
8.54,0.125146528757
8.56,0.104196680238
8.58,0.145823286885
8.6,0.124872556685
8.62,0.0623715044524
8.64,0.103952507421
8.66,0.145458899474
8.68,0.186883096613
8.7,0.166014662299
8.72,0.228257433978
8.74,0.228092269327
8.76,0.227945205479
8.78,0.227919908704
8.8,0.269347859922
8.82,0.10352050604
8.84,0.22798069438
8.86,0.103557353246
8.88,0.310734287492
8.9,0.351673139661
8.92,0.206770186335
8.94,0.24799503414
8.96,0.185918114144
8.98,0.165286179618
9.,0.227419822056
9.02,0.310049627791
9.04,0.371944186047
9.06,0.351296439829
9.08,0.289313087491
9.1,0.351421188631
9.12,0.413602067183
9.14,0.268770081099
9.16,0.310116189001
9.18,0.310370485196
9.2,0.393419161366
9.22,0.351788353227
9.24,0.310126974296
9.26,0.309746287129
9.28,0.350812844698
9.3,0.350758606473
9.32,0.226736657918
9.34,0.288723415211
9.36,0.20607183287
9.38,0.288555555556
9.4,0.288482230108
9.42,0.20596707819
9.44,0.308978710275
9.46,0.329505601809
9.48,0.391387304035
9.5,0.329523515806
9.52,0.288511032248
9.54,0.330407710943
9.56,0.413694810225
9.58,0.517656791271
9.6,0.518253844958
9.62,0.623683390462
9.64,0.457632933104
9.66,0.625613760749
9.68,0.752898368884
9.7,0.607471607265
9.72,0.88367134521
9.74,0.928587248856
9.76,0.719035838885
9.78,0.891030534351
9.8,1.0215090126
9.82,1.21894838089
9.84,1.20160849284
9.86,1.39964498951
9.88,1.14438834951
9.9,1.06003783579
9.92,0.976206728427
9.94,0.935896098249
9.96,1.15857236411
9.98,1.13962470595
10.,1.23303430079
