t,s,e,i,r,c,o,n,reff,coal,reportr
5.,6250.,5.,3.,3734.,0.,0.,9992.,0.902164038923,9.3825060048,65.
5.02,6251.,8.,0.,3728.,0.,0.,9987.,0.902760126626,5.86794082307,104.
5.04,6259.,7.,1.,3718.,0.,0.,9985.,0.904096529409,6.71614564704,91.
5.06,6273.,3.,6.,3704.,0.,0.,9986.,0.906028054661,15.7044862808,39.
5.08,6276.,1.,5.,3700.,0.,0.,9982.,0.906824591958,47.1548787818,13.
5.1,6279.,2.,3.,3698.,0.,0.,9982.,0.907258064516,23.5887096774,26.
5.12,6287.,2.,2.,3692.,0.,0.,9983.,0.908322995246,23.6163978764,26.
5.14,6301.,0.,2.,3683.,0.,0.,9986.,0.910072177972,inf,0.
5.16,6307.,2.,0.,3681.,0.,0.,9990.,0.910574035574,23.6749249249,26.
5.18,6307.,4.,2.,3677.,0.,0.,9990.,0.910574035574,11.8374624625,52.
5.2,6310.,5.,0.,3670.,0.,0.,9985.,0.911463348869,9.47921882824,65.
5.22,6315.,5.,2.,3665.,0.,0.,9987.,0.912002911477,9.48483027936,65.
5.24,6327.,2.,2.,3656.,0.,0.,9987.,0.913735933637,23.7571342746,26.
5.26,6330.,6.,1.,3652.,0.,0.,9989.,0.913986154,7.92121333467,78.
5.28,6329.,4.,4.,3649.,0.,0.,9986.,0.914116301283,11.8835119167,52.
5.3,6345.,2.,2.,3641.,0.,0.,9990.,0.91606029106,23.8175675676,26.
5.32,6354.,2.,0.,3636.,0.,0.,9992.,0.917176048531,23.8465772618,26.
5.34,6365.,2.,0.,3625.,0.,0.,9992.,0.91876385724,23.8878602882,26.
5.36,6373.,3.,1.,3616.,0.,0.,9993.,0.919826570907,15.9436605624,39.
5.38,6380.,6.,3.,3604.,0.,0.,9993.,0.920836893518,7.98058641049,78.
5.4,6384.,8.,3.,3596.,0.,0.,9991.,0.921598669572,5.99039135222,104.
5.42,6390.,3.,2.,3597.,0.,0.,9992.,0.922372513395,15.9877902322,39.
5.44,6397.,4.,1.,3592.,0.,0.,9994.,0.923198149659,12.0015759456,52.
5.46,6399.,6.,0.,3590.,0.,0.,9995.,0.923394389502,8.00275137569,78.
5.48,6405.,6.,3.,3580.,0.,0.,9994.,0.924352688536,8.01105663398,78.
5.5,6412.,5.,3.,3572.,0.,0.,9992.,0.925548130812,9.62570056045,65.
5.52,6414.,8.,4.,3567.,0.,0.,9993.,0.925744174768,6.017337136,104.
5.54,6410.,10.,3.,3564.,0.,0.,9987.,0.925722670241,4.81375788525,130.
5.56,6413.,10.,5.,3558.,0.,0.,9986.,0.926248671217,4.81649309033,130.
5.58,6410.,11.,6.,3558.,0.,0.,9985.,0.925908092909,4.37702007557,143.
5.6,6415.,10.,4.,3557.,0.,0.,9986.,0.926537537167,4.81799519327,130.
5.62,6420.,12.,5.,3553.,0.,0.,9990.,0.926888426888,4.01651651652,156.
5.64,6426.,5.,4.,3556.,0.,0.,9991.,0.927661818714,9.64768291462,65.
5.66,6426.,3.,6.,3553.,0.,0.,9988.,0.927940451619,16.0843011614,39.
5.68,6422.,7.,8.,3549.,0.,0.,9986.,0.927548567995,6.89036079082,91.
5.7,6420.,12.,8.,3542.,0.,0.,9982.,0.927631274756,4.01973552394,156.
5.72,6429.,10.,6.,3538.,0.,0.,9983.,0.928838641074,4.82996093359,130.
5.74,6440.,16.,4.,3528.,0.,0.,9988.,0.929962108376,3.02237685222,208.
5.76,6448.,11.,6.,3522.,0.,0.,9987.,0.931210573746,4.40208634862,143.
5.78,6456.,12.,2.,3519.,0.,0.,9989.,0.932179243321,4.03944338773,156.
5.8,6459.,13.,4.,3515.,0.,0.,9991.,0.932425721611,3.72970288644,169.
5.82,6467.,12.,3.,3514.,0.,0.,9996.,0.933113630067,4.04349239696,156.
5.84,6467.,11.,5.,3506.,0.,0.,9989.,0.933767528897,4.41417377297,143.
5.86,6468.,10.,6.,3504.,0.,0.,9988.,0.934005421891,4.85682819383,130.
5.88,6475.,9.,6.,3502.,0.,0.,9992.,0.934641944325,5.4001534561,117.
5.9,6481.,8.,3.,3502.,0.,0.,9994.,0.935320807869,6.07958525115,104.
5.92,6486.,9.,3.,3497.,0.,0.,9995.,0.935948743603,5.40770385193,117.
5.94,6493.,7.,5.,3493.,0.,0.,9998.,0.936677720159,6.95817734976,91.
5.96,6490.,7.,4.,3493.,0.,0.,9994.,0.936619664106,6.95774607622,91.
5.98,6489.,10.,2.,3492.,0.,0.,9993.,0.93656905988,4.87015911138,130.
6.,6497.,5.,8.,3480.,0.,0.,9990.,0.938005313005,9.75525525526,65.
6.02,6498.,12.,6.,3474.,0.,0.,9990.,0.93814968815,4.06531531532,156.
6.04,6496.,9.,9.,3471.,0.,0.,9985.,0.938330572782,5.42146553163,117.
6.06,6490.,15.,8.,3470.,0.,0.,9983.,0.937651700198,3.25052589402,195.
6.08,6490.,16.,10.,3466.,0.,0.,9982.,0.93774563445,3.04767331196,208.
6.1,6495.,14.,6.,3468.,0.,0.,9983.,0.938374082093,3.48538944778,182.
6.12,6488.,15.,5.,3473.,0.,0.,9981.,0.937550576865,3.25017533313,195.
6.14,6488.,16.,8.,3469.,0.,0.,9981.,0.937550576865,3.04703937481,208.
6.16,6487.,14.,6.,3472.,0.,0.,9979.,0.937593947289,3.48249180422,182.
6.18,6488.,11.,9.,3469.,0.,0.,9977.,0.937926461631,4.43383418226,143.
6.2,6489.,7.,8.,3471.,0.,0.,9975.,0.938259109312,6.96992481203,91.
6.22,6490.,11.,9.,3470.,0.,0.,9980.,0.937933559427,4.43386773547,143.
6.24,6491.,15.,7.,3470.,0.,0.,9983.,0.937796176577,3.25102674547,195.
6.26,6491.,19.,9.,3463.,0.,0.,9982.,0.937890125302,2.56685718504,247.
6.28,6491.,21.,10.,3460.,0.,0.,9982.,0.937890125302,2.32239459599,273.
6.3,6485.,23.,13.,3462.,0.,0.,9983.,0.936929318303,2.11827498051,299.
6.32,6487.,14.,21.,3460.,0.,0.,9982.,0.937312161891,3.48144517274,182.
6.34,6481.,24.,15.,3463.,0.,0.,9983.,0.936351412786,2.02876139437,312.
6.36,6469.,31.,12.,3470.,0.,0.,9982.,0.934711326542,1.56790287033,403.
6.38,6458.,35.,14.,3476.,0.,0.,9983.,0.933028456068,1.38621370616,455.
6.4,6449.,37.,21.,3478.,0.,0.,9985.,0.931541543084,1.30919352001,481.
6.42,6452.,34.,18.,3480.,0.,0.,9984.,0.932068232249,1.42551611991,442.
6.44,6443.,32.,21.,3488.,0.,0.,9984.,0.930768075074,1.512498122,416.
6.46,6436.,33.,18.,3496.,0.,0.,9983.,0.929849975728,1.46521814357,429.
6.48,6437.,29.,18.,3503.,0.,0.,9987.,0.9296219701,1.66690836018,377.
6.5,6439.,23.,14.,3513.,0.,0.,9989.,0.929724620159,2.10198609775,299.
6.52,6442.,31.,10.,3517.,0.,0.,10000.,0.929134615385,1.5585483871,403.
6.54,6433.,28.,8.,3532.,0.,0.,10001.,0.927743764085,1.72295270473,364.
6.56,6430.,28.,3.,3539.,0.,0.,10000.,0.927403846154,1.72232142857,364.
6.58,6435.,22.,10.,3535.,0.,0.,10002.,0.927939412118,2.19331133773,286.
6.6,6420.,33.,9.,3540.,0.,0.,10002.,0.925776383185,1.45879914926,429.
6.62,6425.,28.,11.,3541.,0.,0.,10005.,0.926219582516,1.72012208182,364.
6.64,6427.,19.,18.,3543.,0.,0.,10007.,0.926322727937,2.53519904488,247.
6.66,6422.,21.,15.,3552.,0.,0.,10010.,0.925324675325,2.29128014842,273.
6.68,6407.,21.,18.,3559.,0.,0.,10005.,0.923624726098,2.28707075034,273.
6.7,6400.,25.,15.,3563.,0.,0.,10003.,0.922800083052,1.91942417275,325.
6.72,6390.,26.,14.,3571.,0.,0.,10001.,0.921542461139,1.84308492228,338.
6.74,6387.,23.,18.,3572.,0.,0.,10000.,0.921201923077,2.0827173913,299.
6.76,6384.,22.,6.,3586.,0.,0.,9998.,0.920953421454,2.17679899616,286.
6.78,6385.,21.,6.,3580.,0.,0.,9992.,0.921650782164,2.28218288917,273.
6.8,6391.,19.,7.,3577.,0.,0.,9994.,0.922332245501,2.52427772453,247.
6.82,6394.,16.,13.,3570.,0.,0.,9993.,0.922857538739,2.9992870009,208.
6.84,6401.,19.,14.,3560.,0.,0.,9994.,0.923775419098,2.52822746279,247.
6.86,6401.,21.,14.,3560.,0.,0.,9996.,0.923590590082,2.28698622306,273.
6.88,6394.,28.,9.,3566.,0.,0.,9997.,0.922488284947,1.71319252919,364.
6.9,6385.,26.,14.,3572.,0.,0.,9997.,0.921189818484,1.84237963697,338.
6.92,6382.,21.,16.,3579.,0.,0.,9998.,0.920664902211,2.27974166262,273.
6.94,6380.,19.,8.,3589.,0.,0.,9996.,0.920560531905,2.51942882416,247.
6.96,6386.,13.,7.,3594.,0.,0.,10000.,0.921057692308,3.68423076923,169.
6.98,6388.,10.,7.,3596.,0.,0.,10001.,0.921254028443,4.79052094791,130.
7.,6381.,14.,6.,3597.,0.,0.,9998.,0.92052064259,3.41907667248,182.
7.02,6384.,11.,12.,3594.,0.,0.,10001.,0.920677163053,4.35229204352,143.
7.04,6383.,14.,17.,3589.,0.,0.,10003.,0.920348895331,3.41843875409,182.
7.06,6363.,23.,15.,3600.,0.,0.,10001.,0.917648619753,2.07468383596,299.
7.08,6359.,22.,13.,3609.,0.,0.,10003.,0.91688839502,2.16719075187,286.
7.1,6358.,20.,13.,3610.,0.,0.,10001.,0.916927538015,2.38401159884,260.
7.12,6351.,26.,13.,3612.,0.,0.,10002.,0.915826450095,1.83165290019,338.
7.14,6345.,24.,12.,3620.,0.,0.,10001.,0.915052725497,1.98261423858,312.
7.16,6346.,17.,11.,3626.,0.,0.,10000.,0.915288461538,2.79970588235,221.
7.18,6352.,18.,9.,3615.,0.,0.,9994.,0.916703868475,2.64825562004,234.
7.2,6349.,15.,10.,3621.,0.,0.,9995.,0.916179243468,3.17608804402,195.
7.22,6349.,14.,11.,3623.,0.,0.,9997.,0.915995952632,3.4022706812,182.
7.24,6344.,16.,7.,3628.,0.,0.,9995.,0.915457728864,2.97523761881,208.
7.26,6348.,16.,8.,3622.,0.,0.,9994.,0.916126599036,2.97741144687,208.
7.28,6349.,14.,7.,3623.,0.,0.,9993.,0.916362607672,3.40363254278,182.
7.3,6347.,12.,6.,3626.,0.,0.,9991.,0.916257323899,3.97044840356,156.
7.32,6338.,15.,9.,3624.,0.,0.,9986.,0.915416198062,3.17344281995,195.
7.34,6336.,14.,9.,3629.,0.,0.,9988.,0.91494408675,3.39836375079,182.
7.36,6329.,17.,6.,3631.,0.,0.,9983.,0.914391003167,2.79696071557,221.
7.38,6334.,12.,7.,3629.,0.,0.,9982.,0.915205061418,3.96588859948,156.
7.4,6331.,13.,11.,3626.,0.,0.,9981.,0.914863240156,3.65945296063,169.
7.42,6331.,17.,3.,3628.,0.,0.,9979.,0.915046597855,2.79896606403,221.
7.44,6334.,10.,2.,3633.,0.,0.,9979.,0.915480200729,4.76049704379,130.
7.46,6333.,10.,0.,3634.,0.,0.,9977.,0.915519155596,4.7606996091,130.
7.48,6339.,6.,5.,3628.,0.,0.,9978.,0.916294694482,7.94122068551,78.
7.5,6343.,8.,4.,3620.,0.,0.,9975.,0.917148640833,5.96146616541,104.
7.52,6342.,12.,4.,3617.,0.,0.,9975.,0.917004048583,3.97368421053,156.
7.54,6347.,13.,7.,3612.,0.,0.,9979.,0.917359146515,3.66943658606,169.
7.56,6342.,12.,12.,3609.,0.,0.,9975.,0.917004048583,3.97368421053,156.
7.58,6333.,20.,11.,3609.,0.,0.,9973.,0.915886354696,2.38130452221,260.
7.6,6322.,20.,16.,3610.,0.,0.,9968.,0.914754136313,2.37836075441,260.
7.62,6308.,29.,10.,3620.,0.,0.,9967.,0.912819998302,1.63678068661,377.
7.64,6305.,26.,16.,3624.,0.,0.,9971.,0.912019857587,1.82403971517,338.
7.66,6300.,24.,15.,3630.,0.,0.,9969.,0.911479432394,1.97487210352,312.
7.68,6300.,25.,7.,3636.,0.,0.,9968.,0.911570872947,1.89606741573,325.
7.7,6296.,26.,5.,3636.,0.,0.,9963.,0.911449285433,1.82289857087,338.
7.72,6296.,23.,10.,3635.,0.,0.,9964.,0.911357811197,2.06046113836,299.
7.74,6291.,26.,10.,3635.,0.,0.,9962.,0.910816873349,1.8216337467,338.
7.76,6294.,23.,12.,3632.,0.,0.,9961.,0.911342698061,2.06042696953,299.
7.78,6292.,24.,7.,3641.,0.,0.,9964.,0.910778803693,1.97335407467,312.
7.8,6294.,26.,8.,3641.,0.,0.,9969.,0.910611356744,1.82122271349,338.
7.82,6297.,17.,12.,3646.,0.,0.,9972.,0.910771313524,2.78588872372,221.
7.84,6290.,18.,10.,3653.,0.,0.,9971.,0.909850103762,2.62845585531,234.
7.86,6285.,20.,3.,3661.,0.,0.,9969.,0.90930924327,2.3642040325,260.
7.88,6285.,14.,11.,3655.,0.,0.,9965.,0.909674244471,3.37879005089,182.
7.9,6284.,13.,7.,3659.,0.,0.,9963.,0.909712088574,3.6388483543,169.
7.92,6283.,15.,7.,3656.,0.,0.,9961.,0.909749947874,3.1537998193,195.
7.94,6285.,15.,2.,3661.,0.,0.,9963.,0.909856854979,3.15417043059,195.
7.96,6283.,15.,4.,3656.,0.,0.,9958.,0.910024023978,3.15474994979,195.
7.98,6276.,19.,4.,3656.,0.,0.,9955.,0.90928408608,2.48856697243,247.
8.,6273.,17.,6.,3657.,0.,0.,9953.,0.909032066095,2.78056867276,221.
8.02,6277.,16.,4.,3657.,0.,0.,9954.,0.909520331989,2.95594107896,208.
8.04,6285.,17.,3.,3654.,0.,0.,9959.,0.910222296029,2.78420937609,221.
8.06,6291.,17.,1.,3651.,0.,0.,9960.,0.910999768304,2.78658752658,221.
8.08,6297.,11.,7.,3642.,0.,0.,9957.,0.912143370339,4.31195047796,143.
8.1,6297.,8.,10.,3640.,0.,0.,9955.,0.912326623653,5.93012305374,104.
8.12,6291.,14.,4.,3644.,0.,0.,9953.,0.911640479484,3.38609320951,182.
8.14,6292.,20.,1.,3641.,0.,0.,9954.,0.911693791441,2.37040385775,260.
8.16,6292.,12.,10.,3635.,0.,0.,9949.,0.912151975073,3.95265855865,156.
8.18,6283.,17.,8.,3638.,0.,0.,9946.,0.911121981779,2.78696135603,221.
8.2,6283.,14.,9.,3641.,0.,0.,9947.,0.911030384113,3.38382714099,182.
8.22,6279.,20.,7.,3641.,0.,0.,9947.,0.910450387051,2.36717100633,260.
8.24,6277.,19.,6.,3639.,0.,0.,9941.,0.910709725844,2.49246872336,247.
8.26,6275.,17.,11.,3637.,0.,0.,9940.,0.910511143786,2.7850929104,221.
8.28,6280.,18.,9.,3634.,0.,0.,9941.,0.911144986188,2.63219662676,234.
8.3,6275.,20.,3.,3646.,0.,0.,9944.,0.910144888298,2.36637670957,260.
8.32,6276.,15.,9.,3641.,0.,0.,9941.,0.910564639063,3.15662408208,195.
8.34,6276.,11.,7.,3646.,0.,0.,9940.,0.910656245163,4.30492043168,143.
8.36,6284.,9.,10.,3640.,0.,0.,9943.,0.911541942921,5.26668678132,117.
8.38,6287.,9.,4.,3644.,0.,0.,9944.,0.911885404419,5.26867122553,117.
8.4,6292.,8.,2.,3643.,0.,0.,9945.,0.912518853695,5.93137254902,104.
8.42,6288.,7.,3.,3643.,0.,0.,9941.,0.912305680438,6.77712791182,91.
8.44,6288.,11.,3.,3633.,0.,0.,9935.,0.912856645116,4.31532232237,143.
8.46,6287.,12.,4.,3631.,0.,0.,9934.,0.912803348252,3.95548117576,156.
8.48,6291.,9.,5.,3629.,0.,0.,9934.,0.913384104319,5.27733038051,117.
8.5,6296.,8.,8.,3622.,0.,0.,9934.,0.914110049403,5.94171532112,104.
8.52,6290.,10.,7.,3624.,0.,0.,9931.,0.913514790516,4.75027691068,130.
8.54,6292.,12.,4.,3624.,0.,0.,9932.,0.913713250101,3.95942408377,156.
8.56,6301.,12.,6.,3619.,0.,0.,9938.,0.914467777141,3.96269370095,156.
8.58,6304.,11.,2.,3619.,0.,0.,9936.,0.915087328131,4.32586736935,143.
8.6,6302.,14.,4.,3615.,0.,0.,9935.,0.914889086756,3.39815946509,182.
8.62,6308.,9.,6.,3609.,0.,0.,9932.,0.916036742154,5.29265673245,117.
8.64,6310.,8.,7.,3603.,0.,0.,9928.,0.916696367694,5.95852639001,104.
8.66,6317.,9.,6.,3604.,0.,0.,9936.,0.916974405425,5.29807434246,117.
8.68,6322.,10.,4.,3596.,0.,0.,9932.,0.918069797701,4.77396294805,130.
8.7,6327.,6.,5.,3596.,0.,0.,9934.,0.918610908922,7.96129454399,78.
8.72,6328.,7.,7.,3591.,0.,0.,9933.,0.918848593267,6.82573240713,91.
8.74,6327.,14.,8.,3590.,0.,0.,9939.,0.918148784509,3.41026691389,182.
8.76,6322.,16.,8.,3592.,0.,0.,9938.,0.917515519297,2.98192543771,208.
8.78,6326.,16.,6.,3594.,0.,0.,9942.,0.917726660786,2.98261164756,208.
8.8,6327.,15.,10.,3589.,0.,0.,9941.,0.917964064906,3.18227542501,195.
8.82,6332.,10.,10.,3591.,0.,0.,9943.,0.918504707603,4.77622447953,130.
8.84,6335.,14.,1.,3596.,0.,0.,9946.,0.918662701666,3.41217574904,182.
8.86,6345.,13.,1.,3591.,0.,0.,9950.,0.919742945497,3.67897178199,169.
8.88,6345.,14.,5.,3589.,0.,0.,9953.,0.919465719652,3.41515838728,182.
8.9,6344.,22.,5.,3585.,0.,0.,9956.,0.919043792688,2.17228532817,286.
8.92,6343.,21.,4.,3585.,0.,0.,9953.,0.919175895942,2.27605459947,273.
8.94,6350.,14.,6.,3584.,0.,0.,9954.,0.920097834655,3.417506243,182.
8.96,6351.,12.,8.,3580.,0.,0.,9951.,0.920520164189,3.98892071149,156.
8.98,6349.,17.,9.,3575.,0.,0.,9950.,0.920322767685,2.81510493645,221.
9.,6346.,13.,17.,3575.,0.,0.,9951.,0.919795459289,3.67918183716,169.
9.02,6338.,19.,13.,3580.,0.,0.,9950.,0.918728256668,2.51441417614,247.
9.04,6336.,21.,10.,3585.,0.,0.,9952.,0.918253771952,2.27377124483,273.
9.06,6339.,17.,8.,3591.,0.,0.,9955.,0.918411698798,2.80925931397,221.
9.08,6349.,14.,12.,3579.,0.,0.,9954.,0.919952937358,3.41696805304,182.
9.1,6342.,13.,11.,3585.,0.,0.,9951.,0.919215695369,3.67686278148,169.
9.12,6338.,18.,7.,3589.,0.,0.,9952.,0.918543624784,2.6535704716,234.
9.14,6336.,21.,8.,3586.,0.,0.,9951.,0.918346049489,2.27399974159,273.
9.16,6337.,18.,7.,3593.,0.,0.,9955.,0.918121933315,2.6523522518,234.
9.18,6344.,19.,2.,3590.,0.,0.,9955.,0.919136112506,2.51553041318,247.
9.2,6346.,16.,7.,3587.,0.,0.,9956.,0.919333529066,2.98783396947,208.
9.22,6345.,21.,8.,3583.,0.,0.,9957.,0.919096345053,2.27585761632,273.
9.24,6345.,21.,4.,3589.,0.,0.,9959.,0.918911769022,2.27540057091,273.
9.26,6349.,19.,6.,3586.,0.,0.,9960.,0.919398748842,2.51624920736,247.
9.28,6358.,14.,11.,3580.,0.,0.,9963.,0.920424802539,3.41872069514,182.
9.3,6356.,16.,11.,3577.,0.,0.,9960.,0.920412418906,2.99134036145,208.
9.32,6349.,23.,7.,3581.,0.,0.,9960.,0.919398748842,2.07864064955,299.
9.34,6353.,23.,4.,3584.,0.,0.,9964.,0.919608668128,2.07911524968,299.
9.36,6349.,23.,6.,3585.,0.,0.,9963.,0.919121904894,2.0780147415,299.
9.38,6351.,23.,7.,3580.,0.,0.,9961.,0.91959603994,2.079086699,299.
9.4,6353.,16.,6.,3586.,0.,0.,9961.,0.919885630884,2.98962830037,208.
9.42,6356.,22.,0.,3585.,0.,0.,9963.,0.920135269729,2.174865183,286.
9.44,6359.,17.,3.,3581.,0.,0.,9960.,0.920846848934,2.8167080085,221.
9.46,6355.,19.,8.,3576.,0.,0.,9958.,0.920452438704,2.51913299014,247.
9.48,6353.,16.,11.,3577.,0.,0.,9957.,0.920255174172,2.99082931606,208.
9.5,6354.,17.,9.,3579.,0.,0.,9959.,0.920215189971,2.81477587521,221.
9.52,6355.,18.,7.,3579.,0.,0.,9959.,0.920360014521,2.65881781973,234.
9.54,6354.,22.,6.,3574.,0.,0.,9956.,0.92049247458,2.17570948537,286.
9.56,6352.,22.,13.,3569.,0.,0.,9956.,0.920202738202,2.17502465393,286.
9.58,6354.,20.,11.,3573.,0.,0.,9958.,0.920307599611,2.39279975899,260.
9.6,6357.,19.,11.,3569.,0.,0.,9956.,0.920927079148,2.52043200609,247.
9.62,6361.,18.,4.,3575.,0.,0.,9958.,0.921321473265,2.66159536721,234.
9.64,6359.,15.,7.,3576.,0.,0.,9957.,0.921124296011,3.19323089284,195.
9.66,6358.,13.,9.,3577.,0.,0.,9957.,0.920979442371,3.68391776949,169.
9.68,6354.,15.,11.,3574.,0.,0.,9954.,0.920677423842,3.19168173599,195.
9.7,6341.,23.,9.,3583.,0.,0.,9956.,0.91860918812,2.07685555575,299.
9.72,6340.,22.,10.,3586.,0.,0.,9958.,0.918279852303,2.1704796509,286.
9.74,6339.,19.,10.,3590.,0.,0.,9958.,0.918135013209,2.51279056247,247.
9.76,6332.,21.,12.,3592.,0.,0.,9957.,0.917213247734,2.27119470868,273.
9.78,6320.,24.,15.,3597.,0.,0.,9956.,0.915566956146,1.98372840498,312.
9.8,6311.,24.,13.,3609.,0.,0.,9957.,0.914171321297,1.98070452948,312.
9.82,6307.,29.,13.,3607.,0.,0.,9956.,0.913683669685,1.63832933875,377.
9.84,6294.,35.,10.,3617.,0.,0.,9956.,0.911800383225,1.35467485508,455.
9.86,6285.,39.,16.,3616.,0.,0.,9956.,0.910496569521,1.21399542603,507.
9.88,6285.,32.,21.,3616.,0.,0.,9954.,0.910679510363,1.47985420434,416.
9.9,6276.,29.,13.,3634.,0.,0.,9952.,0.90955818699,1.6309319215,377.
9.92,6268.,32.,18.,3632.,0.,0.,9950.,0.90858136838,1.47644472362,416.
9.94,6259.,30.,20.,3640.,0.,0.,9949.,0.907367961218,1.57277113278,390.
9.96,6255.,25.,25.,3640.,0.,0.,9945.,0.907152801949,1.88687782805,325.
9.98,6247.,34.,24.,3646.,0.,0.,9951.,0.905446302266,1.38480022699,442.
10.,6225.,41.,20.,3661.,0.,0.,9947.,0.902620426723,1.14478688267,533.
