t,cases
5.01,1.04
5.02,1.04
5.03,1.43
5.04,1.43
5.05,1.17
5.06,1.17
5.07,0.91
5.08,0.91
5.09,0.845
5.1,0.845
5.11,0.65
5.12,0.65
5.13,0.715
5.14,0.715
5.15,0.975
5.16,0.975
5.17,1.3
5.18,1.3
5.19,1.3
5.2,1.3
5.21,0.975
5.22,0.975
5.23,0.91
5.24,0.91
5.25,0.845
5.26,0.845
5.27,1.04
5.28,1.04
5.29,1.3
5.3,1.3
5.31,1.365
5.32,1.365
5.33,1.105
5.34,1.105
5.35,1.495
5.36,1.495
5.37,2.405
5.38,2.405
5.39,2.535
5.4,2.535
5.41,2.73
5.42,2.73
5.43,2.34
5.44,2.34
5.45,2.275
5.46,2.275
5.47,2.405
5.48,2.405
5.49,1.625
5.5,1.625
5.51,1.235
5.52,1.235
5.53,1.105
5.54,1.105
5.55,0.975
5.56,0.975
5.57,1.04
5.58,1.04
5.59,1.17
5.6,1.17
5.61,1.105
5.62,1.105
5.63,1.04
5.64,1.04
5.65,0.975
5.66,0.975
5.67,0.845
5.68,0.845
5.69,0.91
5.7,0.91
5.71,0.91
5.72,0.91
5.73,1.04
5.74,1.04
5.75,1.3
5.76,1.3
5.77,1.365
5.78,1.365
5.79,1.3
5.8,1.3
5.81,1.495
5.82,1.495
5.83,1.365
5.84,1.365
5.85,1.105
5.86,1.105
5.87,1.365
5.88,1.365
5.89,1.3
5.9,1.3
5.91,1.365
5.92,1.365
5.93,1.56
5.94,1.56
5.95,1.43
5.96,1.43
5.97,1.3
5.98,1.3
5.99,1.04
6.,1.04
6.01,1.105
6.02,1.105
6.03,1.235
6.04,1.235
6.05,0.91
6.06,0.91
6.07,0.78
6.08,0.78
6.09,0.65
6.1,0.65
6.11,0.325
6.12,0.325
6.13,0.39
6.14,0.39
6.15,0.78
6.16,0.78
6.17,0.715
6.18,0.715
6.19,0.65
6.2,0.65
6.21,0.65
6.22,0.65
6.23,0.585
6.24,0.585
6.25,0.52
6.26,0.52
6.27,0.585
6.28,0.585
6.29,0.78
6.3,0.78
6.31,1.04
6.32,1.04
6.33,1.17
6.34,1.17
6.35,1.17
6.36,1.17
6.37,1.495
6.38,1.495
6.39,1.95
6.4,1.95
6.41,2.21
6.42,2.21
6.43,2.275
6.44,2.275
6.45,2.21
6.46,2.21
6.47,1.755
6.48,1.755
6.49,0.975
6.5,0.975
6.51,0.845
6.52,0.845
6.53,1.17
6.54,1.17
6.55,1.17
6.56,1.17
6.57,1.235
6.58,1.235
6.59,1.56
6.6,1.56
6.61,2.145
6.62,2.145
6.63,3.055
6.64,3.055
6.65,3.055
6.66,3.055
6.67,2.405
6.68,2.405
6.69,2.86
6.7,2.86
6.71,3.38
6.72,3.38
6.73,2.795
6.74,2.795
6.75,1.755
6.76,1.755
6.77,1.235
6.78,1.235
6.79,1.82
6.8,1.82
6.81,2.6
6.82,2.6
6.83,2.73
6.84,2.73
6.85,2.015
6.86,2.015
6.87,1.82
6.88,1.82
6.89,2.08
6.9,2.08
6.91,1.365
6.92,1.365
6.93,1.235
6.94,1.235
6.95,1.625
6.96,1.625
6.97,1.495
6.98,1.495
6.99,1.755
7.,1.755
7.01,1.82
7.02,1.82
7.03,1.43
7.04,1.43
7.05,1.43
7.06,1.43
7.07,1.625
7.08,1.625
7.09,1.82
7.1,1.82
7.11,1.82
7.12,1.82
7.13,1.3
7.14,1.3
7.15,1.17
7.16,1.17
7.17,1.755
7.18,1.755
7.19,1.885
7.2,1.885
7.21,1.235
7.22,1.235
7.23,0.975
7.24,0.975
7.25,1.235
7.26,1.235
7.27,1.17
7.28,1.17
7.29,1.105
7.3,1.105
7.31,1.105
7.32,1.105
7.33,1.365
7.34,1.365
7.35,1.3
7.36,1.3
7.37,1.235
7.38,1.235
7.39,1.3
7.4,1.3
7.41,1.3
7.42,1.3
7.43,1.56
7.44,1.56
7.45,1.625
7.46,1.625
7.47,1.82
7.48,1.82
7.49,2.535
7.5,2.535
7.51,2.99
7.52,2.99
7.53,3.12
7.54,3.12
7.55,3.12
7.56,3.12
7.57,2.665
7.58,2.665
7.59,2.6
7.6,2.6
7.61,2.86
7.62,2.86
7.63,3.12
7.64,3.12
7.65,3.185
7.66,3.185
7.67,2.405
7.68,2.405
7.69,2.21
7.7,2.21
7.71,2.34
7.72,2.34
7.73,2.86
7.74,2.86
7.75,3.315
7.76,3.315
7.77,2.795
7.78,2.795
7.79,2.795
7.8,2.795
7.81,2.665
7.82,2.665
7.83,2.405
7.84,2.405
7.85,2.34
7.86,2.34
7.87,2.535
7.88,2.535
7.89,2.665
7.9,2.665
7.91,2.6
7.92,2.6
7.93,2.47
7.94,2.47
7.95,2.34
7.96,2.34
7.97,2.21
7.98,2.21
7.99,2.21
8.,2.21
8.01,2.6
8.02,2.6
8.03,2.6
8.04,2.6
8.05,2.925
8.06,2.925
8.07,3.575
8.08,3.575
8.09,3.445
8.1,3.445
8.11,2.86
8.12,2.86
8.13,2.535
8.14,2.535
8.15,2.925
8.16,2.925
8.17,3.445
8.18,3.445
8.19,3.315
8.2,3.315
8.21,2.99
8.22,2.99
8.23,3.25
8.24,3.25
8.25,3.12
8.26,3.12
8.27,2.795
8.28,2.795
8.29,3.25
8.3,3.25
8.31,3.38
8.32,3.38
8.33,3.38
8.34,3.38
8.35,3.185
8.36,3.185
8.37,2.665
8.38,2.665
8.39,2.665
8.4,2.665
8.41,2.535
8.42,2.535
8.43,1.495
8.44,1.495
8.45,1.105
8.46,1.105
8.47,1.56
8.48,1.56
8.49,1.43
8.5,1.43
8.51,0.78
8.52,0.78
8.53,0.78
8.54,0.78
8.55,1.17
8.56,1.17
8.57,1.17
8.58,1.17
8.59,1.105
8.6,1.105
8.61,0.975
8.62,0.975
8.63,0.975
8.64,0.975
8.65,1.3
8.66,1.3
8.67,1.3
8.68,1.3
8.69,1.105
8.7,1.105
8.71,1.625
8.72,1.625
8.73,1.885
8.74,1.885
8.75,2.21
8.76,2.21
8.77,2.99
8.78,2.99
8.79,3.185
8.8,3.185
8.81,2.86
8.82,2.86
8.83,2.015
8.84,2.015
8.85,1.69
8.86,1.69
8.87,2.08
8.88,2.08
8.89,2.21
8.9,2.21
8.91,1.885
8.92,1.885
8.93,1.755
8.94,1.755
8.95,1.755
8.96,1.755
8.97,1.43
8.98,1.43
8.99,1.235
9.,1.235
9.01,1.17
9.02,1.17
9.03,1.3
9.04,1.3
9.05,1.04
9.06,1.04
9.07,0.91
9.08,0.91
9.09,0.975
9.1,0.975
9.11,0.91
9.12,0.91
9.13,0.91
9.14,0.91
9.15,0.65
9.16,0.65
9.17,0.91
9.18,0.91
9.19,1.365
9.2,1.365
9.21,1.43
9.22,1.43
9.23,1.17
9.24,1.17
9.25,1.04
9.26,1.04
9.27,1.105
9.28,1.105
9.29,0.91
9.3,0.91
9.31,0.845
9.32,0.845
9.33,0.91
9.34,0.91
9.35,0.845
9.36,0.845
9.37,0.52
9.38,0.52
9.39,0.26
9.4,0.26
9.41,0.325
9.42,0.325
9.43,0.39
9.44,0.39
9.45,0.52
9.46,0.52
9.47,0.65
9.48,0.65
9.49,0.91
9.5,0.91
9.51,1.3
9.52,1.3
9.53,1.17
9.54,1.17
9.55,0.585
9.56,0.585
9.57,0.78
9.58,0.78
9.59,1.3
9.6,1.3
9.61,1.43
9.62,1.43
9.63,1.43
9.64,1.43
9.65,1.495
9.66,1.495
9.67,1.95
9.68,1.95
9.69,1.95
9.7,1.95
9.71,2.08
9.72,2.08
9.73,2.08
9.74,2.08
9.75,1.56
9.76,1.56
9.77,1.69
9.78,1.69
9.79,1.69
9.8,1.69
9.81,1.365
9.82,1.365
9.83,1.69
9.84,1.69
9.85,1.82
9.86,1.82
9.87,1.365
9.88,1.365
9.89,1.17
9.9,1.17
9.91,1.235
9.92,1.235
9.93,1.17
9.94,1.17
9.95,1.3
9.96,1.3
9.97,1.82
9.98,1.82
9.99,1.885
10.,1.885
