t,s,e,i,r,c,o,n,reff,coal,reportr
5.,6250.,5.,3.,3734.,0.,0.,9992.,0.902164038923,9.3825060048,65.
5.02,6259.,8.,0.,3729.,0.,0.,9996.,0.903101625265,5.87016056423,104.
5.04,6265.,3.,5.,3724.,0.,0.,9997.,0.90387693231,15.66720016,39.
5.06,6273.,3.,3.,3718.,0.,0.,9997.,0.905031124722,15.6872061618,39.
5.08,6279.,4.,1.,3714.,0.,0.,9998.,0.905806161232,11.775480096,52.
5.1,6283.,6.,2.,3707.,0.,0.,9998.,0.906383199717,7.85532106421,78.
5.12,6288.,10.,1.,3698.,0.,0.,9997.,0.907195235494,4.71741522457,130.
5.14,6288.,8.,4.,3694.,0.,0.,9994.,0.907467557458,5.89853912347,104.
5.16,6298.,8.,6.,3682.,0.,0.,9994.,0.908910731054,5.90791975185,104.
5.18,6306.,8.,4.,3676.,0.,0.,9994.,0.910065269931,5.91542425455,104.
5.2,6312.,3.,5.,3674.,0.,0.,9994.,0.910931174089,15.7894736842,39.
5.22,6311.,5.,3.,3674.,0.,0.,9993.,0.910877999215,9.47313119183,65.
5.24,6313.,4.,1.,3672.,0.,0.,9990.,0.91144028644,11.8487237237,52.
5.26,6315.,3.,1.,3671.,0.,0.,9990.,0.911729036729,15.8033033033,39.
5.28,6323.,5.,2.,3660.,0.,0.,9990.,0.912884037884,9.49399399399,65.
5.3,6329.,4.,3.,3652.,0.,0.,9988.,0.913933258372,11.8811323588,52.
5.32,6334.,7.,1.,3643.,0.,0.,9985.,0.914930087439,6.79662350669,91.
5.34,6335.,3.,6.,3636.,0.,0.,9980.,0.915532989055,15.869238477,39.
5.36,6340.,6.,3.,3631.,0.,0.,9980.,0.916255588099,7.94088176353,78.
5.38,6347.,7.,4.,3622.,0.,0.,9980.,0.917267226761,6.81398511308,91.
5.4,6353.,11.,2.,3617.,0.,0.,9983.,0.917858436265,4.33896715325,143.
5.42,6353.,12.,2.,3612.,0.,0.,9979.,0.918226352263,3.97898085981,156.
5.44,6353.,13.,5.,3607.,0.,0.,9978.,0.918318377353,3.67327350941,169.
5.46,6362.,10.,4.,3603.,0.,0.,9979.,0.919527160884,4.7815412366,130.
5.48,6367.,8.,5.,3600.,0.,0.,9980.,0.920157622938,5.9810245491,104.
5.5,6367.,14.,6.,3595.,0.,0.,9982.,0.91997325956,3.41704353551,182.
5.52,6364.,14.,9.,3595.,0.,0.,9982.,0.919539787001,3.41543349458,182.
5.54,6362.,20.,7.,3593.,0.,0.,9982.,0.919250805296,2.39005209377,260.
5.56,6358.,21.,7.,3594.,0.,0.,9980.,0.918856944659,2.27526481534,273.
5.58,6359.,16.,7.,3597.,0.,0.,9979.,0.91909355801,2.98705406353,208.
5.6,6359.,9.,16.,3595.,0.,0.,9979.,0.91909355801,5.31031833517,117.
5.62,6344.,16.,10.,3602.,0.,0.,9972.,0.917569193742,2.98209987966,208.
5.64,6343.,18.,8.,3600.,0.,0.,9969.,0.917700641219,2.65113518574,234.
5.66,6332.,21.,15.,3604.,0.,0.,9972.,0.915833564751,2.26777835081,273.
5.68,6324.,21.,10.,3615.,0.,0.,9970.,0.914859964509,2.26536753116,273.
5.7,6334.,18.,7.,3611.,0.,0.,9970.,0.916306612144,2.64710799064,234.
5.72,6329.,19.,12.,3610.,0.,0.,9970.,0.915583288327,2.50580689437,247.
5.74,6324.,17.,19.,3612.,0.,0.,9972.,0.914676478756,2.79783393502,221.
5.76,6316.,24.,11.,3625.,0.,0.,9976.,0.913153105916,1.97849839615,312.
5.78,6313.,24.,10.,3627.,0.,0.,9974.,0.912902392374,1.97795518348,312.
5.8,6300.,33.,13.,3627.,0.,0.,9973.,0.911113853558,1.43569455712,429.
5.82,6298.,26.,13.,3635.,0.,0.,9972.,0.910915949273,1.82183189855,338.
5.84,6301.,23.,12.,3638.,0.,0.,9974.,0.911167111413,2.06002999102,299.
5.86,6296.,19.,16.,3642.,0.,0.,9973.,0.910535368572,2.49199153504,247.
5.88,6293.,27.,5.,3649.,0.,0.,9974.,0.910010257439,1.75261234766,351.
5.9,6295.,21.,11.,3649.,0.,0.,9976.,0.910116973043,2.25362298087,273.
5.92,6297.,21.,8.,3652.,0.,0.,9978.,0.910223645867,2.2538871231,273.
5.94,6296.,21.,8.,3654.,0.,0.,9979.,0.909987897662,2.25330336564,273.
5.96,6297.,22.,10.,3655.,0.,0.,9984.,0.909676636464,2.1501447771,286.
5.98,6294.,14.,15.,3664.,0.,0.,9987.,0.908970122698,3.37617474145,182.
6.,6280.,26.,11.,3671.,0.,0.,9988.,0.906857459721,1.81371491944,338.
6.02,6282.,22.,16.,3670.,0.,0.,9990.,0.906964656965,2.14373464373,286.
6.04,6276.,27.,12.,3675.,0.,0.,9990.,0.906098406098,1.74507841175,351.
6.06,6277.,29.,9.,3676.,0.,0.,9991.,0.906152075329,1.62482441094,377.
6.08,6279.,22.,14.,3679.,0.,0.,9994.,0.906168701221,2.14185329379,286.
6.1,6274.,23.,23.,3674.,0.,0.,9994.,0.905447114422,2.04709782391,299.
6.12,6263.,26.,18.,3685.,0.,0.,9992.,0.904040540124,1.80808108025,338.
6.14,6250.,32.,17.,3693.,0.,0.,9992.,0.902164038923,1.46601656325,416.
6.16,6239.,33.,17.,3705.,0.,0.,9994.,0.900396006835,1.41880582895,429.
6.18,6239.,26.,10.,3718.,0.,0.,9993.,0.900486109507,1.80097221901,338.
6.2,6237.,13.,19.,3727.,0.,0.,9996.,0.899927278604,3.59970911441,169.
6.22,6225.,23.,7.,3741.,0.,0.,9996.,0.898195816788,2.03070358578,299.
6.24,6232.,23.,6.,3741.,0.,0.,10002.,0.898666420562,2.03176755953,299.
6.26,6225.,22.,10.,3745.,0.,0.,10002.,0.89765700706,2.12173474396,286.
6.28,6223.,25.,3.,3749.,0.,0.,10000.,0.897548076923,1.8669,325.
6.3,6228.,22.,7.,3737.,0.,0.,9994.,0.898808515879,2.12445649208,286.
6.32,6230.,12.,19.,3733.,0.,0.,9994.,0.899097150598,3.89608765259,156.
6.34,6224.,20.,13.,3741.,0.,0.,9998.,0.897871882069,2.33446689338,260.
6.36,6214.,24.,18.,3743.,0.,0.,9999.,0.896339633963,1.94206920692,312.
6.38,6214.,23.,9.,3757.,0.,0.,10003.,0.895981205638,2.02569663883,299.
6.4,6208.,23.,12.,3760.,0.,0.,10003.,0.89511608056,2.02374070388,299.
6.42,6201.,30.,10.,3760.,0.,0.,10001.,0.894285571443,1.5500949905,390.
6.44,6196.,24.,22.,3763.,0.,0.,10005.,0.893207242533,1.93528235882,312.
6.46,6187.,25.,20.,3771.,0.,0.,10003.,0.892088142788,1.855543337,325.
6.48,6175.,35.,17.,3775.,0.,0.,10002.,0.890446910618,1.32294969578,455.
6.5,6159.,31.,19.,3793.,0.,0.,10002.,0.888139679756,1.48978268862,403.
6.52,6148.,32.,19.,3805.,0.,0.,10004.,0.886376218743,1.44036135546,416.
6.54,6133.,31.,18.,3819.,0.,0.,10001.,0.884478859806,1.48364195838,403.
6.56,6129.,29.,19.,3828.,0.,0.,10005.,0.88354861031,1.58429405987,377.
6.58,6116.,30.,23.,3838.,0.,0.,10007.,0.88149833578,1.52793044869,390.
6.6,6094.,39.,25.,3848.,0.,0.,10006.,0.878415258537,1.17122034472,507.
6.62,6086.,35.,21.,3863.,0.,0.,10005.,0.877349786645,1.30349111159,455.
6.64,6076.,30.,17.,3879.,0.,0.,10002.,0.876170919662,1.51869626075,390.
6.66,6071.,30.,9.,3891.,0.,0.,10001.,0.875537446255,1.51759824018,390.
6.68,6078.,19.,17.,3888.,0.,0.,10002.,0.87645932352,2.39873078016,247.
6.7,6065.,25.,22.,3889.,0.,0.,10001.,0.87467214817,1.81931806819,325.
6.72,6053.,32.,12.,3904.,0.,0.,10001.,0.872941551999,1.418530022,416.
6.74,6045.,28.,15.,3913.,0.,0.,10001.,0.871787821218,1.61903452512,364.
6.76,6044.,19.,16.,3923.,0.,0.,10002.,0.871556457939,2.3853124112,247.
6.78,6044.,23.,12.,3926.,0.,0.,10005.,0.87129512167,1.96988462291,299.
6.8,6040.,23.,10.,3931.,0.,0.,10004.,0.870805523944,1.96877770631,299.
6.82,6043.,25.,9.,3930.,0.,0.,10007.,0.870976854663,1.8116318577,325.
6.84,6044.,21.,14.,3928.,0.,0.,10007.,0.871120984542,2.15706148553,273.
6.86,6036.,20.,14.,3932.,0.,0.,10002.,0.870402842508,2.26304739052,260.
6.88,6044.,22.,11.,3929.,0.,0.,10006.,0.871208044404,2.05921901405,286.
6.9,6037.,24.,10.,3934.,0.,0.,10005.,0.870286010841,1.88561969015,312.
6.92,6036.,22.,16.,3936.,0.,0.,10010.,0.869707215861,2.05567160113,286.
6.94,6019.,29.,16.,3945.,0.,0.,10009.,0.867344390049,1.55523821664,377.
6.96,6021.,34.,10.,3944.,0.,0.,10009.,0.867632592205,1.32696749396,442.
6.98,6017.,27.,18.,3946.,0.,0.,10008.,0.867142824202,1.67005284661,351.
7.,6007.,25.,16.,3959.,0.,0.,10007.,0.865788179044,1.80083941241,325.
7.02,6002.,30.,9.,3966.,0.,0.,10007.,0.865067529652,1.49945038473,390.
7.04,6000.,25.,16.,3971.,0.,0.,10012.,0.864347398506,1.79784258889,325.
7.06,5992.,30.,13.,3976.,0.,0.,10011.,0.863281159955,1.49635401059,390.
7.08,5989.,36.,14.,3974.,0.,0.,10013.,0.862676597347,1.24608841839,468.
7.1,5984.,34.,14.,3978.,0.,0.,10010.,0.862214708369,1.31868131868,442.
7.12,5986.,27.,14.,3983.,0.,0.,10010.,0.862502881734,1.66111666112,351.
7.14,5981.,29.,19.,3982.,0.,0.,10011.,0.861696364768,1.54511072303,377.
7.16,5968.,31.,11.,3999.,0.,0.,10009.,0.859995235058,1.44257265235,403.
7.18,5961.,34.,8.,4004.,0.,0.,10007.,0.859158204641,1.31400666592,442.
7.2,5963.,19.,18.,4008.,0.,0.,10008.,0.859360588452,2.35193424208,247.
7.22,5960.,25.,14.,4010.,0.,0.,10009.,0.858842426432,1.78639224698,325.
7.24,5954.,16.,19.,4016.,0.,0.,10005.,0.85832083958,2.78954272864,208.
7.26,5959.,20.,9.,4022.,0.,0.,10010.,0.858612541305,2.23239260739,260.
7.28,5963.,18.,8.,4022.,0.,0.,10011.,0.859103063553,2.48185329471,234.
7.3,5967.,18.,7.,4016.,0.,0.,10008.,0.85993705036,2.48426258993,234.
7.32,5964.,21.,11.,4010.,0.,0.,10006.,0.859676501791,2.12872276634,273.
7.34,5971.,21.,7.,4013.,0.,0.,10012.,0.860169719414,2.12994406712,273.
7.36,5973.,26.,4.,4009.,0.,0.,10012.,0.860457835213,1.72091567043,338.
7.38,5971.,19.,14.,4006.,0.,0.,10010.,0.860341581495,2.35461906515,247.
7.4,5971.,22.,6.,4012.,0.,0.,10011.,0.860255641871,2.03333151715,286.
7.42,5972.,14.,11.,4014.,0.,0.,10011.,0.860399714161,3.19577036688,182.
7.44,5978.,14.,2.,4021.,0.,0.,10015.,0.860920158224,3.19770344483,182.
7.46,5982.,12.,3.,4020.,0.,0.,10017.,0.861324210381,3.73240491165,156.
7.48,5988.,11.,3.,4018.,0.,0.,10020.,0.861929986181,4.07457811649,143.
7.5,5991.,9.,4.,4016.,0.,0.,10020.,0.862361814832,4.98253493014,117.
7.52,6000.,11.,5.,4006.,0.,0.,10022.,0.863484948498,4.08192884744,143.
7.54,5999.,7.,6.,4011.,0.,0.,10023.,0.863254898349,6.41275067345,91.
7.56,6004.,10.,6.,4006.,0.,0.,10026.,0.863715877181,4.49132256134,130.
7.58,6006.,11.,4.,4003.,0.,0.,10024.,0.864175977654,4.08519553073,143.
7.6,6012.,7.,5.,4001.,0.,0.,10025.,0.86495300211,6.42536515853,91.
7.62,6016.,11.,1.,4000.,0.,0.,10028.,0.865269552944,4.09036515937,143.
7.64,6016.,9.,2.,4001.,0.,0.,10028.,0.865269552944,4.99933519479,117.
7.66,6015.,10.,1.,4000.,0.,0.,10026.,0.86529830134,4.49955116697,130.
7.68,6024.,5.,5.,3997.,0.,0.,10031.,0.866161054577,9.0080749676,65.
7.7,6028.,6.,4.,3992.,0.,0.,10030.,0.866822609096,7.51246261216,78.
7.72,6036.,6.,2.,3989.,0.,0.,10033.,0.86771346863,7.5201833948,78.
7.74,6046.,6.,1.,3983.,0.,0.,10036.,0.868891222369,7.53039059386,78.
7.76,6052.,5.,4.,3976.,0.,0.,10037.,0.869666848047,9.04453521969,65.
7.78,6055.,6.,1.,3974.,0.,0.,10036.,0.870184642978,7.54160023914,78.
7.8,6070.,2.,5.,3960.,0.,0.,10037.,0.872253431534,22.6785892199,26.
7.82,6068.,9.,4.,3955.,0.,0.,10036.,0.87205291719,5.03852796599,117.
7.84,6075.,7.,3.,3953.,0.,0.,10038.,0.872884960228,6.48428827598,91.
7.86,6082.,8.,1.,3951.,0.,0.,10042.,0.873542659293,5.6780272854,104.
7.88,6084.,7.,2.,3949.,0.,0.,10042.,0.87382991436,6.49130793524,91.
7.9,6089.,3.,0.,3952.,0.,0.,10044.,0.874373908648,15.1558144166,39.
7.92,6096.,3.,1.,3943.,0.,0.,10043.,0.875466264294,15.1747485811,39.
7.94,6108.,2.,1.,3935.,0.,0.,10046.,0.876927671174,22.8001194505,26.
7.96,6117.,1.,2.,3929.,0.,0.,10049.,0.877957623032,45.6537963977,13.
7.98,6122.,2.,2.,3922.,0.,0.,10048.,0.878762708231,22.847830414,26.
8.,6128.,4.,0.,3918.,0.,0.,10050.,0.8794489093,11.4328358209,52.
8.02,6134.,2.,2.,3913.,0.,0.,10051.,0.8802224042,22.8857825092,26.
8.04,6136.,2.,5.,3906.,0.,0.,10049.,0.880684645238,22.8978007762,26.
8.06,6143.,5.,1.,3901.,0.,0.,10050.,0.881601607348,9.16865671642,65.
8.08,6149.,4.,0.,3895.,0.,0.,10048.,0.882638335987,11.4742983678,52.
8.1,6150.,6.,1.,3885.,0.,0.,10042.,0.883309331577,7.65534754033,78.
8.12,6153.,4.,2.,3883.,0.,0.,10042.,0.883740214177,11.4886227843,52.
8.14,6159.,3.,3.,3879.,0.,0.,10044.,0.884425834023,15.3300477897,39.
8.16,6159.,7.,4.,3874.,0.,0.,10044.,0.884425834023,6.57002048131,91.
8.18,6160.,9.,4.,3872.,0.,0.,10045.,0.884481372286,5.11033681765,117.
8.2,6167.,6.,8.,3866.,0.,0.,10047.,0.885310195925,7.67268836469,78.
8.22,6161.,18.,1.,3868.,0.,0.,10048.,0.884360837212,2.55482019639,234.
8.24,6167.,17.,5.,3856.,0.,0.,10045.,0.885486464755,2.70854683337,221.
8.26,6172.,11.,9.,3852.,0.,0.,10044.,0.886292620164,4.18974693168,143.
8.28,6176.,9.,8.,3852.,0.,0.,10045.,0.8867787265,5.12361041978,117.
8.3,6183.,11.,2.,3849.,0.,0.,10045.,0.887783818968,4.19679623512,143.
8.32,6190.,8.,7.,3839.,0.,0.,10044.,0.888877400974,5.77770310633,104.
8.34,6189.,12.,6.,3836.,0.,0.,10043.,0.888822294901,3.85156327791,156.
8.36,6195.,11.,5.,3830.,0.,0.,10041.,0.889861184528,4.20661650868,143.
8.38,6196.,9.,4.,3833.,0.,0.,10042.,0.889916198122,5.14173803359,117.
8.4,6199.,5.,5.,3828.,0.,0.,10037.,0.890790613193,9.2642223772,65.
8.42,6204.,4.,8.,3823.,0.,0.,10039.,0.89133149946,11.587309493,52.
8.44,6206.,7.,1.,3825.,0.,0.,10039.,0.891618840369,6.62345424274,91.
8.46,6209.,7.,3.,3819.,0.,0.,10038.,0.892138719022,6.62731619845,91.
8.48,6211.,7.,5.,3813.,0.,0.,10036.,0.892603933532,6.63077207766,91.
8.5,6214.,7.,5.,3811.,0.,0.,10037.,0.892946099432,6.6333138815,91.
8.52,6218.,10.,0.,3808.,0.,0.,10036.,0.893609927339,4.64677162216,130.
8.54,6224.,10.,1.,3801.,0.,0.,10036.,0.894472207744,4.65125548027,130.
8.56,6226.,12.,4.,3795.,0.,0.,10037.,0.894670488424,3.87690544984,156.
8.58,6229.,10.,5.,3793.,0.,0.,10037.,0.895101585671,4.65452824549,130.
8.6,6241.,8.,5.,3783.,0.,0.,10037.,0.896825974663,5.82936883531,104.
8.62,6252.,10.,1.,3779.,0.,0.,10042.,0.897959340003,4.66938856801,130.
8.64,6258.,7.,3.,3776.,0.,0.,10044.,0.898642128481,6.67562724014,91.
8.66,6257.,10.,3.,3773.,0.,0.,10043.,0.8985879947,4.67265757244,130.
8.68,6260.,10.,5.,3765.,0.,0.,10040.,0.899287465523,4.67629482072,130.
8.7,6258.,12.,5.,3763.,0.,0.,10038.,0.89917927261,3.89644351464,156.
8.72,6252.,11.,6.,3767.,0.,0.,10036.,0.898496182972,4.24743650132,143.
8.74,6260.,8.,3.,3766.,0.,0.,10037.,0.899556257233,5.84711567201,104.
8.76,6263.,6.,6.,3763.,0.,0.,10038.,0.899897696446,7.7991133692,78.
8.78,6257.,12.,7.,3760.,0.,0.,10036.,0.899214749977,3.8965972499,156.
8.8,6258.,13.,3.,3764.,0.,0.,10038.,0.89917927261,3.59671709044,169.
8.82,6254.,9.,12.,3759.,0.,0.,10034.,0.898962757394,5.19400704272,117.
8.84,6244.,17.,10.,3761.,0.,0.,10032.,0.897704269415,2.74591894174,221.
8.86,6241.,21.,7.,3764.,0.,0.,10033.,0.897183525136,2.22159730034,273.
8.88,6239.,17.,9.,3768.,0.,0.,10033.,0.89689601239,2.74344662613,221.
8.9,6240.,19.,9.,3765.,0.,0.,10033.,0.897039768763,2.45505620925,247.
8.92,6232.,22.,9.,3768.,0.,0.,10031.,0.896068341986,2.11797971742,286.
8.94,6242.,13.,14.,3763.,0.,0.,10032.,0.897416728009,3.58966691204,169.
8.96,6245.,12.,9.,3762.,0.,0.,10028.,0.898206176552,3.89222676506,156.
8.98,6252.,12.,1.,3763.,0.,0.,10028.,0.899212972907,3.89658954926,156.
9.,6252.,12.,3.,3761.,0.,0.,10028.,0.899212972907,3.89658954926,156.
9.02,6248.,15.,3.,3762.,0.,0.,10028.,0.898637660704,3.11527722377,195.
9.04,6252.,16.,3.,3756.,0.,0.,10027.,0.89930265207,2.92273361923,208.
9.06,6256.,11.,6.,3750.,0.,0.,10023.,0.90023714687,4.25566651248,143.
9.08,6258.,13.,4.,3752.,0.,0.,10027.,0.900165706439,3.60066282576,169.
9.1,6265.,10.,5.,3743.,0.,0.,10023.,0.901532245067,4.68796767435,130.
9.12,6272.,7.,6.,3740.,0.,0.,10025.,0.902359485901,6.70324189526,91.
9.14,6279.,7.,5.,3737.,0.,0.,10028.,0.903096330275,6.70871559633,91.
9.16,6275.,9.,6.,3735.,0.,0.,10025.,0.902791099175,5.21612635079,117.
9.18,6276.,17.,2.,3728.,0.,0.,10023.,0.903115142864,2.76246984876,221.
9.2,6282.,14.,7.,3721.,0.,0.,10024.,0.903888360243,3.35729962376,182.
9.22,6275.,14.,8.,3722.,0.,0.,10019.,0.903331746605,3.35523220167,182.
9.24,6273.,15.,10.,3722.,0.,0.,10020.,0.902953707969,3.13023952096,195.
9.26,6270.,19.,11.,3721.,0.,0.,10021.,0.902431816263,2.46981339188,247.
9.28,6260.,23.,9.,3725.,0.,0.,10017.,0.901352316447,2.03784001979,299.
9.3,6240.,34.,7.,3736.,0.,0.,10017.,0.898472596586,1.37413455948,442.
9.32,6249.,17.,15.,3734.,0.,0.,10015.,0.899948154691,2.75278259082,221.
9.34,6248.,24.,10.,3734.,0.,0.,10016.,0.899714303269,1.94938099042,312.
9.36,6246.,27.,9.,3736.,0.,0.,10018.,0.899246740483,1.7318826113,351.
9.38,6242.,28.,12.,3738.,0.,0.,10020.,0.898491478581,1.66862703165,364.
9.4,6236.,31.,8.,3744.,0.,0.,10019.,0.897717413837,1.50584856515,403.
9.42,6235.,29.,7.,3748.,0.,0.,10019.,0.897573456586,1.60944206009,377.
9.44,6240.,25.,11.,3742.,0.,0.,10018.,0.898382910761,1.86863645438,325.
9.46,6235.,24.,5.,3753.,0.,0.,10017.,0.897752666621,1.94513077768,312.
9.48,6230.,23.,1.,3765.,0.,0.,10019.,0.896853670334,2.02766916771,299.
9.5,6238.,12.,15.,3753.,0.,0.,10018.,0.89809496752,3.89174485925,156.
9.52,6229.,14.,15.,3757.,0.,0.,10015.,0.897067859749,3.33196633621,182.
9.54,6225.,16.,9.,3763.,0.,0.,10013.,0.896670866335,2.91418031559,208.
9.56,6223.,19.,11.,3761.,0.,0.,10014.,0.89629326635,2.45301315001,247.
9.58,6210.,25.,12.,3768.,0.,0.,10015.,0.894331579554,1.86020968547,325.
9.6,6210.,21.,12.,3772.,0.,0.,10015.,0.894331579554,2.21453533985,273.
9.62,6199.,22.,23.,3774.,0.,0.,10018.,0.892480074328,2.1094983575,286.
9.64,6192.,29.,6.,3791.,0.,0.,10018.,0.891472272986,1.59850200673,377.
9.66,6192.,27.,11.,3789.,0.,0.,10019.,0.891383294817,1.71673819742,351.
9.68,6186.,34.,13.,3785.,0.,0.,10018.,0.890608443264,1.36210703087,442.
9.7,6179.,32.,19.,3789.,0.,0.,10019.,0.889511850561,1.44545675716,416.
9.72,6177.,33.,21.,3789.,0.,0.,10020.,0.889135191156,1.40106151334,429.
9.74,6169.,34.,20.,3797.,0.,0.,10020.,0.887983648088,1.35809263825,442.
9.76,6161.,30.,24.,3804.,0.,0.,10019.,0.886920620053,1.53732907476,390.
9.78,6143.,36.,19.,3820.,0.,0.,10018.,0.88441766359,1.27749218074,468.
9.8,6133.,35.,16.,3833.,0.,0.,10017.,0.88306609533,1.31198391306,455.
9.82,6131.,32.,18.,3838.,0.,0.,10019.,0.882601902539,1.43422809163,416.
9.84,6137.,33.,7.,3842.,0.,0.,10019.,0.883465646042,1.39212768467,429.
9.86,6135.,24.,16.,3845.,0.,0.,10020.,0.883089590051,1.91336077844,312.
9.88,6129.,30.,14.,3851.,0.,0.,10024.,0.881873887286,1.52858140463,390.
9.9,6125.,31.,8.,3862.,0.,0.,10026.,0.881122542927,1.47801200749,403.
9.92,6124.,25.,10.,3863.,0.,0.,10022.,0.8813303041,1.83316703253,325.
9.94,6126.,23.,9.,3864.,0.,0.,10022.,0.881618132416,1.99322360372,299.
9.96,6119.,24.,12.,3867.,0.,0.,10022.,0.88061073331,1.90798992217,312.
9.98,6117.,24.,8.,3874.,0.,0.,10023.,0.880235074713,1.90717599521,312.
10.,6117.,14.,12.,3877.,0.,0.,10020.,0.880498618148,3.27042343884,182.
