t,prevalence
5.,2
5.02,2
5.04,2
5.06,2
5.08,3
5.1,1
5.12,1
5.14,5
5.16,1
5.18,3
5.2,3
5.22,1
5.24,1
5.26,1
5.28,0
5.3,2
5.32,1
5.34,3
5.36,4
5.38,2
5.4,2
5.42,3
5.44,0
5.46,3
5.48,2
5.5,4
5.52,0
5.54,1
5.56,4
5.58,5
5.6,3
5.62,1
5.64,2
5.66,0
5.68,1
5.7,3
5.72,2
5.74,1
5.76,4
5.78,6
5.8,7
5.82,8
5.84,2
5.86,5
5.88,5
5.9,3
5.92,1
5.94,5
5.96,8
5.98,8
6.,9
6.02,9
6.04,4
6.06,8
6.08,3
6.1,2
6.12,4
6.14,1
6.16,4
6.18,9
6.2,5
6.22,6
6.24,4
6.26,4
6.28,7
6.3,7
6.32,3
6.34,13
6.36,8
6.38,7
6.4,8
6.42,9
6.44,5
6.46,10
6.48,10
6.5,5
6.52,5
6.54,5
6.56,8
6.58,3
6.6,1
6.62,8
6.64,3
6.66,2
6.68,3
6.7,1
6.72,8
6.74,1
6.76,2
6.78,1
6.8,3
6.82,4
6.84,6
6.86,7
6.88,8
6.9,7
6.92,7
6.94,5
6.96,11
6.98,8
7.,4
7.02,11
7.04,9
7.06,6
7.08,10
7.1,11
7.12,13
7.14,11
7.16,10
7.18,9
7.2,7
7.22,8
7.24,7
7.26,6
7.28,3
7.3,6
7.32,7
7.34,7
7.36,4
7.38,4
7.4,6
7.42,6
7.44,2
7.46,4
7.48,5
7.5,2
7.52,7
7.54,1
7.56,4
7.58,5
7.6,5
7.62,3
7.64,4
7.66,3
7.68,2
7.7,1
7.72,2
7.74,5
7.76,5
7.78,7
7.8,6
7.82,3
7.84,5
7.86,4
7.88,4
7.9,4
7.92,3
7.94,2
7.96,5
7.98,6
8.,5
8.02,4
8.04,1
8.06,3
8.08,3
8.1,8
8.12,8
8.14,4
8.16,5
8.18,3
8.2,7
8.22,5
8.24,4
8.26,2
8.28,2
8.3,4
8.32,3
8.34,4
8.36,1
8.38,2
8.4,6
8.42,0
8.44,0
8.46,5
8.48,3
8.5,4
8.52,3
8.54,1
8.56,5
8.58,1
8.6,3
8.62,1
8.64,1
8.66,1
8.68,2
8.7,2
8.72,2
8.74,1
8.76,2
8.78,3
8.8,5
8.82,3
8.84,4
8.86,0
8.88,3
8.9,6
8.92,4
8.94,10
8.96,5
8.98,3
9.,4
9.02,2
9.04,1
9.06,5
9.08,4
9.1,5
9.12,4
9.14,3
9.16,2
9.18,2
9.2,5
9.22,3
9.24,5
9.26,7
9.28,4
9.3,5
9.32,6
9.34,5
9.36,2
9.38,7
9.4,2
9.42,4
9.44,4
9.46,8
9.48,1
9.5,4
9.52,5
9.54,5
9.56,6
9.58,1
9.6,6
9.62,6
9.64,8
9.66,6
9.68,4
9.7,7
9.72,15
9.74,6
9.76,8
9.78,8
9.8,7
9.82,4
9.84,6
9.86,3
9.88,7
9.9,3
9.92,4
9.94,7
9.96,7
9.98,6
10.,3
