t,s,e,i,r,c,o,n,reff,coal,reportr
5.,6250.,5.,3.,3734.,0.,0.,9992.,0.902164038923,9.3825060048,65.
5.02,6252.,6.,2.,3729.,0.,0.,9989.,0.902723765373,7.82360596656,78.
5.04,6255.,6.,2.,3727.,0.,0.,9990.,0.903066528067,7.82657657658,78.
5.06,6263.,4.,3.,3720.,0.,0.,9990.,0.904221529222,11.7548798799,52.
5.08,6268.,6.,1.,3715.,0.,0.,9990.,0.904943404943,7.84284284284,78.
5.1,6270.,7.,0.,3713.,0.,0.,9990.,0.905232155232,6.72458172458,91.
5.12,6275.,5.,4.,3707.,0.,0.,9991.,0.905863353942,9.42097888099,65.
5.14,6283.,3.,4.,3703.,0.,0.,9993.,0.906836708773,15.7185029521,39.
5.16,6289.,11.,1.,3692.,0.,0.,9993.,0.907702699582,4.29095821621,143.
5.18,6297.,9.,2.,3686.,0.,0.,9994.,0.908766413694,5.25065039023,117.
5.2,6308.,8.,3.,3678.,0.,0.,9997.,0.910080716523,5.9155246574,104.
5.22,6309.,6.,6.,3670.,0.,0.,9991.,0.910771617533,7.89335401862,78.
5.24,6311.,11.,3.,3666.,0.,0.,9991.,0.91106033892,4.30683069308,143.
5.26,6313.,10.,2.,3666.,0.,0.,9991.,0.911349060308,4.7390151136,130.
5.28,6322.,7.,2.,3662.,0.,0.,9993.,0.912465649031,6.77831624995,91.
5.3,6332.,9.,2.,3649.,0.,0.,9992.,0.914000431114,5.28089137977,117.
5.32,6335.,10.,1.,3645.,0.,0.,9991.,0.914524995573,4.75552997698,130.
5.34,6341.,9.,4.,3637.,0.,0.,9991.,0.915391159736,5.2889267007,117.
5.36,6339.,7.,6.,3639.,0.,0.,9991.,0.915102438348,6.79790382773,91.
5.38,6342.,7.,5.,3635.,0.,0.,9989.,0.915718829174,6.802482731,91.
5.4,6341.,7.,4.,3636.,0.,0.,9988.,0.915666107021,6.80209108073,91.
5.42,6342.,10.,6.,3630.,0.,0.,9988.,0.915810511075,4.76221465759,130.
5.44,6346.,16.,3.,3624.,0.,0.,9989.,0.916296387565,2.97796325959,208.
5.46,6348.,11.,9.,3621.,0.,0.,9989.,0.91658516676,4.33294806105,143.
5.48,6348.,11.,7.,3621.,0.,0.,9987.,0.916768722416,4.33381577869,143.
5.5,6352.,10.,6.,3616.,0.,0.,9984.,0.91762204142,4.77163461538,130.
5.52,6365.,10.,3.,3612.,0.,0.,9990.,0.918947793948,4.77852852853,130.
5.54,6374.,6.,6.,3607.,0.,0.,9993.,0.919970902709,7.97308115681,78.
5.56,6371.,12.,3.,3605.,0.,0.,9991.,0.919721980552,3.98546191572,156.
5.58,6374.,9.,7.,3600.,0.,0.,9990.,0.920247170247,5.31698365032,117.
5.6,6381.,6.,6.,3597.,0.,0.,9990.,0.921257796258,7.98423423423,78.
5.62,6388.,10.,3.,3590.,0.,0.,9991.,0.922176112347,4.79531578421,130.
5.64,6391.,12.,6.,3584.,0.,0.,9993.,0.922424543334,3.99717302111,156.
5.66,6396.,18.,3.,3578.,0.,0.,9995.,0.92296148074,2.66633316658,234.
5.68,6399.,16.,3.,3575.,0.,0.,9993.,0.923579197746,3.00163239267,208.
5.7,6411.,9.,9.,3567.,0.,0.,9996.,0.925033474928,5.34463785514,117.
5.72,6405.,14.,4.,3569.,0.,0.,9992.,0.924537707089,3.43399719776,182.
5.74,6402.,15.,5.,3571.,0.,0.,9993.,0.924012193151,3.20324226959,195.
5.76,6404.,14.,7.,3567.,0.,0.,9992.,0.924393360843,3.43346105456,182.
5.78,6406.,16.,4.,3568.,0.,0.,9994.,0.924497005896,3.00461526916,208.
5.8,6407.,12.,5.,3568.,0.,0.,9992.,0.924826399581,4.00758106485,156.
5.82,6418.,12.,7.,3555.,0.,0.,9992.,0.92641420829,4.01446156926,156.
5.84,6417.,7.,15.,3554.,0.,0.,9993.,0.926177170173,6.88017326414,91.
5.86,6421.,13.,2.,3559.,0.,0.,9995.,0.926569053758,3.70627621503,169.
5.88,6419.,11.,4.,3560.,0.,0.,9994.,0.926373131571,4.37921844016,143.
5.9,6420.,13.,1.,3560.,0.,0.,9994.,0.926517448931,3.70606979572,169.
5.92,6425.,5.,9.,3552.,0.,0.,9991.,0.92751745802,9.64618156341,65.
5.94,6432.,5.,2.,3553.,0.,0.,9992.,0.928435055737,9.65572457966,65.
5.96,6434.,5.,5.,3548.,0.,0.,9992.,0.928723748229,9.65872698159,65.
5.98,6439.,6.,2.,3540.,0.,0.,9987.,0.929910807126,8.05922699509,78.
6.,6445.,6.,0.,3538.,0.,0.,9989.,0.930590957746,8.0651216338,78.
6.02,6447.,7.,2.,3528.,0.,0.,9984.,0.931345922707,6.91856971154,91.
6.04,6449.,7.,6.,3526.,0.,0.,9988.,0.931261744863,6.91794439041,91.
6.06,6457.,10.,3.,3518.,0.,0.,9988.,0.932416977296,4.84856828194,130.
6.08,6459.,10.,5.,3511.,0.,0.,9985.,0.932986017488,4.85152729094,130.
6.1,6461.,15.,8.,3502.,0.,0.,9986.,0.933181454036,3.23502904066,195.
6.12,6460.,14.,7.,3504.,0.,0.,9985.,0.933130464928,3.46591315545,182.
6.14,6467.,16.,4.,3502.,0.,0.,9989.,0.933767528897,3.03474446892,208.
6.16,6474.,15.,3.,3495.,0.,0.,9987.,0.934965455092,3.24121357765,195.
6.18,6481.,11.,4.,3490.,0.,0.,9986.,0.936070113544,4.42505871857,143.
6.2,6482.,12.,1.,3488.,0.,0.,9983.,0.936495889165,4.05814885305,156.
6.22,6486.,12.,3.,3476.,0.,0.,9977.,0.937637335102,4.06309511877,156.
6.24,6480.,16.,5.,3475.,0.,0.,9976.,0.936863857874,3.04480753809,208.
6.26,6481.,15.,5.,3472.,0.,0.,9973.,0.937290299192,3.2492730372,195.
6.28,6485.,12.,8.,3472.,0.,0.,9977.,0.937492771837,4.06246867796,156.
6.3,6487.,13.,11.,3469.,0.,0.,9980.,0.9375,3.75,169.
6.32,6477.,18.,13.,3470.,0.,0.,9978.,0.936242425644,2.70470034075,234.
6.34,6473.,28.,8.,3472.,0.,0.,9981.,0.935382996925,1.73713985143,364.
6.36,6471.,26.,13.,3471.,0.,0.,9981.,0.935093986266,1.87018797253,338.
6.38,6475.,22.,6.,3481.,0.,0.,9984.,0.935390856139,2.21092384178,286.
6.4,6472.,15.,15.,3481.,0.,0.,9983.,0.935051125375,3.24151056797,195.
6.42,6465.,18.,6.,3493.,0.,0.,9982.,0.934133363131,2.69860749349,234.
6.44,6462.,15.,6.,3501.,0.,0.,9984.,0.933512851331,3.23617788462,195.
6.46,6467.,11.,8.,3499.,0.,0.,9985.,0.934141597011,4.41594209496,143.
6.48,6471.,8.,6.,3502.,0.,0.,9987.,0.934532199552,6.07445929709,104.
6.5,6465.,10.,5.,3506.,0.,0.,9986.,0.933759185937,4.85554776687,130.
6.52,6468.,8.,6.,3505.,0.,0.,9987.,0.934098944012,6.07164313608,104.
6.54,6471.,8.,6.,3503.,0.,0.,9988.,0.934438634053,6.07385112135,104.
6.56,6478.,10.,1.,3497.,0.,0.,9986.,0.935636814617,4.86531143601,130.
6.58,6483.,8.,0.,3494.,0.,0.,9985.,0.936452756057,6.08694291437,104.
6.6,6486.,6.,1.,3489.,0.,0.,9982.,0.937167671039,8.12211981567,78.
6.62,6498.,6.,3.,3477.,0.,0.,9984.,0.93871348003,8.13551682692,78.
6.64,6507.,7.,2.,3464.,0.,0.,9980.,0.940390396177,6.98575722874,91.
6.66,6518.,7.,3.,3457.,0.,0.,9985.,0.941508416471,6.99406252235,91.
6.68,6522.,6.,3.,3454.,0.,0.,9985.,0.942086206232,8.16474712068,78.
6.7,6526.,3.,5.,3452.,0.,0.,9986.,0.942569597436,16.3378730222,39.
6.72,6526.,10.,6.,3443.,0.,0.,9985.,0.942663995994,4.90185277917,130.
6.74,6531.,10.,6.,3437.,0.,0.,9984.,0.943480723003,4.90609975962,130.
6.76,6532.,8.,5.,3435.,0.,0.,9980.,0.944003391398,6.13602204409,104.
6.78,6534.,11.,7.,3436.,0.,0.,9988.,0.943536089461,4.46035242291,143.
6.8,6530.,17.,5.,3435.,0.,0.,9987.,0.943052891836,2.88463237503,221.
6.82,6519.,21.,3.,3441.,0.,0.,9984.,0.941747180104,2.33194539835,273.
6.84,6522.,12.,6.,3443.,0.,0.,9983.,0.942274944328,4.08319142542,156.
6.86,6524.,14.,1.,3445.,0.,0.,9984.,0.942469489645,3.50060096154,182.
6.88,6527.,14.,4.,3437.,0.,0.,9982.,0.943091796002,3.50291238515,182.
6.9,6528.,13.,3.,3437.,0.,0.,9981.,0.94333079004,3.77332316016,169.
6.92,6532.,10.,4.,3434.,0.,0.,9980.,0.944003391398,4.90881763527,130.
6.94,6534.,8.,6.,3435.,0.,0.,9983.,0.944008660877,6.1360562957,104.
6.96,6531.,10.,6.,3438.,0.,0.,9985.,0.943386233196,4.90560841262,130.
6.98,6535.,9.,4.,3433.,0.,0.,9981.,0.944342327345,5.45620011355,117.
7.,6541.,7.,2.,3430.,0.,0.,9980.,0.945304069678,7.02225880332,91.
7.02,6550.,7.,2.,3424.,0.,0.,9983.,0.946320282943,7.02980781614,91.
7.04,6557.,3.,3.,3421.,0.,0.,9984.,0.947236732618,16.4187700321,39.
7.06,6557.,6.,3.,3418.,0.,0.,9984.,0.947236732618,8.20938501603,78.
7.08,6565.,7.,4.,3412.,0.,0.,9988.,0.948012615138,7.04237942674,91.
7.1,6563.,13.,3.,3409.,0.,0.,9988.,0.94772380703,3.79089522812,169.
7.12,6571.,9.,9.,3403.,0.,0.,9992.,0.948499183963,5.48021750734,117.
7.14,6572.,12.,4.,3398.,0.,0.,9986.,0.949213514305,4.11325856199,156.
7.16,6577.,10.,4.,3395.,0.,0.,9986.,0.949935679182,4.93966553174,130.
7.18,6576.,6.,11.,3390.,0.,0.,9983.,0.950076668798,8.23399779625,78.
7.2,6574.,14.,2.,3393.,0.,0.,9983.,0.94978771604,3.52778294529,182.
7.22,6573.,10.,6.,3394.,0.,0.,9983.,0.949643239661,4.93814484624,130.
7.24,6572.,12.,4.,3394.,0.,0.,9982.,0.949593884376,4.1149068323,156.
7.26,6571.,15.,1.,3396.,0.,0.,9983.,0.949354286903,3.29109486126,195.
7.28,6579.,11.,5.,3390.,0.,0.,9985.,0.950319710335,4.49242044886,143.
7.3,6579.,13.,4.,3389.,0.,0.,9985.,0.950319710335,3.80127884134,169.
7.32,6585.,11.,11.,3379.,0.,0.,9986.,0.951091142985,4.49606722138,143.
7.34,6588.,14.,6.,3378.,0.,0.,9986.,0.951524441911,3.53423364138,182.
7.36,6581.,19.,3.,3382.,0.,0.,9985.,0.950608605216,2.60166565638,247.
7.38,6583.,17.,9.,3375.,0.,0.,9984.,0.950992742234,2.90891897624,221.
7.4,6585.,11.,7.,3380.,0.,0.,9983.,0.95137695621,4.49741833845,143.
7.42,6579.,14.,8.,3381.,0.,0.,9982.,0.950605320346,3.53081976128,182.
7.44,6568.,20.,9.,3382.,0.,0.,9979.,0.94930122488,2.46818318469,260.
7.46,6562.,21.,14.,3384.,0.,0.,9981.,0.948243971238,2.34803269068,273.
7.48,6555.,24.,12.,3392.,0.,0.,9983.,0.947042664838,2.05192577382,312.
7.5,6549.,22.,14.,3401.,0.,0.,9986.,0.945891555871,2.23574367751,286.
7.52,6540.,22.,21.,3401.,0.,0.,9984.,0.944780880178,2.23311844406,286.
7.54,6535.,22.,10.,3418.,0.,0.,9985.,0.943964022958,2.23118769063,286.
7.56,6528.,24.,11.,3424.,0.,0.,9987.,0.94276405481,2.04265545209,312.
7.58,6518.,21.,20.,3427.,0.,0.,9986.,0.941414133633,2.33112071185,273.
7.6,6505.,31.,14.,3434.,0.,0.,9984.,0.939724713388,1.57631242246,403.
7.62,6490.,32.,19.,3445.,0.,0.,9986.,0.937370010322,1.52322626677,416.
7.64,6485.,26.,11.,3463.,0.,0.,9985.,0.936741650938,1.87348330188,338.
7.66,6480.,26.,15.,3464.,0.,0.,9985.,0.936019413736,1.87203882747,338.
7.68,6465.,39.,11.,3471.,0.,0.,9986.,0.933759185937,1.24501224792,507.
7.7,6464.,26.,15.,3484.,0.,0.,9989.,0.933334360104,1.86666872021,338.
7.72,6463.,27.,6.,3491.,0.,0.,9987.,0.933376851445,1.79761467686,351.
7.74,6461.,30.,7.,3491.,0.,0.,9989.,0.93290119131,1.6170287316,390.
7.76,6454.,24.,11.,3501.,0.,0.,9990.,0.931797181797,2.01889389389,312.
7.78,6448.,28.,9.,3505.,0.,0.,9990.,0.930930930931,1.72887172887,364.
7.8,6444.,29.,8.,3513.,0.,0.,9994.,0.929981065562,1.66755225549,377.
7.82,6445.,28.,6.,3517.,0.,0.,9996.,0.929939283406,1.72703009775,364.
7.84,6443.,23.,12.,3521.,0.,0.,9999.,0.929371783332,2.10118837971,299.
7.86,6439.,17.,19.,3522.,0.,0.,9997.,0.928980617262,2.84158777045,221.
7.88,6434.,23.,6.,3538.,0.,0.,10001.,0.927887980433,2.09783369489,299.
7.9,6431.,20.,12.,3537.,0.,0.,10000.,0.927548076923,2.411625,260.
7.92,6431.,15.,13.,3541.,0.,0.,10000.,0.927548076923,3.2155,195.
7.94,6423.,22.,6.,3552.,0.,0.,10003.,0.92611639585,2.18900239019,286.
7.96,6428.,21.,7.,3549.,0.,0.,10005.,0.926652058586,2.29456700221,273.
7.98,6428.,19.,5.,3549.,0.,0.,10001.,0.927022682347,2.53711470958,247.
8.,6429.,19.,7.,3546.,0.,0.,10001.,0.927166898695,2.53750940695,247.
8.02,6423.,25.,9.,3542.,0.,0.,9999.,0.926486879457,1.92709270927,325.
8.04,6421.,27.,11.,3538.,0.,0.,9997.,0.926383684336,1.78414635502,351.
8.06,6416.,31.,9.,3543.,0.,0.,9999.,0.925477163101,1.55241330585,403.
8.08,6411.,30.,9.,3552.,0.,0.,10002.,0.924478565825,1.6024295141,390.
8.1,6408.,27.,13.,3550.,0.,0.,9998.,0.924415652361,1.78035607121,351.
8.12,6406.,23.,16.,3557.,0.,0.,10002.,0.923757556181,2.08849534441,299.
8.14,6402.,30.,9.,3565.,0.,0.,10006.,0.922811697597,1.59954027583,390.
8.16,6399.,23.,12.,3569.,0.,0.,10003.,0.922655895539,2.08600463339,299.
8.18,6389.,30.,9.,3575.,0.,0.,10003.,0.921214020409,1.59677096871,390.
8.2,6388.,21.,10.,3584.,0.,0.,10003.,0.921069832896,2.28074434812,273.
8.22,6379.,30.,3.,3591.,0.,0.,10003.,0.919772145279,1.59427171848,390.
8.24,6385.,19.,11.,3589.,0.,0.,10004.,0.920545243441,2.51938698205,247.
8.26,6387.,20.,10.,3587.,0.,0.,10004.,0.920833589641,2.39416733307,260.
8.28,6377.,27.,9.,3595.,0.,0.,10008.,0.919024395868,1.76997291056,351.
8.3,6378.,24.,14.,3593.,0.,0.,10009.,0.919076677144,1.99133280048,312.
8.32,6368.,22.,12.,3605.,0.,0.,10007.,0.917819065116,2.16939051755,286.
8.34,6372.,19.,7.,3609.,0.,0.,10007.,0.918395584629,2.5135037053,247.
8.36,6374.,20.,8.,3605.,0.,0.,10007.,0.918683844386,2.3885779954,260.
8.38,6377.,16.,11.,3605.,0.,0.,10009.,0.918932576066,2.98653087222,208.
8.4,6376.,20.,10.,3601.,0.,0.,10007.,0.918972104142,2.38932747077,260.
8.42,6369.,19.,13.,3605.,0.,0.,10006.,0.918054936269,2.51257140453,247.
8.44,6365.,20.,10.,3607.,0.,0.,10002.,0.917845277098,2.38639772046,260.
8.46,6354.,23.,12.,3615.,0.,0.,10004.,0.916075877341,2.07112807051,299.
8.48,6344.,23.,21.,3615.,0.,0.,10003.,0.914725582325,2.06807522961,299.
8.5,6324.,35.,21.,3619.,0.,0.,9999.,0.912206605276,1.35527838498,455.
8.52,6305.,37.,25.,3632.,0.,0.,9999.,0.909465946595,1.27816835738,481.
8.54,6294.,35.,24.,3646.,0.,0.,9999.,0.907879249463,1.34884917063,455.
8.56,6281.,32.,27.,3662.,0.,0.,10002.,0.905732315075,1.471815012,416.
8.58,6261.,36.,23.,3684.,0.,0.,10004.,0.902667779042,1.30385345862,468.
8.6,6253.,33.,15.,3704.,0.,0.,10005.,0.901424287856,1.42042615056,429.
8.62,6243.,31.,17.,3707.,0.,0.,9998.,0.900612814871,1.51070536688,403.
8.64,6222.,39.,21.,3718.,0.,0.,10000.,0.897403846154,1.19653846154,507.
8.66,6205.,46.,16.,3735.,0.,0.,10002.,0.894772968483,1.01148248611,598.
8.68,6203.,33.,25.,3741.,0.,0.,10002.,0.894484564626,1.40949082911,429.
8.7,6194.,31.,16.,3763.,0.,0.,10004.,0.893008181343,1.49794920741,403.
8.72,6190.,27.,20.,3768.,0.,0.,10005.,0.892342290393,1.71858515187,351.
8.74,6181.,24.,19.,3778.,0.,0.,10002.,0.891312122191,1.93117626475,312.
8.76,6174.,29.,9.,3790.,0.,0.,10002.,0.890302708689,1.59640485696,377.
8.78,6171.,24.,16.,3791.,0.,0.,10002.,0.889870102902,1.92805188962,312.
8.8,6165.,26.,15.,3794.,0.,0.,10000.,0.889182692308,1.77836538462,338.
8.82,6159.,22.,15.,3802.,0.,0.,9998.,0.888495006694,2.10007910673,286.
8.84,6157.,26.,15.,3802.,0.,0.,10000.,0.888028846154,1.77605769231,338.
8.86,6149.,26.,14.,3811.,0.,0.,10000.,0.886875,1.77375,338.
8.88,6147.,21.,19.,3814.,0.,0.,10001.,0.886497888673,2.19513762909,273.
8.9,6148.,22.,14.,3818.,0.,0.,10002.,0.886553458539,2.09548999291,286.
8.92,6151.,16.,9.,3824.,0.,0.,10000.,0.887163461538,2.88328125,208.
8.94,6156.,20.,7.,3821.,0.,0.,10004.,0.887529603543,2.30757696921,260.
8.96,6153.,19.,11.,3819.,0.,0.,10002.,0.887274468183,2.42833012345,247.
8.98,6160.,18.,12.,3812.,0.,0.,10002.,0.888283881685,2.56615343598,234.
9.,6161.,19.,15.,3808.,0.,0.,10003.,0.888339267451,2.43124431092,247.
9.02,6165.,13.,14.,3812.,0.,0.,10004.,0.888827161443,3.55530864577,169.
9.04,6157.,22.,7.,3819.,0.,0.,10005.,0.887585053627,2.09792830857,286.
9.06,6156.,17.,10.,3824.,0.,0.,10007.,0.887263530913,2.71398256515,221.
9.08,6152.,11.,13.,3830.,0.,0.,10006.,0.886775626932,4.1920302364,143.
9.1,6157.,16.,9.,3831.,0.,0.,10013.,0.886875907474,2.88234669929,208.
9.12,6157.,16.,8.,3833.,0.,0.,10014.,0.886787343872,2.88205886759,208.
9.14,6155.,9.,17.,3831.,0.,0.,10012.,0.886676372968,5.12301904381,117.
9.16,6157.,12.,10.,3834.,0.,0.,10013.,0.886875907474,3.84312893239,156.
9.18,6154.,11.,11.,3835.,0.,0.,10011.,0.886620870888,4.19129866238,143.
9.2,6147.,16.,13.,3832.,0.,0.,10008.,0.885877836193,2.87910296763,208.
9.22,6145.,15.,9.,3836.,0.,0.,10005.,0.885855149348,3.07096451774,195.
9.24,6145.,14.,3.,3842.,0.,0.,10004.,0.885943699443,3.2906480265,182.
9.26,6153.,13.,3.,3838.,0.,0.,10007.,0.886831141278,3.54732456511,169.
9.28,6151.,14.,4.,3836.,0.,0.,10005.,0.886720101488,3.29353180553,182.
9.3,6163.,10.,7.,3827.,0.,0.,10007.,0.888272440061,4.61901668832,130.
9.32,6166.,10.,6.,3823.,0.,0.,10005.,0.888882481836,4.62218890555,130.
9.34,6162.,11.,6.,3818.,0.,0.,9997.,0.889016705012,4.20262442369,143.
9.36,6165.,15.,5.,3814.,0.,0.,9999.,0.88927161947,3.08280828083,195.
9.38,6166.,15.,6.,3814.,0.,0.,10001.,0.889237999277,3.08269173083,195.
9.4,6172.,15.,5.,3809.,0.,0.,10001.,0.890103297363,3.08569143086,195.
9.42,6176.,13.,7.,3804.,0.,0.,10000.,0.890769230769,3.56307692308,169.
9.44,6176.,15.,6.,3802.,0.,0.,9999.,0.890858316601,3.08830883088,195.
9.46,6178.,12.,9.,3800.,0.,0.,9999.,0.891146806988,3.86163616362,156.
9.48,6177.,13.,4.,3802.,0.,0.,9996.,0.891269969526,3.56507987811,169.
9.5,6188.,11.,4.,3794.,0.,0.,9997.,0.892767830349,4.2203570162,143.
9.52,6190.,9.,6.,3792.,0.,0.,9997.,0.893056378452,5.15988129772,117.
9.54,6197.,7.,4.,3792.,0.,0.,10000.,0.893798076923,6.63964285714,91.
9.56,6204.,11.,6.,3783.,0.,0.,10004.,0.894449912343,4.22830867653,143.
9.58,6206.,7.,12.,3777.,0.,0.,10002.,0.894917170412,6.64795612306,91.
9.6,6200.,16.,7.,3779.,0.,0.,10002.,0.894051958839,2.90566886623,208.
9.62,6196.,15.,5.,3785.,0.,0.,10001.,0.893564489705,3.09769023098,195.
9.64,6198.,17.,4.,3784.,0.,0.,10003.,0.893674205431,2.7335916872,221.
9.66,6206.,14.,9.,3776.,0.,0.,10005.,0.894648829431,3.32298136646,182.
9.68,6206.,14.,9.,3776.,0.,0.,10005.,0.894648829431,3.32298136646,182.
9.7,6205.,16.,7.,3780.,0.,0.,10008.,0.89423653385,2.90626873501,208.
9.72,6202.,17.,6.,3781.,0.,0.,10006.,0.893982841065,2.73453574914,221.
9.74,6204.,14.,9.,3779.,0.,0.,10006.,0.89427112963,3.32157848148,182.
9.76,6212.,12.,9.,3776.,0.,0.,10009.,0.895155898153,3.879008892,156.
9.78,6214.,17.,3.,3775.,0.,0.,10009.,0.89544410031,2.7390054833,221.
9.8,6221.,12.,6.,3770.,0.,0.,10009.,0.896452807858,3.88462883405,156.
9.82,6225.,16.,7.,3767.,0.,0.,10015.,0.89649180076,2.91359835247,208.
9.84,6231.,17.,8.,3758.,0.,0.,10014.,0.897445499378,2.74512740986,221.
9.86,6226.,26.,1.,3761.,0.,0.,10014.,0.896725353736,1.79345070747,338.
9.88,6229.,11.,16.,3760.,0.,0.,10016.,0.896978296264,4.24026103689,143.
9.9,6219.,26.,10.,3760.,0.,0.,10015.,0.895627712278,1.79125542456,338.
9.92,6218.,22.,9.,3764.,0.,0.,10013.,0.895662561747,2.11702060049,286.
9.94,6220.,17.,9.,3770.,0.,0.,10016.,0.895682292947,2.73973407254,221.
9.96,6210.,18.,10.,3779.,0.,0.,10017.,0.894153016795,2.58310871518,234.
9.98,6207.,15.,16.,3782.,0.,0.,10020.,0.89345347766,3.09730538922,195.
10.,6193.,26.,9.,3788.,0.,0.,10016.,0.891794282993,1.78358856599,338.
