t,s,e,i,r,c,o,n,reff,coal,reportr
5.,6250.,5.,3.,3734.,0.,0.,9992.,0.902164038923,9.3825060048,65.
5.02,6256.,5.,1.,3732.,0.,0.,9994.,0.902849401949,9.38963378027,65.
5.04,6261.,7.,2.,3722.,0.,0.,9992.,0.903751847632,6.71358515384,91.
5.06,6266.,5.,2.,3717.,0.,0.,9990.,0.904654654655,9.40840840841,65.
5.08,6272.,7.,4.,3705.,0.,0.,9988.,0.905702227288,6.72807368843,91.
5.1,6280.,4.,10.,3696.,0.,0.,9990.,0.906675906676,11.7867867868,52.
5.12,6283.,9.,3.,3698.,0.,0.,9993.,0.906836708773,5.23950098402,117.
5.14,6286.,5.,6.,3697.,0.,0.,9994.,0.907178922738,9.43466079648,65.
5.16,6292.,5.,3.,3696.,0.,0.,9996.,0.907863145258,9.44177671068,65.
5.18,6299.,8.,2.,3690.,0.,0.,9999.,0.908600475432,5.90590309031,104.
5.2,6301.,8.,7.,3687.,0.,0.,10003.,0.908525519267,5.90541587524,104.
5.22,6303.,11.,3.,3689.,0.,0.,10006.,0.908541413613,4.29492304617,143.
5.24,6315.,11.,3.,3677.,0.,0.,10006.,0.910271145005,4.30309995821,143.
5.26,6312.,11.,0.,3684.,0.,0.,10007.,0.90974779193,4.30062592549,143.
5.28,6328.,11.,2.,3672.,0.,0.,10013.,0.91150734814,4.30894382757,143.
5.3,6333.,9.,2.,3670.,0.,0.,10014.,0.91213647048,5.27012182944,117.
5.32,6340.,7.,2.,3668.,0.,0.,10017.,0.91287119589,6.78132888375,91.
5.34,6348.,7.,4.,3661.,0.,0.,10020.,0.913749424228,6.7878528657,91.
5.36,6347.,10.,6.,3654.,0.,0.,10017.,0.913879097841,4.75217130878,130.
5.38,6352.,8.,9.,3649.,0.,0.,10018.,0.914507732236,5.94430025953,104.
5.4,6350.,15.,6.,3647.,0.,0.,10018.,0.914219788995,3.16929526852,195.
5.42,6350.,18.,8.,3643.,0.,0.,10019.,0.914128540389,2.64081578334,234.
5.44,6344.,18.,16.,3639.,0.,0.,10017.,0.913447139862,2.63884729294,234.
5.46,6340.,17.,9.,3651.,0.,0.,10017.,0.91287119589,2.79231189331,221.
5.48,6340.,17.,5.,3652.,0.,0.,10014.,0.913144674379,2.79314841575,221.
5.5,6345.,13.,8.,3648.,0.,0.,10014.,0.913864820021,3.65545928008,169.
5.52,6345.,15.,9.,3648.,0.,0.,10017.,0.913591125855,3.16711590296,195.
5.54,6338.,23.,8.,3649.,0.,0.,10018.,0.912492129551,2.0630256842,299.
5.56,6338.,16.,16.,3648.,0.,0.,10018.,0.912492129551,2.96559942104,208.
5.58,6332.,23.,14.,3651.,0.,0.,10020.,0.911446338093,2.06066128612,299.
5.6,6331.,24.,14.,3654.,0.,0.,10023.,0.911029631847,1.97389753567,312.
5.62,6322.,29.,14.,3661.,0.,0.,10026.,0.909462321042,1.63076002394,377.
5.64,6315.,30.,6.,3673.,0.,0.,10024.,0.908636579901,1.57497007183,390.
5.66,6304.,27.,14.,3675.,0.,0.,10020.,0.907415937356,1.74761587935,351.
5.68,6312.,17.,15.,3676.,0.,0.,10020.,0.908567480424,2.77914758718,221.
5.7,6306.,23.,13.,3679.,0.,0.,10021.,0.907613242959,2.05199515799,299.
5.72,6291.,29.,17.,3685.,0.,0.,10022.,0.9053639685,1.62341125386,377.
5.74,6281.,39.,16.,3688.,0.,0.,10024.,0.903744474799,1.20499263307,507.
5.76,6284.,28.,17.,3695.,0.,0.,10024.,0.904176131131,1.67918424353,364.
5.78,6268.,29.,21.,3705.,0.,0.,10023.,0.901963944466,1.61731465904,377.
5.8,6260.,26.,23.,3716.,0.,0.,10025.,0.900633032803,1.80126606561,338.
5.82,6254.,23.,16.,3735.,0.,0.,10028.,0.899500629008,2.03365359602,299.
5.84,6261.,18.,15.,3735.,0.,0.,10029.,0.900417635012,2.60120650115,234.
5.86,6263.,17.,16.,3737.,0.,0.,10033.,0.900346165347,2.75400003518,221.
5.88,6267.,16.,4.,3746.,0.,0.,10033.,0.900921190839,2.92799387023,208.
5.9,6270.,17.,2.,3743.,0.,0.,10032.,0.901442307692,2.75735294118,221.
5.92,6274.,16.,6.,3735.,0.,0.,10031.,0.902107313482,2.93184876882,208.
5.94,6269.,21.,9.,3731.,0.,0.,10030.,0.901478257535,2.2322318758,273.
5.96,6272.,11.,11.,3735.,0.,0.,10029.,0.901999585817,4.26399804204,143.
5.98,6273.,17.,8.,3734.,0.,0.,10032.,0.901873619801,2.7586722488,221.
6.,6283.,13.,9.,3728.,0.,0.,10033.,0.903221292811,3.61288517124,169.
6.02,6281.,16.,7.,3726.,0.,0.,10030.,0.903203849988,2.93541251246,208.
6.04,6277.,16.,14.,3720.,0.,0.,10027.,0.902898711939,2.9344208138,208.
6.06,6270.,23.,10.,3723.,0.,0.,10026.,0.901981770474,2.03926313324,299.
6.08,6266.,23.,14.,3720.,0.,0.,10023.,0.901676144867,2.03857215361,299.
6.1,6268.,30.,16.,3715.,0.,0.,10029.,0.901424330979,1.56246884036,390.
6.12,6258.,31.,17.,3725.,0.,0.,10031.,0.899806752912,1.50935326295,403.
6.14,6248.,27.,16.,3741.,0.,0.,10032.,0.898279352227,1.73001949318,351.
6.16,6245.,26.,9.,3752.,0.,0.,10032.,0.897848040118,1.79569608024,338.
6.18,6245.,24.,9.,3755.,0.,0.,10033.,0.897758550629,1.94514352636,312.
6.2,6243.,27.,6.,3748.,0.,0.,10024.,0.898276827921,1.73001463155,351.
6.22,6241.,26.,13.,3744.,0.,0.,10024.,0.897989057032,1.79597811406,338.
6.24,6251.,21.,10.,3748.,0.,0.,10030.,0.898889868855,2.2258225324,273.
6.26,6243.,20.,12.,3752.,0.,0.,10027.,0.898008070517,2.33482098334,260.
6.28,6240.,21.,3.,3762.,0.,0.,10026.,0.897666068223,2.22279216893,273.
6.3,6239.,14.,12.,3759.,0.,0.,10024.,0.897701286144,3.33431906282,182.
6.32,6227.,18.,12.,3765.,0.,0.,10022.,0.896153462383,2.58888778022,234.
6.34,6229.,17.,10.,3769.,0.,0.,10025.,0.896173028966,2.74123514743,221.
6.36,6227.,19.,12.,3765.,0.,0.,10023.,0.896064052679,2.45238582838,247.
6.38,6226.,21.,4.,3774.,0.,0.,10025.,0.895741415692,2.21802636266,273.
6.4,6233.,18.,8.,3764.,0.,0.,10023.,0.896927451477,2.59112374871,234.
6.42,6239.,17.,6.,3761.,0.,0.,10023.,0.897790850275,2.74618377731,221.
6.44,6243.,12.,7.,3760.,0.,0.,10022.,0.898456088912,3.89330971862,156.
6.46,6249.,8.,9.,3755.,0.,0.,10021.,0.899409317357,5.84616056282,104.
6.48,6249.,5.,9.,3754.,0.,0.,10017.,0.899768470523,9.35759209344,65.
6.5,6251.,11.,6.,3749.,0.,0.,10017.,0.900056442509,4.25481227368,143.
6.52,6255.,17.,6.,3742.,0.,0.,10020.,0.900362736066,2.75405072209,221.
6.54,6251.,21.,7.,3742.,0.,0.,10021.,0.899697174395,2.22782157469,273.
6.56,6255.,14.,15.,3738.,0.,0.,10022.,0.900183058809,3.34353707558,182.
6.58,6254.,14.,15.,3738.,0.,0.,10021.,0.900128959953,3.34333613697,182.
6.6,6256.,18.,10.,3732.,0.,0.,10016.,0.900866306218,2.60250266241,234.
6.62,6250.,17.,12.,3733.,0.,0.,10012.,0.900361873444,2.75404808348,221.
6.64,6245.,19.,5.,3742.,0.,0.,10011.,0.899731449252,2.46242291374,247.
6.66,6248.,16.,7.,3739.,0.,0.,10010.,0.900253592561,2.92582417582,208.
6.68,6249.,20.,7.,3735.,0.,0.,10011.,0.900307738411,2.34080011987,260.
6.7,6261.,11.,11.,3731.,0.,0.,10014.,0.901766373231,4.26289558255,143.
6.72,6259.,15.,3.,3738.,0.,0.,10015.,0.901388302162,3.12481278083,195.
6.74,6268.,9.,6.,3735.,0.,0.,10018.,0.902414116129,5.21394822653,117.
6.76,6278.,10.,3.,3728.,0.,0.,10019.,0.903763618356,4.69957081545,130.
6.78,6290.,8.,4.,3719.,0.,0.,10021.,0.90531038665,5.88451751322,104.
6.8,6292.,9.,3.,3717.,0.,0.,10021.,0.905598243688,5.23234540798,117.
6.82,6299.,5.,4.,3712.,0.,0.,10020.,0.906696222939,9.42964071856,65.
6.84,6298.,8.,5.,3704.,0.,0.,10015.,0.907004877299,5.89553170245,104.
6.86,6303.,8.,1.,3704.,0.,0.,10016.,0.907634323544,5.89962310304,104.
6.88,6316.,5.,0.,3699.,0.,0.,10020.,0.909143251958,9.45508982036,65.
6.9,6329.,3.,2.,3688.,0.,0.,10022.,0.910832706507,15.7877669128,39.
6.92,6341.,3.,2.,3677.,0.,0.,10023.,0.912468629844,15.8161229173,39.
6.94,6348.,1.,4.,3674.,0.,0.,10027.,0.913111521968,47.4817991423,13.
6.96,6355.,3.,1.,3669.,0.,0.,10028.,0.914027262128,15.8431392102,39.
6.98,6362.,3.,0.,3659.,0.,0.,10024.,0.915399195776,15.8669193935,39.
7.,6368.,3.,0.,3652.,0.,0.,10023.,0.916353924435,15.8834680235,39.
7.02,6376.,0.,2.,3646.,0.,0.,10024.,0.917413591995,inf,0.
7.04,6383.,1.,1.,3637.,0.,0.,10022.,0.918604071044,47.7674116943,13.
7.06,6389.,2.,0.,3634.,0.,0.,10025.,0.919192403606,23.8990024938,26.
7.08,6398.,1.,0.,3626.,0.,0.,10025.,0.92048724343,47.8653366584,13.
7.1,6402.,1.,1.,3618.,0.,0.,10022.,0.921338440047,47.9095988825,13.
7.12,6408.,1.,1.,3610.,0.,0.,10020.,0.922385997236,47.9640718563,13.
7.14,6412.,1.,2.,3602.,0.,0.,10017.,0.923238187389,48.0083857442,13.
7.16,6416.,1.,4.,3592.,0.,0.,10013.,0.924183177254,48.0575252172,13.
7.18,6417.,6.,2.,3586.,0.,0.,10011.,0.924511883082,8.01243632005,78.
7.2,6429.,7.,0.,3579.,0.,0.,10015.,0.925870809171,6.87789743955,91.
7.22,6434.,3.,5.,3579.,0.,0.,10021.,0.926036093435,16.0512922862,39.
7.24,6436.,8.,4.,3572.,0.,0.,10020.,0.926416397973,6.02170658683,104.
7.26,6443.,7.,5.,3568.,0.,0.,10023.,0.927146409412,6.88737332706,91.
7.28,6445.,10.,2.,3565.,0.,0.,10022.,0.927526748845,4.82313909399,130.
7.3,6449.,9.,4.,3561.,0.,0.,10023.,0.92800980821,5.36183444744,117.
7.32,6451.,7.,9.,3556.,0.,0.,10023.,0.92829760781,6.89592508659,91.
7.34,6452.,10.,2.,3556.,0.,0.,10020.,0.928719484109,4.82934131737,130.
7.36,6456.,9.,2.,3553.,0.,0.,10020.,0.929295255643,5.36926147705,117.
7.38,6462.,3.,4.,3550.,0.,0.,10019.,0.93025175244,16.124363709,39.
7.4,6466.,6.,1.,3550.,0.,0.,10023.,0.930456104805,8.06395290831,78.
7.42,6476.,3.,4.,3543.,0.,0.,10026.,0.931616259264,16.1480151606,39.
7.44,6477.,2.,5.,3542.,0.,0.,10026.,0.931760116006,24.2257630162,26.
7.46,6484.,4.,2.,3533.,0.,0.,10023.,0.9330463012,12.1296019156,52.
7.48,6491.,3.,1.,3529.,0.,0.,10024.,0.933960418074,16.1886472466,39.
7.5,6496.,7.,1.,3523.,0.,0.,10027.,0.934400196393,6.94125860178,91.
7.52,6511.,6.,3.,3508.,0.,0.,10028.,0.936464438035,8.11602512964,78.
7.54,6518.,5.,4.,3505.,0.,0.,10032.,0.937097442032,9.74581339713,65.
7.56,6523.,6.,0.,3503.,0.,0.,10032.,0.937816295547,8.12774122807,78.
7.58,6533.,4.,2.,3497.,0.,0.,10036.,0.938879648649,12.2054354324,52.
7.6,6539.,5.,0.,3494.,0.,0.,10038.,0.93955469217,9.77136879857,65.
7.62,6549.,4.,1.,3485.,0.,0.,10039.,0.940897806248,12.2316714812,52.
7.64,6555.,4.,2.,3479.,0.,0.,10040.,0.941666028195,12.2416583665,52.
7.66,6568.,3.,1.,3466.,0.,0.,10038.,0.943721550416,16.3578402072,39.
7.68,6576.,7.,0.,3459.,0.,0.,10042.,0.944494660886,7.01624605229,91.
7.7,6587.,4.,3.,3448.,0.,0.,10042.,0.946074563755,12.2989693288,52.
7.72,6591.,6.,3.,3443.,0.,0.,10043.,0.946554814299,8.20347505725,78.
7.74,6597.,5.,0.,3438.,0.,0.,10040.,0.94769958627,9.85607569721,65.
7.76,6604.,6.,0.,3429.,0.,0.,10039.,0.948799681243,8.22293057077,78.
7.78,6616.,7.,3.,3413.,0.,0.,10039.,0.950523726697,7.06103339832,91.
7.8,6625.,4.,4.,3408.,0.,0.,10041.,0.951627174737,12.3711532716,52.
7.82,6627.,9.,4.,3402.,0.,0.,10042.,0.951819665099,5.49940250946,117.
7.84,6632.,10.,0.,3400.,0.,0.,10042.,0.952537802767,4.95319657439,130.
7.86,6636.,6.,7.,3391.,0.,0.,10040.,0.953302175912,8.26195219124,78.
7.88,6635.,9.,8.,3387.,0.,0.,10039.,0.953253465331,5.50768668858,117.
7.9,6633.,16.,1.,3391.,0.,0.,10041.,0.952776309439,3.09652300568,208.
7.92,6636.,13.,4.,3385.,0.,0.,10038.,0.95349211458,3.81396845832,169.
7.94,6639.,12.,9.,3377.,0.,0.,10037.,0.954018209548,4.13407890804,156.
7.96,6639.,19.,8.,3371.,0.,0.,10037.,0.954018209548,2.61099720508,247.
7.98,6642.,17.,7.,3373.,0.,0.,10039.,0.954259158513,2.91891036721,221.
8.,6637.,25.,4.,3372.,0.,0.,10038.,0.953635799347,1.98356246264,325.
8.02,6640.,21.,12.,3367.,0.,0.,10040.,0.95387680049,2.36198064883,273.
8.04,6641.,19.,12.,3369.,0.,0.,10041.,0.953925444141,2.61074332081,247.
8.06,6639.,19.,11.,3372.,0.,0.,10041.,0.953638160465,2.60995707075,247.
8.08,6633.,15.,13.,3378.,0.,0.,10039.,0.952966124422,3.303615898,195.
8.1,6630.,21.,8.,3385.,0.,0.,10044.,0.9520609319,2.35748421232,273.
8.12,6622.,20.,16.,3383.,0.,0.,10041.,0.951196249224,2.47311024798,260.
8.14,6596.,36.,18.,3386.,0.,0.,10036.,0.947933592912,1.36923741198,468.
8.16,6588.,39.,14.,3396.,0.,0.,10037.,0.946689556334,1.26225274178,507.
8.18,6585.,33.,17.,3403.,0.,0.,10038.,0.946164191457,1.4909253926,429.
8.2,6577.,34.,21.,3405.,0.,0.,10037.,0.945108866425,1.44546061924,442.
8.22,6574.,26.,27.,3407.,0.,0.,10034.,0.944960212202,1.8899204244,338.
8.24,6550.,49.,20.,3417.,0.,0.,10036.,0.941322776466,0.998954783189,637.
8.26,6524.,52.,29.,3427.,0.,0.,10032.,0.93796006625,0.93796006625,676.
8.28,6495.,68.,26.,3440.,0.,0.,10029.,0.934070043029,0.714288856434,884.
8.3,6477.,66.,33.,3456.,0.,0.,10032.,0.931202843209,0.733674967377,858.
8.32,6448.,66.,27.,3489.,0.,0.,10030.,0.927218344965,0.73053566573,858.
8.34,6424.,52.,34.,3518.,0.,0.,10028.,0.923951397625,0.923951397625,676.
8.36,6408.,45.,27.,3548.,0.,0.,10028.,0.921650148814,1.06501794974,585.
8.38,6402.,31.,22.,3571.,0.,0.,10026.,0.920970860378,1.54485434644,403.
8.4,6396.,34.,15.,3583.,0.,0.,10028.,0.919924212206,1.40694291279,442.
8.42,6378.,38.,17.,3591.,0.,0.,10024.,0.917701362883,1.255801865,494.
8.44,6366.,40.,13.,3604.,0.,0.,10023.,0.916066124836,1.19088596229,520.
8.46,6367.,32.,23.,3604.,0.,0.,10026.,0.915935874419,1.48839579593,416.
8.48,6354.,38.,18.,3617.,0.,0.,10027.,0.913974576336,1.25070205183,494.
8.5,6347.,39.,14.,3629.,0.,0.,10029.,0.912785614027,1.21704748537,507.
8.52,6332.,41.,11.,3647.,0.,0.,10031.,0.910446845548,1.1547130724,533.
8.54,6333.,31.,16.,3650.,0.,0.,10030.,0.910681417287,1.52759463545,403.
8.56,6324.,30.,18.,3655.,0.,0.,10027.,0.909659304493,1.57674279445,390.
8.58,6324.,30.,13.,3663.,0.,0.,10030.,0.909387222947,1.57627118644,390.
8.6,6322.,31.,10.,3670.,0.,0.,10033.,0.908827791365,1.52448532745,403.
8.62,6314.,30.,14.,3675.,0.,0.,10033.,0.90767774038,1.57330808333,390.
8.64,6310.,37.,11.,3675.,0.,0.,10033.,0.907102714887,1.27484705876,481.
8.66,6307.,33.,15.,3672.,0.,0.,10027.,0.907213983782,1.42954930778,429.
8.68,6298.,31.,21.,3680.,0.,0.,10030.,0.905648439297,1.51915222076,403.
8.7,6290.,27.,25.,3688.,0.,0.,10030.,0.904498044329,1.74199623352,351.
8.72,6282.,34.,15.,3699.,0.,0.,10030.,0.90334764936,1.38159052255,442.
8.74,6264.,34.,22.,3712.,0.,0.,10032.,0.900579683474,1.37735716296,442.
8.76,6252.,36.,19.,3727.,0.,0.,10034.,0.898675273302,1.29808650588,468.
8.78,6234.,37.,24.,3739.,0.,0.,10034.,0.896087916469,1.25936680152,481.
8.8,6225.,37.,18.,3758.,0.,0.,10038.,0.894437675295,1.25704754366,481.
8.82,6223.,31.,23.,3765.,0.,0.,10042.,0.893794141529,1.49926759224,403.
8.84,6205.,38.,14.,3780.,0.,0.,10037.,0.891652807688,1.22015647368,494.
8.86,6198.,36.,19.,3785.,0.,0.,10038.,0.890558186583,1.28636182506,468.
8.88,6183.,38.,13.,3804.,0.,0.,10038.,0.888402915077,1.21570925221,494.
8.9,6185.,38.,11.,3806.,0.,0.,10040.,0.888513254674,1.21586024324,494.
8.92,6174.,35.,19.,3812.,0.,0.,10040.,0.886933037082,1.31772908367,455.
8.94,6158.,32.,23.,3827.,0.,0.,10040.,0.884634538768,1.4375311255,416.
8.96,6152.,28.,12.,3845.,0.,0.,10037.,0.884036756309,1.64178254743,364.
8.98,6151.,25.,15.,3848.,0.,0.,10039.,0.883716965374,1.83813128798,325.
9.,6146.,25.,17.,3851.,0.,0.,10039.,0.882998613101,1.83663711525,325.
9.02,6141.,22.,23.,3854.,0.,0.,10040.,0.882192384309,2.08518199928,286.
9.04,6133.,20.,9.,3871.,0.,0.,10033.,0.881657836831,2.29231037576,260.
9.06,6128.,23.,7.,3875.,0.,0.,10033.,0.880939054965,1.99168829818,299.
9.08,6128.,18.,9.,3878.,0.,0.,10033.,0.880939054965,2.54493504768,234.
9.1,6130.,14.,16.,3872.,0.,0.,10032.,0.881314409275,3.27345352016,182.
9.12,6133.,11.,3.,3884.,0.,0.,10031.,0.88183362346,4.16866803817,143.
9.14,6141.,8.,5.,3877.,0.,0.,10031.,0.882983903745,5.73939537434,104.
9.16,6148.,8.,4.,3868.,0.,0.,10028.,0.884254855635,5.74765656163,104.
9.18,6150.,13.,1.,3868.,0.,0.,10032.,0.884189823335,3.53675929334,169.
9.2,6154.,12.,5.,3859.,0.,0.,10030.,0.884941329857,3.83474576271,156.
9.22,6153.,17.,3.,3857.,0.,0.,10030.,0.884797530485,2.70643950501,221.
9.24,6157.,8.,8.,3853.,0.,0.,10026.,0.885725958661,5.7572187313,104.
9.26,6162.,10.,3.,3853.,0.,0.,10028.,0.886268448345,4.60859593139,130.
9.28,6166.,10.,3.,3847.,0.,0.,10026.,0.887020669337,4.61250748055,130.
9.3,6170.,8.,3.,3845.,0.,0.,10026.,0.887596096303,5.76937462597,104.
9.32,6175.,7.,3.,3844.,0.,0.,10029.,0.888049655998,6.5969403017,91.
9.34,6178.,8.,2.,3847.,0.,0.,10035.,0.88794986777,5.77167414051,104.
9.36,6182.,9.,1.,3842.,0.,0.,10034.,0.888613330062,5.13421035147,117.
9.38,6191.,7.,1.,3835.,0.,0.,10034.,0.889907008479,6.61073777727,91.
9.4,6201.,5.,3.,3829.,0.,0.,10038.,0.890989240885,9.2662881052,65.
9.42,6208.,6.,4.,3822.,0.,0.,10040.,0.891817346001,7.72908366534,78.
9.44,6205.,12.,4.,3820.,0.,0.,10041.,0.891297602905,3.86228961259,156.
9.46,6202.,13.,4.,3823.,0.,0.,10042.,0.890777963323,3.56311185329,169.
9.48,6204.,14.,7.,3820.,0.,0.,10045.,0.890799096374,3.30868235796,182.
9.5,6204.,20.,8.,3817.,0.,0.,10049.,0.890444514188,2.31515573689,260.
9.52,6206.,19.,4.,3820.,0.,0.,10049.,0.890731569157,2.43779166296,247.
9.54,6207.,20.,7.,3817.,0.,0.,10051.,0.890697825704,2.31581434683,260.
9.56,6203.,21.,4.,3820.,0.,0.,10048.,0.890389591499,2.20477422657,273.
9.58,6206.,15.,12.,3816.,0.,0.,10049.,0.890731569157,3.08786943975,195.
9.6,6197.,21.,10.,3825.,0.,0.,10053.,0.889085921539,2.20154609143,273.
9.62,6203.,18.,6.,3825.,0.,0.,10052.,0.890035278092,2.5712130256,234.
9.64,6205.,12.,16.,3819.,0.,0.,10052.,0.89032224739,3.85806307203,156.
9.66,6198.,16.,9.,3827.,0.,0.,10050.,0.889494833525,2.89085820896,208.
9.68,6199.,12.,10.,3832.,0.,0.,10053.,0.889372862291,3.85394906993,156.
9.7,6200.,13.,4.,3832.,0.,0.,10049.,0.88987040425,3.559481617,169.
9.72,6203.,10.,5.,3830.,0.,0.,10048.,0.890389591499,4.6300258758,130.
9.74,6203.,13.,0.,3832.,0.,0.,10048.,0.890389591499,3.561558366,169.
9.76,6208.,10.,4.,3828.,0.,0.,10050.,0.890929965557,4.6328358209,130.
9.78,6212.,9.,7.,3822.,0.,0.,10050.,0.89150401837,5.15091210614,117.
9.8,6218.,9.,1.,3824.,0.,0.,10052.,0.892187547828,5.15486138745,117.
9.82,6225.,7.,5.,3814.,0.,0.,10051.,0.893280806349,6.63580027574,91.
9.84,6225.,6.,1.,3818.,0.,0.,10050.,0.893369690011,7.74253731343,78.
9.86,6225.,6.,3.,3817.,0.,0.,10051.,0.893280806349,7.74176698836,78.
9.88,6237.,8.,0.,3805.,0.,0.,10050.,0.89509184845,5.81809701493,104.
9.9,6242.,7.,3.,3796.,0.,0.,10048.,0.89598772048,6.65590878071,91.
9.92,6256.,8.,0.,3791.,0.,0.,10055.,0.897372145507,5.8329189458,104.
9.94,6263.,7.,1.,3785.,0.,0.,10056.,0.898286901046,6.67298840777,91.
9.96,6271.,5.,4.,3777.,0.,0.,10057.,0.899344887985,9.35318683504,65.
9.98,6280.,5.,0.,3771.,0.,0.,10056.,0.900725169818,9.36754176611,65.
10.,6289.,3.,2.,3759.,0.,0.,10053.,0.902285196153,15.6396100666,39.
