t,neff
5.,0.106581333333
5.02,0.127757188498
5.04,0.10635579687
5.06,0.0850082442424
5.08,0.0636862244897
5.1,0.0212164674635
5.12,0.0423898970604
5.14,0.0423242756502
5.16,0.0211356299942
5.18,0.0634068899825
5.2,0.0633841269842
5.22,0.105552030457
5.24,0.0843359746435
5.26,0.126313123318
5.28,0.0630693851746
5.3,0.147037212485
5.32,0.146887417218
5.34,0.125856579984
5.36,0.167631040453
5.38,0.188379993709
5.4,0.0836144704464
5.42,0.0835179084964
5.44,0.0208598443295
5.46,0.0416959064327
5.48,0.0416786720953
5.5,0.0416591015809
5.52,0.124932707355
5.54,0.0831843284359
5.56,0.166281370405
5.58,0.207905014841
5.6,0.270475892624
5.62,0.291236189285
5.64,0.290814074537
5.66,0.311555277951
5.68,0.311503043546
5.7,0.332058838817
5.72,0.269512688775
5.74,0.227978210117
5.76,0.207197676831
5.78,0.269288121533
5.8,0.289912403463
5.82,0.289938338774
5.84,0.207022995649
5.86,0.186176059618
5.88,0.227515527951
5.9,0.24807202732
5.92,0.165286179618
5.94,0.330499664135
5.96,0.247822718115
5.98,0.289229179583
6.,0.39258226148
6.02,0.268220124813
6.04,0.288826291079
6.06,0.20617303035
6.08,0.24757191463
6.1,0.330366243681
6.12,0.433898095091
6.14,0.330489907594
6.16,0.372031613204
6.18,0.165210300872
6.2,0.206450946999
6.22,0.226955490226
6.24,0.144217518925
6.26,0.102933004014
6.28,0.061705474171
6.3,0.0616014782878
6.32,0.102696040672
6.34,0.225826917154
6.36,0.143641680776
6.38,0.16401927612
6.4,0.163884449908
6.42,0.0819164619165
6.44,0.204791154791
6.46,0.225329031598
6.48,0.22541205412
6.5,0.0818798955612
6.52,0.163700747109
6.54,0.102234494043
6.56,0.122562059454
6.58,0.142944359367
6.6,0.20402958429
6.62,0.183663351186
6.64,0.163196738022
6.66,0.183568261734
6.68,0.244645476772
6.7,0.346564776607
6.72,0.305465648855
6.74,0.346407905461
6.76,0.428353733171
6.78,0.592774285861
6.8,0.531314741037
6.82,0.429115979776
6.84,0.511977886977
6.86,0.471624378491
6.88,0.554127423821
6.9,0.452133723617
6.92,0.617906761346
6.94,0.721703749486
6.96,0.577950937952
6.98,0.620130071231
7.,0.559069334575
7.02,0.5801676498
7.04,0.394008491249
7.06,0.727386882524
7.08,0.665490990287
7.1,0.478124902664
7.12,0.541477320018
7.14,0.521739130434
7.16,0.501361715448
7.18,0.354873559623
7.2,0.375924882629
7.22,0.544016718914
7.24,0.586750379323
7.26,0.377202072539
7.28,0.419646694973
7.3,0.35688322584
7.32,0.378070810386
7.34,0.525368592266
7.36,0.420180406965
7.38,0.525390829922
7.4,0.294450569644
7.42,0.442105263159
7.44,0.548068181817
7.46,0.527155036311
7.48,0.506241515392
7.5,0.61281864684
7.52,0.591770536748
7.54,0.528199451823
7.56,0.592169647095
7.58,0.614106831509
7.6,0.338670468346
7.62,0.445105438402
7.64,0.466613748214
7.66,0.445766052129
7.68,0.616746259153
7.7,0.574795219123
7.72,0.747173831975
7.74,0.920677241897
7.76,0.965104333866
7.78,0.880872594738
7.8,0.925777204858
7.82,0.840522664946
7.84,0.646411869052
7.86,0.690524501883
7.88,0.496364028003
7.9,0.605382540196
7.92,0.540836707153
7.94,0.650227125242
7.96,0.586038349042
7.98,0.783194919391
8.,0.762059973926
8.02,0.740454298447
8.04,0.50167701187
8.06,0.633250463416
8.08,0.545692332842
8.1,0.589615573368
8.12,0.568185985594
8.14,0.590312755853
8.16,0.524999180999
8.18,0.437786155276
8.2,0.48172268678
8.22,0.437786155276
8.24,0.372481943532
8.26,0.37276390714
8.28,0.394911242603
8.3,0.351263157895
8.32,0.263281815192
8.34,0.2412312411
8.36,0.439151176179
8.38,0.461214415008
8.4,0.351378743007
8.42,0.373131645292
8.44,0.24112953538
8.46,0.372798685292
8.48,0.394364532019
8.5,0.306546309973
8.52,0.196910969011
8.54,0.218889800383
8.56,0.17485995086
8.58,0.131024549918
8.6,0.240102497001
8.62,0.196504663721
8.64,0.240087217225
8.66,0.109034471492
8.68,0.152633012035
8.7,0.196397515528
8.72,0.261744527932
8.74,0.327275698644
8.76,0.305468409586
8.78,0.239806226867
8.8,0.261642448979
8.82,0.327430158471
8.84,0.327248979592
8.86,0.283374123022
8.88,0.283356171833
8.9,0.348926258503
8.92,0.392795031056
8.94,0.436966721221
8.96,0.349643207857
8.98,0.437097654119
9.,0.392887726752
9.02,0.349220878283
9.04,0.327053061224
9.06,0.239502146856
9.08,0.195779189057
9.1,0.326466753586
9.12,0.391784841075
9.14,0.304641460234
9.16,0.348300738809
9.18,0.436015450737
9.2,0.283284425606
9.22,0.261526418787
9.24,0.436347807161
9.26,0.43641904762
9.28,0.502620449096
9.3,0.349258835703
9.32,0.37125606234
9.34,0.415299187259
9.36,0.4376146789
9.38,0.4376146789
9.4,0.459721357155
9.42,0.547556575928
9.44,0.569739130435
9.46,0.350136567246
9.48,0.459662461085
9.5,0.525395836749
9.52,0.371861074705
9.54,0.415677535637
9.56,0.34965001365
9.58,0.327326246933
9.6,0.305246651421
9.62,0.239391370503
9.64,0.282891749497
9.66,0.195727775969
9.68,0.260826553856
9.7,0.217178778518
9.72,0.238601277471
9.74,0.260217497159
9.76,0.368604663745
9.78,0.325292207793
9.8,0.194883268482
9.82,0.194902723735
9.84,0.325068959922
9.86,0.34670560874
9.88,0.36847127556
9.9,0.325036508194
9.92,0.367979683363
9.94,0.498289793931
9.96,0.390107108082
9.98,0.346965416463
10.,0.433804341941
