t,cases
5.01,0.65
5.02,0.65
5.03,0.65
5.04,0.65
5.05,1.17
5.06,1.17
5.07,1.495
5.08,1.495
5.09,1.365
5.1,1.365
5.11,1.235
5.12,1.235
5.13,1.235
5.14,1.235
5.15,1.56
5.16,1.56
5.17,1.755
5.18,1.755
5.19,1.625
5.2,1.625
5.21,1.495
5.22,1.495
5.23,1.95
5.24,1.95
5.25,2.34
5.26,2.34
5.27,1.885
5.28,1.885
5.29,1.56
5.3,1.56
5.31,1.82
5.32,1.82
5.33,2.21
5.34,2.21
5.35,2.47
5.36,2.47
5.37,2.665
5.38,2.665
5.39,2.73
5.4,2.73
5.41,2.275
5.42,2.275
5.43,2.08
5.44,2.08
5.45,2.275
5.46,2.275
5.47,1.69
5.48,1.69
5.49,1.3
5.5,1.3
5.51,1.69
5.52,1.69
5.53,1.885
5.54,1.885
5.55,2.145
5.56,2.145
5.57,2.405
5.58,2.405
5.59,2.08
5.6,2.08
5.61,2.145
5.62,2.145
5.63,2.535
5.64,2.535
5.65,2.08
5.66,2.08
5.67,1.82
5.68,1.82
5.69,2.08
5.7,2.08
5.71,2.08
5.72,2.08
5.73,2.015
5.74,2.015
5.75,1.56
5.76,1.56
5.77,1.3
5.78,1.3
5.79,1.365
5.8,1.365
5.81,1.3
5.82,1.3
5.83,1.3
5.84,1.3
5.85,1.43
5.86,1.43
5.87,2.015
5.88,2.015
5.89,2.405
5.9,2.405
5.91,3.12
5.92,3.12
5.93,3.25
5.94,3.25
5.95,2.795
5.96,2.795
5.97,2.925
5.98,2.925
5.99,2.795
6.,2.795
6.01,2.99
6.02,2.99
6.03,2.925
6.04,2.925
6.05,2.405
6.06,2.405
6.07,2.795
6.08,2.795
6.09,3.055
6.1,3.055
6.11,3.38
6.12,3.38
6.13,3.835
6.14,3.835
6.15,3.445
6.16,3.445
6.17,3.185
6.18,3.185
6.19,2.99
6.2,2.99
6.21,2.6
6.22,2.6
6.23,2.47
6.24,2.47
6.25,2.665
6.26,2.665
6.27,2.99
6.28,2.99
6.29,3.445
6.3,3.445
6.31,3.51
6.32,3.51
6.33,2.99
6.34,2.99
6.35,2.535
6.36,2.535
6.37,1.82
6.38,1.82
6.39,1.56
6.4,1.56
6.41,1.82
6.42,1.82
6.43,1.95
6.44,1.95
6.45,2.535
6.46,2.535
6.47,2.34
6.48,2.34
6.49,1.625
6.5,1.625
6.51,1.885
6.52,1.885
6.53,2.535
6.54,2.535
6.55,2.795
6.56,2.795
6.57,2.795
6.58,2.795
6.59,2.34
6.6,2.34
6.61,1.82
6.62,1.82
6.63,1.82
6.64,1.82
6.65,2.015
6.66,2.015
6.67,1.95
6.68,1.95
6.69,1.43
6.7,1.43
6.71,1.04
6.72,1.04
6.73,0.91
6.74,0.91
6.75,0.845
6.76,0.845
6.77,0.78
6.78,0.78
6.79,0.65
6.8,0.65
6.81,0.975
6.82,0.975
6.83,1.17
6.84,1.17
6.85,1.235
6.86,1.235
6.87,1.43
6.88,1.43
6.89,1.235
6.9,1.235
6.91,1.04
6.92,1.04
6.93,1.17
6.94,1.17
6.95,1.43
6.96,1.43
6.97,1.495
6.98,1.495
6.99,1.69
7.,1.69
7.01,1.495
7.02,1.495
7.03,1.495
7.04,1.495
7.05,1.95
7.06,1.95
7.07,2.275
7.08,2.275
7.09,2.21
7.1,2.21
7.11,1.56
7.12,1.56
7.13,1.3
7.14,1.3
7.15,1.69
7.16,1.69
7.17,1.885
7.18,1.885
7.19,1.625
7.2,1.625
7.21,2.21
7.22,2.21
7.23,3.25
7.24,3.25
7.25,3.445
7.26,3.445
7.27,2.86
7.28,2.86
7.29,2.925
7.3,2.925
7.31,3.315
7.32,3.315
7.33,2.86
7.34,2.86
7.35,2.73
7.36,2.73
7.37,2.795
7.38,2.795
7.39,2.795
7.4,2.795
7.41,3.055
7.42,3.055
7.43,3.315
7.44,3.315
7.45,3.315
7.46,3.315
7.47,3.185
7.48,3.185
7.49,3.445
7.5,3.445
7.51,3.575
7.52,3.575
7.53,3.055
7.54,3.055
7.55,3.055
7.56,3.055
7.57,3.185
7.58,3.185
7.59,2.34
7.6,2.34
7.61,2.535
7.62,2.535
7.63,3.185
7.64,3.185
7.65,3.055
7.66,3.055
7.67,3.055
7.68,3.055
7.69,3.12
7.7,3.12
7.71,3.055
7.72,3.055
7.73,2.795
7.74,2.795
7.75,2.73
7.76,2.73
7.77,2.86
7.78,2.86
7.79,3.12
7.8,3.12
7.81,3.315
7.82,3.315
7.83,3.51
7.84,3.51
7.85,3.64
7.86,3.64
7.87,3.575
7.88,3.575
7.89,3.835
7.9,3.835
7.91,3.64
7.92,3.64
7.93,3.965
7.94,3.965
7.95,4.55
7.96,4.55
7.97,3.965
7.98,3.965
7.99,3.185
8.,3.185
8.01,3.25
8.02,3.25
8.03,3.51
8.04,3.51
8.05,2.99
8.06,2.99
8.07,2.34
8.08,2.34
8.09,2.34
8.1,2.34
8.11,2.6
8.12,2.6
8.13,2.145
8.14,2.145
8.15,2.665
8.16,2.665
8.17,2.925
8.18,2.925
8.19,2.47
8.2,2.47
8.21,2.275
8.22,2.275
8.23,2.21
8.24,2.21
8.25,2.405
8.26,2.405
8.27,2.6
8.28,2.6
8.29,2.535
8.3,2.535
8.31,2.015
8.32,2.015
8.33,2.275
8.34,2.275
8.35,2.535
8.36,2.535
8.37,2.08
8.38,2.08
8.39,1.755
8.4,1.755
8.41,1.69
8.42,1.69
8.43,1.755
8.44,1.755
8.45,2.145
8.46,2.145
8.47,2.665
8.48,2.665
8.49,2.6
8.5,2.6
8.51,2.6
8.52,2.6
8.53,2.535
8.54,2.535
8.55,2.145
8.56,2.145
8.57,2.405
8.58,2.405
8.59,2.99
8.6,2.99
8.61,3.25
8.62,3.25
8.63,2.86
8.64,2.86
8.65,1.885
8.66,1.885
8.67,1.495
8.68,1.495
8.69,1.56
8.7,1.56
8.71,1.43
8.72,1.43
8.73,1.625
8.74,1.625
8.75,1.885
8.76,1.885
8.77,2.145
8.78,2.145
8.79,2.34
8.8,2.34
8.81,2.47
8.82,2.47
8.83,2.145
8.84,2.145
8.85,1.82
8.86,1.82
8.87,1.69
8.88,1.69
8.89,1.56
8.9,1.56
8.91,1.69
8.92,1.69
8.93,2.21
8.94,2.21
8.95,2.535
8.96,2.535
8.97,2.405
8.98,2.405
8.99,2.275
9.,2.275
9.01,2.21
9.02,2.21
9.03,2.405
9.04,2.405
9.05,2.535
9.06,2.535
9.07,2.47
9.08,2.47
9.09,2.86
9.1,2.86
9.11,3.055
9.12,3.055
9.13,2.925
9.14,2.925
9.15,3.055
9.16,3.055
9.17,2.795
9.18,2.795
9.19,1.95
9.2,1.95
9.21,1.625
9.22,1.625
9.23,2.08
9.24,2.08
9.25,1.95
9.26,1.95
9.27,2.145
9.28,2.145
9.29,2.535
9.3,2.535
9.31,2.47
9.32,2.47
9.33,2.34
9.34,2.34
9.35,2.34
9.36,2.34
9.37,2.47
9.38,2.47
9.39,2.275
9.4,2.275
9.41,2.08
9.42,2.08
9.43,2.34
9.44,2.34
9.45,2.86
9.46,2.86
9.47,2.795
9.48,2.795
9.49,2.405
9.5,2.405
9.51,2.275
9.52,2.275
9.53,1.95
9.54,1.95
9.55,1.625
9.56,1.625
9.57,1.885
9.58,1.885
9.59,1.69
9.6,1.69
9.61,1.235
9.62,1.235
9.63,1.495
9.64,1.495
9.65,1.755
9.66,1.755
9.67,1.755
9.68,1.755
9.69,1.69
9.7,1.69
9.71,1.69
9.72,1.69
9.73,1.17
9.74,1.17
9.75,0.845
9.76,0.845
9.77,0.845
9.78,0.845
9.79,0.845
9.8,0.845
9.81,1.17
9.82,1.17
9.83,1.3
9.84,1.3
9.85,1.3
9.86,1.3
9.87,1.17
9.88,1.17
9.89,1.43
9.9,1.43
9.91,1.43
9.92,1.43
9.93,1.17
9.94,1.17
9.95,1.3
9.96,1.3
9.97,1.3
9.98,1.3
9.99,1.04
10.,1.04
