t,s,e,i,r,c,o,n,reff,coal,reportr
5.,6250.,5.,3.,3734.,0.,0.,9992.,0.902164038923,9.3825060048,65.
5.02,6256.,5.,3.,3729.,0.,0.,9993.,0.902939750133,9.39057340138,65.
5.04,6260.,5.,2.,3725.,0.,0.,9992.,0.903607501386,9.39751801441,65.
5.06,6258.,4.,5.,3722.,0.,0.,9989.,0.903590102959,11.7466713385,52.
5.08,6261.,7.,3.,3718.,0.,0.,9989.,0.904023271753,6.71560144731,91.
5.1,6266.,4.,4.,3714.,0.,0.,9988.,0.904835802964,11.7628654385,52.
5.12,6271.,5.,4.,3709.,0.,0.,9989.,0.905467167731,9.4168585444,65.
5.14,6270.,9.,5.,3704.,0.,0.,9988.,0.90541341918,5.23127753304,117.
5.16,6268.,13.,2.,3705.,0.,0.,9988.,0.905124611072,3.62049844429,169.
5.18,6270.,15.,1.,3701.,0.,0.,9987.,0.905504078379,3.13908080505,195.
5.2,6277.,13.,3.,3696.,0.,0.,9989.,0.906333505317,3.62533402127,169.
5.22,6284.,8.,5.,3692.,0.,0.,9989.,0.907344232502,5.89773751126,104.
5.24,6284.,13.,6.,3687.,0.,0.,9990.,0.907253407253,3.62901362901,169.
5.26,6283.,15.,5.,3685.,0.,0.,9988.,0.907290671883,3.1452743292,195.
5.28,6277.,14.,4.,3689.,0.,0.,9984.,0.906787398299,3.3680674794,182.
5.3,6274.,11.,7.,3689.,0.,0.,9981.,0.906626436383,4.28587042654,143.
5.32,6284.,12.,9.,3678.,0.,0.,9983.,0.907889566109,3.9341881198,156.
5.34,6291.,12.,2.,3683.,0.,0.,9988.,0.908445904316,3.9365989187,156.
5.36,6298.,9.,3.,3675.,0.,0.,9985.,0.909729979585,5.25621765982,117.
5.38,6301.,8.,2.,3673.,0.,0.,9984.,0.910254484098,5.91665414663,104.
5.4,6306.,10.,0.,3671.,0.,0.,9987.,0.910703144858,4.73565635326,130.
5.42,6316.,8.,2.,3664.,0.,0.,9990.,0.911873411873,5.92717717718,104.
5.44,6319.,6.,4.,3654.,0.,0.,9983.,0.912946239376,7.91220074126,78.
5.46,6318.,7.,1.,3654.,0.,0.,9980.,0.913076152305,6.78285141712,91.
5.48,6327.,6.,2.,3645.,0.,0.,9980.,0.914376830584,7.9245991984,78.
5.5,6332.,5.,6.,3638.,0.,0.,9981.,0.915007745486,9.51608055305,65.
5.52,6337.,6.,2.,3637.,0.,0.,9982.,0.915638533977,7.93553396113,78.
5.54,6345.,4.,3.,3631.,0.,0.,9983.,0.916702625232,11.917134128,52.
5.56,6347.,6.,4.,3625.,0.,0.,9982.,0.917083442504,7.9480565017,78.
5.58,6355.,5.,5.,3615.,0.,0.,9980.,0.918423385232,9.55160320641,65.
5.6,6353.,10.,5.,3612.,0.,0.,9980.,0.918134345614,4.77429859719,130.
5.62,6359.,0.,9.,3616.,0.,0.,9984.,0.918633274778,inf,0.
5.64,6360.,8.,5.,3613.,0.,0.,9986.,0.918593723521,5.97085920288,104.
5.66,6372.,9.,7.,3603.,0.,0.,9991.,0.919866341246,5.31478330497,117.
5.68,6371.,12.,9.,3599.,0.,0.,9991.,0.919721980552,3.98546191572,156.
5.7,6366.,20.,7.,3601.,0.,0.,9994.,0.91872431151,2.38868320993,260.
5.72,6364.,20.,16.,3595.,0.,0.,9995.,0.918343787278,2.38769384692,260.
5.74,6358.,24.,14.,3600.,0.,0.,9996.,0.917386185243,1.98767006803,312.
5.76,6342.,33.,18.,3605.,0.,0.,9998.,0.914894517365,1.44165196676,429.
5.78,6318.,45.,18.,3620.,0.,0.,10001.,0.911158884112,1.05289471053,585.
5.8,6308.,36.,21.,3634.,0.,0.,9999.,0.909898682176,1.31429809648,468.
5.82,6292.,42.,15.,3649.,0.,0.,9998.,0.907681536307,1.12379618781,546.
5.84,6290.,36.,14.,3661.,0.,0.,10001.,0.907120826379,1.3102856381,468.
5.86,6282.,35.,16.,3669.,0.,0.,10002.,0.905876517004,1.34587368241,455.
5.88,6272.,30.,23.,3674.,0.,0.,9999.,0.904705855201,1.56815681568,390.
5.9,6263.,39.,13.,3684.,0.,0.,9999.,0.903407648457,1.20454353128,507.
5.92,6259.,35.,11.,3691.,0.,0.,9996.,0.903101625265,1.34175098611,455.
5.94,6259.,33.,10.,3694.,0.,0.,9996.,0.903101625265,1.42306922769,429.
5.96,6262.,24.,21.,3689.,0.,0.,9996.,0.903534490719,1.95765806323,312.
5.98,6252.,25.,14.,3704.,0.,0.,9995.,0.902181860161,1.87653826913,325.
6.,6252.,25.,16.,3704.,0.,0.,9997.,0.902001369642,1.87616284885,325.
6.02,6238.,31.,9.,3719.,0.,0.,9997.,0.899981532921,1.50964644232,403.
6.04,6239.,22.,16.,3722.,0.,0.,9999.,0.899945763807,2.12714453264,286.
6.06,6225.,24.,12.,3736.,0.,0.,9997.,0.898105970253,1.94589626888,312.
6.08,6221.,26.,12.,3738.,0.,0.,9997.,0.897528874047,1.79505774809,338.
6.1,6217.,23.,12.,3743.,0.,0.,9995.,0.897131257937,2.02829675707,299.
6.12,6213.,21.,17.,3744.,0.,0.,9995.,0.896554046254,2.22003859072,273.
6.14,6208.,19.,13.,3756.,0.,0.,9996.,0.89574291255,2.45150691856,247.
6.16,6200.,26.,8.,3758.,0.,0.,9992.,0.894946726612,1.78989345322,338.
6.18,6201.,21.,14.,3756.,0.,0.,9992.,0.895091072858,2.21641598993,273.
6.2,6200.,24.,9.,3759.,0.,0.,9992.,0.894946726612,1.93905124099,312.
6.22,6199.,25.,13.,3756.,0.,0.,9993.,0.894712837448,1.86100270189,325.
6.24,6191.,26.,9.,3767.,0.,0.,9993.,0.893558183036,1.78711636607,338.
6.26,6191.,21.,9.,3767.,0.,0.,9988.,0.894005498906,2.21372790205,273.
6.28,6202.,19.,2.,3768.,0.,0.,9991.,0.89532502329,2.45036322164,247.
6.3,6210.,19.,1.,3761.,0.,0.,9991.,0.896479908841,2.45352396104,247.
6.32,6217.,13.,6.,3757.,0.,0.,9993.,0.897310809875,3.5892432395,169.
6.34,6209.,19.,8.,3757.,0.,0.,9993.,0.896156155463,2.45263789916,247.
6.36,6202.,23.,8.,3759.,0.,0.,9992.,0.895235419105,2.02401051276,299.
6.38,6209.,16.,9.,3755.,0.,0.,9989.,0.896515012668,2.91367379117,208.
6.4,6214.,13.,7.,3756.,0.,0.,9990.,0.897147147147,3.58858858859,169.
6.42,6210.,16.,9.,3754.,0.,0.,9989.,0.896659402266,2.91414305736,208.
6.44,6213.,13.,11.,3751.,0.,0.,9988.,0.897182388096,3.58872955239,169.
6.46,6211.,17.,7.,3752.,0.,0.,9987.,0.896983386094,2.74371388688,221.
6.48,6217.,21.,8.,3741.,0.,0.,9987.,0.897849897174,2.22324736443,273.
6.5,6211.,23.,12.,3735.,0.,0.,9981.,0.897522600634,2.02918153187,299.
6.52,6209.,22.,9.,3744.,0.,0.,9984.,0.896963988536,2.12009670017,286.
6.54,6208.,18.,10.,3747.,0.,0.,9983.,0.896909361299,2.5910714882,234.
6.56,6206.,16.,2.,3757.,0.,0.,9981.,0.896800073987,2.91460024046,208.
6.58,6214.,10.,7.,3750.,0.,0.,9981.,0.897956116622,4.66937180643,130.
6.6,6213.,13.,7.,3748.,0.,0.,9981.,0.897811611292,3.59124644517,169.
6.62,6212.,16.,6.,3744.,0.,0.,9978.,0.897936999861,2.91829524955,208.
6.64,6216.,14.,6.,3744.,0.,0.,9980.,0.898335131802,3.33667334669,182.
6.66,6212.,12.,13.,3740.,0.,0.,9977.,0.898027000563,3.89145033577,156.
6.68,6214.,18.,5.,3744.,0.,0.,9981.,0.897956116622,2.59409544802,234.
6.7,6214.,17.,5.,3743.,0.,0.,9979.,0.89813608578,2.7472397918,221.
6.72,6219.,13.,9.,3739.,0.,0.,9980.,0.898768691229,3.59507476491,169.
6.74,6218.,12.,7.,3747.,0.,0.,9984.,0.89826414571,3.89247796474,156.
6.76,6224.,7.,7.,3746.,0.,0.,9984.,0.89913091716,6.67925824176,91.
6.78,6221.,12.,5.,3745.,0.,0.,9983.,0.898787554227,3.89474606832,156.
6.8,6222.,11.,6.,3745.,0.,0.,9984.,0.898841993343,4.24907124126,143.
6.82,6228.,8.,6.,3745.,0.,0.,9987.,0.89943850082,5.84635025533,104.
6.84,6229.,10.,3.,3747.,0.,0.,9989.,0.899402804624,4.67689458404,130.
6.86,6231.,13.,5.,3743.,0.,0.,9992.,0.899421460245,3.59768584098,169.
6.88,6233.,16.,3.,3738.,0.,0.,9990.,0.89989027489,2.92464339339,208.
6.9,6238.,13.,6.,3734.,0.,0.,9991.,0.900522008269,3.60208803308,169.
6.92,6235.,14.,14.,3732.,0.,0.,9995.,0.899728710509,3.34184949618,182.
6.94,6237.,16.,6.,3737.,0.,0.,9996.,0.899927278604,2.92476365546,208.
6.96,6237.,17.,7.,3732.,0.,0.,9993.,0.900197445904,2.75354512865,221.
6.98,6236.,15.,10.,3730.,0.,0.,9991.,0.900233286881,3.12080872786,195.
7.,6236.,12.,5.,3738.,0.,0.,9991.,0.900233286881,3.90101090982,156.
7.02,6237.,9.,6.,3739.,0.,0.,9991.,0.900377647575,5.20218196377,117.
7.04,6237.,10.,0.,3742.,0.,0.,9989.,0.900557921406,4.68290119131,130.
7.06,6249.,5.,4.,3734.,0.,0.,9992.,0.902019692677,9.38100480384,65.
7.08,6258.,4.,4.,3727.,0.,0.,9993.,0.903228413736,11.7419693786,52.
7.1,6260.,7.,3.,3720.,0.,0.,9990.,0.903788403788,6.71385671386,91.
7.12,6261.,5.,6.,3719.,0.,0.,9991.,0.903842304228,9.39995996397,65.
7.14,6261.,9.,4.,3719.,0.,0.,9993.,0.90366140914,5.22115480837,117.
7.16,6259.,14.,6.,3716.,0.,0.,9995.,0.903191980606,3.35471307082,182.
7.18,6255.,18.,6.,3716.,0.,0.,9995.,0.902614768923,2.60755377689,234.
7.2,6255.,12.,16.,3713.,0.,0.,9996.,0.902524471327,3.91093937575,156.
7.22,6246.,16.,12.,3715.,0.,0.,9989.,0.901857427786,2.9310366403,208.
7.24,6234.,25.,9.,3720.,0.,0.,9988.,0.900214873232,1.87244693632,325.
7.26,6229.,18.,12.,3730.,0.,0.,9989.,0.899402804624,2.59827476891,234.
7.28,6232.,18.,6.,3730.,0.,0.,9986.,0.90010630267,2.6003070966,234.
7.3,6230.,20.,9.,3727.,0.,0.,9986.,0.899817436719,2.33952533547,260.
7.32,6232.,20.,6.,3728.,0.,0.,9986.,0.90010630267,2.34027638694,260.
7.34,6230.,19.,11.,3725.,0.,0.,9985.,0.899907553638,2.46290488364,247.
7.36,6227.,21.,8.,3733.,0.,0.,9989.,0.899114025428,2.22637758677,273.
7.38,6218.,22.,12.,3733.,0.,0.,9985.,0.898174184353,2.12295716302,286.
7.4,6214.,28.,14.,3729.,0.,0.,9985.,0.897596394592,1.66696473281,364.
7.42,6205.,27.,19.,3730.,0.,0.,9981.,0.896655568657,1.7268922063,351.
7.44,6203.,25.,14.,3738.,0.,0.,9980.,0.896456374287,1.86462925852,325.
7.46,6195.,29.,13.,3744.,0.,0.,9981.,0.895210515364,1.60520506203,377.
7.48,6186.,26.,16.,3751.,0.,0.,9979.,0.894089125625,1.78817825125,338.
7.5,6175.,34.,8.,3765.,0.,0.,9982.,0.892231015828,1.36458861244,442.
7.52,6168.,38.,8.,3768.,0.,0.,9982.,0.891219579859,1.2195636356,494.
7.54,6171.,37.,10.,3765.,0.,0.,9983.,0.891563735273,1.25300849282,481.
7.56,6174.,31.,17.,3761.,0.,0.,9983.,0.89199716441,1.49625330804,403.
7.58,6165.,38.,16.,3764.,0.,0.,9983.,0.890696876999,1.218848358,494.
7.6,6153.,29.,25.,3776.,0.,0.,9983.,0.88896316045,1.59400290839,377.
7.62,6138.,33.,13.,3796.,0.,0.,9980.,0.887062586712,1.39779559118,429.
7.64,6131.,27.,13.,3809.,0.,0.,9980.,0.88605094805,1.70646849254,351.
7.66,6120.,29.,10.,3821.,0.,0.,9980.,0.884461230153,1.58593048165,377.
7.68,6119.,18.,13.,3831.,0.,0.,9981.,0.884228110333,2.55443676318,234.
7.7,6113.,27.,9.,3832.,0.,0.,9981.,0.883361078357,1.70128800276,351.
7.72,6110.,26.,15.,3832.,0.,0.,9983.,0.882750676149,1.7655013523,338.
7.74,6100.,24.,16.,3845.,0.,0.,9985.,0.881129386387,1.90911367051,312.
7.76,6096.,24.,11.,3854.,0.,0.,9985.,0.880551596626,1.90786179269,312.
7.78,6086.,25.,16.,3858.,0.,0.,9985.,0.879107122222,1.82854281422,325.
7.8,6075.,30.,11.,3868.,0.,0.,9984.,0.877606092825,1.52118389423,390.
7.82,6076.,22.,10.,3876.,0.,0.,9984.,0.877750554734,2.07468312937,286.
7.84,6075.,15.,19.,3871.,0.,0.,9980.,0.877957838754,3.04358717435,195.
7.86,6064.,24.,6.,3890.,0.,0.,9984.,0.876017011834,1.89803685897,312.
7.88,6060.,20.,11.,3890.,0.,0.,9981.,0.875702295901,2.27682596934,260.
7.9,6059.,16.,12.,3892.,0.,0.,9979.,0.875733270638,2.84613312957,208.
7.92,6057.,21.,9.,3890.,0.,0.,9977.,0.875619694528,2.16820114836,273.
7.94,6056.,21.,2.,3897.,0.,0.,9976.,0.875562889396,2.16806048803,273.
7.96,6060.,15.,7.,3894.,0.,0.,9976.,0.876141200419,3.03728949479,195.
7.98,6060.,13.,6.,3895.,0.,0.,9974.,0.876316885441,3.50526754176,169.
8.,6065.,13.,7.,3890.,0.,0.,9975.,0.876951995373,3.50780798149,169.
8.02,6080.,14.,7.,3876.,0.,0.,9977.,0.878944649617,3.26465155572,182.
8.04,6089.,7.,6.,3875.,0.,0.,9977.,0.880245719,6.53896819828,91.
8.06,6090.,13.,4.,3872.,0.,0.,9979.,0.880213833666,3.52085533466,169.
8.08,6091.,13.,4.,3873.,0.,0.,9981.,0.880181961111,3.52072784444,169.
8.1,6094.,12.,4.,3873.,0.,0.,9983.,0.880439054084,3.81523590103,156.
8.12,6101.,11.,6.,3868.,0.,0.,9986.,0.881185582893,4.16560457368,143.
8.14,6103.,13.,4.,3865.,0.,0.,9985.,0.881562728708,3.52625091483,169.
8.16,6097.,12.,7.,3864.,0.,0.,9980.,0.881137274549,3.81826152305,156.
8.18,6092.,16.,7.,3862.,0.,0.,9977.,0.880679408794,2.86220807858,208.
8.2,6098.,13.,14.,3850.,0.,0.,9975.,0.881723539618,3.52689415847,169.
8.22,6093.,9.,9.,3863.,0.,0.,9974.,0.881088908084,5.09073591337,117.
8.24,6092.,16.,10.,3857.,0.,0.,9975.,0.880855986119,2.86278195489,208.
8.26,6097.,14.,2.,3864.,0.,0.,9977.,0.881402225118,3.27377969329,182.
8.28,6104.,10.,9.,3851.,0.,0.,9974.,0.882679582299,4.58993382795,130.
8.3,6104.,14.,9.,3849.,0.,0.,9976.,0.882502621677,3.27786688051,182.
8.32,6107.,14.,6.,3849.,0.,0.,9976.,0.882936354944,3.27947788979,182.
8.34,6111.,15.,6.,3846.,0.,0.,9978.,0.883337573431,3.06223692123,195.
8.36,6114.,12.,10.,3842.,0.,0.,9978.,0.88377121976,3.82967528563,156.
8.38,6125.,13.,5.,3840.,0.,0.,9983.,0.884917821836,3.53967128734,169.
8.4,6129.,8.,11.,3838.,0.,0.,9986.,0.885229706204,5.75399309033,104.
8.42,6123.,11.,12.,3839.,0.,0.,9985.,0.884451677516,4.18104429371,143.
8.44,6114.,14.,13.,3842.,0.,0.,9983.,0.883328581666,3.2809347319,182.
8.46,6122.,16.,6.,3841.,0.,0.,9985.,0.884307230076,2.87399849775,208.
8.48,6120.,15.,8.,3840.,0.,0.,9983.,0.88419543994,3.06521085846,195.
8.5,6124.,15.,7.,3837.,0.,0.,9983.,0.884773345457,3.06721426425,195.
8.52,6129.,12.,10.,3830.,0.,0.,9981.,0.885673163626,3.83791704238,156.
8.54,6125.,14.,3.,3836.,0.,0.,9978.,0.885361256302,3.28848466627,182.
8.56,6121.,13.,8.,3836.,0.,0.,9978.,0.884783061196,3.53913224478,169.
8.58,6124.,16.,5.,3832.,0.,0.,9977.,0.885305433266,2.87724265811,208.
8.6,6129.,15.,7.,3825.,0.,0.,9976.,0.886117065573,3.07187249399,195.
8.62,6130.,15.,3.,3827.,0.,0.,9975.,0.886350491614,3.07268170426,195.
8.64,6136.,13.,2.,3825.,0.,0.,9976.,0.887129109864,3.54851643945,169.
8.66,6148.,8.,4.,3817.,0.,0.,9977.,0.888774951619,5.77703718553,104.
8.68,6152.,8.,3.,3817.,0.,0.,9980.,0.889085864036,5.77905811623,104.
8.7,6156.,6.,6.,3811.,0.,0.,9979.,0.889753096888,7.71119350636,78.
8.72,6158.,8.,4.,3808.,0.,0.,9978.,0.890131365928,5.78585387853,104.
8.74,6163.,7.,7.,3803.,0.,0.,9980.,0.890675581933,6.61644718007,91.
8.76,6167.,9.,10.,3793.,0.,0.,9979.,0.891342974092,5.14998162809,117.
8.78,6164.,14.,6.,3791.,0.,0.,9975.,0.891266628109,3.3104189044,182.
8.8,6165.,12.,10.,3789.,0.,0.,9976.,0.891321864783,3.86239474739,156.
8.82,6157.,16.,11.,3792.,0.,0.,9976.,0.890165242736,2.89303703889,208.
8.84,6158.,21.,8.,3788.,0.,0.,9975.,0.89039907461,2.20479770856,273.
8.86,6159.,22.,8.,3787.,0.,0.,9976.,0.890454398248,2.10471039586,286.
8.88,6154.,19.,12.,3790.,0.,0.,9975.,0.88982070561,2.43529877325,247.
8.9,6151.,19.,7.,3796.,0.,0.,9973.,0.889565287816,2.43459973507,247.
8.92,6140.,25.,8.,3802.,0.,0.,9975.,0.887796414112,1.84661654135,325.
8.94,6133.,19.,11.,3810.,0.,0.,9973.,0.886962105377,2.42747523577,247.
8.96,6130.,18.,10.,3813.,0.,0.,9971.,0.886706062967,2.56159529302,234.
8.98,6142.,16.,7.,3810.,0.,0.,9975.,0.888085598612,2.88627819549,208.
9.,6148.,17.,2.,3807.,0.,0.,9974.,0.889042279157,2.71942344213,221.
9.02,6155.,14.,6.,3798.,0.,0.,9973.,0.890143772802,3.30624829898,182.
9.04,6153.,17.,7.,3796.,0.,0.,9973.,0.889854530309,2.72190797506,221.
9.06,6148.,19.,8.,3793.,0.,0.,9968.,0.889577416965,2.43463293064,247.
9.08,6154.,13.,10.,3790.,0.,0.,9967.,0.890534919079,3.56213967632,169.
9.1,6154.,15.,4.,3792.,0.,0.,9965.,0.890713651627,3.08780732564,195.
9.12,6160.,12.,9.,3784.,0.,0.,9965.,0.891582075727,3.86352232815,156.
9.14,6164.,10.,5.,3787.,0.,0.,9966.,0.892071504654,4.6387718242,130.
9.16,6168.,10.,7.,3783.,0.,0.,9968.,0.892471292752,4.64085072231,130.
9.18,6168.,8.,11.,3780.,0.,0.,9967.,0.892560835372,5.80164542992,104.
9.2,6173.,12.,5.,3776.,0.,0.,9966.,0.893374010096,3.87128737708,156.
9.22,6177.,10.,7.,3773.,0.,0.,9967.,0.893863210132,4.64808869269,130.
9.24,6172.,18.,8.,3767.,0.,0.,9965.,0.893318923926,2.58069911356,234.
9.26,6173.,16.,9.,3765.,0.,0.,9963.,0.893643017627,2.90433980729,208.
9.28,6171.,14.,7.,3770.,0.,0.,9962.,0.893443160935,3.31850316919,182.
9.3,6174.,12.,0.,3775.,0.,0.,9961.,0.893967241473,3.87385804638,156.
9.32,6180.,7.,2.,3774.,0.,0.,9963.,0.894656382461,6.64601884114,91.
9.34,6182.,10.,0.,3768.,0.,0.,9960.,0.895215477294,4.65512048193,130.
9.36,6186.,7.,4.,3760.,0.,0.,9957.,0.896064616312,6.65648000689,91.
9.38,6191.,6.,4.,3756.,0.,0.,9957.,0.896788884511,7.77217033243,78.
9.4,6192.,8.,4.,3754.,0.,0.,9958.,0.896843666476,5.82948383209,104.
9.42,6199.,5.,9.,3745.,0.,0.,9958.,0.89785754013,9.33771841735,65.
9.44,6207.,9.,5.,3739.,0.,0.,9960.,0.898835727525,5.19327309237,117.
9.46,6210.,8.,5.,3734.,0.,0.,9957.,0.899541103669,5.84701717385,104.
9.48,6210.,10.,4.,3734.,0.,0.,9958.,0.899450770158,4.67714400482,130.
9.5,6210.,11.,3.,3730.,0.,0.,9954.,0.899812213103,4.25365773467,143.
9.52,6216.,7.,5.,3725.,0.,0.,9953.,0.900772090363,6.69144981413,91.
9.54,6217.,12.,3.,3724.,0.,0.,9956.,0.900645532651,3.90279730816,156.
9.56,6229.,10.,4.,3719.,0.,0.,9962.,0.901840455268,4.6895703674,130.
9.58,6228.,13.,0.,3716.,0.,0.,9957.,0.902148469187,3.60859387675,169.
9.6,6240.,8.,4.,3708.,0.,0.,9960.,0.903614457831,5.8734939759,104.
9.62,6247.,11.,2.,3705.,0.,0.,9965.,0.904174225173,4.27427815536,143.
9.64,6253.,11.,5.,3698.,0.,0.,9967.,0.904861041437,4.27752492316,143.
9.66,6249.,13.,8.,3699.,0.,0.,9969.,0.90410078937,3.61640315748,169.
9.68,6243.,16.,8.,3700.,0.,0.,9967.,0.90341395837,2.9360953647,208.
9.7,6247.,10.,12.,3696.,0.,0.,9965.,0.904174225173,4.7017059709,130.
9.72,6246.,15.,7.,3695.,0.,0.,9963.,0.904210965187,3.13459801265,195.
9.74,6256.,11.,7.,3689.,0.,0.,9963.,0.905658629236,4.28129533821,143.
9.76,6252.,9.,9.,3693.,0.,0.,9963.,0.905079563616,5.22934858978,117.
9.78,6250.,17.,4.,3694.,0.,0.,9965.,0.904608437223,2.76703757268,221.
9.8,6252.,15.,6.,3692.,0.,0.,9965.,0.904897911922,3.136979428,195.
9.82,6255.,13.,6.,3693.,0.,0.,9967.,0.90515045805,3.6206018322,169.
9.84,6258.,15.,2.,3695.,0.,0.,9970.,0.905312090117,3.13841524574,195.
9.86,6267.,13.,4.,3689.,0.,0.,9973.,0.906341352421,3.62536540968,169.
9.88,6272.,12.,5.,3688.,0.,0.,9977.,0.906700796447,3.9290367846,156.
9.9,6275.,14.,4.,3686.,0.,0.,9979.,0.906952677546,3.36868137374,182.
9.92,6281.,10.,4.,3687.,0.,0.,9982.,0.907547046222,4.71924464035,130.
9.94,6286.,6.,7.,3683.,0.,0.,9982.,0.908269500485,7.87166900421,78.
9.96,6289.,8.,2.,3680.,0.,0.,9979.,0.908976157623,5.90834502455,104.
9.98,6292.,9.,2.,3676.,0.,0.,9979.,0.909409760497,5.25436750509,117.
10.,6294.,7.,2.,3675.,0.,0.,9978.,0.909789999537,6.75843999656,91.
