t,s,e,i,r,c,o,n,reff,coal,reportr
5.,6250.,5.,3.,3734.,0.,0.,9992.,0.902164038923,9.3825060048,65.
5.02,6260.,3.,4.,3728.,0.,0.,9995.,0.903336283526,15.6578289145,39.
5.04,6266.,3.,3.,3722.,0.,0.,9994.,0.904292575545,15.6744046428,39.
5.06,6266.,4.,2.,3719.,0.,0.,9991.,0.904564107697,11.7593334001,52.
5.08,6271.,3.,0.,3715.,0.,0.,9989.,0.905467167731,15.6947642407,39.
5.1,6277.,2.,1.,3710.,0.,0.,9990.,0.906242781243,23.5623123123,26.
5.12,6284.,5.,2.,3701.,0.,0.,9992.,0.907071811295,9.43354683747,65.
5.14,6290.,4.,1.,3698.,0.,0.,9993.,0.907847031384,11.802011408,52.
5.16,6295.,6.,3.,3688.,0.,0.,9992.,0.908659620004,7.87505004003,78.
5.18,6293.,7.,5.,3682.,0.,0.,9987.,0.908825704185,6.75127665966,91.
5.2,6297.,8.,2.,3677.,0.,0.,9984.,0.909676636464,5.91289813702,104.
5.22,6300.,10.,2.,3675.,0.,0.,9987.,0.909836633778,4.73115049564,130.
5.24,6306.,10.,6.,3662.,0.,0.,9984.,0.910976793639,4.73707932692,130.
5.26,6310.,10.,10.,3656.,0.,0.,9986.,0.911372074751,4.7391347887,130.
5.28,6311.,11.,8.,3658.,0.,0.,9988.,0.911333985398,4.30812429461,143.
5.3,6313.,10.,9.,3658.,0.,0.,9990.,0.91144028644,4.73948948949,130.
5.32,6309.,16.,6.,3655.,0.,0.,9986.,0.911227641775,2.96148983577,208.
5.34,6308.,15.,8.,3656.,0.,0.,9987.,0.910991981884,3.1581055372,195.
5.36,6308.,15.,10.,3654.,0.,0.,9987.,0.910991981884,3.1581055372,195.
5.38,6314.,13.,9.,3654.,0.,0.,9990.,0.911584661585,3.64633864634,169.
5.4,6316.,11.,4.,3660.,0.,0.,9991.,0.91178214239,4.31024285493,143.
5.42,6319.,12.,4.,3657.,0.,0.,9992.,0.912123929913,3.95253702962,156.
5.44,6315.,14.,6.,3655.,0.,0.,9990.,0.911729036729,3.38642213642,182.
5.46,6319.,14.,7.,3655.,0.,0.,9995.,0.911850155847,3.38687200743,182.
5.48,6319.,11.,6.,3654.,0.,0.,9990.,0.912306537307,4.31272181272,143.
5.5,6318.,9.,7.,3655.,0.,0.,9989.,0.912253478827,5.27079787767,117.
5.52,6322.,7.,7.,3655.,0.,0.,9991.,0.912648306553,6.77967313439,91.
5.54,6320.,10.,4.,3657.,0.,0.,9991.,0.912359585165,4.74426984286,130.
5.56,6324.,7.,8.,3652.,0.,0.,9991.,0.912937027941,6.78181792184,91.
5.58,6329.,8.,7.,3649.,0.,0.,9993.,0.913475971642,5.93759381567,104.
5.6,6334.,7.,5.,3645.,0.,0.,9991.,0.914380634879,6.7925418591,91.
5.62,6334.,12.,3.,3641.,0.,0.,9990.,0.914472164472,3.96271271271,156.
5.64,6342.,7.,4.,3635.,0.,0.,9988.,0.915810511075,6.80316379656,91.
5.66,6346.,5.,8.,3630.,0.,0.,9989.,0.916296387565,9.52948243067,65.
5.68,6350.,7.,0.,3633.,0.,0.,9990.,0.916782166782,6.81038181038,91.
5.7,6357.,5.,1.,3627.,0.,0.,9990.,0.917792792793,9.54504504505,65.
5.72,6366.,7.,1.,3618.,0.,0.,9992.,0.918908203486,6.8261752259,91.
5.74,6372.,6.,1.,3612.,0.,0.,9991.,0.919866341246,7.97217495746,78.
5.76,6374.,9.,2.,3610.,0.,0.,9995.,0.919786816485,5.31432382858,117.
5.78,6377.,7.,9.,3603.,0.,0.,9996.,0.920127666451,6.83523409364,91.
5.8,6380.,8.,5.,3605.,0.,0.,9998.,0.920376382969,5.9824464893,104.
5.82,6373.,14.,3.,3604.,0.,0.,9994.,0.919734533028,3.41615683696,182.
5.84,6376.,11.,2.,3607.,0.,0.,9996.,0.919983377967,4.34901233221,143.
5.86,6385.,9.,3.,3598.,0.,0.,9995.,0.921374148613,5.32349508087,117.
5.88,6395.,9.,2.,3590.,0.,0.,9996.,0.922724859174,5.33129918634,117.
5.9,6396.,10.,4.,3583.,0.,0.,9993.,0.923146202342,4.80036025218,130.
5.92,6396.,9.,3.,3583.,0.,0.,9991.,0.923330997898,5.33480132119,117.
5.94,6402.,12.,0.,3580.,0.,0.,9994.,0.923919736457,4.00365219131,156.
5.96,6408.,7.,5.,3573.,0.,0.,9993.,0.92487818396,6.87052365227,91.
5.98,6412.,11.,2.,3567.,0.,0.,9992.,0.925548130812,4.37531843657,143.
6.,6415.,8.,4.,3560.,0.,0.,9987.,0.926444762807,6.02189095825,104.
6.02,6417.,6.,4.,3558.,0.,0.,9985.,0.926919224991,8.03329994992,78.
6.04,6432.,7.,2.,3545.,0.,0.,9986.,0.928992897749,6.90109009757,91.
6.06,6433.,9.,4.,3536.,0.,0.,9982.,0.929509655842,5.37050023375,117.
6.08,6435.,10.,6.,3535.,0.,0.,9986.,0.929426196675,4.83301622271,130.
6.1,6445.,12.,4.,3523.,0.,0.,9984.,0.931056998891,4.03458032853,156.
6.12,6447.,12.,4.,3521.,0.,0.,9984.,0.931345922707,4.03583233173,156.
6.14,6450.,16.,0.,3521.,0.,0.,9987.,0.931499410772,3.02737308501,208.
6.16,6456.,9.,8.,3515.,0.,0.,9988.,0.932272573242,5.38646375651,117.
6.18,6450.,15.,8.,3513.,0.,0.,9986.,0.931592691306,3.22952132986,195.
6.2,6452.,14.,12.,3504.,0.,0.,9982.,0.932254982045,3.46266136188,182.
6.22,6453.,21.,10.,3502.,0.,0.,9986.,0.932025990232,2.30787388058,273.
6.24,6447.,26.,7.,3505.,0.,0.,9985.,0.931252648203,1.86250529641,338.
6.26,6449.,25.,6.,3506.,0.,0.,9986.,0.931448258331,1.93741237733,325.
6.28,6445.,21.,10.,3506.,0.,0.,9982.,0.931243546075,2.30593639981,273.
6.3,6440.,19.,13.,3507.,0.,0.,9979.,0.930800835601,2.54745491849,247.
6.32,6437.,22.,11.,3508.,0.,0.,9978.,0.930460474583,2.19927021265,286.
6.34,6435.,22.,12.,3510.,0.,0.,9979.,0.930078164145,2.1983665698,286.
6.36,6434.,23.,8.,3512.,0.,0.,9977.,0.930120045335,2.1028801025,299.
6.38,6430.,24.,10.,3516.,0.,0.,9980.,0.929262370896,2.01340180361,312.
6.4,6436.,15.,11.,3517.,0.,0.,9979.,0.930222698436,3.22477202124,195.
6.42,6438.,20.,9.,3515.,0.,0.,9982.,0.930232110106,2.41860348628,260.
6.44,6433.,23.,12.,3515.,0.,0.,9983.,0.929416546591,2.1012895836,299.
6.46,6424.,27.,9.,3521.,0.,0.,9981.,0.928302235786,1.787841343,351.
6.48,6424.,24.,14.,3516.,0.,0.,9978.,0.928581340488,2.01192623772,312.
6.5,6412.,31.,15.,3518.,0.,0.,9976.,0.927032570477,1.55502237628,403.
6.52,6402.,26.,17.,3531.,0.,0.,9976.,0.925586792918,1.85117358584,338.
6.54,6395.,20.,24.,3533.,0.,0.,9972.,0.924945616958,2.40485860409,260.
6.56,6380.,31.,20.,3540.,0.,0.,9971.,0.92286862671,1.54803769642,403.
6.58,6366.,32.,22.,3550.,0.,0.,9970.,0.920935884577,1.49652081244,416.
6.6,6364.,29.,13.,3563.,0.,0.,9969.,0.920738905993,1.6509801073,377.
6.62,6366.,25.,17.,3562.,0.,0.,9970.,0.920935884577,1.91554663992,325.
6.64,6349.,30.,19.,3570.,0.,0.,9968.,0.918660868626,1.59234550562,390.
6.66,6336.,35.,7.,3585.,0.,0.,9963.,0.91723994163,1.36275648471,455.
6.68,6338.,29.,14.,3583.,0.,0.,9964.,0.917437389989,1.64506014757,377.
6.7,6333.,25.,20.,3585.,0.,0.,9963.,0.916805642415,1.90695573622,325.
6.72,6330.,26.,20.,3593.,0.,0.,9969.,0.915819810644,1.83163962129,338.
6.74,6324.,30.,18.,3597.,0.,0.,9969.,0.914951734994,1.58591634066,390.
6.76,6317.,27.,19.,3610.,0.,0.,9973.,0.913572414751,1.75947279878,351.
6.78,6304.,30.,13.,3624.,0.,0.,9971.,0.911875207332,1.58058369271,390.
6.8,6295.,30.,18.,3626.,0.,0.,9969.,0.910756036019,1.57864379577,390.
6.82,6272.,47.,20.,3633.,0.,0.,9972.,0.907155419791,1.00366131551,611.
6.84,6237.,59.,30.,3652.,0.,0.,9978.,0.901550719275,0.794587074615,767.
6.86,6207.,71.,28.,3672.,0.,0.,9978.,0.897214255979,0.65711466635,923.
6.88,6171.,71.,31.,3705.,0.,0.,9978.,0.892010500023,0.653303464806,923.
6.9,6170.,68.,29.,3712.,0.,0.,9979.,0.891776576965,0.68194679415,884.
6.92,6154.,65.,25.,3733.,0.,0.,9977.,0.889642331208,0.711713864966,845.
6.94,6150.,51.,26.,3749.,0.,0.,9976.,0.889153198445,0.906587574886,663.
6.96,6137.,46.,24.,3771.,0.,0.,9978.,0.887095841621,1.00280399488,598.
6.98,6118.,52.,24.,3786.,0.,0.,9980.,0.884172190535,0.884172190535,676.
7.,6102.,51.,24.,3805.,0.,0.,9982.,0.881683183577,0.898971089137,663.
7.02,6084.,53.,27.,3816.,0.,0.,9980.,0.879258517034,0.862668733694,689.
7.04,6069.,47.,18.,3847.,0.,0.,9981.,0.877002843865,0.970301018744,611.
7.06,6059.,41.,13.,3868.,0.,0.,9981.,0.875557790571,1.11046353926,533.
7.08,6047.,39.,13.,3881.,0.,0.,9980.,0.873911284107,1.16521504548,507.
7.1,6032.,35.,31.,3879.,0.,0.,9977.,0.87200561291,1.29555119632,455.
7.12,6016.,35.,14.,3914.,0.,0.,9979.,0.869518296114,1.29185575423,455.
7.14,5999.,39.,14.,3921.,0.,0.,9973.,0.867582858333,1.15677714444,507.
7.16,6003.,28.,9.,3938.,0.,0.,9978.,0.867726305565,1.61149171033,364.
7.18,5994.,26.,10.,3946.,0.,0.,9976.,0.866599068534,1.73319813707,338.
7.2,5983.,33.,12.,3952.,0.,0.,9980.,0.86466201634,1.36249772272,429.
7.22,5976.,33.,14.,3956.,0.,0.,9979.,0.863736924464,1.36104000219,429.
7.24,5972.,36.,10.,3959.,0.,0.,9977.,0.863331817025,1.24703484681,468.
7.26,5975.,30.,17.,3959.,0.,0.,9981.,0.863419342905,1.4965935277,390.
7.28,5979.,23.,7.,3972.,0.,0.,9981.,0.863997364223,1.9533853452,299.
7.3,5984.,22.,3.,3977.,0.,0.,9986.,0.864286924772,2.04286000401,286.
7.32,5986.,20.,12.,3969.,0.,0.,9987.,0.864489220602,2.24767197357,260.
7.34,5982.,30.,6.,3969.,0.,0.,9987.,0.863911546549,1.49744668068,390.
7.36,5988.,28.,10.,3965.,0.,0.,9991.,0.864431834805,1.6053734075,364.
7.38,5984.,23.,17.,3964.,0.,0.,9988.,0.864113859709,1.9536487263,299.
7.4,5975.,24.,18.,3972.,0.,0.,9989.,0.862727846785,1.86924366803,312.
7.42,5967.,24.,16.,3984.,0.,0.,9991.,0.861400260234,1.86636723051,312.
7.44,5967.,28.,9.,3989.,0.,0.,9993.,0.861227859502,1.59942316765,364.
7.46,5963.,25.,10.,3998.,0.,0.,9996.,0.860392233817,1.78961584634,325.
7.48,5957.,28.,13.,3996.,0.,0.,9994.,0.859698511415,1.59658294977,364.
7.5,5954.,32.,11.,4000.,0.,0.,9997.,0.859007702311,1.39588751625,416.
7.52,5955.,21.,20.,4003.,0.,0.,9999.,0.858980128782,2.12699841413,273.
7.54,5945.,25.,23.,4007.,0.,0.,10000.,0.857451923077,1.7835,325.
7.56,5925.,40.,18.,4014.,0.,0.,9997.,0.854823754819,1.11127088126,520.
7.58,5911.,48.,15.,4020.,0.,0.,9994.,0.853059912871,0.924148238943,624.
7.6,5909.,40.,17.,4029.,0.,0.,9995.,0.852685958364,1.10849174587,520.
7.62,5897.,44.,21.,4032.,0.,0.,9994.,0.851039469836,1.0057739189,572.
7.64,5889.,40.,16.,4048.,0.,0.,9993.,0.849969978985,1.10496097268,520.
7.66,5890.,36.,14.,4054.,0.,0.,9994.,0.850029248318,1.22782002535,468.
7.68,5882.,32.,12.,4067.,0.,0.,9993.,0.848959656375,1.37955944161,416.
7.7,5882.,27.,17.,4068.,0.,0.,9994.,0.848874709441,1.63486981078,351.
7.72,5872.,34.,15.,4071.,0.,0.,9992.,0.847601157849,1.29633118259,442.
7.74,5867.,36.,13.,4077.,0.,0.,9993.,0.846794679352,1.22314787018,468.
7.76,5858.,35.,15.,4086.,0.,0.,9994.,0.84541109281,1.25603933789,455.
7.78,5854.,29.,19.,4094.,0.,0.,9996.,0.844664788993,1.51457134578,377.
7.8,5851.,27.,11.,4109.,0.,0.,9998.,0.844063043378,1.62560289836,351.
7.82,5848.,15.,13.,4121.,0.,0.,9997.,0.843714652857,2.92487746324,195.
7.84,5846.,16.,10.,4124.,0.,0.,9996.,0.843510481116,2.74140906363,208.
7.86,5844.,16.,8.,4127.,0.,0.,9995.,0.843306268519,2.74074537269,208.
7.88,5847.,20.,3.,4125.,0.,0.,9995.,0.843739177281,2.19372186093,260.
7.9,5851.,16.,9.,4121.,0.,0.,9997.,0.844147475012,2.74347929379,208.
7.92,5840.,22.,15.,4114.,0.,0.,9991.,0.843066452115,1.99270252318,286.
7.94,5830.,28.,6.,4129.,0.,0.,9993.,0.841454402697,1.56270103358,364.
7.96,5836.,20.,15.,4125.,0.,0.,9996.,0.842067596269,2.1893757503,260.
7.98,5834.,22.,10.,4132.,0.,0.,9998.,0.841610629818,1.98926148866,286.
8.,5840.,25.,7.,4130.,0.,0.,10002.,0.842139264455,1.75164967007,325.
8.02,5843.,15.,17.,4126.,0.,0.,10001.,0.842656119003,2.92120787921,195.
8.04,5840.,17.,12.,4132.,0.,0.,10001.,0.842223469961,2.57621296694,221.
8.06,5834.,21.,7.,4141.,0.,0.,10003.,0.841189950707,2.08294654461,273.
8.08,5832.,20.,5.,4144.,0.,0.,10001.,0.84106973918,2.18678132187,260.
8.1,5836.,17.,8.,4137.,0.,0.,9998.,0.841899149061,2.57522092654,221.
8.12,5840.,16.,6.,4135.,0.,0.,9997.,0.842560460446,2.73832149645,208.
8.14,5839.,12.,5.,4140.,0.,0.,9996.,0.842500461723,3.65083533413,156.
8.16,5848.,10.,1.,4135.,0.,0.,9994.,0.843967919213,4.38863317991,130.
8.18,5855.,7.,6.,4127.,0.,0.,9995.,0.844893600646,6.27635246195,91.
8.2,5856.,11.,6.,4124.,0.,0.,9997.,0.844868845269,3.99392545036,143.
8.22,5856.,9.,5.,4127.,0.,0.,9997.,0.844868845269,4.88146443933,117.
8.24,5855.,12.,7.,4122.,0.,0.,9996.,0.844809077477,3.66083933573,156.
8.26,5858.,16.,5.,4119.,0.,0.,9998.,0.845072860726,2.74648679736,208.
8.28,5863.,8.,7.,4120.,0.,0.,9998.,0.845794158832,5.49766203241,104.
8.3,5869.,11.,7.,4113.,0.,0.,10000.,0.846490384615,4.00159090909,143.
8.32,5875.,9.,7.,4108.,0.,0.,9999.,0.847440513282,4.89632296563,117.
8.34,5873.,11.,7.,4104.,0.,0.,9995.,0.847491053219,4.00632134249,143.
8.36,5872.,19.,9.,4095.,0.,0.,9995.,0.847346750298,2.31905426397,247.
8.38,5870.,23.,10.,4092.,0.,0.,9995.,0.847058144457,1.91508797877,299.
8.4,5870.,21.,12.,4092.,0.,0.,9995.,0.847058144457,2.09747731008,273.
8.42,5866.,18.,10.,4100.,0.,0.,9994.,0.846565631687,2.44563404709,234.
8.44,5866.,26.,8.,4096.,0.,0.,9996.,0.846396250808,1.69279250162,338.
8.46,5867.,17.,20.,4092.,0.,0.,9996.,0.846540539293,2.58941812019,221.
8.48,5864.,26.,17.,4096.,0.,0.,10003.,0.845515576096,1.69103115219,338.
8.5,5870.,16.,15.,4105.,0.,0.,10006.,0.846126939221,2.74991255247,208.
8.52,5865.,13.,21.,4109.,0.,0.,10008.,0.845237271721,3.38094908688,169.
8.54,5852.,27.,14.,4111.,0.,0.,10004.,0.843700981146,1.62490559332,351.
8.56,5855.,22.,20.,4110.,0.,0.,10007.,0.84388043754,1.99462648873,286.
8.58,5847.,28.,17.,4118.,0.,0.,10010.,0.842474832859,1.56459611817,364.
8.6,5841.,23.,23.,4122.,0.,0.,10009.,0.841694398119,1.90296124792,299.
8.62,5830.,28.,17.,4132.,0.,0.,10007.,0.840277190582,1.56051478251,364.
8.64,5820.,32.,17.,4139.,0.,0.,10008.,0.838752075263,1.3629721223,416.
8.66,5811.,29.,22.,4144.,0.,0.,10006.,0.837622426544,1.50194366139,377.
8.68,5788.,35.,22.,4158.,0.,0.,10003.,0.83455732511,1.23991374016,455.
8.7,5781.,41.,15.,4166.,0.,0.,10003.,0.833548012519,1.05718284515,533.
8.72,5780.,25.,17.,4182.,0.,0.,10004.,0.833320517947,1.73330667733,325.
8.74,5773.,26.,17.,4186.,0.,0.,10002.,0.832477735222,1.66495547044,338.
8.76,5763.,37.,5.,4201.,0.,0.,10006.,0.830703500976,1.16747519056,481.
8.78,5756.,31.,16.,4199.,0.,0.,10002.,0.830026302432,1.39230218472,403.
8.8,5740.,37.,13.,4212.,0.,0.,10002.,0.82771907157,1.16328085734,481.
8.82,5735.,35.,17.,4215.,0.,0.,10002.,0.826998061926,1.22868283486,455.
8.84,5733.,33.,14.,4223.,0.,0.,10003.,0.826627011896,1.30256377632,429.
8.86,5725.,29.,19.,4231.,0.,0.,10004.,0.825390997447,1.4800114437,377.
8.88,5712.,37.,18.,4235.,0.,0.,10002.,0.823681417563,1.15760631657,481.
8.9,5714.,32.,16.,4240.,0.,0.,10002.,0.82396982142,1.33895095981,416.
8.92,5701.,36.,11.,4252.,0.,0.,10000.,0.822259615385,1.18770833333,468.
8.94,5696.,27.,21.,4256.,0.,0.,10000.,0.821538461538,1.58222222222,351.
8.96,5689.,35.,7.,4270.,0.,0.,10001.,0.820446801474,1.21894953362,455.
8.98,5695.,32.,12.,4263.,0.,0.,10002.,0.821229984772,1.33449872525,416.
9.,5688.,31.,13.,4264.,0.,0.,9996.,0.820712900545,1.37667970414,403.
9.02,5672.,33.,11.,4279.,0.,0.,9995.,0.81848616616,1.28973577698,429.
9.04,5673.,32.,16.,4281.,0.,0.,10002.,0.818057542338,1.3293435063,416.
9.06,5669.,31.,21.,4279.,0.,0.,10000.,0.817644230769,1.37153225806,403.
9.08,5661.,28.,21.,4292.,0.,0.,10002.,0.816327119192,1.5160360785,364.
9.1,5657.,23.,20.,4304.,0.,0.,10004.,0.815587226648,1.84393633851,299.
9.12,5654.,28.,16.,4304.,0.,0.,10002.,0.81531770569,1.51416145342,364.
9.14,5650.,29.,14.,4306.,0.,0.,9999.,0.814985344688,1.46135303185,377.
9.16,5637.,38.,10.,4311.,0.,0.,9996.,0.813354187829,1.11301099387,494.
9.18,5634.,33.,16.,4314.,0.,0.,9997.,0.812840005848,1.28083879709,429.
9.2,5625.,31.,13.,4326.,0.,0.,9995.,0.811703928888,1.36156788071,403.
9.22,5628.,24.,13.,4329.,0.,0.,9994.,0.812218100091,1.75980588353,312.
9.24,5629.,18.,14.,4329.,0.,0.,9990.,0.812687687688,2.3477644311,234.
9.26,5625.,16.,9.,4339.,0.,0.,9989.,0.812191487559,2.63962233457,208.
9.28,5632.,15.,8.,4337.,0.,0.,9992.,0.812958058755,2.81825460368,195.
9.3,5635.,11.,8.,4339.,0.,0.,9993.,0.813309701406,3.84473677028,143.
9.32,5629.,11.,4.,4346.,0.,0.,9990.,0.812687687688,3.8417963418,143.
9.34,5630.,11.,8.,4345.,0.,0.,9994.,0.81250673481,3.84094092819,143.
9.36,5629.,15.,6.,4342.,0.,0.,9992.,0.812525020016,2.81675340272,195.
9.38,5629.,12.,12.,4337.,0.,0.,9990.,0.812687687688,3.52164664665,156.
9.4,5641.,12.,1.,4335.,0.,0.,9989.,0.814501721124,3.5295074582,156.
9.42,5646.,10.,2.,4333.,0.,0.,9991.,0.815060477507,4.23831448303,130.
9.44,5652.,6.,2.,4331.,0.,0.,9991.,0.81592664167,7.07136422781,78.
9.46,5656.,1.,6.,4328.,0.,0.,9991.,0.816504084445,42.4582123912,13.
9.48,5668.,2.,3.,4316.,0.,0.,9989.,0.818400240264,21.2784062469,26.
9.5,5673.,2.,2.,4312.,0.,0.,9989.,0.819122188253,21.2971768946,26.
9.52,5681.,5.,1.,4301.,0.,0.,9988.,0.820359431318,8.5317380857,65.
9.54,5691.,5.,3.,4292.,0.,0.,9991.,0.82155670873,8.54418977079,65.
9.56,5697.,2.,5.,4284.,0.,0.,9988.,0.822669896183,21.3894173008,26.
9.58,5699.,5.,2.,4282.,0.,0.,9988.,0.822958704291,8.55877052463,65.
9.6,5708.,5.,2.,4274.,0.,0.,9989.,0.824175824176,8.57142857143,65.
9.62,5710.,7.,2.,4270.,0.,0.,9989.,0.824464603371,6.12459419647,91.
9.64,5717.,4.,6.,4260.,0.,0.,9987.,0.825640640525,10.7333283268,52.
9.66,5718.,8.,2.,4261.,0.,0.,9989.,0.825619720154,5.366528181,104.
9.68,5724.,6.,2.,4257.,0.,0.,9989.,0.82648605774,7.16287916708,78.
9.7,5731.,6.,4.,4247.,0.,0.,9988.,0.827579634022,7.17235682819,78.
9.72,5734.,1.,6.,4244.,0.,0.,9985.,0.828261623204,43.0696044066,13.
9.74,5742.,5.,3.,4234.,0.,0.,9984.,0.829500277367,8.62680288462,65.
9.76,5751.,3.,4.,4226.,0.,0.,9984.,0.830800434541,14.4005408654,39.
9.78,5750.,7.,0.,4226.,0.,0.,9983.,0.830739179682,6.17120533478,91.
9.8,5759.,5.,2.,4220.,0.,0.,9986.,0.831789505307,8.6506108552,65.
9.82,5762.,1.,3.,4217.,0.,0.,9983.,0.832472896231,43.288590604,13.
9.84,5771.,5.,0.,4207.,0.,0.,9983.,0.833773183643,8.67124110989,65.
9.86,5778.,6.,1.,4201.,0.,0.,9986.,0.83453373184,7.23262567595,78.
9.88,5787.,4.,3.,4192.,0.,0.,9986.,0.835833628619,10.865837172,52.
9.9,5794.,5.,1.,4185.,0.,0.,9985.,0.836928469628,8.70405608413,65.
9.92,5800.,3.,2.,4181.,0.,0.,9986.,0.837711257299,14.5203284598,39.
9.94,5804.,4.,4.,4175.,0.,0.,9987.,0.838205051182,10.8966656654,52.
9.96,5805.,5.,4.,4172.,0.,0.,9986.,0.838433422176,8.71970759063,65.
9.98,5809.,7.,1.,4170.,0.,0.,9987.,0.838927143748,6.2320302107,91.
10.,5817.,8.,3.,4158.,0.,0.,9986.,0.84016661788,5.46108301622,104.
