t,prevalence
5.,1
5.02,3
5.04,0
5.06,0
5.08,1
5.1,1
5.12,3
5.14,3
5.16,1
5.18,0
5.2,1
5.22,0
5.24,1
5.26,0
5.28,1
5.3,1
5.32,0
5.34,0
5.36,0
5.38,2
5.4,0
5.42,0
5.44,0
5.46,1
5.48,0
5.5,0
5.52,0
5.54,2
5.56,0
5.58,1
5.6,1
5.62,1
5.64,2
5.66,0
5.68,2
5.7,2
5.72,3
5.74,1
5.76,3
5.78,5
5.8,5
5.82,4
5.84,2
5.86,6
5.88,2
5.9,2
5.92,1
5.94,3
5.96,9
5.98,9
6.,7
6.02,4
6.04,5
6.06,5
6.08,6
6.1,5
6.12,2
6.14,4
6.16,6
6.18,4
6.2,4
6.22,4
6.24,3
6.26,6
6.28,5
6.3,7
6.32,8
6.34,4
6.36,4
6.38,11
6.4,3
6.42,4
6.44,5
6.46,4
6.48,6
6.5,5
6.52,7
6.54,8
6.56,4
6.58,11
6.6,6
6.62,7
6.64,1
6.66,7
6.68,3
6.7,2
6.72,6
6.74,3
6.76,2
6.78,5
6.8,6
6.82,4
6.84,5
6.86,6
6.88,2
6.9,9
6.92,10
6.94,5
6.96,4
6.98,6
7.,9
7.02,4
7.04,10
7.06,8
7.08,10
7.1,9
7.12,2
7.14,10
7.16,3
7.18,11
7.2,5
7.22,4
7.24,9
7.26,6
7.28,6
7.3,7
7.32,8
7.34,11
7.36,4
7.38,6
7.4,10
7.42,2
7.44,5
7.46,7
7.48,8
7.5,4
7.52,3
7.54,8
7.56,5
7.58,8
7.6,10
7.62,6
7.64,6
7.66,6
7.68,6
7.7,17
7.72,12
7.74,6
7.76,9
7.78,9
7.8,7
7.82,11
7.84,10
7.86,11
7.88,12
7.9,20
7.92,17
7.94,9
7.96,14
7.98,12
8.,9
8.02,8
8.04,6
8.06,15
8.08,12
8.1,7
8.12,9
8.14,7
8.16,7
8.18,1
8.2,3
8.22,6
8.24,4
8.26,4
8.28,2
8.3,2
8.32,3
8.34,3
8.36,1
8.38,3
8.4,2
8.42,0
8.44,2
8.46,1
8.48,1
8.5,1
8.52,1
8.54,3
8.56,3
8.58,2
8.6,5
8.62,3
8.64,3
8.66,0
8.68,0
8.7,0
8.72,0
8.74,1
8.76,0
8.78,1
8.8,1
8.82,1
8.84,0
8.86,1
8.88,1
8.9,1
8.92,1
8.94,0
8.96,0
8.98,0
9.,2
9.02,0
9.04,4
9.06,0
9.08,5
9.1,2
9.12,4
9.14,2
9.16,1
9.18,1
9.2,2
9.22,0
9.24,4
9.26,9
9.28,7
9.3,3
9.32,4
9.34,5
9.36,2
9.38,2
9.4,3
9.42,5
9.44,7
9.46,3
9.48,5
9.5,3
9.52,4
9.54,4
9.56,3
9.58,4
9.6,5
9.62,6
9.64,0
9.66,3
9.68,7
9.7,11
9.72,2
9.74,7
9.76,0
9.78,2
9.8,2
9.82,1
9.84,2
9.86,2
9.88,5
9.9,2
9.92,2
9.94,0
9.96,0
9.98,1
10.,3
