t,s,e,i,r,c,o,n,reff,coal,reportr
5.,6250.,5.,3.,3734.,0.,0.,9992.,0.902164038923,9.3825060048,65.
5.02,6257.,5.,5.,3721.,0.,0.,9988.,0.903536166477,9.39677613136,65.
5.04,6262.,4.,3.,3720.,0.,0.,9989.,0.904167661351,11.7541795976,52.
5.06,6265.,6.,2.,3716.,0.,0.,9989.,0.904600830144,7.83987386125,78.
5.08,6267.,8.,2.,3710.,0.,0.,9987.,0.905070822839,5.88296034845,104.
5.1,6271.,8.,3.,3702.,0.,0.,9984.,0.905920626849,5.88848407452,104.
5.12,6282.,5.,5.,3694.,0.,0.,9986.,0.90732795144,9.43621069497,65.
5.14,6288.,6.,1.,3692.,0.,0.,9987.,0.908103611618,7.87023130069,78.
5.16,6301.,7.,1.,3680.,0.,0.,9989.,0.909798855664,6.75850578493,91.
5.18,6298.,8.,7.,3674.,0.,0.,9987.,0.909547796751,5.91206067888,104.
5.2,6298.,13.,7.,3669.,0.,0.,9987.,0.909547796751,3.638191187,169.
5.22,6294.,13.,7.,3672.,0.,0.,9986.,0.909061147144,3.63624458858,169.
5.24,6296.,11.,8.,3674.,0.,0.,9989.,0.909076907675,4.29745447265,143.
5.26,6294.,15.,12.,3670.,0.,0.,9991.,0.908606207125,3.14983485137,195.
5.28,6290.,21.,13.,3667.,0.,0.,9991.,0.908028764349,2.24845217839,273.
5.3,6282.,26.,9.,3674.,0.,0.,9991.,0.906873878799,1.8137477576,338.
5.32,6269.,24.,15.,3680.,0.,0.,9988.,0.905269015126,1.96141619944,312.
5.34,6269.,25.,6.,3690.,0.,0.,9990.,0.905087780088,1.88258258258,325.
5.36,6268.,17.,17.,3689.,0.,0.,9991.,0.904852829085,2.76778512426,221.
5.38,6256.,30.,12.,3693.,0.,0.,9991.,0.903120500758,1.56540886798,390.
5.4,6250.,30.,13.,3702.,0.,0.,9995.,0.901893254319,1.56328164082,390.
5.42,6237.,38.,15.,3705.,0.,0.,9995.,0.90001731635,1.23160264343,494.
5.44,6234.,44.,19.,3703.,0.,0.,10000.,0.899134615385,1.06261363636,572.
5.46,6225.,45.,12.,3716.,0.,0.,9998.,0.89801614169,1.03770754151,585.
5.48,6228.,31.,23.,3719.,0.,0.,10001.,0.898179412828,1.5066235312,403.
5.5,6204.,49.,9.,3737.,0.,0.,9999.,0.894897182026,0.949686805415,637.
5.52,6210.,34.,24.,3733.,0.,0.,10001.,0.895583518571,1.36971596958,442.
5.54,6188.,45.,16.,3752.,0.,0.,10001.,0.892410758924,1.03123021031,585.
5.56,6175.,47.,21.,3759.,0.,0.,10002.,0.890446910618,0.985175305364,611.
5.58,6153.,43.,29.,3772.,0.,0.,9997.,0.887718238548,1.07351973034,559.
5.6,6131.,52.,18.,3795.,0.,0.,9996.,0.884632699234,0.884632699234,676.
5.62,6115.,53.,21.,3806.,0.,0.,9995.,0.882412360026,0.865763070214,689.
5.64,6108.,44.,20.,3825.,0.,0.,9997.,0.881225906233,1.04144879828,572.
5.66,6096.,39.,21.,3842.,0.,0.,9998.,0.879406650561,1.17254220075,507.
5.68,6084.,41.,19.,3856.,0.,0.,10000.,0.8775,1.11292682927,533.
5.7,6068.,41.,23.,3867.,0.,0.,9999.,0.875279835676,1.1101110111,533.
5.72,6053.,45.,18.,3884.,0.,0.,10000.,0.873028846154,1.00883333333,585.
5.74,6047.,34.,17.,3902.,0.,0.,10000.,0.872163461538,1.33389705882,442.
5.76,6037.,31.,17.,3916.,0.,0.,10001.,0.870634090437,1.46041847428,403.
5.78,6022.,24.,29.,3924.,0.,0.,9999.,0.868644556763,1.88206320632,312.
5.8,5999.,37.,28.,3933.,0.,0.,9997.,0.865500034626,1.21637842704,481.
5.82,5987.,47.,15.,3950.,0.,0.,9999.,0.863595974982,0.955467887214,611.
5.84,5983.,50.,17.,3951.,0.,0.,10001.,0.862846407667,0.897360263974,650.
5.86,5973.,39.,17.,3970.,0.,0.,9999.,0.86157654227,1.14876872303,507.
5.88,5965.,40.,11.,3985.,0.,0.,10001.,0.86025051341,1.11832566743,520.
5.9,5960.,34.,16.,3990.,0.,0.,10000.,0.859615384615,1.31470588235,442.
5.92,5951.,33.,6.,4014.,0.,0.,10004.,0.857974118045,1.35195921631,429.
5.94,5953.,21.,19.,4009.,0.,0.,10002.,0.858434082414,2.12564629931,273.
5.96,5937.,32.,9.,4024.,0.,0.,10002.,0.856126851553,1.39120613377,416.
5.98,5930.,18.,20.,4031.,0.,0.,9999.,0.855373998938,2.47108044138,234.
6.,5928.,24.,5.,4041.,0.,0.,9998.,0.855171034207,1.85287057411,312.
6.02,5933.,16.,9.,4042.,0.,0.,10000.,0.855721153846,2.78109375,208.
6.04,5939.,13.,13.,4039.,0.,0.,10004.,0.856244040845,3.42497616338,169.
6.06,5945.,15.,8.,4037.,0.,0.,10005.,0.857023411371,2.97101449275,195.
6.08,5949.,13.,9.,4036.,0.,0.,10007.,0.857428646102,3.42971458441,169.
6.1,5951.,14.,8.,4035.,0.,0.,10008.,0.85763120273,3.18548732443,182.
6.12,5949.,13.,7.,4038.,0.,0.,10007.,0.857428646102,3.42971458441,169.
6.14,5951.,11.,6.,4039.,0.,0.,10007.,0.857716905858,4.05466173678,143.
6.16,5957.,12.,0.,4040.,0.,0.,10009.,0.858410123197,3.71977720052,156.
6.18,5959.,13.,4.,4033.,0.,0.,10009.,0.858698325353,3.43479330141,169.
6.2,5964.,5.,12.,4027.,0.,0.,10008.,0.859504703929,8.93884892086,65.
6.22,5963.,5.,8.,4030.,0.,0.,10006.,0.859532357509,8.93913651809,65.
6.24,5962.,5.,6.,4028.,0.,0.,10001.,0.859817864367,8.94210578942,65.
6.26,5958.,10.,1.,4029.,0.,0.,9998.,0.859498822841,4.46939387878,130.
6.28,5967.,5.,5.,4020.,0.,0.,9997.,0.860883264979,8.95318595579,65.
6.3,5969.,10.,1.,4016.,0.,0.,9996.,0.861257964724,4.47854141657,130.
6.32,5973.,8.,2.,4012.,0.,0.,9995.,0.861921345288,5.60248874437,104.
6.34,5971.,9.,6.,4008.,0.,0.,9994.,0.86171895445,4.97882062571,117.
6.36,5965.,14.,5.,4007.,0.,0.,9991.,0.861111538847,3.19841428714,182.
6.38,5971.,15.,5.,4003.,0.,0.,9994.,0.86171895445,2.98729237543,195.
6.4,5979.,12.,13.,3989.,0.,0.,9993.,0.86295984112,3.73949264485,156.
6.42,5968.,22.,11.,3992.,0.,0.,9993.,0.861372191303,2.03597063399,286.
6.44,5963.,21.,6.,4003.,0.,0.,9993.,0.860650532296,2.1311346514,273.
6.46,5956.,25.,12.,4001.,0.,0.,9994.,0.859554194055,1.78787272363,325.
6.48,5954.,19.,15.,4003.,0.,0.,9991.,0.859523571214,2.35238030016,247.
6.5,5954.,13.,17.,4009.,0.,0.,9993.,0.859351546082,3.43740618433,169.
6.52,5947.,19.,5.,4021.,0.,0.,9992.,0.858427126316,2.3493795036,247.
6.54,5957.,14.,6.,4016.,0.,0.,9993.,0.859784541487,3.19348543981,182.
6.56,5960.,18.,0.,4012.,0.,0.,9990.,0.860475860476,2.48581915249,234.
6.58,5972.,14.,6.,3999.,0.,0.,9991.,0.862122063703,3.20216766518,182.
6.6,5969.,17.,2.,4004.,0.,0.,9992.,0.861602743733,2.63549074554,221.
6.62,5973.,16.,2.,4000.,0.,0.,9991.,0.862266424397,2.80236587929,208.
6.64,5980.,13.,5.,3991.,0.,0.,9989.,0.863449794774,3.4537991791,169.
6.66,5978.,10.,9.,3989.,0.,0.,9986.,0.863420326919,4.48978569998,130.
6.68,5983.,14.,8.,3981.,0.,0.,9986.,0.864142491796,3.20967211239,182.
6.7,5988.,17.,4.,3979.,0.,0.,9988.,0.864691475925,2.64493863224,221.
6.72,5984.,16.,7.,3977.,0.,0.,9984.,0.864460059172,2.80949519231,208.
6.74,5991.,8.,10.,3976.,0.,0.,9985.,0.865384615385,5.625,104.
6.76,5989.,11.,4.,3979.,0.,0.,9983.,0.865269034281,4.09036270751,143.
6.78,5987.,11.,5.,3979.,0.,0.,9982.,0.865066735509,4.08940638604,143.
6.8,5988.,14.,4.,3976.,0.,0.,9982.,0.865211226361,3.21364169791,182.
6.82,5994.,16.,7.,3965.,0.,0.,9982.,0.866078171478,2.8147540573,208.
6.84,5989.,21.,6.,3965.,0.,0.,9981.,0.865442417516,2.14300027195,273.
6.86,5986.,17.,6.,3968.,0.,0.,9977.,0.865355702732,2.64697038483,221.
6.88,5987.,14.,9.,3964.,0.,0.,9974.,0.865760592926,3.2156822023,182.
6.9,5987.,12.,6.,3971.,0.,0.,9976.,0.865587024243,3.75087710505,156.
6.92,5992.,13.,7.,3967.,0.,0.,9979.,0.866049473124,3.4641978925,169.
6.94,5998.,15.,6.,3961.,0.,0.,9980.,0.866829813473,3.00501002004,195.
6.96,5999.,11.,6.,3963.,0.,0.,9979.,0.867061213163,4.09883482586,143.
6.98,5999.,15.,5.,3964.,0.,0.,9983.,0.866713798072,3.00460783332,195.
7.,6002.,11.,8.,3961.,0.,0.,9982.,0.8672340983,4.09965210105,143.
7.02,6002.,13.,1.,3964.,0.,0.,9980.,0.867407892708,3.46963157083,169.
7.04,6009.,7.,9.,3956.,0.,0.,9981.,0.868332524103,6.45047017905,91.
7.06,6015.,6.,3.,3956.,0.,0.,9980.,0.869286650224,7.53381763527,78.
7.08,6018.,7.,5.,3946.,0.,0.,9976.,0.870068934674,6.46336922901,91.
7.1,6017.,15.,3.,3941.,0.,0.,9976.,0.869924356918,3.01573777065,195.
7.12,6022.,8.,11.,3936.,0.,0.,9977.,0.870559980262,5.6586398717,104.
7.14,6027.,10.,9.,3932.,0.,0.,9978.,0.871195476201,4.53021647625,130.
7.16,6029.,12.,6.,3928.,0.,0.,9975.,0.871746674378,3.77756892231,156.
7.18,6039.,12.,2.,3924.,0.,0.,9977.,0.873017555763,3.78307607497,156.
7.2,6049.,8.,3.,3923.,0.,0.,9983.,0.873937617026,5.68059451067,104.
7.22,6053.,9.,5.,3914.,0.,0.,9981.,0.874690758595,5.05376882744,117.
7.24,6053.,13.,8.,3907.,0.,0.,9981.,0.874690758595,3.49876303438,169.
7.26,6056.,10.,4.,3906.,0.,0.,9976.,0.875562889396,4.55292702486,130.
7.28,6065.,6.,2.,3901.,0.,0.,9974.,0.877039919174,7.60101263285,78.
7.3,6061.,7.,5.,3898.,0.,0.,9971.,0.876725195374,6.51281573707,91.
7.32,6065.,7.,4.,3896.,0.,0.,9972.,0.87721581968,6.51646037476,91.
7.34,6070.,12.,0.,3890.,0.,0.,9972.,0.877938998426,3.80440232651,156.
7.36,6073.,7.,7.,3884.,0.,0.,9971.,0.878460998434,6.52571027408,91.
7.38,6078.,7.,5.,3882.,0.,0.,9972.,0.879096084421,6.5304280557,91.
7.4,6082.,6.,3.,3883.,0.,0.,9974.,0.87949823387,7.62231802687,78.
7.42,6086.,5.,2.,3879.,0.,0.,9972.,0.880253170416,9.15463297232,65.
7.44,6089.,4.,2.,3877.,0.,0.,9972.,0.880687077664,11.4489320096,52.
7.46,6101.,5.,1.,3866.,0.,0.,9973.,0.882334225486,9.17627594505,65.
7.48,6107.,3.,1.,3860.,0.,0.,9971.,0.883379107103,15.3119045231,39.
7.5,6113.,0.,4.,3853.,0.,0.,9970.,0.884335699406,inf,0.
7.52,6120.,2.,2.,3846.,0.,0.,9970.,0.885348352751,23.0190571715,26.
7.54,6122.,2.,1.,3840.,0.,0.,9965.,0.886082056428,23.0381334671,26.
7.56,6125.,3.,3.,3834.,0.,0.,9965.,0.886516268478,15.366281987,39.
7.58,6128.,3.,4.,3827.,0.,0.,9962.,0.887217580653,15.3784380646,39.
7.6,6138.,4.,4.,3818.,0.,0.,9964.,0.888487014792,11.5503311923,52.
7.62,6142.,5.,0.,3818.,0.,0.,9965.,0.888976803427,9.24535875564,65.
7.64,6151.,5.,2.,3807.,0.,0.,9965.,0.890279439577,9.2589061716,65.
7.66,6162.,4.,3.,3795.,0.,0.,9964.,0.891961059815,11.5954937776,52.
7.68,6170.,5.,0.,3791.,0.,0.,9966.,0.892939841615,9.2865743528,65.
7.7,6175.,1.,3.,3787.,0.,0.,9966.,0.89366345575,46.470499699,13.
7.72,6177.,2.,4.,3782.,0.,0.,9965.,0.894042610676,23.2451078776,26.
7.74,6179.,6.,6.,3774.,0.,0.,9965.,0.894332085376,7.75087807326,78.
7.76,6183.,7.,6.,3769.,0.,0.,9965.,0.894911034776,6.64791054405,91.
7.78,6188.,8.,8.,3760.,0.,0.,9964.,0.895724608591,5.82220995584,104.
7.8,6189.,8.,8.,3762.,0.,0.,9967.,0.895599709812,5.82139811378,104.
7.82,6188.,15.,6.,3760.,0.,0.,9969.,0.895275353596,3.1036212258,195.
7.84,6192.,14.,9.,3754.,0.,0.,9969.,0.895854070696,3.32745797687,182.
7.86,6202.,13.,10.,3750.,0.,0.,9975.,0.896761133603,3.58704453441,169.
7.88,6197.,20.,9.,3749.,0.,0.,9975.,0.896038172354,2.32969924812,260.
7.9,6194.,19.,11.,3750.,0.,0.,9974.,0.895694189508,2.45137357129,247.
7.92,6199.,20.,15.,3742.,0.,0.,9976.,0.896237508482,2.33021752205,260.
7.94,6195.,31.,9.,3745.,0.,0.,9980.,0.895300215816,1.5017939104,403.
7.96,6187.,31.,11.,3748.,0.,0.,9977.,0.894412918944,1.50030554146,403.
7.98,6177.,31.,11.,3754.,0.,0.,9973.,0.893325440227,1.49848138361,403.
8.,6172.,29.,15.,3755.,0.,0.,9971.,0.892781373676,1.60084935969,377.
8.02,6166.,34.,8.,3763.,0.,0.,9971.,0.891913472146,1.3641029574,442.
8.04,6168.,28.,14.,3761.,0.,0.,9971.,0.892202772656,1.65694800636,364.
8.06,6169.,22.,14.,3767.,0.,0.,9972.,0.89225793761,2.10897330708,286.
8.08,6172.,22.,13.,3767.,0.,0.,9974.,0.892512841079,2.10957580619,286.
8.1,6168.,22.,11.,3771.,0.,0.,9972.,0.892113301861,2.10863144076,286.
8.12,6166.,18.,7.,3779.,0.,0.,9970.,0.892002931873,2.57689735874,234.
8.14,6165.,15.,10.,3778.,0.,0.,9968.,0.892037211384,3.09239566613,195.
8.16,6158.,21.,9.,3783.,0.,0.,9971.,0.890756270106,2.20568219264,273.
8.18,6155.,23.,8.,3786.,0.,0.,9972.,0.890233037119,2.01270077957,299.
8.2,6159.,18.,10.,3789.,0.,0.,9976.,0.890454398248,2.57242381716,234.
8.22,6153.,27.,5.,3791.,0.,0.,9976.,0.889586931713,1.71327853515,351.
8.24,6158.,20.,14.,3786.,0.,0.,9978.,0.890131365928,2.31434155141,260.
8.26,6157.,18.,8.,3796.,0.,0.,9979.,0.889897631179,2.57081537896,234.
8.28,6162.,20.,4.,3797.,0.,0.,9983.,0.890263447861,2.31468496444,260.
8.3,6160.,11.,13.,3798.,0.,0.,9982.,0.890063653037,4.20757363254,143.
8.32,6164.,12.,7.,3803.,0.,0.,9986.,0.890284860343,3.85790106149,156.
8.34,6157.,15.,1.,3806.,0.,0.,9979.,0.889897631179,3.08497845475,195.
8.36,6160.,15.,6.,3797.,0.,0.,9978.,0.890420463481,3.08679094007,195.
8.38,6166.,15.,7.,3789.,0.,0.,9977.,0.891377090385,3.09010724667,195.
8.4,6166.,17.,8.,3781.,0.,0.,9972.,0.891824030362,2.72793232817,221.
8.42,6171.,12.,9.,3781.,0.,0.,9973.,0.892457712747,3.86731675524,156.
8.44,6176.,8.,6.,3785.,0.,0.,9975.,0.893001735107,5.8045112782,104.
8.46,6183.,10.,3.,3776.,0.,0.,9972.,0.894282838101,4.65027075812,130.
8.48,6180.,14.,6.,3773.,0.,0.,9973.,0.893759303967,3.31967741473,182.
8.5,6183.,15.,8.,3767.,0.,0.,9973.,0.894193167707,3.09986964805,195.
8.52,6181.,9.,8.,3773.,0.,0.,9971.,0.894083225971,5.1658141945,117.
8.54,6176.,13.,7.,3774.,0.,0.,9970.,0.893449579508,3.57379831803,169.
8.56,6179.,11.,5.,3775.,0.,0.,9970.,0.893883573798,4.22563143977,143.
8.58,6183.,12.,1.,3779.,0.,0.,9975.,0.894013880856,3.87406015038,156.
8.6,6189.,7.,8.,3773.,0.,0.,9977.,0.894702045474,6.64635805209,91.
8.62,6188.,13.,8.,3770.,0.,0.,9979.,0.894378194208,3.57751277683,169.
8.64,6191.,15.,11.,3762.,0.,0.,9979.,0.894811797082,3.10201422988,195.
8.66,6194.,14.,14.,3763.,0.,0.,9985.,0.894707445784,3.32319908434,182.
8.68,6190.,21.,10.,3767.,0.,0.,9988.,0.893861094852,2.21337033011,273.
8.7,6181.,21.,14.,3772.,0.,0.,9988.,0.892561458365,2.21015218262,273.
8.72,6187.,20.,13.,3768.,0.,0.,9988.,0.89342788269,2.32291249499,260.
8.74,6184.,22.,4.,3777.,0.,0.,9987.,0.893084086235,2.11092602201,286.
8.76,6184.,13.,12.,3776.,0.,0.,9985.,0.89326297138,3.57305188552,169.
8.78,6183.,17.,2.,3781.,0.,0.,9983.,0.893297451822,2.7324392644,221.
8.8,6193.,13.,3.,3777.,0.,0.,9986.,0.894473416629,3.57789366652,169.
8.82,6198.,13.,4.,3772.,0.,0.,9987.,0.895105945421,3.58042378169,169.
8.84,6205.,9.,5.,3769.,0.,0.,9988.,0.896027155664,5.17704578828,117.
8.86,6211.,11.,3.,3768.,0.,0.,9993.,0.896444819066,4.23773914467,143.
8.88,6214.,13.,2.,3765.,0.,0.,9994.,0.896788072844,3.58715229137,169.
8.9,6224.,7.,5.,3762.,0.,0.,9998.,0.897871882069,6.66990540965,91.
8.92,6229.,8.,12.,3752.,0.,0.,10001.,0.898323629176,5.83910358964,104.
8.94,6219.,18.,2.,3759.,0.,0.,9998.,0.897150583963,2.59176835367,234.
8.96,6223.,12.,10.,3753.,0.,0.,9998.,0.897727622448,3.89015303061,156.
8.98,6216.,19.,10.,3755.,0.,0.,10000.,0.896538461538,2.45368421053,247.
9.,6214.,15.,11.,3760.,0.,0.,10000.,0.89625,3.107,195.
9.02,6205.,20.,12.,3760.,0.,0.,9997.,0.895220489224,2.32757327198,260.
9.04,6201.,15.,15.,3766.,0.,0.,9997.,0.894643393018,3.10143042913,195.
9.06,6206.,12.,6.,3773.,0.,0.,9997.,0.895364763275,3.87991397419,156.
9.08,6197.,19.,2.,3777.,0.,0.,9995.,0.894245199523,2.44740791448,247.
9.1,6198.,14.,6.,3775.,0.,0.,9993.,0.894568505646,3.32268302097,182.
9.12,6192.,15.,3.,3780.,0.,0.,9990.,0.893970893971,3.0990990991,195.
9.14,6182.,17.,1.,3785.,0.,0.,9985.,0.892974076499,2.73145011635,221.
9.16,6185.,13.,6.,3779.,0.,0.,9983.,0.89358640458,3.57434561832,169.
9.18,6184.,11.,5.,3784.,0.,0.,9984.,0.893352440828,4.22312062937,143.
9.2,6182.,12.,3.,3784.,0.,0.,9981.,0.893331946082,3.87110509969,156.
9.22,6189.,10.,1.,3779.,0.,0.,9979.,0.894522728499,4.6515181882,130.
9.24,6195.,9.,0.,3776.,0.,0.,9980.,0.895300215816,5.17284569138,117.
9.26,6206.,9.,1.,3764.,0.,0.,9980.,0.896889933714,5.18203072812,117.
9.28,6210.,7.,2.,3762.,0.,0.,9981.,0.897378095304,6.6662372794,91.
9.3,6212.,8.,6.,3756.,0.,0.,9982.,0.897577177381,5.83425165298,104.
9.32,6209.,10.,4.,3757.,0.,0.,9980.,0.89732349314,4.66608216433,130.
9.34,6206.,11.,6.,3753.,0.,0.,9976.,0.897249552773,4.24154334038,143.
9.36,6208.,15.,5.,3748.,0.,0.,9976.,0.897538708284,3.11146752205,195.
9.38,6208.,11.,9.,3748.,0.,0.,9976.,0.897538708284,4.24291025734,143.
9.4,6204.,10.,13.,3747.,0.,0.,9974.,0.897140256976,4.66512933627,130.
9.42,6204.,20.,5.,3745.,0.,0.,9974.,0.897140256976,2.33256466814,260.
9.44,6213.,14.,5.,3743.,0.,0.,9975.,0.898351648352,3.33673469388,182.
9.46,6209.,16.,8.,3741.,0.,0.,9974.,0.89786329071,2.91805569481,208.
9.48,6205.,15.,5.,3747.,0.,0.,9972.,0.897464824586,3.1112113919,195.
9.5,6210.,13.,2.,3749.,0.,0.,9974.,0.898007897456,3.59203158983,169.
9.52,6222.,9.,5.,3743.,0.,0.,9979.,0.89929236011,5.19591141397,117.
9.54,6228.,12.,1.,3740.,0.,0.,9981.,0.899979191233,3.89990982867,156.
9.56,6232.,11.,4.,3735.,0.,0.,9982.,0.900466994436,4.25675306461,143.
9.58,6227.,11.,5.,3735.,0.,0.,9978.,0.900105231509,4.25504291259,143.
9.6,6229.,13.,2.,3735.,0.,0.,9979.,0.900304100149,3.6012164006,169.
9.62,6237.,11.,5.,3728.,0.,0.,9981.,0.901279739197,4.26059513075,143.
9.64,6244.,13.,6.,3721.,0.,0.,9984.,0.902020155325,3.6080806213,169.
9.66,6247.,12.,6.,3719.,0.,0.,9984.,0.90245354105,3.91063201122,156.
9.68,6254.,5.,10.,3718.,0.,0.,9987.,0.903193382166,9.39321117453,65.
9.7,6260.,7.,8.,3714.,0.,0.,9989.,0.903878882155,6.71452883887,91.
9.72,6261.,7.,3.,3719.,0.,0.,9990.,0.903932778933,6.71492921493,91.
9.74,6262.,7.,3.,3717.,0.,0.,9989.,0.904167661351,6.71667405575,91.
9.76,6270.,10.,0.,3713.,0.,0.,9993.,0.904960395354,4.70579405584,130.
9.78,6282.,9.,4.,3703.,0.,0.,9998.,0.906238940096,5.23604720944,117.
9.8,6291.,9.,2.,3701.,0.,0.,10003.,0.907083644138,5.24092772168,117.
9.82,6294.,6.,3.,3701.,0.,0.,10004.,0.907425491342,7.8643542583,78.
9.84,6307.,4.,2.,3692.,0.,0.,10005.,0.90920885711,11.8197151424,52.
9.86,6320.,2.,4.,3680.,0.,0.,10006.,0.910991866419,23.6857885269,26.
9.88,6331.,2.,0.,3674.,0.,0.,10007.,0.912486259618,23.7246427501,26.
9.9,6336.,2.,2.,3668.,0.,0.,10008.,0.913115661317,23.7410071942,26.
9.92,6340.,2.,0.,3667.,0.,0.,10009.,0.913600836171,23.7536217404,26.
9.94,6349.,4.,1.,3657.,0.,0.,10011.,0.914714967382,11.891294576,52.
9.96,6358.,3.,3.,3645.,0.,0.,10009.,0.916194655579,15.8807073634,39.
9.98,6369.,3.,1.,3640.,0.,0.,10013.,0.917413132159,15.9018276241,39.
10.,6379.,3.,1.,3634.,0.,0.,10017.,0.918486649619,15.9204352601,39.
