t,s,e,i,r,c,o,n,reff,coal,reportr
5.,6250.,5.,3.,3734.,0.,0.,9992.,0.902164038923,9.3825060048,65.
5.02,6262.,5.,2.,3727.,0.,0.,9996.,0.903534490719,9.39675870348,65.
5.04,6264.,6.,0.,3727.,0.,0.,9997.,0.903732658259,7.83234970491,78.
5.06,6265.,4.,4.,3724.,0.,0.,9997.,0.90387693231,11.75040012,52.
5.08,6267.,9.,2.,3719.,0.,0.,9997.,0.904165480413,5.22406722017,117.
5.1,6268.,7.,6.,3713.,0.,0.,9994.,0.904581210265,6.71974613339,91.
5.12,6268.,9.,6.,3712.,0.,0.,9995.,0.904490706892,5.22594630649,117.
5.14,6272.,10.,6.,3708.,0.,0.,9996.,0.904977375566,4.70588235294,130.
5.16,6273.,10.,4.,3706.,0.,0.,9993.,0.905393390758,4.70804563194,130.
5.18,6276.,13.,1.,3701.,0.,0.,9991.,0.906007714635,3.62403085854,169.
5.2,6277.,12.,6.,3694.,0.,0.,9989.,0.906333505317,3.92744518971,156.
5.22,6275.,12.,11.,3692.,0.,0.,9990.,0.905954030954,3.9258008008,156.
5.24,6268.,14.,13.,3695.,0.,0.,9990.,0.904943404943,3.36121836122,182.
5.26,6259.,21.,13.,3693.,0.,0.,9986.,0.904005993006,2.2384910303,273.
5.28,6258.,29.,5.,3691.,0.,0.,9983.,0.904133180253,1.62120432321,377.
5.3,6258.,16.,19.,3688.,0.,0.,9981.,0.904314351113,2.93902164112,208.
5.32,6254.,24.,8.,3696.,0.,0.,9982.,0.903645793197,1.95789921859,312.
5.34,6258.,21.,5.,3702.,0.,0.,9986.,0.90386156003,2.23813338674,273.
5.36,6255.,19.,10.,3703.,0.,0.,9987.,0.903337800679,2.47229292818,247.
5.38,6264.,19.,6.,3702.,0.,0.,9991.,0.904275386309,2.474858952,247.
5.4,6268.,16.,7.,3697.,0.,0.,9988.,0.905124611072,2.94165498598,208.
5.42,6267.,20.,6.,3694.,0.,0.,9987.,0.905070822839,2.35318413938,260.
5.44,6272.,13.,10.,3694.,0.,0.,9989.,0.905611557328,3.62244622931,169.
5.46,6266.,17.,12.,3691.,0.,0.,9986.,0.905017023833,2.76828736702,221.
5.48,6256.,21.,8.,3698.,0.,0.,9983.,0.903844227494,2.23809046808,273.
5.5,6251.,23.,11.,3700.,0.,0.,9985.,0.902940949886,2.04143171279,299.
5.52,6252.,14.,16.,3703.,0.,0.,9985.,0.903085397327,3.35431719007,182.
5.54,6247.,17.,9.,3712.,0.,0.,9985.,0.902363160125,2.76016966626,221.
5.56,6246.,15.,9.,3716.,0.,0.,9986.,0.902128364325,3.12737832966,195.
5.58,6248.,12.,6.,3719.,0.,0.,9985.,0.902507607565,3.91086629945,156.
5.6,6252.,6.,11.,3713.,0.,0.,9982.,0.903356811491,7.82909236626,78.
5.62,6253.,7.,5.,3717.,0.,0.,9982.,0.903501302344,6.71172396027,91.
5.64,6256.,13.,4.,3708.,0.,0.,9981.,0.904025340455,3.61610136182,169.
5.66,6259.,7.,11.,3704.,0.,0.,9981.,0.904458856443,6.71883721929,91.
5.68,6255.,12.,7.,3704.,0.,0.,9978.,0.904152597252,3.91799458809,156.
5.7,6259.,13.,8.,3698.,0.,0.,9978.,0.904730792359,3.61892316943,169.
5.72,6265.,11.,2.,3701.,0.,0.,9979.,0.905507334633,4.28058012736,143.
5.74,6266.,6.,8.,3699.,0.,0.,9979.,0.905651868925,7.84898286401,78.
5.76,6272.,8.,4.,3697.,0.,0.,9981.,0.906337425724,5.89119326721,104.
5.78,6274.,13.,3.,3691.,0.,0.,9981.,0.906626436383,3.62650574553,169.
5.8,6281.,10.,3.,3686.,0.,0.,9980.,0.907728919377,4.72019038076,130.
5.82,6285.,9.,5.,3682.,0.,0.,9981.,0.908215995006,5.24747019337,117.
5.84,6283.,9.,10.,3678.,0.,0.,9980.,0.908017958995,5.2463259853,117.
5.86,6286.,8.,6.,3678.,0.,0.,9978.,0.908633609325,5.90611846061,104.
5.88,6282.,6.,3.,3677.,0.,0.,9968.,0.908966384739,7.87770866774,78.
5.9,6294.,3.,0.,3676.,0.,0.,9973.,0.910246126079,15.7775995187,39.
5.92,6298.,5.,0.,3669.,0.,0.,9972.,0.910915949273,9.47352587244,65.
5.94,6299.,9.,1.,3665.,0.,0.,9974.,0.910877897919,5.26285007687,117.
5.96,6304.,8.,5.,3658.,0.,0.,9975.,0.911509543088,5.92481203008,104.
5.98,6297.,11.,6.,3657.,0.,0.,9971.,0.910862655547,4.30589618986,143.
6.,6294.,22.,5.,3653.,0.,0.,9974.,0.910154864185,2.15127513353,286.
6.02,6292.,16.,2.,3661.,0.,0.,9971.,0.910139404272,2.95795306389,208.
6.04,6299.,13.,4.,3657.,0.,0.,9973.,0.910969232312,3.64387692925,169.
6.06,6297.,13.,6.,3653.,0.,0.,9969.,0.911045394569,3.64418157828,169.
6.08,6301.,12.,10.,3641.,0.,0.,9964.,0.912081570577,3.9523534725,156.
6.1,6309.,12.,5.,3641.,0.,0.,9967.,0.912964706609,3.9561803953,156.
6.12,6310.,9.,5.,3641.,0.,0.,9965.,0.91329267822,5.27680214083,117.
6.14,6318.,8.,3.,3636.,0.,0.,9965.,0.91445057702,5.94392875063,104.
6.16,6321.,7.,6.,3631.,0.,0.,9965.,0.914884789069,6.79628700452,91.
6.18,6328.,9.,2.,3633.,0.,0.,9972.,0.915255021753,5.28814012569,117.
6.2,6333.,2.,7.,3629.,0.,0.,9971.,0.916070064726,23.8178216829,26.
6.22,6329.,10.,4.,3630.,0.,0.,9973.,0.91530786971,4.75960092249,130.
6.24,6336.,10.,3.,3628.,0.,0.,9977.,0.915952845391,4.76295479603,130.
6.26,6337.,8.,4.,3622.,0.,0.,9971.,0.916648665746,5.95821632735,104.
6.28,6338.,8.,6.,3621.,0.,0.,9973.,0.916609460929,5.95796149604,104.
6.3,6341.,10.,7.,3612.,0.,0.,9970.,0.917319265489,4.77006018054,130.
6.32,6350.,9.,7.,3602.,0.,0.,9968.,0.918805562415,5.30865436062,117.
6.34,6347.,14.,9.,3599.,0.,0.,9969.,0.918279358318,3.41075190233,182.
6.36,6347.,8.,15.,3598.,0.,0.,9968.,0.918371481047,5.96941462681,104.
6.38,6341.,18.,11.,3597.,0.,0.,9967.,0.917595372421,2.65083107588,234.
6.4,6338.,20.,11.,3596.,0.,0.,9965.,0.917345324019,2.38509784245,260.
6.42,6337.,16.,17.,3597.,0.,0.,9967.,0.917016539195,2.98030375238,208.
6.44,6330.,24.,9.,3603.,0.,0.,9966.,0.91609549391,1.98487357014,312.
6.46,6324.,26.,9.,3605.,0.,0.,9964.,0.915410863725,1.83082172745,338.
6.48,6315.,22.,10.,3614.,0.,0.,9961.,0.914383402964,2.16126986155,286.
6.5,6312.,21.,10.,3618.,0.,0.,9961.,0.913949016549,2.2631118505,273.
6.52,6305.,20.,13.,3622.,0.,0.,9960.,0.913027108434,2.37387048193,260.
6.54,6299.,23.,11.,3624.,0.,0.,9957.,0.912433077618,2.06289217549,299.
6.56,6293.,28.,12.,3622.,0.,0.,9955.,0.911747092686,1.6932446007,364.
6.58,6293.,25.,10.,3628.,0.,0.,9956.,0.911655515035,1.89624347127,325.
6.6,6302.,19.,12.,3627.,0.,0.,9960.,0.912592678406,2.49762206722,247.
6.62,6302.,21.,9.,3633.,0.,0.,9965.,0.91213477942,2.2586194538,273.
6.64,6313.,21.,5.,3630.,0.,0.,9969.,0.913360262969,2.26165398449,273.
6.66,6314.,19.,6.,3633.,0.,0.,9972.,0.913230121263,2.49936664767,247.
6.68,6317.,16.,10.,3629.,0.,0.,9972.,0.913664028511,2.96940809266,208.
6.7,6316.,15.,8.,3633.,0.,0.,9972.,0.913519392761,3.16686722824,195.
6.72,6314.,7.,13.,3637.,0.,0.,9971.,0.913321709882,6.78467555912,91.
6.74,6307.,20.,8.,3637.,0.,0.,9972.,0.912217671017,2.37176594465,260.
6.76,6306.,18.,7.,3638.,0.,0.,9969.,0.912347508044,2.63567057879,234.
6.78,6305.,17.,11.,3636.,0.,0.,9969.,0.912202828769,2.79026747624,221.
6.8,6305.,18.,10.,3638.,0.,0.,9971.,0.912019857587,2.63472403303,234.
6.82,6303.,21.,10.,3637.,0.,0.,9971.,0.911730557077,2.25761852229,273.
6.84,6308.,20.,6.,3635.,0.,0.,9969.,0.912636866594,2.37285585314,260.
6.86,6311.,20.,12.,3625.,0.,0.,9968.,0.91316250463,2.37422251204,260.
6.88,6305.,25.,11.,3630.,0.,0.,9971.,0.912019857587,1.89700130378,325.
6.9,6302.,21.,14.,3633.,0.,0.,9970.,0.911677339711,2.25748674595,273.
6.92,6297.,23.,5.,3647.,0.,0.,9972.,0.910771313524,2.05913514362,299.
6.94,6306.,19.,6.,3646.,0.,0.,9977.,0.911615947448,2.49494890881,247.
6.96,6311.,22.,1.,3645.,0.,0.,9979.,0.912155912031,2.15600488298,286.
6.98,6317.,12.,8.,3642.,0.,0.,9979.,0.913023117778,3.95643351037,156.
7.,6318.,11.,9.,3644.,0.,0.,9982.,0.912893207774,4.31549516402,143.
7.02,6319.,9.,10.,3644.,0.,0.,9982.,0.913037698627,5.2753289254,117.
7.04,6322.,11.,10.,3636.,0.,0.,9979.,0.913745789234,4.31952554911,143.
7.06,6314.,19.,5.,3642.,0.,0.,9980.,0.912498073069,2.49736314735,247.
7.08,6309.,22.,4.,3638.,0.,0.,9973.,0.912415444778,2.15661832402,286.
7.1,6314.,19.,7.,3634.,0.,0.,9974.,0.913046999121,2.49886547128,247.
7.12,6320.,16.,8.,3630.,0.,0.,9974.,0.913914639601,2.9702225787,208.
7.14,6322.,13.,7.,3633.,0.,0.,9975.,0.914112203586,3.65644881434,169.
7.16,6321.,15.,5.,3632.,0.,0.,9973.,0.914150899737,3.16905645242,195.
7.18,6325.,13.,10.,3628.,0.,0.,9976.,0.914454305718,3.65781722287,169.
7.2,6317.,18.,12.,3629.,0.,0.,9976.,0.913297683672,2.63841553061,234.
7.22,6320.,22.,7.,3632.,0.,0.,9981.,0.913273681533,2.15864688362,286.
7.24,6314.,17.,14.,3635.,0.,0.,9980.,0.912498073069,2.79117057645,221.
7.26,6310.,18.,14.,3638.,0.,0.,9980.,0.911919993834,2.63443553774,234.
7.28,6307.,22.,11.,3640.,0.,0.,9980.,0.911486434407,2.15442248133,286.
7.3,6300.,22.,10.,3646.,0.,0.,9978.,0.910657292197,2.15246269065,286.
7.32,6298.,16.,12.,3650.,0.,0.,9976.,0.910550706311,2.95928979551,208.
7.34,6294.,19.,7.,3657.,0.,0.,9977.,0.909881188271,2.49020114685,247.
7.36,6291.,23.,5.,3656.,0.,0.,9975.,0.90962984384,2.05655442955,299.
7.38,6295.,18.,11.,3650.,0.,0.,9974.,0.910299470932,2.62975402714,234.
7.4,6292.,14.,9.,3660.,0.,0.,9975.,0.90977443609,3.37916219119,182.
7.42,6287.,10.,11.,3663.,0.,0.,9971.,0.909416152998,4.72896399559,130.
7.44,6284.,16.,3.,3667.,0.,0.,9970.,0.909073373968,2.9544884654,208.
7.46,6279.,18.,4.,3668.,0.,0.,9969.,0.90844116762,2.62438559535,234.
7.48,6279.,18.,7.,3668.,0.,0.,9972.,0.908167870036,2.62359606899,234.
7.5,6283.,20.,9.,3663.,0.,0.,9975.,0.908473105842,2.36203007519,260.
7.52,6282.,17.,9.,3664.,0.,0.,9972.,0.908601777284,2.77925249522,221.
7.54,6279.,21.,11.,3663.,0.,0.,9974.,0.907985762984,2.24834569882,273.
7.56,6276.,23.,7.,3664.,0.,0.,9970.,0.90791605586,2.05267977847,299.
7.58,6288.,20.,3.,3662.,0.,0.,9973.,0.909378398599,2.36438383636,260.
7.6,6292.,19.,8.,3652.,0.,0.,9971.,0.910139404272,2.49090784327,247.
7.62,6294.,20.,13.,3646.,0.,0.,9973.,0.910246126079,2.36663992781,260.
7.64,6289.,24.,5.,3653.,0.,0.,9971.,0.909705453507,1.9710284826,312.
7.66,6289.,20.,12.,3649.,0.,0.,9970.,0.909796697786,2.36547141424,260.
7.68,6289.,16.,14.,3652.,0.,0.,9971.,0.909705453507,2.9565427239,208.
7.7,6284.,20.,14.,3654.,0.,0.,9972.,0.908891048783,2.36311672684,260.
7.72,6283.,19.,17.,3655.,0.,0.,9974.,0.908564189971,2.48659673045,247.
7.74,6281.,19.,7.,3666.,0.,0.,9973.,0.908366049873,2.48605445228,247.
7.76,6281.,14.,9.,3669.,0.,0.,9973.,0.908366049873,3.37393104239,182.
7.78,6272.,15.,8.,3677.,0.,0.,9972.,0.907155419791,3.14480545527,195.
7.8,6275.,13.,11.,3680.,0.,0.,9979.,0.906952677546,3.62781071018,169.
7.82,6264.,27.,11.,3677.,0.,0.,9979.,0.905362800342,1.74366168955,351.
7.84,6259.,32.,10.,3679.,0.,0.,9980.,0.904549483583,1.46989291082,416.
7.86,6251.,22.,18.,3688.,0.,0.,9979.,0.903483854556,2.13550729259,286.
7.88,6234.,32.,10.,3703.,0.,0.,9979.,0.901026771605,1.46416850386,416.
7.9,6224.,27.,20.,3706.,0.,0.,9977.,0.89976175974,1.73287450024,351.
7.92,6220.,35.,12.,3712.,0.,0.,9979.,0.899003291528,1.33566203313,455.
7.94,6213.,22.,20.,3718.,0.,0.,9973.,0.898531805105,2.12380244843,286.
7.96,6212.,26.,15.,3722.,0.,0.,9975.,0.898207056102,1.7964141122,338.
7.98,6210.,27.,20.,3718.,0.,0.,9975.,0.897917871602,1.72932330827,351.
8.,6197.,34.,13.,3730.,0.,0.,9974.,0.896128009748,1.37054872079,442.
8.02,6187.,33.,17.,3734.,0.,0.,9971.,0.894951127501,1.41022601909,429.
8.04,6184.,29.,6.,3752.,0.,0.,9971.,0.894517176736,1.60396183415,377.
8.06,6179.,24.,8.,3757.,0.,0.,9968.,0.894062924435,1.93713633628,312.
8.08,6178.,20.,16.,3752.,0.,0.,9966.,0.89409762423,2.324653823,260.
8.1,6172.,24.,7.,3764.,0.,0.,9967.,0.893139668599,1.93513594863,312.
8.12,6169.,21.,7.,3771.,0.,0.,9968.,0.892615986542,2.21028720477,273.
8.14,6167.,20.,8.,3770.,0.,0.,9965.,0.892595237176,2.32074761666,260.
8.16,6170.,15.,14.,3767.,0.,0.,9966.,0.892939841615,3.09552478427,195.
8.18,6167.,20.,8.,3773.,0.,0.,9968.,0.892326598963,2.3200491573,260.
8.2,6164.,22.,6.,3776.,0.,0.,9968.,0.891892517595,2.10810958704,286.
8.22,6163.,21.,8.,3777.,0.,0.,9969.,0.891658371722,2.20791596807,273.
8.24,6159.,15.,15.,3774.,0.,0.,9963.,0.891616287958,3.09093646492,195.
8.26,6146.,24.,10.,3783.,0.,0.,9963.,0.889734324694,1.9277577035,312.
8.28,6148.,24.,8.,3783.,0.,0.,9963.,0.890023857504,1.92838502459,312.
8.3,6151.,21.,10.,3783.,0.,0.,9965.,0.890279439577,2.20450146943,273.
8.32,6149.,19.,12.,3782.,0.,0.,9962.,0.890257980325,2.4364955251,247.
8.34,6140.,22.,5.,3796.,0.,0.,9963.,0.888865726264,2.10095535299,286.
8.36,6139.,23.,9.,3793.,0.,0.,9964.,0.888631766668,2.00908051594,299.
8.38,6132.,27.,12.,3791.,0.,0.,9962.,0.8877967044,1.70983068996,351.
8.4,6128.,20.,17.,3794.,0.,0.,9959.,0.887484841697,2.30746058841,260.
8.42,6121.,29.,14.,3795.,0.,0.,9959.,0.886471069848,1.58953433214,377.
8.44,6120.,23.,17.,3800.,0.,0.,9960.,0.886237256719,2.00366684128,299.
8.46,6110.,22.,18.,3809.,0.,0.,9959.,0.884877999799,2.09152981771,286.
8.48,6101.,23.,19.,3819.,0.,0.,9962.,0.883308495359,1.99704529386,299.
8.5,6094.,27.,19.,3825.,0.,0.,9965.,0.88202941063,1.69872330936,351.
8.52,6081.,32.,15.,3835.,0.,0.,9963.,0.880324508373,1.43052732611,416.
8.54,6073.,29.,8.,3851.,0.,0.,9961.,0.879342898844,1.57675278413,377.
8.56,6071.,21.,10.,3856.,0.,0.,9958.,0.879318136172,2.17735919433,273.
8.58,6072.,23.,10.,3853.,0.,0.,9958.,0.879462975265,1.98835107451,299.
8.6,6077.,12.,11.,3858.,0.,0.,9958.,0.880187170732,3.81414440651,156.
8.62,6079.,15.,1.,3864.,0.,0.,9959.,0.880388438753,3.05201325434,195.
8.64,6089.,10.,5.,3854.,0.,0.,9958.,0.881925239854,4.58601124724,130.
8.66,6095.,7.,13.,3844.,0.,0.,9959.,0.882705631551,6.55724183438,91.
8.68,6091.,17.,3.,3848.,0.,0.,9959.,0.882126333351,2.69826878437,221.
8.7,6099.,9.,4.,3849.,0.,0.,9961.,0.883107581105,5.10239935749,117.
8.72,6101.,8.,5.,3850.,0.,0.,9964.,0.88313119538,5.74035276997,104.
8.74,6098.,9.,4.,3852.,0.,0.,9963.,0.882785537257,5.10053865971,117.
8.76,6101.,7.,4.,3850.,0.,0.,9962.,0.883308495359,6.56172025124,91.
8.78,6106.,7.,4.,3846.,0.,0.,9963.,0.883943668497,6.56643868026,91.
8.8,6111.,8.,6.,3837.,0.,0.,9962.,0.884756304727,5.75091598073,104.
8.82,6111.,11.,2.,3839.,0.,0.,9963.,0.884667500521,4.18206454792,143.
8.84,6115.,6.,8.,3835.,0.,0.,9964.,0.885157721644,7.67136692092,78.
8.86,6113.,13.,2.,3836.,0.,0.,9964.,0.884868217892,3.53947287157,169.
8.88,6119.,13.,3.,3827.,0.,0.,9962.,0.885914552222,3.54365820889,169.
8.9,6126.,14.,5.,3819.,0.,0.,9964.,0.88674999228,3.29364282847,182.
8.92,6122.,9.,8.,3822.,0.,0.,9961.,0.886437876951,5.12164106683,117.
8.94,6113.,14.,13.,3824.,0.,0.,9964.,0.884868217892,3.28665338074,182.
8.96,6108.,20.,4.,3835.,0.,0.,9967.,0.883878336974,2.29808367613,260.
8.98,6117.,19.,7.,3827.,0.,0.,9970.,0.88491435846,2.42187087579,247.
9.,6114.,18.,11.,3829.,0.,0.,9972.,0.884302971397,2.55465302848,234.
9.02,6107.,26.,15.,3822.,0.,0.,9970.,0.883467710825,1.76693542165,338.
9.04,6102.,22.,12.,3835.,0.,0.,9971.,0.882655855828,2.08627747741,286.
9.06,6096.,20.,12.,3842.,0.,0.,9970.,0.881876398426,2.29287863591,260.
9.08,6096.,19.,11.,3846.,0.,0.,9972.,0.881699527909,2.41307239217,247.
9.1,6091.,24.,8.,3851.,0.,0.,9974.,0.880799694591,1.90839933828,312.
9.12,6090.,25.,9.,3851.,0.,0.,9975.,0.880566801619,1.83157894737,325.
9.14,6102.,18.,6.,3853.,0.,0.,9979.,0.881948245161,2.54785048602,234.
9.16,6101.,16.,10.,3853.,0.,0.,9980.,0.881715353784,2.8655748998,208.
9.18,6102.,17.,8.,3850.,0.,0.,9977.,0.882125041441,2.69826483264,221.
9.2,6104.,15.,9.,3850.,0.,0.,9978.,0.882325731995,3.05872920425,195.
9.22,6100.,20.,5.,3851.,0.,0.,9976.,0.881924310653,2.2930032077,260.
9.24,6100.,20.,6.,3849.,0.,0.,9975.,0.882012724118,2.29323308271,260.
9.26,6100.,18.,8.,3849.,0.,0.,9975.,0.882012724118,2.54803675856,234.
9.28,6093.,23.,10.,3850.,0.,0.,9976.,0.880912266362,1.99162773265,299.
9.3,6101.,17.,13.,3844.,0.,0.,9975.,0.882157316368,2.69836355595,221.
9.32,6096.,12.,13.,3851.,0.,0.,9972.,0.881699527909,3.82069795427,156.
9.34,6098.,18.,11.,3848.,0.,0.,9975.,0.881723539618,2.54720133668,234.
9.36,6093.,20.,9.,3852.,0.,0.,9974.,0.881088908084,2.29083116102,260.
9.38,6094.,22.,3.,3855.,0.,0.,9974.,0.881233514831,2.08291558051,286.
9.4,6094.,16.,9.,3850.,0.,0.,9969.,0.881675501748,2.86544538068,208.
9.42,6099.,15.,7.,3850.,0.,0.,9971.,0.882221905063,3.05836927089,195.
9.44,6094.,16.,3.,3855.,0.,0.,9968.,0.88176395234,2.8657328451,208.
9.46,6093.,9.,8.,3858.,0.,0.,9968.,0.88161925855,5.09380016051,117.
9.48,6104.,12.,0.,3853.,0.,0.,9969.,0.883122294498,3.82686327616,156.
9.5,6110.,7.,5.,3844.,0.,0.,9966.,0.884256472005,6.56876236346,91.
9.52,6119.,8.,2.,3841.,0.,0.,9970.,0.885203687987,5.75382397192,104.
9.54,6117.,10.,5.,3837.,0.,0.,9969.,0.885003125072,4.60201625038,130.
9.56,6114.,14.,4.,3836.,0.,0.,9968.,0.884657828127,3.28587193304,182.
9.58,6114.,8.,8.,3836.,0.,0.,9966.,0.884835363312,5.75142986153,104.
9.6,6116.,8.,6.,3838.,0.,0.,9968.,0.884947215706,5.75215690209,104.
9.62,6109.,16.,3.,3836.,0.,0.,9964.,0.884289210388,2.87393993376,208.
9.64,6114.,13.,10.,3830.,0.,0.,9967.,0.884746586813,3.53898634725,169.
9.66,6108.,17.,3.,3838.,0.,0.,9966.,0.883967026351,2.70389913943,221.
9.68,6110.,15.,7.,3834.,0.,0.,9966.,0.884256472005,3.06542243628,195.
9.7,6116.,9.,10.,3833.,0.,0.,9968.,0.884947215706,5.11302835741,117.
9.72,6111.,10.,10.,3835.,0.,0.,9966.,0.884401194832,4.59888621312,130.
9.74,6114.,14.,9.,3831.,0.,0.,9968.,0.884657828127,3.28587193304,182.
9.76,6112.,18.,9.,3827.,0.,0.,9966.,0.884545917659,2.55535487324,234.
9.78,6105.,20.,12.,3826.,0.,0.,9963.,0.883798902092,2.29787714544,260.
9.8,6103.,24.,6.,3827.,0.,0.,9960.,0.883775486562,1.91484688755,312.
9.82,6099.,19.,15.,3828.,0.,0.,9961.,0.883107581105,2.41692601144,247.
9.84,6098.,20.,6.,3838.,0.,0.,9962.,0.882874152549,2.29547279663,260.
9.86,6094.,18.,7.,3842.,0.,0.,9961.,0.882383603747,2.5491081886,234.
9.88,6099.,16.,7.,3836.,0.,0.,9958.,0.883373630788,2.87096430006,208.
9.9,6106.,16.,10.,3830.,0.,0.,9962.,0.884032400043,2.87310530014,208.
9.92,6112.,13.,6.,3834.,0.,0.,9965.,0.884634682929,3.53853873171,169.
9.94,6116.,11.,6.,3831.,0.,0.,9964.,0.88530247352,4.18506623846,143.
9.96,6119.,15.,4.,3827.,0.,0.,9965.,0.885647844378,3.07024586051,195.
9.98,6116.,14.,7.,3826.,0.,0.,9963.,0.885391332546,3.28859637803,182.
10.,6118.,15.,7.,3825.,0.,0.,9965.,0.885503107028,3.06974410437,195.
