t,neff
5.,0.106581333333
5.02,0.170496
5.04,0.170393818279
5.06,0.191624040921
5.08,0.14903803132
5.1,0.0850915283102
5.12,0.212694865656
5.14,0.23393649274
5.16,0.169945808097
5.18,0.297434916587
5.2,0.275974722532
5.22,0.169715498938
5.24,0.190846594526
5.26,0.318184713376
5.28,0.296743002545
5.3,0.169442678533
5.32,0.148108852181
5.34,0.190436854647
5.36,0.190346141632
5.38,0.190112573331
5.4,0.190022187005
5.42,0.168974887655
5.44,0.126603295311
5.46,0.126415691237
5.48,0.168297793924
5.5,0.210423246999
5.52,0.189253354381
5.54,0.18908230842
5.56,0.189052498818
5.58,0.273052620512
5.6,0.167926451274
5.62,0.146784270489
5.64,0.104734937864
5.66,0.104690038254
5.68,0.104552590267
5.7,0.1463130362
5.72,0.104384177248
5.74,0.229599205727
5.76,0.229383450796
5.78,0.270753664007
5.8,0.0832213366674
5.82,0.20810670001
5.84,0.270592893612
5.86,0.187187255974
5.88,0.166320062451
5.9,0.228860443334
5.92,0.332991880075
5.94,0.332665522442
5.96,0.249560062403
5.98,0.291406274387
6.,0.312304809494
6.02,0.312154782337
6.04,0.270395674102
6.06,0.291088244465
6.08,0.187001090512
6.1,0.186861677299
6.12,0.186592074592
6.14,0.124240260748
6.16,0.206959309239
6.18,0.248221981088
6.2,0.123962848297
6.22,0.082586233565
6.24,0.0412525751957
6.26,0.0618721037996
6.28,0.12356117883
6.3,0.102845403184
6.32,0.226352240033
6.34,0.205614575314
6.36,0.102706859428
6.38,0.205415384615
6.4,0.184855384615
6.42,0.267122191443
6.44,0.184807012148
6.46,0.328661950169
6.48,0.307645072152
6.5,0.245763335377
6.52,0.122818627451
6.54,0.225134569225
6.56,0.225088068617
6.58,0.286666666667
6.6,0.348134969325
6.62,0.368345588235
6.64,0.265551648575
6.66,0.244848114792
6.68,0.224328198872
6.7,0.244820747521
6.72,0.183362777947
6.74,0.224086479903
6.76,0.183103133557
6.78,0.121969604863
6.8,0.203312566479
6.82,0.223588652482
6.84,0.223520713056
6.86,0.447517363751
6.88,0.284913775614
6.9,0.28494368341
6.92,0.244337496193
6.94,0.223907835972
6.96,0.162627737226
6.98,0.20334651658
7.,0.223691761723
7.02,0.182983123004
7.04,0.203418023227
7.06,0.243917274939
7.08,0.203265388906
7.1,0.243942804989
7.12,0.203163017032
7.14,0.142084472805
7.16,0.223342449104
7.18,0.202925841559
7.2,0.182606318348
7.22,0.182504933961
7.24,0.162046615097
7.26,0.263393019727
7.28,0.182127917551
7.3,0.202261940826
7.32,0.1818698941
7.34,0.20197620488
7.36,0.282908724155
7.38,0.262449987402
7.4,0.282638447972
7.42,0.302811366384
7.44,0.383754789272
7.46,0.363723323747
7.48,0.26266202653
7.5,0.3032873807
7.52,0.364016356202
7.54,0.648023455667
7.56,0.60832068023
7.58,0.425481031867
7.6,0.629814307459
7.62,0.427256097561
7.64,0.900101180439
7.66,1.02598800554
7.68,0.924134748498
7.7,0.656985346858
7.72,0.534433328203
7.74,0.534762564814
7.76,0.514698324597
7.78,0.535125912221
7.8,0.453218106996
7.82,0.620034061001
7.84,0.60032878412
7.86,0.518121569847
7.88,0.622318930682
7.9,0.705545365045
7.92,0.64389935149
7.94,0.477954946538
7.96,0.583384359055
7.98,0.459064601908
8.,0.585446568473
8.02,0.627791718947
8.04,0.502598870057
8.06,0.460820770519
8.08,0.629290545855
8.1,0.672089042895
8.12,0.525762355415
8.14,0.505377567142
8.16,0.738876570582
8.18,0.654941108118
8.2,0.549566687802
8.22,0.719919538403
8.24,0.571939634632
8.26,0.550691863851
8.28,0.50837275758
8.3,0.678775553438
8.32,0.551274883523
8.34,0.572670057217
8.36,0.44559618442
8.38,0.44609263091
8.4,0.510388782664
8.42,0.446500956023
8.44,0.660264879529
8.46,0.618296059639
8.48,0.490705876086
8.5,0.662153255481
8.52,0.641589234218
8.54,0.59942902967
8.56,0.535838552541
8.58,0.643562128275
8.6,0.47241956242
8.62,0.602327155518
8.64,0.516280419016
8.66,0.495346561274
8.68,0.581811138016
8.7,0.517185280828
8.72,0.474268798105
8.74,0.27978716543
8.76,0.279600515464
8.78,0.30114994363
8.8,0.279594202898
8.82,0.128918918919
8.84,0.193246502653
8.86,0.193270065948
8.88,0.171708989607
8.9,0.0858097686377
8.92,0.0857271268061
8.94,0.0856687523399
8.96,0.0855778169577
8.98,0.0640986231187
9.,0.106818181818
9.02,0.128133098704
9.04,0.0639936102235
9.06,0.149196319345
9.08,0.234432561852
9.1,0.234310940907
9.12,0.383762376237
9.14,0.662259199998
9.16,0.448770806659
9.18,0.42773418735
9.2,0.470479240046
9.22,0.384845476381
9.24,0.23521657854
9.26,0.256646361013
9.28,0.192122860342
9.3,0.213427184984
9.32,0.106656008527
9.34,0.213094857873
9.36,0.212988670816
9.38,0.362449414271
9.4,0.319463515887
9.42,0.25540769108
9.44,0.234086364603
9.46,0.170051510807
9.48,0.255092415552
9.5,0.169990442816
9.52,0.339974522293
9.54,0.425239005735
9.56,0.532089115754
9.58,0.468099033047
9.6,0.469127123608
9.62,0.576725876139
9.64,0.641473178543
9.66,0.577741470447
9.68,0.363704890027
9.7,0.321102387437
9.72,0.342639734957
9.74,0.299887766555
9.76,0.342777688646
9.78,0.321289908551
9.8,0.342840021402
9.82,0.278529695024
9.84,0.407580481012
9.86,0.34321225758
9.88,0.471859468722
9.9,0.34322566822
9.92,0.321599486109
9.94,0.171437132156
9.96,0.364465146161
9.98,0.150049783202
10.,0.235929734362
