t,neff
5.,0.106581333333
5.02,0.127752037067
5.04,0.1276908336
5.06,0.106305156831
5.08,0.191307397959
5.1,0.191288265306
5.12,0.212390508043
5.14,0.233383187483
5.16,0.190957683742
5.18,0.254696993797
5.2,0.23330048217
5.22,0.361007690268
5.24,0.467856384109
5.26,0.596379888269
5.28,0.704732042873
5.3,0.812858974359
5.32,0.663880597014
5.34,0.600791123976
5.36,0.730147492624
5.38,0.51516964142
5.4,0.558716875873
5.42,0.494449991948
5.44,0.558999302088
5.46,0.624154838709
5.48,0.495399849316
5.5,0.668483966588
5.52,0.604145368272
5.54,0.452990457706
5.56,0.496836762244
5.58,0.367026064432
5.6,0.280666990449
5.62,0.302410887881
5.64,0.32389896373
5.66,0.388649173955
5.68,0.259299610895
5.7,0.23772985244
5.72,0.368430065572
5.74,0.412161458333
5.76,0.498607677294
5.78,0.411949910555
5.8,0.477292988449
5.82,0.564455300439
5.84,0.892080069623
5.86,0.806261437911
5.88,0.720864864864
5.9,0.919632183911
5.92,0.965740618826
5.94,0.96749216818
5.96,0.857974265922
5.98,0.594942984632
6.,0.529049743844
6.02,0.507288771233
6.04,0.64064102564
6.06,0.685709225746
6.08,0.885698460174
6.1,0.753469704528
6.12,0.821865866533
6.14,0.644702480257
6.16,0.556297656815
6.18,0.422715637172
6.2,0.31155785607
6.22,0.155700934579
6.24,0.311818536477
6.26,0.356007130124
6.28,0.334036144579
6.3,0.579518946368
6.32,0.334102692758
6.34,0.378523100931
6.36,0.445381055917
6.38,0.377979730483
6.4,0.399839759639
6.42,0.266435362802
6.44,0.288311399855
6.46,0.310261873058
6.48,0.221586245147
6.5,0.332334831087
6.52,0.44329004329
6.54,0.42120990121
6.56,0.354584997781
6.58,0.332191553043
6.6,0.287602591793
6.62,0.265550016617
6.64,0.331827992695
6.66,0.243115016857
6.68,0.331510028178
6.7,0.419954693629
6.72,0.420135964184
6.74,0.464839030865
6.76,0.398393627614
6.78,0.464901277584
6.8,0.243342175066
6.82,0.287375980554
6.84,0.331697612732
6.86,0.442483551721
6.88,0.354292669433
6.9,0.487168934616
6.92,0.376423870361
6.94,0.376586445367
6.96,0.309810945274
6.98,0.243108018555
7.,0.220970680802
7.02,0.264884182661
7.04,0.264796559709
7.06,0.176385170495
7.08,0.110236914601
7.1,0.04405107882
7.12,0.110095175221
7.14,0.0880123131047
7.16,0.109899522319
7.18,0.131709725193
7.2,0.0657617091209
7.22,0.0437923299962
7.24,0.0656388387733
7.26,0.0437034610766
7.28,0.0655188216039
7.3,0.174637444117
7.32,0.108934595712
7.34,0.108830886351
7.36,0.195856443719
7.38,0.130490627547
7.4,0.130461137363
7.42,0.173660757847
7.44,0.129978899529
7.46,0.173147367283
7.48,0.19452631579
7.5,0.129658299595
7.52,0.129482535576
7.54,0.0215538685188
7.56,0.193992248062
7.58,0.107603847601
7.6,0.129025607988
7.62,0.12891391794
7.64,0.128761047726
7.66,0.214421069536
7.68,0.257108936307
7.7,0.214188719594
7.72,0.106858666667
7.74,0.106664537421
7.76,0.106579437264
7.78,0.0851362115663
7.8,0.127574793125
7.82,0.148869786692
7.84,0.0849923121788
7.86,0.212375503285
7.88,0.127357052096
7.9,0.233456084656
7.92,0.27550906113
7.94,0.169459502298
7.96,0.105811559778
7.98,0.169237914292
8.,0.126835443038
8.02,0.126695116169
8.04,0.126549818411
8.06,0.0842587629406
8.08,0.0630946009761
8.1,0.147212254748
8.12,0.105014934759
8.14,0.146773366808
8.16,0.167566494226
8.18,0.188286877545
8.2,0.167102219444
8.22,0.208847897452
8.24,0.146124406903
8.26,0.187815480844
8.28,0.208618623313
8.3,0.292419119182
8.32,0.376320902538
8.34,0.292373350029
8.36,0.292307211012
8.38,0.333994266354
8.4,0.375647279549
8.42,0.396347916666
8.44,0.374922764862
8.46,0.270835024192
8.48,0.31219588272
8.5,0.187261384903
8.52,0.458393461398
8.54,0.354319329481
8.56,0.459411764707
8.58,0.564650579755
8.6,0.460899769827
8.62,0.502771065433
8.64,0.502857142856
8.66,0.377202072539
8.68,0.524723402023
8.7,0.524618530753
8.72,0.524648625969
8.74,0.609071537293
8.76,0.609638149259
8.78,0.71568033649
8.8,0.716286706665
8.82,0.61123006474
8.84,0.548646739418
8.86,0.506772201996
8.88,0.549351074503
8.9,0.656192893402
8.92,0.550834392208
8.94,0.956823979593
8.96,0.831135964214
8.98,0.83428479795
9.,1.03065336337
9.02,0.881842713542
9.04,0.581064859631
9.06,0.885269008686
9.08,0.649545454545
9.1,0.759310456985
9.12,0.629512962359
9.14,0.695200564512
9.16,0.630207450853
9.18,0.630966829797
9.2,0.588101927476
9.22,0.785440261864
9.24,0.698143722376
9.26,0.611214851216
9.28,0.545618345619
9.3,0.655278688526
9.32,0.589708101016
9.34,0.436665574129
9.36,0.525342533269
9.38,0.547501643657
9.4,0.569984098263
9.42,0.526866556838
9.44,0.50539556875
9.46,0.528624338624
9.48,0.61840680588
9.5,0.796571998009
9.52,0.842336495258
9.54,0.73184346378
9.56,0.82189316881
9.58,1.04692414869
9.6,0.914282845189
9.62,0.714160942646
9.64,0.827414623219
9.66,0.694124768791
9.68,0.988898638764
9.7,0.83297949065
9.72,0.857204811116
9.74,0.722735854387
9.76,0.883451327435
9.78,0.793548020674
9.8,0.862803185441
9.82,0.544447476126
9.84,0.659262043049
9.86,0.568055081372
9.88,0.75049538777
9.9,0.522604788718
9.92,0.728469515668
9.94,0.683036935703
9.96,0.636911513497
9.98,0.591881481481
10.,0.59297933082
