t,s,e,i,r,c,o,n,reff,coal,reportr
5.,6250.,5.,3.,3734.,0.,0.,9992.,0.902164038923,9.3825060048,65.
5.02,6260.,4.,2.,3728.,0.,0.,9994.,0.903426671387,11.744546728,52.
5.04,6256.,9.,2.,3726.,0.,0.,9993.,0.902939750133,5.21698522299,117.
5.06,6265.,5.,5.,3716.,0.,0.,9991.,0.904419747003,9.40596536883,65.
5.08,6268.,6.,5.,3711.,0.,0.,9990.,0.904943404943,7.84284284284,78.
5.1,6273.,6.,3.,3707.,0.,0.,9989.,0.905755946926,7.84988487336,78.
5.12,6276.,9.,1.,3703.,0.,0.,9989.,0.90618911572,5.23575933527,117.
5.14,6277.,7.,6.,3698.,0.,0.,9988.,0.906424247559,6.73343726758,91.
5.16,6285.,5.,2.,3697.,0.,0.,9989.,0.9074886221,9.43788166984,65.
5.18,6294.,6.,3.,3690.,0.,0.,9993.,0.908424358589,7.87301110778,78.
5.2,6298.,5.,4.,3686.,0.,0.,9993.,0.909001685795,9.45361753227,65.
5.22,6307.,3.,4.,3676.,0.,0.,9990.,0.910574035574,15.7832832833,39.
5.24,6316.,1.,3.,3672.,0.,0.,9992.,0.911690891174,47.4079263411,13.
5.26,6317.,5.,1.,3672.,0.,0.,9995.,0.911561550006,9.48024012006,65.
5.28,6320.,3.,2.,3667.,0.,0.,9992.,0.912268276159,15.8126501201,39.
5.3,6325.,6.,2.,3661.,0.,0.,9994.,0.912807299764,7.91099659796,78.
5.32,6335.,7.,2.,3651.,0.,0.,9995.,0.914159002578,6.79089544772,91.
5.34,6342.,7.,4.,3643.,0.,0.,9996.,0.915077569489,6.79771908764,91.
5.36,6334.,11.,7.,3641.,0.,0.,9993.,0.914197630649,4.32166152671,143.
5.38,6335.,10.,4.,3647.,0.,0.,9996.,0.914067550097,4.7531512605,130.
5.4,6331.,14.,4.,3647.,0.,0.,9996.,0.913490396158,3.39296432859,182.
5.42,6339.,9.,7.,3644.,0.,0.,9999.,0.914370283182,5.28302830283,117.
5.44,6334.,16.,4.,3646.,0.,0.,10000.,0.913557692308,2.9690625,208.
5.46,6338.,13.,4.,3641.,0.,0.,9996.,0.914500415551,3.6580016622,169.
5.48,6337.,12.,4.,3642.,0.,0.,9995.,0.91444760842,3.96260630315,156.
5.5,6339.,11.,6.,3637.,0.,0.,9993.,0.914919289657,4.32507300565,143.
5.52,6343.,11.,2.,3639.,0.,0.,9995.,0.915313425944,4.32693619537,143.
5.54,6352.,8.,2.,3634.,0.,0.,9996.,0.916520454336,5.95738295318,104.
5.56,6357.,9.,4.,3628.,0.,0.,9998.,0.917058411682,5.29855971194,117.
5.58,6360.,2.,8.,3629.,0.,0.,9999.,0.917399432251,23.8523852385,26.
5.6,6366.,6.,4.,3624.,0.,0.,10000.,0.918173076923,7.9575,78.
5.62,6374.,7.,1.,3620.,0.,0.,10002.,0.919143094458,6.82792013026,91.
5.64,6370.,8.,2.,3617.,0.,0.,9997.,0.919025707712,5.97366710013,104.
5.66,6374.,8.,0.,3614.,0.,0.,9996.,0.919694800997,5.97801620648,104.
5.68,6383.,7.,3.,3605.,0.,0.,9998.,0.920809161832,6.84029663075,91.
5.7,6384.,7.,7.,3597.,0.,0.,9995.,0.921229845692,6.84342171086,91.
5.72,6391.,10.,4.,3591.,0.,0.,9996.,0.922147705236,4.79516806723,130.
5.74,6398.,7.,6.,3584.,0.,0.,9995.,0.923250086582,6.85842921461,91.
5.76,6393.,13.,7.,3582.,0.,0.,9995.,0.922528571978,3.69011428791,169.
5.78,6389.,11.,9.,3584.,0.,0.,9993.,0.922135879731,4.35918779509,143.
5.8,6384.,12.,10.,3585.,0.,0.,9991.,0.921598669572,3.99359423481,156.
5.82,6381.,13.,10.,3584.,0.,0.,9988.,0.921442269185,3.68576907674,169.
5.84,6378.,17.,9.,3588.,0.,0.,9992.,0.920640358441,2.81607639052,221.
5.86,6360.,27.,11.,3595.,0.,0.,9993.,0.917950257488,1.76790419961,351.
5.88,6361.,24.,8.,3600.,0.,0.,9993.,0.918094589289,1.98920494346,312.
5.9,6357.,22.,5.,3609.,0.,0.,9993.,0.917517262083,2.16867716492,286.
5.92,6353.,27.,2.,3613.,0.,0.,9995.,0.916756455151,1.76560502473,351.
5.94,6354.,21.,12.,3607.,0.,0.,9994.,0.916992503194,2.27064810315,273.
5.96,6347.,23.,10.,3617.,0.,0.,9997.,0.915707404529,2.07029500154,299.
5.98,6351.,21.,15.,3617.,0.,0.,10004.,0.915643358041,2.26730736277,273.
6.,6346.,23.,14.,3621.,0.,0.,10004.,0.914922492541,2.06852041792,299.
6.02,6335.,23.,14.,3630.,0.,0.,10002.,0.913519219233,2.06534780001,299.
6.04,6340.,23.,7.,3633.,0.,0.,10003.,0.914148832273,2.06677127297,299.
6.06,6342.,19.,12.,3632.,0.,0.,10005.,0.914254411256,2.50216996765,247.
6.08,6335.,20.,9.,3641.,0.,0.,10005.,0.913245300427,2.37443778111,260.
6.1,6329.,17.,6.,3652.,0.,0.,10004.,0.912471549842,2.79108944657,221.
6.12,6327.,17.,8.,3653.,0.,0.,10005.,0.912092030908,2.78992856513,221.
6.14,6329.,17.,7.,3652.,0.,0.,10005.,0.912380348287,2.79081047711,221.
6.16,6322.,20.,7.,3655.,0.,0.,10004.,0.911462338142,2.36980207917,260.
6.18,6319.,19.,15.,3650.,0.,0.,10003.,0.911120894501,2.49359402706,247.
6.2,6317.,23.,10.,3651.,0.,0.,10001.,0.911014667764,2.05968533581,299.
6.22,6310.,21.,14.,3655.,0.,0.,10000.,0.910096153846,2.25357142857,273.
6.24,6301.,21.,13.,3662.,0.,0.,9997.,0.909070798163,2.25103245259,273.
6.26,6298.,24.,12.,3667.,0.,0.,10001.,0.90827455716,1.96792820718,312.
6.28,6302.,19.,17.,3667.,0.,0.,10005.,0.90848806366,2.48638838475,247.
6.3,6294.,29.,17.,3667.,0.,0.,10007.,0.907153454121,1.6266199867,377.
6.32,6290.,31.,9.,3677.,0.,0.,10007.,0.906576934607,1.52070969676,403.
6.34,6290.,18.,16.,3682.,0.,0.,10006.,0.906667537939,2.61926177627,234.
6.36,6275.,26.,16.,3688.,0.,0.,10005.,0.904595779034,1.80919155807,338.
6.38,6266.,32.,13.,3697.,0.,0.,10008.,0.903027577938,1.46741981415,416.
6.4,6265.,28.,12.,3704.,0.,0.,10009.,0.902793255301,1.67661604556,364.
6.42,6257.,32.,18.,3700.,0.,0.,10007.,0.901820648623,1.46545855401,416.
6.44,6251.,28.,12.,3718.,0.,0.,10009.,0.900775840205,1.67286941752,364.
6.46,6253.,23.,18.,3716.,0.,0.,10010.,0.900974025974,2.03698475438,299.
6.48,6244.,25.,16.,3726.,0.,0.,10011.,0.899587376962,1.87114174408,325.
6.5,6230.,28.,9.,3742.,0.,0.,10009.,0.897749717562,1.66724947547,364.
6.52,6225.,22.,11.,3748.,0.,0.,10006.,0.897298159566,2.12088655897,286.
6.54,6223.,23.,12.,3749.,0.,0.,10007.,0.89692023276,2.02781965668,299.
6.56,6224.,17.,13.,3752.,0.,0.,10006.,0.897154015283,2.74423581145,221.
6.58,6224.,16.,8.,3758.,0.,0.,10006.,0.897154015283,2.91575054967,208.
6.6,6224.,20.,1.,3762.,0.,0.,10007.,0.897064362638,2.33236734286,260.
6.62,6231.,12.,9.,3758.,0.,0.,10010.,0.897804118958,3.89048451548,156.
6.64,6228.,14.,8.,3759.,0.,0.,10009.,0.897461515405,3.33342848579,182.
6.66,6227.,17.,5.,3757.,0.,0.,10006.,0.897586448131,2.74555854722,221.
6.68,6227.,12.,6.,3757.,0.,0.,10002.,0.897945410918,3.89109678064,156.
6.7,6230.,13.,5.,3754.,0.,0.,10002.,0.898378016704,3.59351206682,169.
6.72,6230.,11.,10.,3752.,0.,0.,10003.,0.898288205846,4.24645333673,143.
6.74,6233.,15.,2.,3758.,0.,0.,10008.,0.898271767202,3.11400879297,195.
6.76,6238.,12.,3.,3756.,0.,0.,10009.,0.898902526188,3.89524428015,156.
6.78,6241.,5.,9.,3754.,0.,0.,10009.,0.899334829423,9.353082226,65.
6.8,6245.,10.,5.,3746.,0.,0.,10006.,0.900181045219,4.68094143514,130.
6.82,6240.,13.,7.,3746.,0.,0.,10006.,0.899460323806,3.59784129522,169.
6.84,6241.,17.,9.,3742.,0.,0.,10009.,0.899334829423,2.75090653706,221.
6.86,6233.,16.,15.,3740.,0.,0.,10004.,0.898630932242,2.92055052979,208.
6.88,6231.,18.,13.,3744.,0.,0.,10006.,0.898163025262,2.59469318409,234.
6.9,6223.,23.,15.,3745.,0.,0.,10006.,0.897009871,2.02802231704,299.
6.92,6217.,22.,11.,3757.,0.,0.,10007.,0.89605545349,2.1179492537,286.
6.94,6216.,24.,10.,3758.,0.,0.,10008.,0.895821804095,1.94094724221,312.
6.96,6211.,18.,18.,3759.,0.,0.,10006.,0.895280139609,2.58636484776,234.
6.98,6191.,33.,12.,3771.,0.,0.,10007.,0.892308076654,1.4060612117,429.
7.,6186.,31.,10.,3782.,0.,0.,10009.,0.891409270118,1.49526716278,403.
7.02,6187.,25.,21.,3778.,0.,0.,10011.,0.891375256449,1.85406053341,325.
7.04,6165.,38.,19.,3786.,0.,0.,10008.,0.888471914776,1.21580367285,494.
7.06,6153.,33.,17.,3803.,0.,0.,10006.,0.886919771214,1.39757054858,429.
7.08,6140.,38.,13.,3810.,0.,0.,10001.,0.885488374239,1.21172093317,494.
7.1,6136.,39.,17.,3811.,0.,0.,10003.,0.884734579626,1.17964610617,507.
7.12,6135.,36.,21.,3816.,0.,0.,10008.,0.88414845047,1.27710331735,468.
7.14,6126.,39.,24.,3824.,0.,0.,10013.,0.882410558582,1.17654741144,507.
7.16,6109.,39.,20.,3843.,0.,0.,10011.,0.880137617851,1.1735168238,507.
7.18,6107.,33.,21.,3849.,0.,0.,10010.,0.879937370322,1.38656797748,429.
7.2,6103.,39.,14.,3855.,0.,0.,10011.,0.879273184113,1.17236424548,507.
7.22,6105.,34.,10.,3864.,0.,0.,10013.,0.879385644816,1.34494275089,442.
7.24,6100.,28.,16.,3869.,0.,0.,10013.,0.878665427252,1.63180722204,364.
7.26,6090.,32.,12.,3881.,0.,0.,10015.,0.877049809901,1.42520594109,416.
7.28,6086.,31.,8.,3890.,0.,0.,10015.,0.876473750912,1.47021403379,403.
7.3,6084.,30.,12.,3888.,0.,0.,10014.,0.876273217496,1.51887357699,390.
7.32,6083.,20.,12.,3897.,0.,0.,10012.,0.876304204186,2.27839093088,260.
7.34,6087.,15.,12.,3901.,0.,0.,10015.,0.876617765659,3.03894158762,195.
7.36,6080.,23.,12.,3900.,0.,0.,10015.,0.875609662429,1.9796392368,299.
7.38,6080.,24.,7.,3904.,0.,0.,10015.,0.875609662429,1.8971542686,312.
7.4,6079.,15.,11.,3910.,0.,0.,10015.,0.875465647682,3.03494757863,195.
7.42,6077.,15.,13.,3914.,0.,0.,10019.,0.874828211014,3.03273779818,195.
7.44,6075.,17.,7.,3921.,0.,0.,10020.,0.874453017043,2.6747974639,221.
7.46,6075.,13.,8.,3921.,0.,0.,10017.,0.874714907734,3.49885963094,169.
7.48,6077.,9.,6.,3923.,0.,0.,10015.,0.875177618188,5.05658179398,117.
7.5,6074.,11.,8.,3923.,0.,0.,10016.,0.874658239125,4.1347480395,143.
7.52,6065.,14.,12.,3922.,0.,0.,10013.,0.873623904309,3.24488878743,182.
7.54,6066.,20.,3.,3922.,0.,0.,10011.,0.873942509394,2.27225052442,260.
7.56,6072.,15.,9.,3913.,0.,0.,10009.,0.874981747197,3.03327005695,195.
7.58,6076.,13.,10.,3913.,0.,0.,10012.,0.875295798887,3.50118319555,169.
7.6,6072.,16.,8.,3914.,0.,0.,10010.,0.874894336433,2.84340659341,208.
7.62,6078.,15.,8.,3911.,0.,0.,10012.,0.875583914687,3.03535757091,195.
7.64,6072.,20.,6.,3914.,0.,0.,10012.,0.874719567288,2.27427087495,260.
7.66,6073.,15.,6.,3916.,0.,0.,10010.,0.875038423115,3.03346653347,195.
7.68,6076.,15.,2.,3917.,0.,0.,10010.,0.875470683163,3.03496503497,195.
7.7,6082.,14.,5.,3912.,0.,0.,10013.,0.876072644024,3.25398410638,182.
7.72,6085.,16.,5.,3910.,0.,0.,10016.,0.87624224318,2.84778729034,208.
7.74,6085.,18.,9.,3907.,0.,0.,10019.,0.875979869018,2.5306085105,234.
7.76,6083.,19.,10.,3910.,0.,0.,10022.,0.875429823619,2.39591320148,247.
7.78,6082.,16.,12.,3913.,0.,0.,10023.,0.875198581724,2.8443953906,208.
7.8,6080.,20.,13.,3911.,0.,0.,10024.,0.874823500522,2.27454110136,260.
7.82,6069.,22.,11.,3916.,0.,0.,10018.,0.873763763687,2.06525980508,286.
7.84,6063.,20.,11.,3922.,0.,0.,10016.,0.87307423507,2.26999301118,260.
7.86,6070.,15.,7.,3922.,0.,0.,10014.,0.874256809697,3.03075694028,195.
7.88,6070.,15.,7.,3922.,0.,0.,10014.,0.874256809697,3.03075694028,195.
7.9,6071.,13.,7.,3921.,0.,0.,10012.,0.874575509389,3.49830203755,169.
7.92,6071.,16.,5.,3920.,0.,0.,10012.,0.874575509389,2.84237040551,208.
7.94,6073.,15.,5.,3917.,0.,0.,10010.,0.875038423115,3.03346653347,195.
7.96,6072.,12.,9.,3920.,0.,0.,10013.,0.874632208898,3.79007290522,156.
7.98,6077.,11.,10.,3916.,0.,0.,10014.,0.875265013596,4.13761642791,143.
8.,6091.,11.,8.,3908.,0.,0.,10018.,0.876931139334,4.14549265867,143.
8.02,6083.,12.,9.,3913.,0.,0.,10017.,0.875866795678,3.79542278127,156.
8.04,6081.,15.,4.,3917.,0.,0.,10017.,0.875578823692,3.03533992213,195.
8.06,6086.,15.,4.,3915.,0.,0.,10020.,0.876036388761,3.0369261477,195.
8.08,6090.,11.,8.,3912.,0.,0.,10021.,0.876524682782,4.14357122769,143.
8.1,6093.,6.,11.,3915.,0.,0.,10025.,0.876606560522,7.59725685786,78.
8.12,6090.,6.,13.,3915.,0.,0.,10024.,0.876262354963,7.59427374302,78.
8.14,6085.,17.,7.,3916.,0.,0.,10025.,0.87545559179,2.67786416312,221.
8.16,6089.,12.,9.,3912.,0.,0.,10022.,0.876293308567,3.79727100379,156.
8.18,6086.,19.,4.,3913.,0.,0.,10022.,0.875861566093,2.39709481247,247.
8.2,6094.,17.,10.,3904.,0.,0.,10025.,0.876750431613,2.68182484964,221.
8.22,6088.,24.,7.,3905.,0.,0.,10024.,0.875974584075,1.89794493216,312.
8.24,6081.,22.,5.,3912.,0.,0.,10020.,0.875316674344,2.06893032118,286.
8.26,6088.,16.,3.,3914.,0.,0.,10021.,0.876236825743,2.84776968366,208.
8.28,6089.,15.,6.,3910.,0.,0.,10020.,0.876468217411,3.03842315369,195.
8.3,6092.,13.,7.,3908.,0.,0.,10020.,0.876900046062,3.50760018425,169.
8.32,6100.,13.,3.,3904.,0.,0.,10020.,0.878051589129,3.51220635652,169.
8.34,6103.,11.,6.,3897.,0.,0.,10017.,0.878746515539,4.15407443709,143.
8.36,6106.,10.,2.,3896.,0.,0.,10014.,0.879441858321,4.57309766327,130.
8.38,6108.,9.,6.,3894.,0.,0.,10017.,0.879466445504,5.08136168514,117.
8.4,6111.,7.,10.,3891.,0.,0.,10019.,0.87972275753,6.53508334165,91.
8.42,6104.,11.,8.,3896.,0.,0.,10019.,0.878715056777,4.15392572294,143.
8.44,6107.,12.,5.,3894.,0.,0.,10018.,0.879234685259,3.81001696945,156.
8.46,6112.,9.,8.,3891.,0.,0.,10020.,0.879778903731,5.08316699933,117.
8.48,6115.,10.,5.,3886.,0.,0.,10016.,0.880562254239,4.57892372204,130.
8.5,6121.,7.,4.,3884.,0.,0.,10016.,0.881426256451,6.54773790507,91.
8.52,6124.,6.,6.,3881.,0.,0.,10017.,0.881770221393,7.6420085854,78.
8.54,6129.,9.,3.,3874.,0.,0.,10015.,0.882666385038,5.09985022466,117.
8.56,6131.,10.,6.,3867.,0.,0.,10014.,0.883042586533,4.59182144997,130.
8.58,6136.,8.,2.,3865.,0.,0.,10011.,0.884027569673,5.74617920288,104.
8.6,6137.,10.,4.,3860.,0.,0.,10011.,0.884171641963,4.59769253821,130.
8.62,6140.,10.,3.,3855.,0.,0.,10008.,0.884869027855,4.60131894484,130.
8.64,6150.,8.,5.,3849.,0.,0.,10012.,0.885956083469,5.75871454255,104.
8.66,6158.,13.,1.,3843.,0.,0.,10015.,0.886842812704,3.54737125082,169.
8.68,6173.,11.,4.,3829.,0.,0.,10017.,0.888825535052,4.20172071115,143.
8.7,6171.,11.,3.,3829.,0.,0.,10014.,0.888803751671,4.20161773517,143.
8.72,6179.,11.,3.,3821.,0.,0.,10014.,0.889955984698,4.20706465494,143.
8.74,6188.,8.,6.,3812.,0.,0.,10014.,0.891252246854,5.79313960455,104.
8.76,6196.,12.,6.,3801.,0.,0.,10015.,0.892315373094,3.86669995007,156.
8.78,6195.,15.,5.,3800.,0.,0.,10015.,0.892171358347,3.09286070894,195.
8.8,6205.,11.,9.,3792.,0.,0.,10017.,0.893433086829,4.22350186501,143.
8.82,6199.,23.,4.,3793.,0.,0.,10019.,0.89239099557,2.01757964216,299.
8.84,6207.,20.,7.,3787.,0.,0.,10021.,0.893364319544,2.32274723082,260.
8.86,6203.,21.,2.,3795.,0.,0.,10021.,0.892788605467,2.21071464211,273.
8.88,6203.,15.,10.,3792.,0.,0.,10020.,0.892877706126,3.09530938124,195.
8.9,6191.,21.,14.,3793.,0.,0.,10019.,0.891239337566,2.20687835969,273.
8.92,6192.,28.,9.,3795.,0.,0.,10024.,0.890938670268,1.65460038764,364.
8.94,6191.,24.,17.,3794.,0.,0.,10026.,0.890617087879,1.92967035707,312.
8.96,6193.,16.,13.,3804.,0.,0.,10026.,0.890904801363,2.89544060443,208.
8.98,6197.,17.,6.,3809.,0.,0.,10029.,0.891213557606,2.72606499974,221.
9.,6201.,20.,6.,3803.,0.,0.,10030.,0.891699900299,2.31841974078,260.
9.02,6192.,22.,5.,3807.,0.,0.,10026.,0.890760944621,2.10543496001,286.
9.04,6190.,25.,5.,3809.,0.,0.,10029.,0.89020686164,1.85163027221,325.
9.06,6191.,17.,10.,3809.,0.,0.,10027.,0.89052826599,2.72396881362,221.
9.08,6188.,13.,13.,3811.,0.,0.,10025.,0.890274314214,3.56109725686,169.
9.1,6185.,15.,10.,3813.,0.,0.,10023.,0.890020261092,3.08540357178,195.
9.12,6192.,11.,9.,3813.,0.,0.,10025.,0.89084979858,4.21128995693,143.
9.14,6190.,9.,7.,3817.,0.,0.,10023.,0.89073976009,5.14649639163,117.
9.16,6197.,14.,5.,3808.,0.,0.,10024.,0.891658097489,3.31187293353,182.
9.18,6198.,10.,8.,3805.,0.,0.,10021.,0.89206896287,4.63875860693,130.
9.2,6200.,12.,7.,3801.,0.,0.,10020.,0.892445877476,3.86726546906,156.
9.22,6203.,16.,7.,3792.,0.,0.,10018.,0.893055960809,2.90243187263,208.
9.24,6199.,16.,12.,3790.,0.,0.,10017.,0.892569170871,2.90084980533,208.
9.26,6204.,14.,7.,3794.,0.,0.,10019.,0.893110781822,3.3172686182,182.
9.28,6204.,11.,8.,3795.,0.,0.,10018.,0.893199932429,4.22239968057,143.
9.3,6210.,11.,9.,3790.,0.,0.,10020.,0.89388530631,4.22563962983,143.
9.32,6206.,15.,9.,3790.,0.,0.,10020.,0.893309534777,3.09680638723,195.
9.34,6204.,21.,7.,3790.,0.,0.,10022.,0.892843436747,2.2108504148,273.
9.36,6200.,27.,5.,3791.,0.,0.,10023.,0.892178758087,1.71827020076,351.
9.38,6202.,24.,13.,3787.,0.,0.,10026.,0.892199512038,1.93309894275,312.
9.4,6196.,23.,9.,3793.,0.,0.,10021.,0.891781105832,2.01620076101,299.
9.42,6196.,22.,8.,3796.,0.,0.,10022.,0.891692123482,2.10763592823,286.
9.44,6199.,20.,8.,3798.,0.,0.,10025.,0.891856896221,2.31882793017,260.
9.46,6201.,18.,12.,3793.,0.,0.,10024.,0.892233639266,2.57756384677,234.
9.48,6200.,21.,6.,3796.,0.,0.,10023.,0.892178758087,2.20920454383,273.
9.5,6206.,20.,5.,3791.,0.,0.,10022.,0.893131265063,2.32214128916,260.
9.52,6207.,15.,11.,3784.,0.,0.,10017.,0.893721058815,3.09823300389,195.
9.54,6198.,20.,9.,3791.,0.,0.,10018.,0.892336102707,2.32007386704,260.
9.56,6203.,14.,12.,3784.,0.,0.,10013.,0.893501909057,3.3187213765,182.
9.58,6206.,20.,5.,3785.,0.,0.,10016.,0.893666287786,2.32353234824,260.
9.6,6209.,14.,12.,3781.,0.,0.,10016.,0.894098288892,3.3209365016,182.
9.62,6206.,19.,10.,3780.,0.,0.,10015.,0.893755520565,2.44606774049,247.
9.64,6193.,23.,11.,3787.,0.,0.,10014.,0.891972392497,2.01663323521,299.
9.66,6187.,23.,12.,3791.,0.,0.,10013.,0.891197212854,2.01488065515,299.
9.68,6184.,33.,8.,3794.,0.,0.,10019.,0.890231636813,1.40278924589,429.
9.7,6179.,28.,14.,3800.,0.,0.,10021.,0.889334321003,1.65162088186,364.
9.72,6171.,29.,24.,3800.,0.,0.,10024.,0.887917075941,1.59212717065,377.
9.74,6160.,39.,11.,3819.,0.,0.,10029.,0.885892450356,1.18118993381,507.
9.76,6157.,30.,18.,3824.,0.,0.,10029.,0.885461009227,1.53479908266,390.
9.78,6144.,34.,15.,3836.,0.,0.,10029.,0.883591431004,1.35137512977,442.
9.8,6146.,26.,20.,3842.,0.,0.,10034.,0.883438616397,1.76687723279,338.
9.82,6138.,31.,6.,3855.,0.,0.,10030.,0.882640539919,1.48055832502,403.
9.84,6136.,26.,13.,3851.,0.,0.,10026.,0.882704967086,1.76540993417,338.
9.86,6137.,27.,10.,3854.,0.,0.,10028.,0.882672747077,1.6999623277,351.
9.88,6126.,25.,16.,3856.,0.,0.,10023.,0.88153017291,1.83358275965,325.
9.9,6117.,25.,9.,3869.,0.,0.,10020.,0.880498618148,1.83143712575,325.
9.92,6115.,22.,11.,3870.,0.,0.,10018.,0.880386458221,2.08091344671,286.
9.94,6117.,21.,12.,3871.,0.,0.,10021.,0.880410752804,2.18006472123,273.
9.96,6119.,13.,12.,3876.,0.,0.,10020.,0.880786503915,3.52314601566,169.
9.98,6117.,8.,12.,3879.,0.,0.,10016.,0.880850254977,5.72552665735,104.
10.,6116.,13.,6.,3882.,0.,0.,10017.,0.880618333449,3.52247333379,169.
