t,neff
5.,0.106581333333
5.02,0.063863236939
5.04,0.127533088822
5.06,0.106256312125
5.08,0.0849474019762
5.1,0.0423891364312
5.12,0.0848172316836
5.14,0.127064059768
5.16,0.105781448539
5.18,0.148023495793
5.2,0.0633597464343
5.22,0.105515967274
5.24,0.168704553849
5.26,0.189694571926
5.28,0.231835443038
5.3,0.168321751948
5.32,0.189166666667
5.34,0.231203703704
5.36,0.0630130935481
5.38,0.188949858089
5.4,0.188849669083
5.42,0.167794225722
5.44,0.18859839547
5.46,0.0837472492926
5.48,0.125450549451
5.5,0.146129571578
5.52,0.146064691436
5.54,0.166852606288
5.56,0.145902734294
5.58,0.0832343440659
5.6,0.104014997657
5.62,0.166329377472
5.64,0.145422970935
5.66,0.207735495945
5.68,0.165938846493
5.7,0.248709175739
5.72,0.186455223881
5.74,0.394139810058
5.76,0.352467195685
5.78,0.373428793775
5.8,0.47768495428
5.82,0.561085634065
5.84,0.374057089377
5.86,0.478430637945
5.88,0.478927083333
5.9,0.920602636531
5.92,0.817703680404
5.94,0.967972638782
5.96,0.779021155669
5.98,0.950514810709
6.,0.974146289825
6.02,0.848365389711
6.04,0.657692266922
6.06,0.871339812011
6.08,0.765779904305
6.1,0.85248136315
6.12,0.789238643634
6.14,0.747279619839
6.16,0.576161357451
6.18,0.533963473245
6.2,0.662818045756
6.22,0.470217519106
6.24,0.362782757148
6.26,0.320172910663
6.28,0.298517452704
6.3,0.298422033989
6.32,0.319527383044
6.34,0.234175438596
6.36,0.276813443948
6.38,0.191495058974
6.4,0.212552390047
6.42,0.255067664385
6.44,0.127394209354
6.46,0.0848080487162
6.48,0.127141041931
6.5,0.169464550265
6.52,0.190636406919
6.54,0.148088297423
6.56,0.190407096468
6.58,0.190392653578
6.6,0.190235573123
6.62,0.189919469446
6.64,0.210909473463
6.66,0.210851735016
6.68,0.126321096581
6.7,0.0841393786736
6.72,0.0841093446667
6.74,0.0839735932095
6.76,0.104907043729
6.78,0.146754578755
6.8,0.209467022334
6.82,0.167521045752
6.84,0.188359191349
6.86,0.188091364205
6.88,0.187994995308
6.9,0.229663904956
6.92,0.146019154695
6.94,0.208607858444
6.96,0.271117353309
6.98,0.333858005413
7.,0.396580235343
7.02,0.312681328966
7.04,0.166487047708
7.06,0.187258290518
7.08,0.187123074529
7.1,0.228683159587
7.12,0.228469868905
7.14,0.228196212357
7.16,0.124265344079
7.18,0.227746798843
7.2,0.20700830882
7.22,0.26948630491
7.24,0.373114245853
7.26,0.269456499277
7.28,0.207148021898
7.3,0.248558600402
7.32,0.373205207688
7.34,0.310739709068
7.36,0.455872426072
7.38,0.393708004334
7.4,0.373064890816
7.42,0.456392290601
7.44,0.456559139785
7.46,0.352288310615
7.48,0.331514119044
7.5,0.269510229386
7.52,0.31139044072
7.54,0.290602110491
7.56,0.311293825628
7.58,0.332061423918
7.6,0.290614946987
7.62,0.290553745929
7.64,0.269758064516
7.66,0.228213879408
7.68,0.186544778432
7.7,0.26964455466
7.72,0.269623655914
7.74,0.269298653042
7.76,0.186266439734
7.78,0.289600412477
7.8,0.248154679041
7.82,0.268670687078
7.84,0.22714866883
7.86,0.247954229164
7.88,0.289174652241
7.9,0.371812702828
7.92,0.330343833642
7.94,0.289066666666
7.96,0.371559123186
7.98,0.247501542258
8.,0.247236862383
8.02,0.144264653003
8.04,0.330067859346
8.06,0.206163328197
8.08,0.30935717589
8.1,0.247499229109
8.12,0.330094533498
8.14,0.35098015016
8.16,0.454193548388
8.18,0.371440913299
8.2,0.350986930123
8.22,0.206283099388
8.24,0.268197294656
8.26,0.268182659673
8.28,0.309444444445
8.3,0.330103877404
8.32,0.32988537651
8.34,0.30923385232
8.36,0.144412566199
8.38,0.144288210505
8.4,0.185380585516
8.42,0.288607855234
8.44,0.330005142446
8.46,0.267827784628
8.48,0.370898997688
8.5,0.32941611462
8.52,0.308528325123
8.54,0.432252696456
8.56,0.452975750104
8.58,0.535913182121
8.6,0.411919441019
8.62,0.185288135593
8.64,0.247026194145
8.66,0.185214175655
8.68,0.144009855251
8.7,0.288124069224
8.72,0.226243777264
8.74,0.246623576485
8.76,0.246469864699
8.78,0.205035308566
8.8,0.266531593758
8.82,0.26657251049
8.84,0.39016605166
8.86,0.390070224
8.88,0.307680491552
8.9,0.266355732842
8.92,0.266194274028
8.94,0.30717791411
8.96,0.204711533548
8.98,0.24574409328
9.,0.265981595092
9.02,0.286323319027
9.04,0.36826253642
9.06,0.368034318982
9.08,0.285957446809
9.1,0.32669114647
9.12,0.306226097599
9.14,0.367657230299
9.16,0.306631949762
9.18,0.38849877451
9.2,0.512072846326
9.22,0.492099600368
9.24,0.451973711235
9.26,0.472903822443
9.28,0.514259287806
9.3,0.452453896338
9.32,0.39111385248
9.34,0.349766199065
9.36,0.349642416769
9.38,0.287737031331
9.4,0.205580391552
9.42,0.288005759539
9.44,0.432295107269
9.46,0.308558211257
9.48,0.432048118446
9.5,0.287810140237
9.52,0.390840400925
9.54,0.287901310717
9.56,0.246519796642
9.58,0.267118713721
9.6,0.143700282268
9.62,0.287666307084
9.64,0.205118736216
9.66,0.205107692308
9.68,0.184521685635
9.7,0.246117864287
9.72,0.163937250077
9.74,0.184429406337
9.76,0.245803873348
9.78,0.163818889572
9.8,0.204552196819
9.82,0.163449826282
9.84,0.24527607362
9.86,0.347418876794
9.88,0.265575980392
9.9,0.40899795501
9.92,0.490843299601
9.94,0.470482321684
9.96,0.553068303914
9.98,0.51254095004
10.,0.574659085088
