t,s,e,i,r,c,o,n,reff,coal,reportr
5.,6250.,5.,3.,3734.,0.,0.,9992.,0.902164038923,9.3825060048,65.
5.02,6256.,8.,3.,3723.,0.,0.,9990.,0.903210903211,5.87087087087,104.
5.04,6258.,4.,5.,3720.,0.,0.,9987.,0.903771056219,11.7490237309,52.
5.06,6264.,6.,0.,3715.,0.,0.,9985.,0.904818766611,7.84176264397,78.
5.08,6269.,6.,1.,3710.,0.,0.,9986.,0.90545032276,7.84723613058,78.
5.1,6271.,8.,0.,3706.,0.,0.,9985.,0.905829898694,5.88789434151,104.
5.12,6275.,8.,2.,3701.,0.,0.,9986.,0.906316920612,5.89105998398,104.
5.14,6279.,4.,7.,3695.,0.,0.,9985.,0.906985478217,11.7908112168,52.
5.16,6284.,9.,4.,3691.,0.,0.,9988.,0.907435075937,5.24295821653,117.
5.18,6284.,16.,5.,3682.,0.,0.,9987.,0.907525937565,2.94945929709,208.
5.2,6296.,12.,6.,3674.,0.,0.,9988.,0.909167924586,3.93972767321,156.
5.22,6300.,8.,9.,3670.,0.,0.,9987.,0.909836633778,5.91393811956,104.
5.24,6300.,10.,6.,3670.,0.,0.,9986.,0.909927744997,4.73162427398,130.
5.26,6306.,9.,10.,3662.,0.,0.,9987.,0.910703144858,5.26184039251,117.
5.28,6305.,14.,7.,3663.,0.,0.,9989.,0.910376414055,3.38139810935,182.
5.3,6303.,13.,6.,3665.,0.,0.,9987.,0.910269889318,3.64107955727,169.
5.32,6304.,19.,4.,3663.,0.,0.,9990.,0.910140910141,2.4909119646,247.
5.34,6315.,16.,3.,3657.,0.,0.,9991.,0.911637781696,2.96282279051,208.
5.36,6316.,11.,6.,3656.,0.,0.,9989.,0.911964699631,4.3111058528,143.
5.38,6319.,14.,8.,3647.,0.,0.,9988.,0.912489217831,3.38924566623,182.
5.4,6311.,21.,4.,3656.,0.,0.,9992.,0.910969159943,2.25573315795,273.
5.42,6318.,15.,6.,3655.,0.,0.,9994.,0.911797078247,3.16089653792,195.
5.44,6312.,19.,10.,3652.,0.,0.,9993.,0.911022331016,2.49332427436,247.
5.46,6314.,14.,10.,3657.,0.,0.,9995.,0.911128641244,3.38419209605,182.
5.48,6315.,14.,8.,3661.,0.,0.,9998.,0.910999507594,3.38371245678,182.
5.5,6311.,18.,5.,3662.,0.,0.,9996.,0.910604626466,2.63063558757,234.
5.52,6308.,20.,10.,3657.,0.,0.,9995.,0.91026282372,2.36668334167,260.
5.54,6303.,24.,14.,3656.,0.,0.,9997.,0.909359346265,1.97027858358,312.
5.56,6292.,28.,12.,3660.,0.,0.,9992.,0.908226581265,1.68670650806,364.
5.58,6281.,27.,17.,3665.,0.,0.,9990.,0.90682028182,1.74646869091,351.
5.6,6277.,21.,18.,3677.,0.,0.,9993.,0.905970717964,2.24335606353,273.
5.62,6262.,30.,14.,3690.,0.,0.,9996.,0.903534490719,1.56612645058,390.
5.64,6258.,34.,12.,3696.,0.,0.,10000.,0.902596153846,1.38044117647,442.
5.66,6248.,36.,17.,3700.,0.,0.,10001.,0.90106373978,1.30153651302,468.
5.68,6242.,31.,16.,3711.,0.,0.,10000.,0.900288461538,1.51016129032,403.
5.7,6234.,33.,16.,3716.,0.,0.,9999.,0.899224537838,1.41695987781,429.
5.72,6220.,33.,20.,3723.,0.,0.,9996.,0.897474374365,1.41420204445,429.
5.74,6213.,40.,18.,3726.,0.,0.,9997.,0.896374681635,1.16528708613,520.
5.76,6211.,42.,21.,3725.,0.,0.,9999.,0.895906898382,1.10921806466,546.
5.78,6203.,35.,11.,3745.,0.,0.,9994.,0.895200581888,1.33001229309,455.
5.8,6202.,36.,13.,3748.,0.,0.,9999.,0.894608691638,1.29221255459,468.
5.82,6197.,36.,8.,3755.,0.,0.,9996.,0.894155739219,1.29155828998,468.
5.84,6190.,32.,11.,3760.,0.,0.,9993.,0.893413851234,1.45179750826,416.
5.86,6192.,30.,14.,3755.,0.,0.,9991.,0.893881416352,1.54939445501,390.
5.88,6186.,29.,12.,3765.,0.,0.,9992.,0.892925879165,1.60110847299,377.
5.9,6186.,23.,18.,3765.,0.,0.,9992.,0.892925879165,2.0187889442,299.
5.92,6183.,23.,15.,3768.,0.,0.,9989.,0.892760883125,2.01841590967,299.
5.94,6178.,20.,16.,3776.,0.,0.,9990.,0.89194964195,2.31906906907,260.
5.96,6172.,21.,18.,3779.,0.,0.,9990.,0.891083391083,2.20649220649,273.
5.98,6160.,23.,13.,3790.,0.,0.,9986.,0.889707128441,2.01151176865,299.
6.,6154.,24.,9.,3797.,0.,0.,9984.,0.88901858358,1.92620693109,312.
6.02,6155.,16.,14.,3802.,0.,0.,9987.,0.88889594935,2.88891183539,208.
6.04,6147.,18.,11.,3807.,0.,0.,9983.,0.888096302175,2.56561153962,234.
6.06,6137.,23.,15.,3806.,0.,0.,9981.,0.886829206261,2.00500516198,299.
6.08,6134.,28.,3.,3818.,0.,0.,9983.,0.886218109247,1.64583363146,364.
6.1,6135.,27.,9.,3809.,0.,0.,9980.,0.886629027285,1.70758183033,351.
6.12,6138.,20.,10.,3812.,0.,0.,9980.,0.887062586712,2.30636272545,260.
6.14,6130.,27.,6.,3818.,0.,0.,9981.,0.885817668956,1.70601921428,351.
6.16,6129.,24.,11.,3818.,0.,0.,9982.,0.885584436601,1.9187662793,312.
6.18,6123.,23.,10.,3822.,0.,0.,9978.,0.885072158749,2.00103270674,299.
6.2,6119.,24.,8.,3828.,0.,0.,9979.,0.884405328112,1.91621154424,312.
6.22,6121.,22.,6.,3829.,0.,0.,9978.,0.884783061196,2.09130541737,286.
6.24,6130.,17.,5.,3823.,0.,0.,9975.,0.886350491614,2.71118973905,221.
6.26,6126.,17.,3.,3825.,0.,0.,9971.,0.886127461947,2.71050753066,221.
6.28,6131.,12.,9.,3819.,0.,0.,9971.,0.886850713222,3.8430197573,156.
6.3,6131.,14.,8.,3820.,0.,0.,9973.,0.886672862884,3.29335634785,182.
6.32,6124.,15.,7.,3825.,0.,0.,9971.,0.885838161437,3.07090562632,195.
6.34,6123.,18.,7.,3825.,0.,0.,9973.,0.885515892911,2.55815702396,234.
6.36,6114.,24.,9.,3825.,0.,0.,9972.,0.884302971397,1.91598977136,312.
6.38,6114.,24.,9.,3822.,0.,0.,9969.,0.884569087247,1.9165663557,312.
6.4,6126.,19.,6.,3823.,0.,0.,9974.,0.885860930728,2.42446149462,247.
6.42,6128.,18.,7.,3821.,0.,0.,9974.,0.886150144221,2.55998930553,234.
6.44,6136.,14.,7.,3817.,0.,0.,9974.,0.887306998195,3.29571170758,182.
6.46,6139.,16.,2.,3816.,0.,0.,9973.,0.887829832856,2.88544695678,208.
6.48,6144.,13.,8.,3809.,0.,0.,9974.,0.888463852169,3.55385540868,169.
6.5,6142.,16.,9.,3808.,0.,0.,9975.,0.888085598612,2.88627819549,208.
6.52,6149.,16.,3.,3809.,0.,0.,9977.,0.888919514884,2.88898842337,208.
6.54,6153.,12.,8.,3805.,0.,0.,9978.,0.889408622045,3.85410402886,156.
6.56,6157.,15.,3.,3804.,0.,0.,9979.,0.889897631179,3.08497845475,195.
6.58,6158.,12.,11.,3797.,0.,0.,9978.,0.890131365928,3.85723591902,156.
6.6,6154.,9.,13.,3801.,0.,0.,9977.,0.889642331208,5.14015569142,117.
6.62,6149.,13.,6.,3811.,0.,0.,9979.,0.888741356849,3.5549654274,169.
6.64,6144.,15.,7.,3812.,0.,0.,9978.,0.888107683057,3.07877330126,195.
6.66,6150.,17.,5.,3809.,0.,0.,9981.,0.888707775543,2.7184002546,221.
6.68,6156.,14.,4.,3807.,0.,0.,9981.,0.889574807519,3.30413499936,182.
6.7,6154.,13.,9.,3804.,0.,0.,9980.,0.889374903653,3.55749961461,169.
6.72,6154.,12.,6.,3806.,0.,0.,9978.,0.889553170822,3.8547304069,156.
6.74,6159.,15.,5.,3801.,0.,0.,9980.,0.890097502698,3.08567134269,195.
6.76,6165.,10.,5.,3800.,0.,0.,9980.,0.890964621551,4.63301603206,130.
6.78,6163.,12.,5.,3797.,0.,0.,9977.,0.890943400591,3.86075473589,156.
6.8,6167.,8.,7.,3797.,0.,0.,9979.,0.891342974092,5.7937293316,104.
6.82,6171.,7.,6.,3794.,0.,0.,9978.,0.892010500023,6.62636371446,91.
6.84,6183.,8.,5.,3784.,0.,0.,9980.,0.89356597811,5.80817885772,104.
6.86,6191.,11.,3.,3771.,0.,0.,9976.,0.895080886435,4.23129146315,143.
6.88,6194.,7.,2.,3771.,0.,0.,9974.,0.895694189508,6.65372826492,91.
6.9,6196.,8.,4.,3769.,0.,0.,9977.,0.895713988327,5.82214092413,104.
6.92,6203.,7.,3.,3768.,0.,0.,9981.,0.896366557999,6.65872300228,91.
6.94,6202.,8.,3.,3769.,0.,0.,9982.,0.896132268853,5.82485974755,104.
6.96,6204.,7.,2.,3768.,0.,0.,9981.,0.896511063328,6.65979647044,91.
6.98,6211.,5.,2.,3761.,0.,0.,9979.,0.897702482906,9.33610582223,65.
7.,6218.,4.,3.,3753.,0.,0.,9978.,0.89880429252,11.6844558028,52.
7.02,6225.,5.,4.,3748.,0.,0.,9982.,0.899455558467,9.35433780805,65.
7.04,6221.,9.,6.,3743.,0.,0.,9979.,0.899147825819,5.19507632695,117.
7.06,6218.,17.,7.,3735.,0.,0.,9977.,0.898894380151,2.74955928046,221.
7.08,6217.,21.,3.,3737.,0.,0.,9978.,0.898659743744,2.22525269879,273.
7.1,6218.,21.,5.,3734.,0.,0.,9978.,0.89880429252,2.2256106291,273.
7.12,6224.,17.,10.,3732.,0.,0.,9983.,0.899220983364,2.75055830205,221.
7.14,6214.,20.,8.,3735.,0.,0.,9977.,0.898316127092,2.33562193044,260.
7.16,6220.,19.,7.,3734.,0.,0.,9980.,0.898913211037,2.46018352494,247.
7.18,6227.,23.,3.,3729.,0.,0.,9982.,0.899744540172,2.03420504735,299.
7.2,6229.,24.,5.,3724.,0.,0.,9982.,0.900033521878,1.95007263074,312.
7.22,6222.,18.,9.,3728.,0.,0.,9977.,0.89947263321,2.59847649594,234.
7.24,6224.,21.,7.,3725.,0.,0.,9977.,0.89976175974,2.22798150031,273.
7.26,6230.,17.,12.,3722.,0.,0.,9981.,0.900268201891,2.75376155873,221.
7.28,6236.,16.,13.,3719.,0.,0.,9984.,0.900864460059,2.92780949519,208.
7.3,6227.,12.,18.,3726.,0.,0.,9983.,0.899654412501,3.89850245417,156.
7.32,6224.,17.,10.,3732.,0.,0.,9983.,0.899220983364,2.75055830205,221.
7.34,6216.,19.,7.,3738.,0.,0.,9980.,0.898335131802,2.45860141335,247.
7.36,6217.,16.,8.,3738.,0.,0.,9979.,0.898569688654,2.92035148813,208.
7.38,6210.,20.,9.,3736.,0.,0.,9975.,0.897917871602,2.33458646617,260.
7.4,6211.,19.,7.,3736.,0.,0.,9973.,0.898242562611,2.45834806609,247.
7.42,6201.,24.,7.,3737.,0.,0.,9969.,0.897156184171,1.94383839904,312.
7.44,6203.,22.,11.,3732.,0.,0.,9968.,0.89753557538,2.12144772362,286.
7.46,6193.,31.,13.,3733.,0.,0.,9970.,0.895908880488,1.5028148963,403.
7.48,6189.,33.,6.,3738.,0.,0.,9966.,0.895689575325,1.41138963385,429.
7.5,6193.,20.,13.,3739.,0.,0.,9965.,0.896358408275,2.33053186152,260.
7.52,6187.,27.,14.,3735.,0.,0.,9963.,0.895669747296,1.72499358738,351.
7.54,6188.,22.,15.,3736.,0.,0.,9961.,0.895994378074,2.11780489363,286.
7.56,6177.,22.,16.,3744.,0.,0.,9959.,0.894581244641,2.11446476006,286.
7.58,6168.,28.,11.,3751.,0.,0.,9958.,0.893367528234,1.65911112386,364.
7.6,6165.,30.,4.,3755.,0.,0.,9954.,0.893291834748,1.54837251356,390.
7.62,6173.,23.,12.,3746.,0.,0.,9954.,0.894451013122,2.02223707315,299.
7.64,6173.,22.,15.,3743.,0.,0.,9953.,0.8945408806,2.11436935415,286.
7.66,6166.,25.,8.,3754.,0.,0.,9953.,0.893526497616,1.85853511504,325.
7.68,6168.,21.,9.,3758.,0.,0.,9956.,0.893546991377,2.21259255008,273.
7.7,6164.,22.,10.,3758.,0.,0.,9954.,0.893146937451,2.11107457943,286.
7.72,6163.,25.,8.,3757.,0.,0.,9953.,0.893091762051,1.85763086507,325.
7.74,6160.,25.,12.,3755.,0.,0.,9952.,0.892746722731,1.85691318328,325.
7.76,6151.,37.,13.,3753.,0.,0.,9954.,0.891263272592,1.25258622094,481.
7.78,6146.,30.,21.,3755.,0.,0.,9952.,0.890717752906,1.5439107717,390.
7.8,6135.,38.,21.,3759.,0.,0.,9953.,0.889034230112,1.216573157,494.
7.82,6121.,47.,14.,3773.,0.,0.,9955.,0.886827261137,0.981170586789,611.
7.84,6112.,45.,20.,3778.,0.,0.,9955.,0.885523316463,1.02327138791,585.
7.86,6106.,46.,17.,3787.,0.,0.,9956.,0.884565163643,0.999943228466,598.
7.88,6098.,37.,23.,3797.,0.,0.,9955.,0.883494958081,1.24166858973,481.
7.9,6083.,43.,19.,3809.,0.,0.,9954.,0.88141025641,1.06589147287,559.
7.92,6085.,21.,26.,3819.,0.,0.,9951.,0.8819658635,2.18391547152,273.
7.94,6087.,25.,9.,3834.,0.,0.,9955.,0.881901247923,1.83435459568,325.
7.96,6087.,21.,15.,3828.,0.,0.,9951.,0.88225574546,2.18463327447,273.
7.98,6078.,27.,20.,3827.,0.,0.,9952.,0.880862756616,1.69647642015,351.
8.,6074.,37.,7.,3836.,0.,0.,9954.,0.880106180739,1.23690598374,481.
8.02,6075.,29.,18.,3837.,0.,0.,9959.,0.879809140553,1.57758880375,377.
8.04,6073.,24.,15.,3846.,0.,0.,9958.,0.879607814359,1.90581693111,312.
8.06,6076.,17.,23.,3843.,0.,0.,9959.,0.879953965103,2.69162389326,221.
8.08,6064.,24.,0.,3873.,0.,0.,9961.,0.8780397396,1.9024194358,312.
8.1,6070.,18.,3.,3871.,0.,0.,9962.,0.878820286319,2.53881416048,234.
8.12,6077.,12.,6.,3869.,0.,0.,9964.,0.879657150357,3.81184765155,156.
8.14,6073.,13.,7.,3871.,0.,0.,9964.,0.879078142853,3.51631257141,169.
8.16,6083.,7.,8.,3869.,0.,0.,9967.,0.880260629307,6.53907896057,91.
8.18,6086.,8.,9.,3865.,0.,0.,9968.,0.880606402025,5.72394161316,104.
8.2,6090.,9.,8.,3862.,0.,0.,9969.,0.881096784648,5.09078142241,117.
8.22,6094.,12.,9.,3851.,0.,0.,9966.,0.881940906775,3.82174392936,156.
8.24,6096.,11.,5.,3852.,0.,0.,9964.,0.882407436,4.17138060655,143.
8.26,6102.,13.,3.,3845.,0.,0.,9963.,0.883364602877,3.53345841151,169.
8.28,6102.,13.,4.,3844.,0.,0.,9963.,0.883364602877,3.53345841151,169.
8.3,6102.,18.,4.,3837.,0.,0.,9961.,0.883541967519,2.55245457283,234.
8.32,6111.,11.,3.,3837.,0.,0.,9962.,0.884756304727,4.18248434962,143.
8.34,6114.,14.,4.,3831.,0.,0.,9963.,0.885101799736,3.28752097045,182.
8.36,6121.,11.,8.,3820.,0.,0.,9960.,0.886382066728,4.19016976999,143.
8.38,6124.,13.,9.,3819.,0.,0.,9965.,0.886371531128,3.54548612451,169.
8.4,6126.,13.,6.,3823.,0.,0.,9968.,0.886394153599,3.5455766144,169.
8.42,6133.,15.,5.,3818.,0.,0.,9971.,0.887140013732,3.07541871427,195.
8.44,6140.,14.,6.,3813.,0.,0.,9973.,0.887974454103,3.29819082953,182.
8.46,6145.,10.,7.,3812.,0.,0.,9974.,0.888608458916,4.62076398636,130.
8.48,6140.,15.,8.,3810.,0.,0.,9973.,0.887974454103,3.07831144089,195.
8.5,6141.,16.,6.,3809.,0.,0.,9972.,0.888208136629,2.88667644404,208.
8.52,6144.,12.,8.,3806.,0.,0.,9970.,0.888820307075,3.85155466399,156.
8.54,6139.,15.,7.,3811.,0.,0.,9972.,0.88791886513,3.07811873245,195.
8.56,6144.,14.,7.,3808.,0.,0.,9973.,0.888552939089,3.30033948805,182.
8.58,6148.,12.,5.,3811.,0.,0.,9976.,0.888864042934,3.85174418605,156.
8.6,6150.,11.,6.,3808.,0.,0.,9975.,0.889242336611,4.2036910458,143.
8.62,6149.,10.,8.,3806.,0.,0.,9973.,0.889276045322,4.62423543568,130.
8.64,6153.,10.,3.,3809.,0.,0.,9975.,0.88967611336,4.62631578947,130.
8.66,6151.,11.,8.,3805.,0.,0.,9975.,0.889386928861,4.2043745728,143.
8.68,6152.,7.,8.,3806.,0.,0.,9973.,0.889709909062,6.60927361018,91.
8.7,6147.,11.,8.,3806.,0.,0.,9972.,0.889075951125,4.20290449623,143.
8.72,6154.,12.,4.,3806.,0.,0.,9976.,0.889731509469,3.8555032077,156.
8.74,6155.,8.,6.,3805.,0.,0.,9974.,0.890054526384,5.7853544215,104.
8.76,6162.,4.,4.,3805.,0.,0.,9975.,0.890977443609,11.5827067669,52.
8.78,6167.,7.,4.,3796.,0.,0.,9974.,0.891789807345,6.62472428314,91.
8.8,6175.,10.,3.,3788.,0.,0.,9976.,0.892767642342,4.64239174018,130.
8.82,6177.,12.,4.,3781.,0.,0.,9974.,0.893235874813,3.87068879086,156.
8.84,6186.,7.,7.,3774.,0.,0.,9974.,0.894537335534,6.64513449254,91.
8.86,6182.,13.,6.,3771.,0.,0.,9972.,0.894138202351,3.5765528094,169.
8.88,6183.,12.,10.,3766.,0.,0.,9971.,0.894372526481,3.87561428142,156.
8.9,6181.,11.,6.,3771.,0.,0.,9969.,0.894262598671,4.22742319372,143.
8.92,6186.,14.,3.,3764.,0.,0.,9967.,0.895165584892,3.32490074388,182.
8.94,6194.,11.,4.,3758.,0.,0.,9967.,0.896323251345,4.2371644609,143.
8.96,6202.,4.,7.,3756.,0.,0.,9969.,0.897300863446,11.6649112248,52.
8.98,6211.,4.,6.,3752.,0.,0.,9973.,0.898242562611,11.6771533139,52.
9.,6210.,9.,5.,3749.,0.,0.,9973.,0.898097941365,5.18901032789,117.
9.02,6217.,6.,3.,3750.,0.,0.,9976.,0.898839908087,7.78994587009,78.
9.04,6226.,8.,3.,3742.,0.,0.,9979.,0.899870497275,5.84915823229,104.
9.06,6231.,7.,7.,3736.,0.,0.,9981.,0.900412707221,6.68878011078,91.
9.08,6236.,10.,10.,3727.,0.,0.,9983.,0.900954699913,4.68496443955,130.
9.1,6237.,10.,8.,3730.,0.,0.,9985.,0.900918685721,4.68477716575,130.
9.12,6233.,15.,5.,3729.,0.,0.,9982.,0.900611485289,3.12211981567,195.
9.14,6234.,14.,5.,3729.,0.,0.,9982.,0.900755976142,3.34566505424,182.
9.16,6242.,12.,5.,3723.,0.,0.,9982.,0.901911902964,3.90828491284,156.
9.18,6249.,10.,4.,3723.,0.,0.,9986.,0.902561663252,4.69332064891,130.
9.2,6251.,8.,3.,3721.,0.,0.,9983.,0.903121845599,5.87029199639,104.
9.22,6249.,7.,3.,3721.,0.,0.,9980.,0.903104285494,6.70877469224,91.
9.24,6253.,2.,7.,3714.,0.,0.,9976.,0.904044707298,23.5051623897,26.
9.26,6250.,9.,0.,3715.,0.,0.,9974.,0.903792167327,5.22191030011,117.
9.28,6253.,6.,4.,3708.,0.,0.,9971.,0.904498044329,7.83898305085,78.
9.3,6255.,7.,6.,3701.,0.,0.,9969.,0.90496886502,6.72262585443,91.
9.32,6253.,12.,4.,3699.,0.,0.,9968.,0.904770264848,3.92067114767,156.
9.34,6255.,10.,8.,3693.,0.,0.,9966.,0.905241281897,4.70725466586,130.
9.36,6258.,12.,2.,3693.,0.,0.,9965.,0.905766336022,3.9249874561,156.
9.38,6265.,14.,2.,3688.,0.,0.,9969.,0.90641565777,3.36668672886,182.
9.4,6263.,14.,7.,3683.,0.,0.,9967.,0.906308124503,3.36628731958,182.
9.42,6261.,18.,5.,3684.,0.,0.,9968.,0.905927815162,2.61712479936,234.
9.44,6265.,15.,11.,3676.,0.,0.,9967.,0.906597541116,3.14287147587,195.
9.46,6264.,17.,10.,3671.,0.,0.,9962.,0.906907788056,2.77407088111,221.
9.48,6257.,23.,7.,3674.,0.,0.,9961.,0.905985265613,2.04831451356,299.
9.5,6262.,16.,13.,3670.,0.,0.,9961.,0.906709242971,2.94680503965,208.
9.52,6256.,25.,9.,3675.,0.,0.,9965.,0.905476861322,1.88339187155,325.
9.54,6261.,18.,12.,3677.,0.,0.,9968.,0.905927815162,2.61712479936,234.
9.56,6267.,18.,9.,3677.,0.,0.,9971.,0.906523147898,2.61884464948,234.
9.58,6254.,15.,18.,3681.,0.,0.,9968.,0.904914958637,3.13703852327,195.
9.6,6253.,25.,10.,3681.,0.,0.,9969.,0.90467950647,1.88173337346,325.
9.62,6255.,21.,8.,3686.,0.,0.,9970.,0.904878095826,2.240650523,273.
9.64,6252.,21.,18.,3678.,0.,0.,9969.,0.904534827195,2.23980052448,273.
9.66,6245.,21.,20.,3683.,0.,0.,9969.,0.90352207227,2.23729275038,273.
9.68,6242.,21.,9.,3698.,0.,0.,9970.,0.9029974539,2.23599369537,273.
9.7,6242.,18.,7.,3704.,0.,0.,9971.,0.902906891524,2.60839768662,234.
9.72,6241.,22.,6.,3706.,0.,0.,9975.,0.902400231348,2.13294600137,286.
9.74,6245.,18.,9.,3702.,0.,0.,9974.,0.903069133593,2.60886638594,234.
9.76,6252.,20.,8.,3697.,0.,0.,9977.,0.903809531152,2.349904781,260.
9.78,6254.,22.,2.,3700.,0.,0.,9978.,0.904008048476,2.1367462964,286.
9.8,6251.,20.,6.,3698.,0.,0.,9975.,0.903846153846,2.35,260.
9.82,6260.,18.,8.,3691.,0.,0.,9977.,0.90496603727,2.61434632989,234.
9.84,6256.,25.,10.,3688.,0.,0.,9979.,0.904206526012,1.88074957411,325.
9.86,6255.,18.,17.,3689.,0.,0.,9979.,0.904061991721,2.61173464275,234.
9.88,6252.,27.,7.,3692.,0.,0.,9978.,0.903718950923,1.74049575733,351.
9.9,6255.,21.,14.,3690.,0.,0.,9980.,0.903971404347,2.23840538219,273.
9.92,6258.,23.,12.,3690.,0.,0.,9983.,0.904133180253,2.04412719014,299.
9.94,6244.,23.,15.,3697.,0.,0.,9979.,0.902472114517,2.04037173717,299.
9.96,6225.,33.,15.,3707.,0.,0.,9980.,0.899635810082,1.41760794316,429.
9.98,6203.,35.,24.,3711.,0.,0.,9973.,0.897085592639,1.33281288049,455.
10.,6183.,43.,24.,3719.,0.,0.,9969.,0.894551957221,1.08178376222,559.
