t,s,e,i,r,c,o,n,reff,coal,reportr
5.,6250.,5.,3.,3734.,0.,0.,9992.,0.902164038923,9.3825060048,65.
5.02,6256.,5.,4.,3729.,0.,0.,9994.,0.902849401949,9.38963378027,65.
5.04,6264.,6.,0.,3726.,0.,0.,9996.,0.903823067689,7.8331332533,78.
5.06,6265.,3.,4.,3721.,0.,0.,9993.,0.904238736346,15.67347143,39.
5.08,6262.,9.,0.,3720.,0.,0.,9991.,0.903986664922,5.22303406399,117.
5.1,6274.,2.,5.,3716.,0.,0.,9997.,0.905175398773,23.5345603681,26.
5.12,6281.,5.,1.,3709.,0.,0.,9996.,0.906275971927,9.42527010804,65.
5.14,6283.,0.,6.,3705.,0.,0.,9994.,0.906745970659,inf,0.
5.16,6285.,6.,2.,3700.,0.,0.,9993.,0.907125372376,7.86175322726,78.
5.18,6287.,10.,3.,3692.,0.,0.,9992.,0.907504850034,4.71902522018,130.
5.2,6293.,8.,3.,3688.,0.,0.,9992.,0.908370927511,5.90441102882,104.
5.22,6295.,13.,6.,3680.,0.,0.,9994.,0.908477778975,3.6339111159,169.
5.24,6299.,13.,1.,3681.,0.,0.,9994.,0.909055048414,3.63622019365,169.
5.26,6302.,14.,3.,3674.,0.,0.,9993.,0.909579013001,3.37843633401,182.
5.28,6307.,11.,5.,3665.,0.,0.,9988.,0.910756369181,4.30539374522,143.
5.3,6316.,8.,7.,3655.,0.,0.,9986.,0.912238672603,5.92955137192,104.
5.32,6316.,13.,2.,3656.,0.,0.,9987.,0.912147329991,3.64858931996,169.
5.34,6317.,10.,4.,3657.,0.,0.,9988.,0.912200409722,4.74344213056,130.
5.36,6315.,12.,8.,3650.,0.,0.,9985.,0.912185586071,3.95280420631,156.
5.38,6312.,11.,10.,3649.,0.,0.,9982.,0.912026262657,4.31139687802,143.
5.4,6306.,20.,10.,3647.,0.,0.,9983.,0.911068046448,2.36877692077,260.
5.42,6299.,15.,17.,3650.,0.,0.,9981.,0.910239069617,3.15549544134,195.
5.44,6292.,22.,9.,3661.,0.,0.,9984.,0.908954326923,2.1484375,286.
5.46,6289.,19.,14.,3664.,0.,0.,9986.,0.908338982267,2.48598037252,247.
5.48,6278.,26.,11.,3669.,0.,0.,9984.,0.906931860207,1.81386372041,338.
5.5,6279.,20.,14.,3667.,0.,0.,9980.,0.90743987976,2.35934368737,260.
5.52,6272.,22.,9.,3679.,0.,0.,9982.,0.906246628547,2.14203748566,286.
5.54,6272.,19.,8.,3677.,0.,0.,9976.,0.906791684659,2.48174566328,247.
5.56,6268.,22.,9.,3680.,0.,0.,9979.,0.905940937507,2.1413149432,286.
5.58,6267.,19.,12.,3682.,0.,0.,9980.,0.905705642053,2.47877333615,247.
5.6,6256.,25.,12.,3689.,0.,0.,9982.,0.903934774903,1.8801843318,325.
5.62,6239.,22.,18.,3701.,0.,0.,9980.,0.901659087406,2.1311942066,286.
5.64,6224.,35.,10.,3712.,0.,0.,9981.,0.899401169915,1.33625316673,455.
5.66,6224.,22.,16.,3718.,0.,0.,9980.,0.899491290273,2.12607032246,286.
5.68,6222.,29.,11.,3723.,0.,0.,9985.,0.898751974115,1.61155526393,377.
5.7,6227.,30.,8.,3719.,0.,0.,9984.,0.899564302885,1.55924479167,390.
5.72,6231.,23.,10.,3720.,0.,0.,9984.,0.900142150518,2.03510399247,299.
5.74,6236.,19.,8.,3721.,0.,0.,9984.,0.900864460059,2.46552378543,247.
5.76,6235.,20.,9.,3720.,0.,0.,9984.,0.900719998151,2.34187199519,260.
5.78,6234.,16.,5.,3726.,0.,0.,9981.,0.900846223209,2.92775022543,208.
5.8,6237.,13.,8.,3721.,0.,0.,9979.,0.901460374479,3.60584149791,169.
5.82,6237.,12.,9.,3721.,0.,0.,9979.,0.901460374479,3.90632828941,156.
5.84,6232.,16.,10.,3719.,0.,0.,9977.,0.900918265858,2.92798436404,208.
5.86,6231.,14.,12.,3720.,0.,0.,9977.,0.900773702593,3.34573089535,182.
5.88,6232.,9.,13.,3723.,0.,0.,9977.,0.900918265858,5.20530553607,117.
5.9,6230.,11.,10.,3725.,0.,0.,9976.,0.900719418913,4.25794634395,143.
5.92,6234.,15.,6.,3722.,0.,0.,9977.,0.901207392387,3.12418562694,195.
5.94,6231.,19.,8.,3720.,0.,0.,9978.,0.900683426615,2.46502832547,247.
5.96,6228.,16.,9.,3726.,0.,0.,9979.,0.900159565858,2.92551858904,208.
5.98,6224.,13.,6.,3738.,0.,0.,9981.,0.899401169915,3.59760467966,169.
6.,6218.,19.,6.,3741.,0.,0.,9984.,0.89826414571,2.45840713563,247.
6.02,6222.,18.,10.,3738.,0.,0.,9988.,0.898482024583,2.59561473769,234.
6.04,6221.,23.,9.,3738.,0.,0.,9991.,0.898067876473,2.03041432942,299.
6.06,6213.,21.,12.,3740.,0.,0.,9986.,0.897362076137,2.22203942663,273.
6.08,6211.,22.,7.,3746.,0.,0.,9986.,0.897073210187,2.12035486044,286.
6.1,6217.,17.,11.,3742.,0.,0.,9987.,0.897849897174,2.74636439136,221.
6.12,6220.,13.,9.,3748.,0.,0.,9990.,0.898013398013,3.59205359205,169.
6.14,6213.,16.,4.,3755.,0.,0.,9988.,0.897182388096,2.91584276131,208.
6.16,6223.,13.,9.,3747.,0.,0.,9992.,0.898266690275,3.5930667611,169.
6.18,6218.,15.,8.,3750.,0.,0.,9991.,0.897634794392,3.11180062056,195.
6.2,6217.,16.,7.,3753.,0.,0.,9993.,0.897310809875,2.91626013209,208.
6.22,6216.,17.,7.,3755.,0.,0.,9995.,0.896986955016,2.74372480358,221.
6.24,6213.,20.,11.,3750.,0.,0.,9994.,0.896643755484,2.33127376426,260.
6.26,6203.,21.,13.,3757.,0.,0.,9994.,0.895200581888,2.21668715515,273.
6.28,6199.,17.,20.,3759.,0.,0.,9995.,0.894533805364,2.7362210517,221.
6.3,6179.,28.,21.,3769.,0.,0.,9997.,0.891469363886,1.6555859615,364.
6.32,6171.,27.,16.,3780.,0.,0.,9994.,0.890582426379,1.71519578414,351.
6.34,6163.,24.,15.,3791.,0.,0.,9993.,0.889516892594,1.92728660062,312.
6.36,6155.,17.,29.,3789.,0.,0.,9990.,0.888629013629,2.71815933581,221.
6.38,6148.,21.,12.,3807.,0.,0.,9988.,0.88779612458,2.19835230848,273.
6.4,6141.,28.,6.,3814.,0.,0.,9989.,0.886696520018,1.64672210861,364.
6.42,6138.,26.,8.,3818.,0.,0.,9990.,0.886174636175,1.77234927235,338.
6.44,6131.,26.,11.,3822.,0.,0.,9990.,0.885164010164,1.77032802033,338.
6.46,6129.,24.,14.,3824.,0.,0.,9991.,0.884786692639,1.91703783405,312.
6.48,6124.,22.,15.,3826.,0.,0.,9987.,0.884418975437,2.09044485103,286.
6.5,6119.,24.,10.,3830.,0.,0.,9983.,0.884050963561,1.91544375438,312.
6.52,6114.,26.,12.,3829.,0.,0.,9981.,0.883505583686,1.76701116737,338.
6.54,6113.,24.,14.,3832.,0.,0.,9983.,0.883184105287,1.91356556145,312.
6.56,6113.,21.,14.,3837.,0.,0.,9985.,0.883007203112,2.18649402675,273.
6.58,6104.,22.,17.,3841.,0.,0.,9984.,0.881795488166,2.08424388112,286.
6.6,6097.,21.,11.,3852.,0.,0.,9981.,0.881048993087,2.18164512574,273.
6.62,6090.,18.,18.,3853.,0.,0.,9979.,0.880213833666,2.54283996392,234.
6.64,6089.,20.,13.,3858.,0.,0.,9980.,0.879981116078,2.2879509018,260.
6.66,6077.,23.,14.,3865.,0.,0.,9979.,0.87833488788,1.98580061608,299.
6.68,6074.,24.,10.,3871.,0.,0.,9979.,0.877901285006,1.90211945085,312.
6.7,6068.,26.,10.,3875.,0.,0.,9979.,0.877034079259,1.75406815852,338.
6.72,6061.,26.,13.,3877.,0.,0.,9977.,0.876197947587,1.75239589517,338.
6.74,6056.,26.,16.,3877.,0.,0.,9975.,0.875650665124,1.75130133025,338.
6.76,6046.,25.,18.,3887.,0.,0.,9976.,0.874117111838,1.81816359262,325.
6.78,6047.,21.,16.,3895.,0.,0.,9979.,0.873998859143,2.16418765121,273.
6.8,6042.,23.,13.,3902.,0.,0.,9980.,0.873188685062,1.97416572275,299.
6.82,6031.,25.,9.,3912.,0.,0.,9977.,0.871861049645,1.81347098326,325.
6.84,6030.,22.,14.,3912.,0.,0.,9978.,0.871629122531,2.06021428962,286.
6.86,6027.,18.,17.,3916.,0.,0.,9978.,0.871195476201,2.51678693125,234.
6.88,6023.,23.,18.,3915.,0.,0.,9979.,0.870530036153,1.96815486435,299.
6.9,6023.,26.,11.,3918.,0.,0.,9978.,0.870617281095,1.74123456219,338.
6.92,6023.,25.,1.,3929.,0.,0.,9978.,0.870617281095,1.81088394468,325.
6.94,6031.,16.,10.,3921.,0.,0.,9978.,0.871773671308,2.83326443175,208.
6.96,6031.,18.,8.,3920.,0.,0.,9977.,0.871861049645,2.51870969897,234.
6.98,6029.,16.,16.,3917.,0.,0.,9978.,0.871484573755,2.8323248647,208.
7.,6023.,26.,11.,3921.,0.,0.,9981.,0.870355598714,1.74071119743,338.
7.02,6019.,22.,10.,3929.,0.,0.,9980.,0.869864729459,2.05604390599,286.
7.04,6009.,26.,13.,3930.,0.,0.,9978.,0.868593598224,1.73718719645,338.
7.06,6013.,16.,12.,3936.,0.,0.,9977.,0.86925891088,2.82509146036,208.
7.08,6012.,21.,11.,3933.,0.,0.,9977.,0.869114347615,2.15209267028,273.
7.1,6009.,24.,9.,3935.,0.,0.,9977.,0.868680657821,1.88214142528,312.
7.12,6014.,23.,7.,3935.,0.,0.,9979.,0.869229227532,1.96521390572,299.
7.14,6010.,17.,7.,3941.,0.,0.,9975.,0.868999421631,2.65811587793,221.
7.16,6012.,15.,12.,3936.,0.,0.,9975.,0.869288606131,3.01353383459,195.
7.18,6011.,17.,6.,3942.,0.,0.,9976.,0.869056890383,2.6582916647,221.
7.2,6007.,19.,7.,3943.,0.,0.,9976.,0.86847857936,2.37688874351,247.
7.22,6011.,16.,11.,3939.,0.,0.,9977.,0.86896978435,2.82415179914,208.
7.24,6010.,13.,14.,3940.,0.,0.,9977.,0.868825221085,3.47530088434,169.
7.26,6011.,18.,7.,3938.,0.,0.,9974.,0.869231154849,2.51111222512,234.
7.28,6013.,19.,8.,3940.,0.,0.,9980.,0.868997610606,2.37830925008,247.
7.3,6010.,16.,7.,3945.,0.,0.,9978.,0.868738147,2.82339897775,208.
7.32,6018.,18.,2.,3941.,0.,0.,9979.,0.869807364697,2.51277683135,234.
7.34,6019.,12.,10.,3937.,0.,0.,9978.,0.870039085989,3.77016937262,156.
7.36,6025.,16.,2.,3936.,0.,0.,9979.,0.870819104735,2.83016209039,208.
7.38,6028.,11.,10.,3930.,0.,0.,9979.,0.871252707609,4.11864916324,143.
7.4,6023.,13.,8.,3933.,0.,0.,9977.,0.870704543527,3.48281817411,169.
7.42,6025.,14.,7.,3930.,0.,0.,9976.,0.871080978965,3.23544363616,182.
7.44,6016.,18.,13.,3926.,0.,0.,9973.,0.870041419525,2.51345298974,234.
7.46,6010.,20.,11.,3933.,0.,0.,9974.,0.869086548102,2.25962502507,260.
7.48,6001.,24.,12.,3936.,0.,0.,9973.,0.867872100826,1.88038955179,312.
7.5,5996.,18.,12.,3944.,0.,0.,9970.,0.867409922074,2.50585088599,234.
7.52,5994.,15.,10.,3949.,0.,0.,9968.,0.867294573404,3.0066211878,195.
7.54,5991.,15.,9.,3953.,0.,0.,9968.,0.866860492036,3.00511637239,195.
7.56,5994.,11.,12.,3946.,0.,0.,9963.,0.867729831144,4.10199556541,143.
7.58,5995.,16.,3.,3948.,0.,0.,9962.,0.867961716059,2.82087557719,208.
7.6,5995.,13.,7.,3944.,0.,0.,9959.,0.868223176562,3.47289270625,169.
7.62,6002.,8.,7.,3940.,0.,0.,9957.,0.869411546573,5.65117505273,104.
7.64,6004.,6.,10.,3939.,0.,0.,9959.,0.869526597511,7.53589717843,78.
7.66,6011.,9.,3.,3936.,0.,0.,9959.,0.870540369361,5.02978880075,117.
7.68,6018.,10.,8.,3925.,0.,0.,9961.,0.871379147908,4.53117156912,130.
7.7,6023.,10.,5.,3922.,0.,0.,9960.,0.87219068582,4.53539156627,130.
7.72,6027.,12.,6.,3918.,0.,0.,9963.,0.872507122507,3.78086419753,156.
7.74,6027.,7.,9.,3922.,0.,0.,9965.,0.872332008182,6.48018063221,91.
7.76,6029.,11.,8.,3922.,0.,0.,9970.,0.87218385927,4.1230509711,143.
7.78,6036.,9.,8.,3917.,0.,0.,9970.,0.873196512615,5.04513540622,117.
7.8,6032.,14.,5.,3916.,0.,0.,9967.,0.872880505669,3.24212759248,182.
7.82,6027.,15.,6.,3917.,0.,0.,9965.,0.872332008182,3.02408429503,195.
7.84,6029.,15.,6.,3922.,0.,0.,9972.,0.872008932704,3.02296430004,195.
7.86,6033.,11.,10.,3917.,0.,0.,9971.,0.872674988235,4.12537267166,143.
7.88,6033.,14.,11.,3917.,0.,0.,9975.,0.872325043378,3.24006444683,182.
7.9,6036.,17.,3.,3924.,0.,0.,9980.,0.872321566209,2.66827773193,221.
7.92,6047.,16.,3.,3919.,0.,0.,9985.,0.873473672047,2.83878943415,208.
7.94,6052.,13.,4.,3918.,0.,0.,9987.,0.87402084248,3.49608336992,169.
7.96,6060.,8.,7.,3914.,0.,0.,9989.,0.875000962597,5.68750625688,104.
7.98,6069.,7.,2.,3916.,0.,0.,9994.,0.875862055695,6.50640384231,91.
8.,6073.,7.,0.,3913.,0.,0.,9993.,0.87652703046,6.51134365484,91.
8.02,6079.,7.,1.,3906.,0.,0.,9993.,0.877393021269,6.51777672942,91.
8.04,6087.,4.,4.,3901.,0.,0.,9996.,0.87828400591,11.4176920768,52.
8.06,6093.,4.,6.,3896.,0.,0.,9999.,0.87888596552,11.4255175518,52.
8.08,6099.,5.,4.,3891.,0.,0.,9999.,0.879751436682,9.14941494149,65.
8.1,6103.,8.,5.,3883.,0.,0.,9999.,0.880328417457,5.72213471347,104.
8.12,6106.,15.,1.,3877.,0.,0.,9999.,0.880761153038,3.05330533053,195.
8.14,6115.,13.,2.,3868.,0.,0.,9998.,0.882147583363,3.52859033345,169.
8.16,6113.,13.,0.,3871.,0.,0.,9997.,0.881947276491,3.52778910596,169.
8.18,6118.,11.,4.,3864.,0.,0.,9997.,0.882668646748,4.17261542099,143.
8.2,6116.,12.,1.,3866.,0.,0.,9995.,0.882556662947,3.8244122061,156.
8.22,6123.,8.,3.,3860.,0.,0.,9994.,0.883655193116,5.74375875525,104.
8.24,6131.,6.,6.,3855.,0.,0.,9998.,0.884455737301,7.66528305661,78.
8.26,6137.,9.,0.,3855.,0.,0.,10001.,0.885055725197,5.11365530114,117.
8.28,6137.,8.,4.,3850.,0.,0.,9999.,0.885232754045,5.75401290129,104.
8.3,6140.,5.,4.,3847.,0.,0.,9996.,0.885931295595,9.21368547419,65.
8.32,6143.,5.,2.,3842.,0.,0.,9992.,0.886718990577,9.221877502,65.
8.34,6144.,4.,1.,3843.,0.,0.,9992.,0.886863336823,11.5292233787,52.
8.36,6146.,6.,1.,3840.,0.,0.,9993.,0.887063251969,7.68788151706,78.
8.38,6151.,6.,0.,3834.,0.,0.,9991.,0.887962627904,7.6956761085,78.
8.4,6159.,3.,3.,3828.,0.,0.,9993.,0.888939565388,15.4082858001,39.
8.42,6171.,3.,1.,3819.,0.,0.,9994.,0.890582426379,15.4367620572,39.
8.44,6172.,5.,2.,3815.,0.,0.,9994.,0.890726743739,9.26355813488,65.
8.46,6180.,10.,3.,3801.,0.,0.,9994.,0.891881282616,4.6377826696,130.
8.48,6176.,7.,8.,3798.,0.,0.,9989.,0.891750155941,6.62442972985,91.
8.5,6177.,13.,7.,3791.,0.,0.,9988.,0.891983842149,3.5679353686,169.
8.52,6182.,14.,3.,3787.,0.,0.,9986.,0.8928846539,3.31642871449,182.
8.54,6182.,14.,8.,3782.,0.,0.,9986.,0.8928846539,3.31642871449,182.
8.56,6175.,17.,7.,3784.,0.,0.,9983.,0.892141640789,2.72890384241,221.
8.58,6174.,18.,2.,3789.,0.,0.,9983.,0.89199716441,2.57688069719,234.
8.6,6174.,14.,9.,3782.,0.,0.,9979.,0.89235471413,3.31446036677,182.
8.62,6174.,17.,8.,3777.,0.,0.,9976.,0.892623064586,2.73037643285,221.
8.64,6171.,19.,13.,3773.,0.,0.,9976.,0.892189331318,2.44178132782,247.
8.66,6166.,20.,16.,3777.,0.,0.,9979.,0.891198439801,2.31711594348,260.
8.68,6162.,20.,17.,3782.,0.,0.,9981.,0.890441839495,2.31514878269,260.
8.7,6156.,16.,21.,3787.,0.,0.,9980.,0.889663943271,2.89140781563,208.
8.72,6146.,23.,8.,3803.,0.,0.,9980.,0.888218745183,2.00814672824,299.
8.74,6145.,27.,9.,3802.,0.,0.,9983.,0.887807349417,1.70985119147,351.
8.76,6144.,26.,11.,3801.,0.,0.,9982.,0.887751799393,1.77550359879,338.
8.78,6148.,25.,13.,3797.,0.,0.,9983.,0.888240778554,1.84754081939,325.
8.8,6133.,31.,16.,3803.,0.,0.,9983.,0.886073632868,1.48631706159,403.
8.82,6125.,31.,10.,3812.,0.,0.,9978.,0.885361256302,1.48512210735,403.
8.84,6115.,29.,14.,3814.,0.,0.,9972.,0.884447607146,1.58590605419,377.
8.86,6107.,32.,13.,3820.,0.,0.,9972.,0.883290521152,1.43534709687,416.
8.88,6107.,35.,6.,3823.,0.,0.,9971.,0.883379107103,1.31244895912,455.
8.9,6095.,33.,14.,3827.,0.,0.,9969.,0.881820181023,1.3895348307,429.
8.92,6085.,35.,20.,3827.,0.,0.,9967.,0.880550045921,1.30824578251,455.
8.94,6078.,41.,18.,3831.,0.,0.,9968.,0.87944885171,1.11539854363,533.
8.96,6076.,32.,17.,3842.,0.,0.,9967.,0.879247671161,1.42877746564,416.
8.98,6070.,37.,19.,3838.,0.,0.,9964.,0.878643887225,1.23485086853,481.
9.,6060.,32.,16.,3856.,0.,0.,9964.,0.877196368465,1.42544409876,416.
9.02,6056.,39.,6.,3864.,0.,0.,9965.,0.876529391331,1.16870585511,507.
9.04,6057.,35.,12.,3865.,0.,0.,9969.,0.876322368573,1.30196466188,455.
9.06,6043.,36.,15.,3876.,0.,0.,9970.,0.874209165959,1.26274657305,468.
9.08,6042.,30.,15.,3882.,0.,0.,9969.,0.874152179449,1.51519711104,390.
9.1,6040.,24.,18.,3890.,0.,0.,9972.,0.873599925946,1.89279983955,312.
9.12,6032.,24.,20.,3889.,0.,0.,9965.,0.873055694932,1.89162067235,312.
9.14,6029.,29.,7.,3902.,0.,0.,9967.,0.872446380749,1.56438661376,377.
9.16,6030.,26.,13.,3896.,0.,0.,9965.,0.872766220232,1.74553244046,338.
9.18,6024.,24.,14.,3904.,0.,0.,9966.,0.871810308896,1.88892233594,312.
9.2,6016.,25.,12.,3910.,0.,0.,9963.,0.870914692053,1.81150255947,325.
9.22,6015.,22.,11.,3912.,0.,0.,9960.,0.871032205746,2.0588033954,286.
9.24,6018.,18.,10.,3913.,0.,0.,9959.,0.87155414121,2.51782307461,234.
9.26,6022.,14.,16.,3907.,0.,0.,9959.,0.872133439409,3.23935277495,182.
9.28,6007.,24.,20.,3906.,0.,0.,9957.,0.870135814773,1.88529426534,312.
9.3,5996.,27.,13.,3921.,0.,0.,9957.,0.868542424734,1.67274837356,351.
9.32,5985.,32.,17.,3920.,0.,0.,9954.,0.867210321324,1.40921677215,416.
9.34,5989.,25.,12.,3929.,0.,0.,9955.,0.86770273925,1.80482169764,325.
9.36,5982.,23.,16.,3931.,0.,0.,9952.,0.866949820678,1.96006046414,299.
9.38,5991.,13.,15.,3933.,0.,0.,9952.,0.868254158422,3.47301663369,169.
9.4,5993.,18.,7.,3936.,0.,0.,9954.,0.868369499699,2.50862299913,234.
9.42,5997.,16.,8.,3934.,0.,0.,9955.,0.868861801182,2.82380085384,208.
9.44,5996.,17.,8.,3932.,0.,0.,9953.,0.868891482274,2.65778571049,221.
9.46,5990.,17.,11.,3934.,0.,0.,9952.,0.868109232006,2.65539294496,221.
9.48,5988.,19.,15.,3929.,0.,0.,9951.,0.867906588437,2.37532329467,247.
9.5,5979.,23.,13.,3937.,0.,0.,9952.,0.86651504143,1.95907748497,299.
9.52,5973.,19.,18.,3943.,0.,0.,9953.,0.865558509611,2.36889697367,247.
9.54,5970.,26.,11.,3949.,0.,0.,9956.,0.864863089903,1.72972617981,338.
9.56,5963.,28.,13.,3948.,0.,0.,9952.,0.864196218773,1.60493583486,364.
9.58,5968.,24.,16.,3944.,0.,0.,9952.,0.864920850853,1.87399517685,312.
9.6,5963.,26.,15.,3947.,0.,0.,9951.,0.864283063936,1.72856612787,338.
9.62,5962.,20.,17.,3954.,0.,0.,9953.,0.863964479206,2.24630764594,260.
9.64,5952.,22.,18.,3960.,0.,0.,9952.,0.862602028197,2.03887752119,286.
9.66,5944.,24.,12.,3969.,0.,0.,9949.,0.861702374417,1.86702181124,312.
9.68,5939.,31.,6.,3970.,0.,0.,9946.,0.861237219447,1.44465598101,403.
9.7,5941.,28.,10.,3968.,0.,0.,9947.,0.861440635367,1.59981832283,364.
9.72,5945.,20.,19.,3963.,0.,0.,9947.,0.862020632429,2.24125364431,260.
9.74,5948.,17.,18.,3966.,0.,0.,9949.,0.862282254885,2.63756925024,221.
9.76,5949.,20.,4.,3979.,0.,0.,9952.,0.862167248949,2.24163484727,260.
9.78,5956.,20.,1.,3979.,0.,0.,9956.,0.862834935254,2.24337083166,260.
9.8,5962.,16.,6.,3967.,0.,0.,9951.,0.864138122956,2.80844889961,208.
9.82,5966.,10.,7.,3963.,0.,0.,9946.,0.865152593234,4.49879348482,130.
9.84,5968.,15.,3.,3961.,0.,0.,9947.,0.865355615532,2.99989946718,195.
9.86,5972.,16.,5.,3953.,0.,0.,9946.,0.866022676298,2.81457369797,208.
9.88,5973.,18.,2.,3955.,0.,0.,9948.,0.865993551081,2.50175914757,234.
9.9,5974.,13.,10.,3951.,0.,0.,9948.,0.866138535771,3.46455414308,169.
9.92,5978.,13.,10.,3947.,0.,0.,9948.,0.866718474529,3.46687389812,169.
9.94,5986.,13.,9.,3944.,0.,0.,9952.,0.867529526342,3.47011810537,169.
9.96,5977.,18.,11.,3939.,0.,0.,9945.,0.86683489964,2.50418971007,234.
9.98,5969.,18.,13.,3942.,0.,0.,9942.,0.865935889699,2.50159257024,234.
10.,5958.,23.,9.,3954.,0.,0.,9944.,0.8641662541,1.95376718318,299.
