t,s,e,i,r,c,o,n,reff,coal,reportr
5.,6250.,5.,3.,3734.,0.,0.,9992.,0.902164038923,9.3825060048,65.
5.02,6250.,6.,2.,3733.,0.,0.,9991.,0.902254336595,7.81953758383,78.
5.04,6261.,6.,5.,3721.,0.,0.,9993.,0.90366140914,7.83173221255,78.
5.06,6262.,15.,2.,3712.,0.,0.,9991.,0.903986664922,3.13382043839,195.
5.08,6272.,5.,9.,3705.,0.,0.,9991.,0.90543027186,9.41647482734,65.
5.1,6276.,7.,3.,3705.,0.,0.,9991.,0.906007714635,6.73034302301,91.
5.12,6281.,5.,4.,3699.,0.,0.,9989.,0.906911063709,9.43187506257,65.
5.14,6285.,9.,3.,3695.,0.,0.,9992.,0.907216157541,5.24169335468,117.
5.16,6289.,11.,1.,3692.,0.,0.,9993.,0.907702699582,4.29095821621,143.
5.18,6303.,11.,2.,3679.,0.,0.,9995.,0.909541309116,4.29964982491,143.
5.2,6309.,9.,3.,3673.,0.,0.,9994.,0.91049822201,5.26065639384,117.
5.22,6316.,11.,4.,3665.,0.,0.,9996.,0.911326068889,4.30808687111,143.
5.24,6322.,11.,4.,3662.,0.,0.,9999.,0.911918114888,4.31088563402,143.
5.26,6324.,6.,6.,3660.,0.,0.,9996.,0.912480376766,7.90816326531,78.
5.28,6336.,6.,2.,3652.,0.,0.,9996.,0.914211838582,7.92316926771,78.
5.3,6341.,8.,0.,3649.,0.,0.,9998.,0.914750257744,5.94587667534,104.
5.32,6350.,3.,7.,3640.,0.,0.,10000.,0.915865384615,15.875,39.
5.34,6358.,7.,2.,3632.,0.,0.,9999.,0.917110941863,6.81282413956,91.
5.36,6357.,6.,4.,3631.,0.,0.,9998.,0.917058411682,7.94783956791,78.
5.38,6363.,7.,6.,3622.,0.,0.,9998.,0.917923969409,6.81886377275,91.
5.4,6368.,11.,1.,3621.,0.,0.,10001.,0.918369701491,4.34138404341,143.
5.42,6375.,7.,6.,3614.,0.,0.,10002.,0.919287296387,6.82899134459,91.
5.44,6375.,11.,3.,3612.,0.,0.,10001.,0.919379215925,4.34615629346,143.
5.46,6377.,10.,6.,3607.,0.,0.,10000.,0.919759615385,4.78275,130.
5.48,6376.,4.,7.,3612.,0.,0.,9999.,0.919707355351,11.9561956196,52.
5.5,6386.,6.,6.,3598.,0.,0.,9996.,0.921426262813,7.98569427771,78.
5.52,6386.,11.,7.,3592.,0.,0.,9996.,0.921426262813,4.35583324239,143.
5.54,6380.,12.,5.,3596.,0.,0.,9993.,0.920836893518,3.99029320524,156.
5.56,6388.,9.,4.,3593.,0.,0.,9994.,0.921899293422,5.32652925088,117.
5.58,6392.,10.,7.,3584.,0.,0.,9993.,0.922568875136,4.79735815071,130.
5.6,6390.,5.,8.,3586.,0.,0.,9989.,0.922649529867,9.59555511062,65.
5.62,6383.,12.,6.,3586.,0.,0.,9987.,0.921823370381,3.99456793832,156.
5.64,6383.,15.,9.,3579.,0.,0.,9986.,0.921915681955,3.19597436411,195.
5.66,6375.,13.,8.,3589.,0.,0.,9985.,0.920852432495,3.68340972998,169.
5.68,6373.,10.,7.,3595.,0.,0.,9985.,0.920563537614,4.78693039559,130.
5.7,6369.,16.,4.,3593.,0.,0.,9982.,0.920262241265,2.99085228411,208.
5.72,6372.,10.,7.,3591.,0.,0.,9980.,0.920880221982,4.78857715431,130.
5.74,6376.,7.,11.,3587.,0.,0.,9981.,0.921365979977,6.84443299412,91.
5.76,6373.,14.,4.,3587.,0.,0.,9978.,0.921209352884,3.42163473928,182.
5.78,6369.,14.,8.,3588.,0.,0.,9979.,0.920538900923,3.41914448914,182.
5.8,6370.,15.,3.,3590.,0.,0.,9978.,0.920775706554,3.19202244939,195.
5.82,6374.,14.,4.,3587.,0.,0.,9979.,0.921261572379,3.42182869741,182.
5.84,6381.,10.,8.,3581.,0.,0.,9980.,0.922180900262,4.79534068136,130.
5.86,6380.,9.,11.,3578.,0.,0.,9978.,0.92222119432,5.32838912274,117.
5.88,6380.,10.,5.,3580.,0.,0.,9975.,0.922498554078,4.7969924812,130.
5.9,6390.,6.,7.,3577.,0.,0.,9980.,0.923481578542,8.00350701403,78.
5.92,6390.,11.,4.,3575.,0.,0.,9980.,0.923481578542,4.36554928038,143.
5.94,6387.,14.,3.,3572.,0.,0.,9976.,0.923418126581,3.42983875587,182.
5.96,6390.,11.,7.,3563.,0.,0.,9971.,0.924315129259,4.36948970195,143.
5.98,6392.,16.,2.,3564.,0.,0.,9974.,0.924326325369,3.00406055745,208.
6.,6402.,12.,7.,3555.,0.,0.,9976.,0.925586792918,4.01087610265,156.
6.02,6408.,15.,8.,3545.,0.,0.,9976.,0.926454259453,3.21170809944,195.
6.04,6408.,13.,4.,3552.,0.,0.,9977.,0.926361400452,3.70544560181,169.
6.06,6412.,8.,6.,3550.,0.,0.,9976.,0.927032570477,6.0257117081,104.
6.08,6411.,12.,0.,3554.,0.,0.,9977.,0.926795090246,4.01611205773,156.
6.1,6414.,7.,2.,3555.,0.,0.,9978.,0.927135852722,6.88729490594,91.
6.12,6415.,7.,5.,3548.,0.,0.,9975.,0.927559282822,6.89044038668,91.
6.14,6420.,7.,7.,3541.,0.,0.,9975.,0.928282244072,6.89581095596,91.
6.16,6426.,9.,7.,3535.,0.,0.,9977.,0.928963539217,5.36734489325,117.
6.18,6428.,10.,7.,3533.,0.,0.,9978.,0.929159535594,4.83162958509,130.
6.2,6432.,9.,0.,3539.,0.,0.,9980.,0.929551410513,5.37074148297,117.
6.22,6439.,8.,1.,3534.,0.,0.,9982.,0.930376600959,6.04744790623,104.
6.24,6440.,6.,2.,3529.,0.,0.,9977.,0.930987424923,8.06855768267,78.
6.26,6445.,6.,2.,3525.,0.,0.,9978.,0.931616864795,8.07401282822,78.
6.28,6450.,6.,2.,3519.,0.,0.,9977.,0.932433057571,8.08108649895,78.
6.3,6453.,9.,4.,3511.,0.,0.,9977.,0.932866747365,5.38989676255,117.
6.32,6456.,12.,3.,3506.,0.,0.,9977.,0.933300437159,4.04430189436,156.
6.34,6463.,11.,3.,3501.,0.,0.,9978.,0.934218742773,4.41630678402,143.
6.36,6469.,8.,7.,3493.,0.,0.,9977.,0.935179759601,6.07866843741,104.
6.38,6470.,7.,6.,3496.,0.,0.,9979.,0.935136864338,6.94673099223,91.
6.4,6467.,11.,6.,3496.,0.,0.,9980.,0.934609603823,4.4181544908,143.
6.42,6465.,12.,7.,3496.,0.,0.,9980.,0.934320564205,4.04872244489,156.
6.44,6465.,12.,4.,3500.,0.,0.,9981.,0.93422695429,4.04831680192,156.
6.46,6470.,10.,3.,3496.,0.,0.,9979.,0.935136864338,4.86271169456,130.
6.48,6472.,11.,6.,3484.,0.,0.,9973.,0.935988707973,4.42467389224,143.
6.5,6479.,12.,6.,3477.,0.,0.,9974.,0.936907112338,4.05993082013,156.
6.52,6485.,11.,7.,3471.,0.,0.,9974.,0.937774752819,4.43311701333,143.
6.54,6482.,13.,6.,3470.,0.,0.,9971.,0.937622952717,3.75049181087,169.
6.56,6490.,13.,1.,3471.,0.,0.,9975.,0.938403701562,3.75361480625,169.
6.58,6493.,6.,7.,3470.,0.,0.,9976.,0.9387433687,8.13577586207,78.
6.6,6492.,11.,3.,3471.,0.,0.,9977.,0.93850471469,4.43656774217,143.
6.62,6504.,10.,3.,3461.,0.,0.,9978.,0.940145242611,4.88875526158,130.
6.64,6507.,8.,5.,3458.,0.,0.,9978.,0.94057888894,6.11376277811,104.
6.66,6512.,10.,3.,3454.,0.,0.,9979.,0.94120730457,4.89427798377,130.
6.68,6528.,6.,4.,3445.,0.,0.,9983.,0.943141802603,8.17389562256,78.
6.7,6531.,3.,6.,3442.,0.,0.,9982.,0.943669759413,16.3569424965,39.
6.72,6539.,6.,3.,3434.,0.,0.,9982.,0.944825686235,8.18848928071,78.
6.74,6544.,5.,6.,3427.,0.,0.,9982.,0.945548140499,9.83370066119,65.
6.76,6546.,12.,4.,3423.,0.,0.,9985.,0.945552944802,4.09739609414,156.
6.78,6555.,13.,6.,3411.,0.,0.,9985.,0.946852971765,3.78741188706,169.
6.8,6555.,13.,3.,3415.,0.,0.,9986.,0.946758153723,3.78703261489,169.
6.82,6563.,11.,5.,3407.,0.,0.,9986.,0.947913617526,4.48104619194,143.
6.84,6576.,7.,8.,3400.,0.,0.,9991.,0.949315922792,7.05206114074,91.
6.86,6581.,7.,4.,3398.,0.,0.,9990.,0.950132825133,7.05812955813,91.
6.88,6580.,11.,5.,3397.,0.,0.,9993.,0.949703253816,4.48950629077,143.
6.9,6582.,6.,6.,3396.,0.,0.,9990.,0.950277200277,8.23573573574,78.
6.92,6593.,5.,4.,3390.,0.,0.,9992.,0.95167480138,9.89741793435,65.
6.94,6597.,11.,2.,3382.,0.,0.,9992.,0.952252186364,4.50155579009,143.
6.96,6600.,10.,4.,3380.,0.,0.,9994.,0.952494573667,4.95297178307,130.
6.98,6598.,8.,6.,3377.,0.,0.,9989.,0.952682566207,6.19243668035,104.
7.,6603.,5.,7.,3375.,0.,0.,9990.,0.953309078309,9.91441441441,65.
7.02,6611.,7.,2.,3373.,0.,0.,9993.,0.954177539662,7.08817600892,91.
7.04,6611.,9.,0.,3375.,0.,0.,9995.,0.953986608689,5.51192262798,117.
7.06,6610.,7.,4.,3370.,0.,0.,9991.,0.954224186383,7.08852252742,91.
7.08,6612.,8.,7.,3367.,0.,0.,9994.,0.954226381983,6.20247148289,104.
7.1,6620.,8.,1.,3366.,0.,0.,9995.,0.955285334975,6.20935467734,104.
7.12,6623.,7.,2.,3362.,0.,0.,9994.,0.955813872939,7.10033162755,91.
7.14,6623.,8.,2.,3362.,0.,0.,9995.,0.955718243737,6.21216858429,104.
7.16,6631.,7.,5.,3357.,0.,0.,10000.,0.956394230769,7.10464285714,91.
7.18,6627.,10.,5.,3350.,0.,0.,9992.,0.956582573751,4.97422938351,130.
7.2,6629.,10.,4.,3349.,0.,0.,9992.,0.956871266244,4.97573058447,130.
7.22,6636.,7.,1.,3348.,0.,0.,9992.,0.957881689967,7.11569255404,91.
7.24,6636.,8.,0.,3346.,0.,0.,9990.,0.958073458073,6.22747747748,104.
7.26,6643.,7.,0.,3336.,0.,0.,9986.,0.959468255558,7.12747846986,91.
7.28,6652.,2.,5.,3329.,0.,0.,9988.,0.960575767844,24.974969964,26.
7.3,6656.,4.,1.,3329.,0.,0.,9990.,0.960960960961,12.4924924925,52.
7.32,6659.,4.,3.,3324.,0.,0.,9990.,0.961394086394,12.4981231231,52.
7.34,6662.,7.,2.,3318.,0.,0.,9989.,0.961923500466,7.14571743203,91.
7.36,6664.,3.,6.,3319.,0.,0.,9992.,0.961923384862,16.6733386709,39.
7.38,6661.,6.,2.,3323.,0.,0.,9992.,0.961490346123,8.33291633307,78.
7.4,6668.,7.,0.,3318.,0.,0.,9993.,0.962404452347,7.14929021744,91.
7.42,6669.,8.,2.,3312.,0.,0.,9991.,0.962741467321,6.25781953758,104.
7.44,6679.,2.,6.,3304.,0.,0.,9991.,0.964185074259,25.0688119307,26.
7.46,6673.,6.,3.,3302.,0.,0.,9984.,0.963994313979,8.35461738782,78.
7.48,6675.,8.,3.,3299.,0.,0.,9985.,0.964186664612,6.26721331998,104.
7.5,6673.,7.,4.,3299.,0.,0.,9983.,0.964090877569,7.16181794765,91.
7.52,6674.,11.,1.,3295.,0.,0.,9981.,0.964428568126,4.5591168675,143.
7.54,6681.,7.,3.,3289.,0.,0.,9980.,0.965536842917,7.17255940452,91.
7.56,6693.,5.,3.,3282.,0.,0.,9983.,0.96698040515,10.0565962136,65.
7.58,6699.,4.,2.,3280.,0.,0.,9985.,0.967653403182,12.5794942414,52.
7.6,6698.,6.,0.,3279.,0.,0.,9983.,0.967702787046,8.38675748773,78.
7.62,6709.,4.,1.,3274.,0.,0.,9988.,0.968806798928,12.5944883861,52.
7.64,6715.,4.,1.,3269.,0.,0.,9989.,0.969576149149,12.6044899389,52.
7.66,6710.,6.,3.,3267.,0.,0.,9986.,0.969145264909,8.39925896255,78.
7.68,6710.,7.,6.,3263.,0.,0.,9986.,0.969145264909,7.19936482504,91.
7.7,6713.,10.,2.,3263.,0.,0.,9988.,0.969384415144,5.04079895875,130.
7.72,6716.,4.,9.,3258.,0.,0.,9987.,0.96991473531,12.608891559,52.
7.74,6712.,9.,3.,3259.,0.,0.,9983.,0.969725456353,5.60285819226,117.
7.76,6715.,7.,4.,3253.,0.,0.,9979.,0.970547765693,7.20978340229,91.
7.78,6722.,12.,2.,3248.,0.,0.,9984.,0.971072947485,4.20798277244,156.
7.8,6727.,11.,2.,3241.,0.,0.,9981.,0.972087350581,4.59532202093,143.
7.82,6727.,10.,6.,3241.,0.,0.,9984.,0.971795257027,5.05333533654,130.
7.84,6727.,10.,4.,3238.,0.,0.,9979.,0.972282177187,5.05586732137,130.
7.86,6733.,8.,6.,3237.,0.,0.,9984.,0.972662028476,6.3223031851,104.
7.88,6723.,15.,4.,3238.,0.,0.,9980.,0.971606674888,3.36823647295,195.
7.9,6727.,15.,6.,3231.,0.,0.,9979.,0.972282177187,3.37057821425,195.
7.92,6730.,14.,5.,3228.,0.,0.,9977.,0.972910771698,3.61366858059,182.
7.94,6721.,16.,7.,3233.,0.,0.,9977.,0.971609702315,3.15773153252,208.
7.96,6717.,16.,12.,3232.,0.,0.,9977.,0.971031449256,3.15585221008,208.
7.98,6701.,24.,11.,3240.,0.,0.,9976.,0.968815541916,2.09910034082,312.
8.,6692.,25.,8.,3246.,0.,0.,9971.,0.96799950626,2.01343897302,325.
8.02,6692.,18.,6.,3256.,0.,0.,9972.,0.967902434509,2.79616258858,234.
8.04,6689.,16.,6.,3258.,0.,0.,9969.,0.967759670363,3.14521892868,208.
8.06,6687.,20.,7.,3257.,0.,0.,9971.,0.967276254986,2.51491826296,260.
8.08,6687.,17.,4.,3263.,0.,0.,9971.,0.967276254986,2.95872736819,221.
8.1,6694.,13.,8.,3259.,0.,0.,9974.,0.967997562894,3.87199025158,169.
8.12,6697.,15.,6.,3254.,0.,0.,9972.,0.968625613256,3.35790212595,195.
8.14,6701.,14.,7.,3248.,0.,0.,9970.,0.969398580356,3.60062329847,182.
8.16,6696.,17.,11.,3247.,0.,0.,9971.,0.96857810728,2.96270950462,221.
8.18,6695.,19.,12.,3249.,0.,0.,9975.,0.968045112782,2.64938662446,247.
8.2,6695.,18.,8.,3257.,0.,0.,9978.,0.96775405893,2.79573394802,234.
8.22,6685.,18.,10.,3263.,0.,0.,9976.,0.966502297822,2.79211774926,234.
8.24,6687.,22.,4.,3267.,0.,0.,9980.,0.96640396177,2.284227546,286.
8.26,6689.,20.,10.,3263.,0.,0.,9982.,0.96649931415,2.51289821679,260.
8.28,6685.,19.,11.,3264.,0.,0.,9979.,0.966211736955,2.6443689643,247.
8.3,6686.,24.,9.,3260.,0.,0.,9979.,0.966356271247,2.09377192103,312.
8.32,6685.,22.,5.,3267.,0.,0.,9979.,0.966211736955,2.28377319644,286.
8.34,6676.,21.,14.,3267.,0.,0.,9978.,0.965007632175,2.38954270824,273.
8.36,6669.,23.,13.,3271.,0.,0.,9976.,0.964189053729,2.17990568669,299.
8.38,6662.,18.,13.,3281.,0.,0.,9974.,0.963370146998,2.78306931355,234.
8.4,6652.,17.,14.,3292.,0.,0.,9975.,0.961827646038,2.94206103494,221.
8.42,6652.,25.,12.,3287.,0.,0.,9976.,0.96173123188,2.00040096231,325.
8.44,6646.,22.,10.,3297.,0.,0.,9975.,0.960960092539,2.27136021873,286.
8.46,6641.,24.,15.,3291.,0.,0.,9971.,0.960622343257,2.08134841039,312.
8.48,6626.,27.,18.,3296.,0.,0.,9967.,0.958837239814,1.8466494989,351.
8.5,6614.,36.,12.,3305.,0.,0.,9967.,0.957100740135,1.38247884686,468.
8.52,6600.,36.,13.,3317.,0.,0.,9966.,0.955170657157,1.37969094923,468.
8.54,6587.,43.,13.,3324.,0.,0.,9967.,0.953193615855,1.15269925638,559.
8.56,6571.,39.,16.,3337.,0.,0.,9963.,0.951260046789,1.26834672905,507.
8.58,6562.,41.,15.,3346.,0.,0.,9964.,0.949861810209,1.20470278368,533.
8.6,6554.,34.,23.,3354.,0.,0.,9965.,0.948608591609,1.45081314011,442.
8.62,6526.,47.,24.,3369.,0.,0.,9966.,0.944461167971,1.04493576031,611.
8.64,6512.,51.,17.,3386.,0.,0.,9966.,0.942435048395,0.960914166991,663.
8.66,6502.,52.,17.,3396.,0.,0.,9967.,0.940893409791,0.940893409791,676.
8.68,6497.,40.,19.,3413.,0.,0.,9969.,0.939981249566,1.22197562444,520.
8.7,6486.,40.,21.,3422.,0.,0.,9969.,0.938389777541,1.2199067108,520.
8.72,6474.,36.,18.,3439.,0.,0.,9967.,0.936841577205,1.35321561152,468.
8.74,6469.,40.,13.,3447.,0.,0.,9969.,0.935930229866,1.21670929883,520.
8.76,6452.,42.,21.,3450.,0.,0.,9965.,0.933845381914,1.15618952046,546.
8.78,6443.,46.,13.,3467.,0.,0.,9969.,0.932168568717,1.05375577333,598.
8.8,6439.,40.,15.,3476.,0.,0.,9970.,0.931496412314,1.21094533601,520.
8.82,6431.,38.,16.,3479.,0.,0.,9964.,0.930899314455,1.27386221978,494.
8.84,6420.,39.,15.,3493.,0.,0.,9967.,0.929027328646,1.23870310486,507.
8.86,6422.,32.,16.,3502.,0.,0.,9972.,0.92885078219,1.50938252106,416.
8.88,6411.,41.,6.,3513.,0.,0.,9971.,0.927352784614,1.17615475122,533.
8.9,6410.,38.,7.,3520.,0.,0.,9975.,0.926836321573,1.26830233478,494.
8.92,6407.,34.,14.,3518.,0.,0.,9973.,0.926588326944,1.41713508827,442.
8.94,6403.,33.,11.,3524.,0.,0.,9971.,0.926195582574,1.45945970587,429.
8.96,6402.,35.,5.,3528.,0.,0.,9970.,0.926143816064,1.37598509815,455.
8.98,6395.,30.,18.,3527.,0.,0.,9970.,0.925131162719,1.60356068205,390.
9.,6383.,38.,15.,3535.,0.,0.,9971.,0.923302577475,1.26346668497,494.
9.02,6375.,34.,16.,3546.,0.,0.,9971.,0.922145375435,1.41033998596,442.
9.04,6368.,31.,13.,3554.,0.,0.,9966.,0.92159496133,1.54590122546,403.
9.06,6356.,33.,15.,3562.,0.,0.,9966.,0.919858287408,1.44947366501,429.
9.08,6351.,28.,15.,3575.,0.,0.,9969.,0.918858075418,1.70645071149,364.
9.1,6340.,15.,23.,3585.,0.,0.,9963.,0.91781900725,3.18177255847,195.
9.12,6320.,32.,15.,3596.,0.,0.,9963.,0.914923679151,1.48675097862,416.
9.14,6305.,39.,15.,3604.,0.,0.,9963.,0.912752183077,1.21700291077,507.
9.16,6301.,23.,28.,3611.,0.,0.,9963.,0.912173117458,2.06230443947,299.
9.18,6289.,35.,13.,3624.,0.,0.,9961.,0.910618720703,1.35291924219,455.
9.2,6285.,31.,14.,3632.,0.,0.,9962.,0.909948187729,1.526364702,403.
9.22,6284.,22.,15.,3642.,0.,0.,9963.,0.909712088574,2.15022857299,286.
9.24,6268.,31.,17.,3647.,0.,0.,9963.,0.907395826095,1.52208332119,403.
9.26,6261.,32.,15.,3656.,0.,0.,9964.,0.906291495538,1.47272368025,416.
9.28,6260.,35.,11.,3657.,0.,0.,9963.,0.906237694856,1.3464102895,455.
9.3,6262.,19.,21.,3664.,0.,0.,9966.,0.906254341685,2.4802750404,247.
9.32,6260.,18.,13.,3675.,0.,0.,9966.,0.905964896031,2.61723192187,234.
9.34,6267.,19.,5.,3675.,0.,0.,9966.,0.906977955819,2.48225545803,247.
9.36,6271.,14.,13.,3670.,0.,0.,9968.,0.907374753056,3.37024908278,182.
9.38,6268.,21.,7.,3672.,0.,0.,9968.,0.906940671688,2.2457578537,273.
9.4,6259.,29.,7.,3675.,0.,0.,9970.,0.90545675488,1.62357762944,377.
9.42,6265.,25.,13.,3667.,0.,0.,9970.,0.906324743461,1.8851554664,325.
9.44,6266.,22.,6.,3674.,0.,0.,9968.,0.906651284109,2.14299394426,286.
9.46,6268.,21.,9.,3672.,0.,0.,9970.,0.906758737752,2.24530735062,273.
9.48,6264.,21.,16.,3667.,0.,0.,9968.,0.90636189653,2.24432469617,273.
9.5,6253.,22.,19.,3675.,0.,0.,9969.,0.90467950647,2.13833337893,286.
9.52,6250.,20.,10.,3689.,0.,0.,9969.,0.904245468645,2.35103821848,260.
9.54,6250.,20.,8.,3690.,0.,0.,9968.,0.904336183479,2.35127407705,260.
9.56,6242.,24.,11.,3690.,0.,0.,9967.,0.903269250064,1.95708337514,312.
9.58,6230.,25.,17.,3695.,0.,0.,9967.,0.901532750384,1.8751881208,325.
9.6,6220.,30.,10.,3708.,0.,0.,9968.,0.899995369799,1.55999197432,390.
9.62,6218.,30.,8.,3714.,0.,0.,9970.,0.899525499576,1.5591775326,390.
9.64,6221.,23.,12.,3716.,0.,0.,9972.,0.899778996575,2.03428294878,299.
9.66,6216.,24.,12.,3717.,0.,0.,9969.,0.899326373296,1.94854047547,312.
9.68,6205.,27.,21.,3718.,0.,0.,9971.,0.89755483209,1.72862412106,351.
9.7,6190.,42.,15.,3726.,0.,0.,9973.,0.895205516433,1.10834968701,546.
9.72,6170.,45.,20.,3738.,0.,0.,9973.,0.892313091501,1.03111735018,585.
9.74,6159.,44.,19.,3750.,0.,0.,9972.,0.890811580117,1.05277732196,572.
9.76,6155.,42.,18.,3758.,0.,0.,9973.,0.890143772802,1.10208276633,546.
9.78,6145.,38.,23.,3768.,0.,0.,9974.,0.888608458916,1.21599052273,494.
9.8,6135.,46.,17.,3777.,0.,0.,9975.,0.887073452863,1.00277868585,598.
9.82,6129.,43.,19.,3783.,0.,0.,9974.,0.886294750968,1.0717983035,559.
9.84,6122.,40.,21.,3794.,0.,0.,9977.,0.885016306736,1.15052119876,520.
9.86,6119.,32.,14.,3812.,0.,0.,9977.,0.884582616942,1.43744675253,416.
9.88,6106.,35.,17.,3817.,0.,0.,9975.,0.882880277617,1.31170784103,455.
9.9,6092.,37.,18.,3829.,0.,0.,9976.,0.880767688607,1.23783567047,481.
9.92,6075.,38.,15.,3840.,0.,0.,9968.,0.879014770342,1.20286231731,494.
9.94,6064.,40.,15.,3848.,0.,0.,9967.,0.877511171481,1.14076452293,520.
9.96,6064.,35.,12.,3858.,0.,0.,9969.,0.877335123498,1.30346932634,455.
9.98,6060.,29.,21.,3857.,0.,0.,9967.,0.876932338255,1.57243039963,377.
10.,6050.,39.,11.,3868.,0.,0.,9968.,0.875397425608,1.16719656748,507.
