t,s,e,i,r,c,o,n,reff,coal,reportr
5.,6250.,5.,3.,3734.,0.,0.,9992.,0.902164038923,9.3825060048,65.
5.02,6263.,4.,0.,3723.,0.,0.,9990.,0.904221529222,11.7548798799,52.
5.04,6272.,4.,1.,3715.,0.,0.,9992.,0.90533965634,11.7694155324,52.
5.06,6271.,2.,2.,3713.,0.,0.,9988.,0.905557823234,23.5445034041,26.
5.08,6276.,5.,3.,3708.,0.,0.,9992.,0.905917041325,9.42153722978,65.
5.1,6286.,5.,2.,3702.,0.,0.,9995.,0.907088159464,9.43371685843,65.
5.12,6293.,6.,0.,3698.,0.,0.,9997.,0.907916605751,7.86861058317,78.
5.14,6303.,6.,0.,3689.,0.,0.,9998.,0.90926839214,7.88032606521,78.
5.16,6310.,5.,0.,3682.,0.,0.,9997.,0.910369264626,9.46784035211,65.
5.18,6313.,4.,2.,3675.,0.,0.,9994.,0.911075491449,11.8439813888,52.
5.2,6319.,5.,1.,3671.,0.,0.,9996.,0.911758934343,9.48229291717,65.
5.22,6326.,2.,6.,3662.,0.,0.,9996.,0.912768953735,23.7319927971,26.
5.24,6334.,4.,1.,3658.,0.,0.,9997.,0.91383184186,11.8798139442,52.
5.26,6338.,4.,1.,3653.,0.,0.,9996.,0.914500415551,11.8885054022,52.
5.28,6344.,3.,3.,3644.,0.,0.,9994.,0.915549329598,15.869521713,39.
5.3,6350.,5.,4.,3633.,0.,0.,9992.,0.916598663546,9.53262610088,65.
5.32,6358.,6.,1.,3628.,0.,0.,9993.,0.917661593885,7.953067147,78.
5.34,6366.,7.,3.,3617.,0.,0.,9993.,0.918816248297,6.82549213021,91.
5.36,6367.,5.,5.,3615.,0.,0.,9992.,0.919052549732,9.55814651721,65.
5.38,6368.,4.,5.,3613.,0.,0.,9990.,0.919380919381,11.951951952,52.
5.4,6373.,7.,1.,3607.,0.,0.,9988.,0.920287036752,6.8364179873,91.
5.42,6387.,4.,3.,3598.,0.,0.,9992.,0.921939474657,11.9852131705,52.
5.44,6395.,6.,1.,3593.,0.,0.,9995.,0.92281717782,7.99774887444,78.
5.46,6398.,9.,2.,3588.,0.,0.,9997.,0.923065381153,5.33326664666,117.
5.48,6397.,7.,5.,3587.,0.,0.,9996.,0.923013436144,6.85667123992,91.
5.5,6410.,6.,3.,3576.,0.,0.,9995.,0.92498172163,8.01650825413,78.
5.52,6413.,3.,6.,3575.,0.,0.,9997.,0.925229491925,16.0373111934,39.
5.54,6407.,12.,2.,3576.,0.,0.,9997.,0.924363847616,4.005576673,156.
5.56,6411.,4.,8.,3572.,0.,0.,9995.,0.925126024551,12.0266383192,52.
5.58,6413.,13.,6.,3563.,0.,0.,9995.,0.925414630392,3.70165852157,169.
5.6,6413.,14.,11.,3559.,0.,0.,9997.,0.925229491925,3.43656668429,182.
5.62,6401.,17.,12.,3566.,0.,0.,9996.,0.923590590082,2.82510062849,221.
5.64,6394.,20.,11.,3572.,0.,0.,9997.,0.922488284947,2.39846954086,260.
5.66,6382.,27.,12.,3573.,0.,0.,9994.,0.921033389264,1.77384208303,351.
5.68,6379.,28.,13.,3577.,0.,0.,9997.,0.920324174175,1.70917346633,364.
5.7,6376.,19.,15.,3585.,0.,0.,9995.,0.920075422327,2.51810115584,247.
5.72,6370.,24.,4.,3598.,0.,0.,9996.,0.919117647059,1.99142156863,312.
5.74,6361.,21.,12.,3601.,0.,0.,9995.,0.917910878516,2.27292217537,273.
5.76,6358.,23.,14.,3600.,0.,0.,9995.,0.917477969754,2.07429801857,299.
5.78,6348.,34.,12.,3603.,0.,0.,9997.,0.91585167858,1.40071433195,442.
5.8,6350.,29.,14.,3602.,0.,0.,9995.,0.916323546389,1.64306291077,377.
5.82,6342.,25.,17.,3606.,0.,0.,9990.,0.915627165627,1.9045045045,325.
5.84,6336.,26.,21.,3611.,0.,0.,9994.,0.914394790721,1.82878958144,338.
5.86,6341.,24.,15.,3614.,0.,0.,9994.,0.915116377519,1.98275215129,312.
5.88,6343.,24.,14.,3620.,0.,0.,10001.,0.914764292801,1.98198930107,312.
5.9,6331.,27.,10.,3633.,0.,0.,10001.,0.91303369663,1.75843526758,351.
5.92,6330.,27.,13.,3631.,0.,0.,10001.,0.912889480283,1.75815751758,351.
5.94,6323.,22.,18.,3639.,0.,0.,10002.,0.911788796087,2.15513715439,286.
5.96,6321.,29.,8.,3648.,0.,0.,10006.,0.911136010701,1.63376112264,377.
5.98,6322.,24.,9.,3651.,0.,0.,10006.,0.911280154984,1.9744403358,312.
6.,6316.,24.,12.,3655.,0.,0.,10007.,0.910324311444,1.97236934146,312.
6.02,6310.,29.,12.,3657.,0.,0.,10008.,0.909368658919,1.63059207806,377.
6.04,6306.,30.,13.,3660.,0.,0.,10009.,0.90870139951,1.57508242582,390.
6.06,6290.,35.,12.,3670.,0.,0.,10007.,0.906576934607,1.34691430285,455.
6.08,6293.,27.,12.,3674.,0.,0.,10006.,0.907099970787,1.74700735114,351.
6.1,6297.,19.,11.,3678.,0.,0.,10005.,0.907767270211,2.48441568689,247.
6.12,6299.,13.,14.,3681.,0.,0.,10007.,0.907874103512,3.63149641405,169.
6.14,6291.,15.,13.,3684.,0.,0.,10003.,0.907083644138,3.14455663301,195.
6.16,6279.,24.,13.,3686.,0.,0.,10002.,0.905443911218,1.96179514097,312.
6.18,6277.,25.,9.,3692.,0.,0.,10003.,0.905065018956,1.88253523943,325.
6.2,6280.,22.,6.,3693.,0.,0.,10001.,0.905678662903,2.14069502141,286.
6.22,6283.,20.,5.,3691.,0.,0.,9999.,0.906292552332,2.35636063606,260.
6.24,6278.,20.,9.,3687.,0.,0.,9994.,0.906024383861,2.35566339804,260.
6.26,6269.,17.,16.,3688.,0.,0.,9990.,0.905087780088,2.76850379792,221.
6.28,6262.,20.,5.,3702.,0.,0.,9989.,0.904167661351,2.35083591951,260.
6.3,6260.,17.,10.,3704.,0.,0.,9991.,0.903697943534,2.76425253316,221.
6.32,6262.,18.,12.,3700.,0.,0.,9992.,0.903896193878,2.6112556712,234.
6.34,6252.,19.,9.,3710.,0.,0.,9990.,0.902633402633,2.47036510194,247.
6.36,6257.,19.,4.,3712.,0.,0.,9992.,0.903174462647,2.47184589777,247.
6.38,6254.,23.,7.,3703.,0.,0.,9987.,0.903193382166,2.04200242924,299.
6.4,6256.,19.,11.,3702.,0.,0.,9988.,0.903391762423,2.47244061295,247.
6.42,6258.,21.,5.,3705.,0.,0.,9989.,0.903590102959,2.23746120733,273.
6.44,6258.,20.,10.,3701.,0.,0.,9989.,0.903590102959,2.34933426769,260.
6.46,6254.,21.,7.,3709.,0.,0.,9991.,0.902831779371,2.23558345368,273.
6.48,6257.,12.,8.,3711.,0.,0.,9988.,0.903536166477,3.91532338807,156.
6.5,6262.,12.,8.,3712.,0.,0.,9994.,0.903715306107,3.9160996598,156.
6.52,6270.,11.,4.,3712.,0.,0.,9997.,0.904598302568,4.27628288487,143.
6.54,6279.,10.,5.,3705.,0.,0.,9999.,0.905715571557,4.7097209721,130.
6.56,6282.,9.,6.,3702.,0.,0.,9999.,0.906148307138,5.23552355236,117.
6.58,6289.,6.,5.,3699.,0.,0.,9999.,0.907158023495,7.86203620362,78.
6.6,6284.,10.,7.,3696.,0.,0.,9997.,0.906618139288,4.7144143243,130.
6.62,6289.,13.,2.,3691.,0.,0.,9995.,0.907521068226,3.63008427291,169.
6.64,6292.,11.,3.,3689.,0.,0.,9995.,0.907953976988,4.29214607304,143.
6.66,6297.,8.,6.,3683.,0.,0.,9994.,0.908766413694,5.90698168901,104.
6.68,6306.,8.,5.,3678.,0.,0.,9997.,0.90979216842,5.91364909473,104.
6.7,6307.,4.,7.,3679.,0.,0.,9997.,0.909936442471,11.8291737521,52.
6.72,6309.,8.,6.,3674.,0.,0.,9997.,0.910224990574,5.91646243873,104.
6.74,6315.,13.,2.,3668.,0.,0.,9998.,0.910999507594,3.64399803038,169.
6.76,6319.,10.,7.,3663.,0.,0.,9999.,0.911485379307,4.7397239724,130.
6.78,6324.,11.,3.,3661.,0.,0.,9999.,0.912206605276,4.31224940676,143.
6.8,6324.,15.,2.,3659.,0.,0.,10000.,0.912115384615,3.162,195.
6.82,6332.,9.,0.,3653.,0.,0.,9994.,0.913817521282,5.27983456741,117.
6.84,6331.,11.,4.,3646.,0.,0.,9992.,0.913856084868,4.32004694665,143.
6.86,6330.,14.,5.,3642.,0.,0.,9991.,0.913803192104,3.3941261421,182.
6.88,6333.,11.,5.,3642.,0.,0.,9991.,0.914236274185,4.32184420524,143.
6.9,6338.,14.,6.,3632.,0.,0.,9990.,0.91504966505,3.39875589876,182.
6.92,6343.,13.,6.,3626.,0.,0.,9988.,0.915954915129,3.66381966052,169.
6.94,6342.,19.,6.,3619.,0.,0.,9986.,0.915993929963,2.50693075569,247.
6.96,6344.,12.,9.,3620.,0.,0.,9985.,0.916374561843,3.97095643465,156.
6.98,6343.,14.,9.,3615.,0.,0.,9981.,0.916597304109,3.4045042724,182.
7.,6340.,18.,8.,3615.,0.,0.,9981.,0.916163788121,2.6466953879,234.
7.02,6338.,15.,8.,3621.,0.,0.,9982.,0.915783024829,3.17471448607,195.
7.04,6341.,13.,4.,3631.,0.,0.,9989.,0.915574439576,3.6622977583,169.
7.06,6349.,8.,8.,3624.,0.,0.,9989.,0.916729556358,5.95874211633,104.
7.08,6343.,11.,4.,3628.,0.,0.,9986.,0.916138362939,4.33083589753,143.
7.1,6349.,11.,7.,3621.,0.,0.,9988.,0.916821339453,4.33406451378,143.
7.12,6351.,11.,8.,3616.,0.,0.,9986.,0.917293826742,4.33629809005,143.
7.14,6350.,8.,8.,3621.,0.,0.,9987.,0.917057559443,5.96087413638,104.
7.16,6355.,6.,5.,3623.,0.,0.,9989.,0.917595893945,7.95249774752,78.
7.18,6352.,11.,6.,3620.,0.,0.,9989.,0.917162725152,4.33567833708,143.
7.2,6357.,6.,7.,3621.,0.,0.,9991.,0.917700930838,7.95340806726,78.
7.22,6358.,6.,8.,3618.,0.,0.,9990.,0.917937167937,7.95545545546,78.
7.24,6362.,15.,6.,3609.,0.,0.,9992.,0.918330818501,3.18354683747,195.
7.26,6359.,13.,9.,3610.,0.,0.,9991.,0.917989652225,3.6719586089,169.
7.28,6361.,16.,5.,3610.,0.,0.,9992.,0.918186472255,2.98410603483,208.
7.3,6361.,14.,1.,3616.,0.,0.,9992.,0.918186472255,3.41040689695,182.
7.32,6367.,16.,4.,3608.,0.,0.,9995.,0.91877669604,2.98602426213,208.
7.34,6364.,18.,8.,3602.,0.,0.,9992.,0.918619510993,2.65378969843,234.
7.36,6364.,15.,6.,3610.,0.,0.,9995.,0.918343787278,3.1835917959,195.
7.38,6364.,17.,3.,3608.,0.,0.,9992.,0.918619510993,2.8098949748,221.
7.4,6368.,14.,3.,3606.,0.,0.,9991.,0.91928889847,3.41450162289,182.
7.42,6375.,5.,3.,3608.,0.,0.,9991.,0.920299423327,9.5711140026,65.
7.44,6381.,9.,2.,3602.,0.,0.,9994.,0.920889071905,5.32069241545,117.
7.46,6382.,9.,2.,3598.,0.,0.,9991.,0.921309948184,5.32312414506,117.
7.48,6380.,12.,5.,3592.,0.,0.,9989.,0.92120563389,3.99189108019,156.
7.5,6375.,15.,4.,3592.,0.,0.,9986.,0.920760218152,3.19196875626,195.
7.52,6374.,14.,3.,3591.,0.,0.,9982.,0.920984695529,3.42080029768,182.
7.54,6378.,13.,4.,3588.,0.,0.,9983.,0.921470345742,3.68588138297,169.
7.56,6377.,14.,5.,3589.,0.,0.,9985.,0.921141327376,3.42138207311,182.
7.58,6376.,14.,10.,3585.,0.,0.,9985.,0.920996879935,3.42084555405,182.
7.6,6370.,15.,10.,3590.,0.,0.,9985.,0.920130195293,3.18978467702,195.
7.62,6375.,16.,4.,3590.,0.,0.,9985.,0.920852432495,2.99277040561,208.
7.64,6383.,9.,5.,3586.,0.,0.,9983.,0.922192727637,5.32822464857,117.
7.66,6382.,13.,0.,3592.,0.,0.,9987.,0.921678951868,3.68671580747,169.
7.68,6387.,8.,7.,3583.,0.,0.,9985.,0.92258580178,5.99680771157,104.
7.7,6384.,5.,4.,3589.,0.,0.,9982.,0.922429604057,9.59326788219,65.
7.72,6385.,7.,2.,3589.,0.,0.,9983.,0.922481680395,6.85272105436,91.
7.74,6387.,6.,0.,3592.,0.,0.,9985.,0.92258580178,7.99574361542,78.
7.76,6390.,7.,0.,3587.,0.,0.,9984.,0.923111593935,6.85740041209,91.
7.78,6400.,5.,2.,3576.,0.,0.,9983.,0.924648826081,9.61634779125,65.
7.8,6404.,10.,2.,3570.,0.,0.,9986.,0.924948774438,4.80973362708,130.
7.82,6405.,2.,7.,3571.,0.,0.,9985.,0.925185855707,24.0548322484,26.
7.84,6405.,3.,2.,3573.,0.,0.,9983.,0.925371207977,16.0397676049,39.
7.86,6400.,8.,6.,3566.,0.,0.,9980.,0.92492677663,6.0120240481,104.
7.88,6401.,11.,3.,3567.,0.,0.,9982.,0.924885948554,4.37218812043,143.
7.9,6402.,8.,7.,3564.,0.,0.,9981.,0.925123118541,6.01330027051,104.
7.92,6400.,17.,6.,3559.,0.,0.,9982.,0.924741457701,2.82862092944,221.
7.94,6399.,14.,11.,3558.,0.,0.,9982.,0.924596966848,3.43421730544,182.
7.96,6392.,22.,4.,3561.,0.,0.,9979.,0.923863189621,2.18367663001,286.
7.98,6401.,16.,7.,3558.,0.,0.,9982.,0.924885948554,3.0058793328,208.
8.,6408.,9.,6.,3561.,0.,0.,9984.,0.925711908284,5.34855769231,117.
8.02,6410.,11.,4.,3564.,0.,0.,9989.,0.925537321823,4.37526733953,143.
8.04,6413.,12.,1.,3562.,0.,0.,9988.,0.926063198916,4.01294052863,156.
8.06,6420.,9.,2.,3558.,0.,0.,9989.,0.926981217801,5.35589148063,117.
8.08,6424.,11.,3.,3552.,0.,0.,9990.,0.927465927466,4.38438438438,143.
8.1,6429.,7.,4.,3554.,0.,0.,9994.,0.927816305168,6.89234969553,91.
8.12,6429.,8.,4.,3550.,0.,0.,9991.,0.928094900795,6.03261685517,104.
8.14,6436.,10.,1.,3546.,0.,0.,9993.,0.928919474401,4.83038126689,130.
8.16,6443.,8.,5.,3536.,0.,0.,9992.,0.930022864445,6.0451486189,104.
8.18,6447.,12.,2.,3533.,0.,0.,9994.,0.930414017641,4.03179407645,156.
8.2,6459.,11.,2.,3524.,0.,0.,9996.,0.93195932219,4.40562588672,143.
8.22,6462.,10.,3.,3523.,0.,0.,9998.,0.932205671904,4.8474694939,130.
8.24,6466.,13.,3.,3513.,0.,0.,9995.,0.933062685189,3.73225074075,169.
8.26,6471.,13.,4.,3506.,0.,0.,9994.,0.933877634273,3.73551053709,169.
8.28,6478.,13.,7.,3496.,0.,0.,9994.,0.93488785579,3.73955142316,169.
8.3,6485.,9.,5.,3494.,0.,0.,9993.,0.935991732674,5.40795223323,117.
8.32,6489.,10.,6.,3493.,0.,0.,9998.,0.936100681675,4.86772354471,130.
8.34,6482.,12.,9.,3492.,0.,0.,9995.,0.93537153192,4.05327663832,156.
8.36,6484.,17.,0.,3491.,0.,0.,9992.,0.935941060541,2.86287853812,221.
8.38,6480.,14.,2.,3495.,0.,0.,9991.,0.935457296182,3.47455567153,182.
8.4,6480.,7.,7.,3498.,0.,0.,9992.,0.935363675556,6.94841587556,91.
8.42,6478.,13.,1.,3497.,0.,0.,9989.,0.935355814473,3.74142325789,169.
8.44,6484.,10.,4.,3489.,0.,0.,9987.,0.936409640225,4.86933012917,130.
8.46,6484.,10.,3.,3487.,0.,0.,9984.,0.936691013314,4.87079326923,130.
8.48,6494.,9.,2.,3480.,0.,0.,9985.,0.938041677901,5.41979636121,117.
8.5,6499.,8.,2.,3477.,0.,0.,9986.,0.938669907101,6.10135439615,104.
8.52,6503.,7.,3.,3478.,0.,0.,9991.,0.938777592141,6.97377639876,91.
8.54,6504.,8.,2.,3478.,0.,0.,9992.,0.938827985465,6.10238190552,104.
8.56,6503.,8.,3.,3474.,0.,0.,9988.,0.939059563784,6.1038871646,104.
8.58,6504.,8.,4.,3469.,0.,0.,9985.,0.939486152305,6.10665998998,104.
8.6,6505.,10.,1.,3467.,0.,0.,9983.,0.939818845884,4.8870579986,130.
8.62,6512.,10.,1.,3461.,0.,0.,9984.,0.940735946746,4.89182692308,130.
8.64,6517.,6.,5.,3455.,0.,0.,9983.,0.941552562433,8.16012220775,78.
8.66,6517.,8.,2.,3456.,0.,0.,9983.,0.941552562433,6.12009165581,104.
8.68,6520.,11.,3.,3449.,0.,0.,9983.,0.94198599157,4.45302468742,143.
8.7,6521.,11.,5.,3447.,0.,0.,9984.,0.94203610392,4.45326158217,143.
8.72,6523.,9.,6.,3447.,0.,0.,9985.,0.942230653673,5.44399933233,117.
8.74,6532.,12.,0.,3443.,0.,0.,9987.,0.943341728863,4.08781415841,156.
8.76,6543.,10.,2.,3431.,0.,0.,9986.,0.945024958018,4.91412978169,130.
8.78,6544.,5.,6.,3430.,0.,0.,9985.,0.945264049921,9.83074611918,65.
8.8,6553.,12.,4.,3416.,0.,0.,9985.,0.946564076885,4.1017776665,156.
8.82,6562.,10.,4.,3414.,0.,0.,9990.,0.94738969739,4.92642642643,130.
8.84,6571.,7.,8.,3402.,0.,0.,9988.,0.948879039463,7.04881572172,91.
8.86,6576.,5.,7.,3402.,0.,0.,9990.,0.949410949411,9.87387387387,65.
8.88,6580.,3.,4.,3402.,0.,0.,9989.,0.950083553447,16.4681149264,39.
8.9,6578.,4.,2.,3399.,0.,0.,9983.,0.950365621557,12.3547530802,52.
8.92,6584.,5.,1.,3392.,0.,0.,9982.,0.95132777461,9.89380885594,65.
8.94,6580.,7.,1.,3390.,0.,0.,9978.,0.951130949628,7.06554419723,91.
8.96,6581.,8.,2.,3387.,0.,0.,9978.,0.951275498404,6.18329073963,104.
8.98,6587.,8.,1.,3382.,0.,0.,9978.,0.952142791063,6.18892814191,104.
9.,6594.,7.,2.,3368.,0.,0.,9971.,0.953823781273,7.08554808946,91.
9.02,6597.,5.,2.,3364.,0.,0.,9968.,0.954544928386,9.92726725522,65.
9.04,6601.,6.,3.,3360.,0.,0.,9970.,0.954932104004,8.2760782347,78.
9.06,6607.,7.,2.,3353.,0.,0.,9969.,0.955895969814,7.10094149005,91.
9.08,6614.,8.,1.,3350.,0.,0.,9973.,0.95652492499,6.21741201243,104.
9.1,6615.,7.,5.,3351.,0.,0.,9978.,0.956190156807,7.10312687913,91.
9.12,6620.,4.,5.,3348.,0.,0.,9977.,0.957008812577,12.4411145635,52.
9.14,6623.,8.,5.,3339.,0.,0.,9975.,0.957634470792,6.22462406015,104.
9.16,6621.,12.,4.,3337.,0.,0.,9974.,0.95744127038,4.14891217165,156.
9.18,6629.,8.,6.,3334.,0.,0.,9977.,0.958309881959,6.22901423274,104.
9.2,6621.,13.,10.,3332.,0.,0.,9976.,0.957249321448,3.82899728579,169.
9.22,6609.,19.,11.,3335.,0.,0.,9974.,0.955705989419,2.61561639209,247.
9.24,6610.,16.,7.,3341.,0.,0.,9974.,0.955850596165,3.10651443754,208.
9.26,6616.,17.,7.,3335.,0.,0.,9975.,0.956622325043,2.9261388766,221.
9.28,6621.,14.,10.,3333.,0.,0.,9978.,0.957057449466,3.5547848123,182.
9.3,6621.,11.,8.,3337.,0.,0.,9977.,0.957153375841,4.52472504943,143.
9.32,6614.,16.,7.,3336.,0.,0.,9973.,0.95652492499,3.10870600622,208.
9.34,6613.,13.,7.,3339.,0.,0.,9972.,0.956476210312,3.82590484125,169.
9.36,6615.,14.,13.,3329.,0.,0.,9971.,0.956861436628,3.55405676462,182.
9.38,6607.,24.,7.,3333.,0.,0.,9971.,0.955704234588,2.07069250827,312.
9.4,6595.,21.,13.,3338.,0.,0.,9967.,0.954351282309,2.36315555619,273.
9.42,6592.,22.,3.,3353.,0.,0.,9970.,0.953630121133,2.25403483177,286.
9.44,6596.,20.,8.,3347.,0.,0.,9971.,0.954113081783,2.48069401264,260.
9.46,6597.,18.,10.,3346.,0.,0.,9971.,0.954257732038,2.75674455922,234.
9.48,6596.,15.,10.,3352.,0.,0.,9973.,0.953921742551,3.30692870751,195.
9.5,6595.,15.,4.,3355.,0.,0.,9969.,0.954159818514,3.30775403752,195.
9.52,6589.,20.,7.,3353.,0.,0.,9969.,0.953291742864,2.47855853145,260.
9.54,6589.,17.,11.,3351.,0.,0.,9968.,0.953387378071,2.91624374469,221.
9.56,6593.,18.,4.,3357.,0.,0.,9972.,0.953583495325,2.75479676427,234.
9.58,6594.,15.,12.,3355.,0.,0.,9976.,0.953345722041,3.30493183641,195.
9.6,6590.,21.,10.,3356.,0.,0.,9977.,0.952671914634,2.35899712195,273.
9.62,6587.,19.,11.,3360.,0.,0.,9977.,0.95223822484,2.60612566798,247.
9.64,6584.,20.,16.,3363.,0.,0.,9983.,0.951232479831,2.47320444756,260.
9.66,6574.,29.,12.,3364.,0.,0.,9979.,0.950168430627,1.7037502894,377.
9.68,6569.,28.,12.,3369.,0.,0.,9978.,0.949540913086,1.7634331243,364.
9.7,6556.,24.,9.,3384.,0.,0.,9973.,0.948136892687,2.05429660082,312.
9.72,6552.,25.,3.,3395.,0.,0.,9975.,0.947368421053,1.97052631579,325.
9.74,6552.,14.,10.,3394.,0.,0.,9970.,0.947843530592,3.52056168506,182.
9.76,6543.,18.,6.,3399.,0.,0.,9966.,0.946921456027,2.73555087297,234.
9.78,6548.,19.,9.,3391.,0.,0.,9967.,0.947549991896,2.59329471466,247.
9.8,6551.,20.,10.,3390.,0.,0.,9971.,0.94760382031,2.46376993281,260.
9.82,6550.,19.,11.,3390.,0.,0.,9970.,0.947554201065,2.59330623449,247.
9.84,6541.,19.,14.,3396.,0.,0.,9970.,0.946252218193,2.58974291295,247.
9.86,6536.,27.,4.,3405.,0.,0.,9972.,0.945339257614,1.82065338503,351.
9.88,6531.,19.,10.,3406.,0.,0.,9966.,0.945184782105,2.58682150892,247.
9.9,6529.,21.,12.,3406.,0.,0.,9968.,0.94470575071,2.33927138271,273.
9.92,6529.,18.,11.,3409.,0.,0.,9967.,0.94480053407,2.72942376509,234.
9.94,6535.,15.,16.,3402.,0.,0.,9968.,0.945573913446,3.27798956661,195.
9.96,6535.,20.,9.,3406.,0.,0.,9970.,0.945384229612,2.45799899699,260.
9.98,6531.,23.,7.,3409.,0.,0.,9970.,0.944805570558,2.13608215952,299.
10.,6527.,22.,10.,3411.,0.,0.,9970.,0.944226911504,2.23180906355,286.
