t,s,e,i,r,c,o,n,reff,coal,reportr
5.,6250.,5.,3.,3734.,0.,0.,9992.,0.902164038923,9.3825060048,65.
5.02,6253.,8.,4.,3727.,0.,0.,9992.,0.902597077662,5.8668810048,104.
5.04,6255.,4.,6.,3726.,0.,0.,9991.,0.902976140065,11.7386898208,52.
5.06,6261.,4.,1.,3727.,0.,0.,9993.,0.90366140914,11.7475983188,52.
5.08,6267.,2.,1.,3719.,0.,0.,9989.,0.90488960934,23.5271298428,26.
5.1,6269.,2.,0.,3712.,0.,0.,9983.,0.905722420422,23.548782931,26.
5.12,6273.,3.,0.,3708.,0.,0.,9984.,0.906209550666,15.7076322115,39.
5.14,6275.,4.,0.,3701.,0.,0.,9980.,0.906861800524,11.7892034068,52.
5.16,6287.,2.,1.,3695.,0.,0.,9985.,0.90814105774,23.6116675013,26.
5.18,6293.,2.,2.,3689.,0.,0.,9986.,0.908916714169,23.6318345684,26.
5.2,6296.,8.,0.,3687.,0.,0.,9991.,0.908894928513,5.90781703533,104.
5.22,6308.,5.,2.,3677.,0.,0.,9992.,0.910536121205,9.46957566053,65.
5.24,6305.,9.,0.,3677.,0.,0.,9991.,0.910194174757,5.25889967638,117.
5.26,6313.,6.,2.,3671.,0.,0.,9992.,0.911257852436,7.89756805444,78.
5.28,6321.,7.,3.,3663.,0.,0.,9994.,0.912230030326,6.77656593956,91.
5.3,6324.,11.,0.,3662.,0.,0.,9997.,0.912389101346,4.31311211545,143.
5.32,6327.,6.,6.,3659.,0.,0.,9998.,0.912730623048,7.91033206641,78.
5.34,6336.,12.,2.,3651.,0.,0.,10001.,0.913754778368,3.9596040396,156.
5.36,6342.,13.,3.,3647.,0.,0.,10005.,0.914254411256,3.65701764502,169.
5.38,6343.,13.,2.,3646.,0.,0.,10004.,0.914489973241,3.65795989297,169.
5.4,6352.,8.,2.,3644.,0.,0.,10006.,0.915604483464,5.95142914251,104.
5.42,6358.,8.,2.,3635.,0.,0.,10003.,0.916744207507,5.9588373488,104.
5.44,6366.,6.,2.,3632.,0.,0.,10006.,0.917622503421,7.95272836298,78.
5.46,6373.,7.,3.,3628.,0.,0.,10011.,0.918172702335,6.82071150306,91.
5.48,6371.,12.,4.,3626.,0.,0.,10013.,0.917701219184,3.97670528313,156.
5.5,6371.,17.,5.,3619.,0.,0.,10012.,0.917792879314,2.80736645437,221.
5.52,6371.,17.,11.,3612.,0.,0.,10011.,0.917884557756,2.80764688255,221.
5.54,6377.,17.,10.,3604.,0.,0.,10008.,0.919024395868,2.81113344618,221.
5.56,6375.,18.,11.,3601.,0.,0.,10005.,0.919011648022,2.65492253873,234.
5.58,6370.,18.,12.,3599.,0.,0.,9999.,0.918841884188,2.65443210988,234.
5.6,6362.,19.,10.,3605.,0.,0.,9996.,0.917963339182,2.51232071776,247.
5.62,6356.,17.,11.,3612.,0.,0.,9996.,0.917097608274,2.80523974296,221.
5.64,6353.,18.,7.,3619.,0.,0.,9997.,0.916573048838,2.64787769664,234.
5.66,6354.,15.,7.,3621.,0.,0.,9997.,0.916717322889,3.17795338602,195.
5.68,6349.,13.,13.,3620.,0.,0.,9995.,0.916179243468,3.66471697387,169.
5.7,6349.,21.,7.,3622.,0.,0.,9999.,0.91581273512,2.26772677268,273.
5.72,6345.,16.,11.,3625.,0.,0.,9997.,0.915418856426,2.97511128339,208.
5.74,6337.,23.,9.,3627.,0.,0.,9996.,0.914356127066,2.06723993945,299.
5.76,6330.,29.,8.,3629.,0.,0.,9996.,0.913346107674,1.63772405514,377.
5.78,6331.,27.,9.,3633.,0.,0.,10000.,0.913125,1.75861111111,351.
5.8,6341.,23.,7.,3633.,0.,0.,10004.,0.914201627041,2.06689063505,299.
5.82,6343.,18.,12.,3630.,0.,0.,10003.,0.914581394812,2.64212402946,234.
5.84,6349.,16.,8.,3631.,0.,0.,10004.,0.915355011841,2.97490378848,208.
5.86,6346.,21.,13.,3620.,0.,0.,10000.,0.915288461538,2.26642857143,273.
5.88,6335.,24.,19.,3621.,0.,0.,9999.,0.913793302407,1.97988548855,312.
5.9,6323.,27.,16.,3633.,0.,0.,9999.,0.912062360082,1.75656454534,351.
5.92,6313.,31.,13.,3643.,0.,0.,10000.,0.910528846154,1.52733870968,403.
5.94,6302.,28.,23.,3645.,0.,0.,9998.,0.909124132519,1.68837338896,364.
5.96,6288.,28.,15.,3662.,0.,0.,9993.,0.907558367781,1.68546554016,364.
5.98,6282.,30.,8.,3673.,0.,0.,9993.,0.906692376972,1.57160012008,390.
6.,6275.,25.,20.,3673.,0.,0.,9993.,0.905682054361,1.88381867307,325.
6.02,6267.,32.,13.,3684.,0.,0.,9996.,0.904255933142,1.46941589136,416.
6.04,6249.,39.,13.,3694.,0.,0.,9995.,0.901748951399,1.2023319352,507.
6.06,6246.,33.,10.,3708.,0.,0.,9997.,0.901135725333,1.41997144598,429.
6.08,6242.,31.,15.,3712.,0.,0.,10000.,0.900288461538,1.51016129032,403.
6.1,6239.,23.,17.,3721.,0.,0.,10000.,0.899855769231,2.03445652174,299.
6.12,6230.,24.,19.,3728.,0.,0.,10001.,0.898467845523,1.94668033197,312.
6.14,6218.,36.,4.,3746.,0.,0.,10004.,0.896468335743,1.29489870718,468.
6.16,6216.,24.,19.,3744.,0.,0.,10003.,0.896269580664,1.94191742477,312.
6.18,6205.,30.,18.,3748.,0.,0.,10001.,0.894862436833,1.55109489051,390.
6.2,6200.,29.,19.,3753.,0.,0.,10001.,0.894141355095,1.60328794707,377.
6.22,6189.,28.,10.,3772.,0.,0.,9999.,0.89273350412,1.65793365051,364.
6.24,6190.,24.,14.,3770.,0.,0.,9998.,0.892967054949,1.93476195239,312.
6.26,6188.,24.,8.,3777.,0.,0.,9997.,0.892767830349,1.93433029909,312.
6.28,6188.,23.,10.,3776.,0.,0.,9997.,0.892767830349,2.01843161644,299.
6.3,6187.,16.,12.,3783.,0.,0.,9998.,0.892534276086,2.90073639728,208.
6.32,6179.,21.,8.,3788.,0.,0.,9996.,0.891558546496,2.2076687818,273.
6.34,6173.,19.,9.,3794.,0.,0.,9995.,0.890781929426,2.43792949106,247.
6.36,6170.,19.,11.,3792.,0.,0.,9992.,0.890616339225,2.43747629683,247.
6.38,6176.,16.,8.,3793.,0.,0.,9993.,0.891393206013,2.89702791954,208.
6.4,6180.,14.,6.,3792.,0.,0.,9992.,0.892059801688,3.3133649777,182.
6.42,6187.,11.,12.,3784.,0.,0.,9994.,0.892891504133,4.2209416559,143.
6.44,6187.,16.,9.,3783.,0.,0.,9995.,0.892802170316,2.90160705353,208.
6.46,6194.,10.,8.,3782.,0.,0.,9994.,0.893901725651,4.64828897338,130.
6.48,6192.,15.,3.,3781.,0.,0.,9991.,0.893881416352,3.09878891002,195.
6.5,6196.,13.,12.,3771.,0.,0.,9992.,0.894369341627,3.57747736651,169.
6.52,6188.,17.,10.,3776.,0.,0.,9991.,0.893303973576,2.73245921329,221.
6.54,6195.,21.,5.,3771.,0.,0.,9992.,0.894224995381,2.21427141713,273.
6.56,6199.,16.,7.,3770.,0.,0.,9992.,0.894802380366,2.90810773619,208.
6.58,6200.,20.,6.,3768.,0.,0.,9994.,0.894767629809,2.3263958375,260.
6.6,6206.,15.,12.,3762.,0.,0.,9995.,0.895543925809,3.10455227614,195.
6.62,6208.,11.,12.,3762.,0.,0.,9993.,0.896011823661,4.23569225731,143.
6.64,6207.,19.,5.,3766.,0.,0.,9997.,0.895509037327,2.450866839,247.
6.66,6207.,17.,10.,3763.,0.,0.,9997.,0.895509037327,2.73920411418,221.
6.68,6200.,18.,13.,3767.,0.,0.,9998.,0.894409651161,2.58385010335,234.
6.7,6197.,17.,6.,3776.,0.,0.,9996.,0.894155739219,2.73506461408,221.
6.72,6198.,14.,6.,3777.,0.,0.,9995.,0.894389502444,3.32201815193,182.
6.74,6199.,13.,11.,3769.,0.,0.,9992.,0.894802380366,3.57920952146,169.
6.76,6201.,15.,6.,3770.,0.,0.,9992.,0.895091072858,3.10298238591,195.
6.78,6197.,16.,5.,3766.,0.,0.,9984.,0.895230445636,2.90949894832,208.
6.8,6200.,12.,5.,3767.,0.,0.,9984.,0.895663831361,3.8812099359,156.
6.82,6208.,12.,5.,3760.,0.,0.,9985.,0.89672970995,3.88582874311,156.
6.84,6213.,8.,5.,3758.,0.,0.,9984.,0.897541836169,5.8340219351,104.
6.86,6220.,7.,3.,3753.,0.,0.,9983.,0.898643077848,6.67563429258,91.
6.88,6226.,6.,4.,3746.,0.,0.,9982.,0.89960004932,7.79653376077,78.
6.9,6232.,3.,4.,3742.,0.,0.,9981.,0.90055721255,15.6096583509,39.
6.92,6233.,4.,4.,3739.,0.,0.,9980.,0.900791968552,11.7102955912,52.
6.94,6234.,3.,8.,3733.,0.,0.,9978.,0.901117072945,15.6193625977,39.
6.96,6234.,9.,6.,3730.,0.,0.,9979.,0.901026771605,5.20593245816,117.
6.98,6231.,14.,4.,3729.,0.,0.,9978.,0.900683426615,3.34539558457,182.
7.,6230.,17.,4.,3724.,0.,0.,9975.,0.900809716599,2.75541795666,221.
7.02,6239.,10.,6.,3724.,0.,0.,9979.,0.901749443061,4.68909710392,130.
7.04,6246.,11.,1.,3725.,0.,0.,9983.,0.902399463704,4.26588837387,143.
7.06,6251.,9.,2.,3722.,0.,0.,9984.,0.903031388683,5.21751469017,117.
7.08,6255.,6.,5.,3717.,0.,0.,9983.,0.903699751115,7.83206450967,78.
7.1,6258.,10.,3.,3715.,0.,0.,9986.,0.90386156003,4.70008011216,130.
7.12,6262.,9.,4.,3713.,0.,0.,9988.,0.904258186747,5.22460285676,117.
7.14,6276.,0.,8.,3711.,0.,0.,9995.,0.905645130257,inf,0.
7.16,6284.,6.,2.,3701.,0.,0.,9993.,0.906981040575,7.86050235165,78.
7.18,6291.,4.,3.,3696.,0.,0.,9994.,0.907900509536,11.802706624,52.
7.2,6291.,10.,3.,3692.,0.,0.,9996.,0.907718856773,4.72013805522,130.
7.22,6290.,11.,6.,3687.,0.,0.,9994.,0.907756192177,4.29121109029,143.
7.24,6292.,16.,6.,3684.,0.,0.,9998.,0.907681536307,2.949964993,208.
7.26,6294.,16.,6.,3683.,0.,0.,9999.,0.907879249463,2.95060756076,208.
7.28,6293.,23.,9.,3672.,0.,0.,9997.,0.907916605751,2.0526810217,299.
7.3,6290.,20.,14.,3672.,0.,0.,9996.,0.907574568289,2.35969387755,260.
7.32,6287.,23.,10.,3681.,0.,0.,10001.,0.906688177336,2.04990370528,299.
7.34,6284.,28.,11.,3679.,0.,0.,10002.,0.906164920862,1.68287771017,364.
7.36,6288.,23.,12.,3681.,0.,0.,10004.,0.906560452742,2.04961493663,299.
7.38,6282.,19.,15.,3684.,0.,0.,10000.,0.906057692308,2.47973684211,247.
7.4,6275.,22.,11.,3696.,0.,0.,10004.,0.904686202442,2.13834920577,286.
7.42,6270.,23.,9.,3703.,0.,0.,10005.,0.903874985584,2.04354344567,299.
7.44,6272.,22.,4.,3710.,0.,0.,10008.,0.903892270799,2.13647264007,286.
7.46,6277.,21.,8.,3704.,0.,0.,10010.,0.904432106355,2.23954616812,273.
7.48,6264.,29.,9.,3710.,0.,0.,10012.,0.902378684041,1.61805833,377.
7.5,6255.,24.,15.,3717.,0.,0.,10011.,0.901172172149,1.95253970632,312.
7.52,6249.,22.,12.,3727.,0.,0.,10010.,0.900397679244,2.12821269639,286.
7.54,6260.,15.,8.,3726.,0.,0.,10009.,0.90207274991,3.12718553302,195.
7.56,6259.,14.,11.,3728.,0.,0.,10012.,0.901658394542,3.34901689401,182.
7.58,6256.,17.,6.,3733.,0.,0.,10012.,0.901226220843,2.75669196964,221.
7.6,6254.,15.,5.,3734.,0.,0.,10008.,0.901298192215,3.12450039968,195.
7.62,6261.,15.,5.,3727.,0.,0.,10008.,0.902307000553,3.12799760192,195.
7.64,6262.,17.,9.,3720.,0.,0.,10008.,0.90245111603,2.76043870786,221.
7.66,6266.,17.,6.,3721.,0.,0.,10010.,0.902847152847,2.76165011459,221.
7.68,6264.,14.,9.,3722.,0.,0.,10009.,0.902649154223,3.35269685854,182.
7.7,6267.,19.,9.,3710.,0.,0.,10005.,0.903442509514,2.47257949972,247.
7.72,6271.,19.,6.,3710.,0.,0.,10006.,0.903928796568,2.47391039061,247.
7.74,6276.,12.,12.,3705.,0.,0.,10005.,0.904739937723,3.92053973013,156.
7.76,6280.,14.,6.,3707.,0.,0.,10007.,0.905135635824,3.36193236163,182.
7.78,6281.,16.,4.,3703.,0.,0.,10004.,0.905551241042,2.94304153339,208.
7.8,6288.,12.,5.,3697.,0.,0.,10002.,0.906741728577,3.92921415717,156.
7.82,6290.,14.,6.,3691.,0.,0.,10001.,0.907120826379,3.36930592655,182.
7.84,6291.,11.,7.,3689.,0.,0.,9998.,0.907537276686,4.29017621706,143.
7.86,6285.,15.,11.,3685.,0.,0.,9996.,0.906853125866,3.143757503,195.
7.88,6290.,14.,6.,3687.,0.,0.,9997.,0.907483783597,3.37065405336,182.
7.9,6282.,19.,8.,3688.,0.,0.,9997.,0.906329591185,2.4804809864,247.
7.92,6285.,17.,9.,3686.,0.,0.,9997.,0.906762413339,2.77362620551,221.
7.94,6283.,18.,7.,3690.,0.,0.,9998.,0.906383199717,2.61844035474,234.
7.96,6281.,19.,4.,3691.,0.,0.,9995.,0.906366644861,2.48058239646,247.
7.98,6286.,20.,8.,3683.,0.,0.,9997.,0.906906687391,2.35795738722,260.
8.,6289.,21.,9.,3679.,0.,0.,9998.,0.907248757444,2.24652073272,273.
8.02,6290.,16.,14.,3677.,0.,0.,9997.,0.907483783597,2.94932229669,208.
8.04,6285.,17.,10.,3682.,0.,0.,9994.,0.907034605379,2.77445879292,221.
8.06,6284.,20.,9.,3681.,0.,0.,9994.,0.906890288019,2.35791474885,260.
8.08,6277.,15.,18.,3684.,0.,0.,9994.,0.905880066501,3.14038423054,195.
8.1,6266.,24.,14.,3691.,0.,0.,9995.,0.904202101051,1.95910455228,312.
8.12,6266.,25.,10.,3691.,0.,0.,9992.,0.904473578863,1.88130504404,325.
8.14,6268.,20.,15.,3691.,0.,0.,9994.,0.904581210265,2.35191114669,260.
8.16,6269.,22.,15.,3691.,0.,0.,9997.,0.904454028516,2.13780043104,286.
8.18,6265.,27.,9.,3698.,0.,0.,9999.,0.903696138845,1.74045182296,351.
8.2,6260.,30.,5.,3701.,0.,0.,9996.,0.90324591375,1.5656262505,390.
8.22,6255.,24.,17.,3702.,0.,0.,9998.,0.902343930325,1.9550785157,312.
8.24,6243.,32.,13.,3709.,0.,0.,9997.,0.900702903179,1.46364221767,416.
8.26,6230.,33.,15.,3718.,0.,0.,9996.,0.898917259211,1.41647568118,429.
8.28,6220.,37.,13.,3727.,0.,0.,9997.,0.897384599995,1.26118916756,481.
8.3,6214.,32.,16.,3734.,0.,0.,9996.,0.896608643457,1.45698904562,416.
8.32,6206.,32.,17.,3740.,0.,0.,9995.,0.895543925809,1.45525887944,416.
8.34,6196.,30.,20.,3745.,0.,0.,9991.,0.894458859127,1.55039535582,390.
8.36,6192.,28.,16.,3758.,0.,0.,9994.,0.893613090931,1.65956716887,364.
8.38,6184.,31.,15.,3767.,0.,0.,9997.,0.892190734143,1.49657800566,403.
8.4,6178.,21.,17.,3779.,0.,0.,9995.,0.89150344403,2.2075323376,273.
8.42,6172.,19.,23.,3782.,0.,0.,9996.,0.890548527103,2.43729070576,247.
8.44,6162.,14.,17.,3800.,0.,0.,9993.,0.889372560793,3.30338379723,182.
8.46,6157.,21.,12.,3804.,0.,0.,9994.,0.888561983344,2.20024872066,273.
8.48,6154.,16.,16.,3809.,0.,0.,9995.,0.888040173933,2.88613056528,208.
8.5,6149.,18.,11.,3815.,0.,0.,9993.,0.887496247373,2.56387804797,234.
8.52,6150.,19.,11.,3816.,0.,0.,9996.,0.887374180441,2.42860302016,247.
8.54,6154.,19.,6.,3817.,0.,0.,9996.,0.88795133438,2.43018259936,247.
8.56,6148.,19.,12.,3814.,0.,0.,9993.,0.887351915572,2.42854208472,247.
8.58,6147.,23.,11.,3814.,0.,0.,9995.,0.887030053488,2.00545925136,299.
8.6,6143.,21.,8.,3824.,0.,0.,9996.,0.886364161049,2.19480649403,273.
8.62,6144.,18.,11.,3825.,0.,0.,9998.,0.886331112376,2.56051210242,234.
8.64,6144.,18.,5.,3832.,0.,0.,9999.,0.886242470401,2.5602560256,234.
8.66,6153.,17.,8.,3823.,0.,0.,10001.,0.887363186758,2.71428739479,221.
8.68,6150.,17.,8.,3820.,0.,0.,9995.,0.88746296225,2.71459259041,221.
8.7,6150.,20.,7.,3819.,0.,0.,9996.,0.887374180441,2.30717286915,260.
8.72,6146.,15.,7.,3824.,0.,0.,9992.,0.887152029316,3.07546036829,195.
8.74,6148.,17.,1.,3828.,0.,0.,9994.,0.887263127107,2.71398132997,221.
8.76,6155.,10.,7.,3824.,0.,0.,9996.,0.888095622865,4.6180972389,130.
8.78,6154.,12.,6.,3824.,0.,0.,9996.,0.88795133438,3.84778911565,156.
8.8,6145.,12.,9.,3828.,0.,0.,9994.,0.886830175028,3.84293075846,156.
8.82,6145.,11.,13.,3823.,0.,0.,9992.,0.88700768307,4.19312722906,143.
8.84,6139.,18.,7.,3828.,0.,0.,9992.,0.886141605592,2.55996463838,234.
8.86,6140.,16.,5.,3831.,0.,0.,9992.,0.886285951838,2.88042934347,208.
8.88,6137.,12.,8.,3833.,0.,0.,9990.,0.88603026103,3.83946446446,156.
8.9,6136.,20.,8.,3825.,0.,0.,9989.,0.885974572029,2.30353388728,260.
8.92,6136.,16.,9.,3827.,0.,0.,9988.,0.886063275931,2.87970564678,208.
8.94,6139.,15.,7.,3825.,0.,0.,9986.,0.886674035958,3.07380332465,195.
8.96,6143.,15.,6.,3823.,0.,0.,9987.,0.88716292719,3.07549814759,195.
8.98,6141.,19.,8.,3820.,0.,0.,9988.,0.886785296202,2.42699133697,247.
9.,6144.,19.,9.,3819.,0.,0.,9991.,0.886952103047,2.42744786097,247.
9.02,6145.,21.,9.,3815.,0.,0.,9990.,0.887185262185,2.19683969684,273.
9.04,6149.,14.,9.,3819.,0.,0.,9991.,0.887673906516,3.29707450992,182.
9.06,6151.,13.,8.,3818.,0.,0.,9990.,0.888051513052,3.55220605221,169.
9.08,6153.,17.,8.,3808.,0.,0.,9986.,0.888696097614,2.71836453388,221.
9.1,6152.,17.,9.,3813.,0.,0.,9991.,0.888106988597,2.71656255336,221.
9.12,6158.,16.,10.,3810.,0.,0.,9994.,0.888706300703,2.88829547729,208.
9.14,6156.,14.,11.,3813.,0.,0.,9994.,0.888417665984,3.29983704508,182.
9.16,6157.,19.,10.,3805.,0.,0.,9991.,0.888828792067,2.4325840625,247.
9.18,6153.,20.,5.,3814.,0.,0.,9992.,0.888162453039,2.3092223779,260.
9.2,6156.,20.,5.,3815.,0.,0.,9996.,0.888239911349,2.30942376951,260.
9.22,6160.,14.,7.,3814.,0.,0.,9995.,0.888905991457,3.30165082541,182.
9.24,6166.,15.,11.,3803.,0.,0.,9995.,0.889771808981,3.08454227114,195.
9.26,6163.,13.,10.,3807.,0.,0.,9993.,0.889516892594,3.55806757038,169.
9.28,6165.,16.,7.,3807.,0.,0.,9995.,0.889627506061,2.8912893947,208.
9.3,6168.,17.,7.,3805.,0.,0.,9997.,0.88988234932,2.72199306851,221.
9.32,6178.,14.,9.,3796.,0.,0.,9997.,0.891325089835,3.31063604796,182.
9.34,6178.,18.,8.,3793.,0.,0.,9997.,0.891325089835,2.57493914841,234.
9.36,6173.,19.,10.,3792.,0.,0.,9994.,0.890871061098,2.43817343037,247.
9.38,6171.,20.,7.,3797.,0.,0.,9995.,0.890493323585,2.31528264132,260.
9.4,6172.,26.,6.,3790.,0.,0.,9994.,0.890726743739,1.78145348748,338.
9.42,6176.,22.,10.,3789.,0.,0.,9997.,0.891036541732,2.10608637137,286.
9.44,6174.,25.,2.,3794.,0.,0.,9995.,0.890926232347,1.85312656328,325.
9.46,6176.,11.,13.,3796.,0.,0.,9996.,0.891125681042,4.21259412856,143.
9.48,6178.,12.,5.,3804.,0.,0.,9999.,0.891146806988,3.86163616362,156.
9.5,6186.,8.,5.,3803.,0.,0.,10002.,0.892033131835,5.79821535693,104.
9.52,6191.,5.,7.,3798.,0.,0.,10001.,0.892843407967,9.28557144286,65.
9.54,6192.,7.,6.,3797.,0.,0.,10002.,0.892898343408,6.63295912246,91.
9.56,6192.,14.,1.,3794.,0.,0.,10001.,0.892987624314,3.31681117603,182.
9.58,6197.,11.,4.,3787.,0.,0.,9999.,0.89388746567,4.22564983771,143.
9.6,6199.,8.,7.,3781.,0.,0.,9995.,0.894533805364,5.81446973487,104.
9.62,6205.,10.,2.,3780.,0.,0.,9997.,0.895220489224,4.65514654396,130.
9.64,6209.,9.,5.,3772.,0.,0.,9995.,0.895976834571,5.17675504419,117.
9.66,6210.,15.,3.,3767.,0.,0.,9995.,0.896121137492,3.10655327664,195.
9.68,6211.,13.,6.,3765.,0.,0.,9995.,0.896265440413,3.58506176165,169.
9.7,6208.,14.,4.,3767.,0.,0.,9993.,0.896011823661,3.32804391646,182.
9.72,6211.,13.,5.,3762.,0.,0.,9991.,0.896624269535,3.58649707814,169.
9.74,6218.,13.,6.,3756.,0.,0.,9993.,0.897455141676,3.5898205667,169.
9.76,6220.,13.,10.,3752.,0.,0.,9995.,0.897564166699,3.59025666679,169.
9.78,6221.,13.,8.,3755.,0.,0.,9997.,0.897528874047,3.59011549619,169.
9.8,6218.,12.,10.,3755.,0.,0.,9995.,0.897275560857,3.88819409705,156.
9.82,6218.,14.,3.,3760.,0.,0.,9995.,0.897275560857,3.33273779747,182.
9.84,6212.,16.,6.,3758.,0.,0.,9992.,0.896678881567,2.91420636509,208.
9.86,6220.,15.,7.,3750.,0.,0.,9992.,0.897833651537,3.11248999199,195.
9.88,6219.,12.,13.,3749.,0.,0.,9993.,0.897599473478,3.8895977184,156.
9.9,6208.,19.,5.,3758.,0.,0.,9990.,0.896280896281,2.45297929508,247.
9.92,6209.,19.,6.,3756.,0.,0.,9990.,0.896425271425,2.45337442706,247.
9.94,6205.,21.,8.,3755.,0.,0.,9989.,0.895937454277,2.21851179154,273.
9.96,6205.,17.,11.,3756.,0.,0.,9989.,0.895937454277,2.74051456602,221.
9.98,6215.,15.,9.,3757.,0.,0.,9996.,0.896752931942,3.1087434974,195.
10.,6211.,17.,7.,3758.,0.,0.,9993.,0.896444819066,2.74206650538,221.
