t,s,e,i,r,c,o,n,reff,coal,reportr
5.,6250.,5.,3.,3734.,0.,0.,9992.,0.902164038923,9.3825060048,65.
5.02,6248.,10.,1.,3728.,0.,0.,9987.,0.902326871086,4.69209972965,130.
5.04,6255.,6.,5.,3719.,0.,0.,9985.,0.903518739648,7.83049574362,78.
5.06,6266.,5.,6.,3708.,0.,0.,9985.,0.905107661492,9.41311967952,65.
5.08,6267.,10.,3.,3704.,0.,0.,9984.,0.905342779216,4.70778245192,130.
5.1,6278.,10.,0.,3694.,0.,0.,9982.,0.907113573663,4.71699058305,130.
5.12,6275.,8.,7.,3687.,0.,0.,9977.,0.907134486241,5.89637416057,104.
5.14,6276.,11.,2.,3690.,0.,0.,9979.,0.907097211837,4.2880959105,143.
5.16,6283.,9.,2.,3688.,0.,0.,9982.,0.907836027927,5.24527482802,117.
5.18,6292.,9.,1.,3678.,0.,0.,9980.,0.909318637275,5.25384101536,117.
5.2,6294.,5.,5.,3676.,0.,0.,9980.,0.909607676892,9.45991983968,65.
5.22,6295.,8.,3.,3671.,0.,0.,9977.,0.910025751536,5.91516738499,104.
5.24,6309.,6.,1.,3662.,0.,0.,9978.,0.911958231186,7.90363800361,78.
5.26,6320.,3.,4.,3652.,0.,0.,9979.,0.913456720652,15.8332498246,39.
5.28,6323.,3.,3.,3648.,0.,0.,9977.,0.914073522949,15.8439410644,39.
5.3,6327.,1.,3.,3643.,0.,0.,9974.,0.914926886829,47.5761981151,13.
5.32,6325.,5.,1.,3644.,0.,0.,9975.,0.914545980335,9.51127819549,65.
5.34,6337.,5.,2.,3634.,0.,0.,9978.,0.916005596929,9.52645820806,65.
5.36,6336.,5.,1.,3633.,0.,0.,9975.,0.916136495084,9.52781954887,65.
5.38,6337.,4.,1.,3631.,0.,0.,9973.,0.916464839683,11.9140429159,52.
5.4,6348.,3.,1.,3625.,0.,0.,9977.,0.917687604567,15.9065851458,39.
5.42,6351.,2.,5.,3616.,0.,0.,9974.,0.918397448751,23.8783336675,26.
5.44,6356.,4.,4.,3607.,0.,0.,9971.,0.91939702059,11.9521612677,52.
5.46,6362.,6.,0.,3603.,0.,0.,9971.,0.92026492212,7.97562932504,78.
5.48,6372.,6.,4.,3593.,0.,0.,9975.,0.921341816079,7.98496240602,78.
5.5,6373.,6.,0.,3594.,0.,0.,9973.,0.92167120456,7.98781710619,78.
5.52,6380.,4.,2.,3591.,0.,0.,9977.,0.922313629039,11.9900771775,52.
5.54,6382.,6.,2.,3585.,0.,0.,9975.,0.922787738577,7.99749373434,78.
5.56,6388.,6.,4.,3580.,0.,0.,9978.,0.923377584532,8.00260573261,78.
5.58,6391.,10.,2.,3573.,0.,0.,9976.,0.923996437604,4.80478147554,130.
5.6,6397.,5.,8.,3564.,0.,0.,9974.,0.925049359103,9.62051333467,65.
5.62,6391.,13.,4.,3564.,0.,0.,9972.,0.924367073961,3.69746829584,169.
5.64,6391.,10.,9.,3560.,0.,0.,9970.,0.924552503665,4.80767301906,130.
5.66,6386.,8.,11.,3558.,0.,0.,9963.,0.924478261877,6.0091087022,104.
5.68,6383.,13.,11.,3555.,0.,0.,9962.,0.924136719534,3.69654687814,169.
5.7,6381.,19.,4.,3562.,0.,0.,9966.,0.923476358079,2.52740898001,247.
5.72,6388.,15.,9.,3557.,0.,0.,9969.,0.924211208593,3.20393218979,195.
5.74,6387.,14.,9.,3560.,0.,0.,9970.,0.923973844611,3.43190285141,182.
5.76,6387.,22.,8.,3554.,0.,0.,9971.,0.923881178495,2.18371914917,286.
5.78,6389.,21.,7.,3552.,0.,0.,9969.,0.924355887868,2.28888124615,273.
5.8,6388.,20.,5.,3552.,0.,0.,9965.,0.924582191516,2.40391369794,260.
5.82,6388.,22.,7.,3548.,0.,0.,9965.,0.924582191516,2.18537608904,286.
5.84,6394.,15.,15.,3541.,0.,0.,9965.,0.925450615616,3.2082288008,195.
5.86,6380.,27.,9.,3547.,0.,0.,9963.,0.923609663447,1.77880379627,351.
5.88,6377.,24.,15.,3543.,0.,0.,9959.,0.923546154619,2.00101666834,312.
5.9,6367.,23.,12.,3553.,0.,0.,9955.,0.922468415562,2.08558076562,299.
5.92,6356.,24.,13.,3559.,0.,0.,9952.,0.921152300272,1.99582998392,312.
5.94,6349.,28.,9.,3569.,0.,0.,9955.,0.919860526214,1.70831240583,364.
5.96,6347.,23.,21.,3564.,0.,0.,9955.,0.919570760731,2.079029546,299.
5.98,6340.,23.,16.,3577.,0.,0.,9956.,0.918464319931,2.07652802767,299.
6.,6325.,26.,13.,3592.,0.,0.,9956.,0.916291297092,1.83258259418,338.
6.02,6324.,19.,20.,3590.,0.,0.,9953.,0.916422570698,2.5081038777,247.
6.04,6320.,21.,10.,3605.,0.,0.,9956.,0.915566956146,2.26711817712,273.
6.06,6322.,23.,2.,3610.,0.,0.,9957.,0.915764711336,2.07042456476,299.
6.08,6324.,16.,7.,3612.,0.,0.,9959.,0.915870453475,2.97657897379,208.
6.1,6323.,18.,6.,3612.,0.,0.,9959.,0.915725628925,2.64542959467,234.
6.12,6320.,14.,13.,3612.,0.,0.,9959.,0.915291155275,3.39965286245,182.
6.14,6321.,18.,5.,3614.,0.,0.,9958.,0.915527909528,2.6448584053,234.
6.16,6326.,14.,8.,3610.,0.,0.,9958.,0.916252104995,3.40322210427,182.
6.18,6326.,12.,11.,3608.,0.,0.,9957.,0.916344125895,3.97082454555,156.
6.2,6322.,16.,6.,3612.,0.,0.,9956.,0.915856692524,2.9765342507,208.
6.22,6329.,14.,3.,3609.,0.,0.,9955.,0.916962871383,3.40586209371,182.
6.24,6335.,12.,7.,3601.,0.,0.,9955.,0.917832167832,3.97727272727,156.
6.26,6332.,14.,14.,3594.,0.,0.,9954.,0.917489683312,3.40781882373,182.
6.28,6329.,14.,16.,3593.,0.,0.,9952.,0.917239287039,3.40688878043,182.
6.3,6325.,21.,11.,3593.,0.,0.,9950.,0.916843834557,2.27027997128,273.
6.32,6315.,26.,11.,3599.,0.,0.,9951.,0.915302288908,1.83060457782,338.
6.34,6301.,29.,14.,3607.,0.,0.,9951.,0.913273115187,1.63759317206,377.
6.36,6291.,30.,14.,3619.,0.,0.,9954.,0.911548894144,1.58001808318,390.
6.38,6286.,34.,15.,3621.,0.,0.,9956.,0.910641437711,1.39274572826,442.
6.4,6283.,37.,16.,3623.,0.,0.,9959.,0.909932646929,1.27882426055,481.
6.42,6274.,34.,16.,3633.,0.,0.,9957.,0.908811736621,1.38994736189,442.
6.44,6276.,24.,10.,3646.,0.,0.,9956.,0.909192755818,1.96991763761,312.
6.46,6267.,23.,14.,3654.,0.,0.,9958.,0.907706598483,2.05220622266,299.
6.48,6260.,28.,14.,3658.,0.,0.,9960.,0.906510658017,1.68351979346,364.
6.5,6245.,25.,19.,3670.,0.,0.,9959.,0.904429314034,1.88121297319,325.
6.52,6230.,31.,22.,3674.,0.,0.,9957.,0.902438176466,1.51376726375,403.
6.54,6224.,35.,16.,3682.,0.,0.,9957.,0.901569054627,1.33947402402,455.
6.56,6218.,32.,17.,3691.,0.,0.,9958.,0.900609482905,1.46349040972,416.
6.58,6211.,25.,19.,3700.,0.,0.,9955.,0.899866707878,1.87172275239,325.
6.6,6213.,31.,9.,3705.,0.,0.,9958.,0.899885287438,1.50948499828,403.
6.62,6203.,21.,17.,3715.,0.,0.,9956.,0.898617378002,2.22514779315,273.
6.64,6191.,30.,8.,3727.,0.,0.,9956.,0.896878959731,1.55459019687,390.
6.66,6184.,28.,9.,3735.,0.,0.,9956.,0.895864882406,1.66374906732,364.
6.68,6189.,24.,8.,3736.,0.,0.,9957.,0.896499177231,1.942414884,312.
6.7,6178.,33.,10.,3742.,0.,0.,9963.,0.894366849651,1.40930533884,429.
6.72,6177.,24.,19.,3744.,0.,0.,9964.,0.894132337955,1.93728673224,312.
6.74,6172.,30.,13.,3746.,0.,0.,9961.,0.893677650529,1.54904126092,390.
6.76,6165.,28.,22.,3750.,0.,0.,9965.,0.892305762476,1.65713927317,364.
6.78,6146.,33.,18.,3764.,0.,0.,9961.,0.889912968269,1.40228710151,429.
6.8,6126.,40.,20.,3775.,0.,0.,9961.,0.887017058837,1.15312217649,520.
6.82,6114.,41.,13.,3792.,0.,0.,9960.,0.885368396664,1.12290625918,533.
6.84,6104.,27.,24.,3803.,0.,0.,9958.,0.884097826255,1.70270692464,351.
6.86,6100.,26.,20.,3812.,0.,0.,9958.,0.883518469881,1.76703693976,338.
6.88,6100.,26.,11.,3821.,0.,0.,9958.,0.883518469881,1.76703693976,338.
6.9,6096.,28.,6.,3830.,0.,0.,9960.,0.882761816497,1.63941480207,364.
6.92,6101.,23.,13.,3829.,0.,0.,9966.,0.882953966563,1.99624375049,299.
6.94,6106.,23.,16.,3827.,0.,0.,9972.,0.883145885402,1.99667765395,299.
6.96,6092.,29.,18.,3833.,0.,0.,9972.,0.881120984912,1.57994107639,377.
6.98,6085.,32.,6.,3846.,0.,0.,9969.,0.880373388273,1.43060675594,416.
7.,6085.,23.,12.,3849.,0.,0.,9969.,0.880373388273,1.99040939957,299.
7.02,6075.,23.,10.,3859.,0.,0.,9967.,0.879102962854,1.98753713341,299.
7.04,6074.,21.,8.,3863.,0.,0.,9966.,0.879046450239,2.17668644821,273.
7.06,6066.,19.,15.,3864.,0.,0.,9964.,0.878064879721,2.40312493397,247.
7.08,6057.,22.,11.,3873.,0.,0.,9963.,0.876850114655,2.07255481646,286.
7.1,6060.,19.,10.,3872.,0.,0.,9961.,0.877460557714,2.40147100006,247.
7.12,6062.,11.,10.,3880.,0.,0.,9963.,0.87757394668,4.1485313843,143.
7.14,6057.,10.,8.,3886.,0.,0.,9961.,0.877026171299,4.56053609075,130.
7.16,6058.,14.,3.,3880.,0.,0.,9955.,0.877699648418,3.26002726555,182.
7.18,6061.,14.,2.,3878.,0.,0.,9955.,0.878134296643,3.26164167324,182.
7.2,6075.,12.,5.,3868.,0.,0.,9960.,0.879720806302,3.81212349398,156.
7.22,6085.,12.,4.,3863.,0.,0.,9964.,0.880815165365,3.81686571658,156.
7.24,6086.,13.,5.,3855.,0.,0.,9959.,0.881402210602,3.52560884241,169.
7.26,6095.,11.,2.,3852.,0.,0.,9960.,0.882617006487,4.1723713034,143.
7.28,6100.,7.,4.,3847.,0.,0.,9958.,0.883518469881,6.56328006197,91.
7.3,6105.,6.,5.,3844.,0.,0.,9960.,0.88406510658,7.66189759036,78.
7.32,6108.,6.,3.,3843.,0.,0.,9960.,0.884499536608,7.6656626506,78.
7.34,6120.,6.,4.,3835.,0.,0.,9965.,0.885792581728,7.67686904165,78.
7.36,6132.,9.,2.,3820.,0.,0.,9963.,0.887707595025,5.1289772157,117.
7.38,6138.,6.,6.,3812.,0.,0.,9962.,0.888665390021,7.70176671351,78.
7.4,6134.,11.,8.,3809.,0.,0.,9962.,0.888086266273,4.19822598602,143.
7.42,6137.,9.,11.,3808.,0.,0.,9965.,0.888253116678,5.13212911858,117.
7.44,6134.,16.,5.,3812.,0.,0.,9967.,0.887640752946,2.88483244708,208.
7.46,6135.,13.,11.,3809.,0.,0.,9968.,0.887696397703,3.55078559081,169.
7.48,6139.,13.,3.,3818.,0.,0.,9973.,0.887829832856,3.55131933143,169.
7.5,6147.,15.,1.,3811.,0.,0.,9974.,0.88889767241,3.08151193102,195.
7.52,6156.,13.,3.,3803.,0.,0.,9975.,0.89010989011,3.56043956044,169.
7.54,6159.,15.,1.,3800.,0.,0.,9975.,0.890543666859,3.08721804511,195.
7.56,6171.,14.,5.,3789.,0.,0.,9979.,0.891921111257,3.31284984181,182.
7.58,6178.,18.,2.,3783.,0.,0.,9981.,0.892753924765,2.57906689376,234.
7.6,6185.,11.,4.,3781.,0.,0.,9981.,0.89376546207,4.22507309342,143.
7.62,6184.,13.,6.,3774.,0.,0.,9977.,0.89397922915,3.5759169166,169.
7.64,6195.,9.,0.,3777.,0.,0.,9981.,0.895210515364,5.1723274221,117.
7.66,6201.,8.,1.,3776.,0.,0.,9986.,0.895628880433,5.82158772281,104.
7.68,6195.,12.,6.,3772.,0.,0.,9985.,0.894851893224,3.87769153731,156.
7.7,6194.,16.,5.,3768.,0.,0.,9983.,0.894886691992,2.90838174897,208.
7.72,6193.,15.,5.,3774.,0.,0.,9987.,0.894383852855,3.1005306899,195.
7.74,6200.,8.,6.,3771.,0.,0.,9985.,0.895574130426,5.82123184777,104.
7.76,6194.,11.,7.,3772.,0.,0.,9984.,0.894797059911,4.22994973776,143.
7.78,6194.,10.,10.,3769.,0.,0.,9983.,0.894886691992,4.65341079836,130.
7.8,6186.,22.,8.,3767.,0.,0.,9983.,0.893730880959,2.11245480954,286.
7.82,6188.,15.,13.,3766.,0.,0.,9982.,0.894109396914,3.09957924264,195.
7.84,6186.,22.,10.,3766.,0.,0.,9984.,0.893641364645,2.11224322552,286.
7.86,6193.,24.,5.,3763.,0.,0.,9985.,0.894562998344,1.93821982974,312.
7.88,6197.,22.,7.,3757.,0.,0.,9983.,0.895320121129,2.1162111954,286.
7.9,6186.,23.,10.,3764.,0.,0.,9983.,0.893730880959,2.02060894826,299.
7.92,6176.,26.,15.,3764.,0.,0.,9981.,0.892464914106,1.78492982821,338.
7.94,6166.,24.,24.,3771.,0.,0.,9985.,0.890662917453,1.92976965448,312.
7.96,6151.,34.,21.,3776.,0.,0.,9982.,0.888763235362,1.3592849482,442.
7.98,6146.,34.,20.,3781.,0.,0.,9981.,0.888129754225,1.3583160947,442.
8.,6143.,37.,14.,3786.,0.,0.,9980.,0.887785185756,1.2476980989,481.
8.02,6136.,40.,12.,3794.,0.,0.,9982.,0.886595872571,1.15257463434,520.
8.04,6144.,26.,22.,3796.,0.,0.,9988.,0.887218508364,1.77443701673,338.
8.06,6134.,33.,12.,3811.,0.,0.,9990.,0.885597135597,1.39548639549,429.
8.08,6125.,35.,4.,3829.,0.,0.,9993.,0.884032284137,1.31341939358,455.
8.1,6129.,21.,17.,3827.,0.,0.,9994.,0.884521097274,2.19024271706,273.
8.12,6133.,21.,18.,3824.,0.,0.,9996.,0.884921276203,2.19123363631,273.
8.14,6129.,26.,10.,3829.,0.,0.,9994.,0.884521097274,1.76904219455,338.
8.16,6110.,35.,13.,3834.,0.,0.,9992.,0.881955564452,1.31033398147,455.
8.18,6111.,27.,7.,3848.,0.,0.,9993.,0.882011638916,1.69868908236,351.
8.2,6110.,18.,7.,3854.,0.,0.,9989.,0.882220442487,2.54863683385,234.
8.22,6108.,17.,5.,3861.,0.,0.,9991.,0.881755118068,2.69713330233,221.
8.24,6105.,12.,9.,3861.,0.,0.,9987.,0.881675023685,3.8205917693,156.
8.26,6108.,14.,7.,3859.,0.,0.,9988.,0.882019962416,3.27607414612,182.
8.28,6107.,16.,3.,3859.,0.,0.,9985.,0.88214051847,2.86695668503,208.
8.3,6116.,9.,5.,3859.,0.,0.,9989.,0.883086780073,5.10227917376,117.
8.32,6122.,12.,2.,3854.,0.,0.,9990.,0.883864633865,3.83008008008,156.
8.34,6127.,10.,5.,3848.,0.,0.,9990.,0.884586509587,4.59984984985,130.
8.36,6138.,11.,7.,3834.,0.,0.,9990.,0.886174636175,4.18918918919,143.
8.38,6140.,11.,6.,3829.,0.,0.,9986.,0.886818468933,4.19223276223,143.
8.4,6135.,17.,4.,3830.,0.,0.,9986.,0.886096304056,2.71041222417,221.
8.42,6145.,9.,5.,3829.,0.,0.,9988.,0.887362912418,5.12698571619,117.
8.44,6147.,9.,7.,3821.,0.,0.,9984.,0.888007350222,5.13070913462,117.
8.46,6153.,9.,3.,3816.,0.,0.,9981.,0.889141291531,5.13726079551,117.
8.48,6162.,4.,5.,3811.,0.,0.,9982.,0.890352634743,11.5745842517,52.
8.5,6161.,9.,4.,3807.,0.,0.,9981.,0.890297334166,5.14394015296,117.
8.52,6160.,7.,6.,3801.,0.,0.,9974.,0.890777560118,6.6172047323,91.
8.54,6163.,7.,5.,3799.,0.,0.,9974.,0.891211380358,6.62042739695,91.
8.56,6175.,6.,2.,3792.,0.,0.,9975.,0.892857142857,7.7380952381,78.
8.58,6181.,5.,6.,3786.,0.,0.,9978.,0.893455987789,9.291942273,65.
8.6,6183.,10.,0.,3785.,0.,0.,9978.,0.893745085342,4.64747444378,130.
8.62,6185.,7.,3.,3781.,0.,0.,9976.,0.8942134199,6.64272826211,91.
8.64,6191.,7.,2.,3779.,0.,0.,9979.,0.894811797082,6.64717334975,91.
8.66,6192.,8.,3.,3777.,0.,0.,9980.,0.89486665639,5.81663326653,104.
8.68,6205.,6.,1.,3773.,0.,0.,9985.,0.896296367628,7.76790185278,78.
8.7,6212.,3.,3.,3764.,0.,0.,9982.,0.897577177381,15.5580044079,39.
8.72,6215.,8.,1.,3760.,0.,0.,9984.,0.897830759985,5.8358999399,104.
8.74,6223.,6.,2.,3753.,0.,0.,9984.,0.898986455251,7.79121594551,78.
8.76,6234.,5.,2.,3741.,0.,0.,9982.,0.900755976142,9.36786215187,65.
8.78,6238.,9.,1.,3732.,0.,0.,9980.,0.901514567597,5.208750835,117.
8.8,6243.,6.,3.,3728.,0.,0.,9980.,0.902237166641,7.81938877756,78.
8.82,6251.,7.,2.,3722.,0.,0.,9982.,0.903212320639,6.70957723903,91.
8.84,6261.,5.,3.,3713.,0.,0.,9982.,0.904657229166,9.40843518333,65.
8.86,6264.,6.,1.,3712.,0.,0.,9983.,0.905000038527,7.84333366723,78.
8.88,6266.,8.,3.,3704.,0.,0.,9981.,0.905470393748,5.88555755936,104.
8.9,6269.,4.,7.,3700.,0.,0.,9980.,0.905994681671,11.7779308617,52.
8.92,6272.,6.,2.,3700.,0.,0.,9980.,0.906428241098,7.85571142285,78.
8.94,6277.,9.,3.,3691.,0.,0.,9980.,0.907150840142,5.24131596526,117.
8.96,6285.,6.,5.,3684.,0.,0.,9980.,0.908306998613,7.87199398798,78.
8.98,6288.,5.,4.,3683.,0.,0.,9980.,0.908740558039,9.45090180361,65.
9.,6294.,4.,3.,3679.,0.,0.,9980.,0.909607676892,11.8248997996,52.
9.02,6301.,5.,3.,3670.,0.,0.,9979.,0.910710569118,9.47138991883,65.
9.04,6303.,5.,2.,3668.,0.,0.,9978.,0.911090938526,9.47534576067,65.
9.06,6310.,6.,1.,3661.,0.,0.,9978.,0.912102779962,7.90489075967,78.
9.08,6311.,8.,2.,3656.,0.,0.,9977.,0.912338763772,5.93020196452,104.
9.1,6316.,5.,4.,3650.,0.,0.,9975.,0.913244650087,9.4977443609,65.
9.12,6317.,5.,4.,3646.,0.,0.,9972.,0.913664028511,9.50210589651,65.
9.14,6324.,6.,1.,3642.,0.,0.,9973.,0.914584763477,7.92640128347,78.
9.16,6331.,6.,1.,3633.,0.,0.,9971.,0.915780764216,7.93676662321,78.
9.18,6338.,6.,2.,3623.,0.,0.,9969.,0.916977244844,7.94713612198,78.
9.2,6343.,3.,4.,3616.,0.,0.,9966.,0.917976890659,15.9115994381,39.
9.22,6345.,3.,5.,3613.,0.,0.,9966.,0.918266336313,15.9166164961,39.
9.24,6343.,7.,4.,3613.,0.,0.,9967.,0.917884789035,6.81857271854,91.
9.26,6351.,8.,5.,3606.,0.,0.,9970.,0.918765913124,5.97197843531,104.
9.28,6362.,8.,5.,3596.,0.,0.,9971.,0.92026492212,5.98172199378,104.
9.3,6362.,9.,2.,3597.,0.,0.,9970.,0.920357225523,5.31761952524,117.
9.32,6366.,7.,0.,3596.,0.,0.,9969.,0.921028264543,6.84192425089,91.
9.34,6373.,3.,3.,3590.,0.,0.,9969.,0.922041019468,15.9820443374,39.
9.36,6376.,4.,2.,3585.,0.,0.,9967.,0.922660163154,11.994582121,52.
9.38,6378.,4.,1.,3582.,0.,0.,9965.,0.923134818017,12.0007526342,52.
9.4,6376.,6.,2.,3578.,0.,0.,9962.,0.923123252977,8.0004015258,78.
9.42,6375.,9.,2.,3575.,0.,0.,9961.,0.923071131258,5.33329986949,117.
9.44,6384.,7.,2.,3566.,0.,0.,9959.,0.924559926468,6.86815945376,91.
9.46,6392.,7.,2.,3556.,0.,0.,9957.,0.925904466127,6.87814746266,91.
9.48,6394.,6.,1.,3553.,0.,0.,9954.,0.926473315714,8.02943540285,78.
9.5,6402.,2.,6.,3543.,0.,0.,9953.,0.927725695384,24.12086808,26.
9.52,6403.,10.,2.,3539.,0.,0.,9954.,0.927777391385,4.8244424352,130.
9.54,6408.,8.,3.,3533.,0.,0.,9952.,0.928688473906,6.03647508039,104.
9.56,6414.,6.,1.,3530.,0.,0.,9951.,0.929651445931,8.05697919807,78.
9.58,6413.,8.,1.,3528.,0.,0.,9950.,0.92959992269,6.04239949749,104.
9.6,6414.,8.,1.,3529.,0.,0.,9952.,0.929558032402,6.04212721061,104.
9.62,6419.,7.,2.,3523.,0.,0.,9951.,0.930376150831,6.91136569189,91.
9.64,6418.,10.,3.,3512.,0.,0.,9943.,0.930979660991,4.84109423715,130.
9.66,6425.,7.,9.,3502.,0.,0.,9943.,0.931995064173,6.92339190529,91.
9.68,6419.,10.,7.,3507.,0.,0.,9943.,0.931124718588,4.84184853666,130.
9.7,6419.,9.,7.,3506.,0.,0.,9941.,0.93131204878,5.38091405962,117.
9.72,6432.,7.,3.,3500.,0.,0.,9942.,0.933104312706,6.93163203724,91.
9.74,6444.,7.,2.,3495.,0.,0.,9948.,0.934281339891,6.94037566776,91.
9.76,6443.,9.,2.,3492.,0.,0.,9946.,0.934324196817,5.39831758161,117.
9.78,6451.,4.,3.,3491.,0.,0.,9949.,0.935202223648,12.1576289074,52.
9.8,6445.,10.,4.,3491.,0.,0.,9950.,0.934238500193,4.85804020101,130.
9.82,6442.,11.,7.,3490.,0.,0.,9950.,0.933803633552,4.41434444952,143.
9.84,6451.,11.,6.,3485.,0.,0.,9953.,0.934826376276,4.41917923331,143.
9.86,6450.,12.,6.,3483.,0.,0.,9951.,0.934869321212,4.05110039192,156.
9.88,6457.,13.,5.,3479.,0.,0.,9954.,0.935601845412,3.74240738165,169.
9.9,6464.,14.,7.,3468.,0.,0.,9953.,0.936710230391,3.47920942716,182.
9.92,6470.,16.,9.,3459.,0.,0.,9954.,0.93748551027,3.04682790838,208.
9.94,6467.,14.,10.,3463.,0.,0.,9954.,0.93705081838,3.48047446827,182.
9.96,6464.,15.,9.,3470.,0.,0.,9958.,0.936239899887,3.24563165294,195.
9.98,6462.,17.,5.,3475.,0.,0.,9959.,0.935856241359,2.86261909122,221.
10.,6465.,17.,6.,3470.,0.,0.,9958.,0.936384738981,2.86423567218,221.
