t,s,e,i,r,c,o,n,reff,coal,reportr
5.,6250.,5.,3.,3734.,0.,0.,9992.,0.902164038923,9.3825060048,65.
5.02,6257.,5.,4.,3725.,0.,0.,9991.,0.903264861452,9.3939545591,65.
5.04,6259.,4.,3.,3724.,0.,0.,9990.,0.903644028644,11.7473723724,52.
5.06,6261.,5.,3.,3719.,0.,0.,9988.,0.904113782693,9.40278334001,65.
5.08,6261.,7.,6.,3713.,0.,0.,9987.,0.904204311759,6.71694631592,91.
5.1,6265.,8.,7.,3708.,0.,0.,9988.,0.904691398909,5.88049409291,104.
5.12,6260.,13.,0.,3714.,0.,0.,9987.,0.904059893246,3.61623957298,169.
5.14,6263.,11.,2.,3707.,0.,0.,9983.,0.904855562148,4.27749902106,143.
5.16,6269.,9.,3.,3701.,0.,0.,9982.,0.905813155988,5.23358712349,117.
5.18,6277.,7.,2.,3694.,0.,0.,9980.,0.907150840142,6.73883481248,91.
5.2,6287.,3.,3.,3688.,0.,0.,9981.,0.908505005665,15.7474200982,39.
5.22,6284.,9.,1.,3686.,0.,0.,9980.,0.908162478804,5.24716098864,117.
5.24,6290.,5.,6.,3682.,0.,0.,9983.,0.908756424383,9.45106681358,65.
5.26,6289.,13.,1.,3678.,0.,0.,9981.,0.908794016323,3.63517606529,169.
5.28,6296.,8.,4.,3672.,0.,0.,9980.,0.90989671651,5.91432865731,104.
5.3,6304.,8.,6.,3663.,0.,0.,9981.,0.910961596264,5.92125037571,104.
5.32,6307.,8.,3.,3662.,0.,0.,9980.,0.911486434407,5.92466182365,104.
5.34,6312.,5.,5.,3657.,0.,0.,9979.,0.912300446322,9.48792464175,65.
5.36,6323.,6.,2.,3651.,0.,0.,9982.,0.913615662038,7.91800240433,78.
5.38,6330.,4.,3.,3645.,0.,0.,9982.,0.914627098007,11.8901522741,52.
5.4,6333.,5.,2.,3645.,0.,0.,9985.,0.914785639998,9.51377065598,65.
5.42,6332.,5.,2.,3642.,0.,0.,9981.,0.915007745486,9.51608055305,65.
5.44,6333.,6.,2.,3638.,0.,0.,9979.,0.915335666438,7.93290910913,78.
5.46,6335.,4.,5.,3635.,0.,0.,9979.,0.91562473502,11.9031215553,52.
5.48,6335.,7.,4.,3635.,0.,0.,9981.,0.915441261474,6.80042079952,91.
5.5,6348.,3.,4.,3628.,0.,0.,9983.,0.917136054369,15.8970249424,39.
5.52,6357.,4.,1.,3622.,0.,0.,9984.,0.918344350962,11.9384765625,52.
5.54,6369.,3.,4.,3612.,0.,0.,9988.,0.919709420535,15.9416299559,39.
5.56,6376.,4.,3.,3603.,0.,0.,9986.,0.920904651127,11.9717604647,52.
5.58,6378.,8.,2.,3599.,0.,0.,9987.,0.921101277815,5.9871583058,104.
5.6,6381.,10.,5.,3589.,0.,0.,9985.,0.921719117137,4.79293940911,130.
5.62,6384.,10.,8.,3582.,0.,0.,9984.,0.922244822485,4.79567307692,130.
5.64,6393.,8.,3.,3580.,0.,0.,9984.,0.92354497966,6.00304236779,104.
5.66,6394.,6.,4.,3579.,0.,0.,9983.,0.923781967807,8.00611038766,78.
5.68,6398.,10.,6.,3573.,0.,0.,9987.,0.923989648081,4.80474617002,130.
5.7,6403.,11.,4.,3570.,0.,0.,9988.,0.924619158375,4.3709269305,143.
5.72,6398.,14.,8.,3569.,0.,0.,9989.,0.92380464665,3.43127440184,182.
5.74,6402.,12.,10.,3565.,0.,0.,9989.,0.924382205041,4.00565622184,156.
5.76,6404.,14.,0.,3572.,0.,0.,9990.,0.924578424578,3.43414843415,182.
5.78,6410.,8.,3.,3570.,0.,0.,9991.,0.925352047612,6.01478830948,104.
5.8,6415.,9.,2.,3568.,0.,0.,9994.,0.925795862133,5.34904275899,117.
5.82,6426.,9.,3.,3561.,0.,0.,9999.,0.926919615038,5.35553555356,117.
5.84,6431.,10.,4.,3554.,0.,0.,9999.,0.927640841007,4.82373237324,130.
5.86,6429.,11.,9.,3551.,0.,0.,10000.,0.927259615385,4.38340909091,143.
5.88,6434.,9.,12.,3547.,0.,0.,10002.,0.927795210189,5.36059454776,117.
5.9,6428.,13.,11.,3549.,0.,0.,10001.,0.927022682347,3.70809072939,169.
5.92,6423.,20.,5.,3553.,0.,0.,10001.,0.926301600609,2.40838416158,260.
5.94,6420.,17.,6.,3556.,0.,0.,9999.,0.926054143876,2.8326362048,221.
5.96,6416.,19.,9.,3552.,0.,0.,9996.,0.925754917352,2.53364503696,247.
5.98,6407.,17.,10.,3558.,0.,0.,9992.,0.924826399581,2.82888075166,221.
6.,6401.,19.,5.,3567.,0.,0.,9992.,0.923960322104,2.52873351313,247.
6.02,6402.,10.,13.,3568.,0.,0.,9993.,0.924012193151,4.80486340438,130.
6.04,6398.,19.,10.,3562.,0.,0.,9989.,0.92380464665,2.52830745399,247.
6.06,6400.,19.,6.,3564.,0.,0.,9989.,0.924093425845,2.52909779705,247.
6.08,6406.,9.,13.,3563.,0.,0.,9991.,0.924774604837,5.34314216128,117.
6.1,6404.,14.,8.,3565.,0.,0.,9991.,0.924485883449,3.43380470995,182.
6.12,6405.,16.,12.,3557.,0.,0.,9990.,0.924722799723,3.0053490991,208.
6.14,6401.,24.,8.,3556.,0.,0.,9989.,0.924237815443,2.00251526679,312.
6.16,6395.,25.,11.,3557.,0.,0.,9988.,0.923463925942,1.92080496596,325.
6.18,6392.,24.,8.,3564.,0.,0.,9988.,0.92303071378,1.99989987986,312.
6.2,6392.,20.,11.,3566.,0.,0.,9989.,0.922938309063,2.39963960356,260.
6.22,6388.,23.,9.,3569.,0.,0.,9989.,0.922360750672,2.08533734935,299.
6.24,6382.,27.,5.,3573.,0.,0.,9987.,0.921678951868,1.77508538878,351.
6.26,6384.,28.,1.,3572.,0.,0.,9985.,0.922152459458,1.71256885328,364.
6.28,6390.,18.,10.,3568.,0.,0.,9986.,0.922926712783,2.66623272582,234.
6.3,6384.,20.,10.,3572.,0.,0.,9986.,0.92206011493,2.39735629882,260.
6.32,6386.,18.,12.,3571.,0.,0.,9987.,0.922256625921,2.66429691933,234.
6.34,6385.,15.,12.,3576.,0.,0.,9988.,0.922019885401,3.19633560272,195.
6.36,6375.,25.,7.,3582.,0.,0.,9989.,0.920483685901,1.91460606667,325.
6.38,6376.,15.,16.,3584.,0.,0.,9991.,0.920443784021,3.19087178461,195.
6.4,6377.,25.,7.,3588.,0.,0.,9997.,0.920035626072,1.91367410223,325.
6.42,6376.,26.,7.,3589.,0.,0.,9998.,0.919799344484,1.83959868897,338.
6.44,6367.,23.,12.,3594.,0.,0.,9996.,0.918684781605,2.07702646276,299.
6.46,6364.,23.,14.,3595.,0.,0.,9996.,0.918251916151,2.07604781043,299.
6.48,6358.,25.,9.,3602.,0.,0.,9994.,0.917569772633,1.90854512708,325.
6.5,6352.,19.,9.,3614.,0.,0.,9994.,0.916703868475,2.5088737453,247.
6.52,6352.,12.,16.,3613.,0.,0.,9993.,0.916795603076,3.97278094666,156.
6.54,6345.,18.,11.,3619.,0.,0.,9993.,0.915785280466,2.64560192134,234.
6.56,6350.,19.,9.,3619.,0.,0.,9997.,0.916140226683,2.50733114671,247.
6.58,6351.,22.,10.,3617.,0.,0.,10000.,0.916009615385,2.16511363636,286.
6.6,6350.,25.,10.,3612.,0.,0.,9997.,0.916140226683,1.9055716715,325.
6.62,6343.,26.,17.,3614.,0.,0.,10000.,0.914855769231,1.82971153846,338.
6.64,6338.,19.,16.,3624.,0.,0.,9997.,0.914408938066,2.50259288313,247.
6.66,6323.,29.,20.,3624.,0.,0.,9996.,0.912336088281,1.63591298588,377.
6.68,6315.,28.,13.,3640.,0.,0.,9996.,0.911181780404,1.69219473504,364.
6.7,6315.,27.,12.,3640.,0.,0.,9994.,0.911364126168,1.75521979855,351.
6.72,6310.,22.,12.,3648.,0.,0.,9992.,0.910824813697,2.15285865056,286.
6.74,6301.,25.,9.,3656.,0.,0.,9991.,0.909616731982,1.89200280252,325.
6.76,6306.,19.,13.,3654.,0.,0.,9992.,0.910247428712,2.49120348911,247.
6.78,6295.,23.,14.,3660.,0.,0.,9992.,0.908659620004,2.05436088001,299.
6.8,6287.,20.,16.,3665.,0.,0.,9988.,0.9078682881,2.36045754906,260.
6.82,6283.,22.,8.,3673.,0.,0.,9986.,0.907472384415,2.1449347268,286.
6.84,6280.,27.,10.,3668.,0.,0.,9985.,0.907129925658,1.74706504201,351.
6.86,6277.,29.,12.,3664.,0.,0.,9982.,0.906969082811,1.62628938987,377.
6.88,6266.,34.,11.,3671.,0.,0.,9982.,0.90537968343,1.38469833936,442.
6.9,6261.,25.,18.,3678.,0.,0.,9982.,0.904657229166,1.88168703667,325.
6.92,6258.,26.,17.,3685.,0.,0.,9986.,0.90386156003,1.80772312006,338.
6.94,6246.,25.,17.,3697.,0.,0.,9985.,0.902218712684,1.87661492238,325.
6.96,6244.,21.,10.,3712.,0.,0.,9987.,0.901749197033,2.23290277361,273.
6.98,6237.,22.,13.,3718.,0.,0.,9990.,0.900467775468,2.12837837838,286.
7.,6240.,18.,11.,3721.,0.,0.,9990.,0.900900900901,2.6026026026,234.
7.02,6242.,18.,10.,3719.,0.,0.,9989.,0.901279869395,2.60369740047,234.
7.04,6235.,21.,7.,3722.,0.,0.,9985.,0.90062979084,2.23013091065,273.
7.06,6229.,17.,15.,3724.,0.,0.,9985.,0.899763106198,2.75221656013,221.
7.08,6230.,12.,18.,3727.,0.,0.,9987.,0.899727337847,3.898818464,156.
7.1,6229.,18.,7.,3735.,0.,0.,9989.,0.899402804624,2.59827476891,234.
7.12,6233.,15.,10.,3730.,0.,0.,9988.,0.900070469178,3.12024429315,195.
7.14,6233.,13.,8.,3736.,0.,0.,9990.,0.89989027489,3.59956109956,169.
7.16,6230.,13.,13.,3733.,0.,0.,9989.,0.899547194221,3.59818877689,169.
7.18,6221.,22.,8.,3736.,0.,0.,9987.,0.898427571227,2.12355607745,286.
7.2,6230.,17.,6.,3735.,0.,0.,9988.,0.899637257016,2.7518316097,221.
7.22,6227.,15.,11.,3731.,0.,0.,9984.,0.899564302885,3.11848958333,195.
7.24,6226.,17.,10.,3732.,0.,0.,9985.,0.899329763877,2.75089104245,221.
7.26,6225.,16.,7.,3735.,0.,0.,9983.,0.899365459743,2.92293774417,208.
7.28,6226.,21.,9.,3731.,0.,0.,9987.,0.899149663794,2.22646583416,273.
7.3,6231.,17.,7.,3732.,0.,0.,9987.,0.89987175636,2.75254890181,221.
7.32,6232.,15.,6.,3735.,0.,0.,9988.,0.899926065124,3.11974369243,195.
7.34,6241.,14.,10.,3725.,0.,0.,9990.,0.901045276045,3.34673959674,182.
7.36,6243.,13.,8.,3725.,0.,0.,9989.,0.901424258993,3.60569703597,169.
7.38,6243.,18.,5.,3724.,0.,0.,9990.,0.901334026334,2.60385385385,234.
7.4,6246.,16.,5.,3719.,0.,0.,9986.,0.902128364325,2.93191718406,208.
7.42,6246.,19.,10.,3712.,0.,0.,9987.,0.90203803406,2.46873567216,247.
7.44,6240.,16.,12.,3715.,0.,0.,9983.,0.901532605429,2.92998096764,208.
7.46,6238.,19.,11.,3717.,0.,0.,9985.,0.901063133161,2.46606752234,247.
7.48,6231.,22.,12.,3721.,0.,0.,9986.,0.899961869694,2.1271826011,286.
7.5,6227.,18.,11.,3729.,0.,0.,9985.,0.899474211317,2.59848105492,234.
7.52,6227.,21.,7.,3734.,0.,0.,9989.,0.899114025428,2.22637758677,273.
7.54,6226.,23.,4.,3735.,0.,0.,9988.,0.8990596408,2.0326565792,299.
7.56,6223.,15.,16.,3727.,0.,0.,9981.,0.899256664586,3.1174231039,195.
7.58,6225.,17.,6.,3734.,0.,0.,9982.,0.899455558467,2.7512758259,221.
7.6,6221.,18.,5.,3737.,0.,0.,9981.,0.898967653927,2.5970176669,234.
7.62,6215.,18.,12.,3735.,0.,0.,9980.,0.898190611993,2.59477287909,234.
7.64,6210.,17.,10.,3741.,0.,0.,9978.,0.897647902308,2.74574652471,221.
7.66,6211.,21.,4.,3742.,0.,0.,9978.,0.897792451085,2.22310511697,273.
7.68,6214.,19.,4.,3743.,0.,0.,9980.,0.898046092184,2.45781035756,247.
7.7,6212.,18.,8.,3742.,0.,0.,9980.,0.897757052567,2.59352037408,234.
7.72,6209.,13.,15.,3744.,0.,0.,9981.,0.897233589975,3.5889343599,169.
7.74,6206.,18.,12.,3744.,0.,0.,9980.,0.896889933714,2.59101536406,234.
7.76,6218.,23.,5.,3740.,0.,0.,9986.,0.898084241014,2.03045132751,299.
7.78,6219.,15.,11.,3743.,0.,0.,9988.,0.898048812421,3.11323588306,195.
7.8,6227.,11.,8.,3741.,0.,0.,9987.,0.899294082307,4.25120838909,143.
7.82,6225.,12.,6.,3744.,0.,0.,9987.,0.89900524528,3.89568939622,156.
7.84,6230.,14.,6.,3740.,0.,0.,9990.,0.899457149457,3.34084084084,182.
7.86,6232.,18.,5.,3738.,0.,0.,9993.,0.899475786897,2.59848560659,234.
7.88,6234.,19.,7.,3732.,0.,0.,9992.,0.899854498984,2.46275968143,247.
7.9,6230.,25.,10.,3727.,0.,0.,9992.,0.899277113999,1.87049639712,325.
7.92,6237.,13.,15.,3727.,0.,0.,9992.,0.900287537722,3.60115015089,169.
7.94,6230.,21.,6.,3733.,0.,0.,9990.,0.899457149457,2.22722722723,273.
7.96,6226.,19.,4.,3738.,0.,0.,9987.,0.899149663794,2.4608306588,247.
7.98,6236.,19.,4.,3730.,0.,0.,9989.,0.900413531808,2.464289666,247.
8.,6237.,19.,5.,3724.,0.,0.,9985.,0.900918685721,2.4656721925,247.
8.02,6239.,17.,4.,3724.,0.,0.,9984.,0.901297845784,2.75691105769,221.
8.04,6245.,17.,5.,3718.,0.,0.,9985.,0.902074265244,2.75928598781,221.
8.06,6256.,12.,7.,3714.,0.,0.,9989.,0.903301323764,3.91430573631,156.
8.08,6255.,8.,17.,3709.,0.,0.,9989.,0.903156934166,5.87052007208,104.
8.1,6246.,20.,7.,3714.,0.,0.,9987.,0.90203803406,2.34529888856,260.
8.12,6256.,16.,6.,3712.,0.,0.,9990.,0.903210903211,2.93543543544,208.
8.14,6256.,9.,7.,3717.,0.,0.,9989.,0.903301323764,5.21907431508,117.
8.16,6266.,9.,3.,3709.,0.,0.,9987.,0.904926404326,5.22846366944,117.
8.18,6282.,9.,2.,3696.,0.,0.,9989.,0.907055453306,5.24076484133,117.
8.2,6288.,10.,3.,3688.,0.,0.,9989.,0.907921790893,4.72119331264,130.
8.22,6284.,11.,5.,3684.,0.,0.,9984.,0.907798631657,4.29141171329,143.
8.24,6280.,9.,12.,3683.,0.,0.,9984.,0.907220784024,5.24172008547,117.
8.26,6279.,7.,13.,3685.,0.,0.,9984.,0.907076322115,6.73828125,91.
8.28,6278.,9.,9.,3686.,0.,0.,9982.,0.907113573663,5.24110064783,117.
8.3,6275.,9.,9.,3688.,0.,0.,9981.,0.906770941712,5.23912099656,117.
8.32,6281.,9.,3.,3690.,0.,0.,9983.,0.907456136971,5.2430799025,117.
8.34,6286.,10.,2.,3688.,0.,0.,9986.,0.907905683341,4.72110955337,130.
8.36,6290.,10.,3.,3683.,0.,0.,9986.,0.908483415243,4.72411375926,130.
8.38,6283.,11.,7.,3680.,0.,0.,9981.,0.907926984347,4.29201847146,143.
8.4,6289.,11.,4.,3678.,0.,0.,9982.,0.908702973044,4.29568678166,143.
8.42,6294.,7.,7.,3675.,0.,0.,9983.,0.909334329899,6.75505502211,91.
8.44,6294.,10.,4.,3674.,0.,0.,9982.,0.909425427308,4.729012222,130.
8.46,6297.,13.,4.,3669.,0.,0.,9983.,0.909767759037,3.63907103615,169.
8.48,6299.,10.,5.,3665.,0.,0.,9979.,0.910421500536,4.73419180279,130.
8.5,6294.,12.,8.,3664.,0.,0.,9978.,0.909789999537,3.94242333133,156.
8.52,6300.,6.,11.,3663.,0.,0.,9980.,0.910474795745,7.89078156313,78.
8.54,6300.,11.,1.,3666.,0.,0.,9978.,0.910657292197,4.30492538129,143.
8.56,6302.,9.,5.,3662.,0.,0.,9978.,0.91094638975,5.26324580744,117.
8.58,6306.,10.,7.,3653.,0.,0.,9976.,0.911707328357,4.74087810746,130.
8.6,6307.,9.,6.,3653.,0.,0.,9975.,0.911943319838,5.26900584795,117.
8.62,6310.,11.,3.,3653.,0.,0.,9977.,0.912194200507,4.31219076603,143.
8.64,6313.,10.,5.,3648.,0.,0.,9976.,0.912719372648,4.74614073777,130.
8.66,6317.,10.,8.,3643.,0.,0.,9978.,0.913114621398,4.74819603127,130.
8.68,6321.,9.,5.,3644.,0.,0.,9979.,0.913601254943,5.27858502856,117.
8.7,6325.,5.,4.,3645.,0.,0.,9979.,0.914179392108,9.50746567792,65.
8.72,6326.,10.,3.,3642.,0.,0.,9981.,0.91414071351,4.75353171025,130.
8.74,6334.,7.,3.,3636.,0.,0.,9980.,0.915388469246,6.80002862869,91.
8.76,6343.,9.,0.,3629.,0.,0.,9981.,0.916597304109,5.29589553485,117.
8.78,6343.,5.,6.,3624.,0.,0.,9978.,0.916872889588,9.53547805171,65.
8.8,6350.,7.,7.,3617.,0.,0.,9981.,0.917608841414,6.81652282193,91.
8.82,6341.,12.,6.,3620.,0.,0.,9979.,0.916491940768,3.97146507666,156.
8.84,6345.,11.,3.,3619.,0.,0.,9978.,0.917161987141,4.3356748483,143.
8.86,6345.,9.,4.,3617.,0.,0.,9975.,0.917437825333,5.3007518797,117.
8.88,6354.,7.,3.,3612.,0.,0.,9976.,0.918647060638,6.8242353076,91.
8.9,6363.,5.,0.,3606.,0.,0.,9974.,0.920132729713,9.56938038901,65.
8.92,6368.,4.,2.,3595.,0.,0.,9969.,0.921317623093,11.9771291002,52.
8.94,6370.,6.,2.,3591.,0.,0.,9969.,0.921606981643,7.98726050757,78.
8.96,6385.,3.,1.,3584.,0.,0.,9973.,0.923406659519,16.0057154317,39.
8.98,6388.,1.,2.,3581.,0.,0.,9972.,0.923933166713,48.0445246691,13.
9.,6390.,2.,0.,3580.,0.,0.,9972.,0.924222438212,24.0297833935,26.
9.02,6396.,2.,1.,3572.,0.,0.,9971.,0.925183030789,24.0547588005,26.
9.04,6409.,1.,2.,3559.,0.,0.,9971.,0.927063484104,48.2073011734,13.
9.06,6414.,2.,1.,3556.,0.,0.,9973.,0.92760067567,24.1176175674,26.
9.08,6417.,3.,1.,3553.,0.,0.,9974.,0.927941494038,16.08431923,39.
9.1,6432.,1.,3.,3545.,0.,0.,9981.,0.929458278421,48.3318304779,13.
9.12,6440.,5.,2.,3535.,0.,0.,9982.,0.930521091811,9.67741935484,65.
9.14,6446.,3.,7.,3529.,0.,0.,9985.,0.931108200763,16.1392088132,39.
9.16,6448.,8.,2.,3525.,0.,0.,9983.,0.931583692277,6.0552939998,104.
9.18,6451.,9.,1.,3522.,0.,0.,9983.,0.932017121414,5.38498781261,117.
9.2,6453.,10.,1.,3516.,0.,0.,9980.,0.932586326499,4.8494488978,130.
9.22,6451.,11.,2.,3512.,0.,0.,9976.,0.932671102955,4.40899066851,143.
9.24,6459.,8.,5.,3509.,0.,0.,9981.,0.933359922314,6.06683949504,104.
9.26,6466.,7.,10.,3502.,0.,0.,9985.,0.933997149571,6.93826453967,91.
9.28,6464.,16.,6.,3500.,0.,0.,9986.,0.933614752962,3.03424794713,208.
9.3,6460.,17.,10.,3497.,0.,0.,9984.,0.933223927515,2.85456730769,221.
9.32,6452.,19.,8.,3502.,0.,0.,9981.,0.932348385008,2.55169031687,247.
9.34,6448.,22.,3.,3508.,0.,0.,9981.,0.931770363691,2.20236631418,286.
9.36,6449.,17.,9.,3507.,0.,0.,9982.,0.931821509486,2.85027755843,221.
9.38,6447.,16.,11.,3499.,0.,0.,9973.,0.932373176808,3.03021282463,208.
9.4,6437.,25.,11.,3501.,0.,0.,9974.,0.930833628974,1.93613394827,325.
9.42,6427.,17.,14.,3512.,0.,0.,9970.,0.929760435152,2.84397309576,221.
9.44,6417.,23.,12.,3517.,0.,0.,9969.,0.928406907567,2.09900692146,299.
9.46,6408.,22.,14.,3525.,0.,0.,9969.,0.927104794092,2.19133860422,286.
9.48,6408.,16.,12.,3531.,0.,0.,9967.,0.927290828966,3.01369519414,208.
9.5,6411.,16.,10.,3528.,0.,0.,9965.,0.927911150565,3.01571123934,208.
9.52,6417.,11.,7.,3530.,0.,0.,9965.,0.928779574665,4.39059435296,143.
9.54,6419.,17.,3.,3530.,0.,0.,9969.,0.928696266117,2.84071799048,221.
9.56,6424.,13.,6.,3529.,0.,0.,9972.,0.929140053689,3.71656021476,169.
9.58,6425.,11.,8.,3529.,0.,0.,9973.,0.929191509383,4.39254168072,143.
9.6,6428.,11.,8.,3527.,0.,0.,9974.,0.929532168253,4.3941520681,143.
9.62,6421.,16.,4.,3530.,0.,0.,9971.,0.928799287164,3.01859768328,208.
9.64,6424.,8.,11.,3529.,0.,0.,9972.,0.929140053689,6.03941034898,104.
9.66,6416.,15.,7.,3531.,0.,0.,9969.,0.928262228292,3.21797572475,195.
9.68,6423.,11.,10.,3525.,0.,0.,9969.,0.929274983217,4.3929362843,143.
9.7,6424.,11.,9.,3526.,0.,0.,9970.,0.929326440861,4.39317953862,143.
9.72,6418.,22.,7.,3520.,0.,0.,9967.,0.928737912033,2.19519870117,286.
9.74,6417.,20.,15.,3510.,0.,0.,9962.,0.929059271385,2.4155541056,260.
9.76,6414.,18.,15.,3516.,0.,0.,9963.,0.928531721215,2.6824249724,234.
9.78,6408.,16.,7.,3529.,0.,0.,9960.,0.927942539388,3.01581325301,208.
9.8,6408.,15.,8.,3530.,0.,0.,9961.,0.92784938182,3.21654452364,195.
9.82,6409.,15.,7.,3532.,0.,0.,9963.,0.92780788919,3.21640068253,195.
9.84,6406.,16.,11.,3530.,0.,0.,9963.,0.927373589975,3.01396416742,208.
9.86,6398.,16.,5.,3542.,0.,0.,9961.,0.926401427104,3.01080463809,208.
9.88,6398.,14.,8.,3542.,0.,0.,9962.,0.926308433586,3.44057418189,182.
9.9,6400.,12.,7.,3544.,0.,0.,9963.,0.926504991546,4.01485496336,156.
9.92,6398.,14.,4.,3545.,0.,0.,9961.,0.926401427104,3.44091958639,182.
9.94,6399.,11.,2.,3548.,0.,0.,9960.,0.926639249305,4.38047645126,143.
9.96,6399.,15.,2.,3544.,0.,0.,9960.,0.926639249305,3.21234939759,195.
9.98,6401.,13.,6.,3541.,0.,0.,9961.,0.926835813519,3.70734325408,169.
10.,6409.,12.,4.,3538.,0.,0.,9963.,0.92780788919,4.02050085316,156.
