t,s,e,i,r,c,o,n,reff,coal,reportr
5.,6250.,5.,3.,3734.,0.,0.,9992.,0.902164038923,9.3825060048,65.
5.02,6253.,6.,2.,3729.,0.,0.,9990.,0.902777777778,7.82407407407,78.
5.04,6264.,6.,0.,3721.,0.,0.,9991.,0.904275386309,7.83705334801,78.
5.06,6270.,5.,0.,3716.,0.,0.,9991.,0.905141550472,9.41347212491,65.
5.08,6272.,3.,3.,3712.,0.,0.,9990.,0.905520905521,15.6956956957,39.
5.1,6278.,5.,2.,3705.,0.,0.,9990.,0.906387156387,9.42642642643,65.
5.12,6282.,5.,3.,3697.,0.,0.,9987.,0.907237100538,9.4352658456,65.
5.14,6284.,6.,1.,3696.,0.,0.,9987.,0.907525937565,7.86522479223,78.
5.16,6288.,5.,1.,3694.,0.,0.,9988.,0.908012692154,9.4433319984,65.
5.18,6294.,3.,2.,3690.,0.,0.,9989.,0.90878812848,15.7523275603,39.
5.2,6299.,5.,1.,3684.,0.,0.,9989.,0.909510076469,9.45890479527,65.
5.22,6306.,3.,2.,3676.,0.,0.,9987.,0.910703144858,15.7855211775,39.
5.24,6314.,3.,0.,3667.,0.,0.,9984.,0.912132488905,15.8102964744,39.
5.26,6319.,4.,1.,3662.,0.,0.,9986.,0.912671971529,11.8647356299,52.
5.28,6330.,3.,3.,3651.,0.,0.,9987.,0.914169189177,15.8455992791,39.
5.3,6336.,1.,2.,3646.,0.,0.,9985.,0.91521898232,47.5913870806,13.
5.32,6339.,3.,2.,3641.,0.,0.,9985.,0.915652324641,15.8713069604,39.
5.34,6349.,2.,2.,3631.,0.,0.,9984.,0.917188655695,23.8469050481,26.
5.36,6351.,4.,1.,3630.,0.,0.,9986.,0.917293826742,11.9248197476,52.
5.38,6359.,3.,0.,3626.,0.,0.,9988.,0.918265379994,15.9165999199,39.
5.4,6357.,5.,1.,3619.,0.,0.,9982.,0.918528351032,9.55269485073,65.
5.42,6357.,9.,2.,3613.,0.,0.,9981.,0.91862037872,5.30758441038,117.
5.44,6362.,8.,5.,3604.,0.,0.,9979.,0.919527160884,5.97692654575,104.
5.46,6364.,14.,2.,3599.,0.,0.,9979.,0.919816229466,3.41646028088,182.
5.48,6369.,15.,1.,3593.,0.,0.,9978.,0.920631157778,3.19152134696,195.
5.5,6374.,13.,7.,3586.,0.,0.,9980.,0.9211692616,3.6846770464,169.
5.52,6377.,14.,4.,3585.,0.,0.,9980.,0.921602821027,3.42309619238,182.
5.54,6385.,8.,5.,3584.,0.,0.,9982.,0.922574094909,5.99673161691,104.
5.56,6394.,6.,2.,3583.,0.,0.,9985.,0.923596933862,8.00450676014,78.
5.58,6402.,7.,0.,3576.,0.,0.,9985.,0.924752513385,6.86959009943,91.
5.6,6407.,6.,4.,3568.,0.,0.,9985.,0.925474750587,8.02078117176,78.
5.62,6416.,5.,5.,3558.,0.,0.,9984.,0.92686760355,9.63942307692,65.
5.64,6421.,6.,2.,3553.,0.,0.,9982.,0.927775765609,8.04072330194,78.
5.66,6423.,5.,1.,3554.,0.,0.,9983.,0.9279717828,9.65090654112,65.
5.68,6432.,4.,1.,3545.,0.,0.,9982.,0.929365164989,12.0817471449,52.
5.7,6441.,4.,3.,3534.,0.,0.,9982.,0.930665582664,12.0986525746,52.
5.72,6445.,4.,4.,3527.,0.,0.,9980.,0.931430168028,12.1085921844,52.
5.74,6445.,10.,0.,3526.,0.,0.,9981.,0.931336847703,4.84295160806,130.
5.76,6447.,6.,4.,3527.,0.,0.,9984.,0.931345922707,8.07166466346,78.
5.78,6450.,9.,3.,3526.,0.,0.,9988.,0.931406148917,5.3814577493,117.
5.8,6460.,7.,1.,3519.,0.,0.,9987.,0.932943595905,6.93043814101,91.
5.82,6466.,5.,3.,3514.,0.,0.,9988.,0.933716613783,9.71065278334,65.
5.84,6470.,8.,0.,3512.,0.,0.,9990.,0.934107184107,6.0716966967,104.
5.86,6469.,7.,7.,3505.,0.,0.,9988.,0.934149825945,6.93939870702,91.
5.88,6476.,3.,8.,3504.,0.,0.,9991.,0.934879853407,16.2045841257,39.
5.9,6470.,6.,8.,3504.,0.,0.,9988.,0.934294229999,8.09721665999,78.
5.92,6472.,14.,2.,3502.,0.,0.,9990.,0.934395934396,3.47061347061,182.
5.94,6480.,10.,7.,3495.,0.,0.,9992.,0.935363675556,4.86389111289,130.
5.96,6484.,8.,6.,3495.,0.,0.,9993.,0.935847400873,6.08300810567,104.
5.98,6486.,7.,10.,3485.,0.,0.,9988.,0.936604694865,6.95763487614,91.
6.,6485.,14.,9.,3483.,0.,0.,9991.,0.936179099651,3.47723665585,182.
6.02,6488.,18.,8.,3478.,0.,0.,9992.,0.936518445526,2.70549773152,234.
6.04,6487.,18.,7.,3478.,0.,0.,9990.,0.936561561562,2.70562228896,234.
6.06,6485.,16.,11.,3479.,0.,0.,9991.,0.936179099651,3.04258207387,208.
6.08,6481.,23.,7.,3483.,0.,0.,9994.,0.935320807869,2.11463834823,299.
6.1,6477.,27.,8.,3483.,0.,0.,9995.,0.934650017316,1.80006670002,351.
6.12,6478.,14.,14.,3490.,0.,0.,9996.,0.934700803398,3.47174584119,182.
6.14,6473.,17.,10.,3497.,0.,0.,9997.,0.933885935011,2.8565922718,221.
6.16,6475.,14.,18.,3491.,0.,0.,9998.,0.934081046979,3.46944388878,182.
6.18,6468.,21.,14.,3496.,0.,0.,9999.,0.932977913176,2.3102310231,273.
6.2,6454.,38.,10.,3498.,0.,0.,10000.,0.930865384615,1.27381578947,494.
6.22,6454.,29.,18.,3499.,0.,0.,10000.,0.930865384615,1.66913793103,377.
6.24,6441.,37.,17.,3504.,0.,0.,9999.,0.929083292945,1.30573868198,481.
6.26,6429.,33.,23.,3513.,0.,0.,9998.,0.927445104405,1.46142864937,429.
6.28,6408.,41.,19.,3529.,0.,0.,9997.,0.924508121667,1.17254688602,533.
6.3,6406.,42.,11.,3539.,0.,0.,9998.,0.924127133119,1.14415740291,546.
6.32,6397.,41.,15.,3544.,0.,0.,9997.,0.922921107101,1.17053408706,533.
6.34,6387.,38.,17.,3555.,0.,0.,9997.,0.921478366587,1.26097039638,494.
6.36,6370.,43.,18.,3565.,0.,0.,9996.,0.919117647059,1.11149110807,559.
6.38,6355.,47.,22.,3570.,0.,0.,9994.,0.917136820554,1.01470456742,611.
6.4,6332.,47.,28.,3590.,0.,0.,9997.,0.913543293757,1.01072875054,611.
6.42,6317.,42.,31.,3606.,0.,0.,9996.,0.911470357374,1.12848710913,546.
6.44,6295.,49.,32.,3621.,0.,0.,9997.,0.908205153854,0.963809551029,637.
6.46,6277.,51.,26.,3644.,0.,0.,9998.,0.90551764199,0.923272889872,663.
6.48,6251.,52.,34.,3661.,0.,0.,9998.,0.90176689184,0.90176689184,676.
6.5,6232.,56.,25.,3687.,0.,0.,10000.,0.898846153846,0.834642857143,728.
6.52,6228.,41.,34.,3701.,0.,0.,10004.,0.897910066743,1.13881276758,533.
6.54,6210.,45.,18.,3729.,0.,0.,10002.,0.895493978127,1.03479304139,585.
6.56,6203.,39.,20.,3740.,0.,0.,10002.,0.894484564626,1.19264608617,507.
6.58,6187.,56.,16.,3745.,0.,0.,10004.,0.891998969643,0.828284757526,728.
6.6,6173.,61.,12.,3755.,0.,0.,10001.,0.89024751371,0.758899519884,793.
6.62,6168.,44.,27.,3760.,0.,0.,9999.,0.889704355051,1.05146878324,572.
6.64,6148.,55.,9.,3788.,0.,0.,10000.,0.886730769231,0.838363636364,715.
6.66,6137.,51.,16.,3795.,0.,0.,9999.,0.885232754045,0.902590259026,663.
6.68,6124.,54.,13.,3811.,0.,0.,10002.,0.883092612247,0.85038547846,702.
6.7,6117.,35.,22.,3827.,0.,0.,10001.,0.882171398245,1.31065464882,455.
6.72,6097.,37.,20.,3848.,0.,0.,10002.,0.879199160168,1.23563125213,481.
6.74,6094.,36.,18.,3852.,0.,0.,10000.,0.878942307692,1.26958333333,468.
6.76,6078.,37.,17.,3864.,0.,0.,9996.,0.876985409548,1.23252003504,481.
6.78,6066.,31.,19.,3878.,0.,0.,9994.,0.875429103616,1.46846172219,403.
6.8,6046.,41.,19.,3886.,0.,0.,9992.,0.872717404693,1.10686109864,533.
6.82,6038.,33.,20.,3901.,0.,0.,9992.,0.871562634723,1.37337142441,429.
6.84,6039.,22.,21.,3909.,0.,0.,9991.,0.871794230192,2.06060454409,286.
6.86,6031.,27.,10.,3923.,0.,0.,9991.,0.870639344641,1.67678688598,351.
6.88,6022.,33.,10.,3926.,0.,0.,9991.,0.869340098396,1.36986924596,429.
6.9,6025.,30.,16.,3921.,0.,0.,9992.,0.869686133522,1.50745596477,390.
6.92,6016.,31.,13.,3932.,0.,0.,9992.,0.868387017306,1.45664919032,403.
6.94,6012.,38.,8.,3939.,0.,0.,9997.,0.867375597295,1.18693502788,494.
6.96,6014.,30.,19.,3936.,0.,0.,9999.,0.867490595213,1.50365036504,390.
6.98,6012.,27.,17.,3939.,0.,0.,9995.,0.867549159195,1.67083541771,351.
7.,6003.,30.,20.,3940.,0.,0.,9993.,0.866423804355,1.50180126088,390.
7.02,5982.,32.,11.,3962.,0.,0.,9987.,0.863911546549,1.40385626314,416.
7.04,5985.,27.,11.,3963.,0.,0.,9986.,0.864431357747,1.66483076307,351.
7.06,5983.,30.,8.,3966.,0.,0.,9987.,0.864055965062,1.49769700611,390.
7.08,5986.,27.,12.,3963.,0.,0.,9988.,0.864402667817,1.66477550839,351.
7.1,5988.,18.,18.,3965.,0.,0.,9989.,0.864604911557,2.49774752227,234.
7.12,5977.,31.,13.,3969.,0.,0.,9990.,0.86293023793,1.44749588298,403.
7.14,5964.,36.,0.,3991.,0.,0.,9991.,0.860967178153,1.24361925733,468.
7.16,5960.,32.,7.,3991.,0.,0.,9990.,0.860475860476,1.39827327327,416.
7.18,5967.,26.,12.,3987.,0.,0.,9992.,0.861314051241,1.72262810248,338.
7.2,5968.,26.,5.,3998.,0.,0.,9997.,0.861027539031,1.72205507806,338.
7.22,5969.,14.,13.,3999.,0.,0.,9995.,0.861344133605,3.19927821053,182.
7.24,5966.,16.,9.,4004.,0.,0.,9995.,0.860911224843,2.79796148074,208.
7.26,5963.,18.,12.,4004.,0.,0.,9997.,0.860306168774,2.48532893201,234.
7.28,5954.,22.,6.,4015.,0.,0.,9997.,0.859007702311,2.03038184183,286.
7.3,5961.,16.,7.,4014.,0.,0.,9998.,0.859931601705,2.79477770554,208.
7.32,5970.,11.,9.,4009.,0.,0.,9999.,0.861143806688,4.07086163162,143.
7.34,5970.,10.,8.,4009.,0.,0.,9997.,0.861316087134,4.4788436531,130.
7.36,5975.,3.,5.,4012.,0.,0.,9995.,0.862209951129,14.9449724862,39.
7.38,5981.,5.,5.,3999.,0.,0.,9990.,0.863507738508,8.98048048048,65.
7.4,5987.,9.,3.,3994.,0.,0.,9993.,0.864114495531,4.99266152974,117.
7.42,5994.,9.,2.,3988.,0.,0.,9993.,0.865124818142,4.99849894926,117.
7.44,5999.,9.,7.,3982.,0.,0.,9997.,0.865500034626,5.00066686673,117.
7.46,6002.,15.,0.,3984.,0.,0.,10001.,0.865586518271,3.00069993001,195.
7.48,6006.,7.,8.,3982.,0.,0.,10003.,0.865990202939,6.43307007898,91.
7.5,6004.,11.,0.,3986.,0.,0.,10001.,0.865874950966,4.09322704093,143.
7.52,6017.,10.,3.,3977.,0.,0.,10007.,0.867229477827,4.5095932847,130.
7.54,6023.,9.,5.,3974.,0.,0.,10011.,0.867747400936,5.01365164985,117.
7.56,6033.,5.,6.,3970.,0.,0.,10014.,0.868927731945,9.03684841222,65.
7.58,6044.,5.,3.,3960.,0.,0.,10012.,0.870685946095,9.05513383939,65.
7.6,6053.,6.,1.,3956.,0.,0.,10016.,0.871634231384,7.55416333866,78.
7.62,6061.,6.,2.,3948.,0.,0.,10017.,0.872699103831,7.5633922332,78.
7.64,6068.,7.,2.,3935.,0.,0.,10012.,0.874143335689,6.49363620798,91.
7.66,6063.,10.,6.,3928.,0.,0.,10007.,0.87385945223,4.54406915159,130.
7.68,6067.,7.,10.,3927.,0.,0.,10011.,0.874086581683,6.49321460679,91.
7.7,6068.,10.,9.,3926.,0.,0.,10013.,0.874056034847,4.5450913812,130.
7.72,6071.,9.,4.,3926.,0.,0.,10010.,0.87475024975,5.05411255411,117.
7.74,6074.,10.,1.,3926.,0.,0.,10011.,0.875095087711,4.5504944561,130.
7.76,6077.,8.,2.,3924.,0.,0.,10011.,0.87552730458,5.69092747977,104.
7.78,6080.,9.,4.,3920.,0.,0.,10013.,0.875784556999,5.06008855155,117.
7.8,6087.,8.,0.,3924.,0.,0.,10019.,0.876267783519,5.69574059287,104.
7.82,6090.,7.,3.,3915.,0.,0.,10015.,0.877049809901,6.51522715926,91.
7.84,6089.,11.,0.,3912.,0.,0.,10012.,0.877168551584,4.14661497113,143.
7.86,6099.,8.,3.,3900.,0.,0.,10010.,0.878784676862,5.7121003996,104.
7.88,6107.,8.,3.,3892.,0.,0.,10010.,0.879937370322,5.71959290709,104.
7.9,6106.,13.,0.,3889.,0.,0.,10008.,0.879969101642,3.51987640657,169.
7.92,6101.,15.,0.,3889.,0.,0.,10005.,0.879512166993,3.04897551224,195.
7.94,6109.,9.,6.,3880.,0.,0.,10004.,0.880753467844,5.08879781421,117.
7.96,6113.,13.,3.,3876.,0.,0.,10005.,0.881242071272,3.52496828509,169.
7.98,6120.,10.,4.,3875.,0.,0.,10009.,0.881898598953,4.58587271456,130.
8.,6115.,13.,7.,3875.,0.,0.,10010.,0.881090063782,3.52436025513,169.
8.02,6113.,17.,7.,3875.,0.,0.,10012.,0.880625941178,2.69367934949,221.
8.04,6122.,12.,10.,3874.,0.,0.,10018.,0.881394259564,3.81937512478,156.
8.06,6123.,13.,12.,3868.,0.,0.,10016.,0.881714257188,3.52685702875,169.
8.08,6117.,18.,7.,3875.,0.,0.,10017.,0.880762319442,2.54442447839,234.
8.1,6118.,12.,11.,3874.,0.,0.,10015.,0.88108222282,3.81802296555,156.
8.12,6114.,20.,6.,3873.,0.,0.,10013.,0.88068203643,2.28977329472,260.
8.14,6126.,13.,11.,3866.,0.,0.,10016.,0.882146258294,3.52858503318,169.
8.16,6121.,19.,7.,3871.,0.,0.,10018.,0.881250287943,2.41184289332,247.
8.18,6130.,18.,9.,3863.,0.,0.,10020.,0.882369875633,2.54906852961,234.
8.2,6125.,20.,8.,3868.,0.,0.,10021.,0.881562180958,2.29206167049,260.
8.22,6120.,23.,4.,3873.,0.,0.,10020.,0.880930446799,1.99166883624,299.
8.24,6129.,21.,8.,3861.,0.,0.,10019.,0.882313988038,2.18477749419,273.
8.26,6139.,16.,9.,3861.,0.,0.,10025.,0.883224630731,2.87048004988,208.
8.28,6143.,15.,7.,3862.,0.,0.,10027.,0.883623831041,3.06322928094,195.
8.3,6139.,17.,7.,3866.,0.,0.,10029.,0.882872362457,2.70055075575,221.
8.32,6138.,13.,10.,3868.,0.,0.,10029.,0.882728548747,3.53091419499,169.
8.34,6140.,13.,5.,3871.,0.,0.,10029.,0.883016176166,3.53206470466,169.
8.36,6145.,13.,11.,3863.,0.,0.,10032.,0.88347096982,3.53388387928,169.
8.38,6143.,13.,17.,3862.,0.,0.,10035.,0.882919397493,3.53167758997,169.
8.4,6133.,19.,10.,3868.,0.,0.,10030.,0.881921543063,2.41368001259,247.
8.42,6125.,29.,7.,3871.,0.,0.,10032.,0.88059555576,1.57899892757,377.
8.44,6132.,22.,10.,3865.,0.,0.,10029.,0.88186566649,2.08440975716,286.
8.46,6125.,18.,17.,3866.,0.,0.,10026.,0.881122542927,2.54546512401,234.
8.48,6116.,34.,7.,3869.,0.,0.,10026.,0.879827832252,1.34561903756,442.
8.5,6118.,21.,11.,3878.,0.,0.,10028.,0.879940014114,2.17889908257,273.
8.52,6120.,24.,11.,3874.,0.,0.,10029.,0.880139901977,1.90696978762,312.
8.54,6109.,24.,18.,3876.,0.,0.,10027.,0.878733189619,1.90392191084,312.
8.56,6097.,30.,10.,3888.,0.,0.,10025.,0.877182044888,1.52044887781,390.
8.58,6085.,31.,16.,3889.,0.,0.,10021.,0.875805040185,1.46909232547,403.
8.6,6076.,39.,13.,3893.,0.,0.,10021.,0.874509683511,1.16601291135,507.
8.62,6078.,31.,20.,3893.,0.,0.,10022.,0.874710252828,1.46725590797,403.
8.64,6077.,34.,12.,3901.,0.,0.,10024.,0.874391844189,1.33730517347,442.
8.66,6070.,24.,18.,3910.,0.,0.,10022.,0.873558939564,1.89271103572,312.
8.68,6072.,23.,10.,3916.,0.,0.,10021.,0.873933969433,1.9758507135,299.
8.7,6079.,17.,12.,3919.,0.,0.,10027.,0.874417917776,2.67469010143,221.
8.72,6078.,28.,7.,3920.,0.,0.,10033.,0.873751236305,1.62268086742,364.
8.74,6075.,17.,18.,3924.,0.,0.,10034.,0.873232931111,2.67106543634,221.
8.76,6075.,14.,15.,3929.,0.,0.,10033.,0.873319967185,3.24375987812,182.
8.78,6067.,26.,4.,3933.,0.,0.,10030.,0.872430784569,1.74486156914,338.
8.8,6066.,21.,16.,3931.,0.,0.,10034.,0.871939252695,2.15908767334,273.
8.82,6056.,26.,13.,3936.,0.,0.,10031.,0.870762175717,1.74152435143,338.
8.84,6056.,29.,11.,3934.,0.,0.,10030.,0.870848991487,1.56152232956,377.
8.86,6062.,24.,19.,3923.,0.,0.,10028.,0.871885643276,1.88908556043,312.
8.88,6057.,25.,11.,3935.,0.,0.,10028.,0.871166503022,1.81202632629,325.
8.9,6058.,28.,6.,3939.,0.,0.,10031.,0.871049745788,1.61766381361,364.
8.92,6056.,19.,10.,3943.,0.,0.,10028.,0.871022674972,2.3838515315,247.
8.94,6054.,22.,9.,3945.,0.,0.,10030.,0.870561392745,2.05769056467,286.
8.96,6053.,22.,9.,3945.,0.,0.,10029.,0.870504383442,2.05755581541,286.
8.98,6053.,20.,13.,3943.,0.,0.,10029.,0.870504383442,2.26331139695,260.
9.,6054.,19.,6.,3948.,0.,0.,10027.,0.870821857907,2.3833019269,247.
9.02,6056.,20.,4.,3947.,0.,0.,10027.,0.871109542696,2.26488481101,260.
9.04,6061.,13.,9.,3945.,0.,0.,10028.,0.871741815225,3.4869672609,169.
9.06,6060.,18.,8.,3944.,0.,0.,10030.,0.871424188972,2.51744765703,234.
9.08,6069.,16.,4.,3942.,0.,0.,10031.,0.87263138118,2.83605198883,208.
9.1,6074.,12.,6.,3943.,0.,0.,10035.,0.873002184661,3.78300946687,156.
9.12,6074.,8.,7.,3943.,0.,0.,10032.,0.873263249908,5.6762111244,104.
9.14,6079.,11.,9.,3939.,0.,0.,10038.,0.873459699297,4.12908221486,143.
9.16,6080.,11.,7.,3941.,0.,0.,10039.,0.873516363107,4.12935008014,143.
9.18,6079.,14.,13.,3934.,0.,0.,10040.,0.87328570334,3.24363261241,182.
9.2,6079.,20.,6.,3940.,0.,0.,10045.,0.872851016579,2.26941264311,260.
9.22,6088.,18.,11.,3932.,0.,0.,10049.,0.87379532598,2.52429760839,234.
9.24,6083.,19.,13.,3931.,0.,0.,10046.,0.873338412533,2.39018933956,247.
9.26,6080.,19.,14.,3933.,0.,0.,10046.,0.872907701496,2.38901055146,247.
9.28,6074.,25.,9.,3939.,0.,0.,10047.,0.871959482739,1.8136757241,325.
9.3,6070.,24.,16.,3939.,0.,0.,10049.,0.871211831258,1.88762563439,312.
9.32,6071.,21.,19.,3943.,0.,0.,10054.,0.870922021086,2.15656881412,273.
9.34,6061.,24.,18.,3952.,0.,0.,10055.,0.86940098688,1.88370213824,312.
9.36,6059.,26.,12.,3955.,0.,0.,10052.,0.869373488628,1.73874697726,338.
9.38,6060.,25.,10.,3960.,0.,0.,10055.,0.869257545041,1.80805569368,325.
9.4,6055.,22.,8.,3969.,0.,0.,10054.,0.868626723386,2.05311770982,286.
9.42,6049.,22.,11.,3969.,0.,0.,10051.,0.868024995599,2.05169544414,286.
9.44,6048.,18.,11.,3973.,0.,0.,10050.,0.867967853042,2.50746268657,234.
9.46,6052.,24.,8.,3965.,0.,0.,10049.,0.868628336536,1.88202806249,312.
9.48,6056.,19.,8.,3966.,0.,0.,10049.,0.869202446474,2.37886985351,247.
9.5,6063.,15.,13.,3963.,0.,0.,10054.,0.869774372236,3.01521782375,195.
9.52,6064.,19.,9.,3960.,0.,0.,10052.,0.870090911874,2.38130144302,247.
9.54,6059.,21.,11.,3957.,0.,0.,10048.,0.869719576801,2.15359133303,273.
9.56,6059.,15.,13.,3963.,0.,0.,10050.,0.869546498278,3.0144278607,195.
9.58,6049.,23.,9.,3968.,0.,0.,10049.,0.868197754082,1.96288187879,299.
9.6,6046.,20.,15.,3967.,0.,0.,10048.,0.867853533807,2.2564191879,260.
9.62,6045.,19.,11.,3973.,0.,0.,10048.,0.867709992038,2.37478524137,247.
9.64,6051.,18.,4.,3974.,0.,0.,10047.,0.868657693456,2.50945555887,234.
9.66,6051.,18.,8.,3966.,0.,0.,10043.,0.869003668839,2.51045504331,234.
9.68,6049.,17.,8.,3968.,0.,0.,10042.,0.868802950684,2.65751490797,221.
9.7,6043.,21.,10.,3967.,0.,0.,10041.,0.868027625198,2.14940173859,273.
9.72,6049.,16.,9.,3967.,0.,0.,10041.,0.868889476224,2.82389079773,208.
9.74,6049.,19.,11.,3960.,0.,0.,10039.,0.869062579019,2.37848705837,247.
9.76,6045.,21.,12.,3962.,0.,0.,10040.,0.868401394422,2.15032726238,273.
9.78,6037.,24.,14.,3965.,0.,0.,10040.,0.867252145265,1.87904631474,312.
9.8,6039.,23.,5.,3972.,0.,0.,10039.,0.867625874474,1.96158893359,299.
9.82,6037.,19.,7.,3974.,0.,0.,10037.,0.867511361807,2.37424162179,247.
9.84,6034.,10.,19.,3971.,0.,0.,10034.,0.867339507214,4.51016543751,130.
9.86,6027.,18.,7.,3981.,0.,0.,10033.,0.866419661272,2.50299013256,234.
9.88,6027.,17.,9.,3978.,0.,0.,10031.,0.866592409684,2.65075325315,221.
9.9,6028.,14.,16.,3974.,0.,0.,10032.,0.866649797571,3.21898496241,182.
9.92,6022.,21.,14.,3973.,0.,0.,10030.,0.865959812869,2.14428144139,273.
9.94,6018.,25.,11.,3974.,0.,0.,10028.,0.865557209045,1.80035899481,325.
9.96,6013.,19.,17.,3977.,0.,0.,10026.,0.865010587856,2.36739739834,247.
9.98,6011.,20.,16.,3980.,0.,0.,10027.,0.864636634932,2.24805525082,260.
10.,6005.,24.,13.,3984.,0.,0.,10026.,0.863859733923,1.87169609017,312.
