t,prevalence
5.,0
5.02,0
5.04,0
5.06,2
5.08,1
5.1,3
5.12,4
5.14,0
5.16,1
5.18,0
5.2,2
5.22,3
5.24,1
5.26,0
5.28,0
5.3,2
5.32,1
5.34,2
5.36,1
5.38,1
5.4,1
5.42,0
5.44,0
5.46,2
5.48,2
5.5,6
5.52,1
5.54,1
5.56,1
5.58,2
5.6,1
5.62,0
5.64,4
5.66,1
5.68,0
5.7,0
5.72,1
5.74,0
5.76,0
5.78,0
5.8,2
5.82,1
5.84,2
5.86,3
5.88,1
5.9,0
5.92,0
5.94,3
5.96,2
5.98,1
6.,3
6.02,7
6.04,1
6.06,2
6.08,5
6.1,5
6.12,0
6.14,4
6.16,2
6.18,3
6.2,0
6.22,0
6.24,2
6.26,1
6.28,1
6.3,2
6.32,1
6.34,8
6.36,3
6.38,3
6.4,4
6.42,3
6.44,1
6.46,3
6.48,7
6.5,3
6.52,2
6.54,5
6.56,7
6.58,5
6.6,1
6.62,8
6.64,1
6.66,1
6.68,6
6.7,1
6.72,2
6.74,3
6.76,2
6.78,2
6.8,0
6.82,0
6.84,3
6.86,1
6.88,1
6.9,2
6.92,3
6.94,1
6.96,3
6.98,1
7.,4
7.02,0
7.04,3
7.06,2
7.08,7
7.1,5
7.12,11
7.14,2
7.16,7
7.18,6
7.2,4
7.22,5
7.24,0
7.26,3
7.28,2
7.3,2
7.32,5
7.34,1
7.36,2
7.38,5
7.4,3
7.42,3
7.44,1
7.46,4
7.48,3
7.5,2
7.52,3
7.54,2
7.56,4
7.58,2
7.6,4
7.62,3
7.64,3
7.66,8
7.68,6
7.7,9
7.72,2
7.74,3
7.76,3
7.78,2
7.8,5
7.82,5
7.84,10
7.86,3
7.88,5
7.9,6
7.92,7
7.94,4
7.96,6
7.98,3
8.,4
8.02,4
8.04,7
8.06,7
8.08,7
8.1,2
8.12,2
8.14,4
8.16,2
8.18,2
8.2,3
8.22,2
8.24,6
8.26,0
8.28,6
8.3,3
8.32,3
8.34,5
8.36,8
8.38,2
8.4,2
8.42,4
8.44,4
8.46,5
8.48,2
8.5,0
8.52,5
8.54,1
8.56,4
8.58,1
8.6,2
8.62,2
8.64,2
8.66,2
8.68,8
8.7,6
8.72,3
8.74,4
8.76,10
8.78,5
8.8,0
8.82,6
8.84,5
8.86,6
8.88,3
8.9,7
8.92,8
8.94,5
8.96,8
8.98,3
9.,7
9.02,4
9.04,5
9.06,7
9.08,5
9.1,2
9.12,3
9.14,7
9.16,1
9.18,4
9.2,3
9.22,1
9.24,3
9.26,2
9.28,3
9.3,2
9.32,2
9.34,3
9.36,1
9.38,2
9.4,0
9.42,0
9.44,3
9.46,1
9.48,2
9.5,2
9.52,2
9.54,1
9.56,2
9.58,1
9.6,2
9.62,0
9.64,3
9.66,0
9.68,0
9.7,1
9.72,5
9.74,3
9.76,2
9.78,4
9.8,1
9.82,2
9.84,2
9.86,2
9.88,8
9.9,5
9.92,2
9.94,4
9.96,10
9.98,4
10.,2
