t,cases
5.01,0.65
5.02,0.65
5.03,0.52
5.04,0.52
5.05,0.455
5.06,0.455
5.07,0.52
5.08,0.52
5.09,0.52
5.1,0.52
5.11,0.39
5.12,0.39
5.13,0.325
5.14,0.325
5.15,0.585
5.16,0.585
5.17,0.715
5.18,0.715
5.19,0.65
5.2,0.65
5.21,0.845
5.22,0.845
5.23,1.17
5.24,1.17
5.25,1.3
5.26,1.3
5.27,1.235
5.28,1.235
5.29,1.105
5.3,1.105
5.31,1.365
5.32,1.365
5.33,1.755
5.34,1.755
5.35,1.755
5.36,1.755
5.37,1.56
5.38,1.56
5.39,1.365
5.4,1.365
5.41,1.495
5.42,1.495
5.43,1.82
5.44,1.82
5.45,1.69
5.46,1.69
5.47,1.56
5.48,1.56
5.49,1.82
5.5,1.82
5.51,1.69
5.52,1.69
5.53,1.3
5.54,1.3
5.55,1.43
5.56,1.43
5.57,1.56
5.58,1.56
5.59,1.56
5.6,1.56
5.61,1.95
5.62,1.95
5.63,2.08
5.64,2.08
5.65,2.405
5.66,2.405
5.67,2.34
5.68,2.34
5.69,2.34
5.7,2.34
5.71,2.34
5.72,2.34
5.73,2.08
5.74,2.08
5.75,2.145
5.76,2.145
5.77,2.015
5.78,2.015
5.79,2.47
5.8,2.47
5.81,3.12
5.82,3.12
5.83,3.055
5.84,3.055
5.85,3.705
5.86,3.705
5.87,4.29
5.88,4.29
5.89,4.03
5.9,4.03
5.91,4.225
5.92,4.225
5.93,4.095
5.94,4.095
5.95,3.9
5.96,3.9
5.97,4.095
5.98,4.095
5.99,3.64
6.,3.64
6.01,3.9
6.02,3.9
6.03,4.485
6.04,4.485
6.05,3.38
6.06,3.38
6.07,3.055
6.08,3.055
6.09,3.25
6.1,3.25
6.11,2.795
6.12,2.795
6.13,2.145
6.14,2.145
6.15,2.015
6.16,2.015
6.17,2.34
6.18,2.34
6.19,2.99
6.2,2.99
6.21,3.445
6.22,3.445
6.23,3.64
6.24,3.64
6.25,3.38
6.26,3.38
6.27,2.73
6.28,2.73
6.29,2.405
6.3,2.405
6.31,2.6
6.32,2.6
6.33,3.445
6.34,3.445
6.35,3.77
6.36,3.77
6.37,3.575
6.38,3.575
6.39,3.38
6.4,3.38
6.41,3.965
6.42,3.965
6.43,4.81
6.44,4.81
6.45,4.94
6.46,4.94
6.47,4.42
6.48,4.42
6.49,3.9
6.5,3.9
6.51,4.16
6.52,4.16
6.53,4.55
6.54,4.55
6.55,4.55
6.56,4.55
6.57,4.29
6.58,4.29
6.59,4.03
6.6,4.03
6.61,4.03
6.62,4.03
6.63,3.9
6.64,3.9
6.65,3.315
6.66,3.315
6.67,3.64
6.68,3.64
6.69,3.965
6.7,3.965
6.71,3.445
6.72,3.445
6.73,3.055
6.74,3.055
6.75,3.25
6.76,3.25
6.77,3.25
6.78,3.25
6.79,2.47
6.8,2.47
6.81,2.795
6.82,2.795
6.83,3.185
6.84,3.185
6.85,3.25
6.86,3.25
6.87,2.99
6.88,2.99
6.89,2.795
6.9,2.795
6.91,2.665
6.92,2.665
6.93,2.47
6.94,2.47
6.95,2.665
6.96,2.665
6.97,2.47
6.98,2.47
6.99,2.21
7.,2.21
7.01,2.275
7.02,2.275
7.03,2.34
7.04,2.34
7.05,2.08
7.06,2.08
7.07,2.275
7.08,2.275
7.09,2.6
7.1,2.6
7.11,2.405
7.12,2.405
7.13,1.69
7.14,1.69
7.15,1.17
7.16,1.17
7.17,1.3
7.18,1.3
7.19,1.43
7.2,1.43
7.21,1.365
7.22,1.365
7.23,1.43
7.24,1.43
7.25,1.56
7.26,1.56
7.27,1.56
7.28,1.56
7.29,1.43
7.3,1.43
7.31,1.3
7.32,1.3
7.33,1.43
7.34,1.43
7.35,1.3
7.36,1.3
7.37,0.975
7.38,0.975
7.39,0.845
7.4,0.845
7.41,0.715
7.42,0.715
7.43,0.65
7.44,0.65
7.45,0.715
7.46,0.715
7.47,0.52
7.48,0.52
7.49,0.455
7.5,0.455
7.51,0.455
7.52,0.455
7.53,0.26
7.54,0.26
7.55,0.52
7.56,0.52
7.57,0.585
7.58,0.585
7.59,0.65
7.6,0.65
7.61,0.845
7.62,0.845
7.63,0.91
7.64,0.91
7.65,1.04
7.66,1.04
7.67,0.975
7.68,0.975
7.69,0.78
7.7,0.78
7.71,0.78
7.72,0.78
7.73,0.845
7.74,0.845
7.75,0.78
7.76,0.78
7.77,0.845
7.78,0.845
7.79,0.845
7.8,0.845
7.81,0.585
7.82,0.585
7.83,0.26
7.84,0.26
7.85,0.39
7.86,0.39
7.87,0.715
7.88,0.715
7.89,0.78
7.9,0.78
7.91,0.78
7.92,0.78
7.93,0.715
7.94,0.715
7.95,0.715
7.96,0.715
7.97,0.78
7.98,0.78
7.99,0.845
8.,0.845
8.01,0.975
8.02,0.975
8.03,1.105
8.04,1.105
8.05,1.105
8.06,1.105
8.07,0.845
8.08,0.845
8.09,0.91
8.1,0.91
8.11,1.17
8.12,1.17
8.13,1.365
8.14,1.365
8.15,1.625
8.16,1.625
8.17,1.43
8.18,1.43
8.19,1.43
8.2,1.43
8.21,1.885
8.22,1.885
8.23,2.08
8.24,2.08
8.25,1.95
8.26,1.95
8.27,1.3
8.28,1.3
8.29,1.495
8.3,1.495
8.31,1.95
8.32,1.95
8.33,1.885
8.34,1.885
8.35,2.145
8.36,2.145
8.37,2.405
8.38,2.405
8.39,2.6
8.4,2.6
8.41,2.275
8.42,2.275
8.43,1.69
8.44,1.69
8.45,1.69
8.46,1.69
8.47,2.405
8.48,2.405
8.49,2.99
8.5,2.99
8.51,3.12
8.52,3.12
8.53,2.99
8.54,2.99
8.55,2.795
8.56,2.795
8.57,2.925
8.58,2.925
8.59,3.25
8.6,3.25
8.61,2.99
8.62,2.99
8.63,2.535
8.64,2.535
8.65,2.145
8.66,2.145
8.67,2.015
8.68,2.015
8.69,2.535
8.7,2.535
8.71,2.6
8.72,2.6
8.73,1.885
8.74,1.885
8.75,1.495
8.76,1.495
8.77,1.82
8.78,1.82
8.79,1.95
8.8,1.95
8.81,1.69
8.82,1.69
8.83,1.69
8.84,1.69
8.85,1.56
8.86,1.56
8.87,1.82
8.88,1.82
8.89,2.275
8.9,2.275
8.91,2.015
8.92,2.015
8.93,1.82
8.94,1.82
8.95,1.56
8.96,1.56
8.97,1.365
8.98,1.365
8.99,1.755
9.,1.755
9.01,2.145
9.02,2.145
9.03,2.34
9.04,2.34
9.05,2.665
9.06,2.665
9.07,3.055
9.08,3.055
9.09,3.315
9.1,3.315
9.11,3.25
9.12,3.25
9.13,3.51
9.14,3.51
9.15,3.575
9.16,3.575
9.17,3.25
9.18,3.25
9.19,2.925
9.2,2.925
9.21,2.925
9.22,2.925
9.23,3.12
9.24,3.12
9.25,3.575
9.26,3.575
9.27,3.9
9.28,3.9
9.29,3.315
9.3,3.315
9.31,3.25
9.32,3.25
9.33,3.77
9.34,3.77
9.35,4.42
9.36,4.42
9.37,4.095
9.38,4.095
9.39,3.12
9.4,3.12
9.41,3.12
9.42,3.12
9.43,3.38
9.44,3.38
9.45,3.705
9.46,3.705
9.47,3.64
9.48,3.64
9.49,3.575
9.5,3.575
9.51,4.03
9.52,4.03
9.53,4.03
9.54,4.03
9.55,3.835
9.56,3.835
9.57,3.965
9.58,3.965
9.59,3.965
9.6,3.965
9.61,4.03
9.62,4.03
9.63,4.095
9.64,4.095
9.65,4.16
9.66,4.16
9.67,4.485
9.68,4.485
9.69,4.615
9.7,4.615
9.71,4.095
9.72,4.095
9.73,3.38
9.74,3.38
9.75,3.315
9.76,3.315
9.77,3.12
9.78,3.12
9.79,2.6
9.8,2.6
9.81,2.34
9.82,2.34
9.83,2.73
9.84,2.73
9.85,2.665
9.86,2.665
9.87,2.275
9.88,2.275
9.89,2.6
9.9,2.6
9.91,2.795
9.92,2.795
9.93,3.12
9.94,3.12
9.95,3.445
9.96,3.445
9.97,3.25
9.98,3.25
9.99,3.12
10.,3.12
