t,s,e,i,r,c,o,n,reff,coal,reportr
5.,6250.,5.,3.,3734.,0.,0.,9992.,0.902164038923,9.3825060048,65.
5.02,6252.,5.,5.,3728.,0.,0.,9990.,0.902633402633,9.38738738739,65.
5.04,6257.,9.,2.,3722.,0.,0.,9990.,0.903355278355,5.21938605272,117.
5.06,6257.,10.,5.,3717.,0.,0.,9989.,0.903445713362,4.69791770948,130.
5.08,6261.,10.,6.,3711.,0.,0.,9988.,0.904113782693,4.70139167,130.
5.1,6262.,11.,3.,3710.,0.,0.,9986.,0.904439291932,4.27553119822,143.
5.12,6270.,9.,3.,3706.,0.,0.,9988.,0.90541341918,5.23127753304,117.
5.14,6276.,7.,2.,3701.,0.,0.,9986.,0.906461353587,6.73371291236,91.
5.16,6287.,8.,2.,3690.,0.,0.,9987.,0.907959193105,5.90173475518,104.
5.18,6294.,5.,6.,3681.,0.,0.,9986.,0.909061147144,9.4542359303,65.
5.2,6298.,8.,5.,3679.,0.,0.,9990.,0.909274659275,5.91028528529,104.
5.22,6299.,8.,5.,3678.,0.,0.,9990.,0.909419034419,5.91122372372,104.
5.24,6301.,10.,3.,3678.,0.,0.,9992.,0.909525697481,4.7295336269,130.
5.26,6304.,8.,8.,3673.,0.,0.,9993.,0.909867676604,5.91413989793,104.
5.28,6308.,10.,10.,3666.,0.,0.,9994.,0.91035390465,4.73384030418,130.
5.3,6304.,13.,6.,3665.,0.,0.,9988.,0.910323157019,3.64129262808,169.
5.32,6311.,12.,7.,3658.,0.,0.,9988.,0.911333985398,3.94911393672,156.
5.34,6313.,9.,8.,3659.,0.,0.,9989.,0.911531530838,5.26662662262,117.
5.36,6317.,14.,5.,3656.,0.,0.,9992.,0.911835237421,3.38681659613,182.
5.38,6316.,13.,7.,3656.,0.,0.,9992.,0.911690891174,3.6467635647,169.
5.4,6331.,9.,8.,3648.,0.,0.,9996.,0.913490396158,5.27794451114,117.
5.42,6331.,12.,11.,3644.,0.,0.,9998.,0.913307661532,3.95766653331,156.
5.44,6321.,9.,13.,3653.,0.,0.,9996.,0.912047511312,5.26960784314,117.
5.46,6313.,16.,7.,3659.,0.,0.,9995.,0.910984338323,2.96069909955,208.
5.48,6309.,15.,3.,3669.,0.,0.,9996.,0.910316049497,3.15576230492,195.
5.5,6308.,16.,5.,3668.,0.,0.,9997.,0.910080716523,2.9577623287,208.
5.52,6304.,10.,11.,3670.,0.,0.,9995.,0.909685612037,4.73036518259,130.
5.54,6298.,13.,8.,3676.,0.,0.,9995.,0.908819794513,3.63527917805,169.
5.56,6302.,14.,5.,3675.,0.,0.,9996.,0.909306030104,3.37742239753,182.
5.58,6306.,13.,6.,3672.,0.,0.,9997.,0.90979216842,3.63916867368,169.
5.6,6295.,21.,4.,3674.,0.,0.,9994.,0.908477778975,2.24956402413,273.
5.62,6289.,21.,7.,3678.,0.,0.,9995.,0.907521068226,2.24719502608,273.
5.64,6297.,14.,10.,3674.,0.,0.,9995.,0.908675491592,3.37508039734,182.
5.66,6300.,20.,7.,3672.,0.,0.,9999.,0.908744720626,2.36273627363,260.
5.68,6301.,15.,9.,3677.,0.,0.,10002.,0.908616353652,3.14987002599,195.
5.7,6301.,14.,7.,3680.,0.,0.,10002.,0.908616353652,3.37486074214,182.
5.72,6306.,12.,5.,3677.,0.,0.,10000.,0.909519230769,3.94125,156.
5.74,6311.,11.,9.,3671.,0.,0.,10002.,0.910058372941,4.30209412663,143.
5.76,6314.,14.,3.,3671.,0.,0.,10002.,0.910490978727,3.38182363527,182.
5.78,6314.,14.,0.,3672.,0.,0.,10000.,0.910673076923,3.3825,182.
5.8,6321.,12.,8.,3662.,0.,0.,10003.,0.911409269527,3.94944016795,156.
5.82,6329.,14.,3.,3658.,0.,0.,10004.,0.912471549842,3.38918004227,182.
5.84,6336.,7.,4.,3654.,0.,0.,10001.,0.913754778368,6.78789263931,91.
5.86,6341.,3.,9.,3645.,0.,0.,9998.,0.914750257744,15.8556711342,39.
5.88,6338.,8.,1.,3650.,0.,0.,9997.,0.914408938066,5.94365809743,104.
5.9,6340.,8.,5.,3646.,0.,0.,9999.,0.914514528376,5.94434443444,104.
5.92,6343.,12.,6.,3639.,0.,0.,10000.,0.914855769231,3.964375,156.
5.94,6347.,14.,7.,3632.,0.,0.,10000.,0.915432692308,3.40017857143,182.
5.96,6347.,18.,8.,3629.,0.,0.,10002.,0.915249642379,2.64405452243,234.
5.98,6345.,12.,9.,3632.,0.,0.,9998.,0.915327296228,3.96641828366,156.
6.,6353.,9.,10.,3630.,0.,0.,10002.,0.916114853952,5.29310804506,117.
6.02,6344.,16.,12.,3626.,0.,0.,9998.,0.915183036607,2.97434486897,208.
6.04,6340.,19.,11.,3628.,0.,0.,9998.,0.914605998123,2.50313220539,247.
6.06,6336.,20.,13.,3627.,0.,0.,9996.,0.914211838582,2.37695078031,260.
6.08,6331.,24.,13.,3630.,0.,0.,9998.,0.913307661532,1.97883326665,312.
6.1,6327.,23.,11.,3638.,0.,0.,9999.,0.912639340857,2.06335850976,299.
6.12,6327.,21.,12.,3641.,0.,0.,10001.,0.91245683124,2.25941691545,273.
6.14,6319.,26.,13.,3639.,0.,0.,9997.,0.911667731089,1.82333546218,338.
6.16,6302.,34.,16.,3642.,0.,0.,9994.,0.909488000493,1.39098164781,442.
6.18,6283.,37.,19.,3656.,0.,0.,9995.,0.906655250702,1.27421819018,481.
6.2,6271.,39.,16.,3671.,0.,0.,9997.,0.904742576619,1.20632343549,507.
6.22,6255.,43.,12.,3686.,0.,0.,9996.,0.902524471327,1.09142494207,559.
6.24,6253.,40.,10.,3695.,0.,0.,9998.,0.902055411082,1.17267203441,520.
6.26,6255.,25.,25.,3693.,0.,0.,9998.,0.902343930325,1.87687537508,325.
6.28,6233.,44.,9.,3714.,0.,0.,10000.,0.898990384615,1.06244318182,572.
6.3,6235.,44.,8.,3719.,0.,0.,10006.,0.898739602392,1.06214680283,572.
6.32,6242.,30.,11.,3722.,0.,0.,10005.,0.899838542267,1.55972013993,390.
6.34,6241.,27.,18.,3724.,0.,0.,10010.,0.899244985783,1.73187923188,351.
6.36,6218.,39.,13.,3738.,0.,0.,10008.,0.896110035049,1.19481338007,507.
6.38,6206.,29.,18.,3751.,0.,0.,10004.,0.894738258543,1.6043582567,377.
6.4,6203.,25.,20.,3756.,0.,0.,10004.,0.894305739243,1.86015593762,325.
6.42,6186.,31.,13.,3770.,0.,0.,10000.,0.892211538462,1.49661290323,403.
6.44,6177.,33.,19.,3774.,0.,0.,10003.,0.890646267658,1.40344260358,429.
6.46,6168.,34.,14.,3785.,0.,0.,10001.,0.889526431972,1.36045219008,442.
6.48,6158.,35.,22.,3788.,0.,0.,10003.,0.887906704912,1.31917567587,455.
6.5,6150.,37.,28.,3789.,0.,0.,10004.,0.886664564943,1.24612317235,481.
6.52,6130.,50.,20.,3802.,0.,0.,10002.,0.88395782382,0.919316136773,650.
6.54,6122.,39.,17.,3820.,0.,0.,9998.,0.883157400711,1.17754320095,507.
6.56,6116.,37.,20.,3825.,0.,0.,9998.,0.882291842984,1.23997772527,481.
6.58,6113.,33.,19.,3837.,0.,0.,10002.,0.881506391029,1.38904037374,429.
6.6,6104.,34.,18.,3846.,0.,0.,10002.,0.88020857367,1.34620134797,442.
6.62,6092.,34.,18.,3856.,0.,0.,10000.,0.878653846154,1.34382352941,442.
6.64,6081.,30.,21.,3868.,0.,0.,10000.,0.877067307692,1.52025,390.
6.66,6065.,32.,18.,3883.,0.,0.,9998.,0.874934602305,1.42176872875,416.
6.68,6052.,27.,18.,3900.,0.,0.,9997.,0.873146559352,1.68161559579,351.
6.7,6035.,42.,15.,3904.,0.,0.,9996.,0.87078100471,1.07810981535,546.
6.72,6021.,36.,20.,3916.,0.,0.,9993.,0.869021776782,1.25525367757,468.
6.74,6006.,32.,27.,3927.,0.,0.,9992.,0.866943554844,1.40878327662,416.
6.76,5988.,37.,17.,3948.,0.,0.,9990.,0.864518364518,1.21499878257,481.
6.78,5978.,36.,14.,3963.,0.,0.,9991.,0.862988227867,1.24653855136,468.
6.8,5970.,36.,17.,3972.,0.,0.,9995.,0.861488436526,1.24437218609,468.
6.82,5962.,35.,18.,3978.,0.,0.,9993.,0.860506200494,1.27846635502,455.
6.84,5951.,37.,19.,3986.,0.,0.,9993.,0.858918550678,1.20712877393,481.
6.86,5949.,34.,18.,3989.,0.,0.,9990.,0.858887733888,1.31359300477,442.
6.88,5939.,39.,13.,4000.,0.,0.,9991.,0.857358160806,1.14314421441,507.
6.9,5927.,32.,26.,4004.,0.,0.,9989.,0.855797146091,1.3906703624,416.
6.92,5901.,32.,28.,4026.,0.,0.,9987.,0.852213646972,1.38484717633,416.
6.94,5884.,33.,23.,4045.,0.,0.,9985.,0.849928739263,1.33928164975,429.
6.96,5867.,41.,21.,4056.,0.,0.,9985.,0.847473132776,1.07484397328,533.
6.98,5847.,44.,21.,4075.,0.,0.,9987.,0.844415047254,0.997945055845,572.
7.,5833.,43.,18.,4089.,0.,0.,9983.,0.842730719146,1.0191162185,559.
7.02,5828.,34.,13.,4109.,0.,0.,9984.,0.841924001479,1.28764847285,442.
7.04,5821.,34.,16.,4118.,0.,0.,9989.,0.840491848726,1.28545812158,442.
7.06,5823.,29.,12.,4124.,0.,0.,9988.,0.840864806999,1.50775758496,377.
7.08,5816.,24.,8.,4136.,0.,0.,9984.,0.84019045858,1.82041266026,312.
7.1,5817.,23.,10.,4141.,0.,0.,9991.,0.839746156156,1.89855652696,299.
7.12,5817.,20.,17.,4138.,0.,0.,9992.,0.839662114307,2.1831214972,260.
7.14,5817.,21.,11.,4145.,0.,0.,9994.,0.839494081064,2.07874724835,273.
7.16,5815.,17.,13.,4146.,0.,0.,9991.,0.839457434768,2.56775215341,221.
7.18,5813.,19.,6.,4153.,0.,0.,9991.,0.839168713381,2.2966722682,247.
7.2,5824.,16.,7.,4147.,0.,0.,9994.,0.840504302582,2.73163898339,208.
7.22,5827.,20.,12.,4142.,0.,0.,10001.,0.840348657442,2.18490650935,260.
7.24,5822.,23.,11.,4145.,0.,0.,10001.,0.839627575704,1.89828843203,299.
7.26,5812.,27.,12.,4146.,0.,0.,9997.,0.838520787005,1.61492892312,351.
7.28,5808.,25.,18.,4143.,0.,0.,9994.,0.838195224827,1.74344606764,325.
7.3,5798.,31.,12.,4156.,0.,0.,9997.,0.836500950285,1.40316288435,403.
7.32,5799.,11.,31.,4160.,0.,0.,10001.,0.836310599709,3.95346828953,143.
7.34,5789.,19.,19.,4176.,0.,0.,10003.,0.834701512623,2.28444624507,247.
7.36,5783.,26.,6.,4188.,0.,0.,10003.,0.833836387545,1.66767277509,338.
7.38,5789.,18.,12.,4186.,0.,0.,10005.,0.834534655749,2.41087789439,234.
7.4,5790.,22.,12.,4186.,0.,0.,10010.,0.834261891954,1.97189174462,286.
7.42,5793.,19.,12.,4191.,0.,0.,10015.,0.834277430009,2.28328559792,247.
7.44,5796.,18.,8.,4191.,0.,0.,10013.,0.834876199402,2.41186457605,234.
7.46,5792.,20.,7.,4194.,0.,0.,10013.,0.834300025352,2.16918006591,260.
7.48,5796.,20.,11.,4183.,0.,0.,10010.,0.835126412049,2.17132867133,260.
7.5,5794.,19.,16.,4180.,0.,0.,10009.,0.83492164744,2.28504871931,247.
7.52,5797.,25.,6.,4182.,0.,0.,10010.,0.835270498732,1.73736263736,325.
7.54,5797.,23.,10.,4179.,0.,0.,10009.,0.835353950675,1.88862632327,299.
7.56,5798.,19.,13.,4181.,0.,0.,10011.,0.835331135751,2.28616942416,247.
7.58,5792.,15.,11.,4190.,0.,0.,10008.,0.834716841911,2.89368505196,195.
7.6,5792.,11.,13.,4191.,0.,0.,10007.,0.834800255206,3.94632847916,143.
7.62,5796.,7.,13.,4192.,0.,0.,10008.,0.835293303818,6.20503597122,91.
7.64,5793.,13.,12.,4188.,0.,0.,10006.,0.835027829456,3.34011131782,169.
7.66,5786.,11.,18.,4191.,0.,0.,10006.,0.834018819478,3.94263441935,143.
7.68,5778.,20.,8.,4198.,0.,0.,10004.,0.833032171747,2.16588364654,260.
7.7,5777.,20.,7.,4202.,0.,0.,10006.,0.832721520934,2.16507595443,260.
7.72,5772.,19.,9.,4206.,0.,0.,10006.,0.83200079952,2.27705481974,247.
7.74,5781.,14.,8.,4202.,0.,0.,10005.,0.83338138623,3.09541657743,182.
7.76,5782.,14.,8.,4201.,0.,0.,10005.,0.83352554492,3.09595202399,182.
7.78,5788.,11.,12.,4191.,0.,0.,10002.,0.834640764155,3.94557452146,143.
7.8,5786.,15.,8.,4196.,0.,0.,10005.,0.834102179679,2.89155422289,195.
7.82,5790.,10.,5.,4202.,0.,0.,10007.,0.834511995449,4.33946237634,130.
7.84,5790.,12.,6.,4195.,0.,0.,10003.,0.834845700136,3.61766470059,156.
7.86,5805.,6.,5.,4188.,0.,0.,10004.,0.836924845446,7.25334866054,78.
7.88,5809.,7.,2.,4183.,0.,0.,10001.,0.837752763185,6.2233062408,91.
7.9,5812.,8.,4.,4176.,0.,0.,10000.,0.838269230769,5.44875,104.
7.92,5814.,7.,6.,4171.,0.,0.,9998.,0.838725437395,6.23053182065,91.
7.94,5818.,10.,3.,4167.,0.,0.,9998.,0.83930247588,4.36437287457,130.
7.96,5826.,9.,5.,4157.,0.,0.,9997.,0.840540623726,4.85645693708,117.
7.98,5821.,15.,6.,4154.,0.,0.,9996.,0.839903269,2.91166466587,195.
8.,5831.,15.,2.,4150.,0.,0.,9998.,0.841177850955,2.91608321664,195.
8.02,5841.,13.,7.,4143.,0.,0.,10004.,0.842115077046,3.36846030818,169.
8.04,5853.,7.,8.,4143.,0.,0.,10011.,0.843255111685,6.26418082966,91.
8.06,5864.,6.,9.,4137.,0.,0.,10016.,0.84441816171,7.31829073482,78.
8.08,5866.,7.,1.,4139.,0.,0.,10013.,0.844959245289,6.27684010786,91.
8.1,5869.,2.,9.,4132.,0.,0.,10012.,0.845475813639,21.9823711546,26.
8.12,5866.,4.,6.,4135.,0.,0.,10011.,0.845128051451,10.9866646689,52.
8.14,5866.,5.,5.,4134.,0.,0.,10010.,0.845212479828,8.79020979021,65.
8.16,5866.,12.,3.,4127.,0.,0.,10008.,0.845381387198,3.66331934452,156.
8.18,5868.,7.,5.,4126.,0.,0.,10006.,0.845838650656,6.28337283344,91.
8.2,5874.,9.,3.,4119.,0.,0.,10005.,0.846788144389,4.89255372314,117.
8.22,5879.,7.,3.,4117.,0.,0.,10006.,0.847424237765,6.29515148054,91.
8.24,5891.,6.,3.,4108.,0.,0.,10008.,0.848984274119,7.35786370903,78.
8.26,5899.,6.,4.,4100.,0.,0.,10009.,0.850052260658,7.36711959237,78.
8.28,5903.,3.,6.,4096.,0.,0.,10008.,0.850713659841,14.7457034373,39.
8.3,5903.,6.,3.,4093.,0.,0.,10005.,0.850968746396,7.37506246877,78.
8.32,5911.,2.,7.,4085.,0.,0.,10005.,0.852122015915,22.1551724138,26.
8.34,5913.,7.,3.,4086.,0.,0.,10009.,0.852069675753,6.32966044845,91.
8.36,5915.,8.,4.,4082.,0.,0.,10009.,0.85235787791,5.54032620641,104.
8.38,5918.,9.,6.,4074.,0.,0.,10007.,0.852960619874,4.92821691483,117.
8.4,5915.,11.,8.,4072.,0.,0.,10006.,0.852613431941,4.03053622372,143.
8.42,5917.,12.,6.,4071.,0.,0.,10006.,0.852901720506,3.69590745553,156.
8.44,5919.,12.,9.,4063.,0.,0.,10003.,0.85344588931,3.69826552034,156.
8.46,5918.,15.,9.,4062.,0.,0.,10004.,0.853216405745,2.95781687325,195.
8.48,5926.,17.,7.,4059.,0.,0.,10009.,0.853942989771,2.61206090989,221.
8.5,5931.,19.,6.,4052.,0.,0.,10008.,0.854748893193,2.33931276032,247.
8.52,5932.,13.,12.,4053.,0.,0.,10010.,0.854722200876,3.4188888035,169.
8.54,5935.,17.,0.,4056.,0.,0.,10008.,0.855325355101,2.61628932148,221.
8.56,5939.,12.,5.,4052.,0.,0.,10008.,0.855901817008,3.7089078737,156.
8.58,5935.,11.,6.,4050.,0.,0.,10002.,0.855838447695,4.04578175274,143.
8.6,5925.,19.,6.,4052.,0.,0.,10002.,0.854396428407,2.33834811985,247.
8.62,5934.,17.,5.,4048.,0.,0.,10004.,0.855523175345,2.6168944187,221.
8.64,5934.,6.,13.,4049.,0.,0.,10002.,0.855694245766,7.41601679664,78.
8.66,5936.,11.,2.,4056.,0.,0.,10005.,0.855725983162,4.04525010222,143.
8.68,5939.,8.,3.,4056.,0.,0.,10006.,0.856072894725,5.56447381571,104.
8.7,5947.,5.,5.,4049.,0.,0.,10006.,0.857226048986,8.91515090945,65.
8.72,5958.,5.,3.,4043.,0.,0.,10009.,0.858554224275,8.92896393246,65.
8.74,5965.,5.,3.,4039.,0.,0.,10012.,0.859305372015,8.93677586896,65.
8.76,5974.,3.,3.,4034.,0.,0.,10014.,0.860430013366,14.9141202317,39.
8.78,5984.,2.,6.,4020.,0.,0.,10012.,0.86204247211,22.4131042749,26.
8.8,5992.,6.,2.,4012.,0.,0.,10012.,0.863194935308,7.48102277267,78.
8.82,5992.,7.,1.,4008.,0.,0.,10008.,0.863539937281,6.41486810552,91.
8.84,6001.,3.,7.,3999.,0.,0.,10010.,0.864664181972,14.9875124875,39.
8.86,5999.,7.,5.,3998.,0.,0.,10009.,0.864462368484,6.42172045159,91.
8.88,6002.,8.,4.,3992.,0.,0.,10006.,0.865153984532,5.62350089946,104.
8.9,6004.,8.,4.,3991.,0.,0.,10007.,0.865355789409,5.62481263116,104.
8.92,6008.,2.,8.,3985.,0.,0.,10003.,0.866278577965,22.5232430271,26.
8.94,6006.,11.,4.,3982.,0.,0.,10003.,0.865990202939,4.09377186844,143.
8.96,6016.,7.,4.,3979.,0.,0.,10006.,0.86717200449,6.44184917621,91.
8.98,6027.,4.,4.,3972.,0.,0.,10007.,0.86867077661,11.2927200959,52.
9.,6034.,4.,3.,3965.,0.,0.,10006.,0.869766601578,11.3069658205,52.
9.02,6040.,3.,2.,3959.,0.,0.,10004.,0.870805523944,15.093962415,39.
9.04,6044.,3.,2.,3954.,0.,0.,10003.,0.871469328432,15.1054683595,39.
9.06,6051.,4.,1.,3946.,0.,0.,10002.,0.872565871441,11.3433563287,52.
9.08,6057.,3.,1.,3941.,0.,0.,10002.,0.873431083014,15.1394721056,39.
9.1,6062.,0.,2.,3938.,0.,0.,10002.,0.874152092658,inf,0.
9.12,6068.,0.,2.,3933.,0.,0.,10003.,0.874929828744,inf,0.
9.14,6072.,1.,0.,3928.,0.,0.,10001.,0.875681662603,45.5354464554,13.
9.16,6084.,0.,0.,3914.,0.,0.,9998.,0.877675535107,inf,0.
9.18,6094.,0.,0.,3908.,0.,0.,10002.,0.878766554381,inf,0.
9.2,6101.,1.,0.,3899.,0.,0.,10001.,0.879863936683,45.7529247075,13.
9.22,6113.,1.,1.,3891.,0.,0.,10006.,0.881153999908,45.8200079952,13.
9.24,6119.,2.,0.,3883.,0.,0.,10004.,0.882195198844,22.9370751699,26.
9.26,6123.,2.,2.,3875.,0.,0.,10002.,0.882948410318,22.9566586683,26.
9.28,6131.,1.,2.,3866.,0.,0.,10000.,0.884278846154,45.9825,13.
9.3,6138.,4.,0.,3858.,0.,0.,10000.,0.885288461538,11.50875,52.
9.32,6148.,5.,3.,3847.,0.,0.,10003.,0.886464829782,9.21923422973,65.
9.34,6152.,6.,4.,3839.,0.,0.,10001.,0.887218970411,7.68923107689,78.
9.36,6158.,8.,3.,3835.,0.,0.,10004.,0.887817949743,5.77081667333,104.
9.38,6159.,10.,5.,3828.,0.,0.,10002.,0.888139679756,4.61832633473,130.
9.4,6165.,11.,5.,3824.,0.,0.,10005.,0.888738323146,4.20130843669,143.
9.42,6163.,10.,3.,3826.,0.,0.,10002.,0.888716487472,4.62132573485,130.
9.44,6167.,10.,3.,3819.,0.,0.,9999.,0.889560109857,4.62571257126,130.
9.46,6174.,6.,7.,3814.,0.,0.,10001.,0.890391730058,7.71672832717,78.
9.48,6174.,8.,3.,3815.,0.,0.,10000.,0.890480769231,5.788125,104.
9.5,6177.,5.,6.,3812.,0.,0.,10000.,0.890913461538,9.2655,65.
9.52,6181.,11.,4.,3810.,0.,0.,10006.,0.890955811129,4.21179110715,143.
9.54,6180.,13.,8.,3805.,0.,0.,10006.,0.890811666846,3.56324666738,169.
9.56,6174.,16.,0.,3818.,0.,0.,10008.,0.889768954068,2.89174910072,208.
9.58,6175.,8.,11.,3814.,0.,0.,10008.,0.889913069544,5.78443495204,104.
9.6,6172.,15.,4.,3818.,0.,0.,10009.,0.889391855023,3.08322509741,195.
9.62,6178.,8.,14.,3810.,0.,0.,10010.,0.890167524783,5.78608891109,104.
9.64,6177.,12.,3.,3813.,0.,0.,10005.,0.890468227425,3.85869565217,156.
9.66,6177.,13.,2.,3810.,0.,0.,10002.,0.890735314476,3.5629412579,169.
9.68,6181.,13.,5.,3807.,0.,0.,10006.,0.890955811129,3.56382324451,169.
9.7,6181.,15.,7.,3802.,0.,0.,10005.,0.891044862184,3.08895552224,195.
9.72,6186.,13.,4.,3801.,0.,0.,10004.,0.891854796543,3.56741918617,169.
9.74,6193.,7.,5.,3800.,0.,0.,10005.,0.892774766463,6.6320411223,91.
9.76,6189.,5.,11.,3798.,0.,0.,10003.,0.892376517814,9.28071578526,65.
9.78,6188.,9.,6.,3800.,0.,0.,10003.,0.892232330301,5.15512013063,117.
9.8,6195.,12.,3.,3795.,0.,0.,10005.,0.893063083843,3.86994002999,156.
9.82,6204.,13.,4.,3783.,0.,0.,10004.,0.894449912343,3.57779964937,169.
9.84,6210.,9.,4.,3780.,0.,0.,10003.,0.895404455586,5.17344796561,117.
9.86,6218.,8.,1.,3777.,0.,0.,10004.,0.896468335743,5.82704418233,104.
9.88,6220.,8.,8.,3766.,0.,0.,10002.,0.896935997416,5.8300839832,104.
9.9,6220.,14.,5.,3765.,0.,0.,10004.,0.896756681943,3.33081053293,182.
9.92,6225.,11.,8.,3761.,0.,0.,10005.,0.897387844539,4.24219708328,143.
9.94,6226.,14.,4.,3759.,0.,0.,10003.,0.897711455794,3.33435683581,182.
9.96,6226.,14.,5.,3757.,0.,0.,10002.,0.897801208989,3.33469020482,182.
9.98,6230.,17.,3.,3749.,0.,0.,9999.,0.898647557063,2.74880429219,221.
10.,6231.,11.,12.,3746.,0.,0.,10000.,0.898701923077,4.24840909091,143.
