t,s,e,i,r,c,o,n,reff,coal,reportr
5.,6250.,5.,3.,3734.,0.,0.,9992.,0.902164038923,9.3825060048,65.
5.02,6256.,7.,0.,3728.,0.,0.,9991.,0.903120500758,6.70889514849,91.
5.04,6264.,6.,3.,3724.,0.,0.,9997.,0.903732658259,7.83234970491,78.
5.06,6262.,9.,4.,3720.,0.,0.,9995.,0.903624889368,5.22094380524,117.
5.08,6258.,11.,6.,3720.,0.,0.,9995.,0.903047677685,4.26895265815,143.
5.1,6261.,12.,0.,3722.,0.,0.,9995.,0.903480586447,3.91508254127,156.
5.12,6266.,11.,5.,3715.,0.,0.,9997.,0.904021206362,4.27355479371,143.
5.14,6274.,11.,2.,3713.,0.,0.,10000.,0.904903846154,4.27772727273,143.
5.16,6281.,6.,6.,3710.,0.,0.,10003.,0.905641769008,7.8488953314,78.
5.18,6283.,12.,5.,3705.,0.,0.,10005.,0.905749048553,3.92491254373,156.
5.2,6292.,8.,6.,3698.,0.,0.,10004.,0.907137145142,5.89639144342,104.
5.22,6296.,8.,5.,3694.,0.,0.,10003.,0.907804581702,5.90072978107,104.
5.24,6299.,12.,0.,3694.,0.,0.,10005.,0.908055587591,3.93490754623,156.
5.26,6307.,10.,4.,3686.,0.,0.,10007.,0.909027142539,4.7269411412,130.
5.28,6314.,9.,3.,3682.,0.,0.,10008.,0.909945120826,5.25746069811,117.
5.3,6315.,7.,7.,3679.,0.,0.,10008.,0.910089236303,6.76066289825,91.
5.32,6320.,7.,4.,3676.,0.,0.,10007.,0.910900830957,6.76669188711,91.
5.34,6324.,8.,2.,3673.,0.,0.,10007.,0.91147735047,5.92460277806,104.
5.36,6323.,6.,6.,3668.,0.,0.,10003.,0.911697644553,7.90137958612,78.
5.38,6327.,8.,3.,3666.,0.,0.,10004.,0.912183203642,5.92919082367,104.
5.4,6331.,9.,1.,3660.,0.,0.,10001.,0.91303369663,5.27530580275,117.
5.42,6341.,8.,4.,3642.,0.,0.,9995.,0.915024820102,5.94766133067,104.
5.44,6357.,7.,5.,3629.,0.,0.,9998.,0.917058411682,6.81243391535,91.
5.46,6361.,2.,8.,3625.,0.,0.,9996.,0.917819050697,23.8632953181,26.
5.48,6364.,4.,5.,3620.,0.,0.,9993.,0.918527584694,11.940858601,52.
5.5,6373.,5.,1.,3620.,0.,0.,9999.,0.91927461977,9.5604560456,65.
5.52,6375.,5.,0.,3615.,0.,0.,9995.,0.919931119406,9.56728364182,65.
5.54,6380.,4.,1.,3609.,0.,0.,9994.,0.920744754545,11.9696818091,52.
5.56,6378.,4.,6.,3601.,0.,0.,9989.,0.920916854694,11.971919111,52.
5.58,6376.,8.,4.,3601.,0.,0.,9989.,0.920628075498,5.98408249074,104.
5.6,6381.,8.,5.,3597.,0.,0.,9991.,0.92116558749,5.98757631869,104.
5.62,6382.,8.,4.,3595.,0.,0.,9989.,0.921494413085,5.98971368505,104.
5.64,6381.,9.,6.,3591.,0.,0.,9987.,0.921534533355,5.32442174827,117.
5.66,6382.,13.,6.,3589.,0.,0.,9990.,0.921402171402,3.68560868561,169.
5.68,6381.,18.,2.,3589.,0.,0.,9990.,0.921257796258,2.66141141141,234.
5.7,6384.,14.,8.,3585.,0.,0.,9991.,0.921598669572,3.4230807727,182.
5.72,6381.,16.,9.,3583.,0.,0.,9989.,0.921350023487,2.99438757633,208.
5.74,6370.,25.,6.,3586.,0.,0.,9987.,0.919945929709,1.91348753379,325.
5.76,6372.,15.,9.,3590.,0.,0.,9986.,0.920326919225,3.19046665331,195.
5.78,6365.,14.,14.,3594.,0.,0.,9987.,0.919223837142,3.41425996653,182.
5.8,6356.,18.,7.,3606.,0.,0.,9987.,0.917924070522,2.65178064818,234.
5.82,6360.,16.,10.,3604.,0.,0.,9990.,0.918225918226,2.98423423423,208.
5.84,6364.,18.,7.,3604.,0.,0.,9993.,0.918527584694,2.65352413356,234.
5.86,6365.,11.,13.,3602.,0.,0.,9991.,0.918855816389,4.34368204111,143.
5.88,6363.,17.,6.,3606.,0.,0.,9992.,0.918475164747,2.80945344511,221.
5.9,6361.,14.,10.,3606.,0.,0.,9991.,0.918278373613,3.41074824485,182.
5.92,6361.,22.,4.,3603.,0.,0.,9990.,0.91837029337,2.17069342069,286.
5.94,6362.,20.,13.,3597.,0.,0.,9992.,0.918330818501,2.3876601281,260.
5.96,6350.,27.,12.,3601.,0.,0.,9990.,0.916782166782,1.76565454343,351.
5.98,6346.,27.,6.,3614.,0.,0.,9993.,0.915929612267,1.76401258659,351.
6.,6345.,28.,9.,3613.,0.,0.,9995.,0.915602031785,1.70040377332,364.
6.02,6341.,23.,13.,3616.,0.,0.,9993.,0.91520795326,2.06916580737,299.
6.04,6329.,32.,10.,3623.,0.,0.,9994.,0.913384569203,1.48424992495,416.
6.06,6323.,26.,22.,3624.,0.,0.,9995.,0.91242736753,1.82485473506,338.
6.08,6322.,22.,12.,3638.,0.,0.,9994.,0.912374347686,2.15652118544,286.
6.1,6318.,20.,10.,3645.,0.,0.,9993.,0.911888321825,2.37090963675,260.
6.12,6315.,19.,15.,3651.,0.,0.,10000.,0.910817307692,2.49276315789,247.
6.14,6311.,15.,20.,3653.,0.,0.,9999.,0.910331417757,3.15581558156,195.
6.16,6298.,21.,11.,3669.,0.,0.,9999.,0.908456230238,2.24951066535,273.
6.18,6300.,19.,10.,3671.,0.,0.,10000.,0.908653846154,2.48684210526,247.
6.2,6304.,18.,11.,3671.,0.,0.,10004.,0.908867222342,2.6256164201,234.
6.22,6299.,23.,8.,3674.,0.,0.,10004.,0.908146356842,2.05320045895,299.
6.24,6300.,19.,16.,3673.,0.,0.,10008.,0.907927504151,2.48485422189,247.
6.26,6293.,31.,7.,3677.,0.,0.,10008.,0.906918695813,1.52128297362,403.
6.28,6285.,24.,17.,3684.,0.,0.,10010.,0.905584799816,1.9621003996,312.
6.3,6277.,19.,17.,3693.,0.,0.,10006.,0.904793662264,2.47627739146,247.
6.32,6264.,21.,17.,3703.,0.,0.,10005.,0.903010033445,2.23602484472,273.
6.34,6259.,26.,7.,3712.,0.,0.,10004.,0.902379432842,1.80475886568,338.
6.36,6258.,28.,3.,3717.,0.,0.,10006.,0.902054920894,1.67524485309,364.
6.38,6247.,25.,11.,3722.,0.,0.,10005.,0.900559335717,1.87316341829,325.
6.4,6237.,24.,16.,3729.,0.,0.,10006.,0.899027890958,1.94789376374,312.
6.42,6233.,31.,12.,3729.,0.,0.,10005.,0.898541114058,1.50723025584,403.
6.44,6228.,24.,18.,3734.,0.,0.,10004.,0.897910066743,1.94547181128,312.
6.46,6228.,21.,24.,3731.,0.,0.,10004.,0.897910066743,2.22339635574,273.
6.48,6218.,26.,21.,3746.,0.,0.,10011.,0.89584149743,1.79168299486,338.
6.5,6215.,31.,13.,3749.,0.,0.,10008.,0.895677688618,1.50242709059,403.
6.52,6218.,19.,21.,3749.,0.,0.,10007.,0.896199583369,2.45275675448,247.
6.54,6204.,27.,16.,3757.,0.,0.,10004.,0.894449912343,1.72264427562,351.
6.56,6201.,27.,11.,3767.,0.,0.,10006.,0.893838696782,1.72146711973,351.
6.58,6196.,26.,15.,3771.,0.,0.,10008.,0.892939494558,1.78587898912,338.
6.6,6194.,23.,21.,3770.,0.,0.,10008.,0.892651263605,2.01816807424,299.
6.62,6174.,34.,10.,3790.,0.,0.,10008.,0.889768954068,1.36082310622,442.
6.64,6173.,33.,12.,3789.,0.,0.,10007.,0.889713738844,1.40197316424,429.
6.66,6175.,30.,17.,3788.,0.,0.,10010.,0.889735264735,1.54220779221,390.
6.68,6172.,31.,14.,3790.,0.,0.,10007.,0.889569608966,1.49218127956,403.
6.7,6166.,29.,13.,3798.,0.,0.,10006.,0.888793646889,1.59369895304,377.
6.72,6167.,30.,10.,3804.,0.,0.,10011.,0.888493810654,1.54005593847,390.
6.74,6158.,28.,11.,3812.,0.,0.,10009.,0.887374439927,1.64798110272,364.
6.76,6161.,23.,11.,3818.,0.,0.,10013.,0.887452081525,2.00641340171,299.
6.78,6164.,18.,13.,3819.,0.,0.,10014.,0.887795547772,2.56474269356,234.
6.8,6154.,22.,12.,3828.,0.,0.,10016.,0.886178268616,2.09460318037,286.
6.82,6154.,25.,13.,3829.,0.,0.,10021.,0.885736108019,1.84233110468,325.
6.84,6147.,28.,6.,3839.,0.,0.,10020.,0.884816904652,1.64323139435,364.
6.86,6157.,24.,7.,3836.,0.,0.,10024.,0.885902679723,1.91945580607,312.
6.88,6156.,24.,5.,3837.,0.,0.,10022.,0.885935557159,1.91952704051,312.
6.9,6158.,16.,12.,3834.,0.,0.,10020.,0.88640027637,2.8808008982,208.
6.92,6150.,19.,13.,3837.,0.,0.,10019.,0.885337090298,2.42302782608,247.
6.94,6150.,13.,16.,3839.,0.,0.,10018.,0.885425464932,3.54170185973,169.
6.96,6146.,18.,10.,3843.,0.,0.,10017.,0.88493791324,2.55648730491,234.
6.98,6147.,18.,12.,3842.,0.,0.,10019.,0.884905218546,2.55639285358,234.
7.,6144.,23.,5.,3845.,0.,0.,10017.,0.884649941254,2.00007812805,299.
7.02,6145.,17.,8.,3846.,0.,0.,10016.,0.884882265299,2.70669869385,221.
7.04,6157.,15.,3.,3843.,0.,0.,10018.,0.886433266275,3.07296865642,195.
7.06,6161.,9.,7.,3843.,0.,0.,10020.,0.886832105021,5.12391882901,117.
7.08,6167.,6.,7.,3839.,0.,0.,10019.,0.887784363555,7.69413115081,78.
7.1,6169.,7.,7.,3835.,0.,0.,10018.,0.888160925718,6.59776687676,91.
7.12,6169.,11.,0.,3838.,0.,0.,10018.,0.888160925718,4.19857892158,143.
7.14,6173.,8.,2.,3836.,0.,0.,10019.,0.888648107058,5.77621269588,104.
7.16,6183.,7.,3.,3827.,0.,0.,10020.,0.889998848457,6.61142001711,91.
7.18,6191.,9.,2.,3820.,0.,0.,10022.,0.890972552692,5.14784141555,117.
7.2,6197.,10.,5.,3809.,0.,0.,10021.,0.891925034351,4.63801017862,130.
7.22,6200.,10.,2.,3810.,0.,0.,10022.,0.892267780115,4.6397924566,130.
7.24,6205.,11.,3.,3805.,0.,0.,10024.,0.892809181042,4.2205524922,143.
7.26,6203.,11.,4.,3803.,0.,0.,10021.,0.892788605467,4.22045522584,143.
7.28,6197.,14.,5.,3804.,0.,0.,10020.,0.892014048825,3.31319503849,182.
7.3,6200.,15.,7.,3800.,0.,0.,10022.,0.892267780115,3.09319497106,195.
7.32,6211.,11.,6.,3796.,0.,0.,10024.,0.893672493707,4.22463360662,143.
7.34,6217.,12.,5.,3794.,0.,0.,10028.,0.894178991133,3.87477562824,156.
7.36,6219.,11.,7.,3789.,0.,0.,10026.,0.894645076647,4.22923127142,143.
7.38,6228.,9.,11.,3777.,0.,0.,10025.,0.896029157875,5.17705735661,117.
7.4,6231.,14.,2.,3780.,0.,0.,10027.,0.89628196178,3.32904728661,182.
7.42,6235.,14.,4.,3778.,0.,0.,10031.,0.896499697093,3.32985601777,182.
7.44,6238.,16.,3.,3777.,0.,0.,10034.,0.896662884654,2.91415437512,208.
7.46,6234.,9.,11.,3778.,0.,0.,10032.,0.896266562385,5.17842902711,117.
7.48,6233.,13.,10.,3775.,0.,0.,10031.,0.896212127022,3.58484850809,169.
7.5,6227.,16.,9.,3780.,0.,0.,10032.,0.895260167464,2.90959554426,208.
7.52,6233.,16.,12.,3773.,0.,0.,10034.,0.895944174422,2.91181856687,208.
7.54,6240.,12.,8.,3774.,0.,0.,10034.,0.896950368746,3.88678493123,156.
7.56,6236.,21.,4.,3771.,0.,0.,10032.,0.896554103791,2.2200387332,273.
7.58,6238.,21.,7.,3764.,0.,0.,10030.,0.89702047703,2.22119356217,273.
7.6,6239.,16.,13.,3765.,0.,0.,10033.,0.89689601239,2.91491204027,208.
7.62,6240.,23.,1.,3771.,0.,0.,10035.,0.896860986547,2.02768570872,299.
7.64,6242.,15.,11.,3767.,0.,0.,10035.,0.897148441991,3.1101145989,195.
7.66,6240.,18.,10.,3771.,0.,0.,10039.,0.89650363582,2.58989939237,234.
7.68,6246.,16.,7.,3768.,0.,0.,10037.,0.897544470076,2.91701952775,208.
7.7,6248.,16.,6.,3769.,0.,0.,10039.,0.897652999456,2.91737224823,208.
7.72,6257.,9.,11.,3766.,0.,0.,10043.,0.8985879947,5.19184174715,117.
7.74,6254.,15.,9.,3766.,0.,0.,10044.,0.898067732745,3.11330147352,195.
7.76,6264.,17.,4.,3765.,0.,0.,10050.,0.898966704937,2.74978050922,221.
7.78,6268.,11.,6.,3763.,0.,0.,10048.,0.899719806467,4.2532209033,143.
7.8,6270.,7.,10.,3759.,0.,0.,10046.,0.900186067168,6.68709649896,91.
7.82,6267.,9.,14.,3755.,0.,0.,10045.,0.899844928591,5.19910403186,117.
7.84,6264.,15.,8.,3762.,0.,0.,10049.,0.899056163262,3.11672803264,195.
7.86,6269.,7.,7.,3766.,0.,0.,10049.,0.899773800684,6.68403394794,91.
7.88,6279.,7.,5.,3763.,0.,0.,10054.,0.900760891188,6.69136662025,91.
7.9,6287.,7.,8.,3758.,0.,0.,10060.,0.901370622419,6.69589605226,91.
7.92,6293.,4.,3.,3761.,0.,0.,10061.,0.902141169634,11.7278352052,52.
7.94,6299.,3.,2.,3756.,0.,0.,10060.,0.903091068971,15.6535785288,39.
7.96,6308.,4.,0.,3748.,0.,0.,10060.,0.904381403884,11.7569582505,52.
7.98,6313.,2.,0.,3743.,0.,0.,10058.,0.905278232406,23.5372340426,26.
8.,6322.,1.,1.,3734.,0.,0.,10058.,0.906568823898,47.1415788427,13.
8.02,6321.,5.,1.,3729.,0.,0.,10056.,0.906605700386,9.42869928401,65.
8.04,6331.,5.,1.,3720.,0.,0.,10057.,0.907949686785,9.44267674257,65.
8.06,6348.,6.,0.,3706.,0.,0.,10060.,0.910116225723,7.88767395626,78.
8.08,6356.,5.,2.,3702.,0.,0.,10065.,0.910810500974,9.47242921013,65.
8.1,6360.,7.,3.,3693.,0.,0.,10063.,0.911564833854,6.77162448006,91.
8.12,6368.,7.,3.,3685.,0.,0.,10063.,0.912711456287,6.7801422467,91.
8.14,6370.,7.,3.,3683.,0.,0.,10063.,0.912998111895,6.78227168836,91.
8.16,6373.,8.,4.,3676.,0.,0.,10061.,0.913609673301,5.93846287645,104.
8.18,6381.,9.,5.,3668.,0.,0.,10063.,0.91457471774,5.28420948027,117.
8.2,6383.,9.,3.,3669.,0.,0.,10064.,0.914770468998,5.28534048755,117.
8.22,6389.,8.,3.,3664.,0.,0.,10064.,0.915630350373,5.95159727742,104.
8.24,6394.,5.,3.,3662.,0.,0.,10064.,0.916346918185,9.53000794913,65.
8.26,6399.,5.,5.,3653.,0.,0.,10062.,0.917245768543,9.53935599284,65.
8.28,6396.,9.,3.,3654.,0.,0.,10062.,0.916815742397,5.29715762274,117.
8.3,6400.,8.,5.,3651.,0.,0.,10064.,0.91720679956,5.96184419714,104.
8.32,6408.,7.,6.,3642.,0.,0.,10063.,0.91844456845,6.82273107991,91.
8.34,6405.,9.,8.,3643.,0.,0.,10065.,0.917832167832,5.30303030303,117.
8.36,6405.,13.,8.,3642.,0.,0.,10068.,0.917558677913,3.67023471165,169.
8.38,6402.,18.,7.,3642.,0.,0.,10069.,0.917037823632,2.64922037938,234.
8.4,6399.,24.,5.,3635.,0.,0.,10063.,0.917154618213,1.98716833946,312.
8.42,6395.,22.,7.,3638.,0.,0.,10062.,0.916672400349,2.16668021901,286.
8.44,6394.,18.,9.,3642.,0.,0.,10063.,0.916437979193,2.64748749545,234.
8.46,6397.,13.,11.,3643.,0.,0.,10064.,0.916776858872,3.66710743549,169.
8.48,6402.,14.,2.,3650.,0.,0.,10068.,0.917128908041,3.40647880129,182.
8.5,6408.,12.,5.,3646.,0.,0.,10071.,0.917714992782,3.97676496872,156.
8.52,6412.,10.,3.,3646.,0.,0.,10071.,0.918287848583,4.77509681263,130.
8.54,6410.,12.,4.,3645.,0.,0.,10071.,0.918001420682,3.97800615629,156.
8.56,6403.,13.,4.,3651.,0.,0.,10071.,0.916998923031,3.66799569212,169.
8.58,6403.,13.,7.,3648.,0.,0.,10071.,0.916998923031,3.66799569212,169.
8.6,6408.,18.,7.,3640.,0.,0.,10073.,0.917532779937,2.65065025315,234.
8.62,6407.,13.,13.,3640.,0.,0.,10073.,0.917389594422,3.66955837769,169.
8.64,6401.,14.,3.,3653.,0.,0.,10071.,0.916712495131,3.40493212477,182.
8.66,6398.,7.,10.,3654.,0.,0.,10069.,0.916464854046,6.80802463005,91.
8.68,6401.,11.,3.,3655.,0.,0.,10070.,0.916803529142,4.33398031958,143.
8.7,6410.,9.,3.,3652.,0.,0.,10074.,0.917728043249,5.30242869433,117.
8.72,6415.,6.,5.,3648.,0.,0.,10074.,0.918443899757,7.95984713123,78.
8.74,6416.,12.,4.,3642.,0.,0.,10074.,0.918587071059,3.98054397459,156.
8.76,6420.,10.,7.,3638.,0.,0.,10075.,0.919068524528,4.77915632754,130.
8.78,6425.,8.,7.,3636.,0.,0.,10076.,0.919693025315,5.97800466455,104.
8.8,6424.,11.,6.,3636.,0.,0.,10077.,0.919458630087,4.34653170586,143.
8.82,6422.,18.,4.,3631.,0.,0.,10075.,0.91935483871,2.65591397849,234.
8.84,6435.,14.,7.,3624.,0.,0.,10080.,0.920758928571,3.41996173469,182.
8.86,6438.,16.,8.,3619.,0.,0.,10081.,0.921096808162,2.99356462653,208.
8.88,6443.,18.,9.,3612.,0.,0.,10082.,0.921720736118,2.66274879323,234.
8.9,6441.,14.,7.,3620.,0.,0.,10082.,0.921434620725,3.42247144841,182.
8.92,6440.,14.,3.,3628.,0.,0.,10085.,0.921017505053,3.42092216163,182.
8.94,6449.,13.,4.,3625.,0.,0.,10091.,0.921756248904,3.68702499562,169.
8.96,6445.,13.,9.,3621.,0.,0.,10088.,0.921458473129,3.68583389252,169.
8.98,6452.,12.,5.,3619.,0.,0.,10088.,0.922459281401,3.99732355274,156.
9.,6454.,17.,4.,3611.,0.,0.,10086.,0.922928202078,2.82307450047,221.
9.02,6455.,16.,9.,3606.,0.,0.,10086.,0.923071203038,2.99998140988,208.
9.04,6452.,14.,5.,3613.,0.,0.,10084.,0.922825191469,3.42763642545,182.
9.06,6448.,14.,8.,3610.,0.,0.,10080.,0.922619047619,3.4268707483,182.
9.08,6460.,14.,7.,3601.,0.,0.,10082.,0.924152716952,3.43256723439,182.
9.1,6459.,17.,9.,3598.,0.,0.,10083.,0.923918018905,2.82610217547,221.
9.12,6457.,17.,8.,3600.,0.,0.,10082.,0.923723543863,2.82550731064,221.
9.14,6451.,17.,7.,3604.,0.,0.,10079.,0.923139887199,2.8237220079,221.
9.16,6450.,20.,7.,3605.,0.,0.,10082.,0.922722139991,2.39907756398,260.
9.18,6462.,16.,7.,3597.,0.,0.,10082.,0.924438832344,3.00442620512,208.
9.2,6458.,22.,4.,3602.,0.,0.,10086.,0.923500205921,2.18281866854,286.
9.22,6455.,19.,10.,3602.,0.,0.,10086.,0.923071203038,2.52630013463,247.
9.24,6449.,19.,8.,3609.,0.,0.,10085.,0.922304641318,2.52420217624,247.
9.26,6436.,24.,15.,3605.,0.,0.,10080.,0.920902014652,1.99528769841,312.
9.28,6415.,35.,13.,3616.,0.,0.,10079.,0.917988277225,1.36386829759,455.
9.3,6408.,34.,19.,3620.,0.,0.,10081.,0.916804651553,1.40217182002,442.
9.32,6393.,29.,29.,3632.,0.,0.,10083.,0.914477147369,1.63975212632,377.
9.34,6378.,37.,19.,3651.,0.,0.,10085.,0.91215056634,1.28194133648,481.
9.36,6365.,36.,21.,3661.,0.,0.,10083.,0.910471929142,1.31512611987,468.
9.38,6354.,40.,19.,3670.,0.,0.,10083.,0.908898450553,1.18156798572,520.
9.4,6335.,41.,22.,3685.,0.,0.,10083.,0.906180623899,1.1493022547,533.
9.42,6319.,40.,15.,3708.,0.,0.,10082.,0.903981581798,1.17517605634,520.
9.44,6312.,37.,19.,3714.,0.,0.,10082.,0.902980177926,1.26905322303,481.
9.46,6306.,32.,23.,3722.,0.,0.,10083.,0.902032362163,1.46580258852,416.
9.48,6303.,36.,19.,3730.,0.,0.,10088.,0.901156362472,1.30167030135,468.
9.5,6293.,32.,15.,3747.,0.,0.,10087.,0.899815833022,1.46220072866,416.
9.52,6284.,36.,19.,3749.,0.,0.,10088.,0.898439882877,1.29774649749,468.
9.54,6284.,32.,22.,3753.,0.,0.,10091.,0.898172781534,1.45953076999,416.
9.56,6277.,35.,27.,3757.,0.,0.,10096.,0.89672795014,1.33228152592,455.
9.58,6258.,41.,30.,3768.,0.,0.,10097.,0.893925080565,1.13375863876,533.
9.6,6238.,48.,21.,3793.,0.,0.,10100.,0.890803503427,0.965037128713,624.
9.62,6228.,48.,19.,3807.,0.,0.,10102.,0.889199396921,0.963299346664,624.
9.64,6215.,49.,27.,3810.,0.,0.,10101.,0.887431175893,0.941763696866,637.
9.66,6208.,46.,32.,3817.,0.,0.,10103.,0.886256176764,1.00185480852,598.
9.68,6184.,59.,25.,3831.,0.,0.,10099.,0.883179598894,0.778395578686,767.
9.7,6168.,54.,20.,3855.,0.,0.,10097.,0.881069015168,0.848436829421,702.
9.72,6156.,47.,26.,3868.,0.,0.,10097.,0.879354873115,0.972903263872,611.
9.74,6131.,56.,24.,3888.,0.,0.,10099.,0.875610304143,0.81306671099,728.
9.76,6128.,50.,25.,3897.,0.,0.,10100.,0.875095201828,0.910099009901,650.
9.78,6109.,46.,29.,3915.,0.,0.,10099.,0.872468332737,0.98626855005,598.
9.8,6093.,46.,17.,3942.,0.,0.,10098.,0.870269436446,0.9837828412,598.
9.82,6072.,55.,20.,3948.,0.,0.,10095.,0.867527717453,0.820208023774,715.
9.84,6064.,51.,24.,3955.,0.,0.,10094.,0.866470561339,0.883460180189,663.
9.86,6052.,51.,23.,3967.,0.,0.,10093.,0.864841588611,0.881799266819,663.
9.88,6041.,46.,19.,3989.,0.,0.,10095.,0.863098639845,0.975676723303,598.
9.9,6030.,46.,15.,4001.,0.,0.,10092.,0.861783133632,0.974189629323,598.
9.92,6013.,46.,16.,4012.,0.,0.,10087.,0.859779533444,0.97192468998,598.
9.94,6006.,36.,26.,4023.,0.,0.,10091.,0.858438212268,1.23996630661,468.
9.96,5988.,41.,22.,4040.,0.,0.,10091.,0.855865470373,1.08548791364,533.
9.98,5974.,49.,20.,4048.,0.,0.,10091.,0.8538644489,0.906141864138,637.
10.,5967.,40.,18.,4067.,0.,0.,10092.,0.852779429251,1.10861325803,520.
