t,prevalence
5.,2
5.02,2
5.04,0
5.06,5
5.08,2
5.1,0
5.12,1
5.14,4
5.16,2
5.18,5
5.2,4
5.22,2
5.24,2
5.26,0
5.28,2
5.3,3
5.32,0
5.34,2
5.36,3
5.38,0
5.4,4
5.42,2
5.44,4
5.46,3
5.48,1
5.5,1
5.52,5
5.54,6
5.56,3
5.58,3
5.6,3
5.62,2
5.64,3
5.66,2
5.68,4
5.7,5
5.72,3
5.74,4
5.76,3
5.78,3
5.8,1
5.82,2
5.84,6
5.86,4
5.88,6
5.9,1
5.92,2
5.94,4
5.96,4
5.98,2
6.,5
6.02,5
6.04,1
6.06,0
6.08,3
6.1,3
6.12,1
6.14,1
6.16,2
6.18,3
6.2,3
6.22,1
6.24,3
6.26,3
6.28,1
6.3,3
6.32,1
6.34,2
6.36,5
6.38,2
6.4,3
6.42,2
6.44,6
6.46,1
6.48,0
6.5,3
6.52,2
6.54,5
6.56,0
6.58,3
6.6,2
6.62,2
6.64,0
6.66,0
6.68,1
6.7,3
6.72,2
6.74,2
6.76,2
6.78,3
6.8,5
6.82,2
6.84,3
6.86,4
6.88,5
6.9,5
6.92,7
6.94,3
6.96,8
6.98,6
7.,0
7.02,6
7.04,3
7.06,4
7.08,2
7.1,4
7.12,3
7.14,3
7.16,6
7.18,1
7.2,3
7.22,2
7.24,1
7.26,2
7.28,2
7.3,0
7.32,2
7.34,1
7.36,2
7.38,1
7.4,3
7.42,4
7.44,4
7.46,1
7.48,8
7.5,5
7.52,4
7.54,2
7.56,3
7.58,1
7.6,5
7.62,1
7.64,5
7.66,5
7.68,4
7.7,2
7.72,5
7.74,5
7.76,8
7.78,2
7.8,8
7.82,5
7.84,5
7.86,4
7.88,4
7.9,9
7.92,8
7.94,10
7.96,7
7.98,5
8.,5
8.02,9
8.04,6
8.06,6
8.08,11
8.1,9
8.12,10
8.14,9
8.16,7
8.18,10
8.2,12
8.22,6
8.24,9
8.26,11
8.28,7
8.3,8
8.32,8
8.34,3
8.36,8
8.38,0
8.4,6
8.42,9
8.44,10
8.46,7
8.48,3
8.5,4
8.52,4
8.54,5
8.56,6
8.58,5
8.6,8
8.62,0
8.64,3
8.66,1
8.68,0
8.7,1
8.72,5
8.74,0
8.76,2
8.78,8
8.8,2
8.82,2
8.84,1
8.86,4
8.88,2
8.9,2
8.92,5
8.94,1
8.96,0
8.98,6
9.,0
9.02,5
9.04,4
9.06,3
9.08,3
9.1,1
9.12,5
9.14,3
9.16,0
9.18,4
9.2,0
9.22,3
9.24,4
9.26,1
9.28,2
9.3,1
9.32,1
9.34,1
9.36,0
9.38,1
9.4,0
9.42,0
9.44,0
9.46,0
9.48,0
9.5,0
9.52,3
9.54,2
9.56,3
9.58,1
9.6,1
9.62,4
9.64,0
9.66,1
9.68,2
9.7,1
9.72,1
9.74,2
9.76,2
9.78,1
9.8,0
9.82,2
9.84,6
9.86,2
9.88,5
9.9,5
9.92,5
9.94,4
9.96,4
9.98,5
10.,1
