t,prevalence
5.,2
5.02,1
5.04,0
5.06,1
5.08,0
5.1,1
5.12,2
5.14,2
5.16,3
5.18,0
5.2,5
5.22,5
5.24,4
5.26,2
5.28,2
5.3,2
5.32,2
5.34,4
5.36,0
5.38,0
5.4,0
5.42,3
5.44,3
5.46,3
5.48,2
5.5,2
5.52,0
5.54,1
5.56,0
5.58,3
5.6,0
5.62,4
5.64,6
5.66,7
5.68,10
5.7,6
5.72,5
5.74,9
5.76,11
5.78,10
5.8,9
5.82,11
5.84,8
5.86,13
5.88,5
5.9,10
5.92,13
5.94,8
5.96,5
5.98,2
6.,8
6.02,6
6.04,8
6.06,10
6.08,7
6.1,6
6.12,7
6.14,11
6.16,7
6.18,4
6.2,6
6.22,7
6.24,8
6.26,5
6.28,0
6.3,5
6.32,4
6.34,5
6.36,3
6.38,4
6.4,8
6.42,2
6.44,6
6.46,7
6.48,5
6.5,7
6.52,2
6.54,2
6.56,6
6.58,4
6.6,6
6.62,3
6.64,7
6.66,5
6.68,7
6.7,2
6.72,2
6.74,7
6.76,8
6.78,5
6.8,6
6.82,4
6.84,6
6.86,3
6.88,6
6.9,8
6.92,9
6.94,5
6.96,5
6.98,10
7.,3
7.02,3
7.04,4
7.06,4
7.08,3
7.1,4
7.12,3
7.14,3
7.16,1
7.18,2
7.2,2
7.22,5
7.24,4
7.26,0
7.28,1
7.3,4
7.32,3
7.34,2
7.36,7
7.38,5
7.4,3
7.42,6
7.44,5
7.46,4
7.48,3
7.5,1
7.52,3
7.54,3
7.56,4
7.58,3
7.6,3
7.62,2
7.64,3
7.66,7
7.68,1
7.7,3
7.72,2
7.74,5
7.76,5
7.78,3
7.8,1
7.82,4
7.84,1
7.86,6
7.88,5
7.9,8
7.92,5
7.94,5
7.96,6
7.98,9
8.,3
8.02,5
8.04,2
8.06,3
8.08,4
8.1,3
8.12,4
8.14,2
8.16,4
8.18,5
8.2,6
8.22,5
8.24,5
8.26,6
8.28,6
8.3,6
8.32,6
8.34,3
8.36,5
8.38,6
8.4,2
8.42,6
8.44,5
8.46,8
8.48,8
8.5,9
8.52,8
8.54,9
8.56,10
8.58,11
8.6,3
8.62,6
8.64,8
8.66,15
8.68,0
8.7,9
8.72,11
8.74,8
8.76,9
8.78,11
8.8,5
8.82,7
8.84,7
8.86,13
8.88,8
8.9,10
8.92,11
8.94,7
8.96,11
8.98,5
9.,9
9.02,8
9.04,9
9.06,9
9.08,4
9.1,3
9.12,1
9.14,4
9.16,2
9.18,3
9.2,4
9.22,6
9.24,4
9.26,7
9.28,4
9.3,6
9.32,4
9.34,1
9.36,6
9.38,5
9.4,5
9.42,3
9.44,4
9.46,6
9.48,4
9.5,4
9.52,4
9.54,6
9.56,1
9.58,3
9.6,5
9.62,7
9.64,4
9.66,8
9.68,9
9.7,2
9.72,1
9.74,5
9.76,2
9.78,2
9.8,4
9.82,2
9.84,1
9.86,5
9.88,3
9.9,4
9.92,5
9.94,2
9.96,0
9.98,3
10.,4
