t,neff
5.,0.106581333333
5.02,0.127813299233
5.04,0.042518613061
5.06,0.1700914699
5.08,0.169942638623
5.1,0.233559483994
5.12,0.169622211625
5.14,0.148366947223
5.16,0.0847004072136
5.18,0.169481481481
5.2,0.275161512027
5.22,0.211457838323
5.24,0.126786957898
5.26,0.1901994302
5.28,0.211274587354
5.3,0.295878039774
5.32,0.2323342818
5.34,0.232297560719
5.36,0.189827831306
5.38,0.147544469003
5.4,0.210953133228
5.42,0.210865445357
5.44,0.25326798419
5.46,0.232239624532
5.48,0.274654844839
5.5,0.295964523281
5.52,0.190277293614
5.54,0.147657287385
5.56,0.295663922314
5.58,0.422637525076
5.6,0.38048131729
5.62,0.338152076407
5.64,0.296011405037
5.66,0.295986901178
5.68,0.317004433186
5.7,0.317380272756
5.72,0.402404996294
5.74,0.35953279425
5.76,0.359475797929
5.78,0.380605676233
5.8,0.359503039915
5.82,0.169077654517
5.84,0.359574940524
5.86,0.232759185832
5.88,0.338318546684
5.9,0.253753763271
5.92,0.253878845544
5.94,0.253834205104
5.96,0.27489518982
5.98,0.253633196072
6.,0.211105837684
6.02,0.105552918842
6.04,0.274535864979
6.06,0.274693683711
6.08,0.359080168777
6.1,0.359080168777
6.12,0.550051769677
6.14,0.529682539682
6.16,0.487849992055
6.18,0.59350579273
6.2,0.508617679735
6.22,0.487184691827
6.24,0.636340533673
6.26,0.57348171701
6.28,0.70154972156
6.3,0.852380952382
6.32,0.703172325839
6.34,0.575747328122
6.36,0.554954494652
6.38,0.38403830806
6.4,0.427237851663
6.42,0.4061279138
6.44,0.298983050848
6.46,0.299354149986
6.48,0.514042007376
6.5,0.385840821566
6.52,0.407653012048
6.54,0.472286005252
6.56,0.558437935844
6.58,0.364838934449
6.6,0.558909286097
6.62,0.429765545361
6.64,0.472513942515
6.66,0.450745980707
6.68,0.407842632792
6.7,0.30057565525
6.72,0.494856344986
6.74,0.387388781431
6.76,0.409208756925
6.78,0.38746615087
6.8,0.365735159817
6.82,0.430398796087
6.84,0.430703028346
6.86,0.474498653742
6.88,0.518137128074
6.9,0.45298642534
6.92,0.409829211788
6.94,0.366898560104
6.96,0.366907266548
6.98,0.280509334197
7.,0.237315638992
7.02,0.345276788605
7.04,0.323599870508
7.06,0.323652258378
7.08,0.410041551994
7.1,0.43162268631
7.12,0.410000539636
7.14,0.280515975821
7.16,0.194098785425
7.18,0.280291450777
7.2,0.215295068715
7.22,0.258338182994
7.24,0.258338182994
7.26,0.279956877965
7.28,0.365942450695
7.3,0.258244706643
7.32,0.301420022643
7.34,0.323166585721
7.36,0.323460790668
7.38,0.301743025201
7.4,0.301652366306
7.42,0.431061464573
7.44,0.38775206344
7.46,0.365604395604
7.48,0.408651037456
7.5,0.387143088116
7.52,0.408931305943
7.54,0.560579334199
7.56,0.669401320776
7.58,0.648244473342
7.6,0.475474642392
7.62,0.540542005421
7.64,0.367463026166
7.66,0.43247696477
7.68,0.476111743965
7.7,0.410945564954
7.72,0.432688032102
7.74,0.498027465667
7.76,0.476123501004
7.78,0.432828858151
7.8,0.433083686096
7.82,0.346297803093
7.84,0.259739583333
7.86,0.238249728556
7.88,0.259496016908
7.9,0.194646283949
7.92,0.172800692866
7.94,0.151046260268
7.96,0.21566213005
7.98,0.193943319838
8.,0.193989637306
8.02,0.215339805825
8.04,0.1291829801
8.06,0.107517501346
8.08,0.107307630263
8.1,0.235933806146
8.12,0.17142243693
8.14,0.14984984985
8.16,0.342693938905
8.18,0.449768041237
8.2,0.4067858485
8.22,0.428307560138
8.24,0.278158995816
8.26,0.363475930095
8.28,0.320308483291
8.3,0.170646127514
8.32,0.256082209377
8.34,0.277539351108
8.36,0.21324347454
8.38,0.234431435445
8.4,0.277071970912
8.42,0.319711307137
8.44,0.298540864356
8.46,0.19157726181
8.48,0.170185540627
8.5,0.106228042159
8.52,0.127409773235
8.54,0.0636146115809
8.56,0.105967373399
8.58,0.105908584169
8.6,0.105715345092
8.62,0.12673015873
8.64,0.189906423473
8.66,0.232071043451
8.68,0.274226804124
8.7,0.337417036567
8.72,0.337402885683
8.74,0.294946934896
8.76,0.210315578737
8.78,0.210245880061
8.8,0.294437246537
8.82,0.231343550851
8.84,0.357911722828
8.86,0.168279059964
8.88,0.210436432638
8.9,0.210161638498
8.92,0.252208530806
8.94,0.209974747475
8.96,0.188974439886
8.98,0.209854340853
9.,0.209842271294
9.02,0.209884332282
9.04,0.335925925926
9.06,0.440738286796
9.08,0.462175925926
9.1,0.504597882763
9.12,0.420533880903
9.14,0.357566756201
9.16,0.252211523284
9.18,0.336668246695
9.2,0.421252371917
9.22,0.35748407811
9.24,0.357329966861
9.26,0.356899957966
9.28,0.293581102362
9.3,0.29361478681
9.32,0.33532441647
9.34,0.251306398365
9.36,0.188272613065
9.38,0.125414901961
9.4,0.167238872326
9.42,0.208976773384
9.44,0.146146127313
9.46,0.104274307186
9.48,0.14573125
9.5,0.0831747022418
9.52,0.145437529247
9.54,0.145429403202
9.56,0.145398607213
9.58,0.249357454772
9.6,0.290965829303
9.62,0.374821763602
9.64,0.395818466353
9.66,0.395739175796
9.68,0.542672521959
9.7,0.522433380451
9.72,0.565115620575
9.74,0.460728150247
9.76,0.335290905272
9.78,0.376835482856
9.8,0.334907509302
9.82,0.461302247427
9.84,0.440573951435
9.86,0.503772870662
9.88,0.335804960067
9.9,0.440554505356
9.92,0.356746481831
9.94,0.356613656642
9.96,0.398859303608
9.98,0.483258698623
10.,0.526058117497
