t,neff
5.,0.106581333333
5.02,0.149106600607
5.04,0.0850728800933
5.06,0.191387071029
5.08,0.339829931972
5.1,0.403435856573
5.12,0.339741750359
5.14,0.297019695281
5.16,0.381799076581
5.18,0.31750317662
5.2,0.275201779472
5.22,0.381183206107
5.24,0.402616168045
5.26,0.402376636456
5.28,0.381268478779
5.3,0.211748503628
5.32,0.232983682983
5.34,0.317630241423
5.36,0.317447213843
5.38,0.190366492147
5.4,0.360038125496
5.42,0.296284066254
5.44,0.275098194907
5.46,0.466143001006
5.48,0.402746407931
5.5,0.509827915871
5.52,0.509848653816
5.54,0.659328973253
5.56,0.488789714164
5.58,0.488604959907
5.6,0.318668365721
5.62,0.33989276424
5.64,0.254424146148
5.66,0.105959563883
5.68,0.169558309501
5.7,0.275691199067
5.72,0.36078468798
5.74,0.403519490851
5.76,0.510144927536
5.78,0.403592598484
5.8,0.360943596268
5.82,0.297230084274
5.84,0.339873773535
5.86,0.424901898399
5.88,0.424826416494
5.9,0.233482705652
5.92,0.23351981352
5.94,0.212205975842
5.96,0.169653858368
5.98,0.148391260646
6.,0.169314315901
6.02,0.0845866328794
6.04,0.0845598480054
6.06,0.105610039017
6.08,0.084389678778
6.1,0.0843945857691
6.12,0.0632160328232
6.14,0.0631572307209
6.16,0.063086614173
6.18,0.
6.2,0.041937680021
6.22,0.0418856275834
6.24,0.0418408817845
6.26,0.0208746416471
6.28,0.041732061904
6.3,0.0625476116141
6.32,0.0624960998442
6.34,0.0416344354335
6.36,0.0415978390733
6.38,0.0830339818417
6.4,0.0414524734524
6.42,0.0621662781661
6.44,0.124379471229
6.46,0.10356680644
6.48,0.0828351182159
6.5,0.206874450819
6.52,0.124036583475
6.54,0.165347383646
6.56,0.144552493032
6.58,0.185816042118
6.6,0.123755607115
6.62,0.164981956903
6.64,0.123685837972
6.66,0.288747293536
6.68,0.288673779702
6.7,0.247254750502
6.72,0.309099335702
6.74,0.350602546261
6.76,0.371091190108
6.78,0.350077184316
6.8,0.391284030672
6.82,0.37061274888
6.84,0.370535411202
6.86,0.494680259501
6.88,0.516173966879
6.9,0.43408463804
6.92,0.558807638566
6.94,0.684657534248
6.96,0.935371179038
6.98,0.916391666665
7.,0.834826182271
7.02,0.794963102526
7.04,0.755019675745
7.06,0.990198745317
7.08,0.950221940395
7.1,0.887666190706
7.12,0.655467005345
7.14,0.592010161955
7.16,0.591846796806
7.18,0.465446456943
7.2,0.635571110404
7.22,0.82830170627
7.24,0.914459344402
7.26,0.830354745924
7.28,0.617801225687
7.3,0.469061032865
7.32,0.36276834348
7.34,0.341956254345
7.36,0.598759092855
7.38,0.620541639907
7.4,0.577906902088
7.42,0.385317919076
7.44,0.600770427597
7.46,0.688436340166
7.48,0.603002692516
7.5,0.560021543598
7.52,0.516775965111
7.54,0.516712417245
7.56,0.452025848143
7.58,0.451887005649
7.6,0.517153945666
7.62,0.581950509461
7.64,0.496098877374
7.66,0.561422395157
7.68,0.605529933961
7.7,0.476160138686
7.72,0.650684039086
7.74,0.586012389958
7.76,0.739656918806
7.78,0.696970291634
7.8,0.653706431025
7.82,0.829189071038
7.84,0.764248988075
7.86,0.830294069327
7.88,0.678081455901
7.9,0.811085846102
7.92,0.901146538907
7.94,0.969549997237
7.96,0.971380493745
7.98,0.77363928611
8.,0.508561928513
8.02,0.487033893605
8.04,0.57606484566
8.06,0.487277167278
8.08,0.575853455455
8.1,0.576218557388
8.12,0.376595059673
8.14,0.287821067821
8.16,0.354276834277
8.18,0.376043468618
8.2,0.353958749169
8.22,0.398561438561
8.24,0.354217856945
8.26,0.39830976543
8.28,0.353370973098
8.3,0.264607225721
8.32,0.264362793777
8.34,0.110034716482
8.36,0.176160546918
8.38,0.242069079491
8.4,0.219801980198
8.42,0.263476684792
8.44,0.263355837313
8.46,0.219405114697
8.48,0.219317308748
8.5,0.175476504172
8.52,0.131471847218
8.54,0.109440789474
8.56,0.153186403509
8.58,0.109240111603
8.6,0.196413702672
8.62,0.261772898574
8.64,0.174361324821
8.66,0.10890052356
8.68,0.195924775143
8.7,0.261463414634
8.72,0.195944399019
8.74,0.217374265186
8.76,0.304630477436
8.78,0.348465400567
8.8,0.239506738692
8.82,0.196081258191
8.84,0.152432727471
8.86,0.0652493867541
8.88,0.108650443682
8.9,0.151927363671
8.92,0.130045602606
8.94,0.151594486052
8.96,0.194819394728
8.98,0.108109865106
9.,0.108008658009
9.02,0.129455252918
9.04,0.150869236583
9.06,0.129118265653
9.08,0.172046348693
9.1,0.128933419522
9.12,0.150186201701
9.14,0.150083373675
9.16,0.149986561307
9.18,0.0856479690525
9.2,0.106967257112
9.22,0.149739130435
9.24,0.128314281114
9.26,0.170975596675
9.28,0.128211068211
9.3,0.235266462728
9.32,0.213547695606
9.34,0.191872893596
9.36,0.212999786188
9.38,0.191534764499
9.4,0.212612035852
9.42,0.169865174527
9.44,0.169800788324
9.46,0.212090251171
9.48,0.233210999415
9.5,0.148132101519
9.52,0.190409431257
9.54,0.253879241676
9.56,0.254015622509
9.58,0.232681528663
9.6,0.211494984875
9.62,0.211183547994
9.64,0.168785808843
9.66,0.232130939139
9.68,0.295515999153
9.7,0.210948750529
9.72,0.210747910716
9.74,0.189582870738
9.76,0.210556348074
9.78,0.210347376201
9.8,0.189127750515
9.82,0.189138695377
9.84,0.231282945122
9.86,0.252199524941
9.88,0.273011654274
9.9,0.230863768116
9.92,0.167910605102
9.94,0.209689310163
9.96,0.167573366993
9.98,0.146611970127
10.,0.16745320715
