t,cases
5.01,0.78
5.02,0.78
5.03,1.04
5.04,1.04
5.05,1.105
5.06,1.105
5.07,1.105
5.08,1.105
5.09,1.365
5.1,1.365
5.11,1.755
5.12,1.755
5.13,1.82
5.14,1.82
5.15,1.495
5.16,1.495
5.17,1.755
5.18,1.755
5.19,2.21
5.2,2.21
5.21,2.34
5.22,2.34
5.23,2.275
5.24,2.275
5.25,1.755
5.26,1.755
5.27,1.105
5.28,1.105
5.29,0.715
5.3,0.715
5.31,0.715
5.32,0.715
5.33,0.845
5.34,0.845
5.35,0.91
5.36,0.91
5.37,0.91
5.38,0.91
5.39,0.78
5.4,0.78
5.41,0.65
5.42,0.65
5.43,0.78
5.44,0.78
5.45,0.91
5.46,0.91
5.47,0.91
5.48,0.91
5.49,1.105
5.5,1.105
5.51,1.235
5.52,1.235
5.53,1.235
5.54,1.235
5.55,1.43
5.56,1.43
5.57,1.755
5.58,1.755
5.59,2.47
5.6,2.47
5.61,2.665
5.62,2.665
5.63,1.95
5.64,1.95
5.65,1.755
5.66,1.755
5.67,1.82
5.68,1.82
5.69,2.145
5.7,2.145
5.71,2.405
5.72,2.405
5.73,2.145
5.74,2.145
5.75,2.08
5.76,2.08
5.77,2.21
5.78,2.21
5.79,2.6
5.8,2.6
5.81,3.315
5.82,3.315
5.83,4.03
5.84,4.03
5.85,4.095
5.86,4.095
5.87,3.64
5.88,3.64
5.89,3.64
5.9,3.64
5.91,3.51
5.92,3.51
5.93,3.445
5.94,3.445
5.95,3.445
5.96,3.445
5.97,2.6
5.98,2.6
5.99,2.47
6.,2.47
6.01,3.51
6.02,3.51
6.03,3.965
6.04,3.965
6.05,3.9
6.06,3.9
6.07,4.225
6.08,4.225
6.09,3.705
6.1,3.705
6.11,2.925
6.12,2.925
6.13,2.73
6.14,2.73
6.15,2.795
6.16,2.795
6.17,2.6
6.18,2.6
6.19,2.21
6.2,2.21
6.21,2.275
6.22,2.275
6.23,2.665
6.24,2.665
6.25,2.925
6.26,2.925
6.27,2.535
6.28,2.535
6.29,2.015
6.3,2.015
6.31,1.43
6.32,1.43
6.33,0.975
6.34,0.975
6.35,1.105
6.36,1.105
6.37,1.625
6.38,1.625
6.39,1.885
6.4,1.885
6.41,1.885
6.42,1.885
6.43,1.82
6.44,1.82
6.45,1.885
6.46,1.885
6.47,1.56
6.48,1.56
6.49,1.625
6.5,1.625
6.51,2.145
6.52,2.145
6.53,1.95
6.54,1.95
6.55,2.08
6.56,2.08
6.57,1.95
6.58,1.95
6.59,1.365
6.6,1.365
6.61,1.365
6.62,1.365
6.63,1.95
6.64,1.95
6.65,2.275
6.66,2.275
6.67,2.34
6.68,2.34
6.69,2.535
6.7,2.535
6.71,2.535
6.72,2.535
6.73,2.73
6.74,2.73
6.75,2.73
6.76,2.73
6.77,2.08
6.78,2.08
6.79,1.82
6.8,1.82
6.81,1.69
6.82,1.69
6.83,1.495
6.84,1.495
6.85,1.495
6.86,1.495
6.87,1.105
6.88,1.105
6.89,1.04
6.9,1.04
6.91,1.04
6.92,1.04
6.93,0.975
6.94,0.975
6.95,1.3
6.96,1.3
6.97,1.56
6.98,1.56
6.99,1.625
7.,1.625
7.01,1.69
7.02,1.69
7.03,1.56
7.04,1.56
7.05,1.365
7.06,1.365
7.07,1.43
7.08,1.43
7.09,1.56
7.1,1.56
7.11,1.755
7.12,1.755
7.13,1.495
7.14,1.495
7.15,1.365
7.16,1.365
7.17,1.56
7.18,1.56
7.19,1.625
7.2,1.625
7.21,1.495
7.22,1.495
7.23,1.43
7.24,1.43
7.25,1.43
7.26,1.43
7.27,1.43
7.28,1.43
7.29,1.365
7.3,1.365
7.31,1.43
7.32,1.43
7.33,1.43
7.34,1.43
7.35,1.3
7.36,1.3
7.37,1.885
7.38,1.885
7.39,2.34
7.4,2.34
7.41,2.015
7.42,2.015
7.43,1.885
7.44,1.885
7.45,1.95
7.46,1.95
7.47,1.885
7.48,1.885
7.49,2.145
7.5,2.145
7.51,2.275
7.52,2.275
7.53,2.405
7.54,2.405
7.55,2.535
7.56,2.535
7.57,2.665
7.58,2.665
7.59,2.99
7.6,2.99
7.61,3.315
7.62,3.315
7.63,3.705
7.64,3.705
7.65,4.03
7.66,4.03
7.67,3.445
7.68,3.445
7.69,2.86
7.7,2.86
7.71,2.73
7.72,2.73
7.73,2.34
7.74,2.34
7.75,2.6
7.76,2.6
7.77,2.925
7.78,2.925
7.79,2.665
7.8,2.665
7.81,2.6
7.82,2.6
7.83,2.665
7.84,2.665
7.85,2.73
7.86,2.73
7.87,2.47
7.88,2.47
7.89,2.21
7.9,2.21
7.91,2.73
7.92,2.73
7.93,2.795
7.94,2.795
7.95,2.145
7.96,2.145
7.97,1.43
7.98,1.43
7.99,1.3
8.,1.3
8.01,1.755
8.02,1.755
8.03,1.885
8.04,1.885
8.05,1.755
8.06,1.755
8.07,1.625
8.08,1.625
8.09,1.82
8.1,1.82
8.11,1.885
8.12,1.885
8.13,1.495
8.14,1.495
8.15,1.495
8.16,1.495
8.17,2.08
8.18,2.08
8.19,2.535
8.2,2.535
8.21,2.21
8.22,2.21
8.23,1.82
8.24,1.82
8.25,1.885
8.26,1.885
8.27,1.43
8.28,1.43
8.29,1.235
8.3,1.235
8.31,1.755
8.32,1.755
8.33,1.95
8.34,1.95
8.35,2.47
8.36,2.47
8.37,2.6
8.38,2.6
8.39,2.08
8.4,2.08
8.41,1.755
8.42,1.755
8.43,1.625
8.44,1.625
8.45,1.43
8.46,1.43
8.47,1.3
8.48,1.3
8.49,1.235
8.5,1.235
8.51,1.105
8.52,1.105
8.53,1.04
8.54,1.04
8.55,0.715
8.56,0.715
8.57,0.585
8.58,0.585
8.59,0.78
8.6,0.78
8.61,0.91
8.62,0.91
8.63,0.715
8.64,0.715
8.65,0.455
8.66,0.455
8.67,0.78
8.68,0.78
8.69,0.975
8.7,0.975
8.71,0.65
8.72,0.65
8.73,0.52
8.74,0.52
8.75,0.455
8.76,0.455
8.77,0.39
8.78,0.39
8.79,0.585
8.8,0.585
8.81,0.845
8.82,0.845
8.83,0.91
8.84,0.91
8.85,0.715
8.86,0.715
8.87,0.52
8.88,0.52
8.89,1.04
8.9,1.04
8.91,1.885
8.92,1.885
8.93,2.015
8.94,2.015
8.95,2.015
8.96,2.015
8.97,2.275
8.98,2.275
8.99,2.21
9.,2.21
9.01,1.95
9.02,1.95
9.03,2.015
9.04,2.015
9.05,2.34
9.06,2.34
9.07,2.145
9.08,2.145
9.09,1.885
9.1,1.885
9.11,2.275
9.12,2.275
9.13,2.34
9.14,2.34
9.15,2.47
9.16,2.47
9.17,2.665
9.18,2.665
9.19,2.015
9.2,2.015
9.21,2.08
9.22,2.08
9.23,2.405
9.24,2.405
9.25,2.08
9.26,2.08
9.27,1.69
9.28,1.69
9.29,1.17
9.3,1.17
9.31,1.43
9.32,1.43
9.33,1.82
9.34,1.82
9.35,1.365
9.36,1.365
9.37,1.105
9.38,1.105
9.39,1.04
9.4,1.04
9.41,1.04
9.42,1.04
9.43,1.365
9.44,1.365
9.45,1.625
9.46,1.625
9.47,1.43
9.48,1.43
9.49,1.365
9.5,1.365
9.51,1.95
9.52,1.95
9.53,2.275
9.54,2.275
9.55,2.405
9.56,2.405
9.57,2.6
9.58,2.6
9.59,2.795
9.6,2.795
9.61,3.12
9.62,3.12
9.63,3.575
9.64,3.575
9.65,4.485
9.66,4.485
9.67,4.615
9.68,4.615
9.69,4.03
9.7,4.03
9.71,3.64
9.72,3.64
9.73,3.055
9.74,3.055
9.75,3.055
9.76,3.055
9.77,3.835
9.78,3.835
9.79,3.9
9.8,3.9
9.81,3.77
9.82,3.77
9.83,3.965
9.84,3.965
9.85,3.9
9.86,3.9
9.87,3.575
9.88,3.575
9.89,2.86
9.9,2.86
9.91,2.08
9.92,2.08
9.93,1.885
9.94,1.885
9.95,1.755
9.96,1.755
9.97,1.105
9.98,1.105
9.99,1.04
10.,1.04
