t,cases
5.01,0.715
5.02,0.715
5.03,0.715
5.04,0.715
5.05,0.715
5.06,0.715
5.07,0.845
5.08,0.845
5.09,0.78
5.1,0.78
5.11,0.52
5.12,0.52
5.13,0.65
5.14,0.65
5.15,0.975
5.16,0.975
5.17,1.04
5.18,1.04
5.19,1.04
5.2,1.04
5.21,1.105
5.22,1.105
5.23,1.105
5.24,1.105
5.25,0.975
5.26,0.975
5.27,0.715
5.28,0.715
5.29,0.585
5.3,0.585
5.31,0.585
5.32,0.585
5.33,0.585
5.34,0.585
5.35,0.52
5.36,0.52
5.37,0.39
5.38,0.39
5.39,0.26
5.4,0.26
5.41,0.26
5.42,0.26
5.43,0.52
5.44,0.52
5.45,0.52
5.46,0.52
5.47,0.455
5.48,0.455
5.49,0.585
5.5,0.585
5.51,0.78
5.52,0.78
5.53,0.65
5.54,0.65
5.55,0.39
5.56,0.39
5.57,0.715
5.58,0.715
5.59,1.105
5.6,1.105
5.61,1.105
5.62,1.105
5.63,0.715
5.64,0.715
5.65,0.52
5.66,0.52
5.67,0.975
5.68,0.975
5.69,1.43
5.7,1.43
5.71,1.69
5.72,1.69
5.73,1.95
5.74,1.95
5.75,1.69
5.76,1.69
5.77,1.625
5.78,1.625
5.79,2.275
5.8,2.275
5.81,2.08
5.82,2.08
5.83,1.95
5.84,1.95
5.85,2.34
5.86,2.34
5.87,2.47
5.88,2.47
5.89,2.73
5.9,2.73
5.91,2.47
5.92,2.47
5.93,2.405
5.94,2.405
5.95,2.73
5.96,2.73
5.97,2.925
5.98,2.925
5.99,2.6
6.,2.6
6.01,2.015
6.02,2.015
6.03,2.275
6.04,2.275
6.05,2.34
6.06,2.34
6.07,2.665
6.08,2.665
6.09,3.055
6.1,3.055
6.11,3.055
6.12,3.055
6.13,3.445
6.14,3.445
6.15,3.705
6.16,3.705
6.17,3.445
6.18,3.445
6.19,2.535
6.2,2.535
6.21,1.95
6.22,1.95
6.23,1.95
6.24,1.95
6.25,1.3
6.26,1.3
6.27,1.105
6.28,1.105
6.29,1.495
6.3,1.495
6.31,1.69
6.32,1.69
6.33,1.755
6.34,1.755
6.35,1.56
6.36,1.56
6.37,1.69
6.38,1.69
6.39,1.495
6.4,1.495
6.41,1.625
6.42,1.625
6.43,1.755
6.44,1.755
6.45,1.43
6.46,1.43
6.47,1.235
6.48,1.235
6.49,0.91
6.5,0.91
6.51,0.715
6.52,0.715
6.53,0.65
6.54,0.65
6.55,0.455
6.56,0.455
6.57,0.325
6.58,0.325
6.59,0.65
6.6,0.65
6.61,0.78
6.62,0.78
6.63,0.52
6.64,0.52
6.65,0.39
6.66,0.39
6.67,0.65
6.68,0.65
6.69,0.91
6.7,0.91
6.71,1.04
6.72,1.04
6.73,0.975
6.74,0.975
6.75,0.65
6.76,0.65
6.77,0.715
6.78,0.715
6.79,1.17
6.8,1.17
6.81,1.625
6.82,1.625
6.83,1.495
6.84,1.495
6.85,1.235
6.86,1.235
6.87,1.365
6.88,1.365
6.89,1.43
6.9,1.43
6.91,1.365
6.92,1.365
6.93,1.3
6.94,1.3
6.95,1.04
6.96,1.04
6.97,1.105
6.98,1.105
6.99,1.17
7.,1.17
7.01,1.235
7.02,1.235
7.03,1.495
7.04,1.495
7.05,1.3
7.06,1.3
7.07,1.235
7.08,1.235
7.09,1.56
7.1,1.56
7.11,1.82
7.12,1.82
7.13,1.495
7.14,1.495
7.15,1.495
7.16,1.495
7.17,1.95
7.18,1.95
7.19,1.95
7.2,1.95
7.21,1.885
7.22,1.885
7.23,2.145
7.24,2.145
7.25,2.34
7.26,2.34
7.27,2.6
7.28,2.6
7.29,2.925
7.3,2.925
7.31,2.405
7.32,2.405
7.33,2.73
7.34,2.73
7.35,3.575
7.36,3.575
7.37,3.185
7.38,3.185
7.39,2.405
7.4,2.405
7.41,2.6
7.42,2.6
7.43,2.99
7.44,2.99
7.45,2.86
7.46,2.86
7.47,3.055
7.48,3.055
7.49,2.795
7.5,2.795
7.51,2.795
7.52,2.795
7.53,2.47
7.54,2.47
7.55,1.95
7.56,1.95
7.57,2.21
7.58,2.21
7.59,2.405
7.6,2.405
7.61,2.795
7.62,2.795
7.63,3.12
7.64,3.12
7.65,2.925
7.66,2.925
7.67,2.86
7.68,2.86
7.69,2.405
7.7,2.405
7.71,2.21
7.72,2.21
7.73,2.795
7.74,2.795
7.75,2.99
7.76,2.99
7.77,3.38
7.78,3.38
7.79,3.445
7.8,3.445
7.81,3.965
7.82,3.965
7.83,4.745
7.84,4.745
7.85,4.55
7.86,4.55
7.87,4.16
7.88,4.16
7.89,4.225
7.9,4.225
7.91,5.07
7.92,5.07
7.93,5.135
7.94,5.135
7.95,4.81
7.96,4.81
7.97,5.2
7.98,5.2
7.99,5.265
8.,5.265
8.01,5.655
8.02,5.655
8.03,6.11
8.04,6.11
8.05,5.98
8.06,5.98
8.07,5.135
8.08,5.135
8.09,4.875
8.1,4.875
8.11,5.72
8.12,5.72
8.13,5.72
8.14,5.72
8.15,4.745
8.16,4.745
8.17,3.51
8.18,3.51
8.19,2.925
8.2,2.925
8.21,2.6
8.22,2.6
8.23,2.275
8.24,2.275
8.25,2.015
8.26,2.015
8.27,2.08
8.28,2.08
8.29,2.275
8.3,2.275
8.31,1.56
8.32,1.56
8.33,1.04
8.34,1.04
8.35,1.43
8.36,1.43
8.37,1.56
8.38,1.56
8.39,1.235
8.4,1.235
8.41,1.3
8.42,1.3
8.43,1.625
8.44,1.625
8.45,1.755
8.46,1.755
8.47,1.56
8.48,1.56
8.49,1.105
8.5,1.105
8.51,1.17
8.52,1.17
8.53,1.495
8.54,1.495
8.55,1.755
8.56,1.755
8.57,2.275
8.58,2.275
8.59,2.73
8.6,2.73
8.61,3.315
8.62,3.315
8.63,3.315
8.64,3.315
8.65,2.6
8.66,2.6
8.67,2.47
8.68,2.47
8.69,3.12
8.7,3.12
8.71,2.925
8.72,2.925
8.73,2.405
8.74,2.405
8.75,2.145
8.76,2.145
8.77,1.69
8.78,1.69
8.79,1.69
8.8,1.69
8.81,1.82
8.82,1.82
8.83,1.885
8.84,1.885
8.85,1.95
8.86,1.95
8.87,2.6
8.88,2.6
8.89,2.73
8.9,2.73
8.91,2.665
8.92,2.665
8.93,2.86
8.94,2.86
8.95,2.275
8.96,2.275
8.97,1.625
8.98,1.625
8.99,2.145
9.,2.145
9.01,2.405
9.02,2.405
9.03,2.21
9.04,2.21
9.05,2.145
9.06,2.145
9.07,2.21
9.08,2.21
9.09,2.47
9.1,2.47
9.11,2.6
9.12,2.6
9.13,2.86
9.14,2.86
9.15,2.47
9.16,2.47
9.17,2.47
9.18,2.47
9.19,2.665
9.2,2.665
9.21,2.795
9.22,2.795
9.23,3.055
9.24,3.055
9.25,3.64
9.26,3.64
9.27,4.355
9.28,4.355
9.29,3.64
9.3,3.64
9.31,2.925
9.32,2.925
9.33,2.47
9.34,2.47
9.35,2.6
9.36,2.6
9.37,3.25
9.38,3.25
9.39,3.315
9.4,3.315
9.41,3.575
9.42,3.575
9.43,4.16
9.44,4.16
9.45,4.16
9.46,4.16
9.47,4.225
9.48,4.225
9.49,4.355
9.5,4.355
9.51,3.575
9.52,3.575
9.53,3.185
9.54,3.185
9.55,3.445
9.56,3.445
9.57,3.835
9.58,3.835
9.59,3.77
9.6,3.77
9.61,3.64
9.62,3.64
9.63,3.705
9.64,3.705
9.65,3.575
9.66,3.575
9.67,3.64
9.68,3.64
9.69,3.64
9.7,3.64
9.71,3.51
9.72,3.51
9.73,3.315
9.74,3.315
9.75,2.99
9.76,2.99
9.77,2.405
9.78,2.405
9.79,2.47
9.8,2.47
9.81,3.12
9.82,3.12
9.83,3.77
9.84,3.77
9.85,3.965
9.86,3.965
9.87,3.185
9.88,3.185
9.89,2.99
9.9,2.99
9.91,2.535
9.92,2.535
9.93,2.535
9.94,2.535
9.95,2.86
9.96,2.86
9.97,2.6
9.98,2.6
9.99,2.665
10.,2.665
