t,s,e,i,r,c,o,n,reff,coal,reportr
5.,6250.,5.,3.,3734.,0.,0.,9992.,0.902164038923,9.3825060048,65.
5.02,6261.,6.,0.,3729.,0.,0.,9996.,0.903390202235,7.8293817527,78.
5.04,6272.,3.,3.,3716.,0.,0.,9994.,0.905158479703,15.6894136482,39.
5.06,6277.,4.,0.,3717.,0.,0.,9998.,0.90551764199,11.7717293459,52.
5.08,6288.,2.,4.,3706.,0.,0.,10000.,0.906923076923,23.58,26.
5.1,6305.,2.,2.,3695.,0.,0.,10004.,0.909011395442,23.6342962815,26.
5.12,6311.,4.,1.,3686.,0.,0.,10002.,0.910058372941,11.8307588482,52.
5.14,6324.,2.,3.,3675.,0.,0.,10004.,0.911750684342,23.7055177929,26.
5.16,6330.,6.,5.,3665.,0.,0.,10006.,0.912433309245,7.90775534679,78.
5.18,6336.,4.,5.,3658.,0.,0.,10003.,0.913572082221,11.8764370689,52.
5.2,6342.,8.,0.,3659.,0.,0.,10009.,0.913889038327,5.94027874913,104.
5.22,6345.,7.,2.,3656.,0.,0.,10010.,0.914230000768,6.79142286285,91.
5.24,6352.,5.,4.,3645.,0.,0.,10006.,0.915604483464,9.52228662802,65.
5.26,6359.,9.,5.,3635.,0.,0.,10008.,0.916430317285,5.29493072209,117.
5.28,6361.,12.,7.,3626.,0.,0.,10006.,0.916901782008,3.97324105537,156.
5.3,6365.,14.,7.,3620.,0.,0.,10006.,0.917478359138,3.40777676251,182.
5.32,6362.,11.,10.,3624.,0.,0.,10007.,0.916954285846,4.33469298764,143.
5.34,6369.,11.,6.,3623.,0.,0.,10009.,0.91777976744,4.33859526426,143.
5.36,6369.,9.,7.,3620.,0.,0.,10005.,0.918146695883,5.30484757621,117.
5.38,6364.,16.,6.,3617.,0.,0.,10003.,0.917609332585,2.9822303309,208.
5.4,6365.,16.,7.,3612.,0.,0.,10000.,0.918028846154,2.98359375,208.
5.42,6368.,15.,7.,3608.,0.,0.,9998.,0.918645267515,3.18463692739,195.
5.44,6371.,11.,11.,3608.,0.,0.,10001.,0.918802350534,4.34342929343,143.
5.46,6376.,12.,4.,3609.,0.,0.,10001.,0.919523432272,3.98460153985,156.
5.48,6382.,13.,3.,3608.,0.,0.,10006.,0.919928811944,3.67971524777,169.
5.5,6391.,14.,6.,3599.,0.,0.,10010.,0.920857988166,3.42032967033,182.
5.52,6391.,17.,11.,3589.,0.,0.,10008.,0.921042012544,2.81730497955,221.
5.54,6399.,17.,12.,3582.,0.,0.,10010.,0.922010681626,2.82026796733,221.
5.56,6394.,16.,8.,3589.,0.,0.,10007.,0.921566441952,2.99509093634,208.
5.58,6389.,20.,5.,3592.,0.,0.,10006.,0.920937821922,2.394438337,260.
5.6,6393.,13.,10.,3586.,0.,0.,10002.,0.921882931106,3.68753172442,169.
5.62,6394.,16.,1.,3593.,0.,0.,10004.,0.921842801341,2.99598910436,208.
5.64,6395.,14.,4.,3588.,0.,0.,10001.,0.922263542876,3.42555030211,182.
5.66,6399.,11.,6.,3583.,0.,0.,9999.,0.923024994807,4.36339088454,143.
5.68,6415.,14.,7.,3566.,0.,0.,10002.,0.925055373541,3.43591995887,182.
5.7,6418.,14.,10.,3559.,0.,0.,10001.,0.925580518871,3.43787049866,182.
5.72,6420.,17.,2.,3560.,0.,0.,9999.,0.926054143876,2.8326362048,221.
5.74,6428.,14.,6.,3550.,0.,0.,9998.,0.927300844784,3.44426028063,182.
5.76,6421.,19.,3.,3553.,0.,0.,9996.,0.926476359775,2.53561951096,247.
5.78,6425.,18.,1.,3555.,0.,0.,9999.,0.926775369845,2.67735106844,234.
5.8,6433.,9.,9.,3550.,0.,0.,10001.,0.927743764085,5.3602973036,117.
5.82,6438.,9.,7.,3549.,0.,0.,10003.,0.928279208545,5.36339098271,117.
5.84,6436.,9.,8.,3550.,0.,0.,10003.,0.927990833519,5.36172481589,117.
5.86,6444.,10.,5.,3543.,0.,0.,10002.,0.929237229477,4.83203359328,130.
5.88,6444.,10.,6.,3542.,0.,0.,10002.,0.929237229477,4.83203359328,130.
5.9,6450.,9.,5.,3534.,0.,0.,9998.,0.93047455645,5.37607521504,117.
5.92,6455.,9.,7.,3525.,0.,0.,9996.,0.931382168252,5.38131919434,117.
5.94,6455.,12.,8.,3521.,0.,0.,9996.,0.931382168252,4.03598939576,156.
5.96,6457.,18.,4.,3517.,0.,0.,9996.,0.931670745221,2.69149326397,234.
5.98,6460.,17.,4.,3515.,0.,0.,9996.,0.932103610675,2.85114045618,221.
6.,6459.,14.,9.,3515.,0.,0.,9997.,0.931866098291,3.46121693651,182.
6.02,6465.,15.,10.,3510.,0.,0.,10000.,0.932451923077,3.2325,195.
6.04,6470.,16.,7.,3512.,0.,0.,10005.,0.932706723561,3.03129685157,208.
6.06,6460.,18.,10.,3515.,0.,0.,10003.,0.931451333831,2.69085940884,234.
6.08,6461.,16.,3.,3524.,0.,0.,10004.,0.93150239904,3.02738279688,208.
6.1,6465.,10.,7.,3520.,0.,0.,10002.,0.932265469983,4.84778044391,130.
6.12,6465.,14.,5.,3519.,0.,0.,10003.,0.932172271396,3.4623541509,182.
6.14,6468.,13.,6.,3515.,0.,0.,10002.,0.932698075769,3.73079230308,169.
6.16,6471.,9.,7.,3514.,0.,0.,10001.,0.933223985294,5.39196080392,117.
6.18,6466.,10.,11.,3515.,0.,0.,10002.,0.932409671912,4.84853029394,130.
6.2,6458.,19.,10.,3517.,0.,0.,10004.,0.93106987974,2.54819124982,247.
6.22,6452.,24.,7.,3525.,0.,0.,10008.,0.929833056632,2.01463828937,312.
6.24,6452.,26.,2.,3530.,0.,0.,10010.,0.929647275801,1.8592945516,338.
6.26,6455.,18.,9.,3529.,0.,0.,10011.,0.929986630092,2.68662804249,234.
6.28,6453.,23.,8.,3529.,0.,0.,10013.,0.929512787223,2.10150717111,299.
6.3,6451.,21.,12.,3525.,0.,0.,10009.,0.929596055857,2.30185690022,273.
6.32,6442.,21.,11.,3533.,0.,0.,10007.,0.928484676111,2.29910491228,273.
6.34,6430.,24.,8.,3542.,0.,0.,10004.,0.927033032941,2.00857157137,312.
6.36,6435.,25.,8.,3540.,0.,0.,10008.,0.927383093525,1.92895683453,325.
6.38,6435.,19.,9.,3547.,0.,0.,10010.,0.927197802198,2.53759398496,247.
6.4,6439.,19.,6.,3547.,0.,0.,10011.,0.927681473456,2.53891771683,247.
6.42,6441.,16.,7.,3547.,0.,0.,10011.,0.927969618036,3.01590125862,208.
6.44,6435.,15.,11.,3547.,0.,0.,10008.,0.927383093525,3.21492805755,195.
6.46,6436.,16.,8.,3548.,0.,0.,10008.,0.927527209002,3.01446342926,208.
6.48,6438.,14.,10.,3548.,0.,0.,10010.,0.927630062245,3.44548308834,182.
6.5,6439.,18.,4.,3549.,0.,0.,10010.,0.927774148928,2.68023643024,234.
6.52,6438.,7.,15.,3548.,0.,0.,10008.,0.927815439956,6.89234326824,91.
6.54,6442.,11.,7.,3554.,0.,0.,10014.,0.927835645481,4.38613214227,143.
6.56,6443.,18.,6.,3551.,0.,0.,10018.,0.927609149684,2.67975976575,234.
6.58,6448.,13.,8.,3550.,0.,0.,10019.,0.928236350933,3.71294540373,169.
6.6,6445.,20.,4.,3552.,0.,0.,10021.,0.927619307147,2.41181019858,260.
6.62,6449.,21.,6.,3547.,0.,0.,10023.,0.92800980821,2.2979290489,273.
6.64,6458.,17.,4.,3543.,0.,0.,10022.,0.9293976329,2.84286334769,221.
6.66,6454.,17.,3.,3546.,0.,0.,10020.,0.929007369876,2.84166960197,221.
6.68,6461.,18.,1.,3541.,0.,0.,10021.,0.929922163457,2.68644180554,234.
6.7,6462.,15.,7.,3538.,0.,0.,10022.,0.929973289532,3.22390740371,195.
6.72,6464.,11.,9.,3540.,0.,0.,10024.,0.930075511081,4.39672059784,143.
6.74,6457.,15.,8.,3544.,0.,0.,10024.,0.929068312972,3.22077015164,195.
6.76,6455.,15.,5.,3549.,0.,0.,10024.,0.928780542084,3.21977254589,195.
6.78,6462.,16.,6.,3540.,0.,0.,10024.,0.929787740193,3.02181015563,208.
6.8,6460.,13.,12.,3537.,0.,0.,10022.,0.929685461216,3.71874184486,169.
6.82,6452.,18.,10.,3541.,0.,0.,10021.,0.928626806783,2.68269966404,234.
6.84,6446.,19.,12.,3545.,0.,0.,10022.,0.927670663003,2.53888813032,247.
6.86,6448.,19.,8.,3550.,0.,0.,10025.,0.927680798005,2.53891586822,247.
6.88,6436.,25.,8.,3554.,0.,0.,10023.,0.926139110814,1.92636935049,325.
6.9,6438.,22.,12.,3554.,0.,0.,10026.,0.92614970308,2.18908111637,286.
6.92,6430.,26.,13.,3559.,0.,0.,10028.,0.924814365929,1.84962873186,338.
6.94,6432.,23.,10.,3563.,0.,0.,10028.,0.925102022031,2.09153500633,299.
6.96,6428.,17.,15.,3566.,0.,0.,10026.,0.924711135663,2.82852817967,221.
6.98,6421.,17.,14.,3572.,0.,0.,10024.,0.923888436982,2.82601168959,221.
7.,6420.,19.,13.,3574.,0.,0.,10026.,0.923560281729,2.52763866578,247.
7.02,6408.,21.,16.,3578.,0.,0.,10023.,0.922109916423,2.28331979305,273.
7.04,6407.,22.,12.,3581.,0.,0.,10022.,0.922058010838,2.1794098438,286.
7.06,6404.,19.,13.,3588.,0.,0.,10024.,0.921442384431,2.52184231529,247.
7.08,6403.,18.,7.,3598.,0.,0.,10026.,0.92111471712,2.66099807168,234.
7.1,6396.,27.,7.,3595.,0.,0.,10025.,0.920199501247,1.77223607648,351.
7.12,6391.,27.,9.,3596.,0.,0.,10023.,0.919663619828,1.77120400856,351.
7.14,6387.,26.,10.,3595.,0.,0.,10018.,0.919546738947,1.83909347789,338.
7.16,6377.,24.,16.,3599.,0.,0.,10016.,0.918290350823,1.98962909345,312.
7.18,6361.,27.,16.,3611.,0.,0.,10015.,0.916077806367,1.76429799745,351.
7.2,6355.,27.,10.,3619.,0.,0.,10011.,0.91557940112,1.76333810586,351.
7.22,6355.,21.,20.,3619.,0.,0.,10015.,0.915213717885,2.2662434919,273.
7.24,6337.,23.,25.,3626.,0.,0.,10011.,0.912986099905,2.06414248674,299.
7.26,6313.,35.,16.,3646.,0.,0.,10010.,0.909619226927,1.35143428001,455.
7.28,6293.,38.,22.,3655.,0.,0.,10008.,0.906918695813,1.24104663638,494.
7.3,6276.,47.,18.,3663.,0.,0.,10004.,0.904830375542,1.00108892613,611.
7.32,6251.,60.,21.,3673.,0.,0.,10005.,0.901135970476,0.780984507746,780.
7.34,6235.,53.,28.,3692.,0.,0.,10008.,0.898559998155,0.881606035926,689.
7.36,6215.,52.,30.,3715.,0.,0.,10012.,0.895319846953,0.895319846953,676.
7.38,6194.,56.,29.,3731.,0.,0.,10010.,0.892472911704,0.828724846582,728.
7.4,6175.,61.,30.,3739.,0.,0.,10005.,0.890179910045,0.75884189053,793.
7.42,6170.,42.,47.,3748.,0.,0.,10007.,0.889281349209,1.10101500378,546.
7.44,6159.,50.,17.,3785.,0.,0.,10011.,0.887341232337,0.92283488163,650.
7.46,6156.,44.,17.,3798.,0.,0.,10015.,0.88655478321,1.04774656198,572.
7.48,6149.,29.,34.,3805.,0.,0.,10017.,0.885369871219,1.58755976908,377.
7.5,6129.,43.,19.,3824.,0.,0.,10015.,0.882666385038,1.06741051214,559.
7.52,6117.,37.,7.,3850.,0.,0.,10011.,0.881290196169,1.23857000543,481.
7.54,6121.,32.,13.,3845.,0.,0.,10011.,0.881866485328,1.43303303866,416.
7.56,6114.,27.,19.,3851.,0.,0.,10011.,0.8808579793,1.69646721939,351.
7.58,6106.,33.,9.,3864.,0.,0.,10012.,0.87961753588,1.38606399593,429.
7.6,6108.,29.,10.,3864.,0.,0.,10011.,0.879993545561,1.57791946101,377.
7.62,6107.,25.,13.,3865.,0.,0.,10010.,0.879937370322,1.83026973027,325.
7.64,6101.,28.,14.,3868.,0.,0.,10011.,0.878985039533,1.6324007877,364.
7.66,6093.,28.,18.,3869.,0.,0.,10008.,0.878095600443,1.63074897225,364.
7.68,6084.,31.,14.,3873.,0.,0.,10002.,0.877324535093,1.47164115564,403.
7.7,6087.,28.,14.,3875.,0.,0.,10004.,0.877581659644,1.62979451077,364.
7.72,6075.,25.,20.,3882.,0.,0.,10002.,0.876026717733,1.82213557289,325.
7.74,6075.,25.,14.,3886.,0.,0.,10000.,0.876201923077,1.8225,325.
7.76,6067.,32.,12.,3890.,0.,0.,10001.,0.874960580865,1.42181094391,416.
7.78,6070.,23.,21.,3890.,0.,0.,10004.,0.875130716944,1.97855640353,299.
7.8,6056.,32.,12.,3902.,0.,0.,10002.,0.873286881085,1.41909118176,416.
7.82,6064.,25.,9.,3907.,0.,0.,10005.,0.874178295468,1.81829085457,325.
7.84,6070.,18.,7.,3909.,0.,0.,10004.,0.875130716944,2.5281554045,234.
7.86,6076.,12.,9.,3908.,0.,0.,10005.,0.875908199746,3.7956021989,156.
7.88,6072.,15.,6.,3911.,0.,0.,10004.,0.875419063144,3.03478608557,195.
7.9,6074.,13.,10.,3905.,0.,0.,10002.,0.875882515805,3.50353006322,169.
7.92,6080.,14.,7.,3900.,0.,0.,10001.,0.876835393384,3.25681717543,182.
7.94,6072.,15.,6.,3904.,0.,0.,9997.,0.876032040381,3.03691107332,195.
7.96,6078.,14.,4.,3904.,0.,0.,10000.,0.876634615385,3.25607142857,182.
7.98,6086.,13.,2.,3900.,0.,0.,10001.,0.877700691469,3.51080276588,169.
8.,6092.,11.,4.,3892.,0.,0.,9999.,0.878741720326,4.15405176881,143.
8.02,6096.,12.,2.,3889.,0.,0.,9999.,0.879318701101,3.8103810381,156.
8.04,6107.,10.,6.,3876.,0.,0.,9999.,0.880905398232,4.58070807081,130.
8.06,6109.,16.,4.,3869.,0.,0.,9998.,0.881282025636,2.86416658332,208.
8.08,6106.,16.,5.,3870.,0.,0.,9997.,0.880937358131,2.86304641392,208.
8.1,6112.,11.,14.,3863.,0.,0.,10000.,0.881538461538,4.16727272727,143.
8.12,6100.,20.,7.,3868.,0.,0.,9995.,0.880247816216,2.28864432216,260.
8.14,6102.,12.,13.,3869.,0.,0.,9996.,0.880448333179,3.81527611044,156.
8.16,6092.,17.,17.,3870.,0.,0.,9996.,0.879005448333,2.68872254784,221.
8.18,6079.,23.,22.,3873.,0.,0.,9997.,0.877041958741,1.98287747194,299.
8.2,6066.,25.,12.,3891.,0.,0.,9994.,0.875429103616,1.82089253552,325.
8.22,6069.,20.,15.,3889.,0.,0.,9993.,0.875949703254,2.27746922846,260.
8.24,6073.,23.,6.,3892.,0.,0.,9994.,0.876439325134,1.98151499595,299.
8.26,6068.,23.,8.,3894.,0.,0.,9993.,0.875805371452,1.98008170937,299.
8.28,6070.,21.,6.,3895.,0.,0.,9992.,0.876181714602,2.16959281711,273.
8.3,6067.,18.,11.,3895.,0.,0.,9991.,0.87583632962,2.53019384112,234.
8.32,6062.,19.,15.,3893.,0.,0.,9989.,0.875289741793,2.39552981964,247.
8.34,6057.,25.,17.,3890.,0.,0.,9989.,0.874567793804,1.81910101111,325.
8.36,6049.,25.,15.,3901.,0.,0.,9990.,0.873325248325,1.81651651652,325.
8.38,6057.,18.,15.,3902.,0.,0.,9992.,0.874305213401,2.52577061649,234.
8.4,6066.,25.,7.,3896.,0.,0.,9994.,0.875429103616,1.82089253552,325.
8.42,6059.,25.,7.,3899.,0.,0.,9990.,0.874768999769,1.81951951952,325.
8.44,6060.,18.,12.,3900.,0.,0.,9990.,0.874913374913,2.52752752753,234.
8.46,6053.,17.,13.,3907.,0.,0.,9990.,0.873902748903,2.67311429076,221.
8.48,6059.,16.,7.,3912.,0.,0.,9994.,0.874418882098,2.84186136682,208.
8.5,6063.,14.,8.,3905.,0.,0.,9990.,0.875346500347,3.25128700129,182.
8.52,6060.,16.,5.,3907.,0.,0.,9988.,0.87508856782,2.84403784541,208.
8.54,6065.,11.,5.,3908.,0.,0.,9989.,0.875722910586,4.13978103186,143.
8.56,6069.,12.,2.,3906.,0.,0.,9989.,0.876300468977,3.79730203224,156.
8.58,6067.,11.,2.,3905.,0.,0.,9985.,0.876362620854,4.14280511677,143.
8.6,6070.,11.,5.,3891.,0.,0.,9977.,0.87749901697,4.14817717113,143.
8.62,6073.,14.,4.,3889.,0.,0.,9980.,0.877668799137,3.25991268251,182.
8.64,6073.,10.,8.,3888.,0.,0.,9979.,0.877756750715,4.56433510372,130.
8.66,6078.,9.,10.,3886.,0.,0.,9983.,0.878127432019,5.07362516278,117.
8.68,6078.,7.,9.,3890.,0.,0.,9984.,0.87803947855,6.52257898352,91.
8.7,6070.,15.,3.,3892.,0.,0.,9980.,0.87723523971,3.04108216433,195.
8.72,6076.,8.,10.,3886.,0.,0.,9980.,0.878102358563,5.70766533066,104.
8.74,6073.,10.,8.,3888.,0.,0.,9979.,0.877756750715,4.56433510372,130.
8.76,6074.,13.,7.,3882.,0.,0.,9976.,0.878165289001,3.51266115601,169.
8.78,6068.,11.,5.,3887.,0.,0.,9971.,0.877737747159,4.14930571384,143.
8.8,6073.,11.,7.,3879.,0.,0.,9970.,0.878549108865,4.15314124191,143.
8.82,6069.,17.,8.,3872.,0.,0.,9966.,0.878322836104,2.6866345575,221.
8.84,6066.,16.,10.,3871.,0.,0.,9963.,0.878153012299,2.85399728997,208.
8.86,6077.,14.,13.,3865.,0.,0.,9969.,0.879215954073,3.26565925799,182.
8.88,6077.,15.,13.,3866.,0.,0.,9971.,0.879039599454,3.04733727811,195.
8.9,6076.,16.,12.,3866.,0.,0.,9970.,0.878983103156,2.85669508526,208.
8.92,6077.,12.,12.,3869.,0.,0.,9970.,0.879127767919,3.80955366098,156.
8.94,6069.,11.,12.,3873.,0.,0.,9965.,0.878410976881,4.15248825434,143.
8.96,6075.,11.,4.,3873.,0.,0.,9963.,0.879455909944,4.15742793792,143.
8.98,6085.,12.,4.,3868.,0.,0.,9969.,0.880373388273,3.81495134918,156.
9.,6090.,13.,5.,3860.,0.,0.,9968.,0.881185177182,3.52474070873,169.
9.02,6082.,18.,4.,3861.,0.,0.,9965.,0.88029256243,2.54306740258,234.
9.04,6082.,10.,8.,3863.,0.,0.,9963.,0.880469274778,4.57844022885,130.
9.06,6079.,18.,7.,3858.,0.,0.,9962.,0.88012331475,2.54257846483,234.
9.08,6079.,17.,10.,3856.,0.,0.,9962.,0.88012331475,2.69214190394,221.
9.1,6076.,20.,7.,3860.,0.,0.,9963.,0.879600676349,2.28696175851,260.
9.12,6078.,21.,7.,3853.,0.,0.,9959.,0.880243614203,2.17965085422,273.
9.14,6080.,14.,11.,3852.,0.,0.,9957.,0.880710130484,3.27120905608,182.
9.16,6083.,17.,7.,3850.,0.,0.,9957.,0.881144691404,2.69526611488,221.
9.18,6083.,16.,8.,3848.,0.,0.,9955.,0.881321716957,2.86429558011,208.
9.2,6077.,19.,9.,3849.,0.,0.,9954.,0.880540872629,2.40990133562,247.
9.22,6080.,18.,11.,3847.,0.,0.,9956.,0.880798590722,2.54452926209,234.
9.24,6079.,19.,10.,3848.,0.,0.,9956.,0.880653722533,2.41021018799,247.
9.26,6078.,14.,14.,3850.,0.,0.,9956.,0.880508854344,3.27046145899,182.
9.28,6077.,12.,11.,3854.,0.,0.,9954.,0.880540872629,3.81567711473,156.
9.3,6075.,12.,7.,3858.,0.,0.,9952.,0.880427977368,3.81518790193,156.
9.32,6070.,15.,10.,3857.,0.,0.,9952.,0.879703345288,3.04963826367,195.
9.34,6063.,16.,9.,3862.,0.,0.,9950.,0.878865481252,2.85631281407,208.
9.36,6059.,15.,7.,3868.,0.,0.,9949.,0.878373937852,3.04502965122,195.
9.38,6062.,16.,4.,3868.,0.,0.,9950.,0.878720525705,2.85584170854,208.
9.4,6063.,13.,10.,3864.,0.,0.,9950.,0.878865481252,3.51546192501,169.
9.42,6063.,19.,11.,3858.,0.,0.,9951.,0.87877716194,2.40507433794,247.
9.44,6060.,18.,7.,3864.,0.,0.,9949.,0.878518907969,2.53794351191,234.
9.46,6056.,16.,9.,3866.,0.,0.,9947.,0.878115550881,2.85387554036,208.
9.48,6052.,18.,7.,3866.,0.,0.,9943.,0.877888580292,2.53612256529,234.
9.5,6050.,14.,10.,3868.,0.,0.,9942.,0.87768673692,3.25997930856,182.
9.52,6051.,23.,3.,3868.,0.,0.,9945.,0.877567003133,1.98406452882,299.
9.54,6054.,19.,10.,3864.,0.,0.,9947.,0.877825552351,2.40246993275,247.
9.56,6048.,21.,12.,3867.,0.,0.,9948.,0.876867402802,2.1712907117,273.
9.58,6044.,20.,16.,3871.,0.,0.,9951.,0.876023283319,2.27766053663,260.
9.6,6034.,23.,16.,3879.,0.,0.,9952.,0.874485994311,1.97709876975,299.
9.62,6027.,25.,13.,3886.,0.,0.,9951.,0.873559286658,1.81700331625,325.
9.64,6020.,29.,14.,3890.,0.,0.,9953.,0.872369366793,1.56424851977,377.
9.66,6022.,17.,16.,3900.,0.,0.,9955.,0.872483869721,2.66877418974,221.
9.68,6014.,26.,8.,3906.,0.,0.,9954.,0.871412342931,1.74282468586,338.
9.7,6012.,26.,9.,3910.,0.,0.,9957.,0.870860082972,1.74172016594,338.
9.72,6018.,19.,15.,3907.,0.,0.,9959.,0.87155414121,2.38530607068,247.
9.74,6024.,25.,3.,3911.,0.,0.,9963.,0.872072823292,1.81391147245,325.
9.76,6025.,20.,8.,3911.,0.,0.,9964.,0.872130052805,2.26753813729,260.
9.78,6025.,16.,14.,3909.,0.,0.,9964.,0.872130052805,2.83442267162,208.
9.8,6006.,28.,8.,3920.,0.,0.,9962.,0.869554306364,1.61488656896,364.
9.82,6007.,28.,9.,3916.,0.,0.,9960.,0.869873725672,1.61547977625,364.
9.84,6006.,22.,16.,3921.,0.,0.,9965.,0.869292523833,2.05469141997,286.
9.86,6003.,22.,13.,3929.,0.,0.,9967.,0.868683964776,2.05325300765,286.
9.88,6005.,19.,4.,3939.,0.,0.,9967.,0.868973381389,2.37824293854,247.
9.9,6009.,16.,4.,3937.,0.,0.,9966.,0.869639466494,2.8263282661,208.
9.92,6016.,12.,7.,3933.,0.,0.,9968.,0.87047783677,3.772070626,156.
9.94,6019.,12.,8.,3929.,0.,0.,9968.,0.870911918138,3.77395164526,156.
9.96,6018.,6.,10.,3928.,0.,0.,9962.,0.871291677606,7.55119453925,78.
9.98,6018.,10.,13.,3922.,0.,0.,9963.,0.871204224863,4.53026196929,130.
10.,6019.,15.,13.,3917.,0.,0.,9964.,0.87126154155,3.02037334404,195.
