t,neff
5.,0.106581333333
5.02,0.213209560393
5.04,0.149040920716
5.06,0.191394829237
5.08,0.169993089885
5.1,0.127360203919
5.12,0.127286624204
5.14,0.105920390099
5.16,0.105792037272
5.18,0.126877282108
5.2,0.1903763697
5.22,0.148070509767
5.24,0.168955129222
5.26,0.189923954372
5.28,0.210847314551
5.3,0.210664980504
5.32,0.27368709202
5.34,0.315684725952
5.36,0.294546028738
5.38,0.315268138801
5.4,0.378061465721
5.42,0.356945538575
5.44,0.314523996853
5.46,0.293480176211
5.48,0.272443256277
5.5,0.272474437628
5.52,0.545338578547
5.54,0.31408826763
5.56,0.376943615517
5.58,0.355915802702
5.6,0.335137513751
5.62,0.377072787298
5.64,0.314079195474
5.66,0.23017014816
5.68,0.209102322662
5.7,0.125294855709
5.72,0.125262662694
5.74,0.104293324977
5.76,0.145997910136
5.78,0.208592035121
5.8,0.166731391586
5.82,0.124950711939
5.84,0.166504065041
5.86,0.124754021552
5.88,0.249586002187
5.9,0.207876801415
5.92,0.228491468997
5.94,0.186855806703
5.96,0.103798389192
5.98,0.0829998961256
6.,0.166062685171
6.02,0.0829971421147
6.04,0.103617208989
6.06,0.144914190906
6.08,0.144914190906
6.1,0.0827694859035
6.12,0.206898694841
6.14,0.165373906743
6.16,0.22710704502
6.18,0.206394958417
6.2,0.206171310629
6.22,0.144157129601
6.24,0.164682122617
6.26,0.288343128158
6.28,0.288282828283
6.3,0.267773997319
6.32,0.123505951461
6.34,0.246924265842
6.36,0.287957985789
6.38,0.22594044129
6.4,0.390487076511
6.42,0.410893178894
6.44,0.369683690789
6.46,0.472322484447
6.48,0.431403887689
6.5,0.452546839613
6.52,0.369996914533
6.54,0.432440117448
6.56,0.412226173908
6.58,0.535971964543
6.6,0.391810731406
6.62,0.371243042672
6.64,0.288907450374
6.66,0.30944212641
6.68,0.329816759317
6.7,0.226422037208
6.72,0.14397576131
6.74,0.102798746983
6.76,0.205681409565
6.78,0.226237288135
6.8,0.246777572397
6.82,0.205478608803
6.84,0.184885331691
6.86,0.225969123455
6.88,0.328955990346
6.9,0.246627656298
6.92,0.369830612874
6.94,0.308002462296
6.96,0.205196003075
6.98,0.369921478061
7.,0.329057379155
7.02,0.515128125965
7.04,0.556757758222
7.06,0.370808143121
7.08,0.370939379917
7.1,0.308810844116
7.12,0.349842931937
7.14,0.329010617018
7.16,0.308316679477
7.18,0.349586793807
7.2,0.349928663074
7.22,0.349931721341
7.24,0.288152826991
7.26,0.226161895968
7.28,0.329129720854
7.3,0.226000205065
7.32,0.308068234209
7.34,0.308039969254
7.36,0.369707782221
7.38,0.47254974359
7.4,0.30777265745
7.42,0.307456274931
7.44,0.225445433159
7.46,0.184380368098
7.48,0.0818088092689
7.5,0.265701754386
7.52,0.245123032248
7.54,0.204080801913
7.56,0.204020970122
7.58,0.142676428717
7.6,0.244750419783
7.62,0.224159804818
7.64,0.408267155366
7.66,0.408391893268
7.68,0.449529633593
7.7,0.470153438343
7.72,0.613999081022
7.74,0.552908366533
7.76,0.594169477666
7.78,0.655937004654
7.8,0.615446031017
7.82,0.430656844691
7.84,0.575091710216
7.86,0.4312292563
7.88,0.57553880084
7.9,0.308182097816
7.92,0.143654791155
7.94,0.205249424405
7.96,0.164174340086
7.98,0.123042944785
8.,0.122879019908
8.02,0.10234123948
8.04,0.122753135515
8.06,0.102258245399
8.08,0.0816653942077
8.1,0.122421839256
8.12,0.0611485148515
8.14,0.122234738925
8.16,0.0814411122949
8.18,0.122075155941
8.2,0.101610942249
8.22,0.20332421202
8.24,0.263999190447
8.26,0.223169067475
8.28,0.182490909091
8.3,0.263717851549
8.32,0.243149606299
8.34,0.263398435529
8.36,0.263265244364
8.38,0.121378476421
8.4,0.283459928381
8.42,0.344219128329
8.44,0.323937468482
8.46,0.303506650544
8.48,0.384539543323
8.5,0.445302273987
8.52,0.404984612281
8.54,0.547638678389
8.56,0.60879854369
8.58,0.712034078808
8.6,0.631301345519
8.62,0.632587391237
8.64,0.612836185819
8.66,0.593469096107
8.68,0.615035286897
8.7,0.801926746693
8.72,0.700263049733
8.74,0.681874130198
8.76,0.724471985539
8.78,0.851437156771
8.8,0.748641667962
8.82,0.729125759703
8.84,0.794311333544
8.86,0.815841026441
8.88,0.943569636132
8.9,0.712695724888
8.92,0.545336679214
8.94,0.587629362213
8.96,0.735722519122
8.98,0.673468659849
9.,0.673970704048
9.02,0.506014824161
9.04,0.676500105419
9.06,0.486137465738
9.08,0.549894514767
9.1,0.423129682388
9.12,0.423658639629
9.14,0.444893819335
9.16,0.529573299536
9.18,0.528999261837
9.2,0.423125164691
9.22,0.507750197629
9.24,0.401714857534
9.26,0.316956109883
9.28,0.338044542726
9.3,0.38064516129
9.32,0.338097946288
9.34,0.443938053097
9.36,0.636118598381
9.38,0.657623427422
9.4,0.808056394761
9.42,0.724235569009
9.44,0.788751461058
9.46,0.812529709563
9.48,1.09404105196
9.5,0.881272698054
9.52,1.0341475991
9.54,1.16714932127
9.56,1.14787564767
9.58,1.10749797045
9.6,0.870047680967
9.62,0.937256690011
9.64,0.938564437191
9.66,0.852066601372
9.68,0.941020608437
9.7,0.634272331157
9.72,0.699822527082
9.74,0.524799999999
9.76,0.568646530611
9.78,0.656708612519
9.8,0.855033557049
9.82,0.680000000002
9.84,0.70345747881
9.86,0.837387728242
9.88,0.948757136584
9.9,1.13022008936
9.92,0.931724937863
9.94,1.15790127565
9.96,1.13931218698
9.98,1.14389540731
10.,1.32818666218
