t,prevalence
5.,2
5.02,1
5.04,3
5.06,4
5.08,0
5.1,0
5.12,0
5.14,0
5.16,1
5.18,3
5.2,0
5.22,1
5.24,1
5.26,1
5.28,2
5.3,0
5.32,0
5.34,2
5.36,1
5.38,1
5.4,2
5.42,3
5.44,1
5.46,2
5.48,2
5.5,7
5.52,5
5.54,8
5.56,2
5.58,5
5.6,6
5.62,5
5.64,3
5.66,2
5.68,3
5.7,7
5.72,7
5.74,5
5.76,12
5.78,9
5.8,4
5.82,13
5.84,6
5.86,7
5.88,8
5.9,10
5.92,6
5.94,6
5.96,11
5.98,10
6.,6
6.02,5
6.04,11
6.06,5
6.08,3
6.1,4
6.12,8
6.14,13
6.16,11
6.18,3
6.2,4
6.22,8
6.24,7
6.26,4
6.28,2
6.3,2
6.32,4
6.34,1
6.36,6
6.38,3
6.4,3
6.42,2
6.44,4
6.46,1
6.48,2
6.5,1
6.52,3
6.54,2
6.56,1
6.58,4
6.6,1
6.62,7
6.64,2
6.66,2
6.68,3
6.7,3
6.72,0
6.74,0
6.76,1
6.78,1
6.8,0
6.82,0
6.84,0
6.86,1
6.88,0
6.9,0
6.92,1
6.94,0
6.96,3
6.98,4
7.,3
7.02,1
7.04,3
7.06,5
7.08,2
7.1,5
7.12,5
7.14,2
7.16,5
7.18,0
7.2,5
7.22,4
7.24,1
7.26,6
7.28,5
7.3,5
7.32,1
7.34,2
7.36,1
7.38,2
7.4,2
7.42,4
7.44,6
7.46,7
7.48,4
7.5,3
7.52,3
7.54,5
7.56,5
7.58,2
7.6,6
7.62,5
7.64,5
7.66,4
7.68,5
7.7,8
7.72,5
7.74,7
7.76,7
7.78,4
7.8,3
7.82,3
7.84,10
7.86,9
7.88,2
7.9,12
7.92,9
7.94,6
7.96,2
7.98,6
8.,10
8.02,13
8.04,9
8.06,12
8.08,12
8.1,15
8.12,12
8.14,12
8.16,9
8.18,9
8.2,5
8.22,8
8.24,13
8.26,5
8.28,6
8.3,6
8.32,7
8.34,8
8.36,7
8.38,9
8.4,13
8.42,6
8.44,13
8.46,13
8.48,16
8.5,11
8.52,9
8.54,8
8.56,8
8.58,4
8.6,10
8.62,11
8.64,2
8.66,9
8.68,8
8.7,6
8.72,1
8.74,10
8.76,5
8.78,9
8.8,9
8.82,7
8.84,2
8.86,4
8.88,9
8.9,5
8.92,2
8.94,6
8.96,1
8.98,8
9.,2
9.02,7
9.04,10
9.06,6
9.08,6
9.1,5
9.12,9
9.14,3
9.16,0
9.18,7
9.2,8
9.22,8
9.24,5
9.26,8
9.28,8
9.3,2
9.32,10
9.34,9
9.36,4
9.38,4
9.4,3
9.42,1
9.44,6
9.46,9
9.48,1
9.5,3
9.52,4
9.54,5
9.56,4
9.58,3
9.6,3
9.62,2
9.64,5
9.66,5
9.68,5
9.7,6
9.72,6
9.74,7
9.76,4
9.78,6
9.8,5
9.82,5
9.84,1
9.86,0
9.88,3
9.9,4
9.92,8
9.94,4
9.96,6
9.98,4
10.,6
