t,cases
5.01,0.715
5.02,0.715
5.03,0.78
5.04,0.78
5.05,0.91
5.06,0.91
5.07,0.91
5.08,0.91
5.09,0.91
5.1,0.91
5.11,0.975
5.12,0.975
5.13,0.91
5.14,0.91
5.15,0.975
5.16,0.975
5.17,0.845
5.18,0.845
5.19,0.715
5.2,0.715
5.21,0.78
5.22,0.78
5.23,0.78
5.24,0.78
5.25,0.845
5.26,0.845
5.27,0.975
5.28,0.975
5.29,1.04
5.3,1.04
5.31,0.845
5.32,0.845
5.33,0.91
5.34,0.91
5.35,1.04
5.36,1.04
5.37,0.65
5.38,0.65
5.39,0.455
5.4,0.455
5.41,0.455
5.42,0.455
5.43,0.325
5.44,0.325
5.45,0.26
5.46,0.26
5.47,0.13
5.48,0.13
5.49,0.13
5.5,0.13
5.51,0.455
5.52,0.455
5.53,0.585
5.54,0.585
5.55,0.585
5.56,0.585
5.57,1.17
5.58,1.17
5.59,1.95
5.6,1.95
5.61,1.625
5.62,1.625
5.63,1.17
5.64,1.17
5.65,1.82
5.66,1.82
5.67,2.405
5.68,2.405
5.69,2.925
5.7,2.925
5.71,3.25
5.72,3.25
5.73,3.705
5.74,3.705
5.75,4.81
5.76,4.81
5.77,5.005
5.78,5.005
5.79,4.745
5.8,4.745
5.81,4.485
5.82,4.485
5.83,4.615
5.84,4.615
5.85,5.46
5.86,5.46
5.87,5.785
5.88,5.785
5.89,5.85
5.9,5.85
5.91,5.005
5.92,5.005
5.93,4.94
5.94,4.94
5.95,5.33
5.96,5.33
5.97,4.355
5.98,4.355
5.99,4.095
6.,4.095
6.01,4.29
6.02,4.29
6.03,4.355
6.04,4.355
6.05,4.16
6.06,4.16
6.07,3.77
6.08,3.77
6.09,3.38
6.1,3.38
6.11,2.405
6.12,2.405
6.13,1.95
6.14,1.95
6.15,2.21
6.16,2.21
6.17,2.665
6.18,2.665
6.19,2.73
6.2,2.73
6.21,2.145
6.22,2.145
6.23,1.755
6.24,1.755
6.25,1.56
6.26,1.56
6.27,1.69
6.28,1.69
6.29,2.015
6.3,2.015
6.31,1.95
6.32,1.95
6.33,1.82
6.34,1.82
6.35,1.69
6.36,1.69
6.37,1.82
6.38,1.82
6.39,2.47
6.4,2.47
6.41,2.145
6.42,2.145
6.43,1.365
6.44,1.365
6.45,1.235
6.46,1.235
6.47,1.495
6.48,1.495
6.49,1.625
6.5,1.625
6.51,1.365
6.52,1.365
6.53,1.17
6.54,1.17
6.55,0.975
6.56,0.975
6.57,0.715
6.58,0.715
6.59,0.585
6.6,0.585
6.61,0.65
6.62,0.65
6.63,0.715
6.64,0.715
6.65,0.91
6.66,0.91
6.67,1.04
6.68,1.04
6.69,0.91
6.7,0.91
6.71,1.3
6.72,1.3
6.73,1.755
6.74,1.755
6.75,1.3
6.76,1.3
6.77,0.715
6.78,0.715
6.79,0.91
6.8,0.91
6.81,1.105
6.82,1.105
6.83,0.91
6.84,0.91
6.85,0.65
6.86,0.65
6.87,0.65
6.88,0.65
6.89,0.975
6.9,0.975
6.91,0.91
6.92,0.91
6.93,0.78
6.94,0.78
6.95,0.715
6.96,0.715
6.97,0.78
6.98,0.78
6.99,1.105
7.,1.105
7.01,1.3
7.02,1.3
7.03,1.365
7.04,1.365
7.05,1.17
7.06,1.17
7.07,1.69
7.08,1.69
7.09,2.34
7.1,2.34
7.11,1.95
7.12,1.95
7.13,2.21
7.14,2.21
7.15,2.86
7.16,2.86
7.17,2.795
7.18,2.795
7.19,2.925
7.2,2.925
7.21,3.315
7.22,3.315
7.23,4.29
7.24,4.29
7.25,4.745
7.26,4.745
7.27,4.615
7.28,4.615
7.29,4.29
7.3,4.29
7.31,4.16
7.32,4.16
7.33,4.29
7.34,4.29
7.35,4.81
7.36,4.81
7.37,5.2
7.38,5.2
7.39,4.615
7.4,4.615
7.41,5.07
7.42,5.07
7.43,5.2
7.44,5.2
7.45,4.355
7.46,4.355
7.47,3.965
7.48,3.965
7.49,4.225
7.5,4.225
7.51,4.875
7.52,4.875
7.53,5.135
7.54,5.135
7.55,4.615
7.56,4.615
7.57,4.55
7.58,4.55
7.59,5.2
7.6,5.2
7.61,5.07
7.62,5.07
7.63,4.29
7.64,4.29
7.65,3.38
7.66,3.38
7.67,2.6
7.68,2.6
7.69,2.535
7.7,2.535
7.71,3.185
7.72,3.185
7.73,3.12
7.74,3.12
7.75,2.275
7.76,2.275
7.77,2.145
7.78,2.145
7.79,2.535
7.8,2.535
7.81,2.535
7.82,2.535
7.83,2.34
7.84,2.34
7.85,2.34
7.86,2.34
7.87,2.145
7.88,2.145
7.89,2.21
7.9,2.21
7.91,2.535
7.92,2.535
7.93,2.665
7.94,2.665
7.95,2.6
7.96,2.6
7.97,2.47
7.98,2.47
7.99,2.86
8.,2.86
8.01,3.445
8.02,3.445
8.03,3.705
8.04,3.705
8.05,3.25
8.06,3.25
8.07,2.86
8.08,2.86
8.09,3.445
8.1,3.445
8.11,4.16
8.12,4.16
8.13,4.03
8.14,4.03
8.15,3.445
8.16,3.445
8.17,3.315
8.18,3.315
8.19,3.575
8.2,3.575
8.21,3.835
8.22,3.835
8.23,3.64
8.24,3.64
8.25,2.86
8.26,2.86
8.27,2.275
8.28,2.275
8.29,2.535
8.3,2.535
8.31,2.08
8.32,2.08
8.33,2.08
8.34,2.08
8.35,2.47
8.36,2.47
8.37,2.015
8.38,2.015
8.39,2.145
8.4,2.145
8.41,2.6
8.42,2.6
8.43,2.6
8.44,2.6
8.45,2.08
8.46,2.08
8.47,1.82
8.48,1.82
8.49,2.015
8.5,2.015
8.51,2.47
8.52,2.47
8.53,2.47
8.54,2.47
8.55,2.405
8.56,2.405
8.57,2.665
8.58,2.665
8.59,2.73
8.6,2.73
8.61,2.535
8.62,2.535
8.63,2.925
8.64,2.925
8.65,2.99
8.66,2.99
8.67,2.015
8.68,2.015
8.69,1.95
8.7,1.95
8.71,2.405
8.72,2.405
8.73,2.47
8.74,2.47
8.75,2.34
8.76,2.34
8.77,2.405
8.78,2.405
8.79,2.275
8.8,2.275
8.81,2.21
8.82,2.21
8.83,2.275
8.84,2.275
8.85,2.6
8.86,2.6
8.87,3.12
8.88,3.12
8.89,3.12
8.9,3.12
8.91,2.925
8.92,2.925
8.93,2.86
8.94,2.86
8.95,2.6
8.96,2.6
8.97,1.885
8.98,1.885
8.99,2.145
9.,2.145
9.01,2.73
9.02,2.73
9.03,2.795
9.04,2.795
9.05,2.275
9.06,2.275
9.07,1.495
9.08,1.495
9.09,1.235
9.1,1.235
9.11,1.105
9.12,1.105
9.13,0.975
9.14,0.975
9.15,0.975
9.16,0.975
9.17,1.17
9.18,1.17
9.19,1.235
9.2,1.235
9.21,1.3
9.22,1.3
9.23,1.365
9.24,1.365
9.25,1.3
9.26,1.3
9.27,1.17
9.28,1.17
9.29,1.17
9.3,1.17
9.31,1.365
9.32,1.365
9.33,1.17
9.34,1.17
9.35,0.715
9.36,0.715
9.37,0.78
9.38,0.78
9.39,1.04
9.4,1.04
9.41,0.975
9.42,0.975
9.43,0.715
9.44,0.715
9.45,0.52
9.46,0.52
9.47,0.585
9.48,0.585
9.49,0.65
9.5,0.65
9.51,1.04
9.52,1.04
9.53,1.17
9.54,1.17
9.55,0.975
9.56,0.975
9.57,1.3
9.58,1.3
9.59,1.105
9.6,1.105
9.61,1.365
9.62,1.365
9.63,1.885
9.64,1.885
9.65,1.625
9.66,1.625
9.67,1.82
9.68,1.82
9.69,1.885
9.7,1.885
9.71,1.3
9.72,1.3
9.73,1.17
9.74,1.17
9.75,1.625
9.76,1.625
9.77,1.495
9.78,1.495
9.79,1.105
9.8,1.105
9.81,0.975
9.82,0.975
9.83,0.975
9.84,0.975
9.85,1.235
9.86,1.235
9.87,1.3
9.88,1.3
9.89,1.04
9.9,1.04
9.91,1.235
9.92,1.235
9.93,1.43
9.94,1.43
9.95,1.17
9.96,1.17
9.97,0.78
9.98,0.78
9.99,0.585
10.,0.585
