t,cases
5.01,0.845
5.02,0.845
5.03,1.3
5.04,1.3
5.05,1.755
5.06,1.755
5.07,1.82
5.08,1.82
5.09,1.82
5.1,1.82
5.11,2.08
5.12,2.08
5.13,2.665
5.14,2.665
5.15,3.445
5.16,3.445
5.17,4.095
5.18,4.095
5.19,4.225
5.2,4.225
5.21,4.29
5.22,4.29
5.23,4.55
5.24,4.55
5.25,4.42
5.26,4.42
5.27,4.095
5.28,4.095
5.29,3.77
5.3,3.77
5.31,4.095
5.32,4.095
5.33,4.745
5.34,4.745
5.35,4.16
5.36,4.16
5.37,3.315
5.38,3.315
5.39,3.38
5.4,3.38
5.41,3.445
5.42,3.445
5.43,2.86
5.44,2.86
5.45,2.405
5.46,2.405
5.47,2.535
5.48,2.535
5.49,2.86
5.5,2.86
5.51,2.99
5.52,2.99
5.53,2.86
5.54,2.86
5.55,2.73
5.56,2.73
5.57,2.34
5.58,2.34
5.59,2.21
5.6,2.21
5.61,2.145
5.62,2.145
5.63,1.56
5.64,1.56
5.65,1.235
5.66,1.235
5.67,1.56
5.68,1.56
5.69,1.625
5.7,1.625
5.71,1.495
5.72,1.495
5.73,1.43
5.74,1.43
5.75,1.625
5.76,1.625
5.77,2.015
5.78,2.015
5.79,1.82
5.8,1.82
5.81,1.95
5.82,1.95
5.83,2.21
5.84,2.21
5.85,2.015
5.86,2.015
5.87,1.755
5.88,1.755
5.89,1.495
5.9,1.495
5.91,1.625
5.92,1.625
5.93,1.755
5.94,1.755
5.95,1.56
5.96,1.56
5.97,1.365
5.98,1.365
5.99,1.365
6.,1.365
6.01,1.43
6.02,1.43
6.03,1.56
6.04,1.56
6.05,1.755
6.06,1.755
6.07,1.56
6.08,1.56
6.09,1.3
6.1,1.3
6.11,1.235
6.12,1.235
6.13,1.17
6.14,1.17
6.15,1.04
6.16,1.04
6.17,1.235
6.18,1.235
6.19,1.625
6.2,1.625
6.21,1.495
6.22,1.495
6.23,1.365
6.24,1.365
6.25,1.56
6.26,1.56
6.27,1.43
6.28,1.43
6.29,0.91
6.3,0.91
6.31,0.52
6.32,0.52
6.33,0.39
6.34,0.39
6.35,0.455
6.36,0.455
6.37,0.52
6.38,0.52
6.39,0.52
6.4,0.52
6.41,0.585
6.42,0.585
6.43,0.78
6.44,0.78
6.45,1.04
6.46,1.04
6.47,1.235
6.48,1.235
6.49,1.235
6.5,1.235
6.51,1.56
6.52,1.56
6.53,1.82
6.54,1.82
6.55,1.43
6.56,1.43
6.57,1.625
6.58,1.625
6.59,2.015
6.6,2.015
6.61,2.08
6.62,2.08
6.63,2.34
6.64,2.34
6.65,2.405
6.66,2.405
6.67,2.145
6.68,2.145
6.69,2.015
6.7,2.015
6.71,1.95
6.72,1.95
6.73,1.56
6.74,1.56
6.75,2.015
6.76,2.015
6.77,2.405
6.78,2.405
6.79,2.015
6.8,2.015
6.81,1.755
6.82,1.755
6.83,1.17
6.84,1.17
6.85,0.975
6.86,0.975
6.87,1.04
6.88,1.04
6.89,1.04
6.9,1.04
6.91,1.04
6.92,1.04
6.93,0.715
6.94,0.715
6.95,0.78
6.96,0.78
6.97,0.845
6.98,0.845
6.99,0.65
7.,0.65
7.01,0.845
7.02,0.845
7.03,0.91
7.04,0.91
7.05,0.975
7.06,0.975
7.07,1.105
7.08,1.105
7.09,0.78
7.1,0.78
7.11,0.845
7.12,0.845
7.13,1.17
7.14,1.17
7.15,0.975
7.16,0.975
7.17,1.04
7.18,1.04
7.19,1.235
7.2,1.235
7.21,1.105
7.22,1.105
7.23,0.91
7.24,0.91
7.25,0.845
7.26,0.845
7.27,0.845
7.28,0.845
7.29,0.455
7.3,0.455
7.31,0.325
7.32,0.325
7.33,0.455
7.34,0.455
7.35,0.325
7.36,0.325
7.37,0.455
7.38,0.455
7.39,0.39
7.4,0.39
7.41,0.455
7.42,0.455
7.43,0.78
7.44,0.78
7.45,0.78
7.46,0.78
7.47,0.52
7.48,0.52
7.49,0.39
7.5,0.39
7.51,0.52
7.52,0.52
7.53,0.455
7.54,0.455
7.55,0.455
7.56,0.455
7.57,0.585
7.58,0.585
7.59,0.585
7.6,0.585
7.61,0.52
7.62,0.52
7.63,0.52
7.64,0.52
7.65,0.65
7.66,0.65
7.67,0.715
7.68,0.715
7.69,0.715
7.7,0.715
7.71,1.04
7.72,1.04
7.73,1.3
7.74,1.3
7.75,1.43
7.76,1.43
7.77,1.17
7.78,1.17
7.79,1.3
7.8,1.3
7.81,1.755
7.82,1.755
7.83,1.69
7.84,1.69
7.85,1.625
7.86,1.625
7.87,1.3
7.88,1.3
7.89,2.145
7.9,2.145
7.91,2.99
7.92,2.99
7.93,2.535
7.94,2.535
7.95,2.665
7.96,2.665
7.97,2.535
7.98,2.535
7.99,2.08
8.,2.08
8.01,2.6
8.02,2.6
8.03,2.86
8.04,2.86
8.05,2.925
8.06,2.925
8.07,3.25
8.08,3.25
8.09,3.64
8.1,3.64
8.11,3.9
8.12,3.9
8.13,3.055
8.14,3.055
8.15,2.015
8.16,2.015
8.17,1.82
8.18,1.82
8.19,2.21
8.2,2.21
8.21,2.275
8.22,2.275
8.23,2.015
8.24,2.015
8.25,2.145
8.26,2.145
8.27,2.21
8.28,2.21
8.29,1.56
8.3,1.56
8.31,1.56
8.32,1.56
8.33,2.08
8.34,2.08
8.35,2.6
8.36,2.6
8.37,3.315
8.38,3.315
8.39,3.12
8.4,3.12
8.41,3.055
8.42,3.055
8.43,2.6
8.44,2.6
8.45,2.08
8.46,2.08
8.47,2.275
8.48,2.275
8.49,2.73
8.5,2.73
8.51,3.055
8.52,3.055
8.53,2.925
8.54,2.925
8.55,2.925
8.56,2.925
8.57,2.47
8.58,2.47
8.59,2.86
8.6,2.86
8.61,3.705
8.62,3.705
8.63,3.38
8.64,3.38
8.65,2.925
8.66,2.925
8.67,2.73
8.68,2.73
8.69,2.665
8.7,2.665
8.71,2.275
8.72,2.275
8.73,1.82
8.74,1.82
8.75,1.95
8.76,1.95
8.77,1.885
8.78,1.885
8.79,1.885
8.8,1.885
8.81,2.145
8.82,2.145
8.83,2.6
8.84,2.6
8.85,2.925
8.86,2.925
8.87,2.665
8.88,2.665
8.89,2.47
8.9,2.47
8.91,1.885
8.92,1.885
8.93,1.495
8.94,1.495
8.95,1.885
8.96,1.885
8.97,2.21
8.98,2.21
8.99,2.6
9.,2.6
9.01,2.795
9.02,2.795
9.03,2.73
9.04,2.73
9.05,2.535
9.06,2.535
9.07,2.08
9.08,2.08
9.09,1.625
9.1,1.625
9.11,1.82
9.12,1.82
9.13,2.535
9.14,2.535
9.15,2.795
9.16,2.795
9.17,2.47
9.18,2.47
9.19,2.275
9.2,2.275
9.21,2.405
9.22,2.405
9.23,2.73
9.24,2.73
9.25,3.25
9.26,3.25
9.27,3.445
9.28,3.445
9.29,3.445
9.3,3.445
9.31,3.835
9.32,3.835
9.33,3.77
9.34,3.77
9.35,3.38
9.36,3.38
9.37,3.965
9.38,3.965
9.39,4.225
9.4,4.225
9.41,3.705
9.42,3.705
9.43,3.12
9.44,3.12
9.45,3.185
9.46,3.185
9.47,3.445
9.48,3.445
9.49,3.445
9.5,3.445
9.51,3.25
9.52,3.25
9.53,3.12
9.54,3.12
9.55,3.575
9.56,3.575
9.57,4.095
9.58,4.095
9.59,4.03
9.6,4.03
9.61,3.965
9.62,3.965
9.63,3.77
9.64,3.77
9.65,3.965
9.66,3.965
9.67,4.94
9.68,4.94
9.69,4.485
9.7,4.485
9.71,4.29
9.72,4.29
9.73,4.225
9.74,4.225
9.75,3.77
9.76,3.77
9.77,4.355
9.78,4.355
9.79,4.55
9.8,4.55
9.81,4.29
9.82,4.29
9.83,3.77
9.84,3.77
9.85,3.25
9.86,3.25
9.87,3.055
9.88,3.055
9.89,2.535
9.9,2.535
9.91,2.535
9.92,2.535
9.93,3.25
9.94,3.25
9.95,3.705
9.96,3.705
9.97,3.575
9.98,3.575
9.99,2.47
10.,2.47
