t,prevalence
5.,2
5.02,1
5.04,1
5.06,1
5.08,1
5.1,4
5.12,2
5.14,1
5.16,5
5.18,4
5.2,0
5.22,4
5.24,3
5.26,2
5.28,2
5.3,4
5.32,3
5.34,7
5.36,3
5.38,2
5.4,3
5.42,0
5.44,0
5.46,3
5.48,1
5.5,4
5.52,3
5.54,0
5.56,3
5.58,3
5.6,0
5.62,7
5.64,2
5.66,0
5.68,8
5.7,6
5.72,6
5.74,6
5.76,4
5.78,3
5.8,2
5.82,0
5.84,1
5.86,2
5.88,2
5.9,1
5.92,0
5.94,2
5.96,6
5.98,3
6.,1
6.02,10
6.04,2
6.06,4
6.08,4
6.1,4
6.12,1
6.14,0
6.16,3
6.18,2
6.2,1
6.22,4
6.24,3
6.26,8
6.28,9
6.3,6
6.32,6
6.34,10
6.36,6
6.38,7
6.4,3
6.42,6
6.44,4
6.46,11
6.48,2
6.5,7
6.52,7
6.54,6
6.56,8
6.58,9
6.6,7
6.62,7
6.64,3
6.66,6
6.68,4
6.7,7
6.72,5
6.74,7
6.76,2
6.78,2
6.8,5
6.82,3
6.84,6
6.86,5
6.88,3
6.9,3
6.92,5
6.94,3
6.96,8
6.98,4
7.,4
7.02,3
7.04,6
7.06,7
7.08,6
7.1,4
7.12,4
7.14,7
7.16,6
7.18,2
7.2,5
7.22,11
7.24,3
7.26,6
7.28,11
7.3,3
7.32,4
7.34,17
7.36,19
7.38,12
7.4,13
7.42,8
7.44,12
7.46,6
7.48,9
7.5,10
7.52,16
7.54,4
7.56,14
7.58,15
7.6,8
7.62,10
7.64,15
7.66,12
7.68,8
7.7,10
7.72,8
7.74,10
7.76,8
7.78,5
7.8,10
7.82,13
7.84,13
7.86,8
7.88,13
7.9,11
7.92,19
7.94,14
7.96,9
7.98,15
8.,15
8.02,15
8.04,13
8.06,11
8.08,14
8.1,10
8.12,13
8.14,10
8.16,7
8.18,8
8.2,6
8.22,9
8.24,5
8.26,8
8.28,10
8.3,9
8.32,7
8.34,6
8.36,10
8.38,7
8.4,2
8.42,5
8.44,6
8.46,3
8.48,0
8.5,2
8.52,2
8.54,2
8.56,1
8.58,0
8.6,2
8.62,3
8.64,3
8.66,5
8.68,3
8.7,4
8.72,5
8.74,3
8.76,1
8.78,6
8.8,1
8.82,1
8.84,0
8.86,3
8.88,0
8.9,4
8.92,2
8.94,0
8.96,1
8.98,3
9.,1
9.02,0
9.04,2
9.06,0
9.08,0
9.1,2
9.12,0
9.14,3
9.16,2
9.18,3
9.2,4
9.22,1
9.24,3
9.26,4
9.28,5
9.3,4
9.32,7
9.34,6
9.36,0
9.38,3
9.4,1
9.42,1
9.44,3
9.46,1
9.48,3
9.5,6
9.52,1
9.54,3
9.56,0
9.58,3
9.6,6
9.62,0
9.64,0
9.66,1
9.68,4
9.7,1
9.72,1
9.74,2
9.76,1
9.78,2
9.8,2
9.82,2
9.84,1
9.86,2
9.88,1
9.9,0
9.92,1
9.94,0
9.96,0
9.98,1
10.,3
