t,cases
5.01,0.585
5.02,0.585
5.03,0.585
5.04,0.585
5.05,0.65
5.06,0.65
5.07,0.585
5.08,0.585
5.09,0.39
5.1,0.39
5.11,0.52
5.12,0.52
5.13,0.52
5.14,0.52
5.15,0.325
5.16,0.325
5.17,0.455
5.18,0.455
5.19,0.78
5.2,0.78
5.21,0.975
5.22,0.975
5.23,0.78
5.24,0.78
5.25,0.65
5.26,0.65
5.27,0.65
5.28,0.65
5.29,0.585
5.3,0.585
5.31,0.39
5.32,0.39
5.33,0.52
5.34,0.52
5.35,0.975
5.36,0.975
5.37,0.975
5.38,0.975
5.39,0.845
5.4,0.845
5.41,0.845
5.42,0.845
5.43,0.585
5.44,0.585
5.45,0.585
5.46,0.585
5.47,0.975
5.48,0.975
5.49,1.235
5.5,1.235
5.51,1.625
5.52,1.625
5.53,1.885
5.54,1.885
5.55,1.56
5.56,1.56
5.57,1.17
5.58,1.17
5.59,1.495
5.6,1.495
5.61,1.885
5.62,1.885
5.63,1.56
5.64,1.56
5.65,1.43
5.66,1.43
5.67,1.495
5.68,1.495
5.69,1.495
5.7,1.495
5.71,1.3
5.72,1.3
5.73,1.105
5.74,1.105
5.75,1.105
5.76,1.105
5.77,1.04
5.78,1.04
5.79,1.17
5.8,1.17
5.81,1.17
5.82,1.17
5.83,0.65
5.84,0.65
5.85,0.325
5.86,0.325
5.87,0.52
5.88,0.52
5.89,0.65
5.9,0.65
5.91,0.65
5.92,0.65
5.93,0.455
5.94,0.455
5.95,0.455
5.96,0.455
5.97,0.65
5.98,0.65
5.99,0.65
6.,0.65
6.01,0.845
6.02,0.845
6.03,0.975
6.04,0.975
6.05,0.91
6.06,0.91
6.07,0.715
6.08,0.715
6.09,0.325
6.1,0.325
6.11,0.325
6.12,0.325
6.13,0.585
6.14,0.585
6.15,0.845
6.16,0.845
6.17,0.975
6.18,0.975
6.19,0.91
6.2,0.91
6.21,0.975
6.22,0.975
6.23,1.105
6.24,1.105
6.25,1.04
6.26,1.04
6.27,1.365
6.28,1.365
6.29,1.625
6.3,1.625
6.31,1.82
6.32,1.82
6.33,2.08
6.34,2.08
6.35,1.82
6.36,1.82
6.37,1.495
6.38,1.495
6.39,1.43
6.4,1.43
6.41,1.495
6.42,1.495
6.43,1.625
6.44,1.625
6.45,1.69
6.46,1.69
6.47,1.56
6.48,1.56
6.49,1.69
6.5,1.69
6.51,1.495
6.52,1.495
6.53,0.975
6.54,0.975
6.55,0.78
6.56,0.78
6.57,0.78
6.58,0.78
6.59,0.715
6.6,0.715
6.61,0.585
6.62,0.585
6.63,0.78
6.64,0.78
6.65,0.975
6.66,0.975
6.67,0.975
6.68,0.975
6.69,0.975
6.7,0.975
6.71,1.235
6.72,1.235
6.73,1.69
6.74,1.69
6.75,1.82
6.76,1.82
6.77,1.885
6.78,1.885
6.79,1.885
6.8,1.885
6.81,2.015
6.82,2.015
6.83,1.755
6.84,1.755
6.85,1.17
6.86,1.17
6.87,1.625
6.88,1.625
6.89,2.275
6.9,2.275
6.91,2.6
6.92,2.6
6.93,3.055
6.94,3.055
6.95,3.25
6.96,3.25
6.97,2.925
6.98,2.925
6.99,2.6
7.,2.6
7.01,2.665
7.02,2.665
7.03,2.665
7.04,2.665
7.05,2.21
7.06,2.21
7.07,1.365
7.08,1.365
7.09,1.17
7.1,1.17
7.11,1.82
7.12,1.82
7.13,1.755
7.14,1.755
7.15,1.82
7.16,1.82
7.17,2.34
7.18,2.34
7.19,1.69
7.2,1.69
7.21,1.365
7.22,1.365
7.23,1.625
7.24,1.625
7.25,1.235
7.26,1.235
7.27,0.91
7.28,0.91
7.29,0.78
7.3,0.78
7.31,0.65
7.32,0.65
7.33,0.585
7.34,0.585
7.35,0.52
7.36,0.52
7.37,0.39
7.38,0.39
7.39,0.455
7.4,0.455
7.41,0.65
7.42,0.65
7.43,0.715
7.44,0.715
7.45,0.845
7.46,0.845
7.47,0.845
7.48,0.845
7.49,0.455
7.5,0.455
7.51,1.04
7.52,1.04
7.53,2.015
7.54,2.015
7.55,2.47
7.56,2.47
7.57,3.055
7.58,3.055
7.59,2.86
7.6,2.86
7.61,2.925
7.62,2.925
7.63,3.12
7.64,3.12
7.65,3.12
7.66,3.12
7.67,3.51
7.68,3.51
7.69,3.25
7.7,3.25
7.71,2.6
7.72,2.6
7.73,1.95
7.74,1.95
7.75,1.365
7.76,1.365
7.77,0.845
7.78,0.845
7.79,1.235
7.8,1.235
7.81,1.885
7.82,1.885
7.83,1.82
7.84,1.82
7.85,1.885
7.86,1.885
7.87,1.69
7.88,1.69
7.89,1.43
7.9,1.43
7.91,1.755
7.92,1.755
7.93,1.95
7.94,1.95
7.95,1.625
7.96,1.625
7.97,1.755
7.98,1.755
7.99,1.95
8.,1.95
8.01,1.625
8.02,1.625
8.03,1.495
8.04,1.495
8.05,1.3
8.06,1.3
8.07,0.845
8.08,0.845
8.09,0.65
8.1,0.65
8.11,1.04
8.12,1.04
8.13,1.365
8.14,1.365
8.15,0.975
8.16,0.975
8.17,0.455
8.18,0.455
8.19,0.325
8.2,0.325
8.21,0.325
8.22,0.325
8.23,0.39
8.24,0.39
8.25,0.78
8.26,0.78
8.27,0.78
8.28,0.78
8.29,0.65
8.3,0.65
8.31,0.65
8.32,0.65
8.33,0.585
8.34,0.585
8.35,0.585
8.36,0.585
8.37,0.52
8.38,0.52
8.39,0.325
8.4,0.325
8.41,0.52
8.42,0.52
8.43,1.365
8.44,1.365
8.45,1.755
8.46,1.755
8.47,1.365
8.48,1.365
8.49,1.105
8.5,1.105
8.51,1.105
8.52,1.105
8.53,1.17
8.54,1.17
8.55,1.82
8.56,1.82
8.57,2.795
8.58,2.795
8.59,2.86
8.6,2.86
8.61,2.535
8.62,2.535
8.63,2.47
8.64,2.47
8.65,2.145
8.66,2.145
8.67,2.08
8.68,2.08
8.69,2.47
8.7,2.47
8.71,2.535
8.72,2.535
8.73,2.145
8.74,2.145
8.75,2.34
8.76,2.34
8.77,2.665
8.78,2.665
8.79,2.145
8.8,2.145
8.81,1.885
8.82,1.885
8.83,2.145
8.84,2.145
8.85,2.015
8.86,2.015
8.87,1.625
8.88,1.625
8.89,2.08
8.9,2.08
8.91,2.535
8.92,2.535
8.93,1.95
8.94,1.95
8.95,2.015
8.96,2.015
8.97,2.34
8.98,2.34
8.99,2.145
9.,2.145
9.01,2.6
9.02,2.6
9.03,3.315
9.04,3.315
9.05,2.99
9.06,2.99
9.07,2.47
9.08,2.47
9.09,2.535
9.1,2.535
9.11,2.665
9.12,2.665
9.13,2.535
9.14,2.535
9.15,2.21
9.16,2.21
9.17,1.82
9.18,1.82
9.19,2.21
9.2,2.21
9.21,2.795
9.22,2.795
9.23,2.6
9.24,2.6
9.25,2.6
9.26,2.6
9.27,2.665
9.28,2.665
9.29,3.055
9.3,3.055
9.31,4.095
9.32,4.095
9.33,4.94
9.34,4.94
9.35,4.875
9.36,4.875
9.37,4.875
9.38,4.875
9.39,5.265
9.4,5.265
9.41,5.07
9.42,5.07
9.43,4.485
9.44,4.485
9.45,3.77
9.46,3.77
9.47,3.77
9.48,3.77
9.49,3.9
9.5,3.9
9.51,3.445
9.52,3.445
9.53,3.9
9.54,3.9
9.55,4.29
9.56,4.29
9.57,3.64
9.58,3.64
9.59,2.86
9.6,2.86
9.61,2.275
9.62,2.275
9.63,2.275
9.64,2.275
9.65,2.275
9.66,2.275
9.67,1.82
9.68,1.82
9.69,1.82
9.7,1.82
9.71,1.56
9.72,1.56
9.73,1.365
9.74,1.365
9.75,1.885
9.76,1.885
9.77,1.885
9.78,1.885
9.79,1.95
9.8,1.95
9.81,2.015
9.82,2.015
9.83,1.82
9.84,1.82
9.85,1.69
9.86,1.69
9.87,1.495
9.88,1.495
9.89,1.43
9.9,1.43
9.91,1.495
9.92,1.495
9.93,1.885
9.94,1.885
9.95,2.21
9.96,2.21
9.97,2.015
9.98,2.015
9.99,1.43
10.,1.43
