t,cases
5.01,0.715
5.02,0.715
5.03,0.845
5.04,0.845
5.05,1.04
5.06,1.04
5.07,1.17
5.08,1.17
5.09,1.495
5.1,1.495
5.11,1.885
5.12,1.885
5.13,1.885
5.14,1.885
5.15,1.56
5.16,1.56
5.17,1.235
5.18,1.235
5.19,1.365
5.2,1.365
5.21,1.56
5.22,1.56
5.23,1.69
5.24,1.69
5.25,1.625
5.26,1.625
5.27,1.365
5.28,1.365
5.29,1.69
5.3,1.69
5.31,1.82
5.32,1.82
5.33,1.625
5.34,1.625
5.35,1.235
5.36,1.235
5.37,0.91
5.38,0.91
5.39,0.975
5.4,0.975
5.41,1.105
5.42,1.105
5.43,1.3
5.44,1.3
5.45,1.235
5.46,1.235
5.47,1.235
5.48,1.235
5.49,1.755
5.5,1.755
5.51,2.145
5.52,2.145
5.53,2.275
5.54,2.275
5.55,2.73
5.56,2.73
5.57,2.795
5.58,2.795
5.59,2.535
5.6,2.535
5.61,2.73
5.62,2.73
5.63,2.535
5.64,2.535
5.65,2.73
5.66,2.73
5.67,3.575
5.68,3.575
5.69,3.185
5.7,3.185
5.71,3.055
5.72,3.055
5.73,3.315
5.74,3.315
5.75,2.925
5.76,2.925
5.77,2.795
5.78,2.795
5.79,2.73
5.8,2.73
5.81,2.73
5.82,2.73
5.83,3.185
5.84,3.185
5.85,3.315
5.86,3.315
5.87,3.055
5.88,3.055
5.89,2.86
5.9,2.86
5.91,2.535
5.92,2.535
5.93,2.145
5.94,2.145
5.95,1.625
5.96,1.625
5.97,1.365
5.98,1.365
5.99,2.275
6.,2.275
6.01,2.925
6.02,2.925
6.03,2.73
6.04,2.73
6.05,2.86
6.06,2.86
6.07,2.665
6.08,2.665
6.09,2.34
6.1,2.34
6.11,2.21
6.12,2.21
6.13,2.015
6.14,2.015
6.15,1.82
6.16,1.82
6.17,1.495
6.18,1.495
6.19,1.17
6.2,1.17
6.21,1.04
6.22,1.04
6.23,1.04
6.24,1.04
6.25,1.43
6.26,1.43
6.27,2.015
6.28,2.015
6.29,2.145
6.3,2.145
6.31,2.015
6.32,2.015
6.33,1.625
6.34,1.625
6.35,1.43
6.36,1.43
6.37,1.495
6.38,1.495
6.39,1.43
6.4,1.43
6.41,1.625
6.42,1.625
6.43,1.755
6.44,1.755
6.45,1.755
6.46,1.755
6.47,2.015
6.48,2.015
6.49,2.925
6.5,2.925
6.51,3.445
6.52,3.445
6.53,2.925
6.54,2.925
6.55,3.185
6.56,3.185
6.57,3.51
6.58,3.51
6.59,3.445
6.6,3.445
6.61,3.9
6.62,3.9
6.63,4.68
6.64,4.68
6.65,4.875
6.66,4.875
6.67,4.485
6.68,4.485
6.69,5.135
6.7,5.135
6.71,5.46
6.72,5.46
6.73,5.655
6.74,5.655
6.75,5.85
6.76,5.85
6.77,5.33
6.78,5.33
6.79,5.2
6.8,5.2
6.81,5.07
6.82,5.07
6.83,4.94
6.84,4.94
6.85,4.42
6.86,4.42
6.87,4.29
6.88,4.29
6.89,5.005
6.9,5.005
6.91,5.005
6.92,5.005
6.93,4.745
6.94,4.745
6.95,4.615
6.96,4.615
6.97,3.965
6.98,3.965
6.99,3.9
7.,3.9
7.01,4.095
7.02,4.095
7.03,3.38
7.04,3.38
7.05,3.38
7.06,3.38
7.07,3.445
7.08,3.445
7.09,2.925
7.1,2.925
7.11,2.73
7.12,2.73
7.13,2.795
7.14,2.795
7.15,2.665
7.16,2.665
7.17,2.665
7.18,2.665
7.19,2.795
7.2,2.795
7.21,2.795
7.22,2.795
7.23,2.535
7.24,2.535
7.25,2.08
7.26,2.08
7.27,2.275
7.28,2.275
7.29,2.145
7.3,2.145
7.31,1.625
7.32,1.625
7.33,1.43
7.34,1.43
7.35,1.04
7.36,1.04
7.37,0.845
7.38,0.845
7.39,0.975
7.4,0.975
7.41,0.845
7.42,0.845
7.43,0.845
7.44,0.845
7.45,0.65
7.46,0.65
7.47,0.52
7.48,0.52
7.49,0.78
7.5,0.78
7.51,0.78
7.52,0.78
7.53,0.715
7.54,0.715
7.55,1.235
7.56,1.235
7.57,1.3
7.58,1.3
7.59,0.975
7.6,0.975
7.61,0.65
7.62,0.65
7.63,0.39
7.64,0.39
7.65,0.585
7.66,0.585
7.67,0.455
7.68,0.455
7.69,0.26
7.7,0.26
7.71,0.325
7.72,0.325
7.73,0.585
7.74,0.585
7.75,0.715
7.76,0.715
7.77,0.585
7.78,0.585
7.79,0.455
7.8,0.455
7.81,0.26
7.82,0.26
7.83,0.325
7.84,0.325
7.85,0.52
7.86,0.52
7.87,0.715
7.88,0.715
7.89,0.845
7.9,0.845
7.91,0.975
7.92,0.975
7.93,1.17
7.94,1.17
7.95,0.91
7.96,0.91
7.97,0.65
7.98,0.65
7.99,0.585
8.,0.585
8.01,0.715
8.02,0.715
8.03,1.105
8.04,1.105
8.05,1.17
8.06,1.17
8.07,1.365
8.08,1.365
8.09,1.3
8.1,1.3
8.11,1.43
8.12,1.43
8.13,2.145
8.14,2.145
8.15,2.405
8.16,2.405
8.17,2.665
8.18,2.665
8.19,2.665
8.2,2.665
8.21,2.665
8.22,2.665
8.23,2.405
8.24,2.405
8.25,2.08
8.26,2.08
8.27,2.08
8.28,2.08
8.29,1.755
8.3,1.755
8.31,1.04
8.32,1.04
8.33,0.52
8.34,0.52
8.35,1.17
8.36,1.17
8.37,1.755
8.38,1.755
8.39,1.43
8.4,1.43
8.41,1.105
8.42,1.105
8.43,1.3
8.44,1.3
8.45,1.495
8.46,1.495
8.47,1.235
8.48,1.235
8.49,1.04
8.5,1.04
8.51,1.365
8.52,1.365
8.53,1.625
8.54,1.625
8.55,1.885
8.56,1.885
8.57,2.34
8.58,2.34
8.59,2.405
8.6,2.405
8.61,2.275
8.62,2.275
8.63,2.6
8.64,2.6
8.65,2.47
8.66,2.47
8.67,2.275
8.68,2.275
8.69,3.185
8.7,3.185
8.71,2.925
8.72,2.925
8.73,2.275
8.74,2.275
8.75,2.47
8.76,2.47
8.77,2.665
8.78,2.665
8.79,2.6
8.8,2.6
8.81,2.21
8.82,2.21
8.83,1.885
8.84,1.885
8.85,1.625
8.86,1.625
8.87,1.495
8.88,1.495
8.89,1.105
8.9,1.105
8.91,0.78
8.92,0.78
8.93,0.715
8.94,0.715
8.95,0.715
8.96,0.715
8.97,0.78
8.98,0.78
8.99,0.845
9.,0.845
9.01,1.3
9.02,1.3
9.03,1.43
9.04,1.43
9.05,1.365
9.06,1.365
9.07,1.69
9.08,1.69
9.09,1.82
9.1,1.82
9.11,1.755
9.12,1.755
9.13,1.43
9.14,1.43
9.15,1.56
9.16,1.56
9.17,2.145
9.18,2.145
9.19,2.86
9.2,2.86
9.21,3.835
9.22,3.835
9.23,4.29
9.24,4.29
9.25,4.095
9.26,4.095
9.27,4.29
9.28,4.29
9.29,4.745
9.3,4.745
9.31,4.55
9.32,4.55
9.33,4.485
9.34,4.485
9.35,5.07
9.36,5.07
9.37,5.785
9.38,5.785
9.39,5.915
9.4,5.915
9.41,5.785
9.42,5.785
9.43,5.785
9.44,5.785
9.45,5.395
9.46,5.395
9.47,5.2
9.48,5.2
9.49,5.655
9.5,5.655
9.51,5.005
9.52,5.005
9.53,4.225
9.54,4.225
9.55,5.265
9.56,5.265
9.57,5.98
9.58,5.98
9.59,5.85
9.6,5.85
9.61,5.655
9.62,5.655
9.63,5.395
9.64,5.395
9.65,4.81
9.66,4.81
9.67,4.42
9.68,4.42
9.69,4.225
9.7,4.225
9.71,4.355
9.72,4.355
9.73,4.55
9.74,4.55
9.75,3.965
9.76,3.965
9.77,3.64
9.78,3.64
9.79,3.705
9.8,3.705
9.81,4.095
9.82,4.095
9.83,4.42
9.84,4.42
9.85,4.55
9.86,4.55
9.87,4.81
9.88,4.81
9.89,4.875
9.9,4.875
9.91,4.745
9.92,4.745
9.93,5.07
9.94,5.07
9.95,4.81
9.96,4.81
9.97,3.51
9.98,3.51
9.99,3.12
10.,3.12
