t,prevalence
5.,0
5.02,0
5.04,0
5.06,0
5.08,0
5.1,0
5.12,0
5.14,0
5.16,2
5.18,2
5.2,3
5.22,4
5.24,0
5.26,7
5.28,2
5.3,3
5.32,4
5.34,2
5.36,0
5.38,2
5.4,4
5.42,6
5.44,4
5.46,2
5.48,3
5.5,7
5.52,6
5.54,2
5.56,0
5.58,3
5.6,0
5.62,8
5.64,0
5.66,1
5.68,3
5.7,5
5.72,4
5.74,3
5.76,4
5.78,1
5.8,6
5.82,6
5.84,1
5.86,3
5.88,4
5.9,3
5.92,0
5.94,0
5.96,5
5.98,0
6.,0
6.02,0
6.04,0
6.06,1
6.08,1
6.1,4
6.12,4
6.14,4
6.16,4
6.18,1
6.2,3
6.22,1
6.24,1
6.26,6
6.28,4
6.3,7
6.32,7
6.34,9
6.36,2
6.38,7
6.4,7
6.42,8
6.44,7
6.46,7
6.48,6
6.5,2
6.52,4
6.54,4
6.56,1
6.58,0
6.6,5
6.62,5
6.64,3
6.66,0
6.68,5
6.7,3
6.72,5
6.74,2
6.76,1
6.78,1
6.8,1
6.82,7
6.84,2
6.86,2
6.88,2
6.9,2
6.92,4
6.94,0
6.96,0
6.98,0
7.,0
7.02,0
7.04,5
7.06,0
7.08,6
7.1,0
7.12,5
7.14,6
7.16,5
7.18,5
7.2,9
7.22,9
7.24,9
7.26,16
7.28,9
7.3,12
7.32,10
7.34,8
7.36,13
7.38,11
7.4,11
7.42,14
7.44,6
7.46,12
7.48,12
7.5,14
7.52,8
7.54,4
7.56,7
7.58,8
7.6,7
7.62,5
7.64,3
7.66,5
7.68,4
7.7,4
7.72,3
7.74,4
7.76,4
7.78,4
7.8,6
7.82,1
7.84,7
7.86,5
7.88,4
7.9,7
7.92,6
7.94,6
7.96,6
7.98,6
8.,3
8.02,7
8.04,3
8.06,4
8.08,7
8.1,5
8.12,3
8.14,2
8.16,5
8.18,3
8.2,2
8.22,1
8.24,1
8.26,2
8.28,4
8.3,5
8.32,5
8.34,3
8.36,6
8.38,7
8.4,3
8.42,6
8.44,7
8.46,7
8.48,4
8.5,9
8.52,2
8.54,5
8.56,5
8.58,8
8.6,6
8.62,2
8.64,2
8.66,5
8.68,5
8.7,5
8.72,2
8.74,6
8.76,4
8.78,2
8.8,4
8.82,3
8.84,4
8.86,2
8.88,8
8.9,8
8.92,2
8.94,6
8.96,5
8.98,5
9.,3
9.02,5
9.04,11
9.06,4
9.08,4
9.1,12
9.12,6
9.14,4
9.16,2
9.18,11
9.2,6
9.22,2
9.24,2
9.26,10
9.28,3
9.3,9
9.32,7
9.34,8
9.36,5
9.38,2
9.4,5
9.42,9
9.44,3
9.46,2
9.48,6
9.5,1
9.52,1
9.54,0
9.56,3
9.58,2
9.6,1
9.62,5
9.64,1
9.66,0
9.68,6
9.7,6
9.72,2
9.74,1
9.76,2
9.78,4
9.8,2
9.82,5
9.84,1
9.86,5
9.88,7
9.9,8
9.92,8
9.94,3
9.96,3
9.98,4
10.,5
