t,s,e,i,r,c,o,n,reff,coal,reportr
5.,6250.,5.,3.,3734.,0.,0.,9992.,0.902164038923,9.3825060048,65.
5.02,6255.,6.,2.,3727.,0.,0.,9990.,0.903066528067,7.82657657658,78.
5.04,6255.,11.,3.,3718.,0.,0.,9987.,0.903337800679,4.27032414867,143.
5.06,6260.,8.,3.,3715.,0.,0.,9986.,0.904150425981,5.87697776888,104.
5.08,6264.,8.,1.,3710.,0.,0.,9983.,0.905000038527,5.88250025043,104.
5.1,6275.,4.,6.,3699.,0.,0.,9984.,0.906498474482,11.7844801683,52.
5.12,6271.,9.,6.,3696.,0.,0.,9982.,0.906102137694,5.23525679557,117.
5.14,6266.,13.,7.,3690.,0.,0.,9976.,0.905924218123,3.62369687249,169.
5.16,6264.,10.,7.,3693.,0.,0.,9974.,0.905816661782,4.71024664127,130.
5.18,6269.,9.,6.,3688.,0.,0.,9972.,0.906721512543,5.2388354058,117.
5.2,6272.,9.,6.,3688.,0.,0.,9975.,0.906882591093,5.23976608187,117.
5.22,6269.,10.,5.,3692.,0.,0.,9976.,0.906357951391,4.71306134723,130.
5.24,6278.,9.,5.,3685.,0.,0.,9977.,0.907568176036,5.24372723932,117.
5.26,6283.,8.,4.,3678.,0.,0.,9973.,0.908655292366,5.90625940038,104.
5.28,6287.,7.,9.,3670.,0.,0.,9973.,0.909233777353,6.75430806033,91.
5.3,6289.,15.,4.,3667.,0.,0.,9975.,0.909340659341,3.15238095238,195.
5.32,6302.,16.,6.,3655.,0.,0.,9979.,0.910855103409,2.96027908608,208.
5.34,6310.,13.,13.,3641.,0.,0.,9977.,0.912194200507,3.64877680203,169.
5.36,6311.,15.,7.,3646.,0.,0.,9979.,0.912155912031,3.16214049504,195.
5.38,6313.,10.,9.,3647.,0.,0.,9979.,0.912444980613,4.74471389919,130.
5.4,6322.,13.,7.,3640.,0.,0.,9982.,0.913471171185,3.65388468474,169.
5.42,6323.,10.,6.,3647.,0.,0.,9986.,0.913249703431,4.74889845784,130.
5.44,6318.,15.,4.,3644.,0.,0.,9981.,0.912984670875,3.1650135257,195.
5.46,6320.,12.,8.,3640.,0.,0.,9980.,0.913365191922,3.95791583166,156.
5.48,6318.,15.,5.,3643.,0.,0.,9981.,0.912984670875,3.1650135257,195.
5.5,6322.,15.,6.,3642.,0.,0.,9985.,0.913196718154,3.16574862293,195.
5.52,6324.,15.,8.,3636.,0.,0.,9983.,0.913668621272,3.16738455374,195.
5.54,6319.,21.,4.,3637.,0.,0.,9981.,0.913129176204,2.26108176965,273.
5.56,6329.,15.,3.,3637.,0.,0.,9984.,0.91429941753,3.1695713141,195.
5.58,6333.,11.,7.,3635.,0.,0.,9986.,0.914694033185,4.32400815687,143.
5.6,6332.,18.,5.,3632.,0.,0.,9987.,0.914458026203,2.64176763125,234.
5.62,6338.,12.,13.,3627.,0.,0.,9990.,0.91504966505,3.96521521522,156.
5.64,6334.,22.,10.,3626.,0.,0.,9992.,0.914289123607,2.16104701943,286.
5.66,6335.,25.,10.,3623.,0.,0.,9993.,0.914341962451,1.9018312819,325.
5.68,6329.,23.,15.,3624.,0.,0.,9991.,0.91365883141,2.06566344493,299.
5.7,6323.,30.,7.,3631.,0.,0.,9991.,0.912792667247,1.58217395656,390.
5.72,6321.,27.,10.,3632.,0.,0.,9990.,0.912595287595,1.75759092426,351.
5.74,6320.,22.,14.,3639.,0.,0.,9995.,0.911994458768,2.15562326618,286.
5.76,6312.,23.,10.,3652.,0.,0.,9997.,0.910657812728,2.05887853313,299.
5.78,6313.,15.,14.,3651.,0.,0.,9993.,0.911166662818,3.15871109777,195.
5.8,6310.,16.,13.,3654.,0.,0.,9993.,0.910733667413,2.95988441909,208.
5.82,6311.,12.,7.,3666.,0.,0.,9996.,0.910604626466,3.94595338135,156.
5.84,6312.,12.,7.,3664.,0.,0.,9995.,0.910840035402,3.94697348674,156.
5.86,6316.,6.,5.,3667.,0.,0.,9994.,0.911508443528,7.89973984391,78.
5.88,6324.,2.,4.,3661.,0.,0.,9991.,0.912937027941,23.7363627265,26.
5.9,6325.,7.,2.,3658.,0.,0.,9992.,0.912990007391,6.78221148347,91.
5.92,6331.,9.,2.,3649.,0.,0.,9991.,0.913947552798,5.28058586061,117.
5.94,6346.,4.,2.,3640.,0.,0.,9992.,0.916021278561,11.9082766213,52.
5.96,6344.,9.,1.,3637.,0.,0.,9991.,0.915824241818,5.29142895272,117.
5.98,6354.,7.,3.,3628.,0.,0.,9992.,0.917176048531,6.81330778909,91.
6.,6353.,8.,2.,3622.,0.,0.,9985.,0.917674588806,5.96488482724,104.
6.02,6351.,5.,4.,3619.,0.,0.,9979.,0.91793728368,9.54654775028,65.
6.04,6358.,4.,4.,3611.,0.,0.,9977.,0.919133237215,11.9487320838,52.
6.06,6366.,7.,2.,3603.,0.,0.,9978.,0.920197511448,6.83575294219,91.
6.08,6370.,5.,5.,3596.,0.,0.,9976.,0.920960304731,9.57798716921,65.
6.1,6375.,3.,4.,3596.,0.,0.,9978.,0.921498450437,15.9726398076,39.
6.12,6375.,3.,1.,3598.,0.,0.,9977.,0.921590812715,15.9742407537,39.
6.14,6380.,3.,2.,3594.,0.,0.,9979.,0.922128778126,15.9835654875,39.
6.16,6385.,4.,2.,3591.,0.,0.,9982.,0.922574094909,11.9934632338,52.
6.18,6391.,6.,0.,3588.,0.,0.,9985.,0.923163591541,8.00075112669,78.
6.2,6397.,7.,3.,3581.,0.,0.,9988.,0.92375273405,6.86216316723,91.
6.22,6403.,7.,3.,3574.,0.,0.,9987.,0.924711740647,6.86928721624,91.
6.24,6401.,8.,5.,3571.,0.,0.,9985.,0.924608065945,6.00995242864,104.
6.26,6406.,11.,1.,3570.,0.,0.,9988.,0.925052370537,4.37297484254,143.
6.28,6407.,11.,3.,3566.,0.,0.,9987.,0.925289414701,4.37409541495,143.
6.3,6403.,17.,3.,3563.,0.,0.,9986.,0.924804341463,2.82881327977,221.
6.32,6403.,15.,9.,3560.,0.,0.,9987.,0.924711740647,3.20566736758,195.
6.34,6407.,14.,10.,3556.,0.,0.,9987.,0.925289414701,3.4367892546,182.
6.36,6404.,20.,6.,3555.,0.,0.,9985.,0.925041408266,2.40510766149,260.
6.38,6403.,19.,7.,3553.,0.,0.,9982.,0.925174930259,2.53205770387,247.
6.4,6405.,21.,8.,3549.,0.,0.,9983.,0.925371207977,2.29139537213,273.
6.42,6403.,23.,6.,3550.,0.,0.,9982.,0.925174930259,2.09169984232,299.
6.44,6400.,23.,8.,3549.,0.,0.,9980.,0.92492677663,2.09113879934,299.
6.46,6398.,22.,9.,3551.,0.,0.,9980.,0.924637737012,2.18550737839,286.
6.48,6399.,17.,11.,3552.,0.,0.,9979.,0.92487492966,2.82902919661,221.
6.5,6394.,22.,10.,3558.,0.,0.,9984.,0.923689441568,2.1832659528,286.
6.52,6387.,26.,15.,3559.,0.,0.,9987.,0.922401044435,1.84480208887,338.
6.54,6385.,27.,12.,3560.,0.,0.,9984.,0.922389284393,1.77645343661,351.
6.56,6377.,26.,12.,3568.,0.,0.,9983.,0.921325869363,1.84265173873,338.
6.58,6358.,38.,12.,3574.,0.,0.,9982.,0.918672841885,1.25713125732,494.
6.6,6350.,27.,16.,3589.,0.,0.,9982.,0.917516915062,1.76706961419,351.
6.62,6337.,39.,10.,3597.,0.,0.,9983.,0.9155468142,1.2207290856,507.
6.64,6334.,30.,14.,3607.,0.,0.,9985.,0.914930087439,1.58587881823,390.
6.66,6328.,25.,11.,3623.,0.,0.,9987.,0.91388035215,1.90087113247,325.
6.68,6329.,25.,9.,3626.,0.,0.,9989.,0.913841764402,1.90079086996,325.
6.7,6337.,16.,7.,3629.,0.,0.,9989.,0.914996881185,2.97373986385,208.
6.72,6330.,20.,5.,3630.,0.,0.,9985.,0.914352297677,2.37731597396,260.
6.74,6330.,14.,8.,3633.,0.,0.,9985.,0.914352297677,3.39616567709,182.
6.76,6334.,10.,7.,3635.,0.,0.,9986.,0.91483846616,4.75716002403,130.
6.78,6333.,14.,0.,3638.,0.,0.,9985.,0.914785639998,3.39777523428,182.
6.8,6339.,9.,4.,3635.,0.,0.,9987.,0.915468955796,5.28937618905,117.
6.82,6342.,8.,8.,3629.,0.,0.,9987.,0.915902211336,5.95336437369,104.
6.84,6347.,11.,6.,3626.,0.,0.,9990.,0.916349041349,4.33183183183,143.
6.86,6350.,14.,3.,3619.,0.,0.,9986.,0.917149393767,3.40655489113,182.
6.88,6343.,16.,9.,3621.,0.,0.,9989.,0.915863218771,2.97655546101,208.
6.9,6340.,15.,10.,3624.,0.,0.,9989.,0.915430049978,3.17349083992,195.
6.92,6330.,16.,2.,3639.,0.,0.,9987.,0.914169189177,2.97104986482,208.
6.94,6326.,15.,3.,3637.,0.,0.,9981.,0.91414071351,3.16902114017,195.
6.96,6326.,19.,2.,3635.,0.,0.,9982.,0.914049134596,2.50160815784,247.
6.98,6331.,15.,6.,3631.,0.,0.,9983.,0.914679955925,3.17089051387,195.
7.,6337.,14.,4.,3631.,0.,0.,9986.,0.915271765087,3.39958084175,182.
7.02,6342.,11.,10.,3623.,0.,0.,9986.,0.915993929963,4.33015312346,143.
7.04,6344.,13.,8.,3623.,0.,0.,9988.,0.916099319183,3.66439727673,169.
7.06,6351.,15.,10.,3613.,0.,0.,9989.,0.917018335554,3.17899689659,195.
7.08,6350.,18.,6.,3614.,0.,0.,9988.,0.916965743508,2.64901214791,234.
7.1,6349.,16.,9.,3614.,0.,0.,9988.,0.916821339453,2.97966935322,208.
7.12,6345.,23.,6.,3611.,0.,0.,9985.,0.916519009283,2.07212993403,299.
7.14,6342.,24.,5.,3616.,0.,0.,9987.,0.915902211336,1.98445479123,312.
7.16,6340.,17.,13.,3616.,0.,0.,9986.,0.915705064013,2.8009801958,221.
7.18,6334.,24.,10.,3621.,0.,0.,9989.,0.914563712391,1.98155471018,312.
7.2,6336.,24.,12.,3619.,0.,0.,9991.,0.914669356267,1.98178360524,312.
7.22,6332.,20.,6.,3630.,0.,0.,9988.,0.914366470534,2.37735282339,260.
7.24,6326.,22.,8.,3629.,0.,0.,9985.,0.913774507916,2.15983065507,286.
7.26,6326.,24.,6.,3628.,0.,0.,9984.,0.913866031805,1.98004306891,312.
7.28,6338.,17.,7.,3625.,0.,0.,9987.,0.915324537283,2.79981623169,221.
7.3,6342.,13.,10.,3621.,0.,0.,9986.,0.915993929963,3.66397571985,169.
7.32,6346.,18.,7.,3617.,0.,0.,9988.,0.916388127291,2.64734347884,234.
7.34,6350.,16.,8.,3614.,0.,0.,9988.,0.916965743508,2.9801386664,208.
7.36,6345.,20.,7.,3613.,0.,0.,9985.,0.916519009283,2.38294942414,260.
7.38,6345.,14.,7.,3618.,0.,0.,9984.,0.916610808062,3.40455442995,182.
7.4,6340.,17.,5.,3620.,0.,0.,9982.,0.916072006535,2.80210260822,221.
7.42,6340.,18.,5.,3618.,0.,0.,9981.,0.916163788121,2.6466953879,234.
7.44,6348.,15.,3.,3619.,0.,0.,9985.,0.916952351604,3.17876815223,195.
7.46,6350.,13.,4.,3619.,0.,0.,9986.,0.917149393767,3.66859757507,169.
7.48,6350.,14.,6.,3617.,0.,0.,9987.,0.917057559443,3.40621379222,182.
7.5,6348.,11.,9.,3618.,0.,0.,9986.,0.916860527816,4.33424976786,143.
7.52,6345.,10.,7.,3622.,0.,0.,9984.,0.916610808062,4.76637620192,130.
7.54,6347.,10.,10.,3618.,0.,0.,9985.,0.916807904164,4.76740110165,130.
7.56,6337.,16.,11.,3619.,0.,0.,9983.,0.9155468142,2.97552714615,208.
7.58,6338.,13.,10.,3624.,0.,0.,9985.,0.9155078772,3.6620315088,169.
7.6,6338.,17.,8.,3623.,0.,0.,9986.,0.915416198062,2.80009660584,221.
7.62,6330.,18.,11.,3623.,0.,0.,9982.,0.914627098007,2.64225606091,234.
7.64,6327.,23.,8.,3623.,0.,0.,9981.,0.914285218839,2.0670796252,299.
7.66,6328.,19.,8.,3631.,0.,0.,9986.,0.913971868308,2.50139669221,247.
7.68,6324.,17.,11.,3634.,0.,0.,9986.,0.913394136406,2.79391147607,221.
7.7,6321.,19.,15.,3632.,0.,0.,9987.,0.912869422557,2.49837947226,247.
7.72,6322.,20.,7.,3640.,0.,0.,9989.,0.912831037218,2.37336069677,260.
7.74,6321.,16.,14.,3641.,0.,0.,9992.,0.912412622406,2.96534102282,208.
7.76,6319.,16.,10.,3651.,0.,0.,9996.,0.911758934343,2.96321653661,208.
7.78,6312.,25.,5.,3657.,0.,0.,9999.,0.910475662951,1.89378937894,325.
7.8,6314.,25.,2.,3658.,0.,0.,9999.,0.910764153338,1.89438943894,325.
7.82,6315.,22.,5.,3655.,0.,0.,9997.,0.911090634883,2.15348695518,286.
7.84,6319.,21.,5.,3656.,0.,0.,10001.,0.911303100459,2.25656005828,273.
7.86,6322.,19.,6.,3655.,0.,0.,10002.,0.911644594158,2.49502731033,247.
7.88,6319.,19.,5.,3658.,0.,0.,10001.,0.911303100459,2.49409269599,247.
7.9,6316.,13.,11.,3657.,0.,0.,9997.,0.911234908934,3.64493963574,169.
7.92,6316.,14.,7.,3657.,0.,0.,9994.,0.911508443528,3.38560279025,182.
7.94,6319.,12.,4.,3659.,0.,0.,9994.,0.911941395607,3.95174604763,156.
7.96,6326.,10.,3.,3655.,0.,0.,9994.,0.912951617124,4.74734840905,130.
7.98,6330.,9.,9.,3647.,0.,0.,9995.,0.913437487975,5.27763881941,117.
8.,6335.,10.,6.,3644.,0.,0.,9995.,0.914159002578,4.75362681341,130.
8.02,6334.,14.,0.,3651.,0.,0.,9999.,0.913649057213,3.39355364108,182.
8.04,6344.,11.,4.,3641.,0.,0.,10000.,0.915,4.32545454545,143.
8.06,6339.,11.,9.,3640.,0.,0.,9999.,0.914370283182,4.32247770232,143.
8.08,6331.,17.,5.,3644.,0.,0.,9997.,0.913399019706,2.79392641322,221.
8.1,6328.,13.,8.,3648.,0.,0.,9997.,0.912966197552,3.65186479021,169.
8.12,6335.,11.,4.,3648.,0.,0.,9998.,0.913884700017,4.32018221826,143.
8.14,6344.,12.,2.,3640.,0.,0.,9998.,0.915183036607,3.96579315863,156.
8.16,6351.,5.,10.,3627.,0.,0.,9993.,0.916651271275,9.53317322125,65.
8.18,6346.,11.,3.,3633.,0.,0.,9993.,0.915929612267,4.32984907617,143.
8.2,6351.,13.,5.,3626.,0.,0.,9995.,0.916467849309,3.66587139724,169.
8.22,6354.,10.,3.,3630.,0.,0.,9997.,0.916717322889,4.76693007902,130.
8.24,6352.,9.,5.,3630.,0.,0.,9996.,0.916520454336,5.29545151394,117.
8.26,6354.,8.,6.,3626.,0.,0.,9994.,0.916992503194,5.96045127076,104.
8.28,6363.,10.,4.,3619.,0.,0.,9996.,0.918107627666,4.77415966387,130.
8.3,6366.,13.,2.,3616.,0.,0.,9997.,0.918448611507,3.67379444603,169.
8.32,6378.,9.,4.,3608.,0.,0.,9999.,0.919995845738,5.31553155316,117.
8.34,6381.,12.,4.,3603.,0.,0.,10000.,0.920336538462,3.988125,156.
8.36,6379.,9.,5.,3603.,0.,0.,9996.,0.92041624342,5.31796051754,117.
8.38,6380.,8.,5.,3600.,0.,0.,9993.,0.920836893518,5.98543980787,104.
8.4,6384.,7.,7.,3595.,0.,0.,9993.,0.921414220724,6.84479135395,91.
8.42,6387.,11.,2.,3593.,0.,0.,9993.,0.921847216128,4.35782320352,143.
8.44,6383.,9.,7.,3592.,0.,0.,9991.,0.921454308878,5.32395822907,117.
8.46,6387.,6.,4.,3597.,0.,0.,9994.,0.921754976063,7.98854312588,78.
8.48,6388.,7.,3.,3597.,0.,0.,9995.,0.921807057375,6.84770956907,91.
8.5,6390.,13.,3.,3592.,0.,0.,9998.,0.92181897918,3.68727591672,169.
8.52,6395.,14.,3.,3588.,0.,0.,10000.,0.922355769231,3.42589285714,182.
8.54,6398.,13.,5.,3584.,0.,0.,10000.,0.922788461538,3.69115384615,169.
8.56,6400.,10.,11.,3577.,0.,0.,9998.,0.923261575392,4.80096019204,130.
8.58,6399.,10.,6.,3583.,0.,0.,9998.,0.923117315771,4.80021004201,130.
8.6,6398.,15.,7.,3576.,0.,0.,9996.,0.923157724628,3.20028011204,195.
8.62,6394.,11.,8.,3580.,0.,0.,9993.,0.922857538739,4.36259927404,143.
8.64,6398.,11.,9.,3571.,0.,0.,9989.,0.92380464665,4.36707651144,143.
8.66,6403.,16.,3.,3569.,0.,0.,9991.,0.924341522755,3.00410994895,208.
8.68,6405.,7.,14.,3567.,0.,0.,9993.,0.924445188555,6.86730711498,91.
8.7,6402.,17.,15.,3560.,0.,0.,9994.,0.923919736457,2.82610742916,221.
8.72,6390.,19.,12.,3573.,0.,0.,9994.,0.922187928142,2.5238827507,247.
8.74,6382.,29.,13.,3573.,0.,0.,9997.,0.92075699633,1.65101254514,377.
8.76,6379.,28.,10.,3578.,0.,0.,9995.,0.920508331089,1.70951547202,364.
8.78,6387.,19.,15.,3578.,0.,0.,9999.,0.921294052482,2.52143635416,247.
8.8,6382.,18.,9.,3587.,0.,0.,9996.,0.920849108874,2.66023075897,234.
8.82,6378.,20.,11.,3585.,0.,0.,9994.,0.920456119826,2.39318591155,260.
8.84,6383.,17.,9.,3586.,0.,0.,9995.,0.921085542771,2.81743813083,221.
8.86,6379.,15.,11.,3589.,0.,0.,9994.,0.920600437185,3.19141484891,195.
8.88,6372.,12.,10.,3600.,0.,0.,9994.,0.919590215668,3.98489093456,156.
8.9,6363.,18.,8.,3603.,0.,0.,9992.,0.918475164747,2.65337269816,234.
8.92,6368.,14.,11.,3602.,0.,0.,9995.,0.918920998961,3.413135139,182.
8.94,6372.,18.,6.,3604.,0.,0.,10000.,0.919038461538,2.655,234.
8.96,6367.,19.,10.,3603.,0.,0.,9999.,0.918409148607,2.51354082777,247.
8.98,6368.,15.,0.,3617.,0.,0.,10000.,0.918461538462,3.184,195.
9.,6369.,14.,2.,3615.,0.,0.,10000.,0.918605769231,3.41196428571,182.
9.02,6372.,12.,4.,3614.,0.,0.,10002.,0.9188546906,3.98170365927,156.
9.04,6374.,15.,6.,3606.,0.,0.,10001.,0.919234999577,3.18668133187,195.
9.06,6374.,13.,5.,3611.,0.,0.,10003.,0.919051207715,3.67620483086,169.
9.08,6375.,14.,6.,3608.,0.,0.,10003.,0.919195395228,3.41415432513,182.
9.1,6377.,15.,4.,3611.,0.,0.,10007.,0.919116234021,3.18626961127,195.
9.12,6372.,13.,7.,3613.,0.,0.,10005.,0.918579171952,3.67431668781,169.
9.14,6370.,13.,9.,3612.,0.,0.,10004.,0.918382646941,3.67353058776,169.
9.16,6372.,8.,11.,3614.,0.,0.,10005.,0.918579171952,5.97076461769,104.
9.18,6368.,16.,10.,3611.,0.,0.,10005.,0.918002537193,2.98350824588,208.
9.2,6362.,21.,6.,3620.,0.,0.,10009.,0.916771059892,2.27009976735,273.
9.22,6369.,15.,5.,3622.,0.,0.,10011.,0.917596413176,3.18100089901,195.
9.24,6365.,15.,8.,3619.,0.,0.,10007.,0.917386675481,3.18027380833,195.
9.26,6365.,14.,10.,3619.,0.,0.,10008.,0.917295010146,3.40709575197,182.
9.28,6352.,19.,7.,3628.,0.,0.,10006.,0.915604483464,2.50586490211,247.
9.3,6345.,19.,6.,3634.,0.,0.,10004.,0.914778319441,2.50360382163,247.
9.32,6345.,19.,6.,3634.,0.,0.,10004.,0.914778319441,2.50360382163,247.
9.34,6344.,14.,15.,3632.,0.,0.,10005.,0.914542728636,3.39687299208,182.
9.36,6341.,16.,17.,3631.,0.,0.,10005.,0.914110252566,2.97085832084,208.
9.38,6330.,22.,17.,3637.,0.,0.,10006.,0.912433309245,2.15666054913,286.
9.4,6326.,20.,16.,3647.,0.,0.,10009.,0.911583421075,2.37011689479,260.
9.42,6313.,28.,11.,3660.,0.,0.,10012.,0.909437521128,1.68895539638,364.
9.44,6311.,27.,16.,3656.,0.,0.,10010.,0.909331053562,1.7513042513,351.
9.46,6312.,22.,14.,3663.,0.,0.,10011.,0.909384292663,2.14945378266,286.
9.48,6311.,17.,14.,3671.,0.,0.,10013.,0.909058608424,2.78064986106,221.
9.5,6303.,19.,8.,3683.,0.,0.,10013.,0.907906260323,2.48479608088,247.
9.52,6298.,19.,7.,3685.,0.,0.,10009.,0.907548590884,2.4838171961,247.
9.54,6295.,10.,15.,3684.,0.,0.,10004.,0.907569664442,4.7193622551,130.
9.56,6297.,11.,11.,3687.,0.,0.,10006.,0.907676547917,4.29083459015,143.
9.58,6299.,11.,4.,3689.,0.,0.,10003.,0.908237144241,4.29348468187,143.
9.6,6308.,14.,3.,3682.,0.,0.,10007.,0.909171272417,3.37692186898,182.
9.62,6314.,14.,5.,3675.,0.,0.,10008.,0.909945120826,3.37979616307,182.
9.64,6315.,10.,6.,3675.,0.,0.,10006.,0.910271145005,4.73340995403,130.
9.66,6321.,7.,8.,3668.,0.,0.,10004.,0.911318165042,6.76979208317,91.
9.68,6315.,9.,7.,3672.,0.,0.,10003.,0.910544144449,5.26092172348,117.
9.7,6313.,13.,5.,3673.,0.,0.,10004.,0.910164780242,3.64065912097,169.
9.72,6320.,12.,6.,3667.,0.,0.,10005.,0.911082920078,3.94802598701,156.
9.74,6320.,13.,9.,3662.,0.,0.,10004.,0.911173991942,3.64469596777,169.
9.76,6321.,16.,6.,3663.,0.,0.,10006.,0.911136010701,2.96119203478,208.
9.78,6322.,14.,12.,3658.,0.,0.,10006.,0.911280154984,3.38475486137,182.
9.8,6324.,18.,5.,3661.,0.,0.,10008.,0.911386275595,2.63289368505,234.
9.82,6328.,10.,15.,3656.,0.,0.,10009.,0.911871623231,4.7417324408,130.
9.84,6324.,21.,4.,3660.,0.,0.,10009.,0.911295218918,2.25654054208,273.
9.86,6331.,19.,6.,3655.,0.,0.,10011.,0.912121666167,2.49633298109,247.
9.88,6338.,16.,8.,3648.,0.,0.,10010.,0.913221393991,2.96796953047,208.
9.9,6335.,19.,7.,3650.,0.,0.,10011.,0.912697955326,2.49791019352,247.
9.92,6339.,17.,12.,3641.,0.,0.,10009.,0.913456735092,2.7941029544,221.
9.94,6332.,19.,9.,3650.,0.,0.,10010.,0.912356873895,2.4969767075,247.
9.96,6322.,24.,12.,3652.,0.,0.,10010.,0.91091600707,1.97365134865,312.
9.98,6318.,25.,9.,3659.,0.,0.,10011.,0.910248726401,1.89331735091,325.
10.,6320.,17.,8.,3662.,0.,0.,10007.,0.910900830957,2.78628489469,221.
