t,s,e,i,r,c,o,n,reff,coal,reportr
5.,6250.,5.,3.,3734.,0.,0.,9992.,0.902164038923,9.3825060048,65.
5.02,6257.,9.,2.,3724.,0.,0.,9992.,0.903174462647,5.21834133974,117.
5.04,6258.,9.,4.,3720.,0.,0.,9991.,0.903409222146,5.21969772796,117.
5.06,6264.,5.,3.,3719.,0.,0.,9991.,0.904275386309,9.40446401762,65.
5.08,6271.,5.,2.,3712.,0.,0.,9990.,0.905376530377,9.41591591592,65.
5.1,6277.,3.,4.,3706.,0.,0.,9990.,0.906242781243,15.7082082082,39.
5.12,6285.,5.,4.,3697.,0.,0.,9991.,0.90730696088,9.43599239315,65.
5.14,6287.,6.,5.,3696.,0.,0.,9994.,0.907323240098,7.86346808085,78.
5.16,6289.,9.,1.,3689.,0.,0.,9988.,0.908157096208,5.2471298892,117.
5.18,6295.,6.,5.,3681.,0.,0.,9987.,0.909114541211,7.8789926905,78.
5.2,6300.,9.,6.,3673.,0.,0.,9988.,0.909745540803,5.25630756908,117.
5.22,6304.,8.,0.,3675.,0.,0.,9987.,0.910414307831,5.9176930009,104.
5.24,6304.,6.,5.,3671.,0.,0.,9986.,0.910505476898,7.89104746645,78.
5.26,6299.,12.,4.,3670.,0.,0.,9985.,0.909874427025,3.94278918378,156.
5.28,6303.,12.,5.,3664.,0.,0.,9984.,0.910543407914,3.94568810096,156.
5.3,6320.,6.,6.,3657.,0.,0.,9989.,0.912542258022,7.90869956953,78.
5.32,6322.,9.,3.,3656.,0.,0.,9990.,0.91273966274,5.27360694027,117.
5.34,6327.,9.,1.,3651.,0.,0.,9988.,0.913644450263,5.27883460152,117.
5.36,6332.,8.,4.,3644.,0.,0.,9988.,0.914366470534,5.94338205847,104.
5.38,6339.,7.,3.,3643.,0.,0.,9992.,0.915010854838,6.79722349308,91.
5.4,6345.,4.,3.,3641.,0.,0.,9993.,0.915785280466,11.9052086461,52.
5.42,6352.,5.,2.,3634.,0.,0.,9993.,0.916795603076,9.53467427199,65.
5.44,6352.,3.,4.,3631.,0.,0.,9990.,0.917070917071,15.8958958959,39.
5.46,6353.,2.,8.,3627.,0.,0.,9990.,0.917215292215,23.8475975976,26.
5.48,6361.,6.,1.,3624.,0.,0.,9992.,0.918186472255,7.95761609287,78.
5.5,6371.,7.,4.,3614.,0.,0.,9996.,0.919261935543,6.82880294975,91.
5.52,6378.,2.,8.,3608.,0.,0.,9996.,0.920271954936,23.9270708283,26.
5.54,6386.,7.,0.,3608.,0.,0.,10001.,0.920965595748,6.84145871127,91.
5.56,6393.,5.,3.,3601.,0.,0.,10002.,0.921882931106,9.5875824835,65.
5.58,6399.,4.,4.,3598.,0.,0.,10005.,0.922471456579,11.9921289355,52.
5.6,6397.,10.,3.,3593.,0.,0.,10003.,0.922367520513,4.79631110667,130.
5.62,6400.,12.,8.,3584.,0.,0.,10004.,0.922707839941,3.99840063974,156.
5.64,6397.,19.,9.,3579.,0.,0.,10004.,0.922275320641,2.52412193018,247.
5.66,6395.,24.,6.,3582.,0.,0.,10007.,0.92171057183,1.9970395723,312.
5.68,6394.,26.,8.,3582.,0.,0.,10010.,0.921290248213,1.84258049643,338.
5.7,6395.,22.,8.,3587.,0.,0.,10012.,0.921250268908,2.1775006356,286.
5.72,6390.,24.,11.,3585.,0.,0.,10010.,0.920713901483,1.99488011988,312.
5.74,6385.,26.,12.,3588.,0.,0.,10011.,0.919901569812,1.83980313962,338.
5.76,6387.,22.,11.,3593.,0.,0.,10013.,0.920005915387,2.17455943637,286.
5.78,6385.,21.,9.,3598.,0.,0.,10013.,0.919717828362,2.27739652737,273.
5.8,6381.,20.,6.,3603.,0.,0.,10010.,0.91941712134,2.39048451548,260.
5.82,6376.,21.,11.,3600.,0.,0.,10008.,0.918880280391,2.27532259906,273.
5.84,6373.,20.,14.,3603.,0.,0.,10010.,0.91826442788,2.38748751249,260.
5.86,6366.,19.,17.,3608.,0.,0.,10010.,0.917255821102,2.51038435249,247.
5.88,6356.,24.,9.,3621.,0.,0.,10010.,0.915814954276,1.98426573427,312.
5.9,6353.,25.,4.,3624.,0.,0.,10006.,0.915748627746,1.90475714571,325.
5.92,6355.,27.,4.,3621.,0.,0.,10007.,0.915945376698,1.76404294771,351.
5.94,6354.,26.,15.,3614.,0.,0.,10009.,0.915618251266,1.83123650253,338.
5.96,6345.,24.,14.,3624.,0.,0.,10007.,0.914504077915,1.98142550215,312.
5.98,6334.,34.,15.,3625.,0.,0.,10008.,0.912827430363,1.39608901114,442.
6.,6321.,36.,11.,3638.,0.,0.,10006.,0.911136010701,1.31608534879,468.
6.02,6315.,31.,18.,3639.,0.,0.,10003.,0.910544144449,1.52736437133,403.
6.04,6316.,28.,20.,3640.,0.,0.,10004.,0.910597299542,1.69110927058,364.
6.06,6307.,35.,14.,3648.,0.,0.,10004.,0.909299741642,1.35095961615,455.
6.08,6307.,25.,15.,3660.,0.,0.,10007.,0.909027142539,1.89077645648,325.
6.1,6304.,23.,15.,3669.,0.,0.,10011.,0.908231714345,2.05339344113,299.
6.12,6296.,23.,13.,3678.,0.,0.,10010.,0.907169753324,2.05099248578,299.
6.14,6292.,16.,11.,3690.,0.,0.,10009.,0.906683984414,2.94672294935,208.
6.16,6288.,21.,7.,3694.,0.,0.,10010.,0.906017059863,2.2434708149,273.
6.18,6280.,26.,11.,3695.,0.,0.,10012.,0.904683610437,1.80936722087,338.
6.2,6272.,23.,18.,3698.,0.,0.,10011.,0.903621401074,2.04297012417,299.
6.22,6256.,36.,13.,3705.,0.,0.,10010.,0.901406286022,1.30203130203,468.
6.24,6250.,33.,18.,3712.,0.,0.,10013.,0.900271954152,1.418610352,429.
6.26,6241.,36.,15.,3722.,0.,0.,10014.,0.898885790662,1.29839058651,468.
6.28,6235.,33.,22.,3728.,0.,0.,10018.,0.897663052659,1.41449935571,429.
6.3,6228.,38.,16.,3732.,0.,0.,10014.,0.897013411992,1.22749203746,494.
6.32,6210.,37.,27.,3738.,0.,0.,10012.,0.894599557454,1.25727505372,481.
6.34,6194.,39.,12.,3768.,0.,0.,10013.,0.892205517443,1.18960735659,507.
6.36,6195.,22.,18.,3773.,0.,0.,10008.,0.892795379081,2.11024362328,286.
6.38,6185.,27.,10.,3788.,0.,0.,10010.,0.891176131561,1.71633921634,351.
6.4,6184.,25.,17.,3786.,0.,0.,10012.,0.890854052061,1.85297642829,325.
6.42,6175.,28.,16.,3792.,0.,0.,10011.,0.889646388972,1.65220043666,364.
6.44,6162.,32.,13.,3801.,0.,0.,10008.,0.888039568345,1.44306429856,416.
6.46,6156.,30.,11.,3811.,0.,0.,10008.,0.887174875484,1.53776978417,390.
6.48,6151.,27.,14.,3816.,0.,0.,10008.,0.8864542981,1.70724531486,351.
6.5,6140.,33.,9.,3826.,0.,0.,10008.,0.884869027855,1.3943390742,429.
6.52,6129.,31.,11.,3835.,0.,0.,10006.,0.88346030843,1.48193342059,403.
6.54,6121.,31.,19.,3833.,0.,0.,10004.,0.882483545044,1.48029497878,403.
6.56,6106.,31.,25.,3840.,0.,0.,10002.,0.880496977528,1.47696267198,403.
6.58,6094.,27.,19.,3861.,0.,0.,10001.,0.87885442225,1.69260851693,351.
6.6,6090.,23.,19.,3871.,0.,0.,10003.,0.878101954029,1.98527398302,299.
6.62,6085.,32.,14.,3875.,0.,0.,10006.,0.877117959993,1.42531668499,416.
6.64,6079.,30.,17.,3881.,0.,0.,10007.,0.876165530283,1.51868691916,390.
6.66,6069.,18.,24.,3889.,0.,0.,10000.,0.875336538462,2.52875,234.
6.68,6058.,26.,23.,3892.,0.,0.,9999.,0.873837383738,1.74767476748,338.
6.7,6045.,28.,27.,3901.,0.,0.,10001.,0.871787821218,1.61903452512,364.
6.72,6026.,32.,26.,3918.,0.,0.,10002.,0.86896082322,1.41206133773,416.
6.74,6010.,37.,23.,3933.,0.,0.,10003.,0.866566952991,1.21787787988,481.
6.76,5996.,40.,21.,3945.,0.,0.,10002.,0.864634765355,1.12402519496,520.
6.78,5988.,35.,27.,3953.,0.,0.,10003.,0.863394827706,1.28275802973,455.
6.8,5980.,38.,24.,3958.,0.,0.,10000.,0.8625,1.18026315789,494.
6.82,5970.,40.,15.,3975.,0.,0.,10000.,0.861057692308,1.119375,520.
6.84,5969.,36.,11.,3987.,0.,0.,10003.,0.860655264959,1.24316871605,468.
6.86,5966.,29.,19.,3987.,0.,0.,10001.,0.860394729758,1.54277675681,377.
6.88,5964.,32.,19.,3988.,0.,0.,10003.,0.859934327394,1.39739328202,416.
6.9,5965.,37.,13.,3990.,0.,0.,10005.,0.859906585169,1.20851736294,481.
6.92,5945.,37.,14.,4006.,0.,0.,10002.,0.857280466984,1.20482660225,481.
6.94,5935.,30.,22.,4017.,0.,0.,10004.,0.855667348445,1.48315673731,390.
6.96,5930.,23.,24.,4025.,0.,0.,10002.,0.855117438051,1.93330899038,299.
6.98,5920.,31.,21.,4033.,0.,0.,10005.,0.853419444124,1.43154229337,403.
7.,5912.,37.,11.,4047.,0.,0.,10007.,0.852095840604,1.19754010031,481.
7.02,5904.,26.,23.,4051.,0.,0.,10004.,0.851197982346,1.70239596469,338.
7.04,5894.,35.,11.,4065.,0.,0.,10005.,0.849671318187,1.26236881559,455.
7.06,5892.,27.,19.,4064.,0.,0.,10002.,0.849637764755,1.63633939879,351.
7.08,5881.,29.,19.,4074.,0.,0.,10003.,0.847966763817,1.52049212822,377.
7.1,5868.,21.,26.,4084.,0.,0.,9999.,0.846430796926,2.0959238781,273.
7.12,5861.,29.,10.,4102.,0.,0.,10002.,0.845167504961,1.51547276752,377.
7.14,5868.,25.,7.,4105.,0.,0.,10005.,0.84592319225,1.75952023988,325.
7.16,5867.,17.,16.,4106.,0.,0.,10006.,0.845694506373,2.58683025479,221.
7.18,5861.,27.,8.,4107.,0.,0.,10003.,0.845083013557,1.62756728537,351.
7.2,5860.,27.,10.,4111.,0.,0.,10008.,0.844516694337,1.6264765965,351.
7.22,5853.,30.,16.,4110.,0.,0.,10009.,0.843423611058,1.46193425917,390.
7.24,5855.,34.,17.,4110.,0.,0.,10016.,0.843122158393,1.28948094813,442.
7.26,5848.,31.,21.,4118.,0.,0.,10018.,0.841946035597,1.41229657584,403.
7.28,5839.,33.,14.,4135.,0.,0.,10021.,0.840398624427,1.3242644991,429.
7.3,5843.,21.,16.,4144.,0.,0.,10024.,0.840722650255,2.08178941968,273.
7.32,5839.,21.,13.,4152.,0.,0.,10025.,0.84006330328,2.08015675098,273.
7.34,5834.,21.,10.,4157.,0.,0.,10022.,0.839595198256,2.07899763378,273.
7.36,5832.,18.,13.,4159.,0.,0.,10022.,0.83930736994,2.42466573538,234.
7.38,5826.,17.,16.,4163.,0.,0.,10022.,0.838443884991,2.5646518835,221.
7.4,5815.,22.,13.,4168.,0.,0.,10018.,0.837194972127,1.97882447957,286.
7.42,5816.,22.,12.,4164.,0.,0.,10014.,0.837673411071,1.97995533526,286.
7.44,5814.,20.,5.,4173.,0.,0.,10012.,0.837552629153,2.1776368358,260.
7.46,5815.,19.,10.,4169.,0.,0.,10013.,0.837613026143,2.29241459786,247.
7.48,5810.,22.,11.,4166.,0.,0.,10009.,0.837227264693,1.97890080746,286.
7.5,5813.,26.,3.,4168.,0.,0.,10010.,0.837575885653,1.67515177131,338.
7.52,5818.,20.,10.,4161.,0.,0.,10009.,0.838380073319,2.17978819063,260.
7.54,5820.,16.,10.,4167.,0.,0.,10013.,0.838333243706,2.72458304205,208.
7.56,5827.,18.,4.,4164.,0.,0.,10013.,0.839341548295,2.42476447285,234.
7.58,5842.,12.,7.,4156.,0.,0.,10017.,0.841166171355,3.6450534092,156.
7.6,5844.,17.,8.,4147.,0.,0.,10016.,0.841538154338,2.57411670739,221.
7.62,5844.,13.,10.,4151.,0.,0.,10018.,0.841370149116,3.36548059646,169.
7.64,5842.,18.,7.,4151.,0.,0.,10018.,0.841082205876,2.4297930392,234.
7.66,5839.,16.,11.,4154.,0.,0.,10020.,0.840482496545,2.73156811377,208.
7.68,5842.,18.,13.,4149.,0.,0.,10022.,0.840746511521,2.4288232555,234.
7.7,5840.,20.,9.,4151.,0.,0.,10020.,0.840626439429,2.18562874251,260.
7.72,5835.,20.,13.,4151.,0.,0.,10019.,0.839990556404,2.18397544665,260.
7.74,5829.,21.,12.,4153.,0.,0.,10015.,0.839461960905,2.07866771272,273.
7.76,5827.,17.,12.,4157.,0.,0.,10013.,0.839341548295,2.56739767714,221.
7.78,5823.,24.,2.,4165.,0.,0.,10014.,0.83868161497,1.8171434991,312.
7.8,5831.,13.,10.,4162.,0.,0.,10016.,0.839666149545,3.35866459818,169.
7.82,5830.,9.,8.,4166.,0.,0.,10013.,0.839773678833,4.85202569992,117.
7.84,5833.,9.,5.,4167.,0.,0.,10014.,0.840121906254,4.85403768058,117.
7.86,5834.,11.,1.,4168.,0.,0.,10014.,0.840265935383,3.97216623999,143.
7.88,5841.,8.,2.,4162.,0.,0.,10013.,0.841358157472,5.46882802357,104.
7.9,5854.,10.,0.,4153.,0.,0.,10017.,0.842894003271,4.38304881701,130.
7.92,5861.,9.,1.,4145.,0.,0.,10016.,0.843986160605,4.87636448349,117.
7.94,5869.,9.,1.,4138.,0.,0.,10017.,0.845053793167,4.88253302719,117.
7.96,5876.,5.,0.,4138.,0.,0.,10019.,0.845892803673,8.7972851582,65.
7.98,5887.,4.,1.,4125.,0.,0.,10017.,0.847645541042,11.0193920335,52.
8.,5898.,5.,2.,4113.,0.,0.,10018.,0.849144616613,8.83110401278,65.
8.02,5906.,6.,4.,4105.,0.,0.,10021.,0.850041835223,7.3670292386,78.
8.04,5913.,8.,0.,4102.,0.,0.,10023.,0.850879515576,5.53071685124,104.
8.06,5921.,2.,7.,4095.,0.,0.,10025.,0.851860732783,22.1483790524,26.
8.08,5925.,10.,4.,4090.,0.,0.,10029.,0.852096228629,4.43090038887,130.
8.1,5925.,10.,7.,4085.,0.,0.,10027.,0.852266188982,4.43178418271,130.
8.12,5925.,18.,1.,4083.,0.,0.,10027.,0.852266188982,2.46210232373,234.
8.14,5937.,16.,3.,4074.,0.,0.,10030.,0.853736866324,2.77464481555,208.
8.16,5940.,15.,6.,4067.,0.,0.,10028.,0.854338621092,2.96170721978,195.
8.18,5933.,19.,7.,4063.,0.,0.,10022.,0.853842699906,2.33683265238,247.
8.2,5931.,18.,13.,4062.,0.,0.,10024.,0.853384569341,2.46533320032,234.
8.22,5928.,21.,8.,4068.,0.,0.,10025.,0.852867830424,2.11186319914,273.
8.24,5919.,25.,6.,4074.,0.,0.,10024.,0.851657944011,1.77144852354,325.
8.26,5918.,23.,8.,4075.,0.,0.,10024.,0.851514058567,1.92516221937,299.
8.28,5911.,26.,10.,4075.,0.,0.,10022.,0.850676588429,1.70135317686,338.
8.3,5911.,23.,7.,4077.,0.,0.,10018.,0.851016247677,1.92403673388,299.
8.32,5907.,25.,7.,4074.,0.,0.,10013.,0.850865029308,1.76979926096,325.
8.34,5909.,19.,8.,4079.,0.,0.,10015.,0.850983140674,2.32900649026,247.
8.36,5905.,17.,12.,4079.,0.,0.,10013.,0.850576942283,2.60176476463,221.
8.38,5903.,25.,6.,4078.,0.,0.,10012.,0.850373782231,1.76877746704,325.
8.4,5894.,26.,16.,4073.,0.,0.,10009.,0.849331755266,1.69866351053,338.
8.42,5890.,26.,9.,4084.,0.,0.,10009.,0.848755350953,1.69751070191,338.
8.44,5881.,24.,17.,4085.,0.,0.,10007.,0.847627814376,1.83652693115,312.
8.46,5869.,31.,21.,4085.,0.,0.,10006.,0.845982794938,1.41906791409,403.
8.48,5872.,28.,20.,4087.,0.,0.,10007.,0.846330645471,1.57175691302,364.
8.5,5862.,35.,1.,4108.,0.,0.,10006.,0.84497378496,1.25538962337,455.
8.52,5857.,32.,8.,4108.,0.,0.,10005.,0.844337446661,1.37204835082,416.
8.54,5866.,23.,9.,4107.,0.,0.,10005.,0.84563487487,1.91187015188,299.
8.56,5861.,22.,17.,4107.,0.,0.,10007.,0.84474521681,1.99667051246,286.
8.58,5854.,23.,15.,4113.,0.,0.,10005.,0.843904970592,1.90795906395,299.
8.6,5841.,24.,15.,4123.,0.,0.,10003.,0.842199263298,1.82476507048,312.
8.62,5832.,30.,17.,4119.,0.,0.,9998.,0.841322110576,1.45829165833,390.
8.64,5816.,29.,21.,4128.,0.,0.,9994.,0.839349763704,1.50504095561,377.
8.66,5809.,37.,23.,4128.,0.,0.,9997.,0.838087964851,1.17785335601,481.
8.68,5805.,38.,21.,4133.,0.,0.,9997.,0.837510868645,1.14606750446,494.
8.7,5792.,42.,14.,4153.,0.,0.,10001.,0.835301085276,1.03418229606,546.
8.72,5781.,36.,16.,4165.,0.,0.,9998.,0.833964869897,1.20461592318,468.
8.74,5778.,35.,15.,4169.,0.,0.,9997.,0.833615469256,1.23851441147,455.
8.76,5761.,41.,15.,4182.,0.,0.,9999.,0.830996561195,1.0539468581,533.
8.78,5759.,31.,21.,4188.,0.,0.,9999.,0.830708070807,1.39344579619,403.
8.8,5748.,36.,27.,4187.,0.,0.,9998.,0.829204302399,1.19773954791,468.
8.82,5726.,48.,24.,4201.,0.,0.,9999.,0.825947979413,0.894776977698,624.
8.84,5715.,49.,26.,4209.,0.,0.,9999.,0.824361282282,0.874832381197,637.
8.86,5690.,45.,38.,4224.,0.,0.,9997.,0.820919352729,0.948617918709,585.
8.88,5666.,52.,29.,4247.,0.,0.,9994.,0.817702159757,0.817702159757,676.
8.9,5651.,51.,29.,4262.,0.,0.,9993.,0.81561901023,0.831611539843,663.
8.92,5645.,47.,23.,4277.,0.,0.,9992.,0.814834559956,0.901519087611,611.
8.94,5638.,40.,22.,4295.,0.,0.,9995.,0.813579866857,1.05765382691,520.
8.96,5628.,37.,20.,4305.,0.,0.,9990.,0.812543312543,1.14195276357,481.
8.98,5623.,38.,20.,4312.,0.,0.,9993.,0.811577719788,1.11058003761,494.
9.,5622.,25.,17.,4327.,0.,0.,9991.,0.811595820854,1.68811930738,325.
9.02,5615.,32.,17.,4333.,0.,0.,9997.,0.81009879887,1.31641054816,416.
9.04,5608.,29.,12.,4349.,0.,0.,9998.,0.809007955437,1.45063495458,377.
9.06,5608.,26.,13.,4349.,0.,0.,9996.,0.809169821775,1.61833964355,338.
9.08,5600.,28.,16.,4353.,0.,0.,9997.,0.807934688099,1.50045013504,364.
9.1,5608.,25.,14.,4352.,0.,0.,9999.,0.808927046551,1.68256825683,325.
9.12,5610.,28.,6.,4357.,0.,0.,10001.,0.809053710014,1.5025283186,364.
9.14,5614.,27.,9.,4356.,0.,0.,10006.,0.80922600286,1.55850933884,351.
9.16,5617.,27.,11.,4354.,0.,0.,10009.,0.809415756588,1.55887479047,351.
9.18,5621.,24.,10.,4349.,0.,0.,10004.,0.810396995048,1.75586015594,312.
9.2,5622.,24.,7.,4355.,0.,0.,10008.,0.810217210847,1.7554706235,312.
9.22,5625.,20.,9.,4355.,0.,0.,10009.,0.810568565214,2.10747826956,260.
9.24,5626.,18.,12.,4355.,0.,0.,10011.,0.81055070192,2.34159091666,234.
9.26,5626.,24.,7.,4352.,0.,0.,10009.,0.810712666293,1.7565441103,312.
9.28,5632.,16.,8.,4353.,0.,0.,10009.,0.811577272762,2.63762613648,208.
9.3,5633.,20.,11.,4346.,0.,0.,10010.,0.811640282794,2.11026473526,260.
9.32,5632.,20.,9.,4346.,0.,0.,10007.,0.811739474675,2.11052263416,260.
9.34,5637.,26.,6.,4340.,0.,0.,10009.,0.812297778154,1.62459555631,338.
9.36,5636.,23.,12.,4336.,0.,0.,10007.,0.812315994189,1.8365405086,299.
9.38,5640.,23.,6.,4340.,0.,0.,10009.,0.812730081388,1.83747670575,299.
9.4,5648.,14.,11.,4335.,0.,0.,10008.,0.813964213245,3.02329564919,182.
9.42,5650.,15.,8.,4337.,0.,0.,10010.,0.814089756397,2.82217782218,195.
9.44,5650.,16.,7.,4335.,0.,0.,10008.,0.814252444198,2.64632044365,208.
9.46,5660.,11.,3.,4336.,0.,0.,10010.,0.815530623223,3.85523567342,143.
9.48,5674.,7.,1.,4328.,0.,0.,10010.,0.817547836779,6.07321250178,91.
9.5,5684.,5.,3.,4321.,0.,0.,10013.,0.818743325984,8.51493059023,65.
9.52,5694.,2.,3.,4314.,0.,0.,10013.,0.820183761111,21.3247777889,26.
9.54,5695.,5.,2.,4306.,0.,0.,10008.,0.820737640657,8.53567146283,65.
9.56,5708.,5.,3.,4293.,0.,0.,10009.,0.82252895471,8.55430112898,65.
9.58,5718.,3.,3.,4284.,0.,0.,10008.,0.824052296624,14.2835731415,39.
9.6,5724.,3.,0.,4281.,0.,0.,10008.,0.824916989485,14.2985611511,39.
9.62,5729.,6.,1.,4274.,0.,0.,10010.,0.825472604319,7.1540959041,78.
9.64,5741.,5.,2.,4260.,0.,0.,10008.,0.827366952592,8.60461630695,65.
9.66,5742.,4.,2.,4259.,0.,0.,10007.,0.82759376129,10.7587188968,52.
9.68,5746.,5.,3.,4254.,0.,0.,10008.,0.828087529976,8.61211031175,65.
9.7,5742.,6.,3.,4250.,0.,0.,10001.,0.828090267896,7.17678232177,78.
9.72,5742.,10.,5.,4246.,0.,0.,10003.,0.827924699513,4.30520843747,130.
9.74,5747.,5.,5.,4246.,0.,0.,10003.,0.828645637078,8.61791462561,65.
9.76,5754.,3.,4.,4242.,0.,0.,10003.,0.829654949669,14.3806857943,39.
9.78,5760.,5.,0.,4241.,0.,0.,10006.,0.830271068128,8.63481910853,65.
9.8,5764.,3.,1.,4237.,0.,0.,10005.,0.830930688502,14.4027986007,39.
9.82,5773.,4.,0.,4229.,0.,0.,10006.,0.832144943803,10.8178842694,52.
9.84,5785.,4.,2.,4217.,0.,0.,10008.,0.833708033573,10.8382044365,52.
9.86,5801.,4.,0.,4206.,0.,0.,10011.,0.83576335262,10.8649235841,52.
9.88,5808.,2.,3.,4199.,0.,0.,10012.,0.836688281754,21.7538953256,26.
9.9,5812.,2.,6.,4192.,0.,0.,10012.,0.837264513353,21.7688773472,26.
9.92,5815.,5.,4.,4185.,0.,0.,10009.,0.837947770084,8.71465680887,65.
9.94,5827.,7.,1.,4177.,0.,0.,10012.,0.839425381849,6.23573140802,91.
9.96,5826.,4.,7.,4169.,0.,0.,10006.,0.839784590784,10.9171996802,52.
9.98,5828.,11.,4.,4162.,0.,0.,10005.,0.840156844655,3.97165053837,143.
10.,5828.,12.,6.,4156.,0.,0.,10002.,0.840408841309,3.64177164567,156.
