t,s,e,i,r,c,o,n,reff,coal,reportr
5.,6250.,5.,3.,3734.,0.,0.,9992.,0.902164038923,9.3825060048,65.
5.02,6267.,2.,3.,3726.,0.,0.,9998.,0.904075045778,23.5059511902,26.
5.04,6270.,3.,2.,3726.,0.,0.,10001.,0.904236499427,15.6734326567,39.
5.06,6280.,6.,3.,3716.,0.,0.,10005.,0.905316572483,7.84607696152,78.
5.08,6287.,6.,0.,3717.,0.,0.,10010.,0.905872973181,7.8508991009,78.
5.1,6294.,5.,1.,3706.,0.,0.,10006.,0.907244115069,9.43533879672,65.
5.12,6298.,7.,1.,3700.,0.,0.,10006.,0.9078206922,6.74381085634,91.
5.14,6301.,6.,4.,3696.,0.,0.,10007.,0.908162363269,7.87074048166,78.
5.16,6303.,7.,1.,3696.,0.,0.,10007.,0.908450623025,6.74849034247,91.
5.18,6310.,3.,5.,3686.,0.,0.,10004.,0.909732260942,15.768692523,39.
5.2,6313.,6.,4.,3683.,0.,0.,10006.,0.90998285644,7.88651808915,78.
5.22,6313.,4.,5.,3682.,0.,0.,10004.,0.910164780242,11.8321421431,52.
5.24,6317.,9.,3.,3675.,0.,0.,10004.,0.910741472642,5.26206184193,117.
5.26,6324.,12.,4.,3663.,0.,0.,10003.,0.911841832066,3.95131460562,156.
5.28,6331.,7.,8.,3655.,0.,0.,10001.,0.91303369663,6.78253603211,91.
5.3,6328.,11.,5.,3654.,0.,0.,9998.,0.912874882669,4.31540853625,143.
5.32,6334.,8.,10.,3648.,0.,0.,10000.,0.913557692308,5.938125,104.
5.34,6322.,20.,11.,3646.,0.,0.,9999.,0.911918114888,2.37098709871,260.
5.36,6320.,19.,9.,3652.,0.,0.,10000.,0.911538461538,2.49473684211,247.
5.38,6325.,22.,11.,3644.,0.,0.,10002.,0.912077199945,2.15581883623,286.
5.4,6317.,31.,14.,3645.,0.,0.,10007.,0.910468441322,1.52723738544,403.
5.42,6306.,25.,19.,3653.,0.,0.,10003.,0.909246456832,1.89123263021,325.
5.44,6292.,34.,15.,3662.,0.,0.,10003.,0.907227831651,1.38752491899,442.
5.46,6286.,29.,20.,3666.,0.,0.,10001.,0.906543960989,1.62552710246,377.
5.48,6268.,35.,14.,3684.,0.,0.,10001.,0.903948066732,1.34300855629,455.
5.5,6267.,31.,14.,3686.,0.,0.,9998.,0.904075045778,1.51651298002,403.
5.52,6257.,36.,14.,3695.,0.,0.,10002.,0.902271468783,1.30328101046,468.
5.54,6248.,26.,22.,3703.,0.,0.,9999.,0.901243970551,1.8024879411,338.
5.56,6241.,28.,15.,3717.,0.,0.,10001.,0.900054225347,1.67152927564,364.
5.58,6229.,39.,13.,3720.,0.,0.,10001.,0.898323629176,1.1977648389,507.
5.6,6223.,38.,11.,3732.,0.,0.,10004.,0.897189201243,1.22773259117,494.
5.62,6220.,30.,19.,3737.,0.,0.,10006.,0.896577438152,1.55406755946,390.
5.64,6214.,26.,22.,3742.,0.,0.,10004.,0.895891643343,1.79178328669,338.
5.66,6208.,30.,14.,3750.,0.,0.,10002.,0.89520557427,1.55168966207,390.
5.68,6203.,27.,16.,3751.,0.,0.,9997.,0.894931941121,1.72357262734,351.
5.7,6197.,27.,14.,3762.,0.,0.,10000.,0.893798076923,1.72138888889,351.
5.72,6193.,27.,16.,3767.,0.,0.,10003.,0.892953267866,1.71976184922,351.
5.74,6189.,26.,9.,3777.,0.,0.,10001.,0.892554975272,1.78510995054,338.
5.76,6187.,19.,15.,3780.,0.,0.,10001.,0.892266542577,2.44199264284,247.
5.78,6187.,20.,13.,3783.,0.,0.,10003.,0.892088142788,2.31942917125,260.
5.8,6183.,22.,11.,3781.,0.,0.,9997.,0.892046460092,2.10847345113,286.
5.82,6182.,23.,8.,3782.,0.,0.,9995.,0.892080655712,2.01687800422,299.
5.84,6178.,27.,10.,3779.,0.,0.,9994.,0.891592647896,1.71714139595,351.
5.86,6176.,20.,14.,3781.,0.,0.,9991.,0.89157164525,2.31808627765,260.
5.88,6172.,17.,17.,3784.,0.,0.,9990.,0.891083391083,2.72566684331,221.
5.9,6171.,23.,6.,3793.,0.,0.,9993.,0.890671547006,2.01369219323,299.
5.92,6169.,19.,9.,3798.,0.,0.,9995.,0.890204717743,2.43634975382,247.
5.94,6166.,20.,9.,3801.,0.,0.,9996.,0.889682796195,2.31317527011,260.
5.96,6166.,16.,14.,3800.,0.,0.,9996.,0.889682796195,2.89146908764,208.
5.98,6162.,20.,11.,3803.,0.,0.,9996.,0.889105642257,2.31167466987,260.
6.,6150.,24.,13.,3808.,0.,0.,9995.,0.88746296225,1.92283641821,312.
6.02,6138.,28.,13.,3815.,0.,0.,9994.,0.885819953511,1.64509419938,364.
6.04,6139.,26.,13.,3819.,0.,0.,9997.,0.885698401828,1.77139680366,338.
6.06,6140.,25.,8.,3822.,0.,0.,9995.,0.886019933043,1.84292146073,325.
6.08,6142.,20.,18.,3818.,0.,0.,9998.,0.886042593134,2.30371074215,260.
6.1,6133.,25.,17.,3823.,0.,0.,9998.,0.884744256544,1.84026805361,325.
6.12,6130.,24.,6.,3842.,0.,0.,10002.,0.88395782382,1.91524195161,312.
6.14,6135.,21.,11.,3838.,0.,0.,10005.,0.88441356245,2.18997644035,273.
6.16,6138.,17.,10.,3845.,0.,0.,10010.,0.884404057481,2.70523594053,221.
6.18,6136.,16.,8.,3850.,0.,0.,10010.,0.884115884116,2.87337662338,208.
6.2,6136.,18.,12.,3844.,0.,0.,10010.,0.884115884116,2.55411255411,234.
6.22,6137.,10.,11.,3851.,0.,0.,10009.,0.884348317284,4.59861124988,130.
6.24,6134.,13.,5.,3852.,0.,0.,10004.,0.884357795343,3.53743118137,169.
6.26,6135.,12.,7.,3848.,0.,0.,10002.,0.884678833464,3.83360827834,156.
6.28,6139.,11.,8.,3846.,0.,0.,10004.,0.885078660843,4.1840082149,143.
6.3,6135.,18.,7.,3845.,0.,0.,10005.,0.88441356245,2.55497251374,234.
6.32,6144.,13.,2.,3845.,0.,0.,10004.,0.885799526343,3.54319810537,169.
6.34,6150.,11.,7.,3838.,0.,0.,10006.,0.886487338366,4.19066741773,143.
6.36,6153.,10.,7.,3836.,0.,0.,10006.,0.886919771214,4.61198281031,130.
6.38,6157.,10.,4.,3836.,0.,0.,10007.,0.887407660791,4.61451983611,130.
6.4,6160.,7.,9.,3831.,0.,0.,10007.,0.887840050426,6.59538323174,91.
6.42,6161.,10.,4.,3828.,0.,0.,10003.,0.888339267451,4.61936419074,130.
6.44,6169.,5.,5.,3825.,0.,0.,10004.,0.889403853843,9.24980007997,65.
6.46,6176.,8.,0.,3818.,0.,0.,10002.,0.890591112547,5.78884223155,104.
6.48,6180.,5.,5.,3813.,0.,0.,10003.,0.891078830197,9.26721983405,65.
6.5,6174.,13.,6.,3810.,0.,0.,10003.,0.890213705119,3.56085482048,169.
6.52,6185.,11.,2.,3806.,0.,0.,10004.,0.891710623443,4.21535931082,143.
6.54,6191.,9.,3.,3797.,0.,0.,10000.,0.892932692308,5.15916666667,117.
6.56,6187.,10.,7.,3791.,0.,0.,9995.,0.892802170316,4.64257128564,130.
6.58,6187.,14.,8.,3786.,0.,0.,9995.,0.892802170316,3.31612234689,182.
6.6,6185.,11.,11.,3788.,0.,0.,9995.,0.892513564475,4.21915503206,143.
6.62,6192.,11.,6.,3788.,0.,0.,9997.,0.893344926555,4.22308510735,143.
6.64,6185.,17.,6.,3788.,0.,0.,9996.,0.892424277403,2.72976837794,221.
6.66,6188.,15.,7.,3787.,0.,0.,9997.,0.892767830349,3.09492847854,195.
6.68,6185.,15.,3.,3793.,0.,0.,9996.,0.892424277403,3.093737495,195.
6.7,6193.,11.,5.,3795.,0.,0.,10004.,0.892864008243,4.22081167533,143.
6.72,6192.,10.,9.,3791.,0.,0.,10002.,0.892898343408,4.64307138572,130.
6.74,6196.,8.,6.,3791.,0.,0.,10001.,0.893564489705,5.80816918308,104.
6.76,6199.,10.,5.,3786.,0.,0.,10000.,0.894086538462,4.64925,130.
6.78,6204.,13.,2.,3784.,0.,0.,10003.,0.894539330509,3.57815732203,169.
6.8,6213.,13.,5.,3775.,0.,0.,10006.,0.895568428174,3.5822737127,169.
6.82,6214.,9.,10.,3773.,0.,0.,10006.,0.895712572457,5.17522819642,117.
6.84,6212.,18.,7.,3770.,0.,0.,10007.,0.895334804099,2.5865227674,234.
6.86,6214.,14.,10.,3767.,0.,0.,10005.,0.895802098951,3.32726493896,182.
6.88,6214.,14.,9.,3770.,0.,0.,10007.,0.895623063855,3.32659995146,182.
6.9,6213.,18.,8.,3768.,0.,0.,10007.,0.895478933977,2.5869391426,234.
6.92,6225.,16.,8.,3759.,0.,0.,10008.,0.897118843387,2.91563624101,208.
6.94,6219.,19.,7.,3761.,0.,0.,10006.,0.89643329387,2.45339638322,247.
6.96,6221.,16.,12.,3756.,0.,0.,10005.,0.89681120978,2.91463643178,208.
6.98,6224.,12.,10.,3758.,0.,0.,10004.,0.897333374343,3.88844462215,156.
7.,6223.,12.,3.,3765.,0.,0.,10003.,0.897278893255,3.88820853744,156.
7.02,6229.,13.,4.,3759.,0.,0.,10005.,0.897964479299,3.5918579172,169.
7.04,6233.,12.,10.,3751.,0.,0.,10006.,0.898451313827,3.89328902658,156.
7.06,6244.,14.,4.,3745.,0.,0.,10007.,0.899946960205,3.3426601379,182.
7.08,6246.,9.,7.,3742.,0.,0.,10004.,0.900505182542,5.20291883247,117.
7.1,6245.,15.,2.,3743.,0.,0.,10005.,0.900271018337,3.12093953023,195.
7.12,6251.,12.,4.,3740.,0.,0.,10007.,0.900955869353,3.90414210053,156.
7.14,6247.,12.,6.,3737.,0.,0.,10002.,0.900829449495,3.90359428114,156.
7.16,6249.,11.,10.,3731.,0.,0.,10001.,0.901207956127,4.2602557926,143.
7.18,6246.,10.,8.,3736.,0.,0.,10000.,0.900865384615,4.6845,130.
7.2,6254.,11.,4.,3733.,0.,0.,10002.,0.901838862997,4.26323826144,143.
7.22,6255.,7.,3.,3734.,0.,0.,9999.,0.902253686907,6.70245595988,91.
7.24,6264.,3.,4.,3730.,0.,0.,10001.,0.903371201341,15.6584341566,39.
7.26,6265.,8.,2.,3726.,0.,0.,10001.,0.903515417689,5.87285021498,104.
7.28,6270.,5.,8.,3719.,0.,0.,10002.,0.904146093858,9.40311937612,65.
7.3,6266.,7.,3.,3724.,0.,0.,10000.,0.90375,6.71357142857,91.
7.32,6273.,8.,1.,3719.,0.,0.,10001.,0.90466914847,5.88034946505,104.
7.34,6275.,8.,1.,3715.,0.,0.,9999.,0.905138590782,5.88340084008,104.
7.36,6281.,8.,2.,3706.,0.,0.,9997.,0.906185317134,5.89020456137,104.
7.38,6289.,7.,4.,3698.,0.,0.,9998.,0.907248757444,6.73956219815,91.
7.4,6300.,4.,6.,3691.,0.,0.,10001.,0.908562989855,11.8113188681,52.
7.42,6295.,10.,1.,3693.,0.,0.,9999.,0.908023494657,4.72172217222,130.
7.44,6298.,10.,3.,3686.,0.,0.,9997.,0.908637976008,4.72491747524,130.
7.46,6299.,7.,6.,3685.,0.,0.,9997.,0.90878225006,6.75095385759,91.
7.48,6301.,10.,1.,3679.,0.,0.,9991.,0.909616731982,4.73000700631,130.
7.5,6309.,6.,6.,3670.,0.,0.,9991.,0.910771617533,7.89335401862,78.
7.52,6303.,10.,1.,3673.,0.,0.,9987.,0.910269889318,4.73340342445,130.
7.54,6304.,11.,3.,3665.,0.,0.,9983.,0.91077909369,4.30550117017,143.
7.56,6309.,9.,7.,3657.,0.,0.,9982.,0.911592790099,5.26698056502,117.
7.58,6311.,11.,4.,3656.,0.,0.,9982.,0.911881771805,4.31071383035,143.
7.6,6305.,13.,8.,3653.,0.,0.,9979.,0.911288706283,3.64515482513,169.
7.62,6307.,13.,8.,3651.,0.,0.,9979.,0.911577774866,3.64631109946,169.
7.64,6306.,14.,5.,3656.,0.,0.,9981.,0.911250606922,3.38464511143,182.
7.66,6309.,10.,4.,3656.,0.,0.,9979.,0.911866843448,4.74170758593,130.
7.68,6313.,9.,7.,3653.,0.,0.,9982.,0.91217075351,5.27031990917,117.
7.7,6318.,7.,8.,3653.,0.,0.,9986.,0.912527538554,6.77877600069,91.
7.72,6317.,11.,5.,3651.,0.,0.,9984.,0.91256587463,4.31394777098,143.
7.74,6324.,5.,10.,3646.,0.,0.,9985.,0.913485613035,9.50025037556,65.
7.76,6323.,6.,4.,3650.,0.,0.,9983.,0.913524144892,7.91720925573,78.
7.78,6324.,10.,2.,3647.,0.,0.,9983.,0.913668621272,4.75107683061,130.
7.8,6331.,9.,3.,3642.,0.,0.,9985.,0.914496745118,5.28375897179,117.
7.82,6335.,8.,4.,3636.,0.,0.,9983.,0.915257861441,5.94917609937,104.
7.84,6340.,5.,5.,3632.,0.,0.,9982.,0.916072006535,9.52714886796,65.
7.86,6347.,8.,2.,3623.,0.,0.,9980.,0.917267226761,5.96223697395,104.
7.88,6355.,9.,4.,3610.,0.,0.,9978.,0.918607474906,5.30750985501,117.
7.9,6357.,10.,3.,3605.,0.,0.,9975.,0.919172932331,4.77969924812,130.
7.92,6357.,14.,5.,3600.,0.,0.,9976.,0.919080793905,3.41372866308,182.
7.94,6361.,11.,6.,3597.,0.,0.,9975.,0.91975130133,4.34791524265,143.
7.96,6366.,8.,8.,3596.,0.,0.,9978.,0.920197511448,5.98128382441,104.
7.98,6370.,7.,9.,3593.,0.,0.,9979.,0.920683435214,6.83936266159,91.
8.,6379.,9.,4.,3583.,0.,0.,9975.,0.922353961828,5.32915622389,117.
8.02,6380.,9.,8.,3578.,0.,0.,9975.,0.922498554078,5.32999164578,117.
8.04,6377.,17.,7.,3575.,0.,0.,9976.,0.921972349022,2.82015071466,221.
8.06,6370.,20.,7.,3576.,0.,0.,9973.,0.92123734082,2.39521708613,260.
8.08,6362.,24.,14.,3573.,0.,0.,9973.,0.920080370847,1.99350747017,312.
8.1,6349.,31.,17.,3575.,0.,0.,9972.,0.918292372489,1.54036139901,403.
8.12,6329.,31.,17.,3595.,0.,0.,9972.,0.915399657503,1.53550910291,403.
8.14,6317.,33.,16.,3603.,0.,0.,9969.,0.913938980069,1.44014627162,429.
8.16,6313.,27.,22.,3610.,0.,0.,9972.,0.913085485513,1.75853500914,351.
8.18,6305.,35.,13.,3622.,0.,0.,9975.,0.911654135338,1.3544575725,455.
8.2,6314.,26.,14.,3624.,0.,0.,9978.,0.912680975068,1.82536195014,338.
8.22,6311.,22.,13.,3631.,0.,0.,9977.,0.912338763772,2.15643707801,286.
8.24,6301.,22.,12.,3642.,0.,0.,9977.,0.910893131125,2.15302012811,286.
8.26,6301.,21.,15.,3639.,0.,0.,9976.,0.910984439578,2.25577099324,273.
8.28,6298.,16.,16.,3647.,0.,0.,9977.,0.91045944133,2.95899318432,208.
8.3,6288.,19.,13.,3653.,0.,0.,9973.,0.909378398599,2.4888250909,247.
8.32,6289.,16.,12.,3655.,0.,0.,9972.,0.909614227529,2.95624623947,208.
8.34,6277.,30.,13.,3656.,0.,0.,9976.,0.907514573438,1.57302526063,390.
8.36,6277.,30.,12.,3657.,0.,0.,9976.,0.907514573438,1.57302526063,390.
8.38,6276.,19.,20.,3656.,0.,0.,9971.,0.907825000193,2.48457368474,247.
8.4,6274.,22.,17.,3659.,0.,0.,9972.,0.907444691289,2.14486927032,286.
8.42,6263.,28.,14.,3663.,0.,0.,9968.,0.906217202741,1.68297480509,364.
8.44,6263.,22.,12.,3676.,0.,0.,9973.,0.905762867434,2.1408940503,286.
8.46,6253.,21.,11.,3686.,0.,0.,9971.,0.904498044329,2.2397094431,273.
8.48,6250.,17.,9.,3691.,0.,0.,9967.,0.904426916517,2.76648233287,221.
8.5,6246.,22.,7.,3692.,0.,0.,9967.,0.90384808329,2.13636819687,286.
8.52,6242.,18.,13.,3695.,0.,0.,9968.,0.903178633165,2.60918271803,234.
8.54,6240.,23.,9.,3697.,0.,0.,9969.,0.902798675895,2.04111004985,299.
8.56,6243.,22.,7.,3701.,0.,0.,9973.,0.902870442502,2.13405740955,286.
8.58,6246.,14.,9.,3700.,0.,0.,9969.,0.903666751545,3.35647650574,182.
8.6,6241.,20.,4.,3704.,0.,0.,9969.,0.90294335517,2.34765272344,260.
8.62,6245.,19.,8.,3694.,0.,0.,9966.,0.903794053628,2.47354162046,247.
8.64,6238.,21.,12.,3694.,0.,0.,9965.,0.902871589023,2.23568202996,273.
8.66,6234.,29.,9.,3695.,0.,0.,9967.,0.902111583611,1.6175793913,377.
8.68,6233.,21.,19.,3694.,0.,0.,9967.,0.901966875304,2.23344178647,273.
8.7,6228.,26.,10.,3703.,0.,0.,9967.,0.901243333771,1.80248666754,338.
8.72,6236.,24.,11.,3698.,0.,0.,9969.,0.902219958795,1.95480991072,312.
8.74,6232.,23.,9.,3706.,0.,0.,9970.,0.901550806265,2.03828877938,299.
8.76,6222.,29.,13.,3705.,0.,0.,9969.,0.900194448946,1.61414177052,377.
8.78,6223.,18.,13.,3719.,0.,0.,9973.,0.899978017571,2.5999364952,234.
8.8,6219.,16.,8.,3727.,0.,0.,9970.,0.899670164339,2.9239280341,208.
8.82,6222.,15.,6.,3728.,0.,0.,9971.,0.900013886424,3.1200481396,195.
8.84,6221.,12.,9.,3730.,0.,0.,9972.,0.899778996575,3.89904231849,156.
8.86,6222.,18.,4.,3728.,0.,0.,9972.,0.899923632324,2.59977938227,234.
8.88,6227.,19.,5.,3719.,0.,0.,9970.,0.900827482447,2.46542258354,247.
8.9,6225.,17.,6.,3721.,0.,0.,9969.,0.900628486771,2.75486360659,221.
8.92,6227.,12.,12.,3716.,0.,0.,9967.,0.901098625464,3.90476071034,156.
8.94,6225.,16.,6.,3722.,0.,0.,9969.,0.900628486771,2.927042582,208.
8.96,6227.,17.,11.,3712.,0.,0.,9967.,0.901098625464,2.75630167789,221.
8.98,6230.,18.,8.,3709.,0.,0.,9965.,0.901713690223,2.60495066065,234.
9.,6216.,18.,12.,3716.,0.,0.,9962.,0.89995830309,2.59987954226,234.
9.02,6214.,24.,13.,3704.,0.,0.,9955.,0.900301356102,1.95065293822,312.
9.04,6212.,22.,13.,3710.,0.,0.,9957.,0.899830810949,2.12687282588,286.
9.06,6208.,17.,16.,3718.,0.,0.,9959.,0.899070805688,2.75009893505,221.
9.08,6198.,24.,6.,3731.,0.,0.,9959.,0.897622560189,1.94484888041,312.
9.1,6194.,20.,13.,3731.,0.,0.,9958.,0.897133344663,2.33254669612,260.
9.12,6191.,16.,13.,3732.,0.,0.,9952.,0.897239441628,2.91602818529,208.
9.14,6185.,16.,12.,3739.,0.,0.,9952.,0.896369883131,2.91320212018,208.
9.16,6181.,14.,13.,3742.,0.,0.,9950.,0.895970235794,3.32788944724,182.
9.18,6184.,16.,16.,3737.,0.,0.,9953.,0.896134911005,2.91243846077,208.
9.2,6174.,22.,11.,3748.,0.,0.,9955.,0.89450604644,2.11428701886,286.
9.22,6176.,16.,8.,3757.,0.,0.,9957.,0.894616079913,2.90750225972,208.
9.24,6181.,9.,13.,3756.,0.,0.,9959.,0.895160542841,5.17203869197,117.
9.26,6178.,10.,6.,3762.,0.,0.,9956.,0.89499567327,4.653977501,130.
9.28,6173.,10.,12.,3756.,0.,0.,9951.,0.894720669743,4.65254748267,130.
9.3,6166.,21.,2.,3759.,0.,0.,9948.,0.893975596177,2.2136538572,273.
9.32,6169.,16.,4.,3754.,0.,0.,9943.,0.894860319204,2.90829603741,208.
9.34,6173.,14.,8.,3752.,0.,0.,9947.,0.895080464926,3.32458458401,182.
9.36,6171.,17.,8.,3750.,0.,0.,9946.,0.894880431252,2.73728131912,221.
9.38,6171.,11.,10.,3752.,0.,0.,9944.,0.895060415248,4.23119469027,143.
9.4,6181.,9.,6.,3750.,0.,0.,9946.,0.896330569692,5.17879884711,117.
9.42,6184.,6.,6.,3750.,0.,0.,9946.,0.896765611224,7.77196863061,78.
9.44,6193.,6.,6.,3742.,0.,0.,9947.,0.897980450232,7.78249723535,78.
9.46,6196.,7.,1.,3745.,0.,0.,9949.,0.898234843858,6.67260169723,91.
9.48,6209.,5.,4.,3734.,0.,0.,9952.,0.899848117116,9.35842041801,65.
9.5,6213.,7.,2.,3733.,0.,0.,9955.,0.900156473361,6.68687665925,91.
9.52,6217.,7.,1.,3729.,0.,0.,9954.,0.900826494181,6.69185395677,91.
9.54,6227.,3.,3.,3723.,0.,0.,9956.,0.902094214544,15.6362997188,39.
9.56,6229.,6.,5.,3716.,0.,0.,9956.,0.902383950923,7.820660908,78.
9.58,6234.,6.,3.,3715.,0.,0.,9958.,0.9029269084,7.82536653947,78.
9.6,6240.,6.,5.,3706.,0.,0.,9957.,0.903886712865,7.83368484483,78.
9.62,6248.,6.,3.,3699.,0.,0.,9956.,0.905136446519,7.84451586983,78.
9.64,6254.,6.,4.,3696.,0.,0.,9960.,0.905641797961,7.84889558233,78.
9.66,6262.,5.,5.,3691.,0.,0.,9963.,0.906527227665,9.42788316772,65.
9.68,6260.,9.,5.,3691.,0.,0.,9965.,0.906055810722,5.23498912862,117.
9.7,6248.,14.,4.,3698.,0.,0.,9964.,0.90440972115,3.35923610713,182.
9.72,6250.,12.,7.,3693.,0.,0.,9962.,0.904880854941,3.92115037141,156.
9.74,6243.,20.,9.,3687.,0.,0.,9959.,0.904139664934,2.35076312883,260.
9.76,6239.,22.,7.,3689.,0.,0.,9957.,0.903741859225,2.13611712181,286.
9.78,6249.,15.,9.,3689.,0.,0.,9962.,0.904736074004,3.13641838988,195.
9.8,6249.,17.,3.,3695.,0.,0.,9964.,0.904554473026,2.76687250573,221.
9.82,6247.,22.,6.,3688.,0.,0.,9963.,0.904355731592,2.13756809285,286.
9.84,6248.,20.,5.,3688.,0.,0.,9961.,0.904682106369,2.35217347656,260.
9.86,6249.,18.,4.,3689.,0.,0.,9960.,0.904917747915,2.61420682731,234.
9.88,6252.,15.,9.,3685.,0.,0.,9961.,0.905261288255,3.13823913262,195.
9.9,6246.,23.,7.,3683.,0.,0.,9959.,0.904574138584,2.04512413941,299.
9.92,6246.,23.,3.,3682.,0.,0.,9954.,0.905028515788,2.046151427,299.
9.94,6250.,25.,5.,3679.,0.,0.,9959.,0.905153436783,1.88271914851,325.
9.96,6252.,18.,10.,3679.,0.,0.,9959.,0.905443085883,2.61572447033,234.
9.98,6257.,21.,6.,3675.,0.,0.,9959.,0.906167208632,2.24384261185,273.
10.,6263.,15.,10.,3672.,0.,0.,9960.,0.906945088044,3.14407630522,195.
