t,s,e,i,r,c,o,n,reff,coal,reportr
5.,6250.,5.,3.,3734.,0.,0.,9992.,0.902164038923,9.3825060048,65.
5.02,6256.,4.,1.,3731.,0.,0.,9992.,0.903030116401,11.7393915132,52.
5.04,6260.,1.,1.,3732.,0.,0.,9994.,0.903426671387,46.9781869121,13.
5.06,6263.,2.,2.,3727.,0.,0.,9994.,0.903859623466,23.5003502101,26.
5.08,6261.,8.,3.,3720.,0.,0.,9992.,0.903751847632,5.87438700961,104.
5.1,6261.,14.,3.,3717.,0.,0.,9995.,0.903480586447,3.35578503537,182.
5.12,6261.,12.,6.,3716.,0.,0.,9995.,0.903480586447,3.91508254127,156.
5.14,6260.,12.,8.,3715.,0.,0.,9995.,0.903336283526,3.91445722861,156.
5.16,6259.,14.,9.,3711.,0.,0.,9993.,0.903372745537,3.35538448342,182.
5.18,6271.,12.,6.,3708.,0.,0.,9997.,0.904742576619,3.92055116535,156.
5.2,6280.,16.,0.,3706.,0.,0.,10002.,0.905588113147,2.94316136773,208.
5.22,6287.,12.,6.,3695.,0.,0.,10000.,0.906778846154,3.929375,156.
5.24,6285.,9.,6.,3699.,0.,0.,9999.,0.90658104272,5.23802380238,117.
5.26,6291.,5.,9.,3697.,0.,0.,10002.,0.907174334364,9.43461307738,65.
5.28,6285.,15.,4.,3699.,0.,0.,10003.,0.90621851906,3.14155753274,195.
5.3,6286.,12.,4.,3700.,0.,0.,10002.,0.90645332472,3.92796440712,156.
5.32,6284.,10.,7.,3697.,0.,0.,9998.,0.906527459338,4.71394278856,130.
5.34,6283.,12.,11.,3695.,0.,0.,10001.,0.906111311946,3.92648235176,156.
5.36,6285.,12.,6.,3699.,0.,0.,10002.,0.906309122791,3.92733953209,156.
5.38,6295.,12.,2.,3692.,0.,0.,10001.,0.907841908117,3.93398160184,156.
5.4,6294.,11.,5.,3689.,0.,0.,9999.,0.907879249463,4.29179281565,143.
5.42,6290.,12.,3.,3693.,0.,0.,9998.,0.907393017065,3.93203640728,156.
5.44,6291.,10.,6.,3691.,0.,0.,9998.,0.907537276686,4.71919383877,130.
5.46,6289.,9.,4.,3697.,0.,0.,9999.,0.907158023495,5.24135746908,117.
5.48,6291.,11.,2.,3696.,0.,0.,10000.,0.907355769231,4.28931818182,143.
5.5,6301.,9.,0.,3691.,0.,0.,10001.,0.908707206202,5.2503083025,117.
5.52,6304.,7.,3.,3688.,0.,0.,10002.,0.909048959439,6.75293512726,91.
5.54,6306.,8.,3.,3686.,0.,0.,10003.,0.909246456832,5.91010196941,104.
5.56,6311.,9.,3.,3681.,0.,0.,10004.,0.909876434042,5.25706384113,117.
5.58,6318.,8.,1.,3677.,0.,0.,10004.,0.910885645742,5.92075669732,104.
5.6,6326.,5.,4.,3670.,0.,0.,10005.,0.911947872218,9.48425787106,65.
5.62,6322.,8.,5.,3669.,0.,0.,10004.,0.911462338142,5.92450519792,104.
5.64,6317.,14.,5.,3668.,0.,0.,10004.,0.910741472642,3.38275404124,182.
5.66,6322.,10.,7.,3666.,0.,0.,10005.,0.911371237458,4.73913043478,130.
5.68,6325.,11.,5.,3664.,0.,0.,10005.,0.911803713528,4.31034482759,143.
5.7,6325.,11.,5.,3664.,0.,0.,10005.,0.911803713528,4.31034482759,143.
5.72,6331.,10.,4.,3663.,0.,0.,10008.,0.912395083933,4.74445443645,130.
5.74,6327.,9.,9.,3655.,0.,0.,10000.,0.912548076923,5.2725,117.
5.76,6323.,8.,12.,3654.,0.,0.,9997.,0.912244827294,5.92959137741,104.
5.78,6325.,11.,4.,3661.,0.,0.,10001.,0.912168398545,4.31206879312,143.
5.8,6323.,11.,10.,3658.,0.,0.,10002.,0.911788796087,4.31027430877,143.
5.82,6319.,16.,7.,3660.,0.,0.,10002.,0.911211988372,2.96143896221,208.
5.84,6317.,17.,9.,3660.,0.,0.,10003.,0.910832519475,2.78607594192,221.
5.86,6316.,14.,8.,3661.,0.,0.,9999.,0.911052643726,3.38390981955,182.
5.88,6324.,15.,7.,3653.,0.,0.,9999.,0.912206605276,3.16231623162,195.
5.9,6326.,16.,2.,3656.,0.,0.,10000.,0.912403846154,2.9653125,208.
5.92,6326.,16.,5.,3652.,0.,0.,9999.,0.912495095663,2.96560906091,208.
5.94,6327.,15.,10.,3644.,0.,0.,9996.,0.91291324222,3.16476590636,195.
5.96,6326.,14.,11.,3647.,0.,0.,9998.,0.912586363427,3.38960649273,182.
5.98,6325.,17.,6.,3650.,0.,0.,9998.,0.912442103805,2.79099937635,221.
6.,6326.,20.,8.,3645.,0.,0.,9999.,0.912495095663,2.37248724872,260.
6.02,6322.,20.,8.,3646.,0.,0.,9996.,0.912191799797,2.37169867947,260.
6.04,6325.,15.,6.,3652.,0.,0.,9998.,0.912442103805,3.16313262653,195.
6.06,6329.,18.,5.,3648.,0.,0.,10000.,0.912836538462,2.63708333333,234.
6.08,6331.,15.,8.,3648.,0.,0.,10002.,0.912942411518,3.16486702659,195.
6.1,6326.,14.,11.,3649.,0.,0.,10000.,0.912403846154,3.38892857143,182.
6.12,6322.,16.,15.,3645.,0.,0.,9998.,0.912009324942,2.96403030606,208.
6.14,6322.,20.,12.,3644.,0.,0.,9998.,0.912009324942,2.37122424485,260.
6.16,6311.,23.,12.,3650.,0.,0.,9996.,0.910604626466,2.05875828592,299.
6.18,6302.,26.,15.,3654.,0.,0.,9997.,0.909215072214,1.81843014443,338.
6.2,6292.,33.,8.,3662.,0.,0.,9995.,0.907953976988,1.43071535768,429.
6.22,6283.,27.,21.,3663.,0.,0.,9994.,0.906745970659,1.74632557312,351.
6.24,6267.,38.,19.,3668.,0.,0.,9992.,0.904617925109,1.23789821331,494.
6.26,6263.,31.,15.,3682.,0.,0.,9991.,0.904131025615,1.51660688168,403.
6.28,6263.,28.,17.,3684.,0.,0.,9992.,0.904040540124,1.67893243166,364.
6.3,6252.,37.,13.,3689.,0.,0.,9991.,0.902543057983,1.2684388923,481.
6.32,6242.,40.,11.,3693.,0.,0.,9986.,0.901550632424,1.17201582215,520.
6.34,6235.,34.,20.,3697.,0.,0.,9986.,0.900539601596,1.37729586126,442.
6.36,6232.,31.,14.,3708.,0.,0.,9985.,0.900196448519,1.5100069459,403.
6.38,6222.,33.,16.,3712.,0.,0.,9983.,0.898932030606,1.41649895732,429.
6.4,6214.,24.,26.,3722.,0.,0.,9986.,0.897506509113,1.94459743641,312.
6.42,6202.,31.,28.,3725.,0.,0.,9986.,0.895773313408,1.50258749346,403.
6.44,6180.,41.,24.,3742.,0.,0.,9987.,0.892506412182,1.13195935204,533.
6.46,6164.,47.,25.,3750.,0.,0.,9986.,0.890284860343,0.984996015699,611.
6.48,6145.,48.,20.,3771.,0.,0.,9984.,0.887718426405,0.961694961939,624.
6.5,6134.,48.,23.,3780.,0.,0.,9985.,0.886040599361,0.959877315974,624.
6.52,6118.,45.,16.,3802.,0.,0.,9981.,0.884083605003,1.02160772134,585.
6.54,6105.,37.,24.,3810.,0.,0.,9976.,0.882647199432,1.24047714515,481.
6.56,6098.,33.,24.,3825.,0.,0.,9980.,0.881281794358,1.38868646384,429.
6.58,6091.,29.,18.,3846.,0.,0.,9984.,0.879917483358,1.57778307361,377.
6.6,6078.,31.,14.,3857.,0.,0.,9980.,0.878391398181,1.47343073243,403.
6.62,6069.,30.,20.,3859.,0.,0.,9978.,0.877266524816,1.52059530968,390.
6.64,6062.,31.,16.,3870.,0.,0.,9979.,0.876166873511,1.4696992717,403.
6.66,6058.,31.,11.,3883.,0.,0.,9983.,0.875237904438,1.46814100099,403.
6.68,6052.,26.,8.,3900.,0.,0.,9986.,0.874108367099,1.7482167342,338.
6.7,6049.,27.,7.,3904.,0.,0.,9987.,0.87358758694,1.68246498225,351.
6.72,6049.,18.,9.,3907.,0.,0.,9983.,0.873937617026,2.52470867141,234.
6.74,6051.,12.,9.,3912.,0.,0.,9984.,0.874139007027,3.78793569712,156.
6.76,6050.,11.,5.,3918.,0.,0.,9984.,0.873994545118,4.13161057692,143.
6.78,6051.,11.,6.,3915.,0.,0.,9983.,0.874226569784,4.1327074208,143.
6.8,6059.,11.,10.,3904.,0.,0.,9984.,0.875294702293,4.13775677448,143.
6.82,6058.,16.,8.,3899.,0.,0.,9981.,0.875413285242,2.84509317704,208.
6.84,6055.,15.,8.,3898.,0.,0.,9976.,0.87541831164,3.03478348035,195.
6.86,6056.,17.,8.,3899.,0.,0.,9980.,0.875211962386,2.67711894377,221.
6.88,6057.,12.,12.,3897.,0.,0.,9978.,0.875531939498,3.79397173782,156.
6.9,6050.,18.,7.,3901.,0.,0.,9976.,0.874695422861,2.52689788827,234.
6.92,6046.,16.,11.,3901.,0.,0.,9974.,0.874292390986,2.8414502707,208.
6.94,6050.,16.,5.,3904.,0.,0.,9975.,0.874783111625,2.84304511278,208.
6.96,6051.,16.,5.,3902.,0.,0.,9974.,0.87501542472,2.84380013034,208.
6.98,6050.,14.,6.,3902.,0.,0.,9972.,0.87504628344,3.25017190992,182.
7.,6054.,15.,4.,3901.,0.,0.,9974.,0.87544924496,3.03489071586,195.
7.02,6061.,11.,4.,3903.,0.,0.,9979.,0.87602233922,4.14119651268,143.
7.04,6064.,11.,7.,3900.,0.,0.,9982.,0.876192531171,4.14200105645,143.
7.06,6070.,13.,4.,3898.,0.,0.,9985.,0.876795963176,3.5071838527,169.
7.08,6074.,13.,7.,3886.,0.,0.,9980.,0.877813318946,3.51125327578,169.
7.1,6073.,17.,2.,3892.,0.,0.,9984.,0.877317169009,2.68355839932,221.
7.12,6070.,17.,6.,3884.,0.,0.,9977.,0.87749901697,2.68411464014,221.
7.14,6065.,20.,6.,3887.,0.,0.,9978.,0.87668832971,2.27938965725,260.
7.16,6066.,13.,17.,3882.,0.,0.,9978.,0.876832878487,3.50733151395,169.
7.18,6055.,23.,7.,3893.,0.,0.,9978.,0.875242841945,1.97880990353,299.
7.2,6055.,15.,15.,3893.,0.,0.,9978.,0.875242841945,3.03417518541,195.
7.22,6052.,19.,12.,3896.,0.,0.,9979.,0.874721530599,2.39397471532,247.
7.24,6044.,24.,8.,3901.,0.,0.,9977.,0.873740372087,1.89310413952,312.
7.26,6057.,20.,5.,3897.,0.,0.,9979.,0.875444202055,2.27615492534,260.
7.28,6048.,27.,5.,3891.,0.,0.,9971.,0.87484474206,1.68488616989,351.
7.3,6053.,20.,15.,3885.,0.,0.,9973.,0.875392405649,2.27602025469,260.
7.32,6043.,28.,14.,3886.,0.,0.,9971.,0.874121490785,1.62336848289,364.
7.34,6033.,31.,17.,3890.,0.,0.,9971.,0.872674988235,1.46384191575,403.
7.36,6023.,37.,15.,3898.,0.,0.,9973.,0.871053768251,1.2241836743,481.
7.38,6008.,42.,19.,3903.,0.,0.,9972.,0.868971581968,1.07586957767,546.
7.4,5999.,39.,20.,3913.,0.,0.,9971.,0.867756879566,1.15700917275,507.
7.42,5985.,36.,14.,3934.,0.,0.,9969.,0.865905460775,1.25075233223,468.
7.44,5965.,45.,17.,3942.,0.,0.,9969.,0.863011875275,0.997258166984,585.
7.46,5957.,42.,11.,3959.,0.,0.,9969.,0.861854441075,1.06705787943,546.
7.48,5945.,40.,15.,3965.,0.,0.,9965.,0.860463545486,1.11860260913,520.
7.5,5944.,38.,16.,3969.,0.,0.,9967.,0.860146174684,1.17704213378,494.
7.52,5933.,34.,23.,3974.,0.,0.,9964.,0.858812880215,1.31347852268,442.
7.54,5929.,29.,21.,3986.,0.,0.,9965.,0.858147747887,1.53874768587,377.
7.56,5920.,35.,16.,3996.,0.,0.,9967.,0.856673175325,1.27277157477,455.
7.58,5916.,29.,20.,4004.,0.,0.,9969.,0.855922590801,1.53475774902,377.
7.6,5897.,36.,21.,4014.,0.,0.,9968.,0.853259275837,1.23248562065,468.
7.62,5878.,46.,17.,4027.,0.,0.,9968.,0.850510093839,0.961446193035,598.
7.64,5873.,43.,20.,4030.,0.,0.,9966.,0.849957162043,1.0278551727,559.
7.66,5869.,39.,27.,4032.,0.,0.,9967.,0.849293051686,1.13239073558,507.
7.68,5852.,43.,26.,4042.,0.,0.,9963.,0.847173001645,1.02448828106,559.
7.7,5840.,43.,21.,4061.,0.,0.,9965.,0.845266123741,1.02218228917,559.
7.72,5827.,41.,24.,4072.,0.,0.,9964.,0.843469181361,1.06976579099,533.
7.74,5818.,40.,20.,4085.,0.,0.,9963.,0.842250943877,1.09492622704,520.
7.76,5814.,37.,16.,4098.,0.,0.,9965.,0.841502952642,1.18265279831,481.
7.78,5808.,31.,18.,4109.,0.,0.,9966.,0.840550178299,1.40995513779,403.
7.8,5808.,34.,15.,4113.,0.,0.,9970.,0.840212946532,1.28503156528,442.
7.82,5807.,30.,17.,4116.,0.,0.,9970.,0.840068281768,1.45611835507,390.
7.84,5801.,35.,19.,4117.,0.,0.,9972.,0.839031981857,1.24656180162,455.
7.86,5790.,28.,23.,4134.,0.,0.,9975.,0.837189126663,1.55477980666,364.
7.88,5779.,36.,11.,4149.,0.,0.,9975.,0.835598611914,1.20697577277,468.
7.9,5773.,39.,16.,4149.,0.,0.,9977.,0.834563727342,1.11275163646,507.
7.92,5770.,35.,14.,4160.,0.,0.,9979.,0.833962860469,1.23903053555,455.
7.94,5766.,28.,17.,4167.,0.,0.,9978.,0.833468245525,1.54786959883,364.
7.96,5766.,24.,16.,4174.,0.,0.,9980.,0.83330121782,1.80548597194,312.
7.98,5768.,24.,8.,4179.,0.,0.,9979.,0.833673791886,1.80629321575,312.
8.,5775.,19.,11.,4178.,0.,0.,9983.,0.834351089159,2.28348719138,247.
8.02,5776.,19.,7.,4184.,0.,0.,9986.,0.834244865889,2.28319647507,247.
8.04,5774.,18.,4.,4189.,0.,0.,9985.,0.83403952082,2.40944750459,234.
8.06,5780.,15.,5.,4189.,0.,0.,9989.,0.834571875217,2.89318250075,195.
8.08,5789.,11.,8.,4179.,0.,0.,9987.,0.836038773482,3.95218329283,143.
8.1,5786.,21.,5.,4176.,0.,0.,9988.,0.835521856998,2.06891126495,273.
8.12,5791.,18.,7.,4172.,0.,0.,9988.,0.836243877268,2.41581564544,234.
8.14,5789.,15.,5.,4174.,0.,0.,9983.,0.836373758466,2.89942902935,195.
8.16,5794.,10.,11.,4171.,0.,0.,9986.,0.836844659446,4.35159222912,130.
8.18,5800.,11.,12.,4166.,0.,0.,9989.,0.837459667172,3.95890024481,143.
8.2,5804.,12.,8.,4166.,0.,0.,9990.,0.837953337953,3.63113113113,156.
8.22,5808.,10.,6.,4167.,0.,0.,9991.,0.838446909911,4.35992393154,130.
8.24,5815.,11.,9.,4157.,0.,0.,9992.,0.839373421814,3.96794708494,143.
8.26,5813.,9.,9.,4157.,0.,0.,9988.,0.839420766458,4.84998665065,117.
8.28,5813.,10.,7.,4156.,0.,0.,9986.,0.839588885979,4.36586220709,130.
8.3,5817.,10.,8.,4149.,0.,0.,9984.,0.840334920488,4.36974158654,130.
8.32,5814.,11.,11.,4144.,0.,0.,9980.,0.840238168645,3.97203497905,143.
8.34,5811.,17.,11.,4140.,0.,0.,9979.,0.839888766409,2.56907152078,221.
8.36,5811.,14.,6.,4148.,0.,0.,9979.,0.839888766409,3.11958684666,182.
8.38,5813.,15.,5.,4145.,0.,0.,9978.,0.840262038022,2.91290839848,195.
8.4,5820.,16.,4.,4136.,0.,0.,9976.,0.841442539017,2.7346882518,208.
8.42,5826.,14.,4.,4133.,0.,0.,9977.,0.842225580373,3.12826644139,182.
8.44,5836.,12.,5.,4125.,0.,0.,9978.,0.843586659883,3.65554219282,156.
8.46,5840.,7.,8.,4122.,0.,0.,9977.,0.84424946608,6.27156746231,91.
8.48,5836.,10.,8.,4125.,0.,0.,9979.,0.843502123691,4.38621104319,130.
8.5,5834.,15.,12.,4117.,0.,0.,9978.,0.843297562329,2.92343154941,195.
8.52,5829.,23.,8.,4118.,0.,0.,9978.,0.842574818447,1.90495176344,299.
8.54,5823.,23.,13.,4115.,0.,0.,9974.,0.842045086456,1.90375410851,299.
8.56,5813.,23.,23.,4108.,0.,0.,9967.,0.841189386514,1.90181948255,299.
8.58,5794.,37.,19.,4116.,0.,0.,9966.,0.838524058723,1.17846624469,481.
8.6,5780.,32.,23.,4130.,0.,0.,9965.,0.836581882743,1.35944555946,416.
8.62,5770.,30.,18.,4145.,0.,0.,9963.,0.83530215644,1.44785707116,390.
8.64,5766.,31.,21.,4148.,0.,0.,9966.,0.834471819571,1.39975918122,403.
8.66,5759.,37.,20.,4156.,0.,0.,9972.,0.832957280385,1.17064266432,481.
8.68,5755.,26.,27.,4165.,0.,0.,9973.,0.832295274163,1.66459054833,338.
8.7,5743.,34.,15.,4182.,0.,0.,9974.,0.830476546714,1.27014060086,442.
8.72,5739.,33.,15.,4186.,0.,0.,9973.,0.829981334218,1.30784937513,429.
8.74,5734.,34.,13.,4193.,0.,0.,9974.,0.829175085993,1.26815013152,442.
8.76,5723.,36.,21.,4191.,0.,0.,9971.,0.827833409194,1.19575936884,468.
8.78,5706.,37.,23.,4206.,0.,0.,9972.,0.825291585671,1.15986925554,481.
8.8,5695.,43.,20.,4208.,0.,0.,9966.,0.824196498865,0.996702742814,559.
8.82,5683.,44.,16.,4227.,0.,0.,9970.,0.822129851092,0.971608005836,572.
8.84,5673.,46.,18.,4231.,0.,0.,9968.,0.820847867021,0.92791498011,598.
8.86,5668.,32.,22.,4246.,0.,0.,9968.,0.820124398074,1.33270214687,416.
8.88,5663.,33.,9.,4262.,0.,0.,9967.,0.819483140518,1.29130676688,429.
8.9,5662.,29.,13.,4263.,0.,0.,9967.,0.819338432211,1.4691585681,377.
8.92,5660.,25.,17.,4266.,0.,0.,9968.,0.818966847759,1.70345104334,325.
8.94,5649.,23.,19.,4279.,0.,0.,9970.,0.817211249132,1.84760804152,299.
8.96,5642.,23.,13.,4287.,0.,0.,9965.,0.81660812845,1.84624446432,299.
8.98,5638.,20.,10.,4294.,0.,0.,9962.,0.816274921625,2.12231479623,260.
9.,5651.,17.,8.,4288.,0.,0.,9964.,0.817992851187,2.5020957801,221.
9.02,5654.,16.,5.,4291.,0.,0.,9966.,0.818262862965,2.65935430464,208.
9.04,5656.,11.,5.,4293.,0.,0.,9965.,0.818634451349,3.86990831547,143.
9.06,5664.,9.,5.,4290.,0.,0.,9968.,0.819545622916,4.73515248796,117.
9.08,5667.,9.,1.,4289.,0.,0.,9966.,0.820144259714,4.73861127835,117.
9.1,5677.,9.,1.,4280.,0.,0.,9967.,0.821509056811,4.74649677268,117.
9.12,5685.,9.,3.,4270.,0.,0.,9967.,0.822666723264,4.75318551219,117.
9.14,5695.,9.,3.,4256.,0.,0.,9963.,0.824444676071,4.76345812841,117.
9.16,5700.,6.,6.,4253.,0.,0.,9965.,0.825002894747,7.15002508781,78.
9.18,5705.,8.,2.,4251.,0.,0.,9966.,0.825643727134,5.36668422637,104.
9.2,5709.,8.,3.,4247.,0.,0.,9967.,0.826139722623,5.36990819705,104.
9.22,5712.,8.,3.,4243.,0.,0.,9966.,0.826656786922,5.37326911499,104.
9.24,5711.,11.,2.,4238.,0.,0.,9962.,0.826843930011,3.90871676005,143.
9.26,5716.,14.,5.,4228.,0.,0.,9963.,0.827484770574,3.07351486213,182.
9.28,5720.,11.,9.,4223.,0.,0.,9963.,0.828063836194,3.91448358928,143.
9.3,5720.,15.,2.,4228.,0.,0.,9965.,0.827897641746,2.87004515805,195.
9.32,5725.,19.,1.,4220.,0.,0.,9965.,0.828621328496,2.26780574115,247.
9.34,5732.,11.,7.,4212.,0.,0.,9962.,0.829884329684,3.9230895585,143.
9.36,5733.,15.,4.,4209.,0.,0.,9961.,0.83011243851,2.87772312017,195.
9.38,5739.,8.,9.,4209.,0.,0.,9965.,0.830647651395,5.39920973407,104.
9.4,5746.,11.,0.,4211.,0.,0.,9968.,0.831410513644,3.93030424632,143.
9.42,5751.,7.,2.,4207.,0.,0.,9967.,0.832217471502,6.18218693116,91.
9.44,5756.,7.,2.,4204.,0.,0.,9969.,0.832773906803,6.18632045054,91.
9.46,5765.,4.,3.,4199.,0.,0.,9971.,0.833908719903,10.8408133587,52.
9.48,5767.,7.,3.,4193.,0.,0.,9970.,0.834281691228,6.19752113483,91.
9.5,5771.,4.,5.,4189.,0.,0.,9969.,0.834944095928,10.8542732471,52.
9.52,5779.,2.,6.,4182.,0.,0.,9969.,0.836101530128,21.7386397833,26.
9.54,5785.,3.,0.,4180.,0.,0.,9968.,0.837053571429,14.5089285714,39.
9.56,5791.,3.,0.,4173.,0.,0.,9967.,0.838005803768,14.525433932,39.
9.58,5800.,1.,2.,4164.,0.,0.,9967.,0.839308178528,43.6440252834,13.
9.6,5804.,3.,0.,4157.,0.,0.,9964.,0.840139888213,14.562424729,39.
9.62,5811.,2.,2.,4151.,0.,0.,9966.,0.840984346779,21.8655930163,26.
9.64,5819.,5.,3.,4141.,0.,0.,9968.,0.841973160267,8.75652086677,65.
9.66,5827.,6.,3.,4132.,0.,0.,9968.,0.843130710582,7.30713282504,78.
9.68,5832.,3.,1.,4133.,0.,0.,9969.,0.843769531702,14.6253385495,39.
9.7,5841.,3.,2.,4126.,0.,0.,9972.,0.84481741183,14.6435018051,39.
9.72,5847.,2.,1.,4123.,0.,0.,9973.,0.84560042885,21.9856111501,26.
9.74,5855.,3.,0.,4115.,0.,0.,9973.,0.846757398823,14.6771282463,39.
9.76,5860.,3.,0.,4111.,0.,0.,9974.,0.847395536086,14.6881892922,39.
9.78,5877.,3.,1.,4097.,0.,0.,9978.,0.849513159721,14.7248947685,39.
9.8,5879.,5.,3.,4085.,0.,0.,9972.,0.850313570305,8.84326113117,65.
9.82,5884.,4.,3.,4083.,0.,0.,9974.,0.850866098009,11.0612592741,52.
9.84,5889.,6.,0.,4080.,0.,0.,9975.,0.851503759398,7.37969924812,78.
9.86,5899.,3.,2.,4072.,0.,0.,9976.,0.852864181728,14.78297915,39.
9.88,5906.,5.,2.,4065.,0.,0.,9978.,0.85370507424,8.8785327721,65.
9.9,5912.,7.,2.,4059.,0.,0.,9980.,0.854401109912,6.34697967363,91.
9.92,5919.,6.,3.,4053.,0.,0.,9981.,0.855327044461,7.41283438533,78.
9.94,5921.,6.,8.,4044.,0.,0.,9979.,0.855787538446,7.4168253332,78.
9.96,5926.,10.,5.,4039.,0.,0.,9980.,0.856424387236,4.45340681363,130.
9.98,5933.,5.,8.,4036.,0.,0.,9982.,0.857264229459,8.91554798638,65.
10.,5939.,7.,6.,4027.,0.,0.,9979.,0.858389155688,6.37660515654,91.
