t,prevalence
5.,2
5.02,1
5.04,1
5.06,3
5.08,5
5.1,3
5.12,5
5.14,3
5.16,4
5.18,1
5.2,5
5.22,5
5.24,7
5.26,8
5.28,5
5.3,7
5.32,11
5.34,11
5.36,12
5.38,3
5.4,10
5.42,7
5.44,13
5.46,4
5.48,11
5.5,5
5.52,10
5.54,13
5.56,4
5.58,15
5.6,12
5.62,12
5.64,9
5.66,11
5.68,7
5.7,3
5.72,7
5.74,6
5.76,6
5.78,10
5.8,9
5.82,7
5.84,2
5.86,3
5.88,0
5.9,2
5.92,2
5.94,5
5.96,5
5.98,3
6.,5
6.02,3
6.04,1
6.06,0
6.08,2
6.1,0
6.12,3
6.14,2
6.16,2
6.18,0
6.2,1
6.22,0
6.24,3
6.26,1
6.28,1
6.3,1
6.32,0
6.34,1
6.36,0
6.38,0
6.4,0
6.42,0
6.44,4
6.46,3
6.48,2
6.5,1
6.52,0
6.54,2
6.56,4
6.58,6
6.6,3
6.62,3
6.64,3
6.66,5
6.68,1
6.7,3
6.72,2
6.74,3
6.76,1
6.78,4
6.8,8
6.82,4
6.84,1
6.86,5
6.88,3
6.9,1
6.92,0
6.94,2
6.96,1
6.98,2
7.,5
7.02,2
7.04,5
7.06,2
7.08,6
7.1,2
7.12,2
7.14,1
7.16,4
7.18,1
7.2,2
7.22,3
7.24,2
7.26,3
7.28,10
7.3,3
7.32,1
7.34,4
7.36,2
7.38,1
7.4,1
7.42,5
7.44,1
7.46,3
7.48,2
7.5,7
7.52,4
7.54,4
7.56,6
7.58,2
7.6,2
7.62,1
7.64,5
7.66,1
7.68,4
7.7,4
7.72,4
7.74,4
7.76,6
7.78,4
7.8,3
7.82,4
7.84,5
7.86,9
7.88,5
7.9,7
7.92,7
7.94,9
7.96,4
7.98,5
8.,8
8.02,15
8.04,9
8.06,13
8.08,11
8.1,9
8.12,7
8.14,4
8.16,6
8.18,4
8.2,4
8.22,6
8.24,2
8.26,2
8.28,4
8.3,0
8.32,4
8.34,4
8.36,8
8.38,3
8.4,8
8.42,3
8.44,4
8.46,8
8.48,3
8.5,5
8.52,2
8.54,2
8.56,2
8.58,2
8.6,1
8.62,1
8.64,1
8.66,1
8.68,2
8.7,2
8.72,2
8.74,0
8.76,0
8.78,1
8.8,0
8.82,0
8.84,3
8.86,2
8.88,3
8.9,3
8.92,3
8.94,4
8.96,1
8.98,3
9.,2
9.02,5
9.04,10
9.06,7
9.08,7
9.1,8
9.12,9
9.14,7
9.16,3
9.18,8
9.2,9
9.22,6
9.24,11
9.26,11
9.28,7
9.3,6
9.32,4
9.34,12
9.36,9
9.38,7
9.4,9
9.42,6
9.44,11
9.46,5
9.48,7
9.5,5
9.52,8
9.54,13
9.56,8
9.58,5
9.6,8
9.62,8
9.64,7
9.66,14
9.68,4
9.7,9
9.72,11
9.74,10
9.76,9
9.78,16
9.8,11
9.82,6
9.84,6
9.86,4
9.88,7
9.9,9
9.92,7
9.94,5
9.96,5
9.98,3
10.,8
