t,prevalence
5.,1
5.02,2
5.04,1
5.06,5
5.08,1
5.1,2
5.12,3
5.14,0
5.16,0
5.18,1
5.2,1
5.22,2
5.24,3
5.26,2
5.28,2
5.3,2
5.32,3
5.34,2
5.36,3
5.38,7
5.4,3
5.42,7
5.44,9
5.46,3
5.48,10
5.5,6
5.52,9
5.54,3
5.56,3
5.58,3
5.6,9
5.62,6
5.64,5
5.66,5
5.68,5
5.7,1
5.72,7
5.74,4
5.76,6
5.78,7
5.8,3
5.82,1
5.84,3
5.86,3
5.88,2
5.9,4
5.92,2
5.94,8
5.96,7
5.98,1
6.,5
6.02,11
6.04,5
6.06,4
6.08,2
6.1,1
6.12,2
6.14,3
6.16,2
6.18,8
6.2,5
6.22,4
6.24,4
6.26,8
6.28,1
6.3,1
6.32,5
6.34,3
6.36,6
6.38,5
6.4,6
6.42,5
6.44,6
6.46,7
6.48,4
6.5,5
6.52,6
6.54,7
6.56,3
6.58,6
6.6,6
6.62,7
6.64,7
6.66,4
6.68,3
6.7,6
6.72,5
6.74,4
6.76,3
6.78,7
6.8,9
6.82,2
6.84,1
6.86,6
6.88,9
6.9,8
6.92,9
6.94,10
6.96,1
6.98,12
7.,3
7.02,3
7.04,5
7.06,8
7.08,10
7.1,2
7.12,4
7.14,10
7.16,13
7.18,9
7.2,12
7.22,6
7.24,2
7.26,3
7.28,6
7.3,3
7.32,4
7.34,5
7.36,4
7.38,8
7.4,3
7.42,3
7.44,3
7.46,3
7.48,7
7.5,4
7.52,9
7.54,4
7.56,8
7.58,14
7.6,4
7.62,7
7.64,9
7.66,3
7.68,5
7.7,5
7.72,4
7.74,4
7.76,4
7.78,9
7.8,7
7.82,1
7.84,5
7.86,0
7.88,7
7.9,3
7.92,0
7.94,1
7.96,3
7.98,6
8.,5
8.02,1
8.04,3
8.06,3
8.08,1
8.1,1
8.12,1
8.14,2
8.16,2
8.18,4
8.2,0
8.22,0
8.24,0
8.26,1
8.28,0
8.3,0
8.32,4
8.34,0
8.36,2
8.38,0
8.4,1
8.42,1
8.44,0
8.46,0
8.48,1
8.5,1
8.52,1
8.54,1
8.56,0
8.58,3
8.6,1
8.62,4
8.64,4
8.66,1
8.68,3
8.7,2
8.72,4
8.74,2
8.76,2
8.78,4
8.8,5
8.82,3
8.84,7
8.86,5
8.88,4
8.9,7
8.92,5
8.94,8
8.96,6
8.98,8
9.,4
9.02,1
9.04,8
9.06,7
9.08,3
9.1,9
9.12,5
9.14,12
9.16,3
9.18,9
9.2,3
9.22,7
9.24,4
9.26,4
9.28,4
9.3,4
9.32,3
9.34,1
9.36,1
9.38,4
9.4,4
9.42,2
9.44,2
9.46,2
9.48,3
9.5,11
9.52,8
9.54,0
9.56,3
9.58,1
9.6,2
9.62,2
9.64,1
9.66,4
9.68,0
9.7,1
9.72,3
9.74,0
9.76,3
9.78,2
9.8,2
9.82,1
9.84,1
9.86,0
9.88,0
9.9,0
9.92,0
9.94,1
9.96,0
9.98,0
10.,0
