t,cases
5.01,0.715
5.02,0.715
5.03,0.845
5.04,0.845
5.05,1.04
5.06,1.04
5.07,1.43
5.08,1.43
5.09,1.365
5.1,1.365
5.11,0.975
5.12,0.975
5.13,0.78
5.14,0.78
5.15,0.585
5.16,0.585
5.17,0.585
5.18,0.585
5.19,0.91
5.2,0.91
5.21,1.3
5.22,1.3
5.23,1.235
5.24,1.235
5.25,1.17
5.26,1.17
5.27,1.235
5.28,1.235
5.29,0.975
5.3,0.975
5.31,0.91
5.32,0.91
5.33,1.235
5.34,1.235
5.35,1.235
5.36,1.235
5.37,0.975
5.38,0.975
5.39,0.845
5.4,0.845
5.41,0.845
5.42,0.845
5.43,1.04
5.44,1.04
5.45,1.43
5.46,1.43
5.47,1.495
5.48,1.495
5.49,1.3
5.5,1.3
5.51,1.365
5.52,1.365
5.53,1.495
5.54,1.495
5.55,1.17
5.56,1.17
5.57,0.845
5.58,0.845
5.59,0.715
5.6,0.715
5.61,0.455
5.62,0.455
5.63,0.325
5.64,0.325
5.65,0.455
5.66,0.455
5.67,0.715
5.68,0.715
5.69,0.78
5.7,0.78
5.71,0.715
5.72,0.715
5.73,0.65
5.74,0.65
5.75,0.715
5.76,0.715
5.77,0.585
5.78,0.585
5.79,0.65
5.8,0.65
5.81,0.91
5.82,0.91
5.83,0.845
5.84,0.845
5.85,0.78
5.86,0.78
5.87,0.78
5.88,0.78
5.89,0.65
5.9,0.65
5.91,0.845
5.92,0.845
5.93,0.975
5.94,0.975
5.95,0.975
5.96,0.975
5.97,1.625
5.98,1.625
5.99,1.95
6.,1.95
6.01,1.82
6.02,1.82
6.03,1.43
6.04,1.43
6.05,1.235
6.06,1.235
6.07,1.56
6.08,1.56
6.09,1.56
6.1,1.56
6.11,1.43
6.12,1.43
6.13,1.235
6.14,1.235
6.15,0.975
6.16,0.975
6.17,0.975
6.18,0.975
6.19,1.04
6.2,1.04
6.21,1.17
6.22,1.17
6.23,1.105
6.24,1.105
6.25,0.715
6.26,0.715
6.27,0.65
6.28,0.65
6.29,0.845
6.3,0.845
6.31,0.975
6.32,0.975
6.33,0.975
6.34,0.975
6.35,0.91
6.36,0.91
6.37,0.91
6.38,0.91
6.39,0.78
6.4,0.78
6.41,0.65
6.42,0.65
6.43,0.975
6.44,0.975
6.45,1.105
6.46,1.105
6.47,0.975
6.48,0.975
6.49,1.04
6.5,1.04
6.51,1.235
6.52,1.235
6.53,1.43
6.54,1.43
6.55,1.3
6.56,1.3
6.57,1.56
6.58,1.56
6.59,1.625
6.6,1.625
6.61,1.625
6.62,1.625
6.63,2.08
6.64,2.08
6.65,2.145
6.66,2.145
6.67,2.34
6.68,2.34
6.69,2.73
6.7,2.73
6.71,2.34
6.72,2.34
6.73,1.755
6.74,1.755
6.75,1.95
6.76,1.95
6.77,2.015
6.78,2.015
6.79,1.495
6.8,1.495
6.81,1.69
6.82,1.69
6.83,1.95
6.84,1.95
6.85,1.365
6.86,1.365
6.87,1.495
6.88,1.495
6.89,2.21
6.9,2.21
6.91,2.795
6.92,2.795
6.93,3.25
6.94,3.25
6.95,3.055
6.96,3.055
6.97,2.73
6.98,2.73
6.99,2.73
7.,2.73
7.01,2.795
7.02,2.795
7.03,3.12
7.04,3.12
7.05,3.51
7.06,3.51
7.07,3.445
7.08,3.445
7.09,3.77
7.1,3.77
7.11,4.095
7.12,4.095
7.13,3.315
7.14,3.315
7.15,3.185
7.16,3.185
7.17,4.225
7.18,4.225
7.19,4.42
7.2,4.42
7.21,3.965
7.22,3.965
7.23,4.355
7.24,4.355
7.25,4.16
7.26,4.16
7.27,3.38
7.28,3.38
7.29,3.445
7.3,3.445
7.31,4.225
7.32,4.225
7.33,4.29
7.34,4.29
7.35,3.445
7.36,3.445
7.37,2.925
7.38,2.925
7.39,2.99
7.4,2.99
7.41,3.12
7.42,3.12
7.43,3.38
7.44,3.38
7.45,3.38
7.46,3.38
7.47,3.12
7.48,3.12
7.49,3.575
7.5,3.575
7.51,3.9
7.52,3.9
7.53,3.575
7.54,3.575
7.55,3.64
7.56,3.64
7.57,5.265
7.58,5.265
7.59,6.435
7.6,6.435
7.61,5.98
7.62,5.98
7.63,4.745
7.64,4.745
7.65,3.445
7.66,3.445
7.67,3.055
7.68,3.055
7.69,2.925
7.7,2.925
7.71,3.315
7.72,3.315
7.73,3.575
7.74,3.575
7.75,3.445
7.76,3.445
7.77,3.705
7.78,3.705
7.79,3.51
7.8,3.51
7.81,2.99
7.82,2.99
7.83,2.665
7.84,2.665
7.85,2.6
7.86,2.6
7.87,2.925
7.88,2.925
7.89,2.6
7.9,2.6
7.91,1.885
7.92,1.885
7.93,1.885
7.94,1.885
7.95,1.885
7.96,1.885
7.97,2.08
7.98,2.08
7.99,2.405
8.,2.405
8.01,1.95
8.02,1.95
8.03,1.755
8.04,1.755
8.05,2.08
8.06,2.08
8.07,1.625
8.08,1.625
8.09,1.17
8.1,1.17
8.11,1.43
8.12,1.43
8.13,2.015
8.14,2.015
8.15,2.08
8.16,2.08
8.17,2.34
8.18,2.34
8.19,2.6
8.2,2.6
8.21,2.405
8.22,2.405
8.23,1.885
8.24,1.885
8.25,1.43
8.26,1.43
8.27,1.755
8.28,1.755
8.29,2.21
8.3,2.21
8.31,2.34
8.32,2.34
8.33,1.495
8.34,1.495
8.35,0.975
8.36,0.975
8.37,1.365
8.38,1.365
8.39,1.625
8.4,1.625
8.41,1.755
8.42,1.755
8.43,1.755
8.44,1.755
8.45,1.755
8.46,1.755
8.47,1.69
8.48,1.69
8.49,1.495
8.5,1.495
8.51,1.3
8.52,1.3
8.53,0.975
8.54,0.975
8.55,0.845
8.56,0.845
8.57,1.04
8.58,1.04
8.59,0.975
8.6,0.975
8.61,0.65
8.62,0.65
8.63,0.39
8.64,0.39
8.65,0.52
8.66,0.52
8.67,0.65
8.68,0.65
8.69,0.39
8.7,0.39
8.71,0.13
8.72,0.13
8.73,0.39
8.74,0.39
8.75,0.65
8.76,0.65
8.77,0.52
8.78,0.52
8.79,0.65
8.8,0.65
8.81,0.715
8.82,0.715
8.83,0.715
8.84,0.715
8.85,0.975
8.86,0.975
8.87,1.43
8.88,1.43
8.89,1.56
8.9,1.56
8.91,1.755
8.92,1.755
8.93,1.885
8.94,1.885
8.95,2.08
8.96,2.08
8.97,2.21
8.98,2.21
8.99,1.95
9.,1.95
9.01,1.625
9.02,1.625
9.03,1.3
9.04,1.3
9.05,1.105
9.06,1.105
9.07,0.78
9.08,0.78
9.09,0.65
9.1,0.65
9.11,0.78
9.12,0.78
9.13,0.91
9.14,0.91
9.15,1.235
9.16,1.235
9.17,1.56
9.18,1.56
9.19,1.365
9.2,1.365
9.21,1.56
9.22,1.56
9.23,1.885
9.24,1.885
9.25,1.885
9.26,1.885
9.27,1.755
9.28,1.755
9.29,1.235
9.3,1.235
9.31,1.04
9.32,1.04
9.33,1.105
9.34,1.105
9.35,1.235
9.36,1.235
9.37,1.105
9.38,1.105
9.39,1.105
9.4,1.105
9.41,1.43
9.42,1.43
9.43,0.845
9.44,0.845
9.45,0.325
9.46,0.325
9.47,0.78
9.48,0.78
9.49,1.105
9.5,1.105
9.51,1.235
9.52,1.235
9.53,1.3
9.54,1.3
9.55,1.365
9.56,1.365
9.57,1.3
9.58,1.3
9.59,1.105
9.6,1.105
9.61,0.975
9.62,0.975
9.63,1.04
9.64,1.04
9.65,1.17
9.66,1.17
9.67,1.105
9.68,1.105
9.69,1.3
9.7,1.3
9.71,1.56
9.72,1.56
9.73,1.495
9.74,1.495
9.75,1.69
9.76,1.69
9.77,2.405
9.78,2.405
9.79,2.73
9.8,2.73
9.81,2.73
9.82,2.73
9.83,2.275
9.84,2.275
9.85,1.885
9.86,1.885
9.87,2.145
9.88,2.145
9.89,2.08
9.9,2.08
9.91,1.885
9.92,1.885
9.93,1.69
9.94,1.69
9.95,1.56
9.96,1.56
9.97,1.365
9.98,1.365
9.99,1.17
10.,1.17
