t,s,e,i,r,c,o,n,reff,coal,reportr
5.,6250.,5.,3.,3734.,0.,0.,9992.,0.902164038923,9.3825060048,65.
5.02,6257.,4.,4.,3731.,0.,0.,9996.,0.902813048296,11.7365696279,52.
5.04,6264.,4.,4.,3726.,0.,0.,9998.,0.903642266915,11.7473494699,52.
5.06,6267.,5.,4.,3722.,0.,0.,9998.,0.904075045778,9.4023804761,65.
5.08,6268.,10.,4.,3716.,0.,0.,9998.,0.9042193054,4.70194038808,130.
5.1,6268.,11.,6.,3711.,0.,0.,9996.,0.904400221627,4.27534650224,143.
5.12,6269.,8.,12.,3709.,0.,0.,9998.,0.904363565021,5.87836317263,104.
5.14,6277.,10.,9.,3704.,0.,0.,10000.,0.905336538462,4.70775,130.
5.16,6277.,14.,2.,3706.,0.,0.,9999.,0.90542708117,3.36301487292,182.
5.18,6276.,13.,4.,3705.,0.,0.,9998.,0.905373382369,3.62149352948,169.
5.2,6284.,16.,4.,3695.,0.,0.,9999.,0.906436797526,2.94591959196,208.
5.22,6279.,18.,4.,3697.,0.,0.,9998.,0.905806161232,2.61677335467,234.
5.24,6283.,21.,0.,3697.,0.,0.,10001.,0.906111311946,2.24370420101,273.
5.26,6290.,13.,7.,3690.,0.,0.,10000.,0.907211538462,3.62884615385,169.
5.28,6296.,9.,8.,3689.,0.,0.,10002.,0.907895344008,5.24561754316,117.
5.3,6293.,11.,7.,3689.,0.,0.,10000.,0.907644230769,4.29068181818,143.
5.32,6300.,10.,9.,3683.,0.,0.,10002.,0.908472151724,4.72405518896,130.
5.34,6294.,14.,6.,3682.,0.,0.,9996.,0.908151722227,3.37313496827,182.
5.36,6297.,17.,3.,3682.,0.,0.,9999.,0.908311985045,2.7783660719,221.
5.38,6311.,11.,10.,3669.,0.,0.,10001.,0.910149369678,4.30252429303,143.
5.4,6307.,13.,12.,3671.,0.,0.,10003.,0.909390644345,3.63756257738,169.
5.42,6308.,15.,8.,3673.,0.,0.,10004.,0.909443914742,3.15273890444,195.
5.44,6306.,15.,7.,3676.,0.,0.,10004.,0.909155568542,3.15173930428,195.
5.46,6308.,8.,9.,3676.,0.,0.,10001.,0.909716720636,5.91315868413,104.
5.48,6310.,12.,5.,3677.,0.,0.,10004.,0.909732260942,3.94217313075,156.
5.5,6307.,14.,8.,3676.,0.,0.,10005.,0.90920885711,3.37706146927,182.
5.52,6303.,19.,5.,3677.,0.,0.,10004.,0.908723049242,2.48703150319,247.
5.54,6303.,16.,10.,3676.,0.,0.,10005.,0.90863222235,2.95305472264,208.
5.56,6306.,11.,7.,3681.,0.,0.,10005.,0.90906469842,4.29739675617,143.
5.58,6305.,20.,5.,3678.,0.,0.,10008.,0.908648081535,2.36248501199,260.
5.6,6313.,17.,6.,3673.,0.,0.,10009.,0.909710107057,2.78264268041,221.
5.62,6316.,17.,9.,3667.,0.,0.,10009.,0.910142410292,2.78396501972,221.
5.64,6308.,24.,7.,3669.,0.,0.,10008.,0.909080427965,1.96967426059,312.
5.66,6311.,21.,14.,3666.,0.,0.,10012.,0.909149405329,2.25122709891,273.
5.68,6308.,19.,3.,3680.,0.,0.,10010.,0.908898793514,2.48751248751,247.
5.7,6311.,18.,4.,3677.,0.,0.,10010.,0.909331053562,2.62695637696,234.
5.72,6313.,15.,7.,3675.,0.,0.,10010.,0.909619226927,3.15334665335,195.
5.74,6315.,16.,5.,3676.,0.,0.,10012.,0.909725636928,2.95660832002,208.
5.76,6317.,17.,1.,3673.,0.,0.,10008.,0.910377467257,2.78468401749,221.
5.78,6329.,12.,6.,3661.,0.,0.,10008.,0.912106852979,3.95246302958,156.
5.8,6336.,10.,8.,3650.,0.,0.,10004.,0.913480761542,4.75009996002,130.
5.82,6337.,12.,3.,3648.,0.,0.,10000.,0.913990384615,3.960625,156.
5.84,6344.,10.,5.,3642.,0.,0.,10001.,0.914908509149,4.75752424758,130.
5.86,6343.,11.,3.,3642.,0.,0.,9999.,0.914947263957,4.3252052478,143.
5.88,6348.,12.,8.,3631.,0.,0.,9999.,0.915668489926,3.96789678968,156.
5.9,6347.,15.,10.,3630.,0.,0.,10002.,0.915249642379,3.17286542691,195.
5.92,6340.,16.,8.,3640.,0.,0.,10004.,0.914057453942,2.97068672531,208.
5.94,6341.,11.,7.,3641.,0.,0.,10000.,0.914567307692,4.32340909091,143.
5.96,6349.,9.,5.,3637.,0.,0.,10000.,0.915721153846,5.29083333333,117.
5.98,6355.,10.,1.,3634.,0.,0.,10000.,0.916586538462,4.76625,130.
6.,6360.,5.,3.,3632.,0.,0.,10000.,0.917307692308,9.54,65.
6.02,6366.,4.,3.,3626.,0.,0.,9999.,0.918264903413,11.9374437444,52.
6.04,6370.,8.,0.,3620.,0.,0.,9998.,0.918933786757,5.97306961392,104.
6.06,6379.,6.,3.,3615.,0.,0.,10003.,0.919772145279,7.97135859242,78.
6.08,6381.,6.,4.,3609.,0.,0.,10000.,0.920336538462,7.97625,78.
6.1,6382.,8.,5.,3607.,0.,0.,10002.,0.920296709889,5.98192861428,104.
6.12,6383.,11.,6.,3603.,0.,0.,10003.,0.920348895331,4.35074023248,143.
6.14,6376.,16.,5.,3602.,0.,0.,9999.,0.919707355351,2.98904890489,208.
6.16,6381.,14.,6.,3596.,0.,0.,9997.,0.920612722278,3.41941868275,182.
6.18,6391.,17.,3.,3590.,0.,0.,10001.,0.921686677486,2.81927689584,221.
6.2,6390.,12.,8.,3590.,0.,0.,10000.,0.921634615385,3.99375,156.
6.22,6393.,12.,4.,3590.,0.,0.,9999.,0.922159523645,3.99602460246,156.
6.24,6387.,13.,4.,3591.,0.,0.,9995.,0.921662754454,3.68665101782,169.
6.26,6385.,14.,6.,3583.,0.,0.,9988.,0.922019885401,3.42464528863,182.
6.28,6386.,9.,7.,3590.,0.,0.,9992.,0.92179512841,5.32592740859,117.
6.3,6387.,11.,7.,3588.,0.,0.,9993.,0.921847216128,4.35782320352,143.
6.32,6385.,14.,3.,3591.,0.,0.,9993.,0.921558552525,3.42293176652,182.
6.34,6395.,6.,7.,3588.,0.,0.,9996.,0.922724859174,7.99694877951,78.
6.36,6398.,16.,7.,3579.,0.,0.,10000.,0.922788461538,2.9990625,208.
6.38,6397.,17.,11.,3576.,0.,0.,10001.,0.922551975572,2.82192368998,221.
6.4,6397.,19.,16.,3572.,0.,0.,10004.,0.922275320641,2.52412193018,247.
6.42,6392.,22.,13.,3575.,0.,0.,10002.,0.921738729177,2.17865517806,286.
6.44,6388.,28.,15.,3573.,0.,0.,10004.,0.920977762741,1.71038727366,364.
6.46,6383.,28.,11.,3580.,0.,0.,10002.,0.920440911818,1.7093902648,364.
6.48,6380.,21.,15.,3584.,0.,0.,10000.,0.920192307692,2.27857142857,273.
6.5,6376.,21.,6.,3596.,0.,0.,9999.,0.919707355351,2.2773705942,273.
6.52,6380.,22.,5.,3590.,0.,0.,9997.,0.920468448227,2.17565269581,286.
6.54,6374.,22.,9.,3591.,0.,0.,9996.,0.919694800997,2.17382407508,286.
6.56,6372.,23.,8.,3597.,0.,0.,10000.,0.919038461538,2.07782608696,299.
6.58,6366.,30.,5.,3598.,0.,0.,9999.,0.918264903413,1.59165916592,390.
6.6,6366.,18.,17.,3594.,0.,0.,9995.,0.91863239312,2.65382691346,234.
6.62,6355.,27.,8.,3601.,0.,0.,9991.,0.91741220945,1.76686795894,351.
6.64,6347.,26.,10.,3608.,0.,0.,9991.,0.916257323899,1.8325146478,338.
6.66,6341.,25.,13.,3609.,0.,0.,9988.,0.915666107021,1.9045855026,325.
6.68,6339.,26.,14.,3611.,0.,0.,9990.,0.915194040194,1.83038808039,338.
6.7,6326.,26.,11.,3626.,0.,0.,9989.,0.913408595609,1.82681719122,338.
6.72,6323.,24.,16.,3625.,0.,0.,9988.,0.913066834047,1.97831147377,312.
6.74,6311.,27.,19.,3631.,0.,0.,9988.,0.911333985398,1.75516174966,351.
6.76,6305.,33.,14.,3638.,0.,0.,9990.,0.910285285285,1.43438893439,429.
6.78,6303.,35.,5.,3647.,0.,0.,9990.,0.909996534997,1.35199485199,455.
6.8,6308.,24.,17.,3641.,0.,0.,9990.,0.910718410718,1.97322322322,312.
6.82,6296.,28.,19.,3647.,0.,0.,9990.,0.908985908986,1.68811668812,364.
6.84,6290.,24.,18.,3658.,0.,0.,9990.,0.90811965812,1.96759259259,312.
6.86,6284.,29.,13.,3662.,0.,0.,9988.,0.907435075937,1.62712496375,377.
6.88,6278.,28.,14.,3669.,0.,0.,9989.,0.906477894915,1.6834589477,364.
6.9,6276.,22.,14.,3678.,0.,0.,9990.,0.906098406098,2.14168714169,286.
6.92,6265.,27.,12.,3680.,0.,0.,9984.,0.905053855399,1.74306668447,351.
6.94,6263.,30.,8.,3686.,0.,0.,9987.,0.904493148786,1.56778812456,390.
6.96,6259.,24.,12.,3692.,0.,0.,9987.,0.903915474733,1.95848352859,312.
6.98,6260.,18.,12.,3697.,0.,0.,9987.,0.904059893246,2.61172858049,234.
7.,6255.,23.,13.,3699.,0.,0.,9990.,0.903066528067,2.04171562867,299.
7.02,6243.,21.,18.,3709.,0.,0.,9991.,0.901243811738,2.23165134335,273.
7.04,6232.,27.,19.,3711.,0.,0.,9989.,0.899835973417,1.73301743028,351.
7.06,6236.,29.,13.,3718.,0.,0.,9996.,0.899782990119,1.61340398228,377.
7.08,6223.,32.,17.,3723.,0.,0.,9995.,0.897997075461,1.45924524762,416.
7.1,6222.,29.,19.,3728.,0.,0.,9998.,0.897583362826,1.609459823,377.
7.12,6217.,33.,16.,3733.,0.,0.,9999.,0.896772369545,1.41309585504,429.
7.14,6209.,39.,15.,3732.,0.,0.,9995.,0.895976834571,1.19463577943,507.
7.16,6200.,36.,13.,3744.,0.,0.,9993.,0.894857169249,1.29257146669,468.
7.18,6188.,35.,14.,3755.,0.,0.,9992.,0.893214571657,1.32706164932,455.
7.2,6183.,28.,15.,3765.,0.,0.,9991.,0.892582170107,1.65765260163,364.
7.22,6171.,29.,18.,3770.,0.,0.,9988.,0.891117417824,1.59786571472,377.
7.24,6163.,32.,14.,3778.,0.,0.,9987.,0.890051297456,1.44633335837,416.
7.26,6155.,34.,13.,3786.,0.,0.,9988.,0.888806952959,1.35935181041,442.
7.28,6149.,33.,15.,3792.,0.,0.,9989.,0.8878516368,1.39903894284,429.
7.3,6139.,30.,19.,3803.,0.,0.,9991.,0.886230299577,1.53613251927,390.
7.32,6129.,31.,18.,3807.,0.,0.,9985.,0.885318362159,1.48505015588,403.
7.34,6119.,27.,12.,3826.,0.,0.,9984.,0.88396241679,1.70244613604,351.
7.36,6117.,29.,10.,3829.,0.,0.,9985.,0.883584992874,1.58435929757,377.
7.38,6113.,27.,7.,3837.,0.,0.,9984.,0.88309564534,1.70077679843,351.
7.4,6116.,25.,13.,3833.,0.,0.,9987.,0.883263627331,1.83718834485,325.
7.42,6109.,22.,14.,3843.,0.,0.,9988.,0.882164366471,2.08511577529,286.
7.44,6099.,23.,12.,3852.,0.,0.,9986.,0.880896716942,1.99159257743,299.
7.46,6091.,24.,11.,3858.,0.,0.,9984.,0.879917483358,1.90648788061,312.
7.48,6084.,21.,14.,3862.,0.,0.,9981.,0.879170423805,2.17699343037,273.
7.5,6071.,28.,14.,3867.,0.,0.,9980.,0.877379759519,1.62941955339,364.
7.52,6074.,30.,16.,3866.,0.,0.,9986.,0.877285892557,1.52062888043,390.
7.54,6067.,34.,16.,3870.,0.,0.,9987.,0.876187120179,1.34005088969,442.
7.56,6065.,24.,21.,3877.,0.,0.,9987.,0.875898283153,1.8977796135,312.
7.58,6053.,29.,18.,3890.,0.,0.,9990.,0.873902748903,1.56699803252,377.
7.6,6051.,24.,15.,3899.,0.,0.,9989.,0.873701456217,1.8930198218,312.
7.62,6051.,24.,11.,3900.,0.,0.,9986.,0.873963934123,1.89358852393,312.
7.64,6053.,21.,5.,3910.,0.,0.,9989.,0.873990235413,2.16416629721,273.
7.66,6059.,17.,5.,3912.,0.,0.,9993.,0.874506385239,2.67496070779,221.
7.68,6064.,14.,4.,3909.,0.,0.,9991.,0.875403247538,3.25149777657,182.
7.7,6072.,9.,7.,3902.,0.,0.,9990.,0.876645876646,5.06506506507,117.
7.72,6070.,9.,3.,3907.,0.,0.,9989.,0.876444858575,5.06390362732,117.
7.74,6072.,13.,2.,3901.,0.,0.,9988.,0.876821416469,3.50728566588,169.
7.76,6072.,14.,3.,3897.,0.,0.,9986.,0.876997026606,3.2574175274,182.
7.78,6077.,12.,2.,3893.,0.,0.,9984.,0.877895016642,3.80421173878,156.
7.8,6083.,11.,4.,3885.,0.,0.,9983.,0.878849813914,4.15456275669,143.
7.82,6084.,11.,6.,3879.,0.,0.,9980.,0.879258517034,4.1564948078,143.
7.84,6085.,10.,6.,3873.,0.,0.,9974.,0.87993205411,4.57564668137,130.
7.86,6087.,10.,5.,3873.,0.,0.,9975.,0.88013302487,4.57669172932,130.
7.88,6094.,3.,8.,3873.,0.,0.,9978.,0.88088024423,15.2685909,39.
7.9,6092.,10.,0.,3869.,0.,0.,9971.,0.881209353278,4.58228863705,130.
7.92,6098.,10.,1.,3860.,0.,0.,9969.,0.882254218848,4.58772193801,130.
7.94,6103.,7.,8.,3852.,0.,0.,9970.,0.882889051771,6.55860438458,91.
7.96,6108.,9.,5.,3852.,0.,0.,9974.,0.883258009286,5.1032684981,117.
7.98,6112.,7.,7.,3850.,0.,0.,9976.,0.883659243723,6.56432581052,91.
8.,6114.,4.,5.,3853.,0.,0.,9976.,0.883948399235,11.4913291901,52.
8.02,6115.,3.,3.,3852.,0.,0.,9973.,0.884358922938,15.3288879976,39.
8.04,6124.,4.,4.,3840.,0.,0.,9972.,0.88574932889,11.5147412756,52.
8.06,6129.,3.,2.,3838.,0.,0.,9972.,0.886472507637,15.3655234657,39.
8.08,6134.,3.,3.,3829.,0.,0.,9969.,0.887462672747,15.3826863276,39.
8.1,6130.,9.,4.,3825.,0.,0.,9968.,0.886972928757,5.12473247726,117.
8.12,6134.,6.,6.,3822.,0.,0.,9968.,0.887551703914,7.69211476726,78.
8.14,6135.,8.,8.,3818.,0.,0.,9969.,0.887607352022,5.76944778814,104.
8.16,6142.,11.,4.,3813.,0.,0.,9970.,0.888530977548,4.2003282575,143.
8.18,6147.,10.,3.,3812.,0.,0.,9972.,0.889075951125,4.62319494585,130.
8.2,6156.,6.,7.,3801.,0.,0.,9970.,0.890556284237,7.71815446339,78.
8.22,6156.,5.,3.,3803.,0.,0.,9967.,0.890824335692,9.2645730912,65.
8.24,6162.,5.,0.,3795.,0.,0.,9962.,0.892140132504,9.27825737804,65.
8.26,6172.,0.,5.,3785.,0.,0.,9962.,0.893587941871,inf,0.
8.28,6166.,11.,3.,3779.,0.,0.,9959.,0.892988174593,4.22139864353,143.
8.3,6175.,8.,1.,3774.,0.,0.,9958.,0.894381401888,5.81347911227,104.
8.32,6177.,3.,6.,3768.,0.,0.,9954.,0.895030602309,15.5138637734,39.
8.34,6175.,10.,4.,3766.,0.,0.,9955.,0.894650929181,4.65218483174,130.
8.36,6174.,7.,6.,3768.,0.,0.,9955.,0.89450604644,6.64490205927,91.
8.38,6172.,7.,0.,3773.,0.,0.,9952.,0.894485839723,6.64475195223,91.
8.4,6171.,8.,5.,3767.,0.,0.,9951.,0.894430787783,5.81380012059,104.
8.42,6172.,11.,6.,3760.,0.,0.,9949.,0.894755561054,4.22975356134,143.
8.44,6172.,13.,4.,3761.,0.,0.,9950.,0.894665635872,3.57866254349,169.
8.46,6179.,13.,5.,3755.,0.,0.,9952.,0.895500324635,3.58200129854,169.
8.48,6173.,15.,11.,3753.,0.,0.,9952.,0.894630766139,3.10138665595,195.
8.5,6176.,16.,7.,3754.,0.,0.,9953.,0.894975616165,2.90867075254,208.
8.52,6179.,15.,5.,3754.,0.,0.,9953.,0.89541035173,3.10408921933,195.
8.54,6176.,19.,7.,3751.,0.,0.,9953.,0.894975616165,2.4494069495,247.
8.56,6178.,16.,5.,3751.,0.,0.,9950.,0.895535369153,2.91048994975,208.
8.58,6179.,18.,8.,3744.,0.,0.,9949.,0.895770351871,2.58778101652,234.
8.6,6186.,22.,3.,3740.,0.,0.,9951.,0.896604902484,2.11924795133,286.
8.62,6187.,17.,8.,3739.,0.,0.,9951.,0.896749843464,2.74299952118,221.
8.64,6190.,14.,9.,3737.,0.,0.,9950.,0.897274835717,3.33273510409,182.
8.66,6188.,13.,10.,3740.,0.,0.,9951.,0.896894784444,3.58757913778,169.
8.68,6191.,13.,9.,3738.,0.,0.,9951.,0.897329607384,3.58931842954,169.
8.7,6189.,17.,7.,3740.,0.,0.,9953.,0.89685947028,2.74333485027,221.
8.72,6183.,17.,10.,3741.,0.,0.,9951.,0.896170079544,2.74122612566,221.
8.74,6176.,23.,3.,3745.,0.,0.,9947.,0.895515462722,2.02464365485,299.
8.76,6180.,21.,7.,3740.,0.,0.,9948.,0.896005381832,2.21867999311,273.
8.78,6179.,26.,10.,3738.,0.,0.,9953.,0.89541035173,1.79082070346,338.
8.8,6179.,25.,10.,3741.,0.,0.,9955.,0.895230460148,1.86207935711,325.
8.82,6175.,28.,12.,3736.,0.,0.,9951.,0.895010551703,1.66216245316,364.
8.84,6170.,26.,16.,3738.,0.,0.,9950.,0.894375724778,1.78875144956,338.
8.86,6154.,38.,11.,3749.,0.,0.,9952.,0.891877164234,1.2204634879,494.
8.88,6154.,23.,18.,3756.,0.,0.,9951.,0.891966791123,2.01662057123,299.
8.9,6138.,32.,11.,3770.,0.,0.,9951.,0.889647735442,1.44567757009,416.
8.92,6142.,28.,13.,3766.,0.,0.,9949.,0.890406457549,1.65361199259,364.
8.94,6136.,27.,15.,3772.,0.,0.,9950.,0.889447236181,1.7130094919,351.
8.96,6129.,26.,15.,3777.,0.,0.,9947.,0.888700497251,1.7774009945,338.
8.98,6120.,28.,16.,3782.,0.,0.,9946.,0.887484725208,1.64818591824,364.
9.,6115.,30.,13.,3787.,0.,0.,9945.,0.886848822369,1.53720462544,390.
9.02,6110.,29.,15.,3791.,0.,0.,9945.,0.886123680241,1.58891142664,377.
9.04,6106.,29.,17.,3796.,0.,0.,9948.,0.8852765148,1.58739237137,377.
9.06,6103.,33.,15.,3801.,0.,0.,9952.,0.884485917017,1.39373538439,429.
9.08,6097.,31.,14.,3810.,0.,0.,9952.,0.883616358521,1.48219518204,403.
9.1,6095.,28.,16.,3811.,0.,0.,9950.,0.883504058755,1.64079325197,364.
9.12,6087.,26.,11.,3822.,0.,0.,9946.,0.882699268357,1.76539853671,338.
9.14,6086.,24.,8.,3826.,0.,0.,9944.,0.882731759391,1.91258547868,312.
9.16,6083.,22.,16.,3822.,0.,0.,9943.,0.882385365816,2.08563813738,286.
9.18,6087.,23.,11.,3821.,0.,0.,9942.,0.883054407873,1.99647083519,299.
9.2,6079.,23.,14.,3824.,0.,0.,9940.,0.882071273797,1.99424809728,299.
9.22,6066.,27.,15.,3831.,0.,0.,9939.,0.880273514593,1.69534158366,351.
9.24,6070.,16.,11.,3842.,0.,0.,9939.,0.8808539785,2.86277543012,208.
9.26,6076.,16.,10.,3838.,0.,0.,9940.,0.881635969664,2.86531690141,208.
9.28,6076.,15.,9.,3839.,0.,0.,9939.,0.88172467436,3.05664553778,195.
9.3,6085.,8.,11.,3838.,0.,0.,9942.,0.882764263498,5.73796771273,104.
9.32,6082.,10.,6.,3844.,0.,0.,9942.,0.882329046934,4.58811104406,130.
9.34,6082.,14.,4.,3842.,0.,0.,9942.,0.882329046934,3.27722217433,182.
9.36,6089.,14.,5.,3832.,0.,0.,9940.,0.883522287572,3.28165421098,182.
9.38,6097.,11.,10.,3823.,0.,0.,9941.,0.884594105221,4.18171758832,143.
9.4,6086.,20.,12.,3820.,0.,0.,9938.,0.883264702695,2.29648822701,260.
9.42,6078.,19.,14.,3826.,0.,0.,9937.,0.882192427679,2.41442138102,247.
9.44,6067.,26.,11.,3832.,0.,0.,9936.,0.880684457451,1.7613689149,338.
9.46,6068.,22.,16.,3831.,0.,0.,9937.,0.88074097584,2.08175139744,286.
9.48,6063.,22.,13.,3837.,0.,0.,9935.,0.880192404475,2.08045477421,286.
9.5,6057.,19.,16.,3840.,0.,0.,9932.,0.879586960563,2.40729062891,247.
9.52,6049.,20.,15.,3846.,0.,0.,9930.,0.878602138043,2.28436555891,260.
9.54,6054.,23.,7.,3847.,0.,0.,9931.,0.879239831762,1.98784657616,299.
9.56,6055.,22.,3.,3849.,0.,0.,9929.,0.879562199307,2.07896519836,286.
9.58,6062.,14.,5.,3847.,0.,0.,9928.,0.880667730738,3.27105157131,182.
9.6,6072.,8.,16.,3833.,0.,0.,9929.,0.882031655523,5.7332057609,104.
9.62,6068.,10.,9.,3839.,0.,0.,9926.,0.881717013593,4.58492847068,130.
9.64,6066.,13.,5.,3845.,0.,0.,9929.,0.881160082741,3.52464033097,169.
9.66,6070.,10.,6.,3845.,0.,0.,9931.,0.881563557779,4.58413050045,130.
9.68,6077.,13.,1.,3843.,0.,0.,9934.,0.882313654737,3.52925461895,169.
9.7,6088.,10.,3.,3833.,0.,0.,9934.,0.883910733921,4.59633581639,130.
9.72,6090.,9.,2.,3832.,0.,0.,9933.,0.884290128476,5.10923185342,117.
9.74,6093.,4.,5.,3830.,0.,0.,9932.,0.884814817683,11.5025926299,52.
9.76,6094.,9.,2.,3827.,0.,0.,9932.,0.884960035937,5.11310242986,117.
9.78,6101.,8.,1.,3823.,0.,0.,9933.,0.885887368446,5.7582678949,104.
9.8,6100.,8.,8.,3817.,0.,0.,9933.,0.885742164812,5.75732407128,104.
9.82,6102.,11.,10.,3812.,0.,0.,9935.,0.885854206186,4.18767442924,143.
9.84,6104.,21.,6.,3806.,0.,0.,9937.,0.88596620246,2.19382107276,273.
9.86,6105.,14.,9.,3808.,0.,0.,9936.,0.886200529543,3.29160196687,182.
9.88,6108.,16.,9.,3805.,0.,0.,9938.,0.886457575429,2.88098712014,208.
9.9,6106.,18.,12.,3803.,0.,0.,9939.,0.88607815366,2.5597813328,234.
9.92,6107.,14.,16.,3804.,0.,0.,9941.,0.886044973033,3.29102418555,182.
9.94,6096.,24.,8.,3812.,0.,0.,9940.,0.884537997214,1.91649899396,312.
9.96,6099.,19.,6.,3817.,0.,0.,9941.,0.884884278783,2.42178855246,247.
9.98,6095.,22.,8.,3813.,0.,0.,9938.,0.884570877905,2.09080389323,286.
10.,6090.,24.,9.,3815.,0.,0.,9938.,0.88384522501,1.91499798752,312.
