t,neff
5.,0.728494270402
5.02,0.637785540596
5.04,0.68418622738
5.06,0.525041446581
5.08,0.571469205155
5.1,0.595472302179
5.12,0.665414175433
5.14,0.758593890406
5.16,0.667646998004
5.18,0.853540900948
5.2,0.808823147129
5.22,1.01900576511
5.24,0.486538334358
5.26,0.62631545695
5.28,0.603924123946
5.3,0.651205833822
5.32,0.605655146647
5.34,0.629554862454
5.36,0.700517152254
5.38,0.583998126631
5.4,0.373678592377
5.42,0.373759476059
5.44,0.233614976588
5.46,0.233560577943
5.48,0.256972264162
5.5,0.210180049309
5.52,0.140120032872
5.54,0.116714247542
5.56,0.116714247542
5.58,0.0700029709418
5.6,0.
5.62,0.
5.64,0.
5.66,0.0233068372404
5.68,0.
5.7,0.0232817500993
5.72,0.
5.74,0.0465495255589
5.76,0.09310053647
5.78,0.0697676259201
5.8,0.0929911602247
5.82,0.0697261080744
5.84,0.116227318244
5.86,0.232582025233
5.88,0.232544007737
5.9,0.162749069094
5.92,0.186042021337
5.94,0.18606652174
5.96,0.372584023631
5.98,0.466124908583
6.,0.443222742953
6.02,0.490325109414
6.04,0.514279806737
6.06,0.561854024601
6.08,0.656709826122
6.1,0.633826413367
6.12,0.563844403524
6.14,0.895687226738
6.16,0.707478306861
6.18,0.707998234287
6.2,0.732751324727
6.22,0.615267263759
6.24,0.663575151712
6.26,0.783576838437
6.28,0.73688413592
6.3,0.618420299169
6.32,0.571333397755
6.34,0.619694082892
6.36,0.477169915117
6.38,0.525126173422
6.4,0.310424077473
6.42,0.214840562698
6.44,0.167058548199
6.46,0.0715920711624
6.48,0.143206548214
6.5,0.119320118604
6.52,0.071561199317
6.54,0.
6.56,0.
6.58,0.0238213161762
6.6,0.0238152324331
6.62,0.0238072190546
6.64,0.023806777321
6.66,0.0237985003291
6.68,0.
6.7,0.
6.72,0.0237796959285
6.74,0.0475213451721
6.76,0.0475062632104
6.78,0.0474868562821
6.8,0.09495905856
6.82,0.0712025087927
6.84,0.09495905856
6.86,0.0712179980351
6.88,0.189933588541
6.9,0.118680518644
6.92,0.118726811604
6.94,0.166305082768
6.96,0.356720609991
6.98,0.357002457618
7.,0.309584991715
7.02,0.38130521679
7.04,0.381597515177
7.06,0.501797563043
7.08,0.598206930907
7.1,0.719074114631
7.12,0.720131582531
7.14,0.745200794711
7.16,0.794557482459
7.18,0.771446996089
7.2,0.845200180845
7.22,0.724398826305
7.24,0.555649497531
7.26,0.605137917466
7.28,0.77628428267
7.3,0.704354312636
7.32,0.681528270267
7.34,0.560220283126
7.36,0.462941746638
7.38,0.414334669251
7.4,0.365693330989
7.42,0.170625362426
7.44,0.243956736464
7.46,0.219657830757
7.48,0.244015720201
7.5,0.195168085626
7.52,0.048796871508
7.54,0.0976291244333
7.56,0.073168790426
7.58,0.12196271206
7.6,0.
7.62,0.0243626011027
7.64,0.0243513686004
7.66,0.0243313465785
7.68,0.0243289279556
7.7,0.0729573453964
7.72,0.0243156766272
7.74,0.072939376297
7.76,0.0242872157891
7.78,0.024277962062
7.8,0.024249849691
7.82,0.048488067364
7.84,0.0484678113101
7.86,0.121172022181
7.88,0.169671037905
7.9,0.169697739642
7.92,0.242405366482
7.94,0.242483477919
7.96,0.242425342346
7.98,0.412667236819
8.,0.388408829765
8.02,0.461519865707
8.04,0.364504316632
8.06,0.535173798432
8.08,0.535067571001
8.1,0.510909160963
8.12,0.487048807429
8.14,0.756522511037
8.16,0.733357637869
8.18,0.930607187663
8.2,0.907806660724
8.22,0.78642324188
8.24,0.738226131361
8.26,0.615713091813
8.28,0.492919655918
8.3,0.518118016171
8.32,0.394967476023
8.34,0.394879989997
8.36,0.296117072965
8.38,0.320964947942
8.4,0.321043423479
8.42,0.296411158945
8.44,0.148190845843
8.46,0.172812663354
8.48,0.098742528953
8.5,0.0740676491104
8.52,0.
8.54,0.
8.56,0.0246592608038
8.58,0.0739721063835
8.6,0.0246537981305
8.62,0.024647778402
8.64,0.0246387543191
8.66,0.0246381973717
8.68,0.
8.7,0.
8.72,0.
8.74,0.024599726196
8.76,0.0983891206636
8.78,0.0491798841502
8.8,0.0245667988429
8.82,0.0491118743919
8.84,0.0735718127389
8.86,0.0980492476989
8.88,0.220678919576
8.9,0.220593730334
8.92,0.196057249712
8.94,0.171500935965
8.96,0.269670993452
8.98,0.343566532518
9.,0.3928210651
9.02,0.442168244797
9.04,0.393208291394
9.06,0.418149651711
9.08,0.54179532776
9.1,0.690031790094
9.12,0.740116351964
9.14,0.567478973995
9.16,0.592822317891
9.18,0.643025565161
9.2,0.842343649319
9.22,0.768967223135
9.24,0.744745580586
9.26,0.570917916489
9.28,0.372438053673
9.3,0.422667914499
9.32,0.373097754628
9.34,0.348122304821
9.36,0.373042955693
9.38,0.348242630923
9.4,0.323398903156
9.42,0.42281213629
9.44,0.198853599421
9.46,0.223825773415
9.48,0.149158553024
9.5,0.0745316557609
9.52,0.099375541015
9.54,0.0248297880445
9.56,0.0496351703506
9.58,0.0248132344595
9.6,0.
9.62,0.0247780085552
9.64,0.024762820368
9.66,0.02475371639
9.68,0.0247421598887
9.7,0.0247203923317
9.72,0.
9.74,0.0493754433862
9.76,0.0493682819851
9.78,0.0246732042274
9.8,0.0739874497542
9.82,0.0986356523284
9.84,0.147914018633
9.86,0.147899322754
9.88,0.123291768033
9.9,0.271341233546
9.92,0.271293477798
9.94,0.246551308267
9.96,0.172543785697
9.98,0.098642369315
10.,0.148043826245
