t,s,e,i,r,c,o,n,reff,coal,reportr
5.,8401.,37.,1.,1562.,0.,0.,10001.,0.846249445828,1.18932354549,481.
5.02,8394.,24.,15.,1565.,0.,0.,9998.,0.84579803594,1.8325624112,312.
5.04,8389.,28.,9.,1573.,0.,0.,9999.,0.845209686986,1.56967513297,364.
5.06,8384.,26.,10.,1577.,0.,0.,9997.,0.844874918178,1.68974983636,338.
5.08,8371.,27.,4.,1591.,0.,0.,9993.,0.843902540663,1.62529378202,351.
5.1,8375.,26.,10.,1585.,0.,0.,9996.,0.844052398096,1.68810479619,338.
5.12,8365.,25.,10.,1595.,0.,0.,9995.,0.843128920968,1.75370815561,325.
5.14,8358.,27.,13.,1598.,0.,0.,9996.,0.842339097706,1.62228270669,351.
5.16,8345.,29.,13.,1611.,0.,0.,9998.,0.840860687386,1.50775019807,377.
5.18,8339.,24.,19.,1617.,0.,0.,9999.,0.840172080079,1.82037284017,312.
5.2,8330.,27.,16.,1627.,0.,0.,10000.,0.839181384304,1.61620118459,351.
5.22,8318.,29.,19.,1635.,0.,0.,10001.,0.83788869068,1.50242110053,377.
5.24,8305.,31.,16.,1649.,0.,0.,10001.,0.836579174813,1.40329409969,403.
5.26,8289.,29.,15.,1667.,0.,0.,10000.,0.835050959724,1.49733275537,377.
5.28,8280.,25.,12.,1685.,0.,0.,10002.,0.83397748566,1.73467317017,325.
5.3,8275.,25.,9.,1691.,0.,0.,10000.,0.833640570842,1.73397238735,325.
5.32,8273.,21.,13.,1695.,0.,0.,10002.,0.83327243223,2.06334126076,273.
5.34,8263.,21.,16.,1704.,0.,0.,10004.,0.832098826556,2.06043518957,273.
5.36,8260.,19.,12.,1717.,0.,0.,10008.,0.831464268483,2.27558641901,247.
5.38,8263.,16.,3.,1728.,0.,0.,10010.,0.831600066021,2.70270021457,208.
5.4,8259.,15.,4.,1732.,0.,0.,10010.,0.831197500335,2.88148466783,195.
5.42,8257.,12.,8.,1732.,0.,0.,10009.,0.831079242391,3.6013433837,156.
5.44,8247.,14.,1.,1743.,0.,0.,10005.,0.830404590785,3.08435990863,182.
5.46,8252.,6.,8.,1742.,0.,0.,10008.,0.830658976214,7.19904446052,78.
5.48,8247.,7.,3.,1748.,0.,0.,10005.,0.830404590785,6.16871981726,91.
5.5,8246.,5.,4.,1749.,0.,0.,10004.,0.830386896259,8.63602372109,65.
5.52,8252.,2.,1.,1751.,0.,0.,10006.,0.83082500839,21.6014502181,26.
5.54,8257.,1.,0.,1749.,0.,0.,10007.,0.83124534197,43.2247577824,13.
5.56,8264.,1.,0.,1746.,0.,0.,10011.,0.831617628758,43.2441166954,13.
5.58,8264.,1.,1.,1743.,0.,0.,10009.,0.831783802728,43.2527577418,13.
5.6,8270.,1.,0.,1743.,0.,0.,10014.,0.831972099588,43.2625491786,13.
5.62,8277.,1.,2.,1736.,0.,0.,10016.,0.832510038906,43.2905220231,13.
5.64,8283.,1.,0.,1735.,0.,0.,10019.,0.832864065621,43.3089314123,13.
5.66,8283.,1.,1.,1730.,0.,0.,10015.,0.833196712278,43.3262290384,13.
5.68,8286.,2.,1.,1726.,0.,0.,10015.,0.833498485806,21.670960631,26.
5.7,8289.,3.,0.,1724.,0.,0.,10016.,0.833717012504,14.4510948834,39.
5.72,8288.,2.,1.,1722.,0.,0.,10013.,0.833866191612,21.6805209819,26.
5.74,8289.,1.,1.,1718.,0.,0.,10009.,0.834300089643,43.3836046614,13.
5.76,8292.,2.,0.,1717.,0.,0.,10011.,0.834435307075,21.6953179839,26.
5.78,8295.,2.,0.,1716.,0.,0.,10013.,0.83457047049,21.6988322327,26.
5.8,8303.,1.,2.,1709.,0.,0.,10015.,0.835208535801,43.4308438617,13.
5.82,8308.,0.,2.,1706.,0.,0.,10016.,0.835628054033,inf,0.
5.84,8307.,3.,1.,1703.,0.,0.,10014.,0.835694344774,14.4853686427,39.
5.86,8310.,9.,1.,1694.,0.,0.,10014.,0.835996148438,4.83019996875,117.
5.88,8309.,10.,1.,1692.,0.,0.,10012.,0.836062525951,4.34752513495,130.
5.9,8314.,10.,3.,1690.,0.,0.,10017.,0.836148059596,4.3479699099,130.
5.92,8309.,14.,2.,1692.,0.,0.,10017.,0.835645204135,3.10382504393,182.
5.94,8305.,12.,5.,1692.,0.,0.,10014.,0.835493142331,3.62047028344,156.
5.96,8298.,14.,7.,1694.,0.,0.,10013.,0.834872304294,3.10095427309,182.
5.98,8294.,16.,7.,1697.,0.,0.,10014.,0.834386528898,2.71175621892,208.
6.,8287.,18.,9.,1700.,0.,0.,10014.,0.833682320349,2.40841559212,234.
6.02,8287.,13.,12.,1704.,0.,0.,10016.,0.833515850237,3.33406340095,169.
6.04,8274.,25.,10.,1708.,0.,0.,10017.,0.832125215912,1.7308204491,325.
6.06,8262.,24.,13.,1716.,0.,0.,10015.,0.831084297578,1.80068264475,312.
6.08,8247.,30.,4.,1728.,0.,0.,10009.,0.830072727625,1.43879272788,390.
6.1,8244.,21.,15.,1729.,0.,0.,10009.,0.829770773195,2.05467048601,273.
6.12,8233.,26.,9.,1744.,0.,0.,10012.,0.828415305832,1.65683061166,338.
6.14,8217.,33.,12.,1748.,0.,0.,10010.,0.826970560631,1.30310512584,429.
6.16,8209.,29.,21.,1752.,0.,0.,10011.,0.826082903494,1.48125210282,377.
6.18,8188.,40.,18.,1767.,0.,0.,10013.,0.823805064782,1.07094658422,520.
6.2,8174.,41.,15.,1783.,0.,0.,10013.,0.822396507026,1.04303947233,533.
6.22,8169.,32.,18.,1789.,0.,0.,10008.,0.822304068915,1.33624411199,416.
6.24,8158.,31.,22.,1798.,0.,0.,10009.,0.821114746207,1.37735376783,403.
6.26,8149.,35.,11.,1817.,0.,0.,10012.,0.819963115174,1.21823091397,455.
6.28,8146.,26.,16.,1825.,0.,0.,10013.,0.819579391514,1.63915878303,338.
6.3,8124.,26.,20.,1838.,0.,0.,10008.,0.817774299898,1.6355485998,338.
6.32,8117.,25.,9.,1858.,0.,0.,10009.,0.816988035666,1.69933511418,325.
6.34,8104.,25.,10.,1869.,0.,0.,10008.,0.815761069224,1.69678302399,325.
6.36,8100.,26.,5.,1876.,0.,0.,10007.,0.815439901896,1.63087980379,338.
6.38,8097.,19.,11.,1879.,0.,0.,10006.,0.815219352028,2.23112664765,247.
6.4,8095.,20.,6.,1889.,0.,0.,10010.,0.814692307206,2.11819999873,260.
6.42,8099.,14.,4.,1893.,0.,0.,10010.,0.815094872892,3.02749524217,182.
6.44,8098.,12.,2.,1899.,0.,0.,10011.,0.814912821598,3.53128889359,156.
6.46,8100.,7.,8.,1894.,0.,0.,10009.,0.815276960563,6.05634313561,91.
6.48,8103.,7.,1.,1898.,0.,0.,10009.,0.815578914993,6.05858622566,91.
6.5,8105.,4.,3.,1898.,0.,0.,10010.,0.815698721421,10.6040833785,52.
6.52,8107.,2.,1.,1899.,0.,0.,10009.,0.815981520899,21.2155195434,26.
6.54,8111.,0.,2.,1894.,0.,0.,10007.,0.816547289417,inf,0.
6.56,8114.,1.,1.,1896.,0.,0.,10012.,0.816441369066,42.4549511914,13.
6.58,8122.,1.,0.,1890.,0.,0.,10013.,0.817164721075,42.4925654959,13.
6.6,8122.,0.,1.,1888.,0.,0.,10011.,0.81732797444,inf,0.
6.62,8121.,2.,1.,1885.,0.,0.,10009.,0.817390641572,21.2521566809,26.
6.64,8126.,1.,1.,1882.,0.,0.,10010.,0.817812191273,42.5262339462,13.
6.66,8130.,1.,1.,1878.,0.,0.,10010.,0.818214756959,42.5471673619,13.
6.68,8126.,2.,0.,1878.,0.,0.,10006.,0.818139119992,21.2716171198,26.
6.7,8132.,3.,0.,1873.,0.,0.,10008.,0.818579592168,14.1887129309,39.
6.72,8133.,1.,1.,1872.,0.,0.,10007.,0.81876206446,42.5756273519,13.
6.74,8134.,3.,0.,1868.,0.,0.,10005.,0.819026426754,14.1964580637,39.
6.76,8144.,1.,2.,1862.,0.,0.,10009.,0.819705625534,42.6246925278,13.
6.78,8148.,2.,1.,1858.,0.,0.,10009.,0.82010823144,21.3228140175,26.
6.8,8149.,3.,3.,1856.,0.,0.,10011.,0.820045021388,14.2141137041,39.
6.82,8151.,2.,1.,1854.,0.,0.,10008.,0.820492161309,21.332796194,26.
6.84,8152.,5.,1.,1852.,0.,0.,10010.,0.820428868232,8.53246022962,65.
6.86,8152.,4.,4.,1850.,0.,0.,10010.,0.820428868232,10.665575287,52.
6.88,8156.,7.,3.,1847.,0.,0.,10013.,0.820585504197,6.09577803118,91.
6.9,8156.,10.,3.,1847.,0.,0.,10016.,0.820339721797,4.26576655335,130.
6.92,8156.,10.,3.,1846.,0.,0.,10015.,0.820421632903,4.2661924911,130.
6.94,8158.,3.,11.,1840.,0.,0.,10012.,0.82086870703,14.2283909218,39.
6.96,8152.,7.,16.,1835.,0.,0.,10010.,0.820428868232,6.09461444973,91.
6.98,8143.,16.,13.,1837.,0.,0.,10009.,0.819604974057,2.66371616569,208.
7.,8143.,14.,13.,1838.,0.,0.,10008.,0.819686869039,3.04455122786,182.
7.02,8133.,18.,9.,1849.,0.,0.,10009.,0.818598459291,2.36483999351,234.
7.04,8126.,21.,12.,1851.,0.,0.,10010.,0.817812191273,2.02505875934,273.
7.06,8121.,25.,11.,1856.,0.,0.,10013.,0.817064109807,1.6994933484,325.
7.08,8113.,32.,13.,1854.,0.,0.,10012.,0.816340747749,1.32655371509,416.
7.1,8108.,31.,12.,1862.,0.,0.,10013.,0.815756163319,1.36836517718,403.
7.12,8100.,30.,22.,1864.,0.,0.,10016.,0.814707178342,1.41215910913,390.
7.14,8090.,33.,8.,1886.,0.,0.,10017.,0.813620134969,1.28206809147,429.
7.16,8083.,28.,12.,1891.,0.,0.,10014.,0.813159671218,1.51015367512,364.
7.18,8074.,33.,12.,1898.,0.,0.,10017.,0.812010997495,1.2795324809,429.
7.2,8062.,35.,14.,1904.,0.,0.,10015.,0.810966062342,1.20486386405,455.
7.22,8048.,34.,19.,1914.,0.,0.,10015.,0.809557785876,1.23814720193,442.
7.24,8036.,30.,22.,1930.,0.,0.,10018.,0.808108622279,1.40072161195,390.
7.26,8010.,35.,11.,1956.,0.,0.,10012.,0.80597675206,1.19745117449,455.
7.28,8007.,28.,4.,1976.,0.,0.,10015.,0.805433547653,1.49580515993,364.
7.3,7997.,25.,14.,1977.,0.,0.,10013.,0.804588312538,1.67354369008,325.
7.32,7996.,19.,14.,1986.,0.,0.,10015.,0.804327044715,2.20131612238,247.
7.34,7991.,20.,10.,1994.,0.,0.,10015.,0.803824088834,2.08994263097,260.
7.36,7991.,19.,10.,1997.,0.,0.,10017.,0.803663596852,2.19950037033,247.
7.38,7987.,19.,12.,1998.,0.,0.,10016.,0.803341510299,2.19861887029,247.
7.4,7984.,17.,11.,2005.,0.,0.,10017.,0.802959599208,2.45611171522,221.
7.42,7985.,19.,5.,2010.,0.,0.,10019.,0.80289986285,2.19741015096,247.
7.44,7989.,13.,5.,2015.,0.,0.,10022.,0.803061605309,3.21224642124,169.
7.46,7992.,13.,1.,2017.,0.,0.,10023.,0.803283016093,3.21313206437,169.
7.48,7996.,5.,4.,2019.,0.,0.,10024.,0.803604883561,8.35749078904,65.
7.5,7998.,5.,0.,2022.,0.,0.,10025.,0.803725705145,8.3587473335,65.
7.52,8002.,5.,1.,2016.,0.,0.,10024.,0.804207888726,8.36376204275,65.
7.54,8007.,2.,2.,2015.,0.,0.,10026.,0.804549868316,20.9182965762,26.
7.56,8003.,1.,4.,2015.,0.,0.,10023.,0.80438863586,41.8282090647,13.
7.58,8003.,1.,0.,2020.,0.,0.,10024.,0.804308389587,41.8240362585,13.
7.6,8005.,1.,1.,2018.,0.,0.,10025.,0.804429140996,41.8303153318,13.
7.62,8008.,1.,1.,2014.,0.,0.,10024.,0.804810893892,41.8501664824,13.
7.64,8010.,0.,2.,2013.,0.,0.,10025.,0.804931595175,inf,0.
7.66,8016.,2.,0.,2009.,0.,0.,10027.,0.805373867099,20.9397205446,26.
7.68,8017.,2.,2.,2006.,0.,0.,10027.,0.805474337891,20.9423327852,26.
7.7,8025.,2.,0.,2000.,0.,0.,10027.,0.806278104226,20.9632307099,26.
7.72,8028.,3.,0.,1994.,0.,0.,10025.,0.80674043022,13.9835007905,39.
7.74,8029.,0.,3.,1992.,0.,0.,10024.,0.80692141197,inf,0.
7.76,8036.,0.,0.,1989.,0.,0.,10025.,0.807544356907,inf,0.
7.78,8043.,0.,0.,1983.,0.,0.,10026.,0.808167177578,inf,0.
7.8,8045.,1.,0.,1980.,0.,0.,10026.,0.808368139204,42.0351432386,13.
7.82,8050.,1.,0.,1977.,0.,0.,10028.,0.808709220862,42.0528794848,13.
7.84,8056.,2.,0.,1971.,0.,0.,10029.,0.809231288322,21.0400134964,26.
7.86,8048.,3.,2.,1970.,0.,0.,10023.,0.808911625815,14.0211348475,39.
7.88,8048.,6.,2.,1969.,0.,0.,10025.,0.808750246937,7.00916880679,78.
7.9,8052.,3.,5.,1964.,0.,0.,10024.,0.80923293177,14.0267041507,39.
7.92,8049.,10.,1.,1965.,0.,0.,10025.,0.808850737773,4.20602383642,130.
7.94,8051.,5.,10.,1957.,0.,0.,10023.,0.809213158479,8.41581684818,65.
7.96,8043.,14.,7.,1960.,0.,0.,10024.,0.808328424022,3.0023627178,182.
7.98,8040.,15.,4.,1967.,0.,0.,10026.,0.80786573514,2.80060121515,195.
8.,8040.,16.,8.,1962.,0.,0.,10026.,0.80786573514,2.6255636392,208.
8.02,8040.,16.,10.,1965.,0.,0.,10031.,0.807463050594,2.62425491443,208.
8.04,8026.,24.,11.,1971.,0.,0.,10032.,0.80597667182,1.74628278894,312.
8.06,8016.,28.,15.,1975.,0.,0.,10034.,0.804812015687,1.49465088628,364.
8.08,8008.,29.,11.,1986.,0.,0.,10034.,0.804008810083,1.4416709698,377.
8.1,8005.,31.,8.,1987.,0.,0.,10031.,0.803947975125,1.34855789376,403.
8.12,7988.,34.,14.,1994.,0.,0.,10030.,0.802320636868,1.22707862109,442.
8.14,7975.,42.,6.,2004.,0.,0.,10027.,0.801254564635,0.992029460977,546.
8.16,7963.,35.,15.,2013.,0.,0.,10026.,0.800128712552,1.18876265865,455.
8.18,7963.,29.,14.,2020.,0.,0.,10026.,0.800128712552,1.43471355354,377.
8.2,7962.,28.,15.,2025.,0.,0.,10030.,0.799709177609,1.48517418699,364.
8.22,7958.,26.,14.,2031.,0.,0.,10029.,0.799387114259,1.59877422852,338.
8.24,7949.,26.,8.,2044.,0.,0.,10027.,0.798642324048,1.5972846481,338.
8.26,7935.,28.,18.,2045.,0.,0.,10026.,0.797315249793,1.48072832104,364.
8.28,7928.,27.,14.,2055.,0.,0.,10024.,0.796770825022,1.53452158893,351.
8.3,7926.,18.,17.,2065.,0.,0.,10026.,0.796410922477,2.30074266493,234.
8.32,7917.,20.,14.,2077.,0.,0.,10028.,0.795347938083,2.06790463901,260.
8.34,7908.,20.,11.,2088.,0.,0.,10027.,0.794523021585,2.06575985612,260.
8.36,7904.,25.,7.,2092.,0.,0.,10028.,0.794041948037,1.65160725192,325.
8.38,7897.,20.,5.,2104.,0.,0.,10026.,0.793496978905,2.06309214515,260.
8.4,7891.,18.,8.,2108.,0.,0.,10025.,0.792973185709,2.29081142538,234.
8.42,7877.,21.,12.,2112.,0.,0.,10022.,0.791803262614,1.9606556979,273.
8.44,7875.,17.,9.,2119.,0.,0.,10020.,0.791760225215,2.42185480654,221.
8.46,7874.,9.,3.,2127.,0.,0.,10013.,0.792213126538,4.57723139778,117.
8.48,7880.,5.,5.,2125.,0.,0.,10015.,0.792658468278,8.24364807009,65.
8.5,7881.,3.,3.,2125.,0.,0.,10012.,0.792996602121,13.7452744368,39.
8.52,7885.,2.,1.,2120.,0.,0.,10008.,0.79371619334,20.6366210269,26.
8.54,7889.,1.,2.,2114.,0.,0.,10006.,0.794277568006,41.3024335363,13.
8.56,7890.,1.,1.,2113.,0.,0.,10005.,0.794457647786,41.3117976849,13.
8.58,7893.,2.,1.,2110.,0.,0.,10006.,0.794680294622,20.6616876602,26.
8.6,7896.,2.,2.,2106.,0.,0.,10006.,0.794982339584,20.6695408292,26.
8.62,7897.,3.,0.,2104.,0.,0.,10004.,0.795241974261,13.7841942205,39.
8.64,7902.,3.,0.,2101.,0.,0.,10006.,0.795586429507,13.7901647781,39.
8.66,7907.,2.,1.,2097.,0.,0.,10007.,0.796010284481,20.6962673965,26.
8.68,7912.,1.,1.,2094.,0.,0.,10008.,0.796434054751,41.414570847,13.
8.7,7913.,0.,1.,2091.,0.,0.,10005.,0.796773557279,inf,0.
8.72,7917.,0.,0.,2086.,0.,0.,10003.,0.797335711596,inf,0.
8.74,7924.,1.,0.,2081.,0.,0.,10006.,0.797801425894,41.4856741465,13.
8.76,7935.,1.,0.,2071.,0.,0.,10007.,0.79882908908,41.5391126322,13.
8.78,7938.,1.,0.,2066.,0.,0.,10005.,0.799290850206,41.5631242107,13.
8.8,7944.,2.,0.,2060.,0.,0.,10006.,0.799815058973,20.7951915333,26.
8.82,7944.,0.,2.,2057.,0.,0.,10003.,0.800054931529,inf,0.
8.84,7938.,7.,0.,2057.,0.,0.,10002.,0.799530589513,5.93937009353,91.
8.86,7938.,6.,2.,2052.,0.,0.,9998.,0.799850465724,6.93203736961,78.
8.88,7941.,6.,4.,2046.,0.,0.,9997.,0.800232791657,6.93535086103,78.
8.9,7937.,11.,0.,2049.,0.,0.,9997.,0.799829702479,3.78101313899,143.
8.92,7937.,9.,1.,2050.,0.,0.,9997.,0.799829702479,4.62123828099,117.
8.94,7935.,7.,6.,2046.,0.,0.,9994.,0.799868190356,5.9418779855,91.
8.96,7932.,13.,4.,2045.,0.,0.,9994.,0.799565782723,3.19826313089,169.
8.98,7938.,9.,8.,2045.,0.,0.,10000.,0.799690495631,4.62043397476,117.
9.,7931.,14.,8.,2049.,0.,0.,10002.,0.798825536083,2.96706627688,182.
9.02,7928.,13.,14.,2046.,0.,0.,10001.,0.79860321468,3.19441285872,169.
9.04,7922.,24.,9.,2048.,0.,0.,10003.,0.797839270843,1.72865175349,312.
9.06,7909.,31.,14.,2047.,0.,0.,10001.,0.796689306875,1.33638206315,403.
9.08,7903.,29.,18.,2055.,0.,0.,10005.,0.795766640108,1.4268919064,377.
9.1,7875.,39.,13.,2076.,0.,0.,10003.,0.793105813922,1.05747441856,507.
9.12,7861.,32.,23.,2083.,0.,0.,9999.,0.79201255804,1.28702040682,416.
9.14,7841.,41.,15.,2102.,0.,0.,9999.,0.789997515277,1.00194806816,533.
9.16,7830.,36.,21.,2113.,0.,0.,10000.,0.788810352833,1.13939273187,468.
9.18,7815.,31.,23.,2127.,0.,0.,9996.,0.787614267596,1.32115941661,403.
9.2,7791.,43.,14.,2146.,0.,0.,9994.,0.785352623953,0.949728754548,559.
9.22,7775.,31.,22.,2160.,0.,0.,9988.,0.784210592082,1.31545002543,403.
9.24,7756.,37.,17.,2177.,0.,0.,9987.,0.782372524457,1.09955057491,481.
9.26,7754.,23.,26.,2184.,0.,0.,9987.,0.782170778061,1.76838610692,299.
9.28,7740.,26.,18.,2202.,0.,0.,9986.,0.780836738603,1.56167347721,338.
9.3,7741.,27.,10.,2208.,0.,0.,9986.,0.780937621902,1.50402801255,351.
9.32,7741.,22.,11.,2214.,0.,0.,9988.,0.780781246728,1.84548294681,286.
9.34,7736.,22.,13.,2217.,0.,0.,9988.,0.780276931234,1.84429092837,286.
9.36,7734.,19.,12.,2224.,0.,0.,9989.,0.779997111614,2.13472893705,247.
9.38,7731.,18.,10.,2230.,0.,0.,9989.,0.77969455261,2.25245092976,234.
9.4,7729.,15.,12.,2231.,0.,0.,9987.,0.779648948109,2.70278302011,195.
9.42,7721.,19.,8.,2237.,0.,0.,9985.,0.77899796492,2.13199443031,247.
9.44,7723.,11.,8.,2243.,0.,0.,9985.,0.779199751726,3.68348973543,143.
9.46,7723.,9.,9.,2242.,0.,0.,9983.,0.779355857056,4.50294495188,117.
9.48,7729.,7.,5.,2241.,0.,0.,9982.,0.780039475532,5.7945789611,91.
9.5,7729.,7.,1.,2244.,0.,0.,9981.,0.780117627969,5.79515952206,91.
9.52,7737.,3.,4.,2241.,0.,0.,9985.,0.780612259369,13.5306124957,39.
9.54,7749.,3.,1.,2241.,0.,0.,9994.,0.781118917085,13.5393945628,39.
9.56,7757.,0.,1.,2237.,0.,0.,9995.,0.781847105791,inf,0.
9.58,7770.,0.,0.,2227.,0.,0.,9997.,0.783000729276,inf,0.
9.6,7776.,0.,0.,2224.,0.,0.,10000.,0.783370281434,inf,0.
9.62,7784.,0.,0.,2218.,0.,0.,10002.,0.784019414055,inf,0.
9.64,7791.,0.,0.,2215.,0.,0.,10006.,0.784410765919,inf,0.
9.66,7797.,0.,0.,2210.,0.,0.,10007.,0.78493640927,inf,0.
9.68,7809.,1.,0.,2201.,0.,0.,10011.,0.78583035612,40.8631785182,13.
9.7,7819.,0.,0.,2195.,0.,0.,10014.,0.786600948813,inf,0.
9.72,7826.,1.,0.,2186.,0.,0.,10013.,0.78738378566,40.9439568543,13.
9.74,7834.,2.,0.,2177.,0.,0.,10013.,0.788188675807,20.492905571,26.
9.76,7836.,0.,3.,2174.,0.,0.,10013.,0.788389898343,inf,0.
9.78,7836.,1.,1.,2173.,0.,0.,10011.,0.788547403068,41.0044649595,13.
9.8,7844.,1.,0.,2167.,0.,0.,10012.,0.789273613378,41.0422278957,13.
9.82,7852.,3.,2.,2159.,0.,0.,10016.,0.789763057326,13.689226327,39.
9.84,7854.,4.,2.,2158.,0.,0.,10018.,0.789806510625,10.2674846381,52.
9.86,7855.,7.,1.,2155.,0.,0.,10018.,0.789907071678,5.86788110389,91.
9.88,7858.,8.,3.,2148.,0.,0.,10017.,0.790287641605,5.13686967043,104.
9.9,7862.,7.,0.,2149.,0.,0.,10018.,0.790610999049,5.87311027865,91.
9.92,7864.,7.,2.,2145.,0.,0.,10018.,0.790812121155,5.87460432858,91.
9.94,7858.,11.,1.,2143.,0.,0.,10013.,0.790603346246,3.7373976368,143.
9.96,7859.,11.,2.,2140.,0.,0.,10012.,0.790782933139,3.73824659302,143.
9.98,7859.,10.,2.,2140.,0.,0.,10011.,0.790861924542,4.11248200762,130.
10.,7863.,9.,3.,2136.,0.,0.,10011.,0.791264450015,4.57175015564,117.
