t,s,e,i,r,c,o,n,reff,coal,reportr
5.,9196.,2.,40.,762.,0.,0.,10000.,0.947701544849,24.6402401661,26.
5.02,9172.,22.,13.,794.,0.,0.,10001.,0.945133691215,2.23395236105,286.
5.04,9158.,27.,15.,801.,0.,0.,10001.,0.943691053657,1.8174790663,351.
5.06,9147.,29.,15.,811.,0.,0.,10002.,0.942463315811,1.68993422145,377.
5.08,9136.,25.,9.,833.,0.,0.,10003.,0.941235823439,1.95777051275,325.
5.1,9128.,26.,9.,839.,0.,0.,10002.,0.940505646302,1.8810112926,338.
5.12,9114.,24.,12.,850.,0.,0.,10000.,0.93925096561,2.03504375882,312.
5.14,9104.,21.,19.,856.,0.,0.,10000.,0.938220407166,2.32321243679,273.
5.16,9082.,31.,18.,870.,0.,0.,10001.,0.935859592631,1.56982899409,403.
5.18,9067.,29.,11.,892.,0.,0.,9999.,0.934500791004,1.67565659077,377.
5.2,9052.,28.,14.,901.,0.,0.,9995.,0.933328167343,1.73332373935,364.
5.22,9041.,25.,20.,911.,0.,0.,9997.,0.932007491218,1.93857558173,325.
5.24,9020.,30.,19.,928.,0.,0.,9997.,0.92984266904,1.611727293,390.
5.26,9017.,31.,9.,944.,0.,0.,10001.,0.929161632543,1.5585937062,403.
5.28,9011.,22.,12.,956.,0.,0.,10001.,0.928543359304,2.19473884926,286.
5.3,9003.,20.,10.,965.,0.,0.,9998.,0.927997366358,2.41279315253,260.
5.32,8998.,24.,8.,969.,0.,0.,9999.,0.927389226586,2.00934332427,312.
5.34,8989.,23.,7.,980.,0.,0.,9999.,0.926461631227,2.09460890538,299.
5.36,8987.,22.,5.,989.,0.,0.,10003.,0.925885107842,2.18845570945,286.
5.38,8983.,13.,10.,997.,0.,0.,10003.,0.925473008095,3.70189203238,169.
5.4,8971.,16.,5.,1009.,0.,0.,10001.,0.924421537711,3.00436999756,208.
5.42,8969.,14.,8.,1008.,0.,0.,9999.,0.924400308207,3.43348685905,182.
5.44,8961.,9.,9.,1017.,0.,0.,9996.,0.923852962606,5.33781711728,117.
5.46,8957.,9.,7.,1025.,0.,0.,9998.,0.923255849214,5.33436712879,117.
5.48,8957.,8.,9.,1024.,0.,0.,9998.,0.923255849214,6.00116301989,104.
5.5,8955.,8.,3.,1031.,0.,0.,9997.,0.923142028964,6.00042318826,104.
5.52,8956.,4.,6.,1033.,0.,0.,9999.,0.923060448244,11.9997858272,52.
5.54,8955.,5.,1.,1039.,0.,0.,10000.,0.922865086355,9.59779689809,65.
5.56,8954.,5.,2.,1037.,0.,0.,9998.,0.922946619835,9.59864484628,65.
5.58,8950.,3.,2.,1038.,0.,0.,9993.,0.922995904266,15.9985956739,39.
5.6,8950.,1.,3.,1040.,0.,0.,9994.,0.922903549263,47.9909845617,13.
5.62,8947.,4.,2.,1038.,0.,0.,9991.,0.922871223701,11.9973259081,52.
5.64,8946.,1.,5.,1039.,0.,0.,9991.,0.922768075023,47.9839399012,13.
5.66,8947.,2.,1.,1041.,0.,0.,9991.,0.922871223701,23.9946518162,26.
5.68,8952.,3.,0.,1039.,0.,0.,9994.,0.923109784693,16.0005696013,39.
5.7,8957.,2.,1.,1037.,0.,0.,9997.,0.923348202504,24.0070532651,26.
5.72,8961.,0.,1.,1036.,0.,0.,9998.,0.923668155052,inf,0.
5.74,8960.,0.,2.,1035.,0.,0.,9997.,0.923657462816,inf,0.
5.76,8965.,1.,1.,1034.,0.,0.,10001.,0.923803264472,48.0377697526,13.
5.78,8967.,1.,0.,1032.,0.,0.,10000.,0.924101756487,48.0532913373,13.
5.8,8972.,1.,0.,1030.,0.,0.,10003.,0.924339733789,48.065666157,13.
5.82,8971.,3.,0.,1027.,0.,0.,10001.,0.924421537711,16.0233066537,39.
5.84,8972.,5.,1.,1024.,0.,0.,10002.,0.924432149279,9.61409435251,65.
5.86,8972.,5.,3.,1022.,0.,0.,10002.,0.924432149279,9.61409435251,65.
5.88,8971.,7.,3.,1025.,0.,0.,10006.,0.923959604102,6.86369991619,91.
5.9,8965.,7.,6.,1027.,0.,0.,10005.,0.923433927835,6.85979489249,91.
5.92,8961.,9.,7.,1027.,0.,0.,10004.,0.923114175751,5.333548571,117.
5.94,8952.,15.,8.,1031.,0.,0.,10006.,0.922002717191,3.19627608626,195.
5.96,8940.,23.,11.,1031.,0.,0.,10005.,0.92085881928,2.08194167837,299.
5.98,8934.,18.,14.,1039.,0.,0.,10005.,0.920240793226,2.65847340265,234.
6.,8926.,17.,12.,1048.,0.,0.,10003.,0.919600586692,2.81289591223,221.
6.02,8912.,22.,6.,1060.,0.,0.,10000.,0.918433685047,2.17084325557,286.
6.04,8904.,22.,3.,1069.,0.,0.,9998.,0.917792796851,2.16932842892,286.
6.06,8897.,19.,10.,1069.,0.,0.,9995.,0.917346520642,2.51063258281,247.
6.08,8896.,21.,6.,1075.,0.,0.,9998.,0.916968185174,2.2705878871,273.
6.1,8889.,23.,6.,1080.,0.,0.,9998.,0.916246649956,2.07151416512,299.
6.12,8888.,25.,8.,1082.,0.,0.,10003.,0.91568563909,1.90462612931,325.
6.14,8874.,21.,16.,1089.,0.,0.,10000.,0.914517562961,2.26451967971,273.
6.16,8862.,25.,15.,1096.,0.,0.,9998.,0.913463585545,1.90000425793,325.
6.18,8843.,28.,18.,1112.,0.,0.,10001.,0.911231708614,1.69228745886,364.
6.2,8830.,28.,17.,1126.,0.,0.,10001.,0.909892116597,1.68979964511,364.
6.22,8824.,27.,19.,1133.,0.,0.,10003.,0.909092043129,1.75084393492,351.
6.24,8813.,30.,13.,1147.,0.,0.,10003.,0.907958768823,1.57379519929,390.
6.26,8808.,25.,17.,1156.,0.,0.,10006.,0.907171574288,1.88691687452,325.
6.28,8795.,26.,13.,1170.,0.,0.,10004.,0.906013745757,1.81202749151,338.
6.3,8788.,25.,12.,1180.,0.,0.,10005.,0.905202159265,1.88282049127,325.
6.32,8775.,20.,14.,1196.,0.,0.,10005.,0.903863102816,2.35004406732,260.
6.34,8771.,21.,8.,1209.,0.,0.,10009.,0.903090029963,2.23622293134,273.
6.36,8763.,21.,11.,1212.,0.,0.,10007.,0.902446651579,2.23462980391,273.
6.38,8754.,16.,12.,1223.,0.,0.,10005.,0.90170001163,2.9305250378,208.
6.4,8746.,16.,6.,1233.,0.,0.,10001.,0.901236291252,2.92901794657,208.
6.42,8743.,10.,11.,1237.,0.,0.,10001.,0.900927154633,4.68482120409,130.
6.44,8738.,9.,5.,1250.,0.,0.,10002.,0.900321903745,5.20185988831,117.
6.46,8740.,9.,2.,1254.,0.,0.,10005.,0.900257950839,5.20149038263,117.
6.48,8738.,9.,3.,1253.,0.,0.,10003.,0.900231898557,5.20133985833,117.
6.5,8740.,7.,0.,1257.,0.,0.,10004.,0.900347940639,6.6882989876,91.
6.52,8739.,1.,3.,1259.,0.,0.,10002.,0.900424938983,46.8220968271,13.
6.54,8748.,1.,0.,1258.,0.,0.,10007.,0.900901895243,46.8468985526,13.
6.56,8754.,1.,0.,1256.,0.,0.,10011.,0.901159586091,46.8602984768,13.
6.58,8751.,2.,0.,1257.,0.,0.,10010.,0.90094075335,23.4244595871,26.
6.6,8756.,1.,1.,1253.,0.,0.,10011.,0.901365471306,46.8710045079,13.
6.62,8763.,1.,1.,1249.,0.,0.,10014.,0.901815822085,46.8944227484,13.
6.64,8758.,1.,0.,1250.,0.,0.,10009.,0.901751508656,46.8910784501,13.
6.66,8758.,1.,1.,1247.,0.,0.,10007.,0.901931732801,46.9004501056,13.
6.68,8760.,0.,0.,1250.,0.,0.,10010.,0.901867329373,inf,0.
6.7,8763.,0.,0.,1248.,0.,0.,10011.,0.902086069559,inf,0.
6.72,8771.,1.,1.,1242.,0.,0.,10015.,0.902548987509,46.9325473505,13.
6.74,8769.,2.,1.,1242.,0.,0.,10014.,0.902433292692,23.46326561,26.
6.76,8768.,3.,2.,1238.,0.,0.,10011.,0.902600782596,15.6450802317,39.
6.78,8766.,1.,3.,1239.,0.,0.,10009.,0.902575214076,46.9339111319,13.
6.8,8769.,4.,0.,1239.,0.,0.,10012.,0.902613563026,11.7339763193,52.
6.82,8769.,4.,1.,1239.,0.,0.,10013.,0.902523418857,11.7328044451,52.
6.84,8769.,4.,1.,1236.,0.,0.,10010.,0.902793905396,11.7363207702,52.
6.86,8771.,7.,1.,1233.,0.,0.,10012.,0.902819427677,6.7066586056,91.
6.88,8772.,4.,5.,1233.,0.,0.,10014.,0.902742027996,11.7356463639,52.
6.9,8768.,8.,3.,1232.,0.,0.,10011.,0.902600782596,5.86690508688,104.
6.92,8767.,11.,3.,1228.,0.,0.,10009.,0.902678177253,4.26720592883,143.
6.94,8760.,12.,4.,1231.,0.,0.,10007.,0.902137700312,3.90926336802,156.
6.96,8749.,9.,7.,1238.,0.,0.,10003.,0.901365172862,5.20788766543,117.
6.98,8743.,9.,10.,1240.,0.,0.,10002.,0.900837079932,5.20483646183,117.
7.,8738.,17.,1.,1248.,0.,0.,10004.,0.900141911362,2.75337525828,221.
7.02,8735.,13.,6.,1249.,0.,0.,10003.,0.899922823746,3.59969129498,169.
7.04,8728.,17.,4.,1251.,0.,0.,10000.,0.899471409682,2.75132431197,221.
7.06,8725.,13.,10.,1253.,0.,0.,10001.,0.899072334916,3.59628933966,169.
7.08,8714.,14.,13.,1259.,0.,0.,10000.,0.898028627861,3.33553490348,182.
7.1,8698.,22.,14.,1266.,0.,0.,10000.,0.896379734351,2.11871573574,286.
7.12,8681.,20.,15.,1278.,0.,0.,9994.,0.895164883927,2.32742869821,260.
7.14,8671.,27.,13.,1285.,0.,0.,9996.,0.893954808477,1.72169074225,351.
7.16,8665.,26.,18.,1287.,0.,0.,9996.,0.893336225977,1.78667245195,338.
7.18,8642.,32.,17.,1302.,0.,0.,9993.,0.891232469795,1.44825276342,416.
7.2,8632.,27.,18.,1315.,0.,0.,9992.,0.890290280847,1.71463313348,351.
7.22,8615.,33.,10.,1332.,0.,0.,9990.,0.888714814082,1.40039910098,429.
7.24,8606.,38.,7.,1340.,0.,0.,9991.,0.887697524441,1.21474398081,494.
7.26,8605.,32.,9.,1350.,0.,0.,9996.,0.887150400985,1.4416194016,416.
7.28,8608.,24.,14.,1351.,0.,0.,9997.,0.887370919634,1.92263699254,312.
7.3,8598.,28.,8.,1361.,0.,0.,9995.,0.886517408618,1.64638947315,364.
7.32,8594.,14.,16.,1370.,0.,0.,9994.,0.886193642722,3.29157638725,182.
7.34,8581.,14.,7.,1387.,0.,0.,9989.,0.885296026188,3.28824238299,182.
7.36,8573.,13.,11.,1392.,0.,0.,9989.,0.884470671543,3.53788268617,169.
7.38,8569.,12.,4.,1403.,0.,0.,9988.,0.884146506235,3.83130152702,156.
7.4,8570.,7.,7.,1401.,0.,0.,9985.,0.884515359311,6.57068552631,91.
7.42,8559.,13.,8.,1404.,0.,0.,9984.,0.883468521618,3.53387408647,169.
7.44,8557.,16.,3.,1411.,0.,0.,9987.,0.882996756078,2.86973945725,208.
7.46,8559.,8.,6.,1413.,0.,0.,9986.,0.883291580196,5.74139527127,104.
7.48,8556.,9.,0.,1420.,0.,0.,9985.,0.883070410065,5.10218459149,117.
7.5,8558.,5.,6.,1418.,0.,0.,9987.,0.883099946069,9.18423943912,65.
7.52,8556.,7.,4.,1418.,0.,0.,9985.,0.883070410065,6.55995161763,91.
7.54,8561.,1.,6.,1419.,0.,0.,9987.,0.883409516043,45.9372948342,13.
7.56,8561.,2.,0.,1423.,0.,0.,9986.,0.883497980845,22.970947502,26.
7.58,8565.,2.,0.,1422.,0.,0.,9989.,0.883645316898,22.9747782394,26.
7.6,8567.,2.,1.,1420.,0.,0.,9990.,0.88376318192,22.9778427299,26.
7.62,8571.,0.,0.,1422.,0.,0.,9993.,0.883910379381,inf,0.
7.64,8572.,0.,0.,1420.,0.,0.,9992.,0.884101979544,inf,0.
7.66,8576.,0.,0.,1417.,0.,0.,9993.,0.884426019551,inf,0.
7.68,8576.,0.,0.,1416.,0.,0.,9992.,0.884514532964,inf,0.
7.7,8573.,1.,0.,1413.,0.,0.,9987.,0.884647795939,46.0016853888,13.
7.72,8570.,2.,0.,1417.,0.,0.,9989.,0.884161163551,22.9881902523,26.
7.74,8573.,2.,0.,1415.,0.,0.,9990.,0.884382135941,22.9939355345,26.
7.76,8577.,1.,1.,1412.,0.,0.,9991.,0.884706212774,46.0047230642,13.
7.78,8579.,2.,1.,1407.,0.,0.,9989.,0.885089687527,23.0123318757,26.
7.8,8584.,1.,3.,1403.,0.,0.,9991.,0.885428253521,46.0422691831,13.
7.82,8585.,5.,2.,1401.,0.,0.,9993.,0.885354171857,9.20768338732,65.
7.84,8585.,10.,2.,1397.,0.,0.,9994.,0.885265583287,4.60338103309,130.
7.86,8585.,11.,1.,1395.,0.,0.,9992.,0.88544277816,4.18572949675,143.
7.88,8590.,7.,6.,1393.,0.,0.,9996.,0.885603944737,6.5787721609,91.
7.9,8588.,11.,6.,1391.,0.,0.,9996.,0.88539775057,4.18551663906,143.
7.92,8588.,8.,5.,1396.,0.,0.,9997.,0.885309184226,5.75450969747,104.
7.94,8590.,8.,6.,1396.,0.,0.,10000.,0.885249703159,5.75412307053,104.
7.96,8584.,11.,8.,1395.,0.,0.,9998.,0.884808329759,4.18273028613,143.
7.98,8584.,9.,7.,1403.,0.,0.,10003.,0.884366058275,5.10967055892,117.
8.,8573.,18.,5.,1405.,0.,0.,10001.,0.883409412863,2.55207163716,234.
8.02,8575.,21.,7.,1399.,0.,0.,10002.,0.883527160061,2.1877815392,273.
8.04,8569.,23.,12.,1399.,0.,0.,10003.,0.882820684222,1.9959424165,299.
8.06,8557.,28.,8.,1407.,0.,0.,10000.,0.881848860295,1.63771931198,364.
8.08,8556.,22.,12.,1414.,0.,0.,10004.,0.881393247151,2.08329312963,286.
8.1,8548.,20.,13.,1423.,0.,0.,10004.,0.880569130043,2.28947973811,260.
8.12,8535.,28.,12.,1432.,0.,0.,10007.,0.87896635527,1.63236608836,364.
8.14,8524.,23.,13.,1445.,0.,0.,10005.,0.878009012924,1.98506385531,299.
8.16,8513.,27.,15.,1450.,0.,0.,10005.,0.87687596516,1.68879815512,351.
8.18,8499.,34.,14.,1459.,0.,0.,10006.,0.875346413473,1.33876510296,442.
8.2,8495.,27.,17.,1472.,0.,0.,10011.,0.874497450748,1.68421731255,351.
8.22,8484.,26.,15.,1484.,0.,0.,10009.,0.873539598017,1.74707919603,338.
8.24,8469.,24.,17.,1498.,0.,0.,10008.,0.872082280166,1.88951160703,312.
8.26,8458.,22.,9.,1520.,0.,0.,10009.,0.870862555402,2.05840240368,286.
8.28,8452.,24.,7.,1526.,0.,0.,10009.,0.870244776337,1.88553034873,312.
8.3,8443.,26.,4.,1534.,0.,0.,10007.,0.869491849741,1.73898369948,338.
8.32,8441.,19.,13.,1534.,0.,0.,10007.,0.86928588223,2.379098204,247.
8.34,8431.,18.,8.,1549.,0.,0.,10006.,0.868342818213,2.50854591928,234.
8.36,8428.,15.,8.,1556.,0.,0.,10007.,0.867947093405,3.00888325714,195.
8.38,8428.,13.,8.,1559.,0.,0.,10008.,0.867860368076,3.4714414723,169.
8.4,8426.,11.,3.,1567.,0.,0.,10007.,0.867741125894,4.10204895877,143.
8.42,8426.,12.,3.,1562.,0.,0.,10003.,0.868088118246,3.76171517907,156.
8.44,8414.,10.,8.,1567.,0.,0.,9999.,0.867198594409,4.50943269093,130.
8.46,8412.,14.,6.,1567.,0.,0.,9999.,0.866992462107,3.2202577164,182.
8.48,8414.,9.,7.,1572.,0.,0.,10002.,0.866938486852,5.00897792403,117.
8.5,8414.,6.,3.,1581.,0.,0.,10004.,0.866765168482,7.51196479351,78.
8.52,8414.,5.,1.,1581.,0.,0.,10001.,0.867025172032,9.01706178914,65.
8.54,8417.,1.,4.,1579.,0.,0.,10001.,0.867334308652,45.1013840499,13.
8.56,8417.,2.,2.,1582.,0.,0.,10003.,0.867160893814,22.5461832392,26.
8.58,8421.,3.,0.,1584.,0.,0.,10008.,0.867139553817,15.0304189328,39.
8.6,8420.,1.,3.,1583.,0.,0.,10007.,0.867123223359,45.0904076147,13.
8.62,8423.,1.,3.,1580.,0.,0.,10007.,0.867432174627,45.1064730806,13.
8.64,8434.,0.,0.,1578.,0.,0.,10012.,0.868131233956,inf,0.
8.66,8440.,1.,0.,1572.,0.,0.,10013.,0.868662065818,45.1704274225,13.
8.68,8439.,0.,1.,1570.,0.,0.,10010.,0.868819451208,inf,0.
8.7,8438.,1.,0.,1569.,0.,0.,10008.,0.868890102732,45.1822853421,13.
8.72,8439.,2.,0.,1566.,0.,0.,10007.,0.869079914718,22.5960777827,26.
8.74,8445.,1.,0.,1566.,0.,0.,10012.,0.869263489538,45.201701456,13.
8.76,8448.,2.,0.,1562.,0.,0.,10012.,0.869572286514,22.6088794494,26.
8.78,8451.,2.,1.,1560.,0.,0.,10014.,0.869707350501,22.612391113,26.
8.8,8457.,1.,2.,1554.,0.,0.,10014.,0.870324821108,45.2568906976,13.
8.82,8464.,2.,1.,1548.,0.,0.,10015.,0.870958229424,22.644913965,26.
8.84,8467.,4.,1.,1547.,0.,0.,10019.,0.870919088034,11.3219481444,52.
8.86,8470.,5.,3.,1543.,0.,0.,10021.,0.871053788878,9.05895940433,65.
8.88,8464.,7.,5.,1543.,0.,0.,10019.,0.870610506805,6.46739233627,91.
8.9,8468.,8.,2.,1545.,0.,0.,10023.,0.870674339165,5.65938320458,104.
8.92,8463.,7.,3.,1546.,0.,0.,10019.,0.870507646396,6.46662823037,91.
8.94,8463.,7.,5.,1545.,0.,0.,10020.,0.870420769385,6.46598285829,91.
8.96,8456.,15.,4.,1543.,0.,0.,10018.,0.86987444601,3.01556474617,195.
8.98,8455.,7.,12.,1541.,0.,0.,10015.,0.870032115995,6.46309571882,91.
9.,8445.,18.,3.,1550.,0.,0.,10016.,0.868916339582,2.51020275879,234.
9.02,8447.,16.,4.,1550.,0.,0.,10017.,0.869035357306,2.82436491125,208.
9.04,8442.,14.,9.,1548.,0.,0.,10013.,0.868867909909,3.22722366538,182.
9.06,8427.,26.,9.,1551.,0.,0.,10013.,0.867324079223,1.73464815845,338.
9.08,8414.,23.,12.,1565.,0.,0.,10014.,0.865899615088,1.95768608629,299.
9.1,8398.,24.,17.,1574.,0.,0.,10013.,0.864339339898,1.87273523644,312.
9.12,8381.,28.,17.,1586.,0.,0.,10012.,0.8626758207,1.60211223844,364.
9.14,8358.,33.,24.,1596.,0.,0.,10011.,0.86039431352,1.35577285767,429.
9.16,8331.,39.,16.,1621.,0.,0.,10007.,0.857957669098,1.1439435588,507.
9.18,8320.,36.,14.,1639.,0.,0.,10009.,0.856653636905,1.23738858664,468.
9.2,8312.,32.,15.,1653.,0.,0.,10012.,0.855573490235,1.39030692163,416.
9.22,8292.,40.,15.,1664.,0.,0.,10011.,0.853600101424,1.10968013185,520.
9.24,8286.,26.,26.,1673.,0.,0.,10011.,0.852982445779,1.70596489156,338.
9.26,8282.,20.,16.,1689.,0.,0.,10007.,0.852911465067,2.21756980917,260.
9.28,8272.,23.,10.,1700.,0.,0.,10005.,0.852051918689,1.92637825095,299.
9.3,8273.,20.,11.,1703.,0.,0.,10007.,0.851984611265,2.21515998929,260.
9.32,8271.,18.,11.,1710.,0.,0.,10010.,0.851523365439,2.45995638905,234.
9.34,8260.,16.,14.,1722.,0.,0.,10012.,0.850221009305,2.76321828024,208.
9.36,8254.,13.,2.,1742.,0.,0.,10011.,0.849688282339,3.39875312936,169.
9.38,8256.,13.,3.,1740.,0.,0.,10012.,0.849809280003,3.39923712001,169.
9.4,8257.,9.,9.,1739.,0.,0.,10014.,0.849742467528,4.90962314572,117.
9.42,8256.,14.,4.,1742.,0.,0.,10016.,0.8494698993,3.15517391168,182.
9.44,8256.,8.,8.,1743.,0.,0.,10015.,0.84955471906,5.52210567389,104.
9.46,8255.,8.,1.,1751.,0.,0.,10015.,0.849451817568,5.52143681419,104.
9.48,8258.,6.,3.,1745.,0.,0.,10012.,0.850015144654,7.36679792033,78.
9.5,8256.,5.,2.,1748.,0.,0.,10011.,0.849894167554,8.83889934256,65.
9.52,8261.,0.,0.,1751.,0.,0.,10012.,0.850323941631,inf,0.
9.54,8265.,0.,0.,1744.,0.,0.,10009.,0.850990662142,inf,0.
9.56,8274.,1.,0.,1736.,0.,0.,10011.,0.851747134489,44.2908509934,13.
9.58,8275.,0.,2.,1733.,0.,0.,10010.,0.851935177005,inf,0.
9.6,8276.,1.,0.,1731.,0.,0.,10008.,0.852208401305,44.3148368679,13.
9.62,8274.,2.,0.,1729.,0.,0.,10005.,0.852257927374,22.1587061117,26.
9.64,8278.,1.,0.,1728.,0.,0.,10007.,0.852499530044,44.3299755623,13.
9.66,8282.,0.,1.,1725.,0.,0.,10008.,0.852826242099,inf,0.
9.68,8288.,0.,1.,1720.,0.,0.,10009.,0.853358815225,inf,0.
9.7,8292.,3.,1.,1716.,0.,0.,10012.,0.853514843724,14.7942572912,39.
9.72,8299.,1.,2.,1713.,0.,0.,10015.,0.853979483222,44.4069331275,13.
9.74,8306.,2.,1.,1710.,0.,0.,10019.,0.854358562089,22.2133226143,26.
9.76,8310.,0.,1.,1705.,0.,0.,10016.,0.855026025095,inf,0.
9.78,8309.,1.,0.,1705.,0.,0.,10015.,0.855008498143,44.4604419034,13.
9.8,8319.,2.,0.,1696.,0.,0.,10017.,0.855866596121,22.2525314991,26.
9.82,8326.,3.,0.,1692.,0.,0.,10021.,0.856244846068,14.8415773318,39.
9.84,8325.,2.,2.,1689.,0.,0.,10018.,0.856398387303,22.2663580699,26.
9.86,8330.,4.,1.,1683.,0.,0.,10018.,0.856912740689,11.139865629,52.
9.88,8331.,2.,3.,1683.,0.,0.,10019.,0.856930072329,22.2801818806,26.
9.9,8338.,5.,2.,1678.,0.,0.,10023.,0.857307822386,8.91600135281,65.
9.92,8336.,6.,3.,1677.,0.,0.,10022.,0.857187705736,7.42896011638,78.
9.94,8333.,6.,5.,1678.,0.,0.,10022.,0.856879216878,7.42628654628,78.
9.96,8326.,9.,3.,1682.,0.,0.,10020.,0.856330299645,4.94768617573,117.
9.98,8320.,10.,6.,1681.,0.,0.,10017.,0.855969477067,4.45104128075,130.
10.,8317.,15.,5.,1681.,0.,0.,10018.,0.855575421886,2.96599479587,195.
