t,neff
5.,0.391148158192
5.02,0.391442825693
5.04,0.507088458
5.06,0.60013101155
5.08,0.693638417485
5.1,0.532119362339
5.12,0.742533221305
5.14,0.883706222746
5.16,0.814742586563
5.18,0.768897862179
5.2,0.864041078461
5.22,0.724238736178
5.24,0.701573932681
5.26,0.749389727542
5.28,0.492261782019
5.3,0.5867868571
5.32,0.610624295087
5.34,0.587922772978
5.36,0.470102813869
5.38,0.352600739594
5.4,0.32906107468
5.42,0.375956819269
5.44,0.164404277042
5.46,0.187777804047
5.48,0.164070253527
5.5,0.140500573856
5.52,0.163770606882
5.54,0.0700850162532
5.56,0.0466799547754
5.58,0.
5.6,0.
5.62,0.023246694515
5.64,0.
5.66,0.
5.68,0.
5.7,0.
5.72,0.0231146168508
5.74,0.
5.76,0.
5.78,0.0460060496479
5.8,0.045954021913
5.82,0.0229531116671
5.84,0.0916608569283
5.86,0.137424270956
5.88,0.206028232529
5.9,0.160068253964
5.92,0.137179109266
5.94,0.206028232529
5.96,0.343380387548
5.98,0.43531289502
6.,0.320640549874
6.02,0.320660594816
6.04,0.320392195971
6.06,0.389174083325
6.08,0.274560171838
6.1,0.389154801383
6.12,0.343457609186
6.14,0.48110521413
6.16,0.57344739634
6.18,0.597028298743
6.2,0.64393882714
6.22,0.807112466144
6.24,0.739209060985
6.26,0.693919149725
6.28,0.462368247086
6.3,0.393375330735
6.32,0.370502976943
6.34,0.510229776533
6.36,0.440520607594
6.38,0.486862997771
6.4,0.417009643697
6.42,0.486545975932
6.44,0.347098511523
6.46,0.277633205866
6.48,0.161691645875
6.5,0.115402566589
6.52,0.0691892367945
6.54,0.0230465102698
6.56,0.0230096938101
6.58,0.
6.6,0.068917241146
6.62,0.0688766537859
6.64,0.0459056928261
6.66,0.
6.68,0.
6.7,0.0228754364859
6.72,0.0228480477958
6.74,0.0228204019762
6.76,0.0227857681069
6.78,0.0455171941444
6.8,0.0908986905437
6.82,0.090702909489
6.84,0.0905225483543
6.86,0.0678306348814
6.88,0.112971704793
6.9,0.0902796609415
6.92,0.157926128623
6.94,0.135273077968
6.96,0.225419010893
6.98,0.247871515124
7.,0.38331212124
7.02,0.360851061164
7.04,0.496667824376
7.06,0.542363169574
7.08,0.542799012687
7.1,0.543980358155
7.12,0.567024040165
7.14,0.54404665145
7.16,0.635873283798
7.18,0.61372039044
7.2,0.796801896537
7.22,0.638164357116
7.24,0.433531711649
7.26,0.593891268115
7.28,0.616933543062
7.3,0.617234241783
7.32,0.549098718435
7.34,0.526028627793
7.36,0.2286851801
7.38,0.388866988494
7.4,0.274315927955
7.42,0.251349382241
7.44,0.159855674278
7.46,0.205162303332
7.48,0.18207140044
7.5,0.0909124280365
7.52,0.113548800678
7.54,0.0907274032186
7.56,0.0226590335096
7.58,0.0226302797425
7.6,0.0226016642841
7.62,0.
7.64,0.0225310524168
7.66,0.
7.68,0.
7.7,0.
7.72,0.
7.74,0.
7.76,0.
7.78,0.0223506381371
7.8,0.0223200138246
7.82,0.
7.84,0.0222570022595
7.86,0.0667105022093
7.88,0.0666578249332
7.9,0.0666167462141
7.92,0.110900600915
7.94,0.266142238789
7.96,0.265829828073
7.98,0.265662560602
8.,0.287904054855
8.02,0.265730973415
8.04,0.287801107319
8.06,0.287694167601
8.08,0.398425567354
8.1,0.664698168425
8.12,0.509245083944
8.14,0.754251874156
8.16,0.666460800928
8.18,0.75735235617
8.2,0.825757926939
8.22,0.759419063302
8.24,0.715882954827
8.26,0.603763486193
8.28,0.491622763198
8.3,0.514622637787
8.32,0.536454575687
8.34,0.468708585289
8.36,0.245241875474
8.38,0.356546074677
8.4,0.312001010405
8.42,0.244939391136
8.44,0.200286633983
8.46,0.222390622094
8.48,0.177713180453
8.5,0.155342985103
8.52,0.022177544287
8.54,0.0221509017051
8.56,0.
8.58,0.0220829658683
8.6,0.
8.62,0.
8.64,0.
8.66,0.
8.68,0.0218794194681
8.7,0.0218498278961
8.72,0.0218261075494
8.74,0.0217835787736
8.76,0.0652764224373
8.78,0.0217354592551
8.8,0.0217139732406
8.82,0.0216972315496
8.84,0.065021997356
8.86,0.064992433505
8.88,0.12993784361
8.9,0.173099814692
8.92,0.259476124355
8.94,0.237719622186
8.96,0.324197771901
8.98,0.237794305098
9.,0.302445104353
9.02,0.324096004149
9.04,0.345968165806
9.06,0.476460907492
9.08,0.69470234638
9.1,0.500034491062
9.12,0.587418745238
9.14,0.697741396873
9.16,0.808265609897
9.18,0.677443037527
9.2,0.568078498427
9.22,0.722055501629
9.24,0.635266017793
9.26,0.481476735946
9.28,0.481423518658
9.3,0.569163322908
9.32,0.613360293042
9.34,0.394443296051
9.36,0.460393570477
9.38,0.394544120007
9.4,0.328585871272
9.42,0.262868697018
9.44,0.306915388106
9.46,0.241187996054
9.48,0.285011834969
9.5,0.175335399915
9.52,0.131316338269
9.54,0.0656042868696
9.56,0.0436883001752
9.58,0.0435846028614
9.6,0.0217764622139
9.62,0.0435303874904
9.64,0.
9.66,0.
9.68,0.
9.7,0.
9.72,0.
9.74,0.
9.76,0.
9.78,0.0215543285002
9.8,0.0430846006701
9.82,0.0646078817392
9.84,0.172225983075
9.86,0.236691086196
9.88,0.107542711972
9.9,0.322711310704
9.92,0.279683135943
9.94,0.322777564296
9.96,0.344207289377
9.98,0.279653713784
10.,0.258352592465
