t,neff
5.,0.950893892937
5.02,0.819665435993
5.04,0.598409016727
5.06,0.687914415603
5.08,0.733058595866
5.1,0.867975476552
5.12,0.824637356833
5.14,0.737470477483
5.16,0.783684612845
5.18,0.875066731602
5.2,0.786652627087
5.22,0.720553562556
5.24,0.631175081082
5.26,0.768568858935
5.28,0.678594668128
5.3,0.680409095746
5.32,0.681061336341
5.34,0.476811168292
5.36,0.408929395821
5.38,0.15899844499
5.4,0.409321945342
5.42,0.272607790439
5.44,0.204271524408
5.46,0.18152275795
5.48,0.158705274308
5.5,0.226773732733
5.52,0.113242808979
5.54,0.0678962690598
5.56,0.0226059627364
5.58,0.0225917873229
5.6,0.0225747500376
5.62,0.0225606060961
5.64,0.
5.66,0.
5.68,0.
5.7,0.
5.72,0.
5.74,0.
5.76,0.
5.78,0.
5.8,0.0447230209401
5.82,0.0893883010448
5.84,0.0893326915031
5.86,0.0892503645193
5.88,0.20084158781
5.9,0.245314935079
5.92,0.178342864719
5.94,0.312257152819
5.96,0.245295851522
5.98,0.289906902383
6.,0.446946064823
6.02,0.357441352361
6.04,0.379973354118
6.06,0.424651052172
6.08,0.649526556322
6.1,0.515472376576
6.12,0.650918241376
6.14,0.719171662031
6.16,0.810609939304
6.18,0.721537042452
6.2,0.654824681606
6.22,0.814487103795
6.24,0.475797187483
6.26,0.589849756495
6.28,0.657957181229
6.3,0.681269683416
6.32,0.65972456885
6.34,0.683985918364
6.36,0.455904981779
6.38,0.433210100157
6.4,0.364861033617
6.42,0.250700670327
6.44,0.227896890881
6.46,0.204862433291
6.48,0.113752039042
6.5,0.18195334991
6.52,0.159049355519
6.54,0.0226975685706
6.56,0.0453762572182
6.58,0.022656016967
6.6,0.0226372546359
6.62,0.0226104517065
6.64,0.
6.66,0.0677501380711
6.68,0.0451160134398
6.7,0.0450948542106
6.72,0.0450616130152
6.74,0.0224992039822
6.76,0.0449747775792
6.78,0.0224692157195
6.8,0.0449332029857
6.82,0.067360504234
6.84,0.134658173485
6.86,0.179442607296
6.88,0.179345473901
6.9,0.201632849499
6.92,0.179110000507
6.94,0.201505772583
6.96,0.201489147806
6.98,0.291056955085
7.,0.290998801847
7.02,0.268593809467
7.04,0.3358984172
7.06,0.470789900386
7.08,0.538502604064
7.1,0.493833040307
7.12,0.606264670703
7.14,0.516460634489
7.16,0.562039747244
7.18,0.58498509217
7.2,0.585542183963
7.22,0.473657997629
7.24,0.678149988368
7.26,0.588341947725
7.28,0.726436053681
7.3,0.749954095409
7.32,0.636936378893
7.34,0.728063508162
7.36,0.432225651165
7.38,0.386882905487
7.4,0.22735565504
7.42,0.341576307678
7.44,0.250331481863
7.46,0.295825846068
7.48,0.136540955994
7.5,0.022750002363
7.52,0.0227229233401
7.54,0.0226946257822
7.56,0.0680916061377
7.58,0.0226747953916
7.6,0.0226511552936
7.62,0.0226337015851
7.64,0.0452306047489
7.66,0.0225760477129
7.68,0.022552281212
7.7,0.0225308065076
7.72,0.0225135103638
7.74,0.
7.76,0.0224876029537
7.78,0.0224675396794
7.8,0.
7.82,0.0448969017212
7.84,0.089744482314
7.86,0.112085453951
7.88,0.11198001851
7.9,0.179247120682
7.92,0.201636325579
7.94,0.269060856918
7.96,0.291424310133
7.98,0.179464975027
8.,0.246729412941
8.02,0.336673459225
8.04,0.359306923123
8.06,0.33681656214
8.08,0.336979407356
8.1,0.35992464639
8.12,0.495604912206
8.14,0.586616502212
8.16,0.519381363753
8.18,0.452086702979
8.2,0.589435051243
8.22,0.612333386127
8.24,0.499295311127
8.26,0.522520894661
8.28,0.63650460513
8.3,0.613948264635
8.32,0.409610256493
8.34,0.364475417781
8.36,0.296051204762
8.38,0.296106678119
8.4,0.318824374359
8.42,0.182091000717
8.44,0.227591005443
8.46,0.295999500278
8.48,0.204658314534
8.5,0.13637071826
8.52,0.090912617069
8.54,0.0908072098772
8.56,0.0680021053989
8.58,0.0452913323399
8.6,0.0226194753562
8.62,0.0451899256799
8.64,0.0677655600657
8.66,0.0677287921902
8.68,0.0451017886624
8.7,0.0450561856058
8.72,0.022506629569
8.74,0.0224957306241
8.76,0.0224638127317
8.78,0.067374016647
8.8,0.134633402895
8.82,0.0672662183852
8.84,0.0896979480111
8.86,0.179500705149
8.88,0.157005520936
8.9,0.201810474275
8.92,0.336589168056
8.94,0.224456409153
8.96,0.269397121461
8.98,0.201896265889
9.,0.314162974292
9.02,0.47155120136
9.04,0.471523670125
9.06,0.449573202549
9.08,0.607950926701
9.1,0.563398856509
9.12,0.81233625537
9.14,0.564412028882
9.16,0.837926230112
9.18,0.725336503528
9.2,0.749119022441
9.22,0.590122328541
9.24,0.63591738259
9.26,0.614290864316
9.28,0.797749509525
9.3,0.798891121043
9.32,0.68483243852
9.34,0.547549813513
9.36,0.387194504936
9.38,0.296102891925
9.4,0.250512514355
9.42,0.204905759336
9.44,0.204873651519
9.46,0.182083690731
9.48,0.136399698683
9.5,0.0908143717868
9.52,0.022691537011
9.54,0.0226544551519
9.56,0.0453043657793
9.58,0.
9.6,0.
9.62,0.
9.64,0.
9.66,0.
9.68,0.
9.7,0.
9.72,0.0450859680593
9.74,0.0450788371827
9.76,0.022510880663
9.78,0.0224888272348
9.8,0.0224760404105
9.82,0.0449066488682
9.84,0.0897420732398
9.86,0.0223942064491
9.88,0.156816869064
9.9,0.179201312085
9.92,0.0895372084738
9.94,0.201626563573
9.96,0.156814154552
9.98,0.291255491426
10.,0.268844717354
