t,prevalence
5.,9
5.02,4
5.04,9
5.06,6
5.08,6
5.1,3
5.12,3
5.14,10
5.16,8
5.18,9
5.2,4
5.22,5
5.24,8
5.26,9
5.28,4
5.3,12
5.32,10
5.34,10
5.36,4
5.38,5
5.4,6
5.42,5
5.44,4
5.46,0
5.48,0
5.5,1
5.52,0
5.54,1
5.56,0
5.58,0
5.6,0
5.62,0
5.64,0
5.66,0
5.68,0
5.7,0
5.72,0
5.74,0
5.76,0
5.78,0
5.8,0
5.82,1
5.84,1
5.86,0
5.88,1
5.9,2
5.92,3
5.94,5
5.96,4
5.98,3
6.,6
6.02,5
6.04,5
6.06,7
6.08,8
6.1,8
6.12,9
6.14,2
6.16,10
6.18,7
6.2,5
6.22,8
6.24,8
6.26,14
6.28,8
6.3,7
6.32,4
6.34,4
6.36,5
6.38,4
6.4,0
6.42,3
6.44,5
6.46,5
6.48,2
6.5,0
6.52,0
6.54,0
6.56,1
6.58,0
6.6,0
6.62,0
6.64,0
6.66,1
6.68,3
6.7,0
6.72,0
6.74,0
6.76,0
6.78,1
6.8,0
6.82,1
6.84,0
6.86,0
6.88,1
6.9,4
6.92,2
6.94,5
6.96,3
6.98,2
7.,5
7.02,2
7.04,3
7.06,8
7.08,8
7.1,13
7.12,8
7.14,7
7.16,9
7.18,9
7.2,7
7.22,10
7.24,8
7.26,2
7.28,7
7.3,6
7.32,8
7.34,1
7.36,6
7.38,2
7.4,4
7.42,1
7.44,3
7.46,0
7.48,1
7.5,1
7.52,2
7.54,2
7.56,3
7.58,3
7.6,0
7.62,0
7.64,1
7.66,0
7.68,1
7.7,0
7.72,2
7.74,0
7.76,0
7.78,2
7.8,0
7.82,0
7.84,0
7.86,1
7.88,0
7.9,0
7.92,1
7.94,1
7.96,3
7.98,3
8.,2
8.02,4
8.04,4
8.06,6
8.08,6
8.1,6
8.12,8
8.14,7
8.16,7
8.18,7
8.2,8
8.22,13
8.24,5
8.26,11
8.28,9
8.3,6
8.32,8
8.34,6
8.36,6
8.38,4
8.4,4
8.42,3
8.44,2
8.46,1
8.48,4
8.5,0
8.52,4
8.54,0
8.56,0
8.58,3
8.6,0
8.62,0
8.64,0
8.66,0
8.68,0
8.7,0
8.72,0
8.74,1
8.76,0
8.78,0
8.8,0
8.82,0
8.84,0
8.86,1
8.88,1
8.9,2
8.92,4
8.94,1
8.96,6
8.98,10
9.,2
9.02,3
9.04,4
9.06,9
9.08,7
9.1,14
9.12,10
9.14,3
9.16,4
9.18,3
9.2,8
9.22,5
9.24,4
9.26,2
9.28,8
9.3,7
9.32,4
9.34,4
9.36,5
9.38,4
9.4,0
9.42,2
9.44,4
9.46,0
9.48,3
9.5,0
9.52,5
9.54,1
9.56,1
9.58,0
9.6,1
9.62,0
9.64,1
9.66,0
9.68,0
9.7,0
9.72,0
9.74,2
9.76,0
9.78,1
9.8,2
9.82,2
9.84,1
9.86,3
9.88,4
9.9,1
9.92,1
9.94,1
9.96,2
9.98,3
10.,3
