t,cases
5.01,4.355
5.02,4.355
5.03,3.705
5.04,3.705
5.05,3.25
5.06,3.25
5.07,3.77
5.08,3.77
5.09,3.77
5.1,3.77
5.11,3.51
5.12,3.51
5.13,3.835
5.14,3.835
5.15,4.225
5.16,4.225
5.17,4.225
5.18,4.225
5.19,4.225
5.2,4.225
5.21,3.965
5.22,3.965
5.23,3.835
5.24,3.835
5.25,3.445
5.26,3.445
5.27,3.315
5.28,3.315
5.29,3.315
5.3,3.315
5.31,2.665
5.32,2.665
5.33,2.47
5.34,2.47
5.35,2.34
5.36,2.34
5.37,2.015
5.38,2.015
5.39,1.95
5.4,1.95
5.41,1.95
5.42,1.95
5.43,1.95
5.44,1.95
5.45,1.82
5.46,1.82
5.47,1.235
5.48,1.235
5.49,1.04
5.5,1.04
5.51,1.04
5.52,1.04
5.53,0.91
5.54,0.91
5.55,0.715
5.56,0.715
5.57,0.39
5.58,0.39
5.59,0.26
5.6,0.26
5.61,0.13
5.62,0.13
5.63,0.
5.64,0.
5.65,0.
5.66,0.
5.67,0.065
5.68,0.065
5.69,0.065
5.7,0.065
5.71,0.
5.72,0.
5.73,0.065
5.74,0.065
5.75,0.195
5.76,0.195
5.77,0.13
5.78,0.13
5.79,0.065
5.8,0.065
5.81,0.065
5.82,0.065
5.83,0.455
5.84,0.455
5.85,1.105
5.86,1.105
5.87,1.17
5.88,1.17
5.89,1.235
5.9,1.235
5.91,1.3
5.92,1.3
5.93,1.69
5.94,1.69
5.95,2.275
5.96,2.275
5.97,2.535
5.98,2.535
5.99,2.99
6.,2.99
6.01,2.99
6.02,2.99
6.03,3.055
6.04,3.055
6.05,3.77
6.06,3.77
6.07,3.9
6.08,3.9
6.09,4.16
6.1,4.16
6.11,4.94
6.12,4.94
6.13,5.72
6.14,5.72
6.15,5.85
6.16,5.85
6.17,4.81
6.18,4.81
6.19,4.355
6.2,4.355
6.21,4.29
6.22,4.29
6.23,3.38
6.24,3.38
6.25,2.86
6.26,2.86
6.27,3.25
6.28,3.25
6.29,3.51
6.3,3.51
6.31,3.315
6.32,3.315
6.33,2.665
6.34,2.665
6.35,2.08
6.36,2.08
6.37,1.95
6.38,1.95
6.39,1.755
6.4,1.755
6.41,1.755
6.42,1.755
6.43,1.365
6.44,1.365
6.45,1.04
6.46,1.04
6.47,1.365
6.48,1.365
6.49,0.975
6.5,0.975
6.51,0.585
6.52,0.585
6.53,0.585
6.54,0.585
6.55,0.455
6.56,0.455
6.57,0.39
6.58,0.39
6.59,0.39
6.6,0.39
6.61,0.26
6.62,0.26
6.63,0.065
6.64,0.065
6.65,0.13
6.66,0.13
6.67,0.26
6.68,0.26
6.69,0.26
6.7,0.26
6.71,0.26
6.72,0.26
6.73,0.195
6.74,0.195
6.75,0.195
6.76,0.195
6.77,0.26
6.78,0.26
6.79,0.26
6.8,0.26
6.81,0.26
6.82,0.26
6.83,0.325
6.84,0.325
6.85,0.455
6.86,0.455
6.87,0.585
6.88,0.585
6.89,0.65
6.9,0.65
6.91,1.04
6.92,1.04
6.93,1.56
6.94,1.56
6.95,1.365
6.96,1.365
6.97,1.17
6.98,1.17
6.99,2.275
7.,2.275
7.01,2.73
7.02,2.73
7.03,2.21
7.04,2.21
7.05,2.535
7.06,2.535
7.07,3.055
7.08,3.055
7.09,3.38
7.1,3.38
7.11,3.38
7.12,3.38
7.13,3.77
7.14,3.77
7.15,4.68
7.16,4.68
7.17,4.745
7.18,4.745
7.19,4.355
7.2,4.355
7.21,4.68
7.22,4.68
7.23,4.615
7.24,4.615
7.25,4.42
7.26,4.42
7.27,4.55
7.28,4.55
7.29,4.875
7.3,4.875
7.31,4.745
7.32,4.745
7.33,4.16
7.34,4.16
7.35,3.575
7.36,3.575
7.37,2.86
7.38,2.86
7.39,2.665
7.4,2.665
7.41,2.34
7.42,2.34
7.43,2.34
7.44,2.34
7.45,1.95
7.46,1.95
7.47,1.365
7.48,1.365
7.49,1.235
7.5,1.235
7.51,0.975
7.52,0.975
7.53,0.91
7.54,0.91
7.55,0.715
7.56,0.715
7.57,0.585
7.58,0.585
7.59,0.52
7.6,0.52
7.61,0.39
7.62,0.39
7.63,0.325
7.64,0.325
7.65,0.26
7.66,0.26
7.67,0.13
7.68,0.13
7.69,0.0650000000001
7.7,0.0649999999999
7.71,0.13
7.72,0.13
7.73,0.13
7.74,0.13
7.75,0.13
7.76,0.13
7.77,0.0649999999999
7.78,0.0650000000001
7.79,0.195
7.8,0.195
7.81,0.39
7.82,0.39
7.83,0.39
7.84,0.39
7.85,0.78
7.86,0.78
7.87,1.3
7.88,1.3
7.89,1.82
7.9,1.82
7.91,2.015
7.92,2.015
7.93,2.08
7.94,2.08
7.95,2.145
7.96,2.145
7.97,2.145
7.98,2.145
7.99,2.6
8.,2.6
8.01,3.445
8.02,3.445
8.03,3.51
8.04,3.51
8.05,3.315
8.06,3.315
8.07,3.77
8.08,3.77
8.09,4.16
8.1,4.16
8.11,4.875
8.12,4.875
8.13,4.68
8.14,4.68
8.15,3.835
8.16,3.835
8.17,3.9
8.18,3.9
8.19,3.64
8.2,3.64
8.21,3.51
8.22,3.51
8.23,3.965
8.24,3.965
8.25,3.9
8.26,3.9
8.27,3.575
8.28,3.575
8.29,3.055
8.3,3.055
8.31,2.535
8.32,2.535
8.33,1.95
8.34,1.95
8.35,1.43
8.36,1.43
8.37,1.43
8.38,1.43
8.39,1.495
8.4,1.495
8.41,1.17
8.42,1.17
8.43,0.975
8.44,0.975
8.45,0.845
8.46,0.845
8.47,0.78
8.48,0.78
8.49,0.91
8.5,0.91
8.51,0.715
8.52,0.715
8.53,0.325
8.54,0.325
8.55,0.325
8.56,0.325
8.57,0.455
8.58,0.455
8.59,0.52
8.6,0.52
8.61,0.455
8.62,0.455
8.63,0.195
8.64,0.195
8.65,0.26
8.66,0.26
8.67,0.325
8.68,0.325
8.69,0.195
8.7,0.195
8.71,0.0650000000001
8.72,0.0649999999999
8.73,0.
8.74,0.
8.75,0.
8.76,0.
8.77,0.
8.78,0.
8.79,0.13
8.8,0.13
8.81,0.325
8.82,0.325
8.83,0.325
8.84,0.325
8.85,0.39
8.86,0.39
8.87,0.65
8.88,0.65
8.89,0.715
8.9,0.715
8.91,1.235
8.92,1.235
8.93,2.145
8.94,2.145
8.95,2.275
8.96,2.275
8.97,2.34
8.98,2.34
8.99,2.47
9.,2.47
9.01,2.73
9.02,2.73
9.03,2.795
9.04,2.795
9.05,2.665
9.06,2.665
9.07,3.12
9.08,3.12
9.09,4.29
9.1,4.29
9.11,4.29
9.12,4.29
9.13,3.835
9.14,3.835
9.15,4.42
9.16,4.42
9.17,3.965
9.18,3.965
9.19,3.77
9.2,3.77
9.21,4.03
9.22,4.03
9.23,3.965
9.24,3.965
9.25,4.355
9.26,4.355
9.27,4.42
9.28,4.42
9.29,3.315
9.3,3.315
9.31,2.925
9.32,2.925
9.33,3.185
9.34,3.185
9.35,2.6
9.36,2.6
9.37,1.82
9.38,1.82
9.39,1.885
9.4,1.885
9.41,1.95
9.42,1.95
9.43,1.69
9.44,1.69
9.45,1.495
9.46,1.495
9.47,1.235
9.48,1.235
9.49,1.04
9.5,1.04
9.51,0.52
9.52,0.52
9.53,0.13
9.54,0.13
9.55,0.
9.56,0.
9.57,0.0649999999999
9.58,0.0650000000001
9.59,0.13
9.6,0.13
9.61,0.195
9.62,0.195
9.63,0.26
9.64,0.26
9.65,0.195
9.66,0.195
9.67,0.26
9.68,0.26
9.69,0.195
9.7,0.195
9.71,0.
9.72,0.
9.73,0.195
9.74,0.195
9.75,0.26
9.76,0.26
9.77,0.0649999999999
9.78,0.0650000000001
9.79,0.13
9.8,0.13
9.81,0.26
9.82,0.26
9.83,0.39
9.84,0.39
9.85,0.52
9.86,0.52
9.87,0.585
9.88,0.585
9.89,0.715
9.9,0.715
9.91,1.04
9.92,1.04
9.93,1.235
9.94,1.235
9.95,1.495
9.96,1.495
9.97,2.015
9.98,2.015
9.99,2.275
10.,2.275
