t,s,e,i,r,c,o,n,reff,coal,reportr
5.,7264.,23.,11.,2702.,0.,0.,10000.,0.834094576108,1.88577904164,299.
5.02,7255.,18.,21.,2707.,0.,0.,10001.,0.832977846167,2.40638044448,234.
5.04,7250.,22.,10.,2723.,0.,0.,10005.,0.832070979486,1.96671322424,286.
5.06,7246.,26.,6.,2728.,0.,0.,10006.,0.831528794518,1.66305758904,338.
5.08,7253.,14.,17.,2723.,0.,0.,10007.,0.832248918118,3.0912102673,182.
5.1,7239.,25.,12.,2729.,0.,0.,10005.,0.830808526965,1.72808173609,325.
5.12,7228.,19.,19.,2736.,0.,0.,10002.,0.829794888504,2.27101758959,247.
5.14,7216.,34.,7.,2746.,0.,0.,10003.,0.828334437609,1.26686443399,442.
5.16,7221.,29.,14.,2741.,0.,0.,10005.,0.828742695568,1.48602138516,377.
5.18,7205.,31.,12.,2752.,0.,0.,10000.,0.827319854193,1.38776233607,403.
5.2,7200.,29.,16.,2755.,0.,0.,10000.,0.826745725217,1.48244061073,377.
5.22,7194.,32.,12.,2765.,0.,0.,10003.,0.825809027738,1.34193967007,416.
5.24,7189.,31.,15.,2769.,0.,0.,10004.,0.825152580438,1.38412690912,403.
5.26,7177.,31.,9.,2787.,0.,0.,10004.,0.82377522184,1.38181650115,403.
5.28,7175.,25.,8.,2793.,0.,0.,10001.,0.823792701068,1.71348881822,325.
5.3,7170.,24.,5.,2802.,0.,0.,10001.,0.823218629499,1.78364036391,312.
5.32,7172.,18.,9.,2802.,0.,0.,10001.,0.823448258127,2.37885052348,234.
5.34,7172.,19.,6.,2808.,0.,0.,10005.,0.823119043431,2.25274685571,247.
5.36,7172.,15.,3.,2814.,0.,0.,10004.,0.823201322423,2.8537645844,195.
5.38,7176.,14.,4.,2813.,0.,0.,10007.,0.823413516671,3.05839306192,182.
5.4,7180.,10.,6.,2808.,0.,0.,10004.,0.824119561489,4.28542171974,130.
5.42,7185.,10.,5.,2806.,0.,0.,10006.,0.824528621117,4.28754882981,130.
5.44,7187.,6.,7.,2808.,0.,0.,10008.,0.824593315228,7.14647539864,78.
5.46,7190.,6.,0.,2812.,0.,0.,10008.,0.824937517252,7.14945848285,78.
5.48,7197.,1.,6.,2807.,0.,0.,10011.,0.825493205306,42.9256466759,13.
5.5,7194.,3.,0.,2808.,0.,0.,10005.,0.825643948472,14.3111617735,39.
5.52,7195.,0.,0.,2809.,0.,0.,10004.,0.825841259737,inf,0.
5.54,7206.,0.,0.,2799.,0.,0.,10005.,0.827021169403,inf,0.
5.56,7209.,0.,0.,2792.,0.,0.,10001.,0.827696387735,inf,0.
5.58,7211.,0.,0.,2786.,0.,0.,9997.,0.82825728615,inf,0.
5.6,7214.,0.,0.,2782.,0.,0.,9996.,0.828684760254,inf,0.
5.62,7217.,0.,0.,2778.,0.,0.,9995.,0.829112319895,inf,0.
5.64,7223.,0.,0.,2775.,0.,0.,9998.,0.829552629032,inf,0.
5.66,7229.,0.,0.,2769.,0.,0.,9998.,0.830241721621,inf,0.
5.68,7240.,0.,0.,2756.,0.,0.,9996.,0.831671425594,inf,0.
5.7,7249.,0.,0.,2748.,0.,0.,9997.,0.832621975773,inf,0.
5.72,7259.,0.,0.,2742.,0.,0.,10001.,0.833437103422,inf,0.
5.74,7266.,1.,0.,2735.,0.,0.,10002.,0.834157396219,43.3761846034,13.
5.76,7274.,4.,1.,2731.,0.,0.,10010.,0.834408425634,10.8473095332,52.
5.78,7287.,2.,3.,2724.,0.,0.,10016.,0.835398931107,21.7203722088,26.
5.8,7296.,1.,3.,2717.,0.,0.,10017.,0.836347211294,43.4900549873,13.
5.82,7301.,2.,2.,2713.,0.,0.,10018.,0.836836824246,21.7577574304,26.
5.84,7310.,3.,2.,2704.,0.,0.,10019.,0.83778477162,14.5216027081,39.
5.86,7316.,4.,3.,2696.,0.,0.,10019.,0.838472419859,10.9001414582,52.
5.88,7314.,6.,3.,2694.,0.,0.,10017.,0.838410567901,7.26622492181,78.
5.9,7318.,6.,4.,2689.,0.,0.,10017.,0.838869091591,7.27019879379,78.
5.92,7313.,10.,6.,2687.,0.,0.,10016.,0.838379632659,4.35957408983,130.
5.94,7316.,10.,7.,2683.,0.,0.,10016.,0.838723559761,4.36136251076,130.
5.96,7317.,12.,6.,2683.,0.,0.,10018.,0.838670735927,3.63423985568,156.
5.98,7313.,15.,5.,2684.,0.,0.,10017.,0.838295936978,2.90609258153,195.
6.,7305.,19.,5.,2684.,0.,0.,10013.,0.837713406282,2.29268932246,247.
6.02,7295.,18.,10.,2689.,0.,0.,10012.,0.836650195524,2.41698945373,234.
6.04,7291.,21.,15.,2688.,0.,0.,10015.,0.835940961136,2.06994904662,273.
6.06,7287.,19.,15.,2696.,0.,0.,10017.,0.835315532991,2.28612672187,247.
6.08,7285.,18.,11.,2705.,0.,0.,10019.,0.834919570622,2.41198987069,234.
6.1,7276.,25.,14.,2698.,0.,0.,10013.,0.834387781534,1.73552658559,325.
6.12,7264.,36.,9.,2705.,0.,0.,10014.,0.832928476241,1.20311891013,468.
6.14,7258.,29.,21.,2705.,0.,0.,10013.,0.832323600656,1.49244231842,377.
6.16,7242.,41.,12.,2719.,0.,0.,10014.,0.830405840438,1.05319765129,533.
6.18,7237.,31.,15.,2729.,0.,0.,10012.,0.8299982817,1.39225518221,403.
6.2,7216.,31.,18.,2745.,0.,0.,10010.,0.827755182757,1.38849256462,403.
6.22,7204.,36.,21.,2750.,0.,0.,10011.,0.826296102685,1.19353881499,468.
6.24,7186.,35.,23.,2761.,0.,0.,10005.,0.824725801184,1.22530690462,455.
6.26,7166.,40.,17.,2781.,0.,0.,10004.,0.822512643124,1.06926643606,520.
6.28,7140.,45.,19.,2796.,0.,0.,10000.,0.819856177507,0.947389360675,585.
6.3,7136.,32.,14.,2820.,0.,0.,10002.,0.819233027721,1.33125367005,416.
6.32,7127.,26.,15.,2834.,0.,0.,10002.,0.818199802209,1.63639960442,338.
6.34,7122.,23.,10.,2847.,0.,0.,10002.,0.817625788036,1.84854525991,299.
6.36,7116.,18.,15.,2849.,0.,0.,9998.,0.817263811185,2.36098434342,234.
6.38,7115.,15.,10.,2858.,0.,0.,9998.,0.81714896242,2.83278306972,195.
6.4,7117.,13.,9.,2859.,0.,0.,9998.,0.81737865995,3.2695146398,169.
6.42,7116.,15.,6.,2859.,0.,0.,9996.,0.817427329355,2.8337480751,195.
6.44,7118.,11.,7.,2860.,0.,0.,9996.,0.817657072842,3.86528798071,143.
6.46,7126.,5.,6.,2861.,0.,0.,9998.,0.818412298834,8.51148790788,65.
6.48,7133.,5.,2.,2856.,0.,0.,9996.,0.819380149,8.5215535496,65.
6.5,7137.,4.,3.,2850.,0.,0.,9994.,0.820003702343,10.6600481305,52.
6.52,7142.,1.,6.,2847.,0.,0.,9996.,0.820413994695,42.6615277242,13.
6.54,7153.,1.,1.,2841.,0.,0.,9996.,0.821677583878,42.7272343616,13.
6.56,7156.,2.,1.,2834.,0.,0.,9993.,0.822268978515,21.3789934414,26.
6.58,7163.,2.,1.,2828.,0.,0.,9994.,0.822990965375,21.3977650998,26.
6.6,7164.,1.,1.,2825.,0.,0.,9991.,0.823353014304,42.8143567438,13.
6.62,7167.,1.,0.,2822.,0.,0.,9990.,0.823780254231,42.83657322,13.
6.64,7171.,1.,0.,2817.,0.,0.,9989.,0.824322531942,42.864771661,13.
6.66,7177.,1.,0.,2811.,0.,0.,9989.,0.825012245398,42.9006367607,13.
6.68,7188.,1.,0.,2803.,0.,0.,9992.,0.826028638586,42.9534892065,13.
6.7,7193.,1.,0.,2797.,0.,0.,9991.,0.826685962017,42.9876700249,13.
6.72,7194.,1.,0.,2794.,0.,0.,9989.,0.826966433523,43.0022545432,13.
6.74,7198.,1.,2.,2787.,0.,0.,9988.,0.827509084528,43.0304723955,13.
6.76,7202.,0.,1.,2781.,0.,0.,9984.,0.82830065786,inf,0.
6.78,7207.,1.,1.,2777.,0.,0.,9986.,0.828709699362,43.0929043668,13.
6.8,7215.,3.,1.,2769.,0.,0.,9988.,0.829463468307,14.377366784,39.
6.82,7223.,4.,3.,2762.,0.,0.,9992.,0.830050759113,10.7906598685,52.
6.84,7224.,6.,2.,2761.,0.,0.,9993.,0.830082602123,7.1940492184,78.
6.86,7231.,5.,3.,2760.,0.,0.,9999.,0.830388363704,8.63603898252,65.
6.88,7236.,3.,4.,2756.,0.,0.,9999.,0.830962550098,14.4033508684,39.
6.9,7233.,9.,4.,2754.,0.,0.,10000.,0.830534976458,4.79864653064,117.
6.92,7235.,9.,2.,2752.,0.,0.,9998.,0.830930814211,4.80093359322,117.
6.94,7241.,9.,5.,2744.,0.,0.,9999.,0.831536736493,4.80443447751,117.
6.96,7242.,12.,9.,2739.,0.,0.,10002.,0.831402128189,3.60274255548,156.
6.98,7245.,13.,10.,2741.,0.,0.,10009.,0.831164837646,3.32465935058,169.
7.,7242.,16.,13.,2740.,0.,0.,10011.,0.830654688457,2.69962773749,208.
7.02,7239.,17.,18.,2742.,0.,0.,10016.,0.829896097473,2.53850570992,221.
7.04,7227.,25.,19.,2746.,0.,0.,10017.,0.828437677635,1.72315036948,325.
7.06,7228.,27.,13.,2753.,0.,0.,10021.,0.828221582159,1.59509341749,351.
7.08,7219.,33.,9.,2762.,0.,0.,10023.,0.827025257234,1.30319131443,429.
7.1,7212.,30.,10.,2770.,0.,0.,10022.,0.826305762083,1.43226332094,390.
7.12,7204.,36.,14.,2769.,0.,0.,10023.,0.825306822706,1.19210985502,468.
7.14,7194.,38.,14.,2774.,0.,0.,10020.,0.824407954537,1.12813720095,494.
7.16,7194.,34.,17.,2780.,0.,0.,10025.,0.8239967785,1.26023036712,442.
7.18,7186.,37.,8.,2791.,0.,0.,10022.,0.823326845026,1.15710799841,481.
7.2,7170.,37.,15.,2795.,0.,0.,10017.,0.821903715046,1.15510792385,481.
7.22,7161.,39.,11.,2805.,0.,0.,10016.,0.820953992817,1.09460532376,507.
7.24,7159.,32.,16.,2810.,0.,0.,10017.,0.820642774898,1.33354450921,416.
7.26,7157.,28.,10.,2825.,0.,0.,10020.,0.820167880264,1.52316892049,364.
7.28,7154.,26.,14.,2827.,0.,0.,10021.,0.819742279852,1.6394845597,338.
7.3,7147.,20.,12.,2841.,0.,0.,10020.,0.819021914245,2.12945697704,260.
7.32,7146.,16.,16.,2845.,0.,0.,10023.,0.818662209197,2.66065217989,208.
7.34,7141.,16.,13.,2850.,0.,0.,10020.,0.818334334633,2.65958658756,208.
7.36,7137.,19.,13.,2852.,0.,0.,10021.,0.817794332024,2.23817396133,247.
7.38,7145.,8.,11.,2859.,0.,0.,10023.,0.818547646895,5.32055970482,104.
7.4,7148.,10.,7.,2860.,0.,0.,10025.,0.818727963958,4.25738541258,130.
7.42,7151.,10.,0.,2864.,0.,0.,10025.,0.819071582298,4.25917222795,130.
7.44,7155.,7.,2.,2861.,0.,0.,10025.,0.819529740084,6.08793521206,91.
7.46,7160.,6.,0.,2857.,0.,0.,10023.,0.820266081423,7.10897270567,78.
7.48,7167.,1.,5.,2852.,0.,0.,10025.,0.820904213443,42.687019099,13.
7.5,7172.,2.,3.,2850.,0.,0.,10027.,0.821313057697,21.3541395001,26.
7.52,7175.,2.,1.,2848.,0.,0.,10026.,0.821738560082,21.3652025621,26.
7.54,7179.,5.,2.,2838.,0.,0.,10024.,0.822360717796,8.55255146508,65.
7.56,7192.,4.,4.,2829.,0.,0.,10029.,0.823439145334,10.7047088893,52.
7.58,7200.,3.,1.,2829.,0.,0.,10033.,0.824026437972,14.2831249248,39.
7.6,7201.,4.,2.,2825.,0.,0.,10032.,0.824223037293,10.7148994848,52.
7.62,7199.,0.,5.,2824.,0.,0.,10028.,0.824322795594,inf,0.
7.64,7202.,0.,0.,2824.,0.,0.,10026.,0.824830816684,inf,0.
7.66,7208.,1.,0.,2818.,0.,0.,10027.,0.825435655309,42.9226540761,13.
7.68,7213.,1.,0.,2813.,0.,0.,10027.,0.826008238311,42.9524283922,13.
7.7,7220.,0.,1.,2808.,0.,0.,10029.,0.826644970705,inf,0.
7.72,7229.,0.,1.,2798.,0.,0.,10028.,0.827757951014,inf,0.
7.74,7240.,1.,1.,2791.,0.,0.,10033.,0.828604362627,43.0874268566,13.
7.76,7248.,1.,2.,2785.,0.,0.,10036.,0.829271984242,43.1221431806,13.
7.78,7253.,1.,0.,2786.,0.,0.,10040.,0.829513438607,43.1346988075,13.
7.8,7257.,2.,0.,2782.,0.,0.,10041.,0.829888253702,21.5770945962,26.
7.82,7260.,3.,1.,2776.,0.,0.,10040.,0.83031401686,14.3921096256,39.
7.84,7265.,3.,2.,2774.,0.,0.,10044.,0.830554960079,14.3962859747,39.
7.86,7265.,4.,2.,2767.,0.,0.,10038.,0.831051406558,10.8036682853,52.
7.88,7269.,4.,3.,2763.,0.,0.,10039.,0.831426143126,10.8085398606,52.
7.9,7260.,13.,3.,2763.,0.,0.,10039.,0.830396725697,3.32158690279,169.
7.92,7255.,12.,8.,2762.,0.,0.,10037.,0.829990180284,3.59662411457,156.
7.94,7247.,20.,7.,2765.,0.,0.,10039.,0.828909789411,2.15516545247,260.
7.96,7243.,17.,8.,2771.,0.,0.,10039.,0.828452270554,2.53408929817,221.
7.98,7246.,18.,6.,2772.,0.,0.,10042.,0.828547810989,2.39358256508,234.
8.,7244.,18.,12.,2769.,0.,0.,10043.,0.828236642641,2.3926836343,234.
8.02,7246.,19.,14.,2765.,0.,0.,10044.,0.828382827355,2.26715300118,247.
8.04,7244.,23.,12.,2770.,0.,0.,10049.,0.827742123798,1.87141697554,299.
8.06,7236.,26.,14.,2774.,0.,0.,10050.,0.826745725217,1.65349145043,338.
8.08,7229.,30.,9.,2785.,0.,0.,10053.,0.825699466107,1.43121240792,390.
8.1,7227.,25.,16.,2784.,0.,0.,10052.,0.825553145331,1.71715054229,325.
8.12,7217.,31.,12.,2791.,0.,0.,10051.,0.824492850199,1.38302026485,403.
8.14,7209.,27.,11.,2802.,0.,0.,10049.,0.823742817568,1.58646764865,351.
8.16,7211.,26.,13.,2801.,0.,0.,10051.,0.823807391269,1.64761478254,338.
8.18,7206.,23.,18.,2804.,0.,0.,10051.,0.823236175493,1.86122961416,299.
8.2,7181.,38.,9.,2823.,0.,0.,10051.,0.820380096616,1.12262539537,494.
8.22,7173.,36.,19.,2823.,0.,0.,10051.,0.819466151376,1.18367332976,468.
8.24,7173.,31.,18.,2830.,0.,0.,10052.,0.819384628678,1.3744516352,403.
8.26,7159.,20.,26.,2848.,0.,0.,10053.,0.817704036223,2.12603049418,260.
8.28,7146.,29.,13.,2867.,0.,0.,10055.,0.816056819769,1.46327429752,377.
8.3,7136.,33.,15.,2871.,0.,0.,10055.,0.814914842692,1.28410823697,429.
8.32,7137.,26.,15.,2878.,0.,0.,10056.,0.81494799137,1.62989598274,338.
8.34,7134.,20.,8.,2895.,0.,0.,10057.,0.814524433465,2.11776352701,260.
8.36,7137.,14.,7.,2899.,0.,0.,10057.,0.814866958458,3.02664870285,182.
8.38,7135.,15.,3.,2901.,0.,0.,10054.,0.814881687419,2.82492318305,195.
8.4,7132.,14.,2.,2903.,0.,0.,10051.,0.814782182017,3.02633381892,182.
8.42,7136.,8.,7.,2898.,0.,0.,10049.,0.81540140743,5.30010914829,104.
8.44,7137.,8.,1.,2902.,0.,0.,10048.,0.815596835312,5.30137942953,104.
8.46,7137.,8.,0.,2902.,0.,0.,10047.,0.815678013458,5.30190708748,104.
8.48,7136.,4.,3.,2902.,0.,0.,10045.,0.815726106846,10.604439389,52.
8.5,7141.,6.,0.,2901.,0.,0.,10048.,0.816053944369,7.07246751787,78.
8.52,7146.,2.,4.,2897.,0.,0.,10049.,0.816544066353,21.2301457252,26.
8.54,7149.,5.,2.,2894.,0.,0.,10050.,0.816805581755,8.49477805025,65.
8.56,7156.,4.,0.,2891.,0.,0.,10051.,0.817524017739,10.6278122306,52.
8.58,7156.,3.,2.,2888.,0.,0.,10049.,0.817686725276,14.1732365714,39.
8.6,7158.,2.,3.,2884.,0.,0.,10047.,0.818078074868,21.2700299466,26.
8.62,7164.,2.,1.,2878.,0.,0.,10045.,0.818926825875,21.2920974727,26.
8.64,7170.,1.,2.,2872.,0.,0.,10045.,0.819612694238,42.6198601004,13.
8.66,7173.,3.,0.,2871.,0.,0.,10047.,0.819792404447,14.2097350104,39.
8.68,7179.,1.,2.,2864.,0.,0.,10046.,0.8205598084,42.6691100368,13.
8.7,7195.,1.,1.,2853.,0.,0.,10050.,0.822061289792,42.7471870692,13.
8.72,7196.,0.,0.,2850.,0.,0.,10046.,0.822502908657,inf,0.
8.74,7202.,0.,0.,2842.,0.,0.,10044.,0.823352625256,inf,0.
8.76,7212.,0.,0.,2834.,0.,0.,10046.,0.824331708898,inf,0.
8.78,7214.,1.,0.,2827.,0.,0.,10042.,0.824888753584,42.8942151864,13.
8.8,7224.,1.,1.,2821.,0.,0.,10047.,0.825621125014,42.9322985007,13.
8.82,7222.,3.,1.,2817.,0.,0.,10043.,0.825721291159,14.3125023801,39.
8.84,7222.,3.,3.,2814.,0.,0.,10042.,0.825803517936,14.3139276442,39.
8.86,7226.,6.,2.,2809.,0.,0.,10043.,0.826178627792,7.1602147742,78.
8.88,7232.,8.,1.,2804.,0.,0.,10045.,0.82670000066,5.37355000429,104.
8.9,7235.,6.,3.,2802.,0.,0.,10046.,0.826960609246,7.16699194679,78.
8.92,7232.,5.,4.,2802.,0.,0.,10043.,0.826864632742,8.59939218051,65.
8.94,7229.,6.,4.,2802.,0.,0.,10041.,0.826686259613,7.16461424998,78.
8.96,7227.,11.,5.,2798.,0.,0.,10041.,0.826457545749,3.90689021627,143.
8.98,7229.,9.,12.,2792.,0.,0.,10042.,0.826603936743,4.77593385674,117.
9.,7227.,14.,10.,2794.,0.,0.,10045.,0.82612844369,3.06847707656,182.
9.02,7220.,17.,13.,2795.,0.,0.,10045.,0.825328263933,2.52453351321,221.
9.04,7211.,22.,11.,2799.,0.,0.,10043.,0.824463615418,1.9487321819,286.
9.06,7202.,26.,14.,2803.,0.,0.,10045.,0.823270658843,1.64654131769,338.
9.08,7199.,21.,15.,2811.,0.,0.,10046.,0.822845808702,2.03752295488,273.
9.1,7185.,21.,9.,2826.,0.,0.,10041.,0.821654554616,2.03457318286,273.
9.12,7179.,25.,8.,2828.,0.,0.,10040.,0.821050182787,1.7077843802,325.
9.14,7165.,25.,12.,2837.,0.,0.,10039.,0.81953065284,1.70462375791,325.
9.16,7155.,28.,13.,2846.,0.,0.,10042.,0.818142366495,1.51940725206,364.
9.18,7141.,30.,18.,2850.,0.,0.,10039.,0.816785539697,1.41576160214,390.
9.2,7127.,41.,11.,2858.,0.,0.,10037.,0.81534665953,1.03409820233,533.
9.22,7124.,32.,17.,2864.,0.,0.,10037.,0.815003452012,1.32438060952,416.
9.24,7112.,38.,14.,2873.,0.,0.,10037.,0.813630621941,1.11338927213,494.
9.26,7113.,31.,9.,2883.,0.,0.,10036.,0.813826107052,1.36512766344,403.
9.28,7113.,29.,11.,2887.,0.,0.,10040.,0.813501873543,1.45869301463,377.
9.3,7106.,29.,10.,2895.,0.,0.,10040.,0.81270129529,1.457257495,377.
9.32,7096.,27.,15.,2900.,0.,0.,10038.,0.811719309145,1.56331126206,351.
9.34,7096.,26.,4.,2912.,0.,0.,10038.,0.811719309145,1.62343861829,338.
9.36,7098.,14.,15.,2911.,0.,0.,10038.,0.811948091363,3.01580719649,182.
9.38,7098.,14.,6.,2919.,0.,0.,10037.,0.812028986859,3.01610766547,182.
9.4,7104.,10.,5.,2919.,0.,0.,10038.,0.812634438016,4.22569907769,130.
9.42,7115.,8.,4.,2913.,0.,0.,10040.,0.813730610187,5.28924896622,104.
9.44,7117.,11.,0.,2913.,0.,0.,10041.,0.813878283257,3.84742461176,143.
9.46,7122.,9.,0.,2913.,0.,0.,10044.,0.81420680326,4.70430597439,117.
9.48,7123.,7.,4.,2907.,0.,0.,10041.,0.814564424847,6.05105001315,91.
9.5,7129.,6.,2.,2905.,0.,0.,10042.,0.815169382354,7.06480131374,78.
9.52,7135.,5.,0.,2900.,0.,0.,10040.,0.816017976625,8.4865869569,65.
9.54,7137.,1.,0.,2899.,0.,0.,10037.,0.816490684589,42.4575155986,13.
9.56,7137.,0.,1.,2892.,0.,0.,10030.,0.817060518566,inf,0.
9.58,7152.,0.,0.,2880.,0.,0.,10032.,0.818614520583,inf,0.
9.6,7156.,0.,0.,2875.,0.,0.,10031.,0.81915401279,inf,0.
9.62,7167.,2.,1.,2863.,0.,0.,10033.,0.820249650131,21.3264909034,26.
9.64,7172.,1.,2.,2858.,0.,0.,10033.,0.820821890713,42.6827383171,13.
9.66,7181.,1.,0.,2855.,0.,0.,10037.,0.821524394848,42.7192685321,13.
9.68,7183.,3.,0.,2848.,0.,0.,10034.,0.821998890472,14.2479807682,39.
9.7,7188.,0.,2.,2840.,0.,0.,10030.,0.82289911832,inf,0.
9.72,7192.,0.,2.,2836.,0.,0.,10030.,0.823357047713,inf,0.
9.74,7200.,0.,1.,2831.,0.,0.,10032.,0.824108577768,inf,0.
9.76,7207.,1.,0.,2823.,0.,0.,10031.,0.824992030489,42.8995855854,13.
9.78,7215.,2.,0.,2818.,0.,0.,10035.,0.82557858709,21.4650432643,26.
9.8,7220.,0.,2.,2812.,0.,0.,10034.,0.826233048755,inf,0.
9.82,7225.,2.,2.,2806.,0.,0.,10035.,0.826722840156,21.4947938441,26.
9.84,7230.,2.,4.,2799.,0.,0.,10035.,0.827294966689,21.5096691339,26.
9.86,7232.,6.,1.,2796.,0.,0.,10035.,0.827523817302,7.17187308328,78.
9.88,7236.,5.,1.,2796.,0.,0.,10038.,0.827734064399,8.60843426974,65.
9.9,7238.,5.,1.,2793.,0.,0.,10037.,0.828045337684,8.61167151192,65.
9.92,7239.,7.,3.,2782.,0.,0.,10031.,0.828655100417,6.1557236031,91.
9.94,7241.,8.,6.,2776.,0.,0.,10031.,0.828884042288,5.38774627487,104.
9.96,7239.,12.,1.,2778.,0.,0.,10030.,0.828737718075,3.59119677832,156.
9.98,7243.,8.,6.,2774.,0.,0.,10031.,0.829112984159,5.38923439703,104.
10.,7247.,6.,5.,2774.,0.,0.,10032.,0.829488175429,7.18889752038,78.
