t,neff
5.,0.410087052696
5.02,0.387397530665
5.04,0.387879102783
5.06,0.433651040583
5.08,0.502555784551
5.1,0.571477420042
5.12,0.571155266339
5.14,0.45705301242
5.16,0.594551141245
5.18,0.617915369135
5.2,0.664287914866
5.22,0.87364948064
5.24,0.805328291883
5.26,0.575442808112
5.28,0.622711397629
5.3,0.622990835958
5.32,0.530589651872
5.34,0.415378873
5.36,0.392405238115
5.38,0.300269574095
5.4,0.46219584439
5.42,0.277289749901
5.44,0.230904666532
5.46,0.184682264647
5.48,0.184431411801
5.5,0.161371342627
5.52,0.138204301471
5.54,0.0920283042626
5.56,0.0689723274192
5.58,0.0688429651375
5.6,0.0457992020005
5.62,0.0228715186536
5.64,0.0685579518629
5.66,0.114176028676
5.68,0.0456347159642
5.7,0.0455561194108
5.72,0.
5.74,0.022737552825
5.76,0.
5.78,0.
5.8,0.0226518997892
5.82,0.0226167841579
5.84,0.0677964173762
5.86,0.135549734678
5.88,0.158053983358
5.9,0.225782051114
5.92,0.202957885007
5.94,0.0901696258674
5.96,0.247976806302
5.98,0.22523807006
6.,0.337783949732
6.02,0.450494963446
6.04,0.315396402607
6.06,0.473856419229
6.08,0.54220593463
6.1,0.678255682338
6.12,0.791991979254
6.14,0.680431376208
6.16,0.566980055831
6.18,0.703701078045
6.2,0.681571436828
6.22,0.660471189554
6.24,0.70705237321
6.26,0.615660289054
6.28,0.593654722821
6.3,0.639295147261
6.32,0.433433521459
6.34,0.502221807967
6.36,0.479720092947
6.38,0.342389731272
6.4,0.319397451806
6.42,0.182417863424
6.44,0.205261144476
6.46,0.182257249594
6.48,0.11377196873
6.5,0.136354658729
6.52,0.0453764018213
6.54,0.0452980106233
6.56,0.0226045357843
6.58,0.0451679293378
6.6,0.0451170976298
6.62,0.0225296438431
6.64,0.0450210930594
6.66,0.0449520051472
6.68,0.
6.7,0.0224419212576
6.72,0.
6.74,0.
6.76,0.
6.78,0.0223361361756
6.8,0.0445954438654
6.82,0.
6.84,0.0444683487688
6.86,0.0666825463567
6.88,0.0666364462169
6.9,0.133098056178
6.92,0.155215511511
6.94,0.17738132821
6.96,0.354912507767
6.98,0.332339220862
7.,0.377140981938
7.02,0.377359285829
7.04,0.310745430352
7.06,0.310714408545
7.08,0.5781534192
7.1,0.533883307636
7.12,0.534527623733
7.14,0.624130436441
7.16,0.691395025142
7.18,0.580532691592
7.2,0.670522919954
7.22,0.603978631437
7.24,0.649301607529
7.26,0.492566460005
7.28,0.694646027403
7.3,0.739314229264
7.32,0.582731363438
7.34,0.583156320088
7.36,0.269180022697
7.38,0.33656160065
7.4,0.201870354403
7.42,0.246276063469
7.44,0.223855433741
7.46,0.178964289511
7.48,0.111725139104
7.5,0.0893190174013
7.52,0.0446315396956
7.54,0.0445776395161
7.56,0.0222748892457
7.58,0.0222433309787
7.6,0.022225996712
7.62,0.
7.64,0.0221798179598
7.66,0.0443227048037
7.68,0.044275038139
7.7,0.
7.72,0.0442343077099
7.74,0.0221058767552
7.76,0.
7.78,0.
7.8,0.
7.82,0.0220090830787
7.84,0.110022427134
7.86,0.109942570751
7.88,0.219749577296
7.9,0.24152736022
7.92,0.197289664436
7.94,0.284976236572
7.96,0.285110144604
7.98,0.21934926787
8.,0.373218374979
8.02,0.219651793258
8.04,0.37341126406
8.06,0.417489788783
8.08,0.417512468533
8.1,0.638135922334
8.12,0.55088276196
8.14,0.59501853985
8.16,0.683940693416
8.18,0.574307388944
8.2,0.77423722354
8.22,0.530870417287
8.24,0.709085203329
8.26,0.554083521102
8.28,0.510108554887
8.3,0.51058558907
8.32,0.443952100975
8.34,0.444154285824
8.36,0.422336091045
8.38,0.377724199653
8.4,0.288369770419
8.42,0.155129466813
8.44,0.155010766002
8.46,0.221304055949
8.48,0.154784202519
8.5,0.17653869764
8.52,0.0220546857552
8.54,0.0220228523529
8.56,0.
8.58,0.0219699981199
8.6,0.0219495342236
8.62,0.0877077362071
8.64,0.0437886243923
8.66,0.0218618002121
8.68,0.
8.7,0.
8.72,0.
8.74,0.021761852939
8.76,0.0434862324984
8.78,0.0652098404188
8.8,0.0434399283262
8.82,0.0868493233482
8.84,0.0867660219448
8.86,0.108369526782
8.88,0.0866647899553
8.9,0.173319798013
8.92,0.194983918055
8.94,0.260095715504
8.96,0.195053230839
8.98,0.23808370614
9.,0.302909389807
9.02,0.259478469315
9.04,0.519844518874
9.06,0.520477643211
9.08,0.520981635217
9.1,0.630639437488
9.12,0.500419989631
9.14,0.698327263633
9.16,0.698498925507
9.18,0.72142910845
9.2,0.657020775539
9.22,0.679338048188
9.24,0.526124650933
9.26,0.460592122111
9.28,0.395257185937
9.3,0.505516834409
9.32,0.527333645557
9.34,0.439289643488
9.36,0.329175964496
9.38,0.307070457154
9.4,0.24136569174
9.42,0.197350936908
9.44,0.175279308978
9.46,0.131358900646
9.48,0.109382061126
9.5,0.109270162728
9.52,0.0436770361814
9.54,0.0218263517854
9.56,0.
9.58,0.
9.6,0.
9.62,0.
9.64,0.0217135057511
9.66,0.021701365955
9.68,0.021672833191
9.7,0.
9.72,0.
9.74,0.
9.76,0.
9.78,0.0215554619082
9.8,0.0430742119503
9.82,0.0430138765627
9.84,0.129022516259
9.86,0.128938463831
9.88,0.236446205548
9.9,0.322490118405
9.92,0.193465412158
9.94,0.366074797223
9.96,0.344144479667
9.98,0.236504754158
10.,0.257966446836
