t,s,e,i,r,c,o,n,reff,coal,reportr
5.,6831.,17.,9.,3143.,0.,0.,10000.,0.846637664621,2.58971520943,221.
5.02,6829.,22.,9.,3139.,0.,0.,9999.,0.846474431032,2.00075774608,286.
5.04,6822.,24.,10.,3144.,0.,0.,10000.,0.845522199977,1.83196476662,312.
5.06,6817.,29.,12.,3146.,0.,0.,10004.,0.844564671529,1.51439182481,377.
5.08,6818.,27.,13.,3148.,0.,0.,10006.,0.844519726078,1.62648243541,351.
5.1,6808.,28.,19.,3152.,0.,0.,10007.,0.843196794997,1.56593690499,364.
5.12,6800.,32.,20.,3157.,0.,0.,10009.,0.842037674719,1.36831122142,416.
5.14,6789.,32.,19.,3167.,0.,0.,10007.,0.84084357245,1.36637080523,416.
5.16,6782.,30.,14.,3180.,0.,0.,10006.,0.840060543013,1.45610494122,390.
5.18,6778.,26.,16.,3189.,0.,0.,10009.,0.839313435183,1.67862687037,338.
5.2,6766.,29.,14.,3197.,0.,0.,10006.,0.838078683873,1.50276177798,377.
5.22,6756.,33.,17.,3201.,0.,0.,10007.,0.836756396446,1.31852523076,429.
5.24,6748.,37.,18.,3205.,0.,0.,10008.,0.83568205615,1.17447207891,481.
5.26,6735.,34.,16.,3219.,0.,0.,10004.,0.834405612843,1.27614976082,442.
5.28,6726.,35.,13.,3229.,0.,0.,10003.,0.833373898274,1.23815550601,455.
5.3,6723.,27.,17.,3238.,0.,0.,10005.,0.83283567106,1.60397981093,351.
5.32,6711.,31.,14.,3248.,0.,0.,10004.,0.831432229812,1.39466051452,403.
5.34,6715.,23.,9.,3255.,0.,0.,10002.,0.832094145939,1.88125632995,299.
5.36,6713.,21.,13.,3256.,0.,0.,10003.,0.83176315479,2.05960400234,273.
5.38,6721.,17.,12.,3260.,0.,0.,10010.,0.832172035828,2.54546740371,221.
5.4,6723.,10.,10.,3268.,0.,0.,10011.,0.832336518725,4.32814989737,130.
5.42,6731.,8.,3.,3269.,0.,0.,10011.,0.833326953375,5.41662519694,104.
5.44,6740.,9.,5.,3261.,0.,0.,10015.,0.834107915794,4.81929018014,117.
5.46,6745.,8.,5.,3254.,0.,0.,10012.,0.834976808078,5.42734925251,104.
5.48,6749.,4.,7.,3252.,0.,0.,10012.,0.83547197594,10.8611356872,52.
5.5,6756.,4.,0.,3251.,0.,0.,10011.,0.836422061655,10.8734868015,52.
5.52,6764.,1.,3.,3244.,0.,0.,10012.,0.837328855424,43.5411004821,13.
5.54,6773.,2.,3.,3236.,0.,0.,10014.,0.838275528954,21.7951637528,26.
5.56,6777.,0.,3.,3233.,0.,0.,10013.,0.838854366083,inf,0.
5.58,6777.,0.,0.,3231.,0.,0.,10008.,0.839273457992,inf,0.
5.6,6778.,0.,1.,3227.,0.,0.,10006.,0.839565078228,inf,0.
5.62,6786.,0.,1.,3219.,0.,0.,10006.,0.840556007798,inf,0.
5.64,6791.,0.,0.,3218.,0.,0.,10009.,0.84092321309,inf,0.
5.66,6799.,0.,0.,3211.,0.,0.,10010.,0.841829738372,inf,0.
5.68,6802.,0.,0.,3204.,0.,0.,10006.,0.842537866938,inf,0.
5.7,6805.,0.,0.,3203.,0.,0.,10008.,0.842741018391,inf,0.
5.72,6805.,3.,0.,3197.,0.,0.,10005.,0.842993714349,14.6118910487,39.
5.74,6812.,3.,0.,3186.,0.,0.,10001.,0.84419837498,14.632771833,39.
5.76,6814.,1.,1.,3183.,0.,0.,9999.,0.844615137363,43.9199871429,13.
5.78,6823.,1.,1.,3179.,0.,0.,10004.,0.845308017287,43.9560168989,13.
5.8,6833.,1.,1.,3168.,0.,0.,10003.,0.846631556186,44.0248409217,13.
5.82,6834.,3.,0.,3168.,0.,0.,10005.,0.846586193073,14.6741606799,39.
5.84,6838.,4.,1.,3165.,0.,0.,10008.,0.846827786004,11.0087612181,52.
5.86,6842.,5.,3.,3159.,0.,0.,10009.,0.847238495651,8.81128035477,65.
5.88,6845.,8.,2.,3151.,0.,0.,10006.,0.847864113377,5.51111673695,104.
5.9,6840.,16.,3.,3146.,0.,0.,10005.,0.847329464533,2.75382075973,208.
5.92,6842.,7.,13.,3140.,0.,0.,10002.,0.847831444008,6.2981764412,91.
5.94,6841.,10.,9.,3141.,0.,0.,10001.,0.847792290552,4.40851991087,130.
5.96,6841.,17.,8.,3139.,0.,0.,10005.,0.847453343109,2.59221022598,221.
5.98,6841.,21.,5.,3141.,0.,0.,10008.,0.847199310333,2.09782686368,273.
6.,6833.,22.,13.,3137.,0.,0.,10005.,0.846462314496,2.00072910699,286.
6.02,6830.,24.,6.,3145.,0.,0.,10005.,0.846090678766,1.83319647066,312.
6.04,6829.,24.,11.,3146.,0.,0.,10010.,0.84554423935,1.83201251859,312.
6.06,6820.,29.,11.,3147.,0.,0.,10007.,0.844683040817,1.51460407319,377.
6.08,6821.,25.,9.,3153.,0.,0.,10008.,0.844722481476,1.75702276147,325.
6.1,6814.,30.,13.,3151.,0.,0.,10008.,0.843855591377,1.46268302505,390.
6.12,6803.,29.,18.,3158.,0.,0.,10008.,0.842493335506,1.51067770504,377.
6.14,6789.,39.,11.,3168.,0.,0.,10007.,0.84084357245,1.12112476327,507.
6.16,6779.,33.,19.,3177.,0.,0.,10008.,0.839521140878,1.32288179775,429.
6.18,6763.,35.,11.,3198.,0.,0.,10007.,0.837623373174,1.24446901157,455.
6.2,6766.,27.,15.,3198.,0.,0.,10006.,0.838078683873,1.61407746524,351.
6.22,6757.,30.,12.,3208.,0.,0.,10007.,0.836880250264,1.45059243379,390.
6.24,6757.,28.,16.,3208.,0.,0.,10009.,0.836713024717,1.55389561733,364.
6.26,6748.,28.,14.,3218.,0.,0.,10008.,0.83568205615,1.55198096142,364.
6.28,6752.,26.,13.,3220.,0.,0.,10011.,0.83592684433,1.67185368866,338.
6.3,6739.,25.,22.,3227.,0.,0.,10013.,0.834150741188,1.73503354167,325.
6.32,6747.,21.,6.,3237.,0.,0.,10011.,0.835307822674,2.06838127519,273.
6.34,6753.,15.,10.,3233.,0.,0.,10011.,0.836050648662,2.89830891536,195.
6.36,6744.,14.,12.,3236.,0.,0.,10006.,0.835353627555,3.1027420452,182.
6.38,6742.,15.,9.,3240.,0.,0.,10006.,0.835105895162,2.8950337699,195.
6.4,6736.,8.,8.,3250.,0.,0.,10002.,0.834696376328,5.42552644613,104.
6.42,6741.,10.,6.,3243.,0.,0.,10000.,0.835483018184,4.34451169455,130.
6.44,6745.,6.,8.,3242.,0.,0.,10001.,0.835895190728,7.24442498631,78.
6.46,6746.,5.,3.,3241.,0.,0.,9995.,0.836520981254,8.69981820504,65.
6.48,6745.,7.,4.,3238.,0.,0.,9994.,0.836480668649,6.21385639568,91.
6.5,6755.,5.,0.,3234.,0.,0.,9994.,0.837720817898,8.71229650614,65.
6.52,6766.,2.,3.,3223.,0.,0.,9994.,0.839084982072,21.8162095339,26.
6.54,6771.,2.,3.,3216.,0.,0.,9992.,0.839873132168,21.8367014364,26.
6.56,6778.,2.,0.,3212.,0.,0.,9992.,0.840741410403,21.8592766705,26.
6.58,6786.,0.,1.,3204.,0.,0.,9991.,0.841817977582,inf,0.
6.6,6799.,0.,0.,3197.,0.,0.,9996.,0.843008771619,inf,0.
6.62,6808.,2.,0.,3186.,0.,0.,9996.,0.844124682627,21.9472417483,26.
6.64,6815.,0.,2.,3178.,0.,0.,9995.,0.845077154943,inf,0.
6.66,6825.,1.,0.,3169.,0.,0.,9995.,0.846317180115,44.008493366,13.
6.68,6838.,0.,1.,3156.,0.,0.,9995.,0.847929212839,inf,0.
6.7,6838.,0.,1.,3152.,0.,0.,9991.,0.848268690054,inf,0.
6.72,6844.,0.,0.,3145.,0.,0.,9989.,0.849182992621,inf,0.
6.74,6848.,1.,0.,3137.,0.,0.,9986.,0.849934561779,44.1965972125,13.
6.76,6854.,3.,0.,3131.,0.,0.,9988.,0.850508907177,14.7421543911,39.
6.78,6861.,1.,2.,3123.,0.,0.,9987.,0.851462781717,44.2760646493,13.
6.8,6869.,1.,3.,3117.,0.,0.,9990.,0.852199603832,44.3143793993,13.
6.82,6872.,0.,5.,3115.,0.,0.,9992.,0.852401146694,inf,0.
6.84,6870.,5.,1.,3116.,0.,0.,9992.,0.852153067198,8.86239189886,65.
6.86,6878.,5.,2.,3107.,0.,0.,9992.,0.85314538518,8.87271200587,65.
6.88,6881.,10.,1.,3100.,0.,0.,9992.,0.853517504423,4.438291023,130.
6.9,6884.,10.,6.,3092.,0.,0.,9992.,0.853889623667,4.44022604307,130.
6.92,6882.,6.,9.,3091.,0.,0.,9988.,0.853983411029,7.40118956225,78.
6.94,6878.,13.,7.,3089.,0.,0.,9987.,0.853572513139,3.41429005256,169.
6.96,6880.,10.,10.,3086.,0.,0.,9986.,0.85390621861,4.44031233677,130.
6.98,6872.,17.,6.,3089.,0.,0.,9984.,0.853084160433,2.6094339025,221.
7.,6876.,18.,6.,3084.,0.,0.,9984.,0.853580716987,2.46589984907,234.
7.02,6883.,15.,8.,3083.,0.,0.,9989.,0.854021995647,2.96060958491,195.
7.04,6879.,12.,17.,3080.,0.,0.,9988.,0.853611142759,3.69898161862,156.
7.06,6878.,23.,7.,3079.,0.,0.,9987.,0.853572513139,1.92981611666,299.
7.08,6876.,19.,12.,3080.,0.,0.,9987.,0.853324309442,2.33541389953,247.
7.1,6869.,25.,10.,3085.,0.,0.,9989.,0.852284917638,1.77275262869,325.
7.12,6862.,20.,14.,3091.,0.,0.,9987.,0.851586883565,2.21412589727,260.
7.14,6857.,23.,15.,3092.,0.,0.,9987.,0.850966374323,1.92392397673,299.
7.16,6843.,23.,22.,3093.,0.,0.,9981.,0.849739455779,1.92115007393,299.
7.18,6828.,29.,23.,3104.,0.,0.,9984.,0.847622038335,1.51987399977,377.
7.2,6821.,35.,15.,3111.,0.,0.,9982.,0.846922720358,1.25828518453,455.
7.22,6810.,34.,16.,3119.,0.,0.,9979.,0.845811117132,1.29359347326,442.
7.24,6803.,33.,17.,3128.,0.,0.,9981.,0.84477239773,1.33115650551,429.
7.26,6793.,34.,15.,3137.,0.,0.,9979.,0.843699694372,1.29036423845,442.
7.28,6777.,31.,18.,3152.,0.,0.,9978.,0.841796829784,1.41204629512,403.
7.3,6779.,28.,14.,3158.,0.,0.,9979.,0.841960875629,1.56364162617,364.
7.32,6779.,26.,12.,3164.,0.,0.,9981.,0.8417921629,1.6835843258,338.
7.34,6765.,31.,10.,3172.,0.,0.,9978.,0.840306264348,1.40954599181,403.
7.36,6772.,24.,15.,3172.,0.,0.,9983.,0.840754456755,1.8216346563,312.
7.38,6774.,18.,9.,3179.,0.,0.,9980.,0.841255566343,2.43029385833,234.
7.4,6765.,18.,3.,3192.,0.,0.,9978.,0.840306264348,2.42755143034,234.
7.42,6767.,13.,2.,3194.,0.,0.,9976.,0.840723207296,3.36289282919,169.
7.44,6771.,11.,5.,3191.,0.,0.,9978.,0.841051547066,3.97588004068,143.
7.46,6774.,7.,6.,3191.,0.,0.,9978.,0.841424188425,6.25057968544,91.
7.48,6781.,7.,5.,3189.,0.,0.,9982.,0.84195615991,6.25453147362,91.
7.5,6781.,6.,2.,3193.,0.,0.,9982.,0.84195615991,7.29695338589,78.
7.52,6788.,7.,2.,3185.,0.,0.,9982.,0.842825307989,6.2609880022,91.
7.54,6791.,3.,6.,3180.,0.,0.,9980.,0.843366777537,14.6183574773,39.
7.56,6798.,2.,3.,3177.,0.,0.,9980.,0.844236099794,21.9501385946,26.
7.58,6799.,2.,1.,3178.,0.,0.,9980.,0.844360288687,21.9533675059,26.
7.6,6801.,3.,2.,3173.,0.,0.,9979.,0.844693305083,14.6413506214,39.
7.62,6808.,2.,0.,3170.,0.,0.,9980.,0.845477988731,21.982427707,26.
7.64,6819.,2.,0.,3158.,0.,0.,9979.,0.846928929181,22.0201521587,26.
7.66,6828.,2.,0.,3151.,0.,0.,9981.,0.84787680901,22.0447970343,26.
7.68,6839.,0.,1.,3143.,0.,0.,9983.,0.84907261219,inf,0.
7.7,6856.,0.,1.,3132.,0.,0.,9989.,0.850671916629,inf,0.
7.72,6863.,0.,0.,3126.,0.,0.,9989.,0.851540455634,inf,0.
7.74,6870.,2.,0.,3116.,0.,0.,9988.,0.85249433795,22.1648527867,26.
7.76,6879.,2.,0.,3109.,0.,0.,9990.,0.853440249638,22.1894464906,26.
7.78,6888.,1.,1.,3101.,0.,0.,9991.,0.8544712982,44.4325075064,13.
7.8,6892.,2.,1.,3096.,0.,0.,9991.,0.854967506852,22.2291551781,26.
7.82,6900.,3.,3.,3087.,0.,0.,9993.,0.855788612252,14.833669279,39.
7.84,6900.,5.,2.,3086.,0.,0.,9993.,0.855788612252,8.90020156742,65.
7.86,6904.,4.,7.,3080.,0.,0.,9995.,0.856113378977,11.1294739267,52.
7.88,6904.,4.,1.,3084.,0.,0.,9993.,0.856284721592,11.1317013807,52.
7.9,6913.,6.,2.,3072.,0.,0.,9993.,0.857400967608,7.43080838594,78.
7.92,6918.,7.,3.,3067.,0.,0.,9995.,0.857849414218,6.37259564848,91.
7.94,6914.,10.,1.,3066.,0.,0.,9991.,0.857696654436,4.46002260307,130.
7.96,6920.,10.,2.,3061.,0.,0.,9993.,0.858269158954,4.46299962656,130.
7.98,6919.,10.,7.,3055.,0.,0.,9991.,0.858316915251,4.4632479593,130.
8.,6919.,18.,7.,3054.,0.,0.,9998.,0.857715973222,2.47784614486,234.
8.02,6922.,18.,8.,3052.,0.,0.,10000.,0.857916251575,2.47842472677,234.
8.04,6918.,18.,11.,3055.,0.,0.,10002.,0.857249039703,2.47649722581,234.
8.06,6915.,13.,14.,3062.,0.,0.,10004.,0.856705985569,3.42682394228,169.
8.08,6902.,24.,11.,3066.,0.,0.,10003.,0.855180886989,1.85289192181,312.
8.1,6890.,34.,9.,3070.,0.,0.,10003.,0.85369404685,1.30564971871,442.
8.12,6888.,32.,11.,3072.,0.,0.,10003.,0.85344624016,1.38685014026,416.
8.14,6876.,29.,16.,3075.,0.,0.,9996.,0.852556010244,1.52872112182,377.
8.16,6867.,32.,15.,3083.,0.,0.,9997.,0.851354929675,1.38345176072,416.
8.18,6862.,35.,6.,3093.,0.,0.,9996.,0.850820148676,1.26407564946,455.
8.2,6858.,29.,11.,3094.,0.,0.,9992.,0.850664590225,1.52532961006,377.
8.22,6856.,22.,18.,3094.,0.,0.,9990.,0.850586764285,2.01047780649,286.
8.24,6848.,29.,14.,3100.,0.,0.,9991.,0.849509211683,1.52325789681,377.
8.26,6843.,26.,11.,3109.,0.,0.,9989.,0.84905891562,1.69811783124,338.
8.28,6833.,22.,22.,3111.,0.,0.,9988.,0.847903029288,2.00413443286,286.
8.3,6826.,32.,15.,3116.,0.,0.,9989.,0.846949606609,1.37629311074,416.
8.32,6820.,32.,22.,3119.,0.,0.,9993.,0.845866425443,1.37453294135,416.
8.34,6816.,31.,13.,3136.,0.,0.,9996.,0.845116603523,1.41761494785,403.
8.36,6815.,27.,6.,3150.,0.,0.,9998.,0.844823581082,1.62706763764,351.
8.38,6814.,18.,14.,3149.,0.,0.,9995.,0.844953152426,2.44097577367,234.
8.4,6816.,17.,4.,3158.,0.,0.,9995.,0.84520115746,2.58532118753,221.
8.42,6819.,15.,7.,3155.,0.,0.,9996.,0.845488573859,2.93102705604,195.
8.44,6829.,9.,3.,3154.,0.,0.,9995.,0.846813190184,4.89269843218,117.
8.46,6828.,8.,1.,3155.,0.,0.,9992.,0.846943397792,5.50513208564,104.
8.48,6836.,3.,0.,3157.,0.,0.,9996.,0.847596405763,14.6916710332,39.
8.5,6839.,4.,0.,3150.,0.,0.,9993.,0.84822294481,11.0268982825,52.
8.52,6844.,1.,2.,3146.,0.,0.,9993.,0.848843081486,44.1398402373,13.
8.54,6850.,2.,2.,3137.,0.,0.,9991.,0.849757316009,22.0936902162,26.
8.56,6861.,1.,2.,3124.,0.,0.,9988.,0.85137753314,44.2716317233,13.
8.58,6862.,5.,0.,3119.,0.,0.,9986.,0.851672161643,8.85739048108,65.
8.6,6868.,4.,1.,3112.,0.,0.,9985.,0.852502217038,11.0825288215,52.
8.62,6875.,3.,0.,3108.,0.,0.,9986.,0.85328564723,14.790284552,39.
8.64,6884.,0.,3.,3098.,0.,0.,9985.,0.854488244334,inf,0.
8.66,6890.,2.,0.,3092.,0.,0.,9984.,0.855318664928,22.2382852881,26.
8.68,6899.,1.,0.,3090.,0.,0.,9990.,0.855921541249,44.5079201449,13.
8.7,6905.,1.,0.,3089.,0.,0.,9995.,0.856237381494,44.5243438377,13.
8.72,6917.,1.,0.,3076.,0.,0.,9994.,0.857811235736,44.6061842583,13.
8.74,6919.,2.,0.,3074.,0.,0.,9995.,0.857973416735,22.3073088351,26.
8.76,6926.,1.,1.,3068.,0.,0.,9996.,0.858755515845,44.6552868239,13.
8.78,6928.,1.,1.,3063.,0.,0.,9993.,0.859261377635,44.681591637,13.
8.8,6934.,1.,0.,3054.,0.,0.,9989.,0.860349922682,44.7381959794,13.
8.82,6951.,0.,1.,3040.,0.,0.,9992.,0.862200286768,inf,0.
8.84,6953.,1.,1.,3036.,0.,0.,9991.,0.86253468879,44.8518038171,13.
8.86,6960.,5.,2.,3028.,0.,0.,9995.,0.863057519942,8.9757982074,65.
8.88,6962.,8.,1.,3026.,0.,0.,9997.,0.863132812057,5.61036327837,104.
8.9,6963.,5.,6.,3023.,0.,0.,9997.,0.863256789767,8.97787061357,65.
8.92,6965.,10.,4.,3018.,0.,0.,9997.,0.863504745185,4.49022467496,130.
8.94,6960.,10.,8.,3017.,0.,0.,9995.,0.863057519942,4.4878991037,130.
8.96,6956.,10.,4.,3022.,0.,0.,9992.,0.862820485506,4.48666652463,130.
8.98,6958.,8.,6.,3018.,0.,0.,9990.,0.863241351501,5.61106878476,104.
9.,6946.,19.,6.,3016.,0.,0.,9987.,0.862011438829,2.35918920101,247.
9.02,6941.,23.,9.,3014.,0.,0.,9987.,0.861390929587,1.94749253646,299.
9.04,6935.,20.,16.,3018.,0.,0.,9989.,0.860473999682,2.23723239917,260.
9.06,6931.,20.,12.,3028.,0.,0.,9991.,0.859805541206,2.23549440713,260.
9.08,6921.,25.,13.,3032.,0.,0.,9991.,0.858565019577,1.78581524072,325.
9.1,6916.,27.,6.,3042.,0.,0.,9991.,0.857944758762,1.65233805391,351.
9.12,6916.,14.,21.,3040.,0.,0.,9991.,0.857944758762,3.18665196112,182.
9.14,6900.,26.,12.,3051.,0.,0.,9989.,0.856131304659,1.71226260932,338.
9.16,6889.,26.,11.,3060.,0.,0.,9986.,0.855023247094,1.71004649419,338.
9.18,6886.,27.,12.,3061.,0.,0.,9986.,0.854650904266,1.64599433414,351.
9.2,6887.,26.,9.,3062.,0.,0.,9984.,0.854946247512,1.70989249502,338.
9.22,6884.,27.,9.,3064.,0.,0.,9984.,0.854573830096,1.645845895,351.
9.24,6882.,26.,13.,3063.,0.,0.,9984.,0.854325551819,1.70865110364,338.
9.26,6875.,27.,9.,3068.,0.,0.,9979.,0.853884204153,1.64451772652,351.
9.28,6870.,28.,10.,3073.,0.,0.,9981.,0.853092219962,1.58431412279,364.
9.3,6868.,24.,11.,3077.,0.,0.,9980.,0.852929322357,1.84801353177,312.
9.32,6862.,25.,9.,3083.,0.,0.,9979.,0.852269586749,1.77272074044,325.
9.34,6863.,20.,13.,3084.,0.,0.,9980.,0.852308377888,2.21600178251,260.
9.36,6864.,20.,6.,3088.,0.,0.,9978.,0.852603429193,2.2167689159,260.
9.38,6860.,21.,8.,3089.,0.,0.,9978.,0.852106574047,2.10997818336,273.
9.4,6858.,16.,8.,3094.,0.,0.,9976.,0.85202892798,2.76909401593,208.
9.42,6855.,15.,7.,3100.,0.,0.,9977.,0.85157084996,2.95211227986,195.
9.44,6860.,13.,7.,3100.,0.,0.,9980.,0.851935811207,3.40774324483,169.
9.46,6863.,12.,1.,3107.,0.,0.,9983.,0.852052249957,3.69222641648,156.
9.48,6870.,13.,4.,3101.,0.,0.,9988.,0.85249433795,3.4099773518,169.
9.5,6872.,10.,3.,3104.,0.,0.,9989.,0.85265714864,4.43381717293,130.
9.52,6876.,7.,6.,3098.,0.,0.,9987.,0.853324309442,6.33898058443,91.
9.54,6880.,4.,2.,3101.,0.,0.,9987.,0.853820716836,11.0996693189,52.
9.56,6883.,0.,0.,3098.,0.,0.,9981.,0.854706513828,inf,0.
9.58,6890.,0.,0.,3090.,0.,0.,9980.,0.85566147802,inf,0.
9.6,6893.,0.,0.,3085.,0.,0.,9978.,0.856205628995,inf,0.
9.62,6901.,0.,0.,3078.,0.,0.,9979.,0.857113438961,inf,0.
9.64,6908.,0.,0.,3068.,0.,0.,9976.,0.858240862421,inf,0.
9.66,6915.,0.,0.,3062.,0.,0.,9977.,0.859024424139,inf,0.
9.68,6921.,0.,0.,3054.,0.,0.,9975.,0.859942166475,inf,0.
9.7,6930.,0.,0.,3046.,0.,0.,9976.,0.860974113575,inf,0.
9.72,6937.,0.,0.,3037.,0.,0.,9974.,0.862016602481,inf,0.
9.74,6945.,1.,0.,3030.,0.,0.,9976.,0.862837693908,44.8675600832,13.
9.76,6950.,1.,0.,3024.,0.,0.,9975.,0.863545449646,44.9043633816,13.
9.78,6954.,1.,1.,3017.,0.,0.,9973.,0.864215730559,44.939217989,13.
9.8,6959.,3.,0.,3010.,0.,0.,9972.,0.864923837411,14.9920131818,39.
9.82,6959.,3.,2.,3004.,0.,0.,9968.,0.865270917602,14.9980292384,39.
9.84,6962.,4.,0.,3001.,0.,0.,9967.,0.8657307838,11.2545001894,52.
9.86,6971.,3.,3.,2993.,0.,0.,9970.,0.86658910417,15.0208778056,39.
9.88,6970.,6.,3.,2991.,0.,0.,9970.,0.866464790714,7.50936151952,78.
9.9,6976.,8.,0.,2989.,0.,0.,9973.,0.866949803908,5.6351737254,104.
9.92,6975.,9.,3.,2988.,0.,0.,9975.,0.866651728242,5.00732109651,117.
9.94,6977.,11.,4.,2984.,0.,0.,9976.,0.86681333195,4.09766302376,143.
9.96,6979.,11.,9.,2979.,0.,0.,9978.,0.866888014618,4.0980160691,143.
9.98,6971.,17.,6.,2983.,0.,0.,9977.,0.865981093372,2.64888334443,221.
10.,6968.,16.,10.,2983.,0.,0.,9977.,0.865608414663,2.81322734766,208.
