t,s,e,i,r,c,o,n,reff,coal,reportr
5.,9046.,27.,14.,913.,0.,0.,10000.,0.913283633281,1.75891662706,351.
5.02,9030.,29.,17.,922.,0.,0.,9998.,0.911850644341,1.63504253468,377.
5.04,9014.,25.,21.,936.,0.,0.,9996.,0.910417081977,1.89366753051,325.
5.06,9004.,26.,19.,949.,0.,0.,9998.,0.909225160758,1.81845032152,338.
5.08,8986.,32.,12.,966.,0.,0.,9996.,0.907589072403,1.47483224266,416.
5.1,8971.,33.,13.,979.,0.,0.,9996.,0.906074067275,1.42775307571,429.
5.12,8959.,31.,13.,990.,0.,0.,9993.,0.905133711945,1.51828880713,403.
5.14,8951.,33.,15.,997.,0.,0.,9996.,0.904054060436,1.42457003463,429.
5.16,8935.,28.,22.,1007.,0.,0.,9992.,0.902799319199,1.67662730708,364.
5.18,8910.,39.,17.,1026.,0.,0.,9992.,0.900273299839,1.20036439979,507.
5.2,8888.,42.,19.,1046.,0.,0.,9995.,0.897780852907,1.11153819884,546.
5.22,8875.,33.,19.,1067.,0.,0.,9994.,0.896557417688,1.41275714302,429.
5.24,8864.,38.,17.,1076.,0.,0.,9995.,0.895356602179,1.22522482403,494.
5.26,8838.,42.,18.,1094.,0.,0.,9992.,0.892998364083,1.1056170222,546.
5.28,8820.,33.,11.,1124.,0.,0.,9988.,0.891536530276,1.40484544165,429.
5.3,8804.,31.,15.,1135.,0.,0.,9985.,0.890186607282,1.49321624447,403.
5.32,8794.,24.,6.,1157.,0.,0.,9981.,0.889531838447,1.9273189833,312.
5.34,8790.,22.,6.,1165.,0.,0.,9983.,0.88894910166,2.1011524221,286.
5.36,8782.,21.,10.,1172.,0.,0.,9985.,0.88796215188,2.1987634237,273.
5.38,8781.,11.,10.,1182.,0.,0.,9984.,0.887949968661,4.19758167003,143.
5.4,8773.,15.,11.,1184.,0.,0.,9983.,0.887229859938,3.07573018112,195.
5.42,8764.,15.,4.,1201.,0.,0.,9984.,0.886230899139,3.07226711702,195.
5.44,8762.,10.,3.,1209.,0.,0.,9984.,0.886028655666,4.60734900946,130.
5.46,8759.,10.,4.,1210.,0.,0.,9983.,0.885814013815,4.60623287184,130.
5.48,8755.,4.,4.,1220.,0.,0.,9983.,0.885409486351,11.5103233226,52.
5.5,8761.,2.,5.,1220.,0.,0.,9988.,0.88557273716,23.0248911662,26.
5.52,8761.,3.,1.,1224.,0.,0.,9989.,0.885484082366,15.348390761,39.
5.54,8755.,4.,1.,1225.,0.,0.,9985.,0.885232138432,11.5080177996,52.
5.56,8764.,2.,2.,1223.,0.,0.,9991.,0.885609978681,23.0258594457,26.
5.58,8767.,0.,2.,1222.,0.,0.,9991.,0.885913131344,inf,0.
5.6,8762.,0.,0.,1225.,0.,0.,9987.,0.885762501068,inf,0.
5.62,8762.,2.,0.,1221.,0.,0.,9985.,0.885939919697,23.0344379121,26.
5.64,8767.,2.,1.,1219.,0.,0.,9989.,0.886090509086,23.0383532362,26.
5.66,8775.,1.,1.,1217.,0.,0.,9994.,0.886455362277,46.0956788384,13.
5.68,8777.,0.,3.,1214.,0.,0.,9994.,0.886657403386,inf,0.
5.7,8779.,1.,0.,1215.,0.,0.,9995.,0.886770714184,46.1120771376,13.
5.72,8780.,0.,1.,1212.,0.,0.,9993.,0.887049223225,inf,0.
5.74,8783.,1.,0.,1208.,0.,0.,9992.,0.887441121491,46.1469383176,13.
5.76,8787.,0.,1.,1205.,0.,0.,9993.,0.887756437868,inf,0.
5.78,8791.,1.,0.,1204.,0.,0.,9996.,0.887894005731,46.170488298,13.
5.8,8789.,4.,1.,1203.,0.,0.,9997.,0.887603209208,11.5388417197,52.
5.82,8790.,1.,3.,1204.,0.,0.,9998.,0.887615411269,46.156001386,13.
5.84,8788.,4.,2.,1204.,0.,0.,9998.,0.887413450993,11.5363748629,52.
5.86,8787.,6.,2.,1202.,0.,0.,9997.,0.88740122873,7.69081064899,78.
5.88,8789.,8.,0.,1202.,0.,0.,9999.,0.887425670812,5.76826686028,104.
5.9,8790.,5.,4.,1200.,0.,0.,9999.,0.887526640851,9.23027706485,65.
5.92,8789.,7.,7.,1199.,0.,0.,10002.,0.887159496346,6.59032768714,91.
5.94,8787.,9.,4.,1205.,0.,0.,10005.,0.88669166253,5.12310738351,117.
5.96,8779.,10.,9.,1203.,0.,0.,10001.,0.886238704957,4.60844126577,130.
5.98,8777.,15.,0.,1212.,0.,0.,10004.,0.885771100503,3.07067314841,195.
6.,8782.,12.,6.,1206.,0.,0.,10006.,0.886098549523,3.83976038127,156.
6.02,8767.,15.,6.,1211.,0.,0.,9999.,0.885204329959,3.06870834386,195.
6.04,8764.,19.,8.,1210.,0.,0.,10001.,0.884724457255,2.42135114617,247.
6.06,8751.,22.,9.,1217.,0.,0.,9999.,0.883588809338,2.08848264025,286.
6.08,8747.,17.,14.,1223.,0.,0.,10001.,0.883008309859,2.70096659486,221.
6.1,8733.,25.,11.,1232.,0.,0.,10001.,0.881595012004,1.83371762497,325.
6.12,8725.,30.,3.,1246.,0.,0.,10004.,0.880523282658,1.52624035661,390.
6.14,8714.,31.,4.,1253.,0.,0.,10002.,0.879589014809,1.47543963774,403.
6.16,8703.,24.,13.,1258.,0.,0.,9998.,0.87883013928,1.90413196844,312.
6.18,8688.,28.,15.,1266.,0.,0.,9997.,0.877403195084,1.62946307659,364.
6.2,8675.,29.,18.,1276.,0.,0.,9998.,0.876002695422,1.57076345386,377.
6.22,8665.,34.,9.,1292.,0.,0.,10000.,0.874817895465,1.3379567813,442.
6.24,8650.,27.,24.,1299.,0.,0.,10000.,0.873303496338,1.6819178448,351.
6.26,8633.,31.,20.,1318.,0.,0.,10002.,0.871412894749,1.46172485571,403.
6.28,8617.,41.,11.,1333.,0.,0.,10002.,0.869797858688,1.1031582598,533.
6.3,8599.,36.,18.,1345.,0.,0.,9998.,0.868328204949,1.25425185159,468.
6.32,8585.,28.,19.,1363.,0.,0.,9995.,0.867174687467,1.61046727672,364.
6.34,8567.,29.,19.,1379.,0.,0.,9994.,0.865443087023,1.55182898363,377.
6.36,8556.,20.,8.,1411.,0.,0.,9995.,0.864245384504,2.24703799971,260.
6.38,8556.,18.,6.,1416.,0.,0.,9996.,0.864158925382,2.49645911777,234.
6.4,8552.,17.,4.,1425.,0.,0.,9998.,0.863582138472,2.64154536474,221.
6.42,8551.,8.,6.,1432.,0.,0.,9997.,0.863567532363,5.61318896036,104.
6.44,8557.,7.,5.,1432.,0.,0.,10001.,0.86382783897,6.41700680377,91.
6.46,8553.,8.,8.,1434.,0.,0.,10003.,0.863251406564,5.61113414267,104.
6.48,8551.,5.,3.,1441.,0.,0.,10000.,0.863308462103,8.97840800587,65.
6.5,8552.,5.,1.,1443.,0.,0.,10001.,0.863323089736,8.97856013325,65.
6.52,8550.,5.,3.,1440.,0.,0.,9998.,0.863380178197,8.97915385325,65.
6.54,8556.,1.,5.,1440.,0.,0.,10002.,0.863640533705,44.9093077527,13.
6.56,8563.,3.,0.,1440.,0.,0.,10006.,0.864001580456,14.9760273946,39.
6.58,8567.,1.,2.,1436.,0.,0.,10006.,0.864405178064,44.9490692594,13.
6.6,8564.,2.,2.,1436.,0.,0.,10004.,0.864275231253,22.4711560126,26.
6.62,8571.,1.,1.,1433.,0.,0.,10006.,0.864808775673,44.970056335,13.
6.64,8570.,0.,0.,1430.,0.,0.,10000.,0.865226700997,inf,0.
6.66,8567.,2.,0.,1429.,0.,0.,9998.,0.865096840539,22.492517854,26.
6.68,8568.,2.,0.,1427.,0.,0.,9997.,0.865284366423,22.497393527,26.
6.7,8568.,1.,1.,1424.,0.,0.,9994.,0.865544107578,45.008293594,13.
6.72,8567.,1.,0.,1422.,0.,0.,9990.,0.865789610782,45.0210597607,13.
6.74,8567.,2.,1.,1417.,0.,0.,9987.,0.866049685763,22.5172918298,26.
6.76,8576.,0.,1.,1412.,0.,0.,9989.,0.866785925165,inf,0.
6.78,8584.,0.,0.,1406.,0.,0.,9990.,0.867507647829,inf,0.
6.8,8587.,1.,0.,1400.,0.,0.,9988.,0.867984601529,45.1351992795,13.
6.82,8591.,3.,0.,1394.,0.,0.,9988.,0.868388926486,15.0520747258,39.
6.84,8592.,3.,2.,1388.,0.,0.,9985.,0.868750946135,15.058349733,39.
6.86,8585.,5.,4.,1388.,0.,0.,9982.,0.868304047409,9.03036209305,65.
6.88,8586.,5.,5.,1385.,0.,0.,9981.,0.868492195236,9.03231883045,65.
6.9,8583.,7.,7.,1387.,0.,0.,9984.,0.867927864823,6.44746413869,91.
6.92,8581.,9.,7.,1388.,0.,0.,9985.,0.867638718434,5.01302370651,117.
6.94,8577.,10.,4.,1392.,0.,0.,9983.,0.867408014213,4.51052167391,130.
6.96,8581.,8.,6.,1388.,0.,0.,9983.,0.867812541677,5.6407815209,104.
6.98,8577.,8.,6.,1389.,0.,0.,9980.,0.867668758105,5.63984692768,104.
7.,8576.,14.,3.,1389.,0.,0.,9982.,0.867393769432,3.22174828646,182.
7.02,8575.,11.,6.,1388.,0.,0.,9980.,0.867466433573,4.10075041325,143.
7.04,8568.,14.,6.,1392.,0.,0.,9980.,0.866758297708,3.21938796292,182.
7.06,8568.,10.,11.,1393.,0.,0.,9982.,0.866584633453,4.50624009396,130.
7.08,8558.,17.,10.,1397.,0.,0.,9982.,0.86557321348,2.64763571182,221.
7.1,8540.,25.,14.,1402.,0.,0.,9981.,0.863839197218,1.79678553021,325.
7.12,8521.,32.,11.,1416.,0.,0.,9980.,0.862003671192,1.40075596569,416.
7.14,8511.,33.,13.,1424.,0.,0.,9981.,0.860905785424,1.3565788134,429.
7.16,8504.,30.,21.,1427.,0.,0.,9982.,0.860111545622,1.49086001241,390.
7.18,8486.,32.,15.,1448.,0.,0.,9981.,0.858376982154,1.394862596,416.
7.2,8469.,31.,26.,1455.,0.,0.,9981.,0.85665739593,1.4369736964,403.
7.22,8455.,35.,15.,1476.,0.,0.,9981.,0.855241266098,1.27064416677,455.
7.24,8453.,30.,17.,1485.,0.,0.,9985.,0.854696432458,1.48147381626,390.
7.26,8439.,28.,17.,1501.,0.,0.,9985.,0.853280869929,1.58466447273,364.
7.28,8431.,29.,14.,1512.,0.,0.,9986.,0.852386610345,1.52841737027,377.
7.3,8417.,32.,13.,1523.,0.,0.,9985.,0.851056414527,1.38296667361,416.
7.32,8398.,31.,11.,1538.,0.,0.,9978.,0.84973099921,1.42535522448,403.
7.34,8393.,25.,11.,1548.,0.,0.,9977.,0.849310204774,1.76656522593,325.
7.36,8387.,15.,13.,1563.,0.,0.,9978.,0.848617991233,2.94187570294,195.
7.38,8382.,15.,12.,1572.,0.,0.,9981.,0.847857160548,2.93923815657,195.
7.4,8376.,14.,9.,1583.,0.,0.,9982.,0.847165369959,3.14661423127,182.
7.42,8382.,14.,1.,1583.,0.,0.,9980.,0.847942116176,3.14949928865,182.
7.44,8385.,6.,6.,1583.,0.,0.,9980.,0.848245602974,7.35146189245,78.
7.46,8373.,9.,2.,1589.,0.,0.,9973.,0.847626183162,4.89739572493,117.
7.48,8377.,6.,4.,1587.,0.,0.,9974.,0.847946092074,7.34886613131,78.
7.5,8376.,6.,2.,1587.,0.,0.,9971.,0.848099962183,7.35019967225,78.
7.52,8375.,7.,3.,1584.,0.,0.,9969.,0.848168835742,6.30068277979,91.
7.54,8379.,4.,4.,1582.,0.,0.,9969.,0.848573931305,11.031461107,52.
7.56,8378.,5.,1.,1581.,0.,0.,9965.,0.848813238511,8.82765768051,65.
7.58,8381.,5.,0.,1577.,0.,0.,9963.,0.849287636256,8.83259141706,65.
7.6,8387.,3.,0.,1576.,0.,0.,9966.,0.849639806996,14.7270899879,39.
7.62,8389.,3.,0.,1573.,0.,0.,9965.,0.84992769848,14.732080107,39.
7.64,8395.,3.,0.,1571.,0.,0.,9969.,0.850194313558,14.736701435,39.
7.66,8402.,1.,2.,1566.,0.,0.,9971.,0.850732555189,44.2380928698,13.
7.68,8412.,0.,0.,1567.,0.,0.,9979.,0.851062260944,inf,0.
7.7,8415.,1.,0.,1565.,0.,0.,9981.,0.851195180865,44.262149405,13.
7.72,8418.,0.,2.,1564.,0.,0.,9984.,0.851242778292,inf,0.
7.74,8418.,0.,1.,1563.,0.,0.,9982.,0.851413333848,inf,0.
7.76,8414.,2.,1.,1558.,0.,0.,9975.,0.851605964992,22.1417550898,26.
7.78,8419.,0.,2.,1558.,0.,0.,9979.,0.851770467771,inf,0.
7.8,8421.,3.,1.,1553.,0.,0.,9978.,0.852058197707,14.7690087603,39.
7.82,8426.,2.,1.,1550.,0.,0.,9979.,0.852478674598,22.1644455395,26.
7.84,8427.,3.,3.,1548.,0.,0.,9981.,0.852409006435,14.7750894449,39.
7.86,8420.,10.,2.,1547.,0.,0.,9979.,0.851871640175,4.42973252891,130.
7.88,8415.,8.,4.,1550.,0.,0.,9977.,0.851536443843,5.53498688498,104.
7.9,8414.,12.,1.,1548.,0.,0.,9975.,0.851605964992,3.69029251497,156.
7.92,8417.,10.,3.,1547.,0.,0.,9977.,0.851738829212,4.4290419119,130.
7.94,8411.,15.,8.,1545.,0.,0.,9979.,0.850961088541,2.94999844027,195.
7.96,8404.,18.,8.,1550.,0.,0.,9980.,0.850167686034,2.45603998188,234.
7.98,8398.,18.,4.,1561.,0.,0.,9981.,0.849475594641,2.45404060674,234.
8.,8391.,16.,9.,1563.,0.,0.,9979.,0.848937640464,2.75904733151,208.
8.02,8383.,16.,7.,1571.,0.,0.,9977.,0.848298277924,2.75696940325,208.
8.04,8375.,17.,5.,1578.,0.,0.,9975.,0.847658658998,2.59283825105,221.
8.06,8373.,12.,10.,1580.,0.,0.,9975.,0.84745623305,3.67231034322,156.
8.08,8369.,20.,5.,1583.,0.,0.,9977.,0.846881580335,2.20189210887,260.
8.1,8358.,19.,16.,1585.,0.,0.,9978.,0.845683697475,2.31450275098,247.
8.12,8348.,25.,11.,1593.,0.,0.,9977.,0.844756533951,1.75709359062,325.
8.14,8340.,24.,12.,1604.,0.,0.,9980.,0.843693300991,1.82800215215,312.
8.16,8325.,23.,16.,1611.,0.,0.,9975.,0.842598010288,1.90500419717,299.
8.18,8315.,27.,15.,1619.,0.,0.,9976.,0.841501519491,1.62066959309,351.
8.2,8307.,29.,12.,1632.,0.,0.,9980.,0.840354946203,1.50684335181,377.
8.22,8298.,23.,13.,1639.,0.,0.,9973.,0.840033687791,1.89920659848,299.
8.24,8290.,23.,13.,1644.,0.,0.,9970.,0.839476346339,1.89794652216,299.
8.26,8276.,26.,13.,1652.,0.,0.,9967.,0.838310904099,1.6766218082,338.
8.28,8269.,26.,15.,1659.,0.,0.,9969.,0.837433803313,1.67486760663,338.
8.3,8257.,26.,14.,1670.,0.,0.,9967.,0.836386314058,1.67277262812,338.
8.32,8259.,18.,14.,1679.,0.,0.,9970.,0.836337170617,2.41608515956,234.
8.34,8252.,24.,9.,1687.,0.,0.,9972.,0.835460729555,1.81016491404,312.
8.36,8254.,22.,13.,1688.,0.,0.,9977.,0.835244421566,1.97421408734,286.
8.38,8246.,19.,8.,1704.,0.,0.,9977.,0.834434880086,2.28371651392,247.
8.4,8245.,15.,5.,1715.,0.,0.,9980.,0.834082885692,2.89148733706,195.
8.42,8246.,15.,4.,1718.,0.,0.,9983.,0.833933366585,2.89096900416,195.
8.44,8250.,9.,5.,1720.,0.,0.,9984.,0.834254326552,4.82013610896,117.
8.46,8254.,7.,1.,1723.,0.,0.,9985.,0.83457522223,6.19970165085,91.
8.48,8257.,8.,3.,1719.,0.,0.,9987.,0.834711363995,5.42562386597,104.
8.5,8257.,9.,2.,1721.,0.,0.,9989.,0.834544237883,4.82181115221,117.
8.52,8258.,6.,0.,1726.,0.,0.,9990.,0.834561760924,7.23286859468,78.
8.54,8263.,2.,2.,1724.,0.,0.,9991.,0.834983484008,21.7095705842,26.
8.56,8262.,0.,2.,1722.,0.,0.,9986.,0.835300459574,inf,0.
8.58,8264.,3.,3.,1718.,0.,0.,9988.,0.835335361247,14.4791462616,39.
8.6,8260.,6.,1.,1721.,0.,0.,9988.,0.83493103629,7.23606898118,78.
8.62,8266.,5.,1.,1719.,0.,0.,9991.,0.835286636671,8.68698102137,65.
8.64,8269.,1.,2.,1719.,0.,0.,9991.,0.835589789333,43.4506690453,13.
8.66,8270.,2.,2.,1716.,0.,0.,9990.,0.835774492958,21.7301368169,26.
8.68,8273.,4.,2.,1714.,0.,0.,9993.,0.835826676964,10.8657468005,52.
8.7,8275.,1.,7.,1713.,0.,0.,9996.,0.835777829305,43.4604471239,13.
8.72,8278.,2.,0.,1717.,0.,0.,9997.,0.835997197158,21.7359271261,26.
8.74,8280.,0.,2.,1713.,0.,0.,9995.,0.836366501133,inf,0.
8.76,8282.,2.,0.,1711.,0.,0.,9995.,0.836568522027,21.7507815727,26.
8.78,8284.,2.,0.,1708.,0.,0.,9994.,0.836854270212,21.7582110255,26.
8.8,8284.,2.,0.,1707.,0.,0.,9993.,0.836938014259,21.7603883707,26.
8.82,8287.,2.,1.,1703.,0.,0.,9993.,0.837241106249,21.7682687625,26.
8.84,8286.,3.,1.,1700.,0.,0.,9990.,0.837391469002,14.5147854627,39.
8.86,8288.,4.,0.,1698.,0.,0.,9990.,0.837593591008,10.8887166831,52.
8.88,8296.,3.,2.,1692.,0.,0.,9993.,0.838150382218,14.5279399585,39.
8.9,8299.,5.,4.,1687.,0.,0.,9995.,0.838285699626,8.71817127611,65.
8.92,8299.,7.,4.,1685.,0.,0.,9995.,0.838285699626,6.22726519722,91.
8.94,8306.,11.,5.,1679.,0.,0.,10001.,0.838489427426,3.96376820238,143.
8.96,8303.,16.,7.,1678.,0.,0.,10004.,0.837935222454,2.72328947298,208.
8.98,8298.,15.,7.,1680.,0.,0.,10000.,0.837765596834,2.90425406903,195.
9.,8297.,17.,11.,1678.,0.,0.,10003.,0.837413412869,2.56149985113,221.
9.02,8296.,17.,8.,1684.,0.,0.,10005.,0.837145104399,2.56067914287,221.
9.04,8286.,20.,10.,1689.,0.,0.,10005.,0.836136009528,2.17395362477,260.
9.06,8276.,17.,9.,1699.,0.,0.,10001.,0.835460932022,2.55552755677,221.
9.08,8269.,23.,12.,1699.,0.,0.,10003.,0.834587382308,1.88689321217,299.
9.1,8266.,22.,11.,1702.,0.,0.,10001.,0.834451433554,1.97233975204,286.
9.12,8247.,31.,12.,1708.,0.,0.,9998.,0.832783196443,1.3969266521,403.
9.14,8241.,28.,14.,1713.,0.,0.,9996.,0.83234381768,1.54578137569,364.
9.16,8218.,36.,20.,1721.,0.,0.,9995.,0.830103853419,1.19903889938,468.
9.18,8209.,34.,27.,1729.,0.,0.,9999.,0.828863048321,1.26767289743,442.
9.2,8180.,49.,16.,1750.,0.,0.,9995.,0.826265456433,0.876853137439,637.
9.22,8161.,48.,16.,1770.,0.,0.,9995.,0.82434625794,0.893041779435,624.
9.24,8155.,35.,22.,1784.,0.,0.,9996.,0.823657788276,1.22372014258,455.
9.26,8139.,33.,20.,1801.,0.,0.,9993.,0.82228856809,1.29572744063,429.
9.28,8129.,27.,18.,1818.,0.,0.,9992.,0.821360455039,1.58187939489,351.
9.3,8120.,29.,10.,1837.,0.,0.,9996.,0.820122776309,1.47056497821,377.
9.32,8123.,16.,17.,1842.,0.,0.,9998.,0.820261659356,2.66585039291,208.
9.34,8117.,13.,12.,1854.,0.,0.,9996.,0.819819775283,3.27927910113,169.
9.36,8114.,13.,6.,1862.,0.,0.,9995.,0.819598766931,3.27839506773,169.
9.38,8104.,18.,4.,1866.,0.,0.,9992.,0.818834435679,2.36552170307,234.
9.4,8107.,11.,5.,1869.,0.,0.,9992.,0.819137558002,3.87228663783,143.
9.42,8111.,7.,4.,1870.,0.,0.,9992.,0.8195417211,6.08802421388,91.
9.44,8116.,4.,2.,1872.,0.,0.,9994.,0.819882817122,10.6584766226,52.
9.46,8127.,3.,3.,1866.,0.,0.,9999.,0.820583505142,14.2234474225,39.
9.48,8127.,5.,1.,1864.,0.,0.,9997.,0.820747671092,8.53577577936,65.
9.5,8130.,3.,1.,1863.,0.,0.,9997.,0.821050641809,14.231544458,39.
9.52,8132.,2.,0.,1864.,0.,0.,9998.,0.821170480596,21.3504324955,26.
9.54,8133.,2.,1.,1860.,0.,0.,9996.,0.821435780754,21.3573302996,26.
9.56,8136.,0.,2.,1857.,0.,0.,9995.,0.821820996765,inf,0.
9.58,8138.,2.,0.,1855.,0.,0.,9995.,0.822023017659,21.3725984591,26.
9.6,8140.,3.,1.,1852.,0.,0.,9996.,0.822142783147,14.2504749079,39.
9.62,8140.,3.,1.,1849.,0.,0.,9993.,0.822389598753,14.2547530451,39.
9.64,8141.,4.,2.,1846.,0.,0.,9993.,0.822490629416,10.6923781824,52.
9.66,8147.,0.,4.,1847.,0.,0.,9998.,0.822685182663,inf,0.
9.68,8155.,0.,0.,1848.,0.,0.,10003.,0.82308140074,inf,0.
9.7,8160.,0.,0.,1843.,0.,0.,10003.,0.823586049055,inf,0.
9.72,8163.,0.,0.,1841.,0.,0.,10004.,0.823806482102,inf,0.
9.74,8165.,0.,0.,1836.,0.,0.,10001.,0.824255499029,inf,0.
9.76,8172.,1.,0.,1831.,0.,0.,10004.,0.824714758268,42.8851674299,13.
9.78,8177.,1.,1.,1827.,0.,0.,10006.,0.825054411233,42.9028293841,13.
9.8,8185.,0.,0.,1821.,0.,0.,10006.,0.82586160645,inf,0.
9.82,8184.,1.,0.,1817.,0.,0.,10002.,0.826090945283,42.9567291547,13.
9.84,8185.,1.,2.,1813.,0.,0.,10001.,0.826274495964,42.9662737901,13.
9.86,8178.,4.,2.,1815.,0.,0.,9999.,0.825732977119,10.7345287025,52.
9.88,8178.,4.,3.,1813.,0.,0.,9998.,0.825815566935,10.7356023702,52.
9.9,8185.,6.,4.,1806.,0.,0.,10001.,0.826274495964,7.16104563169,78.
9.92,8183.,10.,5.,1806.,0.,0.,10004.,0.825824873581,4.29428934262,130.
9.94,8179.,16.,5.,1805.,0.,0.,10005.,0.825338694416,2.68235075685,208.
9.96,8172.,13.,10.,1805.,0.,0.,10000.,0.825044644171,3.30017857668,169.
9.98,8165.,13.,11.,1812.,0.,0.,10001.,0.824255499029,3.29702199611,169.
10.,8162.,17.,9.,1813.,0.,0.,10001.,0.823952649488,2.52032575138,221.
