t,neff
5.,0.494473088565
5.02,0.449551605099
5.04,0.404541345963
5.06,0.607935934116
5.08,0.630558252287
5.1,0.607587502907
5.12,0.540458595417
5.14,0.743556997137
5.16,0.653975834985
5.18,0.767818214787
5.2,0.836927931749
5.22,0.679300304845
5.24,0.543419234002
5.26,0.566236009687
5.28,0.520708764165
5.3,0.657613065543
5.32,0.566501682079
5.34,0.407840459652
5.36,0.362474552136
5.38,0.362524853025
5.4,0.271454858651
5.42,0.225984624434
5.44,0.225939413946
5.46,0.203214383137
5.48,0.112748058152
5.5,0.135215721195
5.52,0.112531575794
5.54,0.0674575698804
5.56,0.0448752186486
5.58,0.0224105523727
5.6,0.0672158424501
5.62,0.0894503239129
5.64,0.111767976202
5.66,0.089345651184
5.68,0.0892740573695
5.7,0.0892144320183
5.72,0.0668126606149
5.74,0.0222316258068
5.76,0.0221910234685
5.78,0.
5.8,0.0221446134515
5.82,0.0221152828377
5.84,0.0441997571855
5.86,0.0882653976491
5.88,0.044106425075
5.9,0.198590192638
5.92,0.198413397435
5.94,0.286729044156
5.96,0.419260638832
5.98,0.353295019746
6.,0.331147778524
6.02,0.464081315952
6.04,0.397220147053
6.06,0.530276953758
6.08,0.597370212359
6.1,0.664845783051
6.12,0.599534382066
6.14,0.644309314766
6.16,0.623189842603
6.18,0.624271762506
6.2,0.625085952401
6.22,0.716445280521
6.24,0.784165705381
6.26,0.672005594868
6.28,0.55989247073
6.3,0.649320869333
6.32,0.49191141337
6.34,0.402526457609
6.36,0.201081446434
6.38,0.290596738125
6.4,0.379744500224
6.42,0.312344280987
6.44,0.289985555507
6.46,0.267705760962
6.48,0.200544950958
6.5,0.156000228194
6.52,0.111306122318
6.54,0.
6.56,0.0222064460153
6.58,0.
6.6,0.
6.62,0.
6.64,0.0661272455958
6.66,0.0880622858514
6.68,0.0659381027879
6.7,0.0658622869665
6.72,0.0877467879465
6.74,0.065702223248
6.76,0.0874373869844
6.78,0.130972957257
6.8,0.108910195705
6.82,0.0870006519453
6.84,0.108585124486
6.86,0.108620390847
6.88,0.195616909354
6.9,0.347798163793
6.92,0.238994711663
6.94,0.173846927818
6.96,0.348089862305
6.98,0.39115558759
7.,0.412901925069
7.02,0.544278811905
7.04,0.480059775068
7.06,0.591034626096
7.08,0.724128325984
7.1,0.658947581022
7.12,0.681965113384
7.14,0.837863186785
7.16,0.661229556482
7.18,0.83935685099
7.2,0.684851663615
7.22,0.685078135727
7.24,0.708302197597
7.26,0.687144834389
7.28,0.82202197499
7.3,0.711648033781
7.32,0.622920379232
7.34,0.400542122949
7.36,0.467532754075
7.38,0.401116675152
7.4,0.31218790034
7.42,0.245053267468
7.44,0.155709268672
7.46,0.133376243974
7.48,0.155476248483
7.5,0.133088007972
7.52,0.0886106140238
7.54,0.044258348413
7.56,0.0441970538604
7.58,0.0662189258408
7.6,0.0220431901966
7.62,0.0220163498607
7.64,0.
7.66,0.
7.68,0.0219244942325
7.7,0.0219029326909
7.72,0.
7.74,0.
7.76,0.0217946240192
7.78,0.0217632538835
7.8,0.
7.82,0.0434291529498
7.84,0.0866517126742
7.86,0.194978438916
7.88,0.216419030037
7.9,0.259241552144
7.92,0.237316957285
7.94,0.302441485592
7.96,0.302369426403
7.98,0.432009468228
8.,0.324059436351
8.02,0.518483104289
8.04,0.410235461232
8.06,0.56189760422
8.08,0.584584530951
8.1,0.607007503667
8.12,0.586205902267
8.14,0.630281737005
8.16,0.893556360746
8.18,0.872891128658
8.2,0.786729109975
8.22,0.809803736918
8.24,0.81038612126
8.26,0.591729322797
8.28,0.659225577352
8.3,0.748798141706
8.32,0.660750891512
8.34,0.418035261805
8.36,0.352133138418
8.38,0.263788189456
8.4,0.329985237803
8.42,0.307876001166
8.44,0.24160206321
8.46,0.109707974079
8.48,0.153385742991
8.5,0.087508158468
8.52,0.043707266977
8.54,0.0218338543425
8.56,0.0436562338295
8.58,0.
8.6,0.
8.62,0.0217246241703
8.64,0.
8.66,0.
8.68,0.
8.7,0.
8.72,0.
8.74,0.0215437229193
8.76,0.
8.78,0.
8.8,0.
8.82,0.0214604258201
8.84,0.0428796410288
8.86,0.0856804222493
8.88,0.149844930158
8.9,0.171049842247
8.92,0.170974864036
8.94,0.0853462768774
8.96,0.277446690474
8.98,0.170665005754
9.,0.191948396258
9.02,0.320162749071
9.04,0.38436354775
9.06,0.449023600443
9.08,0.449409128284
9.1,0.599846606249
9.12,0.407030471606
9.14,0.471675238409
9.16,0.55828323974
9.18,0.752861865522
9.2,0.688883635859
9.22,0.537683825828
9.24,0.516662726895
9.26,0.387505554167
9.28,0.495176134193
9.3,0.452245116433
9.32,0.495783239402
9.34,0.45318199345
9.36,0.410427871542
9.38,0.388975775574
9.4,0.323989659867
9.42,0.28046360303
9.44,0.258681101195
9.46,0.150642324779
9.48,0.107467764996
9.5,0.0644186583639
9.52,0.0214479774885
9.54,0.
9.56,0.042823112657
9.58,0.0427863517703
9.6,0.0427436813114
9.62,0.
9.64,0.
9.66,0.0212599989538
9.68,0.0212406583345
9.7,0.
9.72,0.0423457264578
9.74,0.0211573959648
9.76,0.0211149877904
9.78,0.0210793864945
9.8,0.0420860512542
9.82,0.105155175096
9.84,0.0630203699551
9.86,0.16804238264
9.88,0.125935012911
9.9,0.104820633045
9.92,0.104731516954
9.94,0.125585284896
9.96,0.188103461935
9.98,0.188034393583
10.,0.146068947161
