t,s,e,i,r,c,o,n,reff,coal,reportr
5.,6436.,26.,31.,3506.,0.,0.,9999.,0.855599428717,1.71119885743,338.
5.02,6419.,29.,20.,3529.,0.,0.,9997.,0.853510174193,1.53043203648,377.
5.04,6407.,33.,22.,3535.,0.,0.,9997.,0.851914579538,1.3424108526,429.
5.06,6402.,26.,18.,3552.,0.,0.,9998.,0.851164606428,1.70232921286,338.
5.08,6400.,29.,20.,3548.,0.,0.,9997.,0.850983815989,1.52590201488,377.
5.1,6383.,35.,20.,3557.,0.,0.,9995.,0.848893219821,1.26121278373,455.
5.12,6376.,38.,15.,3565.,0.,0.,9994.,0.848047117161,1.16048552875,494.
5.14,6372.,30.,15.,3577.,0.,0.,9994.,0.847515092621,1.46902616054,390.
5.16,6373.,25.,18.,3581.,0.,0.,9997.,0.847393728015,1.76257895427,325.
5.18,6379.,28.,9.,3581.,0.,0.,9997.,0.848191525343,1.57521283278,364.
5.2,6372.,27.,10.,3585.,0.,0.,9994.,0.847515092621,1.63225128949,351.
5.22,6373.,31.,5.,3587.,0.,0.,9996.,0.847478501297,1.42157684089,403.
5.24,6367.,25.,10.,3593.,0.,0.,9995.,0.846765334576,1.76127189592,325.
5.26,6368.,18.,13.,3597.,0.,0.,9996.,0.846813603681,2.44635041064,234.
5.28,6369.,19.,10.,3598.,0.,0.,9996.,0.846946583205,2.31795906982,247.
5.3,6375.,18.,9.,3596.,0.,0.,9998.,0.847574877535,2.44854964621,234.
5.32,6371.,21.,13.,3595.,0.,0.,10000.,0.846873657234,2.09702048458,273.
5.34,6372.,21.,7.,3600.,0.,0.,10000.,0.847006583565,2.0973496355,273.
5.36,6377.,20.,8.,3597.,0.,0.,10002.,0.847501714879,2.20350445869,260.
5.38,6385.,17.,10.,3593.,0.,0.,10005.,0.848310470638,2.59483202783,221.
5.4,6390.,15.,5.,3594.,0.,0.,10004.,0.849059633677,2.94340673008,195.
5.42,6393.,13.,2.,3595.,0.,0.,10003.,0.849543173572,3.39817269429,169.
5.44,6393.,12.,0.,3594.,0.,0.,9999.,0.849883024827,3.68282644092,156.
5.46,6397.,11.,5.,3587.,0.,0.,10000.,0.85032974185,4.01974059784,143.
5.48,6414.,8.,4.,3578.,0.,0.,10004.,0.852248590047,5.53961583531,104.
5.5,6421.,8.,1.,3578.,0.,0.,10008.,0.85283770364,5.54344507366,104.
5.52,6427.,6.,2.,3574.,0.,0.,10009.,0.853549337388,7.39742759069,78.
5.54,6440.,6.,2.,3558.,0.,0.,10006.,0.855532254747,7.41461287447,78.
5.56,6451.,0.,7.,3546.,0.,0.,10004.,0.857164897786,inf,0.
5.58,6455.,1.,2.,3544.,0.,0.,10002.,0.857867895491,44.6091305655,13.
5.6,6462.,1.,1.,3538.,0.,0.,10002.,0.858798193751,44.6575060751,13.
5.62,6474.,1.,0.,3531.,0.,0.,10006.,0.860049039942,44.722550077,13.
5.64,6488.,0.,1.,3514.,0.,0.,10003.,0.862167387789,inf,0.
5.66,6497.,0.,1.,3505.,0.,0.,10003.,0.863363365978,inf,0.
5.68,6500.,0.,0.,3499.,0.,0.,9999.,0.864107564739,inf,0.
5.7,6509.,0.,0.,3495.,0.,0.,10004.,0.864871542348,inf,0.
5.72,6515.,0.,0.,3484.,0.,0.,9999.,0.866101659119,inf,0.
5.74,6519.,0.,0.,3478.,0.,0.,9997.,0.866806796317,inf,0.
5.76,6527.,1.,0.,3469.,0.,0.,9997.,0.867870526087,45.1292673565,13.
5.78,6531.,1.,0.,3464.,0.,0.,9996.,0.868489265962,45.16144183,13.
5.8,6542.,1.,0.,3454.,0.,0.,9997.,0.869865019406,45.2329810091,13.
5.82,6547.,2.,0.,3447.,0.,0.,9996.,0.870616938333,22.6360403966,26.
5.84,6555.,3.,1.,3439.,0.,0.,9998.,0.871506403489,15.1061109938,39.
5.86,6559.,4.,1.,3432.,0.,0.,9996.,0.872212692611,11.3387650039,52.
5.88,6563.,9.,1.,3424.,0.,0.,9997.,0.872657310052,5.04202001364,117.
5.9,6568.,8.,6.,3419.,0.,0.,10001.,0.872972847232,5.67432350701,104.
5.92,6577.,9.,3.,3412.,0.,0.,10001.,0.874169064592,5.05075459542,117.
5.94,6581.,6.,9.,3405.,0.,0.,10001.,0.874700716753,7.58073954519,78.
5.96,6582.,15.,10.,3397.,0.,0.,10004.,0.874571284642,3.03184712009,195.
5.98,6577.,19.,6.,3400.,0.,0.,10002.,0.874081665166,2.39222350466,247.
6.,6580.,18.,10.,3396.,0.,0.,10004.,0.874305538278,2.52577155502,234.
6.02,6575.,21.,14.,3394.,0.,0.,10004.,0.873641172367,2.16330195062,273.
6.04,6565.,22.,13.,3402.,0.,0.,10002.,0.872486868149,2.06224168835,286.
6.06,6566.,20.,7.,3409.,0.,0.,10002.,0.8726197679,2.26881139654,260.
6.08,6559.,25.,8.,3403.,0.,0.,9995.,0.872299957513,1.81438391163,325.
6.1,6545.,34.,1.,3411.,0.,0.,9991.,0.870786546787,1.3317911892,442.
6.12,6539.,23.,13.,3411.,0.,0.,9986.,0.87042387433,1.96791484631,299.
6.14,6541.,20.,12.,3414.,0.,0.,9987.,0.870602917362,2.26356758514,260.
6.16,6530.,23.,12.,3421.,0.,0.,9986.,0.869225860128,1.96520629246,299.
6.18,6527.,24.,15.,3420.,0.,0.,9986.,0.868826522061,1.88245746446,312.
6.2,6518.,30.,11.,3429.,0.,0.,9988.,0.867454773676,1.50358827437,390.
6.22,6518.,28.,9.,3434.,0.,0.,9989.,0.867367932673,1.61082616068,364.
6.24,6516.,28.,6.,3439.,0.,0.,9989.,0.86710178725,1.61033189061,364.
6.26,6514.,22.,15.,3440.,0.,0.,9991.,0.866662118528,2.04847409834,286.
6.28,6508.,25.,13.,3446.,0.,0.,9992.,0.865777186382,1.80081654768,325.
6.3,6511.,20.,7.,3456.,0.,0.,9994.,0.866002945395,2.25160765803,260.
6.32,6519.,16.,7.,3455.,0.,0.,9997.,0.866806796317,2.81712208803,208.
6.34,6515.,16.,8.,3457.,0.,0.,9996.,0.86636159359,2.81567517917,208.
6.36,6509.,20.,13.,3453.,0.,0.,9995.,0.865650316123,2.25069082192,260.
6.38,6512.,13.,13.,3459.,0.,0.,9997.,0.865876032769,3.46350413107,169.
6.4,6507.,17.,9.,3466.,0.,0.,9999.,0.865038142116,2.64599902294,221.
6.42,6511.,13.,4.,3473.,0.,0.,10001.,0.865396803947,3.46158721579,169.
6.44,6519.,15.,2.,3468.,0.,0.,10004.,0.866200274169,3.00282761712,195.
6.46,6521.,12.,5.,3467.,0.,0.,10005.,0.866379417233,3.75431080801,156.
6.48,6520.,14.,5.,3462.,0.,0.,10001.,0.866593021308,3.21877407914,182.
6.5,6522.,9.,5.,3464.,0.,0.,10000.,0.866945533273,5.00901863669,117.
6.52,6524.,7.,6.,3459.,0.,0.,9996.,0.867558409299,6.44471961194,91.
6.54,6529.,5.,1.,3463.,0.,0.,9998.,0.868049627518,9.02771612619,65.
6.56,6531.,3.,3.,3460.,0.,0.,9997.,0.868402390972,15.0523081102,39.
6.58,6544.,3.,1.,3447.,0.,0.,9995.,0.870305065096,15.085287795,39.
6.6,6556.,2.,1.,3434.,0.,0.,9993.,0.872075481377,22.6739625158,26.
6.62,6555.,3.,0.,3432.,0.,0.,9990.,0.872204306515,15.1182079796,39.
6.64,6555.,2.,1.,3429.,0.,0.,9987.,0.872466308409,22.6841240186,26.
6.66,6568.,2.,0.,3417.,0.,0.,9987.,0.874196600096,22.7291116025,26.
6.68,6577.,1.,1.,3407.,0.,0.,9986.,0.875482156518,45.5250721389,13.
6.7,6587.,0.,0.,3401.,0.,0.,9988.,0.876637710065,inf,0.
6.72,6596.,0.,0.,3392.,0.,0.,9988.,0.877835484376,inf,0.
6.74,6606.,0.,0.,3382.,0.,0.,9988.,0.879166344722,inf,0.
6.76,6604.,1.,0.,3376.,0.,0.,9981.,0.879516573937,45.7348618447,13.
6.78,6614.,1.,0.,3365.,0.,0.,9980.,0.880936629018,45.8087047089,13.
6.8,6629.,1.,0.,3353.,0.,0.,9983.,0.882669188351,45.8987977942,13.
6.82,6637.,2.,0.,3346.,0.,0.,9985.,0.883557397478,22.9724923344,26.
6.84,6639.,4.,0.,3340.,0.,0.,9983.,0.88400071526,11.4920092984,52.
6.86,6643.,6.,1.,3331.,0.,0.,9981.,0.884710569452,7.66749160192,78.
6.88,6648.,6.,2.,3324.,0.,0.,9980.,0.88546518139,7.67403157204,78.
6.9,6651.,10.,1.,3319.,0.,0.,9981.,0.885776004429,4.60603522303,130.
6.92,6655.,10.,2.,3313.,0.,0.,9980.,0.886397530407,4.60926715812,130.
6.94,6660.,9.,9.,3304.,0.,0.,9982.,0.886885761374,5.12422884349,117.
6.96,6653.,12.,11.,3306.,0.,0.,9982.,0.885953599162,3.83913226304,156.
6.98,6651.,12.,6.,3315.,0.,0.,9984.,0.885509845774,3.83720933169,156.
7.,6647.,14.,8.,3315.,0.,0.,9984.,0.884977288357,3.28705849961,182.
7.02,6642.,18.,11.,3313.,0.,0.,9984.,0.884311591585,2.55467793125,234.
7.04,6636.,23.,10.,3314.,0.,0.,9983.,0.883601257187,1.99770719016,299.
7.06,6636.,20.,14.,3314.,0.,0.,9984.,0.883512755459,2.29713316419,260.
7.08,6628.,23.,18.,3318.,0.,0.,9987.,0.882182561729,1.99449970478,299.
7.1,6618.,27.,7.,3334.,0.,0.,9986.,0.880939776773,1.69662475527,351.
7.12,6626.,20.,15.,3326.,0.,0.,9987.,0.881916363008,2.29298254382,260.
7.14,6617.,24.,13.,3337.,0.,0.,9991.,0.880365864032,1.90745937207,312.
7.16,6608.,26.,17.,3342.,0.,0.,9993.,0.878992492516,1.75798498503,338.
7.18,6597.,36.,10.,3353.,0.,0.,9996.,0.877265914492,1.26716187649,468.
7.2,6598.,28.,12.,3358.,0.,0.,9996.,0.877398894015,1.62945508889,364.
7.22,6597.,30.,11.,3357.,0.,0.,9995.,0.877353684969,1.52074638728,390.
7.24,6593.,33.,16.,3355.,0.,0.,9997.,0.87664629669,1.38138204327,429.
7.26,6583.,37.,10.,3369.,0.,0.,9999.,0.875141553642,1.22992866998,481.
7.28,6571.,32.,17.,3374.,0.,0.,9994.,0.873983313499,1.42022288444,416.
7.3,6570.,32.,8.,3388.,0.,0.,9998.,0.873500697319,1.41943863314,416.
7.32,6572.,16.,15.,3392.,0.,0.,9995.,0.874028864274,2.84059380889,208.
7.34,6571.,19.,9.,3395.,0.,0.,9994.,0.873983313499,2.39195433168,247.
7.36,6574.,18.,9.,3395.,0.,0.,9996.,0.874207385459,2.52548800244,234.
7.38,6582.,15.,8.,3396.,0.,0.,10001.,0.874833629793,3.03275658328,195.
7.4,6579.,12.,5.,3400.,0.,0.,9996.,0.874872283075,3.79111322666,156.
7.42,6584.,11.,2.,3399.,0.,0.,9996.,0.875537180691,4.13890303599,143.
7.44,6587.,8.,5.,3398.,0.,0.,9998.,0.875760896992,5.69244583045,104.
7.46,6586.,9.,3.,3396.,0.,0.,9994.,0.875978405524,5.06120856525,117.
7.48,6591.,6.,2.,3391.,0.,0.,9990.,0.876994444583,7.60061851972,78.
7.5,6595.,2.,1.,3390.,0.,0.,9988.,0.877702398342,22.8202623569,26.
7.52,6600.,1.,0.,3386.,0.,0.,9987.,0.878455779634,45.679700541,13.
7.54,6603.,1.,1.,3381.,0.,0.,9986.,0.878943086436,45.7050404947,13.
7.56,6601.,3.,0.,3380.,0.,0.,9984.,0.878852878057,15.2334498863,39.
7.58,6610.,1.,3.,3371.,0.,0.,9985.,0.879962994927,45.7580757362,13.
7.6,6617.,2.,0.,3372.,0.,0.,9991.,0.880365864032,22.8895124648,26.
7.62,6623.,2.,0.,3362.,0.,0.,9987.,0.881517064927,22.9194436881,26.
7.64,6633.,1.,1.,3349.,0.,0.,9984.,0.883113337396,45.9218935446,13.
7.66,6641.,1.,0.,3345.,0.,0.,9987.,0.883912853417,45.9634683777,13.
7.68,6645.,1.,0.,3339.,0.,0.,9985.,0.884622405641,46.0003650933,13.
7.7,6647.,1.,2.,3334.,0.,0.,9984.,0.884977288357,46.0188189946,13.
7.72,6651.,0.,0.,3329.,0.,0.,9980.,0.88586475954,inf,0.
7.74,6660.,1.,0.,3323.,0.,0.,9984.,0.886708099963,46.1088211981,13.
7.76,6669.,1.,0.,3314.,0.,0.,9984.,0.887906354153,46.1711304159,13.
7.78,6675.,1.,0.,3305.,0.,0.,9981.,0.888972309362,46.2265600868,13.
7.8,6675.,1.,0.,3305.,0.,0.,9981.,0.888972309362,46.2265600868,13.
7.82,6683.,2.,1.,3289.,0.,0.,9975.,0.890573105389,23.1549007401,26.
7.84,6687.,0.,3.,3287.,0.,0.,9977.,0.890927511227,inf,0.
7.86,6690.,6.,3.,3281.,0.,0.,9980.,0.891059275496,7.72251372096,78.
7.88,6690.,7.,4.,3278.,0.,0.,9979.,0.89114856894,6.61996079784,91.
7.9,6689.,7.,7.,3275.,0.,0.,9978.,0.891104660867,6.61963462359,91.
7.92,6689.,8.,9.,3273.,0.,0.,9979.,0.891015362876,5.79159985869,104.
7.94,6695.,14.,6.,3267.,0.,0.,9982.,0.891546572432,3.31145869761,182.
7.96,6691.,10.,13.,3268.,0.,0.,9982.,0.891013908311,4.63327232322,130.
7.98,6689.,15.,10.,3267.,0.,0.,9981.,0.890836820573,3.08823431132,195.
8.,6696.,15.,7.,3264.,0.,0.,9982.,0.891679738462,3.09115642667,195.
8.02,6695.,23.,9.,3260.,0.,0.,9987.,0.891100218886,2.01466136444,299.
8.04,6692.,26.,14.,3259.,0.,0.,9991.,0.890344319495,1.78068863899,338.
8.06,6693.,27.,14.,3260.,0.,0.,9994.,0.890210061976,1.71447863788,351.
8.08,6671.,36.,21.,3266.,0.,0.,9994.,0.887283927005,1.28163233901,468.
8.1,6644.,43.,20.,3284.,0.,0.,9991.,0.883958107999,1.06897259572,559.
8.12,6641.,33.,15.,3300.,0.,0.,9989.,0.883735876171,1.39255350185,429.
8.14,6629.,27.,22.,3310.,0.,0.,9988.,0.882227323519,1.69910447493,351.
8.16,6617.,38.,9.,3325.,0.,0.,9989.,0.880542131098,1.20495238992,494.
8.18,6606.,33.,16.,3334.,0.,0.,9989.,0.879078331273,1.38521434019,429.
8.2,6596.,30.,17.,3345.,0.,0.,9988.,0.877835484376,1.52158150625,390.
8.22,6592.,30.,12.,3353.,0.,0.,9987.,0.87739098475,1.52081104023,390.
8.24,6588.,28.,15.,3355.,0.,0.,9986.,0.876946396098,1.62861473561,364.
8.26,6575.,33.,10.,3366.,0.,0.,9984.,0.875391254844,1.37940440157,429.
8.28,6570.,23.,17.,3374.,0.,0.,9984.,0.874725558072,1.97764039216,299.
8.3,6573.,20.,13.,3381.,0.,0.,9987.,0.874862096899,2.27464145194,260.
8.32,6567.,24.,10.,3381.,0.,0.,9982.,0.874501320562,1.89475286122,312.
8.34,6575.,16.,13.,3381.,0.,0.,9985.,0.875303584212,2.84473664869,208.
8.36,6577.,18.,6.,3386.,0.,0.,9987.,0.875394494341,2.5289174281,234.
8.38,6579.,13.,10.,3384.,0.,0.,9986.,0.875748381896,3.50299352758,169.
8.4,6575.,12.,7.,3390.,0.,0.,9984.,0.875391254844,3.79336210432,156.
8.42,6573.,11.,5.,3396.,0.,0.,9985.,0.875037332171,4.13654011572,143.
8.44,6575.,11.,5.,3394.,0.,0.,9985.,0.875303584212,4.13779876173,143.
8.46,6575.,8.,4.,3394.,0.,0.,9981.,0.875654372143,5.69175341893,104.
8.48,6581.,7.,2.,3392.,0.,0.,9982.,0.876365644985,6.51014479132,91.
8.5,6589.,5.,3.,3386.,0.,0.,9983.,0.877343080713,9.12436803941,65.
8.52,6596.,4.,0.,3387.,0.,0.,9987.,0.877923382192,11.4130039685,52.
8.54,6604.,4.,1.,3376.,0.,0.,9985.,0.879164238804,11.4291351045,52.
8.56,6612.,2.,1.,3370.,0.,0.,9985.,0.880229246968,22.8859604212,26.
8.58,6620.,1.,1.,3362.,0.,0.,9984.,0.881382525789,45.831891341,13.
8.6,6629.,1.,0.,3357.,0.,0.,9987.,0.88231566109,45.8804143767,13.
8.62,6632.,2.,0.,3354.,0.,0.,9988.,0.882626581623,22.9482911222,26.
8.64,6645.,1.,1.,3343.,0.,0.,9990.,0.884179651684,45.9773418876,13.
8.66,6653.,1.,0.,3330.,0.,0.,9984.,0.885776124483,46.0603584731,13.
8.68,6661.,0.,0.,3328.,0.,0.,9989.,0.886397330398,inf,0.
8.7,6668.,0.,0.,3320.,0.,0.,9988.,0.887417678869,inf,0.
8.72,6676.,0.,0.,3312.,0.,0.,9988.,0.888482367146,inf,0.
8.74,6685.,0.,0.,3305.,0.,0.,9990.,0.889502027315,inf,0.
8.76,6693.,1.,0.,3298.,0.,0.,9992.,0.890388246536,46.3001888199,13.
8.78,6700.,2.,0.,3291.,0.,0.,9993.,0.891230281456,23.1719873178,26.
8.8,6709.,1.,1.,3284.,0.,0.,9995.,0.892248881682,46.3969418475,13.
8.82,6711.,1.,1.,3282.,0.,0.,9995.,0.892514867338,46.4107731016,13.
8.84,6720.,3.,1.,3272.,0.,0.,9996.,0.893622395845,15.4894548613,39.
8.86,6723.,4.,1.,3268.,0.,0.,9996.,0.894021334414,11.6222773474,52.
8.88,6725.,4.,2.,3260.,0.,0.,9991.,0.894734839899,11.6315529187,52.
8.9,6726.,8.,2.,3252.,0.,0.,9988.,0.895136668877,5.8183883477,104.
8.92,6726.,9.,2.,3248.,0.,0.,9985.,0.895405613295,5.17345465459,117.
8.94,6729.,4.,9.,3244.,0.,0.,9986.,0.895715285268,11.6442987085,52.
8.96,6720.,16.,5.,3241.,0.,0.,9982.,0.894875723188,2.90834610036,208.
8.98,6724.,10.,9.,3237.,0.,0.,9980.,0.895587827868,4.65705670491,130.
9.,6728.,7.,11.,3236.,0.,0.,9982.,0.89594105143,6.65556209634,91.
9.02,6720.,9.,8.,3244.,0.,0.,9981.,0.89496538111,5.17091109086,117.
9.04,6717.,19.,7.,3237.,0.,0.,9980.,0.89465547885,2.44853078422,247.
9.06,6713.,24.,8.,3237.,0.,0.,9982.,0.893943560976,1.93687771545,312.
9.08,6710.,23.,11.,3238.,0.,0.,9982.,0.893544062886,2.02018657696,299.
9.1,6709.,21.,18.,3234.,0.,0.,9982.,0.893410896855,2.21225555412,273.
9.12,6703.,29.,12.,3235.,0.,0.,9979.,0.892880247773,1.60102665118,377.
9.14,6696.,28.,13.,3244.,0.,0.,9981.,0.891769076178,1.65614257004,364.
9.16,6680.,26.,19.,3250.,0.,0.,9975.,0.890173326948,1.7803466539,338.
9.18,6666.,34.,19.,3256.,0.,0.,9975.,0.888307694227,1.35858823823,442.
9.2,6642.,39.,18.,3273.,0.,0.,9972.,0.885375745125,1.1805009935,507.
9.22,6621.,36.,24.,3292.,0.,0.,9973.,0.882487957565,1.27470482759,468.
9.24,6618.,31.,19.,3308.,0.,0.,9976.,0.881822835892,1.47918669246,403.
9.26,6609.,24.,23.,3319.,0.,0.,9975.,0.880711903863,1.90820912504,312.
9.28,6607.,31.,9.,3329.,0.,0.,9976.,0.880357128549,1.4767280866,403.
9.3,6607.,24.,10.,3336.,0.,0.,9977.,0.880268889887,1.90724926142,312.
9.32,6605.,23.,11.,3340.,0.,0.,9979.,0.87982605349,1.98917194702,299.
9.34,6606.,19.,13.,3340.,0.,0.,9978.,0.880047449498,2.40855091441,247.
9.36,6607.,11.,15.,3349.,0.,0.,9982.,0.879827961771,4.15918672837,143.
9.38,6604.,17.,4.,3360.,0.,0.,9985.,0.879164238804,2.68920825987,221.
9.4,6612.,10.,7.,3355.,0.,0.,9984.,0.880317410955,4.57765053696,130.
9.42,6611.,13.,1.,3355.,0.,0.,9980.,0.880537050867,3.52214820347,169.
9.44,6615.,10.,1.,3352.,0.,0.,9978.,0.881246424225,4.58248140597,130.
9.46,6623.,8.,6.,3343.,0.,0.,9980.,0.882135363469,5.73387986255,104.
9.48,6633.,7.,5.,3335.,0.,0.,9980.,0.883467290637,6.56289987331,91.
9.5,6634.,5.,3.,3338.,0.,0.,9980.,0.883600483354,9.18944502688,65.
9.52,6641.,0.,8.,3331.,0.,0.,9980.,0.884532832372,inf,0.
9.54,6646.,1.,4.,3329.,0.,0.,9980.,0.885198795956,46.0303373897,13.
9.56,6653.,4.,1.,3325.,0.,0.,9983.,0.885864852934,11.5162430881,52.
9.58,6662.,1.,2.,3320.,0.,0.,9985.,0.886885547988,46.1180484954,13.
9.6,6668.,2.,0.,3315.,0.,0.,9985.,0.887684304111,23.0797919069,26.
9.62,6678.,2.,1.,3306.,0.,0.,9987.,0.888837529757,23.1097757737,26.
9.64,6678.,2.,0.,3300.,0.,0.,9980.,0.889460962894,23.1259850352,26.
9.66,6684.,2.,1.,3295.,0.,0.,9982.,0.8900817461,23.1421253986,26.
9.68,6690.,1.,2.,3291.,0.,0.,9984.,0.890702280594,46.3165185909,13.
9.7,6702.,1.,0.,3282.,0.,0.,9985.,0.892210588805,46.3949506178,13.
9.72,6710.,0.,1.,3277.,0.,0.,9988.,0.893007292323,inf,0.
9.74,6715.,0.,0.,3275.,0.,0.,9990.,0.893493809038,inf,0.
9.76,6722.,1.,0.,3272.,0.,0.,9995.,0.893977788443,46.4868449991,13.
9.78,6730.,2.,0.,3265.,0.,0.,9997.,0.894862669001,23.266429394,26.
9.8,6737.,1.,1.,3257.,0.,0.,9996.,0.895883047739,46.5859184824,13.
9.82,6738.,3.,1.,3253.,0.,0.,9995.,0.896105673688,15.5324983439,39.
9.84,6743.,5.,0.,3248.,0.,0.,9996.,0.896680924878,9.32548161873,65.
9.86,6756.,5.,0.,3239.,0.,0.,10000.,0.898050294816,9.33972306609,65.
9.88,6764.,5.,2.,3229.,0.,0.,10000.,0.899113705467,9.35078253686,65.
9.9,6771.,6.,2.,3224.,0.,0.,10003.,0.89977425751,7.79804356508,78.
9.92,6763.,10.,6.,3219.,0.,0.,9998.,0.899160611258,4.67563517854,130.
9.94,6773.,15.,3.,3207.,0.,0.,9998.,0.900490140478,3.12169915366,195.
9.96,6775.,8.,9.,3204.,0.,0.,9996.,0.90093626962,5.85608575253,104.
9.98,6773.,10.,6.,3210.,0.,0.,9999.,0.900400082458,4.68208042878,130.
10.,6774.,12.,1.,3216.,0.,0.,10003.,0.900172916906,3.90074930659,156.
