t,neff
5.,0.718612799976
5.02,0.575129535597
5.04,0.527368969317
5.06,0.648336212149
5.08,0.79271182139
5.1,0.697001011915
5.12,0.601667606545
5.14,0.867910645518
5.16,0.722347801965
5.18,0.698520944073
5.2,0.722998331324
5.22,0.795091294011
5.24,0.626398015716
5.26,0.626034761702
5.28,0.530039684855
5.3,0.530761903617
5.32,0.603222643235
5.34,0.482355945631
5.36,0.386054883952
5.38,0.482172580843
5.4,0.361181154504
5.42,0.409003355007
5.44,0.384867337558
5.46,0.239986144458
5.48,0.167689566604
5.5,0.191294590328
5.52,0.14326605743
5.54,0.143123980012
5.56,0.166719713746
5.58,0.142721470989
5.6,0.047491931626
5.62,0.0948343820691
5.64,0.1183303485
5.66,0.0709320869377
5.68,0.0944234696368
5.7,0.0942591382838
5.72,0.0470275955059
5.74,0.0469543926088
5.76,0.0234348514388
5.78,0.093598770868
5.8,0.0934935856356
5.82,0.0700240496017
5.84,0.0932490514091
5.86,0.116401978926
5.88,0.18594299536
5.9,0.13941906809
5.92,0.255639299146
5.94,0.325439663758
5.96,0.465249526372
5.98,0.278893937288
6.,0.465146471671
6.02,0.395295394378
6.04,0.44123126796
6.06,0.487858946447
6.08,0.488015564285
6.1,0.652370616366
6.12,0.793883040902
6.14,0.701289860282
6.16,0.914623139638
6.18,0.891372677787
6.2,0.751345506563
6.22,0.705608741266
6.24,0.82387262234
6.26,0.446919440234
6.28,0.399343179376
6.3,0.493702879174
6.32,0.423302262993
6.34,0.470371536542
6.36,0.376127061674
6.38,0.328590616467
6.4,0.257880720697
6.42,0.304378547639
6.44,0.234072811367
6.46,0.186925958873
6.48,0.210086825199
6.5,0.139949587986
6.52,0.0931927055687
6.54,0.046522071083
6.56,0.
6.58,0.
6.6,0.
6.62,0.
6.64,0.0230720848553
6.66,0.0230471577269
6.68,0.069039218668
6.7,0.0919505814216
6.72,0.0918425290018
6.74,0.045844411641
6.76,0.0457228428126
6.78,0.0455883662274
6.8,0.0683010028596
6.82,0.113703954637
6.84,0.0908022627684
6.86,0.113417851494
6.88,0.113298068763
6.9,0.226480958195
6.92,0.158450054675
6.94,0.135786151595
6.96,0.203672929516
6.98,0.226150166396
7.,0.339329511316
7.02,0.362065438206
7.04,0.271411166477
7.06,0.452947959991
7.08,0.453608276127
7.1,0.613240815604
7.12,0.613719194547
7.14,0.705819252589
7.16,0.59221446566
7.18,0.707164857573
7.2,0.570512310057
7.22,0.685199612983
7.24,0.777223514495
7.26,0.731962547786
7.28,0.824869831048
7.3,0.641409714889
7.32,0.596335762088
7.34,0.664772996958
7.36,0.458182453729
7.38,0.435329477033
7.4,0.228892017563
7.42,0.228565581658
7.44,0.205380743695
7.46,0.113967527861
7.48,0.136541804458
7.5,0.0909385729969
7.52,0.0454088461051
7.54,0.022686728935
7.56,0.0226542017442
7.58,0.0226411223469
7.6,0.
7.62,0.
7.64,0.
7.66,0.
7.68,0.0224819423991
7.7,0.
7.72,0.
7.74,0.
7.76,0.0223175844271
7.78,0.0445564340198
7.8,0.0445001406407
7.82,0.0667125279133
7.84,0.0888261330096
7.86,0.133106733036
7.88,0.177375291074
7.9,0.177281074772
7.92,0.110672366571
7.94,0.31017017187
7.96,0.221521085868
7.98,0.265763910748
8.,0.332304529974
8.02,0.376164588518
8.04,0.376228209147
8.06,0.33200942443
8.08,0.420920497549
8.1,0.487833686567
8.12,0.443719466096
8.14,0.53292167938
8.16,0.688401012054
8.18,0.801027605319
8.2,0.601030193368
8.22,0.534925996029
8.24,0.736284264795
8.26,0.579715696362
8.28,0.670804925694
8.3,0.874180975052
8.32,0.785098821276
8.34,0.493110468416
8.36,0.628291711055
8.38,0.426126202854
8.4,0.583805744953
8.42,0.4037531589
8.44,0.269259158352
8.46,0.179421559096
8.48,0.246597192918
8.5,0.15678341667
8.52,0.0894885056618
8.54,0.0670198894209
8.56,0.0446307279679
8.58,0.
8.6,0.
8.62,0.
8.64,0.
8.66,0.
8.68,0.
8.7,0.
8.72,0.
8.74,0.0220084731401
8.76,0.
8.78,0.
8.8,0.
8.82,0.0438570070836
8.84,0.0656820717359
8.86,0.109392624137
8.88,0.152974702727
8.9,0.174663629443
8.92,0.152681329825
8.94,0.283746349925
8.96,0.414826119928
8.98,0.414852297943
9.,0.415044352957
9.02,0.393125435807
9.04,0.546625868878
9.06,0.722443901235
9.08,0.65762710724
9.1,0.657997639734
9.12,0.570658775716
9.14,0.571423657022
9.16,0.660375814216
9.18,0.727369359964
9.2,0.772850831352
9.22,0.706744158586
9.24,0.663470797649
9.26,0.553457524138
9.28,0.531548030979
9.3,0.531918093254
9.32,0.599419841465
9.34,0.555441887579
9.36,0.489519244559
9.38,0.378377790028
9.4,0.333452975289
9.42,0.244232472662
9.44,0.177253486336
9.46,0.155071160471
9.48,0.110589511971
9.5,0.0662357587983
9.52,0.0220501760596
9.54,0.
9.56,0.0219994859997
9.58,0.0219894380817
9.6,0.0219786182827
9.62,0.
9.64,0.
9.66,0.
9.68,0.
9.7,0.
9.72,0.
9.74,0.
9.76,0.
9.78,0.
9.8,0.
9.82,0.0647673444511
9.84,0.0646879237387
9.86,0.172528894517
9.88,0.129300501597
9.9,0.2155092243
9.92,0.215050414537
9.94,0.171922769513
9.96,0.257858430164
9.98,0.279346632677
10.,0.193231429686
