t,prevalence
5.,8
5.02,6
5.04,10
5.06,11
5.08,7
5.1,5
5.12,11
5.14,10
5.16,3
5.18,11
5.2,7
5.22,6
5.24,5
5.26,5
5.28,9
5.3,3
5.32,4
5.34,3
5.36,8
5.38,6
5.4,6
5.42,3
5.44,0
5.46,4
5.48,1
5.5,3
5.52,1
5.54,2
5.56,3
5.58,1
5.6,0
5.62,0
5.64,0
5.66,0
5.68,1
5.7,0
5.72,1
5.74,0
5.76,1
5.78,0
5.8,1
5.82,0
5.84,1
5.86,0
5.88,0
5.9,1
5.92,2
5.94,2
5.96,4
5.98,1
6.,4
6.02,3
6.04,6
6.06,6
6.08,4
6.1,3
6.12,0
6.14,7
6.16,5
6.18,9
6.2,10
6.22,7
6.24,14
6.26,7
6.28,3
6.3,4
6.32,6
6.34,2
6.36,2
6.38,2
6.4,1
6.42,1
6.44,1
6.46,4
6.48,1
6.5,0
6.52,2
6.54,2
6.56,2
6.58,1
6.6,1
6.62,0
6.64,0
6.66,1
6.68,0
6.7,0
6.72,0
6.74,1
6.76,2
6.78,0
6.8,0
6.82,1
6.84,1
6.86,1
6.88,1
6.9,4
6.92,2
6.94,2
6.96,5
6.98,2
7.,2
7.02,5
7.04,2
7.06,4
7.08,7
7.1,5
7.12,8
7.14,11
7.16,12
7.18,8
7.2,20
7.22,6
7.24,7
7.26,9
7.28,7
7.3,6
7.32,5
7.34,7
7.36,8
7.38,8
7.4,4
7.42,2
7.44,1
7.46,3
7.48,6
7.5,3
7.52,2
7.54,0
7.56,1
7.58,0
7.6,1
7.62,0
7.64,0
7.66,0
7.68,0
7.7,0
7.72,1
7.74,1
7.76,0
7.78,1
7.8,0
7.82,3
7.84,4
7.86,2
7.88,2
7.9,1
7.92,3
7.94,5
7.96,2
7.98,3
8.,4
8.02,4
8.04,4
8.06,8
8.08,5
8.1,4
8.12,5
8.14,5
8.16,11
8.18,11
8.2,9
8.22,10
8.24,9
8.26,11
8.28,3
8.3,8
8.32,5
8.34,5
8.36,4
8.38,8
8.4,5
8.42,5
8.44,5
8.46,2
8.48,4
8.5,1
8.52,1
8.54,2
8.56,1
8.58,1
8.6,3
8.62,1
8.64,0
8.66,1
8.68,1
8.7,0
8.72,1
8.74,2
8.76,0
8.78,1
8.8,1
8.82,2
8.84,0
8.86,3
8.88,0
8.9,4
8.92,2
8.94,4
8.96,3
8.98,4
9.,10
9.02,7
9.04,5
9.06,11
9.08,8
9.1,8
9.12,6
9.14,9
9.16,11
9.18,14
9.2,10
9.22,9
9.24,7
9.26,12
9.28,10
9.3,3
9.32,6
9.34,7
9.36,5
9.38,3
9.4,3
9.42,1
9.44,0
9.46,0
9.48,1
9.5,0
9.52,0
9.54,2
9.56,2
9.58,1
9.6,0
9.62,0
9.64,0
9.66,0
9.68,0
9.7,0
9.72,0
9.74,0
9.76,0
9.78,0
9.8,0
9.82,2
9.84,1
9.86,2
9.88,1
9.9,3
9.92,6
9.94,2
9.96,2
9.98,7
10.,3
