t,prevalence
5.,4
5.02,8
5.04,7
5.06,2
5.08,6
5.1,8
5.12,5
5.14,5
5.16,5
5.18,13
5.2,3
5.22,12
5.24,8
5.26,4
5.28,11
5.3,8
5.32,3
5.34,2
5.36,4
5.38,5
5.4,3
5.42,1
5.44,2
5.46,4
5.48,1
5.5,1
5.52,0
5.54,0
5.56,0
5.58,1
5.6,1
5.62,1
5.64,0
5.66,0
5.68,0
5.7,0
5.72,0
5.74,2
5.76,0
5.78,0
5.8,0
5.82,0
5.84,1
5.86,2
5.88,2
5.9,0
5.92,4
5.94,2
5.96,2
5.98,4
6.,4
6.02,6
6.04,5
6.06,5
6.08,4
6.1,9
6.12,4
6.14,8
6.16,5
6.18,5
6.2,10
6.22,7
6.24,9
6.26,5
6.28,8
6.3,14
6.32,6
6.34,3
6.36,6
6.38,5
6.4,4
6.42,3
6.44,2
6.46,1
6.48,0
6.5,1
6.52,0
6.54,1
6.56,0
6.58,0
6.6,0
6.62,0
6.64,0
6.66,0
6.68,0
6.7,0
6.72,0
6.74,0
6.76,0
6.78,0
6.8,3
6.82,0
6.84,0
6.86,0
6.88,1
6.9,2
6.92,0
6.94,3
6.96,2
6.98,3
7.,4
7.02,7
7.04,3
7.06,6
7.08,7
7.1,6
7.12,8
7.14,5
7.16,12
7.18,4
7.2,6
7.22,7
7.24,6
7.26,5
7.28,4
7.3,9
7.32,6
7.34,5
7.36,3
7.38,8
7.4,5
7.42,1
7.44,0
7.46,3
7.48,4
7.5,0
7.52,0
7.54,1
7.56,1
7.58,1
7.6,0
7.62,0
7.64,0
7.66,0
7.68,0
7.7,0
7.72,0
7.74,0
7.76,0
7.78,0
7.8,0
7.82,0
7.84,1
7.86,1
7.88,6
7.9,2
7.92,4
7.94,4
7.96,5
7.98,5
8.,6
8.02,8
8.04,9
8.06,5
8.08,7
8.1,7
8.12,8
8.14,5
8.16,4
8.18,1
8.2,5
8.22,4
8.24,6
8.26,3
8.28,6
8.3,5
8.32,6
8.34,6
8.36,4
8.38,4
8.4,4
8.42,2
8.44,2
8.46,3
8.48,2
8.5,1
8.52,1
8.54,2
8.56,1
8.58,1
8.6,1
8.62,2
8.64,0
8.66,0
8.68,0
8.7,2
8.72,0
8.74,0
8.76,0
8.78,0
8.8,0
8.82,0
8.84,0
8.86,1
8.88,1
8.9,1
8.92,3
8.94,2
8.96,5
8.98,8
9.,3
9.02,10
9.04,7
9.06,4
9.08,10
9.1,10
9.12,13
9.14,10
9.16,16
9.18,9
9.2,11
9.22,8
9.24,7
9.26,13
9.28,9
9.3,6
9.32,6
9.34,5
9.36,6
9.38,4
9.4,6
9.42,2
9.44,0
9.46,1
9.48,5
9.5,1
9.52,1
9.54,2
9.56,0
9.58,0
9.6,1
9.62,0
9.64,1
9.66,1
9.68,0
9.7,0
9.72,0
9.74,1
9.76,0
9.78,0
9.8,0
9.82,0
9.84,1
9.86,0
9.88,2
9.9,1
9.92,4
9.94,2
9.96,2
9.98,0
10.,1
