t,s,e,i,r,c,o,n,reff,coal,reportr
5.,8072.,9.,43.,1877.,0.,0.,10001.,0.848429616426,4.90203778379,117.
5.02,8055.,26.,15.,1906.,0.,0.,10002.,0.846558137625,1.69311627525,338.
5.04,8039.,32.,16.,1920.,0.,0.,10007.,0.844454439253,1.37223846379,416.
5.06,8026.,35.,14.,1934.,0.,0.,10009.,0.842920391846,1.25233886789,455.
5.08,8015.,31.,23.,1937.,0.,0.,10006.,0.842017509018,1.41241646674,403.
5.1,8007.,24.,19.,1959.,0.,0.,10009.,0.84092494113,1.82200403912,312.
5.12,7993.,31.,9.,1976.,0.,0.,10009.,0.839454609024,1.40811740869,403.
5.14,7977.,33.,18.,1982.,0.,0.,10010.,0.837690535744,1.31999720784,429.
5.16,7965.,32.,20.,1993.,0.,0.,10010.,0.836430376984,1.3591993626,416.
5.18,7955.,28.,13.,2008.,0.,0.,10004.,0.83588127242,1.55235093449,364.
5.2,7945.,27.,17.,2016.,0.,0.,10005.,0.834747068962,1.6076610217,351.
5.22,7938.,25.,20.,2022.,0.,0.,10005.,0.83401160899,1.7347441467,325.
5.24,7928.,23.,18.,2036.,0.,0.,10005.,0.832960951886,1.88321606513,299.
5.26,7908.,33.,8.,2059.,0.,0.,10008.,0.830610579034,1.30884091242,429.
5.28,7905.,25.,7.,2072.,0.,0.,10009.,0.830212521498,1.72684204472,325.
5.3,7902.,26.,14.,2071.,0.,0.,10013.,0.829565922339,1.65913184468,338.
5.32,7895.,25.,12.,2084.,0.,0.,10016.,0.828582797858,1.72345221955,325.
5.34,7883.,23.,14.,2095.,0.,0.,10015.,0.827406002413,1.87065704893,299.
5.36,7881.,18.,7.,2109.,0.,0.,10015.,0.827196080808,2.38967756678,234.
5.38,7871.,17.,7.,2115.,0.,0.,10010.,0.826559133364,2.52829852558,221.
5.4,7867.,17.,7.,2120.,0.,0.,10011.,0.826056557311,2.52676123413,221.
5.42,7863.,17.,6.,2126.,0.,0.,10012.,0.825554081653,2.52522424976,221.
5.44,7863.,10.,7.,2133.,0.,0.,10013.,0.825471633428,4.29245249383,130.
5.46,7854.,12.,2.,2144.,0.,0.,10012.,0.824609151381,3.57330632265,156.
5.48,7854.,7.,4.,2146.,0.,0.,10011.,0.824691521688,6.1262798754,91.
5.5,7863.,5.,6.,2138.,0.,0.,10012.,0.825554081653,8.5857624492,65.
5.52,7872.,8.,3.,2132.,0.,0.,10015.,0.82625143359,5.37063431834,104.
5.54,7870.,4.,4.,2132.,0.,0.,10010.,0.826454120134,10.7439035617,52.
5.56,7876.,3.,0.,2132.,0.,0.,10011.,0.827001581973,14.3346940875,39.
5.58,7879.,3.,1.,2124.,0.,0.,10007.,0.827647285343,14.3458862793,39.
5.6,7879.,4.,2.,2122.,0.,0.,10007.,0.827647285343,10.7594147095,52.
5.62,7885.,4.,0.,2121.,0.,0.,10010.,0.828029318584,10.7643811416,52.
5.64,7890.,0.,4.,2117.,0.,0.,10011.,0.828471620336,inf,0.
5.66,7895.,2.,1.,2114.,0.,0.,10012.,0.828913833734,21.5517596771,26.
5.68,7897.,3.,1.,2108.,0.,0.,10009.,0.829372331723,14.3757870832,39.
5.7,7897.,1.,3.,2105.,0.,0.,10006.,0.829620994225,43.1402916997,13.
5.72,7898.,1.,2.,2102.,0.,0.,10003.,0.829974892597,43.158694415,13.
5.74,7897.,2.,0.,2103.,0.,0.,10002.,0.829952776266,21.5787721829,26.
5.76,7900.,1.,2.,2099.,0.,0.,10002.,0.830268067938,43.1739395328,13.
5.78,7900.,3.,4.,2096.,0.,0.,10003.,0.830185066031,14.3898744779,39.
5.8,7904.,3.,0.,2095.,0.,0.,10002.,0.830688456833,14.3985999184,39.
5.82,7908.,2.,1.,2093.,0.,0.,10004.,0.830942690421,21.6045099509,26.
5.84,7910.,4.,0.,2090.,0.,0.,10004.,0.831152842846,10.804986957,52.
5.86,7911.,4.,1.,2087.,0.,0.,10003.,0.831341019921,10.807433259,52.
5.88,7909.,8.,3.,2084.,0.,0.,10004.,0.831047766634,5.40181048312,104.
5.9,7903.,11.,3.,2085.,0.,0.,10002.,0.830583359609,3.92639406361,143.
5.92,7901.,12.,4.,2082.,0.,0.,9999.,0.830622302025,3.59936330877,156.
5.94,7897.,11.,6.,2081.,0.,0.,9995.,0.830534033838,3.92616088724,143.
5.96,7890.,14.,5.,2083.,0.,0.,9992.,0.8300469767,3.08303162774,182.
5.98,7892.,12.,9.,2081.,0.,0.,9994.,0.830091230343,3.59706199816,156.
6.,7892.,8.,14.,2083.,0.,0.,9997.,0.829842128244,5.39397383358,104.
6.02,7880.,17.,11.,2089.,0.,0.,9997.,0.828580330786,2.53448101182,221.
6.04,7879.,19.,4.,2095.,0.,0.,9997.,0.828475180998,2.26740575852,247.
6.06,7876.,15.,9.,2097.,0.,0.,9997.,0.828159731633,2.87095373633,195.
6.08,7862.,24.,8.,2103.,0.,0.,9997.,0.826687634599,1.79115654163,312.
6.1,7850.,20.,15.,2111.,0.,0.,9996.,0.825508412755,2.14632187316,260.
6.12,7833.,35.,5.,2123.,0.,0.,9996.,0.823720687529,1.2238135929,455.
6.14,7828.,24.,14.,2129.,0.,0.,9995.,0.823277246662,1.78376736777,312.
6.16,7819.,24.,16.,2136.,0.,0.,9995.,0.822330709204,1.78171653661,312.
6.18,7806.,32.,17.,2141.,0.,0.,9996.,0.820881359231,1.33393220875,416.
6.2,7793.,32.,13.,2158.,0.,0.,9996.,0.819514275235,1.33171069726,416.
6.22,7778.,33.,13.,2167.,0.,0.,9991.,0.818346207463,1.289515236,429.
6.24,7768.,32.,16.,2173.,0.,0.,9989.,0.817457716933,1.32836879002,416.
6.26,7755.,28.,16.,2192.,0.,0.,9991.,0.815926309961,1.5152917185,364.
6.28,7750.,27.,9.,2205.,0.,0.,9991.,0.815400245287,1.5704004724,351.
6.3,7742.,19.,16.,2210.,0.,0.,9987.,0.814884789346,2.23021100242,247.
6.32,7739.,19.,8.,2224.,0.,0.,9990.,0.814324408799,2.22867732935,247.
6.34,7745.,15.,11.,2223.,0.,0.,9994.,0.814629571593,2.82404918152,195.
6.36,7739.,20.,4.,2230.,0.,0.,9993.,0.814079940349,2.11660784491,260.
6.38,7737.,13.,4.,2240.,0.,0.,9994.,0.813788120776,3.25515248311,169.
6.4,7734.,9.,6.,2244.,0.,0.,9993.,0.813553980961,4.70053411222,117.
6.42,7734.,8.,4.,2245.,0.,0.,9991.,0.813716838329,5.28915944914,104.
6.44,7736.,8.,5.,2245.,0.,0.,9994.,0.813682939424,5.28893910626,104.
6.46,7737.,8.,2.,2247.,0.,0.,9994.,0.813788120776,5.28962278505,104.
6.48,7738.,7.,4.,2247.,0.,0.,9996.,0.813730458331,6.04485483331,91.
6.5,7733.,11.,3.,2247.,0.,0.,9994.,0.813367395368,3.84500950538,143.
6.52,7741.,6.,3.,2243.,0.,0.,9993.,0.814290324104,7.0571828089,78.
6.54,7745.,3.,7.,2239.,0.,0.,9994.,0.814629571593,14.1202459076,39.
6.56,7748.,2.,2.,2241.,0.,0.,9993.,0.815026667247,21.1906933484,26.
6.58,7753.,2.,2.,2237.,0.,0.,9994.,0.815471022409,21.2022465826,26.
6.6,7757.,3.,0.,2235.,0.,0.,9995.,0.815810117828,14.140708709,39.
6.62,7766.,0.,3.,2225.,0.,0.,9994.,0.816838379986,inf,0.
6.64,7763.,0.,1.,2228.,0.,0.,9992.,0.816686271245,inf,0.
6.66,7766.,0.,1.,2225.,0.,0.,9992.,0.817001878461,inf,0.
6.68,7775.,1.,0.,2217.,0.,0.,9993.,0.81786684794,42.5290760929,13.
6.7,7780.,1.,0.,2214.,0.,0.,9995.,0.818229046886,42.5479104381,13.
6.72,7787.,1.,0.,2208.,0.,0.,9996.,0.818883313391,42.5819322963,13.
6.74,7797.,1.,0.,2199.,0.,0.,9997.,0.819852898368,42.6323507151,13.
6.76,7804.,1.,0.,2192.,0.,0.,9997.,0.820588946885,42.670625238,13.
6.78,7806.,1.,1.,2189.,0.,0.,9997.,0.820799246461,42.681560816,13.
6.8,7808.,4.,2.,2185.,0.,0.,9999.,0.820845327706,10.6709892602,52.
6.82,7810.,5.,1.,2185.,0.,0.,10001.,0.820891390521,8.53727046142,65.
6.84,7813.,5.,0.,2181.,0.,0.,9999.,0.821370971487,8.54225810346,65.
6.86,7813.,4.,4.,2177.,0.,0.,9998.,0.821453125015,10.6788906252,52.
6.88,7811.,10.,4.,2175.,0.,0.,10000.,0.821078597903,4.2696087091,130.
6.9,7817.,8.,6.,2170.,0.,0.,10001.,0.821627144648,5.34057644021,104.
6.92,7810.,12.,2.,2174.,0.,0.,9998.,0.821137707201,3.55826339787,156.
6.94,7812.,16.,5.,2164.,0.,0.,9997.,0.82143014519,2.66964797187,208.
6.96,7813.,11.,8.,2167.,0.,0.,9999.,0.821370971487,3.88284459248,143.
6.98,7810.,10.,11.,2168.,0.,0.,9999.,0.821055585219,4.26948904314,130.
7.,7807.,15.,7.,2173.,0.,0.,10002.,0.820494026125,2.84437929057,195.
7.02,7810.,16.,8.,2170.,0.,0.,10004.,0.820645221571,2.66709697011,208.
7.04,7813.,22.,4.,2167.,0.,0.,10006.,0.820796356576,1.94006411554,286.
7.06,7809.,19.,11.,2166.,0.,0.,10005.,0.820458132351,2.24546436222,247.
7.08,7804.,18.,12.,2170.,0.,0.,10004.,0.820014764295,2.3689315413,234.
7.1,7790.,22.,13.,2176.,0.,0.,10001.,0.818789235872,1.93532001206,286.
7.12,7781.,26.,9.,2183.,0.,0.,9999.,0.818006851291,1.63601370258,338.
7.14,7777.,26.,9.,2186.,0.,0.,9998.,0.817668111256,1.63533622251,338.
7.16,7770.,24.,13.,2190.,0.,0.,9997.,0.817013854087,1.77019668385,312.
7.18,7760.,25.,11.,2196.,0.,0.,9992.,0.81637066403,1.69805098118,325.
7.2,7750.,27.,11.,2204.,0.,0.,9992.,0.815318639978,1.57024330662,351.
7.22,7730.,37.,15.,2210.,0.,0.,9992.,0.813214591875,1.14289618318,481.
7.24,7713.,34.,15.,2230.,0.,0.,9992.,0.811426150987,1.24100470151,442.
7.26,7692.,28.,12.,2256.,0.,0.,9988.,0.80954097613,1.50343324138,364.
7.28,7687.,18.,16.,2267.,0.,0.,9988.,0.809014753446,2.33715373218,234.
7.3,7674.,18.,14.,2286.,0.,0.,9992.,0.807323257186,2.33226718743,234.
7.32,7660.,20.,8.,2303.,0.,0.,9991.,0.805931081148,2.09542081098,260.
7.34,7660.,18.,9.,2304.,0.,0.,9991.,0.805931081148,2.32824534554,234.
7.36,7649.,18.,11.,2305.,0.,0.,9983.,0.805418654211,2.32676500106,234.
7.38,7649.,14.,8.,2313.,0.,0.,9984.,0.805337983273,2.99125536644,182.
7.4,7649.,10.,9.,2317.,0.,0.,9985.,0.805257328492,4.18733810816,130.
7.42,7654.,4.,9.,2318.,0.,0.,9985.,0.805783709279,10.4751882206,52.
7.44,7649.,7.,5.,2323.,0.,0.,9984.,0.805337983273,5.98251073288,91.
7.46,7647.,8.,2.,2321.,0.,0.,9978.,0.805611551426,5.23647508427,104.
7.48,7649.,5.,7.,2316.,0.,0.,9977.,0.805903019444,8.38139140222,65.
7.5,7653.,5.,1.,2319.,0.,0.,9978.,0.806243651506,8.38493397566,65.
7.52,7661.,2.,0.,2315.,0.,0.,9978.,0.807086451612,20.9842477419,26.
7.54,7669.,1.,0.,2309.,0.,0.,9979.,0.80784828877,42.0081110161,13.
7.56,7673.,1.,0.,2302.,0.,0.,9976.,0.808512710843,42.0426609638,13.
7.58,7678.,1.,0.,2297.,0.,0.,9976.,0.809039566513,42.0700574587,13.
7.6,7682.,2.,1.,2293.,0.,0.,9978.,0.80929880189,21.0417688491,26.
7.62,7691.,1.,2.,2286.,0.,0.,9980.,0.810084577871,42.1243980493,13.
7.64,7693.,1.,0.,2284.,0.,0.,9978.,0.810457652036,42.1437979059,13.
7.66,7698.,0.,1.,2279.,0.,0.,9978.,0.810984402102,inf,0.
7.68,7704.,1.,1.,2274.,0.,0.,9980.,0.811453853584,42.1956003864,13.
7.7,7707.,1.,0.,2273.,0.,0.,9981.,0.811688508774,42.2078024562,13.
7.72,7713.,0.,1.,2266.,0.,0.,9980.,0.812401813694,inf,0.
7.74,7716.,3.,1.,2260.,0.,0.,9980.,0.812717800397,14.0871085402,39.
7.76,7719.,2.,4.,2254.,0.,0.,9979.,0.813115261575,21.140996801,26.
7.78,7721.,3.,3.,2252.,0.,0.,9979.,0.813325940487,14.0976496351,39.
7.8,7716.,4.,3.,2253.,0.,0.,9976.,0.813043669603,10.5695677048,52.
7.82,7715.,8.,1.,2249.,0.,0.,9973.,0.813182840221,5.28568846144,104.
7.84,7714.,6.,2.,2248.,0.,0.,9970.,0.813322094593,7.04879148648,78.
7.86,7718.,5.,2.,2244.,0.,0.,9969.,0.813825460209,8.46378478617,65.
7.88,7723.,7.,1.,2242.,0.,0.,9973.,0.814026062868,6.04705075274,91.
7.9,7729.,5.,2.,2239.,0.,0.,9975.,0.814495139808,8.470749454,65.
7.92,7728.,13.,1.,2232.,0.,0.,9974.,0.814471409379,3.25788563752,169.
7.94,7729.,13.,4.,2231.,0.,0.,9977.,0.814331865248,3.25732746099,169.
7.96,7728.,14.,8.,2230.,0.,0.,9980.,0.813981747209,3.02336077535,182.
7.98,7727.,14.,14.,2229.,0.,0.,9984.,0.813550346025,3.02175842809,182.
8.,7726.,18.,10.,2233.,0.,0.,9987.,0.813200708149,2.34924649021,234.
8.02,7722.,17.,12.,2238.,0.,0.,9989.,0.812616952904,2.48565185594,221.
8.04,7711.,21.,17.,2237.,0.,0.,9986.,0.811703158001,2.00993162934,273.
8.06,7700.,26.,16.,2241.,0.,0.,9983.,0.810788813888,1.62157762778,338.
8.08,7684.,37.,4.,2262.,0.,0.,9987.,0.808779995006,1.13666377677,481.
8.1,7683.,32.,6.,2266.,0.,0.,9987.,0.808674739931,1.31409645239,416.
8.12,7675.,29.,16.,2262.,0.,0.,9982.,0.808237344043,1.44925316863,377.
8.14,7672.,27.,18.,2266.,0.,0.,9983.,0.807840490928,1.55584094549,351.
8.16,7657.,30.,18.,2276.,0.,0.,9981.,0.806422591369,1.39779915837,390.
8.18,7640.,31.,15.,2293.,0.,0.,9979.,0.804793444544,1.34997610052,403.
8.2,7630.,32.,18.,2300.,0.,0.,9980.,0.803659514908,1.30594671172,416.
8.22,7621.,32.,16.,2313.,0.,0.,9982.,0.80255072299,1.30414492486,416.
8.24,7618.,29.,8.,2328.,0.,0.,9983.,0.802154439506,1.43834589153,377.
8.26,7617.,30.,9.,2330.,0.,0.,9986.,0.801808190182,1.38980086298,390.
8.28,7609.,20.,18.,2337.,0.,0.,9984.,0.801126515194,2.08292893951,260.
8.3,7600.,27.,10.,2347.,0.,0.,9984.,0.800178934877,1.54108535606,351.
8.32,7597.,20.,10.,2356.,0.,0.,9983.,0.799943197287,2.07985231294,260.
8.34,7596.,14.,9.,2363.,0.,0.,9982.,0.799918028058,2.97112410422,182.
8.36,7588.,17.,4.,2370.,0.,0.,9979.,0.799315792827,2.44496595453,221.
8.38,7592.,10.,7.,2368.,0.,0.,9977.,0.799897466809,4.1594668274,130.
8.4,7603.,8.,4.,2363.,0.,0.,9978.,0.800976150842,5.20634498048,104.
8.42,7609.,8.,1.,2363.,0.,0.,9981.,0.80136731066,5.20888751929,104.
8.44,7608.,10.,2.,2360.,0.,0.,9980.,0.801342279085,4.16697985124,130.
8.46,7611.,5.,4.,2360.,0.,0.,9980.,0.801658265788,8.3372459642,65.
8.48,7614.,3.,6.,2358.,0.,0.,9981.,0.801893902401,13.8994943083,39.
8.5,7620.,4.,0.,2359.,0.,0.,9983.,0.802365034003,10.430745442,52.
8.52,7627.,3.,0.,2349.,0.,0.,9979.,0.803424031615,13.926016548,39.
8.54,7627.,3.,0.,2348.,0.,0.,9978.,0.803504551161,13.9274122201,39.
8.56,7629.,3.,0.,2347.,0.,0.,9979.,0.803634710527,13.9296683158,39.
8.58,7629.,4.,1.,2344.,0.,0.,9978.,0.803715251187,10.4482982654,52.
8.6,7637.,1.,1.,2340.,0.,0.,9979.,0.804477426175,41.8328261611,13.
8.62,7641.,1.,0.,2335.,0.,0.,9977.,0.805060134864,41.8631270129,13.
8.64,7642.,1.,0.,2333.,0.,0.,9976.,0.80524620569,41.8728026959,13.
8.66,7645.,1.,0.,2328.,0.,0.,9974.,0.80572385154,41.8976402801,13.
8.68,7647.,1.,1.,2325.,0.,0.,9974.,0.805934636067,41.9086010755,13.
8.7,7653.,2.,0.,2321.,0.,0.,9976.,0.806405288164,20.9665374923,26.
8.72,7655.,1.,0.,2320.,0.,0.,9976.,0.806616030432,41.9440335825,13.
8.74,7656.,1.,0.,2318.,0.,0.,9975.,0.806802275892,41.9537183464,13.
8.76,7660.,1.,1.,2312.,0.,0.,9974.,0.807304735487,41.9798462453,13.
8.78,7661.,2.,1.,2309.,0.,0.,9973.,0.807491087354,20.9947682712,26.
8.8,7669.,1.,2.,2302.,0.,0.,9974.,0.808253265855,42.0291698245,13.
8.82,7676.,2.,1.,2296.,0.,0.,9975.,0.808909909841,21.0316576559,26.
8.84,7681.,2.,3.,2293.,0.,0.,9979.,0.809112362244,21.0369214183,26.
8.86,7676.,10.,0.,2289.,0.,0.,9975.,0.808909909841,4.20633153117,130.
8.88,7681.,8.,0.,2289.,0.,0.,9978.,0.809193451877,5.2597574372,104.
8.9,7684.,5.,5.,2284.,0.,0.,9978.,0.809509501917,8.41889881993,65.
8.92,7685.,9.,7.,2277.,0.,0.,9978.,0.80961485193,4.67777470004,117.
8.94,7685.,9.,7.,2278.,0.,0.,9979.,0.809533720068,4.67730593817,117.
8.96,7683.,12.,4.,2280.,0.,0.,9979.,0.809323041156,3.50706651167,156.
8.98,7679.,14.,6.,2279.,0.,0.,9978.,0.80898275185,3.0047930783,182.
9.,7678.,14.,12.,2278.,0.,0.,9982.,0.808553267434,3.00319785047,182.
9.02,7669.,18.,14.,2279.,0.,0.,9980.,0.807767342048,2.33355009925,234.
9.04,7655.,22.,15.,2286.,0.,0.,9978.,0.806454351532,1.90616483089,286.
9.06,7631.,34.,6.,2303.,0.,0.,9974.,0.804248359857,1.23002690331,442.
9.08,7627.,28.,14.,2306.,0.,0.,9975.,0.803746206665,1.49267152666,364.
9.1,7619.,27.,15.,2317.,0.,0.,9978.,0.802661751055,1.54586707611,351.
9.12,7604.,28.,20.,2326.,0.,0.,9978.,0.801081500856,1.4877227873,364.
9.14,7597.,28.,13.,2340.,0.,0.,9978.,0.800344050763,1.48635323713,364.
9.16,7586.,31.,14.,2348.,0.,0.,9979.,0.799105113915,1.34043438463,403.
9.18,7574.,31.,14.,2357.,0.,0.,9976.,0.798080968581,1.33871646343,403.
9.2,7561.,27.,20.,2368.,0.,0.,9976.,0.79671114384,1.5344066474,351.
9.22,7549.,36.,9.,2384.,0.,0.,9978.,0.795287250126,1.14874825018,468.
9.24,7548.,31.,14.,2386.,0.,0.,9979.,0.795102214583,1.33371984382,403.
9.26,7548.,37.,12.,2381.,0.,0.,9978.,0.795181900113,1.1175529407,481.
9.28,7537.,39.,16.,2390.,0.,0.,9982.,0.79370486802,1.05827315736,507.
9.3,7523.,35.,18.,2409.,0.,0.,9985.,0.791992532651,1.17667461994,455.
9.32,7521.,30.,16.,2421.,0.,0.,9988.,0.791544160358,1.37200987795,390.
9.34,7522.,20.,9.,2438.,0.,0.,9989.,0.791570152777,2.05808239722,260.
9.36,7518.,21.,4.,2444.,0.,0.,9987.,0.791307652584,1.95942847307,273.
9.38,7517.,15.,10.,2443.,0.,0.,9985.,0.791360875706,2.74338436911,195.
9.4,7506.,17.,6.,2450.,0.,0.,9979.,0.790677957427,2.41854434037,221.
9.42,7508.,18.,5.,2450.,0.,0.,9981.,0.790730157503,2.28433156612,234.
9.44,7509.,14.,2.,2456.,0.,0.,9981.,0.790835475851,2.9373889103,182.
9.46,7518.,7.,6.,2451.,0.,0.,9982.,0.791704019871,5.8812298619,91.
9.48,7522.,6.,4.,2450.,0.,0.,9982.,0.79212525106,6.86508550919,78.
9.5,7523.,9.,3.,2447.,0.,0.,9982.,0.792230558858,4.57733211784,117.
9.52,7533.,4.,0.,2449.,0.,0.,9986.,0.792965878514,10.3085564207,52.
9.54,7535.,3.,0.,2444.,0.,0.,9982.,0.793494252425,13.7539003754,39.
9.56,7536.,0.,2.,2440.,0.,0.,9978.,0.793917699954,inf,0.
9.58,7538.,1.,0.,2440.,0.,0.,9979.,0.794048820022,41.2905386412,13.
9.6,7544.,0.,1.,2435.,0.,0.,9980.,0.794601229419,inf,0.
9.62,7551.,0.,0.,2432.,0.,0.,9983.,0.795099523853,inf,0.
9.64,7556.,0.,0.,2425.,0.,0.,9981.,0.795785438211,inf,0.
9.66,7566.,1.,0.,2420.,0.,0.,9987.,0.796359896176,41.4107146011,13.
9.68,7572.,3.,0.,2413.,0.,0.,9988.,0.796911631728,13.81313495,39.
9.7,7578.,3.,0.,2409.,0.,0.,9990.,0.79738343066,13.8213127981,39.
9.72,7579.,2.,1.,2408.,0.,0.,9990.,0.797488654127,20.7347050073,26.
9.74,7579.,4.,1.,2408.,0.,0.,9992.,0.797329028696,10.365277373,52.
9.76,7588.,4.,2.,2395.,0.,0.,9989.,0.798515596819,10.3807027586,52.
9.78,7592.,3.,0.,2392.,0.,0.,9987.,0.799096528122,13.8510064874,39.
9.8,7592.,0.,3.,2388.,0.,0.,9983.,0.799416711044,inf,0.
9.82,7596.,3.,4.,2382.,0.,0.,9985.,0.799677692146,13.8610799972,39.
9.84,7597.,5.,3.,2381.,0.,0.,9986.,0.79970287788,8.31690992995,65.
9.86,7596.,6.,3.,2377.,0.,0.,9982.,0.799918028058,6.93262290984,78.
9.88,7604.,7.,2.,2371.,0.,0.,9984.,0.800600081684,5.94731489251,91.
9.9,7601.,12.,2.,2368.,0.,0.,9983.,0.800364386281,3.46824567388,156.
9.92,7603.,9.,2.,2370.,0.,0.,9984.,0.800494794983,4.62508103768,117.
9.94,7605.,10.,5.,2364.,0.,0.,9984.,0.800705368386,4.16366791561,130.
9.96,7610.,10.,2.,2364.,0.,0.,9986.,0.801071330876,4.16557092056,130.
9.98,7614.,12.,4.,2357.,0.,0.,9987.,0.801412139768,3.47278593899,156.
10.,7613.,9.,7.,2360.,0.,0.,9989.,0.801146446834,4.62884613727,117.
