t,s,e,i,r,c,o,n,reff,coal,reportr
5.,8112.,1.,33.,1854.,0.,0.,10000.,0.92571531868,48.1371965713,13.
5.02,8086.,27.,9.,1877.,0.,0.,9999.,0.922840566458,1.77732257244,351.
5.04,8076.,30.,14.,1880.,0.,0.,10000.,0.921607114603,1.59745233198,390.
5.06,8065.,28.,13.,1892.,0.,0.,9998.,0.920535937211,1.70956674053,364.
5.08,8051.,40.,12.,1895.,0.,0.,9998.,0.918937982701,1.19461937751,520.
5.1,8045.,39.,6.,1908.,0.,0.,9998.,0.918253145054,1.22433752674,507.
5.12,8039.,30.,16.,1912.,0.,0.,9997.,0.917660091773,1.59061082574,390.
5.14,8022.,29.,24.,1921.,0.,0.,9996.,0.91581113294,1.64214410044,377.
5.16,8012.,31.,14.,1938.,0.,0.,9995.,0.914761021199,1.53443784201,403.
5.18,8003.,31.,13.,1947.,0.,0.,9994.,0.9138248846,1.53286754836,403.
5.2,7989.,36.,14.,1953.,0.,0.,9992.,0.912408881855,1.31792394046,468.
5.22,7990.,26.,15.,1965.,0.,0.,9996.,0.912157934704,1.82431586941,338.
5.24,7979.,35.,14.,1974.,0.,0.,10002.,0.910355715808,1.35252849206,455.
5.26,7963.,32.,14.,1986.,0.,0.,9995.,0.909166501723,1.4773955653,416.
5.28,7958.,32.,9.,1999.,0.,0.,9998.,0.908322999172,1.47602487366,416.
5.3,7955.,30.,8.,2005.,0.,0.,9998.,0.907980580349,1.57383300594,390.
5.32,7953.,25.,7.,2013.,0.,0.,9998.,0.907752301133,1.88812478636,325.
5.34,7947.,20.,10.,2021.,0.,0.,9998.,0.907067463486,2.35837540506,260.
5.36,7942.,21.,13.,2024.,0.,0.,10000.,0.906315466094,2.24420972557,273.
5.38,7941.,9.,15.,2037.,0.,0.,10002.,0.906020145285,5.23478306165,117.
5.4,7934.,14.,5.,2050.,0.,0.,10003.,0.905130992557,3.36191511521,182.
5.42,7932.,16.,2.,2051.,0.,0.,10001.,0.905083789916,2.94152231723,208.
5.44,7927.,12.,7.,2053.,0.,0.,9999.,0.904694183814,3.92034146319,156.
5.46,7921.,9.,1.,2066.,0.,0.,9997.,0.904190270797,5.22421045349,117.
5.48,7923.,7.,1.,2066.,0.,0.,9997.,0.904418572847,6.71853796972,91.
5.5,7925.,5.,3.,2061.,0.,0.,9994.,0.904918431894,9.4111516917,65.
5.52,7930.,5.,1.,2061.,0.,0.,9997.,0.905217630024,9.41426335225,65.
5.54,7935.,1.,2.,2060.,0.,0.,9998.,0.905697788192,47.096284986,13.
5.56,7934.,2.,0.,2064.,0.,0.,10000.,0.905402531855,23.5404658282,26.
5.58,7940.,2.,0.,2057.,0.,0.,9999.,0.906177850319,23.5606241083,26.
5.6,7938.,0.,0.,2059.,0.,0.,9997.,0.906130838226,inf,0.
5.62,7944.,0.,0.,2052.,0.,0.,9996.,0.906906462239,inf,0.
5.64,7942.,0.,0.,2048.,0.,0.,9990.,0.907222688783,inf,0.
5.66,7951.,2.,0.,2041.,0.,0.,9994.,0.907887249463,23.605068486,26.
5.68,7960.,0.,0.,2037.,0.,0.,9997.,0.908642160781,inf,0.
5.7,7969.,0.,0.,2031.,0.,0.,10000.,0.909396619152,inf,0.
5.72,7974.,1.,0.,2027.,0.,0.,10002.,0.909785246002,47.3088327921,13.
5.74,7981.,0.,1.,2021.,0.,0.,10003.,0.910492872649,inf,0.
5.76,7980.,1.,1.,2019.,0.,0.,10001.,0.910560847646,47.3491640776,13.
5.78,7987.,2.,2.,2009.,0.,0.,10000.,0.91145072119,23.6977187509,26.
5.8,7984.,6.,0.,2008.,0.,0.,9998.,0.911290628976,7.89785211779,78.
5.82,7987.,2.,5.,2004.,0.,0.,9998.,0.9116330478,23.7024592428,26.
5.84,7991.,4.,3.,1997.,0.,0.,9995.,0.912363369995,11.8607238099,52.
5.86,7995.,6.,2.,1990.,0.,0.,9993.,0.91300275736,7.91269056378,78.
5.88,7991.,8.,4.,1990.,0.,0.,9993.,0.912545970489,5.93154880818,104.
5.9,7993.,8.,1.,1990.,0.,0.,9992.,0.912865714441,5.93362714387,104.
5.92,7998.,7.,4.,1984.,0.,0.,9993.,0.913345347512,6.78485115295,91.
5.94,7994.,12.,2.,1984.,0.,0.,9992.,0.912979922588,3.95624633121,156.
5.96,7989.,10.,9.,1983.,0.,0.,9991.,0.912500204934,4.74500106566,130.
5.98,7978.,20.,6.,1986.,0.,0.,9990.,0.911335005176,2.36947101346,260.
6.,7975.,19.,7.,1992.,0.,0.,9993.,0.910718823007,2.49249362086,247.
6.02,7964.,18.,8.,2003.,0.,0.,9993.,0.909462659113,2.62733657077,234.
6.04,7959.,17.,12.,2002.,0.,0.,9990.,0.909164615968,2.78097411943,221.
6.06,7949.,26.,14.,2002.,0.,0.,9991.,0.907931421833,1.81586284367,338.
6.08,7932.,33.,11.,2015.,0.,0.,9991.,0.905989689015,1.42762011602,429.
6.1,7932.,28.,14.,2020.,0.,0.,9994.,0.905717728932,1.68204721087,364.
6.12,7924.,26.,12.,2035.,0.,0.,9997.,0.904532723873,1.80906544775,338.
6.14,7917.,27.,11.,2044.,0.,0.,9999.,0.903552901886,1.74017595919,351.
6.16,7901.,28.,11.,2054.,0.,0.,9994.,0.902177984908,1.67547340054,364.
6.18,7893.,31.,8.,2062.,0.,0.,9994.,0.90126450258,1.51179852046,403.
6.2,7877.,30.,11.,2072.,0.,0.,9990.,0.899797673072,1.55964929999,390.
6.22,7866.,31.,17.,2076.,0.,0.,9990.,0.898541131952,1.50723028586,403.
6.24,7856.,31.,15.,2089.,0.,0.,9991.,0.897309001122,1.50516348575,403.
6.26,7845.,34.,8.,2102.,0.,0.,9989.,0.896231993635,1.37070775497,442.
6.28,7838.,28.,19.,2104.,0.,0.,9989.,0.895432296509,1.66294569352,364.
6.3,7823.,32.,18.,2115.,0.,0.,9988.,0.893808139051,1.45243822596,416.
6.32,7825.,27.,7.,2130.,0.,0.,9989.,0.893947144703,1.72167598239,351.
6.34,7825.,21.,9.,2129.,0.,0.,9984.,0.894394834579,2.21469197134,273.
6.36,7824.,24.,7.,2131.,0.,0.,9986.,0.894101428063,1.9372197608,312.
6.38,7823.,18.,8.,2139.,0.,0.,9988.,0.893808139051,2.5821124017,234.
6.4,7831.,12.,7.,2136.,0.,0.,9986.,0.894901365435,3.87790591688,156.
6.42,7830.,12.,10.,2135.,0.,0.,9987.,0.894697493485,3.87702247177,156.
6.44,7829.,16.,4.,2138.,0.,0.,9987.,0.89458322816,2.90739549152,208.
6.46,7823.,13.,7.,2141.,0.,0.,9984.,0.89416623526,3.57666494104,169.
6.48,7822.,14.,1.,2148.,0.,0.,9985.,0.893962396098,3.32043175694,182.
6.5,7818.,7.,8.,2148.,0.,0.,9981.,0.893863325703,6.64012756237,91.
6.52,7817.,11.,2.,2147.,0.,0.,9977.,0.89410731543,4.22668912749,143.
6.54,7821.,5.,0.,2149.,0.,0.,9975.,0.894744196215,9.30533964063,65.
6.56,7825.,4.,1.,2149.,0.,0.,9979.,0.894842973087,11.6329586501,52.
6.58,7826.,1.,1.,2152.,0.,0.,9980.,0.894867654933,46.5331180565,13.
6.6,7832.,2.,3.,2146.,0.,0.,9983.,0.89528460413,23.2773997074,26.
6.62,7838.,0.,2.,2142.,0.,0.,9982.,0.896060229396,inf,0.
6.64,7838.,1.,0.,2141.,0.,0.,9980.,0.896239800584,46.6044696304,13.
6.66,7847.,1.,0.,2134.,0.,0.,9982.,0.89708913244,46.6486348869,13.
6.68,7854.,0.,1.,2128.,0.,0.,9983.,0.897799448524,inf,0.
6.7,7856.,0.,0.,2125.,0.,0.,9981.,0.898208018256,inf,0.
6.72,7857.,2.,0.,2121.,0.,0.,9980.,0.89841236453,23.3587214778,26.
6.74,7863.,1.,2.,2113.,0.,0.,9979.,0.899188536407,46.7578038932,13.
6.76,7868.,1.,1.,2112.,0.,0.,9982.,0.899489906211,46.773475123,13.
6.78,7868.,4.,1.,2109.,0.,0.,9982.,0.899489906211,11.6933687807,52.
6.8,7871.,3.,2.,2106.,0.,0.,9982.,0.899832873893,15.5971031475,39.
6.82,7870.,3.,3.,2103.,0.,0.,9979.,0.899989034913,15.5998099385,39.
6.84,7868.,7.,3.,2100.,0.,0.,9978.,0.89985049547,6.68460368064,91.
6.86,7865.,8.,1.,2104.,0.,0.,9978.,0.899507390299,5.84679803694,104.
6.88,7862.,9.,2.,2102.,0.,0.,9975.,0.899434710477,5.19673388275,117.
6.9,7860.,8.,9.,2097.,0.,0.,9974.,0.899296059897,5.84542438933,104.
6.92,7857.,6.,10.,2102.,0.,0.,9975.,0.898862696542,7.79014337003,78.
6.94,7851.,10.,4.,2107.,0.,0.,9972.,0.898446489292,4.67192174432,130.
6.96,7854.,10.,5.,2100.,0.,0.,9969.,0.899060276318,4.67511343685,130.
6.98,7852.,13.,4.,2100.,0.,0.,9969.,0.898831333034,3.59532533214,169.
7.,7851.,16.,4.,2092.,0.,0.,9963.,0.89925809407,2.92258880573,208.
7.02,7851.,13.,7.,2093.,0.,0.,9964.,0.899167843358,3.59667137343,169.
7.04,7844.,19.,6.,2097.,0.,0.,9966.,0.898185853564,2.45819286239,247.
7.06,7837.,21.,4.,2098.,0.,0.,9960.,0.897924903818,2.22343309517,273.
7.08,7834.,20.,9.,2095.,0.,0.,9958.,0.897761451961,2.3341797751,260.
7.1,7822.,28.,13.,2093.,0.,0.,9956.,0.896566344419,1.66505178249,364.
7.12,7815.,23.,14.,2101.,0.,0.,9953.,0.89603399482,2.02581598829,299.
7.14,7805.,28.,10.,2106.,0.,0.,9949.,0.895247228109,1.66260199506,364.
7.16,7796.,26.,13.,2112.,0.,0.,9947.,0.894394708179,1.78878941636,338.
7.18,7798.,25.,15.,2113.,0.,0.,9951.,0.894264546062,1.86007025581,325.
7.2,7793.,26.,15.,2120.,0.,0.,9954.,0.893421806195,1.78684361239,338.
7.22,7781.,30.,7.,2131.,0.,0.,9949.,0.892494385895,1.54699026889,390.
7.24,7771.,22.,16.,2136.,0.,0.,9945.,0.891705879063,2.10766844142,286.
7.26,7764.,26.,11.,2144.,0.,0.,9945.,0.89090264381,1.78180528762,338.
7.28,7753.,29.,12.,2151.,0.,0.,9945.,0.889640416983,1.59521729942,377.
7.3,7741.,30.,12.,2165.,0.,0.,9948.,0.887995570296,1.53919232185,390.
7.32,7735.,25.,10.,2178.,0.,0.,9948.,0.887307290562,1.84559916437,325.
7.34,7723.,32.,5.,2187.,0.,0.,9947.,0.886019796212,1.43978216884,416.
7.36,7722.,23.,9.,2193.,0.,0.,9947.,0.885905071391,2.00291581358,299.
7.38,7723.,12.,15.,2202.,0.,0.,9952.,0.88557464961,3.83749014831,156.
7.4,7724.,17.,5.,2207.,0.,0.,9953.,0.885600329621,2.7088951259,221.
7.42,7734.,11.,5.,2210.,0.,0.,9960.,0.886123670554,4.1889482608,143.
7.44,7733.,14.,4.,2211.,0.,0.,9962.,0.885831217719,3.29023023724,182.
7.46,7733.,13.,4.,2211.,0.,0.,9961.,0.885920147667,3.54368059067,169.
7.48,7737.,9.,6.,2208.,0.,0.,9960.,0.886467395794,5.12181162014,117.
7.5,7746.,6.,0.,2211.,0.,0.,9963.,0.887231333163,7.68933822075,78.
7.52,7751.,2.,3.,2207.,0.,0.,9963.,0.887804036063,23.0829049376,26.
7.54,7755.,1.,2.,2204.,0.,0.,9962.,0.888351363431,46.1942708984,13.
7.56,7760.,3.,2.,2196.,0.,0.,9961.,0.88901336427,15.4095649807,39.
7.58,7762.,0.,2.,2196.,0.,0.,9960.,0.8893317728,inf,0.
7.6,7766.,3.,2.,2187.,0.,0.,9958.,0.889968781712,15.4261255497,39.
7.62,7774.,0.,0.,2186.,0.,0.,9960.,0.890706673763,inf,0.
7.64,7774.,0.,0.,2185.,0.,0.,9959.,0.890796111124,inf,0.
7.66,7773.,0.,0.,2182.,0.,0.,9955.,0.891039407622,inf,0.
7.68,7774.,2.,0.,2178.,0.,0.,9954.,0.891243567478,23.1723327544,26.
7.7,7775.,2.,1.,2176.,0.,0.,9954.,0.891358211621,23.1753135022,26.
7.72,7778.,2.,1.,2173.,0.,0.,9954.,0.89170214405,23.1842557453,26.
7.74,7786.,2.,0.,2168.,0.,0.,9956.,0.892439984358,23.2034395933,26.
7.76,7790.,2.,0.,2163.,0.,0.,9955.,0.892988162277,23.2176922192,26.
7.78,7790.,3.,0.,2160.,0.,0.,9953.,0.893167603282,15.4815717902,39.
7.8,7796.,1.,2.,2156.,0.,0.,9955.,0.893675958037,46.4711498179,13.
7.82,7798.,3.,2.,2151.,0.,0.,9954.,0.89399502691,15.4959137998,39.
7.84,7801.,9.,2.,2144.,0.,0.,9956.,0.89415930105,5.1662537394,117.
7.86,7806.,8.,2.,2142.,0.,0.,9958.,0.894552705388,5.81459258502,104.
7.88,7811.,9.,1.,2139.,0.,0.,9960.,0.894945951732,5.17079883223,117.
7.9,7811.,8.,2.,2137.,0.,0.,9958.,0.895125695847,5.81831702301,104.
7.92,7809.,7.,6.,2135.,0.,0.,9957.,0.894986375781,6.64847022009,91.
7.94,7803.,11.,7.,2135.,0.,0.,9956.,0.894388543276,4.22801856821,143.
7.96,7797.,15.,3.,2140.,0.,0.,9955.,0.893790590664,3.09847404764,195.
7.98,7794.,14.,4.,2143.,0.,0.,9955.,0.893446692784,3.31851628748,182.
8.,7793.,15.,5.,2141.,0.,0.,9954.,0.893421806195,3.09719559481,195.
8.02,7790.,16.,6.,2144.,0.,0.,9956.,0.892898468809,2.90192002363,208.
8.04,7783.,21.,6.,2146.,0.,0.,9956.,0.89209612102,2.20899991872,273.
8.06,7780.,21.,10.,2146.,0.,0.,9957.,0.891662697346,2.20792667914,273.
8.08,7767.,24.,10.,2152.,0.,0.,9953.,0.890530523067,1.92948279998,312.
8.1,7760.,25.,11.,2156.,0.,0.,9952.,0.889817335359,1.85082005755,325.
8.12,7761.,23.,14.,2161.,0.,0.,9959.,0.88930648552,2.01060596726,299.
8.14,7749.,33.,13.,2166.,0.,0.,9961.,0.887753164913,1.39888377501,429.
8.16,7741.,39.,13.,2167.,0.,0.,9960.,0.886925696115,1.18256759482,507.
8.18,7730.,34.,19.,2179.,0.,0.,9962.,0.885487561485,1.35427509404,442.
8.2,7716.,37.,16.,2192.,0.,0.,9961.,0.883972566844,1.24233982367,481.
8.22,7698.,31.,23.,2209.,0.,0.,9961.,0.881910422442,1.47933361184,403.
8.24,7690.,34.,10.,2231.,0.,0.,9965.,0.88064027853,1.34686160246,442.
8.26,7684.,31.,17.,2236.,0.,0.,9968.,0.879688339562,1.47560624701,403.
8.28,7677.,30.,11.,2247.,0.,0.,9965.,0.879151549841,1.52386268639,390.
8.3,7671.,29.,11.,2255.,0.,0.,9966.,0.87837629815,1.5750195691,377.
8.32,7676.,21.,10.,2262.,0.,0.,9969.,0.878684324041,2.17578975477,273.
8.34,7676.,15.,9.,2272.,0.,0.,9972.,0.878419978576,3.04518925906,195.
8.36,7668.,22.,7.,2277.,0.,0.,9974.,0.877328522556,2.07368559877,286.
8.38,7669.,17.,7.,2280.,0.,0.,9973.,0.877530918657,2.68421222177,221.
8.4,7664.,14.,7.,2287.,0.,0.,9972.,0.877046732127,3.2576021479,182.
8.42,7662.,9.,6.,2292.,0.,0.,9969.,0.877081721053,5.06758327719,117.
8.44,7654.,11.,4.,2297.,0.,0.,9966.,0.876429694439,4.14312219189,143.
8.46,7663.,10.,4.,2293.,0.,0.,9970.,0.877108209125,4.56096268745,130.
8.48,7661.,12.,0.,2294.,0.,0.,9967.,0.877143223575,3.80095396883,156.
8.5,7664.,6.,7.,2290.,0.,0.,9967.,0.877486707412,7.60488479757,78.
8.52,7664.,6.,2.,2293.,0.,0.,9965.,0.877662821151,7.60641111664,78.
8.54,7667.,5.,2.,2291.,0.,0.,9965.,0.878006373926,9.13126628883,65.
8.56,7678.,2.,3.,2286.,0.,0.,9969.,0.878913267325,22.8517449504,26.
8.58,7684.,1.,1.,2283.,0.,0.,9969.,0.879600097177,45.7392050532,13.
8.6,7689.,0.,2.,2278.,0.,0.,9969.,0.880172455387,inf,0.
8.62,7696.,0.,0.,2273.,0.,0.,9969.,0.880973756881,inf,0.
8.64,7698.,0.,0.,2271.,0.,0.,9969.,0.881202700165,inf,0.
8.66,7708.,0.,0.,2261.,0.,0.,9969.,0.882347416585,inf,0.
8.68,7710.,0.,0.,2256.,0.,0.,9966.,0.882842036076,inf,0.
8.7,7714.,0.,0.,2251.,0.,0.,9965.,0.883388700726,inf,0.
8.72,7718.,0.,1.,2245.,0.,0.,9964.,0.883935475103,inf,0.
8.74,7720.,2.,0.,2242.,0.,0.,9964.,0.884164533272,22.9882778651,26.
8.76,7725.,2.,0.,2238.,0.,0.,9965.,0.884648394232,23.00085825,26.
8.78,7726.,2.,1.,2233.,0.,0.,9962.,0.885029353174,23.0107631825,26.
8.8,7732.,1.,0.,2227.,0.,0.,9960.,0.885894520393,46.0665150604,13.
8.82,7737.,1.,1.,2218.,0.,0.,9957.,0.886734484494,46.1101931937,13.
8.84,7737.,5.,1.,2212.,0.,0.,9955.,0.88691263306,9.22389138382,65.
8.86,7741.,8.,0.,2211.,0.,0.,9960.,0.886925696115,5.76501702475,104.
8.88,7742.,7.,4.,2208.,0.,0.,9961.,0.886951219868,6.58878049045,91.
8.9,7740.,7.,2.,2211.,0.,0.,9960.,0.886811121035,6.58773975626,91.
8.92,7739.,10.,2.,2206.,0.,0.,9957.,0.886963703697,4.61221125922,130.
8.94,7733.,13.,7.,2203.,0.,0.,9956.,0.886365065379,3.54546026152,169.
8.96,7731.,12.,9.,2206.,0.,0.,9958.,0.885957848495,3.83915067681,156.
8.98,7727.,14.,7.,2213.,0.,0.,9961.,0.8852327662,3.28800741731,182.
9.,7723.,14.,12.,2210.,0.,0.,9959.,0.884952195293,3.2869652968,182.
9.02,7711.,17.,12.,2218.,0.,0.,9958.,0.883665886657,2.70297800625,221.
9.04,7710.,14.,15.,2222.,0.,0.,9961.,0.883285185376,3.28077354568,182.
9.06,7711.,12.,11.,2231.,0.,0.,9965.,0.883045147951,3.82652897445,156.
9.08,7706.,17.,5.,2240.,0.,0.,9968.,0.882206968332,2.69851543255,221.
9.1,7705.,11.,14.,2239.,0.,0.,9969.,0.882004001659,4.16947346239,143.
9.12,7694.,21.,14.,2241.,0.,0.,9970.,0.880656474097,2.18067317395,273.
9.14,7680.,26.,5.,2254.,0.,0.,9965.,0.879495102615,1.75899020523,338.
9.16,7666.,26.,15.,2255.,0.,0.,9962.,0.878156228505,1.75631245701,338.
9.18,7655.,32.,12.,2261.,0.,0.,9960.,0.877072239215,1.42524238872,416.
9.2,7652.,27.,15.,2266.,0.,0.,9960.,0.876728513974,1.68851417506,351.
9.22,7639.,23.,20.,2279.,0.,0.,9961.,0.875151171348,1.97860264826,299.
9.24,7626.,27.,16.,2290.,0.,0.,9959.,0.873837296556,1.68294590448,351.
9.26,7621.,30.,11.,2295.,0.,0.,9957.,0.873439770755,1.51396226931,390.
9.28,7616.,26.,8.,2305.,0.,0.,9955.,0.873042085225,1.74608417045,338.
9.3,7618.,20.,1.,2315.,0.,0.,9954.,0.873359081174,2.27073361105,260.
9.32,7625.,12.,11.,2306.,0.,0.,9954.,0.874161590175,3.78803355743,156.
9.34,7618.,19.,6.,2311.,0.,0.,9954.,0.873359081174,2.39024590637,247.
9.36,7618.,18.,5.,2316.,0.,0.,9957.,0.873095941951,2.52227716564,234.
9.38,7621.,13.,6.,2317.,0.,0.,9957.,0.873439770755,3.49375908302,169.
9.4,7614.,16.,4.,2321.,0.,0.,9955.,0.872812819971,2.83664166491,208.
9.42,7611.,16.,7.,2323.,0.,0.,9957.,0.872293674743,2.83495444291,208.
9.44,7616.,10.,9.,2324.,0.,0.,9959.,0.872691430707,4.53799543968,130.
9.46,7612.,8.,9.,2331.,0.,0.,9960.,0.872145510765,5.66894581997,104.
9.48,7608.,9.,1.,2339.,0.,0.,9957.,0.871949845939,5.03793244321,117.
9.5,7612.,3.,6.,2335.,0.,0.,9956.,0.872495910729,15.1232624526,39.
9.52,7612.,2.,2.,2339.,0.,0.,9955.,0.872583554718,22.6871724227,26.
9.54,7620.,1.,0.,2337.,0.,0.,9958.,0.873237460294,45.4083479353,13.
9.56,7622.,2.,0.,2330.,0.,0.,9954.,0.873817657746,22.7192591014,26.
9.58,7624.,0.,2.,2330.,0.,0.,9956.,0.873871364083,inf,0.
9.6,7640.,0.,0.,2318.,0.,0.,9958.,0.875529422132,inf,0.
9.62,7640.,0.,0.,2314.,0.,0.,9954.,0.87588125232,inf,0.
9.64,7650.,1.,1.,2305.,0.,0.,9957.,0.87676344919,45.5916993579,13.
9.66,7651.,1.,1.,2300.,0.,0.,9953.,0.87723046633,45.6159842492,13.
9.68,7649.,1.,2.,2297.,0.,0.,9949.,0.877353753722,45.6223951936,13.
9.7,7650.,4.,2.,2293.,0.,0.,9949.,0.877468455481,11.4070899213,52.
9.72,7647.,1.,3.,2292.,0.,0.,9943.,0.877653641777,45.6379893724,13.
9.74,7655.,2.,0.,2290.,0.,0.,9947.,0.878218508352,22.8336812172,26.
9.76,7656.,0.,1.,2289.,0.,0.,9946.,0.878421543372,inf,0.
9.78,7660.,3.,1.,2285.,0.,0.,9949.,0.87861547307,15.2293348666,39.
9.8,7668.,3.,1.,2281.,0.,0.,9953.,0.879179612576,15.2391132847,39.
9.82,7671.,2.,0.,2280.,0.,0.,9953.,0.879523579561,22.8676130686,26.
9.84,7666.,3.,2.,2280.,0.,0.,9951.,0.879126956926,15.2382005867,39.
9.86,7666.,9.,1.,2276.,0.,0.,9952.,0.879038620214,5.07888980568,117.
9.88,7668.,9.,4.,2272.,0.,0.,9953.,0.879179612576,5.07970442822,117.
9.9,7664.,11.,4.,2273.,0.,0.,9952.,0.878809285849,4.15437116947,143.
9.92,7672.,7.,3.,2273.,0.,0.,9955.,0.879461512322,6.53314266296,91.
9.94,7670.,11.,3.,2270.,0.,0.,9954.,0.879320576609,4.15678818033,143.
9.96,7669.,14.,2.,2270.,0.,0.,9955.,0.879117614442,3.2652939965,182.
9.98,7670.,10.,8.,2266.,0.,0.,9954.,0.879320576609,4.57246699837,130.
10.,7670.,13.,5.,2269.,0.,0.,9957.,0.879055641214,3.51622256486,169.
