t,s,e,i,r,c,o,n,reff,coal,reportr
5.,6730.,13.,7.,3250.,0.,0.,10000.,0.790760204375,3.1630408175,169.
5.02,6727.,22.,10.,3242.,0.,0.,10001.,0.790328678103,1.86804960279,286.
5.04,6725.,18.,12.,3248.,0.,0.,10003.,0.789935734647,2.28203656676,234.
5.06,6717.,19.,10.,3258.,0.,0.,10004.,0.788917166088,2.15914171772,247.
5.08,6709.,16.,20.,3260.,0.,0.,10005.,0.787898801142,2.56067110371,208.
5.1,6691.,30.,17.,3267.,0.,0.,10005.,0.785784897666,1.36202715595,390.
5.12,6675.,30.,26.,3272.,0.,0.,10003.,0.784062606508,1.35904185128,390.
5.14,6653.,35.,23.,3290.,0.,0.,10001.,0.781634710185,1.16128585513,455.
5.16,6643.,34.,23.,3306.,0.,0.,10006.,0.780069853729,1.19304801158,442.
5.18,6622.,37.,22.,3325.,0.,0.,10006.,0.777603879481,1.09284869549,481.
5.2,6615.,36.,16.,3340.,0.,0.,10007.,0.776704264213,1.12190615942,468.
5.22,6611.,42.,14.,3342.,0.,0.,10009.,0.776079494447,0.960860326458,546.
5.24,6606.,29.,24.,3348.,0.,0.,10007.,0.775647523717,1.39081624942,377.
5.26,6597.,22.,19.,3371.,0.,0.,10009.,0.774436004366,1.83048510123,286.
5.28,6593.,26.,18.,3368.,0.,0.,10005.,0.77427586763,1.54855173526,338.
5.3,6580.,34.,15.,3375.,0.,0.,10004.,0.772826403582,1.18196979371,442.
5.32,6583.,28.,16.,3380.,0.,0.,10007.,0.772946964673,1.43547293439,364.
5.34,6582.,24.,12.,3388.,0.,0.,10006.,0.772906785675,1.67463136896,312.
5.36,6580.,20.,7.,3398.,0.,0.,10005.,0.772749159564,2.00914781487,260.
5.38,6587.,15.,6.,3401.,0.,0.,10009.,0.77326208288,2.68064188732,195.
5.4,6586.,11.,9.,3402.,0.,0.,10008.,0.773221943398,3.65523100516,143.
5.42,6586.,10.,4.,3412.,0.,0.,10012.,0.772913025323,4.01914773168,130.
5.44,6594.,10.,4.,3405.,0.,0.,10013.,0.77377459639,4.02362790123,130.
5.46,6595.,10.,1.,3404.,0.,0.,10010.,0.77412387729,4.02544416191,130.
5.48,6603.,4.,7.,3399.,0.,0.,10013.,0.774830703664,10.0727991476,52.
5.5,6603.,5.,2.,3400.,0.,0.,10010.,0.775062920659,8.06065437485,65.
5.52,6616.,4.,0.,3394.,0.,0.,10014.,0.776278664868,10.0916226433,52.
5.54,6628.,2.,2.,3381.,0.,0.,10013.,0.777764334982,20.2218727095,26.
5.56,6639.,0.,0.,3375.,0.,0.,10014.,0.778977336164,inf,0.
5.58,6642.,0.,0.,3370.,0.,0.,10012.,0.77948501582,inf,0.
5.6,6650.,0.,0.,3364.,0.,0.,10014.,0.780268005045,inf,0.
5.62,6653.,0.,0.,3360.,0.,0.,10013.,0.7806979663,inf,0.
5.64,6663.,1.,0.,3348.,0.,0.,10012.,0.781949512257,40.6613746374,13.
5.66,6667.,2.,0.,3341.,0.,0.,10010.,0.78257526761,20.3469569579,26.
5.68,6675.,2.,0.,3333.,0.,0.,10010.,0.783514310979,20.3713720855,26.
5.7,6685.,3.,0.,3322.,0.,0.,10010.,0.78468811519,13.6012606633,39.
5.72,6698.,2.,1.,3314.,0.,0.,10015.,0.785821542412,20.4313601027,26.
5.74,6705.,2.,2.,3308.,0.,0.,10017.,0.786485733589,20.4486290733,26.
5.76,6719.,0.,2.,3303.,0.,0.,10024.,0.787577542456,inf,0.
5.78,6729.,1.,3.,3293.,0.,0.,10026.,0.788592366421,41.0068030539,13.
5.8,6732.,2.,3.,3288.,0.,0.,10025.,0.78902264337,20.5145887276,26.
5.82,6735.,6.,3.,3282.,0.,0.,10026.,0.789295525018,6.84056121682,78.
5.84,6742.,4.,6.,3271.,0.,0.,10023.,0.790352367548,10.2745807781,52.
5.86,6741.,8.,7.,3266.,0.,0.,10022.,0.790313989415,5.1370409312,104.
5.88,6742.,8.,6.,3265.,0.,0.,10021.,0.790510106769,5.138315694,104.
5.9,6746.,4.,8.,3260.,0.,0.,10018.,0.791215980435,10.2858077457,52.
5.92,6742.,8.,8.,3260.,0.,0.,10018.,0.790746833693,5.139854419,104.
5.94,6741.,9.,12.,3254.,0.,0.,10016.,0.790787420319,4.56899398407,117.
5.96,6734.,14.,10.,3252.,0.,0.,10010.,0.790439755825,2.93591909307,182.
5.98,6737.,16.,9.,3251.,0.,0.,10013.,0.790554967528,2.56930364447,208.
6.,6735.,12.,9.,3253.,0.,0.,10009.,0.790636120874,3.42608985712,156.
6.02,6733.,11.,14.,3250.,0.,0.,10008.,0.790480313529,3.73681602759,143.
6.04,6728.,17.,13.,3248.,0.,0.,10006.,0.790051178065,2.4166271329,221.
6.06,6725.,21.,13.,3249.,0.,0.,10008.,0.789541082501,1.95505410905,273.
6.08,6725.,21.,17.,3245.,0.,0.,10008.,0.789541082501,1.95505410905,273.
6.1,6715.,25.,17.,3252.,0.,0.,10009.,0.788288277902,1.63963961804,325.
6.12,6705.,33.,19.,3254.,0.,0.,10011.,0.786957106519,1.24005362239,429.
6.14,6691.,31.,20.,3269.,0.,0.,10011.,0.785313944776,1.31730081059,403.
6.16,6680.,35.,16.,3280.,0.,0.,10011.,0.78402288912,1.16483400669,455.
6.18,6672.,38.,15.,3286.,0.,0.,10011.,0.783083939552,1.07158854886,494.
6.2,6663.,33.,23.,3291.,0.,0.,10010.,0.782105745926,1.23240905419,429.
6.22,6648.,35.,24.,3300.,0.,0.,10007.,0.780578979363,1.15971734077,455.
6.24,6637.,36.,15.,3318.,0.,0.,10006.,0.779365289658,1.12574986284,468.
6.26,6630.,27.,19.,3329.,0.,0.,10005.,0.778621113664,1.49956658928,351.
6.28,6631.,20.,19.,3338.,0.,0.,10008.,0.778505117928,2.02411330661,260.
6.3,6622.,30.,10.,3344.,0.,0.,10006.,0.777603879481,1.34784672443,390.
6.32,6624.,21.,10.,3348.,0.,0.,10003.,0.778072015807,1.92665451533,273.
6.34,6618.,17.,12.,3354.,0.,0.,10001.,0.777522698332,2.37830472431,221.
6.36,6611.,16.,8.,3361.,0.,0.,9996.,0.777088801512,2.52553860491,208.
6.38,6603.,15.,6.,3370.,0.,0.,9994.,0.776303765839,2.69118638824,195.
6.4,6603.,15.,9.,3371.,0.,0.,9998.,0.775993182216,2.69010969835,195.
6.42,6603.,8.,12.,3373.,0.,0.,9996.,0.776148442956,5.04496487922,104.
6.44,6600.,12.,9.,3378.,0.,0.,9999.,0.775563046479,3.36077320141,156.
6.46,6605.,9.,4.,3385.,0.,0.,10003.,0.775840227114,4.48263242333,117.
6.48,6605.,9.,5.,3379.,0.,0.,9998.,0.776228224827,4.48487418789,117.
6.5,6612.,5.,5.,3377.,0.,0.,9999.,0.776973161109,8.08052087554,65.
6.52,6619.,2.,6.,3372.,0.,0.,9999.,0.777795727977,20.2226889274,26.
6.54,6623.,1.,3.,3372.,0.,0.,9999.,0.778265766187,40.4698198417,13.
6.56,6625.,3.,0.,3369.,0.,0.,9997.,0.778656532173,13.4967132243,39.
6.58,6626.,2.,2.,3367.,0.,0.,9997.,0.778774065234,20.2481256961,26.
6.6,6630.,3.,0.,3362.,0.,0.,9995.,0.779400124283,13.5096021542,39.
6.62,6638.,2.,0.,3357.,0.,0.,9997.,0.780184461972,20.2847960113,26.
6.64,6648.,2.,0.,3347.,0.,0.,9997.,0.781359792586,20.3153546072,26.
6.66,6657.,1.,1.,3337.,0.,0.,9996.,0.782495863208,40.6897848868,13.
6.68,6663.,1.,0.,3330.,0.,0.,9994.,0.783357866392,40.7346090524,13.
6.7,6671.,0.,2.,3320.,0.,0.,9993.,0.784376897913,inf,0.
6.72,6677.,0.,0.,3316.,0.,0.,9993.,0.785082378558,inf,0.
6.74,6682.,1.,0.,3307.,0.,0.,9990.,0.785906216117,40.8671232381,13.
6.76,6694.,0.,1.,3297.,0.,0.,9992.,0.787160011529,inf,0.
6.78,6696.,1.,3.,3294.,0.,0.,9994.,0.787237621696,40.9363563282,13.
6.8,6703.,3.,1.,3285.,0.,0.,9992.,0.788218338404,13.662451199,39.
6.82,6705.,7.,1.,3278.,0.,0.,9991.,0.788532438531,5.85766954337,91.
6.84,6705.,8.,2.,3275.,0.,0.,9990.,0.788611370707,5.1259739096,104.
6.86,6708.,6.,4.,3273.,0.,0.,9991.,0.788885249466,6.83700549537,78.
6.88,6710.,6.,3.,3267.,0.,0.,9986.,0.789515570142,6.84246827457,78.
6.9,6710.,11.,5.,3261.,0.,0.,9987.,0.789436515815,3.73188171112,143.
6.92,6710.,9.,5.,3261.,0.,0.,9985.,0.789594640305,4.5621023662,117.
6.94,6711.,13.,8.,3254.,0.,0.,9986.,0.789633232671,3.15853293069,169.
6.96,6702.,18.,13.,3252.,0.,0.,9985.,0.788653245801,2.27833159898,234.
6.98,6697.,26.,8.,3257.,0.,0.,9988.,0.787828170729,1.57565634146,338.
7.,6697.,23.,12.,3254.,0.,0.,9986.,0.787985957264,1.7815334686,299.
7.02,6692.,16.,17.,3260.,0.,0.,9985.,0.78747650267,2.55929863368,208.
7.04,6691.,23.,11.,3265.,0.,0.,9990.,0.78696475487,1.77922466318,299.
7.06,6696.,20.,10.,3268.,0.,0.,9994.,0.787237621696,2.04681781641,260.
7.08,6696.,18.,14.,3265.,0.,0.,9993.,0.787316400603,2.27446960174,234.
7.1,6688.,26.,12.,3266.,0.,0.,9992.,0.786454460278,1.57290892056,338.
7.12,6683.,30.,10.,3270.,0.,0.,9993.,0.785787859204,1.36203228929,390.
7.14,6669.,24.,24.,3273.,0.,0.,9990.,0.784377215697,1.69948396734,312.
7.16,6652.,31.,18.,3291.,0.,0.,9992.,0.782221152777,1.31211290143,403.
7.18,6647.,28.,17.,3300.,0.,0.,9992.,0.781633193402,1.45160450203,364.
7.2,6624.,37.,14.,3316.,0.,0.,9991.,0.779006543301,1.0948200068,481.
7.22,6625.,30.,11.,3324.,0.,0.,9990.,0.77920213735,1.35061703807,390.
7.24,6626.,23.,8.,3337.,0.,0.,9994.,0.779007837717,1.76123511136,299.
7.26,6627.,19.,9.,3336.,0.,0.,9991.,0.779359354235,2.1329834958,247.
7.28,6618.,23.,12.,3340.,0.,0.,9993.,0.778145152209,1.75928469195,299.
7.3,6617.,23.,9.,3344.,0.,0.,9993.,0.778027572101,1.75901885866,299.
7.32,6611.,21.,12.,3351.,0.,0.,9995.,0.777166549266,1.92441240771,273.
7.34,6614.,13.,8.,3360.,0.,0.,9995.,0.777519219006,3.11007687602,169.
7.36,6603.,15.,10.,3363.,0.,0.,9991.,0.776536866759,2.69199447143,195.
7.38,6608.,12.,7.,3367.,0.,0.,9994.,0.776891607551,3.36653029939,156.
7.4,6608.,13.,5.,3369.,0.,0.,9995.,0.776813879527,3.10725551811,169.
7.42,6610.,16.,3.,3370.,0.,0.,9999.,0.776738142004,2.52439896151,208.
7.44,6618.,9.,9.,3363.,0.,0.,9999.,0.777678218424,4.49325192867,117.
7.46,6617.,7.,6.,3367.,0.,0.,9997.,0.777716267681,5.77732084563,91.
7.48,6616.,6.,8.,3367.,0.,0.,9997.,0.77759873462,6.73918903337,78.
7.5,6620.,5.,2.,3370.,0.,0.,9997.,0.778068866865,8.0919162154,65.
7.52,6620.,0.,2.,3374.,0.,0.,9996.,0.778146704887,inf,0.
7.54,6622.,2.,1.,3372.,0.,0.,9997.,0.778303932988,20.2359022577,26.
7.56,6633.,1.,1.,3364.,0.,0.,9999.,0.779440861712,40.530924809,13.
7.58,6642.,1.,1.,3355.,0.,0.,9999.,0.780498447684,40.5859192796,13.
7.6,6650.,1.,0.,3349.,0.,0.,10000.,0.781360380252,40.6307397731,13.
7.62,6657.,1.,1.,3343.,0.,0.,10002.,0.782026459571,40.6653758977,13.
7.64,6667.,1.,0.,3335.,0.,0.,10003.,0.783122906006,40.7223911123,13.
7.66,6674.,2.,0.,3327.,0.,0.,10003.,0.783945143945,20.3825737426,26.
7.68,6677.,0.,3.,3321.,0.,0.,10001.,0.784454375456,inf,0.
7.7,6690.,2.,1.,3311.,0.,0.,10004.,0.785745993916,20.4293958418,26.
7.72,6700.,2.,0.,3304.,0.,0.,10006.,0.786763212401,20.4558435224,26.
7.74,6709.,2.,2.,3296.,0.,0.,10009.,0.78758392501,20.4771820503,26.
7.76,6718.,3.,1.,3287.,0.,0.,10009.,0.788640454348,13.6697678754,39.
7.78,6718.,1.,2.,3287.,0.,0.,10008.,0.788719255352,41.0134012783,13.
7.8,6725.,6.,1.,3278.,0.,0.,10010.,0.789383332035,6.84132221097,78.
7.82,6731.,4.,2.,3271.,0.,0.,10008.,0.790245505772,10.273191575,52.
7.84,6732.,6.,1.,3269.,0.,0.,10008.,0.79036290965,6.84981188364,78.
7.86,6734.,6.,2.,3268.,0.,0.,10010.,0.790439755825,6.85047788382,78.
7.88,6738.,6.,3.,3263.,0.,0.,10010.,0.79090927751,6.85454707175,78.
7.9,6742.,7.,7.,3259.,0.,0.,10015.,0.79098370244,5.87587893241,91.
7.92,6740.,15.,5.,3256.,0.,0.,10016.,0.790670110214,2.74098971541,195.
7.94,6740.,18.,4.,3253.,0.,0.,10015.,0.790749058802,2.28438616987,234.
7.96,6737.,16.,3.,3258.,0.,0.,10014.,0.790476022554,2.5690470733,208.
7.98,6748.,14.,4.,3249.,0.,0.,10015.,0.791687633353,2.94055406674,182.
8.,6748.,13.,9.,3242.,0.,0.,10012.,0.791924854977,3.16769941991,169.
8.02,6744.,15.,6.,3244.,0.,0.,10009.,0.791692650211,2.74453452073,195.
8.04,6749.,16.,9.,3234.,0.,0.,10008.,0.792358775584,2.57516602065,208.
8.06,6749.,20.,10.,3232.,0.,0.,10011.,0.792121329142,2.05951545577,260.
8.08,6747.,22.,15.,3231.,0.,0.,10015.,0.791570311534,1.87098437272,286.
8.1,6733.,27.,15.,3239.,0.,0.,10014.,0.790006688416,1.52149436287,351.
8.12,6720.,26.,16.,3249.,0.,0.,10011.,0.788717636959,1.57743527392,338.
8.14,6720.,23.,15.,3256.,0.,0.,10014.,0.788481352466,1.78265349253,299.
8.16,6707.,33.,10.,3259.,0.,0.,10009.,0.787349140713,1.24067137324,429.
8.18,6702.,32.,5.,3268.,0.,0.,10007.,0.786919422336,1.2787440613,416.
8.2,6699.,24.,7.,3276.,0.,0.,10006.,0.786645785056,1.70439920095,312.
8.22,6704.,25.,10.,3270.,0.,0.,10009.,0.786996964267,1.63695368568,325.
8.24,6701.,19.,12.,3274.,0.,0.,10006.,0.786880639746,2.15356806667,247.
8.26,6694.,25.,10.,3277.,0.,0.,10006.,0.78605864833,1.63500198853,325.
8.28,6691.,29.,8.,3276.,0.,0.,10004.,0.785863444737,1.40913445263,377.
8.3,6686.,28.,7.,3278.,0.,0.,9999.,0.785668867994,1.45909932627,364.
8.32,6691.,21.,8.,3279.,0.,0.,9999.,0.786256415756,1.94692064854,273.
8.34,6693.,15.,4.,3289.,0.,0.,10001.,0.786334152303,2.72595839465,195.
8.36,6698.,9.,9.,3279.,0.,0.,9995.,0.787393971711,4.54938739211,117.
8.38,6704.,12.,6.,3273.,0.,0.,9995.,0.78809931119,3.41509701516,156.
8.4,6707.,12.,2.,3275.,0.,0.,9996.,0.788373104181,3.41628345145,156.
8.42,6711.,7.,6.,3273.,0.,0.,9997.,0.788764375458,5.8593925034,91.
8.44,6713.,6.,3.,3276.,0.,0.,9998.,0.788920525854,6.83731122407,78.
8.46,6714.,4.,2.,3278.,0.,0.,9998.,0.78903804716,10.2574946131,52.
8.48,6717.,5.,1.,3276.,0.,0.,9999.,0.789311664121,8.20884130686,65.
8.5,6723.,4.,0.,3272.,0.,0.,9999.,0.790016721436,10.2702173787,52.
8.52,6731.,0.,4.,3270.,0.,0.,10005.,0.790482460946,inf,0.
8.54,6738.,3.,1.,3265.,0.,0.,10007.,0.791146384318,13.7132039949,39.
8.56,6745.,1.,3.,3257.,0.,0.,10006.,0.792047442932,41.1864670325,13.
8.58,6746.,1.,0.,3256.,0.,0.,10003.,0.792402448465,41.2049273202,13.
8.6,6751.,0.,0.,3252.,0.,0.,10003.,0.792989761279,inf,0.
8.62,6757.,0.,0.,3244.,0.,0.,10001.,0.793853259691,inf,0.
8.64,6765.,0.,0.,3236.,0.,0.,10001.,0.794793148114,inf,0.
8.66,6771.,0.,0.,3231.,0.,0.,10002.,0.795418530532,inf,0.
8.68,6775.,2.,0.,3226.,0.,0.,10003.,0.795808862786,20.6910304324,26.
8.7,6783.,2.,1.,3213.,0.,0.,9999.,0.797067294586,20.7237496592,26.
8.72,6787.,3.,1.,3209.,0.,0.,10000.,0.797457579063,13.8225980371,39.
8.74,6794.,1.,2.,3203.,0.,0.,10000.,0.798280063674,41.510563311,13.
8.76,6803.,0.,1.,3198.,0.,0.,10002.,0.799177708346,inf,0.
8.78,6812.,0.,0.,3191.,0.,0.,10003.,0.800154977608,inf,0.
8.8,6817.,1.,0.,3185.,0.,0.,10003.,0.800742290422,41.6385991019,13.
8.82,6826.,3.,0.,3173.,0.,0.,10002.,0.801879617399,13.8992467016,39.
8.84,6836.,1.,2.,3164.,0.,0.,10003.,0.802974079115,41.754652114,13.
8.86,6839.,3.,2.,3159.,0.,0.,10003.,0.803326466803,13.9243254246,39.
8.88,6841.,7.,2.,3154.,0.,0.,10004.,0.803481067919,5.96871650454,91.
8.9,6840.,11.,4.,3147.,0.,0.,10002.,0.803524257693,3.79847830909,143.
8.92,6845.,15.,3.,3141.,0.,0.,10004.,0.803950871204,2.78702968684,195.
8.94,6845.,13.,8.,3139.,0.,0.,10005.,0.803870516294,3.21548206518,169.
8.96,6843.,15.,11.,3137.,0.,0.,10006.,0.803555322756,2.78565845222,195.
8.98,6834.,21.,5.,3143.,0.,0.,10003.,0.802739153989,1.98773504797,273.
9.,6830.,22.,11.,3143.,0.,0.,10006.,0.802028767269,1.895704359,286.
9.02,6826.,21.,15.,3148.,0.,0.,10010.,0.801238754568,1.98401977322,273.
9.04,6816.,26.,11.,3159.,0.,0.,10012.,0.799905129153,1.59981025831,338.
9.06,6808.,23.,11.,3165.,0.,0.,10007.,0.799365477061,1.80726107857,299.
9.08,6804.,28.,10.,3164.,0.,0.,10006.,0.798975656295,1.48381193312,364.
9.1,6798.,33.,5.,3169.,0.,0.,10005.,0.79835087944,1.25800744639,429.
9.12,6796.,30.,16.,3165.,0.,0.,10007.,0.797956489734,1.38312458221,390.
9.14,6795.,25.,16.,3174.,0.,0.,10010.,0.797599961514,1.65900791995,325.
9.16,6780.,35.,14.,3182.,0.,0.,10011.,0.795759758717,1.18227164152,455.
9.18,6764.,40.,22.,3185.,0.,0.,10011.,0.793881859582,1.03204641746,520.
9.2,6756.,29.,21.,3207.,0.,0.,10013.,0.79278452733,1.42154466969,377.
9.22,6729.,40.,19.,3219.,0.,0.,10007.,0.790089643823,1.02711653697,520.
9.24,6721.,39.,14.,3234.,0.,0.,10008.,0.789071466988,1.05209528932,507.
9.26,6715.,35.,24.,3237.,0.,0.,10011.,0.788130793479,1.17093717888,455.
9.28,6710.,37.,13.,3252.,0.,0.,10012.,0.787465289996,1.10670797513,481.
9.3,6698.,40.,11.,3261.,0.,0.,10010.,0.786214060665,1.02207827886,520.
9.32,6692.,38.,18.,3262.,0.,0.,10010.,0.785509778138,1.07490811745,494.
9.34,6688.,32.,18.,3273.,0.,0.,10011.,0.784961838688,1.27556298787,416.
9.36,6692.,30.,13.,3278.,0.,0.,10013.,0.785274431156,1.36114234734,390.
9.38,6692.,27.,9.,3284.,0.,0.,10012.,0.785352864479,1.5125314427,351.
9.4,6687.,27.,2.,3296.,0.,0.,10012.,0.784766079613,1.51140133851,351.
9.42,6689.,20.,10.,3294.,0.,0.,10013.,0.784922395398,2.04079822803,260.
9.44,6699.,15.,4.,3299.,0.,0.,10017.,0.785781943224,2.72404406984,195.
9.46,6702.,12.,6.,3297.,0.,0.,10017.,0.786133838407,3.40657996643,156.
9.48,6710.,5.,1.,3300.,0.,0.,10016.,0.787150807053,8.18636839335,65.
9.5,6711.,4.,2.,3299.,0.,0.,10016.,0.787268117158,10.2344855231,52.
9.52,6713.,2.,1.,3298.,0.,0.,10014.,0.787660017724,20.4791604608,26.
9.54,6717.,2.,4.,3292.,0.,0.,10015.,0.788050656969,20.4893170812,26.
9.56,6724.,3.,2.,3286.,0.,0.,10015.,0.788871909701,13.6737797682,39.
9.58,6734.,3.,1.,3277.,0.,0.,10015.,0.790045127889,13.6941155501,39.
9.6,6748.,3.,1.,3265.,0.,0.,10017.,0.791529564543,13.7198457854,39.
9.62,6754.,0.,2.,3260.,0.,0.,10016.,0.792312451689,inf,0.
9.64,6761.,0.,1.,3251.,0.,0.,10013.,0.793371253593,inf,0.
9.66,6766.,1.,0.,3246.,0.,0.,10013.,0.793957979857,41.2858149525,13.
9.68,6772.,2.,2.,3234.,0.,0.,10010.,0.794900211828,20.6674055075,26.
9.7,6775.,2.,0.,3235.,0.,0.,10012.,0.795093493252,20.6724308246,26.
9.72,6782.,1.,1.,3227.,0.,0.,10011.,0.795994496109,41.3917137977,13.
9.74,6790.,0.,1.,3219.,0.,0.,10010.,0.797013059408,inf,0.
9.76,6793.,0.,0.,3217.,0.,0.,10010.,0.797365200671,inf,0.
9.78,6804.,0.,0.,3209.,0.,0.,10013.,0.79841709946,inf,0.
9.8,6816.,0.,0.,3198.,0.,0.,10014.,0.799745371787,inf,0.
9.82,6826.,3.,0.,3184.,0.,0.,10013.,0.800998695019,13.8839773803,39.
9.84,6829.,6.,1.,3179.,0.,0.,10015.,0.801190700677,6.9436527392,78.
9.86,6829.,6.,2.,3178.,0.,0.,10015.,0.801190700677,6.9436527392,78.
9.88,6840.,8.,2.,3167.,0.,0.,10017.,0.802321016816,5.2150866093,104.
9.9,6841.,7.,0.,3168.,0.,0.,10016.,0.802518430857,5.96156548636,91.
9.92,6850.,6.,3.,3159.,0.,0.,10018.,0.803413795728,6.96291956297,78.
9.94,6851.,6.,5.,3153.,0.,0.,10015.,0.80377178069,6.96602209932,78.
9.96,6842.,9.,9.,3154.,0.,0.,10014.,0.802796043686,4.6383771413,117.
9.98,6838.,10.,11.,3153.,0.,0.,10012.,0.802486982562,4.17293230932,130.
10.,6832.,13.,12.,3154.,0.,0.,10011.,0.801862930908,3.20745172363,169.
