t,s,e,i,r,c,o,n,reff,coal,reportr
5.,6343.,19.,10.,3629.,0.,0.,10001.,0.860349751882,2.3546414262,247.
5.02,6354.,19.,14.,3616.,0.,0.,10003.,0.861669449612,2.35825323052,247.
5.04,6354.,22.,9.,3623.,0.,0.,10008.,0.86123895928,2.03565572193,286.
5.06,6347.,24.,16.,3620.,0.,0.,10007.,0.860376128509,1.86414827844,312.
5.08,6336.,35.,14.,3626.,0.,0.,10011.,0.858541832193,1.27554786497,455.
5.1,6329.,25.,23.,3630.,0.,0.,10007.,0.85793611428,1.7845071177,325.
5.12,6309.,36.,16.,3646.,0.,0.,10007.,0.855224987358,1.23532498174,468.
5.14,6300.,37.,22.,3651.,0.,0.,10010.,0.853749034695,1.19986350822,481.
5.16,6288.,36.,24.,3663.,0.,0.,10011.,0.852037727403,1.2307211618,468.
5.18,6272.,40.,29.,3670.,0.,0.,10011.,0.849869692474,1.10483060022,520.
5.2,6261.,36.,25.,3691.,0.,0.,10013.,0.848209712918,1.22519180755,468.
5.22,6254.,34.,20.,3705.,0.,0.,10013.,0.847261387093,1.2958115332,442.
5.24,6246.,29.,15.,3719.,0.,0.,10009.,0.846515752834,1.51789031543,377.
5.26,6236.,23.,14.,3737.,0.,0.,10010.,0.845076028628,1.91060667342,299.
5.28,6222.,29.,9.,3748.,0.,0.,10008.,0.843347309512,1.51220896878,377.
5.3,6226.,24.,15.,3744.,0.,0.,10009.,0.843805167651,1.82824452991,312.
5.32,6218.,32.,9.,3752.,0.,0.,10011.,0.842552574586,1.3691479337,416.
5.34,6216.,19.,11.,3763.,0.,0.,10009.,0.842449875059,2.30565228964,247.
5.36,6219.,15.,9.,3763.,0.,0.,10006.,0.843109168152,2.92277844959,195.
5.38,6221.,16.,11.,3762.,0.,0.,10010.,0.843043292831,2.7398907017,208.
5.4,6217.,18.,6.,3768.,0.,0.,10009.,0.842585404318,2.43413561247,234.
5.42,6224.,13.,3.,3770.,0.,0.,10010.,0.843449839991,3.37379935996,169.
5.44,6226.,10.,8.,3767.,0.,0.,10011.,0.843636592051,4.38691027866,130.
5.46,6229.,11.,4.,3764.,0.,0.,10008.,0.844296109121,3.99121797039,143.
5.48,6236.,8.,5.,3760.,0.,0.,10009.,0.845160460243,5.49354299158,104.
5.5,6240.,3.,2.,3765.,0.,0.,10010.,0.845618091507,14.6573802528,39.
5.52,6240.,3.,4.,3761.,0.,0.,10008.,0.845787079935,14.6603093855,39.
5.54,6246.,1.,1.,3762.,0.,0.,10010.,0.846431185826,44.014421663,13.
5.56,6254.,2.,1.,3754.,0.,0.,10011.,0.847430653178,22.0331969826,26.
5.58,6253.,0.,1.,3752.,0.,0.,10006.,0.847718544534,inf,0.
5.6,6261.,0.,0.,3746.,0.,0.,10007.,0.848718282747,inf,0.
5.62,6267.,0.,0.,3740.,0.,0.,10007.,0.849531620823,inf,0.
5.64,6281.,0.,0.,3727.,0.,0.,10008.,0.851344334787,inf,0.
5.66,6288.,0.,0.,3719.,0.,0.,10007.,0.852378304091,inf,0.
5.68,6290.,1.,1.,3710.,0.,0.,10002.,0.853075656243,44.3599341247,13.
5.7,6300.,0.,0.,3705.,0.,0.,10005.,0.854175695882,inf,0.
5.72,6311.,0.,0.,3697.,0.,0.,10008.,0.855410618825,inf,0.
5.74,6315.,0.,0.,3693.,0.,0.,10008.,0.85595279003,inf,0.
5.76,6325.,0.,0.,3683.,0.,0.,10008.,0.857308218043,inf,0.
5.78,6333.,2.,0.,3675.,0.,0.,10010.,0.858221053448,22.3137473897,26.
5.8,6336.,2.,0.,3669.,0.,0.,10007.,0.858885008702,22.3310102263,26.
5.82,6349.,5.,0.,3657.,0.,0.,10011.,0.860303360573,8.94715494996,65.
5.84,6356.,2.,3.,3648.,0.,0.,10009.,0.861423971344,22.3970232549,26.
5.86,6354.,10.,3.,3640.,0.,0.,10007.,0.861325022931,4.47889011924,130.
5.88,6353.,12.,3.,3637.,0.,0.,10005.,0.861361618403,3.73256701308,156.
5.9,6351.,7.,6.,3636.,0.,0.,10000.,0.861520996741,6.3998702615,91.
5.92,6357.,10.,5.,3633.,0.,0.,10005.,0.861903952178,4.48190055132,130.
5.94,6354.,15.,7.,3628.,0.,0.,10004.,0.861583317121,2.98682216602,195.
5.96,6344.,18.,7.,3629.,0.,0.,9998.,0.86074358681,2.48659258412,234.
5.98,6344.,18.,7.,3631.,0.,0.,10000.,0.860571438092,2.4860952656,234.
6.,6345.,18.,5.,3631.,0.,0.,9999.,0.860793168645,2.48673582053,234.
6.02,6344.,17.,6.,3631.,0.,0.,9998.,0.86074358681,2.63286273612,221.
6.04,6339.,16.,9.,3635.,0.,0.,9999.,0.859979179833,2.79493233446,208.
6.06,6342.,14.,8.,3634.,0.,0.,9998.,0.860472230067,3.19603971168,182.
6.08,6338.,19.,5.,3635.,0.,0.,9997.,0.86001553534,2.3537267283,247.
6.1,6335.,17.,11.,3632.,0.,0.,9995.,0.859780467206,2.62991672322,221.
6.12,6323.,28.,5.,3633.,0.,0.,9989.,0.858667296172,1.59466783575,364.
6.14,6315.,20.,21.,3631.,0.,0.,9987.,0.857752630682,2.23015683977,260.
6.16,6314.,25.,8.,3642.,0.,0.,9989.,0.857445090627,1.7834857885,325.
6.18,6309.,22.,12.,3645.,0.,0.,9988.,0.85685186709,2.0252862313,286.
6.2,6302.,24.,12.,3650.,0.,0.,9988.,0.855901167602,1.8544525298,312.
6.22,6294.,31.,8.,3657.,0.,0.,9990.,0.854643519836,1.43359558166,403.
6.24,6284.,23.,23.,3656.,0.,0.,9986.,0.853627442381,1.92994030451,299.
6.26,6273.,23.,13.,3678.,0.,0.,9987.,0.852047862592,1.92636908064,299.
6.28,6264.,18.,17.,3685.,0.,0.,9984.,0.851081068962,2.45867864367,234.
6.3,6252.,20.,5.,3701.,0.,0.,9978.,0.849961439592,2.20989974294,260.
6.32,6252.,21.,10.,3695.,0.,0.,9978.,0.849961439592,2.10466642185,273.
6.34,6255.,16.,17.,3693.,0.,0.,9981.,0.850113694151,2.76286950599,208.
6.36,6251.,15.,12.,3704.,0.,0.,9982.,0.849484946093,2.94488114645,195.
6.38,6256.,16.,6.,3707.,0.,0.,9985.,0.849908992856,2.76220422678,208.
6.4,6257.,12.,5.,3705.,0.,0.,9979.,0.850555948094,3.68574244174,156.
6.42,6265.,6.,6.,3704.,0.,0.,9981.,0.851472788785,7.37943083614,78.
6.44,6270.,8.,2.,3702.,0.,0.,9982.,0.852066967205,5.53843528683,104.
6.46,6275.,8.,0.,3702.,0.,0.,9985.,0.852490238199,5.54118654829,104.
6.48,6277.,5.,0.,3696.,0.,0.,9978.,0.853360197748,8.87494605658,65.
6.5,6285.,3.,1.,3690.,0.,0.,9979.,0.854362175766,14.8089443799,39.
6.52,6291.,4.,2.,3681.,0.,0.,9978.,0.855263502315,11.1184255301,52.
6.54,6295.,6.,4.,3676.,0.,0.,9981.,0.85555007269,7.41476729665,78.
6.56,6299.,2.,4.,3673.,0.,0.,9978.,0.856351104925,22.2651287281,26.
6.58,6303.,1.,0.,3671.,0.,0.,9975.,0.857152618984,44.5719361872,13.
6.6,6311.,0.,0.,3664.,0.,0.,9975.,0.858240548692,inf,0.
6.62,6318.,0.,0.,3657.,0.,0.,9975.,0.859192487187,inf,0.
6.64,6324.,1.,0.,3650.,0.,0.,9975.,0.860008434468,44.7204385923,13.
6.66,6326.,2.,0.,3640.,0.,0.,9968.,0.860884546402,22.3829982064,26.
6.68,6330.,0.,2.,3633.,0.,0.,9965.,0.861688229599,inf,0.
6.7,6334.,0.,2.,3628.,0.,0.,9964.,0.862319275128,inf,0.
6.72,6338.,1.,1.,3623.,0.,0.,9963.,0.862950447334,44.8734232614,13.
6.74,6341.,0.,2.,3620.,0.,0.,9963.,0.863358912361,inf,0.
6.76,6348.,1.,3.,3610.,0.,0.,9962.,0.864398758316,44.9487354324,13.
6.78,6352.,4.,1.,3604.,0.,0.,9961.,0.865030266014,11.2453934582,52.
6.8,6363.,1.,4.,3595.,0.,0.,9963.,0.86635432256,45.0504247731,13.
6.82,6366.,5.,1.,3593.,0.,0.,9965.,0.866588826165,9.01252379212,65.
6.84,6375.,4.,2.,3585.,0.,0.,9966.,0.867726897846,11.280449672,52.
6.86,6378.,5.,3.,3581.,0.,0.,9967.,0.868048138958,9.02770064517,65.
6.88,6380.,8.,0.,3575.,0.,0.,9963.,0.868668957714,5.64634822514,104.
6.9,6383.,8.,0.,3571.,0.,0.,9962.,0.869164661993,5.64957030295,104.
6.92,6394.,7.,2.,3558.,0.,0.,9961.,0.870749924574,6.46842801112,91.
6.94,6396.,9.,3.,3552.,0.,0.,9960.,0.871109741304,5.03307850531,117.
6.96,6392.,12.,6.,3550.,0.,0.,9960.,0.870564957226,3.77244814798,156.
6.98,6395.,14.,6.,3548.,0.,0.,9963.,0.87071128285,3.23407047916,182.
7.,6391.,16.,7.,3550.,0.,0.,9964.,0.870079331756,2.82775782821,208.
7.02,6386.,17.,12.,3551.,0.,0.,9966.,0.869224152101,2.65880328878,221.
7.04,6381.,25.,8.,3554.,0.,0.,9968.,0.868369315616,1.80620817648,325.
7.06,6373.,23.,16.,3554.,0.,0.,9966.,0.867454669799,1.96120186216,299.
7.08,6370.,24.,17.,3555.,0.,0.,9966.,0.86704632773,1.87860037675,312.
7.1,6367.,25.,13.,3556.,0.,0.,9961.,0.867073001214,1.80351184252,325.
7.12,6370.,20.,13.,3561.,0.,0.,9964.,0.867220363524,2.25477294516,260.
7.14,6359.,27.,12.,3568.,0.,0.,9966.,0.865549073475,1.66698340077,351.
7.16,6350.,31.,12.,3573.,0.,0.,9966.,0.864324047266,1.44983388574,403.
7.18,6338.,28.,15.,3584.,0.,0.,9965.,0.862777251058,1.60230060911,364.
7.2,6328.,31.,16.,3590.,0.,0.,9965.,0.861415974234,1.44495582775,403.
7.22,6331.,28.,14.,3594.,0.,0.,9967.,0.861651421722,1.6002097832,364.
7.24,6319.,34.,14.,3600.,0.,0.,9967.,0.860018217322,1.31532197943,442.
7.26,6312.,35.,15.,3607.,0.,0.,9969.,0.858893167375,1.27606984867,455.
7.28,6309.,26.,17.,3617.,0.,0.,9969.,0.858484948189,1.71696989638,338.
7.3,6305.,26.,9.,3630.,0.,0.,9970.,0.857854603718,1.71570920744,338.
7.32,6303.,22.,10.,3635.,0.,0.,9970.,0.857582484891,2.02701314611,286.
7.34,6303.,17.,8.,3640.,0.,0.,9968.,0.857754552003,2.62371980613,221.
7.36,6303.,14.,8.,3641.,0.,0.,9966.,0.857926688176,3.1865848418,182.
7.38,6309.,16.,5.,3635.,0.,0.,9965.,0.858829548268,2.79119603187,208.
7.4,6316.,11.,6.,3632.,0.,0.,9965.,0.859782442045,4.06442608967,143.
7.42,6318.,10.,4.,3635.,0.,0.,9967.,0.859882116955,4.47138700817,130.
7.44,6322.,6.,4.,3633.,0.,0.,9965.,0.860599208139,7.45852647054,78.
7.46,6330.,6.,0.,3628.,0.,0.,9964.,0.86177470975,7.46871415117,78.
7.48,6335.,6.,1.,3619.,0.,0.,9961.,0.862715166121,7.47686477304,78.
7.5,6340.,5.,2.,3613.,0.,0.,9960.,0.863482764207,8.98022074775,65.
7.52,6345.,4.,3.,3607.,0.,0.,9959.,0.864250516445,11.2352567138,52.
7.54,6349.,2.,3.,3604.,0.,0.,9958.,0.864882199508,22.4869371872,26.
7.56,6354.,3.,3.,3598.,0.,0.,9958.,0.865563316376,15.0030974839,39.
7.58,6363.,0.,0.,3594.,0.,0.,9957.,0.866876380001,inf,0.
7.6,6374.,0.,0.,3584.,0.,0.,9958.,0.86828778385,inf,0.
7.62,6379.,0.,0.,3581.,0.,0.,9960.,0.868794408971,inf,0.
7.64,6383.,1.,1.,3574.,0.,0.,9959.,0.869426484865,45.210177213,13.
7.66,6386.,2.,0.,3568.,0.,0.,9956.,0.870097217742,22.6225276613,26.
7.68,6394.,1.,1.,3562.,0.,0.,9958.,0.871012251323,45.2926370688,13.
7.7,6400.,2.,0.,3559.,0.,0.,9961.,0.871567018654,22.660742485,26.
7.72,6409.,1.,2.,3547.,0.,0.,9959.,0.872967936942,45.394332721,13.
7.74,6418.,0.,1.,3541.,0.,0.,9960.,0.874106053735,inf,0.
7.76,6418.,2.,2.,3533.,0.,0.,9955.,0.874545082391,22.7381721422,26.
7.78,6425.,1.,3.,3525.,0.,0.,9954.,0.875586887853,45.5305181684,13.
7.8,6430.,5.,1.,3519.,0.,0.,9955.,0.876180255496,9.11227465716,65.
7.82,6437.,5.,2.,3514.,0.,0.,9958.,0.876869856392,9.11944650647,65.
7.84,6437.,4.,2.,3508.,0.,0.,9951.,0.877486687765,11.4073269409,52.
7.86,6437.,3.,5.,3505.,0.,0.,9950.,0.877574877382,15.2112978746,39.
7.88,6440.,6.,4.,3502.,0.,0.,9952.,0.877807432377,7.60766441393,78.
7.9,6445.,9.,3.,3501.,0.,0.,9958.,0.877959643381,5.07265571731,117.
7.92,6446.,9.,3.,3498.,0.,0.,9956.,0.878272262068,5.07446195861,117.
7.94,6448.,10.,5.,3491.,0.,0.,9954.,0.878721284494,4.56935067937,130.
7.96,6452.,11.,2.,3489.,0.,0.,9954.,0.879266396954,4.15653205833,143.
7.98,6458.,10.,5.,3484.,0.,0.,9957.,0.879818900212,4.5750582811,130.
8.,6466.,7.,8.,3478.,0.,0.,9959.,0.880731889572,6.54257975111,91.
8.02,6464.,16.,6.,3477.,0.,0.,9963.,0.880105978474,2.86034443004,208.
8.04,6461.,19.,9.,3473.,0.,0.,9962.,0.879785818759,2.40783487239,247.
8.06,6451.,19.,13.,3478.,0.,0.,9961.,0.878512318334,2.40434950281,247.
8.08,6443.,22.,13.,3479.,0.,0.,9957.,0.877775344389,2.0747417231,286.
8.1,6433.,23.,13.,3487.,0.,0.,9956.,0.876501002464,1.98165444035,299.
8.12,6431.,22.,15.,3488.,0.,0.,9956.,0.876228500986,2.07108554779,286.
8.14,6416.,29.,13.,3495.,0.,0.,9953.,0.874448233748,1.56797614327,377.
8.16,6411.,28.,13.,3502.,0.,0.,9954.,0.873678994245,1.6225467036,364.
8.18,6397.,31.,19.,3508.,0.,0.,9955.,0.871683529457,1.46217882361,403.
8.2,6391.,30.,16.,3521.,0.,0.,9958.,0.870603581202,1.50904620742,390.
8.22,6380.,33.,14.,3529.,0.,0.,9956.,0.869279713309,1.3697740937,429.
8.24,6371.,36.,8.,3540.,0.,0.,9955.,0.868140654396,1.25398094524,468.
8.26,6368.,24.,22.,3542.,0.,0.,9956.,0.867644704444,1.87989685963,312.
8.28,6364.,23.,6.,3560.,0.,0.,9953.,0.867361059783,1.96099022212,299.
8.3,6365.,20.,10.,3559.,0.,0.,9954.,0.867410200962,2.2552665225,260.
8.32,6358.,16.,10.,3569.,0.,0.,9953.,0.866543308941,2.81626575406,208.
8.34,6354.,18.,6.,3575.,0.,0.,9953.,0.865998141713,2.50177240939,234.
8.36,6358.,15.,5.,3574.,0.,0.,9952.,0.866630381219,3.00431865489,195.
8.38,6364.,10.,7.,3572.,0.,0.,9953.,0.867361059783,4.51027751087,130.
8.4,6367.,12.,1.,3571.,0.,0.,9951.,0.867944343794,3.76109215644,156.
8.42,6373.,8.,6.,3564.,0.,0.,9951.,0.868762258991,5.64695468344,104.
8.44,6374.,9.,3.,3567.,0.,0.,9953.,0.868723977854,5.01929409426,117.
8.46,6377.,7.,3.,3561.,0.,0.,9948.,0.869569691259,6.45966056364,91.
8.48,6379.,8.,1.,3559.,0.,0.,9947.,0.869929859591,5.65454408734,104.
8.5,6392.,6.,3.,3547.,0.,0.,9948.,0.871615095896,7.55399749776,78.
8.52,6401.,3.,2.,3544.,0.,0.,9950.,0.872666892981,15.126226145,39.
8.54,6408.,2.,2.,3538.,0.,0.,9950.,0.873621223281,22.7141518053,26.
8.56,6416.,0.,0.,3534.,0.,0.,9950.,0.874711886482,inf,0.
8.58,6420.,0.,0.,3528.,0.,0.,9948.,0.875433184551,inf,0.
8.6,6428.,0.,1.,3520.,0.,0.,9949.,0.876435965298,inf,0.
8.62,6436.,1.,0.,3514.,0.,0.,9951.,0.877350368565,45.6222191654,13.
8.64,6448.,0.,0.,3503.,0.,0.,9951.,0.87898619896,inf,0.
8.66,6454.,0.,1.,3495.,0.,0.,9950.,0.879892536682,inf,0.
8.68,6463.,0.,0.,3486.,0.,0.,9949.,0.88120809641,inf,0.
8.7,6471.,0.,0.,3476.,0.,0.,9947.,0.882476269229,inf,0.
8.72,6478.,0.,0.,3469.,0.,0.,9947.,0.883430887354,inf,0.
8.74,6484.,1.,0.,3462.,0.,0.,9947.,0.884249131461,45.980954836,13.
8.76,6492.,2.,0.,3454.,0.,0.,9948.,0.885251126808,23.016529297,26.
8.78,6497.,2.,1.,3445.,0.,0.,9945.,0.886200178105,23.0412046307,26.
8.8,6503.,1.,3.,3441.,0.,0.,9948.,0.886751090208,46.1110566908,13.
8.82,6505.,1.,3.,3436.,0.,0.,9945.,0.887291389653,46.1391522619,13.
8.84,6499.,7.,0.,3435.,0.,0.,9941.,0.886829674677,6.58787758332,91.
8.86,6512.,3.,3.,3422.,0.,0.,9940.,0.88869300368,15.4040120638,39.
8.88,6522.,5.,3.,3414.,0.,0.,9944.,0.8896996762,9.25287663248,65.
8.9,6527.,9.,0.,3406.,0.,0.,9942.,0.890560867221,5.14546278839,117.
8.92,6531.,9.,2.,3399.,0.,0.,9941.,0.891196277168,5.14913404586,117.
8.94,6529.,8.,7.,3395.,0.,0.,9939.,0.891102642783,5.79216717809,104.
8.96,6535.,8.,5.,3390.,0.,0.,9938.,0.892011294099,5.79807341164,104.
8.98,6540.,13.,2.,3384.,0.,0.,9939.,0.892603964436,3.57041585774,169.
9.,6546.,10.,5.,3381.,0.,0.,9942.,0.893153276671,4.64439703869,130.
9.02,6547.,17.,9.,3370.,0.,0.,9943.,0.893199878207,2.73214080393,221.
9.04,6543.,25.,8.,3370.,0.,0.,9946.,0.892384912487,1.85616061797,325.
9.06,6544.,22.,12.,3369.,0.,0.,9947.,0.892431572529,2.10938371689,286.
9.08,6538.,19.,16.,3374.,0.,0.,9947.,0.891613328422,2.44020489884,247.
9.1,6527.,31.,10.,3381.,0.,0.,9949.,0.889934279014,1.49279298415,403.
9.12,6517.,26.,17.,3389.,0.,0.,9949.,0.888570812982,1.77714162596,338.
9.14,6505.,29.,15.,3399.,0.,0.,9948.,0.887023810826,1.5905254539,377.
9.16,6498.,30.,14.,3405.,0.,0.,9947.,0.88615836771,1.53600783736,390.
9.18,6482.,31.,15.,3418.,0.,0.,9946.,0.884065261002,1.48294817975,403.
9.2,6472.,36.,9.,3430.,0.,0.,9947.,0.882612643247,1.27488492913,468.
9.22,6473.,31.,13.,3431.,0.,0.,9948.,0.882660280934,1.48059143899,403.
9.24,6473.,25.,16.,3435.,0.,0.,9949.,0.882571562442,1.83574884988,325.
9.26,6474.,21.,14.,3444.,0.,0.,9953.,0.882353158554,2.18487448785,273.
9.28,6472.,22.,7.,3451.,0.,0.,9952.,0.882169208438,2.08512721995,286.
9.3,6469.,21.,11.,3450.,0.,0.,9951.,0.881848902152,2.18362585295,273.
9.32,6474.,17.,12.,3452.,0.,0.,9955.,0.882175890215,2.69842037007,221.
9.34,6476.,12.,13.,3455.,0.,0.,9956.,0.882359784231,3.823559065,156.
9.36,6476.,18.,3.,3459.,0.,0.,9956.,0.882359784231,2.54903937667,234.
9.38,6477.,15.,6.,3458.,0.,0.,9956.,0.882496034969,3.05931958789,195.
9.4,6482.,13.,3.,3458.,0.,0.,9956.,0.883177288663,3.53270915465,169.
9.42,6479.,12.,8.,3453.,0.,0.,9952.,0.883123346952,3.82686783679,156.
9.44,6487.,9.,7.,3452.,0.,0.,9955.,0.883947327745,5.10725122697,117.
9.46,6489.,10.,3.,3452.,0.,0.,9954.,0.884308687203,4.59840517345,130.
9.48,6494.,10.,1.,3452.,0.,0.,9957.,0.884723434186,4.60056185777,130.
9.5,6501.,7.,2.,3445.,0.,0.,9955.,0.885855029701,6.5806373635,91.
9.52,6502.,3.,8.,3438.,0.,0.,9951.,0.886347435738,15.3633555528,39.
9.54,6503.,1.,0.,3445.,0.,0.,9949.,0.886661960538,46.106421948,13.
9.56,6510.,1.,0.,3433.,0.,0.,9944.,0.888062694275,46.1792601023,13.
9.58,6516.,2.,0.,3425.,0.,0.,9943.,0.888970582923,23.113235156,26.
9.6,6522.,2.,0.,3419.,0.,0.,9943.,0.889789156204,23.1345180613,26.
9.62,6536.,1.,1.,3407.,0.,0.,9945.,0.8915198344,46.3590313888,13.
9.64,6546.,3.,1.,3396.,0.,0.,9946.,0.892794075674,15.4750973117,39.
9.66,6552.,1.,1.,3390.,0.,0.,9944.,0.893792131013,46.4771908127,13.
9.68,6556.,0.,3.,3383.,0.,0.,9942.,0.894517702697,inf,0.
9.7,6561.,2.,2.,3378.,0.,0.,9943.,0.895109882529,23.2728569458,26.
9.72,6563.,1.,3.,3374.,0.,0.,9941.,0.89556287966,46.5692697423,13.
9.74,6580.,2.,1.,3365.,0.,0.,9948.,0.89725083401,23.3285216843,26.
9.76,6584.,2.,3.,3360.,0.,0.,9949.,0.897706035396,23.3403569203,26.
9.78,6590.,3.,2.,3353.,0.,0.,9948.,0.898614437101,15.5759835764,39.
9.8,6596.,3.,1.,3345.,0.,0.,9945.,0.899703921007,15.5948679641,39.
9.82,6597.,4.,1.,3345.,0.,0.,9947.,0.899659395473,11.6955721411,52.
9.84,6605.,1.,2.,3341.,0.,0.,9949.,0.900569314063,46.8296043313,13.
9.86,6606.,4.,0.,3337.,0.,0.,9947.,0.900886761633,11.7115279012,52.
9.88,6611.,5.,0.,3331.,0.,0.,9947.,0.901568631722,9.37631376991,65.
9.9,6611.,6.,1.,3327.,0.,0.,9945.,0.901749942659,7.81516616971,78.
9.92,6614.,8.,1.,3325.,0.,0.,9948.,0.90188708452,5.86226604938,104.
9.94,6618.,6.,5.,3320.,0.,0.,9949.,0.902341819904,7.8202957725,78.
9.96,6621.,9.,4.,3313.,0.,0.,9947.,0.9029323719,5.2169425932,117.
9.98,6627.,10.,3.,3307.,0.,0.,9947.,0.903750616007,4.69950320324,130.
10.,6630.,9.,4.,3303.,0.,0.,9946.,0.904250644932,5.22455928183,117.
