t,s,e,i,r,c,o,n,reff,coal,reportr
5.,4780.,7.,79.,5132.,0.,0.,9998.,0.798960767067,5.93513712679,91.
5.02,4751.,31.,31.,5185.,0.,0.,9998.,0.794113515552,1.33206138093,403.
5.04,4745.,35.,20.,5200.,0.,0.,10000.,0.792952013801,1.17810013479,455.
5.06,4744.,34.,25.,5196.,0.,0.,9999.,0.792864187045,1.21261581548,442.
5.08,4745.,33.,16.,5207.,0.,0.,10001.,0.792872726528,1.24937520544,429.
5.1,4742.,25.,22.,5214.,0.,0.,10003.,0.792213010374,1.64780306158,325.
5.12,4732.,29.,20.,5224.,0.,0.,10005.,0.790384350355,1.41724090408,377.
5.14,4721.,37.,14.,5234.,0.,0.,10006.,0.788468216679,1.10811749371,481.
5.16,4726.,38.,18.,5227.,0.,0.,10009.,0.789066703449,1.07977548893,494.
5.18,4715.,41.,19.,5235.,0.,0.,10010.,0.787151467093,0.99833844607,533.
5.2,4705.,46.,16.,5245.,0.,0.,10012.,0.785325096698,0.887758804963,598.
5.22,4694.,38.,23.,5256.,0.,0.,10011.,0.783567317843,1.07225001389,494.
5.24,4688.,33.,19.,5271.,0.,0.,10011.,0.78256574053,1.23313389417,429.
5.26,4668.,41.,14.,5287.,0.,0.,10010.,0.779304994357,0.988386822111,533.
5.28,4673.,33.,21.,5284.,0.,0.,10011.,0.780061797248,1.22918828657,429.
5.3,4663.,32.,9.,5307.,0.,0.,10011.,0.778392501726,1.2648878153,416.
5.32,4673.,25.,12.,5300.,0.,0.,10010.,0.780139725499,1.62269062904,325.
5.34,4678.,24.,7.,5299.,0.,0.,10008.,0.781130526677,1.69244947447,312.
5.36,4681.,22.,9.,5296.,0.,0.,10008.,0.781631465449,1.8474925547,286.
5.38,4684.,16.,14.,5296.,0.,0.,10010.,0.781976134012,2.54142243554,208.
5.4,4687.,16.,7.,5297.,0.,0.,10007.,0.782711551584,2.54381254265,208.
5.42,4697.,14.,3.,5296.,0.,0.,10010.,0.784146434982,2.91254390136,182.
5.44,4705.,11.,2.,5293.,0.,0.,10011.,0.785403542917,3.71281674833,143.
5.46,4707.,7.,7.,5288.,0.,0.,10009.,0.785894408196,5.8380727466,91.
5.48,4711.,9.,8.,5283.,0.,0.,10011.,0.78640512023,4.54367402799,117.
5.5,4722.,8.,5.,5274.,0.,0.,10009.,0.788398851817,5.12459253681,104.
5.52,4733.,4.,7.,5267.,0.,0.,10011.,0.790077570377,10.2710084149,52.
5.54,4739.,2.,1.,5269.,0.,0.,10011.,0.79107914769,20.5680578399,26.
5.56,4747.,2.,1.,5259.,0.,0.,10009.,0.792572924518,20.6068960375,26.
5.58,4757.,0.,3.,5249.,0.,0.,10009.,0.794242553598,inf,0.
5.6,4770.,2.,0.,5237.,0.,0.,10009.,0.796413071403,20.7067398565,26.
5.62,4783.,2.,1.,5225.,0.,0.,10011.,0.798424047985,20.7590252476,26.
5.64,4792.,4.,0.,5216.,0.,0.,10012.,0.799846517189,10.3980047235,52.
5.66,4797.,3.,3.,5209.,0.,0.,10012.,0.800681081585,13.8784720808,39.
5.68,4809.,1.,0.,5202.,0.,0.,10012.,0.802684036136,41.7395698791,13.
5.7,4813.,1.,1.,5193.,0.,0.,10008.,0.803672771461,41.790984116,13.
5.72,4827.,0.,0.,5179.,0.,0.,10006.,0.806171591169,inf,0.
5.74,4849.,1.,0.,5156.,0.,0.,10006.,0.80984587644,42.1119855749,13.
5.76,4858.,1.,1.,5146.,0.,0.,10006.,0.811348993142,42.1901476434,13.
5.78,4866.,2.,0.,5139.,0.,0.,10007.,0.812603885216,21.1277010156,26.
5.8,4882.,3.,0.,5123.,0.,0.,10008.,0.81519436324,14.1300356295,39.
5.82,4888.,3.,3.,5116.,0.,0.,10010.,0.816033164614,14.1445748533,39.
5.84,4899.,4.,5.,5103.,0.,0.,10011.,0.817787876036,10.6312423885,52.
5.86,4908.,5.,4.,5093.,0.,0.,10010.,0.819372089182,8.5214697275,65.
5.88,4921.,3.,7.,5079.,0.,0.,10010.,0.821542390152,14.240068096,39.
5.9,4922.,9.,8.,5068.,0.,0.,10007.,0.821955676743,4.7490772434,117.
5.92,4921.,11.,9.,5066.,0.,0.,10007.,0.821788680466,3.88481921675,143.
5.94,4926.,16.,5.,5056.,0.,0.,10003.,0.822952612632,2.67459599105,208.
5.96,4922.,17.,6.,5058.,0.,0.,10003.,0.822284360409,2.51522274949,221.
5.98,4918.,19.,7.,5053.,0.,0.,9997.,0.822109225786,2.24998314426,247.
6.,4921.,14.,11.,5048.,0.,0.,9994.,0.822857647131,3.05632840363,182.
6.02,4916.,21.,7.,5051.,0.,0.,9995.,0.821939336337,2.03527835664,273.
6.04,4908.,21.,19.,5045.,0.,0.,9993.,0.82076599747,2.03237294612,273.
6.06,4899.,31.,12.,5051.,0.,0.,9993.,0.819260925347,1.37424413284,403.
6.08,4897.,32.,11.,5053.,0.,0.,9993.,0.818926464876,1.33075550542,416.
6.1,4888.,31.,16.,5055.,0.,0.,9990.,0.817666864643,1.37157022456,403.
6.12,4881.,33.,18.,5056.,0.,0.,9988.,0.816659396832,1.28685723137,429.
6.14,4868.,35.,30.,5056.,0.,0.,9989.,0.81440277734,1.20996984062,455.
6.16,4856.,35.,18.,5079.,0.,0.,9988.,0.812476548046,1.20710801424,455.
6.18,4854.,31.,30.,5075.,0.,0.,9990.,0.811979329169,1.36202984248,403.
6.2,4843.,37.,19.,5093.,0.,0.,9992.,0.809977086587,1.13834617574,481.
6.22,4842.,33.,21.,5094.,0.,0.,9990.,0.809971963707,1.27631945796,429.
6.24,4834.,33.,16.,5106.,0.,0.,9989.,0.808714672486,1.2743382718,429.
6.26,4830.,29.,11.,5117.,0.,0.,9987.,0.808207303141,1.44919930218,377.
6.28,4829.,30.,10.,5117.,0.,0.,9986.,0.808120889718,1.40074287551,390.
6.3,4839.,22.,9.,5115.,0.,0.,9985.,0.809875465418,1.91425110008,286.
6.32,4843.,23.,8.,5116.,0.,0.,9990.,0.810139244162,1.83161916071,299.
6.34,4847.,20.,11.,5116.,0.,0.,9994.,0.810483847926,2.10725800461,260.
6.36,4845.,23.,9.,5117.,0.,0.,9994.,0.81014942092,1.83164216904,299.
6.38,4850.,20.,8.,5120.,0.,0.,9998.,0.810661029347,2.1077186763,260.
6.4,4852.,16.,9.,5120.,0.,0.,9997.,0.811076446424,2.63599845088,208.
6.42,4859.,14.,0.,5124.,0.,0.,9997.,0.81224658969,3.01691590456,182.
6.44,4865.,10.,8.,5109.,0.,0.,9992.,0.813656519977,4.23101390388,130.
6.46,4872.,9.,2.,5112.,0.,0.,9995.,0.814582678323,4.70647769698,117.
6.48,4888.,6.,2.,5099.,0.,0.,9995.,0.817257826692,7.08290116466,78.
6.5,4901.,4.,5.,5091.,0.,0.,10001.,0.818939775071,10.6462170759,52.
6.52,4908.,3.,3.,5087.,0.,0.,10001.,0.820109450327,14.2152304723,39.
6.54,4916.,1.,3.,5079.,0.,0.,9999.,0.821610527722,42.7237474415,13.
6.56,4931.,3.,1.,5063.,0.,0.,9998.,0.82419990427,14.286131674,39.
6.58,4941.,1.,2.,5058.,0.,0.,10002.,0.825541087818,42.9281365665,13.
6.6,4953.,1.,0.,5049.,0.,0.,10003.,0.827463315137,43.0280923871,13.
6.62,4966.,2.,0.,5034.,0.,0.,10002.,0.829718081786,21.5726701264,26.
6.64,4978.,2.,0.,5025.,0.,0.,10005.,0.831473646675,21.6183148135,26.
6.66,4997.,1.,1.,5011.,0.,0.,10010.,0.834230303513,43.3799757827,13.
6.68,5011.,1.,0.,4996.,0.,0.,10008.,0.836734730478,43.5102059849,13.
6.7,5017.,1.,2.,4989.,0.,0.,10009.,0.837652909692,43.557951304,13.
6.72,5030.,2.,1.,4973.,0.,0.,10006.,0.840075223447,21.8419558096,26.
6.74,5049.,1.,2.,4956.,0.,0.,10008.,0.843079954936,43.8401576567,13.
6.76,5055.,0.,2.,4951.,0.,0.,10008.,0.844081832482,inf,0.
6.78,5068.,1.,3.,4938.,0.,0.,10010.,0.846083485733,43.9963412581,13.
6.8,5076.,1.,0.,4932.,0.,0.,10009.,0.847503721267,44.0701935059,13.
6.82,5089.,2.,1.,4918.,0.,0.,10010.,0.84958935653,22.0893232698,26.
6.84,5096.,5.,1.,4904.,0.,0.,10006.,0.851098079262,8.85142002432,65.
6.86,5107.,6.,0.,4895.,0.,0.,10008.,0.852764771214,7.39062801718,78.
6.88,5116.,6.,1.,4887.,0.,0.,10010.,0.854096904698,7.40217317405,78.
6.9,5125.,5.,3.,4874.,0.,0.,10007.,0.85585592103,8.90090157871,65.
6.92,5132.,4.,5.,4866.,0.,0.,10007.,0.857024894971,11.1413236346,52.
6.94,5133.,8.,5.,4863.,0.,0.,10009.,0.857020607026,5.57063394567,104.
6.96,5137.,10.,6.,4858.,0.,0.,10011.,0.85751710945,4.45908896914,130.
6.98,5144.,14.,7.,4849.,0.,0.,10014.,0.858428370774,3.1884482343,182.
7.,5154.,13.,6.,4842.,0.,0.,10015.,0.860011285312,3.44004514125,169.
7.02,5164.,16.,3.,4833.,0.,0.,10016.,0.861593883773,2.80018012226,208.
7.04,5166.,12.,8.,4830.,0.,0.,10016.,0.861927576214,3.73501949693,156.
7.06,5173.,23.,5.,4814.,0.,0.,10015.,0.863181680039,1.95154118965,299.
7.08,5179.,17.,13.,4803.,0.,0.,10012.,0.864441801445,2.64417492207,221.
7.1,5163.,31.,11.,4806.,0.,0.,10011.,0.861857277806,1.4456960789,403.
7.12,5155.,35.,13.,4809.,0.,0.,10012.,0.860435892344,1.2783618972,455.
7.14,5152.,33.,18.,4809.,0.,0.,10012.,0.859935153706,1.35504933311,429.
7.16,5143.,25.,20.,4822.,0.,0.,10010.,0.858604452866,1.78589726196,325.
7.18,5139.,31.,17.,4824.,0.,0.,10011.,0.857850968554,1.43897581822,403.
7.2,5129.,26.,17.,4838.,0.,0.,10010.,0.856267205668,1.71253441134,338.
7.22,5130.,26.,12.,4838.,0.,0.,10006.,0.856776520136,1.71355304027,338.
7.24,5137.,32.,11.,4834.,0.,0.,10014.,0.857260213971,1.3930478477,416.
7.26,5146.,24.,17.,4826.,0.,0.,10013.,0.85884789458,1.86083710492,312.
7.28,5146.,15.,17.,4831.,0.,0.,10009.,0.85919112483,2.97852923274,195.
7.3,5138.,20.,13.,4837.,0.,0.,10008.,0.857941138534,2.23064696019,260.
7.32,5137.,20.,8.,4843.,0.,0.,10008.,0.857774158943,2.23021281325,260.
7.34,5146.,16.,6.,4843.,0.,0.,10011.,0.85901947542,2.79181329511,208.
7.36,5145.,17.,5.,4846.,0.,0.,10013.,0.85868099837,2.62655364207,221.
7.38,5145.,14.,6.,4849.,0.,0.,10014.,0.858595250317,3.18906807261,182.
7.4,5147.,8.,7.,4853.,0.,0.,10015.,0.85884324515,5.58248109347,104.
7.42,5148.,11.,0.,4853.,0.,0.,10012.,0.859267502189,4.06199182853,143.
7.44,5156.,11.,3.,4845.,0.,0.,10015.,0.860345011073,4.06708550689,143.
7.46,5160.,8.,5.,4844.,0.,0.,10017.,0.860840552349,5.59546359027,104.
7.48,5166.,9.,0.,4844.,0.,0.,10019.,0.861669488308,4.97853482134,117.
7.5,5171.,6.,0.,4844.,0.,0.,10021.,0.862331330415,7.47353819693,78.
7.52,5182.,4.,0.,4834.,0.,0.,10020.,0.864251967196,11.2352755736,52.
7.54,5191.,4.,0.,4825.,0.,0.,10020.,0.865752983735,11.2547887886,52.
7.56,5203.,3.,2.,4813.,0.,0.,10021.,0.867667745533,15.0395742559,39.
7.58,5206.,2.,0.,4813.,0.,0.,10021.,0.86816803445,22.5723688957,26.
7.6,5216.,2.,0.,4804.,0.,0.,10022.,0.869748871552,22.6134706604,26.
7.62,5225.,1.,1.,4794.,0.,0.,10021.,0.871336530926,45.3094996082,13.
7.64,5238.,1.,0.,4782.,0.,0.,10021.,0.873504449568,45.4222313775,13.
7.66,5253.,0.,0.,4766.,0.,0.,10019.,0.876180763082,inf,0.
7.68,5264.,0.,0.,4754.,0.,0.,10018.,0.878103165755,inf,0.
7.7,5279.,0.,0.,4738.,0.,0.,10017.,0.880693270514,inf,0.
7.72,5288.,1.,1.,4727.,0.,0.,10017.,0.882194736593,45.8741263028,13.
7.74,5295.,3.,0.,4721.,0.,0.,10019.,0.883186206077,15.3085609053,39.
7.76,5307.,2.,2.,4712.,0.,0.,10023.,0.884834498617,23.0056969641,26.
7.78,5313.,3.,2.,4703.,0.,0.,10021.,0.8860116725,15.3575356567,39.
7.8,5326.,4.,1.,4691.,0.,0.,10022.,0.888090968153,11.545182586,52.
7.82,5338.,4.,2.,4679.,0.,0.,10023.,0.890003119205,11.5700405497,52.
7.84,5342.,3.,6.,4672.,0.,0.,10023.,0.89067003799,15.4382806585,39.
7.86,5348.,11.,2.,4665.,0.,0.,10026.,0.891403608743,4.2139079686,143.
7.88,5350.,13.,2.,4662.,0.,0.,10027.,0.891648034781,3.56659213912,169.
7.9,5358.,11.,4.,4654.,0.,0.,10027.,0.892981340254,4.22136633574,143.
7.92,5366.,8.,5.,4647.,0.,0.,10026.,0.894403845272,5.81362499427,104.
7.94,5364.,13.,7.,4641.,0.,0.,10025.,0.894159669746,3.57663867898,169.
7.96,5364.,16.,12.,4632.,0.,0.,10024.,0.894248871628,2.90630883279,208.
7.98,5362.,21.,9.,4630.,0.,0.,10022.,0.894093836131,2.21394664185,273.
8.,5365.,22.,8.,4630.,0.,0.,10025.,0.894326366179,2.11386232006,286.
8.02,5369.,29.,7.,4624.,0.,0.,10029.,0.894636189843,1.60417523696,377.
8.04,5366.,29.,8.,4627.,0.,0.,10030.,0.894047153808,1.60311903441,377.
8.06,5357.,33.,13.,4626.,0.,0.,10029.,0.892636630469,1.40657893286,429.
8.08,5352.,26.,22.,4630.,0.,0.,10030.,0.891714567123,1.78342913425,338.
8.1,5350.,29.,21.,4632.,0.,0.,10032.,0.89120363285,1.59802030718,377.
8.12,5347.,31.,14.,4641.,0.,0.,10033.,0.890615115071,1.49393503173,403.
8.14,5344.,29.,10.,4652.,0.,0.,10035.,0.889938022349,1.59575093663,377.
8.16,5348.,25.,16.,4649.,0.,0.,10038.,0.890337973825,1.85190298556,325.
8.18,5336.,26.,19.,4652.,0.,0.,10033.,0.888782916405,1.77756583281,338.
8.2,5330.,35.,10.,4656.,0.,0.,10031.,0.887960543297,1.31925566433,455.
8.22,5321.,36.,16.,4658.,0.,0.,10031.,0.886461172774,1.28044391623,468.
8.24,5328.,34.,18.,4656.,0.,0.,10036.,0.887185128171,1.3568713725,442.
8.26,5325.,28.,13.,4669.,0.,0.,10035.,0.886773946296,1.64686590026,364.
8.28,5321.,30.,6.,4681.,0.,0.,10038.,0.885842999013,1.53546119829,390.
8.3,5328.,24.,11.,4675.,0.,0.,10038.,0.887008362853,1.92185145285,312.
8.32,5339.,20.,7.,4675.,0.,0.,10041.,0.888574085802,2.31029262308,260.
8.34,5332.,23.,9.,4676.,0.,0.,10040.,0.887497457501,2.00651599087,299.
8.36,5340.,22.,6.,4671.,0.,0.,10039.,0.888917574189,2.10107790263,286.
8.38,5346.,15.,10.,4672.,0.,0.,10043.,0.889561915539,3.08381464054,195.
8.4,5357.,12.,8.,4669.,0.,0.,10046.,0.891126096653,3.86154641883,156.
8.42,5359.,12.,2.,4672.,0.,0.,10045.,0.891547539121,3.86337266952,156.
8.44,5372.,10.,1.,4662.,0.,0.,10045.,0.893710278066,4.64729344594,130.
8.46,5383.,9.,3.,4650.,0.,0.,10045.,0.895540287943,5.17423277478,117.
8.48,5397.,6.,3.,4637.,0.,0.,10043.,0.89804819644,7.78308436914,78.
8.5,5405.,5.,4.,4630.,0.,0.,10044.,0.899289833813,9.35261427165,65.
8.52,5408.,8.,2.,4627.,0.,0.,10045.,0.8996994013,5.84804610845,104.
8.54,5419.,0.,9.,4619.,0.,0.,10047.,0.901349948768,inf,0.
8.56,5428.,3.,1.,4612.,0.,0.,10044.,0.903116599063,15.6540210504,39.
8.58,5435.,0.,1.,4608.,0.,0.,10044.,0.904281266748,inf,0.
8.6,5437.,0.,0.,4604.,0.,0.,10041.,0.90488430502,inf,0.
8.62,5455.,0.,0.,4589.,0.,0.,10044.,0.907608888705,inf,0.
8.64,5466.,2.,0.,4575.,0.,0.,10043.,0.909529635305,23.6477705179,26.
8.66,5471.,4.,0.,4568.,0.,0.,10043.,0.910361623628,11.8347011072,52.
8.68,5478.,3.,1.,4560.,0.,0.,10042.,0.911617178682,15.8013644305,39.
8.7,5489.,2.,0.,4553.,0.,0.,10044.,0.913265846031,23.7449119968,26.
8.72,5501.,2.,0.,4540.,0.,0.,10043.,0.915353553569,23.7991923928,26.
8.74,5512.,2.,0.,4530.,0.,0.,10044.,0.917092611281,23.8444078933,26.
8.76,5518.,0.,0.,4525.,0.,0.,10043.,0.918182313869,inf,0.
8.78,5525.,1.,0.,4518.,0.,0.,10044.,0.919255565553,47.8012894088,13.
8.8,5537.,1.,0.,4508.,0.,0.,10046.,0.921068731971,47.8955740625,13.
8.82,5543.,2.,1.,4500.,0.,0.,10046.,0.922066819815,23.9737373152,26.
8.84,5547.,0.,2.,4500.,0.,0.,10049.,0.922456741849,inf,0.
8.86,5555.,3.,2.,4489.,0.,0.,10049.,0.923787128353,16.0123102248,39.
8.88,5566.,7.,0.,4479.,0.,0.,10052.,0.925340161364,6.87395548442,91.
8.9,5586.,2.,5.,4464.,0.,0.,10057.,0.928203434122,24.1332892872,26.
8.92,5593.,6.,4.,4456.,0.,0.,10059.,0.929181813221,8.05290904792,78.
8.94,5592.,9.,5.,4454.,0.,0.,10060.,0.928923332748,5.36711258921,117.
8.96,5589.,15.,4.,4451.,0.,0.,10059.,0.928517281261,3.21885990837,195.
8.98,5594.,12.,7.,4448.,0.,0.,10061.,0.929163203552,4.02637388206,156.
9.,5598.,16.,7.,4439.,0.,0.,10060.,0.929920031603,3.02224010271,208.
9.02,5601.,16.,9.,4435.,0.,0.,10061.,0.930325903306,3.02355918575,208.
9.04,5597.,20.,8.,4436.,0.,0.,10061.,0.929661503447,2.41711990896,260.
9.06,5592.,22.,11.,4436.,0.,0.,10061.,0.928831003622,2.19541873583,286.
9.08,5598.,21.,10.,4432.,0.,0.,10061.,0.929827603412,2.30243025607,273.
9.1,5585.,24.,19.,4430.,0.,0.,10058.,0.927944999525,2.01054749897,312.
9.12,5570.,37.,9.,4440.,0.,0.,10056.,0.925636816728,1.30089498567,481.
9.14,5573.,31.,19.,4434.,0.,0.,10057.,0.926043275754,1.55336291417,403.
9.16,5559.,37.,18.,4442.,0.,0.,10056.,0.923808808652,1.29832589324,481.
9.18,5551.,36.,12.,4459.,0.,0.,10058.,0.922295916269,1.33220521239,468.
9.2,5548.,30.,19.,4459.,0.,0.,10056.,0.921980800576,1.59810005433,390.
9.22,5541.,31.,18.,4464.,0.,0.,10054.,0.921000697072,1.54490439509,403.
9.24,5530.,32.,16.,4477.,0.,0.,10055.,0.919080910905,1.49350648022,416.
9.26,5529.,28.,11.,4490.,0.,0.,10058.,0.918640627103,1.70604687891,364.
9.28,5515.,35.,6.,4496.,0.,0.,10052.,0.916861478606,1.36219419679,455.
9.3,5524.,18.,14.,4494.,0.,0.,10050.,0.918540474495,2.65356137076,234.
9.32,5519.,20.,10.,4502.,0.,0.,10051.,0.917617760416,2.38580617708,260.
9.34,5511.,24.,9.,4508.,0.,0.,10052.,0.91619648388,1.98509238174,312.
9.36,5519.,18.,11.,4510.,0.,0.,10058.,0.916979132028,2.64905082586,234.
9.38,5525.,17.,9.,4510.,0.,0.,10061.,0.917702305975,2.80708940651,221.
9.4,5535.,20.,5.,4503.,0.,0.,10063.,0.919180584109,2.38986951868,260.
9.42,5534.,21.,1.,4507.,0.,0.,10063.,0.919014517156,2.27565499486,273.
9.44,5542.,14.,5.,4498.,0.,0.,10059.,0.92070903073,3.41977639985,182.
9.46,5548.,9.,8.,4494.,0.,0.,10059.,0.92170582867,5.32541145454,117.
9.48,5558.,7.,3.,4491.,0.,0.,10059.,0.92336715857,6.85929889224,91.
9.5,5563.,5.,4.,4484.,0.,0.,10056.,0.924473538862,9.61452480416,65.
9.52,5568.,6.,2.,4480.,0.,0.,10056.,0.925304451623,8.0193052474,78.
9.54,5575.,7.,2.,4472.,0.,0.,10056.,0.92646772949,6.88233170478,91.
9.56,5582.,5.,0.,4467.,0.,0.,10054.,0.927815537098,9.64928158581,65.
9.58,5589.,1.,4.,4460.,0.,0.,10054.,0.92897904637,48.3069104112,13.
9.6,5595.,0.,1.,4456.,0.,0.,10052.,0.930161373128,inf,0.
9.62,5606.,1.,0.,4447.,0.,0.,10054.,0.931804711747,48.4538450108,13.
9.64,5617.,0.,1.,4438.,0.,0.,10056.,0.93344739669,inf,0.
9.66,5620.,1.,1.,4433.,0.,0.,10055.,0.934038828081,48.5700190602,13.
9.68,5630.,0.,1.,4429.,0.,0.,10060.,0.935235758829,inf,0.
9.7,5643.,0.,0.,4415.,0.,0.,10058.,0.937581670961,inf,0.
9.72,5649.,0.,0.,4406.,0.,0.,10055.,0.938858601393,inf,0.
9.74,5662.,0.,0.,4394.,0.,0.,10056.,0.940925611547,inf,0.
9.76,5672.,0.,0.,4385.,0.,0.,10057.,0.942493712556,inf,0.
9.78,5682.,0.,0.,4377.,0.,0.,10059.,0.943967649334,inf,0.
9.8,5693.,0.,1.,4363.,0.,0.,10057.,0.945983199151,inf,0.
9.82,5691.,0.,1.,4360.,0.,0.,10052.,0.946121246555,inf,0.
9.84,5697.,2.,3.,4350.,0.,0.,10052.,0.947118738644,24.6250872047,26.
9.86,5704.,3.,1.,4343.,0.,0.,10051.,0.948376826492,16.4385316592,39.
9.88,5714.,5.,2.,4330.,0.,0.,10051.,0.950039478713,9.88041057861,65.
9.9,5725.,5.,2.,4320.,0.,0.,10052.,0.951773701726,9.89844649796,65.
9.92,5727.,9.,3.,4310.,0.,0.,10049.,0.952390438178,5.50270030947,117.
9.94,5728.,13.,3.,4304.,0.,0.,10048.,0.952651537121,3.81060614849,169.
9.96,5734.,14.,4.,4295.,0.,0.,10047.,0.953744345125,3.54247899618,182.
9.98,5744.,13.,2.,4289.,0.,0.,10048.,0.955312574934,3.82125029974,169.
10.,5749.,8.,10.,4283.,0.,0.,10050.,0.955953871808,6.21370016675,104.
