t,prevalence
5.,5
5.02,8
5.04,6
5.06,9
5.08,3
5.1,5
5.12,8
5.14,5
5.16,4
5.18,4
5.2,5
5.22,8
5.24,5
5.26,6
5.28,5
5.3,3
5.32,7
5.34,6
5.36,7
5.38,8
5.4,5
5.42,6
5.44,1
5.46,2
5.48,2
5.5,3
5.52,0
5.54,2
5.56,3
5.58,1
5.6,1
5.62,0
5.64,0
5.66,0
5.68,0
5.7,1
5.72,0
5.74,0
5.76,1
5.78,1
5.8,3
5.82,1
5.84,2
5.86,3
5.88,0
5.9,2
5.92,3
5.94,2
5.96,1
5.98,5
6.,2
6.02,5
6.04,3
6.06,5
6.08,6
6.1,2
6.12,3
6.14,6
6.16,7
6.18,5
6.2,6
6.22,7
6.24,4
6.26,3
6.28,2
6.3,2
6.32,3
6.34,5
6.36,3
6.38,4
6.4,3
6.42,4
6.44,3
6.46,5
6.48,0
6.5,3
6.52,4
6.54,4
6.56,0
6.58,0
6.6,0
6.62,0
6.64,0
6.66,1
6.68,2
6.7,0
6.72,2
6.74,0
6.76,0
6.78,0
6.8,0
6.82,1
6.84,1
6.86,4
6.88,4
6.9,1
6.92,4
6.94,7
6.96,4
6.98,2
7.,3
7.02,2
7.04,7
7.06,4
7.08,8
7.1,10
7.12,5
7.14,9
7.16,9
7.18,8
7.2,11
7.22,3
7.24,9
7.26,9
7.28,6
7.3,14
7.32,8
7.34,1
7.36,7
7.38,7
7.4,3
7.42,5
7.44,3
7.46,3
7.48,1
7.5,1
7.52,0
7.54,2
7.56,0
7.58,0
7.6,0
7.62,0
7.64,0
7.66,0
7.68,0
7.7,0
7.72,0
7.74,0
7.76,0
7.78,0
7.8,0
7.82,1
7.84,0
7.86,0
7.88,1
7.9,0
7.92,2
7.94,1
7.96,2
7.98,4
8.,3
8.02,3
8.04,6
8.06,7
8.08,7
8.1,8
8.12,5
8.14,8
8.16,8
8.18,5
8.2,7
8.22,5
8.24,0
8.26,10
8.28,10
8.3,8
8.32,4
8.34,5
8.36,6
8.38,6
8.4,2
8.42,5
8.44,5
8.46,7
8.48,0
8.5,0
8.52,1
8.54,2
8.56,0
8.58,1
8.6,0
8.62,0
8.64,1
8.66,0
8.68,0
8.7,0
8.72,0
8.74,0
8.76,1
8.78,2
8.8,0
8.82,0
8.84,1
8.86,0
8.88,2
8.9,2
8.92,3
8.94,5
8.96,3
8.98,8
9.,7
9.02,5
9.04,4
9.06,3
9.08,10
9.1,6
9.12,3
9.14,18
9.16,8
9.18,10
9.2,6
9.22,7
9.24,11
9.26,5
9.28,7
9.3,7
9.32,5
9.34,8
9.36,5
9.38,2
9.4,1
9.42,1
9.44,2
9.46,1
9.48,0
9.5,0
9.52,0
9.54,1
9.56,1
9.58,1
9.6,1
9.62,0
9.64,0
9.66,0
9.68,0
9.7,0
9.72,0
9.74,0
9.76,0
9.78,0
9.8,0
9.82,0
9.84,1
9.86,1
9.88,6
9.9,1
9.92,4
9.94,3
9.96,2
9.98,5
10.,5
