t,s,e,i,r,c,o,n,reff,coal,reportr
5.,9244.,29.,9.,717.,0.,0.,9999.,0.876973542636,1.57250428335,377.
5.02,9237.,22.,14.,727.,0.,0.,10000.,0.876221825277,2.07106976884,286.
5.04,9222.,24.,14.,740.,0.,0.,10000.,0.874798925269,1.89539767142,312.
5.06,9202.,32.,14.,753.,0.,0.,10001.,0.872814443813,1.4183234712,416.
5.08,9196.,27.,14.,764.,0.,0.,10001.,0.87224534072,1.67987991546,351.
5.1,9183.,28.,19.,770.,0.,0.,10000.,0.871099385247,1.61775600117,364.
5.12,9171.,32.,16.,781.,0.,0.,10000.,0.86996106524,1.41368673101,416.
5.14,9159.,35.,14.,794.,0.,0.,10002.,0.86864901543,1.2905642515,455.
5.16,9142.,36.,17.,808.,0.,0.,10003.,0.866950040211,1.25226116919,468.
5.18,9125.,35.,12.,829.,0.,0.,10001.,0.865510954118,1.28590198898,455.
5.2,9114.,28.,17.,839.,0.,0.,9998.,0.864726990605,1.60592155398,364.
5.22,9095.,33.,19.,852.,0.,0.,9999.,0.862837988995,1.35962349781,429.
5.24,9076.,35.,20.,866.,0.,0.,9997.,0.861207727504,1.27950862372,455.
5.26,9059.,35.,26.,877.,0.,0.,9997.,0.859594623563,1.27711201215,455.
5.28,9033.,41.,19.,902.,0.,0.,9995.,0.857299034678,1.08730609276,533.
5.3,9015.,39.,12.,927.,0.,0.,9993.,0.855761938508,1.14101591801,507.
5.32,9005.,31.,15.,941.,0.,0.,9992.,0.854898223724,1.43402282689,403.
5.34,8990.,33.,7.,961.,0.,0.,9991.,0.853559608784,1.3450030199,429.
5.36,8979.,30.,2.,979.,0.,0.,9990.,0.852600545676,1.47784094584,390.
5.38,8976.,25.,7.,984.,0.,0.,9992.,0.852145081193,1.77246176888,325.
5.4,8966.,20.,8.,995.,0.,0.,9989.,0.85145136162,2.21377354021,260.
5.42,8955.,18.,6.,1008.,0.,0.,9987.,0.850577055288,2.45722260417,234.
5.44,8956.,12.,7.,1015.,0.,0.,9990.,0.850416581699,3.68513852069,156.
5.46,8956.,8.,8.,1015.,0.,0.,9987.,0.850672038767,5.52936825199,104.
5.48,8952.,10.,6.,1019.,0.,0.,9987.,0.850292104851,4.42151894522,130.
5.5,8953.,6.,8.,1020.,0.,0.,9987.,0.85038708833,7.37002143219,78.
5.52,8954.,6.,2.,1025.,0.,0.,9987.,0.850482071809,7.37084462235,78.
5.54,8955.,3.,2.,1026.,0.,0.,9986.,0.850662232241,14.7448120255,39.
5.56,8953.,3.,1.,1025.,0.,0.,9982.,0.850813048603,14.7474261758,39.
5.58,8950.,3.,0.,1027.,0.,0.,9980.,0.850698401917,14.7454389666,39.
5.6,8956.,1.,2.,1026.,0.,0.,9985.,0.85084242876,44.2438062955,13.
5.62,8955.,3.,0.,1025.,0.,0.,9983.,0.850917865488,14.7492430018,39.
5.64,8954.,2.,2.,1024.,0.,0.,9982.,0.850908079659,22.1236100711,26.
5.66,8951.,4.,3.,1024.,0.,0.,9982.,0.85062298649,11.0580988244,52.
5.68,8949.,2.,2.,1026.,0.,0.,9979.,0.850688591154,22.11790337,26.
5.7,8950.,1.,1.,1028.,0.,0.,9980.,0.850698401917,44.2363168997,13.
5.72,8952.,1.,1.,1026.,0.,0.,9980.,0.850888502119,44.2462021102,13.
5.74,8951.,0.,1.,1029.,0.,0.,9981.,0.850708210714,inf,0.
5.76,8950.,0.,1.,1029.,0.,0.,9980.,0.850698401917,inf,0.
5.78,8946.,4.,0.,1030.,0.,0.,9980.,0.850318201514,11.0541366197,52.
5.8,8943.,7.,0.,1030.,0.,0.,9980.,0.850033051212,6.31453123757,91.
5.82,8941.,4.,3.,1032.,0.,0.,9980.,0.84984295101,11.0479583631,52.
5.84,8934.,10.,3.,1029.,0.,0.,9976.,0.849518088517,4.41749406029,130.
5.86,8944.,8.,3.,1027.,0.,0.,9982.,0.849957769094,5.52472549911,104.
5.88,8945.,5.,4.,1028.,0.,0.,9982.,0.850052800151,8.84054912157,65.
5.9,8935.,11.,5.,1028.,0.,0.,9979.,0.849357756393,4.0151457575,143.
5.92,8934.,10.,7.,1030.,0.,0.,9981.,0.849092520894,4.41528110865,130.
5.94,8922.,15.,4.,1037.,0.,0.,9978.,0.848206980454,2.94045086558,195.
5.96,8912.,15.,8.,1039.,0.,0.,9974.,0.847596074886,2.93833305961,195.
5.98,8903.,18.,9.,1043.,0.,0.,9973.,0.846825012621,2.44638336979,234.
6.,8898.,13.,6.,1055.,0.,0.,9972.,0.846434301127,3.38573720451,169.
6.02,8891.,10.,12.,1058.,0.,0.,9971.,0.845853239474,4.39843684527,130.
6.04,8885.,18.,6.,1063.,0.,0.,9972.,0.84519765852,2.44168212461,234.
6.06,8872.,25.,13.,1062.,0.,0.,9972.,0.843961015913,1.7554389131,325.
6.08,8861.,30.,11.,1070.,0.,0.,9972.,0.842914626015,1.46105201843,390.
6.1,8853.,27.,11.,1084.,0.,0.,9975.,0.841900335898,1.62143768395,351.
6.12,8837.,31.,12.,1096.,0.,0.,9976.,0.840294531926,1.40952631162,403.
6.14,8821.,27.,20.,1110.,0.,0.,9978.,0.838604996031,1.61509110347,351.
6.16,8806.,28.,16.,1132.,0.,0.,9982.,0.836843483301,1.55413789756,364.
6.18,8796.,28.,17.,1140.,0.,0.,9981.,0.835976921176,1.5525285679,364.
6.2,8774.,36.,19.,1153.,0.,0.,9982.,0.833802489494,1.20438137371,468.
6.22,8762.,33.,15.,1171.,0.,0.,9981.,0.832745541535,1.31220509575,429.
6.24,8757.,22.,18.,1182.,0.,0.,9979.,0.832437143003,1.96757870164,286.
6.26,8746.,20.,21.,1191.,0.,0.,9978.,0.831474809578,2.1618345049,260.
6.28,8733.,24.,15.,1205.,0.,0.,9977.,0.830322125879,1.79903127274,312.
6.3,8730.,20.,12.,1217.,0.,0.,9979.,0.829870533107,2.15766338608,260.
6.32,8722.,21.,12.,1224.,0.,0.,9979.,0.829110056101,2.05303442463,273.
6.34,8715.,24.,8.,1233.,0.,0.,9980.,0.828361628236,1.79478352784,312.
6.36,8709.,20.,10.,1243.,0.,0.,9982.,0.827625470823,2.15182622414,260.
6.38,8708.,15.,11.,1250.,0.,0.,9984.,0.827364668445,2.86819751727,195.
6.4,8704.,11.,12.,1255.,0.,0.,9982.,0.827150315541,3.91016512801,143.
6.42,8707.,10.,8.,1259.,0.,0.,9984.,0.827269656425,4.30180221341,130.
6.44,8698.,14.,4.,1264.,0.,0.,9980.,0.826745776523,3.07077002708,182.
6.46,8702.,8.,6.,1266.,0.,0.,9982.,0.826960253428,5.37524164728,104.
6.48,8703.,3.,7.,1268.,0.,0.,9981.,0.827138147452,14.3370612225,39.
6.5,8702.,6.,1.,1270.,0.,0.,9979.,0.827208863585,7.16914348441,78.
6.52,8698.,4.,1.,1273.,0.,0.,9976.,0.827077270418,10.7520045154,52.
6.54,8706.,1.,3.,1270.,0.,0.,9980.,0.827506177329,43.0303212211,13.
6.56,8705.,2.,0.,1275.,0.,0.,9982.,0.827245346597,21.5083790115,26.
6.58,8701.,3.,1.,1274.,0.,0.,9979.,0.82711380396,14.3366392686,39.
6.6,8700.,2.,2.,1274.,0.,0.,9978.,0.827101628553,21.5046423424,26.
6.62,8703.,0.,3.,1276.,0.,0.,9982.,0.827055284484,inf,0.
6.64,8705.,0.,0.,1278.,0.,0.,9983.,0.827162481192,inf,0.
6.66,8709.,0.,0.,1277.,0.,0.,9986.,0.827293956515,inf,0.
6.68,8707.,0.,0.,1276.,0.,0.,9983.,0.827352524266,inf,0.
6.7,8712.,0.,0.,1274.,0.,0.,9986.,0.827578935487,inf,0.
6.72,8716.,1.,0.,1270.,0.,0.,9987.,0.827876003785,43.0495521968,13.
6.74,8715.,3.,0.,1267.,0.,0.,9985.,0.827946825217,14.3510783038,39.
6.76,8724.,2.,2.,1260.,0.,0.,9988.,0.828552908475,21.5423756203,26.
6.78,8725.,0.,4.,1259.,0.,0.,9988.,0.828647882444,inf,0.
6.8,8728.,1.,1.,1261.,0.,0.,9991.,0.828683900497,43.0915628258,13.
6.82,8731.,3.,0.,1260.,0.,0.,9994.,0.828719896926,14.3644782134,39.
6.84,8729.,3.,1.,1256.,0.,0.,9989.,0.82894478425,14.3683762603,39.
6.86,8731.,3.,3.,1253.,0.,0.,9990.,0.829051716705,14.3702297562,39.
6.88,8723.,7.,2.,1253.,0.,0.,9985.,0.828706845252,6.1561079933,91.
6.9,8722.,5.,5.,1253.,0.,0.,9985.,0.828611842747,8.61756316457,65.
6.92,8721.,9.,2.,1256.,0.,0.,9988.,0.828267986566,4.78554836683,117.
6.94,8715.,8.,10.,1252.,0.,0.,9985.,0.827946825217,5.38165436391,104.
6.96,8708.,10.,7.,1259.,0.,0.,9984.,0.827364668445,4.30229627591,130.
6.98,8695.,19.,8.,1265.,0.,0.,9987.,0.825881350724,2.26030685461,247.
7.,8692.,17.,8.,1269.,0.,0.,9986.,0.825679075672,2.52560658441,221.
7.02,8680.,19.,6.,1277.,0.,0.,9982.,0.824869570186,2.25753777103,247.
7.04,8671.,25.,8.,1278.,0.,0.,9982.,0.824014290677,1.71394972461,325.
7.06,8658.,34.,12.,1281.,0.,0.,9985.,0.82253168247,1.25798963201,442.
7.08,8648.,29.,16.,1292.,0.,0.,9985.,0.821581657427,1.47318090297,377.
7.1,8637.,23.,17.,1307.,0.,0.,9984.,0.820618815039,1.85531210357,299.
7.12,8621.,30.,19.,1316.,0.,0.,9986.,0.818934573328,1.41948659377,390.
7.14,8607.,31.,21.,1328.,0.,0.,9987.,0.817522804563,1.3713285754,403.
7.16,8581.,43.,12.,1352.,0.,0.,9988.,0.81497163086,0.985547088481,559.
7.18,8566.,33.,27.,1358.,0.,0.,9984.,0.813872961633,1.282466485,429.
7.2,8543.,39.,16.,1382.,0.,0.,9980.,0.812013010903,1.08268401454,507.
7.22,8533.,33.,15.,1395.,0.,0.,9976.,0.811387715392,1.27855033941,429.
7.24,8516.,35.,14.,1410.,0.,0.,9975.,0.809852395855,1.20320927384,455.
7.26,8499.,40.,8.,1425.,0.,0.,9972.,0.808478885736,1.05102255146,520.
7.28,8489.,36.,11.,1437.,0.,0.,9973.,0.807446650807,1.16631182894,468.
7.3,8488.,32.,12.,1445.,0.,0.,9977.,0.807027848902,1.31142025447,416.
7.32,8478.,30.,13.,1454.,0.,0.,9975.,0.806238681548,1.39748038135,390.
7.34,8473.,25.,15.,1459.,0.,0.,9972.,0.806005600522,1.67649164909,325.
7.36,8459.,21.,21.,1473.,0.,0.,9974.,0.804512477274,1.9921261342,273.
7.38,8453.,23.,8.,1488.,0.,0.,9972.,0.804103073435,1.81797216603,299.
7.4,8449.,13.,14.,1497.,0.,0.,9973.,0.803641978168,3.21456791267,169.
7.42,8449.,13.,6.,1503.,0.,0.,9971.,0.803803174032,3.21521269613,169.
7.44,8443.,8.,10.,1508.,0.,0.,9969.,0.803393504688,5.22205778047,104.
7.46,8437.,12.,4.,1514.,0.,0.,9967.,0.802983670934,3.47959590738,156.
7.48,8442.,7.,7.,1512.,0.,0.,9968.,0.803378937423,5.96795782086,91.
7.5,8442.,9.,3.,1515.,0.,0.,9969.,0.803298349707,4.64127935386,117.
7.52,8436.,9.,5.,1518.,0.,0.,9968.,0.802807950261,4.63844593484,117.
7.54,8440.,2.,6.,1520.,0.,0.,9968.,0.803188608369,20.8829038176,26.
7.56,8439.,5.,0.,1526.,0.,0.,9970.,0.802932341847,8.35049635521,65.
7.58,8442.,1.,2.,1527.,0.,0.,9972.,0.803056683537,41.7589475439,13.
7.6,8442.,1.,0.,1528.,0.,0.,9971.,0.803137222769,41.763135584,13.
7.62,8443.,2.,0.,1526.,0.,0.,9971.,0.803232358664,20.8840413253,26.
7.64,8449.,0.,2.,1521.,0.,0.,9972.,0.803722568018,inf,0.
7.66,8451.,1.,1.,1519.,0.,0.,9972.,0.803912820726,41.8034666778,13.
7.68,8453.,2.,0.,1515.,0.,0.,9970.,0.804264377963,20.910873827,26.
7.7,8460.,1.,0.,1514.,0.,0.,9975.,0.804526922139,41.8353999512,13.
7.72,8463.,1.,0.,1513.,0.,0.,9977.,0.804650881864,41.8418458569,13.
7.74,8466.,2.,0.,1509.,0.,0.,9977.,0.804936117908,20.9283390656,26.
7.76,8467.,1.,1.,1508.,0.,0.,9977.,0.80503119659,41.8616222227,13.
7.78,8469.,2.,0.,1506.,0.,0.,9977.,0.805221353953,20.9357552028,26.
7.8,8474.,2.,0.,1505.,0.,0.,9981.,0.805373855166,20.9397202343,26.
7.82,8479.,1.,1.,1501.,0.,0.,9982.,0.805768327834,41.8999530474,13.
7.84,8479.,3.,1.,1496.,0.,0.,9979.,0.806010567035,13.9708498286,39.
7.86,8479.,5.,1.,1495.,0.,0.,9980.,0.805929804453,8.38166996631,65.
7.88,8479.,4.,2.,1494.,0.,0.,9979.,0.806010567035,10.4781373715,52.
7.9,8480.,6.,0.,1491.,0.,0.,9977.,0.80626721945,6.98764923523,78.
7.92,8480.,2.,5.,1490.,0.,0.,9977.,0.80626721945,20.9629477057,26.
7.94,8472.,11.,2.,1490.,0.,0.,9975.,0.805668095078,3.8086128131,143.
7.96,8468.,10.,7.,1489.,0.,0.,9974.,0.805368442789,4.1879159025,130.
7.98,8464.,14.,4.,1492.,0.,0.,9974.,0.804988013671,2.98995547935,182.
8.,8462.,16.,6.,1491.,0.,0.,9975.,0.804717117629,2.61533063229,208.
8.02,8458.,18.,6.,1492.,0.,0.,9974.,0.804417369994,2.32387240221,234.
8.04,8455.,23.,5.,1491.,0.,0.,9974.,0.804132048156,1.81803767409,299.
8.06,8449.,24.,10.,1491.,0.,0.,9974.,0.803561404479,1.7410497097,312.
8.08,8451.,23.,12.,1493.,0.,0.,9979.,0.803348897513,1.81626707264,299.
8.1,8444.,21.,16.,1501.,0.,0.,9982.,0.802442240858,1.98699983451,273.
8.12,8434.,27.,10.,1510.,0.,0.,9981.,0.80157223206,1.54376874323,351.
8.14,8428.,26.,10.,1516.,0.,0.,9980.,0.801082249314,1.60216449863,338.
8.16,8411.,34.,11.,1522.,0.,0.,9978.,0.799626643421,1.22295839582,442.
8.18,8399.,29.,18.,1531.,0.,0.,9977.,0.798565846245,1.43191117258,377.
8.2,8374.,35.,19.,1548.,0.,0.,9976.,0.79626868964,1.18302776746,455.
8.22,8363.,35.,15.,1560.,0.,0.,9973.,0.795461931994,1.18182915611,455.
8.24,8360.,32.,8.,1576.,0.,0.,9976.,0.794937454668,1.29177336383,416.
8.26,8358.,24.,12.,1584.,0.,0.,9978.,0.794587978328,1.72160728638,312.
8.28,8348.,31.,10.,1589.,0.,0.,9978.,0.7936372868,1.3312625456,403.
8.3,8343.,23.,19.,1594.,0.,0.,9979.,0.793082457928,1.79305599184,299.
8.32,8328.,32.,14.,1607.,0.,0.,9981.,0.791497930827,1.28618413759,416.
8.34,8319.,26.,17.,1616.,0.,0.,9978.,0.790880281372,1.58176056274,338.
8.36,8307.,17.,16.,1635.,0.,0.,9975.,0.789976967164,2.41640013485,221.
8.38,8305.,15.,7.,1648.,0.,0.,9975.,0.789786771674,2.73792747514,195.
8.4,8306.,12.,10.,1648.,0.,0.,9976.,0.789802691204,3.42247832855,156.
8.42,8297.,12.,10.,1656.,0.,0.,9975.,0.789025989715,3.4191126221,156.
8.44,8300.,9.,5.,1661.,0.,0.,9975.,0.789311282949,4.56046519037,117.
8.46,8307.,6.,8.,1658.,0.,0.,9979.,0.7896603114,6.8437226988,78.
8.48,8311.,5.,2.,1661.,0.,0.,9979.,0.790040549903,8.21642171899,65.
8.5,8309.,5.,2.,1663.,0.,0.,9979.,0.789850430652,8.21444447878,65.
8.52,8307.,0.,5.,1661.,0.,0.,9973.,0.7901353903,inf,0.
8.54,8313.,0.,2.,1658.,0.,0.,9973.,0.790706091196,inf,0.
8.56,8317.,2.,1.,1655.,0.,0.,9975.,0.790927944613,20.5641265599,26.
8.58,8322.,3.,1.,1653.,0.,0.,9979.,0.791086205787,13.7121609003,39.
8.6,8328.,1.,1.,1646.,0.,0.,9976.,0.791894631875,41.1785208575,13.
8.62,8332.,1.,1.,1644.,0.,0.,9978.,0.792116180357,41.1900413786,13.
8.64,8337.,1.,0.,1643.,0.,0.,9981.,0.792353296026,41.2023713933,13.
8.66,8338.,2.,0.,1641.,0.,0.,9981.,0.792448336603,20.6036567517,26.
8.68,8341.,2.,3.,1635.,0.,0.,9981.,0.792733458336,20.6110699167,26.
8.7,8342.,3.,2.,1633.,0.,0.,9980.,0.792907940647,13.7437376379,39.
8.72,8342.,3.,0.,1633.,0.,0.,9978.,0.793066871884,13.746492446,39.
8.74,8343.,2.,0.,1634.,0.,0.,9979.,0.793082457928,20.6201439061,26.
8.76,8347.,2.,0.,1630.,0.,0.,9979.,0.793462696431,20.6300301072,26.
8.78,8346.,1.,2.,1627.,0.,0.,9976.,0.793606219696,41.2675234242,13.
8.8,8338.,6.,2.,1626.,0.,0.,9972.,0.793163542683,6.87408403659,78.
8.82,8343.,6.,1.,1626.,0.,0.,9976.,0.793320955059,6.87544827718,78.
8.84,8348.,3.,4.,1624.,0.,0.,9979.,0.793557756057,13.755001105,39.
8.86,8348.,6.,3.,1625.,0.,0.,9982.,0.793319259436,6.87543358178,78.
8.88,8337.,11.,1.,1631.,0.,0.,9980.,0.792432690144,3.74604544431,143.
8.9,8338.,10.,3.,1630.,0.,0.,9981.,0.792448336603,4.12073135034,130.
8.92,8336.,10.,5.,1626.,0.,0.,9977.,0.792575889308,4.1213946244,130.
8.94,8333.,8.,7.,1627.,0.,0.,9975.,0.792449508532,5.15092180546,104.
8.96,8320.,17.,4.,1631.,0.,0.,9972.,0.791451268305,2.42090976187,221.
8.98,8316.,18.,9.,1633.,0.,0.,9976.,0.790753573327,2.28439921183,234.
9.,8313.,21.,9.,1634.,0.,0.,9977.,0.790389079633,1.95715391147,273.
9.02,8308.,19.,14.,1638.,0.,0.,9979.,0.789755371026,2.16143575228,247.
9.04,8304.,12.,19.,1644.,0.,0.,9979.,0.789375132523,3.42062557426,156.
9.06,8291.,18.,16.,1654.,0.,0.,9979.,0.788139357387,2.27684703245,234.
9.08,8283.,13.,15.,1669.,0.,0.,9980.,0.787299984702,3.14919993881,169.
9.1,8269.,24.,9.,1678.,0.,0.,9980.,0.785969283291,1.70293344713,312.
9.12,8265.,25.,9.,1681.,0.,0.,9980.,0.785589082888,1.63402529241,325.
9.14,8250.,18.,22.,1691.,0.,0.,9981.,0.784084765768,2.26513376778,234.
9.16,8235.,34.,15.,1699.,0.,0.,9983.,0.782502358715,1.19676831333,442.
9.18,8225.,29.,23.,1705.,0.,0.,9982.,0.78163043949,1.40154423633,377.
9.2,8216.,25.,20.,1722.,0.,0.,9983.,0.780696949508,1.62384965498,325.
9.22,8204.,27.,13.,1736.,0.,0.,9980.,0.779791026741,1.5018197552,351.
9.24,8195.,23.,17.,1741.,0.,0.,9976.,0.779247899641,1.76177786006,299.
9.26,8191.,27.,9.,1751.,0.,0.,9978.,0.778711429825,1.49974053152,351.
9.28,8183.,21.,19.,1756.,0.,0.,9979.,0.777872917803,1.92616151075,273.
9.3,8178.,21.,11.,1771.,0.,0.,9981.,0.777241844176,1.92459885225,273.
9.32,8175.,20.,12.,1773.,0.,0.,9980.,0.777034573818,2.02028989193,260.
9.34,8172.,16.,12.,1780.,0.,0.,9980.,0.776749423516,2.52443562643,208.
9.36,8168.,14.,10.,1786.,0.,0.,9978.,0.776524839313,2.88423511745,182.
9.38,8157.,17.,10.,1794.,0.,0.,9978.,0.775479078633,2.37205365229,221.
9.4,8150.,15.,3.,1807.,0.,0.,9975.,0.775046621209,2.68682828686,195.
9.42,8153.,10.,5.,1808.,0.,0.,9976.,0.775254194725,4.03132181257,130.
9.44,8151.,8.,1.,1813.,0.,0.,9973.,0.775297167008,5.03943158555,104.
9.46,8156.,6.,2.,1809.,0.,0.,9973.,0.775772751088,6.72336384276,78.
9.48,8158.,6.,2.,1806.,0.,0.,9972.,0.776040798898,6.72568692378,78.
9.5,8159.,7.,1.,1805.,0.,0.,9972.,0.776135925252,5.76558115902,91.
9.52,8165.,6.,3.,1800.,0.,0.,9974.,0.776550937101,6.73010812155,78.
9.54,8169.,3.,2.,1802.,0.,0.,9976.,0.776775606122,13.4641105061,39.
9.56,8170.,2.,1.,1801.,0.,0.,9974.,0.777026473499,20.202688311,26.
9.58,8171.,1.,2.,1797.,0.,0.,9971.,0.777355395315,40.4224805564,13.
9.6,8171.,2.,1.,1796.,0.,0.,9970.,0.777433364763,20.2132674838,26.
9.62,8172.,2.,1.,1793.,0.,0.,9968.,0.777684515117,20.2197973931,26.
9.64,8177.,0.,1.,1792.,0.,0.,9970.,0.778004237384,inf,0.
9.66,8182.,0.,0.,1787.,0.,0.,9969.,0.778558054644,inf,0.
9.68,8181.,1.,0.,1784.,0.,0.,9966.,0.778697235274,40.4922562342,13.
9.7,8188.,1.,0.,1777.,0.,0.,9966.,0.779363520648,40.5269030737,13.
9.72,8190.,0.,2.,1773.,0.,0.,9965.,0.779632117089,inf,0.
9.74,8192.,2.,2.,1770.,0.,0.,9966.,0.779744255148,20.2733506338,26.
9.76,8198.,1.,2.,1768.,0.,0.,9969.,0.78008053434,40.5641877857,13.
9.78,8203.,0.,0.,1766.,0.,0.,9969.,0.780556309245,inf,0.
9.8,8203.,1.,0.,1764.,0.,0.,9968.,0.780634615456,40.5930000037,13.
9.82,8207.,2.,0.,1759.,0.,0.,9968.,0.781015273564,20.3063971127,26.
9.84,8212.,1.,1.,1755.,0.,0.,9969.,0.781412704074,40.6334606119,13.
9.86,8213.,5.,2.,1751.,0.,0.,9971.,0.781351102891,8.12605147006,65.
9.88,8212.,8.,2.,1747.,0.,0.,9969.,0.781412704074,5.07918257648,104.
9.9,8209.,10.,5.,1745.,0.,0.,9969.,0.781127239131,4.06186164348,130.
9.92,8210.,5.,7.,1749.,0.,0.,9971.,0.781065695207,8.12308323015,65.
9.94,8204.,5.,7.,1749.,0.,0.,9965.,0.780964821563,8.12203414425,65.
9.96,8191.,11.,5.,1755.,0.,0.,9962.,0.779962120739,3.68709366167,143.
9.98,8185.,10.,6.,1757.,0.,0.,9958.,0.779703860892,4.05446007664,130.
10.,8184.,13.,1.,1762.,0.,0.,9960.,0.779452052887,3.11780821155,169.
