t,s,e,i,r,c,o,n,reff,coal,reportr
5.,5826.,10.,48.,4117.,0.,0.,10001.,0.854092051654,4.4412786686,130.
5.02,5811.,24.,16.,4150.,0.,0.,10001.,0.851893050491,1.84576827606,312.
5.04,5814.,27.,12.,4149.,0.,0.,10002.,0.852247634482,1.64136581456,351.
5.06,5803.,26.,15.,4154.,0.,0.,9998.,0.850975516999,1.701951034,338.
5.08,5805.,22.,16.,4157.,0.,0.,10000.,0.851098551371,2.01168748506,286.
5.1,5801.,23.,14.,4162.,0.,0.,10000.,0.850512092421,1.9228969046,299.
5.12,5794.,28.,17.,4159.,0.,0.,9998.,0.849655720402,1.57793205218,364.
5.14,5784.,29.,17.,4168.,0.,0.,9998.,0.848189279739,1.52089112229,377.
5.16,5782.,25.,15.,4177.,0.,0.,9999.,0.847811193527,1.76344728254,325.
5.18,5766.,28.,16.,4188.,0.,0.,9998.,0.845549686544,1.57030656073,364.
5.2,5764.,26.,17.,4194.,0.,0.,10001.,0.845002846847,1.69000569369,338.
5.22,5755.,28.,16.,4200.,0.,0.,9999.,0.843852199714,1.56715408518,364.
5.24,5748.,35.,10.,4208.,0.,0.,10001.,0.842657245607,1.25194790776,455.
5.26,5735.,34.,21.,4208.,0.,0.,9998.,0.841003720488,1.28624098428,442.
5.28,5737.,22.,13.,4227.,0.,0.,9999.,0.841212870506,1.98832133029,286.
5.3,5736.,20.,8.,4233.,0.,0.,9997.,0.841234504833,2.18720971256,260.
5.32,5738.,20.,5.,4233.,0.,0.,9996.,0.84161200876,2.18819122278,260.
5.34,5743.,13.,12.,4230.,0.,0.,9998.,0.842176873018,3.36870749207,169.
5.36,5745.,16.,10.,4228.,0.,0.,9999.,0.84238590571,2.73775419356,208.
5.38,5750.,16.,4.,4229.,0.,0.,9999.,0.843119052712,2.74013692131,208.
5.4,5754.,13.,7.,4225.,0.,0.,9999.,0.843705570314,3.37482228125,169.
5.42,5761.,10.,11.,4216.,0.,0.,9998.,0.844816466213,4.39304562431,130.
5.44,5761.,10.,9.,4218.,0.,0.,9998.,0.844816466213,4.39304562431,130.
5.46,5770.,9.,4.,4216.,0.,0.,9999.,0.846051640721,4.88829836861,117.
5.48,5778.,9.,0.,4214.,0.,0.,10001.,0.847055247933,4.89409698806,117.
5.5,5783.,7.,2.,4206.,0.,0.,9998.,0.848042635672,6.29974529357,91.
5.52,5788.,3.,9.,4199.,0.,0.,9999.,0.84869096993,14.7106434788,39.
5.54,5795.,3.,2.,4201.,0.,0.,10001.,0.849547449251,14.7254891203,39.
5.56,5801.,4.,0.,4197.,0.,0.,10002.,0.850342024016,11.0544463122,52.
5.58,5813.,1.,3.,4184.,0.,0.,10001.,0.852186250646,44.3136850336,13.
5.6,5827.,2.,0.,4173.,0.,0.,10002.,0.854153244948,22.2079843686,26.
5.62,5834.,1.,2.,4163.,0.,0.,10000.,0.855350378759,44.4782196955,13.
5.64,5843.,0.,1.,4157.,0.,0.,10001.,0.856584252972,inf,0.
5.66,5847.,0.,0.,4153.,0.,0.,10000.,0.857256370347,inf,0.
5.68,5856.,1.,0.,4145.,0.,0.,10002.,0.858404222141,44.6370195513,13.
5.7,5865.,0.,1.,4139.,0.,0.,10005.,0.859465702771,inf,0.
5.72,5868.,3.,1.,4133.,0.,0.,10005.,0.859905327172,14.905025671,39.
5.74,5874.,1.,1.,4124.,0.,0.,10000.,0.861214968261,44.7831783495,13.
5.76,5886.,1.,1.,4114.,0.,0.,10002.,0.862801784754,44.8656928072,13.
5.78,5897.,1.,0.,4104.,0.,0.,10002.,0.864414224379,44.9495396677,13.
5.8,5902.,0.,1.,4098.,0.,0.,10001.,0.865233657546,inf,0.
5.82,5915.,0.,0.,4087.,0.,0.,10002.,0.867052761947,inf,0.
5.84,5924.,1.,0.,4079.,0.,0.,10004.,0.868198425767,45.1463181399,13.
5.86,5928.,3.,1.,4072.,0.,0.,10004.,0.868784650227,15.0589339373,39.
5.88,5931.,4.,3.,4064.,0.,0.,10002.,0.869398128674,11.3021756728,52.
5.9,5940.,7.,1.,4057.,0.,0.,10005.,0.870456312781,6.46624689495,91.
5.92,5944.,4.,5.,4050.,0.,0.,10003.,0.871216634897,11.3258162537,52.
5.94,5952.,9.,3.,4040.,0.,0.,10004.,0.872301996989,5.03996709372,117.
5.96,5958.,11.,8.,4030.,0.,0.,10007.,0.872919562519,4.126528841,143.
5.98,5958.,12.,10.,4025.,0.,0.,10005.,0.873094059184,3.7834075898,156.
6.,5954.,14.,13.,4023.,0.,0.,10004.,0.872595109219,3.24106754853,182.
6.02,5948.,14.,10.,4032.,0.,0.,10004.,0.871715772529,3.23780144082,182.
6.04,5948.,15.,11.,4030.,0.,0.,10004.,0.871715772529,3.02194801143,195.
6.06,5937.,24.,9.,4035.,0.,0.,10005.,0.870016688381,1.88503615816,312.
6.08,5934.,28.,14.,4028.,0.,0.,10004.,0.869663986918,1.61509026142,364.
6.1,5927.,24.,22.,4029.,0.,0.,10002.,0.868811786992,1.88242553848,312.
6.12,5908.,37.,15.,4043.,0.,0.,10003.,0.86594008731,1.21699687946,481.
6.14,5904.,37.,16.,4042.,0.,0.,9999.,0.865699980384,1.21665943189,481.
6.16,5888.,39.,18.,4055.,0.,0.,10000.,0.863267574586,1.15102343278,507.
6.18,5877.,34.,17.,4072.,0.,0.,10000.,0.861654812473,1.31782500731,442.
6.2,5876.,32.,18.,4075.,0.,0.,10001.,0.86142205553,1.39981084024,416.
6.22,5876.,38.,9.,4082.,0.,0.,10005.,0.861077658906,1.1783167964,494.
6.24,5870.,35.,8.,4088.,0.,0.,10001.,0.860542455065,1.27852021895,455.
6.26,5872.,26.,15.,4089.,0.,0.,10002.,0.860749588868,1.72149917774,338.
6.28,5867.,29.,11.,4093.,0.,0.,10000.,0.860188665098,1.54240726155,377.
6.3,5862.,27.,12.,4101.,0.,0.,10002.,0.859283734663,1.65491682231,351.
6.32,5848.,35.,9.,4108.,0.,0.,10000.,0.857402985085,1.27385586355,455.
6.34,5841.,21.,21.,4118.,0.,0.,10001.,0.856291052817,2.12033974983,273.
6.36,5832.,20.,15.,4131.,0.,0.,9998.,0.855228194923,2.2235933068,260.
6.38,5830.,23.,6.,4138.,0.,0.,9997.,0.855020425937,1.93308965864,299.
6.4,5829.,16.,7.,4145.,0.,0.,9997.,0.854873767202,2.77833974341,208.
6.42,5840.,12.,4.,4143.,0.,0.,9999.,0.856315698754,3.71070136127,156.
6.44,5849.,10.,4.,4135.,0.,0.,9998.,0.857721144051,4.46014994907,130.
6.46,5856.,7.,3.,4135.,0.,0.,10001.,0.85849005398,6.37735468671,91.
6.48,5863.,5.,0.,4130.,0.,0.,9998.,0.85977416098,8.94165127419,65.
6.5,5875.,1.,3.,4118.,0.,0.,9997.,0.861620069019,44.804243589,13.
6.52,5886.,2.,3.,4110.,0.,0.,10001.,0.862888056305,22.4350894639,26.
6.54,5897.,1.,1.,4104.,0.,0.,10003.,0.864327808881,44.9450460618,13.
6.56,5900.,2.,1.,4097.,0.,0.,10000.,0.865026951436,22.4907007373,26.
6.58,5908.,1.,1.,4090.,0.,0.,10000.,0.866199869337,45.0423932055,13.
6.6,5911.,3.,1.,4084.,0.,0.,9999.,0.866726386188,15.0232573606,39.
6.62,5918.,1.,1.,4079.,0.,0.,9999.,0.867752791991,45.1231451835,13.
6.64,5924.,0.,1.,4071.,0.,0.,9996.,0.868893262442,inf,0.
6.66,5927.,1.,0.,4066.,0.,0.,9994.,0.869507253702,45.2143771925,13.
6.68,5935.,3.,0.,4057.,0.,0.,9995.,0.870593764132,15.0902919116,39.
6.7,5943.,1.,2.,4047.,0.,0.,9993.,0.871941744371,45.3409707073,13.
6.72,5955.,1.,4.,4033.,0.,0.,9993.,0.873702353648,45.4325223897,13.
6.74,5965.,2.,1.,4024.,0.,0.,9992.,0.875257115068,22.7566849918,26.
6.76,5967.,2.,2.,4019.,0.,0.,9990.,0.875725864716,22.7688724826,26.
6.78,5967.,2.,4.,4013.,0.,0.,9986.,0.876076646156,22.7779928,26.
6.8,5968.,3.,4.,4005.,0.,0.,9980.,0.876750254097,15.1970044043,39.
6.82,5967.,5.,2.,4004.,0.,0.,9978.,0.876779052767,9.11850214878,65.
6.84,5970.,8.,3.,4001.,0.,0.,9982.,0.876868346086,5.69964424956,104.
6.86,5964.,9.,4.,4001.,0.,0.,9978.,0.876338238764,5.06328760175,117.
6.88,5962.,11.,3.,4000.,0.,0.,9976.,0.876219993147,4.14213087669,143.
6.9,5966.,12.,6.,3994.,0.,0.,9978.,0.876632114766,3.79873916399,156.
6.92,5965.,11.,9.,3992.,0.,0.,9977.,0.876573027339,4.1437997656,143.
6.94,5969.,14.,7.,3985.,0.,0.,9975.,0.877336710101,3.25867920895,182.
6.96,5969.,17.,7.,3983.,0.,0.,9976.,0.877248765363,2.68334916464,221.
6.98,5965.,21.,7.,3983.,0.,0.,9976.,0.876660895525,2.17077936035,273.
7.,5962.,21.,10.,3983.,0.,0.,9976.,0.876219993147,2.16968760208,273.
7.02,5960.,19.,17.,3983.,0.,0.,9979.,0.875662727416,2.3965506224,247.
7.04,5944.,30.,7.,3995.,0.,0.,9976.,0.873574578877,1.51419593672,390.
7.06,5946.,21.,17.,3991.,0.,0.,9975.,0.873956119662,2.16408182012,273.
7.08,5945.,25.,14.,3990.,0.,0.,9974.,0.873896746165,1.81770523202,325.
7.1,5945.,25.,8.,3996.,0.,0.,9974.,0.873896746165,1.81770523202,325.
7.12,5941.,29.,11.,3993.,0.,0.,9974.,0.873308758447,1.56593294618,377.
7.14,5919.,33.,16.,4002.,0.,0.,9970.,0.870423903159,1.37157705952,429.
7.16,5906.,35.,15.,4014.,0.,0.,9970.,0.868512176391,1.29036094778,455.
7.18,5898.,34.,20.,4017.,0.,0.,9969.,0.867422732432,1.32664653195,442.
7.2,5889.,34.,11.,4036.,0.,0.,9970.,0.866012226001,1.32448928683,442.
7.22,5870.,37.,10.,4049.,0.,0.,9966.,0.863564629049,1.21365839758,481.
7.24,5865.,29.,15.,4053.,0.,0.,9962.,0.863175502532,1.54776297006,377.
7.26,5861.,26.,15.,4065.,0.,0.,9967.,0.862154085154,1.72430817031,338.
7.28,5858.,25.,17.,4071.,0.,0.,9971.,0.861367097041,1.79164356185,325.
7.3,5853.,21.,16.,4076.,0.,0.,9966.,0.861063675268,2.13215767209,273.
7.32,5850.,20.,16.,4078.,0.,0.,9964.,0.860795076836,2.23806719977,260.
7.34,5845.,16.,17.,4085.,0.,0.,9963.,0.860145679888,2.79547345963,208.
7.36,5831.,21.,17.,4093.,0.,0.,9962.,0.858171586576,2.12499630962,273.
7.38,5833.,14.,17.,4099.,0.,0.,9963.,0.858379769168,3.18826771405,182.
7.4,5838.,9.,7.,4105.,0.,0.,9959.,0.859460626277,4.96577250738,117.
7.42,5847.,10.,6.,4100.,0.,0.,9963.,0.860439998341,4.47428799137,130.
7.44,5855.,11.,5.,4090.,0.,0.,9961.,0.861790270302,4.07391764143,143.
7.46,5860.,9.,7.,4083.,0.,0.,9959.,0.862699429596,4.98448559322,117.
7.48,5874.,4.,6.,4078.,0.,0.,9962.,0.864500068521,11.2385008908,52.
7.5,5883.,2.,0.,4081.,0.,0.,9966.,0.865477123117,22.502405201,26.
7.52,5898.,0.,2.,4069.,0.,0.,9969.,0.867422732432,inf,0.
7.54,5909.,2.,2.,4058.,0.,0.,9971.,0.868866196043,22.5905210971,26.
7.56,5915.,1.,0.,4055.,0.,0.,9971.,0.869748442984,45.2269190352,13.
7.58,5920.,2.,0.,4047.,0.,0.,9969.,0.870658286876,22.6371154588,26.
7.6,5925.,3.,0.,4038.,0.,0.,9966.,0.871655950105,15.1087031352,39.
7.62,5934.,2.,3.,4024.,0.,0.,9963.,0.873242851061,22.7043141276,26.
7.64,5939.,2.,0.,4019.,0.,0.,9960.,0.874241893775,22.7302892382,26.
7.66,5947.,1.,1.,4009.,0.,0.,9958.,0.875595344547,45.5309579165,13.
7.68,5949.,1.,0.,3998.,0.,0.,9948.,0.876770279026,45.5920545094,13.
7.7,5961.,0.,1.,3987.,0.,0.,9949.,0.878450548222,inf,0.
7.72,5974.,0.,0.,3979.,0.,0.,9953.,0.880012500767,inf,0.
7.74,5982.,1.,0.,3971.,0.,0.,9954.,0.881102431097,45.817326417,13.
7.76,5995.,0.,0.,3960.,0.,0.,9955.,0.882928529886,inf,0.
7.78,6004.,0.,1.,3949.,0.,0.,9954.,0.884342861302,inf,0.
7.8,6006.,2.,1.,3940.,0.,0.,9949.,0.885082031978,23.0121328314,26.
7.82,6012.,2.,0.,3934.,0.,0.,9948.,0.886055289546,23.0374375282,26.
7.84,6016.,3.,0.,3927.,0.,0.,9946.,0.886823105761,15.3716004999,39.
7.86,6025.,4.,1.,3917.,0.,0.,9947.,0.888060514354,11.5447866866,52.
7.88,6029.,4.,2.,3909.,0.,0.,9944.,0.888918194467,11.5559365281,52.
7.9,6037.,8.,1.,3903.,0.,0.,9949.,0.889650387454,5.78272751845,104.
7.92,6041.,5.,5.,3896.,0.,0.,9947.,0.89041884933,9.26035603303,65.
7.94,6042.,5.,6.,3893.,0.,0.,9946.,0.890655785407,9.26282016823,65.
7.96,6043.,8.,7.,3889.,0.,0.,9947.,0.890713641202,5.78963866781,104.
7.98,6038.,14.,6.,3887.,0.,0.,9945.,0.890155641243,3.30629238176,182.
8.,6052.,12.,7.,3878.,0.,0.,9949.,0.89186088204,3.86473048884,156.
8.02,6053.,17.,6.,3876.,0.,0.,9952.,0.891739355184,2.72767332174,221.
8.04,6048.,15.,11.,3875.,0.,0.,9949.,0.891271416817,3.08974091163,195.
8.06,6041.,25.,11.,3871.,0.,0.,9948.,0.890329342007,1.85188503137,325.
8.08,6026.,26.,22.,3871.,0.,0.,9945.,0.888386534304,1.77677306861,338.
8.1,6025.,28.,12.,3879.,0.,0.,9944.,0.888328432852,1.64975280387,364.
8.12,6019.,22.,26.,3878.,0.,0.,9945.,0.887354555256,2.09738349424,286.
8.14,6006.,28.,16.,3898.,0.,0.,9948.,0.885171002829,1.64388900525,364.
8.16,5997.,31.,10.,3909.,0.,0.,9947.,0.883933428146,1.48272704076,403.
8.18,5998.,28.,13.,3912.,0.,0.,9951.,0.883725450421,1.64120440793,364.
8.2,5999.,32.,9.,3918.,0.,0.,9958.,0.883251466612,1.43528363324,416.
8.22,5993.,31.,8.,3922.,0.,0.,9954.,0.882722646199,1.48069605169,403.
8.24,5990.,33.,8.,3922.,0.,0.,9953.,0.88236941406,1.39040028882,429.
8.26,5994.,26.,5.,3929.,0.,0.,9954.,0.882869938481,1.76573987696,338.
8.28,5989.,29.,10.,3928.,0.,0.,9956.,0.881956270668,1.58143883016,377.
8.3,5992.,27.,0.,3942.,0.,0.,9961.,0.881955132305,1.69858025481,351.
8.32,5994.,27.,5.,3936.,0.,0.,9962.,0.882160948368,1.6989766413,351.
8.34,6006.,21.,8.,3929.,0.,0.,9964.,0.883749612219,2.18833237311,273.
8.36,6006.,17.,10.,3928.,0.,0.,9961.,0.884015775138,2.70404825336,221.
8.38,6008.,20.,5.,3926.,0.,0.,9959.,0.884487742835,2.29966813137,260.
8.4,6015.,17.,5.,3920.,0.,0.,9957.,0.885696139653,2.70918819188,221.
8.42,6022.,12.,11.,3916.,0.,0.,9961.,0.886370795518,3.84094011391,156.
8.44,6022.,12.,8.,3918.,0.,0.,9960.,0.886459788569,3.84132575047,156.
8.46,6029.,8.,8.,3913.,0.,0.,9958.,0.88766846011,5.76984499072,104.
8.48,6049.,8.,1.,3901.,0.,0.,9959.,0.890523694476,5.78840401409,104.
8.5,6059.,5.,3.,3895.,0.,0.,9962.,0.891727258285,9.27396348617,65.
8.52,6061.,3.,0.,3896.,0.,0.,9960.,0.892200727087,15.4648126028,39.
8.54,6064.,3.,0.,3893.,0.,0.,9960.,0.892642337742,15.4724671875,39.
8.56,6076.,1.,3.,3879.,0.,0.,9959.,0.894498589459,46.5139266519,13.
8.58,6081.,4.,0.,3876.,0.,0.,9961.,0.895054933169,11.6357141312,52.
8.6,6090.,0.,4.,3864.,0.,0.,9958.,0.896649680224,inf,0.
8.62,6098.,1.,4.,3857.,0.,0.,9960.,0.897647258502,46.6776574421,13.
8.64,6100.,1.,2.,3852.,0.,0.,9955.,0.898392665939,46.7164186288,13.
8.66,6109.,1.,0.,3851.,0.,0.,9961.,0.899176218834,46.7571633794,13.
8.68,6123.,0.,2.,3838.,0.,0.,9963.,0.901055944902,inf,0.
8.7,6141.,0.,1.,3822.,0.,0.,9964.,0.903614113992,inf,0.
8.72,6148.,1.,0.,3815.,0.,0.,9964.,0.904644125195,47.0414945101,13.
8.74,6155.,0.,1.,3804.,0.,0.,9960.,0.906037860951,inf,0.
8.76,6170.,1.,0.,3789.,0.,0.,9960.,0.908245914227,47.2287875398,13.
8.78,6171.,1.,0.,3783.,0.,0.,9955.,0.908849367461,47.260167108,13.
8.8,6184.,1.,0.,3775.,0.,0.,9960.,0.910306763951,47.3359517255,13.
8.82,6193.,1.,0.,3768.,0.,0.,9962.,0.911448574115,47.395325854,13.
8.84,6201.,0.,1.,3759.,0.,0.,9961.,0.912717586019,inf,0.
8.86,6211.,3.,1.,3752.,0.,0.,9967.,0.913639143984,15.8364118291,39.
8.88,6214.,4.,1.,3747.,0.,0.,9966.,0.91417216438,11.8842381369,52.
8.9,6221.,4.,2.,3739.,0.,0.,9966.,0.915201968878,11.8976255954,52.
8.92,6222.,7.,2.,3737.,0.,0.,9968.,0.915165426286,6.79837173812,91.
8.94,6229.,10.,3.,3724.,0.,0.,9966.,0.916378888304,4.76517021918,130.
8.96,6230.,8.,10.,3717.,0.,0.,9965.,0.916617977744,5.95801685534,104.
8.98,6230.,13.,10.,3714.,0.,0.,9967.,0.916434047177,3.66573618871,169.
9.,6234.,20.,7.,3711.,0.,0.,9972.,0.91656264919,2.38306288789,260.
9.02,6231.,15.,16.,3711.,0.,0.,9973.,0.916029709776,3.17556966056,195.
9.04,6223.,23.,14.,3712.,0.,0.,9972.,0.914945358663,2.06857211524,299.
9.06,6218.,25.,14.,3717.,0.,0.,9974.,0.914026907932,1.9011759685,325.
9.08,6210.,29.,17.,3716.,0.,0.,9972.,0.913034015314,1.63716444125,377.
9.1,6209.,29.,16.,3717.,0.,0.,9971.,0.912978543109,1.63706497385,377.
9.12,6206.,25.,16.,3725.,0.,0.,9972.,0.912445909668,1.89788749211,325.
9.14,6200.,25.,11.,3734.,0.,0.,9970.,0.911746612533,1.89643295407,325.
9.16,6185.,30.,16.,3736.,0.,0.,9967.,0.909814539614,1.57701186866,390.
9.18,6174.,26.,19.,3751.,0.,0.,9970.,0.907923158997,1.81584631799,338.
9.2,6174.,36.,10.,3755.,0.,0.,9975.,0.907468059669,1.3107871973,468.
9.22,6169.,28.,25.,3754.,0.,0.,9976.,0.90664225725,1.68376419204,364.
9.24,6159.,36.,14.,3771.,0.,0.,9980.,0.904809788033,1.3069474716,468.
9.26,6154.,34.,16.,3774.,0.,0.,9978.,0.904256458979,1.38298046667,442.
9.28,6139.,39.,14.,3784.,0.,0.,9976.,0.902233233467,1.20297764462,507.
9.3,6127.,31.,18.,3799.,0.,0.,9975.,0.900559896597,1.51061660074,403.
9.32,6117.,29.,15.,3811.,0.,0.,9972.,0.899360559046,1.61264651967,377.
9.34,6115.,28.,8.,3818.,0.,0.,9969.,0.899337064907,1.67019740626,364.
9.36,6121.,23.,11.,3815.,0.,0.,9970.,0.900129196019,2.03507470404,299.
9.38,6125.,15.,14.,3818.,0.,0.,9972.,0.900536770338,3.12186080384,195.
9.4,6127.,14.,9.,3825.,0.,0.,9975.,0.900559896597,3.34493675879,182.
9.42,6125.,14.,12.,3821.,0.,0.,9972.,0.900536770338,3.34485086125,182.
9.44,6131.,7.,8.,3827.,0.,0.,9973.,0.901328542872,6.69558346133,91.
9.46,6130.,7.,9.,3825.,0.,0.,9971.,0.901362291715,6.69583416702,91.
9.48,6127.,8.,5.,3832.,0.,0.,9972.,0.900830823161,5.85540035055,104.
9.5,6134.,8.,1.,3827.,0.,0.,9970.,0.902040922787,5.86326599812,104.
9.52,6139.,4.,4.,3823.,0.,0.,9970.,0.902776202313,11.7360906301,52.
9.54,6144.,4.,2.,3819.,0.,0.,9969.,0.903602113947,11.7468274813,52.
9.56,6155.,2.,0.,3812.,0.,0.,9969.,0.90521989117,23.5357171704,26.
9.58,6166.,2.,0.,3802.,0.,0.,9970.,0.906746711755,23.5754145056,26.
9.6,6179.,0.,1.,3788.,0.,0.,9968.,0.908840753619,inf,0.
9.62,6189.,3.,0.,3779.,0.,0.,9971.,0.910037719971,15.7739871462,39.
9.64,6197.,2.,0.,3772.,0.,0.,9971.,0.911214049226,23.6915652799,26.
9.66,6207.,1.,1.,3761.,0.,0.,9970.,0.91277600387,47.4643522012,13.
9.68,6215.,1.,0.,3754.,0.,0.,9970.,0.913952451112,47.5255274578,13.
9.7,6220.,1.,1.,3747.,0.,0.,9969.,0.914779483846,47.56853316,13.
9.72,6228.,1.,1.,3739.,0.,0.,9969.,0.915956049099,47.6297145531,13.
9.74,6238.,1.,0.,3729.,0.,0.,9968.,0.917518792859,47.7109772287,13.
9.76,6240.,1.,0.,3726.,0.,0.,9967.,0.917905048858,47.7310625406,13.
9.78,6249.,2.,0.,3721.,0.,0.,9972.,0.918768045362,23.8879691794,26.
9.8,6256.,4.,1.,3709.,0.,0.,9970.,0.919981743227,11.959762662,52.
9.82,6261.,4.,2.,3706.,0.,0.,9973.,0.920440059847,11.965720778,52.
9.84,6260.,5.,2.,3700.,0.,0.,9967.,0.92084705222,9.57680934309,65.
9.86,6262.,8.,4.,3694.,0.,0.,9968.,0.921048842719,5.98681747768,104.
9.88,6265.,8.,4.,3693.,0.,0.,9970.,0.921305246374,5.98848410143,104.
9.9,6270.,9.,4.,3690.,0.,0.,9973.,0.921763164868,5.32574273035,117.
9.92,6270.,13.,6.,3683.,0.,0.,9972.,0.921855600003,3.68742240001,169.
9.94,6272.,13.,6.,3682.,0.,0.,9973.,0.922057188206,3.68822875282,169.
9.96,6270.,14.,11.,3677.,0.,0.,9972.,0.921855600003,3.42403508573,182.
9.98,6268.,17.,12.,3678.,0.,0.,9975.,0.921284385812,2.8180463566,221.
10.,6272.,21.,6.,3675.,0.,0.,9974.,0.921964742128,2.28296031384,273.
