t,cases
5.01,3.51
5.02,3.51
5.03,3.055
5.04,3.055
5.05,2.925
5.06,2.925
5.07,3.315
5.08,3.315
5.09,3.575
5.1,3.575
5.11,3.9
5.12,3.9
5.13,4.16
5.14,4.16
5.15,3.9
5.16,3.9
5.17,3.185
5.18,3.185
5.19,3.055
5.2,3.055
5.21,3.51
5.22,3.51
5.23,3.77
5.24,3.77
5.25,3.9
5.26,3.9
5.27,3.965
5.28,3.965
5.29,3.51
5.3,3.51
5.31,2.86
5.32,2.86
5.33,2.665
5.34,2.665
5.35,2.405
5.36,2.405
5.37,1.69
5.38,1.69
5.39,1.43
5.4,1.43
5.41,1.43
5.42,1.43
5.43,0.975
5.44,0.975
5.45,0.715
5.46,0.715
5.47,0.715
5.48,0.715
5.49,0.585
5.5,0.585
5.51,0.455
5.52,0.455
5.53,0.26
5.54,0.26
5.55,0.13
5.56,0.13
5.57,0.065
5.58,0.065
5.59,0.
5.6,0.
5.61,0.13
5.62,0.13
5.63,0.195
5.64,0.195
5.65,0.13
5.66,0.13
5.67,0.13
5.68,0.13
5.69,0.065
5.7,0.065
5.71,0.
5.72,0.
5.73,0.065
5.74,0.065
5.75,0.13
5.76,0.13
5.77,0.13
5.78,0.13
5.79,0.195
5.8,0.195
5.81,0.325
5.82,0.325
5.83,0.455
5.84,0.455
5.85,0.585
5.86,0.585
5.87,0.78
5.88,0.78
5.89,0.975
5.9,0.975
5.91,0.975
5.92,0.975
5.93,1.365
5.94,1.365
5.95,2.015
5.96,2.015
5.97,2.275
5.98,2.275
5.99,2.275
6.,2.275
6.01,2.21
6.02,2.21
6.03,2.6
6.04,2.6
6.05,3.445
6.06,3.445
6.07,4.095
6.08,4.095
6.09,4.16
6.1,4.16
6.11,4.29
6.12,4.29
6.13,4.42
6.14,4.42
6.15,4.745
6.16,4.745
6.17,4.68
6.18,4.68
6.19,4.42
6.2,4.42
6.21,4.29
6.22,4.29
6.23,4.095
6.24,4.095
6.25,4.03
6.26,4.03
6.27,3.9
6.28,3.9
6.29,3.575
6.3,3.575
6.31,2.73
6.32,2.73
6.33,2.145
6.34,2.145
6.35,2.145
6.36,2.145
6.37,2.665
6.38,2.665
6.39,2.73
6.4,2.73
6.41,2.405
6.42,2.405
6.43,1.82
6.44,1.82
6.45,1.365
6.46,1.365
6.47,1.235
6.48,1.235
6.49,0.91
6.5,0.91
6.51,0.715
6.52,0.715
6.53,0.39
6.54,0.39
6.55,0.065
6.56,0.065
6.57,0.065
6.58,0.065
6.59,0.13
6.6,0.13
6.61,0.065
6.62,0.065
6.63,0.
6.64,0.
6.65,0.
6.66,0.
6.67,0.065
6.68,0.065
6.69,0.13
6.7,0.13
6.71,0.13
6.72,0.13
6.73,0.13
6.74,0.13
6.75,0.195
6.76,0.195
6.77,0.195
6.78,0.195
6.79,0.39
6.8,0.39
6.81,0.52
6.82,0.52
6.83,0.39
6.84,0.39
6.85,0.52
6.86,0.52
6.87,0.715
6.88,0.715
6.89,0.845
6.9,0.845
6.91,0.975
6.92,0.975
6.93,1.17
6.94,1.17
6.95,1.56
6.96,1.56
6.97,1.82
6.98,1.82
6.99,2.015
7.,2.015
7.01,1.95
7.02,1.95
7.03,2.34
7.04,2.34
7.05,3.12
7.06,3.12
7.07,3.315
7.08,3.315
7.09,3.055
7.1,3.055
7.11,2.665
7.12,2.665
7.13,2.665
7.14,2.665
7.15,2.6
7.16,2.6
7.17,2.925
7.18,2.925
7.19,3.315
7.2,3.315
7.21,3.575
7.22,3.575
7.23,3.055
7.24,3.055
7.25,2.405
7.26,2.405
7.27,3.055
7.28,3.055
7.29,3.055
7.3,3.055
7.31,2.47
7.32,2.47
7.33,2.34
7.34,2.34
7.35,2.145
7.36,2.145
7.37,1.885
7.38,1.885
7.39,1.885
7.4,1.885
7.41,1.82
7.42,1.82
7.43,1.365
7.44,1.365
7.45,1.04
7.46,1.04
7.47,0.91
7.48,0.91
7.49,0.715
7.5,0.715
7.51,0.585
7.52,0.585
7.53,0.325
7.54,0.325
7.55,0.13
7.56,0.13
7.57,0.065
7.58,0.065
7.59,0.
7.6,0.
7.61,0.
7.62,0.
7.63,0.
7.64,0.
7.65,0.
7.66,0.
7.67,0.
7.68,0.
7.69,0.065
7.7,0.065
7.71,0.065
7.72,0.065
7.73,0.13
7.74,0.13
7.75,0.325
7.76,0.325
7.77,0.325
7.78,0.325
7.79,0.325
7.8,0.325
7.81,0.585
7.82,0.585
7.83,0.845
7.84,0.845
7.85,0.845
7.86,0.845
7.87,0.78
7.88,0.78
7.89,0.78
7.9,0.78
7.91,0.585
7.92,0.585
7.93,0.91
7.94,0.91
7.95,1.17
7.96,1.17
7.97,1.04
7.98,1.04
7.99,1.3
8.,1.3
8.01,1.43
8.02,1.43
8.03,1.365
8.04,1.365
8.05,1.625
8.06,1.625
8.07,2.86
8.08,2.86
8.09,3.705
8.1,3.705
8.11,4.16
8.12,4.16
8.13,5.265
8.14,5.265
8.15,5.135
8.16,5.135
8.17,3.9
8.18,3.9
8.19,3.575
8.2,3.575
8.21,4.355
8.22,4.355
8.23,4.29
8.24,4.29
8.25,3.12
8.26,3.12
8.27,2.795
8.28,2.795
8.29,2.6
8.3,2.6
8.31,2.015
8.32,2.015
8.33,1.95
8.34,1.95
8.35,2.08
8.36,2.08
8.37,1.885
8.38,1.885
8.39,1.69
8.4,1.69
8.41,1.495
8.42,1.495
8.43,1.235
8.44,1.235
8.45,1.04
8.46,1.04
8.47,1.105
8.48,1.105
8.49,1.105
8.5,1.105
8.51,0.52
8.52,0.52
8.53,0.26
8.54,0.26
8.55,0.39
8.56,0.39
8.57,0.195
8.58,0.195
8.59,0.
8.6,0.
8.61,0.
8.62,0.
8.63,0.
8.64,0.
8.65,0.
8.66,0.
8.67,0.
8.68,0.
8.69,0.
8.7,0.
8.71,0.13
8.72,0.13
8.73,0.26
8.74,0.26
8.75,0.325
8.76,0.325
8.77,0.39
8.78,0.39
8.79,0.26
8.8,0.26
8.81,0.195
8.82,0.195
8.83,0.26
8.84,0.26
8.85,0.325
8.86,0.325
8.87,0.585
8.88,0.585
8.89,1.04
8.9,1.04
8.91,1.3
8.92,1.3
8.93,1.43
8.94,1.43
8.95,1.885
8.96,1.885
8.97,1.69
8.98,1.69
8.99,1.235
9.,1.235
9.01,1.495
9.02,1.495
9.03,1.43
9.04,1.43
9.05,1.56
9.06,1.56
9.07,2.535
9.08,2.535
9.09,3.12
9.1,3.12
9.11,2.73
9.12,2.73
9.13,2.665
9.14,2.665
9.15,2.86
9.16,2.86
9.17,3.185
9.18,3.185
9.19,2.99
9.2,2.99
9.21,2.6
9.22,2.6
9.23,2.925
9.24,2.925
9.25,2.86
9.26,2.86
9.27,2.99
9.28,2.99
9.29,3.445
9.3,3.445
9.31,3.64
9.32,3.64
9.33,3.12
9.34,3.12
9.35,2.47
9.36,2.47
9.37,2.535
9.38,2.535
9.39,2.535
9.4,2.535
9.41,2.08
9.42,2.08
9.43,1.625
9.44,1.625
9.45,1.43
9.46,1.43
9.47,1.17
9.48,1.17
9.49,0.65
9.5,0.65
9.51,0.39
9.52,0.39
9.53,0.195
9.54,0.195
9.55,0.26
9.56,0.26
9.57,0.455
9.58,0.455
9.59,0.39
9.6,0.39
9.61,0.39
9.62,0.39
9.63,0.325
9.64,0.325
9.65,0.13
9.66,0.13
9.67,0.0650000000001
9.68,0.0649999999999
9.69,0.13
9.7,0.13
9.71,0.195
9.72,0.195
9.73,0.13
9.74,0.13
9.75,0.13
9.76,0.13
9.77,0.13
9.78,0.13
9.79,0.195
9.8,0.195
9.81,0.585
9.82,0.585
9.83,0.585
9.84,0.585
9.85,0.52
9.86,0.52
9.87,0.65
9.88,0.65
9.89,0.715
9.9,0.715
9.91,0.715
9.92,0.715
9.93,1.04
9.94,1.04
9.95,1.235
9.96,1.235
9.97,1.3
9.98,1.3
9.99,1.69
10.,1.69
