t,prevalence
5.,9
5.02,15
5.04,12
5.06,5
5.08,6
5.1,8
5.12,6
5.14,6
5.16,8
5.18,9
5.2,13
5.22,10
5.24,3
5.26,11
5.28,5
5.3,5
5.32,1
5.34,4
5.36,4
5.38,5
5.4,4
5.42,2
5.44,3
5.46,4
5.48,3
5.5,4
5.52,1
5.54,3
5.56,2
5.58,0
5.6,0
5.62,0
5.64,0
5.66,0
5.68,0
5.7,0
5.72,0
5.74,1
5.76,0
5.78,1
5.8,1
5.82,1
5.84,3
5.86,3
5.88,1
5.9,2
5.92,1
5.94,3
5.96,7
5.98,2
6.,3
6.02,4
6.04,1
6.06,4
6.08,6
6.1,5
6.12,4
6.14,10
6.16,7
6.18,7
6.2,8
6.22,8
6.24,6
6.26,10
6.28,7
6.3,8
6.32,9
6.34,4
6.36,11
6.38,6
6.4,7
6.42,0
6.44,1
6.46,1
6.48,4
6.5,6
6.52,0
6.54,0
6.56,0
6.58,0
6.6,0
6.62,1
6.64,1
6.66,0
6.68,0
6.7,0
6.72,0
6.74,0
6.76,0
6.78,0
6.8,0
6.82,0
6.84,1
6.86,1
6.88,0
6.9,1
6.92,3
6.94,2
6.96,5
6.98,4
7.,6
7.02,4
7.04,4
7.06,7
7.08,3
7.1,5
7.12,13
7.14,7
7.16,8
7.18,12
7.2,12
7.22,12
7.24,12
7.26,8
7.28,2
7.3,3
7.32,7
7.34,0
7.36,4
7.38,6
7.4,2
7.42,1
7.44,2
7.46,1
7.48,1
7.5,1
7.52,0
7.54,0
7.56,1
7.58,0
7.6,0
7.62,1
7.64,0
7.66,0
7.68,0
7.7,0
7.72,1
7.74,0
7.76,0
7.78,1
7.8,0
7.82,1
7.84,0
7.86,1
7.88,2
7.9,1
7.92,4
7.94,2
7.96,9
7.98,4
8.,6
8.02,3
8.04,2
8.06,10
8.08,8
8.1,4
8.12,8
8.14,6
8.16,7
8.18,7
8.2,7
8.22,6
8.24,11
8.26,7
8.28,4
8.3,14
8.32,3
8.34,2
8.36,6
8.38,5
8.4,6
8.42,5
8.44,4
8.46,4
8.48,1
8.5,2
8.52,2
8.54,0
8.56,0
8.58,1
8.6,0
8.62,0
8.64,0
8.66,0
8.68,0
8.7,0
8.72,0
8.74,0
8.76,0
8.78,0
8.8,0
8.82,0
8.84,1
8.86,1
8.88,0
8.9,0
8.92,1
8.94,2
8.96,5
8.98,0
9.,2
9.02,7
9.04,4
9.06,7
9.08,8
9.1,14
9.12,10
9.14,5
9.16,3
9.18,4
9.2,7
9.22,4
9.24,5
9.26,8
9.28,6
9.3,5
9.32,3
9.34,0
9.36,5
9.38,3
9.4,2
9.42,3
9.44,4
9.46,0
9.48,2
9.5,1
9.52,0
9.54,1
9.56,0
9.58,0
9.6,0
9.62,0
9.64,1
9.66,0
9.68,0
9.7,0
9.72,1
9.74,1
9.76,1
9.78,0
9.8,0
9.82,1
9.84,2
9.86,4
9.88,0
9.9,1
9.92,2
9.94,3
9.96,0
9.98,2
10.,0
