t,s,e,i,r,c,o,n,reff,coal,reportr
5.,6248.,18.,9.,3725.,0.,0.,10000.,0.844098451482,2.43850663762,234.
5.02,6244.,17.,10.,3725.,0.,0.,9996.,0.843895613792,2.58132775984,221.
5.04,6235.,17.,15.,3727.,0.,0.,9994.,0.842847873416,2.57812290692,221.
5.06,6233.,19.,12.,3730.,0.,0.,9994.,0.842577513232,2.30600161516,247.
5.08,6227.,22.,11.,3733.,0.,0.,9993.,0.841850668288,1.98982885232,286.
5.1,6219.,25.,9.,3734.,0.,0.,9987.,0.841274237458,1.74985041391,325.
5.12,6225.,25.,9.,3732.,0.,0.,9991.,0.841748748726,1.75083739735,325.
5.14,6222.,20.,16.,3731.,0.,0.,9989.,0.841511540595,2.18793000555,260.
5.16,6218.,26.,18.,3727.,0.,0.,9989.,0.84097054957,1.68194109914,338.
5.18,6213.,27.,16.,3733.,0.,0.,9989.,0.840294310787,1.61834459855,351.
5.2,6208.,29.,19.,3734.,0.,0.,9990.,0.839534026152,1.50537135724,377.
5.22,6184.,38.,12.,3754.,0.,0.,9988.,0.836455863548,1.14462381328,494.
5.24,6179.,35.,8.,3766.,0.,0.,9988.,0.835779557061,1.24172962763,455.
5.26,6178.,25.,17.,3770.,0.,0.,9990.,0.835476999608,1.73779215919,325.
5.28,6167.,27.,16.,3782.,0.,0.,9992.,0.833822491779,1.60588035454,351.
5.3,6163.,27.,6.,3794.,0.,0.,9990.,0.833448486336,1.60516004776,351.
5.32,6163.,23.,8.,3794.,0.,0.,9988.,0.833615376301,1.88469563338,299.
5.34,6161.,18.,9.,3800.,0.,0.,9988.,0.833344853707,2.40744068849,234.
5.36,6160.,17.,13.,3799.,0.,0.,9989.,0.833126179696,2.54838596142,221.
5.38,6156.,13.,17.,3803.,0.,0.,9989.,0.83258518867,3.33034075468,169.
5.4,6154.,20.,6.,3811.,0.,0.,9991.,0.832148080267,2.16358500869,260.
5.42,6154.,12.,8.,3816.,0.,0.,9990.,0.832231378373,3.60633597295,156.
5.44,6161.,10.,8.,3815.,0.,0.,9994.,0.83284454661,4.33079164237,130.
5.46,6163.,8.,7.,3817.,0.,0.,9995.,0.833031553627,5.41470509857,104.
5.48,6172.,8.,1.,3815.,0.,0.,9996.,0.834164594543,5.42206986453,104.
5.5,6171.,7.,5.,3811.,0.,0.,9994.,0.83419634753,6.19688715308,91.
5.52,6173.,6.,2.,3808.,0.,0.,9989.,0.83488440053,7.23566480459,78.
5.54,6179.,4.,2.,3802.,0.,0.,9987.,0.835863243809,10.8662221695,52.
5.56,6184.,3.,3.,3798.,0.,0.,9988.,0.836455863548,14.4985683015,39.
5.58,6195.,3.,0.,3789.,0.,0.,9987.,0.838027641269,14.5258124487,39.
5.6,6208.,2.,1.,3776.,0.,0.,9987.,0.839786214204,21.8344415693,26.
5.62,6215.,1.,1.,3769.,0.,0.,9986.,0.840817329274,43.7225011223,13.
5.64,6222.,3.,1.,3763.,0.,0.,9989.,0.841511540595,14.586200037,39.
5.66,6228.,5.,1.,3757.,0.,0.,9991.,0.842154410774,8.75840587205,65.
5.68,6231.,2.,1.,3754.,0.,0.,9988.,0.842813144529,21.9131417578,26.
5.7,6243.,2.,1.,3744.,0.,0.,9990.,0.844267223787,21.9509478185,26.
5.72,6249.,0.,3.,3736.,0.,0.,9988.,0.845247847884,inf,0.
5.74,6256.,1.,0.,3736.,0.,0.,9993.,0.845771283252,43.9801067291,13.
5.76,6261.,0.,1.,3730.,0.,0.,9992.,0.846531963844,inf,0.
5.78,6265.,0.,0.,3720.,0.,0.,9985.,0.84766663416,inf,0.
5.8,6274.,1.,0.,3709.,0.,0.,9984.,0.848969376066,44.1464075554,13.
5.82,6285.,1.,1.,3699.,0.,0.,9986.,0.85028751641,44.2149508533,13.
5.84,6290.,3.,1.,3692.,0.,0.,9986.,0.850963958348,14.7500419447,39.
5.86,6292.,6.,2.,3686.,0.,0.,9986.,0.851234535124,7.37736597107,78.
5.88,6298.,7.,4.,3681.,0.,0.,9990.,0.851705105784,6.32695221439,91.
5.9,6297.,10.,3.,3678.,0.,0.,9988.,0.851740390162,4.42905002884,130.
5.92,6304.,9.,4.,3670.,0.,0.,9987.,0.85277259896,4.92713057177,117.
5.94,6307.,4.,8.,3669.,0.,0.,9988.,0.853093003137,11.0902090408,52.
5.96,6308.,11.,1.,3670.,0.,0.,9990.,0.853057447965,4.03263520856,143.
5.98,6316.,10.,3.,3665.,0.,0.,9994.,0.853797460865,4.4397467965,130.
6.,6318.,15.,3.,3659.,0.,0.,9995.,0.853982371542,2.96047222135,195.
6.02,6317.,20.,0.,3659.,0.,0.,9996.,0.853761786087,2.21978064383,260.
6.04,6316.,14.,12.,3654.,0.,0.,9996.,0.853626633042,3.17061320844,182.
6.06,6309.,21.,11.,3660.,0.,0.,10001.,0.852254264075,2.11034389199,273.
6.08,6302.,24.,14.,3662.,0.,0.,10002.,0.851223551903,1.84431769579,312.
6.1,6298.,30.,15.,3660.,0.,0.,10003.,0.850598221212,1.4743702501,390.
6.12,6295.,35.,9.,3668.,0.,0.,10007.,0.849853206482,1.26263904963,455.
6.14,6281.,30.,19.,3678.,0.,0.,10008.,0.847878415219,1.46965591971,390.
6.16,6279.,25.,16.,3684.,0.,0.,10004.,0.847947341047,1.76373046938,325.
6.18,6277.,31.,18.,3684.,0.,0.,10010.,0.847169152863,1.42105793383,403.
6.2,6273.,30.,15.,3694.,0.,0.,10012.,0.846460173872,1.46719763471,390.
6.22,6257.,29.,16.,3709.,0.,0.,10011.,0.844385518268,1.51407058448,377.
6.24,6246.,31.,11.,3720.,0.,0.,10008.,0.84315373053,1.4143223867,403.
6.26,6242.,27.,13.,3717.,0.,0.,9999.,0.843372194798,1.62427237517,351.
6.28,6233.,26.,12.,3727.,0.,0.,9998.,0.842240414807,1.68448082961,338.
6.3,6232.,28.,8.,3728.,0.,0.,9996.,0.842273777251,1.56422272918,364.
6.32,6238.,19.,17.,3723.,0.,0.,9997.,0.843000361752,2.30715888479,247.
6.34,6238.,22.,13.,3731.,0.,0.,10004.,0.842410497444,1.99115208487,286.
6.36,6235.,21.,9.,3741.,0.,0.,10006.,0.841837062454,2.08454891655,273.
6.38,6238.,15.,10.,3740.,0.,0.,10003.,0.842494713229,2.9206483392,195.
6.4,6240.,14.,4.,3743.,0.,0.,10001.,0.842933366275,3.13089536045,182.
6.42,6242.,8.,5.,3744.,0.,0.,9999.,0.843372194798,5.48191926619,104.
6.44,6242.,9.,6.,3744.,0.,0.,10001.,0.843203537225,4.87184265952,117.
6.46,6250.,8.,8.,3737.,0.,0.,10003.,0.844115414826,5.48675019637,104.
6.48,6257.,5.,5.,3735.,0.,0.,10002.,0.845145313275,8.78951125806,65.
6.5,6263.,6.,2.,3728.,0.,0.,9999.,0.846209557197,7.33381616237,78.
6.52,6274.,2.,0.,3724.,0.,0.,10000.,0.847611025064,22.0378866517,26.
6.54,6288.,2.,0.,3715.,0.,0.,10005.,0.849077871903,22.0760246695,26.
6.56,6301.,1.,2.,3702.,0.,0.,10006.,0.850748248681,44.2389089314,13.
6.58,6308.,2.,1.,3697.,0.,0.,10008.,0.85152317198,22.1396024715,26.
6.6,6317.,2.,0.,3692.,0.,0.,10011.,0.852482550567,22.1645463147,26.
6.62,6327.,1.,1.,3685.,0.,0.,10014.,0.853576264441,44.3859657509,13.
6.64,6333.,2.,0.,3680.,0.,0.,10015.,0.854300414493,22.2118107768,26.
6.66,6344.,2.,1.,3670.,0.,0.,10017.,0.855613411139,22.2459486896,26.
6.68,6352.,0.,3.,3661.,0.,0.,10016.,0.856777901167,inf,0.
6.7,6353.,1.,0.,3662.,0.,0.,10016.,0.856912784338,44.5594647856,13.
6.72,6364.,0.,1.,3653.,0.,0.,10018.,0.858225128385,inf,0.
6.74,6370.,0.,0.,3648.,0.,0.,10018.,0.859034265841,inf,0.
6.76,6374.,0.,1.,3642.,0.,0.,10017.,0.859659502301,inf,0.
6.78,6385.,1.,0.,3633.,0.,0.,10019.,0.860971167061,44.7705006872,13.
6.8,6396.,2.,0.,3621.,0.,0.,10019.,0.86245443767,22.4238153794,26.
6.82,6403.,0.,2.,3613.,0.,0.,10018.,0.863484521849,inf,0.
6.84,6413.,2.,1.,3601.,0.,0.,10017.,0.864919420813,22.4879049411,26.
6.86,6413.,3.,2.,3596.,0.,0.,10014.,0.865178533881,14.9964279206,39.
6.88,6420.,3.,1.,3594.,0.,0.,10018.,0.865777077975,15.0068026849,39.
6.9,6431.,6.,2.,3583.,0.,0.,10022.,0.86691435396,7.51325773432,78.
6.92,6435.,7.,5.,3577.,0.,0.,10024.,0.867280488302,6.44265505596,91.
6.94,6434.,8.,5.,3575.,0.,0.,10022.,0.867318761215,5.6375719479,104.
6.96,6430.,16.,5.,3569.,0.,0.,10020.,0.866952561432,2.81759582465,208.
6.98,6435.,15.,7.,3559.,0.,0.,10016.,0.867973204347,3.00897377507,195.
7.,6426.,17.,11.,3561.,0.,0.,10015.,0.866845801916,2.65152833527,221.
7.02,6421.,17.,10.,3565.,0.,0.,10013.,0.866344328073,2.64999441528,221.
7.04,6424.,14.,11.,3568.,0.,0.,10017.,0.866402987572,3.21806823955,182.
7.06,6424.,14.,12.,3566.,0.,0.,10016.,0.866489489468,3.21838953231,182.
7.08,6411.,26.,9.,3569.,0.,0.,10015.,0.864822352332,1.72964470466,338.
7.1,6406.,24.,15.,3566.,0.,0.,10011.,0.864493148477,1.87306848837,312.
7.12,6397.,24.,20.,3568.,0.,0.,10009.,0.863451094101,1.87081070388,312.
7.14,6393.,28.,14.,3576.,0.,0.,10011.,0.862738791479,1.60222918418,364.
7.16,6390.,31.,12.,3579.,0.,0.,10012.,0.862247809826,1.44635116487,403.
7.18,6386.,26.,15.,3590.,0.,0.,10017.,0.861277938766,1.72255587753,338.
7.2,6377.,30.,15.,3591.,0.,0.,10013.,0.86040769041,1.49137333004,390.
7.22,6371.,27.,20.,3594.,0.,0.,10012.,0.859684005697,1.65568771468,351.
7.24,6364.,29.,13.,3604.,0.,0.,10010.,0.858911022594,1.54011631637,377.
7.26,6366.,22.,16.,3609.,0.,0.,10013.,0.858923530994,2.03018289144,286.
7.28,6362.,31.,12.,3610.,0.,0.,10015.,0.858212417023,1.43958211888,403.
7.3,6362.,33.,8.,3610.,0.,0.,10013.,0.858383836661,1.35260483353,429.
7.32,6360.,26.,15.,3613.,0.,0.,10014.,0.858028298063,1.71605659613,338.
7.34,6356.,26.,10.,3623.,0.,0.,10015.,0.857403037189,1.71480607438,338.
7.36,6354.,12.,18.,3629.,0.,0.,10013.,0.857304447995,3.71498594131,156.
7.38,6353.,15.,3.,3643.,0.,0.,10014.,0.857083927295,2.97122428129,195.
7.4,6357.,9.,8.,3643.,0.,0.,10017.,0.857366717309,4.95367436668,117.
7.42,6370.,11.,1.,3637.,0.,0.,10019.,0.858948525322,4.06048393788,143.
7.44,6369.,10.,3.,3634.,0.,0.,10016.,0.859070915072,4.46716875837,130.
7.46,6372.,8.,1.,3633.,0.,0.,10014.,0.85964721938,5.58770692597,104.
7.48,6378.,5.,4.,3625.,0.,0.,10012.,0.860628565113,8.95053707717,65.
7.5,6383.,4.,3.,3623.,0.,0.,10013.,0.861217231909,11.1958240148,52.
7.52,6387.,2.,3.,3621.,0.,0.,10013.,0.861756926242,22.4056800823,26.
7.54,6396.,2.,2.,3615.,0.,0.,10015.,0.862798902747,22.4327714714,26.
7.56,6400.,1.,1.,3613.,0.,0.,10015.,0.863338489303,44.8936014438,13.
7.58,6411.,1.,1.,3605.,0.,0.,10018.,0.864563371791,44.9572953331,13.
7.6,6416.,1.,0.,3601.,0.,0.,10018.,0.865237653004,44.9923579562,13.
7.62,6428.,0.,2.,3591.,0.,0.,10021.,0.866596416113,inf,0.
7.64,6430.,1.,0.,3588.,0.,0.,10019.,0.867039092279,45.0860327985,13.
7.66,6436.,2.,0.,3582.,0.,0.,10020.,0.867761537383,22.561799972,26.
7.68,6441.,2.,1.,3573.,0.,0.,10017.,0.868695772564,22.5860900867,26.
7.7,6445.,0.,2.,3570.,0.,0.,10017.,0.869235251386,inf,0.
7.72,6445.,2.,0.,3567.,0.,0.,10014.,0.869495657393,22.6068870922,26.
7.74,6447.,1.,2.,3562.,0.,0.,10012.,0.869939222214,45.2368395551,13.
7.76,6449.,0.,2.,3558.,0.,0.,10009.,0.870469924317,inf,0.
7.78,6458.,0.,2.,3549.,0.,0.,10009.,0.871684721854,inf,0.
7.8,6470.,0.,0.,3542.,0.,0.,10012.,0.873042774581,inf,0.
7.82,6476.,1.,0.,3536.,0.,0.,10013.,0.873765125152,45.4357865079,13.
7.84,6478.,5.,0.,3531.,0.,0.,10014.,0.873947691015,9.08905598655,65.
7.86,6484.,5.,3.,3524.,0.,0.,10016.,0.874582479718,9.09565778907,65.
7.88,6488.,10.,2.,3516.,0.,0.,10016.,0.875122012401,4.55063446449,130.
7.9,6492.,11.,1.,3510.,0.,0.,10014.,0.875836432551,4.14031768115,143.
7.92,6502.,9.,3.,3499.,0.,0.,10013.,0.877273138316,5.06868924361,117.
7.94,6500.,13.,5.,3492.,0.,0.,10010.,0.877266129299,3.5090645172,169.
7.96,6495.,13.,8.,3491.,0.,0.,10007.,0.876854102637,3.50741641055,169.
7.98,6494.,10.,8.,3495.,0.,0.,10007.,0.876719098156,4.55893931041,130.
8.,6489.,17.,7.,3495.,0.,0.,10008.,0.875956541372,2.67939647949,221.
8.02,6487.,10.,8.,3505.,0.,0.,10010.,0.87551159704,4.55266030461,130.
8.04,6485.,17.,4.,3501.,0.,0.,10007.,0.875504057829,2.67801241218,221.
8.06,6484.,19.,9.,3497.,0.,0.,10009.,0.875194136962,2.39526816432,247.
8.08,6483.,19.,13.,3493.,0.,0.,10008.,0.875146595425,2.39513805064,247.
8.1,6476.,29.,10.,3496.,0.,0.,10011.,0.87393968616,1.56706426484,377.
8.12,6467.,25.,14.,3505.,0.,0.,10011.,0.872725131315,1.81526827313,325.
8.14,6465.,27.,8.,3509.,0.,0.,10009.,0.872629564383,1.68061990178,351.
8.16,6459.,31.,13.,3508.,0.,0.,10011.,0.871645527008,1.46211507756,403.
8.18,6452.,26.,14.,3520.,0.,0.,10012.,0.870613907511,1.74122781502,338.
8.2,6440.,35.,11.,3522.,0.,0.,10008.,0.869341982807,1.29159380303,455.
8.22,6443.,24.,17.,3528.,0.,0.,10012.,0.869399473977,1.88369886028,312.
8.24,6429.,32.,9.,3538.,0.,0.,10008.,0.867857081905,1.4102677581,416.
8.26,6429.,25.,10.,3546.,0.,0.,10010.,0.867683683887,1.80478206248,325.
8.28,6422.,23.,16.,3545.,0.,0.,10006.,0.867085423429,1.96036704427,299.
8.3,6416.,23.,14.,3553.,0.,0.,10006.,0.86627531559,1.95853549612,299.
8.32,6421.,20.,16.,3556.,0.,0.,10013.,0.866344328073,2.25249525299,260.
8.34,6420.,20.,10.,3566.,0.,0.,10016.,0.865949956784,2.25146988764,260.
8.36,6416.,19.,9.,3575.,0.,0.,10019.,0.865151293322,2.36778248699,247.
8.38,6418.,17.,6.,3577.,0.,0.,10018.,0.86550736549,2.64743429444,221.
8.4,6428.,13.,5.,3571.,0.,0.,10017.,0.866942466394,3.46776986557,169.
8.42,6436.,7.,8.,3569.,0.,0.,10020.,0.867761537383,6.44622856342,91.
8.44,6439.,7.,6.,3565.,0.,0.,10017.,0.868426033153,6.45116481771,91.
8.46,6445.,10.,1.,3564.,0.,0.,10020.,0.868975001311,4.51867000681,130.
8.48,6451.,7.,5.,3558.,0.,0.,10021.,0.869697181136,6.4606076313,91.
8.5,6466.,8.,2.,3548.,0.,0.,10024.,0.871458529504,5.66448044178,104.
8.52,6471.,1.,8.,3546.,0.,0.,10026.,0.871958432969,45.3418385144,13.
8.54,6481.,1.,0.,3545.,0.,0.,10027.,0.873218823909,45.4073788433,13.
8.56,6490.,0.,0.,3537.,0.,0.,10027.,0.874431440699,inf,0.
8.58,6494.,1.,0.,3528.,0.,0.,10023.,0.875319566522,45.5166174591,13.
8.6,6502.,1.,0.,3523.,0.,0.,10026.,0.87613564073,45.559053318,13.
8.62,6510.,4.,0.,3514.,0.,0.,10028.,0.877038676972,11.4015028006,52.
8.64,6521.,2.,0.,3507.,0.,0.,10030.,0.878345437777,22.8369813822,26.
8.66,6532.,1.,1.,3498.,0.,0.,10032.,0.879651677545,45.7418872324,13.
8.68,6539.,0.,1.,3491.,0.,0.,10031.,0.880682141163,inf,0.
8.7,6547.,0.,0.,3485.,0.,0.,10032.,0.881671698238,inf,0.
8.72,6554.,0.,0.,3477.,0.,0.,10031.,0.882702363234,inf,0.
8.74,6562.,1.,0.,3469.,0.,0.,10032.,0.88369171893,45.9519693844,13.
8.76,6567.,2.,0.,3462.,0.,0.,10031.,0.884453222361,22.9957837814,26.
8.78,6567.,3.,1.,3457.,0.,0.,10028.,0.884717817462,15.335108836,39.
8.8,6574.,2.,2.,3453.,0.,0.,10031.,0.885395992661,23.0202958092,26.
8.82,6575.,4.,1.,3449.,0.,0.,10029.,0.885707268144,11.5141944859,52.
8.84,6580.,4.,1.,3442.,0.,0.,10027.,0.886557608598,11.5252489118,52.
8.86,6586.,5.,2.,3435.,0.,0.,10028.,0.887277530958,9.22768632196,65.
8.88,6589.,4.,4.,3432.,0.,0.,10029.,0.887593184761,11.5387114019,52.
8.9,6592.,8.,3.,3430.,0.,0.,10033.,0.887643279127,5.76968131433,104.
8.92,6594.,9.,6.,3427.,0.,0.,10036.,0.887647170104,5.12862809393,117.
8.94,6593.,12.,6.,3428.,0.,0.,10039.,0.88724733632,3.84473845739,156.
8.96,6591.,9.,11.,3424.,0.,0.,10035.,0.887331741868,5.12680561968,117.
8.98,6603.,11.,5.,3421.,0.,0.,10040.,0.888504572481,4.20020343355,143.
9.,6604.,14.,5.,3415.,0.,0.,10038.,0.88881618824,3.30131727061,182.
9.02,6610.,12.,10.,3409.,0.,0.,10041.,0.889357916202,3.85388430354,156.
9.04,6602.,24.,10.,3410.,0.,0.,10046.,0.887839430407,1.92365209922,312.
9.06,6592.,24.,14.,3413.,0.,0.,10043.,0.886759436372,1.92131211214,312.
9.08,6583.,24.,15.,3417.,0.,0.,10039.,0.885901594873,1.91945345556,312.
9.1,6570.,29.,14.,3424.,0.,0.,10037.,0.884328309557,1.58569214127,377.
9.12,6564.,23.,19.,3427.,0.,0.,10033.,0.883872949665,1.99832145142,299.
9.14,6545.,32.,12.,3445.,0.,0.,10034.,0.881226678996,1.43199335337,416.
9.16,6546.,32.,10.,3450.,0.,0.,10038.,0.881010110269,1.43164142919,416.
9.18,6536.,33.,21.,3448.,0.,0.,10038.,0.879664234757,1.38613758204,429.
9.2,6523.,30.,17.,3466.,0.,0.,10036.,0.878089549679,1.52202188611,390.
9.22,6519.,31.,11.,3475.,0.,0.,10036.,0.877551092191,1.4720211869,403.
9.24,6518.,24.,8.,3488.,0.,0.,10038.,0.877241658835,1.90069026081,312.
9.26,6516.,21.,12.,3491.,0.,0.,10040.,0.876797788019,2.17111833224,273.
9.28,6509.,18.,14.,3500.,0.,0.,10041.,0.87576863488,2.52999827854,234.
9.3,6503.,23.,10.,3505.,0.,0.,10041.,0.874961350842,1.97817348886,299.
9.32,6505.,24.,7.,3505.,0.,0.,10041.,0.875230445521,1.89633263196,312.
9.34,6506.,20.,5.,3508.,0.,0.,10039.,0.875539385727,2.27640240289,260.
9.36,6515.,15.,7.,3507.,0.,0.,10044.,0.876314098155,3.0378888736,195.
9.38,6521.,14.,9.,3504.,0.,0.,10048.,0.876771968641,3.25658159781,182.
9.4,6521.,11.,3.,3517.,0.,0.,10052.,0.876423074105,4.14309089577,143.
9.42,6524.,9.,6.,3511.,0.,0.,10050.,0.877000767206,5.06711554386,117.
9.44,6530.,8.,2.,3511.,0.,0.,10051.,0.877719992981,5.70517995438,104.
9.46,6535.,6.,0.,3510.,0.,0.,10051.,0.878392060357,7.61273118976,78.
9.48,6540.,5.,2.,3504.,0.,0.,10051.,0.879064127733,9.14226692843,65.
9.5,6548.,5.,0.,3500.,0.,0.,10053.,0.879964335677,9.15162909104,65.
9.52,6552.,2.,4.,3494.,0.,0.,10052.,0.88058947731,22.8953264101,26.
9.54,6555.,1.,1.,3494.,0.,0.,10051.,0.881080329861,45.8161771528,13.
9.56,6556.,0.,1.,3492.,0.,0.,10049.,0.881390126906,inf,0.
9.58,6568.,0.,0.,3483.,0.,0.,10051.,0.882827705039,inf,0.
9.6,6575.,0.,0.,3478.,0.,0.,10053.,0.883592777501,inf,0.
9.62,6587.,0.,0.,3468.,0.,0.,10055.,0.885029345628,inf,0.
9.64,6593.,1.,0.,3463.,0.,0.,10057.,0.885659342679,46.0542858193,13.
9.66,6598.,1.,0.,3460.,0.,0.,10059.,0.886154782634,46.080048697,13.
9.68,6608.,1.,0.,3452.,0.,0.,10061.,0.887321424998,46.1407140999,13.
9.7,6616.,0.,1.,3442.,0.,0.,10059.,0.888572300986,inf,0.
9.72,6624.,0.,0.,3438.,0.,0.,10062.,0.889381504108,inf,0.
9.74,6623.,0.,0.,3433.,0.,0.,10056.,0.889777814687,inf,0.
9.76,6635.,0.,0.,3422.,0.,0.,10057.,0.891301340615,inf,0.
9.78,6642.,1.,0.,3415.,0.,0.,10058.,0.892152963953,46.3919541255,13.
9.8,6647.,2.,1.,3407.,0.,0.,10057.,0.892913340025,23.2157468407,26.
9.82,6655.,2.,1.,3397.,0.,0.,10055.,0.894165825892,23.2483114732,26.
9.84,6654.,6.,2.,3390.,0.,0.,10052.,0.894298287854,7.7505851614,78.
9.86,6659.,6.,6.,3382.,0.,0.,10053.,0.894881263175,7.75563761419,78.
9.88,6658.,11.,9.,3376.,0.,0.,10054.,0.894657882322,4.22929180734,143.
9.9,6660.,15.,5.,3379.,0.,0.,10059.,0.894481790291,3.10087020634,195.
9.92,6659.,9.,12.,3376.,0.,0.,10056.,0.894614293825,5.16888258654,117.
9.94,6650.,17.,7.,3386.,0.,0.,10060.,0.893049943355,2.73168217967,221.
9.96,6657.,16.,7.,3379.,0.,0.,10059.,0.894078870566,2.90575632934,208.
9.98,6659.,11.,7.,3381.,0.,0.,10058.,0.894436402734,4.22824481293,143.
10.,6660.,12.,8.,3378.,0.,0.,10058.,0.894570722663,3.87647313154,156.
