t,prevalence
5.,3
5.02,6
5.04,8
5.06,9
5.08,6
5.1,8
5.12,9
5.14,7
5.16,6
5.18,5
5.2,3
5.22,9
5.24,6
5.26,10
5.28,6
5.3,4
5.32,9
5.34,3
5.36,6
5.38,3
5.4,0
5.42,3
5.44,2
5.46,2
5.48,3
5.5,0
5.52,3
5.54,3
5.56,1
5.58,1
5.6,1
5.62,1
5.64,0
5.66,0
5.68,0
5.7,0
5.72,0
5.74,0
5.76,0
5.78,0
5.8,0
5.82,0
5.84,0
5.86,2
5.88,1
5.9,0
5.92,4
5.94,5
5.96,5
5.98,5
6.,6
6.02,5
6.04,10
6.06,7
6.08,11
6.1,9
6.12,6
6.14,10
6.16,8
6.18,7
6.2,4
6.22,19
6.24,6
6.26,11
6.28,1
6.3,2
6.32,8
6.34,6
6.36,6
6.38,5
6.4,8
6.42,4
6.44,4
6.46,3
6.48,5
6.5,1
6.52,1
6.54,1
6.56,0
6.58,1
6.6,0
6.62,0
6.64,0
6.66,0
6.68,0
6.7,0
6.72,0
6.74,0
6.76,0
6.78,0
6.8,0
6.82,0
6.84,0
6.86,0
6.88,0
6.9,0
6.92,2
6.94,1
6.96,5
6.98,2
7.,3
7.02,0
7.04,5
7.06,3
7.08,6
7.1,3
7.12,5
7.14,9
7.16,16
7.18,9
7.2,12
7.22,6
7.24,6
7.26,6
7.28,7
7.3,4
7.32,6
7.34,4
7.36,5
7.38,2
7.4,1
7.42,1
7.44,1
7.46,2
7.48,1
7.5,0
7.52,1
7.54,0
7.56,1
7.58,1
7.6,1
7.62,0
7.64,0
7.66,0
7.68,0
7.7,0
7.72,1
7.74,0
7.76,0
7.78,0
7.8,0
7.82,0
7.84,0
7.86,1
7.88,2
7.9,3
7.92,0
7.94,2
7.96,0
7.98,0
8.,2
8.02,6
8.04,2
8.06,3
8.08,11
8.1,8
8.12,11
8.14,10
8.16,6
8.18,3
8.2,3
8.22,2
8.24,3
8.26,5
8.28,8
8.3,4
8.32,6
8.34,5
8.36,4
8.38,3
8.4,0
8.42,1
8.44,1
8.46,2
8.48,1
8.5,0
8.52,4
8.54,3
8.56,0
8.58,2
8.6,0
8.62,0
8.64,0
8.66,0
8.68,1
8.7,1
8.72,2
8.74,0
8.76,0
8.78,0
8.8,0
8.82,0
8.84,0
8.86,1
8.88,1
8.9,1
8.92,2
8.94,2
8.96,2
8.98,5
9.,1
9.02,3
9.04,3
9.06,6
9.08,6
9.1,7
9.12,6
9.14,8
9.16,11
9.18,5
9.2,4
9.22,7
9.24,5
9.26,8
9.28,2
9.3,4
9.32,9
9.34,8
9.36,7
9.38,6
9.4,5
9.42,1
9.44,3
9.46,1
9.48,2
9.5,0
9.52,1
9.54,1
9.56,1
9.58,0
9.6,0
9.62,0
9.64,0
9.66,0
9.68,0
9.7,0
9.72,1
9.74,1
9.76,0
9.78,0
9.8,0
9.82,0
9.84,1
9.86,1
9.88,1
9.9,5
9.92,2
9.94,2
9.96,2
9.98,6
10.,4
