t,neff
5.,0.495049455323
5.02,0.519692681221
5.04,0.494893420363
5.06,0.371056891974
5.08,0.42087837105
5.1,0.545116402471
5.12,0.693996438234
5.14,0.842700857846
5.16,0.992956140523
5.18,0.769862293559
5.2,0.820370419421
5.22,0.894944163674
5.24,0.844792440025
5.26,0.870622689284
5.28,0.770242828741
5.3,0.694983940965
5.32,0.446405813487
5.34,0.595214326162
5.36,0.544714941657
5.38,0.44508800927
5.4,0.443903533127
5.42,0.270693080019
5.44,0.147275199744
5.46,0.196026628053
5.48,0.146752012405
5.5,0.0488332213623
5.52,0.0731757157487
5.54,0.0243354230198
5.56,0.0243158659572
5.58,0.0485193705724
5.6,0.0484561308763
5.62,0.0241940675873
5.64,0.0483010887594
5.66,0.0723215641325
5.68,0.0240663559165
5.7,0.0240232862797
5.72,0.
5.74,0.
5.76,0.
5.78,0.
5.8,0.
5.82,0.0473216455247
5.84,0.141965492309
5.86,0.212574381292
5.88,0.188789333643
5.9,0.141452554608
5.92,0.164643161817
5.94,0.234679694446
5.96,0.257974457426
5.98,0.234249480892
6.,0.304408123032
6.02,0.444898894787
6.04,0.304286566429
6.06,0.397913202254
6.08,0.514943398013
6.1,0.608276679749
6.12,0.795990119892
6.14,0.632236008498
6.16,0.77289170809
6.18,0.821160222376
6.2,0.68046156185
6.22,0.91831890709
6.24,0.754369710537
6.26,0.825334987437
6.28,0.778176541896
6.3,0.543054452191
6.32,0.542736814571
6.34,0.495156147017
6.36,0.353370645905
6.38,0.258686488731
6.4,0.329012713894
6.42,0.375799591184
6.44,0.211060854685
6.46,0.187390779118
6.48,0.163712496144
6.5,0.186829830569
6.52,0.139880427661
6.54,0.0930214279256
6.56,0.0929150575087
6.58,0.162322430679
6.6,0.11558959483
6.62,0.0230688729712
6.64,0.023059469214
6.66,0.0230243577269
6.68,0.0229852031075
6.7,0.
6.72,0.0228897754528
6.74,0.0228549507287
6.76,0.0456591386194
6.78,0.0227974469511
6.8,0.0227417703006
6.82,0.0227093718932
6.84,0.0453166983034
6.86,0.112996990739
6.88,0.112869094216
6.9,0.0676533774087
6.92,0.225382327094
6.94,0.247484412877
6.96,0.202111574827
6.98,0.202056748849
7.,0.31427479122
7.02,0.381799084068
7.04,0.516832320843
7.06,0.449085826642
7.08,0.449431755376
7.1,0.65271908369
7.12,0.81149996287
7.14,0.65443050986
7.16,0.723001257507
7.18,0.700738727385
7.2,0.632736124523
7.22,0.565322897044
7.24,0.610541061187
7.26,0.746635135547
7.28,0.542649084466
7.3,0.656616568934
7.32,0.520622035957
7.34,0.5666350476
7.36,0.430884615557
7.38,0.362447319512
7.4,0.407717597593
7.42,0.339316207178
7.44,0.293795899165
7.46,0.225757791023
7.48,0.157869493055
7.5,0.134937668206
7.52,0.0898248768803
7.54,0.0896827593232
7.56,0.044770531272
7.58,0.
7.6,0.
7.62,0.
7.64,0.
7.66,0.0221950988797
7.68,0.0221751470166
7.7,0.0885944884776
7.72,0.0221401640998
7.74,0.0441995541605
7.76,0.0441395427266
7.78,0.0661238597836
7.8,0.0220012551986
7.82,0.109993379321
7.84,0.109815815316
7.86,0.109772055278
7.88,0.131644113573
7.9,0.241085444673
7.92,0.219115130776
7.94,0.240963476015
7.96,0.306594796619
7.98,0.197029057027
8.,0.262536921344
8.02,0.37249572232
8.04,0.305894805706
8.06,0.480943160545
8.08,0.546526318801
8.1,0.590259502194
8.12,0.567850333865
8.14,0.590222847123
8.16,0.877380992542
8.18,0.702993577949
8.2,0.638268245384
8.22,0.770860876237
8.24,0.594399316455
8.26,0.661940547526
8.28,0.817285900265
8.3,0.618548192689
8.32,0.66294955386
8.34,0.48562342599
8.36,0.419103820615
8.38,0.264697149863
8.4,0.220478732924
8.42,0.176176163468
8.44,0.220144046688
8.46,0.263981078998
8.48,0.175636750018
8.5,0.0877269934497
8.52,0.0218925224237
8.54,0.
8.56,0.0218315940273
8.58,0.0217645131641
8.6,0.0217315479941
8.62,0.0216982530058
8.64,0.
8.66,0.
8.68,0.0216211744591
8.7,0.
8.72,0.021552359963
8.74,0.
8.76,0.
8.78,0.
8.8,0.0214350633323
8.82,0.0856796166577
8.84,0.0855454370738
8.86,0.0854568977799
8.88,0.128082274207
8.9,0.192142541392
8.92,0.17080121514
8.94,0.256362747205
8.96,0.213668392258
8.98,0.384379227445
9.,0.363216699506
9.02,0.384883165175
9.04,0.406091166535
9.06,0.66372468489
9.08,0.535504237008
9.1,0.514891293295
9.12,0.687563424264
9.14,0.753491289226
9.16,0.753775105499
9.18,0.732254353208
9.2,0.75405902259
9.22,0.798566522603
9.24,0.561099028527
9.26,0.583476606105
9.28,0.540919460933
9.3,0.519065315697
9.32,0.389429920558
9.34,0.411399594503
9.36,0.346283557931
9.38,0.346036389082
9.4,0.237528519782
9.42,0.280415880407
9.44,0.237069150319
9.46,0.258830616587
9.48,0.0862376151173
9.5,0.194034634014
9.52,0.150778573136
9.54,0.0860253758293
9.56,0.0429560363846
9.58,0.021443847755
9.6,0.0642520374737
9.62,0.
9.64,0.
9.66,0.
9.68,0.0426562245019
9.7,0.
9.72,0.0212799613894
9.74,0.
9.76,0.
9.78,0.
9.8,0.0211395720606
9.82,0.
9.84,0.0842497885803
9.86,0.063146532794
9.88,0.147381872076
9.9,0.252522955441
9.92,0.210138314475
9.94,0.230911738075
9.96,0.398826846349
9.98,0.314559190437
10.,0.29353772228
