t,s,e,i,r,c,o,n,reff,coal,reportr
5.,6122.,19.,10.,3849.,0.,0.,10000.,0.854530178746,2.33871417341,247.
5.02,6118.,16.,16.,3848.,0.,0.,9998.,0.854142673286,2.77596368818,208.
5.04,6110.,25.,8.,3852.,0.,0.,9995.,0.853281817671,1.77482618076,325.
5.06,6103.,22.,9.,3857.,0.,0.,9991.,0.852645473198,2.01534384574,286.
5.08,6099.,25.,7.,3861.,0.,0.,9992.,0.852001359365,1.77216282748,325.
5.1,6108.,25.,11.,3855.,0.,0.,9999.,0.852661275893,1.77353545386,325.
5.12,6094.,30.,12.,3862.,0.,0.,9998.,0.850791999184,1.47470613192,390.
5.14,6098.,26.,17.,3861.,0.,0.,10002.,0.851009972784,1.70201994557,338.
5.16,6088.,32.,12.,3866.,0.,0.,9998.,0.849954330658,1.38117578732,416.
5.18,6078.,25.,20.,3872.,0.,0.,9995.,0.848812911261,1.76553085542,325.
5.2,6066.,32.,10.,3888.,0.,0.,9996.,0.847052323751,1.3764600261,416.
5.22,6068.,24.,16.,3885.,0.,0.,9993.,0.847585980005,1.83643629001,312.
5.24,6057.,29.,5.,3902.,0.,0.,9993.,0.846049485974,1.51705425071,377.
5.26,6057.,25.,9.,3903.,0.,0.,9994.,0.845964830232,1.75960684688,325.
5.28,6063.,24.,17.,3889.,0.,0.,9993.,0.846887573627,1.83492307619,312.
5.3,6065.,25.,11.,3893.,0.,0.,9994.,0.847082168624,1.76193091074,325.
5.32,6058.,21.,14.,3899.,0.,0.,9992.,0.846273853916,2.09553525732,273.
5.34,6051.,28.,15.,3900.,0.,0.,9994.,0.845126826438,1.5695212491,364.
5.36,6049.,20.,15.,3912.,0.,0.,9996.,0.844678454727,2.19616398229,260.
5.38,6052.,16.,12.,3914.,0.,0.,9994.,0.845266493737,2.74711610465,208.
5.4,6052.,18.,5.,3919.,0.,0.,9994.,0.845266493737,2.44188098191,234.
5.42,6051.,12.,9.,3920.,0.,0.,9992.,0.845295987132,3.66294927757,156.
5.44,6052.,14.,5.,3917.,0.,0.,9988.,0.845774262956,3.14144726241,182.
5.46,6058.,9.,9.,3911.,0.,0.,9987.,0.846697541637,4.89203024057,117.
5.48,6060.,8.,3.,3915.,0.,0.,9986.,0.847061888474,5.50590227508,104.
5.5,6073.,6.,5.,3903.,0.,0.,9987.,0.848794019538,7.35621483599,78.
5.52,6080.,5.,0.,3902.,0.,0.,9987.,0.849772375892,8.83763270927,65.
5.54,6089.,1.,0.,3899.,0.,0.,9989.,0.850859869147,44.2447131956,13.
5.56,6101.,1.,0.,3885.,0.,0.,9987.,0.852707444953,44.3407871376,13.
5.58,6105.,1.,1.,3877.,0.,0.,9984.,0.853522895903,44.3831905869,13.
5.6,6120.,0.,2.,3866.,0.,0.,9988.,0.855277344563,inf,0.
5.62,6127.,0.,1.,3862.,0.,0.,9990.,0.85608418042,inf,0.
5.64,6139.,0.,0.,3850.,0.,0.,9989.,0.857846729626,inf,0.
5.66,6147.,0.,0.,3842.,0.,0.,9989.,0.858964627303,inf,0.
5.68,6159.,0.,0.,3832.,0.,0.,9991.,0.860469190468,inf,0.
5.7,6170.,0.,0.,3822.,0.,0.,9992.,0.86191972246,inf,0.
5.72,6178.,1.,0.,3812.,0.,0.,9991.,0.86312366597,44.8824306305,13.
5.74,6181.,0.,2.,3805.,0.,0.,9988.,0.863802167768,inf,0.
5.76,6186.,0.,1.,3799.,0.,0.,9986.,0.864674066353,inf,0.
5.78,6195.,0.,0.,3786.,0.,0.,9981.,0.8663658693,inf,0.
5.8,6208.,0.,0.,3774.,0.,0.,9982.,0.868096934112,inf,0.
5.82,6213.,2.,1.,3764.,0.,0.,9980.,0.868970217559,22.5932256565,26.
5.84,6221.,3.,2.,3755.,0.,0.,9981.,0.870001948816,15.0800337795,39.
5.86,6223.,6.,1.,3752.,0.,0.,9982.,0.870194462142,7.54168533856,78.
5.88,6227.,5.,4.,3746.,0.,0.,9982.,0.87075380295,9.05583955068,65.
5.9,6225.,11.,5.,3738.,0.,0.,9979.,0.870735824339,4.11620571506,143.
5.92,6232.,10.,8.,3725.,0.,0.,9975.,0.87206452491,4.53473552953,130.
5.94,6237.,9.,7.,3721.,0.,0.,9974.,0.8728516955,5.04314312955,117.
5.96,6231.,13.,6.,3725.,0.,0.,9975.,0.871924591578,3.48769836631,169.
5.98,6228.,10.,6.,3729.,0.,0.,9973.,0.871679564427,4.53273373502,130.
6.,6230.,15.,4.,3726.,0.,0.,9975.,0.871784658246,3.02218681525,195.
6.02,6226.,17.,6.,3724.,0.,0.,9973.,0.871399641639,2.66545772736,221.
6.04,6219.,19.,4.,3731.,0.,0.,9973.,0.870419911878,2.38220186409,247.
6.06,6220.,19.,8.,3723.,0.,0.,9970.,0.870821827096,2.38330184258,247.
6.08,6224.,20.,9.,3718.,0.,0.,9971.,0.871294449512,2.26536556873,260.
6.1,6222.,25.,9.,3716.,0.,0.,9972.,0.87092712456,1.81152841909,325.
6.12,6219.,28.,9.,3718.,0.,0.,9974.,0.870332642987,1.61633205126,364.
6.14,6210.,24.,15.,3726.,0.,0.,9975.,0.868985991607,1.88280298181,312.
6.16,6210.,19.,16.,3732.,0.,0.,9977.,0.868811793753,2.37780069869,247.
6.18,6194.,31.,11.,3740.,0.,0.,9976.,0.866660175069,1.45375255173,403.
6.2,6189.,21.,18.,3747.,0.,0.,9975.,0.866047391635,2.1444983031,273.
6.22,6186.,27.,13.,3753.,0.,0.,9979.,0.865280611945,1.66646636375,351.
6.24,6178.,24.,16.,3758.,0.,0.,9976.,0.86442146619,1.87291317674,312.
6.26,6174.,24.,13.,3765.,0.,0.,9976.,0.86386178897,1.87170054277,312.
6.28,6171.,20.,14.,3773.,0.,0.,9978.,0.863268961896,2.24449930093,260.
6.3,6160.,26.,17.,3776.,0.,0.,9979.,0.861643803683,1.72328760737,338.
6.32,6163.,21.,11.,3786.,0.,0.,9981.,0.861890694511,2.13420552926,273.
6.34,6166.,15.,12.,3789.,0.,0.,9982.,0.862223855627,2.98904269951,195.
6.36,6161.,13.,11.,3794.,0.,0.,9979.,0.861783680924,3.44713472369,169.
6.38,6165.,13.,8.,3792.,0.,0.,9978.,0.86242961434,3.44971845736,169.
6.4,6170.,11.,7.,3791.,0.,0.,9979.,0.863042576091,4.07983763243,143.
6.42,6174.,6.,7.,3795.,0.,0.,9982.,0.863342537243,7.48230198944,78.
6.44,6180.,7.,4.,3793.,0.,0.,9984.,0.864008435164,6.41834837551,91.
6.46,6181.,7.,2.,3791.,0.,0.,9981.,0.864407980329,6.4213164253,91.
6.48,6188.,3.,0.,3791.,0.,0.,9982.,0.865300230071,14.9985373212,39.
6.5,6196.,3.,1.,3783.,0.,0.,9983.,0.866332122254,15.0164234524,39.
6.52,6209.,1.,2.,3771.,0.,0.,9983.,0.868149797785,45.1437894848,13.
6.54,6213.,2.,3.,3761.,0.,0.,9979.,0.869057297448,22.5954897337,26.
6.56,6220.,1.,2.,3758.,0.,0.,9981.,0.869862099603,45.2328291794,13.
6.58,6227.,2.,0.,3752.,0.,0.,9981.,0.870841044089,22.6418671463,26.
6.6,6236.,1.,1.,3743.,0.,0.,9981.,0.872099686998,45.3491837239,13.
6.62,6242.,0.,3.,3734.,0.,0.,9979.,0.873113737433,inf,0.
6.64,6245.,0.,1.,3734.,0.,0.,9980.,0.873445840762,inf,0.
6.66,6256.,1.,1.,3726.,0.,0.,9984.,0.874633781616,45.480956644,13.
6.68,6264.,0.,2.,3718.,0.,0.,9984.,0.875752239138,inf,0.
6.7,6270.,1.,0.,3712.,0.,0.,9983.,0.876678890661,45.5873023144,13.
6.72,6277.,0.,1.,3704.,0.,0.,9982.,0.877745563051,inf,0.
6.74,6287.,0.,0.,3696.,0.,0.,9983.,0.879055850971,inf,0.
6.76,6291.,0.,0.,3693.,0.,0.,9984.,0.879527033272,inf,0.
6.78,6298.,2.,0.,3685.,0.,0.,9985.,0.88041750076,22.8908550198,26.
6.8,6309.,2.,0.,3673.,0.,0.,9984.,0.882043562695,22.9331326301,26.
6.82,6314.,2.,0.,3668.,0.,0.,9984.,0.882742598645,22.9513075648,26.
6.84,6318.,3.,0.,3664.,0.,0.,9985.,0.883213364529,15.3090316518,39.
6.86,6327.,3.,0.,3657.,0.,0.,9987.,0.884294378662,15.3277692301,39.
6.88,6332.,4.,0.,3652.,0.,0.,9988.,0.884904598982,11.5037597868,52.
6.9,6330.,5.,3.,3649.,0.,0.,9987.,0.884713674242,9.20102221212,65.
6.92,6332.,11.,3.,3639.,0.,0.,9985.,0.885170469167,4.18444221788,143.
6.94,6342.,11.,5.,3628.,0.,0.,9986.,0.886479619918,4.19063093052,143.
6.96,6341.,14.,8.,3625.,0.,0.,9988.,0.886162359783,3.29146019348,182.
6.98,6330.,15.,11.,3631.,0.,0.,9987.,0.884713674242,3.06700740404,195.
7.,6329.,17.,10.,3631.,0.,0.,9987.,0.884573909049,2.7057554865,221.
7.02,6323.,22.,15.,3629.,0.,0.,9989.,0.883558376189,2.08841070736,286.
7.04,6317.,26.,9.,3639.,0.,0.,9991.,0.882543249908,1.76508649982,338.
7.06,6308.,28.,12.,3640.,0.,0.,9988.,0.88155057018,1.63716534462,364.
7.08,6309.,22.,18.,3645.,0.,0.,9994.,0.881160989588,2.08274415721,286.
7.1,6305.,23.,12.,3654.,0.,0.,9994.,0.880602320392,1.99092698523,299.
7.12,6295.,29.,13.,3654.,0.,0.,9991.,0.879469646695,1.57698005614,377.
7.14,6289.,28.,12.,3664.,0.,0.,9993.,0.878455541901,1.63141743496,364.
7.16,6277.,36.,15.,3666.,0.,0.,9994.,0.876691636019,1.26633236314,468.
7.18,6272.,33.,15.,3674.,0.,0.,9994.,0.875993299524,1.38035307804,429.
7.2,6264.,35.,14.,3680.,0.,0.,9993.,0.874963510012,1.2999457863,455.
7.22,6268.,26.,12.,3690.,0.,0.,9996.,0.875259473339,1.75051894668,338.
7.24,6267.,25.,12.,3692.,0.,0.,9996.,0.875119833984,1.82024925469,325.
7.26,6268.,25.,12.,3691.,0.,0.,9996.,0.875259473339,1.82053970454,325.
7.28,6261.,29.,9.,3698.,0.,0.,9997.,0.874194543422,1.56752125027,377.
7.3,6257.,24.,16.,3700.,0.,0.,9997.,0.873636041877,1.89287809073,312.
7.32,6250.,20.,13.,3709.,0.,0.,9992.,0.873095342848,2.2700478914,260.
7.34,6235.,22.,11.,3721.,0.,0.,9989.,0.871261501746,2.05934536776,286.
7.36,6237.,20.,12.,3721.,0.,0.,9990.,0.871453734826,2.26577971055,260.
7.38,6244.,15.,8.,3725.,0.,0.,9992.,0.872257171319,3.02382486057,195.
7.4,6246.,11.,6.,3731.,0.,0.,9994.,0.872361949749,4.12389285336,143.
7.42,6252.,13.,7.,3725.,0.,0.,9997.,0.872937914946,3.49175165978,169.
7.44,6255.,11.,3.,3727.,0.,0.,9996.,0.873444161732,4.12900876455,143.
7.46,6256.,11.,4.,3722.,0.,0.,9993.,0.873846059808,4.13090864636,143.
7.48,6271.,5.,6.,3716.,0.,0.,9998.,0.87550322069,9.10523349517,65.
7.5,6283.,4.,1.,3713.,0.,0.,10001.,0.876915430486,11.3999005963,52.
7.52,6293.,5.,0.,3705.,0.,0.,10003.,0.878135516361,9.13260937015,65.
7.54,6304.,4.,1.,3695.,0.,0.,10004.,0.879582542484,11.4345730523,52.
7.56,6305.,2.,1.,3693.,0.,0.,10001.,0.879985960404,22.8796349705,26.
7.58,6318.,2.,0.,3684.,0.,0.,10004.,0.88153593011,22.9199341829,26.
7.6,6328.,1.,1.,3676.,0.,0.,10006.,0.882754726633,45.9032457849,13.
7.62,6337.,1.,0.,3668.,0.,0.,10006.,0.884010224822,45.9685316907,13.
7.64,6349.,2.,0.,3660.,0.,0.,10011.,0.885241866887,23.0162885391,26.
7.66,6361.,2.,1.,3644.,0.,0.,10008.,0.887180890212,23.0667031455,26.
7.68,6373.,1.,1.,3636.,0.,0.,10011.,0.888588189899,46.2065858748,13.
7.7,6377.,2.,1.,3633.,0.,0.,10013.,0.888968312097,23.1131761145,26.
7.72,6378.,1.,1.,3630.,0.,0.,10010.,0.889374180221,46.2474573715,13.
7.74,6388.,1.,1.,3623.,0.,0.,10013.,0.890501737129,46.3060903307,13.
7.76,6391.,1.,0.,3620.,0.,0.,10012.,0.891008929169,46.3324643168,13.
7.78,6402.,1.,1.,3609.,0.,0.,10013.,0.892453368989,46.4075751874,13.
7.8,6405.,2.,0.,3603.,0.,0.,10010.,0.893139169695,23.2216184121,26.
7.82,6418.,3.,1.,3592.,0.,0.,10014.,0.8945944621,15.5063040097,39.
7.84,6423.,2.,4.,3585.,0.,0.,10014.,0.895291403875,23.2775765008,26.
7.86,6428.,6.,2.,3583.,0.,0.,10019.,0.895541201052,7.76135707578,78.
7.88,6433.,5.,5.,3578.,0.,0.,10021.,0.896058923089,9.31901280012,65.
7.9,6428.,10.,4.,3579.,0.,0.,10021.,0.895362468151,4.65588483438,130.
7.92,6435.,10.,1.,3577.,0.,0.,10023.,0.896158648932,4.66002497445,130.
7.94,6445.,8.,1.,3571.,0.,0.,10025.,0.897372218265,5.83291941872,104.
7.96,6445.,9.,4.,3564.,0.,0.,10022.,0.897640838965,5.1863692918,117.
7.98,6450.,10.,8.,3557.,0.,0.,10025.,0.898068395316,4.66995565564,130.
8.,6449.,13.,7.,3556.,0.,0.,10025.,0.897929159906,3.59171663962,169.
8.02,6449.,18.,5.,3555.,0.,0.,10027.,0.89775005765,2.59350016654,234.
8.04,6453.,15.,17.,3539.,0.,0.,10024.,0.898575735036,3.11506254812,195.
8.06,6444.,24.,14.,3542.,0.,0.,10024.,0.897322491333,1.94419873122,312.
8.08,6440.,27.,12.,3544.,0.,0.,10023.,0.896854964898,1.72727622869,351.
8.1,6442.,21.,16.,3547.,0.,0.,10026.,0.896865049187,2.22080869323,273.
8.12,6435.,21.,14.,3554.,0.,0.,10024.,0.89606924763,2.21883813699,273.
8.14,6428.,24.,11.,3562.,0.,0.,10025.,0.895005216293,1.93917796863,312.
8.16,6425.,24.,7.,3568.,0.,0.,10024.,0.894676754627,1.93846630169,312.
8.18,6414.,26.,11.,3574.,0.,0.,10025.,0.893055920551,1.7861118411,338.
8.2,6397.,33.,14.,3579.,0.,0.,10023.,0.890866647586,1.40378986892,429.
8.22,6397.,32.,13.,3579.,0.,0.,10021.,0.891044447536,1.44794722725,416.
8.24,6405.,25.,14.,3578.,0.,0.,10022.,0.892069755403,1.85550509124,325.
8.26,6399.,25.,13.,3585.,0.,0.,10022.,0.891234092869,1.85376691317,325.
8.28,6396.,24.,10.,3589.,0.,0.,10019.,0.891082999678,1.93067983263,312.
8.3,6394.,22.,8.,3594.,0.,0.,10018.,0.890893282471,2.10574775857,286.
8.32,6396.,20.,9.,3591.,0.,0.,10016.,0.891349897541,2.31750973361,260.
8.34,6399.,15.,11.,3591.,0.,0.,10016.,0.891767979106,3.09146232757,195.
8.36,6397.,19.,8.,3594.,0.,0.,10018.,0.891311280571,2.43937824156,247.
8.38,6403.,17.,5.,3594.,0.,0.,10019.,0.892058231228,2.72864870729,221.
8.4,6407.,11.,7.,3594.,0.,0.,10019.,0.8926155064,4.21963693935,143.
8.42,6414.,10.,3.,3593.,0.,0.,10020.,0.893501557238,4.64620809764,130.
8.44,6413.,10.,3.,3592.,0.,0.,10018.,0.893540603767,4.64641113959,130.
8.46,6419.,11.,4.,3584.,0.,0.,10018.,0.894376599966,4.22796210893,143.
8.48,6428.,5.,2.,3586.,0.,0.,10021.,0.895362468151,9.31176966877,65.
8.5,6438.,3.,2.,3578.,0.,0.,10021.,0.896755378026,15.5437598858,39.
8.52,6448.,1.,1.,3575.,0.,0.,10025.,0.897789924496,46.6850760738,13.
8.54,6452.,0.,1.,3570.,0.,0.,10023.,0.898526123218,inf,0.
8.56,6461.,0.,0.,3562.,0.,0.,10023.,0.899779491958,inf,0.
8.58,6474.,0.,0.,3551.,0.,0.,10025.,0.901410045159,inf,0.
8.6,6482.,0.,0.,3547.,0.,0.,10029.,0.902163962769,inf,0.
8.62,6493.,1.,1.,3536.,0.,0.,10031.,0.903514760987,46.9827675713,13.
8.64,6504.,0.,1.,3522.,0.,0.,10027.,0.905406477741,inf,0.
8.66,6507.,0.,0.,3514.,0.,0.,10021.,0.906366456169,inf,0.
8.68,6517.,0.,0.,3504.,0.,0.,10021.,0.907759366045,inf,0.
8.7,6521.,0.,1.,3498.,0.,0.,10020.,0.908407180348,inf,0.
8.72,6525.,1.,0.,3493.,0.,0.,10019.,0.909055123967,47.2708664463,13.
8.74,6529.,0.,1.,3485.,0.,0.,10015.,0.909975699149,inf,0.
8.76,6536.,0.,1.,3477.,0.,0.,10014.,0.911042287985,inf,0.
8.78,6538.,2.,0.,3473.,0.,0.,10013.,0.911412078483,23.6967140406,26.
8.8,6538.,4.,2.,3466.,0.,0.,10010.,0.911685228957,11.8519079764,52.
8.82,6545.,7.,1.,3457.,0.,0.,10010.,0.912661337339,6.77976993452,91.
8.84,6551.,6.,2.,3454.,0.,0.,10013.,0.913224308067,7.91461066992,78.
8.86,6553.,7.,4.,3448.,0.,0.,10012.,0.913594353441,6.78670091128,91.
8.88,6558.,7.,7.,3442.,0.,0.,10014.,0.914108831794,6.79052275047,91.
8.9,6564.,10.,7.,3436.,0.,0.,10017.,0.914671144205,4.75628994987,130.
8.92,6566.,7.,7.,3440.,0.,0.,10020.,0.914675900347,6.79473525972,91.
8.94,6563.,11.,5.,3440.,0.,0.,10019.,0.914349238099,4.32237821647,143.
8.96,6563.,10.,12.,3433.,0.,0.,10018.,0.914440508736,4.75509064543,130.
8.98,6557.,19.,7.,3433.,0.,0.,10016.,0.913786941553,2.50089057688,247.
9.,6555.,16.,8.,3433.,0.,0.,10012.,0.91387318584,2.97008785398,208.
9.02,6550.,18.,12.,3430.,0.,0.,10010.,0.913358557612,2.63859138866,234.
9.04,6549.,17.,11.,3432.,0.,0.,10009.,0.913310353353,2.79365519849,221.
9.06,6528.,25.,14.,3439.,0.,0.,10006.,0.910654686387,1.89416174769,325.
9.08,6521.,27.,11.,3446.,0.,0.,10005.,0.909769110153,1.75214791585,351.
9.1,6518.,28.,12.,3451.,0.,0.,10009.,0.908987155772,1.68811900358,364.
9.12,6511.,26.,20.,3450.,0.,0.,10007.,0.908192425024,1.81638485005,338.
9.14,6496.,28.,20.,3462.,0.,0.,10006.,0.906190692826,1.68292557239,364.
9.16,6489.,33.,17.,3466.,0.,0.,10005.,0.905304670416,1.42654069278,429.
9.18,6482.,35.,11.,3476.,0.,0.,10004.,0.904418470873,1.34370744244,455.
9.2,6478.,33.,16.,3480.,0.,0.,10007.,0.903589391692,1.42383782933,429.
9.22,6468.,33.,15.,3488.,0.,0.,10004.,0.902465083247,1.42206619178,429.
9.24,6467.,25.,13.,3496.,0.,0.,10001.,0.902596226159,1.87740015041,325.
9.26,6463.,25.,13.,3503.,0.,0.,10004.,0.901767444809,1.8756762852,325.
9.28,6457.,24.,18.,3506.,0.,0.,10005.,0.900840230679,1.95182049981,312.
9.3,6452.,24.,17.,3511.,0.,0.,10004.,0.900232640245,1.95050405386,312.
9.32,6453.,20.,17.,3514.,0.,0.,10004.,0.900372167933,2.34096763663,260.
9.34,6458.,18.,13.,3518.,0.,0.,10007.,0.900799674521,2.60231017084,234.
9.36,6458.,16.,6.,3528.,0.,0.,10008.,0.90070966656,2.92730641632,208.
9.38,6466.,17.,4.,3525.,0.,0.,10012.,0.90146514411,2.75742279375,221.
9.4,6477.,10.,6.,3519.,0.,0.,10012.,0.902998722301,4.69559335597,130.
9.42,6474.,11.,4.,3524.,0.,0.,10013.,0.902490332839,4.26631793706,143.
9.44,6478.,13.,1.,3525.,0.,0.,10017.,0.902687335796,3.61074934318,169.
9.46,6481.,13.,8.,3518.,0.,0.,10020.,0.902834984793,3.61133993917,169.
9.48,6488.,3.,10.,3520.,0.,0.,10021.,0.903719927405,15.6644787417,39.
9.5,6496.,3.,3.,3524.,0.,0.,10026.,0.904383011412,15.6759721978,39.
9.52,6506.,2.,1.,3519.,0.,0.,10028.,0.905594577412,23.5454590127,26.
9.54,6508.,3.,1.,3516.,0.,0.,10028.,0.905872964924,15.7017980587,39.
9.56,6514.,3.,0.,3510.,0.,0.,10027.,0.906798554122,15.7178416048,39.
9.58,6523.,1.,1.,3503.,0.,0.,10028.,0.907960871266,47.2139653058,13.
9.6,6527.,2.,0.,3498.,0.,0.,10027.,0.908608253416,23.6238145888,26.
9.62,6538.,2.,0.,3492.,0.,0.,10032.,0.909685919244,23.6518339003,26.
9.64,6546.,1.,1.,3483.,0.,0.,10031.,0.910889823721,47.3662708335,13.
9.66,6549.,1.,1.,3479.,0.,0.,10030.,0.911398138256,47.3927031893,13.
9.68,6556.,1.,1.,3473.,0.,0.,10031.,0.912281344992,47.4386299396,13.
9.7,6575.,0.,0.,3462.,0.,0.,10037.,0.914378303911,inf,0.
9.72,6581.,1.,0.,3453.,0.,0.,10035.,0.915395121702,47.6005463285,13.
9.74,6585.,0.,0.,3447.,0.,0.,10032.,0.916225417287,inf,0.
9.76,6592.,0.,0.,3441.,0.,0.,10033.,0.917107966822,inf,0.
9.78,6600.,0.,0.,3436.,0.,0.,10036.,0.91794648376,inf,0.
9.8,6602.,1.,2.,3433.,0.,0.,10038.,0.918041699641,47.7381683813,13.
9.82,6608.,1.,1.,3424.,0.,0.,10034.,0.919242335152,47.8006014279,13.
9.84,6617.,5.,1.,3414.,0.,0.,10037.,0.920219199541,9.57027967522,65.
9.86,6629.,3.,2.,3404.,0.,0.,10038.,0.921796187052,15.9778005756,39.
9.88,6628.,10.,3.,3398.,0.,0.,10039.,0.921565324299,4.79213968636,130.
9.9,6637.,6.,6.,3395.,0.,0.,10044.,0.922357308395,7.99376333942,78.
9.92,6640.,8.,5.,3391.,0.,0.,10044.,0.92277422446,5.99803245899,104.
9.94,6644.,9.,1.,3391.,0.,0.,10045.,0.923238193173,5.33426511611,117.
9.96,6648.,11.,1.,3384.,0.,0.,10044.,0.923886000634,4.36746109391,143.
9.98,6652.,13.,1.,3380.,0.,0.,10046.,0.924257846936,3.69703138774,169.
10.,6658.,7.,7.,3376.,0.,0.,10048.,0.924907378606,6.87074052679,91.
