t,cases
5.01,3.38
5.02,3.38
5.03,3.38
5.04,3.38
5.05,3.77
5.06,3.77
5.07,3.77
5.08,3.77
5.09,3.705
5.1,3.705
5.11,4.29
5.12,4.29
5.13,3.9
5.14,3.9
5.15,4.095
5.16,4.095
5.17,4.55
5.18,4.55
5.19,4.225
5.2,4.225
5.21,4.42
5.22,4.42
5.23,4.225
5.24,4.225
5.25,4.225
5.26,4.225
5.27,4.16
5.28,4.16
5.29,4.03
5.3,4.03
5.31,4.095
5.32,4.095
5.33,3.315
5.34,3.315
5.35,2.665
5.36,2.665
5.37,1.755
5.38,1.755
5.39,1.43
5.4,1.43
5.41,1.755
5.42,1.755
5.43,1.43
5.44,1.43
5.45,1.105
5.46,1.105
5.47,1.17
5.48,1.17
5.49,1.105
5.5,1.105
5.51,0.715
5.52,0.715
5.53,0.585
5.54,0.585
5.55,0.52
5.56,0.52
5.57,0.39
5.58,0.39
5.59,0.195
5.6,0.195
5.61,0.13
5.62,0.13
5.63,0.195
5.64,0.195
5.65,0.195
5.66,0.195
5.67,0.13
5.68,0.13
5.69,0.065
5.7,0.065
5.71,0.065
5.72,0.065
5.73,0.
5.74,0.
5.75,0.
5.76,0.
5.77,0.
5.78,0.
5.79,0.065
5.8,0.065
5.81,0.195
5.82,0.195
5.83,0.26
5.84,0.26
5.85,0.585
5.86,0.585
5.87,0.91
5.88,0.91
5.89,1.04
5.9,1.04
5.91,1.625
5.92,1.625
5.93,2.08
5.94,2.08
5.95,2.145
5.96,2.145
5.97,2.145
5.98,2.145
5.99,2.21
6.,2.21
6.01,2.535
6.02,2.535
6.03,2.665
6.04,2.665
6.05,2.925
6.06,2.925
6.07,3.38
6.08,3.38
6.09,3.185
6.1,3.185
6.11,3.185
6.12,3.185
6.13,3.705
6.14,3.705
6.15,4.03
6.16,4.03
6.17,3.51
6.18,3.51
6.19,3.51
6.2,3.51
6.21,4.29
6.22,4.29
6.23,4.225
6.24,4.225
6.25,3.705
6.26,3.705
6.27,3.51
6.28,3.51
6.29,3.77
6.3,3.77
6.31,3.315
6.32,3.315
6.33,2.015
6.34,2.015
6.35,1.755
6.36,1.755
6.37,1.885
6.38,1.885
6.39,1.56
6.4,1.56
6.41,1.885
6.42,1.885
6.43,1.885
6.44,1.885
6.45,1.495
6.46,1.495
6.47,1.3
6.48,1.3
6.49,1.17
6.5,1.17
6.51,1.04
6.52,1.04
6.53,0.715
6.54,0.715
6.55,0.39
6.56,0.39
6.57,0.195
6.58,0.195
6.59,0.195
6.6,0.195
6.61,0.26
6.62,0.26
6.63,0.195
6.64,0.195
6.65,0.13
6.66,0.13
6.67,0.26
6.68,0.26
6.69,0.325
6.7,0.325
6.71,0.26
6.72,0.26
6.73,0.325
6.74,0.325
6.75,0.325
6.76,0.325
6.77,0.325
6.78,0.325
6.79,0.455
6.8,0.455
6.81,0.455
6.82,0.455
6.83,0.52
6.84,0.52
6.85,0.65
6.86,0.65
6.87,0.845
6.88,0.845
6.89,0.845
6.9,0.845
6.91,0.975
6.92,0.975
6.93,1.365
6.94,1.365
6.95,1.495
6.96,1.495
6.97,1.755
6.98,1.755
6.99,2.21
7.,2.21
7.01,2.535
7.02,2.535
7.03,2.535
7.04,2.535
7.05,3.185
7.06,3.185
7.07,3.705
7.08,3.705
7.09,3.51
7.1,3.51
7.11,3.575
7.12,3.575
7.13,4.16
7.14,4.16
7.15,4.615
7.16,4.615
7.17,3.965
7.18,3.965
7.19,3.9
7.2,3.9
7.21,4.615
7.22,4.615
7.23,4.095
7.24,4.095
7.25,3.25
7.26,3.25
7.27,4.03
7.28,4.03
7.29,4.42
7.3,4.42
7.31,3.9
7.32,3.9
7.33,3.77
7.34,3.77
7.35,3.51
7.36,3.51
7.37,2.86
7.38,2.86
7.39,2.145
7.4,2.145
7.41,2.015
7.42,2.015
7.43,1.56
7.44,1.56
7.45,1.105
7.46,1.105
7.47,1.105
7.48,1.105
7.49,0.91
7.5,0.91
7.51,0.65
7.52,0.65
7.53,0.455
7.54,0.455
7.55,0.39
7.56,0.39
7.57,0.325
7.58,0.325
7.59,0.195
7.6,0.195
7.61,0.13
7.62,0.13
7.63,0.13
7.64,0.13
7.65,0.13
7.66,0.13
7.67,0.0650000000001
7.68,0.0649999999999
7.69,0.0650000000001
7.7,0.0649999999999
7.71,0.26
7.72,0.26
7.73,0.39
7.74,0.39
7.75,0.195
7.76,0.195
7.77,0.0649999999999
7.78,0.0650000000001
7.79,0.0649999999999
7.8,0.0650000000001
7.81,0.195
7.82,0.195
7.83,0.39
7.84,0.39
7.85,0.455
7.86,0.455
7.87,0.52
7.88,0.52
7.89,0.715
7.9,0.715
7.91,1.235
7.92,1.235
7.93,1.56
7.94,1.56
7.95,1.495
7.96,1.495
7.97,1.82
7.98,1.82
7.99,2.08
8.,2.08
8.01,2.34
8.02,2.34
8.03,2.86
8.04,2.86
8.05,3.12
8.06,3.12
8.07,3.315
8.08,3.315
8.09,3.705
8.1,3.705
8.11,3.64
8.12,3.64
8.13,3.51
8.14,3.51
8.15,3.705
8.16,3.705
8.17,3.705
8.18,3.705
8.19,4.355
8.2,4.355
8.21,4.81
8.22,4.81
8.23,4.68
8.24,4.68
8.25,3.835
8.26,3.835
8.27,3.185
8.28,3.185
8.29,2.99
8.3,2.99
8.31,2.86
8.32,2.86
8.33,2.535
8.34,2.535
8.35,2.145
8.36,2.145
8.37,2.21
8.38,2.21
8.39,1.69
8.4,1.69
8.41,1.3
8.42,1.3
8.43,1.17
8.44,1.17
8.45,0.975
8.46,0.975
8.47,0.78
8.48,0.78
8.49,0.455
8.5,0.455
8.51,0.195
8.52,0.195
8.53,0.26
8.54,0.26
8.55,0.195
8.56,0.195
8.57,0.0650000000001
8.58,0.0649999999999
8.59,0.13
8.6,0.13
8.61,0.195
8.62,0.195
8.63,0.26
8.64,0.26
8.65,0.195
8.66,0.195
8.67,0.13
8.68,0.13
8.69,0.26
8.7,0.26
8.71,0.39
8.72,0.39
8.73,0.325
8.74,0.325
8.75,0.26
8.76,0.26
8.77,0.195
8.78,0.195
8.79,0.13
8.8,0.13
8.81,0.26
8.82,0.26
8.83,0.325
8.84,0.325
8.85,0.455
8.86,0.455
8.87,0.585
8.88,0.585
8.89,0.585
8.9,0.585
8.91,0.78
8.92,0.78
8.93,0.975
8.94,0.975
8.95,1.235
8.96,1.235
8.97,1.82
8.98,1.82
8.99,2.08
9.,2.08
9.01,1.95
9.02,1.95
9.03,2.275
9.04,2.275
9.05,2.275
9.06,2.275
9.07,2.47
9.08,2.47
9.09,3.055
9.1,3.055
9.11,3.9
9.12,3.9
9.13,4.095
9.14,4.095
9.15,3.51
9.16,3.51
9.17,3.965
9.18,3.965
9.19,4.03
9.2,4.03
9.21,2.925
9.22,2.925
9.23,2.47
9.24,2.47
9.25,3.12
9.26,3.12
9.27,3.38
9.28,3.38
9.29,3.315
9.3,3.315
9.31,3.705
9.32,3.705
9.33,3.64
9.34,3.64
9.35,2.86
9.36,2.86
9.37,2.21
9.38,2.21
9.39,1.365
9.4,1.365
9.41,0.975
9.42,0.975
9.43,1.17
9.44,1.17
9.45,1.105
9.46,1.105
9.47,1.04
9.48,1.04
9.49,0.78
9.5,0.78
9.51,0.455
9.52,0.455
9.53,0.195
9.54,0.195
9.55,0.0650000000001
9.56,0.0649999999999
9.57,0.0649999999999
9.58,0.0650000000001
9.59,0.
9.6,0.
9.61,0.
9.62,0.
9.63,0.
9.64,0.
9.65,0.13
9.66,0.13
9.67,0.26
9.68,0.26
9.69,0.325
9.7,0.325
9.71,0.26
9.72,0.26
9.73,0.13
9.74,0.13
9.75,0.195
9.76,0.195
9.77,0.39
9.78,0.39
9.79,0.39
9.8,0.39
9.81,0.585
9.82,0.585
9.83,0.975
9.84,0.975
9.85,0.845
9.86,0.845
9.87,0.91
9.88,0.91
9.89,1.105
9.9,1.105
9.91,1.17
9.92,1.17
9.93,1.365
9.94,1.365
9.95,1.3
9.96,1.3
9.97,1.3
9.98,1.3
9.99,1.235
10.,1.235
