t,s,e,i,r,c,o,n,reff,coal,reportr
5.,6345.,21.,10.,3624.,0.,0.,10000.,0.804160206393,1.9912538444,273.
5.02,6341.,24.,10.,3624.,0.,0.,9999.,0.803733622966,1.74142284976,312.
5.04,6332.,20.,15.,3631.,0.,0.,9998.,0.802673131455,2.08695014178,260.
5.06,6328.,23.,14.,3634.,0.,0.,9999.,0.802085848625,1.81341148385,299.
5.08,6323.,23.,9.,3641.,0.,0.,9996.,0.801692621103,1.81252244771,299.
5.1,6321.,27.,9.,3641.,0.,0.,9998.,0.801278721404,1.54320346344,351.
5.12,6324.,25.,12.,3639.,0.,0.,10000.,0.801498683251,1.66711726116,325.
5.14,6322.,24.,10.,3644.,0.,0.,10000.,0.801245204857,1.73603127719,312.
5.16,6320.,22.,15.,3643.,0.,0.,10000.,0.800991726462,1.89325317164,286.
5.18,6306.,33.,12.,3648.,0.,0.,9999.,0.799297307432,1.25949878747,429.
5.2,6289.,36.,22.,3651.,0.,0.,9998.,0.7972222558,1.15154325838,468.
5.22,6282.,34.,18.,3664.,0.,0.,9998.,0.796334903949,1.21792397075,442.
5.24,6279.,36.,15.,3669.,0.,0.,9999.,0.795875006877,1.14959723216,468.
5.26,6274.,31.,16.,3677.,0.,0.,9998.,0.795320787548,1.33408648234,403.
5.28,6269.,20.,17.,3690.,0.,0.,9996.,0.79484596579,2.06659951105,260.
5.3,6256.,28.,10.,3702.,0.,0.,9996.,0.793197696919,1.47308143713,364.
5.32,6257.,23.,10.,3702.,0.,0.,9992.,0.793642070694,1.79432120331,299.
5.34,6253.,21.,6.,3710.,0.,0.,9990.,0.793293493742,1.96434579403,273.
5.36,6251.,20.,5.,3713.,0.,0.,9989.,0.793119152922,2.0621097976,260.
5.38,6250.,18.,9.,3708.,0.,0.,9985.,0.793309947578,2.291784293,234.
5.4,6251.,16.,9.,3709.,0.,0.,9985.,0.79343687717,2.5786698508,208.
5.42,6257.,11.,5.,3705.,0.,0.,9978.,0.7947556194,3.75702656444,143.
5.44,6252.,12.,0.,3708.,0.,0.,9972.,0.794598336393,3.4432594577,156.
5.46,6260.,7.,6.,3699.,0.,0.,9972.,0.7956150969,5.91028357697,91.
5.48,6263.,5.,4.,3701.,0.,0.,9973.,0.795916566951,8.27753229629,65.
5.5,6272.,6.,4.,3691.,0.,0.,9973.,0.797060307827,6.90785600117,78.
5.52,6277.,5.,2.,3690.,0.,0.,9974.,0.797615741911,8.29520371587,65.
5.54,6286.,3.,3.,3684.,0.,0.,9976.,0.798599231913,13.8423866865,39.
5.56,6293.,2.,3.,3678.,0.,0.,9976.,0.799488540635,20.7867020565,26.
5.58,6302.,1.,0.,3674.,0.,0.,9977.,0.800551689799,41.6286878695,13.
5.6,6312.,0.,0.,3666.,0.,0.,9978.,0.801741644503,inf,0.
5.62,6314.,1.,0.,3662.,0.,0.,9977.,0.802076066231,41.707955444,13.
5.64,6314.,3.,0.,3657.,0.,0.,9974.,0.802317316301,13.9068334826,39.
5.66,6318.,2.,1.,3651.,0.,0.,9972.,0.802986610578,20.877651875,26.
5.68,6328.,2.,4.,3640.,0.,0.,9974.,0.804096290395,20.9065035503,26.
5.7,6329.,2.,2.,3638.,0.,0.,9971.,0.804465328691,20.916098546,26.
5.72,6339.,2.,2.,3629.,0.,0.,9972.,0.805655606909,20.9470457796,26.
5.74,6349.,2.,0.,3622.,0.,0.,9973.,0.806845646427,20.9779868071,26.
5.76,6359.,2.,0.,3611.,0.,0.,9972.,0.808197508177,21.0131352126,26.
5.78,6365.,1.,0.,3607.,0.,0.,9973.,0.808878963539,42.061706104,13.
5.8,6377.,1.,1.,3597.,0.,0.,9976.,0.810160245293,42.1283327552,13.
5.82,6386.,1.,1.,3589.,0.,0.,9977.,0.811222324826,42.183560891,13.
5.84,6391.,3.,1.,3581.,0.,0.,9976.,0.811938862736,14.0736069541,39.
5.86,6404.,5.,1.,3567.,0.,0.,9977.,0.813508889475,8.46049245054,65.
5.88,6413.,4.,4.,3560.,0.,0.,9981.,0.814325690617,10.586233978,52.
5.9,6415.,6.,6.,3555.,0.,0.,9982.,0.814498046683,7.05898307125,78.
5.92,6423.,6.,9.,3547.,0.,0.,9985.,0.815268766927,7.0656626467,78.
5.94,6416.,14.,5.,3550.,0.,0.,9985.,0.814380259786,3.02484096492,182.
5.96,6421.,14.,7.,3542.,0.,0.,9984.,0.815096539846,3.02750143371,182.
5.98,6418.,15.,8.,3546.,0.,0.,9987.,0.814470980065,2.82349939756,195.
6.,6417.,17.,9.,3545.,0.,0.,9988.,0.814262543646,2.49068542762,221.
6.02,6406.,16.,17.,3547.,0.,0.,9986.,0.813029538778,2.64234600103,208.
6.04,6404.,21.,13.,3549.,0.,0.,9987.,0.812694321647,2.01238593932,273.
6.06,6401.,24.,9.,3556.,0.,0.,9990.,0.812069671109,1.7594842874,312.
6.08,6391.,23.,11.,3561.,0.,0.,9986.,0.811125785565,1.83384960215,299.
6.1,6392.,23.,11.,3560.,0.,0.,9986.,0.811252702446,1.83413654466,299.
6.12,6375.,24.,9.,3575.,0.,0.,9983.,0.809338257347,1.75356622425,312.
6.14,6374.,23.,9.,3577.,0.,0.,9983.,0.809211302327,1.82952120526,299.
6.16,6362.,23.,12.,3581.,0.,0.,9978.,0.808092576414,1.82699191189,299.
6.18,6353.,29.,15.,3584.,0.,0.,9981.,0.806706863011,1.44650885781,377.
6.2,6346.,27.,17.,3594.,0.,0.,9984.,0.805575866977,1.55147944751,351.
6.22,6338.,26.,14.,3605.,0.,0.,9983.,0.804640921579,1.60928184316,338.
6.24,6328.,33.,16.,3606.,0.,0.,9983.,0.803371371372,1.26591852459,429.
6.26,6327.,32.,11.,3615.,0.,0.,9985.,0.803083526132,1.30501072996,416.
6.28,6325.,28.,10.,3621.,0.,0.,9984.,0.802910078574,1.49111871735,364.
6.3,6321.,28.,11.,3624.,0.,0.,9984.,0.802402309355,1.49017571737,364.
6.32,6326.,15.,14.,3631.,0.,0.,9986.,0.802876188309,2.78330411947,195.
6.34,6316.,20.,8.,3640.,0.,0.,9984.,0.80176759783,2.08459575436,260.
6.36,6318.,13.,13.,3641.,0.,0.,9985.,0.801941159808,3.20776463923,169.
6.38,6326.,13.,12.,3637.,0.,0.,9988.,0.80271542015,3.2108616806,169.
6.4,6324.,17.,7.,3641.,0.,0.,9989.,0.802381302684,2.45434280821,221.
6.42,6331.,16.,3.,3641.,0.,0.,9991.,0.803108655422,2.61010313012,208.
6.44,6342.,13.,4.,3633.,0.,0.,9992.,0.804423527623,3.21769411049,169.
6.46,6342.,13.,5.,3629.,0.,0.,9989.,0.804665120434,3.21866048174,169.
6.48,6350.,12.,4.,3626.,0.,0.,9992.,0.805438252982,3.49023242959,156.
6.5,6364.,6.,5.,3620.,0.,0.,9995.,0.806971737009,6.99375505408,78.
6.52,6375.,3.,5.,3612.,0.,0.,9995.,0.808366565593,14.0116871369,39.
6.54,6382.,0.,1.,3612.,0.,0.,9995.,0.809254183782,inf,0.
6.56,6389.,0.,0.,3608.,0.,0.,9997.,0.809979724988,inf,0.
6.58,6403.,0.,0.,3597.,0.,0.,10000.,0.811511079832,inf,0.
6.6,6413.,0.,0.,3586.,0.,0.,9999.,0.81285975778,inf,0.
6.62,6426.,0.,0.,3574.,0.,0.,10000.,0.814426081368,inf,0.
6.64,6437.,1.,0.,3561.,0.,0.,9999.,0.815901802718,42.4268937413,13.
6.66,6444.,2.,0.,3552.,0.,0.,9998.,0.816870761071,21.2386397878,26.
6.68,6449.,3.,0.,3548.,0.,0.,10000.,0.817341082904,14.167245437,39.
6.7,6458.,2.,0.,3541.,0.,0.,10001.,0.81839989569,21.2783972879,26.
6.72,6460.,3.,0.,3535.,0.,0.,9998.,0.818898993873,14.1942492271,39.
6.74,6466.,3.,1.,3529.,0.,0.,9999.,0.819577607018,14.206011855,39.
6.76,6475.,2.,1.,3522.,0.,0.,10000.,0.820636302032,21.3365438528,26.
6.78,6487.,0.,2.,3514.,0.,0.,10003.,0.821910599219,inf,0.
6.8,6498.,2.,0.,3505.,0.,0.,10005.,0.823139733702,21.4016330762,26.
6.82,6505.,3.,1.,3498.,0.,0.,10007.,0.823861774707,14.2802707616,39.
6.84,6513.,5.,3.,3485.,0.,0.,10006.,0.824957417077,8.5795571376,65.
6.86,6518.,2.,8.,3480.,0.,0.,10008.,0.825425746915,21.4610694198,26.
6.88,6514.,5.,9.,3477.,0.,0.,10005.,0.82516654745,8.58173209348,65.
6.9,6515.,12.,6.,3473.,0.,0.,10006.,0.825210743475,3.57591322173,156.
6.92,6523.,9.,7.,3466.,0.,0.,10005.,0.826306630184,4.77421608551,117.
6.94,6525.,5.,10.,3460.,0.,0.,10000.,0.826973261894,8.60052192369,65.
6.96,6524.,7.,3.,3465.,0.,0.,9999.,0.826929215618,6.14290274459,91.
6.98,6528.,8.,5.,3457.,0.,0.,9998.,0.827518983282,5.37887339133,104.
7.,6529.,10.,5.,3455.,0.,0.,9999.,0.82756297498,4.3033274699,130.
7.02,6521.,15.,7.,3452.,0.,0.,9995.,0.826879744977,2.86651644925,195.
7.04,6515.,13.,17.,3448.,0.,0.,9993.,0.82628426891,3.30513707564,169.
7.06,6506.,12.,13.,3458.,0.,0.,9989.,0.825473237708,3.57705069673,156.
7.08,6502.,21.,11.,3457.,0.,0.,9991.,0.82480058088,2.04236334313,273.
7.1,6490.,26.,11.,3464.,0.,0.,9991.,0.823278340497,1.64655668099,338.
7.12,6488.,23.,13.,3468.,0.,0.,9992.,0.822942265409,1.86056512179,299.
7.14,6477.,31.,8.,3476.,0.,0.,9992.,0.821547018041,1.37807886897,403.
7.16,6480.,27.,12.,3472.,0.,0.,9991.,0.822009806845,1.58312999837,351.
7.18,6473.,26.,15.,3481.,0.,0.,9995.,0.820793220248,1.6415864405,338.
7.2,6471.,27.,10.,3486.,0.,0.,9994.,0.820621718274,1.5804566426,351.
7.22,6466.,30.,12.,3486.,0.,0.,9994.,0.819987641842,1.42131191253,390.
7.24,6462.,30.,14.,3490.,0.,0.,9996.,0.819316419036,1.42014845966,390.
7.26,6457.,25.,12.,3502.,0.,0.,9996.,0.81868246947,1.7028595365,325.
7.28,6452.,22.,19.,3498.,0.,0.,9991.,0.818457912618,1.93453688437,286.
7.3,6453.,22.,8.,3510.,0.,0.,9993.,0.818420934347,1.93444948118,286.
7.32,6457.,19.,9.,3506.,0.,0.,9991.,0.819092179444,2.24172596479,247.
7.34,6458.,16.,7.,3512.,0.,0.,9993.,0.819055074231,2.66192899125,208.
7.36,6457.,20.,9.,3509.,0.,0.,9995.,0.818764378672,2.12878738455,260.
7.38,6460.,14.,10.,3513.,0.,0.,9997.,0.818980908346,3.04192908814,182.
7.4,6462.,12.,6.,3518.,0.,0.,9998.,0.819152522973,3.54966093288,156.
7.42,6466.,9.,5.,3517.,0.,0.,9997.,0.819741571729,4.73628463666,117.
7.44,6474.,9.,4.,3510.,0.,0.,9997.,0.820755789572,4.74214456197,117.
7.46,6475.,4.,7.,3508.,0.,0.,9994.,0.82112897942,10.6746767325,52.
7.48,6475.,5.,4.,3509.,0.,0.,9993.,0.821211149837,8.54059595831,65.
7.5,6480.,5.,2.,3504.,0.,0.,9991.,0.822009806845,8.54890199118,65.
7.52,6488.,2.,2.,3498.,0.,0.,9990.,0.823107018615,21.400782484,26.
7.54,6491.,1.,1.,3494.,0.,0.,9987.,0.823734984668,42.8342192027,13.
7.56,6501.,0.,1.,3488.,0.,0.,9990.,0.824756277438,inf,0.
7.58,6509.,0.,0.,3480.,0.,0.,9989.,0.825853873999,inf,0.
7.6,6523.,1.,0.,3469.,0.,0.,9993.,0.827298892724,43.0195424217,13.
7.62,6526.,1.,0.,3463.,0.,0.,9990.,0.82792792902,43.052252309,13.
7.64,6534.,1.,0.,3456.,0.,0.,9991.,0.828859888568,43.1007142056,13.
7.66,6542.,0.,0.,3451.,0.,0.,9993.,0.829708624283,inf,0.
7.68,6551.,0.,0.,3440.,0.,0.,9991.,0.831016395778,inf,0.
7.7,6555.,1.,0.,3434.,0.,0.,9990.,0.831607044855,43.2435663325,13.
7.72,6559.,0.,1.,3425.,0.,0.,9985.,0.832531191386,inf,0.
7.74,6569.,0.,1.,3415.,0.,0.,9985.,0.833800487302,inf,0.
7.76,6576.,2.,0.,3409.,0.,0.,9987.,0.834521839343,21.6975678229,26.
7.78,6582.,1.,1.,3401.,0.,0.,9985.,0.835450571993,43.4434297437,13.
7.8,6589.,4.,1.,3392.,0.,0.,9986.,0.836255327975,10.8713192637,52.
7.82,6599.,4.,1.,3383.,0.,0.,9987.,0.837440635314,10.8867282591,52.
7.84,6608.,4.,2.,3378.,0.,0.,9992.,0.83816314578,10.8961208951,52.
7.86,6604.,10.,2.,3373.,0.,0.,9989.,0.837907356567,4.35711825415,130.
7.88,6602.,12.,4.,3369.,0.,0.,9987.,0.837821347832,3.63055917394,156.
7.9,6605.,13.,1.,3365.,0.,0.,9984.,0.83845392395,3.3538156958,169.
7.92,6613.,13.,3.,3357.,0.,0.,9986.,0.839301333116,3.35720533246,169.
7.94,6610.,17.,6.,3352.,0.,0.,9985.,0.839004600559,2.56636701347,221.
7.96,6610.,17.,11.,3347.,0.,0.,9985.,0.839004600559,2.56636701347,221.
7.98,6609.,24.,7.,3348.,0.,0.,9988.,0.838625705307,1.8170223615,312.
8.,6605.,25.,8.,3348.,0.,0.,9986.,0.838285998069,1.74363487598,325.
8.02,6607.,20.,6.,3350.,0.,0.,9983.,0.838791822164,2.18085873763,260.
8.04,6601.,20.,12.,3351.,0.,0.,9984.,0.83794615473,2.1786600023,260.
8.06,6593.,28.,9.,3353.,0.,0.,9983.,0.837014451873,1.55445541062,364.
8.08,6580.,27.,15.,3359.,0.,0.,9981.,0.835531427453,1.60917163806,351.
8.1,6569.,28.,20.,3366.,0.,0.,9983.,0.833967531375,1.54879684398,364.
8.12,6563.,26.,14.,3379.,0.,0.,9982.,0.833289272078,1.66657854416,338.
8.14,6550.,25.,26.,3379.,0.,0.,9980.,0.831805352529,1.73015513326,325.
8.16,6531.,33.,12.,3399.,0.,0.,9975.,0.829808217621,1.30757658534,429.
8.18,6529.,30.,11.,3403.,0.,0.,9973.,0.829720463935,1.43818213749,390.
8.2,6524.,29.,12.,3414.,0.,0.,9979.,0.828586554461,1.485741408,377.
8.22,6524.,22.,14.,3421.,0.,0.,9981.,0.828420521688,1.95808486944,286.
8.24,6519.,23.,11.,3426.,0.,0.,9979.,0.827951524913,1.87189040415,299.
8.26,6515.,23.,14.,3425.,0.,0.,9977.,0.827609371476,1.87111683986,299.
8.28,6503.,29.,19.,3428.,0.,0.,9979.,0.825919430358,1.48095897857,377.
8.3,6491.,28.,12.,3441.,0.,0.,9972.,0.824974056546,1.53209467644,364.
8.32,6494.,20.,3.,3457.,0.,0.,9974.,0.825189840365,2.14549358495,260.
8.34,6493.,12.,11.,3460.,0.,0.,9976.,0.824897361249,3.57455523208,156.
8.36,6496.,15.,10.,3454.,0.,0.,9975.,0.825361228245,2.86125225791,195.
8.38,6503.,10.,9.,3454.,0.,0.,9976.,0.82616780228,4.29607257186,130.
8.4,6496.,15.,8.,3456.,0.,0.,9975.,0.825361228245,2.86125225791,195.
8.42,6502.,13.,5.,3460.,0.,0.,9980.,0.825709679717,3.30283871887,169.
8.44,6506.,13.,6.,3460.,0.,0.,9985.,0.825803923031,3.30321569212,169.
8.46,6510.,6.,7.,3464.,0.,0.,9987.,0.826146163948,7.15993342089,78.
8.48,6519.,8.,3.,3461.,0.,0.,9991.,0.82695708809,5.37522107258,104.
8.5,6520.,6.,2.,3461.,0.,0.,9989.,0.827249540402,7.16949601682,78.
8.52,6529.,4.,1.,3459.,0.,0.,9993.,0.828059860585,10.7647781876,52.
8.54,6536.,3.,1.,3452.,0.,0.,9992.,0.829030617557,14.3698640377,39.
8.56,6540.,3.,2.,3446.,0.,0.,9991.,0.82962100876,14.3800974852,39.
8.58,6545.,1.,3.,3441.,0.,0.,9990.,0.830338384222,43.1775959796,13.
8.6,6551.,3.,0.,3434.,0.,0.,9988.,0.831266000222,14.4086106705,39.
8.62,6562.,4.,1.,3426.,0.,0.,9993.,0.83224518382,10.8191873897,52.
8.64,6568.,2.,2.,3421.,0.,0.,9993.,0.83300615168,21.6581599437,26.
8.66,6576.,3.,2.,3411.,0.,0.,9992.,0.834104244348,14.457806902,39.
8.68,6582.,4.,1.,3404.,0.,0.,9991.,0.834948850101,10.8543350513,52.
8.7,6588.,1.,3.,3399.,0.,0.,9991.,0.835709970292,43.4569184552,13.
8.72,6592.,1.,2.,3397.,0.,0.,9992.,0.836133695064,43.4789521433,13.
8.74,6594.,2.,0.,3393.,0.,0.,9989.,0.836638568928,21.7526027921,26.
8.76,6599.,1.,0.,3389.,0.,0.,9989.,0.837272962747,43.5381940629,13.
8.78,6607.,0.,1.,3383.,0.,0.,9991.,0.838120184232,inf,0.
8.8,6604.,2.,0.,3383.,0.,0.,9989.,0.837907356567,21.7855912707,26.
8.82,6606.,2.,2.,3382.,0.,0.,9992.,0.83790946444,21.7856460754,26.
8.84,6610.,5.,2.,3376.,0.,0.,9993.,0.838332926706,8.71866243775,65.
8.86,6613.,7.,0.,3372.,0.,0.,9992.,0.838797349129,6.2310660221,91.
8.88,6619.,8.,1.,3365.,0.,0.,9993.,0.839474378498,5.45658346023,104.
8.9,6627.,4.,5.,3356.,0.,0.,9992.,0.840573118505,10.9274505406,52.
8.92,6624.,9.,3.,3354.,0.,0.,9990.,0.840360803222,4.85541797417,117.
8.94,6624.,10.,5.,3349.,0.,0.,9988.,0.840529077312,4.37075120202,130.
8.96,6627.,15.,5.,3340.,0.,0.,9987.,0.840993952148,2.91544570078,195.
8.98,6633.,11.,7.,3339.,0.,0.,9990.,0.841502597792,3.97801228047,143.
9.,6640.,11.,11.,3329.,0.,0.,9991.,0.842306345285,3.98181181408,143.
9.02,6634.,11.,13.,3333.,0.,0.,9991.,0.841545225094,3.97821379135,143.
9.04,6627.,18.,13.,3328.,0.,0.,9986.,0.841078169448,2.4297813784,234.
9.06,6614.,25.,12.,3333.,0.,0.,9984.,0.839596404694,1.74636052176,325.
9.08,6603.,29.,21.,3335.,0.,0.,9988.,0.837864356505,1.50237746684,377.
9.1,6599.,30.,15.,3349.,0.,0.,9993.,0.836937818962,1.45069221953,390.
9.12,6599.,31.,14.,3352.,0.,0.,9996.,0.836686637143,1.40347435908,403.
9.14,6592.,30.,17.,3356.,0.,0.,9995.,0.835882729472,1.44886339775,390.
9.16,6576.,36.,18.,3363.,0.,0.,9993.,0.834020775495,1.20469667571,468.
9.18,6571.,34.,18.,3370.,0.,0.,9993.,0.833386635611,1.27459132505,442.
9.2,6560.,35.,14.,3381.,0.,0.,9990.,0.832241375172,1.23647290025,455.
9.22,6550.,35.,15.,3388.,0.,0.,9988.,0.831139108755,1.23483524729,455.
9.24,6547.,26.,17.,3398.,0.,0.,9988.,0.830758434354,1.66151686871,338.
9.26,6543.,19.,17.,3407.,0.,0.,9986.,0.830417151456,2.27272062504,247.
9.28,6543.,22.,10.,3409.,0.,0.,9984.,0.830583501045,1.96319736611,286.
9.3,6539.,24.,9.,3410.,0.,0.,9982.,0.830242046338,1.79885776707,312.
9.32,6531.,23.,14.,3416.,0.,0.,9984.,0.829060193386,1.87439695896,299.
9.34,6536.,16.,8.,3424.,0.,0.,9984.,0.829694904911,2.69650844096,208.
9.36,6532.,15.,13.,3424.,0.,0.,9984.,0.829187135691,2.87451540373,195.
9.38,6532.,15.,11.,3428.,0.,0.,9986.,0.829021065766,2.87393969466,195.
9.4,6533.,14.,9.,3428.,0.,0.,9984.,0.829314077996,3.08030943256,182.
9.42,6541.,8.,6.,3429.,0.,0.,9984.,0.830329616435,5.39714250683,104.
9.44,6544.,9.,2.,3427.,0.,0.,9982.,0.830876885034,4.80062200242,117.
9.46,6555.,7.,4.,3421.,0.,0.,9987.,0.831856851718,6.17950804133,91.
9.48,6561.,3.,4.,3419.,0.,0.,9987.,0.832618276753,14.4320501304,39.
9.5,6565.,3.,1.,3418.,0.,0.,9987.,0.833125893444,14.4408488197,39.
9.52,6572.,1.,1.,3412.,0.,0.,9986.,0.834097741001,43.373082532,13.
9.54,6576.,1.,1.,3404.,0.,0.,9982.,0.834939852687,43.4168723397,13.
9.56,6580.,1.,0.,3401.,0.,0.,9982.,0.835447723644,43.4432816295,13.
9.58,6584.,0.,0.,3398.,0.,0.,9982.,0.8359555946,inf,0.
9.6,6593.,1.,0.,3386.,0.,0.,9980.,0.837266059424,43.53783509,13.
9.62,6596.,1.,0.,3383.,0.,0.,9980.,0.837647038975,43.5576460267,13.
9.64,6603.,1.,0.,3374.,0.,0.,9978.,0.838704068227,43.6126115478,13.
9.66,6608.,0.,2.,3368.,0.,0.,9978.,0.839339161418,inf,0.
9.68,6617.,1.,2.,3360.,0.,0.,9980.,0.84031389583,43.6963225832,13.
9.7,6620.,0.,1.,3359.,0.,0.,9980.,0.840694875381,inf,0.
9.72,6624.,1.,0.,3356.,0.,0.,9981.,0.841118567697,43.7381655203,13.
9.74,6628.,0.,1.,3349.,0.,0.,9978.,0.841879534183,inf,0.
9.76,6635.,1.,0.,3344.,0.,0.,9980.,0.842599773135,43.815188203,13.
9.78,6641.,1.,1.,3335.,0.,0.,9978.,0.84353077648,43.863600377,13.
9.8,6645.,1.,1.,3331.,0.,0.,9978.,0.844038851033,43.8900202537,13.
9.82,6653.,2.,0.,3324.,0.,0.,9979.,0.844970316804,21.9692282369,26.
9.84,6658.,2.,1.,3317.,0.,0.,9978.,0.84569009333,21.9879424266,26.
9.86,6664.,4.,1.,3311.,0.,0.,9980.,0.846282575459,11.001673481,52.
9.88,6668.,5.,1.,3306.,0.,0.,9980.,0.846790548193,8.80662170121,65.
9.9,6673.,7.,0.,3301.,0.,0.,9981.,0.847340610242,6.29453024751,91.
9.92,6677.,5.,3.,3298.,0.,0.,9983.,0.847678673617,8.81585820562,65.
9.94,6683.,7.,2.,3290.,0.,0.,9982.,0.848525400777,6.30333154863,91.
9.96,6690.,6.,4.,3282.,0.,0.,9982.,0.849414174951,7.36158951624,78.
9.98,6699.,8.,2.,3274.,0.,0.,9983.,0.850471684074,5.52806594648,104.
10.,6706.,6.,2.,3267.,0.,0.,9981.,0.851530965426,7.37993503369,78.
