t,cases
5.01,3.055
5.02,3.055
5.03,2.86
5.04,2.86
5.05,3.055
5.06,3.055
5.07,3.77
5.08,3.77
5.09,4.29
5.1,4.29
5.11,4.355
5.12,4.355
5.13,4.095
5.14,4.095
5.15,3.705
5.16,3.705
5.17,3.38
5.18,3.38
5.19,2.99
5.2,2.99
5.21,3.38
5.22,3.38
5.23,3.38
5.24,3.38
5.25,3.575
5.26,3.575
5.27,4.55
5.28,4.55
5.29,4.745
5.3,4.745
5.31,4.745
5.32,4.745
5.33,3.705
5.34,3.705
5.35,2.535
5.36,2.535
5.37,2.21
5.38,2.21
5.39,2.08
5.4,2.08
5.41,2.21
5.42,2.21
5.43,2.145
5.44,2.145
5.45,1.885
5.46,1.885
5.47,1.235
5.48,1.235
5.49,0.78
5.5,0.78
5.51,0.52
5.52,0.52
5.53,0.26
5.54,0.26
5.55,0.13
5.56,0.13
5.57,0.
5.58,0.
5.59,0.
5.6,0.
5.61,0.
5.62,0.
5.63,0.
5.64,0.
5.65,0.
5.66,0.
5.67,0.
5.68,0.
5.69,0.
5.7,0.
5.71,0.
5.72,0.
5.73,0.
5.74,0.
5.75,0.
5.76,0.
5.77,0.065
5.78,0.065
5.79,0.065
5.8,0.065
5.81,0.195
5.82,0.195
5.83,0.52
5.84,0.52
5.85,0.585
5.86,0.585
5.87,0.65
5.88,0.65
5.89,0.65
5.9,0.65
5.91,0.845
5.92,0.845
5.93,1.17
5.94,1.17
5.95,1.17
5.96,1.17
5.97,1.365
5.98,1.365
5.99,1.69
6.,1.69
6.01,1.885
6.02,1.885
6.03,2.275
6.04,2.275
6.05,2.86
6.06,2.86
6.07,3.835
6.08,3.835
6.09,4.225
6.1,4.225
6.11,4.355
6.12,4.355
6.13,4.615
6.14,4.615
6.15,4.485
6.16,4.485
6.17,4.875
6.18,4.875
6.19,4.745
6.2,4.745
6.21,4.355
6.22,4.355
6.23,4.29
6.24,4.29
6.25,3.705
6.26,3.705
6.27,2.665
6.28,2.665
6.29,2.665
6.3,2.665
6.31,2.86
6.32,2.86
6.33,2.405
6.34,2.405
6.35,2.47
6.36,2.47
6.37,2.275
6.38,2.275
6.39,2.145
6.4,2.145
6.41,2.08
6.42,2.08
6.43,1.625
6.44,1.625
6.45,1.235
6.46,1.235
6.47,1.04
6.48,1.04
6.49,0.975
6.5,0.975
6.51,0.78
6.52,0.78
6.53,0.65
6.54,0.65
6.55,0.585
6.56,0.585
6.57,0.455
6.58,0.455
6.59,0.39
6.6,0.39
6.61,0.195
6.62,0.195
6.63,0.13
6.64,0.13
6.65,0.26
6.66,0.26
6.67,0.325
6.68,0.325
6.69,0.39
6.7,0.39
6.71,0.325
6.72,0.325
6.73,0.325
6.74,0.325
6.75,0.455
6.76,0.455
6.77,0.39
6.78,0.39
6.79,0.195
6.8,0.195
6.81,0.195
6.82,0.195
6.83,0.52
6.84,0.52
6.85,0.715
6.86,0.715
6.87,0.78
6.88,0.78
6.89,0.845
6.9,0.845
6.91,0.845
6.92,0.845
6.93,1.04
6.94,1.04
6.95,1.365
6.96,1.365
6.97,2.08
6.98,2.08
6.99,2.47
7.,2.47
7.01,2.47
7.02,2.47
7.03,2.665
7.04,2.665
7.05,2.925
7.06,2.925
7.07,3.25
7.08,3.25
7.09,3.64
7.1,3.64
7.11,4.225
7.12,4.225
7.13,4.745
7.14,4.745
7.15,4.615
7.16,4.615
7.17,4.55
7.18,4.55
7.19,4.875
7.2,4.875
7.21,4.615
7.22,4.615
7.23,4.485
7.24,4.485
7.25,4.355
7.26,4.355
7.27,3.835
7.28,3.835
7.29,3.185
7.3,3.185
7.31,2.73
7.32,2.73
7.33,2.47
7.34,2.47
7.35,2.275
7.36,2.275
7.37,2.795
7.38,2.795
7.39,2.795
7.4,2.795
7.41,2.6
7.42,2.6
7.43,2.275
7.44,2.275
7.45,1.755
7.46,1.755
7.47,1.625
7.48,1.625
7.49,0.975
7.5,0.975
7.51,0.585
7.52,0.585
7.53,0.39
7.54,0.39
7.55,0.195
7.56,0.195
7.57,0.195
7.58,0.195
7.59,0.195
7.6,0.195
7.61,0.26
7.62,0.26
7.63,0.26
7.64,0.26
7.65,0.195
7.66,0.195
7.67,0.13
7.68,0.13
7.69,0.0650000000001
7.7,0.0649999999999
7.71,0.13
7.72,0.13
7.73,0.26
7.74,0.26
7.75,0.13
7.76,0.13
7.77,0.195
7.78,0.195
7.79,0.325
7.8,0.325
7.81,0.195
7.82,0.195
7.83,0.26
7.84,0.26
7.85,0.455
7.86,0.455
7.87,0.585
7.88,0.585
7.89,0.845
7.9,0.845
7.91,0.975
7.92,0.975
7.93,1.365
7.94,1.365
7.95,1.69
7.96,1.69
7.97,1.885
7.98,1.885
7.99,2.08
8.,2.08
8.01,2.21
8.02,2.21
8.03,2.47
8.04,2.47
8.05,3.055
8.06,3.055
8.07,3.9
8.08,3.9
8.09,3.9
8.1,3.9
8.11,3.705
8.12,3.705
8.13,4.095
8.14,4.095
8.15,3.965
8.16,3.965
8.17,4.16
8.18,4.16
8.19,4.94
8.2,4.94
8.21,5.07
8.22,5.07
8.23,4.68
8.24,4.68
8.25,3.705
8.26,3.705
8.27,3.51
8.28,3.51
8.29,3.9
8.3,3.9
8.31,3.38
8.32,3.38
8.33,2.795
8.34,2.795
8.35,2.6
8.36,2.6
8.37,2.405
8.38,2.405
8.39,2.73
8.4,2.73
8.41,2.665
8.42,2.665
8.43,2.21
8.44,2.21
8.45,1.885
8.46,1.885
8.47,1.17
8.48,1.17
8.49,0.715
8.5,0.715
8.51,0.715
8.52,0.715
8.53,0.65
8.54,0.65
8.55,0.39
8.56,0.39
8.57,0.13
8.58,0.13
8.59,0.
8.6,0.
8.61,0.0649999999999
8.62,0.0650000000001
8.63,0.0650000000001
8.64,0.0649999999999
8.65,0.0649999999999
8.66,0.0650000000001
8.67,0.13
8.68,0.13
8.69,0.195
8.7,0.195
8.71,0.325
8.72,0.325
8.73,0.325
8.74,0.325
8.75,0.26
8.76,0.26
8.77,0.195
8.78,0.195
8.79,0.195
8.8,0.195
8.81,0.195
8.82,0.195
8.83,0.26
8.84,0.26
8.85,0.52
8.86,0.52
8.87,0.52
8.88,0.52
8.89,0.585
8.9,0.585
8.91,1.04
8.92,1.04
8.93,1.495
8.94,1.495
8.95,1.56
8.96,1.56
8.97,1.17
8.98,1.17
8.99,1.3
9.,1.3
9.01,1.95
9.02,1.95
9.03,2.21
9.04,2.21
9.05,2.34
9.06,2.34
9.07,2.405
9.08,2.405
9.09,3.055
9.1,3.055
9.11,3.64
9.12,3.64
9.13,3.12
9.14,3.12
9.15,3.25
9.16,3.25
9.17,2.99
9.18,2.99
9.19,2.73
9.2,2.73
9.21,3.575
9.22,3.575
9.23,3.77
9.24,3.77
9.25,3.835
9.26,3.835
9.27,3.835
9.28,3.835
9.29,3.575
9.3,3.575
9.31,3.51
9.32,3.51
9.33,2.99
9.34,2.99
9.35,2.275
9.36,2.275
9.37,2.145
9.38,2.145
9.39,2.275
9.4,2.275
9.41,2.275
9.42,2.275
9.43,2.275
9.44,2.275
9.45,2.145
9.46,2.145
9.47,1.495
9.48,1.495
9.49,0.975
9.5,0.975
9.51,0.78
9.52,0.78
9.53,0.585
9.54,0.585
9.55,0.325
9.56,0.325
9.57,0.13
9.58,0.13
9.59,0.0649999999999
9.6,0.0650000000001
9.61,0.
9.62,0.
9.63,0.
9.64,0.
9.65,0.
9.66,0.
9.67,0.
9.68,0.
9.69,0.
9.7,0.
9.71,0.
9.72,0.
9.73,0.0650000000001
9.74,0.0649999999999
9.75,0.0649999999999
9.76,0.0650000000001
9.77,0.0649999999999
9.78,0.0650000000001
9.79,0.13
9.8,0.13
9.81,0.195
9.82,0.195
9.83,0.455
9.84,0.455
9.85,0.585
9.86,0.585
9.87,0.455
9.88,0.455
9.89,0.455
9.9,0.455
9.91,0.715
9.92,0.715
9.93,1.43
9.94,1.43
9.95,2.015
9.96,2.015
9.97,1.95
9.98,1.95
9.99,1.95
10.,1.95
