t,s,e,i,r,c,o,n,reff,coal,reportr
5.,5814.,66.,1.,4120.,0.,0.,10001.,0.837299648131,0.659690631861,858.
5.02,5815.,37.,28.,4122.,0.,0.,10002.,0.837359934898,1.17683017878,481.
5.04,5801.,41.,20.,4139.,0.,0.,10001.,0.835427461095,1.05956653602,533.
5.06,5799.,31.,26.,4146.,0.,0.,10002.,0.835055935077,1.40073898787,403.
5.08,5784.,36.,19.,4160.,0.,0.,9999.,0.833145829015,1.20343286413,468.
5.1,5773.,34.,21.,4169.,0.,0.,9997.,0.83172771607,1.27205415399,442.
5.12,5758.,41.,12.,4188.,0.,0.,9999.,0.829400705993,1.05192284663,533.
5.14,5754.,36.,10.,4198.,0.,0.,9998.,0.828907432254,1.19731073548,468.
5.16,5751.,34.,14.,4195.,0.,0.,9994.,0.82880684851,1.26758694478,442.
5.18,5750.,32.,12.,4199.,0.,0.,9993.,0.828745657573,1.34671169356,416.
5.2,5743.,35.,17.,4199.,0.,0.,9994.,0.827653926447,1.22965726215,455.
5.22,5739.,29.,16.,4211.,0.,0.,9995.,0.826994716294,1.48288707749,377.
5.24,5738.,24.,15.,4221.,0.,0.,9998.,0.826602510649,1.79097210641,312.
5.26,5733.,29.,13.,4225.,0.,0.,10000.,0.825717046203,1.48059608285,377.
5.28,5725.,24.,12.,4239.,0.,0.,10000.,0.824564815892,1.7865571011,312.
5.3,5723.,23.,10.,4243.,0.,0.,9999.,0.824359194234,1.86376861305,299.
5.32,5717.,23.,7.,4252.,0.,0.,9999.,0.823494935075,1.86181463582,299.
5.34,5722.,20.,9.,4250.,0.,0.,10001.,0.824050324494,2.14253084368,260.
5.36,5727.,15.,10.,4251.,0.,0.,10003.,0.824605491822,2.85863237165,195.
5.38,5720.,20.,8.,4258.,0.,0.,10006.,0.823350661551,2.14071172003,260.
5.4,5720.,17.,12.,4254.,0.,0.,10003.,0.823597592671,2.51923969523,221.
5.42,5725.,14.,11.,4255.,0.,0.,10005.,0.824152739523,3.0611387468,182.
5.44,5731.,13.,2.,4257.,0.,0.,10003.,0.825181434195,3.30072573678,169.
5.46,5730.,7.,1.,4262.,0.,0.,10000.,0.825284959836,6.13068827307,91.
5.48,5737.,5.,4.,4253.,0.,0.,9999.,0.826375798938,8.59430830895,65.
5.5,5734.,7.,4.,4257.,0.,0.,10002.,0.825695935804,6.1337412374,91.
5.52,5741.,5.,1.,4251.,0.,0.,9998.,0.82703468345,8.60116070788,65.
5.54,5752.,1.,3.,4241.,0.,0.,9997.,0.828702203851,43.0925146003,13.
5.56,5760.,0.,4.,4234.,0.,0.,9998.,0.829771777856,inf,0.
5.58,5763.,1.,2.,4227.,0.,0.,9993.,0.830619343407,43.1922058572,13.
5.6,5772.,1.,0.,4221.,0.,0.,9994.,0.831833268927,43.2553299842,13.
5.62,5778.,2.,1.,4215.,0.,0.,9996.,0.832531354241,21.6458152103,26.
5.64,5785.,1.,1.,4210.,0.,0.,9997.,0.833456580195,43.3397421701,13.
5.66,5794.,3.,2.,4203.,0.,0.,10002.,0.834335935133,14.4618228756,39.
5.68,5800.,1.,1.,4201.,0.,0.,10003.,0.835116440121,43.4260548863,13.
5.7,5808.,1.,0.,4196.,0.,0.,10005.,0.836101154786,43.4772600489,13.
5.72,5819.,0.,0.,4186.,0.,0.,10005.,0.8376846797,inf,0.
5.74,5827.,0.,0.,4178.,0.,0.,10005.,0.838836334183,inf,0.
5.76,5838.,0.,0.,4168.,0.,0.,10006.,0.840335867507,inf,0.
5.78,5847.,0.,0.,4158.,0.,0.,10005.,0.841715470391,inf,0.
5.8,5854.,1.,0.,4150.,0.,0.,10005.,0.842723168064,43.8216047393,13.
5.82,5860.,1.,0.,4141.,0.,0.,10002.,0.843839934394,43.8796765885,13.
5.84,5869.,1.,0.,4132.,0.,0.,10002.,0.845135934293,43.9470685832,13.
5.86,5878.,2.,4.,4119.,0.,0.,10003.,0.846347316384,22.005030226,26.
5.88,5883.,5.,4.,4112.,0.,0.,10004.,0.846982571495,8.80861874354,65.
5.9,5881.,9.,1.,4114.,0.,0.,10005.,0.846610001945,4.89152445568,117.
5.92,5890.,6.,3.,4106.,0.,0.,10005.,0.847905613238,7.34851531473,78.
5.94,5892.,8.,6.,4098.,0.,0.,10004.,0.848278312297,5.51380902993,104.
5.96,5897.,9.,4.,4091.,0.,0.,10001.,0.849252842282,4.90679419985,117.
5.98,5893.,11.,1.,4095.,0.,0.,10000.,0.848761652411,4.0123278114,143.
6.,5899.,8.,8.,4084.,0.,0.,9999.,0.849710796224,5.52312017545,104.
6.02,5900.,10.,10.,4079.,0.,0.,9999.,0.849854839417,4.41924516497,130.
6.04,5901.,15.,10.,4073.,0.,0.,9999.,0.84999888261,2.94666279305,195.
6.06,5897.,19.,11.,4071.,0.,0.,9998.,0.8495076691,2.32496835754,247.
6.08,5891.,24.,7.,4077.,0.,0.,9999.,0.848558450679,1.8385433098,312.
6.1,5887.,24.,12.,4076.,0.,0.,9999.,0.847982277906,1.83729493546,312.
6.12,5881.,25.,11.,4085.,0.,0.,10002.,0.846863934159,1.76147698305,325.
6.14,5871.,24.,21.,4084.,0.,0.,10000.,0.845593019058,1.83211820796,312.
6.16,5857.,39.,15.,4090.,0.,0.,10001.,0.843492266788,1.12465635572,507.
6.18,5858.,33.,18.,4096.,0.,0.,10005.,0.843298995305,1.32883478048,429.
6.2,5851.,26.,19.,4109.,0.,0.,10005.,0.842291297633,1.68458259527,338.
6.22,5844.,33.,11.,4119.,0.,0.,10007.,0.841115460937,1.32539405966,429.
6.24,5835.,36.,19.,4117.,0.,0.,10007.,0.839820108585,1.21307349018,468.
6.26,5830.,34.,21.,4126.,0.,0.,10011.,0.838765197,1.28281736012,442.
6.28,5821.,31.,16.,4143.,0.,0.,10011.,0.837470362219,1.40478899469,403.
6.3,5821.,28.,18.,4146.,0.,0.,10013.,0.837303085606,1.5549914447,364.
6.32,5815.,29.,15.,4153.,0.,0.,10012.,0.83652357859,1.49997331333,377.
6.34,5822.,16.,20.,4157.,0.,0.,10015.,0.837279688873,2.72115898884,208.
6.36,5821.,21.,5.,4167.,0.,0.,10014.,0.837219472356,2.07311488393,273.
6.38,5830.,14.,3.,4172.,0.,0.,10019.,0.838095457348,3.11292598443,182.
6.4,5836.,11.,3.,4169.,0.,0.,10019.,0.838957991266,3.96598323144,143.
6.42,5843.,10.,1.,4164.,0.,0.,10018.,0.840048126344,4.36825025699,130.
6.44,5843.,13.,0.,4161.,0.,0.,10017.,0.84013198859,3.36052795436,169.
6.46,5854.,11.,3.,4150.,0.,0.,10018.,0.841629596374,3.97861263741,143.
6.48,5862.,7.,5.,4144.,0.,0.,10018.,0.842779756397,6.26064961895,91.
6.5,5877.,6.,2.,4139.,0.,0.,10024.,0.84443055845,7.31839817323,78.
6.52,5881.,4.,1.,4139.,0.,0.,10025.,0.844921004434,10.9839730576,52.
6.54,5892.,2.,0.,4129.,0.,0.,10023.,0.846670281974,22.0134273313,26.
6.56,5897.,1.,1.,4121.,0.,0.,10020.,0.847642482601,44.0774090953,13.
6.58,5903.,2.,1.,4115.,0.,0.,10021.,0.848420257758,22.0589267017,26.
6.6,5919.,1.,1.,4102.,0.,0.,10023.,0.850550135608,44.2286070516,13.
6.62,5929.,0.,0.,4095.,0.,0.,10024.,0.851902123711,inf,0.
6.64,5933.,2.,0.,4086.,0.,0.,10021.,0.852732066623,22.1710337322,26.
6.66,5943.,1.,1.,4075.,0.,0.,10020.,0.854254582686,44.4212382997,13.
6.68,5954.,0.,3.,4066.,0.,0.,10023.,0.855579575504,inf,0.
6.7,5966.,0.,0.,4057.,0.,0.,10023.,0.857303954897,inf,0.
6.72,5975.,0.,0.,4044.,0.,0.,10019.,0.858940027042,inf,0.
6.74,5978.,1.,0.,4037.,0.,0.,10016.,0.85962869355,44.7006920646,13.
6.76,5985.,1.,0.,4033.,0.,0.,10019.,0.860377583572,44.7396343458,13.
6.78,5992.,1.,0.,4026.,0.,0.,10019.,0.861383873144,44.7919614035,13.
6.8,5995.,3.,1.,4019.,0.,0.,10018.,0.861901166769,14.939620224,39.
6.82,6004.,3.,3.,4008.,0.,0.,10018.,0.863195096794,14.9620483444,39.
6.84,6001.,7.,0.,4011.,0.,0.,10019.,0.862677674021,6.4084627213,91.
6.86,6009.,4.,3.,4003.,0.,0.,10019.,0.863827719246,11.2297603502,52.
6.88,6009.,7.,1.,4000.,0.,0.,10017.,0.864000191587,6.4182871375,91.
6.9,6011.,5.,7.,3996.,0.,0.,10019.,0.864115230552,8.98679839774,65.
6.92,6018.,10.,4.,3991.,0.,0.,10023.,0.864776265601,4.49683658112,130.
6.94,6021.,9.,3.,3988.,0.,0.,10021.,0.865380039295,4.99997356037,117.
6.96,6025.,11.,5.,3978.,0.,0.,10019.,0.866127809695,4.0944223731,143.
6.98,6022.,14.,8.,3978.,0.,0.,10022.,0.865437403878,3.21448178583,182.
7.,6021.,12.,11.,3978.,0.,0.,10022.,0.865293691257,3.74960599545,156.
7.02,6017.,13.,10.,3981.,0.,0.,10021.,0.864805131447,3.45922052579,169.
7.04,6007.,20.,7.,3984.,0.,0.,10018.,0.863626406802,2.24542865769,260.
7.06,6001.,27.,5.,3985.,0.,0.,10018.,0.862763786786,1.66161914492,351.
7.08,5998.,21.,18.,3980.,0.,0.,10017.,0.862418563677,2.13551263387,273.
7.1,5986.,18.,21.,3992.,0.,0.,10017.,0.860693151412,2.48644688186,234.
7.12,5980.,28.,14.,3995.,0.,0.,10017.,0.85983044528,1.59682796981,364.
7.14,5975.,26.,13.,4003.,0.,0.,10017.,0.859111523503,1.71822304701,338.
7.16,5966.,26.,26.,4002.,0.,0.,10020.,0.857560632728,1.71512126546,338.
7.18,5954.,32.,21.,4014.,0.,0.,10021.,0.855750332829,1.39059429085,416.
7.2,5943.,35.,17.,4025.,0.,0.,10020.,0.854254582686,1.26917823713,455.
7.22,5935.,36.,13.,4038.,0.,0.,10022.,0.852934405848,1.232016364,468.
7.24,5923.,34.,18.,4044.,0.,0.,10019.,0.851464733082,1.30224018001,442.
7.26,5908.,39.,15.,4060.,0.,0.,10022.,0.84905416508,1.13207222011,507.
7.28,5907.,31.,13.,4077.,0.,0.,10028.,0.848402528375,1.42312682179,403.
7.3,5907.,26.,15.,4077.,0.,0.,10025.,0.848656414418,1.69731282884,338.
7.32,5908.,19.,17.,4078.,0.,0.,10022.,0.84905416508,2.32372718864,247.
7.34,5907.,18.,12.,4083.,0.,0.,10020.,0.849079895663,2.45289747636,234.
7.36,5908.,15.,15.,4084.,0.,0.,10022.,0.84905416508,2.94338777228,195.
7.38,5906.,22.,4.,4090.,0.,0.,10022.,0.848766739838,2.00617593053,286.
7.4,5903.,14.,11.,4094.,0.,0.,10022.,0.848335601975,3.15096080734,182.
7.42,5916.,13.,8.,4087.,0.,0.,10024.,0.850034232396,3.40013692958,169.
7.44,5923.,13.,2.,4089.,0.,0.,10027.,0.850785395507,3.40314158203,169.
7.46,5931.,7.,6.,4083.,0.,0.,10027.,0.851934523173,6.32865645786,91.
7.48,5939.,6.,3.,4079.,0.,0.,10027.,0.853083650839,7.3933916406,78.
7.5,5937.,3.,6.,4079.,0.,0.,10025.,0.852966502861,14.7847527163,39.
7.52,5939.,4.,2.,4080.,0.,0.,10025.,0.853253842091,11.0922999472,52.
7.54,5950.,2.,5.,4067.,0.,0.,10024.,0.854919486605,22.2279066517,26.
7.56,5955.,4.,0.,4062.,0.,0.,10021.,0.855894059791,11.1266227773,52.
7.58,5968.,3.,1.,4047.,0.,0.,10019.,0.85793373747,14.8708514495,39.
7.6,5972.,1.,3.,4040.,0.,0.,10016.,0.858765901284,44.6558268668,13.
7.62,5985.,2.,1.,4029.,0.,0.,10017.,0.860549367057,22.3742835435,26.
7.64,6000.,2.,2.,4017.,0.,0.,10021.,0.86236177309,22.4214061003,26.
7.66,6005.,1.,4.,4009.,0.,0.,10019.,0.863252696633,44.8891402249,13.
7.68,6015.,1.,0.,4002.,0.,0.,10018.,0.864776566825,44.9683814749,13.
7.7,6024.,1.,0.,3991.,0.,0.,10016.,0.866243434249,45.044658581,13.
7.72,6032.,1.,0.,3981.,0.,0.,10014.,0.86756706017,45.1134871289,13.
7.74,6037.,1.,0.,3976.,0.,0.,10014.,0.868286197322,45.1508822608,13.
7.76,6049.,2.,0.,3962.,0.,0.,10013.,0.870099014745,22.6225743834,26.
7.78,6057.,2.,1.,3953.,0.,0.,10013.,0.871249749101,22.6524934766,26.
7.8,6071.,2.,1.,3942.,0.,0.,10016.,0.87300197366,22.6980513152,26.
7.82,6074.,2.,1.,3935.,0.,0.,10012.,0.873782324395,22.7183404343,26.
7.84,6086.,3.,0.,3924.,0.,0.,10013.,0.87542116114,15.1739667931,39.
7.86,6090.,1.,4.,3919.,0.,0.,10014.,0.875909051134,45.5472706589,13.
7.88,6093.,7.,2.,3912.,0.,0.,10014.,0.876340533425,6.5099582483,91.
7.9,6101.,10.,4.,3902.,0.,0.,10017.,0.877228352283,4.56158743187,130.
7.92,6107.,7.,8.,3895.,0.,0.,10017.,0.878091058416,6.52296214823,91.
7.94,6112.,7.,6.,3891.,0.,0.,10016.,0.878897720806,6.52895449741,91.
7.96,6108.,12.,8.,3888.,0.,0.,10016.,0.878322525962,3.80606427917,156.
7.98,6103.,13.,9.,3891.,0.,0.,10016.,0.877603532408,3.51041412963,169.
8.,6105.,14.,7.,3889.,0.,0.,10015.,0.877978787456,3.26106406769,182.
8.02,6098.,18.,10.,3890.,0.,0.,10016.,0.876884538853,2.53322200113,234.
8.04,6097.,16.,2.,3899.,0.,0.,10014.,0.876915843146,2.84997649023,208.
8.06,6103.,16.,7.,3890.,0.,0.,10016.,0.877603532408,2.85221148033,208.
8.08,6095.,17.,8.,3894.,0.,0.,10014.,0.876628188286,2.68145092887,221.
8.1,6093.,16.,13.,3892.,0.,0.,10014.,0.876340533425,2.84810673363,208.
8.12,6084.,27.,13.,3895.,0.,0.,10019.,0.874609393225,1.68443290547,351.
8.14,6079.,25.,22.,3893.,0.,0.,10019.,0.87389061496,1.81769247912,325.
8.16,6080.,33.,10.,3897.,0.,0.,10020.,0.873947141634,1.37712882924,429.
8.18,6081.,23.,20.,3896.,0.,0.,10020.,0.87409088294,1.97620547447,299.
8.2,6071.,32.,11.,3905.,0.,0.,10019.,0.872740569735,1.41820342582,416.
8.22,6065.,28.,16.,3909.,0.,0.,10018.,0.871965066965,1.61936369579,364.
8.24,6058.,30.,11.,3918.,0.,0.,10017.,0.871045625001,1.50981241667,390.
8.26,6056.,27.,5.,3929.,0.,0.,10017.,0.87075805629,1.67701551582,351.
8.28,6063.,25.,1.,3929.,0.,0.,10018.,0.871677526959,1.81308925607,325.
8.3,6078.,23.,1.,3921.,0.,0.,10023.,0.873398162566,1.97463932406,299.
8.32,6072.,20.,8.,3916.,0.,0.,10016.,0.873145772371,2.27017900816,260.
8.34,6069.,15.,7.,3923.,0.,0.,10014.,0.872888675095,3.02601407366,195.
8.36,6071.,9.,9.,3925.,0.,0.,10014.,0.873176329956,5.0450187953,117.
8.38,6072.,13.,4.,3922.,0.,0.,10011.,0.873581865555,3.49432746222,169.
8.4,6075.,16.,3.,3919.,0.,0.,10013.,0.873838901401,2.83997642955,208.
8.42,6084.,13.,5.,3913.,0.,0.,10015.,0.874958713003,3.49983485201,169.
8.44,6088.,9.,7.,3908.,0.,0.,10012.,0.875796310655,5.06015646156,117.
8.46,6085.,9.,4.,3912.,0.,0.,10010.,0.875539640221,5.05867347683,117.
8.48,6088.,10.,2.,3909.,0.,0.,10009.,0.876058813296,4.55550582914,130.
8.5,6094.,6.,2.,3907.,0.,0.,10009.,0.876922208972,7.59999247776,78.
8.52,6096.,1.,2.,3907.,0.,0.,10006.,0.87747301273,45.628596662,13.
8.54,6099.,4.,0.,3903.,0.,0.,10006.,0.87790484,11.41276292,52.
8.56,6107.,2.,2.,3897.,0.,0.,10008.,0.878880708648,22.8508984248,26.
8.58,6116.,2.,1.,3888.,0.,0.,10007.,0.880263887593,22.8868610774,26.
8.6,6131.,2.,0.,3876.,0.,0.,10009.,0.882246482312,22.9384085401,26.
8.62,6139.,0.,0.,3866.,0.,0.,10005.,0.883750859027,inf,0.
8.64,6151.,1.,0.,3852.,0.,0.,10004.,0.885566853181,46.0494763654,13.
8.66,6162.,1.,0.,3844.,0.,0.,10007.,0.886884577395,46.1179980245,13.
8.68,6171.,1.,0.,3833.,0.,0.,10005.,0.88835747696,46.1945888019,13.
8.7,6187.,0.,1.,3821.,0.,0.,10009.,0.890304841961,inf,0.
8.72,6197.,1.,0.,3815.,0.,0.,10013.,0.891387600327,46.352155217,13.
8.74,6208.,1.,0.,3806.,0.,0.,10015.,0.892791533583,46.4251597463,13.
8.76,6214.,1.,1.,3800.,0.,0.,10016.,0.893565189314,46.4653898443,13.
8.78,6219.,1.,0.,3791.,0.,0.,10011.,0.894730833644,46.5260033495,13.
8.8,6222.,2.,0.,3787.,0.,0.,10011.,0.895162445237,23.2742235762,26.
8.82,6230.,1.,1.,3779.,0.,0.,10011.,0.896313409487,46.6082972933,13.
8.84,6236.,4.,1.,3769.,0.,0.,10010.,0.89726626071,11.6644613892,52.
8.86,6240.,5.,3.,3768.,0.,0.,10016.,0.897303955796,9.33196114028,65.
8.88,6245.,8.,3.,3759.,0.,0.,10015.,0.898112617144,5.83773201143,104.
8.9,6251.,6.,5.,3755.,0.,0.,10017.,0.898796005593,7.7895653818,78.
8.92,6249.,7.,6.,3751.,0.,0.,10013.,0.898867373639,6.67730048989,91.
8.94,6249.,10.,6.,3747.,0.,0.,10012.,0.898957152642,4.67457719374,130.
8.96,6247.,15.,5.,3747.,0.,0.,10014.,0.898489957706,3.11476518672,195.
8.98,6248.,15.,5.,3742.,0.,0.,10010.,0.898992879556,3.11650864913,195.
9.,6252.,18.,7.,3735.,0.,0.,10012.,0.899388721126,2.59823408325,234.
9.02,6254.,17.,9.,3734.,0.,0.,10014.,0.899496749719,2.75140182267,221.
9.04,6254.,20.,6.,3730.,0.,0.,10010.,0.89985618898,2.33962609135,260.
9.06,6261.,20.,10.,3719.,0.,0.,10010.,0.900863383307,2.3422447966,260.
9.08,6251.,21.,12.,3724.,0.,0.,10008.,0.899604275382,2.22759153904,273.
9.1,6236.,23.,15.,3732.,0.,0.,10006.,0.897624951999,2.02941293495,299.
9.12,6227.,30.,14.,3734.,0.,0.,10005.,0.896419058342,1.55379303446,390.
9.14,6218.,29.,14.,3742.,0.,0.,10003.,0.895302418046,1.60536985305,377.
9.16,6208.,35.,12.,3748.,0.,0.,10003.,0.893862562115,1.328024378,455.
9.18,6205.,34.,7.,3756.,0.,0.,10002.,0.893519930531,1.36655989375,442.
9.2,6203.,23.,20.,3758.,0.,0.,10004.,0.893053355598,2.01907715179,299.
9.22,6182.,29.,25.,3769.,0.,0.,10005.,0.889941001874,1.59575627922,377.
9.24,6171.,30.,23.,3782.,0.,0.,10006.,0.888268694481,1.5396657371,390.
9.26,6158.,32.,15.,3799.,0.,0.,10004.,0.886574651583,1.44068380882,416.
9.28,6156.,34.,14.,3803.,0.,0.,10007.,0.88602100916,1.35509095519,442.
9.3,6158.,26.,18.,3809.,0.,0.,10011.,0.885954731239,1.77190946248,338.
9.32,6156.,27.,11.,3818.,0.,0.,10012.,0.885578529631,1.70555864966,351.
9.34,6160.,19.,17.,3818.,0.,0.,10014.,0.885976971262,2.42477907924,247.
9.36,6155.,24.,7.,3829.,0.,0.,10015.,0.885169440916,1.91786712198,312.
9.38,6156.,18.,14.,3826.,0.,0.,10014.,0.88540166154,2.55782702223,234.
9.4,6154.,20.,0.,3841.,0.,0.,10015.,0.885025627847,2.3010666324,260.
9.42,6155.,12.,9.,3838.,0.,0.,10014.,0.88525783411,3.83611728114,156.
9.44,6153.,10.,9.,3840.,0.,0.,10012.,0.885146961146,4.60276419796,130.
9.46,6154.,8.,4.,3842.,0.,0.,10008.,0.885644650568,5.75669022869,104.
9.48,6162.,5.,5.,3836.,0.,0.,10008.,0.886795959831,9.22267798224,65.
9.5,6166.,3.,2.,3836.,0.,0.,10007.,0.887460289551,15.3826450189,39.
9.52,6173.,3.,1.,3833.,0.,0.,10010.,0.888201511764,15.3954928706,39.
9.54,6177.,2.,0.,3831.,0.,0.,10010.,0.88877705138,23.1082033359,26.
9.56,6186.,2.,1.,3821.,0.,0.,10010.,0.890072015515,23.1418724034,26.
9.58,6198.,2.,0.,3818.,0.,0.,10018.,0.891086477337,23.1682484108,26.
9.6,6206.,0.,1.,3812.,0.,0.,10019.,0.892147582899,inf,0.
9.62,6210.,0.,1.,3805.,0.,0.,10016.,0.89298999447,inf,0.
9.64,6219.,2.,0.,3798.,0.,0.,10019.,0.894016406389,23.2444265661,26.
9.66,6228.,2.,1.,3789.,0.,0.,10020.,0.89522085495,23.2757422287,26.
9.68,6239.,2.,0.,3784.,0.,0.,10025.,0.89635472652,23.3052228895,26.
9.7,6252.,3.,0.,3773.,0.,0.,10028.,0.897953717183,15.5645310978,39.
9.72,6263.,3.,0.,3765.,0.,0.,10031.,0.899264584057,15.5872527903,39.
9.74,6265.,4.,1.,3758.,0.,0.,10028.,0.899820863428,11.6976712246,52.
9.76,6268.,5.,1.,3753.,0.,0.,10027.,0.900341526092,9.36355187135,65.
9.78,6272.,5.,3.,3747.,0.,0.,10027.,0.900916089924,9.36952733521,65.
9.8,6281.,4.,5.,3740.,0.,0.,10030.,0.90193900545,11.7252070709,52.
9.82,6285.,4.,2.,3735.,0.,0.,10026.,0.902873466608,11.7373550659,52.
9.84,6287.,4.,6.,3729.,0.,0.,10026.,0.903160777179,11.7410901033,52.
9.86,6290.,6.,4.,3727.,0.,0.,10027.,0.903501627172,7.83034743549,78.
9.88,6291.,10.,4.,3724.,0.,0.,10029.,0.903465061676,4.69801832071,130.
9.9,6291.,11.,4.,3726.,0.,0.,10032.,0.903194886717,4.26964855539,143.
9.92,6291.,13.,3.,3721.,0.,0.,10028.,0.903555155918,3.61422062367,169.
9.94,6295.,12.,3.,3717.,0.,0.,10027.,0.904219831963,3.91828593851,156.
9.96,6303.,9.,6.,3710.,0.,0.,10028.,0.905278675529,5.23049901417,117.
9.98,6306.,12.,4.,3707.,0.,0.,10029.,0.905619246372,3.92435006761,156.
10.,6310.,7.,1.,3704.,0.,0.,10022.,0.906826638736,6.73642645919,91.
