t,cases
5.01,2.535
5.02,2.535
5.03,2.665
5.04,2.665
5.05,3.25
5.06,3.25
5.07,3.38
5.08,3.38
5.09,2.86
5.1,2.86
5.11,3.055
5.12,3.055
5.13,3.9
5.14,3.9
5.15,4.225
5.16,4.225
5.17,4.55
5.18,4.55
5.19,4.42
5.2,4.42
5.21,4.68
5.22,4.68
5.23,5.005
5.24,5.005
5.25,4.68
5.26,4.68
5.27,4.485
5.28,4.485
5.29,4.03
5.3,4.03
5.31,3.25
5.32,3.25
5.33,2.99
5.34,2.99
5.35,2.795
5.36,2.795
5.37,2.08
5.38,2.08
5.39,1.625
5.4,1.625
5.41,1.82
5.42,1.82
5.43,1.885
5.44,1.885
5.45,1.95
5.46,1.95
5.47,1.69
5.48,1.69
5.49,1.17
5.5,1.17
5.51,1.3
5.52,1.3
5.53,1.365
5.54,1.365
5.55,1.235
5.56,1.235
5.57,0.975
5.58,0.975
5.59,0.78
5.6,0.78
5.61,0.65
5.62,0.65
5.63,0.52
5.64,0.52
5.65,0.52
5.66,0.52
5.67,0.325
5.68,0.325
5.69,0.325
5.7,0.325
5.71,0.455
5.72,0.455
5.73,0.39
5.74,0.39
5.75,0.325
5.76,0.325
5.77,0.26
5.78,0.26
5.79,0.195
5.8,0.195
5.81,0.26
5.82,0.26
5.83,0.39
5.84,0.39
5.85,0.585
5.86,0.585
5.87,0.78
5.88,0.78
5.89,0.975
5.9,0.975
5.91,1.365
5.92,1.365
5.93,1.43
5.94,1.43
5.95,1.69
5.96,1.69
5.97,2.21
5.98,2.21
5.99,2.015
6.,2.015
6.01,1.69
6.02,1.69
6.03,1.495
6.04,1.495
6.05,2.145
6.06,2.145
6.07,2.99
6.08,2.99
6.09,2.99
6.1,2.99
6.11,3.055
6.12,3.055
6.13,3.445
6.14,3.445
6.15,3.575
6.16,3.575
6.17,3.185
6.18,3.185
6.19,2.665
6.2,2.665
6.21,2.665
6.22,2.665
6.23,3.835
6.24,3.835
6.25,3.77
6.26,3.77
6.27,3.315
6.28,3.315
6.29,3.51
6.3,3.51
6.31,3.51
6.32,3.51
6.33,3.64
6.34,3.64
6.35,2.86
6.36,2.86
6.37,2.015
6.38,2.015
6.39,1.56
6.4,1.56
6.41,1.04
6.42,1.04
6.43,0.91
6.44,0.91
6.45,1.04
6.46,1.04
6.47,1.04
6.48,1.04
6.49,0.91
6.5,0.91
6.51,0.455
6.52,0.455
6.53,0.065
6.54,0.065
6.55,0.
6.56,0.
6.57,0.
6.58,0.
6.59,0.
6.6,0.
6.61,0.065
6.62,0.065
6.63,0.065
6.64,0.065
6.65,0.
6.66,0.
6.67,0.
6.68,0.
6.69,0.
6.7,0.
6.71,0.
6.72,0.
6.73,0.13
6.74,0.13
6.75,0.26
6.76,0.26
6.77,0.325
6.78,0.325
6.79,0.455
6.8,0.455
6.81,0.78
6.82,0.78
6.83,0.91
6.84,0.91
6.85,0.715
6.86,0.715
6.87,0.715
6.88,0.715
6.89,0.91
6.9,0.91
6.91,1.04
6.92,1.04
6.93,1.105
6.94,1.105
6.95,1.105
6.96,1.105
6.97,0.78
6.98,0.78
6.99,1.04
7.,1.04
7.01,1.3
7.02,1.3
7.03,1.3
7.04,1.3
7.05,1.69
7.06,1.69
7.07,2.145
7.08,2.145
7.09,2.47
7.1,2.47
7.11,2.86
7.12,2.86
7.13,3.51
7.14,3.51
7.15,3.185
7.16,3.185
7.17,3.185
7.18,3.185
7.19,3.38
7.2,3.38
7.21,2.99
7.22,2.99
7.23,3.055
7.24,3.055
7.25,3.055
7.26,3.055
7.27,2.86
7.28,2.86
7.29,2.6
7.3,2.6
7.31,2.275
7.32,2.275
7.33,2.275
7.34,2.275
7.35,2.34
7.36,2.34
7.37,2.08
7.38,2.08
7.39,1.95
7.4,1.95
7.41,1.56
7.42,1.56
7.43,1.365
7.44,1.365
7.45,1.56
7.46,1.56
7.47,1.3
7.48,1.3
7.49,0.91
7.5,0.91
7.51,0.78
7.52,0.78
7.53,0.65
7.54,0.65
7.55,0.585
7.56,0.585
7.57,0.52
7.58,0.52
7.59,0.26
7.6,0.26
7.61,0.065
7.62,0.065
7.63,0.
7.64,0.
7.65,0.
7.66,0.
7.67,0.065
7.68,0.065
7.69,0.13
7.7,0.13
7.71,0.065
7.72,0.065
7.73,0.
7.74,0.
7.75,0.065
7.76,0.065
7.77,0.13
7.78,0.13
7.79,0.195
7.8,0.195
7.81,0.325
7.82,0.325
7.83,0.52
7.84,0.52
7.85,0.845
7.86,0.845
7.87,1.235
7.88,1.235
7.89,1.365
7.9,1.365
7.91,1.365
7.92,1.365
7.93,1.495
7.94,1.495
7.95,2.015
7.96,2.015
7.97,2.47
7.98,2.47
7.99,2.535
8.,2.535
8.01,2.405
8.02,2.405
8.03,2.535
8.04,2.535
8.05,2.925
8.06,2.925
8.07,2.925
8.08,2.925
8.09,3.64
8.1,3.64
8.11,3.9
8.12,3.9
8.13,4.095
8.14,4.095
8.15,4.485
8.16,4.485
8.17,4.03
8.18,4.03
8.19,3.51
8.2,3.51
8.21,3.25
8.22,3.25
8.23,3.185
8.24,3.185
8.25,2.795
8.26,2.795
8.27,3.12
8.28,3.12
8.29,3.25
8.3,3.25
8.31,2.795
8.32,2.795
8.33,2.73
8.34,2.73
8.35,2.925
8.36,2.925
8.37,2.73
8.38,2.73
8.39,2.08
8.4,2.08
8.41,1.625
8.42,1.625
8.43,1.235
8.44,1.235
8.45,0.91
8.46,0.91
8.47,0.65
8.48,0.65
8.49,0.52
8.5,0.52
8.51,0.52
8.52,0.52
8.53,0.52
8.54,0.52
8.55,0.455
8.56,0.455
8.57,0.39
8.58,0.39
8.59,0.455
8.6,0.455
8.61,0.325
8.62,0.325
8.63,0.13
8.64,0.13
8.65,0.13
8.66,0.13
8.67,0.13
8.68,0.13
8.69,0.13
8.7,0.13
8.71,0.13
8.72,0.13
8.73,0.13
8.74,0.13
8.75,0.13
8.76,0.13
8.77,0.195
8.78,0.195
8.79,0.13
8.8,0.13
8.81,0.13
8.82,0.13
8.83,0.39
8.84,0.39
8.85,0.585
8.86,0.585
8.87,0.91
8.88,0.91
8.89,1.3
8.9,1.3
8.91,1.235
8.92,1.235
8.93,1.04
8.94,1.04
8.95,1.365
8.96,1.365
8.97,1.495
8.98,1.495
8.99,1.755
9.,1.755
9.01,2.275
9.02,2.275
9.03,2.21
9.04,2.21
9.05,1.755
9.06,1.755
9.07,1.755
9.08,1.755
9.09,2.73
9.1,2.73
9.11,3.965
9.12,3.965
9.13,4.42
9.14,4.42
9.15,3.835
9.16,3.835
9.17,3.64
9.18,3.64
9.19,4.16
9.2,4.16
9.21,4.42
9.22,4.42
9.23,4.225
9.24,4.225
9.25,3.9
9.26,3.9
9.27,3.055
9.28,3.055
9.29,2.6
9.3,2.6
9.31,2.665
9.32,2.665
9.33,2.21
9.34,2.21
9.35,2.145
9.36,2.145
9.37,2.21
9.38,2.21
9.39,1.755
9.4,1.755
9.41,1.3
9.42,1.3
9.43,1.04
9.44,1.04
9.45,0.975
9.46,0.975
9.47,0.845
9.48,0.845
9.49,0.585
9.5,0.585
9.51,0.325
9.52,0.325
9.53,0.0650000000001
9.54,0.0649999999999
9.55,0.
9.56,0.
9.57,0.13
9.58,0.13
9.59,0.26
9.6,0.26
9.61,0.325
9.62,0.325
9.63,0.325
9.64,0.325
9.65,0.13
9.66,0.13
9.67,0.
9.68,0.
9.69,0.
9.7,0.
9.71,0.0650000000001
9.72,0.0650000000001
9.73,0.325
9.74,0.325
9.75,0.39
9.76,0.39
9.77,0.39
9.78,0.39
9.79,0.52
9.8,0.52
9.81,0.39
9.82,0.39
9.83,0.78
9.84,0.78
9.85,1.17
9.86,1.17
9.87,1.04
9.88,1.04
9.89,0.845
9.9,0.845
9.91,0.91
9.92,0.91
9.93,1.365
9.94,1.365
9.95,1.56
9.96,1.56
9.97,1.755
9.98,1.755
9.99,2.34
10.,2.34
