t,s,e,i,r,c,o,n,reff,coal,reportr
5.,5973.,1.,39.,3988.,0.,0.,10001.,0.830505135768,43.1862670599,13.
5.02,5950.,20.,17.,4012.,0.,0.,9999.,0.827472619751,2.15142881135,260.
5.04,5950.,26.,14.,4014.,0.,0.,10004.,0.827059048869,1.65411809774,338.
5.06,5943.,28.,14.,4021.,0.,0.,10006.,0.825920920087,1.5338531373,364.
5.08,5940.,30.,11.,4027.,0.,0.,10008.,0.825339030051,1.43058765209,390.
5.1,5947.,23.,13.,4027.,0.,0.,10010.,0.82614655457,1.86780960164,299.
5.12,5943.,23.,15.,4028.,0.,0.,10009.,0.825673366609,1.86673978538,299.
5.14,5939.,31.,11.,4030.,0.,0.,10011.,0.824952796078,1.38379178697,403.
5.16,5933.,29.,13.,4036.,0.,0.,10011.,0.824119370118,1.47773128435,377.
5.18,5926.,29.,20.,4036.,0.,0.,10011.,0.823147039831,1.47598779556,377.
5.2,5932.,30.,15.,4035.,0.,0.,10012.,0.823898166503,1.42809015527,390.
5.22,5928.,35.,16.,4037.,0.,0.,10016.,0.823013793748,1.22276335071,455.
5.24,5926.,31.,18.,4039.,0.,0.,10014.,0.822900440957,1.38034912677,403.
5.26,5918.,37.,13.,4051.,0.,0.,10019.,0.821379423698,1.15437108195,481.
5.28,5908.,30.,18.,4056.,0.,0.,10012.,0.820564795634,1.42231231243,390.
5.3,5900.,27.,17.,4068.,0.,0.,10012.,0.819453672011,1.57820707202,351.
5.32,5898.,20.,18.,4074.,0.,0.,10010.,0.819339562612,2.13028286279,260.
5.34,5897.,16.,6.,4089.,0.,0.,10008.,0.81936435357,2.6629341491,208.
5.36,5908.,11.,9.,4083.,0.,0.,10011.,0.820646761951,3.8794210565,143.
5.38,5912.,13.,10.,4077.,0.,0.,10012.,0.821120357446,3.28448142978,169.
5.4,5909.,16.,7.,4080.,0.,0.,10012.,0.820703686087,2.66728697978,208.
5.42,5916.,11.,7.,4077.,0.,0.,10011.,0.821757996564,3.88467416558,143.
5.44,5912.,14.,9.,4078.,0.,0.,10013.,0.821038352017,3.04957102178,182.
5.46,5917.,10.,5.,4078.,0.,0.,10010.,0.821979008473,4.27429084406,130.
5.48,5925.,4.,6.,4073.,0.,0.,10008.,0.823254840581,10.7023129276,52.
5.5,5925.,8.,3.,4071.,0.,0.,10007.,0.823337108477,5.3516912051,104.
5.52,5934.,4.,2.,4064.,0.,0.,10004.,0.824835024536,10.722855319,52.
5.54,5948.,4.,3.,4051.,0.,0.,10006.,0.826615788773,10.746005254,52.
5.56,5956.,3.,0.,4045.,0.,0.,10004.,0.827893057994,14.3501463386,39.
5.58,5966.,1.,2.,4036.,0.,0.,10005.,0.829200186339,43.1184096896,13.
5.6,5981.,2.,1.,4022.,0.,0.,10006.,0.8312019221,21.6112499746,26.
5.62,5986.,0.,2.,4018.,0.,0.,10006.,0.831896790786,inf,0.
5.64,6000.,2.,0.,4007.,0.,0.,10009.,0.833592495314,21.6734048782,26.
5.66,6008.,2.,1.,3997.,0.,0.,10008.,0.834787355647,21.7044712468,26.
5.68,6012.,2.,2.,3988.,0.,0.,10004.,0.83567714316,21.7276057222,26.
5.7,6021.,0.,0.,3985.,0.,0.,10006.,0.836760871587,inf,0.
5.72,6024.,1.,0.,3978.,0.,0.,10003.,0.837428870813,43.5463012823,13.
5.74,6029.,1.,1.,3972.,0.,0.,10003.,0.838123947897,43.5824452907,13.
5.76,6036.,3.,1.,3961.,0.,0.,10001.,0.839264858446,14.5472575464,39.
5.78,6041.,3.,1.,3956.,0.,0.,10001.,0.839960074531,14.5593079585,39.
5.8,6044.,2.,2.,3949.,0.,0.,9997.,0.84071345594,21.8585498544,26.
5.82,6049.,4.,3.,3939.,0.,0.,9995.,0.841577316168,10.9405051102,52.
5.84,6048.,7.,0.,3942.,0.,0.,9997.,0.841269851344,6.24943318141,91.
5.86,6049.,7.,1.,3934.,0.,0.,9991.,0.841914250335,6.25422014535,91.
5.88,6054.,10.,2.,3927.,0.,0.,9993.,0.842441522183,4.38069591535,130.
5.9,6057.,9.,2.,3921.,0.,0.,9989.,0.843196500632,4.87180200365,117.
5.92,6066.,4.,6.,3914.,0.,0.,9990.,0.844364863438,10.9767432247,52.
5.94,6072.,10.,4.,3906.,0.,0.,9992.,0.845030865996,4.39416050318,130.
5.96,6076.,12.,4.,3899.,0.,0.,9991.,0.845672174746,3.6645794239,156.
5.98,6074.,10.,6.,3898.,0.,0.,9988.,0.845647732825,4.39736821069,130.
6.,6075.,12.,9.,3894.,0.,0.,9990.,0.845617630298,3.66434306462,156.
6.02,6075.,15.,8.,3892.,0.,0.,9990.,0.845617630298,2.9314744517,195.
6.04,6074.,19.,12.,3887.,0.,0.,9992.,0.845309202908,2.31347781849,247.
6.06,6067.,29.,9.,3886.,0.,0.,9991.,0.844419533276,1.51413157691,377.
6.08,6057.,29.,17.,3887.,0.,0.,9990.,0.843112096578,1.51178720766,377.
6.1,6045.,26.,16.,3901.,0.,0.,9988.,0.841610231302,1.6832204626,338.
6.12,6038.,28.,17.,3907.,0.,0.,9990.,0.840467366541,1.56086796643,364.
6.14,6035.,26.,17.,3913.,0.,0.,9991.,0.839965696937,1.67993139387,338.
6.16,6015.,37.,16.,3923.,0.,0.,9991.,0.837182049226,1.17658017729,481.
6.18,6017.,25.,22.,3931.,0.,0.,9995.,0.837125262256,1.74122054549,325.
6.2,6013.,28.,17.,3936.,0.,0.,9994.,0.836652462616,1.55378314486,364.
6.22,6004.,30.,11.,3948.,0.,0.,9993.,0.835483795703,1.44817191255,390.
6.24,5994.,33.,11.,3953.,0.,0.,9991.,0.834259219129,1.31459028469,429.
6.26,5988.,29.,18.,3955.,0.,0.,9990.,0.833507550654,1.49456526324,377.
6.28,5981.,29.,7.,3971.,0.,0.,9988.,0.832699883113,1.49311703179,377.
6.3,5979.,27.,4.,3980.,0.,0.,9990.,0.832254783794,1.60286106508,351.
6.32,5971.,25.,10.,3982.,0.,0.,9988.,0.831307641208,1.72911989371,325.
6.34,5971.,21.,11.,3980.,0.,0.,9983.,0.831724002844,2.05950705466,273.
6.36,5975.,17.,6.,3981.,0.,0.,9979.,0.832614791587,2.54682171544,221.
6.38,5979.,14.,4.,3986.,0.,0.,9983.,0.832838354212,3.09339960136,182.
6.4,5987.,11.,9.,3974.,0.,0.,9981.,0.834119813628,3.94311184624,143.
6.42,5985.,11.,10.,3974.,0.,0.,9980.,0.833924721181,3.94218959104,143.
6.44,5985.,14.,2.,3979.,0.,0.,9980.,0.833924721181,3.09743467867,182.
6.46,5986.,10.,1.,3982.,0.,0.,9979.,0.834147638902,4.33756772229,130.
6.48,5992.,6.,5.,3975.,0.,0.,9978.,0.835067419913,7.23725097258,78.
6.5,5998.,5.,5.,3969.,0.,0.,9977.,0.835987385304,8.69426880716,65.
6.52,6006.,6.,5.,3961.,0.,0.,9978.,0.837018512015,7.25416043747,78.
6.54,6020.,5.,3.,3952.,0.,0.,9980.,0.838801473937,8.72353532894,65.
6.56,6027.,6.,2.,3947.,0.,0.,9982.,0.839608566258,7.27660757424,78.
6.58,6031.,3.,2.,3944.,0.,0.,9980.,0.84033416766,14.5657922394,39.
6.6,6037.,4.,0.,3937.,0.,0.,9978.,0.841338787385,10.937404236,52.
6.62,6044.,3.,1.,3930.,0.,0.,9978.,0.842314333437,14.6001151129,39.
6.64,6051.,1.,2.,3925.,0.,0.,9979.,0.843205373036,43.8466793979,13.
6.66,6050.,3.,1.,3919.,0.,0.,9973.,0.843573232359,14.6219360276,39.
6.68,6063.,3.,1.,3909.,0.,0.,9976.,0.845131643154,14.6489484813,39.
6.7,6072.,2.,0.,3904.,0.,0.,9978.,0.846216517642,22.0016294587,26.
6.72,6081.,2.,0.,3895.,0.,0.,9978.,0.847470791136,22.0342405695,26.
6.74,6091.,1.,1.,3885.,0.,0.,9978.,0.848864428352,44.1409502743,13.
6.76,6100.,1.,0.,3879.,0.,0.,9980.,0.849948337378,44.1973135436,13.
6.78,6109.,1.,0.,3870.,0.,0.,9980.,0.851202359515,44.2625226948,13.
6.8,6117.,1.,0.,3863.,0.,0.,9981.,0.852231651906,44.3160458991,13.
6.82,6134.,0.,1.,3849.,0.,0.,9984.,0.854343332163,inf,0.
6.84,6141.,1.,1.,3840.,0.,0.,9983.,0.855403969429,44.4810064103,13.
6.86,6145.,3.,2.,3834.,0.,0.,9984.,0.855875411826,14.835173805,39.
6.88,6151.,7.,1.,3825.,0.,0.,9984.,0.856711091642,6.36413953791,91.
6.9,6161.,4.,4.,3812.,0.,0.,9981.,0.858361812554,11.1587035632,52.
6.92,6159.,9.,5.,3806.,0.,0.,9979.,0.858255146675,4.95880751412,117.
6.94,6170.,9.,6.,3792.,0.,0.,9977.,0.859960348003,4.96865978846,117.
6.96,6163.,13.,5.,3794.,0.,0.,9975.,0.859156931682,3.43662772673,169.
6.98,6153.,16.,7.,3796.,0.,0.,9972.,0.858020926733,2.78856801188,208.
7.,6153.,14.,7.,3794.,0.,0.,9968.,0.858365236897,3.18821373704,182.
7.02,6156.,11.,11.,3793.,0.,0.,9971.,0.858525363056,4.05848353445,143.
7.04,6158.,10.,16.,3790.,0.,0.,9974.,0.858545973276,4.46443906104,130.
7.06,6144.,18.,13.,3796.,0.,0.,9971.,0.856851824336,2.47534971475,234.
7.08,6134.,24.,8.,3806.,0.,0.,9972.,0.855371422815,1.85330474943,312.
7.1,6140.,26.,10.,3802.,0.,0.,9978.,0.855693250712,1.71138650142,338.
7.12,6143.,20.,15.,3800.,0.,0.,9978.,0.856111341876,2.22588948888,260.
7.14,6132.,23.,20.,3803.,0.,0.,9978.,0.854578340939,1.93209016212,299.
7.16,6118.,37.,12.,3813.,0.,0.,9980.,0.852456381652,1.19804680665,481.
7.18,6105.,41.,9.,3822.,0.,0.,9977.,0.850900798146,1.07919125618,533.
7.2,6099.,35.,15.,3829.,0.,0.,9978.,0.849979338125,1.26282644521,455.
7.22,6088.,34.,13.,3843.,0.,0.,9978.,0.848446337188,1.29762380982,442.
7.24,6083.,28.,21.,3845.,0.,0.,9977.,0.847834488963,1.57454976522,364.
7.26,6067.,35.,20.,3856.,0.,0.,9978.,0.845519699034,1.25620069571,455.
7.28,6065.,33.,15.,3871.,0.,0.,9984.,0.844733014276,1.33109444674,429.
7.3,6054.,34.,15.,3878.,0.,0.,9981.,0.843454376433,1.28998904631,442.
7.32,6048.,32.,9.,3894.,0.,0.,9983.,0.842449634768,1.3689806565,416.
7.34,6053.,24.,16.,3893.,0.,0.,9986.,0.842892805924,1.82626774617,312.
7.36,6051.,18.,15.,3903.,0.,0.,9987.,0.842529930663,2.43397535525,234.
7.38,6051.,15.,4.,3916.,0.,0.,9986.,0.842614301776,2.92106291282,195.
7.4,6058.,12.,6.,3907.,0.,0.,9983.,0.843842573979,3.65665115391,156.
7.42,6060.,8.,9.,3909.,0.,0.,9986.,0.843867570444,5.48513920789,104.
7.44,6068.,6.,6.,3908.,0.,0.,9988.,0.844812387683,7.32170735992,78.
7.46,6066.,7.,2.,3914.,0.,0.,9989.,0.844449392907,6.27305263302,91.
7.48,6070.,8.,3.,3908.,0.,0.,9989.,0.845006233917,5.49254052046,104.
7.5,6076.,3.,7.,3904.,0.,0.,9990.,0.845756826615,14.6597849947,39.
7.52,6080.,2.,2.,3907.,0.,0.,9991.,0.846228904288,22.0019515115,26.
7.54,6087.,1.,3.,3900.,0.,0.,9991.,0.847203180987,44.0545654113,13.
7.56,6093.,3.,5.,3890.,0.,0.,9991.,0.848038275301,14.6993301052,39.
7.58,6100.,5.,0.,3891.,0.,0.,9996.,0.848587875853,8.82531390887,65.
7.6,6114.,1.,3.,3880.,0.,0.,9998.,0.850365313466,44.2189963002,13.
7.62,6116.,2.,0.,3880.,0.,0.,9998.,0.850643483342,22.1167305669,26.
7.64,6126.,1.,1.,3874.,0.,0.,10002.,0.851693587143,44.2880665314,13.
7.66,6140.,1.,2.,3861.,0.,0.,10004.,0.853469337825,44.3804055669,13.
7.68,6146.,1.,1.,3853.,0.,0.,10001.,0.854559612327,44.437099841,13.
7.7,6159.,0.,2.,3842.,0.,0.,10003.,0.856195952081,inf,0.
7.72,6161.,3.,2.,3840.,0.,0.,10006.,0.856217194793,14.8410980431,39.
7.74,6167.,2.,1.,3833.,0.,0.,10003.,0.857308075416,22.2900099608,26.
7.76,6177.,2.,0.,3822.,0.,0.,10001.,0.858869952058,22.3306187535,26.
7.78,6185.,2.,1.,3813.,0.,0.,10001.,0.859982297794,22.3595397427,26.
7.8,6190.,0.,2.,3810.,0.,0.,10002.,0.860591463339,inf,0.
7.82,6188.,3.,2.,3802.,0.,0.,9995.,0.860915925351,14.9225427061,39.
7.84,6196.,4.,1.,3794.,0.,0.,9995.,0.862028938829,11.2063762048,52.
7.86,6198.,5.,3.,3789.,0.,0.,9995.,0.862307192199,8.96799479887,65.
7.88,6205.,4.,4.,3781.,0.,0.,9994.,0.863367458928,11.2237769661,52.
7.9,6203.,9.,5.,3775.,0.,0.,9992.,0.863261933757,4.98773561726,117.
7.92,6208.,11.,8.,3764.,0.,0.,9991.,0.864044249642,4.08457281649,143.
7.94,6211.,13.,11.,3757.,0.,0.,9992.,0.864375281406,3.45750112563,169.
7.96,6215.,18.,14.,3747.,0.,0.,9994.,0.864758864986,2.49819227663,234.
7.98,6211.,21.,8.,3752.,0.,0.,9992.,0.864375281406,2.14035783967,273.
8.,6203.,22.,6.,3758.,0.,0.,9989.,0.863521197527,2.04105010325,286.
8.02,6205.,19.,9.,3753.,0.,0.,9986.,0.864059121222,2.3647933844,247.
8.04,6209.,19.,5.,3752.,0.,0.,9985.,0.86470272102,2.36655481542,247.
8.06,6209.,15.,8.,3748.,0.,0.,9980.,0.865135938816,2.99913792123,195.
8.08,6211.,12.,14.,3742.,0.,0.,9979.,0.865501333983,3.75050578059,156.
8.1,6209.,18.,9.,3744.,0.,0.,9980.,0.865135938816,2.49928160102,234.
8.12,6202.,22.,18.,3737.,0.,0.,9979.,0.864247186179,2.04276607642,286.
8.14,6194.,32.,11.,3741.,0.,0.,9978.,0.863218891679,1.40273069898,416.
8.16,6188.,31.,11.,3745.,0.,0.,9975.,0.86264207257,1.44701250883,403.
8.18,6174.,30.,19.,3746.,0.,0.,9969.,0.861208413771,1.49276125054,390.
8.2,6171.,31.,11.,3755.,0.,0.,9968.,0.860876300486,1.44405056856,403.
8.22,6162.,32.,13.,3760.,0.,0.,9967.,0.859707015382,1.3970239,416.
8.24,6151.,32.,11.,3771.,0.,0.,9965.,0.858344559855,1.39480990976,416.
8.26,6146.,27.,13.,3776.,0.,0.,9962.,0.857905107698,1.6522616889,351.
8.28,6145.,17.,13.,3786.,0.,0.,9961.,0.857851632534,2.62401675834,221.
8.3,6145.,22.,6.,3790.,0.,0.,9963.,0.85767942504,2.02724227737,286.
8.32,6147.,25.,8.,3780.,0.,0.,9960.,0.858216993384,1.78509134624,325.
8.34,6150.,21.,12.,3777.,0.,0.,9960.,0.858635840135,2.12614588986,273.
8.36,6147.,16.,12.,3783.,0.,0.,9958.,0.858389360725,2.78976542236,208.
8.38,6145.,16.,13.,3783.,0.,0.,9957.,0.858196255064,2.78913782896,208.
8.4,6147.,19.,5.,3788.,0.,0.,9959.,0.8583031684,2.34904025036,247.
8.42,6154.,12.,6.,3785.,0.,0.,9957.,0.859453173908,3.72429708693,156.
8.44,6156.,9.,0.,3795.,0.,0.,9960.,0.859473533637,4.96584708324,117.
8.46,6168.,5.,4.,3784.,0.,0.,9961.,0.861062468587,8.95504967331,65.
8.48,6175.,7.,3.,3776.,0.,0.,9961.,0.86203967956,6.40372333388,91.
8.5,6177.,7.,1.,3770.,0.,0.,9955.,0.86283861281,6.40965826659,91.
8.52,6184.,6.,3.,3763.,0.,0.,9956.,0.86372964936,7.48565696112,78.
8.54,6189.,1.,8.,3758.,0.,0.,9956.,0.864428007744,44.9502564027,13.
8.56,6199.,2.,2.,3753.,0.,0.,9956.,0.865824724512,22.5114428373,26.
8.58,6212.,3.,0.,3741.,0.,0.,9956.,0.86764045631,15.0391012427,39.
8.6,6214.,2.,0.,3738.,0.,0.,9954.,0.8680941858,22.5704488308,26.
8.62,6221.,0.,1.,3731.,0.,0.,9953.,0.869159401583,inf,0.
8.64,6230.,0.,0.,3721.,0.,0.,9951.,0.870591766143,inf,0.
8.66,6237.,0.,0.,3715.,0.,0.,9952.,0.871482381771,inf,0.
8.68,6249.,3.,0.,3707.,0.,0.,9959.,0.872545387886,15.1241200567,39.
8.7,6260.,4.,1.,3695.,0.,0.,9960.,0.873993554349,11.3619162065,52.
8.72,6269.,4.,0.,3688.,0.,0.,9961.,0.875162226909,11.3771089498,52.
8.74,6276.,4.,2.,3679.,0.,0.,9961.,0.876139437882,11.3898126925,52.
8.76,6280.,3.,6.,3669.,0.,0.,9958.,0.876961962804,15.2006740219,39.
8.78,6285.,5.,2.,3661.,0.,0.,9953.,0.878101083258,9.13225126589,65.
8.8,6298.,1.,2.,3652.,0.,0.,9953.,0.879917362348,45.7557028421,13.
8.82,6308.,1.,2.,3644.,0.,0.,9955.,0.881137440442,45.819146903,13.
8.84,6307.,5.,1.,3640.,0.,0.,9953.,0.881174786334,9.16421777787,65.
8.86,6313.,3.,5.,3634.,0.,0.,9955.,0.881835868977,15.2851550623,39.
8.88,6313.,9.,1.,3629.,0.,0.,9952.,0.882101695706,5.09658757519,117.
8.9,6311.,7.,3.,3629.,0.,0.,9950.,0.881999490778,6.55199621721,91.
8.92,6311.,12.,5.,3620.,0.,0.,9948.,0.88217681275,3.82276618858,156.
8.94,6317.,14.,6.,3613.,0.,0.,9950.,0.882838026183,3.27911266868,182.
8.96,6312.,18.,3.,3618.,0.,0.,9951.,0.882050598377,2.54814617309,234.
8.98,6316.,17.,7.,3614.,0.,0.,9954.,0.882343559304,2.69893324022,221.
9.,6308.,14.,17.,3614.,0.,0.,9953.,0.88131450011,3.27345385755,182.
9.02,6301.,19.,9.,3623.,0.,0.,9952.,0.880424961927,2.40958410633,247.
9.04,6294.,22.,13.,3622.,0.,0.,9951.,0.87953524496,2.07890148809,286.
9.06,6294.,23.,6.,3625.,0.,0.,9948.,0.879800484781,1.9891141395,299.
9.08,6292.,27.,10.,3615.,0.,0.,9944.,0.879874706373,1.69457350857,351.
9.1,6274.,34.,8.,3628.,0.,0.,9944.,0.877357582292,1.34184100821,442.
9.12,6270.,31.,14.,3631.,0.,0.,9946.,0.876621909658,1.47046255814,403.
9.14,6269.,23.,15.,3637.,0.,0.,9944.,0.876658381159,1.98201025305,299.
9.16,6264.,24.,15.,3639.,0.,0.,9942.,0.876135393902,1.89829335345,312.
9.18,6257.,26.,17.,3644.,0.,0.,9944.,0.874980298438,1.74996059688,338.
9.2,6243.,22.,23.,3650.,0.,0.,9938.,0.87354961669,2.06475363945,286.
9.22,6238.,36.,16.,3654.,0.,0.,9944.,0.872323334131,1.26002259374,468.
9.24,6239.,30.,15.,3661.,0.,0.,9945.,0.872375445532,1.51211743892,390.
9.26,6235.,23.,19.,3667.,0.,0.,9944.,0.871903813451,1.97126079563,299.
9.28,6224.,25.,14.,3677.,0.,0.,9940.,0.870715818672,1.81108890284,325.
9.3,6219.,23.,14.,3687.,0.,0.,9943.,0.869753835012,1.96639997481,299.
9.32,6214.,22.,7.,3698.,0.,0.,9941.,0.869229406041,2.05454223246,286.
9.34,6212.,27.,1.,3701.,0.,0.,9941.,0.868949641186,1.67353264228,351.
9.36,6216.,19.,8.,3699.,0.,0.,9942.,0.869421712722,2.37946995061,247.
9.38,6221.,14.,6.,3701.,0.,0.,9942.,0.870121054512,3.23187820247,182.
9.4,6221.,17.,5.,3700.,0.,0.,9943.,0.870033543594,2.66127907452,221.
9.42,6225.,13.,6.,3697.,0.,0.,9941.,0.870768112746,3.48307245099,169.
9.44,6229.,8.,7.,3696.,0.,0.,9940.,0.871415301174,5.66419945763,104.
9.46,6237.,10.,4.,3693.,0.,0.,9944.,0.872183493904,4.5353541683,130.
9.48,6238.,11.,6.,3691.,0.,0.,9946.,0.87214792224,4.12288108695,143.
9.5,6249.,5.,9.,3685.,0.,0.,9948.,0.873510204861,9.08450613055,65.
9.52,6248.,4.,2.,3692.,0.,0.,9946.,0.873546043308,11.356098563,52.
9.54,6255.,3.,2.,3685.,0.,0.,9945.,0.874612664177,15.1599528457,39.
9.56,6265.,2.,1.,3678.,0.,0.,9946.,0.875922849124,22.7739940772,26.
9.58,6271.,2.,0.,3676.,0.,0.,9949.,0.876497344926,22.7889309681,26.
9.6,6283.,2.,1.,3661.,0.,0.,9947.,0.878351155046,22.8371300312,26.
9.62,6289.,3.,0.,3654.,0.,0.,9946.,0.879278339687,15.2408245546,39.
9.64,6297.,3.,0.,3644.,0.,0.,9944.,0.880573907506,15.2632810634,39.
9.66,6305.,3.,0.,3635.,0.,0.,9943.,0.881781304028,15.2842092698,39.
9.68,6311.,0.,3.,3627.,0.,0.,9941.,0.882798001533,inf,0.
9.7,6321.,0.,1.,3620.,0.,0.,9942.,0.884107890302,inf,0.
9.72,6332.,0.,1.,3611.,0.,0.,9944.,0.88546831544,inf,0.
9.74,6337.,1.,0.,3608.,0.,0.,9946.,0.885989320813,46.0714446823,13.
9.76,6341.,1.,1.,3602.,0.,0.,9945.,0.886637714396,46.1051611486,13.
9.78,6355.,1.,1.,3592.,0.,0.,9949.,0.888238020572,46.1883770697,13.
9.8,6356.,2.,0.,3588.,0.,0.,9946.,0.888645750843,23.1047895219,26.
9.82,6369.,2.,0.,3582.,0.,0.,9953.,0.889837040457,23.1357630519,26.
9.84,6369.,7.,0.,3578.,0.,0.,9954.,0.889747645536,6.60955393827,91.
9.86,6380.,9.,0.,3570.,0.,0.,9959.,0.890836865852,5.14705744715,117.
9.88,6390.,8.,2.,3560.,0.,0.,9960.,0.892143580238,5.79893327154,104.
9.9,6397.,7.,1.,3553.,0.,0.,9958.,0.893300266888,6.63594483974,91.
9.92,6406.,3.,5.,3543.,0.,0.,9957.,0.894646901536,15.50721296,39.
9.94,6408.,6.,2.,3543.,0.,0.,9959.,0.894746494731,7.754469621,78.
9.96,6414.,4.,5.,3533.,0.,0.,9956.,0.895854135025,11.6461037553,52.
9.98,6421.,8.,5.,3522.,0.,0.,9956.,0.896831836763,5.82940693896,104.
10.,6418.,5.,9.,3521.,0.,0.,9953.,0.896683015489,9.32550336109,65.
