t,neff
5.,0.481578054058
5.02,0.459404837478
5.04,0.552461079899
5.06,0.506509625948
5.08,0.715489797598
5.1,0.854930991894
5.12,0.692867393261
5.14,0.508475939848
5.16,0.670909508651
5.18,0.647933589673
5.2,0.76508955441
5.22,0.93004909419
5.24,0.837916560159
5.26,0.628811415616
5.28,0.630251938897
5.3,0.700505804198
5.32,0.607195115575
5.34,0.513818615344
5.36,0.443642164061
5.38,0.489890892783
5.4,0.513359777032
5.42,0.303265790771
5.44,0.256355221123
5.46,0.163066415475
5.48,0.256050402777
5.5,0.186148898631
5.52,0.116184018514
5.54,0.0927998503356
5.56,0.0695225724205
5.58,0.0694176353325
5.6,0.0461939788453
5.62,0.0230684904345
5.64,0.0460873220125
5.66,0.115142327625
5.68,0.0459673640843
5.7,0.0458807372202
5.72,0.
5.74,0.0228907354681
5.76,0.
5.78,0.
5.8,0.0228038620038
5.82,0.
5.84,0.0454819450948
5.86,0.0908958034498
5.88,0.113564511061
5.9,0.20441611991
5.92,0.204312214732
5.94,0.0907900458413
5.96,0.272240195715
5.98,0.294736436555
6.,0.339952590816
6.02,0.453468768729
6.04,0.317362406421
6.06,0.476750433705
6.08,0.545835687789
6.1,0.705375032581
6.12,0.774131772819
6.14,0.706495910332
6.16,0.523870940938
6.18,0.706997286416
6.2,0.661629136696
6.22,0.571226633886
6.24,0.548399876085
6.26,0.548725023268
6.28,0.572271467418
6.3,0.594966262597
6.32,0.434307567899
6.34,0.434006834092
6.36,0.43416757408
6.38,0.273942211617
6.4,0.34216055794
6.42,0.20517726839
6.44,0.182261368607
6.46,0.204806774317
6.48,0.159111452194
6.5,0.204475844497
6.52,0.0680480300208
6.54,0.045305147218
6.56,0.0225930920159
6.58,0.0451282558077
6.6,0.0901532968183
6.62,0.0450025423676
6.64,0.0674314520836
6.66,0.0673029959965
6.68,0.022398415054
6.7,0.
6.72,0.0223581362477
6.74,0.
6.76,0.0446493764761
6.78,0.0445767879976
6.8,0.066732315266
6.82,0.0444367021604
6.84,0.0443529308833
6.86,0.110827416845
6.88,0.0886446048738
6.9,0.132713471523
6.92,0.154761393774
6.94,0.199024556049
6.96,0.331610104942
6.98,0.331205366035
7.,0.375725484926
7.02,0.375935272537
7.04,0.309564535447
7.06,0.309462738494
7.08,0.531153278756
7.1,0.464467061103
7.12,0.57598242331
7.14,0.687723970189
7.16,0.687723970189
7.18,0.599422484238
7.2,0.688930030325
7.22,0.600770744786
7.24,0.690779976033
7.26,0.579729696088
7.28,0.759544681159
7.3,0.603247999434
7.32,0.604111969056
7.34,0.716247225653
7.36,0.290917321693
7.38,0.358147531839
7.4,0.268413796907
7.42,0.290211420479
7.44,0.223232071689
7.46,0.156257210674
7.48,0.156148130267
7.5,0.0445737753525
7.52,0.0445515919871
7.54,0.
7.56,0.
7.58,0.022172216303
7.6,0.0221524997705
7.62,0.
7.64,0.0221029281271
7.66,0.0441609863005
7.68,0.0441058668428
7.7,0.0440712851644
7.72,0.0440392603678
7.74,0.0440160448228
7.76,0.
7.78,0.
7.8,0.
7.82,0.0218718829272
7.84,0.109299162125
7.86,0.15290405426
7.88,0.196296372086
7.9,0.1960539471
7.92,0.152233745654
7.94,0.239230259621
7.96,0.239283884069
7.98,0.195802057862
8.,0.282853460249
8.02,0.152326676836
8.04,0.370005250486
8.06,0.391760663441
8.08,0.478955838013
8.1,0.654059903796
8.12,0.699682981412
8.14,0.699727038087
8.16,0.722470341435
8.18,0.635623539902
8.2,0.833944628284
8.22,0.592738693745
8.24,0.725829720266
8.26,0.638355193137
8.28,0.617006792107
8.3,0.617716461438
8.32,0.551646316398
8.34,0.529652083183
8.36,0.441783497792
8.38,0.419625362285
8.4,0.308659617045
8.42,0.264211179942
8.44,0.197969385429
8.46,0.241758052858
8.48,0.263417864796
8.5,0.218915342146
8.52,0.0218780938307
8.54,0.0218447440674
8.56,0.
8.58,0.0217759160461
8.6,0.0434944287378
8.62,0.0651970077635
8.64,0.0651258170776
8.66,0.0650378407574
8.68,0.0216475396055
8.7,0.
8.72,0.
8.74,0.
8.76,0.
8.78,0.0430481765592
8.8,0.04297249653
8.82,0.0859141126262
8.84,0.10727478039
8.86,0.0857376869782
8.88,0.0642725079324
8.9,0.17135250771
8.92,0.214186495038
8.94,0.235699151582
8.96,0.192798555722
8.98,0.235310354219
9.,0.299426187342
9.02,0.256442363706
9.04,0.513793227613
9.06,0.557384833633
9.08,0.601266355586
9.1,0.559010476767
9.12,0.451689367825
9.14,0.712032620716
9.16,0.711631583984
9.18,0.712489931329
9.2,0.627172782082
9.22,0.627778648559
9.24,0.454351072131
9.26,0.432871283476
9.28,0.38970958467
9.3,0.498313674504
9.32,0.54155804881
9.34,0.41123704142
9.36,0.324280926552
9.38,0.3892147065
9.4,0.346350369995
9.42,0.281336387324
9.44,0.173036043759
9.46,0.237900850696
9.48,0.172744149995
9.5,0.129405007703
9.52,0.129335042681
9.54,0.0861216778819
9.56,0.0214999305319
9.58,0.021466511175
9.6,0.
9.62,0.
9.64,0.0213614389012
9.66,0.0213516749568
9.68,0.
9.7,0.021294667618
9.72,0.0212744830989
9.74,0.0212672479917
9.76,0.
9.78,0.0212132742753
9.8,0.0423998273738
9.82,0.0423362690921
9.84,0.127012767584
9.86,0.12692555493
9.88,0.232610314002
9.9,0.190192218322
9.92,0.190273797517
9.94,0.3599451299
9.96,0.295862619734
9.98,0.274616033602
10.,0.232244834963
