t,neff
5.,0.691396687725
5.02,0.543449785619
5.04,0.618340028231
5.06,0.594184797447
5.08,0.794111968958
5.1,0.620703310902
5.12,0.620280679556
5.14,0.496172958591
5.16,0.446203670747
5.18,0.670617968756
5.2,0.796217269851
5.22,0.797081329788
5.24,0.697651252383
5.26,0.673200493063
5.28,0.674797331551
5.3,0.648645385016
5.32,0.748953515243
5.34,0.5744231943
5.36,0.424490866872
5.38,0.473775548139
5.4,0.398891341537
5.42,0.274128804387
5.44,0.199171271632
5.46,0.124445891671
5.48,0.248501338291
5.5,0.198663324892
5.52,0.0743378170511
5.54,0.0247211164208
5.56,0.0246800264988
5.58,0.0246319266615
5.6,0.0245578139226
5.62,0.
5.64,0.048939884173
5.66,0.0489209445893
5.68,0.0488492008589
5.7,0.048745906708
5.72,0.
5.74,0.0242863980976
5.76,0.
5.78,0.0242024728177
5.8,0.0483084533764
5.82,0.
5.84,0.0962586870887
5.86,0.168326204177
5.88,0.192213164269
5.9,0.192028823102
5.92,0.215909494033
5.94,0.239990481244
5.96,0.263642132641
5.98,0.359203813447
6.,0.359007697407
6.02,0.31093586971
6.04,0.382805085315
6.06,0.551127292038
6.08,0.551127292038
6.1,0.7426010947
6.12,0.718782224884
6.14,0.670863409893
6.16,0.574590813356
6.18,0.767205191817
6.2,0.767136582977
6.22,0.720346301119
6.24,0.600228585409
6.26,0.600612140589
6.28,0.625111454512
6.3,0.576104244183
6.32,0.527747940426
6.34,0.696591951872
6.36,0.552950002246
6.38,0.432574838359
6.4,0.407919090353
6.42,0.287615679482
6.44,0.287478030472
6.46,0.239048544081
6.48,0.190840186951
6.5,0.262297288796
6.52,0.0713670039824
6.54,0.047534450984
6.56,0.0237383853383
6.58,0.0473890692964
6.6,0.0946458741305
6.62,0.0472264683958
6.64,0.0707544129232
6.66,0.0706501224139
6.68,0.0234996227292
6.7,0.
6.72,0.0233977682333
6.74,0.0466959686164
6.76,0.0699455851986
6.78,0.0698181295689
6.8,0.0696400950038
6.82,0.0695763337011
6.84,0.0694456130709
6.86,0.161950910005
6.88,0.115650494857
6.9,0.161661079755
6.92,0.138456664609
6.94,0.207684996914
6.96,0.276779922029
6.98,0.346054187563
7.,0.392273161329
7.02,0.438895323799
7.04,0.462256186418
7.06,0.485248741039
7.08,0.531603819037
7.1,0.531250491621
7.12,0.555204759049
7.14,0.625863716365
7.16,0.742592742954
7.18,0.650288205225
7.2,0.674671466561
7.22,0.675799358429
7.24,0.770560461237
7.26,0.795016106371
7.28,0.677533935429
7.3,0.560510947212
7.32,0.63061840394
7.34,0.606795563308
7.36,0.303225290943
7.38,0.349681963189
7.4,0.232906766819
7.42,0.255773743208
7.44,0.255816609234
7.46,0.185924268454
7.48,0.162442237012
7.5,0.0695114322265
7.52,0.0694339299357
7.54,0.
7.56,0.0230327283237
7.58,0.
7.6,0.
7.62,0.0458371575196
7.64,0.0228992536213
7.66,0.045735947165
7.68,0.0228239559876
7.7,0.0227764310146
7.72,0.0227472746321
7.74,0.0227263546434
7.76,0.
7.78,0.
7.8,0.
7.82,0.
7.84,0.0450475327019
7.86,0.0675111179884
7.88,0.180033639297
7.9,0.202229436635
7.92,0.134505575407
7.94,0.314278328412
7.96,0.269318764059
7.98,0.269297892137
8.,0.449398748077
8.02,0.337056622886
8.04,0.584796880583
8.06,0.517660001774
8.08,0.585330746026
8.1,0.744585728766
8.12,0.837145968656
8.14,0.746954338
8.16,0.724724089698
8.18,0.657290699394
8.2,0.885902169709
8.22,0.499002770202
8.24,0.63563875083
8.26,0.499411314728
8.28,0.476776817213
8.3,0.499351009734
8.32,0.499073428014
8.34,0.476179617053
8.36,0.430486273328
8.38,0.384896067045
8.4,0.294085964682
8.42,0.248511098492
8.44,0.248150946074
8.46,0.338078553079
8.48,0.202526546971
8.5,0.202202562093
8.52,0.0448735720576
8.54,0.044799565336
8.56,0.0223544953921
8.58,0.0223302810137
8.6,0.0669096979737
8.62,0.0222707340441
8.64,0.
8.66,0.
8.68,0.
8.7,0.
8.72,0.
8.74,0.0220657453758
8.76,0.0440841573557
8.78,0.0440522664055
8.8,0.0440018101829
8.82,0.06594667316
8.84,0.0877519762687
8.86,0.0657339999318
8.88,0.0656655982668
8.9,0.0656218601561
8.92,0.174905475472
8.94,0.196725619602
8.96,0.218653753534
8.98,0.261862089165
9.,0.327190861163
9.02,0.370917467782
9.04,0.611695603006
9.06,0.590870361988
9.08,0.657656457381
9.1,0.702212649585
9.12,0.658421247261
9.14,0.702071967894
9.16,0.679864190972
9.18,0.680655333442
9.2,0.72505374853
9.22,0.593078815739
9.24,0.461135298161
9.26,0.505242001374
9.28,0.483634390432
9.3,0.550159213427
9.32,0.661029420426
9.34,0.550788352431
9.36,0.484742345864
9.38,0.418255887251
9.4,0.285862360774
9.42,0.26367678463
9.44,0.175544922573
9.46,0.17535749145
9.48,0.15332015226
9.5,0.0874017711095
9.52,0.0872810295849
9.54,0.0871780760128
9.56,0.0217692036564
9.58,0.0652307793222
9.6,0.
9.62,0.
9.64,0.0216288617829
9.66,0.0215912802222
9.68,0.
9.7,0.0646549669718
9.72,0.021524439186
9.74,0.0430419888293
9.76,0.
9.78,0.
9.8,0.
9.82,0.0213881365236
9.84,0.106966961905
9.86,0.106865726697
9.88,0.149490181686
9.9,0.127982218685
9.92,0.170528739625
9.94,0.191636709059
9.96,0.297809989167
9.98,0.255068447427
10.,0.31822524738
