t,s,e,i,r,c,o,n,reff,coal,reportr
5.,6805.,26.,13.,3156.,0.,0.,10000.,0.82576561759,1.65153123518,338.
5.02,6801.,25.,13.,3160.,0.,0.,9999.,0.825362766288,1.71675455388,325.
5.04,6799.,20.,16.,3165.,0.,0.,10000.,0.825037536222,2.14509759418,260.
5.06,6785.,30.,24.,3161.,0.,0.,10000.,0.823338679698,1.42712037814,390.
5.08,6782.,20.,23.,3174.,0.,0.,9999.,0.823056944709,2.13994805624,260.
5.1,6772.,26.,17.,3181.,0.,0.,9996.,0.822090006071,1.64418001214,338.
5.12,6751.,36.,18.,3188.,0.,0.,9993.,0.819786735998,1.18413639644,468.
5.14,6739.,31.,12.,3208.,0.,0.,9990.,0.818575297845,1.373094048,403.
5.16,6733.,30.,11.,3222.,0.,0.,9996.,0.817355583413,1.41674967792,390.
5.18,6731.,25.,21.,3217.,0.,0.,9994.,0.817276313179,1.69993473141,325.
5.2,6724.,24.,19.,3228.,0.,0.,9995.,0.816344691475,1.76874683153,312.
5.22,6707.,31.,19.,3238.,0.,0.,9995.,0.814280762302,1.36589031096,403.
5.24,6699.,31.,19.,3247.,0.,0.,9996.,0.81322813802,1.36412461861,403.
5.26,6683.,37.,19.,3256.,0.,0.,9995.,0.811366979941,1.14029953938,481.
5.28,6670.,35.,21.,3268.,0.,0.,9994.,0.809869708647,1.2032349957,455.
5.3,6663.,33.,13.,3287.,0.,0.,9996.,0.80885790172,1.27456396635,429.
5.32,6659.,25.,15.,3293.,0.,0.,9992.,0.808695927724,1.68208752967,325.
5.34,6656.,16.,18.,3304.,0.,0.,9994.,0.808169832197,2.62655195464,208.
5.36,6651.,15.,11.,3315.,0.,0.,9992.,0.807724375325,2.80011116779,195.
5.38,6651.,12.,7.,3321.,0.,0.,9991.,0.807805220523,3.50048928893,156.
5.4,6660.,12.,6.,3313.,0.,0.,9991.,0.80889832637,3.50522608094,156.
5.42,6668.,13.,2.,3307.,0.,0.,9990.,0.809951044077,3.23980417631,169.
5.44,6672.,7.,9.,3299.,0.,0.,9987.,0.810680365086,6.02219699778,91.
5.46,6673.,10.,6.,3295.,0.,0.,9984.,0.811045500306,4.21743660159,130.
5.48,6675.,4.,8.,3297.,0.,0.,9984.,0.811288583028,10.5467515794,52.
5.5,6678.,4.,5.,3296.,0.,0.,9983.,0.811734510647,10.5525486384,52.
5.52,6681.,3.,3.,3292.,0.,0.,9979.,0.812424694521,14.0820280384,39.
5.54,6688.,2.,1.,3288.,0.,0.,9979.,0.813275910336,21.1451736687,26.
5.56,6699.,2.,0.,3281.,0.,0.,9982.,0.814368710443,21.1735864715,26.
5.58,6703.,0.,2.,3277.,0.,0.,9982.,0.814854973295,inf,0.
5.6,6707.,0.,1.,3275.,0.,0.,9983.,0.815259563179,inf,0.
5.62,6713.,0.,1.,3271.,0.,0.,9985.,0.815825441451,inf,0.
5.64,6721.,1.,0.,3264.,0.,0.,9986.,0.816715880678,42.4692257953,13.
5.66,6726.,2.,0.,3255.,0.,0.,9983.,0.817569080355,21.2567960892,26.
5.68,6729.,1.,1.,3251.,0.,0.,9982.,0.818015681829,42.5368154551,13.
5.7,6737.,0.,1.,3243.,0.,0.,9981.,0.819070262257,inf,0.
5.72,6744.,2.,1.,3236.,0.,0.,9983.,0.819757043995,21.3136831439,26.
5.74,6750.,2.,3.,3228.,0.,0.,9983.,0.820486365209,21.3326454954,26.
5.76,6754.,3.,4.,3220.,0.,0.,9981.,0.82113708643,14.2330428315,39.
5.78,6762.,1.,1.,3218.,0.,0.,9982.,0.822027350353,42.7454222184,13.
5.8,6771.,2.,0.,3209.,0.,0.,9982.,0.823121441769,21.401157486,26.
5.82,6771.,2.,1.,3205.,0.,0.,9979.,0.823368897859,21.4075913443,26.
5.84,6782.,4.,3.,3191.,0.,0.,9980.,0.824623886788,10.7201105282,52.
5.86,6786.,5.,4.,3187.,0.,0.,9982.,0.824944927462,8.57942724561,65.
5.88,6788.,7.,5.,3183.,0.,0.,9983.,0.825105399561,6.12935439674,91.
5.9,6794.,9.,2.,3176.,0.,0.,9981.,0.826000202133,4.77244561233,117.
5.92,6797.,9.,5.,3172.,0.,0.,9983.,0.826199381381,4.77359642576,117.
5.94,6805.,10.,4.,3163.,0.,0.,9982.,0.827254676006,4.30172431523,130.
5.96,6805.,14.,1.,3159.,0.,0.,9979.,0.827503374676,3.07358396308,182.
5.98,6810.,17.,2.,3150.,0.,0.,9979.,0.828111385973,2.53304659239,221.
6.,6810.,5.,14.,3147.,0.,0.,9976.,0.828360417063,8.61494833746,65.
6.02,6806.,15.,13.,3142.,0.,0.,9976.,0.827873861752,2.86996272074,195.
6.04,6790.,22.,12.,3148.,0.,0.,9972.,0.826258939201,1.95297567447,286.
6.06,6771.,30.,21.,3149.,0.,0.,9971.,0.824029508749,1.42831781517,390.
6.08,6756.,36.,18.,3166.,0.,0.,9976.,0.821791920364,1.18703277386,468.
6.1,6744.,29.,27.,3173.,0.,0.,9973.,0.820579020375,1.47138307102,377.
6.12,6733.,33.,18.,3194.,0.,0.,9978.,0.818830067328,1.29027768185,429.
6.14,6722.,32.,19.,3206.,0.,0.,9979.,0.817410387153,1.32829187912,416.
6.16,6712.,35.,20.,3212.,0.,0.,9979.,0.81619436456,1.21263162735,455.
6.18,6705.,35.,14.,3226.,0.,0.,9980.,0.815261451034,1.21124558439,455.
6.2,6703.,30.,16.,3230.,0.,0.,9979.,0.815099944226,1.41283990332,390.
6.22,6695.,33.,19.,3236.,0.,0.,9983.,0.813800920751,1.28235296603,429.
6.24,6684.,29.,16.,3255.,0.,0.,9984.,0.812382455274,1.45668578187,377.
6.26,6675.,29.,8.,3273.,0.,0.,9985.,0.811207332293,1.4545786648,377.
6.28,6673.,24.,14.,3275.,0.,0.,9986.,0.810883063795,1.75691330489,312.
6.3,6665.,25.,13.,3282.,0.,0.,9985.,0.80999204041,1.68478344405,325.
6.32,6659.,30.,7.,3289.,0.,0.,9985.,0.809262865279,1.40272229982,390.
6.34,6664.,21.,18.,3286.,0.,0.,9989.,0.809546206281,2.00459060603,273.
6.36,6656.,24.,12.,3298.,0.,0.,9990.,0.808493423721,1.7517357514,312.
6.38,6657.,18.,13.,3305.,0.,0.,9993.,0.808372137689,2.33529728666,234.
6.4,6646.,23.,8.,3316.,0.,0.,9993.,0.807036386823,1.82460400499,299.
6.42,6654.,21.,7.,3312.,0.,0.,9994.,0.807926992704,2.00058112479,273.
6.44,6659.,12.,6.,3315.,0.,0.,9992.,0.808695927724,3.50434902014,156.
6.46,6661.,10.,6.,3318.,0.,0.,9995.,0.808696012777,4.20521926644,130.
6.48,6654.,12.,0.,3326.,0.,0.,9992.,0.808088707475,3.50171773239,156.
6.5,6659.,10.,2.,3321.,0.,0.,9992.,0.808695927724,4.20521882416,130.
6.52,6663.,10.,3.,3315.,0.,0.,9991.,0.809262694985,4.20816601392,130.
6.54,6673.,2.,7.,3317.,0.,0.,9999.,0.809828810387,21.0555490701,26.
6.56,6682.,1.,1.,3318.,0.,0.,10002.,0.810677813994,42.1552463277,13.
6.58,6687.,3.,0.,3310.,0.,0.,10000.,0.81144668403,14.0650758565,39.
6.6,6689.,2.,1.,3308.,0.,0.,10000.,0.811689377819,21.1039238233,26.
6.62,6703.,0.,2.,3301.,0.,0.,10006.,0.812900494046,inf,0.
6.64,6711.,0.,1.,3295.,0.,0.,10007.,0.81378935695,inf,0.
6.66,6720.,0.,0.,3286.,0.,0.,10006.,0.814962154258,inf,0.
6.68,6726.,1.,0.,3275.,0.,0.,10002.,0.816016009716,42.4328325052,13.
6.7,6736.,1.,0.,3265.,0.,0.,10002.,0.817229236017,42.4959202729,13.
6.72,6744.,0.,1.,3257.,0.,0.,10002.,0.818199817057,inf,0.
6.74,6751.,0.,0.,3251.,0.,0.,10002.,0.819049075467,inf,0.
6.76,6765.,0.,0.,3241.,0.,0.,10006.,0.820419490112,inf,0.
6.78,6767.,2.,0.,3236.,0.,0.,10005.,0.820744063564,21.3393456527,26.
6.8,6772.,4.,1.,3226.,0.,0.,10003.,0.821514715654,10.6796913035,52.
6.82,6782.,3.,3.,3216.,0.,0.,10004.,0.822645580782,14.2591900669,39.
6.84,6788.,3.,3.,3213.,0.,0.,10007.,0.82312653181,14.2675265514,39.
6.86,6791.,4.,3.,3209.,0.,0.,10007.,0.823490317843,10.705374132,52.
6.88,6795.,7.,1.,3206.,0.,0.,10009.,0.823810718997,6.11973676969,91.
6.9,6796.,8.,4.,3200.,0.,0.,10008.,0.824014284111,5.35609284672,104.
6.92,6798.,11.,5.,3196.,0.,0.,10010.,0.82409209723,3.895708096,143.
6.94,6799.,12.,8.,3190.,0.,0.,10009.,0.824295670119,3.57194790385,156.
6.96,6806.,13.,11.,3178.,0.,0.,10008.,0.825226783058,3.30090713223,169.
6.98,6807.,15.,11.,3178.,0.,0.,10011.,0.825100700608,2.86034909544,195.
7.,6804.,13.,14.,3180.,0.,0.,10011.,0.824737059929,3.29894823972,169.
7.02,6799.,15.,13.,3179.,0.,0.,10006.,0.824542810536,2.85841507652,195.
7.04,6794.,18.,13.,3177.,0.,0.,10002.,0.82426594856,2.38121274028,234.
7.06,6782.,21.,12.,3181.,0.,0.,9996.,0.823303960599,2.03865742624,273.
7.08,6776.,23.,13.,3183.,0.,0.,9995.,0.82265788659,1.85992217838,299.
7.1,6764.,20.,16.,3195.,0.,0.,9995.,0.82120099541,2.13512258807,260.
7.12,6762.,21.,12.,3201.,0.,0.,9996.,0.820876051543,2.03264546096,273.
7.14,6766.,21.,5.,3201.,0.,0.,9993.,0.821608214451,2.03445843578,273.
7.16,6760.,19.,14.,3201.,0.,0.,9994.,0.820797485825,2.2463931191,247.
7.18,6756.,25.,10.,3206.,0.,0.,9997.,0.820065639447,1.70573653005,325.
7.2,6757.,27.,8.,3205.,0.,0.,9997.,0.820187022757,1.57961945124,351.
7.22,6759.,28.,13.,3201.,0.,0.,10001.,0.820101650274,1.52304592194,364.
7.24,6754.,29.,11.,3208.,0.,0.,10002.,0.819413043358,1.46929235361,377.
7.26,6761.,20.,15.,3207.,0.,0.,10003.,0.820180300138,2.13246878036,260.
7.28,6758.,22.,11.,3215.,0.,0.,10006.,0.819570571202,1.93716680466,286.
7.3,6765.,18.,8.,3215.,0.,0.,10006.,0.820419490112,2.37010074921,234.
7.32,6766.,17.,7.,3215.,0.,0.,10005.,0.820622777312,2.51014026001,221.
7.34,6758.,18.,11.,3218.,0.,0.,10005.,0.819652487301,2.36788496331,234.
7.36,6755.,16.,11.,3223.,0.,0.,10005.,0.819288628547,2.66268804278,208.
7.38,6747.,21.,7.,3231.,0.,0.,10006.,0.818236555771,2.02610956667,273.
7.4,6745.,18.,12.,3233.,0.,0.,10008.,0.817830539483,2.36262155851,234.
7.42,6743.,16.,6.,3244.,0.,0.,10009.,0.817506354407,2.65689565182,208.
7.44,6749.,10.,7.,3241.,0.,0.,10007.,0.818397313374,4.25566602954,130.
7.46,6754.,8.,2.,3243.,0.,0.,10007.,0.81900362343,5.32352355229,104.
7.48,6765.,5.,3.,3236.,0.,0.,10009.,0.82017358558,8.52980529003,65.
7.5,6768.,6.,4.,3231.,0.,0.,10009.,0.820537298921,7.11132325732,78.
7.52,6773.,4.,5.,3229.,0.,0.,10011.,0.82097943958,10.6727327145,52.
7.54,6776.,2.,2.,3229.,0.,0.,10009.,0.821507201166,21.3591872303,26.
7.56,6785.,3.,0.,3222.,0.,0.,10010.,0.822516163535,14.2569468346,39.
7.58,6787.,1.,2.,3215.,0.,0.,10005.,0.823169788593,42.8048290068,13.
7.6,6795.,2.,0.,3207.,0.,0.,10004.,0.82422245966,21.4297839512,26.
7.62,6797.,1.,1.,3201.,0.,0.,10000.,0.824794842433,42.8893318065,13.
7.64,6806.,1.,2.,3192.,0.,0.,10001.,0.825804384046,42.9418279704,13.
7.66,6816.,1.,2.,3185.,0.,0.,10004.,0.82676972554,42.9920257281,13.
7.68,6820.,3.,0.,3179.,0.,0.,10002.,0.827420336941,14.341952507,39.
7.7,6831.,3.,1.,3171.,0.,0.,10006.,0.828423582699,14.3593421001,39.
7.72,6833.,0.,3.,3166.,0.,0.,10002.,0.828997531131,inf,0.
7.74,6839.,0.,0.,3163.,0.,0.,10002.,0.829725466912,inf,0.
7.76,6845.,0.,0.,3156.,0.,0.,10001.,0.830536439729,inf,0.
7.78,6856.,0.,0.,3148.,0.,0.,10004.,0.831621660549,inf,0.
7.8,6863.,0.,0.,3138.,0.,0.,10001.,0.832720465428,inf,0.
7.82,6872.,2.,0.,3134.,0.,0.,10008.,0.833229276105,21.6639611787,26.
7.84,6878.,3.,1.,3130.,0.,0.,10012.,0.833623592583,14.4494756048,39.
7.86,6889.,4.,2.,3116.,0.,0.,10011.,0.8350402125,10.8555227625,52.
7.88,6894.,4.,3.,3109.,0.,0.,10010.,0.835729761445,10.8644868988,52.
7.9,6894.,5.,3.,3111.,0.,0.,10013.,0.835479368028,8.6889854275,65.
7.92,6893.,5.,7.,3107.,0.,0.,10012.,0.835441614375,8.6885927895,65.
7.94,6888.,14.,6.,3103.,0.,0.,10011.,0.834918998941,3.10112771035,182.
7.96,6894.,12.,9.,3104.,0.,0.,10019.,0.834979031048,3.61824246787,156.
7.98,6896.,15.,0.,3110.,0.,0.,10021.,0.835054570398,2.89485584405,195.
8.,6892.,14.,6.,3107.,0.,0.,10019.,0.834736797502,3.10045096215,182.
8.02,6888.,16.,6.,3110.,0.,0.,10020.,0.834169071696,2.71104948301,208.
8.04,6887.,18.,10.,3103.,0.,0.,10018.,0.834214476886,2.40995293323,234.
8.06,6883.,22.,12.,3101.,0.,0.,10018.,0.833729961436,1.9706344543,286.
8.08,6874.,24.,17.,3102.,0.,0.,10017.,0.832722924344,1.80423300275,312.
8.1,6861.,31.,12.,3117.,0.,0.,10021.,0.830816329394,1.39362739124,403.
8.12,6857.,24.,18.,3122.,0.,0.,10021.,0.830331958994,1.79905257782,312.
8.14,6848.,31.,12.,3131.,0.,0.,10022.,0.829159383413,1.39084799798,403.
8.16,6852.,20.,12.,3140.,0.,0.,10024.,0.829478174017,2.15664325244,260.
8.18,6838.,20.,14.,3146.,0.,0.,10018.,0.828279162618,2.15352582281,260.
8.2,6832.,20.,19.,3149.,0.,0.,10020.,0.827387209324,2.15120674424,260.
8.22,6817.,28.,18.,3157.,0.,0.,10020.,0.825570639046,1.53320261537,364.
8.24,6811.,20.,19.,3168.,0.,0.,10018.,0.825008683327,2.14502257665,260.
8.26,6805.,21.,14.,3180.,0.,0.,10020.,0.824117382824,2.04067161461,273.
8.28,6801.,18.,11.,3188.,0.,0.,10018.,0.823797394701,2.37985914025,234.
8.3,6798.,23.,10.,3187.,0.,0.,10018.,0.823434008113,1.86167688791,299.
8.32,6785.,31.,9.,3188.,0.,0.,10013.,0.82226972905,1.37929115841,403.
8.34,6777.,22.,15.,3197.,0.,0.,10011.,0.821464293818,1.9416428763,286.
8.36,6768.,26.,14.,3201.,0.,0.,10009.,0.820537298921,1.64107459784,338.
8.38,6762.,24.,11.,3211.,0.,0.,10008.,0.819891787693,1.77643220667,312.
8.4,6761.,18.,15.,3217.,0.,0.,10011.,0.819524876864,2.36751631094,234.
8.42,6762.,17.,7.,3225.,0.,0.,10011.,0.819646090423,2.50715274718,221.
8.44,6763.,12.,7.,3227.,0.,0.,10009.,0.819931110018,3.55303481008,156.
8.46,6763.,10.,10.,3222.,0.,0.,10005.,0.820258918558,4.2653463765,130.
8.48,6765.,12.,7.,3218.,0.,0.,10002.,0.820747592288,3.55657289992,156.
8.5,6772.,9.,3.,3217.,0.,0.,10001.,0.821679002168,4.74747867919,117.
8.52,6775.,3.,3.,3219.,0.,0.,10000.,0.822125210752,14.2501703197,39.
8.54,6784.,1.,1.,3213.,0.,0.,9999.,0.82329966277,42.811582464,13.
8.56,6789.,1.,0.,3209.,0.,0.,9999.,0.823906457922,42.843135812,13.
8.58,6793.,2.,0.,3207.,0.,0.,10002.,0.824144625929,21.4277602742,26.
8.6,6799.,1.,1.,3202.,0.,0.,10003.,0.824790099192,42.889085158,13.
8.62,6808.,2.,0.,3198.,0.,0.,10008.,0.825469282847,21.462201354,26.
8.64,6811.,3.,0.,3193.,0.,0.,10007.,0.825915558066,14.3158696732,39.
8.66,6818.,0.,3.,3183.,0.,0.,10004.,0.82701232229,inf,0.
8.68,6825.,1.,1.,3176.,0.,0.,10003.,0.827944172229,43.0530969559,13.
8.7,6827.,2.,0.,3173.,0.,0.,10002.,0.828269595351,21.5350094791,26.
8.72,6833.,3.,0.,3166.,0.,0.,10002.,0.828997531131,14.3692905396,39.
8.74,6837.,1.,1.,3160.,0.,0.,9999.,0.829731691385,43.146047952,13.
8.76,6846.,2.,0.,3150.,0.,0.,9998.,0.830907021672,21.6035825635,26.
8.78,6855.,1.,1.,3143.,0.,0.,10000.,0.831832962318,43.2553140406,13.
8.8,6855.,2.,1.,3137.,0.,0.,9995.,0.832249086862,21.6384762584,26.
8.82,6864.,2.,1.,3129.,0.,0.,9996.,0.833258387725,21.6647180808,26.
8.84,6872.,1.,2.,3123.,0.,0.,9998.,0.834062672061,43.3712589472,13.
8.86,6874.,3.,2.,3118.,0.,0.,9997.,0.834388869976,14.4627404129,39.
8.88,6879.,7.,2.,3115.,0.,0.,10003.,0.834494939306,6.19910526342,91.
8.9,6886.,11.,2.,3105.,0.,0.,10004.,0.835260611806,3.94850471035,143.
8.92,6887.,11.,5.,3100.,0.,0.,10003.,0.835465423318,3.94947291023,143.
8.94,6880.,14.,6.,3104.,0.,0.,10004.,0.834532821554,3.0996933372,182.
8.96,6888.,15.,3.,3096.,0.,0.,10002.,0.835670275784,2.89699028939,195.
8.98,6884.,14.,6.,3095.,0.,0.,9999.,0.835435565818,3.10304638732,182.
9.,6886.,11.,11.,3093.,0.,0.,10001.,0.835511164934,3.94968914332,143.
9.02,6878.,19.,11.,3094.,0.,0.,10002.,0.834457049484,2.28377718806,247.
9.04,6879.,12.,16.,3098.,0.,0.,10005.,0.834328123726,3.61542186948,156.
9.06,6873.,16.,13.,3103.,0.,0.,10005.,0.833600406218,2.70920132021,208.
9.08,6866.,26.,8.,3108.,0.,0.,10008.,0.832501776737,1.66500355347,338.
9.1,6858.,26.,19.,3105.,0.,0.,10008.,0.83153177758,1.66306355516,338.
9.12,6844.,35.,17.,3112.,0.,0.,10008.,0.829834279055,1.23289664317,455.
9.14,6843.,30.,17.,3120.,0.,0.,10010.,0.829547252331,1.43788190404,390.
9.16,6825.,30.,24.,3129.,0.,0.,10008.,0.827530531056,1.43438625383,390.
9.18,6805.,41.,13.,3147.,0.,0.,10006.,0.825270455316,1.04668447991,533.
9.2,6803.,29.,20.,3152.,0.,0.,10004.,0.825192846662,1.47965613884,377.
9.22,6796.,28.,18.,3163.,0.,0.,10005.,0.824261364856,1.53077110616,364.
9.24,6788.,24.,18.,3174.,0.,0.,10004.,0.823373371033,1.78397563724,312.
9.26,6779.,28.,14.,3182.,0.,0.,10003.,0.822363889164,1.52724722273,364.
9.28,6778.,27.,13.,3189.,0.,0.,10007.,0.821913911698,1.58294531142,351.
9.3,6772.,22.,12.,3197.,0.,0.,10003.,0.821514715654,1.94176205518,286.
9.32,6776.,27.,7.,3197.,0.,0.,10007.,0.821671387675,1.58247822812,351.
9.34,6783.,16.,12.,3193.,0.,0.,10004.,0.822766879157,2.67399235726,208.
9.36,6784.,19.,2.,3199.,0.,0.,10004.,0.822888177532,2.25211501219,247.
9.38,6789.,14.,4.,3195.,0.,0.,10002.,0.823659335409,3.05930610295,182.
9.4,6794.,14.,3.,3195.,0.,0.,10006.,0.823936439885,3.06033534815,182.
9.42,6795.,15.,0.,3196.,0.,0.,10006.,0.824057714015,2.85673340859,195.
9.44,6801.,7.,7.,3193.,0.,0.,10008.,0.824620533584,6.1257525352,91.
9.46,6804.,12.,1.,3196.,0.,0.,10013.,0.82457232667,3.5731467489,156.
9.48,6801.,10.,2.,3194.,0.,0.,10007.,0.824702937955,4.28845527736,130.
9.5,6806.,5.,4.,3191.,0.,0.,10006.,0.825391729446,8.58407398624,65.
9.52,6811.,2.,8.,3188.,0.,0.,10009.,0.825750523486,21.4695136106,26.
9.54,6821.,2.,4.,3184.,0.,0.,10011.,0.826797690443,21.4967399515,26.
9.56,6825.,3.,2.,3182.,0.,0.,10012.,0.827199915582,14.3381318701,39.
9.58,6838.,0.,3.,3170.,0.,0.,10011.,0.828858320958,inf,0.
9.6,6848.,1.,0.,3169.,0.,0.,10018.,0.829490451244,43.1335034647,13.
9.62,6859.,0.,0.,3162.,0.,0.,10021.,0.830574144194,inf,0.
9.64,6863.,1.,0.,3157.,0.,0.,10021.,0.831058514594,43.2150427589,13.
9.66,6875.,0.,0.,3146.,0.,0.,10021.,0.832511625796,inf,0.
9.68,6884.,1.,0.,3139.,0.,0.,10024.,0.833351977515,43.3343028308,13.
9.7,6885.,1.,2.,3136.,0.,0.,10024.,0.833473033874,43.3405977615,13.
9.72,6893.,2.,0.,3131.,0.,0.,10026.,0.834275029236,21.6911507601,26.
9.74,6901.,2.,2.,3122.,0.,0.,10027.,0.835159987503,21.7141596751,26.
9.76,6909.,2.,1.,3112.,0.,0.,10024.,0.836378386498,21.7458380489,26.
9.78,6912.,2.,0.,3109.,0.,0.,10023.,0.836825037722,21.7574509808,26.
9.8,6920.,1.,1.,3101.,0.,0.,10023.,0.83779358522,43.5652664314,13.
9.82,6922.,0.,1.,3098.,0.,0.,10021.,0.838202978001,inf,0.
9.84,6928.,1.,1.,3092.,0.,0.,10022.,0.838845824808,43.61998289,13.
9.86,6935.,2.,1.,3086.,0.,0.,10024.,0.83952585184,21.8276721478,26.
9.88,6941.,3.,1.,3077.,0.,0.,10022.,0.840419871535,14.5672777733,39.
9.9,6943.,5.,2.,3073.,0.,0.,10023.,0.840578159275,8.74201285646,65.
9.92,6942.,7.,3.,3069.,0.,0.,10021.,0.840624830003,6.24464159431,91.
9.94,6948.,5.,5.,3066.,0.,0.,10024.,0.841099584511,8.74743567892,65.
9.96,6947.,8.,6.,3061.,0.,0.,10022.,0.841146354639,5.46745130515,104.
9.98,6946.,9.,7.,3060.,0.,0.,10022.,0.841025274122,4.85925713937,117.
10.,6950.,9.,4.,3062.,0.,0.,10025.,0.841257772871,4.86060046548,117.
