t,prevalence
5.,3
5.02,6
5.04,9
5.06,5
5.08,7
5.1,2
5.12,4
5.14,3
5.16,7
5.18,13
5.2,9
5.22,7
5.24,8
5.26,6
5.28,4
5.3,10
5.32,5
5.34,8
5.36,6
5.38,8
5.4,3
5.42,4
5.44,5
5.46,4
5.48,2
5.5,6
5.52,3
5.54,1
5.56,1
5.58,0
5.6,0
5.62,0
5.64,1
5.66,0
5.68,0
5.7,0
5.72,2
5.74,2
5.76,0
5.78,0
5.8,0
5.82,0
5.84,1
5.86,2
5.88,1
5.9,3
5.92,3
5.94,2
5.96,1
5.98,6
6.,7
6.02,8
6.04,4
6.06,7
6.08,8
6.1,8
6.12,8
6.14,2
6.16,4
6.18,8
6.2,11
6.22,9
6.24,10
6.26,9
6.28,9
6.3,2
6.32,4
6.34,7
6.36,4
6.38,3
6.4,3
6.42,3
6.44,4
6.46,1
6.48,1
6.5,1
6.52,1
6.54,0
6.56,1
6.58,0
6.6,0
6.62,0
6.64,0
6.66,0
6.68,0
6.7,0
6.72,0
6.74,0
6.76,2
6.78,0
6.8,0
6.82,2
6.84,1
6.86,0
6.88,0
6.9,1
6.92,2
6.94,5
6.96,5
6.98,7
7.,8
7.02,4
7.04,8
7.06,9
7.08,18
7.1,11
7.12,11
7.14,4
7.16,6
7.18,17
7.2,14
7.22,5
7.24,6
7.26,10
7.28,3
7.3,7
7.32,4
7.34,2
7.36,3
7.38,8
7.4,4
7.42,3
7.44,3
7.46,0
7.48,0
7.5,1
7.52,1
7.54,2
7.56,0
7.58,0
7.6,0
7.62,0
7.64,0
7.66,0
7.68,0
7.7,0
7.72,0
7.74,1
7.76,0
7.78,0
7.8,3
7.82,0
7.84,0
7.86,0
7.88,2
7.9,3
7.92,5
7.94,3
7.96,2
7.98,8
8.,5
8.02,5
8.04,9
8.06,8
8.08,14
8.1,8
8.12,9
8.14,10
8.16,10
8.18,12
8.2,10
8.22,10
8.24,6
8.26,10
8.28,12
8.3,7
8.32,7
8.34,10
8.36,7
8.38,3
8.4,9
8.42,0
8.44,2
8.46,1
8.48,0
8.5,2
8.52,1
8.54,0
8.56,0
8.58,0
8.6,1
8.62,2
8.64,0
8.66,0
8.68,0
8.7,1
8.72,0
8.74,0
8.76,1
8.78,1
8.8,0
8.82,0
8.84,0
8.86,2
8.88,1
8.9,1
8.92,1
8.94,3
8.96,5
8.98,3
9.,1
9.02,6
9.04,3
9.06,3
9.08,5
9.1,6
9.12,8
9.14,12
9.16,8
9.18,14
9.2,4
9.22,8
9.24,8
9.26,6
9.28,11
9.3,6
9.32,10
9.34,4
9.36,2
9.38,3
9.4,5
9.42,2
9.44,1
9.46,1
9.48,2
9.5,0
9.52,0
9.54,2
9.56,0
9.58,0
9.6,0
9.62,0
9.64,0
9.66,0
9.68,1
9.7,0
9.72,1
9.74,0
9.76,0
9.78,0
9.8,0
9.82,0
9.84,1
9.86,1
9.88,1
9.9,1
9.92,5
9.94,6
9.96,4
9.98,9
10.,3
