t,neff
5.,0.598153454068
5.02,0.665853835452
5.04,0.711641662964
5.06,0.779590002502
5.08,0.490316093428
5.1,0.669895839027
5.12,0.580943820035
5.14,0.739304734621
5.16,0.94187753453
5.18,0.71830993001
5.2,0.809787099373
5.22,0.743094430209
5.24,0.766169738664
5.26,0.675866125466
5.28,0.72148188275
5.3,0.744936723536
5.32,0.699966878308
5.34,0.542492801777
5.36,0.520148723629
5.38,0.429790407289
5.4,0.339503934475
5.42,0.248921681765
5.44,0.316916651374
5.46,0.294388678672
5.48,0.271808355003
5.5,0.271584434952
5.52,0.158338940911
5.54,0.135699256037
5.56,0.0452149866819
5.58,0.0451951700333
5.6,0.0225767583656
5.62,0.0451185264519
5.64,0.0225438572313
5.66,0.0450704649245
5.68,0.
5.7,0.0450065446112
5.72,0.0449779036628
5.74,0.
5.76,0.022462817082
5.78,0.
5.8,0.0224272103
5.82,0.0447890029812
5.84,0.0671251770189
5.86,0.111772032265
5.88,0.178696089322
5.9,0.223250958229
5.92,0.33501394973
5.94,0.357125834927
5.96,0.335081093522
5.98,0.380050238423
6.,0.358001291972
6.02,0.492586589815
6.04,0.582934522419
6.06,0.516047445658
6.08,0.629294292239
6.1,0.69830696712
6.12,0.67663276647
6.14,0.723003648606
6.16,0.859282106994
6.18,0.724841666732
6.2,0.863035952268
6.22,0.887052874112
6.24,0.934603835496
6.26,0.845546835222
6.28,0.870245918285
6.3,0.848185242887
6.32,0.665095210528
6.34,0.572934581635
6.36,0.343709738334
6.38,0.366660471463
6.4,0.275090252569
6.42,0.298075303813
6.44,0.229287835818
6.46,0.229084701739
6.48,0.16025654351
6.5,0.114344887241
6.52,0.137113054935
6.54,0.0912829029499
6.56,0.0456077876224
6.58,0.
6.6,0.
6.62,0.
6.64,0.
6.66,0.0226797890272
6.68,0.
6.7,0.
6.72,0.
6.74,0.
6.76,0.
6.78,0.
6.8,0.0225122808214
6.82,0.044994290987
6.84,0.0674779354929
6.86,0.0899223639658
6.88,0.134844358399
6.9,0.134838262384
6.92,0.22475076031
6.94,0.247212277844
6.96,0.247272949256
6.98,0.359637198207
7.,0.314759762453
7.02,0.292377885489
7.04,0.383088253592
7.06,0.655184575947
7.08,0.633199849518
7.1,0.67952088751
7.12,0.748928054054
7.14,1.00165140931
7.16,0.797980773631
7.18,0.776896171644
7.2,0.709645450269
7.22,1.01038311391
7.24,0.689440638719
7.26,0.52922618331
7.28,0.644978794829
7.3,0.414505695015
7.32,0.530038577808
7.34,0.391613411846
7.36,0.253333783668
7.38,0.253219937289
7.4,0.207128880938
7.42,0.207180480404
7.44,0.115009337928
7.46,0.138017921465
7.48,0.137792401986
7.5,0.114735835261
7.52,0.0458602929131
7.54,0.
7.56,0.
7.58,0.
7.6,0.
7.62,0.0227791655684
7.64,0.
7.66,0.
7.68,0.
7.7,0.
7.72,0.
7.74,0.0226411253652
7.76,0.0226191480143
7.78,0.0452027733267
7.8,0.
7.82,0.0901854380481
7.84,0.0675466742329
7.86,0.0899925573628
7.88,0.0899884692694
7.9,0.11247942622
7.92,0.157355116633
7.94,0.134966651713
7.96,0.180017843304
7.98,0.382795893616
8.,0.405764610445
8.02,0.473945720426
8.04,0.497172724386
8.06,0.542876225684
8.08,0.611603117379
8.1,0.793983224868
8.12,0.79491718543
8.14,0.726679373239
8.16,0.818679102607
8.18,0.614649728444
8.2,0.638230088177
8.22,0.799083293627
8.24,0.754535425427
8.26,0.640468217211
8.28,0.57266592835
8.3,0.480756677639
8.32,0.526726275652
8.34,0.366184034291
8.36,0.29755301028
8.38,0.38924155725
8.4,0.183046647881
8.42,0.389339681869
8.44,0.274516271015
8.46,0.251491257637
8.48,0.18274080035
8.5,0.159717239284
8.52,0.0455665857153
8.54,0.113872870238
8.56,0.0682667138783
8.58,0.
8.6,0.022722481613
8.62,0.0227078060204
8.64,0.
8.66,0.
8.68,0.0226480486362
8.7,0.0226257652166
8.72,0.
8.74,0.0225773196647
8.76,0.
8.78,0.0451065357247
8.8,0.0450761626621
8.82,0.0900712172497
8.84,0.0674854107934
8.86,0.112411510855
8.88,0.134731489148
8.9,0.15708008141
8.92,0.22420546534
8.94,0.179258833622
8.96,0.358900486604
8.98,0.471230778736
9.,0.471273117405
9.02,0.404277525074
9.04,0.472299111129
9.06,0.49529725072
9.08,0.495657205118
9.1,0.383453716734
9.12,0.814346001344
9.14,0.565357421032
9.16,0.542589094012
9.18,0.657287957274
9.2,0.680518321358
9.22,0.590567733045
9.24,0.591378145435
9.26,0.63824537751
9.28,0.593783954142
9.3,0.68631185823
9.32,0.549371230849
9.34,0.435069926876
9.36,0.389080526325
9.38,0.366264993193
9.4,0.251756911872
9.42,0.274602179978
9.44,0.251457615048
9.46,0.13711236264
9.48,0.159956815142
9.5,0.114120292143
9.52,0.159650880378
9.54,0.0455630587785
9.56,0.0227414210629
9.58,0.
9.6,0.
9.62,0.
9.64,0.
9.66,0.0226240245548
9.68,0.
9.7,0.
9.72,0.
9.74,0.
9.76,0.0224943291164
9.78,0.0224739737523
9.8,0.0224577094784
9.82,0.0449028645835
9.84,0.0448659359787
9.86,0.0672952066442
9.88,0.179539807208
9.9,0.179385952955
9.92,0.15689470073
9.94,0.291375872784
9.96,0.26856830908
9.98,0.313090201656
10.,0.290417766647
