t,cases
5.01,2.405
5.02,2.405
5.03,2.925
5.04,2.925
5.05,2.86
5.06,2.86
5.07,2.47
5.08,2.47
5.09,2.405
5.1,2.405
5.11,2.73
5.12,2.73
5.13,3.835
5.14,3.835
5.15,4.42
5.16,4.42
5.17,3.9
5.18,3.9
5.19,3.575
5.2,3.575
5.21,3.64
5.22,3.64
5.23,3.185
5.24,3.185
5.25,3.055
5.26,3.055
5.27,3.445
5.28,3.445
5.29,3.38
5.3,3.38
5.31,3.185
5.32,3.185
5.33,3.25
5.34,3.25
5.35,2.99
5.36,2.99
5.37,2.275
5.38,2.275
5.39,1.56
5.4,1.56
5.41,1.17
5.42,1.17
5.43,1.365
5.44,1.365
5.45,1.17
5.46,1.17
5.47,0.715
5.48,0.715
5.49,0.585
5.5,0.585
5.51,0.52
5.52,0.52
5.53,0.325
5.54,0.325
5.55,0.065
5.56,0.065
5.57,0.065
5.58,0.065
5.59,0.195
5.6,0.195
5.61,0.13
5.62,0.13
5.63,0.
5.64,0.
5.65,0.
5.66,0.
5.67,0.
5.68,0.
5.69,0.
5.7,0.
5.71,0.325
5.72,0.325
5.73,0.65
5.74,0.65
5.75,0.52
5.76,0.52
5.77,0.325
5.78,0.325
5.79,0.325
5.8,0.325
5.81,0.52
5.82,0.52
5.83,0.65
5.84,0.65
5.85,0.715
5.86,0.715
5.87,0.845
5.88,0.845
5.89,0.845
5.9,0.845
5.91,0.715
5.92,0.715
5.93,1.17
5.94,1.17
5.95,1.69
5.96,1.69
5.97,1.495
5.98,1.495
5.99,1.495
6.,1.495
6.01,1.885
6.02,1.885
6.03,2.015
6.04,2.015
6.05,2.145
6.06,2.145
6.07,2.47
6.08,2.47
6.09,2.73
6.1,2.73
6.11,2.925
6.12,2.925
6.13,3.64
6.14,3.64
6.15,4.03
6.16,4.03
6.17,3.705
6.18,3.705
6.19,3.64
6.2,3.64
6.21,3.575
6.22,3.575
6.23,3.315
6.24,3.315
6.25,3.575
6.26,3.575
6.27,3.575
6.28,3.575
6.29,3.38
6.3,3.38
6.31,3.575
6.32,3.575
6.33,3.445
6.34,3.445
6.35,3.12
6.36,3.12
6.37,2.535
6.38,2.535
6.39,2.015
6.4,2.015
6.41,1.755
6.42,1.755
6.43,1.495
6.44,1.495
6.45,1.04
6.46,1.04
6.47,1.17
6.48,1.17
6.49,1.365
6.5,1.365
6.51,0.91
6.52,0.91
6.53,0.585
6.54,0.585
6.55,0.39
6.56,0.39
6.57,0.13
6.58,0.13
6.59,0.
6.6,0.
6.61,0.
6.62,0.
6.63,0.
6.64,0.
6.65,0.13
6.66,0.13
6.67,0.195
6.68,0.195
6.69,0.065
6.7,0.065
6.71,0.
6.72,0.
6.73,0.
6.74,0.
6.75,0.
6.76,0.
6.77,0.
6.78,0.
6.79,0.26
6.8,0.26
6.81,0.39
6.82,0.39
6.83,0.325
6.84,0.325
6.85,0.455
6.86,0.455
6.87,0.91
6.88,0.91
6.89,1.3
6.9,1.3
6.91,1.56
6.92,1.56
6.93,1.495
6.94,1.495
6.95,1.3
6.96,1.3
6.97,1.69
6.98,1.69
6.99,1.82
7.,1.82
7.01,1.69
7.02,1.69
7.03,1.885
7.04,1.885
7.05,2.405
7.06,2.405
7.07,3.185
7.08,3.185
7.09,3.315
7.1,3.315
7.11,3.705
7.12,3.705
7.13,5.005
7.14,5.005
7.15,5.07
7.16,5.07
7.17,4.355
7.18,4.355
7.19,4.615
7.2,4.615
7.21,4.55
7.22,4.55
7.23,4.29
7.24,4.29
7.25,4.355
7.26,4.355
7.27,4.03
7.28,4.03
7.29,3.445
7.3,3.445
7.31,3.055
7.32,3.055
7.33,2.86
7.34,2.86
7.35,2.665
7.36,2.665
7.37,2.47
7.38,2.47
7.39,2.08
7.4,2.08
7.41,1.56
7.42,1.56
7.43,1.105
7.44,1.105
7.45,1.04
7.46,1.04
7.47,0.845
7.48,0.845
7.49,0.52
7.5,0.52
7.51,0.325
7.52,0.325
7.53,0.13
7.54,0.13
7.55,0.13
7.56,0.13
7.57,0.26
7.58,0.26
7.59,0.13
7.6,0.13
7.61,0.
7.62,0.
7.63,0.065
7.64,0.065
7.65,0.26
7.66,0.26
7.67,0.455
7.68,0.455
7.69,0.39
7.7,0.39
7.71,0.325
7.72,0.325
7.73,0.455
7.74,0.455
7.75,0.325
7.76,0.325
7.77,0.26
7.78,0.26
7.79,0.39
7.8,0.39
7.81,0.39
7.82,0.39
7.83,0.52
7.84,0.52
7.85,0.78
7.86,0.78
7.87,1.04
7.88,1.04
7.89,1.3
7.9,1.3
7.91,1.495
7.92,1.495
7.93,1.3
7.94,1.3
7.95,1.105
7.96,1.105
7.97,1.3
7.98,1.3
7.99,1.3
8.,1.3
8.01,1.56
8.02,1.56
8.03,2.275
8.04,2.275
8.05,2.47
8.06,2.47
8.07,2.47
8.08,2.47
8.09,2.665
8.1,2.665
8.11,3.12
8.12,3.12
8.13,3.51
8.14,3.51
8.15,3.77
8.16,3.77
8.17,4.03
8.18,4.03
8.19,3.77
8.2,3.77
8.21,3.575
8.22,3.575
8.23,3.25
8.24,3.25
8.25,2.6
8.26,2.6
8.27,2.275
8.28,2.275
8.29,2.6
8.3,2.6
8.31,2.73
8.32,2.73
8.33,2.405
8.34,2.405
8.35,2.275
8.36,2.275
8.37,1.885
8.38,1.885
8.39,1.56
8.4,1.56
8.41,1.235
8.42,1.235
8.43,1.43
8.44,1.43
8.45,1.69
8.46,1.69
8.47,1.105
8.48,1.105
8.49,0.91
8.5,0.91
8.51,0.975
8.52,0.975
8.53,0.585
8.54,0.585
8.55,0.13
8.56,0.13
8.57,0.
8.58,0.
8.59,0.
8.6,0.
8.61,0.
8.62,0.
8.63,0.
8.64,0.
8.65,0.
8.66,0.
8.67,0.0649999999999
8.68,0.0650000000001
8.69,0.195
8.7,0.195
8.71,0.13
8.72,0.13
8.73,0.0649999999999
8.74,0.0650000000001
8.75,0.13
8.76,0.13
8.77,0.13
8.78,0.13
8.79,0.13
8.8,0.13
8.81,0.26
8.82,0.26
8.83,0.325
8.84,0.325
8.85,0.39
8.86,0.39
8.87,0.585
8.88,0.585
8.89,0.91
8.9,0.91
8.91,1.365
8.92,1.365
8.93,1.365
8.94,1.365
8.95,1.95
8.96,1.95
8.97,2.86
8.98,2.86
8.99,2.86
9.,2.86
9.01,2.47
9.02,2.47
9.03,2.34
9.04,2.34
9.05,2.925
9.06,2.925
9.07,2.99
9.08,2.99
9.09,2.405
9.1,2.405
9.11,2.795
9.12,2.795
9.13,2.86
9.14,2.86
9.15,2.925
9.16,2.925
9.17,3.445
9.18,3.445
9.19,3.12
9.2,3.12
9.21,2.73
9.22,2.73
9.23,2.86
9.24,2.86
9.25,3.055
9.26,3.055
9.27,3.185
9.28,3.185
9.29,3.51
9.3,3.51
9.31,3.25
9.32,3.25
9.33,2.795
9.34,2.795
9.35,2.6
9.36,2.6
9.37,2.275
9.38,2.275
9.39,1.69
9.4,1.69
9.41,1.3
9.42,1.3
9.43,1.235
9.44,1.235
9.45,1.17
9.46,1.17
9.47,0.845
9.48,0.845
9.49,0.585
9.5,0.585
9.51,0.585
9.52,0.585
9.53,0.39
9.54,0.39
9.55,0.195
9.56,0.195
9.57,0.0650000000001
9.58,0.0649999999999
9.59,0.
9.6,0.
9.61,0.
9.62,0.
9.63,0.0649999999999
9.64,0.0650000000001
9.65,0.0650000000001
9.66,0.0649999999999
9.67,0.
9.68,0.
9.69,0.
9.7,0.
9.71,0.0650000000001
9.72,0.0649999999999
9.73,0.195
9.74,0.195
9.75,0.39
9.76,0.39
9.77,0.39
9.78,0.39
9.79,0.39
9.8,0.39
9.81,0.52
9.82,0.52
9.83,0.65
9.84,0.65
9.85,0.78
9.86,0.78
9.87,0.78
9.88,0.78
9.89,1.105
9.9,1.105
9.91,1.43
9.92,1.43
9.93,1.43
9.94,1.43
9.95,1.69
9.96,1.69
9.97,2.275
9.98,2.275
9.99,3.12
10.,3.12
