t,s,e,i,r,c,o,n,reff,coal,reportr
5.,7003.,21.,11.,2965.,0.,0.,10000.,0.908007120892,2.24839858507,273.
5.02,6992.,23.,10.,2972.,0.,0.,9997.,0.906852919688,2.05027616625,299.
5.04,6982.,23.,16.,2974.,0.,0.,9995.,0.905737135035,2.04775352269,299.
5.06,6965.,29.,10.,2986.,0.,0.,9990.,0.903984035015,1.62093689037,377.
5.08,6963.,34.,11.,2985.,0.,0.,9993.,0.903453148715,1.38175187451,442.
5.1,6952.,24.,24.,2992.,0.,0.,9992.,0.902116167365,1.95458502929,312.
5.12,6943.,20.,24.,3007.,0.,0.,9994.,0.900767997619,2.34199679381,260.
5.14,6914.,37.,15.,3026.,0.,0.,9992.,0.897185152642,1.26090886317,481.
5.16,6902.,37.,13.,3038.,0.,0.,9990.,0.895807295,1.25897241459,481.
5.18,6899.,28.,24.,3042.,0.,0.,9993.,0.895149112881,1.66241978106,364.
5.2,6884.,31.,17.,3058.,0.,0.,9990.,0.893471083567,1.49872568856,403.
5.22,6870.,31.,13.,3075.,0.,0.,9989.,0.891743293823,1.49582746061,403.
5.24,6866.,25.,14.,3085.,0.,0.,9990.,0.891134872134,1.85356053404,325.
5.26,6857.,32.,8.,3092.,0.,0.,9989.,0.890055861099,1.44634077429,416.
5.28,6853.,22.,9.,3106.,0.,0.,9990.,0.889447608322,2.10233071058,286.
5.3,6851.,26.,10.,3103.,0.,0.,9990.,0.889188029274,1.77837605855,338.
5.32,6855.,25.,8.,3102.,0.,0.,9990.,0.88970718737,1.85059094973,325.
5.34,6856.,22.,5.,3110.,0.,0.,9993.,0.889569838804,2.10261961899,286.
5.36,6862.,15.,8.,3115.,0.,0.,10000.,0.889725098324,3.08438034086,195.
5.38,6863.,15.,8.,3113.,0.,0.,9999.,0.889943752434,3.08513834177,195.
5.4,6861.,12.,7.,3119.,0.,0.,9999.,0.88968440703,3.85529909713,156.
5.42,6865.,12.,3.,3120.,0.,0.,10000.,0.890114077528,3.85716100262,156.
5.44,6874.,10.,2.,3115.,0.,0.,10001.,0.891191895949,4.63419785893,130.
5.46,6878.,8.,3.,3111.,0.,0.,10000.,0.891799654076,5.7966977515,104.
5.48,6883.,6.,2.,3109.,0.,0.,10000.,0.892447952749,7.73454892383,78.
5.5,6889.,5.,0.,3109.,0.,0.,10003.,0.892958023749,9.28676344699,65.
5.52,6898.,3.,1.,3099.,0.,0.,10001.,0.894303418425,15.5012592527,39.
5.54,6910.,1.,2.,3091.,0.,0.,10004.,0.89559052937,46.5707075272,13.
5.56,6916.,1.,0.,3086.,0.,0.,10003.,0.896457786653,46.6158049059,13.
5.58,6919.,1.,0.,3081.,0.,0.,10001.,0.897026000592,46.6453520308,13.
5.6,6928.,1.,0.,3073.,0.,0.,10002.,0.898103020199,46.7013570503,13.
5.62,6931.,2.,0.,3068.,0.,0.,10001.,0.89858176183,23.3631258076,26.
5.64,6943.,2.,1.,3059.,0.,0.,10005.,0.899777647997,23.3942188479,26.
5.66,6949.,1.,1.,3055.,0.,0.,10006.,0.900465216098,46.8241912371,13.
5.68,6955.,2.,0.,3051.,0.,0.,10008.,0.901062603552,23.4276276924,26.
5.7,6958.,0.,3.,3045.,0.,0.,10006.,0.901631453966,inf,0.
5.72,6965.,3.,1.,3037.,0.,0.,10006.,0.902538527864,15.6440011496,39.
5.74,6979.,1.,2.,3029.,0.,0.,10011.,0.903900996168,47.0028518007,13.
5.76,6985.,1.,0.,3024.,0.,0.,10010.,0.904768477194,47.0479608141,13.
5.78,6989.,2.,0.,3016.,0.,0.,10007.,0.905557994013,23.5445078443,26.
5.8,7002.,1.,1.,3002.,0.,0.,10006.,0.907333061321,47.1813191887,13.
5.82,7014.,0.,2.,2992.,0.,0.,10008.,0.908706412842,inf,0.
5.84,7018.,3.,0.,2987.,0.,0.,10008.,0.909224637201,15.7598937115,39.
5.86,7022.,5.,0.,2980.,0.,0.,10007.,0.909833772208,9.46227123096,65.
5.88,7026.,4.,1.,2976.,0.,0.,10007.,0.910352048353,11.8345766286,52.
5.9,7026.,8.,2.,2970.,0.,0.,10006.,0.910443028969,5.9178796883,104.
5.92,7025.,9.,4.,2966.,0.,0.,10004.,0.910495436877,5.26064030196,117.
5.94,7029.,6.,7.,2960.,0.,0.,10002.,0.911196034783,7.89703230145,78.
5.96,7031.,9.,9.,2952.,0.,0.,10001.,0.911546438815,5.2667127576,117.
5.98,7035.,9.,4.,2957.,0.,0.,10005.,0.911700382206,5.2676022083,117.
6.,7040.,8.,6.,2953.,0.,0.,10007.,0.912166014859,5.92907909659,104.
6.02,7037.,13.,7.,2949.,0.,0.,10006.,0.911868430808,3.64747372323,169.
6.04,7036.,15.,8.,2946.,0.,0.,10005.,0.911829977143,3.16101058743,195.
6.06,7033.,15.,14.,2946.,0.,0.,10008.,0.911167978545,3.15871565896,195.
6.08,7025.,16.,17.,2951.,0.,0.,10009.,0.910040598513,2.95763194517,208.
6.1,7015.,26.,15.,2951.,0.,0.,10007.,0.908926788954,1.81785357791,338.
6.12,7000.,33.,16.,2958.,0.,0.,10007.,0.906983253411,1.42918573265,429.
6.14,6981.,36.,14.,2974.,0.,0.,10005.,0.904702255605,1.30679214698,468.
6.16,6971.,30.,19.,2985.,0.,0.,10005.,0.903406306234,1.56590426414,390.
6.18,6963.,29.,19.,2994.,0.,0.,10005.,0.902369546738,1.61804194587,377.
6.2,6950.,36.,15.,3007.,0.,0.,10008.,0.900414823104,1.30059918893,468.
6.22,6949.,25.,19.,3017.,0.,0.,10010.,0.900105389838,1.87221921086,325.
6.24,6944.,23.,26.,3018.,0.,0.,10011.,0.899367891874,2.03335349467,299.
6.26,6926.,39.,11.,3035.,0.,0.,10011.,0.897036581095,1.19604877479,507.
6.28,6915.,40.,14.,3042.,0.,0.,10011.,0.895611891174,1.16429545853,520.
6.3,6900.,33.,21.,3056.,0.,0.,10010.,0.893758409826,1.40834658518,429.
6.32,6895.,30.,16.,3068.,0.,0.,10009.,0.893199989573,1.54821331526,390.
6.34,6894.,24.,12.,3079.,0.,0.,10009.,0.893070446427,1.93498596726,312.
6.36,6889.,22.,8.,3090.,0.,0.,10009.,0.892422730699,2.10936281802,286.
6.38,6895.,14.,9.,3093.,0.,0.,10011.,0.893021545863,3.31693717035,182.
6.4,6899.,15.,11.,3088.,0.,0.,10013.,0.893361139021,3.09698528194,195.
6.42,6902.,11.,7.,3094.,0.,0.,10014.,0.893660363197,4.22457626238,143.
6.44,6903.,11.,3.,3097.,0.,0.,10014.,0.893789841661,4.2251883424,143.
6.46,6915.,7.,2.,3093.,0.,0.,10017.,0.895075436013,6.64913181038,91.
6.48,6918.,7.,1.,3091.,0.,0.,10017.,0.895463755074,6.65201646626,91.
6.5,6920.,4.,3.,3090.,0.,0.,10017.,0.895722634448,11.6443942478,52.
6.52,6926.,4.,1.,3084.,0.,0.,10015.,0.896678303878,11.6568179504,52.
6.54,6934.,2.,4.,3075.,0.,0.,10015.,0.897714028168,23.3405647324,26.
6.56,6942.,2.,1.,3072.,0.,0.,10017.,0.898570307563,23.3628279966,26.
6.58,6945.,3.,1.,3071.,0.,0.,10020.,0.898689477335,15.5772842738,39.
6.6,6944.,4.,2.,3068.,0.,0.,10018.,0.898739465517,11.6836130517,52.
6.62,6946.,3.,1.,3067.,0.,0.,10017.,0.899088066312,15.5841931494,39.
6.64,6950.,1.,0.,3065.,0.,0.,10016.,0.899695641935,46.7841733806,13.
6.66,6958.,2.,0.,3056.,0.,0.,10016.,0.900731262818,23.4190128333,26.
6.68,6965.,2.,2.,3049.,0.,0.,10018.,0.901457427611,23.4378931179,26.
6.7,6970.,0.,0.,3049.,0.,0.,10019.,0.902014522061,inf,0.
6.72,6974.,0.,0.,3040.,0.,0.,10014.,0.902982812653,inf,0.
6.74,6979.,0.,1.,3035.,0.,0.,10015.,0.903539977298,inf,0.
6.76,6990.,0.,0.,3028.,0.,0.,10018.,0.904693096769,inf,0.
6.78,6997.,1.,0.,3022.,0.,0.,10020.,0.905418325834,47.0817529433,13.
6.8,7003.,3.,0.,3012.,0.,0.,10018.,0.906375644732,15.7105111754,39.
6.82,7010.,3.,1.,3006.,0.,0.,10020.,0.907100537958,15.7230759913,39.
6.84,7013.,9.,1.,3001.,0.,0.,10024.,0.907126614363,5.2411759941,117.
6.86,7015.,9.,3.,2998.,0.,0.,10025.,0.907294800705,5.24214773741,117.
6.88,7015.,10.,2.,2999.,0.,0.,10026.,0.90720430651,4.71746239385,130.
6.9,7014.,9.,5.,2994.,0.,0.,10022.,0.907437016536,5.24296942887,117.
6.92,7010.,11.,3.,2997.,0.,0.,10021.,0.907010017996,4.28768372144,143.
6.94,7010.,6.,11.,2994.,0.,0.,10021.,0.907010017996,7.8607534893,78.
6.96,7011.,12.,6.,2995.,0.,0.,10024.,0.906867915771,3.92976096834,156.
6.98,7009.,10.,11.,2993.,0.,0.,10023.,0.906699670058,4.7148382843,130.
7.,7006.,12.,12.,2993.,0.,0.,10023.,0.906311583454,3.92735019497,156.
7.02,7000.,18.,11.,2993.,0.,0.,10022.,0.905625765006,2.61625221002,234.
7.04,6999.,21.,9.,2995.,0.,0.,10024.,0.905315724216,2.24173417425,273.
7.06,7007.,17.,12.,2988.,0.,0.,10024.,0.906350518586,2.77236629214,221.
7.08,7008.,13.,12.,2990.,0.,0.,10023.,0.906570307857,3.62628123143,169.
7.1,6994.,27.,8.,2992.,0.,0.,10021.,0.904939809681,1.74284704087,351.
7.12,6991.,28.,13.,2992.,0.,0.,10024.,0.904280929846,1.67937886971,364.
7.14,6977.,36.,14.,2999.,0.,0.,10026.,0.902290013759,1.30330779765,468.
7.16,6967.,35.,20.,3003.,0.,0.,10025.,0.901086653815,1.33875731424,455.
7.18,6944.,42.,20.,3016.,0.,0.,10022.,0.898380758886,1.11228093957,546.
7.2,6938.,36.,13.,3034.,0.,0.,10021.,0.897694080579,1.2966692275,468.
7.22,6936.,28.,12.,3044.,0.,0.,10020.,0.897524868941,1.66683189946,364.
7.24,6923.,30.,21.,3048.,0.,0.,10022.,0.895663881591,1.55248406142,390.
7.26,6915.,30.,10.,3066.,0.,0.,10021.,0.894718156126,1.55084480395,390.
7.28,6907.,30.,8.,3076.,0.,0.,10021.,0.893683051969,1.54905062341,390.
7.3,6908.,19.,14.,3078.,0.,0.,10019.,0.893990863472,2.44671183687,247.
7.32,6904.,21.,9.,3087.,0.,0.,10021.,0.89329488791,2.21196829387,273.
7.34,6891.,24.,2.,3104.,0.,0.,10021.,0.891612843654,1.93182782792,312.
7.36,6887.,20.,4.,3109.,0.,0.,10020.,0.891184223241,2.31707898043,260.
7.38,6887.,16.,9.,3107.,0.,0.,10019.,0.891273172659,2.89663781114,208.
7.4,6888.,15.,6.,3112.,0.,0.,10021.,0.891224679595,3.08957888926,195.
7.42,6893.,13.,6.,3112.,0.,0.,10024.,0.891604698817,3.56641879527,169.
7.44,6899.,11.,5.,3114.,0.,0.,10029.,0.891935894408,4.21642422811,143.
7.46,6904.,8.,7.,3113.,0.,0.,10032.,0.892315397901,5.80005008636,104.
7.48,6898.,9.,2.,3120.,0.,0.,10029.,0.891806609599,5.15266041102,117.
7.5,6905.,8.,5.,3111.,0.,0.,10029.,0.892711603259,5.80262542119,104.
7.52,6908.,7.,4.,3113.,0.,0.,10032.,0.892832382488,6.63246912706,91.
7.54,6911.,4.,4.,3113.,0.,0.,10032.,0.893220120929,11.6118615721,52.
7.56,6912.,4.,2.,3113.,0.,0.,10031.,0.89343842593,11.6146995371,52.
7.58,6917.,3.,0.,3111.,0.,0.,10031.,0.894084721088,15.4974684989,39.
7.6,6922.,1.,0.,3107.,0.,0.,10030.,0.89482022173,46.53065153,13.
7.62,6928.,0.,1.,3099.,0.,0.,10028.,0.89577447228,inf,0.
7.64,6934.,1.,0.,3095.,0.,0.,10030.,0.896371484756,46.6113172073,13.
7.66,6940.,0.,2.,3089.,0.,0.,10031.,0.897057678813,inf,0.
7.68,6950.,0.,2.,3080.,0.,0.,10032.,0.898260720656,inf,0.
7.7,6955.,1.,0.,3077.,0.,0.,10033.,0.898817356359,46.7385025307,13.
7.72,6959.,0.,0.,3072.,0.,0.,10031.,0.899513600412,inf,0.
7.74,6968.,1.,0.,3064.,0.,0.,10033.,0.900497388801,46.8258642176,13.
7.76,6974.,0.,0.,3059.,0.,0.,10033.,0.901272788389,inf,0.
7.78,6979.,1.,0.,3051.,0.,0.,10031.,0.902098781042,46.9091366142,13.
7.8,6988.,1.,0.,3042.,0.,0.,10031.,0.903262112326,46.969629841,13.
7.82,6999.,1.,2.,3032.,0.,0.,10034.,0.904413476135,47.029500759,13.
7.84,7003.,2.,0.,3028.,0.,0.,10033.,0.905020553067,23.5305343797,26.
7.86,7013.,1.,1.,3020.,0.,0.,10035.,0.906132255344,47.1188772779,13.
7.88,7016.,2.,0.,3019.,0.,0.,10037.,0.906339242245,23.5648202984,26.
7.9,7021.,2.,1.,3010.,0.,0.,10034.,0.90725632461,23.5886644399,26.
7.92,7028.,7.,1.,3002.,0.,0.,10038.,0.907798978139,6.74364955189,91.
7.94,7032.,4.,2.,2999.,0.,0.,10037.,0.908406150437,11.8092799557,52.
7.96,7030.,8.,3.,2998.,0.,0.,10039.,0.907966862959,5.90178460923,104.
7.98,7037.,8.,3.,2992.,0.,0.,10040.,0.908780430146,5.90707279595,104.
8.,7035.,10.,6.,2989.,0.,0.,10040.,0.908522143822,4.72431514787,130.
8.02,7030.,11.,7.,2986.,0.,0.,10034.,0.908419308077,4.29434582,143.
8.04,7029.,16.,4.,2982.,0.,0.,10031.,0.908561732619,2.95282563101,208.
8.06,7026.,19.,6.,2980.,0.,0.,10031.,0.908173955524,2.48552872038,247.
8.08,7028.,17.,8.,2982.,0.,0.,10035.,0.908070367968,2.7776270079,221.
8.1,7018.,27.,11.,2980.,0.,0.,10036.,0.906687940325,1.746213811,351.
8.12,7012.,27.,16.,2980.,0.,0.,10035.,0.906003047836,1.74489475879,351.
8.14,7004.,29.,21.,2981.,0.,0.,10035.,0.90496938777,1.62270372979,377.
8.16,6997.,28.,20.,2992.,0.,0.,10037.,0.903884788767,1.67864317914,364.
8.18,6977.,33.,23.,3002.,0.,0.,10035.,0.901480785047,1.42051517644,429.
8.2,6964.,35.,18.,3018.,0.,0.,10035.,0.89980108744,1.33684732991,455.
8.22,6957.,35.,17.,3029.,0.,0.,10038.,0.898627986754,1.33510443746,455.
8.24,6954.,27.,16.,3042.,0.,0.,10039.,0.898151004981,1.72977230589,351.
8.26,6951.,26.,6.,3059.,0.,0.,10042.,0.897495334293,1.79499066859,338.
8.28,6948.,20.,15.,3056.,0.,0.,10039.,0.897376068825,2.33317777894,260.
8.3,6951.,16.,8.,3067.,0.,0.,10042.,0.897495334293,2.91685983645,208.
8.32,6946.,17.,13.,3064.,0.,0.,10040.,0.897028402415,2.74385158386,221.
8.34,6942.,19.,11.,3069.,0.,0.,10041.,0.896422544653,2.45336696431,247.
8.36,6948.,22.,9.,3068.,0.,0.,10047.,0.89666152632,2.11938178948,286.
8.38,6949.,18.,4.,3076.,0.,0.,10047.,0.896790579504,2.59072834079,234.
8.4,6953.,9.,8.,3077.,0.,0.,10047.,0.897306792242,5.18443924407,117.
8.42,6962.,12.,5.,3071.,0.,0.,10050.,0.89820007142,3.89220030949,156.
8.44,6968.,7.,4.,3073.,0.,0.,10052.,0.898795294652,6.67676504598,91.
8.46,6967.,12.,1.,3070.,0.,0.,10050.,0.898845144726,3.89499562714,156.
8.48,6970.,7.,6.,3066.,0.,0.,10049.,0.899321673453,6.68067528851,91.
8.5,6971.,9.,1.,3069.,0.,0.,10050.,0.899361203371,5.19630917503,117.
8.52,6981.,4.,3.,3063.,0.,0.,10051.,0.900561741849,11.707302644,52.
8.54,6984.,2.,2.,3061.,0.,0.,10049.,0.90112805845,23.4293295197,26.
8.56,6993.,1.,2.,3055.,0.,0.,10051.,0.902109763752,46.9097077151,13.
8.58,6996.,1.,2.,3051.,0.,0.,10050.,0.902586569901,46.9345016349,13.
8.6,7001.,3.,0.,3048.,0.,0.,10052.,0.90305193138,15.6529001439,39.
8.62,7008.,1.,2.,3038.,0.,0.,10049.,0.904224718445,47.0196853591,13.
8.64,7015.,1.,0.,3035.,0.,0.,10051.,0.904947803907,47.0572858032,13.
8.66,7025.,1.,0.,3029.,0.,0.,10055.,0.905877309848,47.1056201121,13.
8.68,7031.,2.,0.,3021.,0.,0.,10054.,0.906741191028,23.5752709667,26.
8.7,7043.,1.,2.,3013.,0.,0.,10059.,0.907837270378,47.2075380597,13.
8.72,7051.,2.,0.,3010.,0.,0.,10063.,0.908507192835,23.6211870137,26.
8.74,7061.,0.,0.,3002.,0.,0.,10063.,0.909795672757,inf,0.
8.76,7062.,0.,0.,3001.,0.,0.,10063.,0.909924520749,inf,0.
8.78,7063.,1.,0.,2997.,0.,0.,10061.,0.910234275881,47.3321823458,13.
8.8,7070.,1.,1.,2992.,0.,0.,10064.,0.91086478846,47.3649689999,13.
8.82,7073.,1.,0.,2990.,0.,0.,10064.,0.911251294027,47.3850672894,13.
8.84,7075.,1.,1.,2985.,0.,0.,10062.,0.911690142892,47.4078874304,13.
8.86,7083.,5.,2.,2975.,0.,0.,10065.,0.912448981276,9.48946940527,65.
8.88,7079.,9.,5.,2973.,0.,0.,10066.,0.911843096281,5.26842677851,117.
8.9,7078.,9.,1.,2977.,0.,0.,10065.,0.911804869331,5.26820591169,117.
8.92,7090.,7.,2.,2969.,0.,0.,10068.,0.913078583429,6.7828694769,91.
8.94,7086.,10.,5.,2967.,0.,0.,10068.,0.912563447416,4.74532992656,130.
8.96,7083.,13.,6.,2964.,0.,0.,10066.,0.912358334646,3.64943333858,169.
8.98,7079.,16.,6.,2968.,0.,0.,10069.,0.911571417933,2.96260710828,208.
9.,7072.,24.,9.,2965.,0.,0.,10070.,0.910579585476,1.9729224352,312.
9.02,7067.,23.,10.,2967.,0.,0.,10067.,0.910206957288,2.05785920778,299.
9.04,7059.,23.,13.,2972.,0.,0.,10067.,0.90917658292,2.05552966573,299.
9.06,7050.,26.,14.,2977.,0.,0.,10067.,0.908017411756,1.81603482351,338.
9.08,7047.,28.,8.,2988.,0.,0.,10071.,0.907270528459,1.68493098142,364.
9.1,7044.,30.,12.,2984.,0.,0.,10070.,0.906974349561,1.57208887257,390.
9.12,7033.,27.,17.,2991.,0.,0.,10068.,0.905737895241,1.74438409454,351.
9.14,7033.,27.,16.,2992.,0.,0.,10068.,0.905737895241,1.74438409454,351.
9.16,7029.,25.,16.,2998.,0.,0.,10068.,0.905222759227,1.88286333919,325.
9.18,7015.,35.,13.,3006.,0.,0.,10069.,0.903330060291,1.34209037529,455.
9.2,7003.,33.,19.,3015.,0.,0.,10070.,0.901695254114,1.42085312769,429.
9.22,6988.,40.,11.,3034.,0.,0.,10073.,0.89949590477,1.1693446762,520.
9.24,6978.,28.,28.,3040.,0.,0.,10074.,0.898119542912,1.66793629398,364.
9.26,6954.,31.,18.,3064.,0.,0.,10067.,0.895652919341,1.50238554212,403.
9.28,6943.,21.,19.,3080.,0.,0.,10063.,0.89459160968,2.21517922397,273.
9.3,6931.,28.,11.,3088.,0.,0.,10058.,0.893489381593,1.65933742296,364.
9.32,6934.,23.,16.,3089.,0.,0.,10062.,0.893520770433,2.02013391576,299.
9.34,6929.,29.,3.,3101.,0.,0.,10062.,0.892876466445,1.60101987087,377.
9.36,6928.,26.,3.,3105.,0.,0.,10062.,0.892747605648,1.7854952113,338.
9.38,6931.,19.,10.,3104.,0.,0.,10064.,0.892956697145,2.44388148692,247.
9.4,6935.,16.,1.,3116.,0.,0.,10068.,0.893117062917,2.90263045448,208.
9.42,6938.,12.,3.,3114.,0.,0.,10067.,0.893592170605,3.87223273929,156.
9.44,6935.,10.,3.,3113.,0.,0.,10061.,0.893738454373,4.64743996274,130.
9.46,6935.,10.,2.,3112.,0.,0.,10059.,0.893916153638,4.64836399892,130.
9.48,6938.,10.,5.,3109.,0.,0.,10062.,0.894036213624,4.64898831084,130.
9.5,6939.,5.,0.,3116.,0.,0.,10060.,0.894342840838,9.30116554471,65.
9.52,6949.,3.,0.,3112.,0.,0.,10064.,0.895275730552,15.5181126629,39.
9.54,6953.,2.,2.,3107.,0.,0.,10064.,0.89579107131,23.2905678541,26.
9.56,6960.,1.,0.,3106.,0.,0.,10067.,0.896425700117,46.6141364061,13.
9.58,6963.,0.,1.,3102.,0.,0.,10066.,0.896901183699,inf,0.
9.6,6967.,0.,0.,3097.,0.,0.,10064.,0.89759476396,inf,0.
9.62,6978.,0.,0.,3090.,0.,0.,10068.,0.898654775059,inf,0.
9.64,6989.,0.,0.,3081.,0.,0.,10070.,0.899892636156,inf,0.
9.66,6992.,1.,0.,3076.,0.,0.,10069.,0.900368322388,46.8191527642,13.
9.68,6998.,0.,0.,3071.,0.,0.,10069.,0.901140949667,inf,0.
9.7,7007.,1.,0.,3062.,0.,0.,10070.,0.902210287816,46.9149349664,13.
9.72,7013.,0.,3.,3055.,0.,0.,10071.,0.902893176683,inf,0.
9.74,7024.,0.,0.,3051.,0.,0.,10075.,0.90395034771,inf,0.
9.76,7029.,1.,0.,3044.,0.,0.,10074.,0.904683615237,47.0435479923,13.
9.78,7032.,2.,0.,3035.,0.,0.,10069.,0.905519170914,23.5434984438,26.
9.8,7035.,1.,0.,3033.,0.,0.,10069.,0.905905484554,47.1070851968,13.
9.82,7045.,1.,0.,3025.,0.,0.,10071.,0.907013037179,47.1646779333,13.
9.84,7050.,4.,3.,3014.,0.,0.,10071.,0.907656765381,11.79953795,52.
9.86,7048.,6.,2.,3015.,0.,0.,10071.,0.9073992741,7.8641270422,78.
9.88,7057.,4.,4.,3009.,0.,0.,10074.,0.908287419651,11.8077364555,52.
9.9,7057.,6.,4.,3006.,0.,0.,10073.,0.908377590149,7.87260578129,78.
9.92,7056.,13.,4.,3002.,0.,0.,10075.,0.908068572528,3.63227429011,169.
9.94,7055.,12.,6.,2999.,0.,0.,10072.,0.908210312835,3.93557802229,156.
9.96,7050.,12.,4.,3005.,0.,0.,10071.,0.907656765381,3.93317931665,156.
9.98,7053.,12.,4.,3005.,0.,0.,10074.,0.907772590449,3.93368122528,156.
10.,7048.,14.,5.,3003.,0.,0.,10070.,0.907489383263,3.37067485212,182.
