t,neff
5.,0.446441031514
5.02,0.328553769084
5.04,0.493583217952
5.06,0.635083540897
5.08,0.470432252518
5.1,0.589235443289
5.12,0.778844943887
5.14,0.77970821268
5.16,0.970705466975
5.18,0.758386226309
5.2,0.759634102239
5.22,0.856406315802
5.24,0.666529905586
5.26,0.834688806752
5.28,0.691683813019
5.3,0.620557663819
5.32,0.501219651545
5.34,0.381466084281
5.36,0.38133057235
5.38,0.238033349124
5.4,0.238160007522
5.42,0.213997521974
5.44,0.189879321421
5.46,0.142136345987
5.48,0.142061141572
5.5,0.0945550865303
5.52,0.0235954231073
5.54,0.0471009280872
5.56,0.0470313878251
5.58,0.0469972969666
5.6,0.023475166801
5.62,0.0469081262528
5.64,0.0234113942557
5.66,0.0233514119565
5.68,0.0700262113729
5.7,0.0466469918423
5.72,0.0232859424018
5.74,0.0697037487702
5.76,0.0232132163387
5.78,0.0463613465096
5.8,0.0231303739953
5.82,0.0693432742893
5.84,0.0923739863874
5.86,0.115356624382
5.88,0.184324951123
5.9,0.322924849335
5.92,0.207431009424
5.94,0.207252834703
5.96,0.368856171007
5.98,0.276554810924
6.,0.415230644152
6.02,0.438342873876
6.04,0.507546854202
6.06,0.5540930756
6.08,0.391948911894
6.1,0.646387721652
6.12,0.601088848491
6.14,0.578668801432
6.16,0.858912199137
6.18,0.743466728457
6.2,0.51018836339
6.22,0.626961949615
6.24,0.510429790894
6.26,0.580620864128
6.28,0.580705826936
6.3,0.557615020846
6.32,0.417331949578
6.34,0.254614272631
6.36,0.254556279583
6.38,0.277329941876
6.4,0.161615734895
6.42,0.276797096139
6.44,0.184335779154
6.46,0.115000524358
6.48,0.183906107119
6.5,0.114716584604
6.52,0.0458049381977
6.54,0.0457423845096
6.56,0.0685131405561
6.58,0.
6.6,0.
6.62,0.045462994309
6.64,0.
6.66,0.022664711003
6.68,0.
6.7,0.
6.72,0.0225595604234
6.74,0.0225125465318
6.76,0.0449811198435
6.78,0.
6.8,0.0224287016403
6.82,0.
6.84,0.134445857496
6.86,0.0895106645446
6.88,0.179009343216
6.9,0.201150090514
6.92,0.245710490302
6.94,0.357588083228
6.96,0.268137252015
6.98,0.357755477382
7.,0.379670764058
7.02,0.379354342999
7.04,0.245300904554
7.06,0.468098701589
7.08,0.468332828983
7.1,0.602604474372
7.12,0.446507627625
7.14,0.53602382015
7.16,0.581605608662
7.18,0.718105803948
7.2,0.944004220206
7.22,0.83229813554
7.24,0.765407023872
7.26,0.766569863707
7.28,0.655186946475
7.3,0.678102178027
7.32,0.632958941783
7.34,0.723599621329
7.36,0.519609147972
7.38,0.383631447614
7.4,0.406405790196
7.42,0.270717135785
7.44,0.180380200662
7.46,0.112570390362
7.48,0.135025010009
7.5,0.112384826157
7.52,0.0897900832907
7.54,0.089684731199
7.56,0.0447823155616
7.58,0.0223731789362
7.6,0.
7.62,0.
7.64,0.
7.66,0.0222415270556
7.68,0.
7.7,0.
7.72,0.
7.74,0.0220771791854
7.76,0.0440832187314
7.78,0.0440179854251
7.8,0.0219676615936
7.82,0.0877098800456
7.84,0.153532829059
7.86,0.0876468775105
7.88,0.219288645292
7.9,0.262801885561
7.92,0.240713688156
7.94,0.284386830824
7.96,0.262332624707
7.98,0.28418312137
8.,0.39388478338
8.02,0.39388478338
8.04,0.460133827701
8.06,0.306809158352
8.08,0.526714838124
8.1,0.792018887254
8.12,0.70540721024
8.14,0.72876602497
8.16,0.906841778052
8.18,0.996037285054
8.2,0.819399186934
8.22,0.66461774651
8.24,0.620555882385
8.26,0.554140200622
8.28,0.444106163953
8.3,0.6889385033
8.32,0.645006014579
8.34,0.623593260914
8.36,0.556631294401
8.38,0.400680499384
8.4,0.400547227972
8.42,0.244485815985
8.44,0.177554042254
8.46,0.155287273523
8.48,0.0886241757604
8.5,0.0885273173944
8.52,0.0221040092307
8.54,0.0441277993584
8.56,0.0220261446703
8.58,0.0659740347852
8.6,0.0439148971052
8.62,0.0438716879577
8.64,0.
8.66,0.0437739682064
8.68,0.0218520407237
8.7,0.0218413376834
8.72,0.0218142166639
8.74,0.0436142082109
8.76,0.0217787001926
8.78,0.0217539073968
8.8,0.0434859954281
8.82,0.0651703881055
8.84,0.0434126979452
8.86,0.108423605589
8.88,0.0433430077145
8.9,0.108388460174
8.92,0.151626838273
8.94,0.195048045397
8.96,0.194846590919
8.98,0.108128020113
9.,0.367881594835
9.02,0.432968716425
9.04,0.368142664764
9.06,0.389915501132
9.08,0.520900102376
9.1,0.521929486861
9.12,0.391702046513
9.14,0.654689872789
9.16,0.699662713615
9.18,0.74395305657
9.2,0.743513261427
9.22,0.612204874413
9.24,0.63479623977
9.26,0.569531076126
9.28,0.658014494545
9.3,0.504197285818
9.32,0.570263789722
9.34,0.328707631939
9.36,0.372423106765
9.38,0.350666078343
9.4,0.328791292402
9.42,0.307042587736
9.44,0.262886898893
9.46,0.262757631446
9.48,0.196849686232
9.5,0.109356875508
9.52,0.0655299847581
9.54,0.0654632826353
9.56,0.
9.58,0.0217704569514
9.6,0.0217518918791
9.62,0.
9.64,0.
9.66,0.
9.68,0.
9.7,0.
9.72,0.
9.74,0.0215394862851
9.76,0.
9.78,0.021499172102
9.8,0.0429620293847
9.82,0.0858843283118
9.84,0.107241085345
9.86,0.0856810197852
9.88,0.10698109055
9.9,0.171128837528
9.92,0.171108403507
9.94,0.2140697214
9.96,0.214061020929
9.98,0.256806236664
10.,0.364224636591
