t,cases
5.01,2.99
5.02,2.99
5.03,2.47
5.04,2.47
5.05,2.925
5.06,2.925
5.07,3.25
5.08,3.25
5.09,3.315
5.1,3.315
5.11,3.575
5.12,3.575
5.13,3.51
5.14,3.51
5.15,3.965
5.16,3.965
5.17,4.745
5.18,4.745
5.19,4.68
5.2,4.68
5.21,5.005
5.22,5.005
5.23,5.135
5.24,5.135
5.25,4.16
5.26,4.16
5.27,4.225
5.28,4.225
5.29,4.355
5.3,4.355
5.31,4.03
5.32,4.03
5.33,3.705
5.34,3.705
5.35,3.575
5.36,3.575
5.37,3.185
5.38,3.185
5.39,2.535
5.4,2.535
5.41,2.275
5.42,2.275
5.43,1.69
5.44,1.69
5.45,1.365
5.46,1.365
5.47,1.3
5.48,1.3
5.49,1.235
5.5,1.235
5.51,1.235
5.52,1.235
5.53,0.78
5.54,0.78
5.55,0.455
5.56,0.455
5.57,0.325
5.58,0.325
5.59,0.13
5.6,0.13
5.61,0.065
5.62,0.065
5.63,0.13
5.64,0.13
5.65,0.13
5.66,0.13
5.67,0.13
5.68,0.13
5.69,0.13
5.7,0.13
5.71,0.065
5.72,0.065
5.73,0.065
5.74,0.065
5.75,0.065
5.76,0.065
5.77,0.065
5.78,0.065
5.79,0.195
5.8,0.195
5.81,0.195
5.82,0.195
5.83,0.39
5.84,0.39
5.85,0.715
5.86,0.715
5.87,0.845
5.88,0.845
5.89,0.975
5.9,0.975
5.91,1.3
5.92,1.3
5.93,1.625
5.94,1.625
5.95,1.56
5.96,1.56
5.97,1.625
5.98,1.625
5.99,2.145
6.,2.145
6.01,3.055
6.02,3.055
6.03,3.64
6.04,3.64
6.05,3.445
6.06,3.445
6.07,3.315
6.08,3.315
6.09,3.575
6.1,3.575
6.11,3.705
6.12,3.705
6.13,3.64
6.14,3.64
6.15,3.445
6.16,3.445
6.17,3.705
6.18,3.705
6.19,4.355
6.2,4.355
6.21,4.94
6.22,4.94
6.23,5.135
6.24,5.135
6.25,4.55
6.26,4.55
6.27,3.9
6.28,3.9
6.29,3.51
6.3,3.51
6.31,3.64
6.32,3.64
6.33,3.77
6.34,3.77
6.35,3.315
6.36,3.315
6.37,2.795
6.38,2.795
6.39,2.08
6.4,2.08
6.41,1.43
6.42,1.43
6.43,1.17
6.44,1.17
6.45,1.17
6.46,1.17
6.47,1.235
6.48,1.235
6.49,1.235
6.5,1.235
6.51,1.04
6.52,1.04
6.53,0.52
6.54,0.52
6.55,0.195
6.56,0.195
6.57,0.065
6.58,0.065
6.59,0.
6.6,0.
6.61,0.
6.62,0.
6.63,0.
6.64,0.
6.65,0.
6.66,0.
6.67,0.
6.68,0.
6.69,0.
6.7,0.
6.71,0.
6.72,0.
6.73,0.
6.74,0.
6.75,0.13
6.76,0.13
6.77,0.325
6.78,0.325
6.79,0.455
6.8,0.455
6.81,0.39
6.82,0.39
6.83,0.325
6.84,0.325
6.85,0.715
6.86,0.715
6.87,1.3
6.88,1.3
6.89,1.365
6.9,1.365
6.91,1.365
6.92,1.365
6.93,1.885
6.94,1.885
6.95,2.08
6.96,2.08
6.97,2.34
6.98,2.34
6.99,2.73
7.,2.73
7.01,3.12
7.02,3.12
7.03,3.12
7.04,3.12
7.05,3.185
7.06,3.185
7.07,3.445
7.08,3.445
7.09,2.925
7.1,2.925
7.11,2.6
7.12,2.6
7.13,2.925
7.14,2.925
7.15,3.445
7.16,3.445
7.17,3.705
7.18,3.705
7.19,3.9
7.2,3.9
7.21,3.9
7.22,3.9
7.23,3.445
7.24,3.445
7.25,3.12
7.26,3.12
7.27,2.535
7.28,2.535
7.29,2.21
7.3,2.21
7.31,2.47
7.32,2.47
7.33,2.08
7.34,2.08
7.35,1.69
7.36,1.69
7.37,1.82
7.38,1.82
7.39,1.625
7.4,1.625
7.41,1.105
7.42,1.105
7.43,0.845
7.44,0.845
7.45,0.845
7.46,0.845
7.47,0.91
7.48,0.91
7.49,0.78
7.5,0.78
7.51,0.585
7.52,0.585
7.53,0.39
7.54,0.39
7.55,0.195
7.56,0.195
7.57,0.26
7.58,0.26
7.59,0.26
7.6,0.26
7.61,0.26
7.62,0.26
7.63,0.325
7.64,0.325
7.65,0.26
7.66,0.26
7.67,0.195
7.68,0.195
7.69,0.195
7.7,0.195
7.71,0.195
7.72,0.195
7.73,0.195
7.74,0.195
7.75,0.26
7.76,0.26
7.77,0.13
7.78,0.13
7.79,0.13
7.8,0.13
7.81,0.325
7.82,0.325
7.83,0.585
7.84,0.585
7.85,0.91
7.86,0.91
7.87,0.975
7.88,0.975
7.89,0.975
7.9,0.975
7.91,0.845
7.92,0.845
7.93,0.845
7.94,0.845
7.95,1.235
7.96,1.235
7.97,1.365
7.98,1.365
7.99,1.82
8.,1.82
8.01,2.21
8.02,2.21
8.03,2.21
8.04,2.21
8.05,2.47
8.06,2.47
8.07,2.925
8.08,2.925
8.09,3.445
8.1,3.445
8.11,3.77
8.12,3.77
8.13,4.03
8.14,4.03
8.15,4.16
8.16,4.16
8.17,4.095
8.18,4.095
8.19,4.94
8.2,4.94
8.21,5.33
8.22,5.33
8.23,4.745
8.24,4.745
8.25,4.29
8.26,4.29
8.27,3.835
8.28,3.835
8.29,3.445
8.3,3.445
8.31,2.86
8.32,2.86
8.33,2.535
8.34,2.535
8.35,2.015
8.36,2.015
8.37,1.755
8.38,1.755
8.39,1.69
8.4,1.69
8.41,1.365
8.42,1.365
8.43,1.235
8.44,1.235
8.45,1.04
8.46,1.04
8.47,0.78
8.48,0.78
8.49,0.455
8.5,0.455
8.51,0.195
8.52,0.195
8.53,0.13
8.54,0.13
8.55,0.13
8.56,0.13
8.57,0.195
8.58,0.195
8.59,0.26
8.6,0.26
8.61,0.13
8.62,0.13
8.63,0.0649999999999
8.64,0.0650000000001
8.65,0.195
8.66,0.195
8.67,0.13
8.68,0.13
8.69,0.0649999999999
8.7,0.0650000000001
8.71,0.13
8.72,0.13
8.73,0.0650000000001
8.74,0.0649999999999
8.75,0.
8.76,0.
8.77,0.
8.78,0.
8.79,0.0649999999999
8.8,0.0650000000001
8.81,0.26
8.82,0.26
8.83,0.52
8.84,0.52
8.85,0.65
8.86,0.65
8.87,0.585
8.88,0.585
8.89,0.715
8.9,0.715
8.91,1.235
8.92,1.235
8.93,1.495
8.94,1.495
8.95,1.885
8.96,1.885
8.97,1.625
8.98,1.625
8.99,1.3
9.,1.3
9.01,2.015
9.02,2.015
9.03,2.34
9.04,2.34
9.05,2.21
9.06,2.21
9.07,2.535
9.08,2.535
9.09,3.185
9.1,3.185
9.11,3.64
9.12,3.64
9.13,3.77
9.14,3.77
9.15,3.445
9.16,3.445
9.17,3.77
9.18,3.77
9.19,4.225
9.2,4.225
9.21,4.225
9.22,4.225
9.23,4.16
9.24,4.16
9.25,4.095
9.26,4.095
9.27,3.185
9.28,3.185
9.29,2.6
9.3,2.6
9.31,2.86
9.32,2.86
9.33,2.73
9.34,2.73
9.35,2.275
9.36,2.275
9.37,1.69
9.38,1.69
9.39,1.755
9.4,1.755
9.41,2.015
9.42,2.015
9.43,1.82
9.44,1.82
9.45,1.56
9.46,1.56
9.47,1.43
9.48,1.43
9.49,1.235
9.5,1.235
9.51,0.91
9.52,0.91
9.53,0.455
9.54,0.455
9.55,0.195
9.56,0.195
9.57,0.13
9.58,0.13
9.59,0.13
9.6,0.13
9.61,0.195
9.62,0.195
9.63,0.13
9.64,0.13
9.65,0.
9.66,0.
9.67,0.0650000000001
9.68,0.0649999999999
9.69,0.195
9.7,0.195
9.71,0.13
9.72,0.13
9.73,0.0650000000001
9.74,0.0649999999999
9.75,0.325
9.76,0.325
9.77,0.455
9.78,0.455
9.79,0.325
9.8,0.325
9.81,0.26
9.82,0.26
9.83,0.455
9.84,0.455
9.85,0.715
9.86,0.715
9.87,0.91
9.88,0.91
9.89,1.04
9.9,1.04
9.91,1.235
9.92,1.235
9.93,1.625
9.94,1.625
9.95,1.56
9.96,1.56
9.97,1.365
9.98,1.365
9.99,1.3
10.,1.3
