t,cases
5.01,2.99
5.02,2.99
5.03,3.055
5.04,3.055
5.05,3.445
5.06,3.445
5.07,3.705
5.08,3.705
5.09,3.77
5.1,3.77
5.11,3.9
5.12,3.9
5.13,3.835
5.14,3.835
5.15,3.9
5.16,3.9
5.17,3.835
5.18,3.835
5.19,3.575
5.2,3.575
5.21,3.38
5.22,3.38
5.23,3.38
5.24,3.38
5.25,3.38
5.26,3.38
5.27,2.99
5.28,2.99
5.29,2.86
5.3,2.86
5.31,2.73
5.32,2.73
5.33,3.055
5.34,3.055
5.35,2.99
5.36,2.99
5.37,2.47
5.38,2.47
5.39,2.405
5.4,2.405
5.41,2.145
5.42,2.145
5.43,1.95
5.44,1.95
5.45,1.885
5.46,1.885
5.47,1.625
5.48,1.625
5.49,1.235
5.5,1.235
5.51,0.845
5.52,0.845
5.53,0.52
5.54,0.52
5.55,0.26
5.56,0.26
5.57,0.325
5.58,0.325
5.59,0.195
5.6,0.195
5.61,0.
5.62,0.
5.63,0.
5.64,0.
5.65,0.
5.66,0.
5.67,0.
5.68,0.
5.69,0.065
5.7,0.065
5.71,0.13
5.72,0.13
5.73,0.13
5.74,0.13
5.75,0.065
5.76,0.065
5.77,0.
5.78,0.
5.79,0.
5.8,0.
5.81,0.195
5.82,0.195
5.83,0.455
5.84,0.455
5.85,0.715
5.86,0.715
5.87,0.91
5.88,0.91
5.89,1.105
5.9,1.105
5.91,1.56
5.92,1.56
5.93,1.755
5.94,1.755
5.95,1.82
5.96,1.82
5.97,1.885
5.98,1.885
5.99,2.21
6.,2.21
6.01,2.665
6.02,2.665
6.03,2.795
6.04,2.795
6.05,2.795
6.06,2.795
6.07,2.99
6.08,2.99
6.09,3.445
6.1,3.445
6.11,3.705
6.12,3.705
6.13,3.575
6.14,3.575
6.15,3.445
6.16,3.445
6.17,3.965
6.18,3.965
6.19,3.705
6.2,3.705
6.21,3.38
6.22,3.38
6.23,3.835
6.24,3.835
6.25,3.9
6.26,3.9
6.27,3.51
6.28,3.51
6.29,3.38
6.3,3.38
6.31,3.25
6.32,3.25
6.33,2.6
6.34,2.6
6.35,2.21
6.36,2.21
6.37,1.885
6.38,1.885
6.39,1.625
6.4,1.625
6.41,1.17
6.42,1.17
6.43,0.845
6.44,0.845
6.45,0.91
6.46,0.91
6.47,0.65
6.48,0.65
6.49,0.39
6.5,0.39
6.51,0.26
6.52,0.26
6.53,0.26
6.54,0.26
6.55,0.26
6.56,0.26
6.57,0.195
6.58,0.195
6.59,0.195
6.6,0.195
6.61,0.065
6.62,0.065
6.63,0.
6.64,0.
6.65,0.065
6.66,0.065
6.67,0.065
6.68,0.065
6.69,0.
6.7,0.
6.71,0.065
6.72,0.065
6.73,0.13
6.74,0.13
6.75,0.065
6.76,0.065
6.77,0.065
6.78,0.065
6.79,0.13
6.8,0.13
6.81,0.13
6.82,0.13
6.83,0.26
6.84,0.26
6.85,0.39
6.86,0.39
6.87,0.455
6.88,0.455
6.89,0.585
6.9,0.585
6.91,1.04
6.92,1.04
6.93,1.495
6.94,1.495
6.95,1.69
6.96,1.69
6.97,1.95
6.98,1.95
6.99,2.08
7.,2.08
7.01,2.405
7.02,2.405
7.03,3.185
7.04,3.185
7.05,3.25
7.06,3.25
7.07,2.665
7.08,2.665
7.09,3.055
7.1,3.055
7.11,4.16
7.12,4.16
7.13,4.745
7.14,4.745
7.15,5.07
7.16,5.07
7.17,5.07
7.18,5.07
7.19,5.005
7.2,5.005
7.21,4.485
7.22,4.485
7.23,3.64
7.24,3.64
7.25,3.835
7.26,3.835
7.27,4.355
7.28,4.355
7.29,4.615
7.3,4.615
7.31,3.9
7.32,3.9
7.33,3.445
7.34,3.445
7.35,3.12
7.36,3.12
7.37,2.535
7.38,2.535
7.39,2.275
7.4,2.275
7.41,2.21
7.42,2.21
7.43,2.145
7.44,2.145
7.45,1.755
7.46,1.755
7.47,1.17
7.48,1.17
7.49,0.52
7.5,0.52
7.51,0.455
7.52,0.455
7.53,0.585
7.54,0.585
7.55,0.39
7.56,0.39
7.57,0.13
7.58,0.13
7.59,0.065
7.6,0.065
7.61,0.
7.62,0.
7.63,0.065
7.64,0.065
7.65,0.13
7.66,0.13
7.67,0.065
7.68,0.065
7.69,0.065
7.7,0.065
7.71,0.13
7.72,0.13
7.73,0.13
7.74,0.13
7.75,0.13
7.76,0.13
7.77,0.13
7.78,0.13
7.79,0.195
7.8,0.195
7.81,0.26
7.82,0.26
7.83,0.455
7.84,0.455
7.85,0.78
7.86,0.78
7.87,0.78
7.88,0.78
7.89,0.975
7.9,0.975
7.91,1.235
7.92,1.235
7.93,1.17
7.94,1.17
7.95,1.365
7.96,1.365
7.97,1.625
7.98,1.625
7.99,1.755
8.,1.755
8.01,2.08
8.02,2.08
8.03,2.145
8.04,2.145
8.05,2.6
8.06,2.6
8.07,3.445
8.08,3.445
8.09,3.185
8.1,3.185
8.11,2.6
8.12,2.6
8.13,2.86
8.14,2.86
8.15,3.445
8.16,3.445
8.17,3.705
8.18,3.705
8.19,3.9
8.2,3.9
8.21,4.225
8.22,4.225
8.23,3.835
8.24,3.835
8.25,3.77
8.26,3.77
8.27,3.77
8.28,3.77
8.29,3.315
8.3,3.315
8.31,2.925
8.32,2.925
8.33,2.34
8.34,2.34
8.35,2.34
8.36,2.34
8.37,2.405
8.38,2.405
8.39,1.95
8.4,1.95
8.41,1.43
8.42,1.43
8.43,1.3
8.44,1.3
8.45,1.3
8.46,1.3
8.47,0.91
8.48,0.91
8.49,0.455
8.5,0.455
8.51,0.26
8.52,0.26
8.53,0.0649999999999
8.54,0.0650000000001
8.55,0.
8.56,0.
8.57,0.
8.58,0.
8.59,0.
8.6,0.
8.61,0.
8.62,0.
8.63,0.
8.64,0.
8.65,0.
8.66,0.
8.67,0.
8.68,0.
8.69,0.
8.7,0.
8.71,0.0650000000001
8.72,0.0649999999999
8.73,0.0649999999999
8.74,0.0650000000001
8.75,0.
8.76,0.
8.77,0.
8.78,0.
8.79,0.195
8.8,0.195
8.81,0.52
8.82,0.52
8.83,0.65
8.84,0.65
8.85,0.65
8.86,0.65
8.87,0.585
8.88,0.585
8.89,0.78
8.9,0.78
8.91,0.91
8.92,0.91
8.93,1.04
8.94,1.04
8.95,1.17
8.96,1.17
8.97,1.625
8.98,1.625
8.99,1.885
9.,1.885
9.01,1.82
9.02,1.82
9.03,2.21
9.04,2.21
9.05,2.795
9.06,2.795
9.07,3.38
9.08,3.38
9.09,3.77
9.1,3.77
9.11,3.9
9.12,3.9
9.13,3.705
9.14,3.705
9.15,4.225
9.16,4.225
9.17,4.745
9.18,4.745
9.19,4.68
9.2,4.68
9.21,4.68
9.22,4.68
9.23,4.03
9.24,4.03
9.25,3.38
9.26,3.38
9.27,3.315
9.28,3.315
9.29,3.64
9.3,3.64
9.31,3.64
9.32,3.64
9.33,3.185
9.34,3.185
9.35,2.665
9.36,2.665
9.37,2.405
9.38,2.405
9.39,2.145
9.4,2.145
9.41,1.755
9.42,1.755
9.43,1.95
9.44,1.95
9.45,1.95
9.46,1.95
9.47,1.17
9.48,1.17
9.49,0.39
9.5,0.39
9.51,0.195
9.52,0.195
9.53,0.195
9.54,0.195
9.55,0.195
9.56,0.195
9.57,0.13
9.58,0.13
9.59,0.195
9.6,0.195
9.61,0.26
9.62,0.26
9.63,0.195
9.64,0.195
9.65,0.13
9.66,0.13
9.67,0.13
9.68,0.13
9.69,0.0650000000001
9.7,0.0649999999999
9.71,0.0650000000001
9.72,0.0649999999999
9.73,0.0650000000001
9.74,0.0649999999999
9.75,0.
9.76,0.
9.77,0.
9.78,0.
9.79,0.0649999999999
9.8,0.0650000000001
9.81,0.0650000000001
9.82,0.0649999999999
9.83,0.26
9.84,0.26
9.85,0.39
9.86,0.39
9.87,0.975
9.88,0.975
9.89,1.365
9.9,1.365
9.91,1.04
9.92,1.04
9.93,1.105
9.94,1.105
9.95,1.3
9.96,1.3
9.97,1.56
9.98,1.56
9.99,1.43
10.,1.43
