t,s,e,i,r,c,o,n,reff,coal,reportr
5.,5978.,17.,8.,3997.,0.,0.,10000.,0.812525511553,2.48537215299,221.
5.02,5981.,20.,11.,3987.,0.,0.,9999.,0.813014570878,2.11383788428,260.
5.04,5975.,25.,8.,3991.,0.,0.,9999.,0.812198973583,1.68937386505,325.
5.06,5973.,19.,11.,3994.,0.,0.,9997.,0.812089541969,2.22256085171,247.
5.08,5967.,19.,13.,3999.,0.,0.,9998.,0.811192637898,2.22010616688,247.
5.1,5964.,18.,19.,3997.,0.,0.,9998.,0.810784798463,2.34226719556,234.
5.12,5950.,24.,17.,4006.,0.,0.,9997.,0.80896246019,1.75275199708,312.
5.14,5939.,35.,18.,4004.,0.,0.,9996.,0.807547678341,1.19978512211,455.
5.16,5932.,33.,19.,4014.,0.,0.,9998.,0.806434511147,1.27074529029,429.
5.18,5931.,27.,22.,4015.,0.,0.,9995.,0.806540575243,1.55333740417,351.
5.2,5927.,28.,18.,4025.,0.,0.,9998.,0.805754778754,1.49640173197,364.
5.22,5926.,28.,13.,4033.,0.,0.,10000.,0.805457708509,1.49585003009,364.
5.24,5921.,21.,11.,4044.,0.,0.,9997.,0.805019617947,1.99338191111,273.
5.26,5919.,26.,8.,4046.,0.,0.,9999.,0.804586732157,1.60917346431,338.
5.28,5932.,27.,7.,4038.,0.,0.,10004.,0.805950843907,1.5522016253,351.
5.3,5935.,25.,10.,4035.,0.,0.,10005.,0.806277843191,1.67705791384,325.
5.32,5930.,24.,10.,4042.,0.,0.,10006.,0.805518074821,1.74528916211,312.
5.34,5924.,26.,11.,4045.,0.,0.,10006.,0.804703048101,1.6094060962,338.
5.36,5920.,20.,12.,4058.,0.,0.,10010.,0.803838354418,2.08997972149,260.
5.38,5917.,15.,14.,4063.,0.,0.,10009.,0.803511274758,2.78550575249,195.
5.4,5928.,9.,9.,4062.,0.,0.,10008.,0.805085478704,4.65160498807,117.
5.42,5927.,9.,5.,4066.,0.,0.,10007.,0.805030106723,4.65128506107,117.
5.44,5930.,12.,2.,4060.,0.,0.,10004.,0.80567911402,3.49127616075,156.
5.46,5941.,6.,1.,4056.,0.,0.,10004.,0.807173628397,6.99550477944,78.
5.48,5945.,5.,1.,4053.,0.,0.,10004.,0.80771708817,8.40025771697,65.
5.5,5960.,4.,0.,4043.,0.,0.,10007.,0.809512305732,10.5236599745,52.
5.52,5972.,4.,3.,4026.,0.,0.,10005.,0.811304343646,10.5469564674,52.
5.54,5978.,1.,0.,4025.,0.,0.,10004.,0.812200631301,42.2344328276,13.
5.56,5988.,0.,1.,4017.,0.,0.,10006.,0.813396666447,inf,0.
5.58,5999.,1.,0.,4003.,0.,0.,10003.,0.815135276046,42.3870343544,13.
5.6,6011.,2.,0.,3991.,0.,0.,10004.,0.816684174431,21.2337885352,26.
5.62,6017.,0.,2.,3985.,0.,0.,10004.,0.817499364091,inf,0.
5.64,6029.,0.,1.,3971.,0.,0.,10001.,0.819375457763,inf,0.
5.66,6042.,0.,0.,3960.,0.,0.,10002.,0.821060134043,inf,0.
5.68,6052.,0.,0.,3951.,0.,0.,10003.,0.822336837912,inf,0.
5.7,6058.,0.,1.,3944.,0.,0.,10003.,0.823152109066,inf,0.
5.72,6065.,5.,0.,3936.,0.,0.,10006.,0.823856176018,8.56810423059,65.
5.74,6067.,5.,1.,3931.,0.,0.,10004.,0.824292611258,8.57264315709,65.
5.76,6078.,3.,2.,3921.,0.,0.,10004.,0.825787125635,14.313643511,39.
5.78,6090.,2.,0.,3916.,0.,0.,10008.,0.827086802515,21.5042568654,26.
5.8,6096.,3.,0.,3908.,0.,0.,10007.,0.827984398614,14.351729576,39.
5.82,6101.,5.,1.,3898.,0.,0.,10005.,0.828829169555,8.61982336337,65.
5.84,6115.,5.,2.,3887.,0.,0.,10009.,0.830399095005,8.63615058805,65.
5.86,6125.,6.,3.,3878.,0.,0.,10012.,0.831507837678,7.20640125988,78.
5.88,6139.,7.,1.,3871.,0.,0.,10018.,0.832909280429,6.18732608319,91.
5.9,6150.,6.,4.,3858.,0.,0.,10018.,0.834401706245,7.23148145412,78.
5.92,6150.,5.,8.,3852.,0.,0.,10015.,0.834651651839,8.68037717912,65.
5.94,6148.,13.,9.,3848.,0.,0.,10018.,0.834130356097,3.33652142439,169.
5.96,6150.,13.,9.,3845.,0.,0.,10017.,0.834485004808,3.33794001923,169.
5.98,6151.,10.,8.,3851.,0.,0.,10020.,0.834370806992,4.33872819636,130.
6.,6154.,13.,9.,3849.,0.,0.,10025.,0.834361402966,3.33744561186,169.
6.02,6160.,16.,10.,3843.,0.,0.,10029.,0.834841781044,2.71323578839,208.
6.04,6152.,15.,6.,3851.,0.,0.,10024.,0.834173451611,2.89180129892,195.
6.06,6146.,18.,13.,3849.,0.,0.,10026.,0.833193648672,2.40700387394,234.
6.08,6144.,20.,18.,3845.,0.,0.,10027.,0.832839447073,2.16538256239,260.
6.1,6140.,22.,17.,3845.,0.,0.,10024.,0.832546325243,1.96783676876,286.
6.12,6133.,23.,18.,3850.,0.,0.,10024.,0.831597168194,1.88013272809,299.
6.14,6130.,33.,17.,3844.,0.,0.,10024.,0.831190386602,1.30975454859,429.
6.16,6128.,29.,11.,3855.,0.,0.,10023.,0.831002100121,1.49007273125,377.
6.18,6124.,28.,16.,3856.,0.,0.,10024.,0.830376823418,1.54212838635,364.
6.2,6118.,28.,10.,3870.,0.,0.,10026.,0.829397777836,1.54031015884,364.
6.22,6120.,27.,8.,3873.,0.,0.,10028.,0.829503441002,1.59756218267,351.
6.24,6112.,24.,15.,3873.,0.,0.,10024.,0.828749697049,1.79562434361,312.
6.26,6108.,31.,5.,3880.,0.,0.,10024.,0.828207321593,1.38925099106,403.
6.28,6109.,24.,10.,3883.,0.,0.,10026.,0.828177676495,1.79438496574,312.
6.3,6103.,28.,9.,3885.,0.,0.,10025.,0.827446805704,1.53668692488,364.
6.32,6097.,27.,12.,3890.,0.,0.,10026.,0.826550874708,1.5918757587,351.
6.34,6096.,26.,8.,3896.,0.,0.,10026.,0.826415307892,1.65283061578,338.
6.36,6103.,22.,7.,3894.,0.,0.,10026.,0.827364275602,1.95558828779,286.
6.38,6101.,17.,12.,3895.,0.,0.,10025.,0.827175645027,2.53018432597,221.
6.4,6103.,14.,10.,3897.,0.,0.,10024.,0.827529352273,3.0736804513,182.
6.42,6108.,13.,7.,3895.,0.,0.,10023.,0.828289952275,3.3131598091,169.
6.44,6115.,10.,7.,3894.,0.,0.,10026.,0.828991077389,4.31075360242,130.
6.46,6125.,6.,4.,3893.,0.,0.,10028.,0.830181139892,7.19490321239,78.
6.48,6124.,12.,2.,3889.,0.,0.,10027.,0.830128381165,3.59722298505,156.
6.5,6137.,9.,0.,3884.,0.,0.,10030.,0.831641753295,4.80504124126,117.
6.52,6144.,5.,4.,3872.,0.,0.,10025.,0.833005599581,8.66325823565,65.
6.54,6154.,4.,1.,3868.,0.,0.,10027.,0.834194980027,10.8445347404,52.
6.56,6163.,2.,3.,3859.,0.,0.,10027.,0.835414959686,21.7207889518,26.
6.58,6171.,0.,2.,3855.,0.,0.,10028.,0.836415969677,inf,0.
6.6,6185.,0.,0.,3847.,0.,0.,10032.,0.837979270776,inf,0.
6.62,6196.,0.,0.,3836.,0.,0.,10032.,0.839469613861,inf,0.
6.64,6205.,0.,0.,3828.,0.,0.,10033.,0.840605193092,inf,0.
6.66,6216.,2.,0.,3817.,0.,0.,10035.,0.841927555966,21.8901164551,26.
6.68,6227.,1.,1.,3807.,0.,0.,10036.,0.843333414302,43.8533375437,13.
6.7,6234.,0.,0.,3802.,0.,0.,10036.,0.844281436448,inf,0.
6.72,6248.,0.,0.,3791.,0.,0.,10039.,0.845924613676,inf,0.
6.74,6253.,0.,0.,3786.,0.,0.,10039.,0.846601569993,inf,0.
6.76,6263.,0.,0.,3774.,0.,0.,10037.,0.84812444855,inf,0.
6.78,6276.,0.,0.,3759.,0.,0.,10035.,0.850054269826,inf,0.
6.8,6285.,4.,0.,3746.,0.,0.,10035.,0.851273276905,11.0665525998,52.
6.82,6291.,2.,2.,3740.,0.,0.,10035.,0.852085948291,22.1542346556,26.
6.84,6292.,3.,2.,3737.,0.,0.,10034.,0.852306326888,14.7733096661,39.
6.86,6292.,4.,3.,3732.,0.,0.,10031.,0.852561228591,11.0832959717,52.
6.88,6294.,10.,3.,3725.,0.,0.,10032.,0.852747215887,4.43428552261,130.
6.9,6297.,10.,5.,3721.,0.,0.,10033.,0.85306863834,4.43595691937,130.
6.92,6301.,14.,3.,3714.,0.,0.,10032.,0.853695616032,3.17086943098,182.
6.94,6307.,9.,11.,3706.,0.,0.,10033.,0.854423360649,4.93666830597,117.
6.96,6313.,11.,7.,3702.,0.,0.,10033.,0.855236194035,4.04293473544,143.
6.98,6305.,15.,5.,3702.,0.,0.,10027.,0.854663527636,2.96283356247,195.
7.,6313.,13.,5.,3694.,0.,0.,10025.,0.855918676783,3.42367470713,169.
7.02,6314.,13.,8.,3689.,0.,0.,10024.,0.856139657587,3.42455863035,169.
7.04,6307.,16.,12.,3687.,0.,0.,10022.,0.85536116318,2.77992378034,208.
7.06,6308.,21.,7.,3684.,0.,0.,10020.,0.855667541945,2.11879581815,273.
7.08,6299.,28.,11.,3683.,0.,0.,10021.,0.854361444392,1.58667125387,364.
7.1,6287.,23.,21.,3684.,0.,0.,10015.,0.853244704896,1.92907498498,299.
7.12,6273.,34.,20.,3689.,0.,0.,10016.,0.851259686404,1.30192657921,442.
7.14,6259.,43.,11.,3704.,0.,0.,10017.,0.849275064243,1.02703031025,559.
7.16,6252.,35.,22.,3707.,0.,0.,10016.,0.848409940921,1.26049476937,455.
7.18,6240.,32.,28.,3720.,0.,0.,10020.,0.846443478398,1.3754706524,416.
7.2,6225.,39.,19.,3741.,0.,0.,10024.,0.844071803686,1.12542907158,507.
7.22,6222.,31.,19.,3751.,0.,0.,10023.,0.843749194999,1.41532123032,403.
7.24,6212.,35.,10.,3767.,0.,0.,10024.,0.842309083454,1.25143063827,455.
7.26,6205.,32.,12.,3771.,0.,0.,10020.,0.841695798632,1.36775567278,416.
7.28,6204.,30.,10.,3774.,0.,0.,10018.,0.841728160251,1.45899547777,390.
7.3,6205.,23.,11.,3780.,0.,0.,10019.,0.841779808593,1.90315434986,299.
7.32,6205.,24.,10.,3777.,0.,0.,10016.,0.842031939126,1.82440253477,312.
7.34,6203.,20.,12.,3784.,0.,0.,10019.,0.841508485528,2.18792206237,260.
7.36,6196.,21.,8.,3794.,0.,0.,10019.,0.840558854801,2.08138383094,273.
7.38,6201.,17.,7.,3793.,0.,0.,10018.,0.841321135029,2.57345288362,221.
7.4,6201.,15.,6.,3794.,0.,0.,10016.,0.841489130463,2.91716231894,195.
7.42,6208.,9.,8.,3792.,0.,0.,10017.,0.842354944691,4.86693968044,117.
7.44,6210.,8.,7.,3788.,0.,0.,10013.,0.84296293486,5.47925907659,104.
7.46,6211.,8.,1.,3790.,0.,0.,10010.,0.84335135461,5.48178380497,104.
7.48,6215.,5.,5.,3785.,0.,0.,10010.,0.843894488633,8.77650268179,65.
7.5,6224.,3.,0.,3784.,0.,0.,10011.,0.845032121392,14.6472234375,39.
7.52,6234.,2.,1.,3776.,0.,0.,10013.,0.846220762628,22.0017398283,26.
7.54,6242.,0.,0.,3772.,0.,0.,10014.,0.847222093003,inf,0.
7.56,6246.,2.,0.,3761.,0.,0.,10009.,0.848188511431,22.0529012972,26.
7.58,6255.,2.,1.,3755.,0.,0.,10013.,0.849071361924,22.07585541,26.
7.6,6263.,0.,2.,3745.,0.,0.,10010.,0.850412096912,inf,0.
7.62,6271.,0.,0.,3737.,0.,0.,10008.,0.851668528501,inf,0.
7.64,6279.,1.,0.,3725.,0.,0.,10005.,0.853010712282,44.3565570387,13.
7.66,6288.,3.,2.,3717.,0.,0.,10010.,0.853806684558,14.7993158657,39.
7.68,6292.,4.,1.,3714.,0.,0.,10011.,0.854264477474,11.1054382072,52.
7.7,6298.,2.,3.,3706.,0.,0.,10009.,0.855249959172,22.2364989385,26.
7.72,6298.,3.,2.,3706.,0.,0.,10009.,0.855249959172,14.8243326257,39.
7.74,6306.,4.,1.,3698.,0.,0.,10009.,0.856336335748,11.1323723647,52.
7.76,6312.,1.,3.,3697.,0.,0.,10013.,0.856808702872,44.5540525494,13.
7.78,6320.,3.,0.,3691.,0.,0.,10014.,0.857808975934,14.8686889162,39.
7.8,6325.,3.,1.,3682.,0.,0.,10011.,0.858744885573,14.8849113499,39.
7.82,6335.,3.,1.,3676.,0.,0.,10015.,0.859759059252,14.9024903604,39.
7.84,6337.,5.,2.,3668.,0.,0.,10012.,0.86028819059,8.94699718214,65.
7.86,6346.,7.,4.,3657.,0.,0.,10014.,0.861337936911,6.39851038848,91.
7.88,6349.,9.,4.,3652.,0.,0.,10014.,0.861745124716,4.97897183169,117.
7.9,6351.,11.,4.,3650.,0.,0.,10016.,0.861844455341,4.07417378888,143.
7.92,6361.,12.,0.,3646.,0.,0.,10019.,0.862943007648,3.73941969981,156.
7.94,6368.,8.,4.,3639.,0.,0.,10019.,0.863892638375,5.61530214944,104.
7.96,6372.,9.,2.,3636.,0.,0.,10019.,0.864435284505,4.99451497714,117.
7.98,6379.,11.,4.,3627.,0.,0.,10021.,0.865212200949,4.09009404085,143.
8.,6377.,9.,8.,3623.,0.,0.,10017.,0.865286321246,4.99943207831,117.
8.02,6376.,15.,4.,3623.,0.,0.,10018.,0.865064273011,2.99888947977,195.
8.04,6372.,20.,5.,3620.,0.,0.,10017.,0.864607878152,2.2479804832,260.
8.06,6372.,18.,11.,3618.,0.,0.,10019.,0.864435284505,2.49725748857,234.
8.08,6369.,20.,17.,3614.,0.,0.,10020.,0.863942069538,2.2462493808,260.
8.1,6360.,21.,17.,3618.,0.,0.,10016.,0.863065774834,2.13711525197,273.
8.12,6350.,27.,12.,3626.,0.,0.,10015.,0.861794794988,1.65975293849,351.
8.14,6335.,27.,18.,3632.,0.,0.,10012.,0.860016677827,1.65632841656,351.
8.16,6327.,31.,12.,3643.,0.,0.,10013.,0.858844845227,1.44064296619,403.
8.18,6320.,31.,15.,3646.,0.,0.,10012.,0.857980332102,1.43919281514,403.
8.2,6318.,27.,10.,3660.,0.,0.,10015.,0.857451892084,1.6513888292,351.
8.22,6315.,28.,10.,3663.,0.,0.,10016.,0.85695917737,1.59149561512,364.
8.24,6314.,22.,9.,3671.,0.,0.,10016.,0.856823475204,2.02521912321,286.
8.26,6314.,18.,9.,3675.,0.,0.,10016.,0.856823475204,2.47526781726,234.
8.28,6322.,17.,10.,3671.,0.,0.,10020.,0.857566613852,2.62314493649,221.
8.3,6318.,23.,10.,3666.,0.,0.,10017.,0.857280692744,1.93819982707,299.
8.32,6322.,19.,6.,3671.,0.,0.,10018.,0.857737819005,2.34749297833,247.
8.34,6319.,18.,12.,3672.,0.,0.,10021.,0.857074133531,2.47599194131,234.
8.36,6313.,17.,9.,3681.,0.,0.,10020.,0.856345781912,2.61941062702,221.
8.38,6321.,12.,10.,3681.,0.,0.,10024.,0.857088814635,3.71405153008,156.
8.4,6319.,12.,11.,3681.,0.,0.,10023.,0.856903112054,3.7132468189,156.
8.42,6315.,7.,15.,3683.,0.,0.,10020.,0.856617077898,6.3634411501,91.
8.44,6308.,15.,10.,3687.,0.,0.,10020.,0.855667541945,2.96631414541,195.
8.46,6307.,11.,13.,3686.,0.,0.,10017.,0.855788117939,4.04554383026,143.
8.48,6311.,6.,6.,3691.,0.,0.,10014.,0.856587412519,7.42375757517,78.
8.5,6312.,8.,0.,3692.,0.,0.,10012.,0.856894281049,5.56981282682,104.
8.52,6319.,7.,2.,3686.,0.,0.,10014.,0.857673246666,6.37128697523,91.
8.54,6326.,2.,4.,3681.,0.,0.,10013.,0.858709102403,22.3264366625,26.
8.56,6337.,0.,3.,3674.,0.,0.,10014.,0.860116373496,inf,0.
8.58,6346.,0.,0.,3670.,0.,0.,10016.,0.861165944512,inf,0.
8.6,6355.,0.,0.,3662.,0.,0.,10017.,0.862301171635,inf,0.
8.62,6361.,0.,0.,3657.,0.,0.,10018.,0.863029146898,inf,0.
8.64,6371.,0.,0.,3648.,0.,0.,10019.,0.864299622972,inf,0.
8.66,6376.,0.,0.,3644.,0.,0.,10020.,0.864891605492,inf,0.
8.68,6381.,1.,0.,3635.,0.,0.,10017.,0.86582907572,45.0231119375,13.
8.7,6397.,2.,0.,3621.,0.,0.,10020.,0.867740213352,22.5612455471,26.
8.72,6405.,0.,1.,3616.,0.,0.,10022.,0.868652013663,inf,0.
8.74,6417.,1.,0.,3607.,0.,0.,10025.,0.870019031985,45.2409896632,13.
8.76,6426.,1.,0.,3601.,0.,0.,10028.,0.870978613052,45.2908878787,13.
8.78,6435.,1.,0.,3592.,0.,0.,10028.,0.872198471053,45.3543204948,13.
8.8,6449.,1.,0.,3578.,0.,0.,10028.,0.874096027945,45.4529934531,13.
8.82,6450.,3.,1.,3574.,0.,0.,10028.,0.874231567723,15.1533471739,39.
8.84,6453.,2.,5.,3568.,0.,0.,10028.,0.874638187056,22.7405928635,26.
8.86,6452.,4.,2.,3570.,0.,0.,10028.,0.874502647278,11.3685344146,52.
8.88,6461.,5.,2.,3563.,0.,0.,10031.,0.875460600433,9.10479024451,65.
8.9,6470.,9.,2.,3553.,0.,0.,10034.,0.876417980764,5.0637483333,117.
8.92,6472.,12.,6.,3547.,0.,0.,10037.,0.876426861091,3.7978497314,156.
8.94,6469.,9.,11.,3548.,0.,0.,10037.,0.876020606366,5.06145239234,117.
8.96,6464.,21.,8.,3544.,0.,0.,10037.,0.875343515157,2.16751727563,273.
8.98,6459.,23.,11.,3541.,0.,0.,10034.,0.874927934738,1.97809793941,299.
9.,6463.,21.,8.,3542.,0.,0.,10034.,0.875469769657,2.16782990582,273.
9.02,6461.,17.,9.,3547.,0.,0.,10034.,0.875198852197,2.67707884202,221.
9.04,6460.,19.,10.,3544.,0.,0.,10033.,0.875150611986,2.39514904333,247.
9.06,6451.,26.,6.,3546.,0.,0.,10029.,0.874279923623,1.74855984725,338.
9.08,6452.,20.,9.,3548.,0.,0.,10029.,0.874415449886,2.2734801697,260.
9.1,6449.,17.,13.,3549.,0.,0.,10028.,0.874096027945,2.67370549724,221.
9.12,6440.,26.,6.,3558.,0.,0.,10030.,0.872702116868,1.74540423374,338.
9.14,6437.,18.,16.,3557.,0.,0.,10028.,0.872469550609,2.52046759065,234.
9.16,6419.,27.,7.,3572.,0.,0.,10025.,0.870290192662,1.67611444513,351.
9.18,6415.,26.,12.,3569.,0.,0.,10022.,0.870008222896,1.74001644579,338.
9.2,6411.,22.,14.,3572.,0.,0.,10019.,0.869726084269,2.05571619918,286.
9.22,6400.,20.,17.,3580.,0.,0.,10017.,0.868407159475,2.25785861464,260.
9.24,6389.,24.,14.,3586.,0.,0.,10013.,0.867260900293,1.87906528397,312.
9.26,6385.,23.,15.,3589.,0.,0.,10012.,0.86680449691,1.95973190606,299.
9.28,6374.,26.,18.,3593.,0.,0.,10011.,0.86539761275,1.7307952255,338.
9.3,6365.,28.,8.,3609.,0.,0.,10010.,0.864262014506,1.60505802694,364.
9.32,6364.,22.,11.,3609.,0.,0.,10006.,0.864471674226,2.04329668453,286.
9.34,6365.,21.,5.,3618.,0.,0.,10009.,0.864348362993,2.14029118455,273.
9.36,6360.,19.,7.,3620.,0.,0.,10006.,0.86392832308,2.36443541053,247.
9.38,6365.,16.,4.,3621.,0.,0.,10006.,0.864607512013,2.80997441404,208.
9.4,6370.,10.,7.,3621.,0.,0.,10008.,0.865113781941,4.49859166609,130.
9.42,6369.,10.,5.,3622.,0.,0.,10006.,0.865150863159,4.49878448843,130.
9.44,6378.,9.,6.,3617.,0.,0.,10010.,0.866027200081,5.00371271158,117.
9.46,6380.,9.,3.,3620.,0.,0.,10012.,0.866125715002,5.0042819089,117.
9.48,6383.,4.,4.,3623.,0.,0.,10014.,0.86635991984,11.2626789579,52.
9.5,6391.,5.,1.,3616.,0.,0.,10013.,0.867532385941,9.02233681378,65.
9.52,6399.,4.,1.,3609.,0.,0.,10013.,0.86861832853,11.2920382709,52.
9.54,6396.,2.,3.,3609.,0.,0.,10010.,0.868471303186,22.5802538828,26.
9.56,6398.,1.,1.,3606.,0.,0.,10006.,0.869090158972,45.1926882666,13.
9.58,6410.,0.,1.,3596.,0.,0.,10007.,0.870633201299,inf,0.
9.6,6418.,0.,0.,3593.,0.,0.,10011.,0.871371490215,inf,0.
9.62,6421.,0.,0.,3589.,0.,0.,10010.,0.871865890831,inf,0.
9.64,6422.,1.,0.,3584.,0.,0.,10007.,0.872263091847,45.357680776,13.
9.66,6434.,0.,1.,3570.,0.,0.,10005.,0.874067673646,inf,0.
9.68,6441.,0.,0.,3563.,0.,0.,10004.,0.875106100068,inf,0.
9.7,6454.,0.,0.,3550.,0.,0.,10004.,0.876872344332,inf,0.
9.72,6459.,1.,0.,3540.,0.,0.,10000.,0.877902689716,45.6509398652,13.
9.74,6470.,2.,0.,3528.,0.,0.,10000.,0.879397801899,22.8643428494,26.
9.76,6471.,4.,0.,3522.,0.,0.,9997.,0.879797660486,11.4373695863,52.
9.78,6481.,2.,1.,3514.,0.,0.,9998.,0.881069127907,22.9077973256,26.
9.8,6481.,4.,1.,3507.,0.,0.,9993.,0.881509971061,11.4596296238,52.
9.82,6490.,4.,1.,3500.,0.,0.,9995.,0.882557466418,11.4732470634,52.
9.84,6497.,6.,3.,3490.,0.,0.,9996.,0.883420991107,7.65631525626,78.
9.86,6502.,6.,1.,3488.,0.,0.,9997.,0.884012422884,7.66144099833,78.
9.88,6500.,6.,4.,3479.,0.,0.,9989.,0.884448273679,7.66521837189,78.
9.9,6501.,11.,5.,3473.,0.,0.,9990.,0.884495795663,4.18125285223,143.
9.92,6502.,11.,3.,3475.,0.,0.,9991.,0.884543308134,4.18147745663,143.
9.94,6507.,11.,5.,3471.,0.,0.,9994.,0.884957790278,4.18343682677,143.
9.96,6505.,15.,8.,3465.,0.,0.,9993.,0.884774319048,3.06721763937,195.
9.98,6497.,20.,10.,3463.,0.,0.,9990.,0.883951574285,2.29827409314,260.
10.,6493.,28.,10.,3462.,0.,0.,9993.,0.883142145054,1.64012112653,364.
