t,s,e,i,r,c,o,n,reff,coal,reportr
5.,6917.,2.,19.,3061.,0.,0.,9999.,0.852820554003,22.1733344041,26.
5.02,6904.,23.,8.,3066.,0.,0.,10001.,0.851047513078,1.92410742087,299.
5.04,6904.,21.,13.,3061.,0.,0.,9999.,0.851217739603,2.10777725997,273.
5.06,6896.,22.,15.,3066.,0.,0.,9999.,0.85023139228,2.0096378363,286.
5.08,6892.,24.,16.,3072.,0.,0.,10004.,0.849313519389,1.84017929201,312.
5.1,6885.,28.,14.,3073.,0.,0.,10000.,0.848790277195,1.5763248005,364.
5.12,6880.,24.,20.,3076.,0.,0.,10000.,0.848173871765,1.83771005549,312.
5.14,6868.,30.,9.,3095.,0.,0.,10002.,0.846525193694,1.46731033574,390.
5.16,6864.,26.,12.,3097.,0.,0.,9999.,0.846286002989,1.69257200598,338.
5.18,6860.,26.,12.,3100.,0.,0.,9998.,0.84587742553,1.69175485106,338.
5.2,6861.,23.,13.,3102.,0.,0.,9999.,0.845916122743,1.91250601664,299.
5.22,6850.,25.,14.,3112.,0.,0.,10001.,0.844391000084,1.75633328018,325.
5.24,6852.,24.,11.,3118.,0.,0.,10005.,0.844299851431,1.82931634477,312.
5.26,6844.,20.,15.,3124.,0.,0.,10003.,0.843482707856,2.19305504043,260.
5.28,6825.,27.,11.,3133.,0.,0.,9996.,0.841730104076,1.62110983007,351.
5.3,6820.,29.,8.,3142.,0.,0.,9999.,0.840861092713,1.50775092487,377.
5.32,6814.,27.,13.,3142.,0.,0.,9996.,0.840373469476,1.61849705232,351.
5.34,6803.,31.,15.,3150.,0.,0.,9999.,0.838765104652,1.40696082071,403.
5.36,6801.,18.,15.,3164.,0.,0.,9998.,0.838602386447,2.4226291164,234.
5.38,6798.,21.,8.,3172.,0.,0.,9999.,0.838148637575,2.075415674,273.
5.4,6799.,18.,7.,3174.,0.,0.,9998.,0.838355774953,2.4219166832,234.
5.42,6803.,17.,1.,3177.,0.,0.,9998.,0.838848997941,2.56589105253,221.
5.44,6813.,11.,6.,3168.,0.,0.,9998.,0.840082055413,3.97129698922,143.
5.46,6821.,4.,8.,3166.,0.,0.,9999.,0.840984386129,10.9327970197,52.
5.48,6820.,6.,4.,3168.,0.,0.,9998.,0.840945195643,7.28819169557,78.
5.5,6825.,4.,5.,3161.,0.,0.,9995.,0.841814319194,10.9435861495,52.
5.52,6833.,2.,4.,3156.,0.,0.,9995.,0.842801061253,21.9128275926,26.
5.54,6840.,3.,2.,3152.,0.,0.,9997.,0.843495677027,14.6205917351,39.
5.56,6843.,2.,2.,3144.,0.,0.,9991.,0.844372406748,21.9536825755,26.
5.58,6847.,3.,1.,3135.,0.,0.,9986.,0.845289000527,14.6516760091,39.
5.6,6854.,1.,3.,3129.,0.,0.,9987.,0.846068452517,43.9955595309,13.
5.62,6855.,1.,0.,3129.,0.,0.,9985.,0.846361386694,44.0107921081,13.
5.64,6861.,2.,0.,3122.,0.,0.,9985.,0.847102184407,22.0246567946,26.
5.66,6863.,3.,1.,3117.,0.,0.,9984.,0.847433987683,14.6888557865,39.
5.68,6868.,3.,1.,3107.,0.,0.,9979.,0.84847629896,14.7069225153,39.
5.7,6876.,1.,3.,3101.,0.,0.,9981.,0.849294406794,44.1633091533,13.
5.72,6882.,1.,0.,3101.,0.,0.,9984.,0.849780082068,44.1885642675,13.
5.74,6886.,1.,2.,3094.,0.,0.,9983.,0.850359168868,44.2186767811,13.
5.76,6893.,3.,1.,3087.,0.,0.,9984.,0.851138347238,14.7530646855,39.
5.78,6898.,2.,3.,3079.,0.,0.,9982.,0.851926398831,22.1500863696,26.
5.8,6902.,4.,2.,3071.,0.,0.,9979.,0.852676676678,11.0847967968,52.
5.82,6906.,5.,3.,3064.,0.,0.,9978.,0.853256343958,8.87386597716,65.
5.84,6905.,9.,2.,3060.,0.,0.,9976.,0.853303828102,4.9301998957,117.
5.86,6912.,7.,4.,3053.,0.,0.,9976.,0.854168871809,6.3452544763,91.
5.88,6915.,12.,3.,3049.,0.,0.,9979.,0.854282703452,3.70189171496,156.
5.9,6922.,10.,5.,3045.,0.,0.,9982.,0.854890480242,4.44543049726,130.
5.92,6918.,10.,1.,3052.,0.,0.,9981.,0.854482068964,4.44330675861,130.
5.94,6925.,6.,4.,3045.,0.,0.,9980.,0.855432385406,7.41374734019,78.
5.96,6924.,11.,5.,3038.,0.,0.,9978.,0.855480296201,4.04408867295,143.
5.98,6925.,11.,4.,3040.,0.,0.,9980.,0.855432385406,4.04386218556,143.
6.,6922.,9.,8.,3040.,0.,0.,9979.,0.8551474871,4.94085214769,117.
6.02,6913.,13.,10.,3041.,0.,0.,9977.,0.854206823297,3.41682729319,169.
6.04,6914.,17.,7.,3045.,0.,0.,9983.,0.853816917449,2.6116752769,221.
6.06,6910.,17.,7.,3049.,0.,0.,9983.,0.853322953366,2.61016432794,221.
6.08,6916.,17.,7.,3046.,0.,0.,9986.,0.853807321111,2.6116459234,221.
6.1,6919.,16.,5.,3047.,0.,0.,9987.,0.854092153919,2.77579950024,208.
6.12,6916.,19.,4.,3046.,0.,0.,9985.,0.853892830106,2.33696985082,247.
6.14,6912.,18.,16.,3037.,0.,0.,9983.,0.853569935407,2.46586870229,234.
6.16,6893.,29.,20.,3039.,0.,0.,9981.,0.851394174815,1.5266378307,377.
6.18,6869.,40.,16.,3055.,0.,0.,9980.,0.848514809437,1.10306925227,520.
6.2,6859.,31.,20.,3070.,0.,0.,9980.,0.847279528014,1.42124307925,403.
6.22,6843.,42.,17.,3081.,0.,0.,9983.,0.845049054976,1.04625121092,546.
6.24,6838.,29.,15.,3102.,0.,0.,9984.,0.844347021386,1.51400155559,377.
6.26,6831.,31.,9.,3113.,0.,0.,9984.,0.843482670823,1.41487415751,403.
6.28,6830.,29.,5.,3123.,0.,0.,9987.,0.843105855076,1.511776016,377.
6.3,6830.,26.,6.,3123.,0.,0.,9985.,0.843274729558,1.68654945912,338.
6.32,6826.,23.,8.,3128.,0.,0.,9985.,0.842780864417,1.90541760651,299.
6.34,6826.,28.,3.,3132.,0.,0.,9989.,0.842443380839,1.56453770727,364.
6.36,6830.,24.,7.,3127.,0.,0.,9988.,0.843021443196,1.82654646026,312.
6.38,6825.,18.,11.,3131.,0.,0.,9985.,0.842657398131,2.4343435946,234.
6.4,6822.,13.,7.,3143.,0.,0.,9985.,0.842286999275,3.3691479971,169.
6.42,6821.,12.,10.,3141.,0.,0.,9984.,0.842247884305,3.64974083199,156.
6.44,6823.,6.,7.,3147.,0.,0.,9983.,0.842579234561,7.30235336619,78.
6.46,6827.,2.,5.,3150.,0.,0.,9984.,0.842988756216,21.9177076616,26.
6.48,6829.,5.,1.,3149.,0.,0.,9984.,0.84323571352,8.7696514206,65.
6.5,6834.,4.,2.,3143.,0.,0.,9983.,0.843937635789,10.9711892653,52.
6.52,6844.,3.,2.,3131.,0.,0.,9980.,0.84542660588,14.6540611686,39.
6.54,6848.,1.,1.,3130.,0.,0.,9980.,0.845920718449,43.9878773594,13.
6.56,6855.,0.,0.,3126.,0.,0.,9981.,0.846700575708,inf,0.
6.58,6863.,0.,0.,3119.,0.,0.,9982.,0.847603780107,inf,0.
6.6,6870.,0.,0.,3115.,0.,0.,9985.,0.848213380976,inf,0.
6.62,6879.,1.,0.,3107.,0.,0.,9987.,0.849154491518,44.1560335589,13.
6.64,6882.,1.,1.,3103.,0.,0.,9987.,0.849524816198,44.1752904423,13.
6.66,6891.,1.,0.,3097.,0.,0.,9989.,0.850465475734,44.2242047382,13.
6.68,6902.,0.,1.,3088.,0.,0.,9991.,0.851652542946,inf,0.
6.7,6906.,0.,0.,3087.,0.,0.,9993.,0.851975562895,inf,0.
6.72,6912.,0.,0.,3082.,0.,0.,9994.,0.852630444784,inf,0.
6.74,6921.,1.,0.,3075.,0.,0.,9997.,0.853484441624,44.3811909644,13.
6.76,6925.,0.,0.,3068.,0.,0.,9993.,0.854319544316,inf,0.
6.78,6927.,0.,1.,3062.,0.,0.,9990.,0.854822905713,inf,0.
6.8,6932.,1.,1.,3056.,0.,0.,9990.,0.855439928165,44.4828762646,13.
6.82,6931.,5.,2.,3052.,0.,0.,9990.,0.855316523675,8.89529184622,65.
6.84,6934.,5.,3.,3047.,0.,0.,9989.,0.855772400049,8.90003296051,65.
6.86,6936.,6.,2.,3044.,0.,0.,9988.,0.856104938508,7.41957613373,78.
6.88,6945.,5.,2.,3041.,0.,0.,9993.,0.856786893181,8.91058368908,65.
6.9,6944.,5.,7.,3037.,0.,0.,9993.,0.856663525737,8.90930066767,65.
6.92,6948.,9.,2.,3028.,0.,0.,9987.,0.85767195916,4.95543798626,117.
6.94,6947.,8.,5.,3025.,0.,0.,9985.,0.857720284955,5.57518185221,104.
6.96,6948.,14.,5.,3017.,0.,0.,9984.,0.85792967309,3.18659592862,182.
6.98,6945.,15.,5.,3017.,0.,0.,9982.,0.85773105826,2.97346766864,195.
7.,6940.,11.,10.,3020.,0.,0.,9981.,0.857199415815,4.05221542022,143.
7.02,6936.,15.,11.,3023.,0.,0.,9985.,0.856362155815,2.96872214016,195.
7.04,6929.,23.,8.,3024.,0.,0.,9984.,0.855583578705,1.93436287359,299.
7.06,6928.,27.,12.,3021.,0.,0.,9988.,0.855117504899,1.6468929724,351.
7.08,6921.,29.,14.,3026.,0.,0.,9990.,0.85408247877,1.53145823779,377.
7.1,6914.,26.,20.,3031.,0.,0.,9991.,0.853133248613,1.70626649723,338.
7.12,6902.,30.,23.,3035.,0.,0.,9990.,0.85173779345,1.47634550865,390.
7.14,6880.,40.,22.,3050.,0.,0.,9992.,0.848852954128,1.10350884037,520.
7.16,6868.,42.,12.,3068.,0.,0.,9990.,0.847542040773,1.04933776477,546.
7.18,6870.,31.,10.,3083.,0.,0.,9994.,0.847449530623,1.42152824492,403.
7.2,6861.,26.,16.,3091.,0.,0.,9994.,0.846339334731,1.69267866946,338.
7.22,6857.,35.,13.,3090.,0.,0.,9995.,0.84576128743,1.25655962704,455.
7.24,6854.,28.,16.,3095.,0.,0.,9993.,0.845560455847,1.57032656086,364.
7.26,6840.,31.,13.,3107.,0.,0.,9991.,0.844002230331,1.41574567669,403.
7.28,6843.,28.,15.,3109.,0.,0.,9995.,0.844034488827,1.56749262211,364.
7.3,6839.,26.,9.,3121.,0.,0.,9995.,0.843541117797,1.68708223559,338.
7.32,6833.,18.,15.,3130.,0.,0.,9996.,0.842716747421,2.43451504811,234.
7.34,6831.,17.,13.,3131.,0.,0.,9992.,0.842807344426,2.57799893589,221.
7.36,6832.,20.,12.,3130.,0.,0.,9994.,0.842762036858,2.19118129583,260.
7.38,6833.,18.,11.,3129.,0.,0.,9991.,0.843138485359,2.43573340215,234.
7.4,6834.,11.,16.,3129.,0.,0.,9990.,0.843346288096,3.98672790736,143.
7.42,6828.,12.,6.,3138.,0.,0.,9984.,0.843112234868,3.65348635109,156.
7.44,6838.,3.,10.,3132.,0.,0.,9983.,0.844431599872,14.6368143978,39.
7.46,6836.,8.,1.,3135.,0.,0.,9980.,0.844438380742,5.48884947482,104.
7.48,6843.,2.,5.,3128.,0.,0.,9978.,0.845472511107,21.9822852888,26.
7.5,6843.,6.,0.,3130.,0.,0.,9979.,0.845387785933,7.32669414475,78.
7.52,6852.,5.,0.,3123.,0.,0.,9980.,0.846414831018,8.80271424259,65.
7.54,6865.,3.,1.,3113.,0.,0.,9982.,0.847850786891,14.6960803061,39.
7.56,6874.,4.,1.,3105.,0.,0.,9984.,0.848792252853,11.0342992871,52.
7.58,6887.,3.,2.,3096.,0.,0.,9988.,0.850056907656,14.7343197327,39.
7.6,6894.,3.,3.,3089.,0.,0.,9989.,0.850835726268,14.7478192553,39.
7.62,6901.,1.,3.,3084.,0.,0.,9989.,0.85169964418,44.2883814973,13.
7.64,6908.,1.,0.,3079.,0.,0.,9988.,0.852648920878,44.3377438857,13.
7.66,6913.,0.,1.,3077.,0.,0.,9991.,0.853009856474,inf,0.
7.68,6914.,3.,0.,3073.,0.,0.,9990.,0.853218647336,14.7891232205,39.
7.7,6924.,1.,2.,3067.,0.,0.,9994.,0.854110705973,44.4137567106,13.
7.72,6927.,2.,0.,3062.,0.,0.,9991.,0.854737346419,22.2231710069,26.
7.74,6935.,2.,1.,3053.,0.,0.,9991.,0.855724483531,22.2488365718,26.
7.76,6937.,2.,1.,3047.,0.,0.,9987.,0.856314102,22.264166652,26.
7.78,6941.,1.,1.,3042.,0.,0.,9985.,0.856979487242,44.5629333366,13.
7.8,6943.,3.,1.,3038.,0.,0.,9985.,0.857226419813,14.8585912768,39.
7.82,6945.,4.,1.,3034.,0.,0.,9984.,0.857559237135,11.1482700828,52.
7.84,6952.,6.,2.,3024.,0.,0.,9984.,0.858423587698,7.43967109338,78.
7.86,6961.,7.,3.,3014.,0.,0.,9985.,0.859448812951,6.38447689621,91.
7.88,6967.,7.,4.,3004.,0.,0.,9982.,0.860448132887,6.39190041573,91.
7.9,6970.,7.,2.,3000.,0.,0.,9979.,0.861077432113,6.39657520998,91.
7.92,6973.,5.,7.,2992.,0.,0.,9977.,0.861620740467,8.96085570086,65.
7.94,6962.,10.,11.,2992.,0.,0.,9975.,0.860434005832,4.47425683033,130.
7.96,6955.,16.,9.,2994.,0.,0.,9974.,0.859655056362,2.79387893318,208.
7.98,6948.,16.,14.,2994.,0.,0.,9972.,0.858962079436,2.79162675817,208.
8.,6946.,20.,11.,2995.,0.,0.,9972.,0.858714824951,2.23265854487,260.
8.02,6947.,25.,10.,2992.,0.,0.,9974.,0.858666236743,1.78602577243,325.
8.04,6946.,23.,14.,2991.,0.,0.,9974.,0.858542634291,1.94105291231,299.
8.06,6939.,22.,12.,3002.,0.,0.,9975.,0.857591434425,2.02703429955,286.
8.08,6928.,23.,12.,3013.,0.,0.,9976.,0.856146114568,1.93563469381,299.
8.1,6917.,28.,12.,3015.,0.,0.,9972.,0.855129634925,1.58809789343,364.
8.12,6912.,28.,13.,3020.,0.,0.,9973.,0.854425816221,1.58679080155,364.
8.14,6908.,27.,17.,3022.,0.,0.,9974.,0.8538457411,1.64444364953,351.
8.16,6896.,32.,14.,3030.,0.,0.,9972.,0.852533462837,1.38536687711,416.
8.18,6888.,27.,22.,3031.,0.,0.,9968.,0.851886156152,1.64066963407,351.
8.2,6876.,32.,23.,3040.,0.,0.,9971.,0.850146171317,1.38148752839,416.
8.22,6850.,45.,18.,3057.,0.,0.,9970.,0.84701648865,0.978774609107,585.
8.24,6838.,40.,16.,3075.,0.,0.,9969.,0.845617480341,1.09930272444,520.
8.26,6822.,38.,21.,3084.,0.,0.,9965.,0.843977489991,1.15491656525,494.
8.28,6811.,40.,8.,3107.,0.,0.,9966.,0.842532085922,1.0952917117,520.
8.3,6803.,38.,8.,3114.,0.,0.,9963.,0.841795872871,1.15193119446,494.
8.32,6798.,31.,14.,3118.,0.,0.,9961.,0.841346072394,1.41129018595,403.
8.34,6797.,28.,14.,3122.,0.,0.,9961.,0.841222308629,1.56227000174,364.
8.36,6796.,26.,12.,3126.,0.,0.,9960.,0.84118299251,1.68236598502,338.
8.38,6794.,21.,8.,3138.,0.,0.,9961.,0.840851017335,2.08210728102,273.
8.4,6789.,16.,9.,3142.,0.,0.,9956.,0.840654171291,2.7321260567,208.
8.42,6789.,10.,6.,3150.,0.,0.,9955.,0.840738616713,4.37184080691,130.
8.44,6787.,8.,5.,3152.,0.,0.,9952.,0.840744303422,5.46483797224,104.
8.46,6792.,3.,2.,3155.,0.,0.,9952.,0.841363681869,14.5836371524,39.
8.48,6799.,4.,2.,3149.,0.,0.,9954.,0.842061587098,10.9468006323,52.
8.5,6808.,3.,1.,3144.,0.,0.,9956.,0.843006863772,14.6121189721,39.
8.52,6815.,4.,1.,3139.,0.,0.,9959.,0.843619440881,10.9670527315,52.
8.54,6827.,2.,0.,3133.,0.,0.,9962.,0.844850405748,21.9661105494,26.
8.56,6833.,2.,0.,3125.,0.,0.,9960.,0.845762711568,21.9898305008,26.
8.58,6846.,1.,1.,3116.,0.,0.,9964.,0.847031628704,44.0456446926,13.
8.6,6858.,0.,2.,3103.,0.,0.,9963.,0.848601513472,inf,0.
8.62,6865.,1.,1.,3098.,0.,0.,9965.,0.849297195659,44.1634541743,13.
8.64,6871.,2.,0.,3089.,0.,0.,9962.,0.850295464757,22.1076820837,26.
8.66,6879.,2.,1.,3081.,0.,0.,9963.,0.851200030793,22.1312008006,26.
8.68,6885.,0.,3.,3076.,0.,0.,9964.,0.851856962259,inf,0.
8.7,6894.,2.,1.,3070.,0.,0.,9967.,0.852713762385,22.170557822,26.
8.72,6895.,2.,0.,3068.,0.,0.,9965.,0.853008618219,22.1782240737,26.
8.74,6891.,3.,2.,3064.,0.,0.,9960.,0.852941730633,14.784323331,39.
8.76,6893.,4.,0.,3064.,0.,0.,9961.,0.85310363004,11.0903471905,52.
8.78,6895.,1.,3.,3062.,0.,0.,9961.,0.853351157569,44.3742601936,13.
8.8,6895.,0.,3.,3063.,0.,0.,9961.,0.853351157569,inf,0.
8.82,6900.,1.,0.,3057.,0.,0.,9958.,0.854227247926,44.4198168922,13.
8.84,6904.,4.,1.,3048.,0.,0.,9957.,0.854808293491,11.1125078154,52.
8.86,6918.,5.,2.,3038.,0.,0.,9963.,0.856025848673,8.9026688262,65.
8.88,6920.,7.,3.,3034.,0.,0.,9964.,0.856187389808,6.36024918143,91.
8.9,6925.,2.,7.,3030.,0.,0.,9964.,0.856806022316,22.2769565802,26.
8.92,6921.,11.,2.,3029.,0.,0.,9963.,0.856397065433,4.04842249114,143.
8.94,6928.,7.,6.,3023.,0.,0.,9964.,0.85717720182,6.36760207066,91.
8.96,6929.,13.,7.,3018.,0.,0.,9967.,0.857042886505,3.42817154602,169.
8.98,6933.,12.,6.,3015.,0.,0.,9966.,0.857623689869,3.71636932277,156.
9.,6935.,16.,6.,3009.,0.,0.,9966.,0.857871093212,2.78808105294,208.
9.02,6928.,17.,14.,3003.,0.,0.,9962.,0.8573492912,2.62248018485,221.
9.04,6922.,20.,12.,3007.,0.,0.,9961.,0.856692779216,2.22740122596,260.
9.06,6917.,23.,9.,3013.,0.,0.,9962.,0.855988026448,1.93527727719,299.
9.08,6922.,15.,17.,3005.,0.,0.,9959.,0.856864823152,2.97046472026,195.
9.1,6917.,19.,12.,3009.,0.,0.,9957.,0.856417868783,2.34388048298,247.
9.12,6907.,24.,13.,3014.,0.,0.,9958.,0.855093855279,1.8527033531,312.
9.14,6892.,32.,15.,3019.,0.,0.,9958.,0.853236839523,1.38650986422,416.
9.16,6887.,33.,19.,3022.,0.,0.,9961.,0.852361047452,1.3431143778,429.
9.18,6867.,36.,18.,3038.,0.,0.,9959.,0.850056449088,1.22785931535,468.
9.2,6860.,35.,20.,3046.,0.,0.,9961.,0.849019425805,1.26140028977,455.
9.22,6842.,34.,19.,3063.,0.,0.,9958.,0.847046787002,1.2954833213,442.
9.24,6843.,34.,14.,3073.,0.,0.,9964.,0.846660449199,1.29489245172,442.
9.26,6836.,34.,9.,3086.,0.,0.,9965.,0.845709487185,1.29343803922,442.
9.28,6835.,26.,14.,3089.,0.,0.,9964.,0.845670637188,1.69134127438,338.
9.3,6829.,26.,4.,3103.,0.,0.,9962.,0.84509790843,1.69019581686,338.
9.32,6835.,18.,13.,3100.,0.,0.,9966.,0.845500926043,2.44255823079,234.
9.34,6835.,21.,5.,3104.,0.,0.,9965.,0.8455857731,2.09383143815,273.
9.36,6834.,24.,5.,3101.,0.,0.,9964.,0.845546910687,1.83201830649,312.
9.38,6836.,14.,10.,3104.,0.,0.,9964.,0.845794363689,3.14152192227,182.
9.4,6837.,14.,7.,3108.,0.,0.,9966.,0.845748329386,3.14135093772,182.
9.42,6837.,14.,6.,3109.,0.,0.,9966.,0.845748329386,3.14135093772,182.
9.44,6849.,13.,6.,3099.,0.,0.,9967.,0.847147745659,3.38859098264,169.
9.46,6849.,12.,1.,3104.,0.,0.,9966.,0.847232749446,3.67134191427,156.
9.48,6854.,6.,5.,3098.,0.,0.,9963.,0.848106557792,7.3502568342,78.
9.5,6861.,7.,2.,3094.,0.,0.,9964.,0.848887526225,6.30602162338,91.
9.52,6872.,4.,1.,3089.,0.,0.,9966.,0.850077887895,11.0510125426,52.
9.54,6881.,5.,0.,3081.,0.,0.,9967.,0.851105801997,8.85150034077,65.
9.56,6889.,1.,4.,3073.,0.,0.,9967.,0.852095316082,44.3089564363,13.
9.58,6890.,1.,1.,3072.,0.,0.,9964.,0.852475594766,44.3287309278,13.
9.6,6901.,1.,0.,3062.,0.,0.,9964.,0.853836586282,44.3995024866,13.
9.62,6907.,2.,0.,3054.,0.,0.,9963.,0.854664720553,22.2212827344,26.
9.64,6912.,1.,2.,3050.,0.,0.,9965.,0.855111757669,44.4658113988,13.
9.66,6921.,1.,1.,3043.,0.,0.,9966.,0.856139269809,44.51924203,13.
9.68,6928.,0.,1.,3038.,0.,0.,9967.,0.856919197244,inf,0.
9.7,6930.,0.,0.,3033.,0.,0.,9963.,0.857510715713,inf,0.
9.72,6933.,1.,0.,3026.,0.,0.,9960.,0.858140330646,44.6232971936,13.
9.74,6940.,2.,1.,3019.,0.,0.,9962.,0.858834307293,22.3296919896,26.
9.76,6949.,3.,1.,3010.,0.,0.,9963.,0.859861755194,14.9042704234,39.
9.78,6954.,4.,1.,3001.,0.,0.,9960.,0.860739630652,11.1896151985,52.
9.8,6960.,5.,0.,3000.,0.,0.,9965.,0.861050033764,8.95492035114,65.
9.82,6969.,4.,2.,2991.,0.,0.,9966.,0.86207695005,11.2070003506,52.
9.84,6971.,3.,3.,2987.,0.,0.,9964.,0.862497441381,14.9499556506,39.
9.86,6976.,6.,6.,2974.,0.,0.,9962.,0.863289355573,7.48184108163,78.
9.88,6972.,7.,6.,2974.,0.,0.,9959.,0.86305425412,6.41126017346,91.
9.9,6972.,12.,1.,2973.,0.,0.,9958.,0.863140923557,3.74027733541,156.
9.92,6981.,12.,3.,2963.,0.,0.,9959.,0.864168351694,3.74472952401,156.
9.94,6984.,6.,7.,2959.,0.,0.,9956.,0.864800225703,7.49493528943,78.
9.96,6980.,13.,9.,2952.,0.,0.,9954.,0.864478581842,3.45791432737,169.
9.98,6983.,10.,12.,2949.,0.,0.,9954.,0.864850134241,4.49722069806,130.
10.,6976.,17.,11.,2951.,0.,0.,9955.,0.863896389776,2.64250660402,221.
