t,s,e,i,r,c,o,n,reff,coal,reportr
5.,5460.,31.,15.,4494.,0.,0.,10000.,0.808158051492,1.35561995734,403.
5.02,5457.,28.,19.,4497.,0.,0.,10001.,0.807633245282,1.49989031267,364.
5.04,5449.,32.,12.,4508.,0.,0.,10001.,0.80644924932,1.31048003014,416.
5.06,5445.,33.,11.,4510.,0.,0.,9999.,0.806018438908,1.27008966131,429.
5.08,5438.,35.,12.,4511.,0.,0.,9996.,0.805223826529,1.19633254227,455.
5.1,5430.,34.,19.,4513.,0.,0.,9996.,0.804039238332,1.22970707039,442.
5.12,5418.,32.,18.,4527.,0.,0.,9995.,0.802342622407,1.30380676141,416.
5.14,5408.,30.,23.,4532.,0.,0.,9993.,0.80102202356,1.38843817417,390.
5.16,5400.,31.,16.,4542.,0.,0.,9989.,0.800157366886,1.34219945413,403.
5.18,5383.,36.,17.,4555.,0.,0.,9991.,0.797478681579,1.15191365117,468.
5.2,5374.,39.,14.,4565.,0.,0.,9992.,0.796065674649,1.06142089953,507.
5.22,5375.,26.,13.,4578.,0.,0.,9992.,0.79621380745,1.5924276149,338.
5.24,5375.,29.,7.,4582.,0.,0.,9993.,0.796134130295,1.42755085432,377.
5.26,5381.,27.,13.,4574.,0.,0.,9995.,0.796863353852,1.5346997926,351.
5.28,5386.,25.,13.,4574.,0.,0.,9998.,0.797364466544,1.65851809041,325.
5.3,5385.,17.,19.,4581.,0.,0.,10002.,0.796897599836,2.43756912891,221.
5.32,5383.,27.,3.,4589.,0.,0.,10002.,0.796601630439,1.5341957327,351.
5.34,5395.,19.,7.,4584.,0.,0.,10005.,0.79813805328,2.18437783003,247.
5.36,5402.,15.,7.,4582.,0.,0.,10006.,0.799093766113,2.77019172253,195.
5.38,5407.,13.,10.,4579.,0.,0.,10009.,0.799593659555,3.19837463822,169.
5.4,5410.,19.,7.,4573.,0.,0.,10009.,0.800037303161,2.18957577707,247.
5.42,5418.,10.,14.,4569.,0.,0.,10011.,0.801060284782,4.16551348087,130.
5.44,5420.,17.,6.,4565.,0.,0.,10008.,0.801596202724,2.45194132598,221.
5.46,5426.,15.,2.,4564.,0.,0.,10007.,0.802563770817,2.78222107217,195.
5.48,5428.,11.,4.,4562.,0.,0.,10005.,0.803020084005,3.79609494257,143.
5.5,5436.,10.,10.,4552.,0.,0.,10008.,0.803962538377,4.18060519956,130.
5.52,5444.,5.,0.,4562.,0.,0.,10011.,0.804904427898,8.37100605014,65.
5.54,5455.,1.,0.,4556.,0.,0.,10012.,0.806450239728,41.9354124659,13.
5.56,5474.,1.,0.,4535.,0.,0.,10010.,0.809420830793,42.0898832012,13.
5.58,5485.,0.,1.,4523.,0.,0.,10009.,0.811128393316,inf,0.
5.6,5494.,1.,1.,4514.,0.,0.,10010.,0.812378159367,42.2436642871,13.
5.62,5505.,0.,1.,4505.,0.,0.,10011.,0.813923379056,inf,0.
5.64,5519.,0.,0.,4492.,0.,0.,10011.,0.815993302273,inf,0.
5.66,5526.,2.,0.,4485.,0.,0.,10013.,0.81686507038,21.2384918299,26.
5.68,5534.,1.,1.,4475.,0.,0.,10011.,0.818211077147,42.5469760117,13.
5.7,5540.,4.,2.,4467.,0.,0.,10013.,0.818934580149,10.6461495419,52.
5.72,5548.,3.,1.,4461.,0.,0.,10013.,0.82011715716,14.2153640574,39.
5.74,5559.,3.,2.,4447.,0.,0.,10011.,0.821907368605,14.2463943892,39.
5.76,5571.,2.,0.,4437.,0.,0.,10010.,0.823763874378,21.4178607338,26.
5.78,5580.,1.,1.,4427.,0.,0.,10009.,0.825177107512,42.9092095906,13.
5.8,5590.,2.,0.,4418.,0.,0.,10010.,0.826573336524,21.4909067496,26.
5.82,5595.,3.,0.,4408.,0.,0.,10006.,0.827643395299,14.3458188518,39.
5.84,5603.,3.,2.,4401.,0.,0.,10009.,0.82857837516,14.3620251694,39.
5.86,5611.,4.,5.,4390.,0.,0.,10010.,0.829678531527,10.7858209098,52.
5.88,5618.,7.,4.,4382.,0.,0.,10011.,0.830630616446,6.17039886503,91.
5.9,5618.,15.,1.,4374.,0.,0.,10008.,0.830879606439,2.88038263566,195.
5.92,5620.,11.,9.,4367.,0.,0.,10007.,0.831258457794,3.92958543685,143.
5.94,5624.,10.,7.,4366.,0.,0.,10007.,0.831850100825,4.32562052429,130.
5.96,5627.,18.,7.,4361.,0.,0.,10013.,0.831795105144,2.40296363708,234.
5.98,5626.,14.,15.,4357.,0.,0.,10012.,0.831730348068,3.08928414997,182.
6.,5613.,31.,0.,4364.,0.,0.,10008.,0.830140126547,1.3924931155,403.
6.02,5611.,22.,15.,4357.,0.,0.,10005.,0.830093163477,1.9620383864,286.
6.04,5609.,22.,11.,4361.,0.,0.,10003.,0.82996319251,1.9617311823,286.
6.06,5612.,22.,7.,4364.,0.,0.,10005.,0.830241103802,1.96238806353,286.
6.08,5604.,23.,10.,4367.,0.,0.,10004.,0.829140453811,1.87457841731,299.
6.1,5602.,26.,10.,4368.,0.,0.,10006.,0.828678874078,1.65735774816,338.
6.12,5604.,19.,13.,4371.,0.,0.,10007.,0.828891885672,2.26854621342,247.
6.14,5591.,19.,15.,4380.,0.,0.,10005.,0.827134356977,2.26373613488,247.
6.16,5575.,32.,15.,4386.,0.,0.,10008.,0.82452007937,1.33984512898,416.
6.18,5566.,38.,13.,4396.,0.,0.,10013.,0.822777955435,1.12590667586,494.
6.2,5555.,34.,21.,4402.,0.,0.,10012.,0.821233928816,1.25600483231,442.
6.22,5542.,43.,15.,4408.,0.,0.,10008.,0.819639512084,0.991191968101,559.
6.24,5536.,35.,20.,4417.,0.,0.,10008.,0.818752136214,1.21643174523,455.
6.26,5530.,30.,22.,4426.,0.,0.,10008.,0.817864760343,1.41763225126,390.
6.28,5529.,30.,14.,4432.,0.,0.,10005.,0.817962056828,1.4178008985,390.
6.3,5521.,26.,23.,4435.,0.,0.,10005.,0.816778534228,1.63355706846,338.
6.32,5522.,23.,16.,4443.,0.,0.,10004.,0.817008134537,1.84714882591,299.
6.34,5516.,30.,10.,4449.,0.,0.,10005.,0.816038832603,1.41446730985,390.
6.36,5517.,20.,13.,4454.,0.,0.,10004.,0.816268358971,2.12229773333,260.
6.38,5519.,15.,12.,4456.,0.,0.,10002.,0.816727549395,2.83132217124,195.
6.4,5524.,17.,8.,4454.,0.,0.,10003.,0.817385750656,2.50023876671,221.
6.42,5524.,17.,6.,4456.,0.,0.,10003.,0.817385750656,2.50023876671,221.
6.44,5529.,12.,5.,4457.,0.,0.,10003.,0.818125600176,3.5452109341,156.
6.46,5537.,7.,2.,4459.,0.,0.,10005.,0.819145579428,6.08508144718,91.
6.48,5553.,5.,1.,4447.,0.,0.,10006.,0.821430522626,8.54287743531,65.
6.5,5563.,7.,1.,4436.,0.,0.,10007.,0.82282754461,6.11243318853,91.
6.52,5572.,5.,3.,4424.,0.,0.,10004.,0.824405890192,8.57382125799,65.
6.54,5585.,4.,5.,4412.,0.,0.,10006.,0.826164139901,10.7401338187,52.
6.56,5588.,2.,1.,4416.,0.,0.,10007.,0.826525313551,21.4896581523,26.
6.58,5593.,1.,3.,4410.,0.,0.,10007.,0.827264867339,43.0177731016,13.
6.6,5600.,3.,0.,4403.,0.,0.,10006.,0.828383022998,14.3586390653,39.
6.62,5607.,1.,2.,4394.,0.,0.,10004.,0.82958431915,43.1383845958,13.
6.64,5623.,0.,4.,4378.,0.,0.,10005.,0.831868447376,inf,0.
6.66,5634.,2.,2.,4362.,0.,0.,10000.,0.833912538847,21.68172601,26.
6.68,5644.,2.,0.,4359.,0.,0.,10005.,0.834975194201,21.7093550492,26.
6.7,5649.,0.,2.,4354.,0.,0.,10005.,0.835714895826,inf,0.
6.72,5658.,0.,0.,4347.,0.,0.,10005.,0.837046358751,inf,0.
6.74,5663.,1.,0.,4341.,0.,0.,10005.,0.837786060376,43.5648751395,13.
6.76,5666.,0.,1.,4335.,0.,0.,10002.,0.838481300031,inf,0.
6.78,5678.,1.,0.,4324.,0.,0.,10003.,0.840173115898,43.6890020267,13.
6.8,5684.,1.,1.,4317.,0.,0.,10003.,0.841060935323,43.7351686368,13.
6.82,5689.,3.,2.,4308.,0.,0.,10002.,0.84188494809,14.5926724336,39.
6.84,5695.,7.,0.,4298.,0.,0.,10000.,0.842941410851,6.2618504806,91.
6.86,5708.,6.,2.,4283.,0.,0.,9999.,0.844950091697,7.3229007947,78.
6.88,5725.,3.,4.,4267.,0.,0.,9999.,0.847466586364,14.6894208303,39.
6.9,5731.,4.,8.,4260.,0.,0.,10003.,0.84801552082,11.0242017707,52.
6.92,5731.,9.,3.,4260.,0.,0.,10003.,0.84801552082,4.8996452314,117.
6.94,5734.,9.,5.,4257.,0.,0.,10005.,0.84828982345,4.90123009104,117.
6.96,5732.,14.,6.,4251.,0.,0.,10003.,0.848163490724,3.15032153697,182.
6.98,5732.,14.,14.,4248.,0.,0.,10008.,0.847739747973,3.14874763533,182.
7.,5729.,15.,14.,4248.,0.,0.,10006.,0.847465417635,2.93788011447,195.
7.02,5723.,17.,15.,4250.,0.,0.,10005.,0.846662479875,2.58979111491,221.
7.04,5725.,19.,10.,4251.,0.,0.,10005.,0.846958360525,2.31799130249,247.
7.06,5720.,26.,14.,4249.,0.,0.,10009.,0.845880475801,1.6917609516,338.
7.08,5722.,16.,19.,4251.,0.,0.,10008.,0.846260788189,2.75034756161,208.
7.1,5722.,22.,16.,4251.,0.,0.,10011.,0.846007188912,1.99965335561,286.
7.12,5709.,28.,15.,4257.,0.,0.,10009.,0.844253782578,1.56789988193,364.
7.14,5706.,26.,12.,4264.,0.,0.,10008.,0.843894452535,1.68778890507,338.
7.16,5694.,31.,18.,4263.,0.,0.,10006.,0.842288023741,1.41287023337,403.
7.18,5690.,30.,15.,4271.,0.,0.,10006.,0.841696321582,1.45894029074,390.
7.2,5683.,31.,12.,4282.,0.,0.,10008.,0.840492845033,1.40985896586,403.
7.22,5677.,22.,17.,4291.,0.,0.,10007.,0.839689370978,1.9847203314,286.
7.24,5674.,27.,15.,4294.,0.,0.,10010.,0.838994116536,1.61584052074,351.
7.26,5676.,25.,16.,4291.,0.,0.,10008.,0.839457573184,1.74607175222,325.
7.28,5666.,30.,10.,4298.,0.,0.,10004.,0.838313670823,1.45307702943,390.
7.3,5668.,22.,16.,4294.,0.,0.,10000.,0.838945024882,1.9829609679,286.
7.32,5663.,21.,7.,4307.,0.,0.,9998.,0.838372627932,2.07597031678,273.
7.34,5669.,18.,9.,4301.,0.,0.,9997.,0.83934484263,2.42477398982,234.
7.36,5671.,13.,10.,4301.,0.,0.,9995.,0.839808972253,3.35923588901,169.
7.38,5683.,8.,8.,4299.,0.,0.,9998.,0.84133350601,5.46866778907,104.
7.4,5684.,8.,7.,4297.,0.,0.,9996.,0.841649913569,5.4707244382,104.
7.42,5687.,9.,1.,4303.,0.,0.,10000.,0.841757296489,4.86348660194,117.
7.44,5692.,8.,3.,4292.,0.,0.,9995.,0.842918827379,5.47897237796,104.
7.46,5695.,8.,5.,4286.,0.,0.,9994.,0.843447479338,5.4824086157,104.
7.48,5700.,4.,5.,4287.,0.,0.,9996.,0.844019089962,10.9722481695,52.
7.5,5704.,3.,2.,4284.,0.,0.,9993.,0.844864944968,14.6443257128,39.
7.52,5710.,4.,0.,4279.,0.,0.,9993.,0.845753652835,10.9947974869,52.
7.54,5721.,3.,1.,4269.,0.,0.,9994.,0.847298161421,14.6865014646,39.
7.56,5730.,0.,3.,4263.,0.,0.,9996.,0.848461295699,inf,0.
7.58,5738.,2.,0.,4259.,0.,0.,9999.,0.849390964638,22.0841650806,26.
7.6,5747.,2.,0.,4253.,0.,0.,10002.,0.850468060586,22.1121695752,26.
7.62,5755.,1.,1.,4245.,0.,0.,10002.,0.851651938172,44.2859007849,13.
7.64,5762.,3.,2.,4237.,0.,0.,10004.,0.852517361681,14.7769676025,39.
7.66,5779.,3.,2.,4222.,0.,0.,10006.,0.854861694626,14.8176027069,39.
7.68,5790.,2.,1.,4216.,0.,0.,10009.,0.856232159945,22.2620361586,26.
7.7,5804.,1.,0.,4207.,0.,0.,10012.,0.858045314644,44.6183563615,13.
7.72,5821.,1.,0.,4192.,0.,0.,10014.,0.8603866707,44.7401068764,13.
7.74,5834.,0.,1.,4179.,0.,0.,10014.,0.862308166443,inf,0.
7.76,5853.,1.,0.,4164.,0.,0.,10018.,0.864771081537,44.9680962399,13.
7.78,5861.,2.,0.,4157.,0.,0.,10020.,0.865780223398,22.5102858083,26.
7.8,5869.,0.,1.,4147.,0.,0.,10017.,0.867221621449,inf,0.
7.82,5877.,2.,1.,4138.,0.,0.,10018.,0.868317041892,22.5762430892,26.
7.84,5883.,4.,1.,4131.,0.,0.,10019.,0.869116776463,11.298518094,52.
7.86,5891.,4.,4.,4117.,0.,0.,10016.,0.870559317791,11.3172711313,52.
7.88,5901.,6.,5.,4107.,0.,0.,10019.,0.871775981286,7.55539183781,78.
7.9,5904.,9.,5.,4104.,0.,0.,10022.,0.871958090736,5.03798007981,117.
7.92,5904.,8.,5.,4104.,0.,0.,10021.,0.872045103818,5.66829317482,104.
7.94,5910.,10.,4.,4095.,0.,0.,10019.,0.873105583698,4.54014903523,130.
7.96,5917.,9.,8.,4086.,0.,0.,10020.,0.874052479414,5.05008099217,117.
7.98,5916.,15.,8.,4084.,0.,0.,10023.,0.873643190739,3.02862972789,195.
8.,5913.,16.,11.,4085.,0.,0.,10025.,0.873025962286,2.83733437743,208.
8.02,5914.,18.,9.,4081.,0.,0.,10022.,0.873434984521,2.52325662195,234.
8.04,5907.,19.,17.,4077.,0.,0.,10020.,0.87257529084,2.38810079598,247.
8.06,5906.,21.,15.,4081.,0.,0.,10023.,0.872166444304,2.15965024304,273.
8.08,5908.,28.,15.,4077.,0.,0.,10028.,0.87202678073,1.61947830707,364.
8.1,5901.,31.,18.,4078.,0.,0.,10028.,0.870993573644,1.46102147837,403.
8.12,5894.,28.,17.,4087.,0.,0.,10026.,0.870133907425,1.61596297093,364.
8.14,5885.,34.,16.,4096.,0.,0.,10031.,0.868372173191,1.32809861782,442.
8.16,5885.,30.,20.,4100.,0.,0.,10035.,0.868026035803,1.50457846206,390.
8.18,5863.,47.,23.,4106.,0.,0.,10039.,0.864436510046,0.956397840902,611.
8.2,5870.,36.,21.,4116.,0.,0.,10043.,0.865123879818,1.24962338196,468.
8.22,5863.,36.,11.,4131.,0.,0.,10041.,0.864264328687,1.2483818081,468.
8.24,5855.,32.,15.,4139.,0.,0.,10041.,0.863085049371,1.40251320523,416.
8.26,5863.,34.,13.,4134.,0.,0.,10044.,0.86400618522,1.32142122445,442.
8.28,5861.,29.,14.,4139.,0.,0.,10043.,0.863797454789,1.54887819479,377.
8.3,5861.,33.,8.,4144.,0.,0.,10046.,0.863539502135,1.36072891245,429.
8.32,5865.,22.,13.,4146.,0.,0.,10046.,0.864128848323,2.04248636876,286.
8.34,5864.,19.,14.,4149.,0.,0.,10046.,0.863981511776,2.3645809796,247.
8.36,5857.,20.,9.,4158.,0.,0.,10044.,0.863121989908,2.24411717376,260.
8.38,5856.,17.,9.,4159.,0.,0.,10041.,0.863232459286,2.64047575782,221.
8.4,5859.,15.,7.,4163.,0.,0.,10044.,0.863416721679,2.99317796849,195.
8.42,5859.,18.,6.,4162.,0.,0.,10045.,0.863330766804,2.49406665966,234.
8.44,5858.,15.,6.,4163.,0.,0.,10042.,0.863441287551,2.99326313018,195.
8.46,5863.,11.,3.,4166.,0.,0.,10043.,0.864092215907,4.0847995661,143.
8.48,5869.,10.,4.,4161.,0.,0.,10044.,0.864890380531,4.49742997876,130.
8.5,5871.,6.,3.,4164.,0.,0.,10044.,0.865185112302,7.49827097328,78.
8.52,5881.,3.,2.,4158.,0.,0.,10044.,0.866658771154,15.0220853667,39.
8.54,5890.,2.,1.,4152.,0.,0.,10045.,0.867898654459,22.5653650159,26.
8.56,5905.,3.,0.,4135.,0.,0.,10043.,0.870282199374,15.0848914558,39.
8.58,5915.,2.,1.,4125.,0.,0.,10043.,0.871756004961,22.665656129,26.
8.6,5925.,0.,1.,4117.,0.,0.,10043.,0.873229810549,inf,0.
8.62,5941.,0.,1.,4105.,0.,0.,10047.,0.875239302733,inf,0.
8.64,5952.,0.,1.,4093.,0.,0.,10046.,0.876947127914,inf,0.
8.66,5957.,0.,0.,4087.,0.,0.,10044.,0.877858578433,inf,0.
8.68,5964.,2.,0.,4077.,0.,0.,10043.,0.87897765234,22.8534189608,26.
8.7,5970.,1.,2.,4066.,0.,0.,10039.,0.880212513214,45.7710506871,13.
8.72,5989.,0.,0.,4051.,0.,0.,10040.,0.882925909983,inf,0.
8.74,6000.,0.,0.,4041.,0.,0.,10041.,0.884459486973,inf,0.
8.76,6004.,0.,0.,4032.,0.,0.,10036.,0.885490063821,inf,0.
8.78,6014.,0.,0.,4021.,0.,0.,10035.,0.887053284506,inf,0.
8.8,6019.,3.,0.,4007.,0.,0.,10029.,0.888321908942,15.397579755,39.
8.82,6026.,4.,0.,4000.,0.,0.,10030.,0.889266343513,11.5604624657,52.
8.84,6036.,3.,2.,3993.,0.,0.,10034.,0.890386969798,15.4333741432,39.
8.86,6050.,3.,3.,3981.,0.,0.,10037.,0.892185399648,15.4645469272,39.
8.88,6056.,5.,1.,3973.,0.,0.,10035.,0.893248202688,9.28978130796,65.
8.9,6062.,6.,2.,3968.,0.,0.,10038.,0.893865966496,7.7468383763,78.
8.92,6067.,10.,4.,3959.,0.,0.,10040.,0.89442502853,4.65101014836,130.
8.94,6073.,11.,6.,3953.,0.,0.,10043.,0.895042133242,4.23110826624,143.
8.96,6083.,12.,6.,3944.,0.,0.,10045.,0.896337438892,3.88412890186,156.
8.98,6088.,12.,8.,3939.,0.,0.,10047.,0.896895619431,3.8865476842,156.
9.,6077.,14.,15.,3940.,0.,0.,10046.,0.895364196293,3.32563844337,182.
9.02,6061.,23.,16.,3943.,0.,0.,10043.,0.893273566538,2.01957502,299.
9.04,6062.,26.,6.,3946.,0.,0.,10040.,0.893687905547,1.78737581109,338.
9.06,6052.,26.,13.,3942.,0.,0.,10033.,0.892836154906,1.78567230981,338.
9.08,6050.,31.,8.,3945.,0.,0.,10034.,0.892452148323,1.49701650686,403.
9.1,6054.,22.,9.,3948.,0.,0.,10033.,0.893131209815,2.11103740502,286.
9.12,6051.,23.,14.,3946.,0.,0.,10034.,0.892599661075,2.01805140765,299.
9.14,6043.,28.,13.,3949.,0.,0.,10033.,0.891508407815,1.65565847166,364.
9.16,6031.,27.,18.,3958.,0.,0.,10034.,0.889649406039,1.71339885607,351.
9.18,6025.,27.,14.,3968.,0.,0.,10034.,0.888764329528,1.71169426428,351.
9.2,6025.,24.,12.,3975.,0.,0.,10036.,0.888587214277,1.9252722976,312.
9.22,6022.,28.,16.,3967.,0.,0.,10033.,0.88841033127,1.64990490093,364.
9.24,6017.,27.,12.,3977.,0.,0.,10033.,0.887672693997,1.70959185511,351.
9.26,6013.,23.,17.,3980.,0.,0.,10033.,0.887082584179,2.0055780164,299.
9.28,6007.,28.,11.,3987.,0.,0.,10033.,0.886197419452,1.64579520755,364.
9.3,6008.,24.,15.,3985.,0.,0.,10032.,0.886433298675,1.92060548046,312.
9.32,6015.,23.,4.,3992.,0.,0.,10034.,0.88728920201,2.00604515237,299.
9.34,6024.,17.,7.,3989.,0.,0.,10037.,0.88835121446,2.71730959717,221.
9.36,6033.,9.,10.,3985.,0.,0.,10037.,0.88967843241,5.14036427614,117.
9.38,6038.,17.,5.,3982.,0.,0.,10042.,0.88997242988,2.72226860904,221.
9.4,6046.,9.,6.,3981.,0.,0.,10042.,0.891151591761,5.14887586351,117.
9.42,6050.,10.,2.,3980.,0.,0.,10042.,0.891741172702,4.63705409805,130.
9.44,6053.,8.,0.,3980.,0.,0.,10041.,0.892272212441,5.79976938087,104.
9.46,6061.,8.,3.,3969.,0.,0.,10041.,0.893451491757,5.80743469642,104.
9.48,6071.,6.,3.,3958.,0.,0.,10038.,0.895193052227,7.75833978596,78.
9.5,6074.,3.,2.,3957.,0.,0.,10036.,0.895813898675,15.5274409104,39.
9.52,6086.,2.,2.,3947.,0.,0.,10037.,0.897494271448,23.3348510576,26.
9.54,6089.,0.,2.,3940.,0.,0.,10031.,0.898473774437,inf,0.
9.56,6096.,0.,0.,3935.,0.,0.,10031.,0.899506672519,inf,0.
9.58,6103.,0.,0.,3928.,0.,0.,10031.,0.900539570601,inf,0.
9.6,6114.,1.,0.,3915.,0.,0.,10030.,0.902252642589,46.9171374146,13.
9.62,6126.,0.,1.,3900.,0.,0.,10027.,0.904293978317,inf,0.
9.64,6129.,0.,0.,3896.,0.,0.,10025.,0.904917321639,inf,0.
9.66,6138.,0.,0.,3889.,0.,0.,10027.,0.906065367109,inf,0.
9.68,6150.,0.,0.,3879.,0.,0.,10029.,0.907655713572,inf,0.
9.7,6160.,2.,0.,3865.,0.,0.,10027.,0.909312913227,23.6421357439,26.
9.72,6172.,2.,0.,3854.,0.,0.,10028.,0.91099344798,23.6858296475,26.
9.74,6177.,1.,1.,3849.,0.,0.,10028.,0.911731453042,47.4100355582,13.
9.76,6184.,2.,0.,3843.,0.,0.,10029.,0.912673647598,23.7295148376,26.
9.78,6189.,1.,0.,3838.,0.,0.,10028.,0.91350266519,47.5021385899,13.
9.8,6197.,1.,0.,3831.,0.,0.,10029.,0.914592269432,47.5587980105,13.
9.82,6201.,1.,0.,3823.,0.,0.,10025.,0.915547774757,47.6084842874,13.
9.84,6211.,5.,1.,3811.,0.,0.,10028.,0.91674988746,9.53419882959,65.
9.86,6225.,2.,4.,3799.,0.,0.,10030.,0.918633088013,23.8844602883,26.
9.88,6217.,11.,1.,3795.,0.,0.,10024.,0.918001668911,4.33964425303,143.
9.9,6225.,8.,6.,3787.,0.,0.,10026.,0.918999588348,5.97349732426,104.
9.92,6230.,10.,5.,3779.,0.,0.,10024.,0.919921247759,4.78359048834,130.
9.94,6231.,11.,5.,3776.,0.,0.,10023.,0.92016070343,4.34985059803,143.
9.96,6230.,13.,4.,3771.,0.,0.,10018.,0.920472208777,3.68188883511,169.
9.98,6233.,13.,1.,3770.,0.,0.,10017.,0.921007389077,3.68402955631,169.
10.,6242.,6.,6.,3763.,0.,0.,10017.,0.922337256958,7.9935895603,78.
