t,s,e,i,r,c,o,n,reff,coal,reportr
5.,6573.,2.,36.,3388.,0.,0.,9999.,0.834162917169,21.6882358464,26.
5.02,6554.,23.,11.,3408.,0.,0.,9996.,0.832001300253,1.88104641796,299.
5.04,6559.,19.,9.,3405.,0.,0.,9992.,0.832969349198,2.27970558728,247.
5.06,6557.,19.,11.,3407.,0.,0.,9994.,0.832548713352,2.27855437339,247.
5.08,6551.,17.,14.,3416.,0.,0.,9998.,0.831454106163,2.54327138356,221.
5.1,6539.,27.,14.,3418.,0.,0.,9998.,0.829931063991,1.59838575287,351.
5.12,6523.,30.,19.,3423.,0.,0.,9995.,0.828148835443,1.43545798143,390.
5.14,6506.,35.,15.,3435.,0.,0.,9991.,0.826321238591,1.22767726876,455.
5.16,6496.,33.,15.,3445.,0.,0.,9989.,0.825216339479,1.30034089857,429.
5.18,6489.,32.,13.,3453.,0.,0.,9987.,0.824492177757,1.33979978886,416.
5.2,6479.,35.,9.,3464.,0.,0.,9987.,0.823221578007,1.22307205875,455.
5.22,6475.,29.,10.,3469.,0.,0.,9983.,0.82304298384,1.4758012124,377.
5.24,6470.,24.,15.,3472.,0.,0.,9981.,0.822572224008,1.78223981868,312.
5.26,6456.,24.,17.,3484.,0.,0.,9981.,0.820792315023,1.77838334922,312.
5.28,6449.,23.,14.,3492.,0.,0.,9978.,0.820148873567,1.85424962719,299.
5.3,6451.,21.,12.,3496.,0.,0.,9980.,0.820238813266,2.03106753761,273.
5.32,6444.,28.,9.,3501.,0.,0.,9982.,0.819184604348,1.52134283665,364.
5.34,6442.,22.,13.,3506.,0.,0.,9983.,0.818848324618,1.93545967637,286.
5.36,6438.,24.,8.,3513.,0.,0.,9983.,0.818339881076,1.77306974233,312.
5.38,6433.,21.,4.,3522.,0.,0.,9980.,0.817950129552,2.02540032079,273.
5.4,6443.,14.,8.,3520.,0.,0.,9985.,0.818811394354,3.04129946475,182.
5.42,6442.,16.,2.,3522.,0.,0.,9982.,0.818930357109,2.6615236606,208.
5.44,6441.,14.,4.,3519.,0.,0.,9978.,0.819131476918,3.04248834284,182.
5.46,6448.,12.,3.,3515.,0.,0.,9978.,0.820021698986,3.55342736227,156.
5.48,6456.,5.,5.,3514.,0.,0.,9980.,0.820874558742,8.53709541092,65.
5.5,6463.,4.,1.,3511.,0.,0.,9979.,0.821846951802,10.6840103734,52.
5.52,6464.,3.,2.,3507.,0.,0.,9976.,0.822221299118,14.2518358514,39.
5.54,6467.,1.,2.,3504.,0.,0.,9974.,0.822767848799,42.7839281375,13.
5.56,6478.,1.,2.,3497.,0.,0.,9978.,0.823836936419,42.8395206938,13.
5.58,6488.,1.,2.,3488.,0.,0.,9979.,0.825025997725,42.9013518817,13.
5.6,6498.,2.,1.,3480.,0.,0.,9981.,0.826132041979,21.4794330915,26.
5.62,6503.,2.,2.,3473.,0.,0.,9980.,0.826850566217,21.4981147216,26.
5.64,6510.,3.,1.,3465.,0.,0.,9979.,0.827823558136,14.3489416744,39.
5.66,6521.,3.,0.,3456.,0.,0.,9980.,0.829139249931,14.3717469988,39.
5.68,6527.,2.,2.,3450.,0.,0.,9981.,0.829818996306,21.575293904,26.
5.7,6531.,3.,1.,3443.,0.,0.,9978.,0.830577189218,14.3966712798,39.
5.72,6536.,2.,2.,3434.,0.,0.,9974.,0.831546414063,21.6202067656,26.
5.74,6538.,2.,2.,3429.,0.,0.,9971.,0.832051131261,21.6333294128,26.
5.76,6549.,3.,0.,3421.,0.,0.,9973.,0.833283892257,14.4435874658,39.
5.78,6553.,3.,0.,3415.,0.,0.,9971.,0.833960089195,14.4553082127,39.
5.8,6561.,2.,2.,3408.,0.,0.,9973.,0.834810752344,21.7050795609,26.
5.82,6565.,3.,3.,3401.,0.,0.,9972.,0.835403472223,14.4803268519,39.
5.84,6562.,7.,1.,3399.,0.,0.,9969.,0.835273004423,6.20488517572,91.
5.86,6562.,5.,5.,3394.,0.,0.,9966.,0.83552444121,8.68945418858,65.
5.88,6565.,8.,1.,3390.,0.,0.,9964.,0.836074209655,5.43448236276,104.
5.9,6567.,9.,1.,3386.,0.,0.,9963.,0.836412859675,4.83260763368,117.
5.92,6575.,7.,3.,3380.,0.,0.,9965.,0.837263713468,6.21967330005,91.
5.94,6576.,7.,8.,3372.,0.,0.,9963.,0.837559154138,6.22186800217,91.
5.96,6578.,8.,13.,3368.,0.,0.,9967.,0.837477651111,5.44360473222,104.
5.98,6571.,19.,10.,3367.,0.,0.,9967.,0.836586446556,2.28960501163,247.
6.,6572.,13.,13.,3368.,0.,0.,9966.,0.836797718322,3.34719087329,169.
6.02,6563.,19.,14.,3370.,0.,0.,9966.,0.835651768921,2.28704694652,247.
6.04,6563.,24.,7.,3375.,0.,0.,9969.,0.835400293817,1.81003396994,312.
6.06,6557.,20.,13.,3384.,0.,0.,9974.,0.834218151318,2.16896719343,260.
6.08,6553.,20.,13.,3389.,0.,0.,9975.,0.833625669109,2.16742673968,260.
6.1,6548.,24.,10.,3392.,0.,0.,9974.,0.833073121066,1.80499176231,312.
6.12,6541.,23.,17.,3393.,0.,0.,9974.,0.832182541981,1.88145618187,299.
6.14,6521.,33.,9.,3410.,0.,0.,9973.,0.829721218722,1.30743949617,429.
6.16,6510.,30.,16.,3418.,0.,0.,9974.,0.828238548891,1.43561348474,390.
6.18,6507.,32.,14.,3422.,0.,0.,9975.,0.82777387897,1.34513255333,416.
6.2,6492.,37.,19.,3430.,0.,0.,9978.,0.825617380555,1.16032712943,481.
6.22,6478.,39.,20.,3436.,0.,0.,9973.,0.824249970078,1.0989999601,507.
6.24,6467.,37.,24.,3443.,0.,0.,9971.,0.823015397043,1.15667028774,481.
6.26,6457.,40.,8.,3463.,0.,0.,9968.,0.821990072654,1.06858709445,520.
6.28,6456.,29.,13.,3474.,0.,0.,9972.,0.821533102311,1.47309383863,377.
6.3,6454.,26.,16.,3478.,0.,0.,9974.,0.821113916212,1.64222783242,338.
6.32,6452.,22.,15.,3489.,0.,0.,9978.,0.82053039731,1.93943548455,286.
6.34,6444.,24.,16.,3495.,0.,0.,9979.,0.819430876901,1.77543356662,312.
6.36,6443.,30.,12.,3497.,0.,0.,9982.,0.819057480728,1.41969963326,390.
6.38,6439.,21.,16.,3505.,0.,0.,9981.,0.818630996969,2.02708627821,273.
6.4,6440.,14.,11.,3513.,0.,0.,9978.,0.819004302337,3.04201598011,182.
6.42,6445.,12.,4.,3518.,0.,0.,9979.,0.819558038738,3.55141816787,156.
6.44,6436.,11.,9.,3520.,0.,0.,9976.,0.818659696956,3.87002765834,143.
6.46,6444.,11.,1.,3523.,0.,0.,9979.,0.819430876901,3.87367323626,143.
6.48,6452.,9.,2.,3516.,0.,0.,9979.,0.820448171597,4.74036721367,117.
6.5,6458.,6.,6.,3512.,0.,0.,9982.,0.820964335021,7.11502423685,78.
6.52,6461.,6.,3.,3511.,0.,0.,9981.,0.821427996803,7.11904263896,78.
6.54,6470.,3.,3.,3507.,0.,0.,9983.,0.822407429413,14.2550621098,39.
6.56,6478.,1.,5.,3502.,0.,0.,9986.,0.823176942879,42.8052010297,13.
6.58,6479.,2.,1.,3506.,0.,0.,9988.,0.823139156944,21.4016180806,26.
6.6,6485.,1.,0.,3502.,0.,0.,9988.,0.823901440467,42.8428749043,13.
6.62,6498.,1.,0.,3493.,0.,0.,9992.,0.825222569155,42.9115735961,13.
6.64,6508.,0.,0.,3484.,0.,0.,9992.,0.826492533096,inf,0.
6.66,6516.,0.,0.,3478.,0.,0.,9994.,0.827342903188,inf,0.
6.68,6527.,0.,0.,3469.,0.,0.,9996.,0.828573769721,inf,0.
6.7,6534.,0.,1.,3460.,0.,0.,9995.,0.829545376481,inf,0.
6.72,6537.,0.,2.,3456.,0.,0.,9995.,0.829926251309,inf,0.
6.74,6535.,4.,0.,3456.,0.,0.,9995.,0.829672334757,10.7857403518,52.
6.76,6545.,3.,2.,3447.,0.,0.,9997.,0.830775679264,14.4001117739,39.
6.78,6553.,3.,0.,3439.,0.,0.,9995.,0.831957583728,14.420598118,39.
6.8,6558.,0.,5.,3434.,0.,0.,9997.,0.832425806663,inf,0.
6.82,6566.,3.,1.,3428.,0.,0.,9998.,0.833357908879,14.4448704206,39.
6.84,6574.,5.,2.,3418.,0.,0.,9999.,0.834289824656,8.67661417643,65.
6.86,6584.,9.,0.,3407.,0.,0.,10000.,0.835475343644,4.82719087439,117.
6.88,6591.,8.,1.,3403.,0.,0.,10003.,0.836112773391,5.43473302704,104.
6.9,6593.,6.,2.,3400.,0.,0.,10001.,0.836533743443,7.24995910984,78.
6.92,6597.,7.,1.,3391.,0.,0.,9996.,0.83745995999,6.22113113135,91.
6.94,6602.,10.,0.,3382.,0.,0.,9994.,0.838262407435,4.35896451866,130.
6.96,6609.,4.,7.,3377.,0.,0.,9997.,0.838899383385,10.905691984,52.
6.98,6602.,14.,5.,3374.,0.,0.,9995.,0.83817853926,3.1132345744,182.
7.,6612.,12.,11.,3363.,0.,0.,9998.,0.839196237208,3.6365170279,156.
7.02,6612.,20.,7.,3364.,0.,0.,10003.,0.838776764932,2.18081958882,260.
7.04,6612.,22.,7.,3365.,0.,0.,10006.,0.838525282791,1.98196885023,286.
7.06,6604.,20.,17.,3365.,0.,0.,10006.,0.837510733145,2.17752790618,260.
7.08,6586.,25.,20.,3369.,0.,0.,10000.,0.835729133238,1.73831659714,325.
7.1,6578.,26.,18.,3373.,0.,0.,9995.,0.835131540632,1.67026308126,338.
7.12,6563.,33.,8.,3387.,0.,0.,9991.,0.833560757588,1.31348967862,429.
7.14,6562.,24.,19.,3388.,0.,0.,9993.,0.833266944971,1.8054117141,312.
7.16,6549.,32.,14.,3400.,0.,0.,9995.,0.831449750623,1.35110584476,416.
7.18,6535.,23.,26.,3410.,0.,0.,9994.,0.829755351801,1.87596862146,299.
7.2,6521.,32.,17.,3423.,0.,0.,9993.,0.828060613861,1.34559849752,416.
7.22,6510.,31.,27.,3424.,0.,0.,9992.,0.826746525885,1.38680062406,403.
7.24,6489.,29.,23.,3450.,0.,0.,9991.,0.824162083802,1.4778078744,377.
7.26,6473.,38.,14.,3464.,0.,0.,9989.,0.822294545174,1.12524516708,494.
7.28,6468.,34.,15.,3471.,0.,0.,9988.,0.821741637153,1.25678132741,442.
7.3,6465.,34.,13.,3478.,0.,0.,9990.,0.821196058856,1.25594691355,442.
7.32,6471.,21.,16.,3487.,0.,0.,9995.,0.821547005082,2.03430686973,273.
7.34,6464.,25.,12.,3492.,0.,0.,9993.,0.820822543781,1.70731089106,325.
7.36,6463.,21.,7.,3498.,0.,0.,9989.,0.821024199823,2.03301230432,273.
7.38,6470.,14.,12.,3497.,0.,0.,9993.,0.821584445895,3.05159937047,182.
7.4,6469.,14.,10.,3501.,0.,0.,9994.,0.821375267146,3.05082242083,182.
7.42,6471.,15.,9.,3499.,0.,0.,9994.,0.821629209105,2.84831459156,195.
7.44,6471.,15.,2.,3502.,0.,0.,9990.,0.82195818977,2.84945505787,195.
7.46,6469.,11.,3.,3502.,0.,0.,9985.,0.822115615409,3.88636472739,143.
7.48,6471.,7.,3.,3505.,0.,0.,9986.,0.822287433987,6.10842093819,91.
7.5,6469.,9.,3.,3502.,0.,0.,9983.,0.822280318527,4.75095295149,117.
7.52,6478.,7.,0.,3498.,0.,0.,9983.,0.823424316497,6.11686635112,91.
7.54,6487.,2.,0.,3492.,0.,0.,9981.,0.824733542062,21.4430720936,26.
7.56,6494.,3.,0.,3484.,0.,0.,9981.,0.825623496555,14.3108072736,39.
7.58,6502.,0.,0.,3476.,0.,0.,9978.,0.826889126366,inf,0.
7.6,6517.,0.,0.,3461.,0.,0.,9978.,0.828796745082,inf,0.
7.62,6522.,0.,0.,3456.,0.,0.,9978.,0.829432617988,inf,0.
7.64,6529.,0.,0.,3449.,0.,0.,9978.,0.830322840056,inf,0.
7.66,6538.,0.,1.,3441.,0.,0.,9980.,0.83130078455,inf,0.
7.68,6543.,0.,0.,3437.,0.,0.,9980.,0.831936530026,inf,0.
7.7,6548.,0.,0.,3431.,0.,0.,9979.,0.832655707938,inf,0.
7.72,6557.,1.,0.,3421.,0.,0.,9979.,0.83380016447,43.3576085524,13.
7.74,6565.,0.,0.,3416.,0.,0.,9981.,0.834650177838,inf,0.
7.76,6575.,1.,0.,3406.,0.,0.,9982.,0.835837798508,43.4635655224,13.
7.78,6579.,0.,1.,3403.,0.,0.,9983.,0.836262515936,inf,0.
7.8,6584.,1.,3.,3395.,0.,0.,9983.,0.836898070364,43.5186996589,13.
7.82,6592.,3.,2.,3387.,0.,0.,9984.,0.837831031671,14.522404549,39.
7.84,6600.,2.,3.,3379.,0.,0.,9984.,0.838847816904,21.8100432395,26.
7.86,6604.,6.,3.,3374.,0.,0.,9987.,0.839104074882,7.27223531564,78.
7.88,6602.,8.,2.,3375.,0.,0.,9987.,0.838849954932,5.45252470706,104.
7.9,6611.,7.,5.,3369.,0.,0.,9992.,0.839573161693,6.23682920115,91.
7.92,6614.,10.,1.,3365.,0.,0.,9990.,0.840122309865,4.3686360113,130.
7.94,6622.,6.,3.,3361.,0.,0.,9992.,0.840970122029,7.28840772425,78.
7.96,6626.,10.,6.,3351.,0.,0.,9993.,0.84139390085,4.37524828442,130.
7.98,6632.,12.,4.,3344.,0.,0.,9992.,0.84224008597,3.6497070392,156.
8.,6632.,10.,9.,3339.,0.,0.,9990.,0.842408702604,4.38052525354,130.
8.02,6626.,17.,8.,3338.,0.,0.,9989.,0.841730829031,2.57470606527,221.
8.04,6622.,20.,8.,3339.,0.,0.,9989.,0.841222690891,2.18717899632,260.
8.06,6614.,20.,12.,3342.,0.,0.,9988.,0.840290536199,2.18475539412,260.
8.08,6609.,18.,18.,3345.,0.,0.,9990.,0.839487200771,2.42518524667,234.
8.1,6600.,21.,12.,3358.,0.,0.,9991.,0.838260094482,2.07569166253,273.
8.12,6589.,33.,14.,3355.,0.,0.,9991.,0.836862994324,1.31869320318,429.
8.14,6587.,27.,20.,3359.,0.,0.,9993.,0.836441537111,1.61092444184,351.
8.16,6572.,34.,17.,3366.,0.,0.,9989.,0.83487096414,1.27686147457,442.
8.18,6566.,32.,11.,3387.,0.,0.,9996.,0.833524647156,1.35447755163,416.
8.2,6560.,27.,18.,3393.,0.,0.,9998.,0.832596387793,1.60351896908,351.
8.22,6544.,34.,18.,3403.,0.,0.,9999.,0.830482600023,1.27014985886,442.
8.24,6542.,27.,15.,3414.,0.,0.,9998.,0.830311824534,1.59911906947,351.
8.26,6546.,18.,20.,3417.,0.,0.,10001.,0.830570284329,2.39942526584,234.
8.28,6537.,36.,4.,3429.,0.,0.,10006.,0.829013879856,1.19746449313,468.
8.3,6537.,26.,9.,3434.,0.,0.,10006.,0.829013879856,1.65802775971,338.
8.32,6530.,29.,15.,3429.,0.,0.,10003.,0.828374512251,1.48536119438,377.
8.34,6531.,26.,16.,3433.,0.,0.,10006.,0.828252967621,1.65650593524,338.
8.36,6530.,20.,19.,3437.,0.,0.,10006.,0.828126148915,2.15312798718,260.
8.38,6516.,19.,11.,3461.,0.,0.,10007.,0.826268109769,2.26136535305,247.
8.4,6520.,14.,2.,3469.,0.,0.,10005.,0.826940606331,3.07149368066,182.
8.42,6523.,8.,10.,3464.,0.,0.,10005.,0.827321100475,5.37758715309,104.
8.44,6533.,6.,5.,3460.,0.,0.,10004.,0.8286722401,7.18182608086,78.
8.46,6540.,2.,7.,3458.,0.,0.,10007.,0.829311454557,21.5620978185,26.
8.48,6542.,4.,3.,3459.,0.,0.,10008.,0.829482176428,10.7832682936,52.
8.5,6549.,2.,1.,3456.,0.,0.,10008.,0.830369729964,21.5896129791,26.
8.52,6554.,1.,1.,3450.,0.,0.,10006.,0.831169797855,43.2208294884,13.
8.54,6561.,1.,0.,3447.,0.,0.,10009.,0.83180813599,43.2540230715,13.
8.56,6571.,1.,0.,3438.,0.,0.,10010.,0.832992718564,43.3156213653,13.
8.58,6580.,0.,1.,3426.,0.,0.,10007.,0.834383695869,inf,0.
8.6,6584.,1.,0.,3422.,0.,0.,10007.,0.83489092,43.41432784,13.
8.62,6590.,1.,1.,3416.,0.,0.,10008.,0.83556825782,43.4495494066,13.
8.64,6599.,1.,1.,3408.,0.,0.,10009.,0.836625802377,43.5045417236,13.
8.66,6610.,2.,0.,3399.,0.,0.,10011.,0.8378529701,21.7841772226,26.
8.68,6616.,1.,1.,3394.,0.,0.,10012.,0.838529741459,43.6035465559,13.
8.7,6613.,1.,0.,3394.,0.,0.,10008.,0.838484505154,43.601194268,13.
8.72,6618.,2.,0.,3388.,0.,0.,10008.,0.839118471966,21.8170802711,26.
8.74,6624.,1.,1.,3378.,0.,0.,10004.,0.840215049506,43.6911825743,13.
8.76,6633.,1.,0.,3371.,0.,0.,10005.,0.841272552422,43.746172726,13.
8.78,6641.,0.,2.,3365.,0.,0.,10008.,0.842034719299,inf,0.
8.8,6648.,2.,0.,3363.,0.,0.,10013.,0.842501358888,21.9050353311,26.
8.82,6654.,2.,2.,3359.,0.,0.,10017.,0.842925006924,21.91605018,26.
8.84,6655.,1.,4.,3357.,0.,0.,10017.,0.843051686366,43.8386876911,13.
8.86,6661.,2.,2.,3350.,0.,0.,10015.,0.843980272607,21.9434870878,26.
8.88,6666.,2.,1.,3344.,0.,0.,10013.,0.844782499751,21.9643449935,26.
8.9,6666.,7.,1.,3339.,0.,0.,10013.,0.844782499751,6.27552714101,91.
8.92,6663.,6.,4.,3339.,0.,0.,10012.,0.844486648631,7.31888428814,78.
8.94,6665.,10.,5.,3338.,0.,0.,10018.,0.844234200642,4.39001784334,130.
8.96,6657.,14.,4.,3343.,0.,0.,10018.,0.843220866268,3.13196321757,182.
8.98,6660.,14.,8.,3338.,0.,0.,10020.,0.843432483252,3.13274922351,182.
9.,6660.,19.,6.,3337.,0.,0.,10022.,0.843264167051,2.30788087824,247.
9.02,6658.,19.,10.,3336.,0.,0.,10023.,0.842926826922,2.30695763158,247.
9.04,6651.,26.,10.,3337.,0.,0.,10024.,0.841956599207,1.68391319841,338.
9.06,6647.,31.,8.,3339.,0.,0.,10025.,0.841366300107,1.41132411631,403.
9.08,6647.,23.,17.,3330.,0.,0.,10017.,0.842038250831,1.90373865405,299.
9.1,6645.,25.,21.,3327.,0.,0.,10018.,0.841700864707,1.75073779859,325.
9.12,6629.,29.,20.,3345.,0.,0.,10023.,0.839255322269,1.50487161234,377.
9.14,6624.,37.,13.,3353.,0.,0.,10027.,0.838287758577,1.17813414719,481.
9.16,6623.,33.,20.,3350.,0.,0.,10026.,0.838244804237,1.32087060062,429.
9.18,6606.,35.,19.,3368.,0.,0.,10028.,0.83592643516,1.24194784652,455.
9.2,6593.,37.,22.,3374.,0.,0.,10026.,0.834447832453,1.17273749426,481.
9.22,6592.,34.,18.,3383.,0.,0.,10027.,0.83423805926,1.2758935024,442.
9.24,6576.,34.,16.,3400.,0.,0.,10026.,0.832296215109,1.27292362311,442.
9.26,6562.,36.,13.,3416.,0.,0.,10027.,0.830441466151,1.19952656222,468.
9.28,6549.,32.,14.,3432.,0.,0.,10027.,0.828796275803,1.34679394818,416.
9.3,6551.,25.,14.,3439.,0.,0.,10029.,0.828884051593,1.72407882731,325.
9.32,6547.,20.,15.,3445.,0.,0.,10027.,0.828543169596,2.15421224095,260.
9.34,6538.,24.,14.,3450.,0.,0.,10026.,0.827486717515,1.79288788795,312.
9.36,6527.,27.,5.,3467.,0.,0.,10026.,0.826094494528,1.59099680428,351.
9.38,6529.,23.,10.,3461.,0.,0.,10023.,0.826594961396,1.86882339098,299.
9.4,6527.,18.,8.,3472.,0.,0.,10025.,0.826176897969,2.3867332608,234.
9.42,6533.,13.,10.,3469.,0.,0.,10025.,0.826936368075,3.3077454723,169.
9.44,6535.,14.,6.,3473.,0.,0.,10028.,0.826942060819,3.07149908304,182.
9.46,6538.,12.,6.,3470.,0.,0.,10026.,0.827486717515,3.5857757759,156.
9.48,6542.,13.,5.,3468.,0.,0.,10028.,0.827827844205,3.31131137682,169.
9.5,6546.,8.,5.,3471.,0.,0.,10030.,0.828168834852,5.38309742654,104.
9.52,6557.,3.,3.,3472.,0.,0.,10035.,0.829147169033,14.3718842632,39.
9.54,6564.,0.,0.,3469.,0.,0.,10033.,0.83019779498,inf,0.
9.56,6571.,0.,0.,3464.,0.,0.,10035.,0.830917500033,inf,0.
9.58,6583.,0.,0.,3455.,0.,0.,10038.,0.832186141509,inf,0.
9.6,6590.,1.,0.,3449.,0.,0.,10040.,0.832905092058,43.311064787,13.
9.62,6595.,1.,1.,3445.,0.,0.,10042.,0.833371028094,43.3352934609,13.
9.64,6604.,2.,0.,3437.,0.,0.,10043.,0.834425211177,21.6950554906,26.
9.66,6613.,3.,0.,3429.,0.,0.,10045.,0.83539601071,14.480197519,39.
9.68,6618.,2.,1.,3422.,0.,0.,10043.,0.836194131976,21.7410474314,26.
9.7,6625.,1.,1.,3418.,0.,0.,10045.,0.836911926652,43.5194201859,13.
9.72,6633.,1.,1.,3408.,0.,0.,10043.,0.83808940426,43.5806490215,13.
9.74,6639.,2.,0.,3405.,0.,0.,10046.,0.838597011229,21.803522292,26.
9.76,6641.,2.,0.,3403.,0.,0.,10046.,0.838849638737,21.8100906072,26.
9.78,6642.,3.,2.,3400.,0.,0.,10047.,0.838892447369,14.5408024211,39.
9.8,6651.,3.,3.,3390.,0.,0.,10047.,0.840029158003,14.5605054054,39.
9.82,6655.,6.,1.,3385.,0.,0.,10047.,0.840534362728,7.28463114365,78.
9.84,6657.,6.,3.,3382.,0.,0.,10048.,0.840703288045,7.28609516305,78.
9.86,6660.,12.,2.,3377.,0.,0.,10051.,0.84083110956,3.64360147476,156.
9.88,6667.,7.,6.,3369.,0.,0.,10049.,0.841882388096,6.25398345443,91.
9.9,6672.,14.,4.,3362.,0.,0.,10052.,0.84226232171,3.12840290921,182.
9.92,6674.,9.,5.,3362.,0.,0.,10050.,0.842682463062,4.8688320088,117.
9.94,6674.,9.,5.,3360.,0.,0.,10048.,0.842850194444,4.86980112345,117.
9.96,6680.,10.,4.,3356.,0.,0.,10050.,0.843440043939,4.38588822848,130.
9.98,6681.,20.,4.,3349.,0.,0.,10054.,0.843230693213,2.19239980235,260.
10.,6680.,17.,6.,3352.,0.,0.,10055.,0.84302063069,2.57865134093,221.
