t,prevalence
5.,8
5.02,10
5.04,6
5.06,8
5.08,6
5.1,9
5.12,8
5.14,5
5.16,6
5.18,2
5.2,6
5.22,5
5.24,9
5.26,4
5.28,6
5.3,4
5.32,2
5.34,3
5.36,0
5.38,2
5.4,3
5.42,1
5.44,1
5.46,3
5.48,4
5.5,3
5.52,0
5.54,0
5.56,1
5.58,0
5.6,1
5.62,0
5.64,0
5.66,1
5.68,2
5.7,0
5.72,0
5.74,0
5.76,1
5.78,0
5.8,0
5.82,1
5.84,0
5.86,1
5.88,1
5.9,1
5.92,3
5.94,1
5.96,3
5.98,5
6.,1
6.02,5
6.04,4
6.06,4
6.08,9
6.1,7
6.12,4
6.14,6
6.16,7
6.18,15
6.2,8
6.22,8
6.24,5
6.26,8
6.28,5
6.3,2
6.32,6
6.34,2
6.36,2
6.38,1
6.4,3
6.42,5
6.44,5
6.46,7
6.48,1
6.5,2
6.52,1
6.54,2
6.56,0
6.58,1
6.6,0
6.62,0
6.64,0
6.66,0
6.68,0
6.7,2
6.72,1
6.74,1
6.76,0
6.78,0
6.8,0
6.82,1
6.84,2
6.86,1
6.88,1
6.9,1
6.92,4
6.94,4
6.96,2
6.98,1
7.,4
7.02,3
7.04,10
7.06,10
7.08,7
7.1,8
7.12,6
7.14,4
7.16,10
7.18,8
7.2,11
7.22,8
7.24,5
7.26,6
7.28,8
7.3,7
7.32,9
7.34,11
7.36,7
7.38,2
7.4,9
7.42,3
7.44,3
7.46,5
7.48,2
7.5,1
7.52,1
7.54,1
7.56,1
7.58,1
7.6,0
7.62,0
7.64,0
7.66,0
7.68,0
7.7,1
7.72,1
7.74,0
7.76,0
7.78,0
7.8,0
7.82,1
7.84,0
7.86,1
7.88,0
7.9,0
7.92,0
7.94,3
7.96,3
7.98,6
8.,3
8.02,2
8.04,7
8.06,3
8.08,10
8.1,12
8.12,10
8.14,14
8.16,12
8.18,6
8.2,6
8.22,4
8.24,9
8.26,15
8.28,19
8.3,8
8.32,1
8.34,5
8.36,4
8.38,9
8.4,7
8.42,2
8.44,4
8.46,7
8.48,3
8.5,0
8.52,0
8.54,1
8.56,0
8.58,0
8.6,0
8.62,0
8.64,0
8.66,0
8.68,0
8.7,0
8.72,0
8.74,0
8.76,1
8.78,0
8.8,0
8.82,0
8.84,0
8.86,1
8.88,1
8.9,0
8.92,4
8.94,4
8.96,2
8.98,5
9.,9
9.02,5
9.04,3
9.06,8
9.08,10
9.1,9
9.12,8
9.14,11
9.16,12
9.18,4
9.2,3
9.22,4
9.24,8
9.26,3
9.28,3
9.3,6
9.32,8
9.34,1
9.36,4
9.38,6
9.4,3
9.42,1
9.44,0
9.46,2
9.48,0
9.5,0
9.52,1
9.54,1
9.56,0
9.58,1
9.6,1
9.62,1
9.64,0
9.66,0
9.68,0
9.7,0
9.72,1
9.74,0
9.76,0
9.78,0
9.8,0
9.82,0
9.84,1
9.86,1
9.88,4
9.9,2
9.92,3
9.94,1
9.96,3
9.98,4
10.,3
