t,cases
5.01,2.73
5.02,2.73
5.03,2.535
5.04,2.535
5.05,2.73
5.06,2.73
5.07,2.6
5.08,2.6
5.09,2.535
5.1,2.535
5.11,3.835
5.12,3.835
5.13,5.005
5.14,5.005
5.15,4.94
5.16,4.94
5.17,4.81
5.18,4.81
5.19,4.94
5.2,4.94
5.21,4.68
5.22,4.68
5.23,4.745
5.24,4.745
5.25,5.005
5.26,5.005
5.27,5.135
5.28,5.135
5.29,4.745
5.3,4.745
5.31,3.9
5.32,3.9
5.33,3.445
5.34,3.445
5.35,3.51
5.36,3.51
5.37,3.12
5.38,3.12
5.39,2.34
5.4,2.34
5.41,1.885
5.42,1.885
5.43,1.495
5.44,1.495
5.45,1.3
5.46,1.3
5.47,1.17
5.48,1.17
5.49,1.235
5.5,1.235
5.51,1.17
5.52,1.17
5.53,0.845
5.54,0.845
5.55,0.715
5.56,0.715
5.57,0.78
5.58,0.78
5.59,0.78
5.6,0.78
5.61,0.52
5.62,0.52
5.63,0.13
5.64,0.13
5.65,0.065
5.66,0.065
5.67,0.13
5.68,0.13
5.69,0.13
5.7,0.13
5.71,0.065
5.72,0.065
5.73,0.065
5.74,0.065
5.75,0.13
5.76,0.13
5.77,0.13
5.78,0.13
5.79,0.195
5.8,0.195
5.81,0.455
5.82,0.455
5.83,0.585
5.84,0.585
5.85,0.52
5.86,0.52
5.87,0.455
5.88,0.455
5.89,0.39
5.9,0.39
5.91,0.52
5.92,0.52
5.93,0.91
5.94,0.91
5.95,1.43
5.96,1.43
5.97,1.95
5.98,1.95
5.99,2.145
6.,2.145
6.01,2.21
6.02,2.21
6.03,2.535
6.04,2.535
6.05,2.86
6.06,2.86
6.07,3.51
6.08,3.51
6.09,3.77
6.1,3.77
6.11,3.9
6.12,3.9
6.13,4.095
6.14,4.095
6.15,4.095
6.16,4.095
6.17,4.03
6.18,4.03
6.19,3.445
6.2,3.445
6.21,2.99
6.22,2.99
6.23,3.51
6.24,3.51
6.25,3.835
6.26,3.835
6.27,4.225
6.28,4.225
6.29,4.615
6.3,4.615
6.31,3.965
6.32,3.965
6.33,3.12
6.34,3.12
6.35,2.405
6.36,2.405
6.37,2.08
6.38,2.08
6.39,1.56
6.4,1.56
6.41,1.365
6.42,1.365
6.43,1.365
6.44,1.365
6.45,1.17
6.46,1.17
6.47,1.43
6.48,1.43
6.49,1.625
6.5,1.625
6.51,1.105
6.52,1.105
6.53,0.715
6.54,0.715
6.55,0.65
6.56,0.65
6.57,0.39
6.58,0.39
6.59,0.195
6.6,0.195
6.61,0.325
6.62,0.325
6.63,0.585
6.64,0.585
6.65,0.585
6.66,0.585
6.67,0.325
6.68,0.325
6.69,0.065
6.7,0.065
6.71,0.
6.72,0.
6.73,0.195
6.74,0.195
6.75,0.325
6.76,0.325
6.77,0.325
6.78,0.325
6.79,0.585
6.8,0.585
6.81,0.65
6.82,0.65
6.83,0.715
6.84,0.715
6.85,0.845
6.86,0.845
6.87,0.91
6.88,0.91
6.89,1.235
6.9,1.235
6.91,1.495
6.92,1.495
6.93,1.43
6.94,1.43
6.95,1.43
6.96,1.43
6.97,1.755
6.98,1.755
6.99,1.625
7.,1.625
7.01,1.82
7.02,1.82
7.03,2.535
7.04,2.535
7.05,2.73
7.06,2.73
7.07,3.315
7.08,3.315
7.09,3.9
7.1,3.9
7.11,3.77
7.12,3.77
7.13,4.355
7.14,4.355
7.15,4.81
7.16,4.81
7.17,4.81
7.18,4.81
7.19,5.785
7.2,5.785
7.21,5.85
7.22,5.85
7.23,5.005
7.24,5.005
7.25,4.29
7.26,4.29
7.27,3.64
7.28,3.64
7.29,2.795
7.3,2.795
7.31,2.34
7.32,2.34
7.33,2.47
7.34,2.47
7.35,2.535
7.36,2.535
7.37,2.73
7.38,2.73
7.39,2.6
7.4,2.6
7.41,1.82
7.42,1.82
7.43,1.17
7.44,1.17
7.45,1.04
7.46,1.04
7.47,0.715
7.48,0.715
7.49,0.455
7.5,0.455
7.51,0.26
7.52,0.26
7.53,0.13
7.54,0.13
7.55,0.0649999999999
7.56,0.0650000000001
7.57,0.0649999999999
7.58,0.0650000000001
7.59,0.13
7.6,0.13
7.61,0.13
7.62,0.13
7.63,0.195
7.64,0.195
7.65,0.26
7.66,0.26
7.67,0.325
7.68,0.325
7.69,0.39
7.7,0.39
7.71,0.39
7.72,0.39
7.73,0.325
7.74,0.325
7.75,0.325
7.76,0.325
7.77,0.455
7.78,0.455
7.79,0.65
7.8,0.65
7.81,0.715
7.82,0.715
7.83,0.715
7.84,0.715
7.85,0.845
7.86,0.845
7.87,1.105
7.88,1.105
7.89,1.365
7.9,1.365
7.91,1.885
7.92,1.885
7.93,2.145
7.94,2.145
7.95,2.145
7.96,2.145
7.97,2.08
7.98,2.08
7.99,1.95
8.,1.95
8.01,2.535
8.02,2.535
8.03,3.38
8.04,3.38
8.05,3.185
8.06,3.185
8.07,2.86
8.08,2.86
8.09,2.99
8.1,2.99
8.11,3.445
8.12,3.445
8.13,4.355
8.14,4.355
8.15,4.42
8.16,4.42
8.17,4.225
8.18,4.225
8.19,4.355
8.2,4.355
8.21,4.355
8.22,4.355
8.23,4.225
8.24,4.225
8.25,3.9
8.26,3.9
8.27,3.185
8.28,3.185
8.29,2.86
8.3,2.86
8.31,3.25
8.32,3.25
8.33,2.99
8.34,2.99
8.35,2.665
8.36,2.665
8.37,2.275
8.38,2.275
8.39,1.69
8.4,1.69
8.41,1.625
8.42,1.625
8.43,1.43
8.44,1.43
8.45,1.3
8.46,1.3
8.47,1.105
8.48,1.105
8.49,0.78
8.5,0.78
8.51,0.52
8.52,0.52
8.53,0.26
8.54,0.26
8.55,0.13
8.56,0.13
8.57,0.13
8.58,0.13
8.59,0.13
8.6,0.13
8.61,0.0649999999999
8.62,0.0650000000001
8.63,0.
8.64,0.
8.65,0.0649999999999
8.66,0.0650000000001
8.67,0.13
8.68,0.13
8.69,0.195
8.7,0.195
8.71,0.26
8.72,0.26
8.73,0.195
8.74,0.195
8.75,0.0650000000001
8.76,0.0649999999999
8.77,0.325
8.78,0.325
8.79,0.455
8.8,0.455
8.81,0.455
8.82,0.455
8.83,0.585
8.84,0.585
8.85,0.455
8.86,0.455
8.87,0.585
8.88,0.585
8.89,0.975
8.9,0.975
8.91,1.3
8.92,1.3
8.93,1.3
8.94,1.3
8.95,1.625
8.96,1.625
8.97,2.015
8.98,2.015
8.99,2.34
9.,2.34
9.01,2.665
9.02,2.665
9.03,2.6
9.04,2.6
9.05,3.055
9.06,3.055
9.07,3.25
9.08,3.25
9.09,2.665
9.1,2.665
9.11,3.055
9.12,3.055
9.13,3.38
9.14,3.38
9.15,2.925
9.16,2.925
9.17,3.445
9.18,3.445
9.19,3.77
9.2,3.77
9.21,3.77
9.22,3.77
9.23,3.64
9.24,3.64
9.25,3.445
9.26,3.445
9.27,3.185
9.28,3.185
9.29,3.25
9.3,3.25
9.31,3.38
9.32,3.38
9.33,2.6
9.34,2.6
9.35,2.015
9.36,2.015
9.37,1.495
9.38,1.495
9.39,1.365
9.4,1.365
9.41,1.625
9.42,1.625
9.43,1.56
9.44,1.56
9.45,1.17
9.46,1.17
9.47,0.78
9.48,0.78
9.49,0.65
9.5,0.65
9.51,0.585
9.52,0.585
9.53,0.39
9.54,0.39
9.55,0.195
9.56,0.195
9.57,0.195
9.58,0.195
9.59,0.13
9.6,0.13
9.61,0.195
9.62,0.195
9.63,0.325
9.64,0.325
9.65,0.13
9.66,0.13
9.67,0.
9.68,0.
9.69,0.
9.7,0.
9.71,0.0650000000001
9.72,0.0649999999999
9.73,0.13
9.74,0.13
9.75,0.13
9.76,0.13
9.77,0.13
9.78,0.13
9.79,0.13
9.8,0.13
9.81,0.26
9.82,0.26
9.83,0.585
9.84,0.585
9.85,0.715
9.86,0.715
9.87,0.52
9.88,0.52
9.89,0.585
9.9,0.585
9.91,0.975
9.92,0.975
9.93,1.04
9.94,1.04
9.95,0.975
9.96,0.975
9.97,1.235
9.98,1.235
9.99,1.17
10.,1.17
