t,prevalence
5.,4
5.02,1
5.04,8
5.06,15
5.08,3
5.1,6
5.12,10
5.14,10
5.16,9
5.18,11
5.2,7
5.22,8
5.24,7
5.26,7
5.28,4
5.3,7
5.32,6
5.34,4
5.36,3
5.38,2
5.4,5
5.42,6
5.44,2
5.46,0
5.48,2
5.5,1
5.52,2
5.54,1
5.56,1
5.58,1
5.6,0
5.62,1
5.64,0
5.66,0
5.68,0
5.7,2
5.72,1
5.74,0
5.76,1
5.78,1
5.8,0
5.82,1
5.84,0
5.86,0
5.88,0
5.9,0
5.92,2
5.94,6
5.96,1
5.98,1
6.,1
6.02,2
6.04,4
6.06,7
6.08,4
6.1,4
6.12,6
6.14,9
6.16,8
6.18,7
6.2,12
6.22,6
6.24,4
6.26,5
6.28,1
6.3,2
6.32,3
6.34,3
6.36,3
6.38,5
6.4,7
6.42,3
6.44,5
6.46,5
6.48,0
6.5,1
6.52,2
6.54,1
6.56,0
6.58,0
6.6,0
6.62,2
6.64,0
6.66,1
6.68,0
6.7,0
6.72,0
6.74,0
6.76,0
6.78,2
6.8,1
6.82,0
6.84,1
6.86,1
6.88,2
6.9,2
6.92,4
6.94,4
6.96,7
6.98,3
7.,7
7.02,10
7.04,7
7.06,6
7.08,5
7.1,7
7.12,11
7.14,6
7.16,4
7.18,8
7.2,6
7.22,7
7.24,7
7.26,3
7.28,7
7.3,9
7.32,6
7.34,0
7.36,3
7.38,4
7.4,4
7.42,2
7.44,3
7.46,4
7.48,0
7.5,3
7.52,0
7.54,1
7.56,2
7.58,0
7.6,0
7.62,0
7.64,1
7.66,0
7.68,0
7.7,0
7.72,1
7.74,1
7.76,0
7.78,0
7.8,0
7.82,1
7.84,0
7.86,1
7.88,2
7.9,2
7.92,3
7.94,3
7.96,2
7.98,2
8.,1
8.02,4
8.04,7
8.06,6
8.08,4
8.1,9
8.12,8
8.14,6
8.16,4
8.18,8
8.2,14
8.22,5
8.24,6
8.26,3
8.28,4
8.3,14
8.32,9
8.34,5
8.36,6
8.38,10
8.4,6
8.42,4
8.44,2
8.46,3
8.48,3
8.5,3
8.52,6
8.54,0
8.56,1
8.58,3
8.6,0
8.62,0
8.64,0
8.66,0
8.68,0
8.7,0
8.72,0
8.74,0
8.76,0
8.78,1
8.8,0
8.82,1
8.84,4
8.86,1
8.88,1
8.9,1
8.92,2
8.94,4
8.96,4
8.98,6
9.,5
9.02,2
9.04,7
9.06,6
9.08,6
9.1,14
9.12,9
9.14,2
9.16,11
9.18,6
9.2,2
9.22,7
9.24,14
9.26,2
9.28,5
9.3,4
9.32,3
9.34,2
9.36,2
9.38,2
9.4,5
9.42,5
9.44,1
9.46,1
9.48,1
9.5,3
9.52,1
9.54,1
9.56,0
9.58,0
9.6,1
9.62,0
9.64,0
9.66,1
9.68,1
9.7,1
9.72,1
9.74,0
9.76,1
9.78,1
9.8,3
9.82,1
9.84,0
9.86,1
9.88,3
9.9,1
9.92,4
9.94,1
9.96,6
9.98,6
10.,4
