t,s,e,i,r,c,o,n,reff,coal,reportr
5.,6526.,20.,17.,3437.,0.,0.,10000.,0.824049581943,2.14252891305,260.
5.02,6525.,24.,10.,3445.,0.,0.,10004.,0.823593872622,1.78445339068,312.
5.04,6515.,30.,9.,3448.,0.,0.,10002.,0.822496093236,1.42565989494,390.
5.06,6519.,26.,11.,3442.,0.,0.,9998.,0.82333034561,1.64666069122,338.
5.08,6511.,26.,16.,3447.,0.,0.,10000.,0.822155505368,1.64431101074,338.
5.1,6493.,29.,11.,3464.,0.,0.,9997.,0.820128652073,1.47057551406,377.
5.12,6488.,28.,10.,3470.,0.,0.,9996.,0.819579086254,1.5220754459,364.
5.14,6485.,24.,17.,3467.,0.,0.,9993.,0.81944605154,1.775466445,312.
5.16,6482.,24.,12.,3477.,0.,0.,9995.,0.818903075527,1.77428999697,312.
5.18,6488.,20.,14.,3472.,0.,0.,9994.,0.819743100479,2.13133206125,260.
5.2,6481.,25.,10.,3479.,0.,0.,9995.,0.818776740588,1.70305562042,325.
5.22,6474.,29.,12.,3480.,0.,0.,9995.,0.817892396014,1.46656567561,377.
5.24,6467.,27.,14.,3487.,0.,0.,9995.,0.81700805144,1.57349698796,351.
5.26,6460.,25.,11.,3501.,0.,0.,9997.,0.815960433142,1.69719770094,325.
5.28,6457.,26.,7.,3506.,0.,0.,9996.,0.815663094935,1.63132618987,338.
5.3,6458.,21.,7.,3509.,0.,0.,9995.,0.815871036987,2.02025209159,273.
5.32,6460.,16.,7.,3510.,0.,0.,9993.,0.816287045944,2.65293289932,208.
5.34,6464.,18.,4.,3510.,0.,0.,9996.,0.816547351039,2.35891456967,234.
5.36,6467.,13.,6.,3510.,0.,0.,9996.,0.816926317941,3.26770527176,169.
5.38,6473.,6.,4.,3511.,0.,0.,9994.,0.817847886776,7.08801501873,78.
5.4,6485.,9.,3.,3498.,0.,0.,9995.,0.819282080344,4.73362979754,117.
5.42,6490.,5.,5.,3495.,0.,0.,9995.,0.81991375504,8.52710305241,65.
5.44,6499.,8.,3.,3489.,0.,0.,9999.,0.820722316339,5.3346950562,104.
5.46,6506.,7.,0.,3487.,0.,0.,10000.,0.821524146509,6.10275080264,91.
5.48,6514.,5.,2.,3477.,0.,0.,9998.,0.822698860455,8.55606814873,65.
5.5,6520.,5.,2.,3471.,0.,0.,9998.,0.823456642641,8.56394908347,65.
5.52,6521.,3.,1.,3469.,0.,0.,9994.,0.823912570627,14.2811512242,39.
5.54,6532.,4.,0.,3461.,0.,0.,9997.,0.825054728991,10.7257114769,52.
5.56,6543.,2.,0.,3454.,0.,0.,9999.,0.826278829944,21.4832495785,26.
5.58,6554.,1.,1.,3445.,0.,0.,10001.,0.827502441305,43.0301269479,13.
5.6,6553.,1.,1.,3439.,0.,0.,9994.,0.827955693194,43.0536960461,13.
5.62,6565.,1.,0.,3427.,0.,0.,9993.,0.829554869447,43.1368532112,13.
5.64,6570.,0.,1.,3420.,0.,0.,9991.,0.830352857468,inf,0.
5.66,6581.,0.,0.,3410.,0.,0.,9991.,0.831743098173,inf,0.
5.68,6594.,0.,0.,3401.,0.,0.,9995.,0.833052588711,inf,0.
5.7,6609.,0.,0.,3389.,0.,0.,9998.,0.834697078407,inf,0.
5.72,6606.,1.,1.,3388.,0.,0.,9996.,0.834485117724,43.3932261216,13.
5.74,6612.,0.,0.,3385.,0.,0.,9997.,0.835159502157,inf,0.
5.76,6625.,0.,0.,3371.,0.,0.,9996.,0.836885241435,inf,0.
5.78,6633.,0.,0.,3363.,0.,0.,9996.,0.83789581984,inf,0.
5.8,6637.,1.,0.,3358.,0.,0.,9996.,0.838401109042,43.5968576702,13.
5.82,6643.,3.,0.,3356.,0.,0.,10002.,0.838655648099,14.5366979004,39.
5.84,6654.,2.,1.,3346.,0.,0.,10003.,0.839960380603,21.8389698957,26.
5.86,6655.,3.,2.,3342.,0.,0.,10002.,0.840170606367,14.562957177,39.
5.88,6667.,5.,1.,3334.,0.,0.,10007.,0.841265016237,8.74915616887,65.
5.9,6675.,6.,2.,3327.,0.,0.,10010.,0.842022053868,7.29752446686,78.
5.92,6681.,5.,2.,3322.,0.,0.,10010.,0.842778927624,8.76490084729,65.
5.94,6681.,9.,3.,3316.,0.,0.,10009.,0.842863129735,4.86987586069,117.
5.96,6679.,12.,6.,3312.,0.,0.,10009.,0.842610813277,3.6513135242,156.
5.98,6684.,14.,8.,3305.,0.,0.,10011.,0.843073141412,3.13141452524,182.
6.,6681.,16.,7.,3307.,0.,0.,10011.,0.842694742335,2.73875791259,208.
6.02,6677.,11.,17.,3306.,0.,0.,10011.,0.842190210234,3.98126281202,143.
6.04,6665.,20.,7.,3316.,0.,0.,10008.,0.840928615313,2.18641439981,260.
6.06,6664.,17.,18.,3309.,0.,0.,10008.,0.840802444478,2.57186630076,221.
6.08,6649.,28.,9.,3322.,0.,0.,10008.,0.838909881953,1.55797549506,364.
6.1,6638.,29.,20.,3320.,0.,0.,10007.,0.837605696383,1.50191366248,377.
6.12,6627.,32.,18.,3332.,0.,0.,10009.,0.836050585355,1.3585822012,416.
6.14,6618.,32.,15.,3342.,0.,0.,10007.,0.835082027517,1.35700829472,416.
6.16,6608.,29.,23.,3350.,0.,0.,10010.,0.833570296923,1.49467777379,377.
6.18,6591.,37.,22.,3363.,0.,0.,10013.,0.831176717369,1.16814025144,481.
6.2,6586.,30.,21.,3378.,0.,0.,10015.,0.830380317766,1.43932588413,390.
6.22,6582.,32.,13.,3392.,0.,0.,10019.,0.82954466629,1.34801008272,416.
6.24,6571.,31.,15.,3402.,0.,0.,10019.,0.828158310877,1.38916877954,403.
6.26,6565.,28.,19.,3404.,0.,0.,10016.,0.827649941132,1.53706417639,364.
6.28,6553.,36.,15.,3411.,0.,0.,10015.,0.826219590392,1.19342829723,468.
6.3,6549.,27.,20.,3414.,0.,0.,10010.,0.826127704986,1.59106076516,351.
6.32,6536.,39.,11.,3422.,0.,0.,10008.,0.824652577597,1.09953677013,507.
6.34,6538.,27.,13.,3428.,0.,0.,10006.,0.825069801322,1.58902332106,351.
6.36,6544.,19.,7.,3437.,0.,0.,10007.,0.825744452716,2.25993218638,247.
6.38,6552.,14.,4.,3441.,0.,0.,10011.,0.826423582066,3.06957330482,182.
6.4,6551.,11.,3.,3445.,0.,0.,10010.,0.826379996238,3.90652361858,143.
6.42,6561.,13.,1.,3441.,0.,0.,10016.,0.827145660894,3.30858264358,169.
6.44,6566.,7.,5.,3437.,0.,0.,10015.,0.827858664812,6.14980722432,91.
6.46,6571.,8.,4.,3431.,0.,0.,10014.,0.828571811132,5.38571677236,104.
6.48,6572.,7.,2.,3431.,0.,0.,10012.,0.828863447303,6.15727132282,91.
6.5,6583.,7.,2.,3418.,0.,0.,10010.,0.830416656272,6.16880944659,91.
6.52,6592.,3.,5.,3410.,0.,0.,10010.,0.831551966906,14.4135674264,39.
6.54,6599.,2.,0.,3407.,0.,0.,10008.,0.832601340203,21.6476348453,26.
6.56,6603.,2.,1.,3400.,0.,0.,10006.,0.833272544835,21.6650861657,26.
6.58,6615.,1.,1.,3390.,0.,0.,10007.,0.834703477188,43.4045808138,13.
6.6,6622.,1.,2.,3382.,0.,0.,10007.,0.83558676129,43.4505115871,13.
6.62,6627.,1.,2.,3375.,0.,0.,10005.,0.836384838462,43.4920116,13.
6.64,6633.,1.,0.,3374.,0.,0.,10008.,0.836891148593,43.5183397268,13.
6.66,6638.,0.,1.,3369.,0.,0.,10008.,0.837522002768,inf,0.
6.68,6643.,1.,1.,3364.,0.,0.,10009.,0.838069117023,43.5795940852,13.
6.7,6650.,2.,1.,3357.,0.,0.,10010.,0.838868413217,21.8105787436,26.
6.72,6658.,1.,2.,3349.,0.,0.,10010.,0.839877578225,43.6736340677,13.
6.74,6665.,1.,2.,3343.,0.,0.,10011.,0.84067661393,43.7151839244,13.
6.76,6667.,3.,0.,3343.,0.,0.,10013.,0.840760912562,14.5731891511,39.
6.78,6673.,2.,1.,3334.,0.,0.,10010.,0.841769762616,21.886013828,26.
6.8,6675.,1.,4.,3329.,0.,0.,10009.,0.84210618036,43.7895213787,13.
6.82,6681.,1.,4.,3321.,0.,0.,10007.,0.843031584443,43.837642391,13.
6.84,6677.,6.,3.,3319.,0.,0.,10005.,0.842695271829,7.30335902252,78.
6.86,6686.,6.,3.,3314.,0.,0.,10009.,0.843493920882,7.31028064764,78.
6.88,6688.,6.,1.,3311.,0.,0.,10006.,0.843999209428,7.31465981504,78.
6.9,6691.,5.,1.,3307.,0.,0.,10004.,0.844546605627,8.78328469852,65.
6.92,6693.,6.,5.,3300.,0.,0.,10004.,0.844799048193,7.321591751,78.
6.94,6702.,6.,6.,3289.,0.,0.,10003.,0.846019607875,7.33216993492,78.
6.96,6694.,17.,7.,3283.,0.,0.,10001.,0.845178721712,2.58525256053,221.
6.98,6697.,19.,7.,3278.,0.,0.,10001.,0.845557499149,2.31415736609,247.
7.,6696.,12.,14.,3279.,0.,0.,10001.,0.845431240003,3.66353537335,156.
7.02,6697.,17.,14.,3274.,0.,0.,10002.,0.845472960307,2.58615258447,221.
7.04,6693.,18.,15.,3277.,0.,0.,10003.,0.844883502761,2.44077456353,234.
7.06,6684.,25.,10.,3286.,0.,0.,10005.,0.843578732501,1.7546437636,325.
7.08,6675.,26.,11.,3291.,0.,0.,10003.,0.842611292534,1.68522258507,338.
7.1,6669.,27.,11.,3293.,0.,0.,10000.,0.842106445292,1.62183463538,351.
7.12,6665.,33.,11.,3295.,0.,0.,10004.,0.841264852264,1.32562946417,429.
7.14,6652.,29.,21.,3301.,0.,0.,10003.,0.8397079128,1.50568315399,377.
7.16,6639.,39.,13.,3309.,0.,0.,10000.,0.838318292142,1.11775772286,507.
7.18,6644.,26.,14.,3320.,0.,0.,10004.,0.838614205318,1.67722841064,338.
7.2,6638.,25.,18.,3327.,0.,0.,10008.,0.837522002768,1.74204576576,325.
7.22,6633.,21.,14.,3344.,0.,0.,10012.,0.83655679336,2.07147396451,273.
7.24,6621.,24.,11.,3351.,0.,0.,10007.,0.835460577847,1.81016458534,312.
7.26,6624.,24.,8.,3351.,0.,0.,10007.,0.835839128177,1.81098477772,312.
7.28,6626.,20.,10.,3355.,0.,0.,10011.,0.835757425941,2.17296930745,260.
7.3,6623.,21.,9.,3359.,0.,0.,10012.,0.835295589088,2.0683509825,273.
7.32,6621.,22.,10.,3361.,0.,0.,10014.,0.834876573049,1.97334462721,286.
7.34,6614.,19.,18.,3363.,0.,0.,10014.,0.833993906381,2.28250963852,247.
7.36,6606.,21.,13.,3371.,0.,0.,10011.,0.833234765435,2.0632479906,273.
7.38,6606.,15.,11.,3378.,0.,0.,10010.,0.833318005671,2.88883575299,195.
7.4,6607.,16.,3.,3382.,0.,0.,10008.,0.833610706883,2.70923479737,208.
7.42,6610.,16.,2.,3377.,0.,0.,10005.,0.834239291118,2.71127769613,208.
7.44,6618.,12.,5.,3369.,0.,0.,10004.,0.835332451956,3.61977395848,156.
7.46,6624.,10.,0.,3368.,0.,0.,10002.,0.836256964174,4.3485362137,130.
7.48,6636.,8.,1.,3364.,0.,0.,10009.,0.837186009418,5.44170906122,104.
7.5,6640.,2.,7.,3358.,0.,0.,10007.,0.837858063269,21.784309645,26.
7.52,6643.,2.,0.,3362.,0.,0.,10007.,0.838236613599,21.7941519536,26.
7.54,6652.,1.,1.,3349.,0.,0.,10003.,0.8397079128,43.6648114656,13.
7.56,6659.,2.,0.,3344.,0.,0.,10005.,0.840423515817,21.8510114113,26.
7.58,6667.,1.,0.,3341.,0.,0.,10009.,0.841096914526,43.7370395553,13.
7.6,6671.,1.,0.,3336.,0.,0.,10008.,0.841685640323,43.7676532968,13.
7.62,6677.,0.,1.,3332.,0.,0.,10010.,0.84227434512,inf,0.
7.64,6682.,0.,1.,3324.,0.,0.,10007.,0.843157767886,inf,0.
7.66,6687.,0.,1.,3320.,0.,0.,10008.,0.843704373683,inf,0.
7.68,6695.,1.,0.,3316.,0.,0.,10012.,0.844376259844,43.9075655119,13.
7.7,6705.,1.,0.,3309.,0.,0.,10015.,0.845384152843,43.9599759478,13.
7.72,6713.,1.,0.,3303.,0.,0.,10017.,0.846223822747,44.0036387828,13.
7.74,6721.,2.,0.,3294.,0.,0.,10017.,0.847232282539,22.028039346,26.
7.76,6725.,3.,0.,3286.,0.,0.,10014.,0.847990477837,14.6985016158,39.
7.78,6735.,3.,1.,3277.,0.,0.,10016.,0.84908185126,14.7174187552,39.
7.8,6740.,4.,2.,3270.,0.,0.,10016.,0.849712201558,11.0462586203,52.
7.82,6740.,4.,2.,3267.,0.,0.,10013.,0.849966784261,11.0495681954,52.
7.84,6742.,7.,2.,3263.,0.,0.,10014.,0.850134096888,6.3152818626,91.
7.86,6754.,8.,4.,3249.,0.,0.,10015.,0.85156220258,5.53515431677,104.
7.88,6759.,9.,6.,3243.,0.,0.,10017.,0.852022466549,4.9227964734,117.
7.9,6765.,10.,4.,3241.,0.,0.,10020.,0.852523488396,4.43312213966,130.
7.92,6762.,14.,9.,3236.,0.,0.,10021.,0.852060393232,3.16479574629,182.
7.94,6762.,4.,11.,3244.,0.,0.,10021.,0.852060393232,11.076785112,52.
7.96,6757.,11.,4.,3251.,0.,0.,10023.,0.851260462136,4.02414036646,143.
7.98,6762.,7.,8.,3245.,0.,0.,10022.,0.851975374234,6.32895992288,91.
8.,6754.,27.,8.,3235.,0.,0.,10024.,0.850797631568,1.63857321635,351.
8.02,6754.,21.,10.,3238.,0.,0.,10023.,0.850882516097,2.10694718272,273.
8.04,6755.,17.,15.,3238.,0.,0.,10025.,0.850838720854,2.60256549908,221.
8.06,6754.,17.,9.,3246.,0.,0.,10026.,0.85062791331,2.60192067601,221.
8.08,6748.,19.,13.,3244.,0.,0.,10024.,0.850041814898,2.32643023025,247.
8.1,6734.,26.,16.,3246.,0.,0.,10022.,0.848447525894,1.69689505179,338.
8.12,6726.,24.,22.,3253.,0.,0.,10025.,0.847185971349,1.83556960459,312.
8.14,6706.,27.,34.,3257.,0.,0.,10024.,0.844751098208,1.62692804099,351.
8.16,6689.,32.,16.,3286.,0.,0.,10023.,0.842693685249,1.36937723853,416.
8.18,6689.,25.,17.,3293.,0.,0.,10024.,0.842609617643,1.7526280047,325.
8.2,6675.,36.,14.,3298.,0.,0.,10023.,0.840929937067,1.21467657576,468.
8.22,6672.,32.,17.,3306.,0.,0.,10027.,0.840216675583,1.36535209782,416.
8.24,6665.,29.,12.,3320.,0.,0.,10026.,0.839418869145,1.50516486881,377.
8.26,6670.,17.,19.,3322.,0.,0.,10028.,0.839881050123,2.56904791802,221.
8.28,6664.,21.,21.,3318.,0.,0.,10024.,0.839460381518,2.07866380185,273.
8.3,6659.,23.,12.,3331.,0.,0.,10025.,0.838746860424,1.89629724965,299.
8.32,6662.,20.,12.,3330.,0.,0.,10024.,0.839208442628,2.18194195083,260.
8.34,6663.,17.,11.,3334.,0.,0.,10025.,0.839250687942,2.56711975135,221.
8.36,6655.,20.,10.,3338.,0.,0.,10023.,0.838410296806,2.1798667717,260.
8.38,6656.,16.,9.,3344.,0.,0.,10025.,0.838368989786,2.7246992168,208.
8.4,6657.,13.,12.,3343.,0.,0.,10025.,0.838494946665,3.35397978666,169.
8.42,6651.,16.,3.,3352.,0.,0.,10022.,0.837989975456,2.72346742023,208.
8.44,6656.,13.,3.,3346.,0.,0.,10018.,0.838954793632,3.35581917453,169.
8.46,6663.,9.,4.,3342.,0.,0.,10018.,0.839837107868,4.85239217879,117.
8.48,6666.,6.,4.,3341.,0.,0.,10017.,0.84029912147,7.28259238608,78.
8.5,6672.,6.,3.,3339.,0.,0.,10020.,0.8408036533,7.28696499527,78.
8.52,6679.,6.,1.,3336.,0.,0.,10022.,0.841517823796,7.2931544729,78.
8.54,6681.,3.,3.,3334.,0.,0.,10021.,0.841853813544,14.5921327681,39.
8.56,6688.,3.,3.,3328.,0.,0.,10022.,0.842651775049,14.6059641008,39.
8.58,6697.,1.,1.,3323.,0.,0.,10022.,0.843785726301,43.8768577676,13.
8.6,6705.,1.,1.,3316.,0.,0.,10023.,0.844709397458,43.9248886678,13.
8.62,6721.,0.,1.,3301.,0.,0.,10023.,0.846725109667,inf,0.
8.64,6726.,0.,0.,3297.,0.,0.,10023.,0.847355019732,inf,0.
8.66,6733.,0.,0.,3289.,0.,0.,10022.,0.84832153131,inf,0.
8.68,6739.,0.,0.,3285.,0.,0.,10024.,0.848908089893,inf,0.
8.7,6754.,0.,0.,3271.,0.,0.,10025.,0.850712763974,inf,0.
8.72,6762.,0.,0.,3264.,0.,0.,10026.,0.851635467841,inf,0.
8.74,6770.,2.,1.,3255.,0.,0.,10028.,0.852472969915,22.1642972178,26.
8.76,6775.,1.,2.,3245.,0.,0.,10023.,0.853528138371,44.3834631953,13.
8.78,6781.,3.,0.,3242.,0.,0.,10026.,0.854028409854,14.8031591041,39.
8.8,6788.,1.,2.,3236.,0.,0.,10027.,0.854824759271,44.4508874821,13.
8.82,6791.,1.,2.,3232.,0.,0.,10026.,0.855287853018,44.474968357,13.
8.84,6792.,5.,2.,3225.,0.,0.,10024.,0.855584470479,8.89807849298,65.
8.86,6796.,5.,2.,3223.,0.,0.,10026.,0.855917574601,8.90154277585,65.
8.88,6803.,4.,0.,3221.,0.,0.,10028.,0.856628303447,11.1361679448,52.
8.9,6809.,6.,0.,3214.,0.,0.,10029.,0.857298328175,7.42991884418,78.
8.92,6808.,5.,3.,3211.,0.,0.,10027.,0.85734339439,8.91637130165,65.
8.94,6811.,9.,4.,3201.,0.,0.,10025.,0.857892306104,4.95671110194,117.
8.96,6809.,13.,5.,3198.,0.,0.,10025.,0.857640392345,3.43056156938,169.
8.98,6805.,12.,6.,3200.,0.,0.,10023.,0.857307598762,3.71499959464,156.
9.,6798.,15.,7.,3199.,0.,0.,10019.,0.856767645312,2.97012783708,195.
9.02,6790.,17.,8.,3203.,0.,0.,10018.,0.855844809008,2.61787823932,221.
9.04,6789.,17.,11.,3204.,0.,0.,10021.,0.855462586461,2.616709088,221.
9.06,6777.,24.,13.,3204.,0.,0.,10018.,0.854206225427,1.85078015509,312.
9.08,6770.,25.,18.,3205.,0.,0.,10018.,0.853323911191,1.77491373528,325.
9.1,6764.,32.,16.,3210.,0.,0.,10022.,0.852227363401,1.38486946553,416.
9.12,6751.,28.,15.,3226.,0.,0.,10020.,0.850759212145,1.57998139398,364.
9.14,6739.,31.,19.,3228.,0.,0.,10017.,0.84950131707,1.42496995121,403.
9.16,6728.,31.,21.,3237.,0.,0.,10017.,0.848114684856,1.4226439875,403.
9.18,6714.,33.,21.,3250.,0.,0.,10018.,0.846265397302,1.3335091109,429.
9.2,6715.,40.,10.,3257.,0.,0.,10022.,0.846053628806,1.09986971745,520.
9.22,6701.,35.,22.,3262.,0.,0.,10020.,0.844458225534,1.25462364937,455.
9.24,6689.,34.,20.,3280.,0.,0.,10023.,0.842693685249,1.28882563626,442.
9.26,6689.,30.,10.,3296.,0.,0.,10025.,0.842525566808,1.46037764913,390.
9.28,6674.,32.,12.,3303.,0.,0.,10021.,0.840971763447,1.3665791156,416.
9.3,6681.,25.,7.,3316.,0.,0.,10029.,0.841182277946,1.74965913813,325.
9.32,6676.,27.,5.,3317.,0.,0.,10025.,0.840888127375,1.61948824532,351.
9.34,6683.,19.,12.,3315.,0.,0.,10029.,0.841434091231,2.30287224968,247.
9.36,6678.,19.,10.,3323.,0.,0.,10030.,0.84072072905,2.30091989003,247.
9.38,6675.,18.,11.,3327.,0.,0.,10031.,0.840259272178,2.42741567518,234.
9.4,6678.,14.,5.,3333.,0.,0.,10030.,0.84072072905,3.12267699361,182.
9.42,6683.,13.,0.,3330.,0.,0.,10026.,0.841685866842,3.36674346737,169.
9.44,6691.,9.,4.,3323.,0.,0.,10027.,0.842609378946,4.86840974502,117.
9.46,6698.,10.,5.,3314.,0.,0.,10027.,0.843490901237,4.38615268643,130.
9.48,6700.,9.,5.,3308.,0.,0.,10022.,0.844163710052,4.87739032474,117.
9.5,6706.,8.,2.,3303.,0.,0.,10019.,0.845172672766,5.49362237298,104.
9.52,6706.,7.,4.,3301.,0.,0.,10018.,0.845257038175,6.27905228359,91.
9.54,6712.,1.,5.,3299.,0.,0.,10017.,0.846097765273,43.9970837942,13.
9.56,6714.,4.,0.,3301.,0.,0.,10019.,0.846180931248,11.0003521062,52.
9.58,6731.,0.,3.,3290.,0.,0.,10024.,0.847900334333,inf,0.
9.6,6736.,2.,1.,3283.,0.,0.,10022.,0.848699515061,22.0661873916,26.
9.62,6743.,1.,1.,3275.,0.,0.,10020.,0.849751054287,44.1870548229,13.
9.64,6751.,1.,1.,3265.,0.,0.,10018.,0.850929058264,44.2483110297,13.
9.66,6761.,1.,0.,3260.,0.,0.,10022.,0.851849379651,44.2961677418,13.
9.68,6764.,0.,0.,3255.,0.,0.,10019.,0.852482546762,inf,0.
9.7,6772.,0.,0.,3247.,0.,0.,10019.,0.853490805244,inf,0.
9.72,6779.,0.,0.,3236.,0.,0.,10015.,0.854714268773,inf,0.
9.74,6789.,1.,0.,3227.,0.,0.,10017.,0.855804190768,44.50181792,13.
9.76,6792.,2.,0.,3222.,0.,0.,10016.,0.856267844656,22.2629639611,26.
9.78,6800.,0.,0.,3214.,0.,0.,10014.,0.857447620712,inf,0.
9.8,6803.,1.,0.,3208.,0.,0.,10012.,0.857997265977,44.6158578308,13.
9.82,6811.,1.,1.,3201.,0.,0.,10014.,0.858834668334,44.6594027534,13.
9.84,6818.,4.,1.,3196.,0.,0.,10019.,0.859288291517,11.1707477897,52.
9.86,6816.,7.,4.,3191.,0.,0.,10018.,0.859121976171,6.38204896584,91.
9.88,6820.,4.,3.,3188.,0.,0.,10015.,0.859883657329,11.1784875453,52.
9.9,6826.,7.,2.,3181.,0.,0.,10016.,0.860554226682,6.39268854107,91.
9.92,6829.,9.,4.,3177.,0.,0.,10019.,0.860674646931,4.97278684893,117.
9.94,6833.,11.,3.,3174.,0.,0.,10021.,0.861006901354,4.07021444276,143.
9.96,6836.,12.,2.,3172.,0.,0.,10022.,0.86129897342,3.73229555149,156.
9.98,6838.,9.,5.,3174.,0.,0.,10026.,0.861207235891,4.9758640296,117.
10.,6842.,9.,3.,3174.,0.,0.,10028.,0.861539152165,4.97778176807,117.
