t,s,e,i,r,c,o,n,reff,coal,reportr
5.,5599.,20.,10.,4371.,0.,0.,10000.,0.837098232683,2.17645540498,260.
5.02,5592.,26.,14.,4369.,0.,0.,10001.,0.835968076199,1.6719361524,338.
5.04,5574.,32.,15.,4380.,0.,0.,10001.,0.833277191833,1.35407543673,416.
5.06,5573.,35.,16.,4383.,0.,0.,10007.,0.832628171307,1.2370475688,455.
5.08,5574.,29.,19.,4386.,0.,0.,10008.,0.832694364061,1.49310713556,377.
5.1,5563.,29.,19.,4397.,0.,0.,10008.,0.831051084907,1.49016056604,377.
5.12,5560.,29.,20.,4401.,0.,0.,10010.,0.830436963236,1.48905938235,377.
5.14,5555.,27.,14.,4411.,0.,0.,10007.,0.829938900343,1.59840084511,351.
5.16,5549.,29.,13.,4416.,0.,0.,10007.,0.829042476688,1.48655892372,377.
5.18,5544.,27.,16.,4418.,0.,0.,10005.,0.828461033279,1.59555458261,351.
5.2,5536.,30.,15.,4423.,0.,0.,10004.,0.827348256292,1.43407031091,390.
5.22,5529.,32.,16.,4427.,0.,0.,10004.,0.826302115072,1.34274093699,416.
5.24,5519.,35.,9.,4437.,0.,0.,10000.,0.825137550666,1.2259186467,455.
5.26,5523.,25.,21.,4431.,0.,0.,10000.,0.825735584766,1.71753001631,325.
5.28,5509.,29.,16.,4447.,0.,0.,10001.,0.823560109403,1.47672847203,377.
5.3,5506.,27.,12.,4454.,0.,0.,9999.,0.823276267465,1.58556910771,351.
5.32,5504.,25.,12.,4455.,0.,0.,9996.,0.823224212472,1.71230636194,325.
5.34,5506.,22.,9.,4458.,0.,0.,9995.,0.823605742709,1.94670448277,286.
5.36,5505.,18.,11.,4457.,0.,0.,9991.,0.823785838567,2.37982575586,234.
5.38,5507.,19.,6.,4455.,0.,0.,9987.,0.824415188108,2.25629419903,247.
5.4,5510.,17.,3.,4460.,0.,0.,9990.,0.824616590529,2.52235662985,221.
5.42,5518.,14.,4.,4452.,0.,0.,9988.,0.825979217201,3.06792280675,182.
5.44,5533.,11.,5.,4444.,0.,0.,9993.,0.827810137115,3.91328428454,143.
5.46,5539.,9.,5.,4435.,0.,0.,9988.,0.829122668372,4.79048652837,117.
5.48,5542.,9.,9.,4429.,0.,0.,9989.,0.829488684298,4.79260128706,117.
5.5,5560.,8.,5.,4416.,0.,0.,9989.,0.832182801281,5.40918820833,104.
5.52,5567.,4.,5.,4418.,0.,0.,9994.,0.832813648065,10.8265774248,52.
5.54,5583.,2.,5.,4406.,0.,0.,9996.,0.835040112324,21.7110429204,26.
5.56,5592.,3.,1.,4398.,0.,0.,9994.,0.836553605169,14.5002624896,39.
5.58,5592.,2.,3.,4392.,0.,0.,9989.,0.836972342583,21.7612809072,26.
5.6,5604.,0.,3.,4384.,0.,0.,9991.,0.838600515773,inf,0.
5.62,5610.,1.,1.,4375.,0.,0.,9987.,0.839834611455,43.6713997957,13.
5.64,5618.,0.,0.,4372.,0.,0.,9990.,0.840779674336,inf,0.
5.66,5622.,0.,0.,4360.,0.,0.,9982.,0.842052623485,inf,0.
5.68,5635.,0.,0.,4350.,0.,0.,9985.,0.843746158829,inf,0.
5.7,5638.,0.,0.,4346.,0.,0.,9984.,0.844279913027,inf,0.
5.72,5650.,0.,0.,4338.,0.,0.,9988.,0.845738053133,inf,0.
5.74,5656.,0.,0.,4332.,0.,0.,9988.,0.846636182039,inf,0.
5.76,5666.,0.,0.,4324.,0.,0.,9990.,0.847963267139,inf,0.
5.78,5675.,1.,0.,4312.,0.,0.,9988.,0.849480256908,44.1729733592,13.
5.8,5689.,3.,0.,4296.,0.,0.,9988.,0.851575891022,14.7606487777,39.
5.82,5693.,2.,1.,4290.,0.,0.,9986.,0.852345317498,22.1609782549,26.
5.84,5703.,1.,1.,4279.,0.,0.,9984.,0.854013540971,44.4087041305,13.
5.86,5708.,0.,4.,4268.,0.,0.,9980.,0.855104871675,inf,0.
5.88,5711.,5.,1.,4262.,0.,0.,9979.,0.855640031573,8.89865632836,65.
5.9,5711.,7.,4.,4256.,0.,0.,9978.,0.855725784232,6.35682011144,91.
5.92,5719.,9.,5.,4248.,0.,0.,9981.,0.856666922862,4.94963110987,117.
5.94,5727.,5.,7.,4243.,0.,0.,9982.,0.857779326699,8.92090499767,65.
5.96,5728.,15.,8.,4230.,0.,0.,9981.,0.858015061052,2.97445221165,195.
5.98,5729.,10.,12.,4231.,0.,0.,9982.,0.85807888295,4.46201019134,130.
6.,5728.,18.,10.,4226.,0.,0.,9982.,0.857929104824,2.47846185838,234.
6.02,5729.,19.,9.,4226.,0.,0.,9983.,0.85799292894,2.34819117394,247.
6.04,5721.,19.,16.,4224.,0.,0.,9980.,0.857052377514,2.3456170332,247.
6.06,5721.,29.,13.,4219.,0.,0.,9982.,0.856880657944,1.53647566252,377.
6.08,5709.,32.,18.,4223.,0.,0.,9982.,0.855083320433,1.3895103957,416.
6.1,5698.,35.,13.,4238.,0.,0.,9984.,0.85326480036,1.26770770339,455.
6.12,5686.,33.,20.,4244.,0.,0.,9983.,0.851553114672,1.3418412716,429.
6.14,5677.,37.,20.,4248.,0.,0.,9982.,0.850290420406,1.195002753,481.
6.16,5662.,42.,14.,4266.,0.,0.,9984.,0.84787386796,1.04974859843,546.
6.18,5656.,41.,13.,4276.,0.,0.,9986.,0.846805746666,1.07399753236,533.
6.2,5650.,36.,13.,4286.,0.,0.,9985.,0.845992155702,1.22198866935,468.
6.22,5643.,22.,26.,4293.,0.,0.,9984.,0.845028653638,1.99734045405,286.
6.24,5638.,28.,14.,4305.,0.,0.,9985.,0.844195358204,1.56779137952,364.
6.26,5637.,18.,18.,4308.,0.,0.,9981.,0.844383886025,2.43933122629,234.
6.28,5628.,30.,10.,4313.,0.,0.,9981.,0.843035747835,1.46126196291,390.
6.3,5630.,33.,5.,4313.,0.,0.,9981.,0.843335334099,1.32889204161,429.
6.32,5624.,29.,14.,4310.,0.,0.,9977.,0.842774326765,1.51118155144,377.
6.34,5618.,26.,9.,4321.,0.,0.,9974.,0.842128428576,1.68425685715,338.
6.36,5617.,28.,9.,4320.,0.,0.,9974.,0.841978530316,1.56367441344,364.
6.38,5623.,15.,10.,4325.,0.,0.,9973.,0.842962435865,2.92226977767,195.
6.4,5621.,11.,12.,4325.,0.,0.,9969.,0.843000722477,3.98509432444,143.
6.42,5623.,15.,10.,4319.,0.,0.,9967.,0.843469887918,2.92402894478,195.
6.44,5628.,12.,10.,4317.,0.,0.,9967.,0.844219905603,3.65828625761,156.
6.46,5633.,11.,6.,4318.,0.,0.,9968.,0.844885155036,3.99400255108,143.
6.48,5635.,9.,8.,4317.,0.,0.,9969.,0.845100350678,4.88280202614,117.
6.5,5647.,4.,5.,4312.,0.,0.,9968.,0.846984993874,11.0108049204,52.
6.52,5653.,6.,2.,4310.,0.,0.,9971.,0.847629819521,7.34612510252,78.
6.54,5659.,1.,2.,4308.,0.,0.,9970.,0.84861458796,44.1279585739,13.
6.56,5667.,2.,0.,4295.,0.,0.,9964.,0.850325985947,22.1084756346,26.
6.58,5671.,1.,2.,4288.,0.,0.,9962.,0.851097015156,44.2570447881,13.
6.6,5680.,0.,1.,4283.,0.,0.,9964.,0.852276619054,inf,0.
6.62,5691.,0.,0.,4275.,0.,0.,9966.,0.853755786677,inf,0.
6.64,5700.,0.,0.,4270.,0.,0.,9970.,0.854762882377,inf,0.
6.66,5710.,0.,0.,4258.,0.,0.,9968.,0.856434268641,inf,0.
6.68,5713.,1.,0.,4256.,0.,0.,9970.,0.856712341582,44.5490417623,13.
6.7,5714.,2.,1.,4251.,0.,0.,9968.,0.857034222595,22.2828897875,26.
6.72,5721.,1.,0.,4246.,0.,0.,9968.,0.858084142014,44.6203753847,13.
6.74,5730.,1.,0.,4238.,0.,0.,9969.,0.859347827752,44.6860870431,13.
6.76,5735.,1.,0.,4231.,0.,0.,9967.,0.86027028405,44.7340547706,13.
6.78,5751.,1.,0.,4217.,0.,0.,9969.,0.862497270053,44.8498580427,13.
6.8,5758.,2.,0.,4207.,0.,0.,9967.,0.863720365398,22.4567295003,26.
6.82,5761.,2.,1.,4203.,0.,0.,9967.,0.864170376009,22.4684297762,26.
6.84,5766.,3.,1.,4194.,0.,0.,9964.,0.8651808073,14.9964673265,39.
6.86,5777.,2.,0.,4186.,0.,0.,9965.,0.866744355415,22.5353532408,26.
6.88,5786.,2.,1.,4176.,0.,0.,9965.,0.868094658202,22.5704611133,26.
6.9,5793.,6.,0.,4168.,0.,0.,9967.,0.868970489189,7.53107757297,78.
6.92,5801.,4.,3.,4162.,0.,0.,9970.,0.869908680819,11.3088128506,52.
6.94,5808.,7.,2.,4154.,0.,0.,9971.,0.87087104047,6.46932772921,91.
6.96,5812.,8.,6.,4145.,0.,0.,9971.,0.871470813914,5.66456029044,104.
6.98,5813.,14.,3.,4140.,0.,0.,9970.,0.871708181624,3.23777324603,182.
7.,5815.,12.,5.,4138.,0.,0.,9970.,0.872008098425,3.77870175984,156.
7.02,5814.,17.,4.,4133.,0.,0.,9968.,0.872033071433,2.66739527732,221.
7.04,5813.,10.,12.,4134.,0.,0.,9969.,0.871795623512,4.53333724226,130.
7.06,5810.,15.,8.,4132.,0.,0.,9965.,0.871695465633,3.02187761419,195.
7.08,5807.,20.,9.,4125.,0.,0.,9961.,0.871595227314,2.26614759102,260.
7.1,5807.,20.,11.,4121.,0.,0.,9959.,0.87177026401,2.26660268643,260.
7.12,5799.,27.,11.,4120.,0.,0.,9957.,0.870744137517,1.67698870929,351.
7.14,5785.,31.,17.,4123.,0.,0.,9956.,0.868729226972,1.45722321944,403.
7.16,5780.,28.,26.,4123.,0.,0.,9957.,0.867891207941,1.6117979576,364.
7.18,5761.,38.,15.,4144.,0.,0.,9958.,0.864951409689,1.18361771852,494.
7.2,5760.,34.,17.,4147.,0.,0.,9958.,0.864801270579,1.32263723736,442.
7.22,5753.,37.,15.,4153.,0.,0.,9958.,0.863750296813,1.21391933606,481.
7.24,5749.,37.,7.,4163.,0.,0.,9956.,0.863323133252,1.21331899808,481.
7.26,5752.,27.,14.,4160.,0.,0.,9953.,0.864033996826,1.66406547537,351.
7.28,5747.,29.,15.,4160.,0.,0.,9951.,0.863456430926,1.54826670373,377.
7.3,5742.,27.,12.,4169.,0.,0.,9950.,0.862791911345,1.66167331074,351.
7.32,5740.,25.,12.,4171.,0.,0.,9948.,0.862664791655,1.79434276664,325.
7.34,5741.,26.,9.,4173.,0.,0.,9949.,0.862728357889,1.72545671578,338.
7.36,5744.,23.,8.,4178.,0.,0.,9953.,0.862832280558,1.950751243,299.
7.38,5743.,15.,4.,4190.,0.,0.,9952.,0.862768750315,2.99093166776,195.
7.4,5746.,12.,6.,4191.,0.,0.,9955.,0.862959302752,3.73949031193,156.
7.42,5751.,8.,4.,4188.,0.,0.,9951.,0.864057409824,5.61637316385,104.
7.44,5751.,8.,3.,4188.,0.,0.,9950.,0.864144249765,5.61693762347,104.
7.46,5759.,6.,3.,4186.,0.,0.,9954.,0.864998590232,7.49665444868,78.
7.48,5767.,5.,2.,4180.,0.,0.,9954.,0.866200185774,9.00848193205,65.
7.5,5771.,3.,1.,4175.,0.,0.,9950.,0.867149446251,15.0305904017,39.
7.52,5778.,2.,2.,4164.,0.,0.,9946.,0.868550431024,22.5823112066,26.
7.54,5788.,2.,2.,4155.,0.,0.,9947.,0.869966164621,22.6191202802,26.
7.56,5799.,0.,1.,4145.,0.,0.,9945.,0.871794809177,inf,0.
7.58,5805.,1.,1.,4138.,0.,0.,9945.,0.872696821395,45.3802347125,13.
7.6,5815.,0.,3.,4130.,0.,0.,9948.,0.873936544159,inf,0.
7.62,5818.,2.,0.,4125.,0.,0.,9945.,0.874651181202,22.7409307112,26.
7.64,5826.,0.,0.,4120.,0.,0.,9946.,0.875765803244,inf,0.
7.66,5836.,0.,0.,4111.,0.,0.,9947.,0.87718081146,inf,0.
7.68,5846.,1.,0.,4101.,0.,0.,9948.,0.878595535194,45.6869678301,13.
7.7,5854.,1.,0.,4093.,0.,0.,9948.,0.879797855461,45.749488484,13.
7.72,5861.,0.,1.,4086.,0.,0.,9948.,0.880849885695,inf,0.
7.74,5866.,1.,0.,4079.,0.,0.,9946.,0.881778613428,45.8524878983,13.
7.76,5875.,0.,0.,4071.,0.,0.,9946.,0.883131495719,inf,0.
7.78,5884.,0.,0.,4059.,0.,0.,9943.,0.884751244463,inf,0.
7.8,5891.,2.,0.,4048.,0.,0.,9941.,0.88598201594,23.0355324144,26.
7.82,5901.,2.,1.,4039.,0.,0.,9943.,0.887307459819,23.0699939553,26.
7.84,5909.,4.,1.,4028.,0.,0.,9942.,0.888599754073,11.551796803,52.
7.86,5916.,6.,3.,4016.,0.,0.,9941.,0.88974191246,7.71109657465,78.
7.88,5920.,7.,3.,4008.,0.,0.,9938.,0.890612265322,6.61597682811,91.
7.9,5920.,5.,7.,4007.,0.,0.,9939.,0.890522657488,9.26143563787,65.
7.92,5923.,11.,2.,4001.,0.,0.,9937.,0.891153260393,4.21272450368,143.
7.94,5928.,13.,2.,3992.,0.,0.,9935.,0.892085090568,3.56834036227,169.
7.96,5941.,11.,3.,3984.,0.,0.,9939.,0.893681606104,4.2246766834,143.
7.98,5945.,13.,4.,3979.,0.,0.,9941.,0.894103392423,3.57641356969,169.
8.,5940.,16.,5.,3981.,0.,0.,9942.,0.893261556811,2.90310005964,208.
8.02,5941.,17.,11.,3973.,0.,0.,9942.,0.893411937544,2.73278945602,221.
8.04,5938.,23.,9.,3970.,0.,0.,9940.,0.893140465524,2.01927409597,299.
8.06,5938.,20.,10.,3973.,0.,0.,9941.,0.893050621397,2.32193161563,260.
8.08,5931.,18.,18.,3973.,0.,0.,9940.,0.892087588586,2.57714192258,234.
8.1,5919.,34.,17.,3971.,0.,0.,9941.,0.890193100042,1.36147180006,442.
8.12,5908.,29.,20.,3981.,0.,0.,9938.,0.88880697019,1.5937228431,377.
8.14,5903.,33.,18.,3984.,0.,0.,9938.,0.888054763885,1.39935902188,429.
8.16,5892.,33.,11.,4000.,0.,0.,9936.,0.886578331895,1.39703252299,429.
8.18,5883.,33.,9.,4007.,0.,0.,9932.,0.885580601937,1.39546034245,429.
8.2,5886.,34.,8.,4003.,0.,0.,9931.,0.886121417198,1.35524452042,442.
8.22,5881.,25.,6.,4017.,0.,0.,9929.,0.88554702064,1.84193780293,325.
8.24,5885.,22.,9.,4015.,0.,0.,9931.,0.885970869897,2.09411296521,286.
8.26,5891.,16.,14.,4013.,0.,0.,9934.,0.886606323783,2.88147055229,208.
8.28,5888.,17.,14.,4017.,0.,0.,9936.,0.885976445723,2.71004559868,221.
8.3,5885.,18.,18.,4020.,0.,0.,9941.,0.885079640775,2.55689674002,234.
8.32,5888.,19.,10.,4027.,0.,0.,9944.,0.885263673039,2.42282689463,247.
8.34,5887.,22.,6.,4030.,0.,0.,9945.,0.885024321714,2.09187566951,286.
8.36,5887.,19.,6.,4033.,0.,0.,9945.,0.885024321714,2.42217182785,247.
8.38,5891.,13.,5.,4038.,0.,0.,9947.,0.885447594296,3.54179037718,169.
8.4,5891.,10.,1.,4044.,0.,0.,9946.,0.885536619793,4.60479042292,130.
8.42,5898.,9.,2.,4040.,0.,0.,9949.,0.886321521482,5.12096879078,117.
8.44,5905.,5.,4.,4034.,0.,0.,9948.,0.887462647164,9.22961153051,65.
8.46,5911.,4.,4.,4028.,0.,0.,9947.,0.888453697145,11.5498980629,52.
8.48,5916.,4.,3.,4023.,0.,0.,9946.,0.889294626158,11.56083014,52.
8.5,5918.,6.,2.,4018.,0.,0.,9944.,0.889774187678,7.71137629321,78.
8.52,5921.,3.,8.,4014.,0.,0.,9946.,0.89004622743,15.4274679421,39.
8.54,5927.,3.,6.,4012.,0.,0.,9948.,0.890769027899,15.4399964836,39.
8.56,5936.,2.,3.,4004.,0.,0.,9945.,0.892390754832,23.2021596256,26.
8.58,5939.,3.,2.,4000.,0.,0.,9944.,0.892931547925,15.477480164,39.
8.6,5942.,1.,0.,4003.,0.,0.,9946.,0.893202952777,46.4465535444,13.
8.62,5948.,1.,0.,3995.,0.,0.,9944.,0.894284702316,46.5028045204,13.
8.64,5955.,1.,0.,3989.,0.,0.,9945.,0.895247126857,46.5528505966,13.
8.66,5958.,3.,0.,3983.,0.,0.,9944.,0.895788207196,15.5269955914,39.
8.68,5970.,1.,2.,3971.,0.,0.,9944.,0.897592413051,46.6748054787,13.
8.7,5973.,1.,1.,3968.,0.,0.,9943.,0.898133783681,46.7029567514,13.
8.72,5986.,0.,2.,3959.,0.,0.,9947.,0.89972658283,inf,0.
8.74,5989.,1.,0.,3958.,0.,0.,9948.,0.900087009969,46.8045245184,13.
8.76,5999.,1.,0.,3950.,0.,0.,9950.,0.9014086862,46.8732516824,13.
8.78,6007.,3.,0.,3938.,0.,0.,9948.,0.90279223057,15.6483986632,39.
8.8,6016.,3.,0.,3927.,0.,0.,9946.,0.904326651617,15.6749952947,39.
8.82,6024.,4.,0.,3918.,0.,0.,9946.,0.905529213653,11.7718797775,52.
8.84,6037.,3.,1.,3907.,0.,0.,9948.,0.907300931572,15.7265494806,39.
8.86,6052.,4.,2.,3894.,0.,0.,9952.,0.909189705191,11.8194661675,52.
8.88,6054.,7.,5.,3887.,0.,0.,9953.,0.90939878595,6.75553383849,91.
8.9,6053.,10.,1.,3889.,0.,0.,9953.,0.909248571416,4.72809257137,130.
8.92,6052.,10.,4.,3887.,0.,0.,9953.,0.909098356883,4.72731145579,130.
8.94,6057.,13.,3.,3880.,0.,0.,9953.,0.909849429551,3.6393977182,169.
8.96,6053.,10.,6.,3882.,0.,0.,9951.,0.909431316582,4.72904284623,130.
8.98,6055.,12.,7.,3878.,0.,0.,9952.,0.909640394073,3.94177504098,156.
9.,6061.,15.,3.,3872.,0.,0.,9951.,0.910633274377,3.15686201784,195.
9.02,6066.,15.,7.,3863.,0.,0.,9951.,0.911384497999,3.15946625973,195.
9.04,6069.,21.,6.,3858.,0.,0.,9954.,0.911560417455,2.25719722417,273.
9.06,6072.,16.,10.,3856.,0.,0.,9954.,0.912011015783,2.96403580129,208.
9.08,6073.,22.,10.,3852.,0.,0.,9957.,0.911886385091,2.15536781931,286.
9.1,6065.,30.,13.,3849.,0.,0.,9957.,0.910685151585,1.57852092941,390.
9.12,6057.,31.,19.,3847.,0.,0.,9954.,0.909758024143,1.52604571792,403.
9.14,6050.,25.,23.,3854.,0.,0.,9952.,0.908889245936,1.89048963155,325.
9.16,6034.,29.,19.,3870.,0.,0.,9952.,0.906485571897,1.62542240478,377.
9.18,6029.,31.,12.,3882.,0.,0.,9954.,0.905552439749,1.51899118926,403.
9.2,6011.,34.,15.,3890.,0.,0.,9950.,0.903211804092,1.3813827592,442.
9.22,6009.,34.,11.,3895.,0.,0.,9949.,0.903002038417,1.38106194111,442.
9.24,6006.,31.,13.,3894.,0.,0.,9944.,0.903005030617,1.51471811587,403.
9.26,6004.,24.,12.,3906.,0.,0.,9946.,0.902522808561,1.95546608522,312.
9.28,5995.,26.,10.,3915.,0.,0.,9946.,0.90116992627,1.80233985254,338.
9.3,5995.,26.,14.,3915.,0.,0.,9950.,0.900807646903,1.80161529381,338.
9.32,5983.,28.,19.,3918.,0.,0.,9948.,0.899185269769,1.669915501,364.
9.34,5980.,25.,18.,3925.,0.,0.,9948.,0.898734399668,1.86936755131,325.
9.36,5978.,22.,14.,3934.,0.,0.,9948.,0.898433819602,2.12357084633,286.
9.38,5974.,18.,10.,3945.,0.,0.,9947.,0.897922921121,2.5939995499,234.
9.4,5974.,16.,8.,3948.,0.,0.,9946.,0.898013200924,2.918542903,208.
9.42,5973.,12.,3.,3957.,0.,0.,9945.,0.897953163513,3.89113037522,156.
9.44,5978.,6.,6.,3956.,0.,0.,9946.,0.898614481942,7.78799217683,78.
9.46,5982.,9.,4.,3950.,0.,0.,9945.,0.899306181841,5.19599127286,117.
9.48,5983.,8.,4.,3946.,0.,0.,9941.,0.899818435133,5.84881982836,104.
9.5,5989.,8.,0.,3947.,0.,0.,9944.,0.900449072322,5.85291897009,104.
9.52,5991.,6.,2.,3943.,0.,0.,9942.,0.900930974218,7.80806844322,78.
9.54,6002.,4.,1.,3935.,0.,0.,9942.,0.902585162286,11.7336071097,52.
9.56,6011.,0.,1.,3928.,0.,0.,9940.,0.904120467879,inf,0.
9.58,6018.,2.,0.,3920.,0.,0.,9940.,0.905173344817,23.5345069652,26.
9.6,6026.,1.,1.,3910.,0.,0.,9938.,0.906559038992,47.1410700276,13.
9.62,6037.,1.,0.,3897.,0.,0.,9935.,0.908488139635,47.241383261,13.
9.64,6054.,1.,0.,3883.,0.,0.,9938.,0.910771394301,47.3601125036,13.
9.66,6067.,2.,0.,3874.,0.,0.,9943.,0.912268150944,23.7189719246,26.
9.68,6080.,1.,0.,3862.,0.,0.,9943.,0.914222903864,47.5395910009,13.
9.7,6085.,1.,0.,3854.,0.,0.,9940.,0.915250881225,47.5930458237,13.
9.72,6092.,2.,1.,3844.,0.,0.,9939.,0.916395950915,23.8262947238,26.
9.74,6100.,2.,2.,3831.,0.,0.,9935.,0.917968801023,23.8671888266,26.
9.76,6109.,3.,1.,3823.,0.,0.,9936.,0.919230656746,15.9333313836,39.
9.78,6115.,3.,0.,3816.,0.,0.,9934.,0.920318735348,15.9521914127,39.
9.8,6124.,3.,1.,3805.,0.,0.,9933.,0.921766040895,15.9772780422,39.
9.82,6134.,4.,0.,3794.,0.,0.,9932.,0.92336417003,12.0037342104,52.
9.84,6139.,3.,2.,3788.,0.,0.,9932.,0.924116830748,16.0180250663,39.
9.86,6144.,6.,2.,3782.,0.,0.,9934.,0.92468328863,8.0139218348,78.
9.88,6152.,6.,5.,3769.,0.,0.,9932.,0.926073748618,8.02597248802,78.
9.9,6147.,12.,8.,3764.,0.,0.,9931.,0.925414262915,4.01012847263,156.
9.92,6146.,18.,4.,3763.,0.,0.,9931.,0.925263715614,2.67298406733,234.
9.94,6144.,16.,8.,3762.,0.,0.,9930.,0.925055769311,3.00643125026,208.
9.96,6144.,14.,8.,3765.,0.,0.,9931.,0.92496262101,3.43557544947,182.
9.98,6145.,9.,10.,3768.,0.,0.,9932.,0.925020023611,5.34456013642,117.
10.,6145.,13.,9.,3762.,0.,0.,9929.,0.925299514,3.701198056,169.
