t,cases
5.01,2.6
5.02,2.6
5.03,2.795
5.04,2.795
5.05,3.38
5.06,3.38
5.07,3.185
5.08,3.185
5.09,2.535
5.1,2.535
5.11,3.51
5.12,3.51
5.13,4.485
5.14,4.485
5.15,3.965
5.16,3.965
5.17,4.095
5.18,4.095
5.19,4.16
5.2,4.16
5.21,4.29
5.22,4.29
5.23,4.875
5.24,4.875
5.25,5.005
5.26,5.005
5.27,4.03
5.28,4.03
5.29,3.445
5.3,3.445
5.31,3.77
5.32,3.77
5.33,3.445
5.34,3.445
5.35,3.12
5.36,3.12
5.37,2.47
5.38,2.47
5.39,1.69
5.4,1.69
5.41,1.365
5.42,1.365
5.43,1.235
5.44,1.235
5.45,1.3
5.46,1.3
5.47,1.17
5.48,1.17
5.49,1.04
5.5,1.04
5.51,0.975
5.52,0.975
5.53,0.585
5.54,0.585
5.55,0.455
5.56,0.455
5.57,0.325
5.58,0.325
5.59,0.26
5.6,0.26
5.61,0.26
5.62,0.26
5.63,0.195
5.64,0.195
5.65,0.13
5.66,0.13
5.67,0.065
5.68,0.065
5.69,0.
5.7,0.
5.71,0.
5.72,0.
5.73,0.
5.74,0.
5.75,0.
5.76,0.
5.77,0.13
5.78,0.13
5.79,0.325
5.8,0.325
5.81,0.39
5.82,0.39
5.83,0.455
5.84,0.455
5.85,0.65
5.86,0.65
5.87,0.975
5.88,0.975
5.89,1.17
5.9,1.17
5.91,1.56
5.92,1.56
5.93,1.56
5.94,1.56
5.95,1.56
5.96,1.56
5.97,2.21
5.98,2.21
5.99,2.275
6.,2.275
6.01,2.275
6.02,2.275
6.03,2.405
6.04,2.405
6.05,2.47
6.06,2.47
6.07,2.405
6.08,2.405
6.09,2.73
6.1,2.73
6.11,3.12
6.12,3.12
6.13,2.99
6.14,2.99
6.15,3.12
6.16,3.12
6.17,3.055
6.18,3.055
6.19,3.38
6.2,3.38
6.21,4.225
6.22,4.225
6.23,4.42
6.24,4.42
6.25,4.42
6.26,4.42
6.27,4.42
6.28,4.42
6.29,3.705
6.3,3.705
6.31,2.99
6.32,2.99
6.33,2.86
6.34,2.86
6.35,2.47
6.36,2.47
6.37,2.34
6.38,2.34
6.39,2.015
6.4,2.015
6.41,1.95
6.42,1.95
6.43,2.34
6.44,2.34
6.45,2.21
6.46,2.21
6.47,1.82
6.48,1.82
6.49,1.17
6.5,1.17
6.51,0.78
6.52,0.78
6.53,0.455
6.54,0.455
6.55,0.26
6.56,0.26
6.57,0.13
6.58,0.13
6.59,0.13
6.6,0.13
6.61,0.13
6.62,0.13
6.63,0.195
6.64,0.195
6.65,0.195
6.66,0.195
6.67,0.
6.68,0.
6.69,0.065
6.7,0.065
6.71,0.195
6.72,0.195
6.73,0.195
6.74,0.195
6.75,0.13
6.76,0.13
6.77,0.26
6.78,0.26
6.79,0.39
6.8,0.39
6.81,0.455
6.82,0.455
6.83,0.39
6.84,0.39
6.85,0.52
6.86,0.52
6.87,0.91
6.88,0.91
6.89,1.105
6.9,1.105
6.91,1.43
6.92,1.43
6.93,1.495
6.94,1.495
6.95,1.495
6.96,1.495
6.97,1.885
6.98,1.885
6.99,2.21
7.,2.21
7.01,2.21
7.02,2.21
7.03,2.47
7.04,2.47
7.05,2.86
7.06,2.86
7.07,3.315
7.08,3.315
7.09,3.835
7.1,3.835
7.11,3.77
7.12,3.77
7.13,3.575
7.14,3.575
7.15,3.38
7.16,3.38
7.17,3.055
7.18,3.055
7.19,3.38
7.2,3.38
7.21,3.575
7.22,3.575
7.23,2.99
7.24,2.99
7.25,2.73
7.26,2.73
7.27,2.99
7.28,2.99
7.29,3.575
7.3,3.575
7.31,3.575
7.32,3.575
7.33,3.055
7.34,3.055
7.35,2.145
7.36,2.145
7.37,1.69
7.38,1.69
7.39,1.885
7.4,1.885
7.41,1.69
7.42,1.69
7.43,1.365
7.44,1.365
7.45,1.235
7.46,1.235
7.47,1.17
7.48,1.17
7.49,0.78
7.5,0.78
7.51,0.39
7.52,0.39
7.53,0.39
7.54,0.39
7.55,0.26
7.56,0.26
7.57,0.065
7.58,0.065
7.59,0.065
7.6,0.065
7.61,0.
7.62,0.
7.63,0.065
7.64,0.065
7.65,0.065
7.66,0.065
7.67,0.
7.68,0.
7.69,0.
7.7,0.
7.71,0.
7.72,0.
7.73,0.26
7.74,0.26
7.75,0.325
7.76,0.325
7.77,0.195
7.78,0.195
7.79,0.195
7.8,0.195
7.81,0.325
7.82,0.325
7.83,0.65
7.84,0.65
7.85,1.17
7.86,1.17
7.87,1.365
7.88,1.365
7.89,1.235
7.9,1.235
7.91,1.56
7.92,1.56
7.93,2.34
7.94,2.34
7.95,2.795
7.96,2.795
7.97,2.535
7.98,2.535
7.99,1.885
8.,1.885
8.01,1.43
8.02,1.43
8.03,1.56
8.04,1.56
8.05,1.56
8.06,1.56
8.07,1.755
8.08,1.755
8.09,2.47
8.1,2.47
8.11,3.055
8.12,3.055
8.13,3.705
8.14,3.705
8.15,4.225
8.16,4.225
8.17,4.29
8.18,4.29
8.19,4.81
8.2,4.81
8.21,4.485
8.22,4.485
8.23,4.03
8.24,4.03
8.25,4.225
8.26,4.225
8.27,3.77
8.28,3.77
8.29,2.99
8.3,2.99
8.31,2.34
8.32,2.34
8.33,2.34
8.34,2.34
8.35,1.95
8.36,1.95
8.37,1.885
8.38,1.885
8.39,2.08
8.4,2.08
8.41,1.56
8.42,1.56
8.43,1.3
8.44,1.3
8.45,1.17
8.46,1.17
8.47,1.235
8.48,1.235
8.49,1.17
8.5,1.17
8.51,0.585
8.52,0.585
8.53,0.195
8.54,0.195
8.55,0.0650000000001
8.56,0.0649999999999
8.57,0.195
8.58,0.195
8.59,0.325
8.6,0.325
8.61,0.13
8.62,0.13
8.63,0.
8.64,0.
8.65,0.
8.66,0.
8.67,0.0650000000001
8.68,0.0649999999999
8.69,0.195
8.7,0.195
8.71,0.26
8.72,0.26
8.73,0.195
8.74,0.195
8.75,0.26
8.76,0.26
8.77,0.455
8.78,0.455
8.79,0.39
8.8,0.39
8.81,0.325
8.82,0.325
8.83,0.39
8.84,0.39
8.85,0.715
8.86,0.715
8.87,1.365
8.88,1.365
8.89,1.755
8.9,1.755
8.91,1.56
8.92,1.56
8.93,1.69
8.94,1.69
8.95,2.21
8.96,2.21
8.97,2.405
8.98,2.405
8.99,2.6
9.,2.6
9.01,2.405
9.02,2.405
9.03,2.34
9.04,2.34
9.05,2.665
9.06,2.665
9.07,3.77
9.08,3.77
9.09,3.835
9.1,3.835
9.11,3.25
9.12,3.25
9.13,3.77
9.14,3.77
9.15,4.225
9.16,4.225
9.17,4.16
9.18,4.16
9.19,4.03
9.2,4.03
9.21,4.615
9.22,4.615
9.23,5.005
9.24,5.005
9.25,4.42
9.26,4.42
9.27,3.705
9.28,3.705
9.29,3.705
9.3,3.705
9.31,3.51
9.32,3.51
9.33,2.99
9.34,2.99
9.35,2.275
9.36,2.275
9.37,1.82
9.38,1.82
9.39,1.755
9.4,1.755
9.41,1.3
9.42,1.3
9.43,0.845
9.44,0.845
9.45,1.04
9.46,1.04
9.47,1.04
9.48,1.04
9.49,0.65
9.5,0.65
9.51,0.39
9.52,0.39
9.53,0.13
9.54,0.13
9.55,0.0650000000001
9.56,0.0649999999999
9.57,0.0649999999999
9.58,0.0650000000001
9.59,0.13
9.6,0.13
9.61,0.195
9.62,0.195
9.63,0.0649999999999
9.64,0.0650000000001
9.65,0.0650000000001
9.66,0.0649999999999
9.67,0.0649999999999
9.68,0.0650000000001
9.69,0.
9.7,0.
9.71,0.
9.72,0.
9.73,0.
9.74,0.
9.75,0.
9.76,0.
9.77,0.
9.78,0.
9.79,0.
9.8,0.
9.81,0.13
9.82,0.13
9.83,0.52
9.84,0.52
9.85,0.845
9.86,0.845
9.87,0.78
9.88,0.78
9.89,1.04
9.9,1.04
9.91,1.04
9.92,1.04
9.93,0.845
9.94,0.845
9.95,0.91
9.96,0.91
9.97,0.78
9.98,0.78
9.99,0.715
10.,0.715
