t,prevalence
5.,1
5.02,1
5.04,3
5.06,4
5.08,3
5.1,4
5.12,6
5.14,10
5.16,11
5.18,7
5.2,11
5.22,7
5.24,7
5.26,5
5.28,6
5.3,11
5.32,6
5.34,5
5.36,2
5.38,1
5.4,2
5.42,3
5.44,5
5.46,4
5.48,3
5.5,3
5.52,2
5.54,2
5.56,0
5.58,1
5.6,0
5.62,2
5.64,1
5.66,0
5.68,0
5.7,0
5.72,0
5.74,0
5.76,1
5.78,1
5.8,0
5.82,0
5.84,1
5.86,0
5.88,2
5.9,1
5.92,5
5.94,1
5.96,4
5.98,5
6.,4
6.02,3
6.04,3
6.06,3
6.08,5
6.1,9
6.12,11
6.14,14
6.16,14
6.18,4
6.2,7
6.22,5
6.24,3
6.26,7
6.28,5
6.3,4
6.32,4
6.34,4
6.36,4
6.38,1
6.4,0
6.42,4
6.44,1
6.46,2
6.48,3
6.5,3
6.52,2
6.54,5
6.56,0
6.58,1
6.6,1
6.62,1
6.64,2
6.66,1
6.68,1
6.7,2
6.72,1
6.74,2
6.76,1
6.78,1
6.8,1
6.82,2
6.84,2
6.86,0
6.88,0
6.9,2
6.92,0
6.94,0
6.96,3
6.98,5
7.,6
7.02,5
7.04,7
7.06,6
7.08,8
7.1,8
7.12,12
7.14,9
7.16,8
7.18,6
7.2,9
7.22,11
7.24,3
7.26,3
7.28,9
7.3,8
7.32,10
7.34,6
7.36,11
7.38,2
7.4,4
7.42,2
7.44,1
7.46,2
7.48,0
7.5,1
7.52,1
7.54,0
7.56,0
7.58,0
7.6,0
7.62,0
7.64,0
7.66,0
7.68,0
7.7,0
7.72,0
7.74,0
7.76,0
7.78,0
7.8,2
7.82,0
7.84,2
7.86,1
7.88,1
7.9,3
7.92,3
7.94,3
7.96,5
7.98,2
8.,7
8.02,1
8.04,9
8.06,6
8.08,13
8.1,4
8.12,8
8.14,8
8.16,9
8.18,4
8.2,4
8.22,3
8.24,11
8.26,5
8.28,9
8.3,8
8.32,3
8.34,4
8.36,6
8.38,9
8.4,3
8.42,6
8.44,1
8.46,0
8.48,0
8.5,1
8.52,0
8.54,0
8.56,0
8.58,0
8.6,0
8.62,0
8.64,0
8.66,0
8.68,0
8.7,0
8.72,1
8.74,1
8.76,0
8.78,1
8.8,0
8.82,1
8.84,1
8.86,2
8.88,0
8.9,3
8.92,3
8.94,2
8.96,2
8.98,3
9.,3
9.02,4
9.04,6
9.06,8
9.08,8
9.1,8
9.12,8
9.14,5
9.16,5
9.18,9
9.2,5
9.22,10
9.24,11
9.26,5
9.28,8
9.3,7
9.32,8
9.34,8
9.36,1
9.38,2
9.4,4
9.42,4
9.44,3
9.46,4
9.48,3
9.5,1
9.52,3
9.54,0
9.56,1
9.58,5
9.6,0
9.62,0
9.64,0
9.66,0
9.68,0
9.7,0
9.72,0
9.74,0
9.76,0
9.78,0
9.8,0
9.82,0
9.84,0
9.86,0
9.88,1
9.9,0
9.92,2
9.94,1
9.96,3
9.98,5
10.,3
