t,cases
5.01,3.38
5.02,3.38
5.03,3.64
5.04,3.64
5.05,3.9
5.06,3.9
5.07,3.51
5.08,3.51
5.09,3.38
5.1,3.38
5.11,3.64
5.12,3.64
5.13,4.42
5.14,4.42
5.15,5.005
5.16,5.005
5.17,4.355
5.18,4.355
5.19,4.16
5.2,4.16
5.21,4.29
5.22,4.29
5.23,4.16
5.24,4.16
5.25,4.16
5.26,4.16
5.27,4.16
5.28,4.16
5.29,4.42
5.3,4.42
5.31,4.225
5.32,4.225
5.33,3.705
5.34,3.705
5.35,3.25
5.36,3.25
5.37,2.925
5.38,2.925
5.39,2.6
5.4,2.6
5.41,2.015
5.42,2.015
5.43,1.755
5.44,1.755
5.45,1.43
5.46,1.43
5.47,1.04
5.48,1.04
5.49,1.04
5.5,1.04
5.51,0.78
5.52,0.78
5.53,0.39
5.54,0.39
5.55,0.26
5.56,0.26
5.57,0.26
5.58,0.26
5.59,0.325
5.6,0.325
5.61,0.26
5.62,0.26
5.63,0.195
5.64,0.195
5.65,0.195
5.66,0.195
5.67,0.065
5.68,0.065
5.69,0.065
5.7,0.065
5.71,0.195
5.72,0.195
5.73,0.13
5.74,0.13
5.75,0.
5.76,0.
5.77,0.
5.78,0.
5.79,0.195
5.8,0.195
5.81,0.325
5.82,0.325
5.83,0.26
5.84,0.26
5.85,0.325
5.86,0.325
5.87,0.65
5.88,0.65
5.89,0.91
5.9,0.91
5.91,0.91
5.92,0.91
5.93,1.04
5.94,1.04
5.95,1.04
5.96,1.04
5.97,1.56
5.98,1.56
5.99,1.95
6.,1.95
6.01,1.69
6.02,1.69
6.03,2.015
6.04,2.015
6.05,2.015
6.06,2.015
6.07,2.145
6.08,2.145
6.09,2.795
6.1,2.795
6.11,3.445
6.12,3.445
6.13,4.03
6.14,4.03
6.15,3.9
6.16,3.9
6.17,3.9
6.18,3.9
6.19,4.615
6.2,4.615
6.21,5.265
6.22,5.265
6.23,5.2
6.24,5.2
6.25,4.81
6.26,4.81
6.27,4.225
6.28,4.225
6.29,3.835
6.3,3.835
6.31,3.575
6.32,3.575
6.33,3.12
6.34,3.12
6.35,2.34
6.36,2.34
6.37,1.755
6.38,1.755
6.39,1.82
6.4,1.82
6.41,1.82
6.42,1.82
6.43,1.56
6.44,1.56
6.45,1.365
6.46,1.365
6.47,0.91
6.48,0.91
6.49,0.39
6.5,0.39
6.51,0.325
6.52,0.325
6.53,0.26
6.54,0.26
6.55,0.195
6.56,0.195
6.57,0.13
6.58,0.13
6.59,0.13
6.6,0.13
6.61,0.13
6.62,0.13
6.63,0.065
6.64,0.065
6.65,0.
6.66,0.
6.67,0.065
6.68,0.065
6.69,0.065
6.7,0.065
6.71,0.
6.72,0.
6.73,0.
6.74,0.
6.75,0.
6.76,0.
6.77,0.065
6.78,0.065
6.79,0.13
6.8,0.13
6.81,0.195
6.82,0.195
6.83,0.325
6.84,0.325
6.85,0.455
6.86,0.455
6.87,0.65
6.88,0.65
6.89,0.715
6.9,0.715
6.91,1.04
6.92,1.04
6.93,1.69
6.94,1.69
6.95,2.015
6.96,2.015
6.97,2.275
6.98,2.275
6.99,2.275
7.,2.275
7.01,2.34
7.02,2.34
7.03,2.6
7.04,2.6
7.05,2.665
7.06,2.665
7.07,2.795
7.08,2.795
7.09,3.38
7.1,3.38
7.11,3.835
7.12,3.835
7.13,4.16
7.14,4.16
7.15,3.965
7.16,3.965
7.17,4.03
7.18,4.03
7.19,5.2
7.2,5.2
7.21,5.915
7.22,5.915
7.23,4.94
7.24,4.94
7.25,4.29
7.26,4.29
7.27,4.485
7.28,4.485
7.29,3.9
7.3,3.9
7.31,3.315
7.32,3.315
7.33,2.6
7.34,2.6
7.35,2.015
7.36,2.015
7.37,1.495
7.38,1.495
7.39,1.105
7.4,1.105
7.41,0.975
7.42,0.975
7.43,0.715
7.44,0.715
7.45,0.715
7.46,0.715
7.47,0.91
7.48,0.91
7.49,0.65
7.5,0.65
7.51,0.26
7.52,0.26
7.53,0.26
7.54,0.26
7.55,0.325
7.56,0.325
7.57,0.39
7.58,0.39
7.59,0.26
7.6,0.26
7.61,0.
7.62,0.
7.63,0.0649999999999
7.64,0.0650000000001
7.65,0.0649999999999
7.66,0.0650000000001
7.67,0.0650000000001
7.68,0.0649999999999
7.69,0.13
7.7,0.13
7.71,0.0649999999999
7.72,0.0650000000001
7.73,0.0650000000001
7.74,0.0649999999999
7.75,0.13
7.76,0.13
7.77,0.13
7.78,0.13
7.79,0.0649999999999
7.8,0.0650000000001
7.81,0.13
7.82,0.13
7.83,0.325
7.84,0.325
7.85,0.52
7.86,0.52
7.87,0.52
7.88,0.52
7.89,0.585
7.9,0.585
7.91,0.91
7.92,0.91
7.93,0.91
7.94,0.91
7.95,1.105
7.96,1.105
7.97,1.56
7.98,1.56
7.99,2.08
8.,2.08
8.01,2.47
8.02,2.47
8.03,2.665
8.04,2.665
8.05,2.86
8.06,2.86
8.07,2.665
8.08,2.665
8.09,2.73
8.1,2.73
8.11,3.055
8.12,3.055
8.13,3.12
8.14,3.12
8.15,3.64
8.16,3.64
8.17,4.615
8.18,4.615
8.19,4.94
8.2,4.94
8.21,4.745
8.22,4.745
8.23,4.42
8.24,4.42
8.25,4.095
8.26,4.095
8.27,4.03
8.28,4.03
8.29,3.055
8.3,3.055
8.31,2.47
8.32,2.47
8.33,2.47
8.34,2.47
8.35,1.56
8.36,1.56
8.37,1.495
8.38,1.495
8.39,1.95
8.4,1.95
8.41,2.015
8.42,2.015
8.43,1.885
8.44,1.885
8.45,1.56
8.46,1.56
8.47,1.17
8.48,1.17
8.49,0.975
8.5,0.975
8.51,0.65
8.52,0.65
8.53,0.195
8.54,0.195
8.55,0.13
8.56,0.13
8.57,0.13
8.58,0.13
8.59,0.195
8.6,0.195
8.61,0.13
8.62,0.13
8.63,0.0650000000001
8.64,0.0649999999999
8.65,0.0649999999999
8.66,0.0650000000001
8.67,0.0650000000001
8.68,0.0649999999999
8.69,0.13
8.7,0.13
8.71,0.0650000000001
8.72,0.0649999999999
8.73,0.
8.74,0.
8.75,0.0650000000001
8.76,0.0649999999999
8.77,0.195
8.78,0.195
8.79,0.195
8.8,0.195
8.81,0.26
8.82,0.26
8.83,0.52
8.84,0.52
8.85,0.585
8.86,0.585
8.87,0.65
8.88,0.65
8.89,1.235
8.9,1.235
8.91,1.56
8.92,1.56
8.93,1.56
8.94,1.56
8.95,2.21
8.96,2.21
8.97,2.665
8.98,2.665
8.99,2.73
9.,2.73
9.01,3.055
9.02,3.055
9.03,2.925
9.04,2.925
9.05,2.795
9.06,2.795
9.07,2.73
9.08,2.73
9.09,2.795
9.1,2.795
9.11,2.86
9.12,2.86
9.13,2.405
9.14,2.405
9.15,2.73
9.16,2.73
9.17,3.315
9.18,3.315
9.19,3.25
9.2,3.25
9.21,3.445
9.22,3.445
9.23,4.29
9.24,4.29
9.25,4.485
9.26,4.485
9.27,4.55
9.28,4.55
9.29,4.355
9.3,4.355
9.31,3.965
9.32,3.965
9.33,4.225
9.34,4.225
9.35,3.705
9.36,3.705
9.37,2.47
9.38,2.47
9.39,1.95
9.4,1.95
9.41,1.82
9.42,1.82
9.43,1.43
9.44,1.43
9.45,1.105
9.46,1.105
9.47,0.975
9.48,0.975
9.49,0.845
9.5,0.845
9.51,0.715
9.52,0.715
9.53,0.455
9.54,0.455
9.55,0.0650000000001
9.56,0.0649999999999
9.57,0.
9.58,0.
9.59,0.
9.6,0.
9.61,0.
9.62,0.
9.63,0.
9.64,0.
9.65,0.0650000000001
9.66,0.0649999999999
9.67,0.0649999999999
9.68,0.0650000000001
9.69,0.
9.7,0.
9.71,0.
9.72,0.
9.73,0.
9.74,0.
9.75,0.
9.76,0.
9.77,0.0649999999999
9.78,0.0650000000001
9.79,0.0649999999999
9.8,0.0650000000001
9.81,0.13
9.82,0.13
9.83,0.26
9.84,0.26
9.85,0.39
9.86,0.39
9.87,0.65
9.88,0.65
9.89,0.715
9.9,0.715
9.91,0.845
9.92,0.845
9.93,1.17
9.94,1.17
9.95,1.43
9.96,1.43
9.97,1.56
9.98,1.56
9.99,1.495
10.,1.495
