t,s,e,i,r,c,o,n,reff,coal,reportr
5.,7953.,3.,1.,2043.,0.,0.,10000.,0.962221123226,16.6784994693,39.
5.02,7949.,10.,1.,2039.,0.,0.,9999.,0.961833352771,5.00153343441,130.
5.04,7953.,10.,5.,2035.,0.,0.,10003.,0.961932543463,5.00204922601,130.
5.06,7951.,14.,7.,2035.,0.,0.,10007.,0.961306231969,3.57056600446,182.
5.08,7947.,24.,6.,2035.,0.,0.,10012.,0.960342781204,2.08074269261,312.
5.1,7942.,22.,14.,2035.,0.,0.,10013.,0.959642714774,2.26824641674,286.
5.12,7930.,30.,6.,2044.,0.,0.,10010.,0.958479909024,1.66136517564,390.
5.14,7931.,26.,9.,2047.,0.,0.,10013.,0.95831356974,1.91662713948,338.
5.16,7924.,33.,9.,2050.,0.,0.,10016.,0.957180968698,1.5082851628,429.
5.18,7912.,33.,10.,2061.,0.,0.,10016.,0.955731426595,1.50600103585,429.
5.2,7907.,36.,13.,2062.,0.,0.,10018.,0.954936768457,1.37935310999,468.
5.22,7905.,25.,16.,2071.,0.,0.,10017.,0.954790533837,1.98596431038,325.
5.24,7896.,31.,10.,2078.,0.,0.,10015.,0.953893940806,1.60008015877,403.
5.26,7894.,26.,12.,2084.,0.,0.,10016.,0.95355711344,1.90711422688,338.
5.28,7890.,22.,8.,2096.,0.,0.,10016.,0.953073932739,2.25272020466,286.
5.3,7879.,22.,9.,2102.,0.,0.,10012.,0.952125427596,2.25047828341,286.
5.32,7880.,22.,11.,2102.,0.,0.,10015.,0.951961025019,2.2500896955,286.
5.34,7872.,19.,13.,2110.,0.,0.,10014.,0.951089533629,2.60298188151,247.
5.36,7865.,21.,12.,2117.,0.,0.,10015.,0.950148916469,2.35274969792,273.
5.38,7856.,18.,14.,2127.,0.,0.,10015.,0.949061651339,2.74173365942,234.
5.4,7854.,16.,11.,2132.,0.,0.,10013.,0.9490095545,3.08428105212,208.
5.42,7850.,15.,8.,2140.,0.,0.,10013.,0.948526229033,3.28822426065,195.
5.44,7850.,16.,5.,2144.,0.,0.,10015.,0.948336807918,3.08209462574,208.
5.46,7852.,15.,6.,2142.,0.,0.,10015.,0.948578422392,3.28840519763,195.
5.48,7851.,9.,8.,2149.,0.,0.,10017.,0.94826824556,5.47888319657,117.
5.5,7855.,5.,5.,2153.,0.,0.,10018.,0.948656673356,9.8660294029,65.
5.52,7861.,5.,3.,2150.,0.,0.,10019.,0.949286541624,9.87258003289,65.
5.54,7863.,4.,3.,2151.,0.,0.,10021.,0.949338551989,12.3414011759,52.
5.56,7866.,3.,1.,2151.,0.,0.,10021.,0.949700756702,16.4614797828,39.
5.58,7868.,4.,0.,2148.,0.,0.,10020.,0.950037031124,12.3504814046,52.
5.6,7869.,3.,3.,2144.,0.,0.,10019.,0.950252613668,16.4710453036,39.
5.62,7868.,3.,4.,2142.,0.,0.,10017.,0.950321558536,16.472240348,39.
5.64,7868.,4.,1.,2144.,0.,0.,10017.,0.950321558536,12.354180261,52.
5.66,7868.,5.,4.,2142.,0.,0.,10019.,0.950131854662,9.88137128849,65.
5.68,7870.,4.,2.,2143.,0.,0.,10019.,0.950373372673,12.3548538447,52.
5.7,7864.,4.,1.,2145.,0.,0.,10014.,0.950122979225,12.3515987299,52.
5.72,7864.,3.,1.,2146.,0.,0.,10014.,0.950122979225,16.4687983066,39.
5.74,7868.,2.,2.,2141.,0.,0.,10013.,0.950701193634,24.7182310345,26.
5.76,7869.,3.,1.,2139.,0.,0.,10012.,0.950916993242,16.4825612162,39.
5.78,7881.,2.,1.,2132.,0.,0.,10016.,0.951986776162,24.7516561802,26.
5.8,7882.,4.,1.,2129.,0.,0.,10016.,0.952107571337,12.3773984274,52.
5.82,7884.,3.,2.,2127.,0.,0.,10016.,0.952349161688,16.5073854693,39.
5.84,7889.,2.,2.,2121.,0.,0.,10014.,0.953143461738,24.7817300052,26.
5.86,7890.,5.,1.,2117.,0.,0.,10013.,0.953359483703,9.91493863051,65.
5.88,7889.,5.,2.,2115.,0.,0.,10011.,0.953429090585,9.91566254208,65.
5.9,7893.,8.,1.,2108.,0.,0.,10010.,0.954007808566,6.20105075568,104.
5.92,7891.,7.,4.,2108.,0.,0.,10010.,0.953766073406,7.08511940244,91.
5.94,7893.,3.,6.,2109.,0.,0.,10011.,0.95391251261,16.5344835519,39.
5.96,7892.,15.,6.,2099.,0.,0.,10012.,0.953696392256,3.30614749315,195.
5.98,7889.,17.,8.,2099.,0.,0.,10013.,0.953238652336,2.91578881891,221.
6.,7882.,23.,3.,2104.,0.,0.,10012.,0.952487957902,2.15345103526,299.
6.02,7883.,17.,6.,2106.,0.,0.,10012.,0.952608801337,2.91386221586,221.
6.04,7879.,21.,6.,2106.,0.,0.,10012.,0.952125427596,2.35764391595,273.
6.06,7866.,22.,6.,2115.,0.,0.,10009.,0.950839372855,2.24743851766,286.
6.08,7867.,20.,10.,2114.,0.,0.,10011.,0.950770269442,2.47200270055,260.
6.1,7862.,23.,12.,2116.,0.,0.,10013.,0.949976205434,2.14777229055,299.
6.12,7858.,19.,10.,2128.,0.,0.,10015.,0.949303265812,2.59809314854,247.
6.14,7849.,19.,11.,2138.,0.,0.,10017.,0.948026679328,2.5945993329,247.
6.16,7849.,20.,11.,2137.,0.,0.,10017.,0.948026679328,2.46486936625,260.
6.18,7840.,16.,11.,2150.,0.,0.,10017.,0.946939631282,3.07755380167,208.
6.2,7832.,22.,7.,2154.,0.,0.,10015.,0.946162277658,2.23638356537,286.
6.22,7827.,22.,10.,2154.,0.,0.,10013.,0.945747107597,2.23540225432,286.
6.24,7820.,25.,10.,2158.,0.,0.,10013.,0.94490128803,1.9653946791,325.
6.26,7813.,24.,14.,2160.,0.,0.,10011.,0.944244072092,2.0458621562,312.
6.28,7795.,31.,16.,2167.,0.,0.,10009.,0.942256917291,1.58055999029,403.
6.3,7783.,30.,15.,2182.,0.,0.,10010.,0.940712374771,1.63056811627,390.
6.32,7781.,22.,18.,2191.,0.,0.,10012.,0.940282770926,2.22248654946,286.
6.34,7765.,29.,6.,2211.,0.,0.,10011.,0.938443007782,1.68272539326,377.
6.36,7771.,22.,9.,2208.,0.,0.,10010.,0.939261963811,2.22007373265,286.
6.38,7770.,22.,5.,2212.,0.,0.,10009.,0.939234925894,2.22000982484,286.
6.4,7768.,12.,10.,2217.,0.,0.,10007.,0.939180833849,4.06978361335,156.
6.42,7780.,12.,6.,2215.,0.,0.,10013.,0.94006803336,4.07362814456,156.
6.44,7781.,14.,5.,2211.,0.,0.,10011.,0.940376695885,3.49282772757,182.
6.46,7789.,14.,6.,2201.,0.,0.,10010.,0.941437580251,3.49676815522,182.
6.48,7792.,12.,2.,2202.,0.,0.,10008.,0.94198839246,4.08194970066,156.
6.5,7788.,11.,5.,2204.,0.,0.,10008.,0.941504825523,4.45075008429,143.
6.52,7791.,12.,8.,2200.,0.,0.,10011.,0.94158525095,4.08020275412,156.
6.54,7797.,9.,6.,2203.,0.,0.,10015.,0.941934024375,5.44228547416,117.
6.56,7805.,1.,10.,2202.,0.,0.,10018.,0.942618120375,49.0161422595,13.
6.58,7807.,3.,1.,2208.,0.,0.,10019.,0.942765555331,16.3412696257,39.
6.6,7814.,2.,3.,2201.,0.,0.,10020.,0.943516695628,24.5314340863,26.
6.62,7819.,4.,2.,2200.,0.,0.,10025.,0.943649547388,12.267444116,52.
6.64,7820.,2.,2.,2201.,0.,0.,10025.,0.943770234119,24.5380260871,26.
6.66,7824.,0.,3.,2199.,0.,0.,10026.,0.944158800613,inf,0.
6.68,7825.,2.,1.,2197.,0.,0.,10025.,0.944373667773,24.5537153621,26.
6.7,7826.,3.,1.,2193.,0.,0.,10023.,0.944682819904,16.3745022117,39.
6.72,7833.,4.,0.,2186.,0.,0.,10023.,0.945527795592,12.2918613427,52.
6.74,7839.,4.,3.,2180.,0.,0.,10026.,0.945968921013,12.2975959732,52.
6.76,7846.,4.,4.,2176.,0.,0.,10030.,0.946436051187,12.3036686654,52.
6.78,7847.,4.,3.,2176.,0.,0.,10030.,0.946556677755,12.3052368108,52.
6.8,7856.,5.,0.,2168.,0.,0.,10029.,0.947736807075,9.85646279358,65.
6.82,7854.,4.,1.,2166.,0.,0.,10025.,0.947873582963,12.3223565785,52.
6.84,7855.,5.,1.,2163.,0.,0.,10024.,0.948088842147,9.86012395833,65.
6.86,7858.,6.,1.,2160.,0.,0.,10025.,0.948356329886,8.21908819234,78.
6.88,7862.,5.,4.,2152.,0.,0.,10023.,0.94902840916,9.86989545526,65.
6.9,7865.,7.,1.,2155.,0.,0.,10028.,0.948917171762,7.04909899024,91.
6.92,7870.,4.,4.,2150.,0.,0.,10028.,0.949520424891,12.3437655236,52.
6.94,7866.,4.,8.,2152.,0.,0.,10030.,0.948848582543,12.3350315731,52.
6.96,7862.,14.,3.,2151.,0.,0.,10030.,0.948366076272,3.52250256901,182.
6.98,7865.,12.,4.,2152.,0.,0.,10033.,0.94844427374,4.10992518621,156.
7.,7862.,11.,6.,2150.,0.,0.,10029.,0.948460638649,4.48363210998,143.
7.02,7860.,9.,14.,2143.,0.,0.,10026.,0.948503089573,5.48024007309,117.
7.04,7851.,18.,6.,2152.,0.,0.,10027.,0.947322530745,2.73670953326,234.
7.06,7850.,20.,11.,2150.,0.,0.,10031.,0.94682415824,2.46174281142,260.
7.08,7842.,20.,14.,2155.,0.,0.,10031.,0.9458592419,2.45923402894,260.
7.1,7829.,29.,15.,2160.,0.,0.,10033.,0.94410301578,1.69287437312,377.
7.12,7816.,26.,19.,2169.,0.,0.,10030.,0.942817254152,1.8856345083,338.
7.14,7803.,31.,14.,2183.,0.,0.,10031.,0.941155274745,1.57871207377,403.
7.16,7797.,23.,19.,2191.,0.,0.,10030.,0.940525349363,2.12640513769,299.
7.18,7786.,36.,5.,2205.,0.,0.,10032.,0.939011216595,1.35634953508,468.
7.2,7783.,34.,12.,2203.,0.,0.,10032.,0.938649409037,1.43558144912,442.
7.22,7768.,38.,19.,2208.,0.,0.,10033.,0.936746995348,1.28186430942,494.
7.24,7764.,35.,15.,2218.,0.,0.,10032.,0.936357961167,1.39116039945,455.
7.26,7754.,36.,20.,2222.,0.,0.,10032.,0.935151935972,1.35077501863,468.
7.28,7749.,28.,16.,2239.,0.,0.,10032.,0.934548923375,1.7355908577,364.
7.3,7742.,25.,9.,2262.,0.,0.,10038.,0.933146603703,1.9409449357,325.
7.32,7740.,20.,11.,2270.,0.,0.,10041.,0.932626813965,2.42482971631,260.
7.34,7735.,23.,1.,2279.,0.,0.,10038.,0.93230289068,2.1078152311,299.
7.36,7735.,18.,8.,2279.,0.,0.,10040.,0.932117172972,2.69278294414,234.
7.38,7729.,15.,7.,2285.,0.,0.,10036.,0.931765355698,3.23011989975,195.
7.4,7730.,14.,3.,2291.,0.,0.,10038.,0.93170023852,3.46060088593,182.
7.42,7729.,7.,6.,2296.,0.,0.,10038.,0.931579708088,6.92030640294,91.
7.44,7731.,5.,4.,2299.,0.,0.,10039.,0.931727948873,9.68997066828,65.
7.46,7740.,6.,3.,2295.,0.,0.,10044.,0.932348251595,8.08035151382,78.
7.48,7744.,4.,2.,2296.,0.,0.,10046.,0.932644373573,12.1243768565,52.
7.5,7747.,3.,1.,2295.,0.,0.,10046.,0.933005676921,16.1720984,39.
7.52,7749.,2.,0.,2292.,0.,0.,10043.,0.933525321049,24.2716583473,26.
7.54,7758.,0.,2.,2284.,0.,0.,10044.,0.934516503343,inf,0.
7.56,7762.,1.,0.,2279.,0.,0.,10042.,0.935184554618,48.6295968401,13.
7.58,7767.,1.,0.,2273.,0.,0.,10041.,0.935880163316,48.6657684924,13.
7.6,7771.,1.,0.,2268.,0.,0.,10040.,0.936455404159,48.6956810163,13.
7.62,7775.,2.,0.,2263.,0.,0.,10040.,0.936937429846,24.360373176,26.
7.64,7782.,0.,1.,2258.,0.,0.,10041.,0.937687579622,inf,0.
7.66,7781.,1.,2.,2254.,0.,0.,10038.,0.937847290547,48.7680591084,13.
7.68,7779.,4.,3.,2251.,0.,0.,10037.,0.93769964467,12.1900953807,52.
7.7,7790.,2.,2.,2246.,0.,0.,10040.,0.938745026174,24.4073706805,26.
7.72,7794.,3.,1.,2244.,0.,0.,10042.,0.939039992102,16.2766931964,39.
7.74,7800.,5.,3.,2235.,0.,0.,10043.,0.939669312709,9.77256085217,65.
7.76,7803.,4.,1.,2233.,0.,0.,10041.,0.94021796245,12.2228335119,52.
7.78,7804.,4.,2.,2231.,0.,0.,10041.,0.940338456871,12.2243999393,52.
7.8,7799.,9.,2.,2232.,0.,0.,10042.,0.939642404209,5.42904500209,117.
7.82,7805.,9.,2.,2229.,0.,0.,10045.,0.940084452953,5.43159906151,117.
7.84,7806.,10.,3.,2227.,0.,0.,10046.,0.940111309416,4.88857880896,130.
7.86,7799.,13.,7.,2226.,0.,0.,10045.,0.939361774322,3.75744709729,169.
7.88,7797.,18.,5.,2227.,0.,0.,10047.,0.938933935912,2.71247581486,234.
7.9,7791.,15.,12.,2227.,0.,0.,10045.,0.938398202813,3.25311376975,195.
7.92,7786.,17.,13.,2229.,0.,0.,10045.,0.937795970621,2.86855238072,221.
7.94,7779.,18.,9.,2236.,0.,0.,10042.,0.937232755781,2.70756129448,234.
7.96,7773.,18.,10.,2241.,0.,0.,10042.,0.936509861253,2.70547293251,234.
7.98,7767.,17.,12.,2245.,0.,0.,10041.,0.935880163316,2.86269226426,221.
8.,7760.,18.,6.,2259.,0.,0.,10043.,0.934850495721,2.70067920986,234.
8.02,7761.,13.,10.,2257.,0.,0.,10041.,0.935157196793,3.74062878717,169.
8.04,7757.,15.,8.,2261.,0.,0.,10041.,0.934675219111,3.24020742625,195.
8.06,7753.,17.,6.,2266.,0.,0.,10042.,0.934100212826,2.85724770982,221.
8.08,7747.,18.,10.,2265.,0.,0.,10040.,0.933563250034,2.6969605001,234.
8.1,7743.,24.,8.,2266.,0.,0.,10041.,0.932988297226,2.02147464399,312.
8.12,7743.,16.,20.,2263.,0.,0.,10042.,0.932895388612,3.03191001299,208.
8.14,7732.,27.,12.,2273.,0.,0.,10044.,0.931384584151,1.79377771762,351.
8.16,7721.,24.,21.,2278.,0.,0.,10044.,0.930059541416,2.0151290064,312.
8.18,7698.,37.,16.,2294.,0.,0.,10045.,0.927196684027,1.30308723161,481.
8.2,7683.,33.,18.,2307.,0.,0.,10041.,0.925758632001,1.4587711777,429.
8.22,7673.,37.,8.,2323.,0.,0.,10041.,0.924553687797,1.29937275042,481.
8.24,7669.,31.,11.,2330.,0.,0.,10041.,0.924071710116,1.55005577181,403.
8.26,7663.,24.,15.,2337.,0.,0.,10039.,0.923532695928,2.00098750784,312.
8.28,7655.,22.,14.,2345.,0.,0.,10036.,0.922844326287,2.18126840759,286.
8.3,7647.,24.,10.,2356.,0.,0.,10037.,0.921788042524,1.99720742547,312.
8.32,7647.,18.,12.,2360.,0.,0.,10037.,0.921788042524,2.66294323396,234.
8.34,7644.,19.,11.,2368.,0.,0.,10042.,0.920967628897,2.52054298435,247.
8.36,7641.,15.,12.,2372.,0.,0.,10040.,0.920789569319,3.19207050697,195.
8.38,7638.,19.,3.,2380.,0.,0.,10040.,0.920428050053,2.51906624225,247.
8.4,7645.,21.,3.,2374.,0.,0.,10043.,0.92099639688,2.28056250656,273.
8.42,7650.,13.,12.,2374.,0.,0.,10049.,0.921048486042,3.68419394417,169.
8.44,7647.,14.,5.,2382.,0.,0.,10048.,0.920778919468,3.42003598659,182.
8.46,7645.,11.,11.,2378.,0.,0.,10045.,0.920813022784,4.35293428952,143.
8.48,7644.,9.,8.,2385.,0.,0.,10046.,0.920600928667,5.31902758785,117.
8.5,7644.,9.,5.,2386.,0.,0.,10044.,0.920784242273,5.32008673313,117.
8.52,7648.,4.,7.,2387.,0.,0.,10046.,0.921082666463,11.974074664,52.
8.54,7651.,5.,3.,2389.,0.,0.,10048.,0.921260561377,9.58110983832,65.
8.56,7653.,3.,4.,2387.,0.,0.,10047.,0.92159310139,15.9742804241,39.
8.58,7658.,5.,3.,2386.,0.,0.,10052.,0.921736501397,9.58605961453,65.
8.6,7662.,3.,3.,2386.,0.,0.,10054.,0.922034498701,15.9819313108,39.
8.62,7672.,1.,1.,2383.,0.,0.,10057.,0.922962483315,47.9940491324,13.
8.64,7679.,1.,2.,2375.,0.,0.,10057.,0.923804602369,48.0378393232,13.
8.66,7685.,0.,3.,2371.,0.,0.,10059.,0.92434259796,inf,0.
8.68,7686.,2.,1.,2372.,0.,0.,10061.,0.924279105193,24.031256735,26.
8.7,7686.,5.,1.,2369.,0.,0.,10061.,0.924279105193,9.61250269401,65.
8.72,7694.,4.,1.,2361.,0.,0.,10060.,0.925333116616,12.029330516,52.
8.74,7702.,5.,1.,2354.,0.,0.,10062.,0.926111133866,9.6315557922,65.
8.76,7709.,5.,1.,2349.,0.,0.,10064.,0.926768622842,9.63839367756,65.
8.78,7713.,4.,2.,2343.,0.,0.,10062.,0.92743380622,12.0566394809,52.
8.8,7711.,4.,2.,2342.,0.,0.,10059.,0.927469846827,12.0571080088,52.
8.82,7713.,2.,2.,2340.,0.,0.,10057.,0.927894894917,24.1252672679,26.
8.84,7716.,2.,2.,2337.,0.,0.,10057.,0.928255803083,24.1346508802,26.
8.86,7717.,11.,2.,2332.,0.,0.,10062.,0.927914777985,4.3865062232,143.
8.88,7715.,9.,4.,2333.,0.,0.,10061.,0.927766497081,5.3604286498,117.
8.9,7712.,11.,3.,2336.,0.,0.,10062.,0.927313563279,4.38366411732,143.
8.92,7715.,11.,3.,2333.,0.,0.,10062.,0.927674292102,4.38536938085,143.
8.94,7718.,9.,4.,2329.,0.,0.,10060.,0.92821952093,5.36304612093,117.
8.96,7719.,13.,2.,2328.,0.,0.,10062.,0.928155263868,3.71262105547,169.
8.98,7715.,12.,3.,2329.,0.,0.,10059.,0.927950962037,4.0211208355,156.
9.,7721.,16.,3.,2323.,0.,0.,10063.,0.928303491403,3.01698634706,208.
9.02,7726.,19.,6.,2317.,0.,0.,10068.,0.928443330986,2.54100280059,247.
9.04,7717.,20.,7.,2322.,0.,0.,10066.,0.927546045707,2.41161971884,260.
9.06,7717.,15.,14.,2322.,0.,0.,10068.,0.92736178944,3.21485420339,195.
9.08,7708.,17.,11.,2327.,0.,0.,10063.,0.926740488503,2.83473561189,221.
9.1,7697.,25.,10.,2327.,0.,0.,10059.,0.925785943591,1.92563476267,325.
9.12,7686.,26.,11.,2334.,0.,0.,10057.,0.924646721423,1.84929344285,338.
9.14,7682.,29.,13.,2334.,0.,0.,10058.,0.924073626909,1.65695960687,377.
9.16,7663.,33.,20.,2341.,0.,0.,10057.,0.921879758817,1.45265901389,429.
9.18,7634.,35.,23.,2362.,0.,0.,10054.,0.91866501737,1.36487374009,455.
9.2,7631.,36.,13.,2377.,0.,0.,10057.,0.918030071712,1.32604343692,468.
9.22,7616.,26.,23.,2393.,0.,0.,10058.,0.916134436675,1.83226887335,338.
9.24,7603.,29.,11.,2414.,0.,0.,10057.,0.914661595496,1.64008286089,377.
9.26,7603.,25.,11.,2422.,0.,0.,10061.,0.9142979491,1.90173973413,325.
9.28,7602.,24.,8.,2429.,0.,0.,10063.,0.913996003321,1.98032467386,312.
9.3,7600.,24.,12.,2429.,0.,0.,10065.,0.913573970439,1.97941026929,312.
9.32,7599.,19.,13.,2440.,0.,0.,10071.,0.912909554959,2.49848930831,247.
9.34,7598.,13.,13.,2447.,0.,0.,10071.,0.912789419474,3.6511576779,169.
9.36,7592.,16.,11.,2452.,0.,0.,10071.,0.91206860656,2.96422297132,208.
9.38,7588.,8.,13.,2464.,0.,0.,10073.,0.911407068278,5.92414594381,104.
9.4,7583.,8.,7.,2476.,0.,0.,10074.,0.91071609851,5.91965464032,104.
9.42,7590.,4.,4.,2478.,0.,0.,10076.,0.911375860234,11.847886183,52.
9.44,7593.,3.,2.,2474.,0.,0.,10072.,0.912098175253,15.8097017044,39.
9.46,7598.,5.,1.,2468.,0.,0.,10072.,0.912698793042,9.49206744764,65.
9.48,7602.,4.,1.,2464.,0.,0.,10071.,0.913269961416,11.8725094984,52.
9.5,7604.,5.,1.,2462.,0.,0.,10072.,0.91341953439,9.49956315765,65.
9.52,7614.,2.,3.,2455.,0.,0.,10074.,0.91443918951,23.7754189273,26.
9.54,7616.,0.,4.,2453.,0.,0.,10073.,0.914770193992,inf,0.
9.56,7627.,2.,1.,2447.,0.,0.,10077.,0.915727785383,23.80892242,26.
9.58,7629.,2.,0.,2446.,0.,0.,10077.,0.915967913293,23.8151657456,26.
9.6,7638.,1.,1.,2438.,0.,0.,10078.,0.916957493802,47.6817896777,13.
9.62,7645.,2.,1.,2433.,0.,0.,10081.,0.917524731065,23.8556430077,26.
9.64,7649.,1.,2.,2426.,0.,0.,10078.,0.91827806626,47.7504594455,13.
9.66,7653.,1.,0.,2425.,0.,0.,10079.,0.918667118729,47.7706901739,13.
9.68,7653.,1.,1.,2423.,0.,0.,10078.,0.918758274426,47.7754302701,13.
9.7,7653.,3.,0.,2421.,0.,0.,10077.,0.918849448215,15.9267237691,39.
9.72,7659.,3.,0.,2418.,0.,0.,10080.,0.919296150448,15.9344666078,39.
9.74,7658.,2.,1.,2411.,0.,0.,10072.,0.919906206517,23.9175613694,26.
9.76,7667.,1.,1.,2403.,0.,0.,10072.,0.920987318538,47.891340564,13.
9.78,7669.,1.,2.,2400.,0.,0.,10072.,0.921227565654,47.903833414,13.
9.8,7674.,1.,3.,2397.,0.,0.,10075.,0.921553693662,47.9207920704,13.
9.82,7679.,5.,2.,2392.,0.,0.,10078.,0.921879627508,9.58754812608,65.
9.84,7677.,7.,3.,2389.,0.,0.,10076.,0.921822461004,6.84782399603,91.
9.86,7676.,7.,3.,2387.,0.,0.,10073.,0.921976891948,6.84897119733,91.
9.88,7675.,7.,2.,2389.,0.,0.,10073.,0.921856780316,6.84807893949,91.
9.9,7676.,5.,7.,2384.,0.,0.,10072.,0.92206843056,9.58951167782,65.
9.92,7675.,11.,5.,2381.,0.,0.,10072.,0.921948307002,4.35830108764,143.
9.94,7673.,13.,0.,2389.,0.,0.,10075.,0.921433605873,3.68573442349,169.
9.96,7669.,12.,0.,2391.,0.,0.,10072.,0.921227565654,3.99198611784,156.
9.98,7670.,11.,1.,2392.,0.,0.,10074.,0.921164773252,4.35459710992,143.
10.,7668.,14.,3.,2391.,0.,0.,10076.,0.920741778165,3.41989803319,182.
