t,s,e,i,r,c,o,n,reff,coal,reportr
5.,7323.,19.,28.,2630.,0.,0.,10000.,0.899944141566,2.46300501902,247.
5.02,7313.,21.,23.,2642.,0.,0.,9999.,0.898805093848,2.22561261334,273.
5.04,7294.,24.,17.,2660.,0.,0.,9995.,0.896828664036,1.94312877208,312.
5.06,7285.,28.,15.,2669.,0.,0.,9997.,0.895542877162,1.66315105759,364.
5.08,7272.,29.,15.,2679.,0.,0.,9995.,0.894123669437,1.60325623485,377.
5.1,7256.,32.,15.,2690.,0.,0.,9993.,0.892334956907,1.45004430497,416.
5.12,7245.,36.,19.,2696.,0.,0.,9996.,0.890714787301,1.2865880261,468.
5.14,7229.,39.,13.,2712.,0.,0.,9993.,0.889014526389,1.18535270185,507.
5.16,7223.,25.,20.,2724.,0.,0.,9992.,0.888365551725,1.84780034759,325.
5.18,7208.,28.,21.,2732.,0.,0.,9989.,0.886786932567,1.64689001762,364.
5.2,7194.,37.,19.,2739.,0.,0.,9989.,0.885064538414,1.24387448642,481.
5.22,7185.,32.,22.,2745.,0.,0.,9984.,0.884399971971,1.43714995445,416.
5.24,7167.,32.,19.,2764.,0.,0.,9982.,0.882361111205,1.43383680571,416.
5.26,7157.,33.,12.,2779.,0.,0.,9981.,0.881218247648,1.38858632963,429.
5.28,7151.,28.,12.,2790.,0.,0.,9981.,0.880479487065,1.63517619026,364.
5.3,7145.,22.,6.,2808.,0.,0.,9981.,0.879740726483,2.07938717169,286.
5.32,7144.,18.,9.,2809.,0.,0.,9980.,0.879705737756,2.54137213129,234.
5.34,7141.,18.,11.,2812.,0.,0.,9982.,0.879160136057,2.53979594861,234.
5.36,7127.,24.,7.,2821.,0.,0.,9979.,0.877700318962,1.90168402442,312.
5.38,7129.,11.,15.,2822.,0.,0.,9977.,0.878122615955,4.1511250936,143.
5.4,7125.,17.,2.,2831.,0.,0.,9975.,0.87780587734,2.68505327186,221.
5.42,7131.,15.,7.,2818.,0.,0.,9971.,0.878897522398,3.04684474431,195.
5.44,7129.,16.,3.,2822.,0.,0.,9970.,0.878739151392,2.85590224202,208.
5.46,7141.,14.,3.,2815.,0.,0.,9973.,0.879953522322,3.2683987972,182.
5.48,7147.,11.,3.,2815.,0.,0.,9976.,0.880428032026,4.16202342412,143.
5.5,7159.,6.,5.,2809.,0.,0.,9979.,0.881641165069,7.64089009727,78.
5.52,7155.,7.,2.,2811.,0.,0.,9975.,0.881501902087,6.54829984407,91.
5.54,7162.,4.,4.,2803.,0.,0.,9973.,0.882541258489,11.4730363604,52.
5.56,7167.,4.,0.,2804.,0.,0.,9975.,0.882980311985,11.4787440558,52.
5.58,7172.,3.,2.,2798.,0.,0.,9975.,0.88359631611,15.3156694792,39.
5.6,7179.,3.,1.,2790.,0.,0.,9973.,0.884636092529,15.3336922705,39.
5.62,7190.,2.,0.,2783.,0.,0.,9975.,0.885813930958,23.0311622049,26.
5.64,7197.,0.,2.,2778.,0.,0.,9977.,0.886498592653,inf,0.
5.66,7201.,0.,2.,2777.,0.,0.,9980.,0.886724666514,inf,0.
5.68,7205.,0.,0.,2774.,0.,0.,9979.,0.887306131349,inf,0.
5.7,7206.,1.,0.,2769.,0.,0.,9976.,0.887696152061,46.1601999071,13.
5.72,7218.,1.,0.,2761.,0.,0.,9980.,0.888818031232,46.2185376241,13.
5.74,7219.,4.,0.,2755.,0.,0.,9978.,0.889119350564,11.5585515573,52.
5.76,7222.,2.,2.,2749.,0.,0.,9975.,0.889756357354,23.1336652912,26.
5.78,7227.,4.,1.,2744.,0.,0.,9976.,0.890283110039,11.5736804305,52.
5.8,7232.,2.,3.,2740.,0.,0.,9977.,0.890809757131,23.1610536854,26.
5.82,7236.,4.,1.,2738.,0.,0.,9979.,0.891123826015,11.5846097382,52.
5.84,7234.,4.,1.,2738.,0.,0.,9977.,0.891056109386,11.583729422,52.
5.86,7237.,6.,2.,2729.,0.,0.,9974.,0.891693762586,7.72801260908,78.
5.88,7236.,10.,2.,2728.,0.,0.,9976.,0.891391806316,4.63523739284,130.
5.9,7241.,12.,3.,2720.,0.,0.,9976.,0.892007748691,3.865366911,156.
5.92,7239.,11.,7.,2716.,0.,0.,9973.,0.892029624435,4.21686731551,143.
5.94,7237.,15.,2.,2724.,0.,0.,9978.,0.89133629866,3.08996583536,195.
5.96,7237.,8.,10.,2718.,0.,0.,9973.,0.891783173371,5.79659062691,104.
5.98,7233.,14.,5.,2721.,0.,0.,9973.,0.891290271244,3.31050672176,182.
6.,7233.,19.,6.,2716.,0.,0.,9974.,0.891200909878,2.4390761744,247.
6.02,7223.,22.,5.,2720.,0.,0.,9970.,0.890325836794,2.10440652333,286.
6.04,7224.,18.,13.,2714.,0.,0.,9969.,0.890538421212,2.57266655017,234.
6.06,7212.,21.,10.,2719.,0.,0.,9962.,0.889683836812,2.20302664354,273.
6.08,7211.,21.,13.,2716.,0.,0.,9961.,0.88964977955,2.20294231127,273.
6.1,7201.,25.,16.,2717.,0.,0.,9959.,0.888594454445,1.84827646524,325.
6.12,7193.,36.,12.,2719.,0.,0.,9960.,0.887518147188,1.28197065705,468.
6.14,7188.,34.,8.,2728.,0.,0.,9958.,0.887079343728,1.35670958453,442.
6.16,7183.,32.,12.,2731.,0.,0.,9958.,0.88646228798,1.44050121797,416.
6.18,7178.,20.,20.,2737.,0.,0.,9955.,0.886112187098,2.30389168646,260.
6.2,7165.,25.,14.,2748.,0.,0.,9952.,0.884773990715,1.84032990069,325.
6.22,7162.,27.,10.,2755.,0.,0.,9954.,0.884225835936,1.7029534618,351.
6.24,7152.,29.,9.,2765.,0.,0.,9955.,0.882902530249,1.58313557148,377.
6.26,7149.,24.,8.,2777.,0.,0.,9958.,0.882266308892,1.9115770026,312.
6.28,7144.,21.,16.,2777.,0.,0.,9958.,0.881649253143,2.18313148397,273.
6.3,7139.,25.,13.,2784.,0.,0.,9961.,0.880766852892,1.83199505402,325.
6.32,7138.,21.,10.,2791.,0.,0.,9960.,0.880731896931,2.18085993526,273.
6.34,7126.,18.,15.,2795.,0.,0.,9954.,0.879781249216,2.54159027551,234.
6.36,7120.,25.,7.,2799.,0.,0.,9951.,0.87930549546,1.82895543056,325.
6.38,7122.,16.,10.,2807.,0.,0.,9955.,0.879199080038,2.85739701012,208.
6.4,7121.,10.,10.,2814.,0.,0.,9955.,0.879075631698,4.57119328483,130.
6.42,7126.,9.,6.,2818.,0.,0.,9959.,0.879339547615,5.08062849733,117.
6.44,7134.,7.,4.,2817.,0.,0.,9962.,0.880061632255,6.53760069675,91.
6.46,7131.,12.,2.,2815.,0.,0.,9960.,0.879868192353,3.81276216686,156.
6.48,7139.,8.,2.,2816.,0.,0.,9965.,0.880413308747,5.72268650685,104.
6.5,7149.,8.,0.,2812.,0.,0.,9969.,0.881292798068,5.72840318744,104.
6.52,7151.,6.,3.,2808.,0.,0.,9968.,0.881627784952,7.64077413625,78.
6.54,7157.,1.,1.,2809.,0.,0.,9968.,0.882367509006,45.8831104683,13.
6.56,7162.,2.,0.,2809.,0.,0.,9973.,0.882541258489,22.9460727207,26.
6.58,7167.,2.,1.,2806.,0.,0.,9976.,0.882891801529,22.9551868398,26.
6.6,7171.,0.,2.,2803.,0.,0.,9976.,0.88338455543,inf,0.
6.62,7175.,0.,2.,2798.,0.,0.,9975.,0.883965918584,inf,0.
6.64,7184.,0.,1.,2792.,0.,0.,9977.,0.88489730299,inf,0.
6.66,7183.,0.,1.,2788.,0.,0.,9972.,0.885217756088,inf,0.
6.68,7196.,1.,0.,2778.,0.,0.,9975.,0.886553135907,46.1007630672,13.
6.7,7206.,2.,0.,2769.,0.,0.,9977.,0.887607177805,23.0777866229,26.
6.72,7212.,0.,2.,2765.,0.,0.,9979.,0.888168191435,inf,0.
6.74,7219.,1.,0.,2759.,0.,0.,9979.,0.889030251521,46.2295730791,13.
6.76,7226.,1.,0.,2754.,0.,0.,9981.,0.889713994341,46.2651277058,13.
6.78,7227.,1.,0.,2752.,0.,0.,9980.,0.889926283141,46.2761667233,13.
6.8,7230.,1.,0.,2749.,0.,0.,9980.,0.890295700444,46.2953764231,13.
6.82,7237.,4.,0.,2743.,0.,0.,9984.,0.890800639827,11.5804083178,52.
6.84,7242.,2.,4.,2737.,0.,0.,9985.,0.891326813137,23.1744971416,26.
6.86,7244.,4.,4.,2733.,0.,0.,9985.,0.891572968015,11.5904485842,52.
6.88,7244.,9.,0.,2733.,0.,0.,9986.,0.891483685723,5.15079462862,117.
6.9,7246.,8.,4.,2726.,0.,0.,9984.,0.891908447725,5.79740491021,104.
6.92,7249.,12.,4.,2720.,0.,0.,9985.,0.89218835521,3.86614953924,156.
6.94,7248.,9.,9.,2717.,0.,0.,9983.,0.892243994645,5.15518752462,117.
6.96,7245.,16.,4.,2718.,0.,0.,9983.,0.891874688356,2.89859273716,208.
6.98,7243.,13.,9.,2715.,0.,0.,9980.,0.891896508758,3.56758603503,169.
7.,7239.,21.,9.,2710.,0.,0.,9979.,0.891493280338,2.20750717036,273.
7.02,7237.,16.,11.,2712.,0.,0.,9976.,0.891514994791,2.89742373307,208.
7.04,7237.,13.,8.,2720.,0.,0.,9978.,0.89133629866,3.56534519464,169.
7.06,7232.,17.,10.,2719.,0.,0.,9978.,0.890720479745,2.72455676157,221.
7.08,7219.,24.,13.,2720.,0.,0.,9976.,0.889297602238,1.92681147152,312.
7.1,7216.,17.,20.,2723.,0.,0.,9976.,0.888928036812,2.71907399495,221.
7.12,7197.,27.,22.,2728.,0.,0.,9974.,0.886765235502,1.70784415726,351.
7.14,7187.,34.,14.,2743.,0.,0.,9978.,0.885178109503,1.35380181453,442.
7.16,7186.,31.,15.,2750.,0.,0.,9982.,0.884700285353,1.48401338188,403.
7.18,7175.,31.,24.,2751.,0.,0.,9981.,0.883434529394,1.48189017834,403.
7.2,7167.,27.,16.,2773.,0.,0.,9983.,0.882272724838,1.6991919145,351.
7.22,7162.,31.,12.,2780.,0.,0.,9985.,0.881480618018,1.47861264958,403.
7.24,7158.,34.,11.,2783.,0.,0.,9986.,0.88090008592,1.34725895494,442.
7.26,7151.,32.,17.,2788.,0.,0.,9988.,0.879862410933,1.42977641777,416.
7.28,7140.,30.,18.,2799.,0.,0.,9987.,0.878596930999,1.52290134707,390.
7.3,7131.,21.,21.,2814.,0.,0.,9987.,0.877489455876,2.1728310336,273.
7.32,7121.,23.,10.,2835.,0.,0.,9989.,0.876083483187,1.98071048373,299.
7.34,7128.,17.,8.,2841.,0.,0.,9994.,0.876505944682,2.68107700726,221.
7.36,7121.,16.,9.,2847.,0.,0.,9993.,0.875732804318,2.84613161403,208.
7.38,7118.,15.,6.,2854.,0.,0.,9993.,0.875363867594,3.03459474099,195.
7.4,7124.,14.,5.,2851.,0.,0.,9994.,0.876014078271,3.25376657643,182.
7.42,7127.,13.,9.,2845.,0.,0.,9994.,0.876382978079,3.50553191232,169.
7.44,7123.,13.,9.,2848.,0.,0.,9993.,0.875978762134,3.50391504854,169.
7.46,7133.,11.,3.,2849.,0.,0.,9996.,0.876945283343,4.14555952126,143.
7.48,7139.,12.,4.,2846.,0.,0.,10001.,0.877244137752,3.80139126359,156.
7.5,7137.,5.,7.,2851.,0.,0.,10000.,0.87708607652,9.12169519581,65.
7.52,7143.,4.,4.,2853.,0.,0.,10004.,0.87747244448,11.4071417782,52.
7.54,7152.,3.,2.,2850.,0.,0.,10007.,0.878314648609,15.2241205759,39.
7.56,7163.,1.,1.,2841.,0.,0.,10006.,0.879753437851,45.7471787683,13.
7.58,7163.,3.,0.,2837.,0.,0.,10003.,0.880017284729,15.2536329353,39.
7.6,7163.,1.,3.,2835.,0.,0.,10002.,0.88010526886,45.7654739807,13.
7.62,7169.,3.,0.,2831.,0.,0.,10003.,0.880754420525,15.2664099558,39.
7.64,7174.,3.,0.,2827.,0.,0.,10004.,0.881280598726,15.2755303779,39.
7.66,7181.,2.,1.,2821.,0.,0.,10005.,0.882052334558,22.9333606985,26.
7.68,7188.,0.,2.,2817.,0.,0.,10007.,0.882735695498,inf,0.
7.7,7192.,1.,0.,2814.,0.,0.,10007.,0.88322692293,45.9277999924,13.
7.72,7199.,1.,0.,2806.,0.,0.,10006.,0.88417492658,45.9770961822,13.
7.74,7209.,0.,1.,2799.,0.,0.,10009.,0.885137735802,inf,0.
7.76,7208.,5.,1.,2794.,0.,0.,10008.,0.885103384234,9.20507519603,65.
7.78,7213.,2.,3.,2787.,0.,0.,10005.,0.885982939586,23.0355564292,26.
7.8,7230.,2.,0.,2775.,0.,0.,10007.,0.887893583535,23.0852331719,26.
7.82,7242.,2.,2.,2765.,0.,0.,10011.,0.889011909817,23.1143096552,26.
7.84,7248.,5.,2.,2759.,0.,0.,10014.,0.889481905187,9.25061181395,65.
7.86,7252.,5.,1.,2755.,0.,0.,10013.,0.890061670973,9.25664137812,65.
7.88,7252.,5.,2.,2750.,0.,0.,10009.,0.890417375508,9.26034070528,65.
7.9,7251.,3.,2.,2752.,0.,0.,10008.,0.890383551482,15.4333148923,39.
7.92,7252.,4.,3.,2749.,0.,0.,10008.,0.890506346069,11.5765824989,52.
7.94,7259.,6.,2.,2743.,0.,0.,10010.,0.891187813092,7.72362771347,78.
7.96,7252.,11.,7.,2739.,0.,0.,10009.,0.890417375508,4.20924577513,143.
7.98,7257.,15.,8.,2733.,0.,0.,10013.,0.890675337321,3.08767450271,195.
8.,7244.,21.,8.,2740.,0.,0.,10013.,0.889079804817,2.20153094526,273.
8.02,7246.,17.,7.,2744.,0.,0.,10014.,0.88923646316,2.72001741673,221.
8.04,7239.,15.,14.,2746.,0.,0.,10014.,0.888377416066,3.0797083757,195.
8.06,7235.,23.,7.,2750.,0.,0.,10015.,0.887797876343,2.00719519869,299.
8.08,7235.,19.,10.,2749.,0.,0.,10013.,0.887975205391,2.43024793054,247.
8.1,7232.,26.,9.,2745.,0.,0.,10012.,0.887695659897,1.77539131979,338.
8.12,7231.,20.,15.,2746.,0.,0.,10012.,0.887572914369,2.30768957736,260.
8.14,7225.,21.,17.,2752.,0.,0.,10015.,0.886570788746,2.19531814356,273.
8.16,7214.,24.,14.,2766.,0.,0.,10018.,0.884955903252,1.91740445705,312.
8.18,7215.,25.,8.,2771.,0.,0.,10019.,0.884990235254,1.84077968933,325.
8.2,7205.,32.,12.,2770.,0.,0.,10019.,0.883763637561,1.43611591104,416.
8.22,7198.,25.,14.,2781.,0.,0.,10018.,0.882993151041,1.83662575417,325.
8.24,7188.,29.,6.,2793.,0.,0.,10016.,0.881942502481,1.58141414238,377.
8.26,7193.,21.,7.,2794.,0.,0.,10015.,0.882644108436,2.18559493518,273.
8.28,7188.,23.,6.,2797.,0.,0.,10014.,0.882118644383,1.994355196,299.
8.3,7184.,20.,11.,2798.,0.,0.,10013.,0.881715808642,2.29246110247,260.
8.32,7179.,15.,10.,2806.,0.,0.,10010.,0.88136620887,3.05540285742,195.
8.34,7177.,21.,3.,2812.,0.,0.,10013.,0.880856675755,2.18116891139,273.
8.36,7175.,17.,9.,2812.,0.,0.,10013.,0.880611209216,2.69363428701,221.
8.38,7168.,19.,3.,2820.,0.,0.,10010.,0.88001573829,2.40846412585,247.
8.4,7169.,17.,3.,2821.,0.,0.,10010.,0.880138508343,2.69218837846,221.
8.42,7172.,15.,7.,2816.,0.,0.,10010.,0.880506818501,3.05242363747,195.
8.44,7176.,8.,5.,2823.,0.,0.,10012.,0.880821910318,5.72534241707,104.
8.46,7178.,6.,1.,2826.,0.,0.,10011.,0.881155411304,7.6366802313,78.
8.48,7178.,8.,1.,2822.,0.,0.,10009.,0.881331483921,5.72865464549,104.
8.5,7182.,7.,2.,2817.,0.,0.,10008.,0.881910724968,6.55133681405,91.
8.52,7187.,4.,3.,2813.,0.,0.,10007.,0.88261288864,11.4739675523,52.
8.54,7192.,4.,2.,2811.,0.,0.,10009.,0.883050436383,11.479655673,52.
8.56,7195.,2.,3.,2811.,0.,0.,10011.,0.883242293721,22.9642996368,26.
8.58,7201.,3.,1.,2809.,0.,0.,10014.,0.883714017557,15.3177096377,39.
8.6,7210.,2.,1.,2802.,0.,0.,10015.,0.884730157351,23.0029840911,26.
8.62,7210.,1.,2.,2801.,0.,0.,10014.,0.884818506678,46.0105623472,13.
8.64,7214.,1.,2.,2794.,0.,0.,10011.,0.885574691717,46.0498839693,13.
8.66,7220.,1.,0.,2791.,0.,0.,10012.,0.886222713559,46.0835811051,13.
8.68,7226.,2.,0.,2787.,0.,0.,10015.,0.886693497506,23.0540309352,26.
8.7,7230.,1.,2.,2784.,0.,0.,10017.,0.887007196809,46.1243742341,13.
8.72,7240.,1.,1.,2775.,0.,0.,10017.,0.888234039405,46.188170049,13.
8.74,7243.,0.,2.,2770.,0.,0.,10015.,0.888779546421,inf,0.
8.76,7246.,0.,2.,2767.,0.,0.,10015.,0.8891476727,inf,0.
8.78,7250.,1.,1.,2762.,0.,0.,10014.,0.889727347214,46.2658220551,13.
8.8,7255.,2.,3.,2756.,0.,0.,10016.,0.890163168544,23.1442423822,26.
8.82,7248.,7.,3.,2756.,0.,0.,10014.,0.889481905187,6.6075798671,91.
8.84,7251.,5.,5.,2753.,0.,0.,10014.,0.889850068227,9.25444070956,65.
8.86,7250.,9.,6.,2748.,0.,0.,10013.,0.889816204434,5.14116029229,117.
8.88,7250.,11.,9.,2743.,0.,0.,10013.,0.889816204434,4.20640387551,143.
8.9,7244.,10.,9.,2748.,0.,0.,10011.,0.889257425395,4.62413861205,130.
8.92,7236.,12.,10.,2749.,0.,0.,10007.,0.888630424683,3.85073184029,156.
8.94,7234.,15.,6.,2750.,0.,0.,10005.,0.888562399135,3.08034965034,195.
8.96,7232.,14.,10.,2747.,0.,0.,10003.,0.888494346385,3.300121858,182.
8.98,7233.,14.,10.,2747.,0.,0.,10004.,0.888528376161,3.30024825431,182.
9.,7232.,16.,8.,2752.,0.,0.,10008.,0.888050454326,2.88616397656,208.
9.02,7232.,19.,10.,2749.,0.,0.,10010.,0.887873021667,2.42996826983,247.
9.04,7217.,19.,17.,2753.,0.,0.,10006.,0.886385670944,2.42589762574,247.
9.06,7204.,26.,12.,2763.,0.,0.,10005.,0.884877456921,1.76975491384,338.
9.08,7196.,31.,15.,2766.,0.,0.,10008.,0.883629849188,1.48221781154,403.
9.1,7187.,30.,19.,2773.,0.,0.,10009.,0.88243652479,1.52955664297,390.
9.12,7173.,27.,19.,2790.,0.,0.,10009.,0.880717572327,1.69619680596,351.
9.14,7164.,31.,12.,2804.,0.,0.,10011.,0.879436802254,1.47518431346,403.
9.16,7152.,36.,7.,2813.,0.,0.,10008.,0.878226887353,1.2685499484,468.
9.18,7149.,30.,16.,2816.,0.,0.,10011.,0.877595435415,1.52116542139,390.
9.2,7131.,30.,14.,2832.,0.,0.,10007.,0.87573570459,1.51794188796,390.
9.22,7121.,29.,19.,2837.,0.,0.,10006.,0.874595034335,1.56823937191,377.
9.24,7106.,29.,19.,2850.,0.,0.,10004.,0.872927228122,1.56524882284,377.
9.26,7102.,26.,12.,2862.,0.,0.,10002.,0.87261030566,1.74522061132,338.
9.28,7092.,28.,10.,2871.,0.,0.,10001.,0.871468752618,1.61844196915,364.
9.3,7095.,26.,8.,2874.,0.,0.,10003.,0.871663079038,1.74332615808,338.
9.32,7101.,14.,15.,2878.,0.,0.,10008.,0.871964363408,3.23872477837,182.
9.34,7098.,17.,9.,2886.,0.,0.,10010.,0.871421834596,2.6655256117,221.
9.36,7094.,18.,14.,2885.,0.,0.,10011.,0.870843757006,2.51577085357,234.
9.38,7084.,20.,9.,2890.,0.,0.,10003.,0.870311663412,2.26281032487,260.
9.4,7077.,22.,6.,2899.,0.,0.,10004.,0.869364761246,2.05486216295,286.
9.42,7077.,16.,10.,2899.,0.,0.,10002.,0.869538599431,2.82600044815,208.
9.44,7081.,10.,8.,2906.,0.,0.,10005.,0.869769193845,4.522799808,130.
9.46,7088.,11.,4.,2907.,0.,0.,10010.,0.870194134068,4.11364499741,143.
9.48,7091.,6.,0.,2912.,0.,0.,10009.,0.87064942219,7.54562832565,78.
9.5,7095.,5.,0.,2910.,0.,0.,10010.,0.871053524437,9.05895665415,65.
9.52,7099.,2.,0.,2908.,0.,0.,10009.,0.87163168074,22.6624236992,26.
9.54,7110.,0.,2.,2900.,0.,0.,10012.,0.872720705458,inf,0.
9.56,7118.,0.,0.,2894.,0.,0.,10012.,0.873702669683,inf,0.
9.58,7125.,1.,0.,2889.,0.,0.,10015.,0.874299912777,45.4635954644,13.
9.6,7132.,2.,0.,2883.,0.,0.,10017.,0.874984139369,22.7495876236,26.
9.62,7137.,2.,1.,2872.,0.,0.,10012.,0.876034834719,22.7769057027,26.
9.64,7136.,3.,0.,2870.,0.,0.,10009.,0.876174626534,15.1870268599,39.
9.66,7137.,2.,1.,2867.,0.,0.,10007.,0.876472545738,22.7882861892,26.
9.68,7143.,2.,1.,2862.,0.,0.,10008.,0.877121736069,22.8051651378,26.
9.7,7148.,5.,0.,2855.,0.,0.,10008.,0.877735709004,9.12845137365,65.
9.72,7157.,2.,2.,2846.,0.,0.,10007.,0.878928682899,22.8521457554,26.
9.74,7157.,4.,1.,2840.,0.,0.,10002.,0.879368059365,11.4317847717,52.
9.76,7164.,2.,2.,2838.,0.,0.,10006.,0.879876256983,22.8767826815,26.
9.78,7168.,2.,1.,2833.,0.,0.,10004.,0.880543536613,22.894131952,26.
9.8,7171.,3.,0.,2831.,0.,0.,10005.,0.880824020486,15.2676163551,39.
9.82,7171.,3.,1.,2826.,0.,0.,10001.,0.881176314865,15.273722791,39.
9.84,7176.,3.,1.,2824.,0.,0.,10004.,0.881526286096,15.279788959,39.
9.86,7184.,2.,3.,2814.,0.,0.,10003.,0.882597260015,22.9475287604,26.
9.88,7187.,5.,2.,2809.,0.,0.,10003.,0.882965827913,9.1828446103,65.
9.9,7184.,6.,5.,2804.,0.,0.,9999.,0.882950334227,7.65223622997,78.
9.92,7184.,8.,2.,2801.,0.,0.,9995.,0.883303691039,5.74147399175,104.
9.94,7185.,5.,6.,2799.,0.,0.,9995.,0.883426645339,9.18763711152,65.
9.96,7185.,11.,2.,2798.,0.,0.,9996.,0.883338267323,4.17578090007,143.
9.98,7190.,12.,4.,2792.,0.,0.,9998.,0.883776151361,3.8296966559,156.
10.,7189.,9.,10.,2788.,0.,0.,9996.,0.883830035322,5.10657353741,117.
