t,s,e,i,r,c,o,n,reff,coal,reportr
5.,6600.,18.,9.,3373.,0.,0.,10000.,0.903601293624,2.61040373714,234.
5.02,6589.,25.,9.,3377.,0.,0.,10000.,0.902095291468,1.87635820625,325.
5.04,6593.,19.,15.,3373.,0.,0.,10000.,0.902642928616,2.47039117305,247.
5.06,6590.,18.,18.,3378.,0.,0.,10004.,0.901871452174,2.60540641739,234.
5.08,6568.,39.,12.,3385.,0.,0.,10004.,0.898860652182,1.19848086958,507.
5.1,6549.,42.,19.,3393.,0.,0.,10003.,0.896350014987,1.10976668522,546.
5.12,6546.,29.,24.,3404.,0.,0.,10003.,0.895939410308,1.60651204607,377.
5.14,6524.,36.,20.,3422.,0.,0.,10002.,0.893017584302,1.28991428844,468.
5.16,6508.,41.,14.,3436.,0.,0.,9999.,0.891094748703,1.13016894957,533.
5.18,6506.,35.,20.,3438.,0.,0.,9999.,0.890820902745,1.32350534122,455.
5.2,6492.,34.,17.,3452.,0.,0.,9995.,0.889259720498,1.36004427841,442.
5.22,6486.,29.,17.,3464.,0.,0.,9996.,0.888348974506,1.59290160946,377.
5.24,6480.,28.,15.,3473.,0.,0.,9996.,0.887527190071,1.64826478156,364.
5.26,6469.,33.,11.,3484.,0.,0.,9997.,0.885931956626,1.39601399226,429.
5.28,6463.,26.,12.,3499.,0.,0.,10000.,0.884844721317,1.76968944263,338.
5.3,6465.,23.,16.,3496.,0.,0.,10000.,0.885118539891,2.00113756845,299.
5.32,6457.,23.,9.,3511.,0.,0.,10000.,0.884023265596,1.99866129613,299.
5.34,6451.,23.,8.,3514.,0.,0.,9996.,0.883555231967,1.99760313314,299.
5.36,6453.,16.,8.,3523.,0.,0.,10000.,0.883475628448,2.87129579246,208.
5.38,6444.,17.,8.,3529.,0.,0.,9998.,0.882419928851,2.69916684119,221.
5.4,6450.,17.,4.,3529.,0.,0.,10000.,0.883064900587,2.70113969591,221.
5.42,6451.,14.,4.,3529.,0.,0.,9998.,0.883378485571,3.28112008926,182.
5.44,6462.,12.,1.,3522.,0.,0.,9997.,0.884973304021,3.83488431743,156.
5.46,6469.,6.,2.,3516.,0.,0.,9993.,0.886286577643,7.68115033957,78.
5.48,6472.,3.,2.,3513.,0.,0.,9990.,0.886963868768,15.374040392,39.
5.5,6483.,6.,0.,3506.,0.,0.,9995.,0.888026920516,7.69623331113,78.
5.52,6495.,5.,1.,3496.,0.,0.,9997.,0.889492666298,9.2507237295,65.
5.54,6510.,2.,1.,3489.,0.,0.,10002.,0.891101237554,23.1686321764,26.
5.56,6514.,3.,0.,3484.,0.,0.,10001.,0.891737921157,15.4567906334,39.
5.58,6519.,2.,1.,3480.,0.,0.,10002.,0.892333174749,23.2006625435,26.
5.6,6526.,0.,2.,3470.,0.,0.,9998.,0.89364873614,inf,0.
5.62,6531.,1.,0.,3467.,0.,0.,9999.,0.894243977225,46.5006868157,13.
5.64,6541.,1.,0.,3461.,0.,0.,10003.,0.895255069175,46.5532635971,13.
5.66,6548.,0.,1.,3451.,0.,0.,10000.,0.896482010705,inf,0.
5.68,6554.,0.,0.,3446.,0.,0.,10000.,0.897303466426,inf,0.
5.7,6560.,0.,1.,3439.,0.,0.,10000.,0.898124922148,inf,0.
5.72,6567.,0.,0.,3434.,0.,0.,10001.,0.898993387817,inf,0.
5.74,6577.,1.,0.,3424.,0.,0.,10002.,0.90027232556,46.8141609291,13.
5.76,6585.,1.,0.,3418.,0.,0.,10004.,0.901187179449,46.8617333313,13.
5.78,6590.,2.,0.,3413.,0.,0.,10005.,0.9017813101,23.4463140626,26.
5.8,6600.,2.,0.,3405.,0.,0.,10007.,0.902969215173,23.4771995945,26.
5.82,6609.,3.,0.,3393.,0.,0.,10005.,0.904381286563,15.6759423004,39.
5.84,6616.,5.,0.,3385.,0.,0.,10006.,0.905248692999,9.41458640719,65.
5.86,6619.,6.,1.,3377.,0.,0.,10003.,0.905930790838,7.85140018726,78.
5.88,6624.,4.,3.,3371.,0.,0.,10002.,0.906705775355,11.7871750796,52.
5.9,6624.,8.,3.,3368.,0.,0.,10003.,0.90661513197,5.89299835781,104.
5.92,6628.,8.,4.,3363.,0.,0.,10003.,0.907162604876,5.8965569317,104.
5.94,6625.,8.,7.,3361.,0.,0.,10001.,0.906933332464,5.89506666101,104.
5.96,6626.,14.,2.,3358.,0.,0.,10000.,0.907160935084,3.36945490174,182.
5.98,6629.,10.,6.,3358.,0.,0.,10003.,0.907299473103,4.71795726013,130.
6.,6630.,14.,5.,3353.,0.,0.,10002.,0.907527066818,3.37081481961,182.
6.02,6633.,16.,8.,3348.,0.,0.,10005.,0.907665467359,2.94991276892,208.
6.04,6633.,17.,12.,3346.,0.,0.,10008.,0.907393385384,2.77555623764,221.
6.06,6633.,15.,10.,3348.,0.,0.,10006.,0.907574755239,3.1462591515,195.
6.08,6639.,9.,17.,3346.,0.,0.,10011.,0.907942019592,5.24588722431,117.
6.1,6632.,15.,16.,3348.,0.,0.,10011.,0.906984707627,3.14421365311,195.
6.12,6622.,23.,17.,3348.,0.,0.,10010.,0.905707590346,2.047686726,299.
6.14,6604.,31.,16.,3356.,0.,0.,10007.,0.903516469243,1.51557601292,403.
6.16,6591.,31.,20.,3363.,0.,0.,10005.,0.901918150966,1.51289496291,403.
6.18,6580.,34.,21.,3368.,0.,0.,10003.,0.900592930007,1.37737742236,442.
6.2,6561.,41.,21.,3386.,0.,0.,10009.,0.897454122724,1.13823449711,533.
6.22,6554.,33.,20.,3402.,0.,0.,10009.,0.896496619469,1.41266133977,429.
6.24,6547.,31.,23.,3409.,0.,0.,10010.,0.895449651766,1.50204457716,403.
6.26,6532.,41.,10.,3425.,0.,0.,10008.,0.893576600833,1.13331666447,533.
6.28,6529.,33.,21.,3426.,0.,0.,10009.,0.893076964985,1.40727279331,429.
6.3,6515.,32.,24.,3438.,0.,0.,10009.,0.891161958474,1.44813818252,416.
6.32,6504.,33.,19.,3452.,0.,0.,10008.,0.889746205116,1.40202432321,429.
6.34,6493.,28.,13.,3471.,0.,0.,10005.,0.888507746051,1.6500858141,364.
6.36,6490.,22.,12.,3482.,0.,0.,10006.,0.888008466984,2.09892910378,286.
6.38,6475.,28.,7.,3491.,0.,0.,10001.,0.886398992861,1.64616955817,364.
6.4,6482.,17.,7.,3495.,0.,0.,10001.,0.887357262042,2.71426927213,221.
6.42,6489.,14.,6.,3495.,0.,0.,10004.,0.88804914312,3.29846824587,182.
6.44,6492.,13.,7.,3492.,0.,0.,10004.,0.888459706755,3.55383882702,169.
6.46,6498.,9.,6.,3491.,0.,0.,10004.,0.889280834025,5.13806704104,117.
6.48,6490.,13.,4.,3497.,0.,0.,10004.,0.888185997665,3.55274399066,169.
6.5,6494.,6.,7.,3496.,0.,0.,10003.,0.888822262533,7.70312627528,78.
6.52,6501.,5.,2.,3495.,0.,0.,10003.,0.889780340118,9.25371553722,65.
6.54,6505.,3.,3.,3491.,0.,0.,10002.,0.890416828002,15.4338916854,39.
6.56,6510.,1.,3.,3489.,0.,0.,10003.,0.891012154156,46.3326320161,13.
6.58,6517.,1.,0.,3485.,0.,0.,10003.,0.891970231741,46.3824520505,13.
6.6,6523.,1.,0.,3480.,0.,0.,10004.,0.892702197653,46.4205142779,13.
6.62,6525.,1.,0.,3478.,0.,0.,10004.,0.892975906743,46.4347471506,13.
6.64,6531.,0.,0.,3472.,0.,0.,10003.,0.893886386911,inf,0.
6.66,6540.,1.,0.,3460.,0.,0.,10001.,0.895297206689,46.5554547478,13.
6.68,6555.,2.,0.,3449.,0.,0.,10006.,0.896902234372,23.3194580937,26.
6.7,6564.,0.,0.,3444.,0.,0.,10008.,0.897954195938,inf,0.
6.72,6567.,0.,0.,3438.,0.,0.,10005.,0.898633970171,inf,0.
6.74,6576.,0.,0.,3428.,0.,0.,10004.,0.899955488543,inf,0.
6.76,6588.,0.,0.,3418.,0.,0.,10006.,0.901417531662,inf,0.
6.78,6602.,1.,0.,3408.,0.,0.,10011.,0.902881942062,46.9498609872,13.
6.8,6604.,2.,1.,3401.,0.,0.,10008.,0.90342618982,23.4890809353,26.
6.82,6610.,1.,2.,3398.,0.,0.,10011.,0.903976012879,47.0067526697,13.
6.84,6609.,8.,3.,3392.,0.,0.,10012.,0.903748978432,5.87436835981,104.
6.86,6610.,7.,4.,3392.,0.,0.,10013.,0.903795452405,6.71390907501,91.
6.88,6614.,5.,5.,3389.,0.,0.,10013.,0.904342378549,9.40516073691,65.
6.9,6612.,7.,5.,3389.,0.,0.,10013.,0.904068915477,6.71594051497,91.
6.92,6606.,7.,6.,3392.,0.,0.,10011.,0.90342897747,6.71118668978,91.
6.94,6608.,6.,6.,3391.,0.,0.,10011.,0.903702495175,7.83208829151,78.
6.96,6602.,10.,6.,3392.,0.,0.,10010.,0.902972140058,4.6954551283,130.
6.98,6600.,12.,9.,3388.,0.,0.,10009.,0.902788783719,3.91208472945,156.
7.,6595.,19.,10.,3385.,0.,0.,10009.,0.902104852822,2.46891854457,247.
7.02,6592.,16.,12.,3391.,0.,0.,10011.,0.90151435354,2.929921649,208.
7.04,6594.,17.,6.,3393.,0.,0.,10010.,0.901877959943,2.75868552453,221.
7.06,6593.,15.,10.,3389.,0.,0.,10007.,0.902011520551,3.12697327124,195.
7.08,6586.,22.,13.,3387.,0.,0.,10008.,0.900963792573,2.12955078245,286.
7.1,6584.,24.,14.,3384.,0.,0.,10006.,0.9008702229,1.95188548295,312.
7.12,6581.,27.,13.,3390.,0.,0.,10011.,0.900010006166,1.73335260447,351.
7.14,6566.,32.,8.,3402.,0.,0.,10008.,0.898227795633,1.4596201679,416.
7.16,6558.,33.,13.,3403.,0.,0.,10007.,0.897223047441,1.41380601415,429.
7.18,6541.,34.,14.,3414.,0.,0.,10003.,0.895255069175,1.36921363521,442.
7.2,6537.,29.,12.,3423.,0.,0.,10001.,0.894886519897,1.60462410464,377.
7.22,6538.,29.,9.,3429.,0.,0.,10005.,0.894665585043,1.60422794559,377.
7.24,6529.,35.,10.,3433.,0.,0.,10007.,0.893255455434,1.32712239093,455.
7.26,6531.,26.,12.,3438.,0.,0.,10007.,0.893529082469,1.78705816494,338.
7.28,6517.,29.,11.,3447.,0.,0.,10004.,0.891881070382,1.59923502275,377.
7.3,6518.,25.,15.,3447.,0.,0.,10005.,0.891928767713,1.85521183684,325.
7.32,6515.,25.,10.,3457.,0.,0.,10007.,0.89134006619,1.85398733768,325.
7.34,6504.,25.,2.,3472.,0.,0.,10003.,0.890190944797,1.85159716518,325.
7.36,6505.,13.,17.,3467.,0.,0.,10002.,0.890416828002,3.56166731201,169.
7.38,6501.,16.,8.,3475.,0.,0.,10000.,0.89004727422,2.89265364121,208.
7.4,6502.,15.,3.,3482.,0.,0.,10002.,0.89000618227,3.0853547652,195.
7.42,6510.,13.,4.,3476.,0.,0.,10003.,0.891012154156,3.56404861662,169.
7.44,6512.,8.,6.,3478.,0.,0.,10004.,0.891196797657,5.79277918477,104.
7.46,6515.,8.,4.,3479.,0.,0.,10006.,0.891429146748,5.79428945387,104.
7.48,6516.,8.,3.,3478.,0.,0.,10005.,0.89165508598,5.79575805887,104.
7.5,6521.,4.,2.,3477.,0.,0.,10004.,0.892428488563,11.6015703513,52.
7.52,6526.,3.,1.,3477.,0.,0.,10007.,0.892845014882,15.475980258,39.
7.54,6532.,1.,2.,3473.,0.,0.,10008.,0.893576600833,46.4659832433,13.
7.56,6537.,1.,2.,3464.,0.,0.,10004.,0.894618161284,46.5201443868,13.
7.58,6540.,1.,0.,3463.,0.,0.,10004.,0.895028724919,46.5414936958,13.
7.6,6549.,1.,1.,3455.,0.,0.,10006.,0.896081271229,46.5962261039,13.
7.62,6554.,0.,2.,3446.,0.,0.,10002.,0.897124041618,inf,0.
7.64,6562.,1.,0.,3444.,0.,0.,10007.,0.89777030151,46.6840556785,13.
7.66,6569.,1.,0.,3439.,0.,0.,10009.,0.898548412159,46.7245174323,13.
7.68,6577.,1.,1.,3432.,0.,0.,10011.,0.899462970757,46.7720744794,13.
7.7,6586.,1.,1.,3425.,0.,0.,10013.,0.900513895543,46.8267225682,13.
7.72,6598.,3.,0.,3412.,0.,0.,10013.,0.902154673974,15.6373476822,39.
7.74,6605.,3.,0.,3407.,0.,0.,10015.,0.902931442894,15.6508116768,39.
7.76,6615.,3.,1.,3401.,0.,0.,10020.,0.903847238451,15.6666854665,39.
7.78,6620.,1.,4.,3393.,0.,0.,10018.,0.904710999563,47.0449719773,13.
7.8,6627.,2.,2.,3388.,0.,0.,10019.,0.9055772476,23.5450084376,26.
7.82,6628.,3.,4.,3382.,0.,0.,10017.,0.905894732612,15.7021753653,39.
7.84,6630.,5.,2.,3378.,0.,0.,10015.,0.906349048658,9.42603010605,65.
7.86,6635.,6.,3.,3372.,0.,0.,10016.,0.906942011448,7.86016409921,78.
7.88,6637.,8.,4.,3367.,0.,0.,10016.,0.907215392612,5.89690005198,104.
7.9,6640.,7.,8.,3361.,0.,0.,10016.,0.907625464358,6.74236059237,91.
7.92,6645.,9.,7.,3359.,0.,0.,10020.,0.907946318897,5.24591206474,117.
7.94,6648.,6.,7.,3360.,0.,0.,10021.,0.908265581674,7.87163504118,78.
7.96,6644.,17.,4.,3356.,0.,0.,10021.,0.907719092155,2.77655251718,221.
7.98,6649.,15.,7.,3350.,0.,0.,10021.,0.908402204054,3.14912764072,195.
8.,6643.,15.,12.,3351.,0.,0.,10021.,0.907582469775,3.14628589522,195.
8.02,6637.,26.,2.,3353.,0.,0.,10018.,0.907034275544,1.81406855109,338.
8.04,6633.,23.,8.,3347.,0.,0.,10011.,0.907121466479,2.05088331552,299.
8.06,6629.,21.,15.,3348.,0.,0.,10013.,0.906393351588,2.24440258488,273.
8.08,6615.,30.,10.,3358.,0.,0.,10013.,0.904479110085,1.56776379081,390.
8.1,6607.,33.,14.,3363.,0.,0.,10017.,0.903024516954,1.42294772368,429.
8.12,6591.,35.,23.,3367.,0.,0.,10016.,0.900927625841,1.33852104411,455.
8.14,6586.,29.,20.,3379.,0.,0.,10014.,0.900423970049,1.61455332561,377.
8.16,6570.,38.,21.,3387.,0.,0.,10016.,0.898057123619,1.22892027443,494.
8.18,6546.,43.,24.,3400.,0.,0.,10013.,0.895044634106,1.08237955752,559.
8.2,6533.,35.,30.,3416.,0.,0.,10014.,0.89317792231,1.32700719886,455.
8.22,6513.,39.,24.,3436.,0.,0.,10012.,0.890621439935,1.18749525325,507.
8.24,6512.,42.,17.,3447.,0.,0.,10018.,0.889951363921,1.10184454581,546.
8.26,6505.,35.,15.,3462.,0.,0.,10017.,0.889083469469,1.32092401178,455.
8.28,6487.,33.,16.,3477.,0.,0.,10013.,0.886977473487,1.39766147337,429.
8.3,6485.,26.,9.,3491.,0.,0.,10011.,0.886881156357,1.77376231271,338.
8.32,6487.,17.,13.,3496.,0.,0.,10013.,0.886977473487,2.71310756596,221.
8.34,6489.,15.,6.,3505.,0.,0.,10015.,0.887073752149,3.07518900745,195.
8.36,6492.,11.,4.,3508.,0.,0.,10015.,0.88748386484,4.19537827015,143.
8.38,6499.,11.,6.,3499.,0.,0.,10015.,0.888440794454,4.19990193742,143.
8.4,6490.,15.,9.,3502.,0.,0.,10016.,0.88712187706,3.07535584048,195.
8.42,6494.,18.,5.,3501.,0.,0.,10018.,0.887491424647,2.56386411565,234.
8.44,6499.,14.,8.,3498.,0.,0.,10019.,0.888086092071,3.29860548484,182.
8.46,6499.,13.,4.,3503.,0.,0.,10019.,0.888086092071,3.55234436828,169.
8.48,6501.,8.,5.,3504.,0.,0.,10018.,0.888448067698,5.77491244004,104.
8.5,6507.,6.,2.,3504.,0.,0.,10019.,0.889179289292,7.70622050719,78.
8.52,6515.,3.,2.,3497.,0.,0.,10017.,0.890450238831,15.4344708064,39.
8.54,6524.,2.,3.,3489.,0.,0.,10018.,0.891591323437,23.1813744094,26.
8.56,6530.,4.,0.,3485.,0.,0.,10019.,0.892322231301,11.6001890069,52.
8.58,6535.,1.,3.,3477.,0.,0.,10016.,0.89327295325,46.450193569,13.
8.6,6534.,3.,0.,3475.,0.,0.,10012.,0.893493088981,15.4872135423,39.
8.62,6546.,2.,1.,3464.,0.,0.,10013.,0.895044634106,23.2711604868,26.
8.64,6552.,0.,0.,3461.,0.,0.,10013.,0.895865023322,inf,0.
8.66,6563.,0.,0.,3454.,0.,0.,10017.,0.897010731764,inf,0.
8.68,6572.,1.,0.,3444.,0.,0.,10017.,0.898240824189,46.7085228579,13.
8.7,6575.,1.,1.,3440.,0.,0.,10017.,0.898650854998,46.7298444599,13.
8.72,6582.,2.,0.,3438.,0.,0.,10022.,0.89915877715,23.3781282059,26.
8.74,6593.,1.,1.,3427.,0.,0.,10022.,0.900661473374,46.8343966155,13.
8.76,6602.,1.,0.,3422.,0.,0.,10025.,0.901621059549,46.8842950966,13.
8.78,6605.,1.,1.,3415.,0.,0.,10022.,0.902300778346,46.919640474,13.
8.8,6618.,1.,1.,3403.,0.,0.,10023.,0.903986491857,47.0072975766,13.
8.82,6633.,2.,0.,3390.,0.,0.,10025.,0.905854663434,23.5522212493,26.
8.84,6633.,2.,2.,3386.,0.,0.,10023.,0.906035418629,23.5569208844,26.
8.86,6637.,3.,3.,3381.,0.,0.,10024.,0.906491357981,15.7125168717,39.
8.88,6634.,9.,2.,3373.,0.,0.,10018.,0.906624285665,5.23827365051,117.
8.9,6637.,10.,1.,3368.,0.,0.,10016.,0.907215392612,4.71752004158,130.
8.92,6642.,6.,4.,3363.,0.,0.,10015.,0.907989499425,7.86924232835,78.
8.94,6642.,5.,6.,3356.,0.,0.,10009.,0.908533803252,9.44875155382,65.
8.96,6643.,12.,4.,3353.,0.,0.,10012.,0.908398314983,3.93639269826,156.
8.98,6641.,15.,4.,3355.,0.,0.,10015.,0.907852795195,3.14722302334,195.
9.,6639.,17.,9.,3349.,0.,0.,10014.,0.907670017789,2.77640240735,221.
9.02,6635.,19.,9.,3351.,0.,0.,10014.,0.907123146261,2.48265282135,247.
9.04,6627.,20.,13.,3354.,0.,0.,10014.,0.906029403206,2.35567644834,260.
9.06,6624.,23.,16.,3353.,0.,0.,10016.,0.905438415046,2.04707815576,299.
9.08,6620.,29.,8.,3363.,0.,0.,10020.,0.904530418525,1.62191661253,377.
9.1,6616.,30.,9.,3364.,0.,0.,10019.,0.904074101422,1.5670617758,390.
9.12,6611.,27.,20.,3362.,0.,0.,10020.,0.903300694391,1.73969022624,351.
9.14,6610.,25.,18.,3367.,0.,0.,10020.,0.903164058376,1.87858124142,325.
9.16,6599.,28.,16.,3376.,0.,0.,10019.,0.901751057328,1.67468053504,364.
9.18,6581.,39.,17.,3385.,0.,0.,10022.,0.899022168402,1.19869622454,507.
9.2,6574.,38.,20.,3393.,0.,0.,10025.,0.897797159266,1.22856453373,494.
9.22,6560.,36.,21.,3408.,0.,0.,10025.,0.895885209125,1.29405641318,468.
9.24,6553.,28.,28.,3415.,0.,0.,10024.,0.895018512709,1.66217723789,364.
9.26,6533.,36.,28.,3427.,0.,0.,10024.,0.892286882882,1.28885883083,468.
9.28,6531.,22.,19.,3455.,0.,0.,10027.,0.891746836369,2.1077652496,286.
9.3,6528.,17.,18.,3460.,0.,0.,10023.,0.891692931225,2.72753131904,221.
9.32,6522.,23.,9.,3474.,0.,0.,10028.,0.890429167576,2.01314420495,299.
9.34,6530.,20.,7.,3469.,0.,0.,10026.,0.891699225554,2.31841798644,260.
9.36,6531.,21.,3.,3473.,0.,0.,10028.,0.891657910677,2.20791482644,273.
9.38,6539.,20.,3.,3467.,0.,0.,10029.,0.892661109904,2.32091888575,260.
9.4,6543.,15.,0.,3471.,0.,0.,10029.,0.893207163496,3.09645150012,195.
9.42,6548.,7.,6.,3471.,0.,0.,10032.,0.893622418964,6.63833796945,91.
9.44,6541.,14.,2.,3472.,0.,0.,10029.,0.8929341367,3.31661250774,182.
9.46,6546.,13.,1.,3470.,0.,0.,10030.,0.893527609303,3.57411043721,169.
9.48,6551.,8.,7.,3465.,0.,0.,10031.,0.894120963578,5.81178626326,104.
9.5,6556.,5.,1.,3470.,0.,0.,10032.,0.894714199561,9.30502767544,65.
9.52,6563.,2.,2.,3467.,0.,0.,10034.,0.895490980674,23.2827654975,26.
9.54,6569.,0.,2.,3462.,0.,0.,10033.,0.896398989066,inf,0.
9.56,6582.,0.,0.,3455.,0.,0.,10037.,0.897815010919,inf,0.
9.58,6592.,0.,0.,3446.,0.,0.,10038.,0.899089479307,inf,0.
9.6,6596.,0.,0.,3443.,0.,0.,10039.,0.899545429302,inf,0.
9.62,6602.,0.,1.,3437.,0.,0.,10040.,0.900274016133,inf,0.
9.64,6605.,1.,3.,3428.,0.,0.,10037.,0.900952316488,46.8495204574,13.
9.66,6610.,1.,1.,3421.,0.,0.,10033.,0.90199380693,46.9036779604,13.
9.68,6619.,0.,2.,3412.,0.,0.,10033.,0.903221937681,inf,0.
9.7,6625.,4.,1.,3406.,0.,0.,10036.,0.903770452169,11.7490158782,52.
9.72,6634.,0.,4.,3401.,0.,0.,10039.,0.904727771072,inf,0.
9.74,6645.,1.,0.,3394.,0.,0.,10040.,0.906137660892,47.1191583664,13.
9.76,6654.,2.,0.,3385.,0.,0.,10041.,0.907274569383,23.589138804,26.
9.78,6661.,1.,1.,3374.,0.,0.,10037.,0.908590973524,47.2467306232,13.
9.8,6662.,2.,1.,3372.,0.,0.,10037.,0.908727378114,23.626911831,26.
9.82,6669.,5.,1.,3363.,0.,0.,10038.,0.909591586393,9.45975249849,65.
9.84,6666.,6.,2.,3360.,0.,0.,10034.,0.909544854057,7.88272206849,78.
9.86,6667.,8.,2.,3353.,0.,0.,10030.,0.910044083596,5.91528654338,104.
9.88,6672.,7.,5.,3347.,0.,0.,10031.,0.910635791329,6.7647230213,91.
9.9,6679.,7.,3.,3338.,0.,0.,10027.,0.911954849197,6.77452173689,91.
9.92,6681.,10.,3.,3331.,0.,0.,10025.,0.912409921061,4.74453158952,130.
9.94,6681.,9.,5.,3328.,0.,0.,10023.,0.9125919843,5.27275368707,117.
9.96,6679.,14.,1.,3330.,0.,0.,10024.,0.912227780617,3.38827461372,182.
9.98,6681.,10.,7.,3325.,0.,0.,10023.,0.9125919843,4.74547831836,130.
10.,6676.,14.,5.,3324.,0.,0.,10019.,0.912273080576,3.38844287071,182.
