t,prevalence
5.,3
5.02,3
5.04,4
5.06,4
5.08,8
5.1,2
5.12,5
5.14,9
5.16,14
5.18,12
5.2,4
5.22,10
5.24,8
5.26,10
5.28,7
5.3,9
5.32,13
5.34,6
5.36,6
5.38,6
5.4,6
5.42,4
5.44,7
5.46,0
5.48,2
5.5,2
5.52,2
5.54,1
5.56,0
5.58,0
5.6,2
5.62,1
5.64,0
5.66,0
5.68,0
5.7,0
5.72,0
5.74,0
5.76,0
5.78,0
5.8,0
5.82,1
5.84,2
5.86,0
5.88,2
5.9,3
5.92,3
5.94,5
5.96,5
5.98,5
6.,5
6.02,2
6.04,2
6.06,7
6.08,12
6.1,11
6.12,5
6.14,9
6.16,2
6.18,5
6.2,7
6.22,7
6.24,6
6.26,8
6.28,12
6.3,5
6.32,3
6.34,4
6.36,7
6.38,5
6.4,4
6.42,2
6.44,6
6.46,3
6.48,3
6.5,2
6.52,0
6.54,0
6.56,0
6.58,0
6.6,0
6.62,0
6.64,0
6.66,0
6.68,0
6.7,0
6.72,0
6.74,0
6.76,0
6.78,1
6.8,1
6.82,2
6.84,1
6.86,0
6.88,1
6.9,2
6.92,0
6.94,3
6.96,3
6.98,6
7.,7
7.02,4
7.04,6
7.06,4
7.08,4
7.1,17
7.12,8
7.14,8
7.16,8
7.18,12
7.2,5
7.22,8
7.24,11
7.26,3
7.28,13
7.3,3
7.32,4
7.34,4
7.36,4
7.38,2
7.4,1
7.42,2
7.44,3
7.46,0
7.48,0
7.5,1
7.52,3
7.54,1
7.56,5
7.58,1
7.6,0
7.62,0
7.64,1
7.66,2
7.68,1
7.7,0
7.72,1
7.74,0
7.76,0
7.78,1
7.8,1
7.82,1
7.84,2
7.86,2
7.88,2
7.9,0
7.92,1
7.94,3
7.96,1
7.98,6
8.,1
8.02,9
8.04,3
8.06,3
8.08,7
8.1,6
8.12,12
8.14,7
8.16,9
8.18,13
8.2,13
8.22,10
8.24,8
8.26,9
8.28,8
8.3,5
8.32,10
8.34,5
8.36,3
8.38,5
8.4,6
8.42,1
8.44,2
8.46,2
8.48,1
8.5,1
8.52,0
8.54,0
8.56,0
8.58,1
8.6,0
8.62,0
8.64,0
8.66,0
8.68,0
8.7,0
8.72,0
8.74,0
8.76,0
8.78,0
8.8,0
8.82,0
8.84,0
8.86,1
8.88,1
8.9,2
8.92,4
8.94,2
8.96,1
8.98,2
9.,2
9.02,3
9.04,7
9.06,9
9.08,5
9.1,8
9.12,6
9.14,8
9.16,9
9.18,3
9.2,5
9.22,5
9.24,4
9.26,4
9.28,10
9.3,4
9.32,9
9.34,2
9.36,6
9.38,2
9.4,0
9.42,5
9.44,3
9.46,4
9.48,2
9.5,1
9.52,0
9.54,0
9.56,1
9.58,1
9.6,1
9.62,0
9.64,0
9.66,0
9.68,0
9.7,1
9.72,1
9.74,3
9.76,0
9.78,2
9.8,1
9.82,1
9.84,2
9.86,1
9.88,1
9.9,5
9.92,1
9.94,2
9.96,6
9.98,6
10.,4
