t,s,e,i,r,c,o,n,reff,coal,reportr
5.,6383.,38.,19.,3560.,0.,0.,10000.,0.806722398076,1.10393591316,494.
5.02,6389.,31.,14.,3572.,0.,0.,10006.,0.806996516693,1.35367157639,403.
5.04,6381.,27.,18.,3578.,0.,0.,10004.,0.806147167034,1.5525797291,351.
5.06,6373.,27.,15.,3588.,0.,0.,10003.,0.805216972107,1.55078824258,351.
5.08,6368.,25.,12.,3596.,0.,0.,10001.,0.804746132147,1.67387195487,325.
5.1,6356.,31.,12.,3598.,0.,0.,9997.,0.803551039019,1.34789206545,403.
5.12,6353.,27.,12.,3604.,0.,0.,9996.,0.80325211629,1.54700407582,351.
5.14,6345.,27.,15.,3613.,0.,0.,10000.,0.801919726742,1.54443799224,351.
5.16,6332.,31.,23.,3611.,0.,0.,9997.,0.80051686266,1.3428024793,403.
5.18,6317.,36.,20.,3622.,0.,0.,9995.,0.798780306438,1.15379377597,468.
5.2,6307.,31.,23.,3634.,0.,0.,9995.,0.797515813314,1.33776846104,403.
5.22,6303.,35.,10.,3647.,0.,0.,9995.,0.797010016065,1.18412916672,455.
5.24,6299.,27.,17.,3654.,0.,0.,9997.,0.796344870167,1.53370123143,351.
5.26,6291.,25.,15.,3664.,0.,0.,9995.,0.795492624316,1.65462465858,325.
5.28,6280.,28.,13.,3675.,0.,0.,9996.,0.794022239934,1.47461273131,364.
5.3,6281.,27.,16.,3665.,0.,0.,9989.,0.794705192838,1.53054333436,351.
5.32,6271.,28.,22.,3668.,0.,0.,9989.,0.793439940183,1.47353131748,364.
5.34,6272.,18.,21.,3679.,0.,0.,9990.,0.793487029366,2.29229586261,234.
5.36,6256.,30.,7.,3696.,0.,0.,9989.,0.7915420612,1.37200623941,390.
5.38,6254.,25.,11.,3695.,0.,0.,9985.,0.79160600176,1.64654048366,325.
5.4,6252.,18.,13.,3704.,0.,0.,9987.,0.791194373267,2.28567263388,234.
5.42,6254.,14.,7.,3710.,0.,0.,9985.,0.79160600176,2.94025086368,182.
5.44,6253.,14.,6.,3710.,0.,0.,9983.,0.791637991254,2.9403696818,182.
5.46,6253.,11.,3.,3718.,0.,0.,9985.,0.791479425808,3.74153910382,143.
5.48,6260.,10.,1.,3715.,0.,0.,9986.,0.792286109837,4.11988777115,130.
5.5,6264.,10.,4.,3707.,0.,0.,9985.,0.792871761276,4.12293315864,130.
5.52,6272.,5.,2.,3708.,0.,0.,9987.,0.793725385337,8.25474400751,65.
5.54,6285.,2.,2.,3696.,0.,0.,9985.,0.795529856261,20.6837762628,26.
5.56,6288.,3.,0.,3693.,0.,0.,9984.,0.795989302625,13.7971479122,39.
5.58,6302.,2.,0.,3685.,0.,0.,9989.,0.797362223415,20.7314178088,26.
5.6,6309.,0.,2.,3677.,0.,0.,9988.,0.798327820968,inf,0.
5.62,6313.,3.,1.,3673.,0.,0.,9990.,0.79867404598,13.8436834637,39.
5.64,6318.,1.,1.,3668.,0.,0.,9988.,0.799466662368,41.5722664431,13.
5.66,6323.,1.,1.,3664.,0.,0.,9989.,0.800019253991,41.6010012075,13.
5.68,6330.,2.,1.,3653.,0.,0.,9986.,0.80114553918,20.8297840187,26.
5.7,6338.,3.,0.,3646.,0.,0.,9987.,0.80207772517,13.9026805696,39.
5.72,6340.,0.,3.,3644.,0.,0.,9987.,0.802330826377,inf,0.
5.74,6347.,1.,0.,3638.,0.,0.,9986.,0.803297114878,41.7714499737,13.
5.76,6348.,0.,0.,3633.,0.,0.,9981.,0.803826154699,inf,0.
5.78,6358.,1.,0.,3619.,0.,0.,9978.,0.805334481742,41.8773930506,13.
5.8,6373.,2.,0.,3606.,0.,0.,9981.,0.80699182166,20.9817873632,26.
5.82,6382.,1.,2.,3597.,0.,0.,9982.,0.808050502894,42.0186261505,13.
5.84,6391.,5.,2.,3583.,0.,0.,9981.,0.809271101872,8.41641945946,65.
5.86,6395.,6.,1.,3581.,0.,0.,9983.,0.80961537727,7.01666660301,78.
5.88,6404.,7.,1.,3577.,0.,0.,9989.,0.810267800499,6.01913223228,91.
5.9,6406.,6.,3.,3570.,0.,0.,9985.,0.810845546414,7.02732806892,78.
5.92,6408.,9.,6.,3563.,0.,0.,9986.,0.811017474734,4.68587874291,117.
5.94,6407.,11.,10.,3557.,0.,0.,9985.,0.810972122366,3.83368639664,143.
5.96,6413.,8.,7.,3559.,0.,0.,9987.,0.811569020435,5.27519863283,104.
5.98,6417.,9.,8.,3552.,0.,0.,9986.,0.812156544221,4.69246003328,117.
6.,6412.,19.,8.,3548.,0.,0.,9987.,0.811442469831,2.22078991743,247.
6.02,6403.,25.,8.,3554.,0.,0.,9990.,0.810060180011,1.68492517442,325.
6.04,6403.,24.,10.,3555.,0.,0.,9992.,0.809898038262,1.7547790829,312.
6.06,6399.,23.,13.,3559.,0.,0.,9994.,0.809230113548,1.82956373498,299.
6.08,6401.,22.,17.,3556.,0.,0.,9996.,0.809321076086,1.91294072529,286.
6.1,6400.,23.,17.,3558.,0.,0.,9998.,0.809032768121,1.82911756271,299.
6.12,6392.,20.,13.,3573.,0.,0.,9998.,0.808021477161,2.10085584062,260.
6.14,6384.,22.,10.,3580.,0.,0.,9996.,0.807171652825,1.90786027031,286.
6.16,6379.,21.,17.,3576.,0.,0.,9993.,0.806781600846,1.99774491638,273.
6.18,6372.,28.,14.,3578.,0.,0.,9992.,0.805976932657,1.49681430351,364.
6.2,6368.,32.,11.,3583.,0.,0.,9994.,0.805309792636,1.30862841303,416.
6.22,6357.,32.,20.,3582.,0.,0.,9991.,0.804160103888,1.30676016882,416.
6.24,6353.,33.,13.,3591.,0.,0.,9990.,0.803734549994,1.26649080605,429.
6.26,6339.,30.,20.,3593.,0.,0.,9982.,0.802606101197,1.39118390874,390.
6.28,6340.,26.,14.,3606.,0.,0.,9986.,0.802411171944,1.60482234389,338.
6.3,6345.,27.,10.,3604.,0.,0.,9986.,0.803043988325,1.54660323677,351.
6.32,6343.,31.,6.,3608.,0.,0.,9988.,0.802630110699,1.34634728246,403.
6.34,6340.,24.,8.,3617.,0.,0.,9989.,0.802170183505,1.73803539759,312.
6.36,6334.,23.,11.,3624.,0.,0.,9992.,0.801170416109,1.81134181033,299.
6.38,6328.,16.,7.,3636.,0.,0.,9987.,0.800812219135,2.60263971219,208.
6.4,6335.,14.,5.,3638.,0.,0.,9992.,0.801296903387,2.97624564115,182.
6.42,6329.,13.,5.,3645.,0.,0.,9992.,0.800537979722,3.20215191889,169.
6.44,6330.,12.,7.,3642.,0.,0.,9991.,0.800744605571,3.46989329081,156.
6.46,6333.,13.,8.,3639.,0.,0.,9993.,0.800963768327,3.20385507331,169.
6.48,6339.,11.,5.,3641.,0.,0.,9996.,0.801482003017,3.78882401426,143.
6.5,6338.,12.,4.,3641.,0.,0.,9995.,0.801435741999,3.47288821533,156.
6.52,6347.,8.,0.,3643.,0.,0.,9998.,0.80233296551,5.21516427582,104.
6.54,6358.,3.,0.,3636.,0.,0.,9997.,0.803803887049,13.9326007088,39.
6.56,6362.,1.,2.,3633.,0.,0.,9998.,0.804229136061,41.8199150752,13.
6.58,6370.,1.,0.,3626.,0.,0.,9997.,0.805320975228,41.8766907119,13.
6.6,6375.,1.,0.,3619.,0.,0.,9995.,0.806114366557,41.917947061,13.
6.62,6388.,1.,0.,3611.,0.,0.,10000.,0.807354328515,41.9824250828,13.
6.64,6397.,1.,0.,3600.,0.,0.,9998.,0.808653534011,42.0499837686,13.
6.66,6405.,1.,1.,3589.,0.,0.,9996.,0.809826822736,42.1109947823,13.
6.68,6412.,0.,3.,3584.,0.,0.,9999.,0.810468641485,inf,0.
6.7,6424.,0.,1.,3579.,0.,0.,10004.,0.811579595835,inf,0.
6.72,6433.,0.,0.,3571.,0.,0.,10004.,0.812716615817,inf,0.
6.74,6439.,0.,0.,3566.,0.,0.,10005.,0.813393322329,inf,0.
6.76,6451.,2.,0.,3558.,0.,0.,10011.,0.814420789175,21.1749405185,26.
6.78,6466.,2.,1.,3547.,0.,0.,10016.,0.815906992171,21.2135817965,26.
6.8,6475.,3.,1.,3540.,0.,0.,10019.,0.816798001945,14.1578320337,39.
6.82,6479.,0.,3.,3536.,0.,0.,10018.,0.817384170992,inf,0.
6.84,6486.,3.,2.,3525.,0.,0.,10016.,0.818430676032,14.1861317179,39.
6.86,6491.,7.,0.,3517.,0.,0.,10015.,0.819143380482,6.08506511215,91.
6.88,6495.,11.,1.,3506.,0.,0.,10013.,0.819811884454,3.87547436287,143.
6.9,6499.,9.,5.,3500.,0.,0.,10013.,0.82031677245,4.7396080186,117.
6.92,6501.,8.,5.,3499.,0.,0.,10013.,0.820569216449,5.33369990692,104.
6.94,6503.,10.,5.,3497.,0.,0.,10015.,0.820657741993,4.26742025836,130.
6.96,6505.,8.,9.,3494.,0.,0.,10016.,0.8208281757,5.33538314205,104.
6.98,6495.,14.,11.,3493.,0.,0.,10013.,0.819811884454,3.04501557083,182.
7.,6494.,16.,12.,3493.,0.,0.,10015.,0.81952197086,2.66344640529,208.
7.02,6490.,22.,4.,3498.,0.,0.,10014.,0.819098970906,1.93605211305,286.
7.04,6494.,23.,8.,3490.,0.,0.,10015.,0.81952197086,1.85283228194,299.
7.06,6488.,21.,12.,3492.,0.,0.,10013.,0.81892833046,2.02782253257,273.
7.08,6480.,24.,19.,3491.,0.,0.,10014.,0.81783687696,1.77197990008,312.
7.1,6472.,17.,22.,3500.,0.,0.,10011.,0.817071980707,2.49927899981,221.
7.12,6465.,17.,17.,3509.,0.,0.,10008.,0.816432910942,2.49732419818,221.
7.14,6456.,22.,14.,3518.,0.,0.,10010.,0.815133449032,1.92667906135,286.
7.16,6452.,25.,17.,3521.,0.,0.,10015.,0.814221705572,1.69358114759,325.
7.18,6446.,25.,20.,3527.,0.,0.,10018.,0.813220923941,1.6914995218,325.
7.2,6435.,30.,14.,3536.,0.,0.,10015.,0.812076360099,1.40759902417,390.
7.22,6428.,31.,15.,3540.,0.,0.,10014.,0.811273988441,1.36084669029,403.
7.24,6429.,26.,13.,3548.,0.,0.,10016.,0.811238177029,1.62247635406,338.
7.26,6420.,29.,6.,3558.,0.,0.,10013.,0.810345234518,1.45303283431,377.
7.28,6417.,17.,16.,3562.,0.,0.,10012.,0.810047468098,2.47779225536,221.
7.3,6421.,21.,9.,3563.,0.,0.,10014.,0.810390522679,2.00668129425,273.
7.32,6422.,15.,11.,3564.,0.,0.,10012.,0.810678641129,2.81035262258,195.
7.34,6423.,18.,1.,3570.,0.,0.,10012.,0.810804875735,2.34232519657,234.
7.36,6422.,13.,7.,3567.,0.,0.,10009.,0.810921626035,3.24368650414,169.
7.38,6418.,16.,2.,3570.,0.,0.,10006.,0.810659515438,2.63464342517,208.
7.4,6427.,11.,5.,3564.,0.,0.,10007.,0.811715185307,3.83719905782,143.
7.42,6435.,7.,5.,3560.,0.,0.,10007.,0.812725566742,6.03738992437,91.
7.44,6439.,6.,5.,3557.,0.,0.,10007.,0.81323075746,7.04799989798,78.
7.46,6445.,8.,2.,3551.,0.,0.,10006.,0.81406989358,5.29145430827,104.
7.48,6457.,6.,3.,3542.,0.,0.,10008.,0.815422630465,7.0669961307,78.
7.5,6461.,5.,4.,3541.,0.,0.,10011.,0.815683261333,8.48310591786,65.
7.52,6468.,4.,4.,3538.,0.,0.,10014.,0.816322364225,10.6121907349,52.
7.54,6477.,2.,4.,3531.,0.,0.,10014.,0.817458248776,21.2539144682,26.
7.56,6479.,1.,6.,3529.,0.,0.,10015.,0.817629018971,42.5167089865,13.
7.58,6485.,3.,3.,3524.,0.,0.,10015.,0.818386199727,14.1853607953,39.
7.6,6493.,1.,0.,3523.,0.,0.,10017.,0.819232173034,42.6000729978,13.
7.62,6501.,2.,1.,3512.,0.,0.,10016.,0.820323438928,21.3284094121,26.
7.64,6503.,2.,1.,3508.,0.,0.,10014.,0.820739693035,21.3392320189,26.
7.66,6509.,2.,2.,3501.,0.,0.,10014.,0.821496949403,21.3589206845,26.
7.68,6514.,1.,3.,3493.,0.,0.,10011.,0.822374363771,42.7634669161,13.
7.7,6518.,1.,1.,3490.,0.,0.,10010.,0.822961558363,42.7940010349,13.
7.72,6528.,1.,1.,3481.,0.,0.,10011.,0.824141824792,42.8553748892,13.
7.74,6530.,2.,1.,3477.,0.,0.,10010.,0.824476676298,21.4363935838,26.
7.76,6537.,1.,1.,3471.,0.,0.,10010.,0.825360495094,42.9187457449,13.
7.78,6548.,0.,2.,3462.,0.,0.,10012.,0.826584201512,inf,0.
7.8,6556.,1.,1.,3455.,0.,0.,10013.,0.827511426402,43.0305941729,13.
7.82,6563.,3.,0.,3446.,0.,0.,10012.,0.828477720605,14.3602804905,39.
7.84,6568.,3.,1.,3438.,0.,0.,10010.,0.829274549759,14.3740921958,39.
7.86,6570.,5.,2.,3434.,0.,0.,10011.,0.829444207856,8.6262197617,65.
7.88,6572.,8.,2.,3430.,0.,0.,10012.,0.829613832061,5.3924899084,104.
7.9,6574.,8.,1.,3428.,0.,0.,10011.,0.829949196719,5.39466977867,104.
7.92,6580.,5.,2.,3427.,0.,0.,10014.,0.830457816419,8.63676129076,65.
7.94,6574.,8.,4.,3422.,0.,0.,10008.,0.830197982449,5.39628688592,104.
7.96,6583.,10.,3.,3416.,0.,0.,10012.,0.83100241273,4.3212125462,130.
7.98,6588.,9.,6.,3411.,0.,0.,10014.,0.831467491576,4.80403439577,117.
8.,6585.,14.,4.,3411.,0.,0.,10014.,0.831088863392,3.0869014926,182.
8.02,6585.,12.,8.,3412.,0.,0.,10017.,0.830839959869,3.60030649276,156.
8.04,6582.,16.,4.,3414.,0.,0.,10016.,0.830544358564,2.69926916533,208.
8.06,6577.,19.,10.,3411.,0.,0.,10017.,0.829830587101,2.27111529101,247.
8.08,6575.,22.,10.,3410.,0.,0.,10017.,0.829578243908,1.96082130378,286.
8.1,6568.,23.,9.,3417.,0.,0.,10017.,0.828695042736,1.87357140097,299.
8.12,6561.,28.,13.,3419.,0.,0.,10021.,0.827481410732,1.53675119136,364.
8.14,6551.,30.,14.,3419.,0.,0.,10014.,0.826797743976,1.43311608956,390.
8.16,6547.,27.,16.,3424.,0.,0.,10014.,0.826292906397,1.59137893084,351.
8.18,6542.,27.,17.,3429.,0.,0.,10015.,0.825579416902,1.59000480292,351.
8.2,6524.,34.,19.,3434.,0.,0.,10011.,0.823636835929,1.25967986671,442.
8.22,6521.,30.,19.,3444.,0.,0.,10014.,0.823011462138,1.42655320104,390.
8.24,6520.,27.,14.,3458.,0.,0.,10019.,0.822474590375,1.58402513702,351.
8.26,6512.,24.,18.,3464.,0.,0.,10018.,0.821547418043,1.78001940576,312.
8.28,6512.,26.,13.,3468.,0.,0.,10019.,0.821465419099,1.6429308382,338.
8.3,6512.,24.,10.,3471.,0.,0.,10017.,0.821629433358,1.78019710561,312.
8.32,6503.,20.,18.,3475.,0.,0.,10016.,0.820575807314,2.13349709902,260.
8.34,6504.,19.,10.,3484.,0.,0.,10017.,0.82062006059,2.24590753425,247.
8.36,6506.,10.,11.,3488.,0.,0.,10015.,0.82103633237,4.26938892832,130.
8.38,6509.,13.,5.,3490.,0.,0.,10017.,0.82125091857,3.28500367428,169.
8.4,6509.,12.,8.,3485.,0.,0.,10014.,0.821496949403,3.55982011408,156.
8.42,6509.,9.,4.,3494.,0.,0.,10016.,0.821332912472,4.74547904984,117.
8.44,6517.,8.,4.,3487.,0.,0.,10016.,0.822342386016,5.34522550911,104.
8.46,6523.,6.,2.,3484.,0.,0.,10015.,0.823181677844,7.13424120798,78.
8.48,6532.,5.,1.,3479.,0.,0.,10017.,0.824152865279,8.5711897989,65.
8.5,6539.,3.,1.,3474.,0.,0.,10017.,0.825036066451,14.3006251518,39.
8.52,6544.,1.,2.,3468.,0.,0.,10015.,0.825831810487,42.9432541453,13.
8.54,6553.,1.,0.,3463.,0.,0.,10017.,0.826802468796,42.9937283774,13.
8.56,6558.,1.,1.,3457.,0.,0.,10017.,0.827433326776,43.0265329923,13.
8.58,6560.,1.,1.,3452.,0.,0.,10014.,0.827933628527,43.0525486834,13.
8.6,6568.,2.,0.,3447.,0.,0.,10017.,0.828695042736,21.5460711111,26.
8.62,6574.,1.,1.,3440.,0.,0.,10016.,0.829534885019,43.135814021,13.
8.64,6582.,1.,0.,3435.,0.,0.,10018.,0.830378548151,43.1796845038,13.
8.66,6592.,2.,0.,3425.,0.,0.,10019.,0.831557131864,21.6204854285,26.
8.68,6597.,0.,1.,3419.,0.,0.,10017.,0.832354019021,inf,0.
8.7,6608.,1.,0.,3408.,0.,0.,10017.,0.833741906578,43.354579142,13.
8.72,6617.,1.,0.,3400.,0.,0.,10018.,0.834794113205,43.4092938866,13.
8.74,6625.,0.,1.,3393.,0.,0.,10019.,0.83571996338,inf,0.
8.76,6631.,0.,1.,3382.,0.,0.,10014.,0.836894495543,inf,0.
8.78,6632.,0.,0.,3379.,0.,0.,10011.,0.837271535236,inf,0.
8.8,6636.,1.,0.,3372.,0.,0.,10009.,0.83794392874,43.5730842945,13.
8.82,6639.,3.,0.,3366.,0.,0.,10008.,0.83840651133,14.5323795297,39.
8.84,6639.,5.,0.,3362.,0.,0.,10006.,0.838574092084,8.72117055767,65.
8.86,6644.,5.,1.,3355.,0.,0.,10005.,0.839289522216,8.72861103105,65.
8.88,6647.,1.,6.,3349.,0.,0.,10003.,0.839836374328,43.6714914651,13.
8.9,6645.,7.,3.,3348.,0.,0.,10003.,0.839583677962,6.236907322,91.
8.92,6641.,11.,7.,3347.,0.,0.,10006.,0.838826712687,3.96536264179,143.
8.94,6640.,9.,2.,3356.,0.,0.,10007.,0.838616591013,4.84534030363,117.
8.96,6641.,7.,11.,3349.,0.,0.,10008.,0.838659081449,6.23003889077,91.
8.98,6639.,13.,14.,3344.,0.,0.,10010.,0.838238997541,3.35295599017,169.
9.,6640.,14.,9.,3347.,0.,0.,10010.,0.838365257369,3.1139280988,182.
9.02,6634.,23.,8.,3345.,0.,0.,10010.,0.837607698402,1.89372175291,299.
9.04,6626.,25.,15.,3344.,0.,0.,10010.,0.836597619778,1.74012304914,325.
9.06,6611.,26.,16.,3358.,0.,0.,10011.,0.834620343704,1.66924068741,338.
9.08,6600.,36.,13.,3365.,0.,0.,10014.,0.832982004311,1.20319622845,468.
9.1,6598.,32.,20.,3367.,0.,0.,10017.,0.832480190617,1.35278030975,416.
9.12,6593.,27.,15.,3383.,0.,0.,10018.,0.831766297168,1.60192027603,351.
9.14,6595.,27.,8.,3386.,0.,0.,10016.,0.832184753073,1.6027261911,351.
9.16,6598.,30.,9.,3380.,0.,0.,10017.,0.832480190617,1.44296566374,390.
9.18,6595.,31.,8.,3383.,0.,0.,10017.,0.832101675829,1.39578345623,403.
9.2,6588.,36.,9.,3384.,0.,0.,10017.,0.831218474657,1.20064890784,468.
9.22,6586.,31.,10.,3392.,0.,0.,10019.,0.830800253407,1.39360042507,403.
9.24,6582.,29.,14.,3392.,0.,0.,10017.,0.830461445081,1.48910328083,377.
9.26,6573.,32.,12.,3400.,0.,0.,10017.,0.829325900716,1.34765458866,416.
9.28,6566.,24.,16.,3410.,0.,0.,10016.,0.828525411475,1.79513839153,312.
9.3,6564.,24.,13.,3415.,0.,0.,10016.,0.828273043089,1.79459159336,312.
9.32,6558.,27.,11.,3422.,0.,0.,10018.,0.827350732114,1.59341622481,351.
9.34,6559.,22.,5.,3428.,0.,0.,10014.,0.827807419132,1.95663571795,286.
9.36,6560.,15.,8.,3430.,0.,0.,10013.,0.828016314398,2.87045655658,195.
9.38,6561.,13.,7.,3429.,0.,0.,10010.,0.828390730964,3.31356292385,169.
9.4,6563.,17.,1.,3432.,0.,0.,10013.,0.828394980396,2.53391405768,221.
9.42,6567.,15.,6.,3427.,0.,0.,10015.,0.828734336716,2.87294570062,195.
9.44,6573.,9.,6.,3429.,0.,0.,10017.,0.829325900716,4.79166075969,117.
9.46,6574.,11.,5.,3425.,0.,0.,10015.,0.829617714264,3.9218291947,143.
9.48,6583.,6.,5.,3421.,0.,0.,10015.,0.830753485397,7.19986354011,78.
9.5,6588.,4.,1.,3422.,0.,0.,10015.,0.83138446936,10.8079981017,52.
9.52,6593.,3.,1.,3418.,0.,0.,10015.,0.832015453323,14.4216011909,39.
9.54,6598.,1.,1.,3415.,0.,0.,10015.,0.832646437285,43.2976147388,13.
9.56,6604.,1.,0.,3409.,0.,0.,10014.,0.833486841889,43.3413157782,13.
9.58,6611.,0.,0.,3405.,0.,0.,10016.,0.834203700162,inf,0.
9.6,6619.,0.,0.,3393.,0.,0.,10012.,0.835546858554,inf,0.
9.62,6620.,1.,0.,3387.,0.,0.,10008.,0.836007095196,43.4723689502,13.
9.64,6626.,0.,1.,3384.,0.,0.,10011.,0.836514051941,inf,0.
9.66,6628.,0.,0.,3381.,0.,0.,10009.,0.836933749199,inf,0.
9.68,6642.,0.,0.,3370.,0.,0.,10012.,0.838450254497,inf,0.
9.7,6648.,2.,0.,3365.,0.,0.,10015.,0.838956276913,21.8128631997,26.
9.72,6659.,1.,1.,3356.,0.,0.,10017.,0.840176657975,43.6891862147,13.
9.74,6658.,2.,2.,3352.,0.,0.,10014.,0.840302149197,21.8478558791,26.
9.76,6660.,3.,0.,3353.,0.,0.,10016.,0.84038672562,14.5667032441,39.
9.78,6670.,4.,2.,3339.,0.,0.,10015.,0.841732606349,10.9425238825,52.
9.8,6680.,3.,3.,3329.,0.,0.,10015.,0.842994574275,14.6119059541,39.
9.82,6689.,2.,2.,3321.,0.,0.,10014.,0.844214640429,21.9495806512,26.
9.84,6690.,4.,2.,3318.,0.,0.,10014.,0.844340849824,10.9764310477,52.
9.86,6696.,5.,4.,3308.,0.,0.,10013.,0.845182506282,8.78989806533,65.
9.88,6699.,10.,5.,3302.,0.,0.,10016.,0.845307909149,4.39560112757,130.
9.9,6710.,9.,7.,3295.,0.,0.,10021.,0.846273474472,4.88958007473,117.
9.92,6710.,12.,3.,3293.,0.,0.,10018.,0.846526900348,3.66828323484,156.
9.94,6714.,14.,4.,3290.,0.,0.,10022.,0.846693467491,3.14486145068,182.
9.96,6724.,9.,4.,3285.,0.,0.,10022.,0.847954553978,4.89929297854,117.
9.98,6729.,8.,4.,3282.,0.,0.,10023.,0.848500433439,5.51525281735,104.
10.,6736.,8.,4.,3276.,0.,0.,10024.,0.84929837096,5.52043941124,104.
