t,cases
5.01,2.73
5.02,2.73
5.03,2.86
5.04,2.86
5.05,3.055
5.06,3.055
5.07,2.925
5.08,2.925
5.09,3.315
5.1,3.315
5.11,3.445
5.12,3.445
5.13,3.9
5.14,3.9
5.15,4.03
5.16,4.03
5.17,3.12
5.18,3.12
5.19,3.575
5.2,3.575
5.21,4.03
5.22,4.03
5.23,3.9
5.24,3.9
5.25,3.77
5.26,3.77
5.27,3.12
5.28,3.12
5.29,3.185
5.3,3.185
5.31,3.64
5.32,3.64
5.33,3.185
5.34,3.185
5.35,2.6
5.36,2.6
5.37,2.86
5.38,2.86
5.39,2.795
5.4,2.795
5.41,2.08
5.42,2.08
5.43,1.885
5.44,1.885
5.45,1.56
5.46,1.56
5.47,1.105
5.48,1.105
5.49,0.975
5.5,0.975
5.51,0.585
5.52,0.585
5.53,0.325
5.54,0.325
5.55,0.325
5.56,0.325
5.57,0.39
5.58,0.39
5.59,0.52
5.6,0.52
5.61,0.455
5.62,0.455
5.63,0.455
5.64,0.455
5.65,0.39
5.66,0.39
5.67,0.195
5.68,0.195
5.69,0.195
5.7,0.195
5.71,0.26
5.72,0.26
5.73,0.195
5.74,0.195
5.75,0.13
5.76,0.13
5.77,0.065
5.78,0.065
5.79,0.195
5.8,0.195
5.81,0.52
5.82,0.52
5.83,0.65
5.84,0.65
5.85,0.845
5.86,0.845
5.87,1.17
5.88,1.17
5.89,1.235
5.9,1.235
5.91,1.235
5.92,1.235
5.93,1.495
5.94,1.495
5.95,1.495
5.96,1.495
5.97,2.08
5.98,2.08
5.99,2.86
6.,2.86
6.01,2.86
6.02,2.86
6.03,3.055
6.04,3.055
6.05,2.6
6.06,2.6
6.07,2.47
6.08,2.47
6.09,3.055
6.1,3.055
6.11,3.38
6.12,3.38
6.13,4.03
6.14,4.03
6.15,4.095
6.16,4.095
6.17,3.965
6.18,3.965
6.19,4.615
6.2,4.615
6.21,5.265
6.22,5.265
6.23,5.395
6.24,5.395
6.25,5.265
6.26,5.265
6.27,4.615
6.28,4.615
6.29,4.03
6.3,4.03
6.31,3.77
6.32,3.77
6.33,3.315
6.34,3.315
6.35,2.34
6.36,2.34
6.37,1.625
6.38,1.625
6.39,1.625
6.4,1.625
6.41,1.625
6.42,1.625
6.43,1.56
6.44,1.56
6.45,1.235
6.46,1.235
6.47,0.78
6.48,0.78
6.49,0.585
6.5,0.585
6.51,0.585
6.52,0.585
6.53,0.26
6.54,0.26
6.55,0.
6.56,0.
6.57,0.
6.58,0.
6.59,0.
6.6,0.
6.61,0.
6.62,0.
6.63,0.
6.64,0.
6.65,0.
6.66,0.
6.67,0.065
6.68,0.065
6.69,0.065
6.7,0.065
6.71,0.065
6.72,0.065
6.73,0.13
6.74,0.13
6.75,0.065
6.76,0.065
6.77,0.065
6.78,0.065
6.79,0.065
6.8,0.065
6.81,0.065
6.82,0.065
6.83,0.13
6.84,0.13
6.85,0.195
6.86,0.195
6.87,0.585
6.88,0.585
6.89,0.65
6.9,0.65
6.91,0.715
6.92,0.715
6.93,1.3
6.94,1.3
6.95,1.56
6.96,1.56
6.97,2.015
6.98,2.015
6.99,1.95
7.,1.95
7.01,1.56
7.02,1.56
7.03,1.82
7.04,1.82
7.05,2.015
7.06,2.015
7.07,2.405
7.08,2.405
7.09,2.925
7.1,2.925
7.11,3.185
7.12,3.185
7.13,3.705
7.14,3.705
7.15,3.575
7.16,3.575
7.17,3.38
7.18,3.38
7.19,4.29
7.2,4.29
7.21,5.005
7.22,5.005
7.23,4.225
7.24,4.225
7.25,3.575
7.26,3.575
7.27,3.77
7.28,3.77
7.29,3.38
7.3,3.38
7.31,2.925
7.32,2.925
7.33,2.795
7.34,2.795
7.35,2.405
7.36,2.405
7.37,1.625
7.38,1.625
7.39,1.43
7.4,1.43
7.41,1.3
7.42,1.3
7.43,0.975
7.44,0.975
7.45,0.845
7.46,0.845
7.47,0.91
7.48,0.91
7.49,0.715
7.5,0.715
7.51,0.39
7.52,0.39
7.53,0.455
7.54,0.455
7.55,0.39
7.56,0.39
7.57,0.455
7.58,0.455
7.59,0.39
7.6,0.39
7.61,0.195
7.62,0.195
7.63,0.325
7.64,0.325
7.65,0.325
7.66,0.325
7.67,0.26
7.68,0.26
7.69,0.325
7.7,0.325
7.71,0.325
7.72,0.325
7.73,0.325
7.74,0.325
7.75,0.195
7.76,0.195
7.77,0.065
7.78,0.065
7.79,0.065
7.8,0.065
7.81,0.195
7.82,0.195
7.83,0.39
7.84,0.39
7.85,0.52
7.86,0.52
7.87,0.52
7.88,0.52
7.89,0.585
7.9,0.585
7.91,0.91
7.92,0.91
7.93,0.91
7.94,0.91
7.95,1.17
7.96,1.17
7.97,1.82
7.98,1.82
7.99,2.21
8.,2.21
8.01,2.405
8.02,2.405
8.03,2.6
8.04,2.6
8.05,2.73
8.06,2.73
8.07,2.6
8.08,2.6
8.09,2.925
8.1,2.925
8.11,3.38
8.12,3.38
8.13,3.445
8.14,3.445
8.15,3.705
8.16,3.705
8.17,4.355
8.18,4.355
8.19,4.68
8.2,4.68
8.21,4.55
8.22,4.55
8.23,4.03
8.24,4.03
8.25,3.64
8.26,3.64
8.27,3.9
8.28,3.9
8.29,3.055
8.3,3.055
8.31,2.47
8.32,2.47
8.33,2.665
8.34,2.665
8.35,2.08
8.36,2.08
8.37,1.755
8.38,1.755
8.39,1.95
8.4,1.95
8.41,1.82
8.42,1.82
8.43,1.43
8.44,1.43
8.45,1.235
8.46,1.235
8.47,0.91
8.48,0.91
8.49,0.715
8.5,0.715
8.51,0.52
8.52,0.52
8.53,0.26
8.54,0.26
8.55,0.195
8.56,0.195
8.57,0.195
8.58,0.195
8.59,0.195
8.6,0.195
8.61,0.13
8.62,0.13
8.63,0.13
8.64,0.13
8.65,0.0650000000001
8.66,0.0649999999999
8.67,0.0649999999999
8.68,0.0650000000001
8.69,0.195
8.7,0.195
8.71,0.195
8.72,0.195
8.73,0.13
8.74,0.13
8.75,0.13
8.76,0.13
8.77,0.195
8.78,0.195
8.79,0.39
8.8,0.39
8.81,0.65
8.82,0.65
8.83,0.91
8.84,0.91
8.85,1.04
8.86,1.04
8.87,1.105
8.88,1.105
8.89,1.3
8.9,1.3
8.91,1.56
8.92,1.56
8.93,1.69
8.94,1.69
8.95,2.145
8.96,2.145
8.97,2.6
8.98,2.6
8.99,2.665
9.,2.665
9.01,2.86
9.02,2.86
9.03,2.795
9.04,2.795
9.05,2.795
9.06,2.795
9.07,2.665
9.08,2.665
9.09,2.535
9.1,2.535
9.11,2.665
9.12,2.665
9.13,2.6
9.14,2.6
9.15,3.055
9.16,3.055
9.17,3.835
9.18,3.835
9.19,4.42
9.2,4.42
9.21,4.42
9.22,4.42
9.23,4.55
9.24,4.55
9.25,4.485
9.26,4.485
9.27,4.29
9.28,4.29
9.29,4.095
9.3,4.095
9.31,4.03
9.32,4.03
9.33,4.42
9.34,4.42
9.35,3.965
9.36,3.965
9.37,2.73
9.38,2.73
9.39,1.95
9.4,1.95
9.41,1.69
9.42,1.69
9.43,1.3
9.44,1.3
9.45,1.04
9.46,1.04
9.47,0.91
9.48,0.91
9.49,0.715
9.5,0.715
9.51,0.585
9.52,0.585
9.53,0.325
9.54,0.325
9.55,0.13
9.56,0.13
9.57,0.195
9.58,0.195
9.59,0.0649999999999
9.6,0.0650000000001
9.61,0.
9.62,0.
9.63,0.13
9.64,0.13
9.65,0.325
9.66,0.325
9.67,0.26
9.68,0.26
9.69,0.195
9.7,0.195
9.71,0.39
9.72,0.39
9.73,0.39
9.74,0.39
9.75,0.26
9.76,0.26
9.77,0.325
9.78,0.325
9.79,0.39
9.8,0.39
9.81,0.455
9.82,0.455
9.83,0.52
9.84,0.52
9.85,0.78
9.86,0.78
9.87,0.975
9.88,0.975
9.89,0.845
9.9,0.845
9.91,0.975
9.92,0.975
9.93,1.3
9.94,1.3
9.95,1.43
9.96,1.43
9.97,1.495
9.98,1.495
9.99,1.56
10.,1.56
