t,s,e,i,r,c,o,n,reff,coal,reportr
5.,8127.,41.,5.,1827.,0.,0.,10000.,0.900126557708,1.14162392685,533.
5.02,8124.,33.,15.,1827.,0.,0.,9999.,0.899884273505,1.41799946128,429.
5.04,8111.,35.,11.,1841.,0.,0.,9998.,0.898534143838,1.3349650137,455.
5.06,8105.,24.,15.,1856.,0.,0.,10000.,0.897689891747,1.94499476545,312.
5.08,8105.,18.,12.,1866.,0.,0.,10001.,0.897600131734,2.59306704723,234.
5.1,8091.,33.,17.,1859.,0.,0.,10000.,0.896139286135,1.41209826906,429.
5.12,8083.,24.,25.,1870.,0.,0.,10002.,0.895074210943,1.93932745704,312.
5.14,8061.,34.,22.,1881.,0.,0.,9998.,0.892995158855,1.36575730178,442.
5.16,8038.,44.,17.,1900.,0.,0.,9999.,0.890358172136,1.05224147616,572.
5.18,8026.,33.,20.,1923.,0.,0.,10002.,0.888762293335,1.40047391677,429.
5.2,8015.,35.,12.,1942.,0.,0.,10004.,0.887366766107,1.31837348107,455.
5.22,8001.,33.,17.,1952.,0.,0.,10003.,0.885905335601,1.39597204398,429.
5.24,7994.,32.,15.,1964.,0.,0.,10005.,0.884953327731,1.43804915756,416.
5.26,7988.,27.,18.,1974.,0.,0.,10007.,0.884112380467,1.70273495497,351.
5.28,7975.,35.,18.,1979.,0.,0.,10007.,0.882673539587,1.31140068739,455.
5.3,7954.,36.,9.,2006.,0.,0.,10005.,0.880525240027,1.27186979115,468.
5.32,7952.,25.,14.,2011.,0.,0.,10002.,0.880567873985,1.83158117789,325.
5.34,7946.,21.,9.,2028.,0.,0.,10004.,0.879727551277,2.17837298411,273.
5.36,7942.,20.,2.,2040.,0.,0.,10004.,0.879284698243,2.28614021543,260.
5.38,7942.,9.,13.,2040.,0.,0.,10004.,0.879284698243,5.08031158985,117.
5.4,7935.,15.,1.,2052.,0.,0.,10003.,0.878597530058,3.04580477087,195.
5.42,7937.,12.,2.,2054.,0.,0.,10005.,0.878643302753,3.80745431193,156.
5.44,7933.,10.,8.,2052.,0.,0.,10003.,0.878376081405,4.5675556233,130.
5.46,7936.,11.,5.,2051.,0.,0.,10003.,0.878708254384,4.15389356618,143.
5.48,7941.,10.,4.,2051.,0.,0.,10006.,0.878998255625,4.57079092925,130.
5.5,7948.,4.,7.,2050.,0.,0.,10009.,0.879509398926,11.433622186,52.
5.52,7954.,6.,3.,2046.,0.,0.,10009.,0.880173346635,7.62816900417,78.
5.54,7957.,4.,3.,2045.,0.,0.,10009.,0.88050532049,11.4465691664,52.
5.56,7960.,1.,3.,2043.,0.,0.,10007.,0.881013338572,45.8126936058,13.
5.58,7965.,2.,1.,2042.,0.,0.,10010.,0.881302533095,22.9138658605,26.
5.6,7971.,2.,0.,2035.,0.,0.,10008.,0.882142666757,22.9357093357,26.
5.62,7975.,1.,1.,2032.,0.,0.,10009.,0.882497163618,45.8898525081,13.
5.64,7978.,1.,1.,2028.,0.,0.,10008.,0.882917349816,45.9117021904,13.
5.66,7978.,4.,1.,2025.,0.,0.,10008.,0.882917349816,11.4779255476,52.
5.68,7980.,0.,5.,2025.,0.,0.,10010.,0.882962236547,inf,0.
5.7,7983.,0.,1.,2020.,0.,0.,10004.,0.883823941838,inf,0.
5.72,7987.,0.,1.,2018.,0.,0.,10006.,0.884090047561,inf,0.
5.74,7991.,0.,0.,2013.,0.,0.,10004.,0.884709647905,inf,0.
5.76,7994.,1.,0.,2010.,0.,0.,10005.,0.884953327731,46.017573042,13.
5.78,8001.,1.,0.,2003.,0.,0.,10005.,0.88572824308,46.0578686401,13.
5.8,8007.,2.,0.,1997.,0.,0.,10006.,0.886303870141,23.0439006237,26.
5.82,8016.,2.,0.,1991.,0.,0.,10009.,0.887034139631,23.0628876304,26.
5.84,8019.,4.,1.,1988.,0.,0.,10012.,0.887100222721,11.5323028954,52.
5.86,8024.,6.,2.,1979.,0.,0.,10011.,0.887742014491,7.69376412559,78.
5.88,8027.,9.,0.,1978.,0.,0.,10014.,0.887807872316,5.12955659561,117.
5.9,8024.,8.,3.,1976.,0.,0.,10011.,0.887742014491,5.77032309419,104.
5.92,8025.,8.,6.,1974.,0.,0.,10013.,0.887675310347,5.76988951725,104.
5.94,8016.,13.,8.,1975.,0.,0.,10012.,0.886768348339,3.54707339336,169.
5.96,8019.,13.,8.,1975.,0.,0.,10015.,0.886834491251,3.547337965,169.
5.98,8014.,14.,9.,1978.,0.,0.,10015.,0.88628153297,3.29190283675,182.
6.,8014.,12.,9.,1978.,0.,0.,10013.,0.886458559143,3.84132042295,156.
6.02,8005.,17.,11.,1983.,0.,0.,10016.,0.885197820863,2.70766392264,221.
6.04,7995.,24.,11.,1984.,0.,0.,10014.,0.884268585919,1.91591526949,312.
6.06,7986.,23.,12.,1993.,0.,0.,10014.,0.883273161619,1.99696540888,299.
6.08,7976.,26.,9.,2006.,0.,0.,10017.,0.881902933621,1.76380586724,338.
6.1,7969.,28.,12.,2011.,0.,0.,10020.,0.880865135532,1.63589239456,364.
6.12,7958.,28.,20.,2017.,0.,0.,10023.,0.879385945148,1.6331453267,364.
6.14,7945.,37.,12.,2031.,0.,0.,10025.,0.877774249131,1.23362867445,481.
6.16,7939.,27.,16.,2042.,0.,0.,10024.,0.877198862222,1.68942003095,351.
6.18,7921.,34.,14.,2054.,0.,0.,10023.,0.875297319869,1.33869001862,442.
6.2,7904.,35.,14.,2067.,0.,0.,10020.,0.873680264932,1.29803925076,455.
6.22,7891.,33.,10.,2085.,0.,0.,10019.,0.872330349729,1.37458115715,429.
6.24,7875.,29.,17.,2094.,0.,0.,10015.,0.870909292755,1.56163045597,377.
6.26,7859.,28.,18.,2109.,0.,0.,10014.,0.869226618729,1.61427800621,364.
6.28,7854.,24.,19.,2121.,0.,0.,10018.,0.868326760108,1.8813746469,312.
6.3,7851.,24.,5.,2138.,0.,0.,10018.,0.867995084493,1.8806560164,312.
6.32,7849.,22.,3.,2144.,0.,0.,10018.,0.867773967416,2.0511021048,286.
6.34,7847.,19.,3.,2148.,0.,0.,10017.,0.867639458391,2.37459220191,247.
6.36,7845.,16.,3.,2152.,0.,0.,10016.,0.867504922507,2.81939099815,208.
6.38,7843.,17.,3.,2151.,0.,0.,10014.,0.86745697553,2.6533978075,221.
6.4,7839.,17.,3.,2154.,0.,0.,10013.,0.867101153621,2.65230941108,221.
6.42,7840.,21.,4.,2156.,0.,0.,10021.,0.866519451816,2.14566721402,273.
6.44,7839.,15.,6.,2160.,0.,0.,10020.,0.866495394332,3.00385070035,195.
6.46,7843.,8.,9.,2160.,0.,0.,10020.,0.866937540215,5.6350940114,104.
6.48,7849.,7.,7.,2159.,0.,0.,10022.,0.867427619794,6.44374803276,91.
6.5,7840.,10.,5.,2163.,0.,0.,10018.,0.866778940571,4.50725049097,130.
6.52,7840.,6.,0.,2169.,0.,0.,10015.,0.867038584787,7.51433440149,78.
6.54,7841.,3.,0.,2168.,0.,0.,10012.,0.867409009397,15.0350894962,39.
6.56,7843.,1.,0.,2166.,0.,0.,10010.,0.867803611684,45.1257878076,13.
6.58,7849.,1.,1.,2160.,0.,0.,10011.,0.868380741742,45.1557985706,13.
6.6,7850.,1.,0.,2158.,0.,0.,10009.,0.868664919674,45.170575823,13.
6.62,7854.,1.,0.,2157.,0.,0.,10012.,0.868847131718,45.1800508493,13.
6.64,7860.,1.,0.,2151.,0.,0.,10012.,0.869510880482,45.2145657851,13.
6.66,7869.,2.,1.,2141.,0.,0.,10013.,0.870419565996,22.6309087159,26.
6.68,7867.,3.,1.,2137.,0.,0.,10008.,0.870633089873,15.0909735578,39.
6.7,7872.,3.,1.,2131.,0.,0.,10007.,0.871273492618,15.102073872,39.
6.72,7868.,3.,1.,2132.,0.,0.,10004.,0.871091917121,15.0989265634,39.
6.74,7873.,3.,1.,2129.,0.,0.,10006.,0.871471258851,15.1055018201,39.
6.76,7875.,3.,0.,2128.,0.,0.,10006.,0.87169264111,15.1093391126,39.
6.78,7880.,4.,1.,2120.,0.,0.,10005.,0.872333277774,11.3403326111,52.
6.8,7885.,2.,2.,2113.,0.,0.,10002.,0.873148602411,22.7018636627,26.
6.82,7884.,5.,2.,2110.,0.,0.,10001.,0.873125162071,9.08050168554,65.
6.84,7886.,7.,3.,2107.,0.,0.,10003.,0.873172038064,6.48642085419,91.
6.86,7887.,6.,2.,2107.,0.,0.,10002.,0.873370073204,7.5692073011,78.
6.88,7887.,4.,10.,2105.,0.,0.,10006.,0.873020934658,11.3492721506,52.
6.9,7886.,5.,7.,2107.,0.,0.,10005.,0.872997490929,9.07917390567,65.
6.92,7884.,11.,3.,2107.,0.,0.,10005.,0.872776086544,4.12585059094,143.
6.94,7885.,10.,8.,2102.,0.,0.,10005.,0.872886788737,4.53901130143,130.
6.96,7878.,17.,5.,2107.,0.,0.,10007.,0.871937573024,2.66710316454,221.
6.98,7879.,13.,7.,2105.,0.,0.,10004.,0.872309762964,3.48923905186,169.
7.,7869.,14.,6.,2111.,0.,0.,10000.,0.871551111432,3.23718984246,182.
7.02,7858.,17.,6.,2115.,0.,0.,9996.,0.870681050872,2.66325968502,221.
7.04,7853.,20.,9.,2114.,0.,0.,9996.,0.870127041549,2.26233030803,260.
7.06,7847.,19.,7.,2118.,0.,0.,9991.,0.869897353088,2.38077170319,247.
7.08,7839.,23.,7.,2120.,0.,0.,9989.,0.869184488058,1.96511275561,299.
7.1,7832.,21.,9.,2126.,0.,0.,9988.,0.868495276647,2.15055973265,273.
7.12,7827.,22.,11.,2128.,0.,0.,9988.,0.867940823585,2.05149649211,286.
7.14,7825.,22.,12.,2126.,0.,0.,9985.,0.867979749133,2.05158849795,286.
7.16,7824.,24.,6.,2132.,0.,0.,9986.,0.867781916648,1.88019415274,312.
7.18,7811.,27.,13.,2134.,0.,0.,9985.,0.866426814118,1.66867386423,351.
7.2,7803.,28.,10.,2140.,0.,0.,9981.,0.865886297513,1.60807455252,364.
7.22,7790.,28.,15.,2148.,0.,0.,9981.,0.864443708525,1.60539545869,364.
7.24,7772.,30.,16.,2160.,0.,0.,9978.,0.862705581973,1.49535634209,390.
7.26,7757.,31.,9.,2175.,0.,0.,9972.,0.861558630703,1.44519512247,403.
7.28,7751.,28.,17.,2172.,0.,0.,9968.,0.861237681856,1.59944140916,364.
7.3,7748.,27.,14.,2183.,0.,0.,9972.,0.860559013882,1.65737291563,351.
7.32,7741.,21.,13.,2195.,0.,0.,9970.,0.859954007861,2.12940992423,273.
7.34,7735.,25.,7.,2203.,0.,0.,9970.,0.859287462964,1.78731792297,325.
7.36,7734.,17.,10.,2209.,0.,0.,9970.,0.859176372148,2.62806890304,221.
7.38,7731.,14.,9.,2212.,0.,0.,9966.,0.859187808951,3.19126900467,182.
7.4,7730.,15.,3.,2215.,0.,0.,9963.,0.859335353665,2.97902922604,195.
7.42,7732.,7.,9.,2214.,0.,0.,9962.,0.859643975049,6.38592667179,91.
7.44,7729.,9.,4.,2218.,0.,0.,9960.,0.859482987262,4.96590170418,117.
7.46,7729.,6.,6.,2216.,0.,0.,9957.,0.859741945679,7.45109686255,78.
7.48,7734.,7.,3.,2215.,0.,0.,9959.,0.860125356995,6.38950265196,91.
7.5,7736.,7.,1.,2217.,0.,0.,9961.,0.860175040778,6.38987173149,91.
7.52,7741.,3.,5.,2215.,0.,0.,9964.,0.860471844478,14.9148453043,39.
7.54,7740.,1.,1.,2219.,0.,0.,9961.,0.860619805535,44.7522298878,13.
7.56,7747.,1.,0.,2216.,0.,0.,9964.,0.861138790746,44.7792171188,13.
7.58,7754.,1.,0.,2212.,0.,0.,9967.,0.861657463535,44.8061881038,13.
7.6,7761.,0.,0.,2209.,0.,0.,9970.,0.862175824184,inf,0.
7.62,7767.,0.,0.,2204.,0.,0.,9971.,0.862755833892,inf,0.
7.64,7773.,0.,0.,2199.,0.,0.,9972.,0.863335727272,inf,0.
7.66,7777.,1.,0.,2194.,0.,0.,9972.,0.863780001415,44.9165600736,13.
7.68,7784.,1.,0.,2190.,0.,0.,9975.,0.864297463877,44.9434681216,13.
7.7,7788.,0.,1.,2184.,0.,0.,9973.,0.864915020948,inf,0.
7.72,7796.,0.,0.,2180.,0.,0.,9976.,0.865543114215,inf,0.
7.74,7799.,0.,0.,2174.,0.,0.,9973.,0.866136652334,inf,0.
7.76,7800.,0.,0.,2171.,0.,0.,9971.,0.866421463159,inf,0.
7.78,7808.,1.,0.,2164.,0.,0.,9973.,0.867136168922,45.0910807839,13.
7.8,7809.,2.,0.,2157.,0.,0.,9968.,0.867682241984,22.5597382916,26.
7.82,7813.,2.,0.,2151.,0.,0.,9966.,0.868300912085,22.5758237142,26.
7.84,7820.,3.,0.,2146.,0.,0.,9969.,0.868817325499,15.0595003087,39.
7.86,7818.,6.,0.,2146.,0.,0.,9970.,0.868508000705,7.52706933944,78.
7.88,7821.,6.,2.,2142.,0.,0.,9971.,0.868754136329,7.52920251485,78.
7.9,7819.,9.,4.,2140.,0.,0.,9972.,0.86844487991,5.01768152837,117.
7.92,7817.,8.,8.,2140.,0.,0.,9973.,0.86813568551,5.64288195582,104.
7.94,7816.,12.,8.,2138.,0.,0.,9974.,0.867937599374,3.76106293062,156.
7.96,7815.,13.,10.,2139.,0.,0.,9977.,0.867565604963,3.47026241985,169.
7.98,7804.,13.,8.,2148.,0.,0.,9973.,0.866691939327,3.46676775731,169.
8.,7802.,16.,9.,2145.,0.,0.,9972.,0.866556714805,2.81630932312,208.
8.02,7796.,21.,5.,2149.,0.,0.,9971.,0.86597714446,2.14432435771,273.
8.04,7801.,19.,10.,2145.,0.,0.,9975.,0.866185061113,2.3706117462,247.
8.06,7791.,25.,8.,2152.,0.,0.,9976.,0.864987994209,1.79917502795,325.
8.08,7783.,30.,10.,2157.,0.,0.,9980.,0.863753469612,1.49717268066,390.
8.1,7777.,27.,12.,2162.,0.,0.,9978.,0.86326059071,1.66257595248,351.
8.12,7767.,24.,16.,2169.,0.,0.,9976.,0.862323418177,1.86836740605,312.
8.14,7762.,25.,12.,2179.,0.,0.,9978.,0.861595564497,1.79211877415,325.
8.16,7749.,26.,15.,2181.,0.,0.,9971.,0.860756399746,1.72151279949,338.
8.18,7743.,26.,15.,2189.,0.,0.,9973.,0.859917438007,1.71983487601,338.
8.2,7734.,33.,18.,2193.,0.,0.,9978.,0.858487515566,1.35276820635,429.
8.22,7714.,36.,18.,2210.,0.,0.,9978.,0.856267480615,1.23683080533,468.
8.24,7702.,31.,17.,2227.,0.,0.,9977.,0.855021150278,1.43422902627,403.
8.26,7700.,30.,14.,2236.,0.,0.,9980.,0.854542170887,1.48120642954,390.
8.28,7685.,31.,14.,2248.,0.,0.,9978.,0.853048429936,1.43091994699,403.
8.3,7685.,30.,12.,2256.,0.,0.,9983.,0.852621179395,1.47787671095,390.
8.32,7677.,22.,11.,2274.,0.,0.,9984.,0.851648300321,2.01298689167,286.
8.34,7680.,25.,4.,2278.,0.,0.,9987.,0.851725178403,1.77158837108,325.
8.36,7678.,24.,6.,2279.,0.,0.,9987.,0.851503374971,1.8449239791,312.
8.38,7685.,20.,2.,2287.,0.,0.,9994.,0.85168273303,2.21437510588,260.
8.4,7686.,15.,6.,2288.,0.,0.,9995.,0.851708335101,2.95258889502,195.
8.42,7687.,6.,11.,2289.,0.,0.,9993.,0.851989631219,7.38391013723,78.
8.44,7687.,7.,2.,2295.,0.,0.,9991.,0.852160182642,6.33033278534,91.
8.46,7690.,3.,4.,2294.,0.,0.,9991.,0.852492754587,14.7765410795,39.
8.48,7687.,4.,1.,2296.,0.,0.,9988.,0.852416137843,11.081409792,52.
8.5,7689.,4.,1.,2294.,0.,0.,9988.,0.852637919068,11.0842929479,52.
8.52,7694.,3.,2.,2289.,0.,0.,9988.,0.85319237213,14.7886677836,39.
8.54,7697.,5.,1.,2285.,0.,0.,9988.,0.853525043967,8.87666045726,65.
8.56,7697.,1.,3.,2283.,0.,0.,9984.,0.853867001116,44.401084058,13.
8.58,7705.,1.,2.,2279.,0.,0.,9987.,0.854497721302,44.4338815077,13.
8.6,7708.,2.,2.,2277.,0.,0.,9989.,0.854659272094,22.2211410745,26.
8.62,7715.,2.,1.,2275.,0.,0.,9993.,0.855093014811,22.2324183851,26.
8.64,7721.,2.,1.,2269.,0.,0.,9993.,0.855758025581,22.2497086651,26.
8.66,7730.,1.,1.,2264.,0.,0.,9996.,0.856498412222,44.5379174355,13.
8.68,7736.,0.,0.,2261.,0.,0.,9997.,0.857077481363,inf,0.
8.7,7741.,0.,0.,2255.,0.,0.,9996.,0.857717232731,inf,0.
8.72,7746.,0.,0.,2247.,0.,0.,9993.,0.858528903789,inf,0.
8.74,7747.,1.,0.,2242.,0.,0.,9990.,0.858897588688,44.6626746118,13.
8.76,7756.,1.,0.,2240.,0.,0.,9997.,0.859293296982,44.6832514431,13.
8.78,7757.,1.,1.,2236.,0.,0.,9995.,0.859576054564,44.6979548373,13.
8.8,7755.,4.,0.,2233.,0.,0.,9992.,0.859612441402,11.1749617382,52.
8.82,7764.,3.,3.,2225.,0.,0.,9995.,0.860351745215,14.9127635837,39.
8.84,7761.,6.,3.,2223.,0.,0.,9993.,0.860191430713,7.45499239951,78.
8.86,7764.,6.,6.,2218.,0.,0.,9994.,0.860437832042,7.4571278777,78.
8.88,7757.,13.,3.,2220.,0.,0.,9993.,0.8597480902,3.4389923608,169.
8.9,7758.,11.,3.,2219.,0.,0.,9991.,0.860031052027,4.06560133686,143.
8.92,7749.,15.,2.,2219.,0.,0.,9985.,0.859549530483,2.97977170567,195.
8.94,7751.,12.,10.,2215.,0.,0.,9988.,0.859513137039,3.72455692717,156.
8.96,7747.,11.,9.,2218.,0.,0.,9985.,0.859327682624,4.06227631786,143.
8.98,7745.,12.,12.,2217.,0.,0.,9986.,0.859019803737,3.72241914953,156.
9.,7743.,15.,10.,2219.,0.,0.,9987.,0.858711986507,2.97686821989,195.
9.02,7742.,15.,11.,2218.,0.,0.,9986.,0.858687065273,2.97678182628,195.
9.04,7721.,29.,9.,2227.,0.,0.,9986.,0.856357896018,1.53553829631,377.
9.06,7721.,22.,11.,2235.,0.,0.,9989.,0.85610070574,2.02351075902,286.
9.08,7710.,32.,11.,2240.,0.,0.,9993.,0.85453883917,1.38862561365,416.
9.1,7706.,27.,13.,2246.,0.,0.,9992.,0.854180976589,1.64508928825,351.
9.12,7697.,29.,15.,2253.,0.,0.,9994.,0.853012621487,1.52953987301,377.
9.14,7673.,32.,16.,2267.,0.,0.,9988.,0.850863669268,1.38265346256,416.
9.16,7665.,27.,14.,2280.,0.,0.,9986.,0.850146778005,1.6373197206,351.
9.18,7659.,29.,9.,2291.,0.,0.,9988.,0.849311200694,1.52290284262,377.
9.2,7657.,24.,13.,2294.,0.,0.,9988.,0.849089419469,1.83969374218,312.
9.22,7647.,24.,16.,2299.,0.,0.,9986.,0.848150347215,1.83765908563,312.
9.24,7625.,32.,19.,2308.,0.,0.,9984.,0.845879678253,1.37455447716,416.
9.26,7611.,32.,17.,2324.,0.,0.,9984.,0.844326587696,1.37203070501,416.
9.28,7596.,36.,10.,2340.,0.,0.,9982.,0.842831398517,1.21742313119,468.
9.3,7589.,36.,9.,2349.,0.,0.,9983.,0.841970348787,1.21617939269,468.
9.32,7584.,28.,20.,2350.,0.,0.,9982.,0.841499911316,1.56278554959,364.
9.34,7570.,31.,10.,2367.,0.,0.,9978.,0.840283228967,1.40950735182,403.
9.36,7571.,22.,12.,2374.,0.,0.,9979.,0.840310014438,1.98618730685,286.
9.38,7574.,17.,8.,2384.,0.,0.,9983.,0.840306156504,2.57034824343,221.
9.4,7572.,16.,11.,2385.,0.,0.,9984.,0.840000121145,2.73000039372,208.
9.42,7571.,15.,7.,2392.,0.,0.,9985.,0.839805071014,2.91132424618,195.
9.44,7564.,16.,3.,2401.,0.,0.,9984.,0.839112640827,2.72711608269,208.
9.46,7563.,11.,5.,2407.,0.,0.,9986.,0.838833670196,3.96539553183,143.
9.48,7561.,11.,1.,2411.,0.,0.,9984.,0.838779835707,3.96514104153,143.
9.5,7566.,6.,1.,2411.,0.,0.,9984.,0.839334510906,7.27423242785,78.
9.52,7570.,3.,4.,2404.,0.,0.,9981.,0.840030664125,14.5605315115,39.
9.54,7573.,5.,1.,2399.,0.,0.,9978.,0.84061623421,8.74240883578,65.
9.56,7574.,5.,3.,2398.,0.,0.,9980.,0.840558753545,8.74181103687,65.
9.58,7575.,2.,4.,2399.,0.,0.,9980.,0.840669733048,21.8574130593,26.
9.6,7578.,3.,3.,2395.,0.,0.,9979.,0.841086948806,14.578840446,39.
9.62,7586.,2.,1.,2395.,0.,0.,9984.,0.841553211702,21.8803835042,26.
9.64,7586.,0.,2.,2392.,0.,0.,9980.,0.841890507578,inf,0.
9.66,7585.,1.,0.,2394.,0.,0.,9980.,0.841779528075,43.7725354599,13.
9.68,7588.,2.,2.,2386.,0.,0.,9978.,0.842281260423,21.899312771,26.
9.7,7589.,2.,1.,2383.,0.,0.,9975.,0.842645613227,21.9087859439,26.
9.72,7586.,0.,2.,2384.,0.,0.,9972.,0.842565911114,inf,0.
9.74,7587.,2.,0.,2385.,0.,0.,9974.,0.842508004919,21.9052081279,26.
9.76,7594.,1.,0.,2378.,0.,0.,9973.,0.843369885604,43.8552340514,13.
9.78,7596.,1.,2.,2373.,0.,0.,9972.,0.84367659647,43.8711830164,13.
9.8,7597.,3.,1.,2370.,0.,0.,9971.,0.843872289182,14.6271196792,39.
9.82,7588.,3.,7.,2368.,0.,0.,9966.,0.843295446167,14.6171210669,39.
9.84,7592.,5.,4.,2367.,0.,0.,9968.,0.843570698059,8.77313525981,65.
9.86,7589.,8.,0.,2370.,0.,0.,9967.,0.843321961667,5.48159275084,104.
9.88,7595.,9.,0.,2363.,0.,0.,9967.,0.84398870719,4.8763791971,117.
9.9,7604.,6.,4.,2356.,0.,0.,9970.,0.844734566048,7.32103290575,78.
9.92,7603.,10.,4.,2353.,0.,0.,9970.,0.844623475232,4.3920420712,130.
9.94,7603.,8.,8.,2353.,0.,0.,9972.,0.844454076219,5.48895149543,104.
9.96,7601.,12.,2.,2357.,0.,0.,9972.,0.844231939148,3.65833840297,156.
9.98,7601.,11.,3.,2356.,0.,0.,9971.,0.844316607881,3.99131487362,143.
10.,7600.,10.,1.,2358.,0.,0.,9969.,0.844374894347,4.39074945061,130.
