t,prevalence
5.,6
5.02,6
5.04,2
5.06,11
5.08,2
5.1,4
5.12,4
5.14,12
5.16,7
5.18,10
5.2,11
5.22,6
5.24,10
5.26,12
5.28,6
5.3,6
5.32,4
5.34,6
5.36,4
5.38,9
5.4,2
5.42,3
5.44,3
5.46,1
5.48,4
5.5,1
5.52,0
5.54,0
5.56,2
5.58,0
5.6,2
5.62,0
5.64,1
5.66,1
5.68,1
5.7,0
5.72,0
5.74,0
5.76,2
5.78,1
5.8,1
5.82,2
5.84,2
5.86,3
5.88,0
5.9,3
5.92,3
5.94,2
5.96,7
5.98,2
6.,4
6.02,3
6.04,4
6.06,4
6.08,8
6.1,6
6.12,5
6.14,6
6.16,7
6.18,9
6.2,12
6.22,5
6.24,10
6.26,7
6.28,8
6.3,10
6.32,2
6.34,5
6.36,6
6.38,6
6.4,4
6.42,2
6.44,4
6.46,3
6.48,0
6.5,1
6.52,2
6.54,1
6.56,1
6.58,1
6.6,1
6.62,1
6.64,0
6.66,0
6.68,0
6.7,0
6.72,0
6.74,0
6.76,0
6.78,2
6.8,1
6.82,2
6.84,0
6.86,1
6.88,1
6.9,0
6.92,3
6.94,6
6.96,4
6.98,2
7.,5
7.02,3
7.04,3
7.06,10
7.08,2
7.1,7
7.12,3
7.14,2
7.16,4
7.18,11
7.2,9
7.22,9
7.24,7
7.26,5
7.28,6
7.3,10
7.32,4
7.34,5
7.36,11
7.38,6
7.4,4
7.42,2
7.44,2
7.46,2
7.48,3
7.5,0
7.52,1
7.54,1
7.56,0
7.58,0
7.6,0
7.62,0
7.64,0
7.66,0
7.68,0
7.7,0
7.72,0
7.74,0
7.76,0
7.78,0
7.8,0
7.82,0
7.84,0
7.86,0
7.88,2
7.9,1
7.92,2
7.94,2
7.96,3
7.98,1
8.,2
8.02,3
8.04,3
8.06,5
8.08,11
8.1,7
8.12,8
8.14,2
8.16,11
8.18,4
8.2,10
8.22,12
8.24,12
8.26,8
8.28,9
8.3,5
8.32,6
8.34,12
8.36,6
8.38,8
8.4,3
8.42,5
8.44,3
8.46,2
8.48,1
8.5,0
8.52,0
8.54,0
8.56,0
8.58,0
8.6,0
8.62,1
8.64,1
8.66,1
8.68,0
8.7,0
8.72,0
8.74,1
8.76,0
8.78,0
8.8,1
8.82,0
8.84,0
8.86,0
8.88,2
8.9,1
8.92,2
8.94,5
8.96,2
8.98,6
9.,9
9.02,3
9.04,6
9.06,4
9.08,5
9.1,5
9.12,6
9.14,5
9.16,7
9.18,9
9.2,9
9.22,10
9.24,8
9.26,10
9.28,5
9.3,7
9.32,2
9.34,6
9.36,3
9.38,6
9.4,1
9.42,0
9.44,1
9.46,2
9.48,5
9.5,0
9.52,2
9.54,0
9.56,0
9.58,0
9.6,0
9.62,0
9.64,0
9.66,0
9.68,0
9.7,0
9.72,0
9.74,0
9.76,0
9.78,1
9.8,1
9.82,1
9.84,0
9.86,1
9.88,1
9.9,5
9.92,2
9.94,1
9.96,0
9.98,4
10.,2
