t,s,e,i,r,c,o,n,reff,coal,reportr
5.,5444.,2.,36.,4517.,0.,0.,9999.,0.823019332901,21.3985026554,26.
5.02,5434.,24.,13.,4526.,0.,0.,9997.,0.82167189214,1.78028909964,312.
5.04,5434.,19.,17.,4525.,0.,0.,9995.,0.821836308727,2.24923621336,247.
5.06,5430.,27.,11.,4527.,0.,0.,9995.,0.82123135009,1.58163074832,351.
5.08,5426.,30.,8.,4532.,0.,0.,9996.,0.820544295975,1.42227677969,390.
5.1,5427.,23.,11.,4532.,0.,0.,9993.,0.820941901627,1.8560425602,299.
5.12,5431.,21.,13.,4527.,0.,0.,9992.,0.821629201816,2.0345104045,273.
5.14,5427.,20.,17.,4525.,0.,0.,9989.,0.82127064,2.135303664,260.
5.16,5421.,24.,19.,4524.,0.,0.,9988.,0.820444791809,1.77763038225,312.
5.18,5417.,24.,18.,4528.,0.,0.,9987.,0.819921499851,1.77649658301,312.
5.2,5419.,26.,17.,4523.,0.,0.,9985.,0.820388512749,1.6407770255,338.
5.22,5423.,26.,16.,4523.,0.,0.,9988.,0.820747483118,1.64149496624,338.
5.24,5417.,26.,16.,4530.,0.,0.,9989.,0.81975733497,1.63951466994,338.
5.26,5409.,29.,8.,4543.,0.,0.,9989.,0.818546690946,1.46773889411,377.
5.28,5402.,22.,17.,4548.,0.,0.,9989.,0.817487377424,1.93224289209,286.
5.3,5393.,24.,7.,4566.,0.,0.,9990.,0.816043708662,1.7680947021,312.
5.32,5393.,25.,13.,4558.,0.,0.,9989.,0.816125402897,1.69754083803,325.
5.34,5399.,20.,16.,4558.,0.,0.,9993.,0.816706343631,2.12343649344,260.
5.36,5407.,18.,1.,4565.,0.,0.,9991.,0.818080233717,2.3633428974,234.
5.38,5417.,15.,6.,4558.,0.,0.,9996.,0.819183275211,2.83983535407,195.
5.4,5429.,9.,10.,4549.,0.,0.,9997.,0.820915845129,4.74306932741,117.
5.42,5432.,8.,6.,4548.,0.,0.,9994.,0.821616032113,5.34050420873,104.
5.44,5441.,8.,1.,4544.,0.,0.,9994.,0.822977325244,5.34935261409,104.
5.46,5446.,8.,4.,4538.,0.,0.,9996.,0.823568786561,5.35319711265,104.
5.48,5454.,4.,3.,4537.,0.,0.,9998.,0.824613594081,10.7199767231,52.
5.5,5457.,7.,2.,4532.,0.,0.,9998.,0.825067176916,6.12907045709,91.
5.52,5467.,6.,4.,4523.,0.,0.,10000.,0.826413803876,7.16225296692,78.
5.54,5477.,4.,2.,4520.,0.,0.,10003.,0.827677141128,10.7598028347,52.
5.56,5494.,3.,1.,4506.,0.,0.,10004.,0.830163167675,14.3894949064,39.
5.58,5507.,0.,3.,4491.,0.,0.,10001.,0.832377127742,inf,0.
5.6,5509.,1.,1.,4487.,0.,0.,9998.,0.83292927939,43.3123225283,13.
5.62,5523.,1.,0.,4478.,0.,0.,10002.,0.834712047677,43.4050264792,13.
5.64,5528.,0.,1.,4469.,0.,0.,9998.,0.835801970679,inf,0.
5.66,5536.,0.,2.,4456.,0.,0.,9994.,0.837346530519,inf,0.
5.68,5542.,0.,1.,4455.,0.,0.,9998.,0.837918690575,inf,0.
5.7,5552.,2.,1.,4441.,0.,0.,9996.,0.839598586667,21.8295632533,26.
5.72,5567.,2.,1.,4429.,0.,0.,9999.,0.841614369261,21.8819736008,26.
5.74,5579.,1.,0.,4417.,0.,0.,9997.,0.843597255475,43.8670572847,13.
5.76,5592.,1.,0.,4407.,0.,0.,10000.,0.845309308812,43.9560840582,13.
5.78,5602.,0.,1.,4399.,0.,0.,10002.,0.846651618883,inf,0.
5.8,5610.,1.,0.,4388.,0.,0.,9999.,0.84811507303,44.1019837975,13.
5.82,5618.,4.,0.,4382.,0.,0.,10004.,0.848900013833,11.0357001798,52.
5.84,5628.,2.,4.,4372.,0.,0.,10006.,0.850241069591,22.1062678094,26.
5.86,5637.,4.,4.,4364.,0.,0.,10009.,0.851345479657,11.0674912355,52.
5.88,5644.,9.,2.,4356.,0.,0.,10011.,0.852232383243,4.92400932541,117.
5.9,5650.,8.,4.,4350.,0.,0.,10012.,0.853053159311,5.54484553552,104.
5.92,5658.,11.,1.,4344.,0.,0.,10014.,0.854090408845,4.03751829636,143.
5.94,5663.,13.,2.,4336.,0.,0.,10014.,0.854845172374,3.4193806895,169.
5.96,5667.,14.,6.,4328.,0.,0.,10015.,0.855363566423,3.17706467529,182.
5.98,5662.,14.,10.,4328.,0.,0.,10014.,0.854694219668,3.1745785302,182.
6.,5663.,14.,10.,4324.,0.,0.,10011.,0.855101344137,3.17609070679,182.
6.02,5666.,18.,8.,4322.,0.,0.,10014.,0.855298030491,2.47086097697,234.
6.04,5664.,20.,7.,4323.,0.,0.,10014.,0.85499612508,2.22298992521,260.
6.06,5669.,20.,8.,4315.,0.,0.,10012.,0.855921833652,2.22539676749,260.
6.08,5670.,23.,12.,4306.,0.,0.,10011.,0.856158329729,1.93566231069,299.
6.1,5667.,25.,13.,4309.,0.,0.,10014.,0.855448983197,1.77933388505,325.
6.12,5658.,29.,12.,4315.,0.,0.,10014.,0.854090408845,1.53147245724,377.
6.14,5661.,28.,7.,4318.,0.,0.,10014.,0.854543266962,1.58700892436,364.
6.16,5660.,24.,6.,4328.,0.,0.,10018.,0.854051171388,1.85044420467,312.
6.18,5660.,24.,13.,4320.,0.,0.,10017.,0.854136431563,1.85062893505,312.
6.2,5655.,28.,11.,4323.,0.,0.,10017.,0.853381894079,1.584852089,364.
6.22,5642.,28.,20.,4329.,0.,0.,10019.,0.851250135528,1.58089310884,364.
6.24,5643.,27.,11.,4338.,0.,0.,10019.,0.851401012901,1.63973528411,351.
6.26,5644.,22.,10.,4344.,0.,0.,10020.,0.851466905055,2.01255813922,286.
6.28,5650.,22.,10.,4340.,0.,0.,10022.,0.852201978749,2.01429558613,286.
6.3,5647.,21.,9.,4343.,0.,0.,10020.,0.851919491999,2.10951493257,273.
6.32,5636.,25.,10.,4347.,0.,0.,10018.,0.850429752994,1.76889388623,325.
6.34,5636.,18.,12.,4354.,0.,0.,10020.,0.850260006536,2.45630668555,234.
6.36,5644.,21.,5.,4355.,0.,0.,10025.,0.851042233282,2.10734267289,273.
6.38,5647.,15.,7.,4350.,0.,0.,10019.,0.852004522391,2.95361567762,195.
6.4,5656.,15.,1.,4352.,0.,0.,10024.,0.852936759117,2.95684743161,195.
6.42,5662.,12.,2.,4345.,0.,0.,10021.,0.854097187482,3.70108781242,156.
6.44,5670.,7.,6.,4333.,0.,0.,10016.,0.855730934397,6.3568583698,91.
6.46,5675.,9.,3.,4329.,0.,0.,10016.,0.856485547213,4.94858316168,117.
6.48,5683.,8.,2.,4323.,0.,0.,10016.,0.857692927721,5.57500403018,104.
6.5,5691.,7.,1.,4316.,0.,0.,10015.,0.858986069616,6.38103937429,91.
6.52,5710.,3.,5.,4299.,0.,0.,10017.,0.8616818064,14.9358179776,39.
6.54,5717.,2.,1.,4293.,0.,0.,10013.,0.8630828061,22.4401529586,26.
6.56,5731.,0.,1.,4284.,0.,0.,10016.,0.864937210763,inf,0.
6.58,5747.,1.,0.,4268.,0.,0.,10016.,0.867351971777,45.1023025324,13.
6.6,5763.,1.,0.,4258.,0.,0.,10022.,0.869246018324,45.2007929528,13.
6.62,5769.,2.,0.,4251.,0.,0.,10022.,0.870151011575,22.623926301,26.
6.64,5775.,1.,1.,4243.,0.,0.,10020.,0.871229868301,45.3039531517,13.
6.66,5784.,1.,2.,4231.,0.,0.,10018.,0.872761833094,45.3836153209,13.
6.68,5799.,1.,0.,4215.,0.,0.,10015.,0.875287333984,45.5149413672,13.
6.7,5806.,1.,0.,4205.,0.,0.,10012.,0.876606485479,45.5835372449,13.
6.72,5813.,0.,0.,4196.,0.,0.,10009.,0.877926427753,inf,0.
6.74,5826.,0.,0.,4183.,0.,0.,10009.,0.879889793238,inf,0.
6.76,5834.,1.,0.,4175.,0.,0.,10010.,0.881009996371,45.8125198113,13.
6.78,5837.,1.,1.,4170.,0.,0.,10009.,0.881551102494,45.8406573297,13.
6.8,5851.,2.,0.,4157.,0.,0.,10010.,0.883577217821,22.9730076633,26.
6.82,5865.,2.,0.,4145.,0.,0.,10012.,0.885514474222,23.0233763298,26.
6.84,5869.,3.,2.,4136.,0.,0.,10010.,0.886295452297,15.3624545065,39.
6.86,5872.,6.,3.,4129.,0.,0.,10010.,0.886748491377,7.68515359193,78.
6.88,5873.,6.,7.,4125.,0.,0.,10011.,0.886810911904,7.68569456984,78.
6.9,5875.,12.,5.,4121.,0.,0.,10013.,0.886935715556,3.84338810074,156.
6.92,5881.,10.,5.,4118.,0.,0.,10014.,0.887752862216,4.61631488352,130.
6.94,5882.,11.,4.,4116.,0.,0.,10013.,0.887992490026,4.19778268012,143.
6.96,5874.,13.,5.,4115.,0.,0.,10007.,0.887316446434,3.54926578574,169.
6.98,5880.,14.,7.,4108.,0.,0.,10009.,0.888045311404,3.29845401378,182.
7.,5879.,15.,8.,4105.,0.,0.,10007.,0.888071737928,3.07864869148,195.
7.02,5877.,16.,2.,4111.,0.,0.,10006.,0.887858345058,2.88553962144,208.
7.04,5884.,12.,9.,4103.,0.,0.,10008.,0.888738217768,3.85119894366,156.
7.06,5872.,23.,11.,4104.,0.,0.,10010.,0.886748491377,2.00482267616,299.
7.08,5870.,26.,13.,4098.,0.,0.,10007.,0.88671221324,1.77342442648,338.
7.1,5852.,36.,13.,4108.,0.,0.,10009.,0.883816524206,1.2766238683,468.
7.12,5847.,31.,17.,4114.,0.,0.,10009.,0.883061383636,1.48126425642,403.
7.14,5836.,33.,15.,4127.,0.,0.,10011.,0.88122398806,1.38859537512,429.
7.16,5831.,32.,15.,4133.,0.,0.,10011.,0.880468998351,1.43076212232,416.
7.18,5822.,27.,20.,4142.,0.,0.,10011.,0.879110016875,1.69310077324,351.
7.2,5814.,33.,16.,4148.,0.,0.,10011.,0.877902033341,1.38336077981,429.
7.22,5799.,35.,23.,4154.,0.,0.,10011.,0.875637064215,1.3009464954,455.
7.24,5785.,39.,22.,4169.,0.,0.,10015.,0.873174207122,1.16423227616,507.
7.26,5770.,37.,24.,4185.,0.,0.,10016.,0.870823190735,1.22385961941,481.
7.28,5764.,25.,14.,4211.,0.,0.,10014.,0.870091395649,1.80979010295,325.
7.3,5762.,26.,10.,4219.,0.,0.,10017.,0.869528996231,1.73905799246,338.
7.32,5762.,27.,16.,4212.,0.,0.,10017.,0.869528996231,1.67464843719,351.
7.34,5761.,25.,6.,4223.,0.,0.,10015.,0.869551703929,1.80866754417,325.
7.36,5761.,22.,11.,4223.,0.,0.,10017.,0.869378088734,2.05489366428,286.
7.38,5757.,25.,7.,4228.,0.,0.,10017.,0.868774458747,1.80705087419,325.
7.4,5769.,20.,9.,4218.,0.,0.,10016.,0.870672268172,2.26374789725,260.
7.42,5777.,11.,9.,4221.,0.,0.,10018.,0.871705586062,4.1207900432,143.
7.44,5779.,15.,3.,4222.,0.,0.,10019.,0.871920335558,3.02265716327,195.
7.46,5782.,7.,4.,4224.,0.,0.,10017.,0.872547146166,6.48177880009,91.
7.48,5786.,4.,4.,4220.,0.,0.,10014.,0.873412355175,11.3543606173,52.
7.5,5801.,5.,1.,4209.,0.,0.,10016.,0.8755017902,9.10521861808,65.
7.52,5808.,3.,2.,4203.,0.,0.,10016.,0.876558248144,15.1936763012,39.
7.54,5819.,3.,2.,4192.,0.,0.,10016.,0.878218396341,15.2224522032,39.
7.56,5829.,3.,2.,4183.,0.,0.,10017.,0.879639798513,15.2470898409,39.
7.58,5839.,3.,2.,4170.,0.,0.,10014.,0.881412848577,15.2778227087,39.
7.6,5844.,1.,5.,4163.,0.,0.,10013.,0.882255714334,45.8772971454,13.
7.62,5849.,0.,4.,4161.,0.,0.,10014.,0.882922375634,inf,0.
7.64,5861.,0.,2.,4154.,0.,0.,10017.,0.884468838408,inf,0.
7.66,5867.,1.,2.,4146.,0.,0.,10016.,0.885462679384,46.0440593279,13.
7.68,5875.,1.,1.,4141.,0.,0.,10018.,0.886493044506,46.0976383143,13.
7.7,5877.,0.,1.,4136.,0.,0.,10014.,0.887149051393,inf,0.
7.72,5880.,0.,1.,4134.,0.,0.,10015.,0.88751328226,inf,0.
7.74,5890.,0.,0.,4125.,0.,0.,10015.,0.889022658591,inf,0.
7.76,5898.,0.,0.,4114.,0.,0.,10012.,0.890496908604,inf,0.
7.78,5904.,2.,0.,4104.,0.,0.,10010.,0.891580908223,23.1811036138,26.
7.8,5915.,1.,2.,4095.,0.,0.,10013.,0.892974426811,46.4346701942,13.
7.82,5920.,1.,2.,4089.,0.,0.,10012.,0.893818531526,46.4785636393,13.
7.84,5925.,5.,1.,4083.,0.,0.,10014.,0.894394781267,9.30170572518,65.
7.86,5927.,8.,1.,4074.,0.,0.,10010.,0.895054207832,5.81785235091,104.
7.88,5929.,7.,3.,4069.,0.,0.,10008.,0.895535161989,6.65254691763,91.
7.9,5931.,11.,1.,4067.,0.,0.,10010.,0.895658259938,4.23402086516,143.
7.92,5939.,8.,4.,4059.,0.,0.,10010.,0.896866364149,5.82963136697,104.
7.94,5941.,10.,7.,4054.,0.,0.,10012.,0.896989171587,4.66434369225,130.
7.96,5936.,19.,3.,4054.,0.,0.,10012.,0.896234257286,2.45285165152,247.
7.98,5943.,12.,6.,4048.,0.,0.,10009.,0.897560082597,3.88942702459,156.
8.,5943.,15.,8.,4038.,0.,0.,10004.,0.898008683198,3.11309676842,195.
8.02,5941.,11.,16.,4037.,0.,0.,10005.,0.897616750217,4.24327918285,143.
8.04,5936.,18.,13.,4040.,0.,0.,10007.,0.896682060952,2.59041484275,234.
8.06,5929.,27.,10.,4042.,0.,0.,10008.,0.895535161989,1.72473438605,351.
8.08,5924.,21.,15.,4044.,0.,0.,10004.,0.895137714835,2.21653148435,273.
8.1,5915.,28.,19.,4048.,0.,0.,10010.,0.893242051514,1.65887809567,364.
8.12,5905.,32.,17.,4053.,0.,0.,10007.,0.891999253693,1.44949878725,416.
8.14,5895.,34.,21.,4052.,0.,0.,10002.,0.890933826011,1.36260467508,442.
8.16,5888.,30.,17.,4066.,0.,0.,10001.,0.889964868013,1.54260577122,390.
8.18,5883.,29.,16.,4075.,0.,0.,10003.,0.889031334902,1.59412515224,377.
8.2,5877.,31.,8.,4088.,0.,0.,10004.,0.888035845727,1.48960851541,403.
8.22,5873.,27.,9.,4095.,0.,0.,10004.,0.887431431335,1.70912720109,351.
8.24,5876.,22.,10.,4097.,0.,0.,10005.,0.887795998027,2.09842690443,286.
8.26,5870.,30.,5.,4098.,0.,0.,10003.,0.887066791751,1.53758243904,390.
8.28,5874.,26.,6.,4099.,0.,0.,10005.,0.887493821036,1.77498764207,338.
8.3,5874.,19.,15.,4097.,0.,0.,10005.,0.887493821036,2.42893045757,247.
8.32,5868.,23.,9.,4109.,0.,0.,10009.,0.886232974033,2.00365715868,299.
8.34,5865.,20.,10.,4113.,0.,0.,10008.,0.885868396874,2.30325783187,260.
8.36,5859.,16.,7.,4127.,0.,0.,10009.,0.884873721006,2.87583959327,208.
8.38,5859.,15.,9.,4124.,0.,0.,10007.,0.885050571954,3.06817531611,195.
8.4,5857.,13.,9.,4124.,0.,0.,10003.,0.885102248601,3.5404089944,169.
8.42,5860.,10.,9.,4122.,0.,0.,10001.,0.885732698124,4.60581003025,130.
8.44,5865.,9.,0.,4125.,0.,0.,9999.,0.886665758167,5.12295771386,117.
8.46,5873.,5.,4.,4117.,0.,0.,9999.,0.887875191427,9.23390199084,65.
8.48,5887.,2.,4.,4109.,0.,0.,10002.,0.889724755509,23.1328436432,26.
8.5,5892.,3.,0.,4107.,0.,0.,10002.,0.890480424573,15.4349940259,39.
8.52,5905.,2.,1.,4093.,0.,0.,10001.,0.892534399731,23.205894393,26.
8.54,5907.,5.,1.,4085.,0.,0.,9998.,0.89310460217,9.28828786257,65.
8.56,5910.,6.,1.,4078.,0.,0.,9995.,0.893826386562,7.7464953502,78.
8.58,5917.,4.,2.,4073.,0.,0.,9996.,0.894795539861,11.6323420182,52.
8.6,5926.,2.,1.,4067.,0.,0.,9996.,0.896156560625,23.3000705762,26.
8.62,5936.,2.,0.,4058.,0.,0.,9996.,0.897668805918,23.3393889539,26.
8.64,5948.,2.,0.,4047.,0.,0.,9997.,0.899393524926,23.3842316481,26.
8.66,5952.,2.,2.,4039.,0.,0.,9995.,0.900178452253,23.4046397586,26.
8.68,5962.,3.,0.,4028.,0.,0.,9993.,0.901871313341,15.6324360979,39.
8.7,5973.,1.,0.,4022.,0.,0.,9996.,0.903264113502,46.9697339021,13.
8.72,5980.,1.,0.,4014.,0.,0.,9995.,0.904413162714,47.0294844611,13.
8.74,5989.,1.,1.,4008.,0.,0.,9999.,0.905411973685,47.0814226316,13.
8.76,5995.,1.,1.,4002.,0.,0.,9999.,0.90631904863,47.1285905287,13.
8.78,6012.,0.,0.,3991.,0.,0.,10003.,0.908525647702,inf,0.
8.8,6020.,0.,0.,3980.,0.,0.,10000.,0.910007517712,inf,0.
8.82,6023.,2.,0.,3972.,0.,0.,9997.,0.9107342301,23.6790899826,26.
8.84,6023.,5.,1.,3965.,0.,0.,9994.,0.911007614399,9.47447918975,65.
8.86,6026.,6.,4.,3953.,0.,0.,9989.,0.911917611321,7.90328596479,78.
8.88,6031.,5.,4.,3949.,0.,0.,9989.,0.912674263837,9.4918123439,65.
8.9,6034.,6.,3.,3944.,0.,0.,9987.,0.913311118719,7.9153630289,78.
8.92,6038.,8.,5.,3936.,0.,0.,9987.,0.913916561953,5.9404576527,104.
8.94,6042.,12.,2.,3932.,0.,0.,9988.,0.914430443113,3.96253192015,156.
8.96,6042.,16.,2.,3929.,0.,0.,9989.,0.91433889937,2.97160142295,208.
8.98,6047.,13.,9.,3922.,0.,0.,9991.,0.914912367909,3.65964947164,169.
9.,6044.,16.,10.,3920.,0.,0.,9990.,0.914550004664,2.97228751516,208.
9.02,6033.,19.,16.,3920.,0.,0.,9988.,0.913068332224,2.49892385661,247.
9.04,6023.,16.,23.,3925.,0.,0.,9987.,0.911646149825,2.96284998693,208.
9.06,6003.,27.,17.,3936.,0.,0.,9983.,0.908983000141,1.7506339262,351.
9.08,6004.,20.,22.,3940.,0.,0.,9986.,0.908861298899,2.36303937714,260.
9.1,5991.,30.,5.,3960.,0.,0.,9986.,0.906893411343,1.57194857966,390.
9.12,5993.,22.,14.,3958.,0.,0.,9987.,0.907105325569,2.14406713316,286.
9.14,5989.,24.,18.,3956.,0.,0.,9987.,0.906499882335,1.96408307839,312.
9.16,5974.,35.,15.,3965.,0.,0.,9989.,0.904048425163,1.34315766024,455.
9.18,5964.,41.,11.,3972.,0.,0.,9988.,0.902625482079,1.14479329434,533.
9.2,5951.,35.,15.,3983.,0.,0.,9984.,0.901018829114,1.33865654611,455.
9.22,5932.,34.,22.,3992.,0.,0.,9980.,0.89850208641,1.37417966157,442.
9.24,5933.,30.,13.,4005.,0.,0.,9981.,0.898563516959,1.55751009606,390.
9.26,5927.,31.,14.,4009.,0.,0.,9981.,0.897654806171,1.50574354584,403.
9.28,5923.,30.,8.,4018.,0.,0.,9979.,0.897228786333,1.55519656298,390.
9.3,5920.,21.,14.,4026.,0.,0.,9981.,0.896594643586,2.22013911745,273.
9.32,5921.,22.,11.,4026.,0.,0.,9980.,0.896835949702,2.11979406293,286.
9.34,5928.,19.,8.,4028.,0.,0.,9983.,0.897626390944,2.45666170153,247.
9.36,5939.,20.,4.,4026.,0.,0.,9989.,0.898751857557,2.33675482965,260.
9.38,5941.,15.,7.,4029.,0.,0.,9992.,0.898784586262,3.11578656571,195.
9.4,5942.,12.,8.,4030.,0.,0.,9992.,0.898935871329,3.89538877576,156.
9.42,5945.,14.,2.,4031.,0.,0.,9992.,0.899389726532,3.34059041283,182.
9.44,5949.,13.,6.,4026.,0.,0.,9994.,0.899814759764,3.59925903906,169.
9.46,5948.,15.,2.,4026.,0.,0.,9991.,0.899933647151,3.11976997679,195.
9.48,5952.,6.,6.,4021.,0.,0.,9985.,0.901079983001,7.80935985268,78.
9.5,5956.,7.,1.,4020.,0.,0.,9984.,0.901775860562,6.69890639274,91.
9.52,5961.,5.,5.,4011.,0.,0.,9982.,0.902713724086,9.38822273049,65.
9.54,5962.,7.,0.,4010.,0.,0.,9979.,0.903136590261,6.70901467051,91.
9.56,5970.,4.,5.,4005.,0.,0.,9984.,0.903895548615,11.750642132,52.
9.58,5966.,2.,8.,4001.,0.,0.,9977.,0.903923684053,23.5020157854,26.
9.6,5979.,2.,3.,3993.,0.,0.,9977.,0.905893346791,23.5532270166,26.
9.62,5985.,3.,0.,3988.,0.,0.,9976.,0.906893320299,15.7194842185,39.
9.64,5999.,0.,3.,3973.,0.,0.,9975.,0.909105837477,inf,0.
9.66,6002.,1.,0.,3971.,0.,0.,9974.,0.909651659316,47.3018862844,13.
9.68,6018.,0.,1.,3956.,0.,0.,9975.,0.911985152514,inf,0.
9.7,6028.,0.,0.,3956.,0.,0.,9984.,0.912677113409,inf,0.
9.72,6042.,0.,0.,3942.,0.,0.,9984.,0.914796801463,inf,0.
9.74,6055.,0.,0.,3927.,0.,0.,9982.,0.916948766874,inf,0.
9.76,6064.,0.,0.,3917.,0.,0.,9981.,0.918403702484,inf,0.
9.78,6070.,0.,0.,3912.,0.,0.,9982.,0.919220316256,inf,0.
9.8,6074.,1.,0.,3907.,0.,0.,9982.,0.919826062757,47.8309552634,13.
9.82,6078.,0.,3.,3898.,0.,0.,9979.,0.920708519894,inf,0.
9.84,6082.,5.,0.,3895.,0.,0.,9982.,0.921037555761,9.57879057991,65.
9.86,6083.,4.,2.,3885.,0.,0.,9974.,0.921927864648,11.9850622404,52.
9.88,6090.,4.,3.,3876.,0.,0.,9973.,0.92308132004,12.0000571605,52.
9.9,6088.,4.,5.,3869.,0.,0.,9966.,0.923426321892,12.0045421846,52.
9.92,6097.,7.,2.,3860.,0.,0.,9966.,0.924791439647,6.86987926595,91.
9.94,6104.,8.,4.,3850.,0.,0.,9966.,0.925853197902,6.01804578636,104.
9.96,6105.,10.,5.,3848.,0.,0.,9968.,0.925819082131,4.81425922708,130.
9.98,6107.,13.,6.,3841.,0.,0.,9967.,0.926215299636,3.70486119854,169.
10.,6105.,17.,7.,3838.,0.,0.,9967.,0.925911970571,2.83220132175,221.
