t,prevalence
5.,6
5.02,7
5.04,7
5.06,4
5.08,9
5.1,10
5.12,9
5.14,12
5.16,11
5.18,10
5.2,9
5.22,8
5.24,5
5.26,8
5.28,5
5.3,10
5.32,1
5.34,2
5.36,4
5.38,4
5.4,5
5.42,7
5.44,3
5.46,1
5.48,3
5.5,6
5.52,0
5.54,0
5.56,0
5.58,0
5.6,1
5.62,0
5.64,0
5.66,0
5.68,1
5.7,1
5.72,0
5.74,1
5.76,0
5.78,0
5.8,0
5.82,0
5.84,1
5.86,4
5.88,1
5.9,1
5.92,5
5.94,4
5.96,2
5.98,6
6.,0
6.02,9
6.04,3
6.06,5
6.08,6
6.1,5
6.12,6
6.14,9
6.16,8
6.18,7
6.2,8
6.22,2
6.24,10
6.26,13
6.28,10
6.3,12
6.32,6
6.34,6
6.36,9
6.38,3
6.4,2
6.42,3
6.44,2
6.46,0
6.48,0
6.5,1
6.52,2
6.54,2
6.56,1
6.58,2
6.6,0
6.62,1
6.64,1
6.66,0
6.68,0
6.7,1
6.72,0
6.74,0
6.76,1
6.78,0
6.8,0
6.82,1
6.84,0
6.86,1
6.88,2
6.9,5
6.92,2
6.94,1
6.96,3
6.98,8
7.,7
7.02,5
7.04,4
7.06,9
7.08,9
7.1,6
7.12,4
7.14,7
7.16,7
7.18,9
7.2,5
7.22,8
7.24,7
7.26,13
7.28,6
7.3,6
7.32,4
7.34,7
7.36,4
7.38,3
7.4,5
7.42,1
7.44,1
7.46,4
7.48,4
7.5,1
7.52,0
7.54,1
7.56,1
7.58,0
7.6,0
7.62,1
7.64,1
7.66,1
7.68,1
7.7,0
7.72,0
7.74,1
7.76,0
7.78,0
7.8,1
7.82,0
7.84,1
7.86,0
7.88,4
7.9,2
7.92,3
7.94,2
7.96,6
7.98,4
8.,6
8.02,1
8.04,9
8.06,8
8.08,8
8.1,15
8.12,10
8.14,6
8.16,12
8.18,7
8.2,8
8.22,8
8.24,6
8.26,8
8.28,8
8.3,5
8.32,6
8.34,4
8.36,3
8.38,7
8.4,6
8.42,5
8.44,2
8.46,1
8.48,3
8.5,1
8.52,2
8.54,0
8.56,0
8.58,1
8.6,0
8.62,1
8.64,1
8.66,0
8.68,0
8.7,0
8.72,0
8.74,0
8.76,0
8.78,0
8.8,0
8.82,0
8.84,0
8.86,2
8.88,1
8.9,1
8.92,4
8.94,3
8.96,1
8.98,5
9.,10
9.02,5
9.04,3
9.06,6
9.08,5
9.1,6
9.12,9
9.14,9
9.16,9
9.18,6
9.2,8
9.22,7
9.24,8
9.26,9
9.28,9
9.3,6
9.32,2
9.34,5
9.36,5
9.38,5
9.4,2
9.42,1
9.44,0
9.46,1
9.48,3
9.5,1
9.52,1
9.54,1
9.56,0
9.58,0
9.6,0
9.62,1
9.64,0
9.66,0
9.68,0
9.7,0
9.72,0
9.74,1
9.76,0
9.78,0
9.8,0
9.82,0
9.84,1
9.86,0
9.88,0
9.9,4
9.92,4
9.94,1
9.96,1
9.98,1
10.,2
