t,prevalence
5.,7
5.02,6
5.04,6
5.06,6
5.08,4
5.1,7
5.12,4
5.14,3
5.16,8
5.18,6
5.2,12
5.22,6
5.24,8
5.26,9
5.28,7
5.3,10
5.32,10
5.34,6
5.36,2
5.38,7
5.4,4
5.42,1
5.44,0
5.46,0
5.48,3
5.5,2
5.52,1
5.54,2
5.56,1
5.58,0
5.6,0
5.62,0
5.64,0
5.66,0
5.68,1
5.7,0
5.72,1
5.74,0
5.76,0
5.78,0
5.8,0
5.82,0
5.84,1
5.86,1
5.88,1
5.9,3
5.92,3
5.94,9
5.96,2
5.98,2
6.,6
6.02,5
6.04,9
6.06,9
6.08,10
6.1,8
6.12,9
6.14,6
6.16,9
6.18,9
6.2,7
6.22,12
6.24,8
6.26,11
6.28,6
6.3,6
6.32,3
6.34,5
6.36,10
6.38,4
6.4,4
6.42,4
6.44,3
6.46,5
6.48,2
6.5,2
6.52,0
6.54,0
6.56,1
6.58,0
6.6,0
6.62,0
6.64,0
6.66,0
6.68,2
6.7,1
6.72,0
6.74,0
6.76,0
6.78,1
6.8,1
6.82,1
6.84,4
6.86,0
6.88,1
6.9,2
6.92,1
6.94,4
6.96,3
6.98,6
7.,8
7.02,2
7.04,9
7.06,6
7.08,12
7.1,6
7.12,9
7.14,7
7.16,12
7.18,10
7.2,6
7.22,6
7.24,5
7.26,4
7.28,7
7.3,7
7.32,5
7.34,1
7.36,3
7.38,1
7.4,3
7.42,2
7.44,2
7.46,1
7.48,0
7.5,2
7.52,2
7.54,3
7.56,3
7.58,1
7.6,0
7.62,1
7.64,0
7.66,0
7.68,0
7.7,0
7.72,2
7.74,0
7.76,1
7.78,3
7.8,1
7.82,0
7.84,2
7.86,0
7.88,0
7.9,1
7.92,1
7.94,2
7.96,2
7.98,4
8.,2
8.02,5
8.04,1
8.06,4
8.08,7
8.1,4
8.12,7
8.14,7
8.16,6
8.18,8
8.2,11
8.22,7
8.24,5
8.26,10
8.28,8
8.3,4
8.32,6
8.34,5
8.36,3
8.38,2
8.4,3
8.42,3
8.44,1
8.46,0
8.48,0
8.5,1
8.52,1
8.54,0
8.56,1
8.58,0
8.6,0
8.62,2
8.64,0
8.66,0
8.68,0
8.7,0
8.72,0
8.74,0
8.76,0
8.78,0
8.8,0
8.82,0
8.84,0
8.86,0
8.88,2
8.9,2
8.92,4
8.94,3
8.96,6
8.98,5
9.,4
9.02,4
9.04,4
9.06,6
9.08,5
9.1,4
9.12,5
9.14,3
9.16,9
9.18,2
9.2,6
9.22,5
9.24,7
9.26,9
9.28,12
9.3,6
9.32,2
9.34,3
9.36,4
9.38,3
9.4,0
9.42,3
9.44,3
9.46,1
9.48,3
9.5,2
9.52,2
9.54,0
9.56,0
9.58,0
9.6,1
9.62,0
9.64,0
9.66,0
9.68,0
9.7,0
9.72,1
9.74,1
9.76,0
9.78,0
9.8,2
9.82,0
9.84,0
9.86,0
9.88,1
9.9,3
9.92,1
9.94,0
9.96,3
9.98,4
10.,2
