t,s,e,i,r,c,o,n,reff,coal,reportr
5.,8037.,14.,14.,1935.,0.,0.,10000.,0.917413303258,3.40753512639,182.
5.02,8027.,18.,13.,1940.,0.,0.,9998.,0.916455107028,2.64753697586,234.
5.04,8019.,17.,13.,1954.,0.,0.,10003.,0.915084100976,2.79908077946,221.
5.06,8006.,19.,12.,1963.,0.,0.,10000.,0.913874692781,2.50113073814,247.
5.08,7998.,21.,11.,1975.,0.,0.,10005.,0.912505250355,2.2595368104,273.
5.1,7992.,24.,6.,1987.,0.,0.,10009.,0.91145629996,1.97482198325,312.
5.12,7986.,25.,7.,1991.,0.,0.,10009.,0.910772023459,1.89440580879,325.
5.14,7984.,25.,13.,1988.,0.,0.,10010.,0.910452967862,1.89374217315,325.
5.16,7973.,29.,14.,1993.,0.,0.,10009.,0.909289424372,1.63045000232,377.
5.18,7969.,27.,13.,2005.,0.,0.,10014.,0.908379458712,1.74947155011,351.
5.2,7958.,29.,10.,2018.,0.,0.,10015.,0.907035001476,1.62640758885,377.
5.22,7950.,32.,10.,2026.,0.,0.,10018.,0.905851830882,1.47200922518,416.
5.24,7946.,29.,9.,2037.,0.,0.,10021.,0.905125006763,1.62298277075,377.
5.26,7944.,22.,11.,2044.,0.,0.,10021.,0.904897187733,2.13884789828,286.
5.28,7938.,26.,9.,2050.,0.,0.,10023.,0.904033302881,1.80806660576,338.
5.3,7928.,27.,8.,2059.,0.,0.,10022.,0.902984526269,1.73908130985,351.
5.32,7929.,18.,8.,2066.,0.,0.,10021.,0.903188545007,2.60921135224,234.
5.34,7924.,22.,8.,2065.,0.,0.,10019.,0.902799178887,2.13388896828,286.
5.36,7921.,13.,11.,2071.,0.,0.,10016.,0.902727686852,3.61091074741,169.
5.38,7913.,17.,9.,2076.,0.,0.,10015.,0.901906002347,2.7587713013,221.
5.4,7916.,16.,5.,2079.,0.,0.,10016.,0.902157854958,2.93201302861,208.
5.42,7917.,14.,7.,2080.,0.,0.,10018.,0.902091691207,3.35062628163,182.
5.44,7918.,13.,6.,2085.,0.,0.,10022.,0.901845544778,3.60738217911,169.
5.46,7915.,7.,5.,2095.,0.,0.,10022.,0.90150385033,6.69688574531,91.
5.48,7918.,9.,0.,2095.,0.,0.,10022.,0.901845544778,5.2106631476,117.
5.5,7919.,3.,6.,2091.,0.,0.,10019.,0.902229517618,15.638644972,39.
5.52,7922.,2.,1.,2096.,0.,0.,10021.,0.902391178402,23.4621706384,26.
5.54,7931.,0.,3.,2092.,0.,0.,10026.,0.902965827251,inf,0.
5.56,7932.,0.,2.,2089.,0.,0.,10023.,0.903349982168,inf,0.
5.58,7937.,0.,1.,2087.,0.,0.,10025.,0.903739083045,inf,0.
5.6,7945.,0.,0.,2084.,0.,0.,10029.,0.904289181925,inf,0.
5.62,7953.,0.,0.,2077.,0.,0.,10030.,0.905109481907,inf,0.
5.64,7957.,0.,0.,2073.,0.,0.,10030.,0.90556471112,inf,0.
5.66,7961.,1.,0.,2069.,0.,0.,10031.,0.905929618337,47.1083401535,13.
5.68,7964.,2.,0.,2066.,0.,0.,10032.,0.90618066819,23.560697373,26.
5.7,7966.,2.,0.,2064.,0.,0.,10032.,0.906408237419,23.5666141729,26.
5.72,7968.,0.,0.,2066.,0.,0.,10034.,0.90645509391,inf,0.
5.74,7973.,0.,0.,2064.,0.,0.,10037.,0.906752799496,inf,0.
5.76,7978.,2.,0.,2058.,0.,0.,10038.,0.907231050488,23.5880073127,26.
5.78,7978.,1.,1.,2057.,0.,0.,10037.,0.907321439154,47.180714836,13.
5.8,7983.,4.,0.,2053.,0.,0.,10040.,0.907618796917,11.7990443599,52.
5.82,7990.,4.,2.,2046.,0.,0.,10042.,0.908233731508,11.8070385096,52.
5.84,7989.,6.,4.,2042.,0.,0.,10041.,0.908210501399,7.87115767879,78.
5.86,7988.,6.,4.,2043.,0.,0.,10041.,0.908096818773,7.87017242937,78.
5.88,7988.,7.,6.,2039.,0.,0.,10040.,0.908187266663,6.74653398093,91.
5.9,7984.,9.,5.,2039.,0.,0.,10037.,0.908003806745,5.24624421675,117.
5.92,7979.,16.,8.,2033.,0.,0.,10036.,0.907525585098,2.94945815157,208.
5.94,7980.,12.,7.,2038.,0.,0.,10037.,0.907548895018,3.93271187841,156.
5.96,7982.,12.,10.,2037.,0.,0.,10041.,0.907414723015,3.9321304664,156.
5.98,7976.,18.,10.,2041.,0.,0.,10045.,0.906371559014,2.61840672604,234.
6.,7967.,24.,7.,2046.,0.,0.,10044.,0.905438961075,1.96178441566,312.
6.02,7967.,23.,5.,2051.,0.,0.,10046.,0.905258702472,2.04667184907,299.
6.04,7968.,22.,8.,2053.,0.,0.,10051.,0.904921939338,2.13890640207,286.
6.06,7965.,17.,17.,2053.,0.,0.,10052.,0.904491240603,2.7666790889,221.
6.08,7964.,15.,12.,2060.,0.,0.,10051.,0.904467661256,3.13548789235,195.
6.1,7957.,22.,9.,2063.,0.,0.,10051.,0.903672674613,2.13595359454,286.
6.12,7949.,22.,13.,2066.,0.,0.,10050.,0.902853945724,2.13401841717,286.
6.14,7938.,25.,17.,2069.,0.,0.,10049.,0.901694277517,1.87552409724,325.
6.16,7929.,26.,14.,2083.,0.,0.,10052.,0.9004031446,1.8008062892,338.
6.18,7917.,29.,12.,2091.,0.,0.,10049.,0.899308842921,1.61255378731,377.
6.2,7902.,27.,12.,2103.,0.,0.,10044.,0.898051797466,1.72958123956,351.
6.22,7888.,34.,15.,2107.,0.,0.,10044.,0.896460716074,1.37105756576,442.
6.24,7878.,30.,16.,2119.,0.,0.,10043.,0.895413378447,1.55204985597,390.
6.26,7868.,31.,12.,2132.,0.,0.,10043.,0.894276778576,1.50007717697,403.
6.28,7866.,28.,13.,2136.,0.,0.,10043.,0.894049458601,1.66037756597,364.
6.3,7861.,23.,9.,2150.,0.,0.,10043.,0.893481158666,2.02004435872,299.
6.32,7855.,19.,13.,2156.,0.,0.,10043.,0.892799198743,2.44345043867,247.
6.34,7846.,21.,12.,2161.,0.,0.,10040.,0.892042725869,2.20886770215,273.
6.36,7851.,19.,11.,2161.,0.,0.,10042.,0.892433420033,2.44244936009,247.
6.38,7852.,16.,8.,2165.,0.,0.,10041.,0.892635981598,2.90106694019,208.
6.4,7858.,15.,8.,2161.,0.,0.,10042.,0.893229119172,3.09652761313,195.
6.42,7856.,6.,15.,2164.,0.,0.,10041.,0.893090712103,7.74011950489,78.
6.44,7857.,9.,4.,2171.,0.,0.,10041.,0.893204394729,5.16073650288,117.
6.46,7860.,3.,4.,2174.,0.,0.,10041.,0.893545442608,15.4881210052,39.
6.48,7865.,6.,2.,2168.,0.,0.,10041.,0.89411385574,7.74898674974,78.
6.5,7869.,2.,5.,2165.,0.,0.,10041.,0.894568586245,23.2587832424,26.
6.52,7869.,3.,1.,2167.,0.,0.,10040.,0.894657686702,15.5073999028,39.
6.54,7874.,2.,0.,2164.,0.,0.,10040.,0.895226156448,23.2758800676,26.
6.56,7873.,0.,3.,2160.,0.,0.,10036.,0.895469223145,inf,0.
6.58,7880.,2.,0.,2152.,0.,0.,10034.,0.896444043676,23.3075451356,26.
6.6,7876.,1.,1.,2152.,0.,0.,10030.,0.896346319565,46.6100086174,13.
6.62,7883.,1.,1.,2148.,0.,0.,10033.,0.896874713046,46.6374850784,13.
6.64,7884.,0.,1.,2144.,0.,0.,10029.,0.897346244216,inf,0.
6.66,7888.,1.,1.,2139.,0.,0.,10029.,0.89780151882,46.6856789786,13.
6.68,7887.,3.,1.,2135.,0.,0.,10026.,0.897956308098,15.564576007,39.
6.7,7892.,1.,1.,2133.,0.,0.,10027.,0.89843596103,46.7186699736,13.
6.72,7892.,4.,1.,2127.,0.,0.,10024.,0.898704846493,11.6831630044,52.
6.74,7891.,4.,3.,2124.,0.,0.,10022.,0.898770294751,11.6840138318,52.
6.76,7888.,3.,1.,2127.,0.,0.,10019.,0.898697617751,15.5774253743,39.
6.78,7888.,4.,1.,2126.,0.,0.,10019.,0.898697617751,11.6830690308,52.
6.8,7887.,4.,4.,2120.,0.,0.,10015.,0.898942580629,11.6862535482,52.
6.82,7888.,5.,2.,2121.,0.,0.,10016.,0.89896679635,9.34925468204,65.
6.84,7884.,7.,5.,2121.,0.,0.,10017.,0.89842123223,6.67398629656,91.
6.86,7877.,8.,7.,2124.,0.,0.,10016.,0.897713166183,5.83513558019,104.
6.88,7877.,12.,5.,2122.,0.,0.,10016.,0.897713166183,3.89009038679,156.
6.9,7872.,10.,9.,2126.,0.,0.,10017.,0.897053772211,4.6646796155,130.
6.92,7862.,19.,7.,2125.,0.,0.,10013.,0.896272122614,2.45295528294,247.
6.94,7857.,18.,7.,2130.,0.,0.,10012.,0.895791582848,2.58784235045,234.
6.96,7855.,18.,4.,2135.,0.,0.,10012.,0.895563559027,2.58718361497,234.
6.98,7855.,14.,9.,2135.,0.,0.,10013.,0.895474118943,3.3260467275,182.
7.,7849.,17.,8.,2140.,0.,0.,10014.,0.894700761881,2.73673174222,221.
7.02,7844.,22.,10.,2137.,0.,0.,10013.,0.894220113175,2.1136111766,286.
7.04,7836.,22.,12.,2143.,0.,0.,10013.,0.89330810898,2.11145553032,286.
7.06,7826.,27.,11.,2153.,0.,0.,10017.,0.89181184214,1.71756354782,351.
7.08,7817.,32.,12.,2158.,0.,0.,10019.,0.890608427733,1.44723869507,416.
7.1,7812.,28.,14.,2162.,0.,0.,10016.,0.890305351558,1.65342422432,364.
7.12,7797.,31.,17.,2173.,0.,0.,10018.,0.888418456024,1.49025031333,403.
7.14,7795.,30.,17.,2180.,0.,0.,10022.,0.887836072435,1.53891585889,390.
7.16,7791.,31.,19.,2183.,0.,0.,10024.,0.887203428665,1.48821220292,403.
7.18,7777.,33.,21.,2193.,0.,0.,10024.,0.885609172729,1.39550536309,429.
7.2,7766.,35.,17.,2207.,0.,0.,10025.,0.884268327948,1.31377008724,455.
7.22,7757.,32.,13.,2226.,0.,0.,10028.,0.882979318152,1.434841392,416.
7.24,7750.,32.,6.,2242.,0.,0.,10030.,0.882006599369,1.43326072397,416.
7.26,7747.,23.,15.,2248.,0.,0.,10033.,0.881401547884,1.99273393435,299.
7.28,7743.,14.,10.,2264.,0.,0.,10031.,0.881122099583,3.27273922702,182.
7.3,7738.,16.,5.,2272.,0.,0.,10031.,0.880553119795,2.86179763933,208.
7.32,7730.,19.,7.,2271.,0.,0.,10027.,0.879993661779,2.40840370592,247.
7.34,7724.,17.,12.,2273.,0.,0.,10026.,0.879398316692,2.68992426282,221.
7.36,7718.,15.,7.,2282.,0.,0.,10022.,0.879065914952,3.04742850517,195.
7.38,7721.,12.,5.,2283.,0.,0.,10021.,0.879495365872,3.81114658545,156.
7.4,7721.,13.,2.,2282.,0.,0.,10018.,0.879758740408,3.51903496163,169.
7.42,7722.,12.,1.,2284.,0.,0.,10019.,0.879784863625,3.81240107571,156.
7.44,7722.,7.,4.,2284.,0.,0.,10017.,0.879960521978,6.53684959184,91.
7.46,7724.,8.,1.,2282.,0.,0.,10015.,0.880364206007,5.72236733904,104.
7.48,7728.,7.,2.,2278.,0.,0.,10015.,0.88082011704,6.54323515516,91.
7.5,7731.,5.,4.,2277.,0.,0.,10017.,0.880986116992,9.16225561672,65.
7.52,7733.,7.,3.,2273.,0.,0.,10016.,0.881302007629,6.54681491382,91.
7.54,7736.,0.,4.,2278.,0.,0.,10018.,0.881467894806,inf,0.
7.56,7737.,4.,1.,2277.,0.,0.,10019.,0.881493847431,11.4594200166,52.
7.58,7739.,1.,3.,2275.,0.,0.,10018.,0.881809725685,45.8541057356,13.
7.6,7742.,2.,0.,2273.,0.,0.,10017.,0.882239622009,22.9382301722,26.
7.62,7746.,0.,3.,2267.,0.,0.,10016.,0.882783570554,inf,0.
7.64,7744.,3.,2.,2265.,0.,0.,10014.,0.882731902154,15.300686304,39.
7.66,7746.,2.,2.,2265.,0.,0.,10015.,0.882871716692,22.954664634,26.
7.68,7749.,1.,3.,2264.,0.,0.,10017.,0.88303730702,45.917939965,13.
7.7,7753.,0.,3.,2263.,0.,0.,10019.,0.883316763492,inf,0.
7.72,7758.,2.,1.,2262.,0.,0.,10023.,0.8835336815,22.971875719,26.
7.74,7761.,3.,3.,2261.,0.,0.,10028.,0.883434638156,15.3128670614,39.
7.76,7767.,4.,3.,2253.,0.,0.,10027.,0.884205791855,11.4946752941,52.
7.78,7768.,4.,2.,2254.,0.,0.,10028.,0.884231448163,11.4950088261,52.
7.8,7772.,4.,0.,2255.,0.,0.,10031.,0.884422182353,11.4974883706,52.
7.82,7774.,2.,2.,2252.,0.,0.,10030.,0.884737974644,23.0031873408,26.
7.84,7775.,6.,1.,2246.,0.,0.,10028.,0.885028258171,7.67024490414,78.
7.86,7776.,10.,1.,2241.,0.,0.,10028.,0.885142088172,4.60273885849,130.
7.88,7782.,8.,1.,2238.,0.,0.,10029.,0.885736741818,5.75728882181,104.
7.9,7783.,8.,3.,2234.,0.,0.,10028.,0.885938898179,5.75860283816,104.
7.92,7781.,11.,3.,2230.,0.,0.,10025.,0.885976288921,4.18825154763,143.
7.94,7779.,7.,7.,2228.,0.,0.,10021.,0.886102117746,6.58247287469,91.
7.96,7776.,14.,6.,2224.,0.,0.,10020.,0.885848788442,3.29029549993,182.
7.98,7769.,16.,12.,2221.,0.,0.,10018.,0.885228034481,2.87699111206,208.
8.,7766.,21.,11.,2221.,0.,0.,10019.,0.884797882791,2.19092809072,273.
8.02,7753.,25.,10.,2234.,0.,0.,10022.,0.883052350172,1.83674888836,325.
8.04,7749.,16.,18.,2237.,0.,0.,10020.,0.882772924593,2.86901200493,208.
8.06,7739.,27.,7.,2248.,0.,0.,10021.,0.881545737143,1.69779179005,351.
8.08,7737.,21.,11.,2254.,0.,0.,10023.,0.881142059006,2.18187557468,273.
8.1,7737.,17.,11.,2257.,0.,0.,10022.,0.881229979786,2.69552699699,221.
8.12,7732.,19.,13.,2260.,0.,0.,10024.,0.880484778647,2.40974781525,247.
8.14,7722.,24.,15.,2263.,0.,0.,10024.,0.879346024407,1.90524971955,312.
8.16,7718.,24.,13.,2270.,0.,0.,10025.,0.878802852833,1.90407284781,312.
8.18,7716.,27.,9.,2275.,0.,0.,10027.,0.878399882832,1.69173310768,351.
8.2,7707.,28.,11.,2282.,0.,0.,10028.,0.877287818099,1.62924880504,364.
8.22,7704.,28.,12.,2289.,0.,0.,10033.,0.876509297134,1.62780298039,364.
8.24,7700.,27.,9.,2295.,0.,0.,10031.,0.876228873407,1.68755190434,351.
8.26,7696.,27.,6.,2299.,0.,0.,10028.,0.876035688088,1.68717984372,351.
8.28,7700.,18.,8.,2302.,0.,0.,10028.,0.876491008092,2.53208513449,234.
8.3,7692.,19.,9.,2307.,0.,0.,10027.,0.87566769035,2.39656420517,247.
8.32,7699.,18.,5.,2309.,0.,0.,10031.,0.876115077449,2.53099911263,234.
8.34,7694.,16.,5.,2311.,0.,0.,10026.,0.875982735452,2.84694389022,208.
8.36,7687.,21.,6.,2312.,0.,0.,10026.,0.875185766496,2.16712665989,273.
8.38,7686.,15.,12.,2312.,0.,0.,10025.,0.875159202757,3.03388523622,195.
8.4,7681.,15.,0.,2330.,0.,0.,10026.,0.874502650248,3.03160918753,195.
8.42,7681.,8.,5.,2331.,0.,0.,10025.,0.874589882432,5.68483423581,104.
8.44,7674.,6.,8.,2331.,0.,0.,10019.,0.874316115444,7.57740633385,78.
8.46,7674.,6.,7.,2331.,0.,0.,10018.,0.874403389961,7.578162713,78.
8.48,7678.,6.,1.,2334.,0.,0.,10019.,0.874771844459,7.58135598531,78.
8.5,7680.,4.,1.,2332.,0.,0.,10017.,0.875174411913,11.3772673549,52.
8.52,7684.,3.,1.,2329.,0.,0.,10017.,0.875630231919,15.1775906866,39.
8.54,7692.,2.,1.,2325.,0.,0.,10020.,0.876279434245,22.7832652904,26.
8.56,7693.,2.,1.,2323.,0.,0.,10019.,0.876480828265,22.7885015349,26.
8.58,7697.,2.,2.,2315.,0.,0.,10016.,0.87719921799,22.8071796678,26.
8.6,7695.,3.,4.,2311.,0.,0.,10013.,0.877234035044,15.2053899408,39.
8.62,7698.,3.,2.,2310.,0.,0.,10013.,0.877576036617,15.211317968,39.
8.64,7704.,3.,2.,2303.,0.,0.,10012.,0.878347760502,15.2246945154,39.
8.66,7709.,4.,2.,2297.,0.,0.,10012.,0.878917820056,11.4259316607,52.
8.68,7716.,1.,3.,2295.,0.,0.,10015.,0.879452383939,45.7315239648,13.
8.7,7716.,1.,2.,2292.,0.,0.,10011.,0.879803778359,45.7497964747,13.
8.72,7720.,2.,0.,2289.,0.,0.,10011.,0.880259871557,22.8867566605,26.
8.74,7721.,2.,1.,2289.,0.,0.,10013.,0.880198048677,22.8851492656,26.
8.76,7724.,1.,3.,2285.,0.,0.,10013.,0.88054005025,45.788082613,13.
8.78,7729.,1.,3.,2282.,0.,0.,10015.,0.880934094799,45.8085729295,13.
8.8,7733.,4.,1.,2278.,0.,0.,10016.,0.881302007629,11.4569260992,52.
8.82,7740.,2.,4.,2270.,0.,0.,10016.,0.882099772281,22.9345940793,26.
8.84,7740.,7.,2.,2267.,0.,0.,10016.,0.882099772281,6.55274116552,91.
8.86,7742.,5.,5.,2264.,0.,0.,10016.,0.882327705039,9.1762081324,65.
8.88,7746.,10.,1.,2264.,0.,0.,10021.,0.882343103749,4.58818413949,130.
8.9,7745.,4.,6.,2265.,0.,0.,10020.,0.88231724106,11.4701241338,52.
8.92,7743.,8.,7.,2258.,0.,0.,10016.,0.882441671417,5.73587086421,104.
8.94,7742.,10.,7.,2257.,0.,0.,10016.,0.882327705039,4.5881040662,130.
8.96,7735.,16.,4.,2255.,0.,0.,10010.,0.882058329961,2.86668957237,208.
8.98,7720.,22.,6.,2254.,0.,0.,10002.,0.881051947026,2.08248642024,286.
9.,7721.,19.,6.,2256.,0.,0.,10002.,0.881166072926,2.41161241011,247.
9.02,7714.,18.,16.,2256.,0.,0.,10004.,0.88019118859,2.54277454481,234.
9.04,7708.,18.,11.,2267.,0.,0.,10004.,0.879506570087,2.54079675803,234.
9.06,7702.,16.,9.,2278.,0.,0.,10005.,0.878734113308,2.85588586825,208.
9.08,7693.,20.,11.,2283.,0.,0.,10007.,0.87753186953,2.28158286078,260.
9.1,7680.,27.,9.,2290.,0.,0.,10006.,0.876136526497,1.68737405103,351.
9.12,7672.,24.,11.,2300.,0.,0.,10007.,0.875136423117,1.89612891675,312.
9.14,7668.,20.,21.,2298.,0.,0.,10007.,0.874680147609,2.27416838378,260.
9.16,7653.,21.,20.,2312.,0.,0.,10006.,0.873056359021,2.16185384139,273.
9.18,7638.,32.,14.,2321.,0.,0.,10005.,0.871432245838,1.41607739949,416.
9.2,7634.,32.,18.,2324.,0.,0.,10008.,0.870714795225,1.41491154224,416.
9.22,7623.,36.,8.,2341.,0.,0.,10008.,0.869460162955,1.25588690205,468.
9.24,7614.,34.,13.,2348.,0.,0.,10009.,0.868346880367,1.32805993468,442.
9.26,7608.,33.,8.,2360.,0.,0.,10009.,0.867662603866,1.36722592124,429.
9.28,7600.,27.,14.,2365.,0.,0.,10006.,0.867010104346,1.669797238,351.
9.3,7586.,29.,15.,2375.,0.,0.,10005.,0.865499478519,1.55193009941,377.
9.32,7581.,29.,14.,2381.,0.,0.,10005.,0.864929020123,1.5509072085,377.
9.34,7577.,27.,12.,2388.,0.,0.,10004.,0.864559066106,1.66507671991,351.
9.36,7579.,20.,6.,2400.,0.,0.,10005.,0.864700836765,2.24822217559,260.
9.38,7577.,19.,5.,2405.,0.,0.,10006.,0.864386257978,2.36568870605,247.
9.4,7576.,18.,6.,2405.,0.,0.,10005.,0.864358561727,2.49703584499,234.
9.42,7572.,14.,9.,2408.,0.,0.,10003.,0.86407492363,3.20942114491,182.
9.44,7574.,16.,7.,2409.,0.,0.,10006.,0.864044017147,2.80814305573,208.
9.46,7577.,11.,3.,2415.,0.,0.,10006.,0.864386257978,4.08618958317,143.
9.48,7579.,6.,8.,2412.,0.,0.,10005.,0.864700836765,7.49407391863,78.
9.5,7580.,3.,3.,2416.,0.,0.,10002.,0.865074321044,14.9946215648,39.
9.52,7587.,4.,1.,2411.,0.,0.,10003.,0.865786640991,11.2552263329,52.
9.54,7588.,3.,1.,2406.,0.,0.,9998.,0.866333792467,15.0164524028,39.
9.56,7593.,0.,2.,2400.,0.,0.,9995.,0.86716485176,inf,0.
9.58,7596.,0.,0.,2400.,0.,0.,9996.,0.867420683782,inf,0.
9.6,7596.,1.,0.,2395.,0.,0.,9992.,0.867767929853,45.1239323523,13.
9.62,7597.,0.,2.,2390.,0.,0.,9989.,0.868142821337,inf,0.
9.64,7597.,3.,0.,2388.,0.,0.,9988.,0.868229739922,15.049315492,39.
9.66,7613.,1.,1.,2375.,0.,0.,9990.,0.869884127963,45.2339746541,13.
9.68,7618.,0.,0.,2369.,0.,0.,9987.,0.870716919455,inf,0.
9.7,7625.,0.,0.,2357.,0.,0.,9982.,0.871953544916,inf,0.
9.72,7633.,1.,0.,2350.,0.,0.,9984.,0.872693527981,45.380063455,13.
9.74,7637.,1.,1.,2347.,0.,0.,9986.,0.872975979607,45.3947509396,13.
9.76,7639.,2.,3.,2344.,0.,0.,9988.,0.873029746382,22.6987734059,26.
9.78,7639.,2.,1.,2347.,0.,0.,9989.,0.872942347268,22.696501029,26.
9.8,7640.,1.,2.,2344.,0.,0.,9987.,0.87323146031,45.4080359361,13.
9.82,7642.,5.,3.,2338.,0.,0.,9988.,0.873372603986,9.08307508146,65.
9.84,7644.,5.,3.,2335.,0.,0.,9987.,0.873688649556,9.08636195538,65.
9.86,7640.,8.,5.,2334.,0.,0.,9987.,0.87323146031,5.67600449201,104.
9.88,7642.,8.,12.,2326.,0.,0.,9988.,0.873372603986,5.67692192591,104.
9.9,7632.,13.,11.,2329.,0.,0.,9985.,0.872491807322,3.48996722929,169.
9.92,7636.,11.,6.,2335.,0.,0.,9988.,0.872686888777,4.12542892877,143.
9.94,7637.,11.,3.,2339.,0.,0.,9990.,0.872626439676,4.12514316938,143.
9.96,7636.,10.,10.,2337.,0.,0.,9993.,0.872250239679,4.53570124633,130.
9.98,7623.,18.,10.,2344.,0.,0.,9995.,0.870591026599,2.51504074351,234.
10.,7622.,15.,13.,2344.,0.,0.,9994.,0.870563920713,3.01795492514,195.
