t,prevalence
5.,6
5.02,9
5.04,7
5.06,13
5.08,14
5.1,1
5.12,7
5.14,9
5.16,11
5.18,9
5.2,10
5.22,5
5.24,10
5.26,9
5.28,11
5.3,9
5.32,6
5.34,8
5.36,8
5.38,10
5.4,4
5.42,1
5.44,3
5.46,1
5.48,0
5.5,3
5.52,3
5.54,1
5.56,3
5.58,1
5.6,0
5.62,0
5.64,0
5.66,0
5.68,0
5.7,0
5.72,0
5.74,2
5.76,1
5.78,0
5.8,0
5.82,0
5.84,1
5.86,0
5.88,3
5.9,2
5.92,2
5.94,6
5.96,0
5.98,4
6.,7
6.02,3
6.04,6
6.06,10
6.08,7
6.1,13
6.12,5
6.14,5
6.16,15
6.18,8
6.2,6
6.22,7
6.24,5
6.26,9
6.28,9
6.3,10
6.32,3
6.34,6
6.36,3
6.38,5
6.4,3
6.42,1
6.44,2
6.46,5
6.48,0
6.5,1
6.52,3
6.54,4
6.56,1
6.58,2
6.6,0
6.62,0
6.64,1
6.66,0
6.68,1
6.7,0
6.72,1
6.74,1
6.76,1
6.78,0
6.8,1
6.82,2
6.84,3
6.86,4
6.88,3
6.9,1
6.92,5
6.94,1
6.96,5
6.98,1
7.,12
7.02,4
7.04,6
7.06,7
7.08,5
7.1,11
7.12,8
7.14,7
7.16,10
7.18,8
7.2,6
7.22,7
7.24,8
7.26,10
7.28,10
7.3,4
7.32,3
7.34,3
7.36,3
7.38,5
7.4,5
7.42,4
7.44,0
7.46,0
7.48,0
7.5,0
7.52,1
7.54,0
7.56,0
7.58,1
7.6,0
7.62,0
7.64,0
7.66,0
7.68,0
7.7,0
7.72,0
7.74,1
7.76,0
7.78,0
7.8,0
7.82,1
7.84,1
7.86,3
7.88,0
7.9,3
7.92,3
7.94,2
7.96,3
7.98,4
8.,5
8.02,3
8.04,6
8.06,5
8.08,4
8.1,12
8.12,12
8.14,11
8.16,7
8.18,12
8.2,11
8.22,13
8.24,11
8.26,7
8.28,3
8.3,5
8.32,9
8.34,5
8.36,6
8.38,2
8.4,1
8.42,0
8.44,2
8.46,3
8.48,2
8.5,1
8.52,0
8.54,0
8.56,0
8.58,1
8.6,1
8.62,1
8.64,1
8.66,1
8.68,1
8.7,0
8.72,0
8.74,0
8.76,0
8.78,1
8.8,0
8.82,0
8.84,4
8.86,1
8.88,5
8.9,1
8.92,3
8.94,6
8.96,3
8.98,3
9.,3
9.02,5
9.04,8
9.06,6
9.08,4
9.1,10
9.12,8
9.14,8
9.16,7
9.18,11
9.2,8
9.22,8
9.24,10
9.26,8
9.28,5
9.3,5
9.32,4
9.34,6
9.36,4
9.38,2
9.4,5
9.42,1
9.44,4
9.46,0
9.48,0
9.5,1
9.52,2
9.54,3
9.56,3
9.58,2
9.6,1
9.62,1
9.64,0
9.66,0
9.68,0
9.7,1
9.72,0
9.74,0
9.76,0
9.78,0
9.8,0
9.82,1
9.84,0
9.86,0
9.88,1
9.9,1
9.92,3
9.94,4
9.96,3
9.98,4
10.,0
