t,s,e,i,r,c,o,n,reff,coal,reportr
5.,7832.,21.,15.,2132.,0.,0.,10000.,0.86867591568,2.1510070293,273.
5.02,7818.,20.,21.,2138.,0.,0.,9997.,0.867383339209,2.25519668194,260.
5.04,7808.,17.,12.,2159.,0.,0.,9996.,0.866360531653,2.65004397917,221.
5.06,7798.,28.,13.,2158.,0.,0.,9997.,0.865164399994,1.6067338857,364.
5.08,7791.,25.,18.,2167.,0.,0.,10001.,0.864042050732,1.79720746552,325.
5.1,7775.,34.,8.,2188.,0.,0.,10005.,0.861922874673,1.31823498479,442.
5.12,7764.,21.,24.,2195.,0.,0.,10004.,0.860789469879,2.13147868732,273.
5.14,7753.,28.,16.,2211.,0.,0.,10008.,0.85922635414,1.59570608626,364.
5.16,7743.,23.,16.,2223.,0.,0.,10005.,0.858375410751,1.9406748417,299.
5.18,7732.,32.,10.,2233.,0.,0.,10007.,0.856984658752,1.39260007047,416.
5.2,7727.,21.,20.,2237.,0.,0.,10005.,0.856601678791,2.12110891891,273.
5.22,7718.,23.,19.,2243.,0.,0.,10003.,0.855775024033,1.93479570651,299.
5.24,7706.,29.,11.,2256.,0.,0.,10002.,0.854529886443,1.53226048604,377.
5.26,7702.,34.,12.,2255.,0.,0.,10003.,0.854000937432,1.30611908078,442.
5.28,7695.,37.,5.,2270.,0.,0.,10007.,0.85288372337,1.19864739501,481.
5.3,7692.,28.,12.,2275.,0.,0.,10007.,0.852551215096,1.58330939946,364.
5.32,7686.,23.,15.,2283.,0.,0.,10007.,0.851886198548,1.92600357932,299.
5.34,7683.,23.,8.,2291.,0.,0.,10005.,0.851723915899,1.92563667942,299.
5.36,7676.,24.,3.,2300.,0.,0.,10003.,0.851118046706,1.8440891012,312.
5.38,7683.,17.,8.,2296.,0.,0.,10004.,0.851809054235,2.60553357766,221.
5.4,7687.,19.,2.,2298.,0.,0.,10006.,0.852082183253,2.33201439627,247.
5.42,7686.,15.,6.,2298.,0.,0.,10005.,0.852056490641,2.95379583422,195.
5.44,7691.,10.,7.,2299.,0.,0.,10007.,0.852440379005,4.43268997082,130.
5.46,7687.,14.,4.,2302.,0.,0.,10007.,0.851997034639,3.16456041437,182.
5.48,7690.,11.,5.,2303.,0.,0.,10009.,0.852159230286,4.02838908862,143.
5.5,7692.,10.,4.,2307.,0.,0.,10013.,0.852040348493,4.43060981217,130.
5.52,7692.,3.,8.,2311.,0.,0.,10014.,0.851955263577,14.7672245687,39.
5.54,7695.,3.,4.,2314.,0.,0.,10016.,0.85211735421,14.7700341396,39.
5.56,7699.,0.,7.,2310.,0.,0.,10016.,0.852560300203,inf,0.
5.58,7701.,0.,1.,2314.,0.,0.,10016.,0.852781773199,inf,0.
5.6,7708.,0.,0.,2311.,0.,0.,10019.,0.853301347214,inf,0.
5.62,7713.,2.,0.,2306.,0.,0.,10021.,0.85368445081,22.1957957211,26.
5.64,7715.,0.,2.,2303.,0.,0.,10020.,0.853991033443,inf,0.
5.66,7724.,0.,0.,2297.,0.,0.,10021.,0.854901944516,inf,0.
5.68,7736.,0.,0.,2291.,0.,0.,10027.,0.855717764755,inf,0.
5.7,7744.,0.,0.,2284.,0.,0.,10028.,0.856517263795,inf,0.
5.72,7747.,0.,0.,2281.,0.,0.,10028.,0.856849075751,inf,0.
5.74,7750.,0.,0.,2277.,0.,0.,10027.,0.857266374981,inf,0.
5.76,7753.,1.,0.,2272.,0.,0.,10026.,0.857683757454,44.5995553876,13.
5.78,7754.,1.,0.,2269.,0.,0.,10024.,0.857965531624,44.6142076445,13.
5.8,7758.,1.,1.,2262.,0.,0.,10022.,0.858579428863,44.6461303009,13.
5.82,7760.,1.,0.,2262.,0.,0.,10023.,0.858715086262,44.6531844856,13.
5.84,7764.,3.,1.,2255.,0.,0.,10023.,0.859157722904,14.892067197,39.
5.86,7773.,3.,0.,2249.,0.,0.,10025.,0.859982053623,14.9063555961,39.
5.88,7773.,4.,1.,2241.,0.,0.,10019.,0.860497064335,11.1864618363,52.
5.9,7775.,5.,3.,2236.,0.,0.,10019.,0.860718471015,8.95147209856,65.
5.92,7779.,9.,3.,2230.,0.,0.,10021.,0.860989413049,4.97460549762,117.
5.94,7782.,7.,6.,2226.,0.,0.,10021.,0.861321456788,6.39838796471,91.
5.96,7776.,16.,5.,2226.,0.,0.,10023.,0.860485632831,2.7965783067,208.
5.98,7773.,10.,13.,2224.,0.,0.,10020.,0.860411186384,4.4741381692,130.
6.,7765.,19.,9.,2228.,0.,0.,10021.,0.859439875605,2.3521512385,247.
6.02,7761.,17.,15.,2229.,0.,0.,10022.,0.85891143947,2.62725852073,221.
6.04,7754.,17.,16.,2233.,0.,0.,10020.,0.858308032834,2.62541280632,221.
6.06,7733.,33.,13.,2240.,0.,0.,10019.,0.856068930722,1.34895710296,429.
6.08,7725.,31.,12.,2253.,0.,0.,10021.,0.855012625763,1.43421472709,403.
6.1,7713.,27.,20.,2260.,0.,0.,10020.,0.853769648859,1.64429710151,351.
6.12,7699.,32.,16.,2272.,0.,0.,10019.,0.852305017151,1.38499565287,416.
6.14,7693.,28.,27.,2270.,0.,0.,10018.,0.851725808168,1.58177650088,364.
6.16,7672.,35.,19.,2292.,0.,0.,10018.,0.849400805962,1.26196691172,455.
6.18,7659.,32.,11.,2316.,0.,0.,10018.,0.847961518882,1.37793746818,416.
6.2,7654.,33.,9.,2321.,0.,0.,10017.,0.847492543908,1.33544279646,429.
6.22,7654.,27.,9.,2330.,0.,0.,10020.,0.847238803626,1.63171917735,351.
6.24,7655.,22.,11.,2330.,0.,0.,10018.,0.847518661319,2.00322592675,286.
6.26,7653.,24.,9.,2334.,0.,0.,10020.,0.847128111334,1.83544424122,312.
6.28,7651.,27.,8.,2335.,0.,0.,10021.,0.846822213555,1.63091685573,351.
6.3,7648.,20.,17.,2335.,0.,0.,10020.,0.846574649873,2.20109408967,260.
6.32,7640.,17.,12.,2350.,0.,0.,10019.,0.845773520072,2.58707194375,221.
6.34,7628.,24.,7.,2358.,0.,0.,10017.,0.84461368238,1.82999631182,312.
6.36,7621.,27.,5.,2360.,0.,0.,10013.,0.844175701491,1.62581986954,351.
6.38,7627.,23.,4.,2360.,0.,0.,10014.,0.844755953628,1.90988302559,299.
6.4,7623.,16.,14.,2361.,0.,0.,10014.,0.844312919169,2.7440169873,208.
6.42,7621.,13.,7.,2372.,0.,0.,10013.,0.844175701491,3.37670280596,169.
6.44,7624.,10.,5.,2375.,0.,0.,10014.,0.844423677784,4.39100312448,130.
6.46,7627.,10.,0.,2379.,0.,0.,10016.,0.844587272327,4.3918538161,130.
6.48,7625.,8.,3.,2374.,0.,0.,10010.,0.844871912697,5.49166743253,104.
6.5,7622.,7.,1.,2377.,0.,0.,10007.,0.844792688698,6.27560283032,91.
6.52,7622.,4.,4.,2376.,0.,0.,10006.,0.844877117309,10.983402525,52.
6.54,7631.,6.,1.,2370.,0.,0.,10008.,0.845705702108,7.32944941827,78.
6.56,7634.,6.,4.,2367.,0.,0.,10011.,0.845784644591,7.33013358645,78.
6.58,7639.,1.,6.,2363.,0.,0.,10009.,0.846507719136,44.0184013951,13.
6.6,7641.,3.,1.,2361.,0.,0.,10006.,0.846983213508,14.6810423675,39.
6.62,7644.,2.,1.,2359.,0.,0.,10006.,0.847315755013,22.0302096303,26.
6.64,7651.,1.,2.,2355.,0.,0.,10009.,0.847837486465,44.0875492962,13.
6.66,7654.,2.,2.,2351.,0.,0.,10009.,0.848169928298,22.0524181357,26.
6.68,7661.,2.,1.,2345.,0.,0.,10009.,0.848945625906,22.0725862736,26.
6.7,7676.,1.,1.,2340.,0.,0.,10018.,0.849843663525,44.1918705033,13.
6.72,7687.,1.,1.,2333.,0.,0.,10022.,0.850721844505,44.2375359143,13.
6.74,7687.,3.,1.,2330.,0.,0.,10021.,0.850806738412,14.7473167991,39.
6.76,7694.,4.,1.,2322.,0.,0.,10021.,0.851581507135,11.0705595928,52.
6.78,7702.,3.,0.,2319.,0.,0.,10024.,0.852211829323,14.7716717083,39.
6.8,7709.,2.,2.,2310.,0.,0.,10023.,0.853071469071,22.1798581958,26.
6.82,7712.,3.,2.,2308.,0.,0.,10025.,0.853233191501,14.7893753194,39.
6.84,7714.,2.,4.,2306.,0.,0.,10026.,0.853369341545,22.1876028802,26.
6.86,7714.,7.,2.,2304.,0.,0.,10027.,0.8532842344,6.33868288412,91.
6.88,7723.,4.,7.,2296.,0.,0.,10030.,0.854024252167,11.1023152782,52.
6.9,7719.,6.,8.,2296.,0.,0.,10029.,0.853667035813,7.39844764371,78.
6.92,7724.,7.,1.,2298.,0.,0.,10030.,0.854134834098,6.34500162473,91.
6.94,7723.,8.,4.,2297.,0.,0.,10032.,0.853853992148,5.55005094896,104.
6.96,7720.,10.,4.,2296.,0.,0.,10030.,0.853692506374,4.43920103315,130.
6.98,7717.,15.,4.,2291.,0.,0.,10027.,0.853616079449,2.95920240876,195.
7.,7715.,16.,4.,2291.,0.,0.,10026.,0.853479967594,2.77380989468,208.
7.02,7712.,12.,9.,2291.,0.,0.,10024.,0.853318310535,3.69771267898,156.
7.04,7706.,17.,5.,2295.,0.,0.,10023.,0.852739491589,2.60837962133,221.
7.06,7698.,18.,11.,2296.,0.,0.,10023.,0.851854218304,2.46091218621,234.
7.08,7693.,20.,13.,2298.,0.,0.,10024.,0.851215996232,2.2131615902,260.
7.1,7667.,27.,19.,2310.,0.,0.,10023.,0.848423784326,1.63400136241,351.
7.12,7654.,31.,15.,2324.,0.,0.,10024.,0.846900719506,1.42060765853,403.
7.14,7644.,34.,18.,2328.,0.,0.,10024.,0.845794238294,1.29356765857,442.
7.16,7632.,36.,19.,2339.,0.,0.,10026.,0.844298005532,1.21954156355,468.
7.18,7626.,33.,19.,2352.,0.,0.,10030.,0.843297804872,1.32883290465,429.
7.2,7615.,32.,19.,2363.,0.,0.,10029.,0.842165368275,1.36851872345,416.
7.22,7607.,33.,13.,2377.,0.,0.,10030.,0.841196748185,1.32552214866,429.
7.24,7597.,32.,15.,2386.,0.,0.,10030.,0.840090928876,1.36514775942,416.
7.26,7579.,38.,16.,2396.,0.,0.,10029.,0.83818402182,1.14698866144,494.
7.28,7574.,31.,17.,2410.,0.,0.,10032.,0.837380569278,1.40463837427,403.
7.3,7559.,34.,12.,2425.,0.,0.,10030.,0.835888815503,1.27841818842,442.
7.32,7549.,30.,11.,2436.,0.,0.,10026.,0.83511604347,1.44753447535,390.
7.34,7547.,25.,10.,2444.,0.,0.,10026.,0.834894791372,1.73658116605,325.
7.36,7548.,21.,5.,2449.,0.,0.,10023.,0.835255344214,2.06825132853,273.
7.38,7547.,19.,5.,2451.,0.,0.,10022.,0.835228016194,2.28588720221,247.
7.4,7540.,19.,7.,2453.,0.,0.,10019.,0.834703186039,2.28445082495,247.
7.42,7544.,13.,7.,2456.,0.,0.,10020.,0.835062651496,3.34025060599,169.
7.44,7551.,8.,9.,2453.,0.,0.,10021.,0.835754088949,5.43240157817,104.
7.46,7553.,8.,5.,2454.,0.,0.,10020.,0.836058882125,5.43438273381,104.
7.48,7557.,10.,3.,2451.,0.,0.,10021.,0.836418176426,4.34937451741,130.
7.5,7564.,5.,0.,2454.,0.,0.,10023.,0.837025890784,8.70506926415,65.
7.52,7574.,2.,1.,2447.,0.,0.,10024.,0.838048869812,21.7892706151,26.
7.54,7577.,3.,0.,2443.,0.,0.,10023.,0.838464459872,14.5333839711,39.
7.56,7579.,2.,1.,2433.,0.,0.,10015.,0.8393557219,21.8232487694,26.
7.58,7579.,0.,3.,2430.,0.,0.,10012.,0.839607226811,inf,0.
7.6,7578.,1.,2.,2429.,0.,0.,10010.,0.839664177628,43.6625372367,13.
7.62,7585.,1.,0.,2425.,0.,0.,10011.,0.840355846112,43.6985039978,13.
7.64,7590.,0.,1.,2417.,0.,0.,10008.,0.841161876425,inf,0.
7.66,7595.,1.,2.,2411.,0.,0.,10009.,0.841631905594,43.7648590909,13.
7.68,7599.,0.,2.,2407.,0.,0.,10008.,0.842159301575,inf,0.
7.7,7602.,1.,0.,2402.,0.,0.,10005.,0.842744397847,43.8227086881,13.
7.72,7607.,1.,0.,2400.,0.,0.,10008.,0.843045901708,43.8383868888,13.
7.74,7613.,2.,0.,2394.,0.,0.,10009.,0.843626556589,21.9342904713,26.
7.76,7615.,2.,0.,2393.,0.,0.,10010.,0.843763883959,21.9378609829,26.
7.78,7620.,2.,0.,2387.,0.,0.,10009.,0.844402254197,21.9544586091,26.
7.8,7625.,1.,2.,2378.,0.,0.,10006.,0.845209658814,43.9509022583,13.
7.82,7628.,1.,2.,2376.,0.,0.,10007.,0.845457705246,43.9638006728,13.
7.84,7635.,6.,2.,2365.,0.,0.,10008.,0.846149002175,7.33329135218,78.
7.86,7634.,5.,4.,2365.,0.,0.,10008.,0.846038177158,8.79879704244,65.
7.88,7637.,7.,4.,2362.,0.,0.,10010.,0.846201547182,6.28606863621,91.
7.9,7637.,8.,4.,2364.,0.,0.,10013.,0.845948016308,5.498662106,104.
7.92,7634.,5.,10.,2365.,0.,0.,10014.,0.84553126393,8.79352514487,65.
7.94,7627.,14.,4.,2371.,0.,0.,10016.,0.844587272327,3.13703844007,182.
7.96,7625.,12.,7.,2372.,0.,0.,10016.,0.844365799331,3.65891846377,156.
7.98,7614.,15.,6.,2378.,0.,0.,10013.,0.843400313758,2.92378775436,195.
8.,7617.,15.,3.,2380.,0.,0.,10015.,0.843564129003,2.92435564721,195.
8.02,7611.,15.,9.,2377.,0.,0.,10012.,0.843152210484,2.92292766301,195.
8.04,7603.,17.,12.,2379.,0.,0.,10011.,0.842350098614,2.57660030164,221.
8.06,7591.,24.,16.,2381.,0.,0.,10012.,0.840936595688,1.82202929066,312.
8.08,7574.,25.,17.,2394.,0.,0.,10010.,0.839220966133,1.74557960956,325.
8.1,7564.,27.,16.,2403.,0.,0.,10010.,0.838112937395,1.61414343498,351.
8.12,7556.,26.,5.,2419.,0.,0.,10006.,0.837561204197,1.67512240839,338.
8.14,7549.,26.,11.,2420.,0.,0.,10006.,0.836785274018,1.67357054804,338.
8.16,7546.,27.,10.,2426.,0.,0.,10009.,0.836202022333,1.61046315412,351.
8.18,7536.,25.,16.,2430.,0.,0.,10007.,0.835260784837,1.73734243246,325.
8.2,7519.,36.,12.,2437.,0.,0.,10004.,0.833626484289,1.20412714397,468.
8.22,7509.,31.,16.,2443.,0.,0.,9999.,0.832934091525,1.39717976643,403.
8.24,7496.,26.,17.,2458.,0.,0.,9997.,0.831658417845,1.66331683569,338.
8.26,7496.,24.,13.,2466.,0.,0.,9999.,0.831492069526,1.80156615064,312.
8.28,7482.,28.,7.,2480.,0.,0.,9997.,0.830105160394,1.5416238693,364.
8.3,7485.,23.,7.,2484.,0.,0.,9999.,0.830271897066,1.87713646293,299.
8.32,7490.,18.,11.,2483.,0.,0.,10002.,0.830577322795,2.39944559918,234.
8.34,7484.,16.,12.,2487.,0.,0.,9999.,0.830160972296,2.69802315996,208.
8.36,7475.,13.,6.,2503.,0.,0.,9997.,0.829328531669,3.31731412667,169.
8.38,7481.,12.,5.,2502.,0.,0.,10000.,0.829745215169,3.59556259907,156.
8.4,7484.,13.,2.,2501.,0.,0.,10000.,0.830077956199,3.3203118248,169.
8.42,7485.,10.,8.,2499.,0.,0.,10002.,0.830022865303,4.31611889957,130.
8.44,7485.,10.,6.,2501.,0.,0.,10002.,0.830022865303,4.31611889957,130.
8.46,7489.,7.,4.,2502.,0.,0.,10002.,0.830466431296,6.16917920391,91.
8.48,7489.,8.,3.,2501.,0.,0.,10001.,0.830549469636,5.39857155263,104.
8.5,7496.,5.,2.,2502.,0.,0.,10005.,0.830993423607,8.64233160552,65.
8.52,7505.,3.,2.,2492.,0.,0.,10002.,0.83224069527,14.4255053847,39.
8.54,7513.,2.,2.,2488.,0.,0.,10005.,0.832878013816,21.6548283592,26.
8.56,7519.,3.,0.,2486.,0.,0.,10008.,0.833293300242,14.4437505375,39.
8.58,7527.,0.,1.,2480.,0.,0.,10008.,0.834179900376,inf,0.
8.6,7533.,0.,0.,2473.,0.,0.,10006.,0.835011719324,inf,0.
8.62,7545.,0.,0.,2462.,0.,0.,10007.,0.836258309659,inf,0.
8.64,7554.,0.,0.,2452.,0.,0.,10006.,0.83733950986,inf,0.
8.66,7564.,0.,1.,2443.,0.,0.,10008.,0.838280425992,inf,0.
8.68,7565.,0.,0.,2441.,0.,0.,10006.,0.838558828712,inf,0.
8.7,7572.,0.,0.,2433.,0.,0.,10005.,0.839418650421,inf,0.
8.72,7577.,0.,0.,2429.,0.,0.,10006.,0.839888994733,inf,0.
8.74,7590.,0.,0.,2420.,0.,0.,10010.,0.840993812114,inf,0.
8.76,7599.,0.,1.,2415.,0.,0.,10015.,0.841570673007,inf,0.
8.78,7598.,0.,0.,2410.,0.,0.,10008.,0.842048476558,inf,0.
8.8,7603.,0.,0.,2404.,0.,0.,10007.,0.842686802961,inf,0.
8.82,7605.,2.,0.,2396.,0.,0.,10003.,0.843245537415,21.9243839728,26.
8.84,7606.,3.,1.,2390.,0.,0.,10000.,0.843609424753,14.6225633624,39.
8.86,7611.,3.,4.,2385.,0.,0.,10003.,0.84391081989,14.6277875448,39.
8.88,7616.,6.,2.,2383.,0.,0.,10007.,0.844127672149,7.31577315863,78.
8.9,7617.,7.,2.,2380.,0.,0.,10006.,0.844322881467,6.27211283376,91.
8.92,7615.,9.,3.,2382.,0.,0.,10009.,0.843848184477,4.87556728809,117.
8.94,7622.,11.,3.,2375.,0.,0.,10011.,0.844455142922,3.99196976654,143.
8.96,7624.,13.,6.,2371.,0.,0.,10014.,0.844423677784,3.37769471114,169.
8.98,7624.,15.,3.,2373.,0.,0.,10015.,0.84433936189,2.92704312122,195.
9.,7626.,15.,3.,2372.,0.,0.,10016.,0.844476535829,2.92751865754,195.
9.02,7620.,17.,7.,2372.,0.,0.,10016.,0.843812116839,2.58107235739,221.
9.04,7617.,15.,10.,2375.,0.,0.,10017.,0.843395702502,2.92377176867,195.
9.06,7609.,22.,9.,2376.,0.,0.,10016.,0.842594015358,1.99158585448,286.
9.08,7599.,25.,8.,2384.,0.,0.,10016.,0.841486650376,1.75029223278,325.
9.1,7593.,25.,16.,2384.,0.,0.,10018.,0.840654369092,1.74856108771,325.
9.12,7589.,25.,12.,2393.,0.,0.,10019.,0.840127649715,1.74746551141,325.
9.14,7575.,29.,18.,2398.,0.,0.,10020.,0.838494112551,1.50350668457,377.
9.16,7564.,30.,21.,2407.,0.,0.,10022.,0.837109409632,1.45098964336,390.
9.18,7550.,33.,16.,2425.,0.,0.,10024.,0.835393314904,1.3163773447,429.
9.2,7545.,33.,18.,2435.,0.,0.,10031.,0.83425749225,1.31458756355,429.
9.22,7534.,33.,19.,2449.,0.,0.,10035.,0.83270915798,1.31214776409,429.
9.24,7527.,34.,15.,2461.,0.,0.,10037.,0.831769696419,1.27211835923,442.
9.26,7514.,28.,16.,2480.,0.,0.,10038.,0.830250414923,1.54189362771,364.
9.28,7512.,26.,10.,2492.,0.,0.,10040.,0.829864082815,1.65972816563,338.
9.3,7514.,20.,16.,2492.,0.,0.,10042.,0.829919703744,2.15779122973,260.
9.32,7507.,27.,5.,2504.,0.,0.,10043.,0.829063995582,1.59671584334,351.
9.34,7507.,23.,4.,2508.,0.,0.,10042.,0.829146555231,1.87459221183,299.
9.36,7510.,13.,9.,2507.,0.,0.,10039.,0.829725781246,3.31890312498,169.
9.38,7507.,13.,8.,2510.,0.,0.,10038.,0.829476958321,3.31790783328,169.
9.4,7504.,11.,11.,2512.,0.,0.,10038.,0.82914547692,3.91959679999,143.
9.42,7500.,9.,7.,2521.,0.,0.,10037.,0.82878606658,4.78854171801,117.
9.44,7504.,6.,9.,2521.,0.,0.,10040.,0.828980308499,7.18449600699,78.
9.46,7502.,8.,8.,2521.,0.,0.,10039.,0.828841918895,5.38747247282,104.
9.48,7502.,8.,6.,2519.,0.,0.,10035.,0.829172299332,5.38961994565,104.
9.5,7506.,5.,3.,2520.,0.,0.,10034.,0.82969708699,8.6288497047,65.
9.52,7508.,4.,1.,2522.,0.,0.,10035.,0.829835460328,10.7878609843,52.
9.54,7511.,4.,1.,2520.,0.,0.,10036.,0.83008432191,10.7910961848,52.
9.56,7514.,3.,1.,2518.,0.,0.,10036.,0.830415869369,14.3938750691,39.
9.58,7522.,2.,3.,2514.,0.,0.,10041.,0.830886043136,21.6030371215,26.
9.6,7527.,2.,1.,2509.,0.,0.,10039.,0.83160398874,21.6217037072,26.
9.62,7532.,2.,1.,2505.,0.,0.,10040.,0.832073518605,21.6339114837,26.
9.64,7537.,2.,0.,2500.,0.,0.,10039.,0.832708816678,21.6504292336,26.
9.66,7540.,1.,2.,2494.,0.,0.,10037.,0.833206258935,43.3267254646,13.
9.68,7547.,1.,1.,2491.,0.,0.,10040.,0.833730595448,43.3539909633,13.
9.7,7555.,0.,0.,2485.,0.,0.,10040.,0.834614369764,inf,0.
9.72,7557.,0.,0.,2482.,0.,0.,10039.,0.834918472553,inf,0.
9.74,7562.,1.,0.,2477.,0.,0.,10040.,0.83538767229,43.4401589591,13.
9.76,7569.,2.,0.,2471.,0.,0.,10042.,0.835994442059,21.7358554935,26.
9.78,7572.,2.,1.,2466.,0.,0.,10041.,0.836409082508,21.7466361452,26.
9.8,7577.,2.,3.,2458.,0.,0.,10040.,0.837044749133,21.7631634775,26.
9.82,7582.,2.,2.,2456.,0.,0.,10042.,0.837430289298,21.7731875217,26.
9.84,7587.,5.,2.,2452.,0.,0.,10046.,0.837648880048,8.7115483525,65.
9.86,7590.,5.,4.,2448.,0.,0.,10047.,0.837896691476,8.71412559135,65.
9.88,7594.,7.,0.,2449.,0.,0.,10050.,0.83808802053,6.22579672394,91.
9.9,7594.,6.,2.,2443.,0.,0.,10045.,0.83850518729,7.26704495651,78.
9.92,7600.,7.,3.,2440.,0.,0.,10050.,0.838750191734,6.23071571003,91.
9.94,7604.,9.,3.,2437.,0.,0.,10053.,0.838941208992,4.84721587418,117.
9.96,7604.,11.,1.,2434.,0.,0.,10050.,0.839191639204,3.96708774896,143.
9.98,7608.,11.,1.,2432.,0.,0.,10052.,0.839466028757,3.96838486321,143.
10.,7609.,13.,2.,2427.,0.,0.,10051.,0.839659900291,3.35863960117,169.
