t,cases
5.01,3.705
5.02,3.705
5.03,3.38
5.04,3.38
5.05,3.315
5.06,3.315
5.07,3.12
5.08,3.12
5.09,3.25
5.1,3.25
5.11,3.64
5.12,3.64
5.13,3.64
5.14,3.64
5.15,3.705
5.16,3.705
5.17,4.225
5.18,4.225
5.19,4.745
5.2,4.745
5.21,4.42
5.22,4.42
5.23,4.095
5.24,4.095
5.25,3.77
5.26,3.77
5.27,3.835
5.28,3.835
5.29,3.835
5.3,3.835
5.31,3.25
5.32,3.25
5.33,3.185
5.34,3.185
5.35,3.25
5.36,3.25
5.37,2.73
5.38,2.73
5.39,2.405
5.4,2.405
5.41,2.08
5.42,2.08
5.43,1.3
5.44,1.3
5.45,0.845
5.46,0.845
5.47,0.845
5.48,0.845
5.49,0.975
5.5,0.975
5.51,0.975
5.52,0.975
5.53,0.845
5.54,0.845
5.55,0.52
5.56,0.52
5.57,0.195
5.58,0.195
5.59,0.065
5.6,0.065
5.61,0.
5.62,0.
5.63,0.
5.64,0.
5.65,0.
5.66,0.
5.67,0.
5.68,0.
5.69,0.
5.7,0.
5.71,0.
5.72,0.
5.73,0.065
5.74,0.065
5.75,0.13
5.76,0.13
5.77,0.195
5.78,0.195
5.79,0.26
5.8,0.26
5.81,0.325
5.82,0.325
5.83,0.65
5.84,0.65
5.85,1.105
5.86,1.105
5.87,1.235
5.88,1.235
5.89,1.235
5.9,1.235
5.91,1.3
5.92,1.3
5.93,1.56
5.94,1.56
5.95,1.365
5.96,1.365
5.97,1.04
5.98,1.04
5.99,1.56
6.,1.56
6.01,2.34
6.02,2.34
6.03,2.535
6.04,2.535
6.05,2.535
6.06,2.535
6.07,2.99
6.08,2.99
6.09,3.055
6.1,3.055
6.11,3.38
6.12,3.38
6.13,4.03
6.14,4.03
6.15,3.9
6.16,3.9
6.17,3.575
6.18,3.575
6.19,3.835
6.2,3.835
6.21,4.095
6.22,4.095
6.23,3.64
6.24,3.64
6.25,2.99
6.26,2.99
6.27,2.99
6.28,2.99
6.29,3.9
6.3,3.9
6.31,4.095
6.32,4.095
6.33,3.315
6.34,3.315
6.35,3.185
6.36,3.185
6.37,2.665
6.38,2.665
6.39,1.755
6.4,1.755
6.41,1.495
6.42,1.495
6.43,1.495
6.44,1.495
6.45,1.625
6.46,1.625
6.47,1.43
6.48,1.43
6.49,1.04
6.5,1.04
6.51,0.78
6.52,0.78
6.53,0.65
6.54,0.65
6.55,0.39
6.56,0.39
6.57,0.0650000000001
6.58,0.065
6.59,0.
6.6,0.
6.61,0.065
6.62,0.065
6.63,0.13
6.64,0.13
6.65,0.13
6.66,0.13
6.67,0.13
6.68,0.13
6.69,0.13
6.7,0.13
6.71,0.13
6.72,0.13
6.73,0.13
6.74,0.13
6.75,0.195
6.76,0.195
6.77,0.26
6.78,0.26
6.79,0.195
6.8,0.195
6.81,0.195
6.82,0.195
6.83,0.26
6.84,0.26
6.85,0.39
6.86,0.39
6.87,0.65
6.88,0.65
6.89,0.715
6.9,0.715
6.91,0.845
6.92,0.845
6.93,1.3
6.94,1.3
6.95,1.365
6.96,1.365
6.97,1.3
6.98,1.3
6.99,2.08
7.,2.08
7.01,2.6
7.02,2.6
7.03,2.405
7.04,2.405
7.05,2.99
7.06,2.99
7.07,3.835
7.08,3.835
7.09,3.705
7.1,3.705
7.11,3.315
7.12,3.315
7.13,3.38
7.14,3.38
7.15,3.315
7.16,3.315
7.17,3.445
7.18,3.445
7.19,3.705
7.2,3.705
7.21,3.77
7.22,3.77
7.23,3.705
7.24,3.705
7.25,3.77
7.26,3.77
7.27,3.315
7.28,3.315
7.29,3.055
7.3,3.055
7.31,3.38
7.32,3.38
7.33,3.12
7.34,3.12
7.35,2.925
7.36,2.925
7.37,2.34
7.38,2.34
7.39,2.08
7.4,2.08
7.41,1.885
7.42,1.885
7.43,1.3
7.44,1.3
7.45,1.04
7.46,1.04
7.47,0.91
7.48,0.91
7.49,0.715
7.5,0.715
7.51,0.39
7.52,0.39
7.53,0.26
7.54,0.26
7.55,0.195
7.56,0.195
7.57,0.26
7.58,0.26
7.59,0.39
7.6,0.39
7.61,0.39
7.62,0.39
7.63,0.39
7.64,0.39
7.65,0.39
7.66,0.39
7.67,0.195
7.68,0.195
7.69,0.
7.7,0.
7.71,0.
7.72,0.
7.73,0.
7.74,0.
7.75,0.065
7.76,0.065
7.77,0.065
7.78,0.065
7.79,0.13
7.8,0.13
7.81,0.325
7.82,0.325
7.83,0.26
7.84,0.26
7.85,0.455
7.86,0.455
7.87,0.91
7.88,0.91
7.89,1.105
7.9,1.105
7.91,1.04
7.92,1.04
7.93,1.3
7.94,1.3
7.95,1.69
7.96,1.69
7.97,1.82
7.98,1.82
7.99,2.535
8.,2.535
8.01,2.6
8.02,2.6
8.03,2.6
8.04,2.6
8.05,4.03
8.06,4.03
8.07,4.745
8.08,4.745
8.09,4.42
8.1,4.42
8.11,4.355
8.12,4.355
8.13,4.55
8.14,4.55
8.15,4.68
8.16,4.68
8.17,4.81
8.18,4.81
8.19,4.875
8.2,4.875
8.21,4.745
8.22,4.745
8.23,5.2
8.24,5.2
8.25,5.07
8.26,5.07
8.27,3.835
8.28,3.835
8.29,3.445
8.3,3.445
8.31,3.315
8.32,3.315
8.33,2.99
8.34,2.99
8.35,2.86
8.36,2.86
8.37,2.535
8.38,2.535
8.39,2.405
8.4,2.405
8.41,2.405
8.42,2.405
8.43,1.82
8.44,1.82
8.45,1.235
8.46,1.235
8.47,0.845
8.48,0.845
8.49,0.455
8.5,0.455
8.51,0.26
8.52,0.26
8.53,0.195
8.54,0.195
8.55,0.13
8.56,0.13
8.57,0.0650000000001
8.58,0.0649999999999
8.59,0.26
8.6,0.26
8.61,0.26
8.62,0.26
8.63,0.195
8.64,0.195
8.65,0.26
8.66,0.26
8.67,0.195
8.68,0.195
8.69,0.13
8.7,0.13
8.71,0.13
8.72,0.13
8.73,0.13
8.74,0.13
8.75,0.13
8.76,0.13
8.77,0.0649999999999
8.78,0.0650000000001
8.79,0.0649999999999
8.8,0.0650000000001
8.81,0.325
8.82,0.325
8.83,0.585
8.84,0.585
8.85,0.715
8.86,0.715
8.87,0.78
8.88,0.78
8.89,1.04
8.9,1.04
8.91,1.495
8.92,1.495
8.93,1.755
8.94,1.755
8.95,2.08
8.96,2.08
8.97,2.21
8.98,2.21
8.99,1.95
9.,1.95
9.01,2.08
9.02,2.08
9.03,3.12
9.04,3.12
9.05,3.835
9.06,3.835
9.07,4.16
9.08,4.16
9.09,4.225
9.1,4.225
9.11,4.29
9.12,4.29
9.13,4.68
9.14,4.68
9.15,4.42
9.16,4.42
9.17,4.68
9.18,4.68
9.19,5.265
9.2,5.265
9.21,4.745
9.22,4.745
9.23,4.225
9.24,4.225
9.25,4.03
9.26,4.03
9.27,3.575
9.28,3.575
9.29,3.575
9.3,3.575
9.31,3.445
9.32,3.445
9.33,3.315
9.34,3.315
9.35,2.86
9.36,2.86
9.37,1.885
9.38,1.885
9.39,2.08
9.4,2.08
9.41,2.34
9.42,2.34
9.43,2.08
9.44,2.08
9.45,1.495
9.46,1.495
9.47,1.04
9.48,1.04
9.49,0.975
9.5,0.975
9.51,0.78
9.52,0.78
9.53,0.78
9.54,0.78
9.55,0.585
9.56,0.585
9.57,0.455
9.58,0.455
9.59,0.325
9.6,0.325
9.61,0.195
9.62,0.195
9.63,0.13
9.64,0.13
9.65,0.0649999999999
9.66,0.0650000000001
9.67,0.13
9.68,0.13
9.69,0.26
9.7,0.26
9.71,0.325
9.72,0.325
9.73,0.195
9.74,0.195
9.75,0.325
9.76,0.325
9.77,0.455
9.78,0.455
9.79,0.26
9.8,0.26
9.81,0.26
9.82,0.26
9.83,0.455
9.84,0.455
9.85,0.715
9.86,0.715
9.87,0.91
9.88,0.91
9.89,0.65
9.9,0.65
9.91,0.585
9.92,0.585
9.93,0.78
9.94,0.78
9.95,0.78
9.96,0.78
9.97,0.91
9.98,0.91
9.99,0.91
10.,0.91
