t,neff
5.,0.557645549197
5.02,0.64384908008
5.04,0.644545385108
5.06,0.559446173601
5.08,0.689614103064
5.1,0.581874602367
5.12,0.604203943712
5.14,0.626400494998
5.16,0.735987985262
5.18,0.736478092593
5.2,0.7162054377
5.22,0.586965227466
5.24,0.850446927601
5.26,0.67619937932
5.28,0.698579853406
5.3,0.545742328457
5.32,0.524541016762
5.34,0.459347101048
5.36,0.394007440111
5.38,0.306432693086
5.4,0.372272447143
5.42,0.218767958423
5.44,0.218905545926
5.46,0.218786675732
5.48,0.174929366666
5.5,0.17484441513
5.52,0.109177951249
5.54,0.0873261918569
5.56,0.
5.58,0.0218070057456
5.6,0.0217905692969
5.62,0.0217750776367
5.64,0.0434901432393
5.66,0.0217234777054
5.68,0.0217062709315
5.7,0.0217028302866
5.72,0.0216809472594
5.74,0.0649795449167
5.76,0.0216479784724
5.78,0.0432732752243
5.8,0.0432251978101
5.82,0.0432008181159
5.84,0.151200119483
5.86,0.151240048968
5.88,0.10788517596
5.9,0.19418538815
5.92,0.129441077215
5.94,0.280648228208
5.96,0.151163666679
5.98,0.259111777191
6.,0.280602335905
6.02,0.302302589552
6.04,0.367334031953
6.06,0.345774944637
6.08,0.389168557094
6.1,0.584165148707
6.12,0.671237644895
6.14,0.628836540854
6.16,0.672860530011
6.18,0.652069597658
6.2,0.696350515065
6.22,0.827858725581
6.24,0.763262654324
6.26,0.567351509611
6.28,0.546185117149
6.3,0.393078945685
6.32,0.502849383313
6.34,0.48133731311
6.36,0.394114459902
6.38,0.394379761816
6.4,0.328678096556
6.42,0.328588604563
6.44,0.10953895799
6.46,0.153383111726
6.48,0.197181396042
6.5,0.0656716496803
6.52,0.109366653037
6.54,0.109302516739
6.56,0.0873471583462
6.58,0.109048450935
6.6,0.0871195790614
6.62,0.
6.64,0.
6.66,0.0434099789569
6.68,0.0651057244025
6.7,0.0650383866578
6.72,0.0649765829826
6.74,0.04327123086
6.76,0.0432633246335
6.78,0.0432345240333
6.8,0.0215937242331
6.82,0.0215784851899
6.84,0.0431343794856
6.86,0.0861801395545
6.88,0.0861402221091
6.9,0.0860121190051
6.92,0.193546663157
6.94,0.236447752995
6.96,0.365757218492
6.98,0.365823495017
7.,0.473876468893
7.02,0.323122973797
7.04,0.452900930674
7.06,0.453175083158
7.08,0.583652547388
7.1,0.540473175561
7.12,0.432842434594
7.14,0.6077854782
7.16,0.587029455018
7.18,0.63059247549
7.2,0.719279015348
7.22,0.633076518142
7.24,0.589416068617
7.26,0.633049594091
7.28,0.721912630941
7.3,0.723112760471
7.32,0.481805820851
7.34,0.481909445818
7.36,0.306608147359
7.38,0.394266976606
7.4,0.328466353453
7.42,0.218654987944
7.44,0.196648864961
7.46,0.0873333681243
7.48,0.152720212033
7.5,0.109001815816
7.52,0.152461674976
7.54,0.130512116841
7.56,0.
7.58,0.0434466139196
7.6,0.0434422609877
7.62,0.043392964805
7.64,0.0216872537839
7.66,0.0216762332508
7.68,0.
7.7,0.0432839821771
7.72,0.
7.74,0.
7.76,0.
7.78,0.
7.8,0.0215354102966
7.82,0.0215025796605
7.84,0.0429861928791
7.86,0.150385311185
7.88,0.128870666679
7.9,0.257787927313
7.92,0.193216799803
7.94,0.214737004518
7.96,0.17182404074
7.98,0.236348112138
8.,0.343889543033
8.02,0.365324132416
8.04,0.365426852543
8.06,0.451981528593
8.08,0.517007978256
8.1,0.581845295931
8.12,0.690860629259
8.14,0.604296470066
8.16,0.583349570802
8.18,0.605847239224
8.2,0.520003133143
8.22,0.694547982965
8.24,0.630624888558
8.26,0.609998105691
8.28,0.632407843939
8.3,0.654691969106
8.32,0.56775652925
8.34,0.393062212558
8.36,0.349493670553
8.38,0.305719663143
8.4,0.240198086276
8.42,0.152840325315
8.44,0.174632248367
8.46,0.130955505033
8.48,0.174649739577
8.5,0.152735514659
8.52,0.0435915045464
8.54,0.
8.56,0.
8.58,0.0217282105788
8.6,0.0217087994518
8.62,0.
8.64,0.
8.66,0.0432987736741
8.68,0.0432386288871
8.7,0.0648071501119
8.72,0.0215753566894
8.74,0.
8.76,0.0215246274956
8.78,0.0214779905947
8.8,0.0214689523044
8.82,0.0429060932451
8.84,0.0214401700735
8.86,0.0643333897779
8.88,0.107170830527
8.9,0.02141617436
8.92,0.150018157675
8.94,0.364366288251
8.96,0.19287279801
8.98,0.343001639301
9.,0.30006635503
9.02,0.429095323672
9.04,0.429361666056
9.06,0.451552839574
9.08,0.495372132539
9.1,0.799375058134
9.12,0.518650477537
9.14,0.649887384007
9.16,0.606632769765
9.18,0.629162006818
9.2,0.695064205858
9.22,0.609080218082
9.24,0.544571916356
9.26,0.720382030396
9.28,0.655089222732
9.3,0.458431867145
9.32,0.480350737867
9.34,0.370900262594
9.36,0.349032929827
9.38,0.19635896255
9.4,0.283665653087
9.42,0.196380915618
9.44,0.196224593768
9.46,0.152632030839
9.48,0.152573338169
9.5,0.0871067392758
9.52,0.0435336725589
9.54,0.
9.56,0.
9.58,0.
9.6,0.
9.62,0.
9.64,0.0216451665151
9.66,0.0216360026004
9.68,0.0648858731816
9.7,0.0216124894619
9.72,0.0215881407905
9.74,0.0647253227243
9.76,0.0646472882689
9.78,0.
9.8,0.0430549184583
9.82,0.043015230674
9.84,0.107492873626
9.86,0.107411111938
9.88,0.10734672623
9.9,0.10726316094
9.92,0.193089098755
9.94,0.150153436951
9.96,0.171549159281
9.98,0.235884843423
10.,0.257139206967
