t,prevalence
5.,2
5.02,5
5.04,3
5.06,3
5.08,6
5.1,5
5.12,3
5.14,5
5.16,6
5.18,12
5.2,5
5.22,9
5.24,6
5.26,10
5.28,8
5.3,12
5.32,3
5.34,6
5.36,3
5.38,2
5.4,0
5.42,6
5.44,3
5.46,3
5.48,0
5.5,1
5.52,0
5.54,0
5.56,0
5.58,0
5.6,2
5.62,0
5.64,0
5.66,0
5.68,0
5.7,0
5.72,0
5.74,2
5.76,0
5.78,0
5.8,0
5.82,1
5.84,0
5.86,0
5.88,2
5.9,0
5.92,4
5.94,2
5.96,2
5.98,4
6.,2
6.02,3
6.04,5
6.06,8
6.08,2
6.1,9
6.12,6
6.14,8
6.16,6
6.18,9
6.2,11
6.22,7
6.24,10
6.26,7
6.28,2
6.3,13
6.32,7
6.34,7
6.36,6
6.38,6
6.4,3
6.42,3
6.44,2
6.46,2
6.48,0
6.5,0
6.52,0
6.54,1
6.56,1
6.58,0
6.6,0
6.62,0
6.64,0
6.66,0
6.68,0
6.7,0
6.72,0
6.74,0
6.76,1
6.78,0
6.8,4
6.82,0
6.84,0
6.86,1
6.88,2
6.9,3
6.92,0
6.94,5
6.96,2
6.98,3
7.,4
7.02,6
7.04,4
7.06,7
7.08,10
7.1,5
7.12,7
7.14,6
7.16,13
7.18,9
7.2,5
7.22,8
7.24,10
7.26,4
7.28,6
7.3,6
7.32,10
7.34,8
7.36,3
7.38,4
7.4,2
7.42,2
7.44,2
7.46,3
7.48,2
7.5,0
7.52,0
7.54,0
7.56,0
7.58,1
7.6,0
7.62,0
7.64,0
7.66,0
7.68,1
7.7,0
7.72,0
7.74,1
7.76,0
7.78,0
7.8,1
7.82,1
7.84,1
7.86,3
7.88,4
7.9,4
7.92,3
7.94,3
7.96,5
7.98,4
8.,5
8.02,5
8.04,5
8.06,5
8.08,7
8.1,11
8.12,6
8.14,9
8.16,3
8.18,2
8.2,5
8.22,5
8.24,7
8.26,6
8.28,7
8.3,1
8.32,5
8.34,6
8.36,2
8.38,4
8.4,2
8.42,1
8.44,2
8.46,2
8.48,3
8.5,1
8.52,1
8.54,1
8.56,0
8.58,0
8.6,0
8.62,0
8.64,1
8.66,0
8.68,0
8.7,2
8.72,0
8.74,0
8.76,0
8.78,0
8.8,0
8.82,0
8.84,1
8.86,1
8.88,0
8.9,1
8.92,2
8.94,4
8.96,3
8.98,5
9.,4
9.02,11
9.04,7
9.06,6
9.08,4
9.1,11
9.12,8
9.14,9
9.16,21
9.18,14
9.2,15
9.22,12
9.24,12
9.26,12
9.28,15
9.3,9
9.32,4
9.34,2
9.36,7
9.38,5
9.4,4
9.42,0
9.44,0
9.46,1
9.48,3
9.5,2
9.52,0
9.54,2
9.56,0
9.58,0
9.6,4
9.62,0
9.64,2
9.66,0
9.68,0
9.7,0
9.72,0
9.74,2
9.76,0
9.78,0
9.8,0
9.82,1
9.84,0
9.86,1
9.88,1
9.9,2
9.92,4
9.94,2
9.96,3
9.98,0
10.,1
