t,s,e,i,r,c,o,n,reff,coal,reportr
5.,7438.,5.,22.,2534.,0.,0.,9999.,0.849728719729,8.83717868518,65.
5.02,7435.,17.,6.,2544.,0.,0.,10002.,0.849131230205,2.59734258651,221.
5.04,7431.,13.,11.,2547.,0.,0.,10002.,0.848674401029,3.39469760412,169.
5.06,7424.,18.,16.,2547.,0.,0.,10005.,0.847620714605,2.44868206441,234.
5.08,7418.,18.,15.,2554.,0.,0.,10005.,0.846935676312,2.4467030649,234.
5.1,7405.,24.,13.,2564.,0.,0.,10006.,0.845366932231,1.83162835317,312.
5.12,7393.,32.,15.,2567.,0.,0.,10007.,0.843912651909,1.37135805935,416.
5.14,7387.,25.,22.,2576.,0.,0.,10010.,0.842975034918,1.75338807263,325.
5.16,7369.,36.,17.,2585.,0.,0.,10007.,0.841173046384,1.21502773367,468.
5.18,7354.,35.,16.,2602.,0.,0.,10007.,0.839460792931,1.24719889235,455.
5.2,7348.,29.,16.,2615.,0.,0.,10008.,0.838692081009,1.5038616625,377.
5.22,7347.,27.,22.,2610.,0.,0.,10006.,0.838745557204,1.61536181388,351.
5.24,7338.,27.,15.,2627.,0.,0.,10007.,0.837634389248,1.6132217867,351.
5.26,7322.,32.,20.,2631.,0.,0.,10005.,0.835975063623,1.35845947839,416.
5.28,7319.,24.,19.,2645.,0.,0.,10007.,0.835465534874,1.81017532556,312.
5.3,7313.,28.,7.,2659.,0.,0.,10007.,0.834780633493,1.55030689077,364.
5.32,7316.,20.,8.,2667.,0.,0.,10011.,0.834789402,2.1704524452,260.
5.34,7308.,18.,17.,2668.,0.,0.,10011.,0.833876565038,2.40897674344,234.
5.36,7312.,13.,4.,2682.,0.,0.,10011.,0.834332983519,3.33733193408,169.
5.38,7313.,13.,3.,2686.,0.,0.,10015.,0.834113809222,3.33645523689,169.
5.4,7314.,10.,6.,2684.,0.,0.,10014.,0.834311174427,4.33841810702,130.
5.42,7316.,13.,3.,2681.,0.,0.,10013.,0.834622660883,3.33849064353,169.
5.44,7323.,7.,10.,2673.,0.,0.,10013.,0.835421233686,6.20598630738,91.
5.46,7323.,11.,10.,2675.,0.,0.,10019.,0.83492093152,3.946898949,143.
5.48,7331.,10.,6.,2671.,0.,0.,10018.,0.835916472722,4.34676565815,130.
5.5,7341.,9.,2.,2668.,0.,0.,10020.,0.836889644438,4.83536239008,117.
5.52,7351.,7.,2.,2666.,0.,0.,10026.,0.837528151885,6.22163769972,91.
5.54,7356.,3.,3.,2662.,0.,0.,10024.,0.838265039662,14.5299273541,39.
5.56,7366.,2.,1.,2653.,0.,0.,10022.,0.83957211845,21.8288750797,26.
5.58,7366.,2.,0.,2648.,0.,0.,10016.,0.840075057019,21.8419514825,26.
5.6,7373.,1.,1.,2644.,0.,0.,10019.,0.840621607005,43.7123235643,13.
5.62,7385.,1.,1.,2635.,0.,0.,10022.,0.841737726684,43.7703617876,13.
5.64,7388.,1.,1.,2630.,0.,0.,10020.,0.8422477446,43.7968827192,13.
5.66,7389.,1.,0.,2625.,0.,0.,10015.,0.842782296779,43.8246794325,13.
5.68,7393.,2.,0.,2621.,0.,0.,10016.,0.843154343815,21.9220129392,26.
5.7,7397.,1.,2.,2617.,0.,0.,10017.,0.843526316569,43.8633684616,13.
5.72,7401.,0.,0.,2617.,0.,0.,10018.,0.843898215061,inf,0.
5.74,7405.,1.,0.,2611.,0.,0.,10017.,0.844438606758,43.9108075514,13.
5.76,7412.,2.,0.,2606.,0.,0.,10020.,0.844983795746,21.9695786894,26.
5.78,7411.,2.,0.,2602.,0.,0.,10015.,0.845291595808,21.977581491,26.
5.8,7422.,0.,0.,2594.,0.,0.,10016.,0.84646172593,inf,0.
5.82,7426.,0.,1.,2587.,0.,0.,10014.,0.847087063344,inf,0.
5.84,7426.,3.,1.,2581.,0.,0.,10011.,0.847340910231,14.687242444,39.
5.86,7426.,5.,3.,2578.,0.,0.,10012.,0.847256277699,8.81146528807,65.
5.88,7425.,5.,7.,2576.,0.,0.,10013.,0.847057580243,8.80939883453,65.
5.9,7421.,9.,5.,2574.,0.,0.,10009.,0.846939588926,4.89342873602,117.
5.92,7425.,9.,4.,2572.,0.,0.,10010.,0.847311443654,4.89557723,117.
5.94,7420.,9.,7.,2572.,0.,0.,10008.,0.846910076359,4.89325821897,117.
5.96,7420.,12.,4.,2572.,0.,0.,10008.,0.846910076359,3.66994366422,156.
5.98,7418.,14.,7.,2568.,0.,0.,10007.,0.846766407664,3.14513237132,182.
6.,7408.,15.,16.,2568.,0.,0.,10007.,0.845624905362,2.93149967192,195.
6.02,7397.,22.,11.,2576.,0.,0.,10006.,0.844453639124,1.99598132884,286.
6.04,7395.,26.,4.,2585.,0.,0.,10010.,0.843887963073,1.68777592615,338.
6.06,7391.,23.,5.,2589.,0.,0.,10008.,0.843600050454,1.90726967929,299.
6.08,7382.,25.,9.,2592.,0.,0.,10008.,0.842572801036,1.75255142615,325.
6.1,7380.,26.,10.,2592.,0.,0.,10008.,0.842344523387,1.68468904677,338.
6.12,7366.,31.,12.,2597.,0.,0.,10006.,0.840914628334,1.41056647333,403.
6.14,7366.,27.,12.,2604.,0.,0.,10009.,0.840662580788,1.6190538593,351.
6.16,7358.,26.,11.,2613.,0.,0.,10008.,0.839833469252,1.6796669385,338.
6.18,7359.,27.,16.,2608.,0.,0.,10010.,0.839779786377,1.61735366265,351.
6.2,7348.,29.,15.,2619.,0.,0.,10011.,0.838440749849,1.50341099973,377.
6.22,7336.,20.,19.,2628.,0.,0.,10003.,0.837740950764,2.17812647199,260.
6.24,7325.,22.,17.,2638.,0.,0.,10002.,0.836568427875,1.9773435568,286.
6.26,7319.,20.,11.,2651.,0.,0.,10001.,0.835966764072,2.17351358659,260.
6.28,7309.,25.,14.,2653.,0.,0.,10001.,0.834824576937,1.73643512003,325.
6.3,7310.,19.,13.,2663.,0.,0.,10005.,0.834604987037,2.28418206978,247.
6.32,7304.,19.,9.,2671.,0.,0.,10003.,0.834086682713,2.28276355269,247.
6.34,7303.,10.,15.,2675.,0.,0.,10003.,0.833972486837,4.33665693155,130.
6.36,7301.,16.,7.,2678.,0.,0.,10002.,0.833827452821,2.70993922167,208.
6.38,7297.,18.,6.,2682.,0.,0.,10003.,0.833287311577,2.40727445567,234.
6.4,7305.,11.,13.,2674.,0.,0.,10003.,0.83420087859,3.94349506242,143.
6.42,7305.,14.,3.,2681.,0.,0.,10003.,0.83420087859,3.09846040619,182.
6.44,7303.,9.,9.,2678.,0.,0.,9999.,0.834306109193,4.82043529756,117.
6.46,7300.,10.,2.,2687.,0.,0.,9999.,0.833963384515,4.33660959948,130.
6.48,7309.,5.,7.,2678.,0.,0.,9999.,0.834991558551,8.68391220893,65.
6.5,7309.,7.,1.,2681.,0.,0.,9998.,0.83507507441,6.20341483847,91.
6.52,7316.,5.,3.,2673.,0.,0.,9997.,0.83595845788,8.69396796195,65.
6.54,7323.,2.,3.,2673.,0.,0.,10001.,0.836423638926,21.7470146121,26.
6.56,7322.,6.,1.,2671.,0.,0.,10000.,0.836393051155,7.24873977667,78.
6.58,7327.,5.,3.,2666.,0.,0.,10001.,0.83688051378,8.70355734331,65.
6.6,7330.,6.,2.,2663.,0.,0.,10001.,0.83722316992,7.25593413931,78.
6.62,7335.,1.,2.,2661.,0.,0.,9999.,0.837961839098,43.5740156331,13.
6.64,7340.,2.,2.,2656.,0.,0.,10000.,0.838449193591,21.7996790334,26.
6.66,7344.,3.,1.,2651.,0.,0.,9999.,0.838990013134,14.542493561,39.
6.68,7351.,1.,1.,2647.,0.,0.,10000.,0.83970572508,43.6646977042,13.
6.7,7359.,2.,1.,2642.,0.,0.,10004.,0.840283452782,21.8473697723,26.
6.72,7364.,3.,1.,2637.,0.,0.,10005.,0.840770331674,14.5733524157,39.
6.74,7372.,3.,0.,2632.,0.,0.,10007.,0.841515497075,14.586268616,39.
6.76,7379.,3.,0.,2626.,0.,0.,10008.,0.842230384563,14.5986599991,39.
6.78,7385.,1.,0.,2626.,0.,0.,10012.,0.842578455536,43.8140796879,13.
6.8,7384.,4.,2.,2619.,0.,0.,10009.,0.84271687436,10.9553193667,52.
6.82,7386.,5.,4.,2615.,0.,0.,10010.,0.842860918899,8.76575355655,65.
6.84,7389.,6.,4.,2613.,0.,0.,10012.,0.84303482843,7.30630184639,78.
6.86,7390.,7.,5.,2612.,0.,0.,10014.,0.842980527621,6.26214106233,91.
6.88,7391.,12.,5.,2606.,0.,0.,10014.,0.843094598058,3.65340992492,156.
6.9,7396.,12.,5.,2605.,0.,0.,10018.,0.843328090609,3.65442172597,156.
6.92,7396.,11.,7.,2603.,0.,0.,10017.,0.843412280295,3.98703987049,143.
6.94,7393.,13.,11.,2600.,0.,0.,10017.,0.843070171474,3.3722806859,169.
6.96,7390.,12.,11.,2604.,0.,0.,10017.,0.842728062653,3.65182160483,156.
6.98,7379.,15.,8.,2612.,0.,0.,10014.,0.841725752816,2.91798260976,195.
7.,7383.,15.,11.,2607.,0.,0.,10016.,0.842013867224,2.91898140638,195.
7.02,7379.,16.,11.,2612.,0.,0.,10018.,0.841389667469,2.73451641927,208.
7.04,7372.,21.,11.,2616.,0.,0.,10020.,0.840423710502,2.08104918791,273.
7.06,7366.,23.,11.,2622.,0.,0.,10022.,0.83957211845,1.89816305041,299.
7.08,7363.,20.,6.,2634.,0.,0.,10023.,0.83914644987,2.18178076966,260.
7.1,7367.,18.,9.,2632.,0.,0.,10026.,0.839351094401,2.42479205049,234.
7.12,7362.,18.,14.,2631.,0.,0.,10025.,0.838865093835,2.42338804886,234.
7.14,7353.,22.,7.,2642.,0.,0.,10024.,0.837923169744,1.98054567394,286.
7.16,7342.,22.,10.,2646.,0.,0.,10020.,0.837003646569,1.97837225553,286.
7.18,7341.,22.,7.,2649.,0.,0.,10019.,0.836973174695,1.9783002311,286.
7.2,7328.,23.,16.,2652.,0.,0.,10019.,0.835490999069,1.88893617181,299.
7.22,7311.,33.,11.,2661.,0.,0.,10016.,0.833802435768,1.31387050485,429.
7.24,7306.,38.,13.,2659.,0.,0.,10016.,0.833232197473,1.14021248075,494.
7.26,7303.,27.,19.,2667.,0.,0.,10016.,0.832890054495,1.6040845494,351.
7.28,7279.,34.,15.,2684.,0.,0.,10012.,0.830484573845,1.27015287765,442.
7.3,7264.,39.,8.,2700.,0.,0.,10011.,0.828855961745,1.10514128233,507.
7.32,7260.,28.,17.,2707.,0.,0.,10012.,0.828316802599,1.5383026334,364.
7.34,7250.,31.,20.,2711.,0.,0.,10012.,0.827175870364,1.3875208148,403.
7.36,7243.,29.,9.,2732.,0.,0.,10013.,0.826294687367,1.48163185321,377.
7.38,7239.,21.,9.,2742.,0.,0.,10011.,0.826003346238,2.04534161926,273.
7.4,7237.,16.,13.,2745.,0.,0.,10011.,0.825775136998,2.68376919524,208.
7.42,7234.,9.,11.,2758.,0.,0.,10012.,0.825350378788,4.76869107744,117.
7.44,7239.,9.,2.,2765.,0.,0.,10015.,0.825673439759,4.77055765194,117.
7.46,7235.,10.,3.,2765.,0.,0.,10013.,0.825382032735,4.29198657022,130.
7.48,7239.,4.,9.,2760.,0.,0.,10012.,0.825920844905,10.7369709838,52.
7.5,7247.,4.,4.,2760.,0.,0.,10015.,0.826585912134,10.7456168577,52.
7.52,7249.,4.,0.,2759.,0.,0.,10012.,0.82706177714,10.7518031028,52.
7.54,7249.,1.,2.,2757.,0.,0.,10009.,0.827309672567,43.0201029735,13.
7.56,7253.,2.,1.,2753.,0.,0.,10009.,0.82776618225,21.5219207385,26.
7.58,7257.,1.,0.,2746.,0.,0.,10004.,0.828636637701,43.0891051604,13.
7.6,7266.,0.,1.,2739.,0.,0.,10006.,0.829498464495,inf,0.
7.62,7281.,0.,0.,2729.,0.,0.,10010.,0.830878736868,inf,0.
7.64,7287.,0.,0.,2725.,0.,0.,10012.,0.831397319633,inf,0.
7.66,7293.,0.,1.,2718.,0.,0.,10012.,0.832081878974,inf,0.
7.68,7298.,0.,1.,2708.,0.,0.,10007.,0.83306838004,inf,0.
7.7,7302.,1.,0.,2701.,0.,0.,10004.,0.833774938472,43.3562968005,13.
7.72,7307.,1.,0.,2695.,0.,0.,10003.,0.834429270343,43.3903220578,13.
7.74,7313.,2.,0.,2691.,0.,0.,10006.,0.834864061499,21.706465599,26.
7.76,7323.,1.,1.,2684.,0.,0.,10009.,0.835755101698,43.4592652883,13.
7.78,7323.,3.,0.,2682.,0.,0.,10008.,0.835838610402,14.487869247,39.
7.8,7328.,2.,1.,2675.,0.,0.,10006.,0.836576486075,21.750988638,26.
7.82,7334.,1.,2.,2669.,0.,0.,10006.,0.837261455905,43.5375957071,13.
7.84,7337.,5.,1.,2660.,0.,0.,10003.,0.837855146641,8.71369352507,65.
7.86,7340.,6.,2.,2657.,0.,0.,10005.,0.838030178502,7.26292821368,78.
7.88,7340.,5.,6.,2654.,0.,0.,10005.,0.838030178502,8.71551385642,65.
7.9,7339.,7.,5.,2653.,0.,0.,10004.,0.83799976355,6.22514110066,91.
7.92,7340.,12.,3.,2650.,0.,0.,10005.,0.838030178502,3.63146410684,156.
7.94,7339.,12.,7.,2648.,0.,0.,10006.,0.837832264097,3.63060647776,156.
7.96,7340.,15.,9.,2644.,0.,0.,10008.,0.837778970415,2.90430043077,195.
7.98,7336.,18.,7.,2649.,0.,0.,10010.,0.837155117932,2.41844811847,234.
8.,7335.,15.,10.,2648.,0.,0.,10008.,0.837208276293,2.90232202448,195.
8.02,7334.,16.,11.,2647.,0.,0.,10008.,0.837094137469,2.72055594677,208.
8.04,7331.,20.,17.,2643.,0.,0.,10011.,0.836500971304,2.17490252539,260.
8.06,7315.,19.,14.,2660.,0.,0.,10008.,0.834925499807,2.28505926263,247.
8.08,7298.,37.,7.,2670.,0.,0.,10012.,0.832652345092,1.17021410662,481.
8.1,7291.,31.,13.,2678.,0.,0.,10013.,0.831770615158,1.39522812865,403.
8.12,7281.,31.,15.,2681.,0.,0.,10008.,0.831044779781,1.39401059834,403.
8.14,7261.,35.,19.,2692.,0.,0.,10007.,0.828844821522,1.23142659198,455.
8.16,7249.,36.,12.,2708.,0.,0.,10005.,0.827640431057,1.19548062264,468.
8.18,7245.,27.,19.,2713.,0.,0.,10004.,0.827266424162,1.59325385394,351.
8.2,7229.,34.,14.,2728.,0.,0.,10005.,0.82535697008,1.26231066012,442.
8.22,7222.,31.,15.,2736.,0.,0.,10004.,0.824640181545,1.3832674013,403.
8.24,7211.,33.,15.,2748.,0.,0.,10007.,0.823137310012,1.29706485214,429.
8.26,7215.,33.,9.,2754.,0.,0.,10011.,0.823264835351,1.29726580116,429.
8.28,7217.,24.,13.,2756.,0.,0.,10010.,0.823575311629,1.7844131752,312.
8.3,7208.,24.,14.,2764.,0.,0.,10010.,0.822548267455,1.78218791282,312.
8.32,7203.,23.,9.,2773.,0.,0.,10008.,0.822141951485,1.8587557164,299.
8.34,7206.,16.,9.,2778.,0.,0.,10009.,0.822402193478,2.6728071288,208.
8.36,7196.,19.,7.,2786.,0.,0.,10008.,0.821342979715,2.24788604975,247.
8.38,7200.,17.,4.,2790.,0.,0.,10011.,0.821553266047,2.51298646085,221.
8.4,7208.,12.,9.,2786.,0.,0.,10015.,0.822137609309,3.562596307,156.
8.42,7213.,9.,7.,2786.,0.,0.,10015.,0.822707904543,4.75342344847,117.
8.44,7210.,13.,3.,2785.,0.,0.,10011.,0.82269431225,3.290777249,169.
8.46,7213.,10.,5.,2783.,0.,0.,10011.,0.823036626111,4.27979045578,130.
8.48,7212.,14.,3.,2780.,0.,0.,10009.,0.823086958002,3.05718012972,182.
8.5,7215.,5.,7.,2781.,0.,0.,10008.,0.823511617376,8.56452082071,65.
8.52,7218.,0.,0.,2789.,0.,0.,10007.,0.823936361623,inf,0.
8.54,7222.,0.,0.,2780.,0.,0.,10002.,0.824805076603,inf,0.
8.56,7224.,0.,0.,2777.,0.,0.,10001.,0.82511598629,inf,0.
8.58,7231.,0.,0.,2771.,0.,0.,10002.,0.825832942248,inf,0.
8.6,7238.,0.,0.,2761.,0.,0.,9999.,0.826880407825,inf,0.
8.62,7241.,0.,0.,2757.,0.,0.,9998.,0.827305871364,inf,0.
8.64,7243.,2.,0.,2753.,0.,0.,9998.,0.827534377336,21.5158938107,26.
8.66,7248.,2.,0.,2748.,0.,0.,9998.,0.828105642266,21.5307466989,26.
8.68,7254.,1.,0.,2742.,0.,0.,9997.,0.828874064169,43.1014513368,13.
8.7,7262.,1.,0.,2735.,0.,0.,9998.,0.829705184069,43.1446695716,13.
8.72,7265.,0.,0.,2734.,0.,0.,9999.,0.829964929932,inf,0.
8.74,7276.,0.,0.,2724.,0.,0.,10000.,0.831138464928,inf,0.
8.76,7278.,1.,1.,2717.,0.,0.,9997.,0.831616410121,43.2440533263,13.
8.78,7284.,1.,1.,2709.,0.,0.,9995.,0.832468540281,43.2883640946,13.
8.8,7286.,2.,1.,2704.,0.,0.,9993.,0.832863770921,21.6544580439,26.
8.82,7291.,1.,3.,2699.,0.,0.,9994.,0.833351928115,43.334300262,13.
8.84,7291.,3.,6.,2694.,0.,0.,9994.,0.833351928115,14.444766754,39.
8.86,7288.,6.,6.,2692.,0.,0.,9992.,0.833175767166,7.22085664877,78.
8.88,7292.,8.,5.,2687.,0.,0.,9992.,0.833633053536,5.41861484799,104.
8.9,7292.,16.,5.,2681.,0.,0.,9994.,0.83346622683,2.7087652372,208.
8.92,7286.,9.,13.,2685.,0.,0.,9993.,0.832863770921,4.81210178754,117.
8.94,7276.,15.,8.,2692.,0.,0.,9991.,0.831887163375,2.8838754997,195.
8.96,7277.,13.,6.,2699.,0.,0.,9995.,0.831668529328,3.32667411731,169.
8.98,7267.,18.,5.,2704.,0.,0.,9994.,0.830608758965,2.39953641479,234.
9.,7276.,14.,8.,2701.,0.,0.,9999.,0.831221587086,3.08739446632,182.
9.02,7266.,20.,10.,2702.,0.,0.,9998.,0.830162196013,2.15842170963,260.
9.04,7256.,21.,8.,2709.,0.,0.,9994.,0.829351473104,2.05363221912,273.
9.06,7249.,16.,18.,2711.,0.,0.,9994.,0.828551382102,2.69279199183,208.
9.08,7246.,19.,13.,2717.,0.,0.,9995.,0.828125623679,2.26644907533,247.
9.1,7230.,28.,10.,2724.,0.,0.,9992.,0.826545114793,1.53501235604,364.
9.12,7220.,31.,21.,2722.,0.,0.,9994.,0.825236719379,1.38426804541,403.
9.14,7209.,42.,15.,2732.,0.,0.,9998.,0.823649775813,1.01975686529,546.
9.16,7197.,40.,14.,2748.,0.,0.,9999.,0.822196503884,1.06885545505,520.
9.18,7181.,45.,11.,2759.,0.,0.,9996.,0.820614848007,0.948266046586,585.
9.2,7167.,38.,20.,2773.,0.,0.,9998.,0.818851150403,1.12053315318,494.
9.22,7157.,37.,19.,2785.,0.,0.,9998.,0.817708620543,1.14921211536,481.
9.24,7145.,27.,19.,2807.,0.,0.,9998.,0.816337584712,1.5722057187,351.
9.26,7140.,29.,10.,2825.,0.,0.,10004.,0.815277055696,1.46187609987,377.
9.28,7130.,29.,14.,2832.,0.,0.,10005.,0.814053838245,1.45968274444,377.
9.3,7126.,30.,11.,2839.,0.,0.,10006.,0.813515835122,1.41009411421,390.
9.32,7122.,33.,10.,2842.,0.,0.,10007.,0.812977939524,1.28105614713,429.
9.34,7126.,21.,12.,2848.,0.,0.,10007.,0.813434540444,2.01421886205,273.
9.36,7124.,17.,10.,2854.,0.,0.,10005.,0.813368799952,2.48795162338,221.
9.38,7118.,17.,9.,2857.,0.,0.,10001.,0.813008802659,2.48685045519,221.
9.4,7112.,19.,6.,2863.,0.,0.,10000.,0.812404722728,2.22342345168,247.
9.42,7121.,14.,7.,2859.,0.,0.,10001.,0.8133514588,3.02101970411,182.
9.44,7120.,11.,7.,2862.,0.,0.,10000.,0.81331856381,3.84477866529,143.
9.46,7114.,10.,8.,2865.,0.,0.,9997.,0.812877046112,4.22696063978,130.
9.48,7116.,12.,3.,2866.,0.,0.,9997.,0.813105574941,3.52345749141,156.
9.5,7122.,9.,4.,2862.,0.,0.,9997.,0.81379116143,4.70190448826,117.
9.52,7131.,5.,1.,2856.,0.,0.,9993.,0.815145697288,8.47751525179,65.
9.54,7137.,1.,4.,2853.,0.,0.,9995.,0.815668310267,42.4147521339,13.
9.56,7146.,1.,0.,2847.,0.,0.,9994.,0.816778614499,42.4724879539,13.
9.58,7151.,0.,0.,2843.,0.,0.,9994.,0.817350108072,inf,0.
9.6,7152.,0.,0.,2839.,0.,0.,9991.,0.817709867023,inf,0.
9.62,7160.,0.,0.,2831.,0.,0.,9991.,0.818624531303,inf,0.
9.64,7169.,0.,0.,2823.,0.,0.,9992.,0.819571497642,inf,0.
9.66,7171.,1.,0.,2819.,0.,0.,9991.,0.819882194689,42.6338741238,13.
9.68,7178.,1.,0.,2812.,0.,0.,9991.,0.820682525935,42.6754913486,13.
9.7,7180.,1.,1.,2807.,0.,0.,9989.,0.821075555043,42.6959288622,13.
9.72,7181.,3.,0.,2805.,0.,0.,9989.,0.82118991097,14.2339584568,39.
9.74,7185.,1.,1.,2802.,0.,0.,9989.,0.821647334677,42.7256614032,13.
9.76,7192.,0.,2.,2793.,0.,0.,9987.,0.822612529846,inf,0.
9.78,7193.,1.,0.,2791.,0.,0.,9985.,0.822891701244,42.7903684647,13.
9.8,7202.,1.,1.,2782.,0.,0.,9986.,0.823838809243,42.8396180807,13.
9.82,7211.,2.,0.,2775.,0.,0.,9988.,0.824703149909,21.4422818976,26.
9.84,7220.,3.,2.,2768.,0.,0.,9993.,0.825319300858,14.3055345482,39.
9.86,7222.,6.,5.,2761.,0.,0.,9994.,0.825465316808,7.15403274567,78.
9.88,7228.,4.,7.,2759.,0.,0.,9998.,0.825820582547,10.7356675731,52.
9.9,7232.,9.,2.,2751.,0.,0.,9994.,0.826608303954,4.77595908951,117.
9.92,7242.,3.,5.,2747.,0.,0.,9997.,0.827502891193,14.3433834473,39.
9.94,7237.,6.,4.,2749.,0.,0.,9996.,0.827014295367,7.16745722651,78.
9.96,7238.,6.,5.,2745.,0.,0.,9994.,0.827294096241,7.16988216743,78.
9.98,7236.,11.,5.,2742.,0.,0.,9994.,0.827065498812,3.9097641762,143.
10.,7235.,12.,4.,2743.,0.,0.,9994.,0.826951200098,3.58345520042,156.
