t,cases
5.01,3.64
5.02,3.64
5.03,3.77
5.04,3.77
5.05,3.12
5.06,3.12
5.07,2.795
5.08,2.795
5.09,2.405
5.1,2.405
5.11,2.6
5.12,2.6
5.13,3.055
5.14,3.055
5.15,2.795
5.16,2.795
5.17,3.055
5.18,3.055
5.19,4.29
5.2,4.29
5.21,4.745
5.22,4.745
5.23,4.42
5.24,4.42
5.25,3.77
5.26,3.77
5.27,3.12
5.28,3.12
5.29,2.99
5.3,2.99
5.31,3.185
5.32,3.185
5.33,3.445
5.34,3.445
5.35,3.055
5.36,3.055
5.37,2.34
5.38,2.34
5.39,1.885
5.4,1.885
5.41,2.015
5.42,2.015
5.43,2.08
5.44,2.08
5.45,1.3
5.46,1.3
5.47,0.845
5.48,0.845
5.49,0.845
5.5,0.845
5.51,0.52
5.52,0.52
5.53,0.455
5.54,0.455
5.55,0.455
5.56,0.455
5.57,0.325
5.58,0.325
5.59,0.195
5.6,0.195
5.61,0.13
5.62,0.13
5.63,0.13
5.64,0.13
5.65,0.065
5.66,0.065
5.67,0.065
5.68,0.065
5.69,0.065
5.7,0.065
5.71,0.
5.72,0.
5.73,0.13
5.74,0.13
5.75,0.195
5.76,0.195
5.77,0.26
5.78,0.26
5.79,0.26
5.8,0.26
5.81,0.26
5.82,0.26
5.83,0.455
5.84,0.455
5.85,0.52
5.86,0.52
5.87,0.65
5.88,0.65
5.89,0.845
5.9,0.845
5.91,0.845
5.92,0.845
5.93,0.975
5.94,0.975
5.95,1.105
5.96,1.105
5.97,1.495
5.98,1.495
5.99,1.755
6.,1.755
6.01,2.015
6.02,2.015
6.03,2.47
6.04,2.47
6.05,2.47
6.06,2.47
6.07,2.73
6.08,2.73
6.09,3.055
6.1,3.055
6.11,3.25
6.12,3.25
6.13,3.835
6.14,3.835
6.15,4.355
6.16,4.355
6.17,4.485
6.18,4.485
6.19,4.42
6.2,4.42
6.21,4.42
6.22,4.42
6.23,4.355
6.24,4.355
6.25,4.16
6.26,4.16
6.27,3.64
6.28,3.64
6.29,2.99
6.3,2.99
6.31,3.12
6.32,3.12
6.33,3.38
6.34,3.38
6.35,2.86
6.36,2.86
6.37,2.21
6.38,2.21
6.39,2.015
6.4,2.015
6.41,1.56
6.42,1.56
6.43,0.975
6.44,0.975
6.45,0.715
6.46,0.715
6.47,0.78
6.48,0.78
6.49,0.78
6.5,0.78
6.51,0.65
6.52,0.65
6.53,0.585
6.54,0.585
6.55,0.52
6.56,0.52
6.57,0.39
6.58,0.39
6.59,0.26
6.6,0.26
6.61,0.195
6.62,0.195
6.63,0.13
6.64,0.13
6.65,0.195
6.66,0.195
6.67,0.26
6.68,0.26
6.69,0.26
6.7,0.26
6.71,0.26
6.72,0.26
6.73,0.195
6.74,0.195
6.75,0.325
6.76,0.325
6.77,0.455
6.78,0.455
6.79,0.39
6.8,0.39
6.81,0.585
6.82,0.585
6.83,0.78
6.84,0.78
6.85,1.04
6.86,1.04
6.87,1.17
6.88,1.17
6.89,1.43
6.9,1.43
6.91,1.755
6.92,1.755
6.93,1.625
6.94,1.625
6.95,1.69
6.96,1.69
6.97,1.885
6.98,1.885
6.99,2.08
7.,2.08
7.01,2.08
7.02,2.08
7.03,2.405
7.04,2.405
7.05,2.795
7.06,2.795
7.07,2.34
7.08,2.34
7.09,2.405
7.1,2.405
7.11,3.185
7.12,3.185
7.13,3.38
7.14,3.38
7.15,2.925
7.16,2.925
7.17,3.055
7.18,3.055
7.19,3.185
7.2,3.185
7.21,2.795
7.22,2.795
7.23,3.12
7.24,3.12
7.25,3.445
7.26,3.445
7.27,3.25
7.28,3.25
7.29,3.705
7.3,3.705
7.31,3.77
7.32,3.77
7.33,2.99
7.34,2.99
7.35,2.21
7.36,2.21
7.37,1.82
7.38,1.82
7.39,1.82
7.4,1.82
7.41,1.3
7.42,1.3
7.43,1.04
7.44,1.04
7.45,1.365
7.46,1.365
7.47,1.365
7.48,1.365
7.49,0.91
7.5,0.91
7.51,0.325
7.52,0.325
7.53,0.
7.54,0.
7.55,0.
7.56,0.
7.57,0.065
7.58,0.065
7.59,0.065
7.6,0.065
7.61,0.
7.62,0.
7.63,0.
7.64,0.
7.65,0.
7.66,0.
7.67,0.
7.68,0.
7.69,0.
7.7,0.
7.71,0.
7.72,0.
7.73,0.
7.74,0.
7.75,0.
7.76,0.
7.77,0.
7.78,0.
7.79,0.065
7.8,0.065
7.81,0.13
7.82,0.13
7.83,0.26
7.84,0.26
7.85,0.65
7.86,0.65
7.87,0.975
7.88,0.975
7.89,0.845
7.9,0.845
7.91,0.91
7.92,0.91
7.93,1.3
7.94,1.3
7.95,1.82
7.96,1.82
7.97,2.21
7.98,2.21
7.99,2.535
8.,2.535
8.01,3.055
8.02,3.055
8.03,3.055
8.04,3.055
8.05,2.73
8.06,2.73
8.07,2.6
8.08,2.6
8.09,2.665
8.1,2.665
8.11,3.185
8.12,3.185
8.13,3.445
8.14,3.445
8.15,3.185
8.16,3.185
8.17,3.25
8.18,3.25
8.19,3.315
8.2,3.315
8.21,3.835
8.22,3.835
8.23,4.615
8.24,4.615
8.25,4.42
8.26,4.42
8.27,4.095
8.28,4.095
8.29,4.355
8.3,4.355
8.31,4.095
8.32,4.095
8.33,3.055
8.34,3.055
8.35,2.665
8.36,2.665
8.37,2.665
8.38,2.665
8.39,2.34
8.4,2.34
8.41,1.95
8.42,1.95
8.43,1.56
8.44,1.56
8.45,1.495
8.46,1.495
8.47,1.17
8.48,1.17
8.49,0.845
8.5,0.845
8.51,0.585
8.52,0.585
8.53,0.26
8.54,0.26
8.55,0.13
8.56,0.13
8.57,0.
8.58,0.
8.59,0.
8.6,0.
8.61,0.0649999999999
8.62,0.0650000000001
8.63,0.26
8.64,0.26
8.65,0.325
8.66,0.325
8.67,0.26
8.68,0.26
8.69,0.26
8.7,0.26
8.71,0.325
8.72,0.325
8.73,0.26
8.74,0.26
8.75,0.13
8.76,0.13
8.77,0.13
8.78,0.13
8.79,0.195
8.8,0.195
8.81,0.585
8.82,0.585
8.83,0.65
8.84,0.65
8.85,0.39
8.86,0.39
8.87,0.715
8.88,0.715
8.89,0.845
8.9,0.845
8.91,0.65
8.92,0.65
8.93,1.04
8.94,1.04
8.95,1.495
8.96,1.495
8.97,1.625
8.98,1.625
8.99,2.015
9.,2.015
9.01,2.275
9.02,2.275
9.03,2.6
9.04,2.6
9.05,2.925
9.06,2.925
9.07,2.665
9.08,2.665
9.09,2.535
9.1,2.535
9.11,2.47
9.12,2.47
9.13,2.73
9.14,2.73
9.15,3.25
9.16,3.25
9.17,3.315
9.18,3.315
9.19,3.445
9.2,3.445
9.21,3.575
9.22,3.575
9.23,3.64
9.24,3.64
9.25,3.25
9.26,3.25
9.27,2.925
9.28,2.925
9.29,3.12
9.3,3.12
9.31,2.795
9.32,2.795
9.33,2.145
9.34,2.145
9.35,1.82
9.36,1.82
9.37,1.82
9.38,1.82
9.39,1.69
9.4,1.69
9.41,1.495
9.42,1.495
9.43,1.365
9.44,1.365
9.45,1.235
9.46,1.235
9.47,0.91
9.48,0.91
9.49,0.715
9.5,0.715
9.51,0.845
9.52,0.845
9.53,0.78
9.54,0.78
9.55,0.39
9.56,0.39
9.57,0.195
9.58,0.195
9.59,0.26
9.6,0.26
9.61,0.13
9.62,0.13
9.63,0.
9.64,0.
9.65,0.
9.66,0.
9.67,0.
9.68,0.
9.69,0.
9.7,0.
9.71,0.0650000000001
9.72,0.0649999999999
9.73,0.0650000000001
9.74,0.0649999999999
9.75,0.13
9.76,0.13
9.77,0.195
9.78,0.195
9.79,0.26
9.8,0.26
9.81,0.52
9.82,0.52
9.83,0.845
9.84,0.845
9.85,1.105
9.86,1.105
9.87,1.43
9.88,1.43
9.89,1.625
9.9,1.625
9.91,1.43
9.92,1.43
9.93,1.17
9.94,1.17
9.95,1.04
9.96,1.04
9.97,1.105
9.98,1.105
9.99,1.17
10.,1.17
