t,prevalence
5.,4
5.02,5
5.04,7
5.06,9
5.08,11
5.1,8
5.12,8
5.14,5
5.16,5
5.18,6
5.2,4
5.22,8
5.24,4
5.26,5
5.28,6
5.3,3
5.32,12
5.34,4
5.36,4
5.38,6
5.4,4
5.42,1
5.44,3
5.46,4
5.48,4
5.5,1
5.52,0
5.54,2
5.56,1
5.58,0
5.6,0
5.62,0
5.64,0
5.66,0
5.68,1
5.7,0
5.72,0
5.74,0
5.76,1
5.78,0
5.8,0
5.82,0
5.84,0
5.86,1
5.88,1
5.9,1
5.92,4
5.94,3
5.96,5
5.98,10
6.,4
6.02,3
6.04,6
6.06,7
6.08,5
6.1,6
6.12,11
6.14,8
6.16,12
6.18,2
6.2,10
6.22,6
6.24,6
6.26,12
6.28,5
6.3,6
6.32,2
6.34,3
6.36,5
6.38,2
6.4,2
6.42,2
6.44,3
6.46,0
6.48,3
6.5,2
6.52,2
6.54,2
6.56,2
6.58,2
6.6,1
6.62,0
6.64,1
6.66,0
6.68,0
6.7,0
6.72,0
6.74,0
6.76,0
6.78,0
6.8,2
6.82,2
6.84,2
6.86,1
6.88,1
6.9,4
6.92,3
6.94,5
6.96,2
6.98,2
7.,3
7.02,3
7.04,2
7.06,2
7.08,10
7.1,7
7.12,1
7.14,5
7.16,7
7.18,10
7.2,16
7.22,10
7.24,9
7.26,11
7.28,7
7.3,3
7.32,5
7.34,9
7.36,6
7.38,8
7.4,5
7.42,2
7.44,1
7.46,5
7.48,0
7.5,2
7.52,0
7.54,1
7.56,0
7.58,0
7.6,2
7.62,1
7.64,0
7.66,1
7.68,1
7.7,0
7.72,2
7.74,0
7.76,1
7.78,0
7.8,1
7.82,0
7.84,2
7.86,0
7.88,1
7.9,1
7.92,3
7.94,3
7.96,2
7.98,4
8.,6
8.02,6
8.04,4
8.06,5
8.08,8
8.1,6
8.12,5
8.14,8
8.16,6
8.18,13
8.2,6
8.22,2
8.24,5
8.26,5
8.28,5
8.3,7
8.32,15
8.34,2
8.36,5
8.38,3
8.4,1
8.42,5
8.44,1
8.46,2
8.48,0
8.5,4
8.52,1
8.54,0
8.56,0
8.58,0
8.6,0
8.62,0
8.64,0
8.66,0
8.68,0
8.7,1
8.72,0
8.74,0
8.76,0
8.78,0
8.8,0
8.82,1
8.84,0
8.86,1
8.88,2
8.9,2
8.92,2
8.94,0
8.96,0
8.98,1
9.,4
9.02,6
9.04,6
9.06,9
9.08,11
9.1,9
9.12,11
9.14,11
9.16,4
9.18,8
9.2,7
9.22,6
9.24,7
9.26,8
9.28,9
9.3,11
9.32,7
9.34,11
9.36,4
9.38,5
9.4,2
9.42,5
9.44,3
9.46,0
9.48,0
9.5,0
9.52,0
9.54,1
9.56,0
9.58,0
9.6,0
9.62,0
9.64,1
9.66,0
9.68,0
9.7,0
9.72,0
9.74,0
9.76,0
9.78,1
9.8,0
9.82,0
9.84,0
9.86,2
9.88,3
9.9,1
9.92,3
9.94,0
9.96,4
9.98,1
10.,4
