t,s,e,i,r,c,o,n,reff,coal,reportr
5.,9104.,2.,46.,849.,0.,0.,10001.,0.878177506743,22.8326151753,26.
5.02,9078.,25.,10.,889.,0.,0.,10002.,0.875581981116,1.82121052072,325.
5.04,9072.,25.,12.,894.,0.,0.,10003.,0.874915801161,1.81982486642,325.
5.06,9061.,22.,16.,905.,0.,0.,10004.,0.873767595909,2.06526886306,286.
5.08,9046.,24.,14.,919.,0.,0.,10003.,0.872408326422,1.89021804058,312.
5.1,9028.,27.,15.,929.,0.,0.,9999.,0.871020686156,1.67752132149,351.
5.12,9010.,32.,15.,939.,0.,0.,9996.,0.869544937229,1.413010523,416.
5.14,8984.,40.,9.,962.,0.,0.,9995.,0.867122453499,1.12725918955,520.
5.16,8980.,24.,17.,975.,0.,0.,9996.,0.866649671067,1.87774095398,312.
5.18,8961.,30.,13.,993.,0.,0.,9997.,0.864729494946,1.49886445791,390.
5.2,8940.,30.,14.,1011.,0.,0.,9995.,0.862875638278,1.49565110635,390.
5.22,8934.,22.,16.,1024.,0.,0.,9996.,0.862210262953,2.03795153062,286.
5.24,8932.,21.,10.,1037.,0.,0.,10000.,0.86167243831,2.13366508534,273.
5.26,8917.,27.,14.,1040.,0.,0.,9998.,0.860397463775,1.65706178209,351.
5.28,8914.,29.,8.,1050.,0.,0.,10001.,0.859849988478,1.54179997934,377.
5.3,8911.,21.,14.,1057.,0.,0.,10003.,0.859388746048,2.12801022831,273.
5.32,8897.,22.,10.,1072.,0.,0.,10001.,0.858210157897,2.02849673685,286.
5.34,8888.,25.,7.,1079.,0.,0.,9999.,0.857513497846,1.78362807552,325.
5.36,8889.,21.,3.,1087.,0.,0.,10000.,0.857524216765,2.12339329865,273.
5.38,8889.,20.,2.,1088.,0.,0.,9999.,0.857609977762,2.22978594218,260.
5.4,8884.,14.,7.,1092.,0.,0.,9997.,0.857299055139,3.18425363337,182.
5.42,8885.,9.,8.,1100.,0.,0.,10002.,0.856966942302,4.95136455552,117.
5.44,8889.,9.,1.,1106.,0.,0.,10005.,0.85709566893,4.95210830937,117.
5.46,8892.,5.,3.,1106.,0.,0.,10006.,0.857299248021,8.91591217942,65.
5.48,8888.,4.,3.,1107.,0.,0.,10002.,0.857256295237,11.1443318381,52.
5.5,8899.,2.,2.,1107.,0.,0.,10010.,0.857631288161,22.2984134922,26.
5.52,8901.,3.,0.,1107.,0.,0.,10011.,0.857738347804,14.8674646953,39.
5.54,8905.,3.,1.,1101.,0.,0.,10010.,0.858209531529,14.8756318798,39.
5.56,8905.,2.,4.,1098.,0.,0.,10009.,0.858295275313,22.3156771581,26.
5.58,8905.,1.,2.,1101.,0.,0.,10009.,0.858295275313,44.6313543163,13.
5.6,8905.,0.,3.,1100.,0.,0.,10008.,0.858381036232,inf,0.
5.62,8903.,1.,0.,1102.,0.,0.,10006.,0.858359784653,44.6347088019,13.
5.64,8911.,1.,0.,1098.,0.,0.,10010.,0.858787774897,44.6569642946,13.
5.66,8914.,0.,1.,1095.,0.,0.,10010.,0.859076896581,inf,0.
5.68,8913.,0.,0.,1094.,0.,0.,10007.,0.859238036583,inf,0.
5.7,8913.,0.,0.,1094.,0.,0.,10007.,0.859238036583,inf,0.
5.72,8910.,1.,0.,1094.,0.,0.,10005.,0.859120532137,44.6742676711,13.
5.74,8916.,1.,0.,1091.,0.,0.,10008.,0.859441360925,44.6909507681,13.
5.76,8921.,0.,1.,1089.,0.,0.,10011.,0.85966563316,inf,0.
5.78,8922.,1.,0.,1087.,0.,0.,10010.,0.859847887738,44.7120901624,13.
5.8,8923.,2.,0.,1085.,0.,0.,10010.,0.859944261632,22.3585508024,26.
5.82,8924.,3.,2.,1084.,0.,0.,10013.,0.859782958316,14.9029046108,39.
5.84,8921.,7.,2.,1083.,0.,0.,10013.,0.859493923257,6.38481200133,91.
5.86,8925.,4.,6.,1081.,0.,0.,10016.,0.859621751628,11.1750827712,52.
5.88,8925.,6.,5.,1082.,0.,0.,10018.,0.859450136186,7.44856784694,78.
5.9,8926.,10.,5.,1082.,0.,0.,10023.,0.859117646113,4.46741175979,130.
5.92,8918.,7.,10.,1087.,0.,0.,10022.,0.858433301288,6.37693309529,91.
5.94,8914.,12.,9.,1089.,0.,0.,10024.,0.857877068513,3.71746729689,156.
5.96,8907.,15.,6.,1094.,0.,0.,10022.,0.857374457791,2.97223145367,195.
5.98,8902.,13.,10.,1097.,0.,0.,10022.,0.856893165291,3.42757266117,169.
6.,8890.,20.,4.,1107.,0.,0.,10021.,0.855823457772,2.22514099021,260.
6.02,8877.,23.,4.,1113.,0.,0.,10017.,0.854913221067,1.93284728241,299.
6.04,8873.,22.,9.,1112.,0.,0.,10016.,0.854613311171,2.01999509913,286.
6.06,8872.,24.,7.,1119.,0.,0.,10022.,0.854005410297,1.85034505564,312.
6.08,8870.,20.,11.,1124.,0.,0.,10025.,0.853557388192,2.2192492093,260.
6.1,8851.,21.,22.,1131.,0.,0.,10025.,0.851729024001,2.10904329753,273.
6.12,8842.,26.,17.,1142.,0.,0.,10027.,0.85069324239,1.70138648478,338.
6.14,8835.,26.,10.,1160.,0.,0.,10031.,0.849680811749,1.6993616235,338.
6.16,8824.,29.,11.,1167.,0.,0.,10031.,0.848622918265,1.52166868103,377.
6.18,8801.,44.,14.,1173.,0.,0.,10032.,0.846326588054,1.00020414952,572.
6.2,8789.,40.,22.,1182.,0.,0.,10033.,0.8450883982,1.09861491766,520.
6.22,8776.,39.,23.,1197.,0.,0.,10035.,0.843670230616,1.12489364082,507.
6.24,8761.,33.,22.,1221.,0.,0.,10037.,0.84206039892,1.32688305284,429.
6.26,8747.,35.,23.,1236.,0.,0.,10041.,0.840379881124,1.24856439481,455.
6.28,8740.,34.,11.,1255.,0.,0.,10040.,0.839790982826,1.28438620903,442.
6.3,8737.,25.,9.,1272.,0.,0.,10043.,0.839251952555,1.74564406132,325.
6.32,8733.,20.,3.,1286.,0.,0.,10042.,0.838951259587,2.18127327493,260.
6.34,8729.,14.,10.,1287.,0.,0.,10040.,0.838734037653,3.11529785414,182.
6.36,8720.,11.,9.,1298.,0.,0.,10038.,0.838036203812,3.96162569075,143.
6.38,8717.,9.,6.,1305.,0.,0.,10037.,0.837831354569,4.84080338196,117.
6.4,8716.,10.,1.,1312.,0.,0.,10039.,0.837568343772,4.35535538761,130.
6.42,8715.,7.,2.,1314.,0.,0.,10038.,0.837555678466,6.22184218289,91.
6.44,8716.,8.,3.,1313.,0.,0.,10040.,0.83748492063,5.4436519841,104.
6.46,8713.,9.,3.,1314.,0.,0.,10039.,0.837280057284,4.83761810875,117.
6.48,8714.,5.,5.,1316.,0.,0.,10040.,0.837292748781,8.70784458732,65.
6.5,8715.,3.,1.,1323.,0.,0.,10042.,0.837222057403,14.511848995,39.
6.52,8714.,4.,1.,1324.,0.,0.,10043.,0.837042636439,10.8815542737,52.
6.54,8719.,2.,4.,1321.,0.,0.,10046.,0.837272816164,21.7690932203,26.
6.56,8720.,2.,2.,1322.,0.,0.,10046.,0.837368844701,21.7715899622,26.
6.58,8717.,2.,1.,1323.,0.,0.,10043.,0.837330808106,21.7706010108,26.
6.6,8720.,1.,3.,1322.,0.,0.,10046.,0.837368844701,43.5431799245,13.
6.62,8713.,1.,3.,1325.,0.,0.,10042.,0.837029923827,43.525556039,13.
6.64,8709.,2.,2.,1327.,0.,0.,10040.,0.836812319157,21.7571202981,26.
6.66,8713.,2.,0.,1327.,0.,0.,10042.,0.837029923827,21.7627780195,26.
6.68,8717.,2.,0.,1325.,0.,0.,10044.,0.837247441837,21.7684334878,26.
6.7,8716.,1.,0.,1326.,0.,0.,10043.,0.837234750884,43.536207046,13.
6.72,8716.,2.,0.,1325.,0.,0.,10043.,0.837234750884,21.768103523,26.
6.74,8723.,1.,2.,1321.,0.,0.,10047.,0.837573556477,43.5538249368,13.
6.76,8729.,0.,1.,1319.,0.,0.,10049.,0.8379828578,inf,0.
6.78,8733.,0.,0.,1318.,0.,0.,10051.,0.8382000347,inf,0.
6.8,8736.,4.,0.,1313.,0.,0.,10053.,0.838321163516,10.8981751257,52.
6.82,8737.,4.,2.,1309.,0.,0.,10052.,0.838500533179,10.9005069313,52.
6.84,8736.,6.,1.,1310.,0.,0.,10053.,0.838321163516,7.26545008381,78.
6.86,8738.,4.,2.,1310.,0.,0.,10054.,0.838429685916,10.8995859169,52.
6.88,8744.,6.,2.,1308.,0.,0.,10060.,0.838504997844,7.26704331465,78.
6.9,8745.,4.,4.,1308.,0.,0.,10061.,0.838517541099,10.9007280343,52.
6.92,8747.,4.,4.,1305.,0.,0.,10060.,0.838792682541,10.904304873,52.
6.94,8740.,10.,3.,1304.,0.,0.,10057.,0.838371429608,4.35953143396,130.
6.96,8740.,9.,5.,1303.,0.,0.,10057.,0.838371429608,4.84392381551,117.
6.98,8732.,13.,6.,1305.,0.,0.,10056.,0.83768733553,3.35074934212,169.
7.,8722.,11.,14.,1309.,0.,0.,10056.,0.836728005095,3.95544147863,143.
7.02,8708.,18.,12.,1318.,0.,0.,10056.,0.835384942487,2.41333427829,234.
7.04,8697.,24.,12.,1324.,0.,0.,10057.,0.834246718913,1.80753455765,312.
7.06,8682.,23.,14.,1331.,0.,0.,10050.,0.833387931526,1.88418141041,299.
7.08,8677.,21.,14.,1342.,0.,0.,10054.,0.832576606168,2.06161826289,273.
7.1,8669.,22.,12.,1350.,0.,0.,10053.,0.831891731516,1.96628954722,286.
7.12,8655.,28.,7.,1362.,0.,0.,10052.,0.830630893289,1.54260023039,364.
7.14,8649.,29.,12.,1364.,0.,0.,10054.,0.829889946611,1.48807852496,377.
7.16,8639.,27.,11.,1376.,0.,0.,10053.,0.829012881366,1.59661740115,351.
7.18,8629.,28.,10.,1387.,0.,0.,10054.,0.827970904071,1.53766025042,364.
7.2,8615.,26.,13.,1397.,0.,0.,10051.,0.826874304242,1.65374860848,338.
7.22,8603.,29.,14.,1399.,0.,0.,10045.,0.8262157491,1.48149030873,377.
7.24,8601.,24.,15.,1404.,0.,0.,10044.,0.826105913415,1.78989614573,312.
7.26,8579.,34.,11.,1418.,0.,0.,10042.,0.824156974235,1.26047537236,442.
7.28,8577.,24.,13.,1431.,0.,0.,10045.,0.823718758577,1.78472397692,312.
7.3,8573.,23.,13.,1433.,0.,0.,10042.,0.823580573507,1.86200825315,299.
7.32,8553.,31.,10.,1447.,0.,0.,10041.,0.821741068166,1.37840437241,403.
7.34,8548.,23.,9.,1461.,0.,0.,10041.,0.821260686389,1.85676329097,299.
7.36,8544.,23.,5.,1468.,0.,0.,10040.,0.820958141563,1.85607927658,299.
7.38,8536.,14.,8.,1477.,0.,0.,10035.,0.820598118566,3.04793586896,182.
7.4,8532.,15.,6.,1481.,0.,0.,10034.,0.820295326796,2.84369046623,195.
7.42,8529.,10.,9.,1486.,0.,0.,10034.,0.820006896653,4.2640358626,130.
7.44,8528.,11.,2.,1493.,0.,0.,10034.,0.819910753272,3.87594174274,143.
7.46,8531.,6.,8.,1494.,0.,0.,10039.,0.819790676998,7.10485253399,78.
7.48,8523.,6.,0.,1507.,0.,0.,10036.,0.819266738233,7.10031173135,78.
7.5,8523.,5.,1.,1507.,0.,0.,10036.,0.819266738233,8.52037407762,65.
7.52,8523.,5.,1.,1507.,0.,0.,10036.,0.819266738233,8.52037407762,65.
7.54,8524.,0.,4.,1506.,0.,0.,10034.,0.819526179748,inf,0.
7.56,8527.,0.,0.,1508.,0.,0.,10035.,0.819732914364,inf,0.
7.58,8527.,0.,1.,1504.,0.,0.,10032.,0.819978049805,inf,0.
7.6,8525.,1.,0.,1503.,0.,0.,10029.,0.820030949275,42.6416093623,13.
7.62,8527.,1.,1.,1502.,0.,0.,10031.,0.820059794203,42.6431092985,13.
7.64,8530.,0.,2.,1501.,0.,0.,10033.,0.820184780594,inf,0.
7.66,8533.,1.,1.,1497.,0.,0.,10032.,0.820555025095,42.668861305,13.
7.68,8537.,2.,1.,1495.,0.,0.,10035.,0.820694252367,21.3380505615,26.
7.7,8535.,1.,0.,1494.,0.,0.,10030.,0.820911008687,42.6873724517,13.
7.72,8538.,0.,2.,1491.,0.,0.,10031.,0.821117687687,inf,0.
7.74,8541.,0.,0.,1493.,0.,0.,10034.,0.821160617225,inf,0.
7.76,8545.,1.,0.,1490.,0.,0.,10036.,0.821381471102,42.7118364973,13.
7.78,8550.,2.,0.,1484.,0.,0.,10036.,0.821862092208,21.3684143974,26.
7.8,8549.,1.,1.,1484.,0.,0.,10035.,0.821847857969,42.7360886144,13.
7.82,8556.,2.,1.,1478.,0.,0.,10037.,0.822356896833,21.3812793177,26.
7.84,8557.,3.,2.,1477.,0.,0.,10039.,0.822289159896,14.2530121049,39.
7.86,8555.,7.,1.,1477.,0.,0.,10040.,0.822015086736,6.10639778718,91.
7.88,8558.,6.,4.,1476.,0.,0.,10044.,0.821975864087,7.12379082208,78.
7.9,8553.,8.,6.,1475.,0.,0.,10042.,0.821659237747,5.34078504536,104.
7.92,8549.,11.,3.,1478.,0.,0.,10041.,0.821356762745,3.88277742388,143.
7.94,8549.,11.,7.,1474.,0.,0.,10041.,0.821356762745,3.88277742388,143.
7.96,8542.,17.,5.,1475.,0.,0.,10039.,0.820847727455,2.5108283428,221.
7.98,8545.,12.,10.,1473.,0.,0.,10040.,0.821054227488,3.55790165245,156.
8.,8545.,15.,0.,1482.,0.,0.,10042.,0.820890703443,2.8457544386,195.
8.02,8546.,12.,3.,1482.,0.,0.,10043.,0.820905023067,3.55725509996,156.
8.04,8546.,14.,2.,1482.,0.,0.,10044.,0.820823292181,3.0487722281,182.
8.06,8541.,14.,8.,1480.,0.,0.,10043.,0.820424736955,3.04729188012,182.
8.08,8527.,20.,7.,1486.,0.,0.,10040.,0.819324680841,2.13024417019,260.
8.1,8525.,17.,8.,1488.,0.,0.,10038.,0.81929571531,2.50608101154,221.
8.12,8511.,21.,9.,1494.,0.,0.,10035.,0.818194773561,2.02600610596,273.
8.14,8509.,19.,17.,1492.,0.,0.,10037.,0.81783950855,2.23829760235,247.
8.16,8499.,30.,13.,1493.,0.,0.,10035.,0.817041167959,1.41620469113,390.
8.18,8498.,29.,12.,1500.,0.,0.,10039.,0.816619525628,1.46428328733,377.
8.2,8485.,30.,17.,1509.,0.,0.,10041.,0.815207875996,1.41302698506,390.
8.22,8479.,28.,12.,1523.,0.,0.,10042.,0.814550295436,1.51273626295,364.
8.24,8473.,27.,13.,1530.,0.,0.,10043.,0.813892845828,1.56749733271,351.
8.26,8469.,28.,7.,1539.,0.,0.,10043.,0.813508616938,1.51080171717,364.
8.28,8469.,25.,8.,1541.,0.,0.,10043.,0.813508616938,1.69209792323,325.
8.3,8471.,21.,12.,1542.,0.,0.,10046.,0.813457738929,2.01427630592,273.
8.32,8467.,18.,7.,1556.,0.,0.,10048.,0.812911786877,2.34841182876,234.
8.34,8458.,19.,4.,1566.,0.,0.,10047.,0.812128526961,2.22266754747,247.
8.36,8457.,9.,12.,1568.,0.,0.,10046.,0.812113339408,4.69221040547,117.
8.38,8451.,11.,8.,1575.,0.,0.,10045.,0.811617958346,3.83673943945,143.
8.4,8443.,15.,6.,1581.,0.,0.,10045.,0.810849653569,2.81094546571,195.
8.42,8443.,9.,6.,1587.,0.,0.,10045.,0.810849653569,4.68490910951,117.
8.44,8444.,9.,9.,1586.,0.,0.,10048.,0.810703570142,4.68406507193,117.
8.46,8433.,11.,5.,1595.,0.,0.,10044.,0.809969906735,3.82894865002,143.
8.48,8432.,12.,5.,1595.,0.,0.,10044.,0.809873859077,3.50945338933,156.
8.5,8430.,8.,2.,1600.,0.,0.,10040.,0.810004346135,5.26502824988,104.
8.52,8428.,5.,4.,1602.,0.,0.,10039.,0.809892840903,8.42288554539,65.
8.54,8428.,1.,6.,1605.,0.,0.,10040.,0.809812174285,42.1102330628,13.
8.56,8427.,0.,0.,1609.,0.,0.,10036.,0.810038812987,inf,0.
8.58,8431.,0.,0.,1607.,0.,0.,10038.,0.810261838801,inf,0.
8.6,8434.,0.,0.,1606.,0.,0.,10040.,0.810388689834,inf,0.
8.62,8436.,0.,0.,1603.,0.,0.,10039.,0.810661604872,inf,0.
8.64,8437.,0.,0.,1602.,0.,0.,10039.,0.810757700368,inf,0.
8.66,8439.,0.,0.,1599.,0.,0.,10038.,0.811030679355,inf,0.
8.68,8443.,0.,0.,1594.,0.,0.,10037.,0.811495942025,inf,0.
8.7,8444.,0.,1.,1587.,0.,0.,10032.,0.811996558292,inf,0.
8.72,8446.,0.,1.,1584.,0.,0.,10031.,0.812269851277,inf,0.
8.74,8451.,0.,1.,1581.,0.,0.,10033.,0.81258869646,inf,0.
8.76,8453.,3.,0.,1579.,0.,0.,10035.,0.812619013149,14.0853962279,39.
8.78,8454.,4.,1.,1578.,0.,0.,10037.,0.812553203112,10.5631916405,52.
8.8,8457.,2.,1.,1582.,0.,0.,10042.,0.8124368261,21.1233574786,26.
8.82,8457.,4.,1.,1580.,0.,0.,10042.,0.8124368261,10.5616787393,52.
8.84,8459.,4.,3.,1576.,0.,0.,10042.,0.812628959676,10.5641764758,52.
8.86,8463.,4.,2.,1576.,0.,0.,10045.,0.81277041551,10.5660154016,52.
8.88,8461.,4.,3.,1575.,0.,0.,10043.,0.812740159159,10.5656220691,52.
8.9,8455.,6.,5.,1575.,0.,0.,10041.,0.812325585332,7.04015507288,78.
8.92,8452.,10.,2.,1577.,0.,0.,10041.,0.812037356266,4.22259425258,130.
8.94,8452.,6.,8.,1576.,0.,0.,10042.,0.81195649216,7.03695626538,78.
8.96,8451.,8.,12.,1575.,0.,0.,10046.,0.811537168185,5.2749915932,104.
8.98,8440.,16.,8.,1583.,0.,0.,10047.,0.810400185334,2.63380060233,208.
9.,8436.,18.,9.,1586.,0.,0.,10049.,0.809854896139,2.33958081107,234.
9.02,8436.,17.,10.,1592.,0.,0.,10055.,0.809371641104,2.47572501985,221.
9.04,8431.,17.,14.,1594.,0.,0.,10056.,0.808811489447,2.47401161478,221.
9.06,8413.,25.,9.,1608.,0.,0.,10055.,0.807164961666,1.67890312026,325.
9.08,8404.,23.,13.,1613.,0.,0.,10053.,0.806461888529,1.82330513928,299.
9.1,8397.,21.,13.,1623.,0.,0.,10054.,0.805710010602,1.99509145482,273.
9.12,8383.,24.,16.,1631.,0.,0.,10054.,0.804366680823,1.74279447512,312.
9.14,8381.,26.,12.,1635.,0.,0.,10054.,0.804174776569,1.60834955314,338.
9.16,8367.,29.,15.,1642.,0.,0.,10053.,0.802911306678,1.43970303266,377.
9.18,8365.,30.,9.,1649.,0.,0.,10053.,0.802719383335,1.39138026445,390.
9.2,8360.,30.,3.,1659.,0.,0.,10052.,0.802319383928,1.39068693214,390.
9.22,8359.,22.,12.,1659.,0.,0.,10052.,0.802223412709,1.89616443004,286.
9.24,8352.,24.,5.,1671.,0.,0.,10052.,0.801551614182,1.73669516406,312.
9.26,8356.,21.,8.,1669.,0.,0.,10054.,0.801775973394,1.98535002936,273.
9.28,8348.,30.,5.,1671.,0.,0.,10054.,0.801008356377,1.38841448439,390.
9.3,8344.,20.,12.,1678.,0.,0.,10054.,0.800624547869,2.08162382446,260.
9.32,8334.,22.,13.,1684.,0.,0.,10053.,0.799744571514,1.89030535085,286.
9.34,8319.,27.,12.,1691.,0.,0.,10049.,0.798622911449,1.5380885702,351.
9.36,8309.,30.,8.,1704.,0.,0.,10051.,0.797504189663,1.38234059542,390.
9.38,8309.,18.,10.,1713.,0.,0.,10050.,0.797583543314,2.30413023624,234.
9.4,8301.,16.,9.,1723.,0.,0.,10049.,0.796894913804,2.58990846986,208.
9.42,8306.,14.,7.,1725.,0.,0.,10052.,0.797136938146,2.96079434169,182.
9.44,8309.,10.,1.,1731.,0.,0.,10051.,0.797504189663,4.14702178625,130.
9.46,8306.,8.,1.,1734.,0.,0.,10049.,0.79737491315,5.18293693548,104.
9.48,8306.,3.,6.,1732.,0.,0.,10047.,0.797533642107,13.8239164632,39.
9.5,8309.,2.,4.,1732.,0.,0.,10047.,0.797821699045,20.7433641752,26.
9.52,8314.,1.,2.,1731.,0.,0.,10048.,0.798222345116,41.507561946,13.
9.54,8316.,3.,3.,1724.,0.,0.,10046.,0.798573315658,13.8419374714,39.
9.56,8321.,4.,1.,1720.,0.,0.,10046.,0.799053458344,10.3876949585,52.
9.58,8323.,1.,4.,1717.,0.,0.,10045.,0.799325081921,41.5649042599,13.
9.6,8323.,0.,0.,1721.,0.,0.,10044.,0.799404664266,inf,0.
9.62,8325.,1.,0.,1719.,0.,0.,10045.,0.799517158115,41.574892222,13.
9.64,8327.,0.,0.,1717.,0.,0.,10044.,0.799788854902,inf,0.
9.66,8326.,2.,0.,1717.,0.,0.,10045.,0.799613196212,20.7899431015,26.
9.68,8336.,2.,0.,1710.,0.,0.,10048.,0.800334552428,20.8086983631,26.
9.7,8338.,2.,1.,1707.,0.,0.,10048.,0.800526571275,20.8136908531,26.
9.72,8343.,0.,0.,1707.,0.,0.,10050.,0.800847214089,inf,0.
9.74,8349.,0.,0.,1702.,0.,0.,10051.,0.801343420327,inf,0.
9.76,8352.,0.,0.,1698.,0.,0.,10050.,0.801711126941,inf,0.
9.78,8358.,0.,0.,1696.,0.,0.,10054.,0.801967877648,inf,0.
9.8,8362.,1.,0.,1693.,0.,0.,10056.,0.802192109448,41.7139896913,13.
9.82,8364.,2.,1.,1688.,0.,0.,10055.,0.802463775035,20.8640581509,26.
9.84,8362.,4.,1.,1686.,0.,0.,10053.,0.80243149832,10.4316094782,52.
9.86,8361.,6.,4.,1677.,0.,0.,10048.,0.80273478801,6.95703482942,78.
9.88,8365.,6.,5.,1674.,0.,0.,10050.,0.802959001061,6.9589780092,78.
9.9,8372.,3.,5.,1669.,0.,0.,10049.,0.803710904514,13.9309890116,39.
9.92,8371.,7.,6.,1668.,0.,0.,10052.,0.803375067327,5.96792907158,91.
9.94,8371.,6.,6.,1669.,0.,0.,10052.,0.803375067327,6.96258391684,78.
9.96,8366.,13.,3.,1674.,0.,0.,10056.,0.802575841622,3.21030336649,169.
9.98,8367.,12.,11.,1663.,0.,0.,10053.,0.802911306678,3.47928232894,156.
10.,8367.,11.,10.,1667.,0.,0.,10055.,0.802751602788,3.79482575864,143.
