t,cases
5.01,3.055
5.02,3.055
5.03,2.925
5.04,2.925
5.05,2.6
5.06,2.6
5.07,3.055
5.08,3.055
5.09,4.095
5.1,4.095
5.11,4.42
5.12,4.42
5.13,4.03
5.14,4.03
5.15,3.51
5.16,3.51
5.17,3.25
5.18,3.25
5.19,2.86
5.2,2.86
5.21,3.25
5.22,3.25
5.23,3.25
5.24,3.25
5.25,3.12
5.26,3.12
5.27,3.51
5.28,3.51
5.29,3.445
5.3,3.445
5.31,3.38
5.32,3.38
5.33,2.795
5.34,2.795
5.35,1.885
5.36,1.885
5.37,1.56
5.38,1.56
5.39,1.95
5.4,1.95
5.41,1.95
5.42,1.95
5.43,1.365
5.44,1.365
5.45,1.3
5.46,1.3
5.47,1.17
5.48,1.17
5.49,0.91
5.5,0.91
5.51,0.65
5.52,0.65
5.53,0.39
5.54,0.39
5.55,0.325
5.56,0.325
5.57,0.13
5.58,0.13
5.59,0.13
5.6,0.13
5.61,0.26
5.62,0.26
5.63,0.26
5.64,0.26
5.65,0.195
5.66,0.195
5.67,0.195
5.68,0.195
5.69,0.13
5.7,0.13
5.71,0.
5.72,0.
5.73,0.
5.74,0.
5.75,0.
5.76,0.
5.77,0.065
5.78,0.065
5.79,0.13
5.8,0.13
5.81,0.26
5.82,0.26
5.83,0.585
5.84,0.585
5.85,0.65
5.86,0.65
5.87,0.715
5.88,0.715
5.89,1.04
5.9,1.04
5.91,1.17
5.92,1.17
5.93,1.235
5.94,1.235
5.95,1.3
5.96,1.3
5.97,1.365
5.98,1.365
5.99,1.56
6.,1.56
6.01,1.69
6.02,1.69
6.03,1.755
6.04,1.755
6.05,1.885
6.06,1.885
6.07,2.99
6.08,2.99
6.09,3.64
6.1,3.64
6.11,3.315
6.12,3.315
6.13,3.25
6.14,3.25
6.15,3.38
6.16,3.38
6.17,3.965
6.18,3.965
6.19,3.9
6.2,3.9
6.21,3.575
6.22,3.575
6.23,3.64
6.24,3.64
6.25,3.445
6.26,3.445
6.27,2.665
6.28,2.665
6.29,2.665
6.3,2.665
6.31,2.925
6.32,2.925
6.33,2.47
6.34,2.47
6.35,2.535
6.36,2.535
6.37,2.405
6.38,2.405
6.39,2.145
6.4,2.145
6.41,2.015
6.42,2.015
6.43,1.625
6.44,1.625
6.45,1.235
6.46,1.235
6.47,1.04
6.48,1.04
6.49,0.975
6.5,0.975
6.51,0.78
6.52,0.78
6.53,0.65
6.54,0.65
6.55,0.585
6.56,0.585
6.57,0.455
6.58,0.455
6.59,0.39
6.6,0.39
6.61,0.195
6.62,0.195
6.63,0.195
6.64,0.195
6.65,0.325
6.66,0.325
6.67,0.26
6.68,0.26
6.69,0.26
6.7,0.26
6.71,0.195
6.72,0.195
6.73,0.195
6.74,0.195
6.75,0.26
6.76,0.26
6.77,0.195
6.78,0.195
6.79,0.13
6.8,0.13
6.81,0.13
6.82,0.13
6.83,0.26
6.84,0.26
6.85,0.325
6.86,0.325
6.87,0.325
6.88,0.325
6.89,0.585
6.9,0.585
6.91,0.65
6.92,0.65
6.93,0.455
6.94,0.455
6.95,0.845
6.96,0.845
6.97,1.885
6.98,1.885
6.99,2.34
7.,2.34
7.01,2.665
7.02,2.665
7.03,3.12
7.04,3.12
7.05,3.38
7.06,3.38
7.07,3.575
7.08,3.575
7.09,4.095
7.1,4.095
7.11,4.81
7.12,4.81
7.13,5.005
7.14,5.005
7.15,4.615
7.16,4.615
7.17,4.355
7.18,4.355
7.19,4.68
7.2,4.68
7.21,4.485
7.22,4.485
7.23,3.705
7.24,3.705
7.25,3.51
7.26,3.51
7.27,3.445
7.28,3.445
7.29,2.73
7.3,2.73
7.31,2.47
7.32,2.47
7.33,2.925
7.34,2.925
7.35,2.86
7.36,2.86
7.37,2.34
7.38,2.34
7.39,1.885
7.4,1.885
7.41,1.885
7.42,1.885
7.43,1.755
7.44,1.755
7.45,1.365
7.46,1.365
7.47,1.3
7.48,1.3
7.49,0.78
7.5,0.78
7.51,0.325
7.52,0.325
7.53,0.13
7.54,0.13
7.55,0.13
7.56,0.13
7.57,0.13
7.58,0.13
7.59,0.065
7.6,0.065
7.61,0.13
7.62,0.13
7.63,0.195
7.64,0.195
7.65,0.195
7.66,0.195
7.67,0.13
7.68,0.13
7.69,0.065
7.7,0.065
7.71,0.13
7.72,0.13
7.73,0.26
7.74,0.26
7.75,0.195
7.76,0.195
7.77,0.195
7.78,0.195
7.79,0.195
7.8,0.195
7.81,0.195
7.82,0.195
7.83,0.325
7.84,0.325
7.85,0.585
7.86,0.585
7.87,0.91
7.88,0.91
7.89,1.3
7.9,1.3
7.91,1.495
7.92,1.495
7.93,1.755
7.94,1.755
7.95,1.82
7.96,1.82
7.97,2.08
7.98,2.08
7.99,2.34
8.,2.34
8.01,2.145
8.02,2.145
8.03,2.34
8.04,2.34
8.05,2.86
8.06,2.86
8.07,3.25
8.08,3.25
8.09,3.185
8.1,3.185
8.11,3.12
8.12,3.12
8.13,3.38
8.14,3.38
8.15,3.25
8.16,3.25
8.17,3.64
8.18,3.64
8.19,4.355
8.2,4.355
8.21,4.355
8.22,4.355
8.23,4.16
8.24,4.16
8.25,3.445
8.26,3.445
8.27,3.185
8.28,3.185
8.29,3.25
8.3,3.25
8.31,2.73
8.32,2.73
8.33,2.275
8.34,2.275
8.35,2.08
8.36,2.08
8.37,2.145
8.38,2.145
8.39,2.405
8.4,2.405
8.41,1.885
8.42,1.885
8.43,1.365
8.44,1.365
8.45,1.235
8.46,1.235
8.47,0.975
8.48,0.975
8.49,0.78
8.5,0.78
8.51,0.715
8.52,0.715
8.53,0.65
8.54,0.65
8.55,0.39
8.56,0.39
8.57,0.13
8.58,0.13
8.59,0.
8.6,0.
8.61,0.0649999999999
8.62,0.0650000000001
8.63,0.0649999999999
8.64,0.0650000000001
8.65,0.
8.66,0.
8.67,0.0650000000001
8.68,0.0649999999999
8.69,0.13
8.7,0.13
8.71,0.195
8.72,0.195
8.73,0.195
8.74,0.195
8.75,0.13
8.76,0.13
8.77,0.195
8.78,0.195
8.79,0.195
8.8,0.195
8.81,0.13
8.82,0.13
8.83,0.26
8.84,0.26
8.85,0.65
8.86,0.65
8.87,0.975
8.88,0.975
8.89,0.975
8.9,0.975
8.91,1.3
8.92,1.3
8.93,1.625
8.94,1.625
8.95,1.43
8.96,1.43
8.97,1.56
8.98,1.56
8.99,2.145
9.,2.145
9.01,2.795
9.02,2.795
9.03,2.99
9.04,2.99
9.05,3.315
9.06,3.315
9.07,3.315
9.08,3.315
9.09,3.38
9.1,3.38
9.11,4.355
9.12,4.355
9.13,4.095
9.14,4.095
9.15,3.705
9.16,3.705
9.17,3.25
9.18,3.25
9.19,2.99
9.2,2.99
9.21,3.77
9.22,3.77
9.23,3.9
9.24,3.9
9.25,4.16
9.26,4.16
9.27,4.225
9.28,4.225
9.29,3.38
9.3,3.38
9.31,3.055
9.32,3.055
9.33,2.795
9.34,2.795
9.35,2.21
9.36,2.21
9.37,2.08
9.38,2.08
9.39,2.21
9.4,2.21
9.41,2.145
9.42,2.145
9.43,2.21
9.44,2.21
9.45,2.34
9.46,2.34
9.47,1.82
9.48,1.82
9.49,1.69
9.5,1.69
9.51,1.625
9.52,1.625
9.53,1.04
9.54,1.04
9.55,0.715
9.56,0.715
9.57,0.39
9.58,0.39
9.59,0.13
9.6,0.13
9.61,0.13
9.62,0.13
9.63,0.0650000000001
9.64,0.0649999999999
9.65,0.0649999999999
9.66,0.0650000000001
9.67,0.0650000000001
9.68,0.0649999999999
9.69,0.195
9.7,0.195
9.71,0.26
9.72,0.26
9.73,0.13
9.74,0.13
9.75,0.13
9.76,0.13
9.77,0.325
9.78,0.325
9.79,0.52
9.8,0.52
9.81,0.455
9.82,0.455
9.83,0.455
9.84,0.455
9.85,0.52
9.86,0.52
9.87,0.455
9.88,0.455
9.89,0.52
9.9,0.52
9.91,0.975
9.92,0.975
9.93,1.43
9.94,1.43
9.95,1.755
9.96,1.755
9.97,1.885
9.98,1.885
9.99,2.08
10.,2.08
