t,s,e,i,r,c,o,n,reff,coal,reportr
5.,7236.,2.,54.,2708.,0.,0.,10000.,0.867744606376,22.5613597658,26.
5.02,7198.,40.,19.,2740.,0.,0.,9997.,0.863446662066,1.12248066069,520.
5.04,7190.,31.,21.,2754.,0.,0.,9996.,0.86257329353,1.44689713753,403.
5.06,7178.,38.,19.,2763.,0.,0.,9998.,0.860961410713,1.17815771992,494.
5.08,7172.,34.,19.,2773.,0.,0.,9998.,0.860241743889,1.31566384359,442.
5.1,7159.,36.,21.,2781.,0.,0.,9997.,0.858768359784,1.24044318636,468.
5.12,7146.,35.,10.,2805.,0.,0.,9996.,0.857294680885,1.27369495446,455.
5.14,7138.,36.,14.,2809.,0.,0.,9997.,0.856249273941,1.2368045068,468.
5.16,7131.,35.,16.,2814.,0.,0.,9996.,0.855495153847,1.27102137143,455.
5.18,7117.,37.,18.,2822.,0.,0.,9994.,0.853986460917,1.20019718832,481.
5.2,7116.,39.,16.,2827.,0.,0.,9998.,0.853524853529,1.13803313804,507.
5.22,7118.,27.,21.,2836.,0.,0.,10002.,0.853423304861,1.64363006862,351.
5.24,7103.,31.,22.,2848.,0.,0.,10004.,0.851454600455,1.42824642657,403.
5.26,7088.,38.,17.,2861.,0.,0.,10004.,0.849656512463,1.16268785916,494.
5.28,7081.,31.,13.,2880.,0.,0.,10005.,0.848732565413,1.42368043231,403.
5.3,7074.,27.,9.,2890.,0.,0.,10000.,0.848317488323,1.63379664418,351.
5.32,7063.,22.,12.,2901.,0.,0.,9998.,0.847167796582,2.0023966101,286.
5.34,7053.,27.,12.,2906.,0.,0.,9998.,0.845968351875,1.62927238139,351.
5.36,7048.,17.,16.,2910.,0.,0.,9991.,0.845960920624,2.58764516897,221.
5.38,7039.,21.,11.,2921.,0.,0.,9992.,0.844796108346,2.09187607781,273.
5.4,7031.,17.,6.,2937.,0.,0.,9991.,0.843920435997,2.58140368658,221.
5.42,7035.,14.,6.,2937.,0.,0.,9992.,0.844316042366,3.1360310145,182.
5.44,7043.,12.,2.,2936.,0.,0.,9993.,0.845191587498,3.66249687916,156.
5.46,7051.,7.,5.,2928.,0.,0.,9991.,0.846321006147,6.28695604566,91.
5.48,7052.,8.,2.,2928.,0.,0.,9990.,0.846525763486,5.50241746266,104.
5.5,7059.,9.,2.,2919.,0.,0.,9989.,0.84745087706,4.89638284524,117.
5.52,7063.,7.,0.,2919.,0.,0.,9989.,0.847931087219,6.29891664791,91.
5.54,7067.,2.,4.,2919.,0.,0.,9992.,0.848156570206,22.0520708254,26.
5.56,7068.,1.,0.,2924.,0.,0.,9993.,0.848191699622,44.1059683803,13.
5.58,7074.,1.,1.,2917.,0.,0.,9993.,0.848911726531,44.1434097796,13.
5.6,7081.,1.,1.,2910.,0.,0.,9993.,0.849751757926,44.1870914121,13.
5.62,7090.,2.,1.,2898.,0.,0.,9991.,0.851002117938,22.1260550664,26.
5.64,7092.,0.,4.,2895.,0.,0.,9991.,0.851242174953,inf,0.
5.66,7097.,1.,0.,2893.,0.,0.,9991.,0.85184231749,44.2958005095,13.
5.68,7104.,0.,1.,2883.,0.,0.,9988.,0.852938629132,inf,0.
5.7,7104.,1.,0.,2881.,0.,0.,9986.,0.853109456015,44.3616917128,13.
5.72,7106.,0.,4.,2876.,0.,0.,9986.,0.853349633227,inf,0.
5.74,7117.,2.,0.,2869.,0.,0.,9988.,0.854499468403,22.2169861785,26.
5.76,7123.,1.,1.,2861.,0.,0.,9986.,0.855391139527,44.4803392554,13.
5.78,7126.,2.,1.,2856.,0.,0.,9985.,0.85583710904,22.251764835,26.
5.8,7135.,2.,0.,2847.,0.,0.,9984.,0.857003843863,22.2820999404,26.
5.82,7138.,2.,2.,2838.,0.,0.,9980.,0.857707814788,22.3004031845,26.
5.84,7141.,4.,3.,2831.,0.,0.,9979.,0.858154284602,11.1560056998,52.
5.86,7150.,9.,3.,2821.,0.,0.,9983.,0.858891560593,4.96248457232,117.
5.88,7151.,8.,4.,2817.,0.,0.,9980.,0.859269905233,5.58525438401,104.
5.9,7147.,8.,3.,2821.,0.,0.,9979.,0.85887532167,5.58268959086,104.
5.92,7147.,14.,5.,2812.,0.,0.,9978.,0.858961398572,3.19042805184,182.
5.94,7145.,11.,8.,2808.,0.,0.,9972.,0.859237708114,4.06185098381,143.
5.96,7145.,7.,12.,2811.,0.,0.,9975.,0.858979290758,6.38098901706,91.
5.98,7136.,21.,3.,2815.,0.,0.,9975.,0.857897301449,2.1243171274,273.
6.,7139.,13.,11.,2812.,0.,0.,9975.,0.858257964552,3.43303185821,169.
6.02,7141.,13.,9.,2812.,0.,0.,9975.,0.858498406621,3.43399362648,169.
6.04,7133.,18.,11.,2811.,0.,0.,9973.,0.857708609996,2.47782487332,234.
6.06,7129.,22.,11.,2815.,0.,0.,9977.,0.856883947902,2.02536205868,286.
6.08,7124.,18.,18.,2814.,0.,0.,9974.,0.856540517759,2.47445038464,234.
6.1,7112.,28.,14.,2820.,0.,0.,9974.,0.855097720705,1.58803862417,364.
6.12,7106.,23.,16.,2828.,0.,0.,9973.,0.854461991117,1.93182711035,299.
6.14,7095.,29.,13.,2838.,0.,0.,9975.,0.852968239038,1.52946029069,377.
6.16,7098.,22.,5.,2852.,0.,0.,9977.,0.853157842925,2.01655490146,286.
6.18,7092.,22.,11.,2847.,0.,0.,9972.,0.852864076409,2.01586054424,286.
6.2,7083.,27.,14.,2849.,0.,0.,9973.,0.851696352812,1.6403040869,351.
6.22,7075.,24.,15.,2857.,0.,0.,9971.,0.850905033401,1.84362757237,312.
6.24,7060.,28.,12.,2867.,0.,0.,9967.,0.849441759383,1.577534696,364.
6.26,7050.,29.,10.,2879.,0.,0.,9968.,0.848153487921,1.52082694386,377.
6.28,7039.,29.,10.,2887.,0.,0.,9965.,0.847085069202,1.51891115857,377.
6.3,7038.,19.,18.,2889.,0.,0.,9964.,0.847049730006,2.31824136633,247.
6.32,7031.,21.,7.,2904.,0.,0.,9963.,0.846292188703,2.09558065774,273.
6.34,7028.,20.,3.,2913.,0.,0.,9964.,0.845846192452,2.19920010038,260.
6.36,7034.,19.,5.,2906.,0.,0.,9964.,0.846568314984,2.31692380943,247.
6.38,7032.,20.,3.,2910.,0.,0.,9965.,0.846242677458,2.20023096139,260.
6.4,7039.,11.,9.,2904.,0.,0.,9963.,0.847255115386,4.00520600001,143.
6.42,7037.,10.,4.,2908.,0.,0.,9959.,0.847354584291,4.40624383831,130.
6.44,7041.,10.,5.,2904.,0.,0.,9960.,0.847751116891,4.40830580783,130.
6.46,7050.,4.,9.,2899.,0.,0.,9962.,0.84866432118,11.0326361753,52.
6.48,7053.,5.,2.,2901.,0.,0.,9961.,0.849110689895,8.83075117491,65.
6.5,7061.,6.,0.,2898.,0.,0.,9965.,0.849732586111,7.36434907962,78.
6.52,7067.,3.,1.,2893.,0.,0.,9964.,0.85053998891,14.7426931411,39.
6.54,7071.,3.,3.,2884.,0.,0.,9961.,0.851277709946,14.7554803057,39.
6.56,7079.,1.,3.,2879.,0.,0.,9962.,0.852155280799,44.3120746015,13.
6.58,7076.,3.,1.,2877.,0.,0.,9957.,0.852221883385,14.7718459787,39.
6.6,7085.,2.,1.,2869.,0.,0.,9957.,0.853305828686,22.1859515458,26.
6.62,7091.,0.,1.,2864.,0.,0.,9956.,0.854114239166,inf,0.
6.64,7097.,0.,1.,2858.,0.,0.,9956.,0.854836941949,inf,0.
6.66,7103.,2.,0.,2853.,0.,0.,9958.,0.855387811102,22.2400830886,26.
6.68,7110.,2.,0.,2847.,0.,0.,9959.,0.856144819428,22.2597653051,26.
6.7,7122.,0.,2.,2839.,0.,0.,9963.,0.857245479725,inf,0.
6.72,7132.,0.,0.,2832.,0.,0.,9964.,0.858362983006,inf,0.
6.74,7136.,0.,0.,2829.,0.,0.,9965.,0.858758211937,inf,0.
6.76,7138.,0.,0.,2824.,0.,0.,9962.,0.859257577955,inf,0.
6.78,7143.,0.,0.,2819.,0.,0.,9962.,0.859859467544,inf,0.
6.8,7151.,0.,0.,2813.,0.,0.,9964.,0.860649704358,inf,0.
6.82,7151.,1.,0.,2810.,0.,0.,9962.,0.860822490887,44.7627695261,13.
6.84,7154.,5.,1.,2802.,0.,0.,9962.,0.861183624641,8.95630969627,65.
6.86,7156.,3.,4.,2799.,0.,0.,9962.,0.861424380477,14.9313559283,39.
6.88,7160.,7.,4.,2792.,0.,0.,9963.,0.86181938147,6.40208683378,91.
6.9,7160.,7.,7.,2787.,0.,0.,9961.,0.861992420197,6.40337226432,91.
6.92,7162.,11.,7.,2782.,0.,0.,9962.,0.862146647984,4.07560233593,143.
6.94,7160.,11.,6.,2780.,0.,0.,9957.,0.862338706195,4.07651024747,143.
6.96,7159.,13.,8.,2778.,0.,0.,9958.,0.862131682342,3.44852672937,169.
6.98,7157.,7.,11.,2783.,0.,0.,9958.,0.861890829798,6.40261759279,91.
7.,7164.,11.,1.,2788.,0.,0.,9964.,0.862214303177,4.07592216047,143.
7.02,7159.,12.,3.,2787.,0.,0.,9961.,0.861872030194,3.73477879751,156.
7.04,7155.,14.,8.,2786.,0.,0.,9963.,0.861217552293,3.19880805137,182.
7.06,7144.,21.,11.,2784.,0.,0.,9960.,0.860152532178,2.12990150825,273.
7.08,7140.,20.,14.,2788.,0.,0.,9962.,0.859498333791,2.23469566786,260.
7.1,7132.,18.,11.,2801.,0.,0.,9962.,0.858535310447,2.48021311907,234.
7.12,7129.,22.,9.,2802.,0.,0.,9962.,0.858174176694,2.02841169037,286.
7.14,7128.,18.,14.,2804.,0.,0.,9964.,0.857881567985,2.47832452973,234.
7.16,7121.,25.,10.,2811.,0.,0.,9967.,0.856781128692,1.78210474768,325.
7.18,7116.,24.,12.,2815.,0.,0.,9967.,0.856179541044,1.85505567226,312.
7.2,7118.,28.,13.,2812.,0.,0.,9971.,0.856076611696,1.58985656458,364.
7.22,7115.,24.,12.,2820.,0.,0.,9971.,0.855715803908,1.85405090847,312.
7.24,7110.,27.,11.,2825.,0.,0.,9973.,0.854942971691,1.64655683437,351.
7.26,7111.,30.,5.,2826.,0.,0.,9972.,0.855148963247,1.48225820296,390.
7.28,7113.,24.,12.,2824.,0.,0.,9973.,0.855303707123,1.8531580321,312.
7.3,7110.,24.,11.,2828.,0.,0.,9973.,0.854942971691,1.85237643866,312.
7.32,7104.,23.,11.,2831.,0.,0.,9969.,0.854564251958,1.93205830877,299.
7.34,7095.,20.,10.,2841.,0.,0.,9966.,0.853738529441,2.21972017655,260.
7.36,7091.,22.,5.,2847.,0.,0.,9965.,0.853342836441,2.01699215886,286.
7.38,7091.,15.,10.,2848.,0.,0.,9964.,0.853428479038,2.95855206067,195.
7.4,7090.,15.,8.,2854.,0.,0.,9967.,0.853051285273,2.95724445561,195.
7.42,7085.,7.,8.,2864.,0.,0.,9964.,0.852706356506,6.3343900769,91.
7.44,7086.,7.,9.,2860.,0.,0.,9962.,0.852997926224,6.33655602338,91.
7.46,7083.,6.,6.,2866.,0.,0.,9961.,0.85272238998,7.39026071316,78.
7.48,7085.,8.,6.,2864.,0.,0.,9963.,0.852791943815,5.5431476348,104.
7.5,7094.,4.,7.,2860.,0.,0.,9965.,0.853703861474,11.0981501992,52.
7.52,7098.,7.,1.,2861.,0.,0.,9967.,0.85401382551,6.34410270379,91.
7.54,7099.,5.,3.,2859.,0.,0.,9966.,0.854219847851,8.88388641765,65.
7.56,7097.,4.,3.,2859.,0.,0.,9963.,0.85423633384,11.1050723399,52.
7.58,7100.,3.,3.,2859.,0.,0.,9965.,0.85442591154,14.8100491334,39.
7.6,7103.,1.,2.,2861.,0.,0.,9967.,0.854615413159,44.4400014842,13.
7.62,7110.,0.,0.,2858.,0.,0.,9968.,0.855371815477,inf,0.
7.64,7120.,0.,0.,2852.,0.,0.,9972.,0.856231278065,inf,0.
7.66,7125.,0.,0.,2845.,0.,0.,9970.,0.857004446234,inf,0.
7.68,7135.,0.,0.,2831.,0.,0.,9966.,0.858551713539,inf,0.
7.7,7137.,0.,0.,2825.,0.,0.,9962.,0.859137200037,inf,0.
7.72,7142.,0.,0.,2817.,0.,0.,9959.,0.859998073186,inf,0.
7.74,7144.,1.,0.,2815.,0.,0.,9960.,0.860152532178,44.7279316733,13.
7.76,7149.,0.,0.,2813.,0.,0.,9962.,0.860581735052,inf,0.
7.78,7157.,1.,0.,2806.,0.,0.,9964.,0.86137182689,44.7913349983,13.
7.8,7163.,2.,1.,2799.,0.,0.,9965.,0.862007437234,22.4121933681,26.
7.82,7169.,0.,2.,2795.,0.,0.,9966.,0.862642920023,inf,0.
7.84,7175.,3.,2.,2792.,0.,0.,9972.,0.862845424173,14.9559873523,39.
7.86,7181.,4.,3.,2785.,0.,0.,9973.,0.863480376894,11.2252448996,52.
7.88,7181.,9.,3.,2780.,0.,0.,9973.,0.863480376894,4.98899773317,117.
7.9,7181.,9.,4.,2777.,0.,0.,9971.,0.863653575245,4.98999843475,117.
7.92,7184.,12.,3.,2775.,0.,0.,9974.,0.86375450303,3.7429361798,156.
7.94,7190.,7.,3.,2772.,0.,0.,9972.,0.864649282203,6.42310895351,91.
7.96,7201.,6.,8.,2758.,0.,0.,9973.,0.865885279768,7.50433909132,78.
7.98,7200.,10.,8.,2754.,0.,0.,9972.,0.865851854223,4.50242964196,130.
8.,7202.,12.,8.,2751.,0.,0.,9973.,0.866005524912,3.75269060795,156.
8.02,7198.,16.,8.,2747.,0.,0.,9969.,0.865871830742,2.81408344991,208.
8.04,7194.,19.,9.,2747.,0.,0.,9969.,0.865390657177,2.36843758806,247.
8.06,7186.,19.,8.,2757.,0.,0.,9970.,0.864341607107,2.36556650366,247.
8.08,7184.,20.,11.,2753.,0.,0.,9968.,0.864274419464,2.24711349061,260.
8.1,7173.,21.,13.,2760.,0.,0.,9967.,0.863037640235,2.13704558534,273.
8.12,7167.,26.,17.,2757.,0.,0.,9967.,0.862315735057,1.72463147011,338.
8.14,7153.,35.,15.,2765.,0.,0.,9968.,0.860544950226,1.27852392605,455.
8.16,7142.,35.,19.,2773.,0.,0.,9969.,0.859135400828,1.27642973837,455.
8.18,7121.,36.,21.,2791.,0.,0.,9969.,0.856609239611,1.23732445722,468.
8.2,7109.,33.,12.,2818.,0.,0.,9972.,0.854908448843,1.34712846484,429.
8.22,7102.,24.,20.,2827.,0.,0.,9973.,0.853981010542,1.85029218951,312.
8.24,7095.,25.,14.,2839.,0.,0.,9973.,0.853139294536,1.77452973263,325.
8.26,7083.,27.,9.,2853.,0.,0.,9972.,0.851781761591,1.64046857788,351.
8.28,7080.,18.,13.,2861.,0.,0.,9972.,0.851420989986,2.45966063774,234.
8.3,7060.,21.,14.,2869.,0.,0.,9964.,0.849697512623,2.1040128884,273.
8.32,7047.,26.,10.,2880.,0.,0.,9963.,0.848218042069,1.69643608414,338.
8.34,7044.,25.,10.,2886.,0.,0.,9965.,0.84768677759,1.76318849739,325.
8.36,7038.,19.,15.,2893.,0.,0.,9965.,0.846964727524,2.31800872796,247.
8.38,7029.,18.,10.,2907.,0.,0.,9964.,0.845966546208,2.44390335571,234.
8.4,7033.,14.,7.,2913.,0.,0.,9967.,0.846193186083,3.14300326259,182.
8.42,7035.,8.,8.,2917.,0.,0.,9968.,0.846348906031,5.5012678892,104.
8.44,7032.,11.,6.,2919.,0.,0.,9968.,0.845987989654,3.99921595109,143.
8.46,7033.,12.,3.,2915.,0.,0.,9963.,0.846532920374,3.66830932162,156.
8.48,7037.,9.,2.,2916.,0.,0.,9964.,0.84692937625,4.89336972945,117.
8.5,7043.,9.,3.,2912.,0.,0.,9967.,0.847396361379,4.89606786575,117.
8.52,7047.,5.,1.,2916.,0.,0.,9969.,0.847707528653,8.81615829799,65.
8.54,7055.,2.,2.,2909.,0.,0.,9968.,0.848755015217,22.0676303956,26.
8.56,7055.,1.,0.,2907.,0.,0.,9963.,0.849180968753,44.1574103751,13.
8.58,7058.,2.,1.,2901.,0.,0.,9962.,0.849627344523,22.0903109576,26.
8.6,7064.,2.,0.,2898.,0.,0.,9964.,0.850178927644,22.1046521187,26.
8.62,7074.,0.,2.,2890.,0.,0.,9966.,0.851211607789,inf,0.
8.64,7084.,1.,0.,2884.,0.,0.,9969.,0.852158384132,44.3122359748,13.
8.66,7088.,1.,1.,2878.,0.,0.,9968.,0.852725095373,44.3417049594,13.
8.68,7094.,0.,1.,2872.,0.,0.,9967.,0.853532555392,inf,0.
8.7,7104.,0.,1.,2867.,0.,0.,9972.,0.854307162833,inf,0.
8.72,7113.,0.,0.,2862.,0.,0.,9975.,0.855132217657,inf,0.
8.74,7123.,1.,0.,2849.,0.,0.,9973.,0.856506158559,44.5383202451,13.
8.76,7130.,2.,0.,2845.,0.,0.,9977.,0.857004144837,22.2821077658,26.
8.78,7137.,2.,0.,2837.,0.,0.,9976.,0.857931514311,22.3062193721,26.
8.8,7141.,2.,1.,2832.,0.,0.,9976.,0.858412350245,22.3187211064,26.
8.82,7143.,1.,1.,2829.,0.,0.,9974.,0.858824946428,44.6588972143,13.
8.84,7146.,3.,1.,2824.,0.,0.,9974.,0.859185645692,14.892551192,39.
8.86,7152.,2.,1.,2818.,0.,0.,9973.,0.859993267727,22.3598249609,26.
8.88,7155.,4.,2.,2812.,0.,0.,9973.,0.860354003158,11.1846020411,52.
8.9,7156.,5.,1.,2810.,0.,0.,9972.,0.860560537336,8.94982958829,65.
8.92,7163.,5.,2.,2802.,0.,0.,9972.,0.861402337749,8.95858431259,65.
8.94,7166.,5.,2.,2797.,0.,0.,9970.,0.861935980591,8.96413419815,65.
8.96,7168.,8.,3.,2790.,0.,0.,9969.,0.862263029003,5.60470968852,104.
8.98,7172.,12.,2.,2786.,0.,0.,9972.,0.862484652567,3.73743349446,156.
9.,7178.,9.,8.,2781.,0.,0.,9976.,0.862860082629,4.98541381075,117.
9.02,7174.,9.,9.,2781.,0.,0.,9973.,0.862638660888,4.98413448513,117.
9.04,7164.,19.,8.,2783.,0.,0.,9974.,0.861349841273,2.35737851296,247.
9.06,7155.,20.,14.,2782.,0.,0.,9971.,0.860526574415,2.23736909348,260.
9.08,7153.,26.,11.,2788.,0.,0.,9978.,0.859682507903,1.71936501581,338.
9.1,7151.,21.,15.,2789.,0.,0.,9976.,0.859614440078,2.12856908972,273.
9.12,7136.,33.,7.,2797.,0.,0.,9973.,0.858069345428,1.35210927158,429.
9.14,7134.,31.,20.,2794.,0.,0.,9979.,0.857313074688,1.43807354464,403.
9.16,7125.,33.,18.,2802.,0.,0.,9978.,0.856317331023,1.34934852161,429.
9.18,7119.,36.,14.,2808.,0.,0.,9977.,0.855681978555,1.23598508013,468.
9.2,7103.,41.,18.,2816.,0.,0.,9978.,0.853673263475,1.08270755368,533.
9.22,7092.,36.,24.,2824.,0.,0.,9976.,0.852522110059,1.23142082564,468.
9.24,7084.,21.,22.,2847.,0.,0.,9974.,0.851731194246,2.10904867147,273.
9.26,7074.,24.,13.,2864.,0.,0.,9975.,0.850443597316,1.84262779418,312.
9.28,7072.,27.,4.,2870.,0.,0.,9973.,0.850373656231,1.63775667126,351.
9.3,7070.,21.,11.,2866.,0.,0.,9968.,0.850559597106,2.10614757379,273.
9.32,7073.,18.,11.,2867.,0.,0.,9969.,0.850835156827,2.45796823083,234.
9.34,7075.,16.,5.,2874.,0.,0.,9970.,0.850990379944,2.76571873482,208.
9.36,7070.,14.,7.,2876.,0.,0.,9967.,0.85064493468,3.15953832881,182.
9.38,7064.,10.,8.,2883.,0.,0.,9965.,0.850093611144,4.42048677795,130.
9.4,7062.,10.,6.,2888.,0.,0.,9966.,0.84976765256,4.41879179331,130.
9.42,7065.,8.,3.,2892.,0.,0.,9968.,0.84995806981,5.52472745376,104.
9.44,7067.,7.,5.,2888.,0.,0.,9967.,0.850283982091,6.31639529553,91.
9.46,7072.,6.,5.,2882.,0.,0.,9965.,0.851056344565,7.3758216529,78.
9.48,7077.,5.,2.,2883.,0.,0.,9967.,0.851487157388,8.85546643683,65.
9.5,7076.,5.,5.,2880.,0.,0.,9966.,0.851452266994,8.85510357674,65.
9.52,7078.,7.,1.,2878.,0.,0.,9964.,0.851863880219,6.32813168162,91.
9.54,7089.,4.,1.,2874.,0.,0.,9968.,0.852845400833,11.0869902108,52.
9.56,7098.,2.,0.,2869.,0.,0.,9969.,0.85384249161,22.1999047819,26.
9.58,7106.,3.,1.,2856.,0.,0.,9966.,0.855062155068,14.8210773545,39.
9.6,7114.,3.,2.,2850.,0.,0.,9969.,0.855767185871,14.8332978884,39.
9.62,7118.,2.,0.,2850.,0.,0.,9970.,0.856162476953,22.2602244008,26.
9.64,7124.,1.,1.,2844.,0.,0.,9970.,0.856884164908,44.5579765752,13.
9.66,7128.,0.,2.,2840.,0.,0.,9970.,0.857365290211,inf,0.
9.68,7135.,1.,0.,2833.,0.,0.,9969.,0.858293347089,44.6312540486,13.
9.7,7143.,0.,0.,2827.,0.,0.,9970.,0.859169510098,inf,0.
9.72,7148.,0.,0.,2822.,0.,0.,9970.,0.859770916727,inf,0.
9.74,7154.,1.,0.,2814.,0.,0.,9969.,0.860578921524,44.7501039193,13.
9.76,7158.,1.,1.,2806.,0.,0.,9966.,0.861319294396,44.7886033086,13.
9.78,7170.,2.,1.,2799.,0.,0.,9972.,0.862244138163,22.4183475922,26.
9.8,7181.,0.,1.,2792.,0.,0.,9974.,0.863393803766,inf,0.
9.82,7184.,2.,0.,2789.,0.,0.,9975.,0.8636679111,22.4553656886,26.
9.84,7188.,3.,1.,2782.,0.,0.,9974.,0.864235435381,14.9800808799,39.
9.86,7192.,5.,2.,2773.,0.,0.,9972.,0.864889796607,8.99485388471,65.
9.88,7196.,2.,4.,2768.,0.,0.,9970.,0.865544420365,22.5041549295,26.
9.9,7197.,7.,4.,2766.,0.,0.,9974.,0.865317533172,6.42807310356,91.
9.92,7198.,7.,8.,2760.,0.,0.,9973.,0.865524544337,6.42961090079,91.
9.94,7195.,8.,8.,2764.,0.,0.,9975.,0.864990342478,5.62243722611,104.
9.96,7199.,16.,3.,2761.,0.,0.,9979.,0.865124309599,2.8116540062,208.
9.98,7195.,19.,5.,2758.,0.,0.,9977.,0.864816945597,2.36686743005,247.
10.,7197.,17.,4.,2759.,0.,0.,9977.,0.865057339466,2.64605774425,221.
