t,cases
5.01,3.185
5.02,3.185
5.03,3.12
5.04,3.12
5.05,3.12
5.06,3.12
5.07,2.925
5.08,2.925
5.09,2.86
5.1,2.86
5.11,3.315
5.12,3.315
5.13,3.445
5.14,3.445
5.15,4.095
5.16,4.095
5.17,4.875
5.18,4.875
5.19,4.94
5.2,4.94
5.21,4.745
5.22,4.745
5.23,4.29
5.24,4.29
5.25,3.835
5.26,3.835
5.27,3.575
5.28,3.575
5.29,3.445
5.3,3.445
5.31,3.38
5.32,3.38
5.33,2.47
5.34,2.47
5.35,2.08
5.36,2.08
5.37,2.665
5.38,2.665
5.39,2.6
5.4,2.6
5.41,2.275
5.42,2.275
5.43,1.69
5.44,1.69
5.45,1.105
5.46,1.105
5.47,1.04
5.48,1.04
5.49,1.105
5.5,1.105
5.51,0.975
5.52,0.975
5.53,0.78
5.54,0.78
5.55,0.715
5.56,0.715
5.57,0.325
5.58,0.325
5.59,0.065
5.6,0.065
5.61,0.195
5.62,0.195
5.63,0.195
5.64,0.195
5.65,0.26
5.66,0.26
5.67,0.26
5.68,0.26
5.69,0.13
5.7,0.13
5.71,0.065
5.72,0.065
5.73,0.
5.74,0.
5.75,0.
5.76,0.
5.77,0.
5.78,0.
5.79,0.065
5.8,0.065
5.81,0.325
5.82,0.325
5.83,0.585
5.84,0.585
5.85,1.105
5.86,1.105
5.87,1.56
5.88,1.56
5.89,1.235
5.9,1.235
5.91,1.235
5.92,1.235
5.93,1.625
5.94,1.625
5.95,1.885
5.96,1.885
5.97,2.015
5.98,2.015
5.99,1.82
6.,1.82
6.01,1.95
6.02,1.95
6.03,2.73
6.04,2.73
6.05,3.51
6.06,3.51
6.07,3.705
6.08,3.705
6.09,3.64
6.1,3.64
6.11,3.64
6.12,3.64
6.13,4.03
6.14,4.03
6.15,4.225
6.16,4.225
6.17,3.77
6.18,3.77
6.19,3.575
6.2,3.575
6.21,4.03
6.22,4.03
6.23,3.64
6.24,3.64
6.25,3.185
6.26,3.185
6.27,3.51
6.28,3.51
6.29,3.315
6.3,3.315
6.31,2.86
6.32,2.86
6.33,2.405
6.34,2.405
6.35,2.08
6.36,2.08
6.37,1.95
6.38,1.95
6.39,1.885
6.4,1.885
6.41,1.885
6.42,1.885
6.43,1.56
6.44,1.56
6.45,1.04
6.46,1.04
6.47,0.91
6.48,0.91
6.49,0.845
6.5,0.845
6.51,0.845
6.52,0.845
6.53,0.715
6.54,0.715
6.55,0.39
6.56,0.39
6.57,0.13
6.58,0.13
6.59,0.
6.6,0.
6.61,0.
6.62,0.
6.63,0.
6.64,0.
6.65,0.065
6.66,0.065
6.67,0.13
6.68,0.13
6.69,0.13
6.7,0.13
6.71,0.13
6.72,0.13
6.73,0.26
6.74,0.26
6.75,0.325
6.76,0.325
6.77,0.195
6.78,0.195
6.79,0.13
6.8,0.13
6.81,0.13
6.82,0.13
6.83,0.195
6.84,0.195
6.85,0.325
6.86,0.325
6.87,0.78
6.88,0.78
6.89,1.105
6.9,1.105
6.91,1.365
6.92,1.365
6.93,2.08
6.94,2.08
6.95,2.6
6.96,2.6
6.97,2.795
6.98,2.795
6.99,2.665
7.,2.665
7.01,2.275
7.02,2.275
7.03,2.405
7.04,2.405
7.05,3.185
7.06,3.185
7.07,3.575
7.08,3.575
7.09,3.835
7.1,3.835
7.11,3.64
7.12,3.64
7.13,3.25
7.14,3.25
7.15,4.225
7.16,4.225
7.17,4.68
7.18,4.68
7.19,3.965
7.2,3.965
7.21,3.575
7.22,3.575
7.23,3.38
7.24,3.38
7.25,3.575
7.26,3.575
7.27,3.835
7.28,3.835
7.29,3.315
7.3,3.315
7.31,2.665
7.32,2.665
7.33,2.08
7.34,2.08
7.35,1.95
7.36,1.95
7.37,1.755
7.38,1.755
7.39,1.625
7.4,1.625
7.41,1.885
7.42,1.885
7.43,1.56
7.44,1.56
7.45,1.365
7.46,1.365
7.47,1.3
7.48,1.3
7.49,0.845
7.5,0.845
7.51,0.52
7.52,0.52
7.53,0.52
7.54,0.52
7.55,0.39
7.56,0.39
7.57,0.325
7.58,0.325
7.59,0.195
7.6,0.195
7.61,0.
7.62,0.
7.63,0.
7.64,0.
7.65,0.
7.66,0.
7.67,0.065
7.68,0.065
7.69,0.13
7.7,0.13
7.71,0.065
7.72,0.065
7.73,0.065
7.74,0.065
7.75,0.195
7.76,0.195
7.77,0.26
7.78,0.26
7.79,0.39
7.8,0.39
7.81,0.52
7.82,0.52
7.83,0.65
7.84,0.65
7.85,0.78
7.86,0.78
7.87,0.975
7.88,0.975
7.89,0.975
7.9,0.975
7.91,0.78
7.92,0.78
7.93,0.975
7.94,0.975
7.95,1.3
7.96,1.3
7.97,1.625
7.98,1.625
7.99,1.95
8.,1.95
8.01,2.6
8.02,2.6
8.03,3.12
8.04,3.12
8.05,3.25
8.06,3.25
8.07,3.77
8.08,3.77
8.09,4.745
8.1,4.745
8.11,4.875
8.12,4.875
8.13,4.68
8.14,4.68
8.15,4.81
8.16,4.81
8.17,4.745
8.18,4.745
8.19,4.94
8.2,4.94
8.21,5.005
8.22,5.005
8.23,5.07
8.24,5.07
8.25,4.94
8.26,4.94
8.27,5.07
8.28,5.07
8.29,4.875
8.3,4.875
8.31,4.095
8.32,4.095
8.33,3.575
8.34,3.575
8.35,2.795
8.36,2.795
8.37,2.145
8.38,2.145
8.39,1.495
8.4,1.495
8.41,0.91
8.42,0.91
8.43,0.91
8.44,0.91
8.45,1.17
8.46,1.17
8.47,1.235
8.48,1.235
8.49,1.04
8.5,1.04
8.51,0.65
8.52,0.65
8.53,0.325
8.54,0.325
8.55,0.455
8.56,0.455
8.57,0.52
8.58,0.52
8.59,0.26
8.6,0.26
8.61,0.325
8.62,0.325
8.63,0.52
8.64,0.52
8.65,0.39
8.66,0.39
8.67,0.325
8.68,0.325
8.69,0.26
8.7,0.26
8.71,0.13
8.72,0.13
8.73,0.0649999999999
8.74,0.0650000000001
8.75,0.0650000000001
8.76,0.0649999999999
8.77,0.0649999999999
8.78,0.0650000000001
8.79,0.13
8.8,0.13
8.81,0.39
8.82,0.39
8.83,0.455
8.84,0.455
8.85,0.65
8.86,0.65
8.87,0.845
8.88,0.845
8.89,0.715
8.9,0.715
8.91,0.91
8.92,0.91
8.93,0.975
8.94,0.975
8.95,1.365
8.96,1.365
8.97,2.145
8.98,2.145
8.99,2.21
9.,2.21
9.01,1.82
9.02,1.82
9.03,2.34
9.04,2.34
9.05,2.73
9.06,2.73
9.07,2.34
9.08,2.34
9.09,2.145
9.1,2.145
9.11,3.185
9.12,3.185
9.13,4.095
9.14,4.095
9.15,3.64
9.16,3.64
9.17,3.64
9.18,3.64
9.19,4.16
9.2,4.16
9.21,4.225
9.22,4.225
9.23,3.77
9.24,3.77
9.25,3.77
9.26,3.77
9.27,4.29
9.28,4.29
9.29,4.42
9.3,4.42
9.31,4.16
9.32,4.16
9.33,3.38
9.34,3.38
9.35,2.795
9.36,2.795
9.37,2.535
9.38,2.535
9.39,1.69
9.4,1.69
9.41,1.235
9.42,1.235
9.43,1.17
9.44,1.17
9.45,0.91
9.46,0.91
9.47,0.78
9.48,0.78
9.49,0.585
9.5,0.585
9.51,0.325
9.52,0.325
9.53,0.26
9.54,0.26
9.55,0.0650000000001
9.56,0.0649999999999
9.57,0.
9.58,0.
9.59,0.
9.6,0.
9.61,0.
9.62,0.
9.63,0.
9.64,0.
9.65,0.
9.66,0.
9.67,0.
9.68,0.
9.69,0.0650000000001
9.7,0.0649999999999
9.71,0.13
9.72,0.13
9.73,0.13
9.74,0.13
9.75,0.13
9.76,0.13
9.77,0.13
9.78,0.13
9.79,0.26
9.8,0.26
9.81,0.325
9.82,0.325
9.83,0.455
9.84,0.455
9.85,0.65
9.86,0.65
9.87,0.39
9.88,0.39
9.89,0.65
9.9,0.65
9.91,1.105
9.92,1.105
9.93,0.975
9.94,0.975
9.95,1.04
9.96,1.04
9.97,1.3
9.98,1.3
9.99,1.495
10.,1.495
