t,s,e,i,r,c,o,n,reff,coal,reportr
5.,7179.,4.,54.,2763.,0.,0.,10000.,0.860339736769,11.184416578,52.
5.02,7148.,35.,20.,2796.,0.,0.,9999.,0.85671033163,1.27282677842,455.
5.04,7137.,38.,14.,2811.,0.,0.,10000.,0.855306407761,1.17041929483,494.
5.06,7131.,36.,15.,2821.,0.,0.,10003.,0.854331061442,1.23403375542,468.
5.08,7124.,37.,17.,2823.,0.,0.,10001.,0.853663106282,1.19974274396,481.
5.1,7108.,38.,17.,2837.,0.,0.,10000.,0.851831013923,1.16566349274,494.
5.12,7102.,37.,20.,2844.,0.,0.,10003.,0.850856709909,1.19579861933,481.
5.14,7086.,40.,13.,2865.,0.,0.,10004.,0.848854966266,1.10351145615,520.
5.16,7084.,28.,7.,2887.,0.,0.,10006.,0.848445758464,1.57568498,364.
5.18,7082.,26.,8.,2889.,0.,0.,10005.,0.848290998086,1.69658199617,338.
5.2,7071.,29.,8.,2897.,0.,0.,10005.,0.846973404048,1.5187109314,377.
5.22,7069.,29.,5.,2902.,0.,0.,10005.,0.846733841495,1.51828137096,377.
5.24,7072.,16.,9.,2909.,0.,0.,10006.,0.8470085268,2.7527777121,208.
5.26,7075.,17.,8.,2910.,0.,0.,10010.,0.847029226191,2.59091292717,221.
5.28,7066.,20.,14.,2908.,0.,0.,10008.,0.846120788285,2.19991404954,260.
5.3,7067.,16.,13.,2915.,0.,0.,10011.,0.845986940448,2.74945755646,208.
5.32,7055.,24.,11.,2919.,0.,0.,10009.,0.844719184814,1.83022490043,312.
5.34,7060.,24.,4.,2922.,0.,0.,10010.,0.84523340451,1.8313390431,312.
5.36,7058.,18.,11.,2920.,0.,0.,10007.,0.845247282483,2.44182548273,234.
5.38,7047.,16.,10.,2930.,0.,0.,10003.,0.844267422519,2.74386912319,208.
5.4,7050.,18.,8.,2928.,0.,0.,10004.,0.844542409282,2.43978918237,234.
5.42,7055.,15.,11.,2928.,0.,0.,10009.,0.844719184814,2.92835984069,195.
5.44,7050.,16.,7.,2932.,0.,0.,10005.,0.844457997247,2.74448849105,208.
5.46,7053.,12.,7.,2931.,0.,0.,10003.,0.84498625387,3.6616071001,156.
5.48,7054.,11.,1.,2937.,0.,0.,10003.,0.845106059096,3.99504682482,143.
5.5,7065.,5.,0.,2941.,0.,0.,10011.,0.845747521475,8.79577422334,65.
5.52,7067.,5.,1.,2938.,0.,0.,10011.,0.845986940448,8.79826418066,65.
5.54,7074.,5.,0.,2933.,0.,0.,10012.,0.846740325859,8.80609938894,65.
5.56,7076.,4.,0.,2927.,0.,0.,10007.,0.847402914544,11.0162378891,52.
5.58,7077.,4.,2.,2925.,0.,0.,10008.,0.847437987361,11.0166938357,52.
5.6,7083.,2.,0.,2919.,0.,0.,10004.,0.848495586517,22.0608852494,26.
5.62,7089.,3.,0.,2910.,0.,0.,10002.,0.849384154922,14.7226586853,39.
5.64,7098.,1.,2.,2906.,0.,0.,10007.,0.850037575951,44.2019539495,13.
5.66,7103.,0.,0.,2904.,0.,0.,10007.,0.850636362635,inf,0.
5.68,7113.,1.,0.,2898.,0.,0.,10012.,0.851408529522,44.2732435351,13.
5.7,7120.,2.,0.,2889.,0.,0.,10011.,0.852331543227,22.1606201239,26.
5.72,7129.,0.,2.,2881.,0.,0.,10012.,0.853323689999,inf,0.
5.74,7132.,0.,0.,2880.,0.,0.,10012.,0.853682782588,inf,0.
5.76,7144.,1.,0.,2872.,0.,0.,10017.,0.854692318987,44.4440005873,13.
5.78,7146.,0.,2.,2868.,0.,0.,10016.,0.855016951141,inf,0.
5.8,7157.,1.,5.,2852.,0.,0.,10015.,0.856418603193,44.5337673661,13.
5.82,7160.,3.,6.,2847.,0.,0.,10016.,0.856692047323,14.8493288203,39.
5.84,7164.,5.,7.,2842.,0.,0.,10018.,0.85699952013,8.91279500935,65.
5.86,7163.,9.,4.,2841.,0.,0.,10017.,0.856965436857,4.95135585739,117.
5.88,7170.,7.,5.,2839.,0.,0.,10021.,0.857460499219,6.36970656563,91.
5.9,7168.,10.,5.,2835.,0.,0.,10018.,0.857478023491,4.45888572215,130.
5.92,7171.,13.,4.,2832.,0.,0.,10020.,0.857665676082,3.43066270433,169.
5.94,7172.,15.,9.,2825.,0.,0.,10021.,0.857699679274,2.97335888815,195.
5.96,7170.,19.,1.,2830.,0.,0.,10020.,0.857546074119,2.34696820285,247.
5.98,7171.,11.,9.,2826.,0.,0.,10017.,0.857922539118,4.05563382128,143.
6.,7166.,15.,12.,2825.,0.,0.,10018.,0.857238771811,2.97176107561,195.
6.02,7160.,20.,6.,2832.,0.,0.,10018.,0.856521016769,2.2269546436,260.
6.04,7157.,18.,13.,2826.,0.,0.,10014.,0.856504125323,2.47434525093,234.
6.06,7150.,19.,14.,2831.,0.,0.,10014.,0.855666409956,2.34182385883,247.
6.08,7137.,26.,13.,2839.,0.,0.,10015.,0.854025369707,1.70805073941,338.
6.1,7122.,31.,8.,2850.,0.,0.,10011.,0.8525709622,1.43011903337,403.
6.12,7116.,28.,11.,2853.,0.,0.,10008.,0.852108056812,1.58248639122,364.
6.14,7118.,23.,11.,2860.,0.,0.,10012.,0.852007017171,1.92627673447,299.
6.16,7106.,29.,12.,2867.,0.,0.,10014.,0.850400770511,1.52485655402,377.
6.18,7096.,30.,20.,2867.,0.,0.,10013.,0.849288844423,1.47210066367,390.
6.2,7077.,43.,13.,2880.,0.,0.,10013.,0.847014818487,1.0242969898,559.
6.22,7067.,42.,8.,2896.,0.,0.,10013.,0.845817962731,1.04720319195,546.
6.24,7070.,29.,19.,2898.,0.,0.,10016.,0.845923571868,1.51682847369,377.
6.26,7067.,22.,18.,2915.,0.,0.,10022.,0.845058397608,1.99741075798,286.
6.28,7059.,26.,10.,2925.,0.,0.,10020.,0.844270256235,1.68854051247,338.
6.3,7049.,21.,18.,2930.,0.,0.,10018.,0.843242548492,2.08802916769,273.
6.32,7041.,22.,9.,2946.,0.,0.,10018.,0.842285541769,1.99085673509,286.
6.34,7039.,25.,7.,2943.,0.,0.,10014.,0.842382637718,1.75215588645,325.
6.36,7034.,18.,13.,2948.,0.,0.,10013.,0.841868338736,2.43206408968,234.
6.38,7035.,17.,10.,2950.,0.,0.,10012.,0.842072122197,2.57575002084,221.
6.4,7036.,14.,11.,2950.,0.,0.,10011.,0.842275946369,3.12845351509,182.
6.42,7039.,12.,6.,2953.,0.,0.,10010.,0.842719254157,3.65178343468,156.
6.44,7036.,18.,5.,2951.,0.,0.,10010.,0.84236008982,2.43348470393,234.
6.46,7041.,11.,4.,2955.,0.,0.,10011.,0.842874493801,3.98449760706,143.
6.48,7042.,10.,4.,2951.,0.,0.,10007.,0.843331165096,4.3853220585,130.
6.5,7044.,8.,5.,2950.,0.,0.,10007.,0.843570679769,5.4832094185,104.
6.52,7047.,6.,4.,2947.,0.,0.,10004.,0.844183029534,7.31625292263,78.
6.54,7050.,3.,3.,2949.,0.,0.,10005.,0.844457997247,14.6372719523,39.
6.56,7055.,2.,1.,2946.,0.,0.,10004.,0.84514137553,21.9736757638,26.
6.58,7058.,1.,2.,2942.,0.,0.,10003.,0.845585279997,43.9704345598,13.
6.6,7059.,1.,1.,2941.,0.,0.,10002.,0.84578963882,43.9810612186,13.
6.62,7058.,3.,1.,2938.,0.,0.,10000.,0.845838955581,14.6612085634,39.
6.64,7063.,2.,0.,2933.,0.,0.,9998.,0.846607482912,22.0117945557,26.
6.66,7071.,0.,2.,2928.,0.,0.,10001.,0.847312159534,inf,0.
6.68,7071.,2.,0.,2927.,0.,0.,10000.,0.84739689075,22.0323191595,26.
6.7,7079.,0.,1.,2923.,0.,0.,10003.,0.848101189728,inf,0.
6.72,7092.,0.,0.,2917.,0.,0.,10009.,0.849149320865,inf,0.
6.74,7100.,1.,0.,2905.,0.,0.,10006.,0.850362067348,44.2188275021,13.
6.76,7108.,2.,0.,2899.,0.,0.,10009.,0.851065055373,22.1276914397,26.
6.78,7113.,2.,1.,2894.,0.,0.,10010.,0.851578641116,22.141044669,26.
6.8,7117.,3.,0.,2888.,0.,0.,10008.,0.852227802183,14.7719485712,39.
6.82,7120.,0.,4.,2884.,0.,0.,10008.,0.852587038294,inf,0.
6.84,7119.,6.,5.,2876.,0.,0.,10006.,0.852637684148,7.38952659595,78.
6.86,7122.,6.,7.,2870.,0.,0.,10005.,0.853082249134,7.3933794925,78.
6.88,7119.,6.,7.,2872.,0.,0.,10004.,0.852808143501,7.39100391034,78.
6.9,7126.,7.,5.,2867.,0.,0.,10005.,0.853561374239,6.3407416372,91.
6.92,7126.,13.,5.,2862.,0.,0.,10006.,0.853476069285,3.41390427714,169.
6.94,7123.,15.,10.,2858.,0.,0.,10006.,0.853116761369,2.95747143941,195.
6.96,7125.,18.,8.,2858.,0.,0.,10009.,0.853100523288,2.46451262283,234.
6.98,7117.,16.,12.,2860.,0.,0.,10005.,0.852483342753,2.77057086395,208.
7.,7105.,21.,10.,2869.,0.,0.,10005.,0.851045967439,2.10735191937,273.
7.02,7100.,17.,15.,2872.,0.,0.,10004.,0.850532071759,2.60162751362,221.
7.04,7096.,24.,13.,2875.,0.,0.,10008.,0.849713149401,1.84104515704,312.
7.06,7089.,32.,10.,2877.,0.,0.,10008.,0.848874931807,1.37942176419,416.
7.08,7077.,33.,16.,2883.,0.,0.,10009.,0.847353319763,1.33522341296,429.
7.1,7071.,31.,9.,2896.,0.,0.,10007.,0.84680412786,1.42044563383,403.
7.12,7062.,31.,13.,2899.,0.,0.,10005.,0.845895372562,1.4189212701,403.
7.14,7052.,27.,17.,2908.,0.,0.,10004.,0.844781995781,1.62698754743,351.
7.16,7031.,39.,17.,2915.,0.,0.,10002.,0.842434757125,1.12324634283,507.
7.18,7010.,40.,21.,2929.,0.,0.,10000.,0.840086579572,1.09211255344,520.
7.2,7007.,39.,15.,2941.,0.,0.,10002.,0.839559144243,1.11941219232,507.
7.22,7007.,33.,10.,2950.,0.,0.,10000.,0.839727056072,1.32320627017,429.
7.24,7009.,23.,17.,2952.,0.,0.,10001.,0.83988275013,1.89886534812,299.
7.26,7004.,28.,15.,2955.,0.,0.,10002.,0.839199692633,1.55851371489,364.
7.28,6992.,29.,11.,2969.,0.,0.,10001.,0.837845654004,1.50234393132,377.
7.3,6984.,30.,12.,2974.,0.,0.,10000.,0.836970709234,1.45074922934,390.
7.32,6974.,28.,15.,2981.,0.,0.,9998.,0.835939485463,1.55245904443,364.
7.34,6969.,21.,14.,2993.,0.,0.,9997.,0.835423718847,2.06866825619,273.
7.36,6964.,27.,4.,3003.,0.,0.,9998.,0.834740834064,1.60764901375,351.
7.38,6968.,22.,5.,3003.,0.,0.,9998.,0.835220294624,1.97415706002,286.
7.4,6964.,20.,10.,3005.,0.,0.,9999.,0.834657351633,2.17010911424,260.
7.42,6964.,18.,9.,3010.,0.,0.,10001.,0.834490436854,2.41075015091,234.
7.44,6962.,11.,6.,3023.,0.,0.,10002.,0.83416737009,3.94333665861,143.
7.46,6966.,9.,7.,3022.,0.,0.,10004.,0.834479776321,4.82143870763,117.
7.48,6968.,8.,3.,3028.,0.,0.,10007.,0.834469122179,5.42404929417,104.
7.5,6971.,6.,2.,3025.,0.,0.,10004.,0.835078742568,7.23734910226,78.
7.52,6980.,6.,2.,3020.,0.,0.,10008.,0.835822686418,7.24379661562,78.
7.54,6985.,4.,4.,3019.,0.,0.,10012.,0.836087245706,10.8691341942,52.
7.56,6991.,6.,0.,3016.,0.,0.,10013.,0.836721858986,7.25158944454,78.
7.58,6997.,4.,3.,3014.,0.,0.,10018.,0.837022004795,10.8812860623,52.
7.6,7002.,3.,1.,3015.,0.,0.,10021.,0.837369374551,14.5144024922,39.
7.62,7010.,3.,0.,3009.,0.,0.,10022.,0.838242446191,14.529535734,39.
7.64,7020.,2.,1.,3003.,0.,0.,10026.,0.839103322602,21.8166863877,26.
7.66,7029.,2.,1.,2994.,0.,0.,10026.,0.840179096092,21.8446564984,26.
7.68,7035.,2.,1.,2986.,0.,0.,10024.,0.841064055011,21.8676654303,26.
7.7,7039.,3.,0.,2984.,0.,0.,10026.,0.841374399971,14.5838229328,39.
7.72,7048.,2.,1.,2973.,0.,0.,10024.,0.842618260088,21.9080747623,26.
7.74,7054.,0.,2.,2969.,0.,0.,10025.,0.843251462258,inf,0.
7.76,7056.,3.,1.,2966.,0.,0.,10026.,0.843406416564,14.6190445538,39.
7.78,7066.,2.,3.,2955.,0.,0.,10026.,0.844601720442,21.9596447315,26.
7.8,7067.,1.,2.,2957.,0.,0.,10027.,0.844637006166,43.9211243206,13.
7.82,7070.,2.,3.,2955.,0.,0.,10030.,0.84474282112,21.9633133491,26.
7.84,7065.,6.,2.,2953.,0.,0.,10026.,0.844482190055,7.31884564714,78.
7.86,7063.,7.,3.,2952.,0.,0.,10025.,0.844327343057,6.272145977,91.
7.88,7068.,5.,5.,2945.,0.,0.,10023.,0.84509365185,8.78897397924,65.
7.9,7063.,9.,2.,2945.,0.,0.,10019.,0.844832978755,4.88125721059,117.
7.92,7063.,8.,6.,2943.,0.,0.,10020.,0.844748664087,5.49086631656,104.
7.94,7063.,8.,7.,2941.,0.,0.,10019.,0.844832978755,5.49141436191,104.
7.96,7053.,15.,11.,2941.,0.,0.,10020.,0.843552644458,2.92431583412,195.
7.98,7052.,22.,7.,2939.,0.,0.,10020.,0.843433042495,1.99356900953,286.
8.,7047.,16.,15.,2941.,0.,0.,10019.,0.842919156348,2.73948725813,208.
8.02,7040.,23.,13.,2946.,0.,0.,10022.,0.841829789042,1.90326734914,299.
8.04,7024.,30.,21.,2950.,0.,0.,10025.,0.839665192926,1.45541966774,390.
8.06,7005.,33.,22.,2964.,0.,0.,10024.,0.837477427911,1.31966140156,429.
8.08,6991.,39.,16.,2977.,0.,0.,10023.,0.835887057171,1.11451607623,507.
8.1,6982.,33.,17.,2991.,0.,0.,10023.,0.834810961689,1.31545969721,429.
8.12,6982.,33.,8.,2999.,0.,0.,10022.,0.83489425953,1.31559095441,429.
8.14,6978.,29.,15.,3000.,0.,0.,10022.,0.83441594715,1.49619411213,377.
8.16,6966.,28.,14.,3013.,0.,0.,10021.,0.833064133551,1.54711910517,364.
8.18,6957.,32.,15.,3016.,0.,0.,10020.,0.832070856018,1.35211514103,416.
8.2,6951.,34.,20.,3014.,0.,0.,10019.,0.831436221907,1.27160833939,442.
8.22,6941.,32.,15.,3030.,0.,0.,10018.,0.830322957736,1.34927480632,416.
8.24,6923.,34.,18.,3042.,0.,0.,10017.,0.82825236903,1.26673891734,442.
8.26,6909.,41.,15.,3050.,0.,0.,10015.,0.826742507959,1.04855147351,533.
8.28,6909.,28.,23.,3057.,0.,0.,10017.,0.826577440073,1.53507238871,364.
8.3,6897.,32.,17.,3069.,0.,0.,10015.,0.825306567867,1.34112317278,416.
8.32,6899.,20.,13.,3080.,0.,0.,10012.,0.825793258143,2.14706247117,260.
8.34,6896.,25.,12.,3081.,0.,0.,10014.,0.825269309519,1.7165601638,325.
8.36,6883.,25.,18.,3088.,0.,0.,10014.,0.82371355241,1.71332418901,325.
8.38,6885.,24.,4.,3103.,0.,0.,10016.,0.823788372321,1.7848748067,312.
8.4,6890.,22.,2.,3104.,0.,0.,10018.,0.824222039879,1.94816118517,286.
8.42,6894.,16.,11.,3095.,0.,0.,10016.,0.824865219867,2.68081196457,208.
8.44,6886.,17.,9.,3099.,0.,0.,10011.,0.824319523408,2.52144795395,221.
8.46,6887.,11.,9.,3104.,0.,0.,10011.,0.824439232894,3.89734910096,143.
8.48,6894.,8.,6.,3104.,0.,0.,10012.,0.825194770494,5.36376600821,104.
8.5,6901.,8.,0.,3103.,0.,0.,10012.,0.826032653202,5.36921224582,104.
8.52,6912.,4.,4.,3095.,0.,0.,10015.,0.827101492982,10.7523194088,52.
8.54,6919.,6.,1.,3091.,0.,0.,10017.,0.827773817899,7.17403975513,78.
8.56,6922.,2.,5.,3087.,0.,0.,10016.,0.82821541223,21.533600718,26.
8.58,6931.,1.,3.,3083.,0.,0.,10018.,0.829126699333,43.1145883653,13.
8.6,6941.,1.,0.,3080.,0.,0.,10022.,0.829991557633,43.1595609969,13.
8.62,6945.,0.,0.,3076.,0.,0.,10021.,0.830552742967,inf,0.
8.64,6949.,0.,0.,3069.,0.,0.,10018.,0.831279964459,inf,0.
8.66,6955.,0.,0.,3062.,0.,0.,10017.,0.832080778073,inf,0.
8.68,6959.,0.,0.,3054.,0.,0.,10013.,0.832891920567,inf,0.
8.7,6962.,1.,0.,3050.,0.,0.,10013.,0.833250977293,43.3290508193,13.
8.72,6972.,1.,0.,3040.,0.,0.,10013.,0.834447833049,43.3912873186,13.
8.74,6981.,3.,0.,3025.,0.,0.,10009.,0.835858912712,14.4882211537,39.
8.76,6990.,2.,2.,3015.,0.,0.,10009.,0.836936513373,21.7603493477,26.
8.78,6994.,4.,1.,3013.,0.,0.,10012.,0.837164523475,10.8831388052,52.
8.8,7002.,1.,4.,3006.,0.,0.,10013.,0.838038400317,43.5779968165,13.
8.82,7006.,4.,1.,3002.,0.,0.,10013.,0.838517142619,10.9007228541,52.
8.84,7004.,4.,3.,2999.,0.,0.,10010.,0.838529003568,10.9008770464,52.
8.86,7002.,7.,2.,2998.,0.,0.,10009.,0.838373314255,6.22791604875,91.
8.88,7010.,6.,0.,2993.,0.,0.,10009.,0.839331181509,7.27420357308,78.
8.9,7014.,8.,3.,2984.,0.,0.,10009.,0.839810115136,5.45876574838,104.
8.92,7015.,7.,3.,2985.,0.,0.,10010.,0.839845939467,6.23885555033,91.
8.94,7016.,5.,8.,2984.,0.,0.,10013.,0.839713998375,8.7330255831,65.
8.96,7018.,8.,6.,2983.,0.,0.,10015.,0.839785630461,5.458606598,104.
8.98,7021.,8.,7.,2984.,0.,0.,10020.,0.839725381644,5.45821498069,104.
9.,7018.,13.,8.,2981.,0.,0.,10020.,0.839366575756,3.35746630302,169.
9.02,7001.,26.,5.,2983.,0.,0.,10015.,0.837751381998,1.675502764,338.
9.04,7004.,21.,10.,2984.,0.,0.,10019.,0.83777575863,2.0744923547,273.
9.06,6992.,27.,12.,2991.,0.,0.,10022.,0.83609004048,1.61024748537,351.
9.08,6984.,26.,12.,3002.,0.,0.,10024.,0.834966788941,1.66993357788,338.
9.1,6971.,25.,20.,3005.,0.,0.,10021.,0.83366208369,1.73401713407,325.
9.12,6966.,25.,21.,3011.,0.,0.,10023.,0.832897903054,1.73242763835,325.
9.14,6954.,28.,16.,3025.,0.,0.,10023.,0.831463109078,1.544145774,364.
9.16,6943.,36.,10.,3036.,0.,0.,10025.,0.829982265729,1.19886327272,468.
9.18,6935.,31.,12.,3042.,0.,0.,10020.,0.829439612833,1.39131806024,403.
9.2,6928.,22.,12.,3060.,0.,0.,10022.,0.828437042398,1.95812391839,286.
9.22,6924.,29.,13.,3062.,0.,0.,10028.,0.827463341867,1.48372737162,377.
9.24,6924.,32.,10.,3065.,0.,0.,10031.,0.827215870027,1.34422578879,416.
9.26,6916.,25.,14.,3077.,0.,0.,10032.,0.826177741117,1.71844970152,325.
9.28,6914.,26.,11.,3083.,0.,0.,10034.,0.825774195291,1.65154839058,338.
9.3,6909.,31.,10.,3086.,0.,0.,10036.,0.825012576446,1.38389206372,403.
9.32,6909.,17.,13.,3096.,0.,0.,10035.,0.825094789956,2.52381935751,221.
9.34,6897.,19.,9.,3104.,0.,0.,10029.,0.824154479728,2.25558068136,247.
9.36,6899.,17.,6.,3106.,0.,0.,10028.,0.824475678154,2.52192560376,221.
9.38,6895.,14.,11.,3106.,0.,0.,10026.,0.824162024123,3.06117323246,182.
9.4,6890.,13.,10.,3112.,0.,0.,10025.,0.823646523243,3.29458609297,169.
9.42,6892.,13.,3.,3118.,0.,0.,10026.,0.823803432959,3.29521373184,169.
9.44,6899.,11.,5.,3112.,0.,0.,10027.,0.824557903713,3.89791009028,143.
9.46,6903.,10.,5.,3107.,0.,0.,10025.,0.825200573287,4.29104298109,130.
9.48,6903.,7.,3.,3109.,0.,0.,10022.,0.825447590022,6.13189638302,91.
9.5,6911.,7.,3.,3102.,0.,0.,10023.,0.826321763998,6.13839024684,91.
9.52,6918.,6.,3.,3099.,0.,0.,10026.,0.826911223043,7.16656393304,78.
9.54,6927.,3.,4.,3094.,0.,0.,10028.,0.827821861512,14.3489122662,39.
9.56,6933.,1.,3.,3090.,0.,0.,10027.,0.82862153159,43.0883196427,13.
9.58,6944.,0.,1.,3087.,0.,0.,10032.,0.829522590272,inf,0.
9.6,6947.,0.,1.,3082.,0.,0.,10030.,0.830046446721,inf,0.
9.62,6951.,1.,0.,3076.,0.,0.,10028.,0.830690018676,43.1958809712,13.
9.64,6961.,1.,0.,3065.,0.,0.,10027.,0.831968048666,43.2623385306,13.
9.66,6968.,1.,1.,3059.,0.,0.,10029.,0.832638598629,43.2972071287,13.
9.68,6975.,1.,0.,3050.,0.,0.,10026.,0.833724455149,43.3536716678,13.
9.7,6978.,2.,1.,3046.,0.,0.,10027.,0.833999862604,21.6839964277,26.
9.72,6985.,2.,0.,3042.,0.,0.,10029.,0.83467000738,21.7014201919,26.
9.74,6989.,2.,1.,3035.,0.,0.,10027.,0.835314565741,21.7181787093,26.
9.76,6994.,3.,2.,3027.,0.,0.,10026.,0.835995532518,14.4905892303,39.
9.78,7001.,3.,2.,3024.,0.,0.,10030.,0.83649851353,14.4993075679,39.
9.8,7012.,5.,2.,3010.,0.,0.,10029.,0.837896362455,8.71412216953,65.
9.82,7019.,5.,2.,3006.,0.,0.,10032.,0.838482007649,8.72021287955,65.
9.84,7020.,5.,1.,3004.,0.,0.,10030.,0.838768685185,8.72319432593,65.
9.86,7023.,6.,1.,2998.,0.,0.,10028.,0.839294490169,7.27388558146,78.
9.88,7031.,7.,0.,2991.,0.,0.,10029.,0.840166760471,6.24123879207,91.
9.9,7034.,8.,0.,2992.,0.,0.,10034.,0.840106405797,5.46069163768,104.
9.92,7039.,6.,4.,2984.,0.,0.,10033.,0.840787375073,7.2868239173,78.
9.94,7043.,9.,2.,2980.,0.,0.,10034.,0.841181321585,4.86015874693,117.
9.96,7044.,9.,6.,2981.,0.,0.,10040.,0.840797987296,4.8579439266,117.
9.98,7044.,12.,4.,2979.,0.,0.,10039.,0.840881740457,3.64382087531,156.
10.,7049.,8.,11.,2967.,0.,0.,10035.,0.841814035953,5.4717912337,104.
