t,prevalence
5.,8
5.02,8
5.04,11
5.06,7
5.08,14
5.1,14
5.12,12
5.14,7
5.16,11
5.18,13
5.2,7
5.22,8
5.24,13
5.26,10
5.28,6
5.3,12
5.32,8
5.34,5
5.36,6
5.38,5
5.4,3
5.42,7
5.44,2
5.46,2
5.48,5
5.5,3
5.52,3
5.54,1
5.56,0
5.58,0
5.6,1
5.62,0
5.64,1
5.66,1
5.68,0
5.7,1
5.72,0
5.74,0
5.76,0
5.78,0
5.8,0
5.82,1
5.84,0
5.86,2
5.88,0
5.9,2
5.92,2
5.94,5
5.96,1
5.98,4
6.,2
6.02,3
6.04,2
6.06,2
6.08,2
6.1,7
6.12,11
6.14,6
6.16,5
6.18,8
6.2,6
6.22,4
6.24,1
6.26,10
6.28,10
6.3,2
6.32,8
6.34,4
6.36,3
6.38,3
6.4,4
6.42,3
6.44,2
6.46,2
6.48,8
6.5,4
6.52,5
6.54,3
6.56,1
6.58,2
6.6,1
6.62,0
6.64,0
6.66,0
6.68,0
6.7,0
6.72,0
6.74,0
6.76,0
6.78,0
6.8,0
6.82,1
6.84,0
6.86,0
6.88,0
6.9,1
6.92,1
6.94,2
6.96,4
6.98,1
7.,2
7.02,6
7.04,3
7.06,3
7.08,6
7.1,3
7.12,8
7.14,5
7.16,5
7.18,6
7.2,9
7.22,12
7.24,3
7.26,10
7.28,6
7.3,8
7.32,8
7.34,9
7.36,3
7.38,4
7.4,6
7.42,2
7.44,2
7.46,2
7.48,2
7.5,0
7.52,1
7.54,2
7.56,0
7.58,0
7.6,3
7.62,2
7.64,1
7.66,0
7.68,0
7.7,0
7.72,0
7.74,0
7.76,0
7.78,0
7.8,0
7.82,0
7.84,1
7.86,2
7.88,2
7.9,4
7.92,1
7.94,1
7.96,3
7.98,1
8.,5
8.02,10
8.04,2
8.06,6
8.08,8
8.1,8
8.12,7
8.14,4
8.16,7
8.18,11
8.2,6
8.22,4
8.24,5
8.26,7
8.28,2
8.3,12
8.32,2
8.34,7
8.36,5
8.38,6
8.4,4
8.42,5
8.44,4
8.46,5
8.48,2
8.5,0
8.52,0
8.54,0
8.56,1
8.58,1
8.6,0
8.62,0
8.64,1
8.66,0
8.68,0
8.7,0
8.72,0
8.74,1
8.76,0
8.78,1
8.8,0
8.82,2
8.84,1
8.86,3
8.88,7
8.9,3
8.92,4
8.94,2
8.96,2
8.98,2
9.,4
9.02,5
9.04,5
9.06,4
9.08,8
9.1,4
9.12,6
9.14,10
9.16,13
9.18,10
9.2,6
9.22,11
9.24,9
9.26,6
9.28,3
9.3,9
9.32,0
9.34,3
9.36,6
9.38,3
9.4,1
9.42,1
9.44,0
9.46,0
9.48,2
9.5,0
9.52,1
9.54,1
9.56,0
9.58,0
9.6,1
9.62,1
9.64,0
9.66,1
9.68,0
9.7,1
9.72,0
9.74,1
9.76,1
9.78,1
9.8,1
9.82,1
9.84,1
9.86,0
9.88,2
9.9,3
9.92,2
9.94,5
9.96,3
9.98,5
10.,6
