t,s,e,i,r,c,o,n,reff,coal,reportr
5.,6764.,15.,16.,3206.,0.,0.,10001.,0.828116564789,2.87080409127,195.
5.02,6754.,26.,7.,3215.,0.,0.,10002.,0.826809592031,1.65361918406,338.
5.04,6763.,21.,15.,3208.,0.,0.,10007.,0.827497685816,2.04904188869,273.
5.06,6761.,21.,9.,3220.,0.,0.,10011.,0.826922435019,2.04761745814,273.
5.08,6760.,22.,12.,3217.,0.,0.,10011.,0.826800127307,1.95425484636,286.
5.1,6752.,31.,11.,3220.,0.,0.,10014.,0.825574265479,1.38483425177,403.
5.12,6752.,34.,9.,3224.,0.,0.,10019.,0.825162261154,1.26201287,442.
5.14,6747.,31.,15.,3226.,0.,0.,10019.,0.824551210902,1.38311816022,403.
5.16,6739.,29.,14.,3242.,0.,0.,10024.,0.823162729654,1.47601592904,377.
5.18,6736.,26.,16.,3241.,0.,0.,10019.,0.823206900346,1.64641380069,338.
5.2,6732.,18.,19.,3248.,0.,0.,10017.,0.822882324506,2.37721560413,234.
5.22,6727.,23.,16.,3249.,0.,0.,10015.,0.82243536017,1.85941907517,299.
5.24,6714.,27.,10.,3263.,0.,0.,10014.,0.820927964814,1.58104645075,351.
5.26,6700.,32.,14.,3268.,0.,0.,10014.,0.819216169832,1.33122627598,416.
5.28,6693.,34.,5.,3282.,0.,0.,10014.,0.818360272341,1.25160982829,442.
5.3,6696.,23.,16.,3279.,0.,0.,10014.,0.818727085552,1.85103514994,299.
5.32,6687.,29.,12.,3284.,0.,0.,10012.,0.817789975255,1.46638202459,377.
5.34,6683.,24.,12.,3290.,0.,0.,10009.,0.81754576304,1.77134915325,312.
5.36,6677.,24.,10.,3297.,0.,0.,10008.,0.81689338602,1.76993566971,312.
5.38,6673.,18.,7.,3307.,0.,0.,10005.,0.816648807327,2.35920766561,234.
5.4,6677.,13.,6.,3311.,0.,0.,10007.,0.816975018216,3.26790007286,169.
5.42,6684.,9.,8.,3310.,0.,0.,10011.,0.817504741261,4.72336072728,117.
5.44,6690.,8.,3.,3311.,0.,0.,10012.,0.81815686174,5.31801960131,104.
5.46,6693.,12.,2.,3305.,0.,0.,10012.,0.818523748225,3.54693624231,156.
5.48,6702.,10.,1.,3296.,0.,0.,10009.,0.819870073903,4.26332438429,130.
5.5,6708.,6.,4.,3293.,0.,0.,10011.,0.820440126328,7.11048109484,78.
5.52,6714.,3.,6.,3289.,0.,0.,10012.,0.82109195362,14.2322605294,39.
5.54,6718.,5.,4.,3281.,0.,0.,10008.,0.821909505359,8.54785885573,65.
5.56,6725.,2.,5.,3277.,0.,0.,10009.,0.822683713369,21.3897765476,26.
5.58,6731.,0.,2.,3273.,0.,0.,10006.,0.823664583458,inf,0.
5.6,6738.,0.,0.,3271.,0.,0.,10009.,0.824274031328,inf,0.
5.62,6747.,1.,0.,3263.,0.,0.,10011.,0.825210127063,42.9109266073,13.
5.64,6756.,0.,2.,3254.,0.,0.,10012.,0.826228364412,inf,0.
5.66,6762.,1.,1.,3248.,0.,0.,10012.,0.826962137382,43.0020311439,13.
5.68,6769.,1.,0.,3238.,0.,0.,10008.,0.828149068439,43.0637515588,13.
5.7,6778.,0.,1.,3227.,0.,0.,10006.,0.82941591839,inf,0.
5.72,6785.,2.,0.,3220.,0.,0.,10007.,0.830189531016,21.5849278064,26.
5.74,6794.,3.,1.,3209.,0.,0.,10007.,0.831290740416,14.4090395005,39.
5.76,6800.,5.,1.,3203.,0.,0.,10009.,0.83185862467,8.65132969657,65.
5.78,6804.,5.,1.,3196.,0.,0.,10006.,0.832597507926,8.65901408243,65.
5.8,6805.,5.,2.,3193.,0.,0.,10005.,0.832803107127,8.66115231412,65.
5.82,6806.,6.,4.,3190.,0.,0.,10006.,0.832842245583,7.21796612838,78.
5.84,6810.,5.,6.,3185.,0.,0.,10006.,0.833331720896,8.66664989732,65.
5.86,6806.,5.,13.,3178.,0.,0.,10002.,0.833175315867,8.66502328502,65.
5.88,6808.,10.,6.,3177.,0.,0.,10001.,0.833503485081,4.33421812242,130.
5.9,6810.,14.,3.,3174.,0.,0.,10001.,0.833748345094,3.09677956749,182.
5.92,6816.,16.,3.,3165.,0.,0.,10000.,0.834566373426,2.71234071364,208.
5.94,6821.,9.,9.,3160.,0.,0.,9999.,0.835262110886,4.82595886289,117.
5.96,6829.,10.,3.,3158.,0.,0.,10000.,0.836158122671,4.34802223789,130.
5.98,6831.,11.,4.,3155.,0.,0.,10001.,0.836319375233,3.95350977383,143.
6.,6833.,8.,7.,3155.,0.,0.,10003.,0.836396972578,5.43658032176,104.
6.02,6829.,13.,8.,3152.,0.,0.,10002.,0.835990924487,3.34396369795,169.
6.04,6826.,19.,8.,3152.,0.,0.,10005.,0.835373109368,2.28628429932,247.
6.06,6826.,26.,8.,3148.,0.,0.,10008.,0.835122697764,1.67024539553,338.
6.08,6820.,20.,18.,3145.,0.,0.,10003.,0.834805700715,2.17049482186,260.
6.1,6810.,27.,19.,3145.,0.,0.,10001.,0.833748345094,1.60573755351,351.
6.12,6805.,27.,20.,3150.,0.,0.,10002.,0.833052898101,1.60439817412,351.
6.14,6802.,27.,18.,3156.,0.,0.,10003.,0.832602401211,1.60353055048,351.
6.16,6787.,37.,14.,3165.,0.,0.,10003.,0.830766318292,1.16756347436,481.
6.18,6774.,34.,18.,3172.,0.,0.,9998.,0.829589716886,1.26878427288,442.
6.2,6772.,28.,14.,3185.,0.,0.,9999.,0.829261840627,1.54005770402,364.
6.22,6767.,31.,17.,3182.,0.,0.,9997.,0.828815347799,1.39027090599,403.
6.24,6764.,28.,9.,3197.,0.,0.,9998.,0.828365049456,1.5383922347,364.
6.26,6759.,21.,15.,3202.,0.,0.,9997.,0.827835515853,2.04987842021,273.
6.28,6755.,24.,12.,3208.,0.,0.,9999.,0.827180114211,1.79222358079,312.
6.3,6750.,20.,10.,3215.,0.,0.,9995.,0.826898634268,2.1499364491,260.
6.32,6750.,20.,10.,3218.,0.,0.,9998.,0.826650515054,2.14929133914,260.
6.34,6756.,18.,9.,3215.,0.,0.,9998.,0.827385315512,2.39022424481,234.
6.36,6759.,13.,9.,3215.,0.,0.,9996.,0.827918332531,3.31167333012,169.
6.38,6756.,21.,3.,3218.,0.,0.,9998.,0.827385315512,2.04876363841,273.
6.4,6760.,14.,7.,3215.,0.,0.,9996.,0.828040823777,3.0755802026,182.
6.42,6759.,15.,6.,3214.,0.,0.,9994.,0.828084015607,2.87069125411,195.
6.44,6767.,10.,7.,3212.,0.,0.,9996.,0.8288982625,4.310270965,130.
6.46,6765.,10.,5.,3215.,0.,0.,9995.,0.828736186789,4.3094281713,130.
6.48,6765.,9.,3.,3216.,0.,0.,9993.,0.828902050131,4.7892118452,117.
6.5,6773.,6.,2.,3214.,0.,0.,9995.,0.8297162148,7.1908738616,78.
6.52,6782.,2.,4.,3211.,0.,0.,9999.,0.830486385578,21.592646025,26.
6.54,6784.,1.,2.,3214.,0.,0.,10001.,0.830565164922,43.1893885759,13.
6.56,6789.,1.,0.,3210.,0.,0.,10000.,0.831260432687,43.2255424997,13.
6.58,6799.,0.,1.,3197.,0.,0.,9997.,0.832734675585,inf,0.
6.6,6806.,0.,0.,3190.,0.,0.,9996.,0.833675421099,inf,0.
6.62,6812.,0.,0.,3183.,0.,0.,9995.,0.834493851354,inf,0.
6.64,6811.,0.,0.,3181.,0.,0.,9992.,0.834621859666,inf,0.
6.66,6818.,0.,0.,3171.,0.,0.,9989.,0.835730561543,inf,0.
6.68,6820.,1.,0.,3166.,0.,0.,9987.,0.836143128492,43.4794426816,13.
6.7,6829.,1.,0.,3158.,0.,0.,9988.,0.837162717933,43.5324613325,13.
6.72,6837.,0.,2.,3153.,0.,0.,9992.,0.837807906994,inf,0.
6.74,6844.,2.,1.,3143.,0.,0.,9990.,0.838833590006,21.8096733401,26.
6.76,6850.,3.,0.,3139.,0.,0.,9992.,0.839400930658,14.5496161314,39.
6.78,6854.,2.,2.,3134.,0.,0.,9992.,0.839891091785,21.8371683864,26.
6.8,6857.,3.,1.,3127.,0.,0.,9988.,0.840595219925,14.5703171454,39.
6.82,6865.,1.,3.,3125.,0.,0.,9994.,0.841070686069,43.7356756756,13.
6.84,6864.,7.,3.,3124.,0.,0.,9998.,0.840611723753,6.24454423359,91.
6.86,6878.,3.,5.,3115.,0.,0.,10001.,0.842073585544,14.5959421494,39.
6.88,6875.,9.,6.,3110.,0.,0.,10000.,0.841790466154,4.86367824889,117.
6.9,6872.,8.,6.,3111.,0.,0.,9997.,0.841675642098,5.47089167364,104.
6.92,6876.,12.,4.,3108.,0.,0.,10000.,0.841912908404,3.64828926975,156.
6.94,6880.,8.,8.,3100.,0.,0.,9996.,0.842739773311,5.47780852652,104.
6.96,6875.,13.,5.,3097.,0.,0.,9990.,0.842633099253,3.37053239701,169.
6.98,6875.,11.,8.,3094.,0.,0.,9988.,0.842801828348,3.98415409765,143.
7.,6871.,15.,9.,3091.,0.,0.,9986.,0.842480169393,2.92059792056,195.
7.02,6867.,17.,11.,3090.,0.,0.,9985.,0.842074039216,2.57575588466,221.
7.04,6853.,21.,11.,3097.,0.,0.,9982.,0.840609834364,2.08151006604,273.
7.06,6851.,17.,13.,3101.,0.,0.,9982.,0.840364508278,2.5705267312,221.
7.08,6842.,20.,19.,3100.,0.,0.,9981.,0.839344626707,2.18229602944,260.
7.1,6830.,27.,21.,3103.,0.,0.,9981.,0.837872522714,1.61368041412,351.
7.12,6823.,31.,13.,3111.,0.,0.,9978.,0.837265453171,1.40444527629,403.
7.14,6827.,29.,14.,3113.,0.,0.,9983.,0.83733671058,1.50143134311,377.
7.16,6819.,38.,10.,3118.,0.,0.,9985.,0.836187982148,1.14425723873,494.
7.18,6813.,34.,10.,3128.,0.,0.,9985.,0.835452225015,1.27775046179,442.
7.2,6810.,27.,17.,3132.,0.,0.,9986.,0.835000720938,1.60814953662,351.
7.22,6802.,33.,12.,3139.,0.,0.,9986.,0.834019809665,1.31421303341,429.
7.24,6799.,32.,11.,3143.,0.,0.,9985.,0.83373545837,1.35482011985,416.
7.26,6795.,32.,10.,3148.,0.,0.,9985.,0.833244953615,1.35402304962,416.
7.28,6791.,24.,19.,3151.,0.,0.,9985.,0.832754448859,1.80430130586,312.
7.3,6779.,23.,13.,3168.,0.,0.,9983.,0.831449474297,1.87979881145,299.
7.32,6771.,23.,9.,3177.,0.,0.,9980.,0.830717908009,1.8781448355,299.
7.34,6767.,18.,12.,3181.,0.,0.,9978.,0.830393569047,2.39891475502,234.
7.36,6771.,11.,18.,3182.,0.,0.,9982.,0.83055146483,3.92624328829,143.
7.38,6771.,15.,11.,3188.,0.,0.,9985.,0.830301925081,2.87838000695,195.
7.4,6781.,16.,4.,3189.,0.,0.,9990.,0.831112006696,2.70111402176,208.
7.42,6782.,13.,7.,3187.,0.,0.,9989.,0.831317786504,3.32527114602,169.
7.44,6783.,12.,6.,3190.,0.,0.,9991.,0.831273925722,3.60218701146,156.
7.46,6785.,8.,4.,3197.,0.,0.,9994.,0.831269425343,5.40325126473,104.
7.48,6796.,6.,3.,3192.,0.,0.,9997.,0.832367238605,7.21384940125,78.
7.5,6802.,6.,0.,3187.,0.,0.,9995.,0.83326881634,7.22166307494,78.
7.52,6806.,5.,3.,3179.,0.,0.,9993.,0.833925698919,8.67282726876,65.
7.54,6811.,3.,2.,3176.,0.,0.,9992.,0.834621859666,14.4667789009,39.
7.56,6816.,1.,1.,3175.,0.,0.,9993.,0.835150979112,43.4278509138,13.
7.58,6823.,1.,1.,3168.,0.,0.,9993.,0.836008675246,43.4724511128,13.
7.6,6829.,1.,2.,3157.,0.,0.,9989.,0.837078909472,43.5281032925,13.
7.62,6830.,0.,2.,3156.,0.,0.,9988.,0.83728530729,inf,0.
7.64,6831.,2.,2.,3149.,0.,0.,9984.,0.837743396605,21.7813283117,26.
7.66,6843.,1.,2.,3139.,0.,0.,9985.,0.839131010682,43.6348125555,13.
7.68,6849.,1.,1.,3134.,0.,0.,9985.,0.839866767816,43.6730719264,13.
7.7,6855.,0.,1.,3131.,0.,0.,9987.,0.840434185603,inf,0.
7.72,6863.,0.,1.,3123.,0.,0.,9987.,0.841414998657,inf,0.
7.74,6876.,1.,0.,3111.,0.,0.,9988.,0.842924417705,43.8320697207,13.
7.76,6880.,0.,1.,3107.,0.,0.,9988.,0.843414775132,inf,0.
7.78,6893.,0.,0.,3096.,0.,0.,9989.,0.844923842874,inf,0.
7.8,6893.,4.,0.,3093.,0.,0.,9990.,0.844839265913,10.9829104569,52.
7.82,6899.,2.,1.,3089.,0.,0.,9991.,0.845490021164,21.9827405503,26.
7.84,6913.,1.,2.,3079.,0.,0.,9995.,0.846866704992,44.0370686596,13.
7.86,6911.,5.,0.,3076.,0.,0.,9992.,0.846875887851,8.80750923365,65.
7.88,6920.,3.,2.,3068.,0.,0.,9993.,0.847893893112,14.6968274806,39.
7.9,6923.,7.,3.,3063.,0.,0.,9996.,0.848006896895,6.2994798055,91.
7.92,6916.,10.,5.,3062.,0.,0.,9993.,0.847403781035,4.40649966138,130.
7.94,6922.,10.,0.,3064.,0.,0.,9996.,0.847884405649,4.40899890937,130.
7.96,6926.,9.,3.,3057.,0.,0.,9995.,0.84845925051,4.90220900295,117.
7.98,6925.,12.,5.,3048.,0.,0.,9990.,0.848761339975,3.67796580656,156.
8.,6922.,10.,8.,3049.,0.,0.,9989.,0.848478578322,4.41208860728,130.
8.02,6924.,14.,5.,3048.,0.,0.,9991.,0.848553834837,3.15177138654,182.
8.04,6926.,19.,7.,3040.,0.,0.,9992.,0.848713992078,2.32279618885,247.
8.06,6921.,25.,7.,3041.,0.,0.,9994.,0.847931568578,1.76369766264,325.
8.08,6920.,22.,7.,3047.,0.,0.,9996.,0.847639423156,2.00351136382,286.
8.1,6920.,25.,9.,3044.,0.,0.,9998.,0.847469861359,1.76273731163,325.
8.12,6912.,23.,14.,3050.,0.,0.,9999.,0.846405469937,1.91361236681,299.
8.14,6897.,34.,15.,3055.,0.,0.,10001.,0.84439975567,1.29143492044,442.
8.16,6900.,32.,8.,3065.,0.,0.,10005.,0.844429307741,1.37219762508,416.
8.18,6901.,22.,20.,3062.,0.,0.,10005.,0.8445516888,1.99621308262,286.
8.2,6878.,33.,24.,3070.,0.,0.,10005.,0.841736924441,1.32637333548,429.
8.22,6864.,29.,21.,3087.,0.,0.,10001.,0.840359565452,1.5068516346,377.
8.24,6856.,31.,18.,3097.,0.,0.,10002.,0.83929620417,1.40785169732,403.
8.26,6842.,34.,20.,3108.,0.,0.,10004.,0.837414905954,1.28075220911,442.
8.28,6837.,27.,18.,3122.,0.,0.,10004.,0.836802939493,1.61162047606,351.
8.3,6834.,27.,13.,3129.,0.,0.,10003.,0.836519378106,1.61107435783,351.
8.32,6832.,27.,13.,3132.,0.,0.,10004.,0.836190973031,1.61044187399,351.
8.34,6829.,23.,17.,3136.,0.,0.,10005.,0.835740252545,1.88949970141,299.
8.36,6819.,27.,15.,3146.,0.,0.,10007.,0.834349655416,1.60689563265,351.
8.38,6815.,26.,6.,3159.,0.,0.,10006.,0.833943565038,1.66788713008,338.
8.4,6815.,18.,9.,3163.,0.,0.,10005.,0.834026917718,2.40941109563,234.
8.42,6813.,11.,11.,3171.,0.,0.,10006.,0.833698827381,3.94112172944,143.
8.44,6825.,6.,6.,3169.,0.,0.,10006.,0.835167253321,7.23811619545,78.
8.46,6832.,3.,6.,3166.,0.,0.,10007.,0.835940291216,14.4896317144,39.
8.48,6830.,5.,4.,3164.,0.,0.,10003.,0.836029755994,8.69470946234,65.
8.5,6835.,6.,1.,3160.,0.,0.,10002.,0.836725431083,7.25162040272,78.
8.52,6847.,4.,0.,3158.,0.,0.,10009.,0.837608235752,10.8889070648,52.
8.54,6852.,4.,1.,3152.,0.,0.,10009.,0.838219896506,10.8968586546,52.
8.56,6852.,3.,1.,3149.,0.,0.,10005.,0.838555016904,14.5349536263,39.
8.58,6857.,0.,4.,3145.,0.,0.,10006.,0.839083055827,inf,0.
8.6,6863.,2.,0.,3146.,0.,0.,10011.,0.839397821555,21.8243433604,26.
8.62,6872.,2.,0.,3137.,0.,0.,10011.,0.840498590955,21.8529633648,26.
8.64,6881.,2.,1.,3128.,0.,0.,10012.,0.84151530129,21.8793978335,26.
8.66,6887.,0.,2.,3124.,0.,0.,10013.,0.842164958703,inf,0.
8.68,6895.,1.,1.,3115.,0.,0.,10012.,0.843227438221,43.8478267875,13.
8.7,6896.,0.,3.,3111.,0.,0.,10010.,0.843518235161,inf,0.
8.72,6895.,2.,0.,3110.,0.,0.,10007.,0.843648757017,21.9348676824,26.
8.74,6903.,1.,1.,3102.,0.,0.,10007.,0.844627609817,43.9206357105,13.
8.76,6905.,3.,0.,3101.,0.,0.,10009.,0.844703500492,14.6415273419,39.
8.78,6915.,0.,3.,3091.,0.,0.,10009.,0.845926821999,inf,0.
8.8,6921.,0.,1.,3087.,0.,0.,10009.,0.846660814903,inf,0.
8.82,6928.,2.,0.,3080.,0.,0.,10010.,0.847432472911,22.0332442957,26.
8.84,6934.,3.,1.,3072.,0.,0.,10010.,0.848166392489,14.7015508031,39.
8.86,6935.,6.,3.,3067.,0.,0.,10011.,0.848203976757,7.35110113189,78.
8.88,6937.,6.,5.,3062.,0.,0.,10010.,0.848533352278,7.35395571975,78.
8.9,6939.,9.,3.,3058.,0.,0.,10009.,0.848862793616,4.90454058533,117.
8.92,6946.,11.,4.,3049.,0.,0.,10010.,0.849634231646,4.01645273142,143.
8.94,6948.,11.,4.,3051.,0.,0.,10014.,0.849539395223,4.01600441378,143.
8.96,6947.,11.,5.,3049.,0.,0.,10012.,0.849586803962,4.01622852782,143.
8.98,6951.,10.,8.,3041.,0.,0.,10010.,0.850245831294,4.42127832273,130.
9.,6948.,13.,8.,3041.,0.,0.,10010.,0.849878871505,3.39951548602,169.
9.02,6944.,22.,7.,3035.,0.,0.,10008.,0.849559333911,2.0080493347,286.
9.04,6936.,25.,13.,3036.,0.,0.,10010.,0.848411032349,1.76469494729,325.
9.06,6929.,27.,13.,3043.,0.,0.,10012.,0.847385485052,1.63200167491,351.
9.08,6919.,30.,15.,3047.,0.,0.,10011.,0.846247053379,1.46682822586,390.
9.1,6912.,26.,11.,3061.,0.,0.,10010.,0.845475354036,1.69095070807,338.
9.12,6900.,34.,19.,3059.,0.,0.,10012.,0.843838915696,1.29057716518,442.
9.14,6896.,28.,18.,3075.,0.,0.,10017.,0.84292877448,1.5654391526,364.
9.16,6888.,29.,20.,3083.,0.,0.,10020.,0.841698817764,1.50925305254,377.
9.18,6874.,34.,15.,3094.,0.,0.,10017.,0.840239616556,1.28507235473,442.
9.2,6864.,35.,17.,3102.,0.,0.,10018.,0.83893352107,1.24641551702,455.
9.22,6857.,33.,10.,3121.,0.,0.,10021.,0.837827068816,1.32021235086,429.
9.24,6852.,31.,9.,3129.,0.,0.,10021.,0.837216140518,1.40436255829,403.
9.26,6849.,24.,19.,3126.,0.,0.,10018.,0.837100187327,1.81371707254,312.
9.28,6839.,30.,15.,3135.,0.,0.,10019.,0.83579453555,1.44871052829,390.
9.3,6833.,25.,16.,3144.,0.,0.,10018.,0.835144631334,1.73710083317,325.
9.32,6826.,24.,18.,3152.,0.,0.,10020.,0.834122550821,1.80726552678,312.
9.34,6815.,29.,15.,3161.,0.,0.,10020.,0.832778374428,1.49325777484,377.
9.36,6811.,25.,16.,3169.,0.,0.,10021.,0.832206528468,1.73098957921,325.
9.38,6807.,21.,11.,3183.,0.,0.,10022.,0.831634796627,2.05928616308,273.
9.4,6805.,16.,12.,3190.,0.,0.,10023.,0.831307501427,2.70174937964,208.
9.42,6798.,16.,10.,3198.,0.,0.,10022.,0.830535235415,2.6992395151,208.
9.44,6795.,13.,6.,3204.,0.,0.,10018.,0.83050018585,3.3220007434,169.
9.46,6804.,6.,9.,3203.,0.,0.,10022.,0.831268276223,7.2043250606,78.
9.48,6812.,7.,3.,3201.,0.,0.,10023.,0.832162630378,6.18177953995,91.
9.5,6820.,5.,4.,3190.,0.,0.,10019.,0.83347254459,8.66811446374,65.
9.52,6832.,4.,2.,3183.,0.,0.,10021.,0.834772427323,10.8520415552,52.
9.54,6832.,5.,1.,3183.,0.,0.,10021.,0.834772427323,8.68163324416,65.
9.56,6838.,3.,1.,3178.,0.,0.,10020.,0.835588925068,14.4835413678,39.
9.58,6844.,1.,2.,3173.,0.,0.,10020.,0.836322112191,43.488749834,13.
9.6,6845.,1.,1.,3169.,0.,0.,10016.,0.8367783533,43.5124743716,13.
9.62,6847.,0.,1.,3166.,0.,0.,10014.,0.837190017141,inf,0.
9.64,6848.,1.,0.,3163.,0.,0.,10012.,0.837479549954,43.5489365976,13.
9.66,6852.,1.,0.,3160.,0.,0.,10013.,0.837885043856,43.5700222805,13.
9.68,6854.,2.,1.,3156.,0.,0.,10013.,0.838129610418,21.7913698709,26.
9.7,6862.,1.,2.,3151.,0.,0.,10016.,0.838856546435,43.6205404146,13.
9.72,6875.,0.,1.,3144.,0.,0.,10020.,0.840110245663,inf,0.
9.74,6880.,1.,0.,3141.,0.,0.,10022.,0.840553459791,43.7087799091,13.
9.76,6885.,2.,0.,3135.,0.,0.,10022.,0.841164327131,21.8702725054,26.
9.78,6890.,2.,0.,3132.,0.,0.,10024.,0.841607242516,21.8817883054,26.
9.8,6889.,3.,1.,3131.,0.,0.,10024.,0.841485093425,14.5857416194,39.
9.82,6895.,4.,1.,3123.,0.,0.,10023.,0.842302016509,10.9499262146,52.
9.84,6894.,2.,6.,3120.,0.,0.,10022.,0.842263888343,21.8988610969,26.
9.86,6894.,4.,5.,3117.,0.,0.,10020.,0.842432004887,10.9516160635,52.
9.88,6893.,3.,7.,3114.,0.,0.,10017.,0.842562071126,14.6044092329,39.
9.9,6893.,6.,3.,3116.,0.,0.,10018.,0.842477966308,7.301475708,78.
9.92,6890.,9.,3.,3114.,0.,0.,10016.,0.842279452774,4.86650350492,117.
9.94,6898.,7.,2.,3108.,0.,0.,10015.,0.843341625457,6.2648235034,91.
9.96,6903.,5.,4.,3104.,0.,0.,10016.,0.843868659289,8.7762340566,65.
9.98,6907.,6.,3.,3099.,0.,0.,10015.,0.844441955209,7.31849694515,78.
10.,6910.,6.,0.,3102.,0.,0.,10018.,0.844555744551,7.31948311944,78.
