t,cases
5.01,2.665
5.02,2.665
5.03,3.185
5.04,3.185
5.05,3.445
5.06,3.445
5.07,3.51
5.08,3.51
5.09,4.03
5.1,4.03
5.11,4.29
5.12,4.29
5.13,3.705
5.14,3.705
5.15,3.64
5.16,3.64
5.17,4.03
5.18,4.03
5.19,4.355
5.2,4.355
5.21,4.29
5.22,4.29
5.23,4.29
5.24,4.29
5.25,4.42
5.26,4.42
5.27,4.03
5.28,4.03
5.29,3.705
5.3,3.705
5.31,3.64
5.32,3.64
5.33,3.12
5.34,3.12
5.35,2.6
5.36,2.6
5.37,2.34
5.38,2.34
5.39,1.885
5.4,1.885
5.41,1.755
5.42,1.755
5.43,2.015
5.44,2.015
5.45,1.625
5.46,1.625
5.47,1.235
5.48,1.235
5.49,1.17
5.5,1.17
5.51,0.91
5.52,0.91
5.53,0.78
5.54,0.78
5.55,0.715
5.56,0.715
5.57,0.455
5.58,0.455
5.59,0.26
5.6,0.26
5.61,0.39
5.62,0.39
5.63,0.26
5.64,0.26
5.65,0.
5.66,0.
5.67,0.
5.68,0.
5.69,0.065
5.7,0.065
5.71,0.065
5.72,0.065
5.73,0.
5.74,0.
5.75,0.13
5.76,0.13
5.77,0.26
5.78,0.26
5.79,0.26
5.8,0.26
5.81,0.26
5.82,0.26
5.83,0.195
5.84,0.195
5.85,0.26
5.86,0.26
5.87,0.39
5.88,0.39
5.89,0.65
5.9,0.65
5.91,0.845
5.92,0.845
5.93,0.715
5.94,0.715
5.95,0.975
5.96,0.975
5.97,1.3
5.98,1.3
5.99,1.43
6.,1.43
6.01,1.885
6.02,1.885
6.03,2.21
6.04,2.21
6.05,2.21
6.06,2.21
6.07,2.535
6.08,2.535
6.09,2.99
6.1,2.99
6.11,3.575
6.12,3.575
6.13,3.51
6.14,3.51
6.15,3.64
6.16,3.64
6.17,4.485
6.18,4.485
6.19,4.68
6.2,4.68
6.21,4.55
6.22,4.55
6.23,4.355
6.24,4.355
6.25,4.42
6.26,4.42
6.27,4.03
6.28,4.03
6.29,3.185
6.3,3.185
6.31,3.315
6.32,3.315
6.33,3.51
6.34,3.51
6.35,2.73
6.36,2.73
6.37,2.08
6.38,2.08
6.39,1.69
6.4,1.69
6.41,1.235
6.42,1.235
6.43,1.105
6.44,1.105
6.45,1.105
6.46,1.105
6.47,1.04
6.48,1.04
6.49,0.845
6.5,0.845
6.51,0.715
6.52,0.715
6.53,0.65
6.54,0.65
6.55,0.325
6.56,0.325
6.57,0.195
6.58,0.195
6.59,0.26
6.6,0.26
6.61,0.195
6.62,0.195
6.63,0.065
6.64,0.065
6.65,0.065
6.66,0.065
6.67,0.13
6.68,0.13
6.69,0.325
6.7,0.325
6.71,0.39
6.72,0.39
6.73,0.325
6.74,0.325
6.75,0.325
6.76,0.325
6.77,0.325
6.78,0.325
6.79,0.455
6.8,0.455
6.81,0.78
6.82,0.78
6.83,0.845
6.84,0.845
6.85,0.975
6.86,0.975
6.87,0.975
6.88,0.975
6.89,1.105
6.9,1.105
6.91,1.495
6.92,1.495
6.93,1.625
6.94,1.625
6.95,2.08
6.96,2.08
6.97,2.275
6.98,2.275
6.99,2.47
7.,2.47
7.01,2.47
7.02,2.47
7.03,2.73
7.04,2.73
7.05,3.185
7.06,3.185
7.07,2.6
7.08,2.6
7.09,2.535
7.1,2.535
7.11,3.38
7.12,3.38
7.13,3.575
7.14,3.575
7.15,3.055
7.16,3.055
7.17,3.12
7.18,3.12
7.19,3.9
7.2,3.9
7.21,4.355
7.22,4.355
7.23,4.355
7.24,4.355
7.25,3.835
7.26,3.835
7.27,3.575
7.28,3.575
7.29,4.16
7.3,4.16
7.31,4.03
7.32,4.03
7.33,3.055
7.34,3.055
7.35,2.275
7.36,2.275
7.37,2.015
7.38,2.015
7.39,2.015
7.4,2.015
7.41,1.56
7.42,1.56
7.43,1.3
7.44,1.3
7.45,1.3
7.46,1.3
7.47,1.17
7.48,1.17
7.49,1.105
7.5,1.105
7.51,0.52
7.52,0.52
7.53,0.065
7.54,0.065
7.55,0.26
7.56,0.26
7.57,0.26
7.58,0.26
7.59,0.065
7.6,0.065
7.61,0.
7.62,0.
7.63,0.
7.64,0.
7.65,0.
7.66,0.
7.67,0.
7.68,0.
7.69,0.
7.7,0.
7.71,0.
7.72,0.
7.73,0.
7.74,0.
7.75,0.
7.76,0.
7.77,0.
7.78,0.
7.79,0.
7.8,0.
7.81,0.065
7.82,0.065
7.83,0.065
7.84,0.065
7.85,0.39
7.86,0.39
7.87,0.65
7.88,0.65
7.89,0.65
7.9,0.65
7.91,0.845
7.92,0.845
7.93,1.04
7.94,1.04
7.95,1.625
7.96,1.625
7.97,2.08
7.98,2.08
7.99,2.08
8.,2.08
8.01,2.34
8.02,2.34
8.03,2.405
8.04,2.405
8.05,2.47
8.06,2.47
8.07,2.6
8.08,2.6
8.09,2.275
8.1,2.275
8.11,2.6
8.12,2.6
8.13,3.445
8.14,3.445
8.15,3.315
8.16,3.315
8.17,3.185
8.18,3.185
8.19,3.315
8.2,3.315
8.21,3.315
8.22,3.315
8.23,3.445
8.24,3.445
8.25,3.25
8.26,3.25
8.27,2.795
8.28,2.795
8.29,2.73
8.3,2.73
8.31,2.665
8.32,2.665
8.33,2.08
8.34,2.08
8.35,2.145
8.36,2.145
8.37,2.275
8.38,2.275
8.39,2.015
8.4,2.015
8.41,1.755
8.42,1.755
8.43,1.235
8.44,1.235
8.45,0.975
8.46,0.975
8.47,0.91
8.48,0.91
8.49,0.845
8.5,0.845
8.51,0.65
8.52,0.65
8.53,0.325
8.54,0.325
8.55,0.13
8.56,0.13
8.57,0.
8.58,0.
8.59,0.
8.6,0.
8.61,0.0649999999999
8.62,0.0650000000001
8.63,0.195
8.64,0.195
8.65,0.26
8.66,0.26
8.67,0.26
8.68,0.26
8.69,0.26
8.7,0.26
8.71,0.195
8.72,0.195
8.73,0.13
8.74,0.13
8.75,0.0650000000001
8.76,0.0649999999999
8.77,0.13
8.78,0.13
8.79,0.26
8.8,0.26
8.81,0.325
8.82,0.325
8.83,0.39
8.84,0.39
8.85,0.39
8.86,0.39
8.87,0.455
8.88,0.455
8.89,0.65
8.9,0.65
8.91,0.845
8.92,0.845
8.93,1.17
8.94,1.17
8.95,1.625
8.96,1.625
8.97,1.95
8.98,1.95
8.99,2.405
9.,2.405
9.01,2.21
9.02,2.21
9.03,2.08
9.04,2.08
9.05,2.6
9.06,2.6
9.07,2.665
9.08,2.665
9.09,2.405
9.1,2.405
9.11,2.86
9.12,2.86
9.13,3.575
9.14,3.575
9.15,3.64
9.16,3.64
9.17,3.64
9.18,3.64
9.19,3.64
9.2,3.64
9.21,4.095
9.22,4.095
9.23,4.225
9.24,4.225
9.25,3.38
9.26,3.38
9.27,2.73
9.28,2.73
9.29,2.99
9.3,2.99
9.31,2.925
9.32,2.925
9.33,2.6
9.34,2.6
9.35,2.47
9.36,2.47
9.37,2.08
9.38,2.08
9.39,2.08
9.4,2.08
9.41,2.015
9.42,2.015
9.43,1.69
9.44,1.69
9.45,1.495
9.46,1.495
9.47,1.17
9.48,1.17
9.49,0.78
9.5,0.78
9.51,0.78
9.52,0.78
9.53,0.78
9.54,0.78
9.55,0.455
9.56,0.455
9.57,0.13
9.58,0.13
9.59,0.0649999999999
9.6,0.0650000000001
9.61,0.0649999999999
9.62,0.0650000000001
9.63,0.0649999999999
9.64,0.0650000000001
9.65,0.195
9.66,0.195
9.67,0.26
9.68,0.26
9.69,0.13
9.7,0.13
9.71,0.
9.72,0.
9.73,0.
9.74,0.
9.75,0.0649999999999
9.76,0.0650000000001
9.77,0.0649999999999
9.78,0.0650000000001
9.79,0.0649999999999
9.8,0.0650000000001
9.81,0.195
9.82,0.195
9.83,0.195
9.84,0.195
9.85,0.455
9.86,0.455
9.87,0.91
9.88,0.91
9.89,1.17
9.9,1.17
9.91,1.04
9.92,1.04
9.93,0.91
9.94,0.91
9.95,1.235
9.96,1.235
9.97,1.235
9.98,1.235
9.99,1.105
10.,1.105
