t,s,e,i,r,c,o,n,reff,coal,reportr
5.,5722.,23.,12.,4243.,0.,0.,10000.,1.02670059791,2.3212361344,299.
5.02,5721.,20.,11.,4245.,0.,0.,9997.,1.02451582913,2.66374115575,260.
5.04,5710.,22.,11.,4248.,0.,0.,9991.,1.01626548904,2.402082065,286.
5.06,5710.,25.,14.,4245.,0.,0.,9994.,1.00459381224,2.08955512946,325.
5.08,5704.,29.,11.,4251.,0.,0.,9995.,0.987794317636,1.77121739714,377.
5.1,5701.,27.,10.,4260.,0.,0.,9998.,0.96730809743,1.8629637432,351.
5.12,5693.,25.,19.,4260.,0.,0.,9997.,0.942677701603,1.96076961933,325.
5.14,5675.,35.,13.,4278.,0.,0.,10001.,0.912690581142,1.35599743484,455.
5.16,5675.,35.,16.,4276.,0.,0.,10002.,0.8830472098,1.31195585456,455.
5.18,5669.,36.,10.,4286.,0.,0.,10001.,0.850222333025,1.22809892548,468.
5.2,5659.,38.,18.,4284.,0.,0.,9999.,0.815014638783,1.11528318991,494.
5.22,5655.,37.,16.,4289.,0.,0.,9997.,0.779327726218,1.09527139901,481.
5.24,5648.,38.,16.,4296.,0.,0.,9998.,0.742202788168,1.01564592065,494.
5.26,5650.,31.,19.,4298.,0.,0.,9998.,0.706083546271,1.18439820665,403.
5.28,5646.,34.,13.,4302.,0.,0.,9995.,0.669714994754,1.02426999198,442.
5.3,5654.,26.,13.,4305.,0.,0.,9998.,0.635198695946,1.27039739189,338.
5.32,5653.,26.,8.,4311.,0.,0.,9998.,0.601241204231,1.20248240846,338.
5.34,5659.,15.,14.,4314.,0.,0.,10002.,0.56971878969,1.97502513759,195.
5.36,5661.,20.,8.,4312.,0.,0.,10001.,0.540494961388,1.40528689961,260.
5.38,5660.,15.,10.,4314.,0.,0.,9999.,0.51394191026,1.7816652889,195.
5.4,5661.,16.,5.,4314.,0.,0.,9996.,0.490946386115,1.59557575487,208.
5.42,5664.,10.,6.,4315.,0.,0.,9995.,0.471707050174,2.4528766609,130.
5.44,5671.,7.,0.,4318.,0.,0.,9996.,0.456691358087,3.39256437436,91.
5.46,5680.,7.,0.,4310.,0.,0.,9997.,0.446066880321,3.31363968238,91.
5.48,5691.,4.,2.,4299.,0.,0.,9996.,0.440107289955,5.72139476941,52.
5.5,5695.,3.,2.,4296.,0.,0.,9996.,0.438113521616,7.59396770802,39.
5.52,5704.,1.,2.,4287.,0.,0.,9994.,0.441200906295,22.9424471273,13.
5.54,5714.,1.,1.,4279.,0.,0.,9995.,0.448826791266,23.3389931459,13.
5.56,5721.,2.,1.,4270.,0.,0.,9994.,0.460810107491,11.9810627948,26.
5.58,5727.,1.,0.,4266.,0.,0.,9994.,0.477001515741,24.8040788185,13.
5.6,5732.,0.,1.,4262.,0.,0.,9995.,0.497153548217,inf,0.
5.62,5744.,0.,0.,4251.,0.,0.,9995.,0.521778048795,inf,0.
5.64,5754.,0.,0.,4244.,0.,0.,9998.,0.549539162139,inf,0.
5.66,5762.,0.,0.,4237.,0.,0.,9999.,0.580262339739,inf,0.
5.68,5770.,1.,0.,4230.,0.,0.,10001.,0.613500991324,31.9020515488,13.
5.7,5780.,1.,0.,4221.,0.,0.,10002.,0.649094477687,33.7529128397,13.
5.72,5791.,1.,0.,4213.,0.,0.,10005.,0.686227976139,35.6838547592,13.
5.74,5807.,0.,1.,4202.,0.,0.,10010.,0.72483394619,inf,0.
5.76,5817.,0.,0.,4193.,0.,0.,10010.,0.763494674597,inf,0.
5.78,5827.,1.,0.,4186.,0.,0.,10014.,0.801668171699,41.6867449284,13.
5.8,5832.,2.,0.,4178.,0.,0.,10012.,0.838839665037,21.809831291,26.
5.82,5833.,2.,2.,4172.,0.,0.,10009.,0.874119414105,22.7271047667,26.
5.84,5836.,7.,3.,4163.,0.,0.,10009.,0.907464200122,6.74116262948,91.
5.86,5841.,9.,5.,4155.,0.,0.,10010.,0.938543181403,5.422693937,117.
5.88,5842.,10.,6.,4155.,0.,0.,10013.,0.965804176303,5.02218171678,130.
5.9,5842.,9.,4.,4157.,0.,0.,10012.,0.989845986326,5.71911014322,117.
5.92,5857.,5.,5.,4151.,0.,0.,10018.,1.01196152723,10.5243998832,65.
5.94,5863.,10.,3.,4142.,0.,0.,10018.,1.02904081953,5.35101226154,130.
5.96,5862.,9.,3.,4142.,0.,0.,10016.,1.04071431127,6.01301602065,117.
5.98,5865.,8.,7.,4135.,0.,0.,10015.,1.0484156133,6.81470148645,104.
6.,5867.,14.,3.,4131.,0.,0.,10015.,1.05114129015,3.90423907769,182.
6.02,5866.,15.,7.,4126.,0.,0.,10014.,1.04869908413,3.63549015831,195.
6.04,5875.,16.,7.,4116.,0.,0.,10014.,1.04323058827,3.39049941187,208.
6.06,5871.,16.,10.,4119.,0.,0.,10016.,1.03065069435,3.34961475664,208.
6.08,5869.,19.,3.,4123.,0.,0.,10014.,1.01443991172,2.77636186364,247.
6.1,5862.,26.,5.,4122.,0.,0.,10015.,0.992937185193,1.98587437039,338.
6.12,5874.,24.,8.,4111.,0.,0.,10017.,0.970706663693,2.10319777134,312.
6.14,5871.,26.,17.,4105.,0.,0.,10019.,0.942516222266,1.88503244453,338.
6.16,5852.,39.,16.,4110.,0.,0.,10017.,0.909225381205,1.21230050827,507.
6.18,5849.,38.,16.,4118.,0.,0.,10021.,0.875467519428,1.19800818448,494.
6.2,5844.,41.,12.,4124.,0.,0.,10021.,0.839810748813,1.06512582776,533.
6.22,5837.,34.,10.,4137.,0.,0.,10018.,0.802723313271,1.22769447912,442.
6.24,5835.,33.,19.,4134.,0.,0.,10021.,0.765016538623,1.20548060632,429.
6.26,5827.,27.,14.,4151.,0.,0.,10019.,0.726677004728,1.39952608318,351.
6.28,5829.,18.,16.,4158.,0.,0.,10021.,0.68962808638,1.99225891621,234.
6.3,5817.,28.,4.,4168.,0.,0.,10017.,0.652271369333,1.21136111448,364.
6.32,5826.,24.,6.,4161.,0.,0.,10017.,0.618465800709,1.34000923487,312.
6.34,5834.,20.,9.,4156.,0.,0.,10019.,0.586340303474,1.52448478903,260.
6.36,5832.,19.,12.,4156.,0.,0.,10019.,0.555821140236,1.52119469959,247.
6.38,5832.,15.,11.,4161.,0.,0.,10019.,0.52850282162,1.83214311495,195.
6.4,5833.,18.,6.,4161.,0.,0.,10018.,0.504752070562,1.45817264829,234.
6.42,5834.,16.,10.,4155.,0.,0.,10015.,0.484894649771,1.57590761176,208.
6.44,5839.,11.,8.,4158.,0.,0.,10016.,0.469281628944,2.21842224592,143.
6.46,5841.,9.,5.,4161.,0.,0.,10016.,0.457840519422,2.64530077888,117.
6.48,5848.,6.,3.,4161.,0.,0.,10018.,0.451255554566,3.9108814729,78.
6.5,5860.,4.,2.,4156.,0.,0.,10022.,0.449637364712,5.84528574126,52.
6.52,5870.,3.,1.,4144.,0.,0.,10018.,0.452953164381,7.8511881826,39.
6.54,5879.,1.,0.,4137.,0.,0.,10017.,0.460773104955,23.9602014577,13.
6.56,5885.,1.,0.,4128.,0.,0.,10014.,0.473073121872,24.5998023374,13.
6.58,5894.,1.,0.,4121.,0.,0.,10016.,0.489832657763,25.4712982037,13.
6.6,5908.,0.,0.,4108.,0.,0.,10016.,0.511344195986,inf,0.
6.62,5920.,0.,0.,4099.,0.,0.,10019.,0.536477486967,inf,0.
6.64,5929.,0.,0.,4089.,0.,0.,10018.,0.565122169872,inf,0.
6.66,5940.,1.,0.,4080.,0.,0.,10021.,0.596874578349,31.0374780742,13.
6.68,5951.,0.,1.,4071.,0.,0.,10023.,0.63135714958,inf,0.
6.7,5958.,0.,1.,4062.,0.,0.,10021.,0.667815297052,inf,0.
6.72,5965.,0.,1.,4056.,0.,0.,10022.,0.705647808392,inf,0.
6.74,5974.,1.,0.,4048.,0.,0.,10023.,0.744711848907,38.7250161432,13.
6.76,5982.,0.,1.,4039.,0.,0.,10022.,0.784211192071,inf,0.
6.78,5985.,2.,0.,4035.,0.,0.,10022.,0.822748248898,21.3914544714,26.
6.8,5996.,0.,2.,4026.,0.,0.,10024.,0.861395998493,inf,0.
6.82,6006.,1.,1.,4016.,0.,0.,10024.,0.898697945126,46.7322931466,13.
6.84,6012.,1.,2.,4010.,0.,0.,10025.,0.933339180908,48.5336374072,13.
6.86,6017.,3.,2.,4004.,0.,0.,10026.,0.965280296367,16.731525137,39.
6.88,6020.,5.,2.,3999.,0.,0.,10026.,0.993940835107,10.3369846851,65.
6.9,6028.,10.,3.,3989.,0.,0.,10030.,1.01952815902,5.30154642689,130.
6.92,6031.,11.,2.,3986.,0.,0.,10030.,1.04077823261,4.92004255414,143.
6.94,6029.,15.,5.,3981.,0.,0.,10030.,1.05691019347,3.66395533736,195.
6.96,6030.,12.,8.,3977.,0.,0.,10027.,1.06936588655,4.63391884173,156.
6.98,6033.,15.,5.,3970.,0.,0.,10023.,1.0775861779,3.73563208339,195.
7.,6024.,18.,10.,3971.,0.,0.,10023.,1.07840823181,3.11540155856,234.
7.02,6022.,18.,5.,3975.,0.,0.,10020.,1.0759434518,3.10828108299,234.
7.04,6021.,16.,10.,3973.,0.,0.,10020.,1.06851576505,3.4726762364,208.
7.06,6008.,27.,7.,3975.,0.,0.,10017.,1.05459567495,2.03107315175,351.
7.08,6004.,24.,8.,3981.,0.,0.,10017.,1.03746347278,2.24783752436,312.
7.1,5996.,24.,10.,3986.,0.,0.,10016.,1.01553342688,2.2003224249,312.
7.12,5987.,25.,7.,3995.,0.,0.,10014.,0.989676854665,2.0585278577,325.
7.14,5982.,27.,12.,3991.,0.,0.,10012.,0.96100732476,1.85082892176,351.
7.16,5975.,30.,15.,3990.,0.,0.,10010.,0.928985080113,1.61024080553,390.
7.18,5961.,39.,6.,4000.,0.,0.,10006.,0.893569017294,1.19142535639,507.
7.2,5956.,31.,15.,4002.,0.,0.,10004.,0.857360142332,1.43815249681,403.
7.22,5937.,40.,22.,4005.,0.,0.,10004.,0.817618248889,1.06290372356,520.
7.24,5934.,28.,17.,4026.,0.,0.,10005.,0.779240425594,1.44716079039,364.
7.26,5937.,27.,11.,4036.,0.,0.,10011.,0.740986615716,1.42708533397,351.
7.28,5931.,19.,17.,4044.,0.,0.,10011.,0.702396615242,1.92234863119,247.
7.3,5918.,26.,11.,4050.,0.,0.,10005.,0.664392611164,1.32878522233,338.
7.32,5921.,22.,15.,4048.,0.,0.,10006.,0.629241627219,1.48729839161,286.
7.34,5921.,14.,16.,4054.,0.,0.,10005.,0.595916852449,2.21340545195,182.
7.36,5918.,15.,7.,4061.,0.,0.,10001.,0.565032535152,1.95877945519,195.
7.38,5919.,13.,5.,4060.,0.,0.,9997.,0.537567270996,2.15026908399,169.
7.4,5926.,14.,0.,4057.,0.,0.,9997.,0.513876923155,1.90868571458,182.
7.42,5930.,13.,0.,4055.,0.,0.,9998.,0.493711771331,1.97484708532,169.
7.44,5932.,7.,4.,4054.,0.,0.,9997.,0.477662166383,3.5483475217,91.
7.46,5944.,7.,2.,4045.,0.,0.,9998.,0.466752877013,3.46730708638,91.
7.48,5955.,6.,4.,4039.,0.,0.,10004.,0.460155171127,3.9880114831,78.
7.5,5963.,6.,4.,4031.,0.,0.,10004.,0.458363790748,3.97248618648,78.
7.52,5977.,3.,4.,4024.,0.,0.,10008.,0.461670562259,8.00228974582,39.
7.54,5989.,1.,2.,4019.,0.,0.,10011.,0.469675803426,24.4231417781,13.
7.56,6000.,0.,0.,4015.,0.,0.,10015.,0.482269381901,inf,0.
7.58,6007.,1.,0.,4007.,0.,0.,10015.,0.499273596362,25.9622270108,13.
7.6,6018.,1.,0.,3996.,0.,0.,10015.,0.520916830989,27.0876752114,13.
7.62,6030.,1.,0.,3986.,0.,0.,10017.,0.546554922338,28.4208559616,13.
7.64,6038.,0.,1.,3976.,0.,0.,10015.,0.575683891178,inf,0.
7.66,6041.,1.,0.,3973.,0.,0.,10015.,0.60738712443,31.5841304704,13.
7.68,6048.,1.,0.,3968.,0.,0.,10017.,0.642032468707,33.3856883728,13.
7.7,6054.,0.,0.,3961.,0.,0.,10015.,0.678982199971,inf,0.
7.72,6062.,0.,0.,3954.,0.,0.,10016.,0.717552304561,inf,0.
7.74,6069.,0.,0.,3946.,0.,0.,10015.,0.757158774778,inf,0.
7.76,6076.,0.,0.,3937.,0.,0.,10013.,0.797250086233,inf,0.
7.78,6085.,0.,0.,3929.,0.,0.,10014.,0.837163347313,inf,0.
7.8,6095.,2.,0.,3916.,0.,0.,10013.,0.876580444002,22.791091544,26.
7.82,6099.,1.,3.,3905.,0.,0.,10008.,0.914072862317,47.5317888405,13.
7.84,6105.,2.,4.,3898.,0.,0.,10009.,0.949292142177,24.6815956966,26.
7.86,6109.,4.,5.,3893.,0.,0.,10011.,0.981507887204,12.7596025337,52.
7.88,6110.,10.,4.,3889.,0.,0.,10013.,1.01011015358,5.25257279861,130.
7.9,6117.,8.,6.,3883.,0.,0.,10014.,1.0362339291,6.73552053912,104.
7.92,6114.,14.,6.,3880.,0.,0.,10014.,1.05678746298,3.92521057678,182.
7.94,6116.,10.,8.,3880.,0.,0.,10014.,1.07387473617,5.58414862811,130.
7.96,6119.,15.,8.,3872.,0.,0.,10014.,1.08655795227,3.76673423455,195.
7.98,6111.,17.,14.,3871.,0.,0.,10013.,1.09260827328,3.34209589475,221.
8.,6108.,19.,12.,3875.,0.,0.,10014.,1.0944285222,2.99527806075,247.
8.02,6112.,20.,8.,3872.,0.,0.,10012.,1.09289621471,2.84153015824,260.
8.04,6106.,24.,10.,3869.,0.,0.,10009.,1.08479116443,2.35038085627,312.
8.06,6107.,19.,12.,3876.,0.,0.,10014.,1.07229447577,2.93470067053,247.
8.08,6090.,33.,11.,3879.,0.,0.,10013.,1.05274425867,1.65886974094,429.
8.1,6084.,32.,11.,3888.,0.,0.,10015.,1.03054074287,1.67462870717,416.
8.12,6076.,29.,14.,3894.,0.,0.,10013.,1.00448924601,1.80115313079,377.
8.14,6077.,21.,16.,3900.,0.,0.,10014.,0.976074078434,2.41694533707,273.
8.16,6074.,20.,20.,3903.,0.,0.,10017.,0.943717526562,2.45366556906,260.
8.18,6063.,27.,17.,3908.,0.,0.,10015.,0.908042327923,1.74882226119,351.
8.2,6059.,28.,17.,3915.,0.,0.,10019.,0.870881088261,1.61735059248,364.
8.22,6047.,35.,18.,3915.,0.,0.,10015.,0.831852306777,1.23589485578,455.
8.24,6046.,30.,28.,3912.,0.,0.,10016.,0.793076082809,1.3746652102,390.
8.26,6028.,41.,20.,3929.,0.,0.,10018.,0.751818472343,0.953525867362,533.
8.28,6018.,39.,21.,3939.,0.,0.,10017.,0.712272959209,0.949697278946,507.
8.3,6021.,31.,18.,3949.,0.,0.,10019.,0.675011507499,1.13227736742,403.
8.32,6017.,25.,19.,3958.,0.,0.,10019.,0.638614121617,1.32831737296,325.
8.34,6017.,15.,15.,3974.,0.,0.,10021.,0.604611841402,2.09598771686,195.
8.36,6025.,16.,7.,3975.,0.,0.,10023.,0.573985925038,1.86545425637,208.
8.38,6031.,11.,9.,3973.,0.,0.,10024.,0.546263825901,2.58233808608,143.
8.4,6028.,12.,9.,3975.,0.,0.,10024.,0.521313949079,2.25902711268,156.
8.42,6034.,11.,4.,3975.,0.,0.,10024.,0.50106742416,2.36868236875,143.
8.44,6040.,10.,3.,3973.,0.,0.,10026.,0.484951863037,2.52174968779,130.
8.46,6042.,9.,7.,3969.,0.,0.,10027.,0.473076136346,2.73332878778,117.
8.48,6046.,9.,1.,3967.,0.,0.,10023.,0.466301311166,2.6941853534,117.
8.5,6050.,6.,4.,3960.,0.,0.,10020.,0.464308708493,4.02400880694,78.
8.52,6053.,3.,4.,3958.,0.,0.,10018.,0.467074191482,8.09595265235,39.
8.54,6053.,3.,2.,3960.,0.,0.,10018.,0.474363190928,8.22229530941,39.
8.56,6053.,4.,0.,3958.,0.,0.,10015.,0.486529428108,6.32488256541,52.
8.58,6059.,2.,1.,3953.,0.,0.,10015.,0.503595591869,13.0934853886,26.
8.6,6074.,0.,2.,3942.,0.,0.,10018.,0.525606733515,inf,0.
8.62,6085.,0.,2.,3931.,0.,0.,10018.,0.551485028412,inf,0.
8.64,6092.,3.,0.,3924.,0.,0.,10019.,0.58060054635,10.0637428034,39.
8.66,6098.,1.,0.,3920.,0.,0.,10019.,0.612873358002,31.8694146161,13.
8.68,6120.,0.,2.,3902.,0.,0.,10024.,0.649222028226,inf,0.
8.7,6134.,0.,0.,3897.,0.,0.,10031.,0.686857219304,inf,0.
8.72,6144.,0.,0.,3885.,0.,0.,10029.,0.72631585252,inf,0.
8.74,6153.,0.,0.,3877.,0.,0.,10030.,0.766490467323,inf,0.
8.76,6159.,2.,0.,3868.,0.,0.,10029.,0.806851477551,20.9781384163,26.
8.78,6167.,2.,0.,3858.,0.,0.,10027.,0.847344751551,22.0309635403,26.
8.8,6174.,3.,0.,3851.,0.,0.,10028.,0.886613997824,15.3679759623,39.
8.82,6180.,4.,0.,3846.,0.,0.,10030.,0.924180968384,12.014352589,52.
8.84,6190.,5.,3.,3835.,0.,0.,10033.,0.960206725929,9.98614994966,65.
8.86,6201.,6.,5.,3823.,0.,0.,10035.,0.993906394244,8.61385541678,78.
8.88,6210.,8.,2.,3816.,0.,0.,10036.,1.02428942762,6.65788127952,104.
8.9,6223.,6.,3.,3799.,0.,0.,10031.,1.05240398837,9.12083456591,78.
8.92,6226.,11.,3.,3792.,0.,0.,10032.,1.07421545897,5.0781094424,143.
8.94,6227.,11.,12.,3782.,0.,0.,10032.,1.09140283587,5.15935886045,143.
8.96,6224.,11.,12.,3787.,0.,0.,10034.,1.10300000856,5.21418185862,143.
8.98,6222.,12.,11.,3781.,0.,0.,10026.,1.11101193315,4.81438504363,156.
9.,6214.,25.,1.,3788.,0.,0.,10028.,1.11186711381,2.31268359673,325.
9.02,6211.,20.,9.,3788.,0.,0.,10028.,1.1088265624,2.88294906223,260.
9.04,6212.,24.,6.,3787.,0.,0.,10029.,1.10142224691,2.38641486829,312.
9.06,6213.,22.,14.,3779.,0.,0.,10028.,1.08938342704,2.57490628209,286.
9.08,6208.,30.,8.,3781.,0.,0.,10027.,1.07164390548,1.85751610283,390.
9.1,6206.,27.,14.,3783.,0.,0.,10030.,1.04963366869,2.02151669526,351.
9.12,6202.,24.,13.,3789.,0.,0.,10028.,1.02378598298,2.21820296313,312.
9.14,6197.,28.,19.,3788.,0.,0.,10032.,0.993562296807,1.84518712264,364.
9.16,6176.,40.,16.,3801.,0.,0.,10033.,0.958035014433,1.24544551876,520.
9.18,6161.,33.,19.,3816.,0.,0.,10029.,0.921431502857,1.45195267117,429.
9.2,6152.,37.,20.,3824.,0.,0.,10033.,0.88301442504,1.240993246,481.
9.22,6142.,33.,15.,3842.,0.,0.,10032.,0.843489146872,1.32913441325,429.
9.24,6135.,36.,12.,3846.,0.,0.,10029.,0.803707389962,1.16091067439,468.
9.26,6132.,28.,16.,3853.,0.,0.,10029.,0.763950625465,1.41876544729,364.
9.28,6131.,23.,17.,3861.,0.,0.,10032.,0.724562311253,1.63814087762,299.
9.3,6131.,28.,7.,3868.,0.,0.,10034.,0.686316034539,1.27458692129,364.
9.32,6134.,20.,7.,3873.,0.,0.,10034.,0.650058674388,1.69015255341,260.
9.34,6136.,15.,15.,3870.,0.,0.,10036.,0.615647893143,2.13424602956,195.
9.36,6127.,18.,10.,3877.,0.,0.,10032.,0.583179539955,1.6847408932,234.
9.38,6128.,16.,13.,3877.,0.,0.,10034.,0.554496528494,1.80211371761,208.
9.4,6131.,16.,7.,3879.,0.,0.,10033.,0.529745972957,1.72167441211,208.
9.42,6135.,9.,8.,3878.,0.,0.,10030.,0.509149773744,2.9417542483,117.
9.44,6132.,15.,4.,3877.,0.,0.,10028.,0.492240354274,1.70643322815,195.
9.46,6134.,14.,4.,3874.,0.,0.,10026.,0.480327449971,1.78407338561,182.
9.48,6137.,9.,7.,3871.,0.,0.,10024.,0.473272521117,2.73446345534,117.
9.5,6142.,3.,8.,3870.,0.,0.,10023.,0.471228184389,8.16795519607,39.
9.52,6147.,2.,0.,3872.,0.,0.,10021.,0.474185615154,12.328825994,26.
9.54,6152.,1.,2.,3866.,0.,0.,10021.,0.481977317123,25.0628204904,13.
9.56,6157.,0.,0.,3865.,0.,0.,10022.,0.494543102382,inf,0.
9.58,6168.,0.,0.,3854.,0.,0.,10022.,0.512297088518,inf,0.
9.6,6175.,0.,0.,3850.,0.,0.,10025.,0.53397354462,inf,0.
9.62,6181.,1.,0.,3844.,0.,0.,10026.,0.559738545475,29.1064043647,13.
9.64,6185.,0.,0.,3844.,0.,0.,10029.,0.58887618986,inf,0.
9.66,6195.,1.,1.,3829.,0.,0.,10026.,0.622187540123,32.3537520864,13.
9.68,6201.,0.,0.,3823.,0.,0.,10024.,0.657814672717,inf,0.
9.7,6208.,0.,0.,3816.,0.,0.,10024.,0.695628835635,inf,0.
9.72,6213.,1.,0.,3809.,0.,0.,10023.,0.73491239239,38.2154444043,13.
9.74,6218.,1.,1.,3802.,0.,0.,10022.,0.775205946072,40.3107091957,13.
9.76,6218.,3.,1.,3795.,0.,0.,10017.,0.815556530781,14.1363132002,39.
9.78,6228.,4.,3.,3785.,0.,0.,10020.,0.856323953854,11.1322114001,52.
9.8,6232.,7.,3.,3778.,0.,0.,10020.,0.89565758248,6.65345632699,91.
9.82,6237.,4.,2.,3776.,0.,0.,10019.,0.933728997414,12.1384769664,52.
9.84,6243.,8.,1.,3768.,0.,0.,10020.,0.969684648945,6.30295021814,104.
9.86,6246.,7.,3.,3763.,0.,0.,10019.,1.00271782052,7.44876095243,91.
9.88,6247.,8.,4.,3756.,0.,0.,10015.,1.03255286219,6.71159360425,104.
9.9,6252.,10.,1.,3753.,0.,0.,10016.,1.05889175864,5.50623714494,130.
9.92,6257.,7.,1.,3751.,0.,0.,10016.,1.08128864975,8.0324299696,91.
9.94,6260.,6.,6.,3742.,0.,0.,10014.,1.09915890262,9.52604382275,78.
9.96,6261.,9.,4.,3739.,0.,0.,10013.,1.11188409052,6.42421918967,117.
9.98,6268.,9.,5.,3732.,0.,0.,10014.,1.12056697227,6.47438695088,117.
10.,6273.,6.,1.,3734.,0.,0.,10014.,1.12399314337,9.74127390925,78.
