t,s,e,i,r,c,o,n,reff,coal,reportr
5.,6145.,14.,7.,3834.,0.,0.,10000.,1.14019594608,4.23501351401,182.
5.02,6142.,16.,9.,3835.,0.,0.,10002.,1.13684438971,3.69474426654,208.
5.04,6139.,20.,10.,3836.,0.,0.,10005.,1.12829382884,2.93356395498,260.
5.06,6138.,21.,7.,3838.,0.,0.,10004.,1.1156001926,2.76243857216,273.
5.08,6133.,24.,8.,3838.,0.,0.,10003.,1.09742321958,2.37775030908,312.
5.1,6118.,27.,16.,3839.,0.,0.,10000.,1.07324291763,2.06698635988,351.
5.12,6100.,35.,12.,3853.,0.,0.,10000.,1.04419887611,1.55138118736,455.
5.14,6093.,39.,11.,3859.,0.,0.,10002.,1.01322781126,1.35097041501,507.
5.16,6092.,34.,9.,3869.,0.,0.,10004.,0.980060221362,1.49891563267,442.
5.18,6086.,34.,18.,3868.,0.,0.,10006.,0.943414554745,1.44286931902,442.
5.2,6058.,45.,19.,3880.,0.,0.,10002.,0.901958065414,1.04226265337,585.
5.22,6047.,41.,20.,3894.,0.,0.,10002.,0.861334757247,1.09242457017,533.
5.24,6045.,28.,26.,3906.,0.,0.,10005.,0.820884172228,1.52449917699,364.
5.26,6029.,29.,28.,3918.,0.,0.,10004.,0.778671035874,1.3962377195,377.
5.28,6021.,32.,13.,3940.,0.,0.,10006.,0.737737262656,1.19882305182,416.
5.3,6015.,28.,16.,3947.,0.,0.,10006.,0.698238357684,1.29672837856,364.
5.32,6015.,24.,18.,3950.,0.,0.,10007.,0.660961645288,1.43208356479,312.
5.34,6004.,24.,18.,3962.,0.,0.,10008.,0.62468737663,1.35348931603,312.
5.36,6000.,21.,16.,3970.,0.,0.,10007.,0.592039818177,1.4660033593,273.
5.38,6000.,16.,11.,3975.,0.,0.,10002.,0.563222784868,1.83047405082,208.
5.4,6006.,12.,7.,3978.,0.,0.,10003.,0.538249782498,2.33241572416,156.
5.42,6011.,12.,6.,3973.,0.,0.,10002.,0.517313060019,2.24168992675,156.
5.44,6014.,10.,4.,3970.,0.,0.,9998.,0.500727367892,2.60378231304,130.
5.46,6029.,6.,4.,3960.,0.,0.,9999.,0.489521413911,4.24251892056,78.
5.48,6046.,5.,4.,3949.,0.,0.,10004.,0.483117008907,5.02441689264,65.
5.5,6056.,4.,4.,3939.,0.,0.,10003.,0.48143362288,6.25863709744,52.
5.52,6058.,4.,3.,3936.,0.,0.,10001.,0.484221099739,6.2948742966,52.
5.54,6063.,2.,2.,3934.,0.,0.,10001.,0.492183579072,12.7967730559,26.
5.56,6069.,2.,2.,3927.,0.,0.,10000.,0.505205622357,13.1353461813,26.
5.58,6078.,0.,1.,3922.,0.,0.,10001.,0.52313145404,inf,0.
5.6,6087.,0.,0.,3919.,0.,0.,10006.,0.545345340912,inf,0.
5.62,6093.,0.,0.,3911.,0.,0.,10004.,0.571838393224,inf,0.
5.64,6099.,0.,0.,3907.,0.,0.,10006.,0.601868619938,inf,0.
5.66,6103.,2.,0.,3902.,0.,0.,10007.,0.635051305729,16.5113339489,26.
5.68,6112.,0.,2.,3895.,0.,0.,10009.,0.671486341312,inf,0.
5.7,6117.,1.,1.,3888.,0.,0.,10007.,0.710007850427,36.9204082222,13.
5.72,6128.,1.,1.,3881.,0.,0.,10011.,0.750472679342,39.0245793258,13.
5.74,6135.,0.,1.,3875.,0.,0.,10011.,0.791807343952,inf,0.
5.76,6138.,2.,0.,3868.,0.,0.,10008.,0.833263305428,21.6648459411,26.
5.78,6140.,1.,1.,3866.,0.,0.,10008.,0.874057348891,45.4509821424,13.
5.8,6147.,1.,2.,3858.,0.,0.,10008.,0.914660331053,47.5623372148,13.
5.82,6154.,1.,1.,3852.,0.,0.,10008.,0.953764860902,49.5957727669,13.
5.84,6160.,4.,0.,3841.,0.,0.,10005.,0.990900779416,12.8817101324,52.
5.86,6164.,6.,0.,3837.,0.,0.,10007.,1.0245225086,8.87919507453,78.
5.88,6177.,3.,4.,3829.,0.,0.,10013.,1.05600693815,18.3041202612,39.
5.9,6182.,8.,3.,3821.,0.,0.,10014.,1.0829539065,7.03920039228,104.
5.92,6186.,6.,9.,3814.,0.,0.,10015.,1.1055806042,9.58169856971,78.
5.94,6191.,8.,8.,3808.,0.,0.,10015.,1.12399720145,7.30598180941,104.
5.96,6185.,20.,5.,3808.,0.,0.,10018.,1.13527310396,2.95171007029,260.
5.98,6188.,18.,3.,3810.,0.,0.,10019.,1.14341527427,3.30319968122,234.
6.,6187.,16.,7.,3808.,0.,0.,10018.,1.14592631853,3.72426053523,208.
6.02,6181.,20.,11.,3806.,0.,0.,10018.,1.14223582504,2.96981314511,260.
6.04,6177.,19.,13.,3812.,0.,0.,10021.,1.1334652542,3.10211543254,247.
6.06,6174.,24.,7.,3812.,0.,0.,10017.,1.12068699167,2.42815514862,312.
6.08,6172.,27.,7.,3810.,0.,0.,10016.,1.10296835027,2.12423534127,351.
6.1,6169.,27.,12.,3811.,0.,0.,10019.,1.08013727153,2.08026437479,351.
6.12,6161.,26.,13.,3816.,0.,0.,10016.,1.05295613505,2.10591227011,338.
6.14,6144.,36.,21.,3814.,0.,0.,10015.,1.02038256036,1.47388592053,468.
6.16,6141.,35.,20.,3822.,0.,0.,10018.,0.986562539254,1.46575005832,455.
6.18,6128.,43.,21.,3828.,0.,0.,10020.,0.948597897553,1.14714164355,559.
6.2,6121.,39.,16.,3846.,0.,0.,10022.,0.909519278035,1.21269237071,507.
6.22,6116.,33.,15.,3855.,0.,0.,10019.,0.869684949348,1.37041264746,429.
6.24,6104.,37.,14.,3862.,0.,0.,10017.,0.827903123131,1.1635395244,481.
6.26,6105.,32.,11.,3868.,0.,0.,10016.,0.787542087028,1.27975589142,416.
6.28,6106.,33.,12.,3867.,0.,0.,10018.,0.747255919251,1.17749417579,429.
6.3,6101.,26.,11.,3878.,0.,0.,10016.,0.707514392859,1.41502878572,338.
6.32,6096.,27.,15.,3881.,0.,0.,10019.,0.669060065212,1.28856012559,351.
6.34,6092.,17.,15.,3891.,0.,0.,10015.,0.63340032836,1.93745982793,221.
6.36,6095.,22.,11.,3886.,0.,0.,10014.,0.600993380879,1.42052980935,286.
6.38,6097.,16.,10.,3890.,0.,0.,10013.,0.571699476215,1.8580232977,208.
6.4,6099.,14.,6.,3894.,0.,0.,10013.,0.546038444907,2.02814279537,182.
6.42,6102.,12.,10.,3888.,0.,0.,10012.,0.52462010171,2.27335377408,156.
6.44,6113.,9.,6.,3882.,0.,0.,10010.,0.508359982326,2.937191009,117.
6.46,6124.,6.,7.,3875.,0.,0.,10012.,0.496589257243,4.30377356277,78.
6.48,6129.,7.,5.,3870.,0.,0.,10011.,0.489406832314,3.63559361148,91.
6.5,6137.,5.,4.,3864.,0.,0.,10010.,0.487531707239,5.07032975528,65.
6.52,6139.,1.,5.,3862.,0.,0.,10007.,0.490401287377,25.5008669436,13.
6.54,6148.,3.,1.,3855.,0.,0.,10007.,0.498784487442,8.64559778232,39.
6.56,6159.,2.,2.,3843.,0.,0.,10006.,0.512390115461,13.322143002,26.
6.58,6161.,2.,1.,3840.,0.,0.,10004.,0.530116217684,13.7830216598,26.
6.6,6164.,2.,0.,3834.,0.,0.,10000.,0.552575256546,14.3669566702,26.
6.62,6176.,2.,1.,3827.,0.,0.,10006.,0.579512228018,15.0673179285,26.
6.64,6192.,1.,1.,3814.,0.,0.,10008.,0.610924042689,31.7680502198,13.
6.66,6207.,1.,2.,3800.,0.,0.,10010.,0.645679519412,33.5753350094,13.
6.68,6213.,2.,0.,3797.,0.,0.,10012.,0.682378035877,17.7418289328,26.
6.7,6220.,1.,1.,3789.,0.,0.,10011.,0.721674721455,37.5270855156,13.
6.72,6224.,2.,1.,3784.,0.,0.,10011.,0.762229431499,19.817965219,26.
6.74,6228.,1.,1.,3780.,0.,0.,10010.,0.803890592192,41.802310794,13.
6.76,6235.,0.,2.,3773.,0.,0.,10010.,0.846262409261,inf,0.
6.78,6238.,1.,1.,3767.,0.,0.,10007.,0.888096840059,46.181035683,13.
6.8,6243.,3.,1.,3759.,0.,0.,10006.,0.929130601405,16.1049304244,39.
6.82,6249.,4.,1.,3755.,0.,0.,10009.,0.96839147612,12.5890891896,52.
6.84,6249.,5.,1.,3748.,0.,0.,10003.,1.00541834853,10.4563508247,65.
6.86,6251.,6.,2.,3741.,0.,0.,10000.,1.03971012401,9.01082107475,78.
6.88,6253.,7.,3.,3735.,0.,0.,9998.,1.0706035588,7.9530550082,91.
6.9,6263.,6.,3.,3726.,0.,0.,9998.,1.09889915105,9.52379264243,78.
6.92,6265.,5.,4.,3728.,0.,0.,10002.,1.12115504139,11.6600124304,65.
6.94,6272.,11.,3.,3716.,0.,0.,10002.,1.14018304612,5.389956218,143.
6.96,6267.,18.,3.,3712.,0.,0.,10000.,1.15239500473,3.32914112478,234.
6.98,6270.,16.,4.,3709.,0.,0.,9999.,1.16088455578,3.77287480629,208.
7.,6269.,11.,8.,3710.,0.,0.,9998.,1.16343665576,5.49988237267,143.
7.02,6263.,15.,10.,3706.,0.,0.,9994.,1.16016865476,4.02191800317,195.
7.04,6251.,24.,9.,3710.,0.,0.,9994.,1.15014296189,2.49197641742,312.
7.06,6246.,22.,15.,3712.,0.,0.,9995.,1.13625173918,2.68568592898,286.
7.08,6237.,30.,9.,3719.,0.,0.,9995.,1.11692598445,1.93600503971,390.
7.1,6238.,34.,12.,3713.,0.,0.,9997.,1.09462216242,1.67412801312,442.
7.12,6233.,30.,11.,3723.,0.,0.,9997.,1.06728602102,1.84996243643,390.
7.14,6222.,34.,14.,3729.,0.,0.,9999.,1.03499013981,1.58292609617,442.
7.16,6208.,35.,18.,3733.,0.,0.,9994.,0.99972122797,1.48530011013,455.
7.18,6209.,40.,12.,3737.,0.,0.,9998.,0.963251402663,1.25222682346,520.
7.2,6205.,36.,18.,3744.,0.,0.,10003.,0.923752112705,1.33430860724,468.
7.22,6187.,38.,20.,3758.,0.,0.,10003.,0.88118825783,1.20583656335,494.
7.24,6176.,28.,22.,3774.,0.,0.,10000.,0.839092727544,1.55831506544,364.
7.26,6159.,33.,19.,3785.,0.,0.,9996.,0.796097713246,1.25445700269,429.
7.28,6147.,23.,26.,3800.,0.,0.,9996.,0.753929187705,1.70453555481,299.
7.3,6132.,28.,18.,3814.,0.,0.,9992.,0.712817397373,1.32380373798,364.
7.32,6135.,27.,9.,3819.,0.,0.,9990.,0.675295111175,1.30056836226,351.
7.34,6131.,22.,10.,3826.,0.,0.,9989.,0.639114463746,1.51063418704,286.
7.36,6134.,20.,10.,3823.,0.,0.,9987.,0.606474140595,1.57683276555,260.
7.38,6137.,11.,13.,3831.,0.,0.,9992.,0.57665958273,2.72602711836,143.
7.4,6138.,13.,1.,3839.,0.,0.,9991.,0.550740138006,2.20296055202,169.
7.42,6141.,11.,3.,3833.,0.,0.,9988.,0.529241788779,2.50187027423,143.
7.44,6148.,12.,1.,3826.,0.,0.,9987.,0.51244805201,2.22060822538,156.
7.46,6154.,9.,3.,3816.,0.,0.,9982.,0.500521693689,2.89190311909,117.
7.48,6166.,7.,1.,3812.,0.,0.,9986.,0.493593948616,3.666697904,91.
7.5,6172.,0.,6.,3809.,0.,0.,9987.,0.491441341199,inf,0.
7.52,6175.,3.,4.,3805.,0.,0.,9987.,0.494264911076,8.56725845864,39.
7.54,6185.,2.,2.,3799.,0.,0.,9988.,0.502740820257,13.0712613267,26.
7.56,6194.,2.,2.,3792.,0.,0.,9990.,0.516127203968,13.4193073032,26.
7.58,6209.,2.,0.,3784.,0.,0.,9995.,0.534727385156,13.9029120141,26.
7.6,6212.,0.,3.,3778.,0.,0.,9993.,0.55726833145,inf,0.
7.62,6217.,1.,0.,3775.,0.,0.,9993.,0.584118276916,30.3741503997,13.
7.64,6226.,1.,0.,3767.,0.,0.,9994.,0.615139106115,31.987233518,13.
7.66,6236.,3.,0.,3756.,0.,0.,9995.,0.649669758439,11.2609424796,39.
7.68,6239.,2.,2.,3750.,0.,0.,9993.,0.686536489548,17.8499487283,26.
7.7,6248.,1.,1.,3744.,0.,0.,9994.,0.726156527626,37.7601394366,13.
7.72,6252.,1.,0.,3741.,0.,0.,9994.,0.766960885075,39.8819660239,13.
7.74,6261.,1.,0.,3730.,0.,0.,9992.,0.809605962984,42.0995100752,13.
7.76,6275.,1.,0.,3720.,0.,0.,9996.,0.852884363807,44.3499869179,13.
7.78,6280.,1.,0.,3711.,0.,0.,9992.,0.895418519695,46.5617630241,13.
7.8,6291.,2.,0.,3698.,0.,0.,9991.,0.937680001992,24.3796800518,26.
7.82,6295.,3.,2.,3689.,0.,0.,9989.,0.977473166407,16.9428682177,39.
7.84,6295.,7.,3.,3684.,0.,0.,9989.,1.01423892038,7.53434626569,91.
7.86,6298.,4.,5.,3684.,0.,0.,9991.,1.04847111737,13.6301245258,52.
7.88,6305.,5.,2.,3679.,0.,0.,9991.,1.08026304229,11.2347356398,65.
7.9,6317.,6.,1.,3671.,0.,0.,9995.,1.10870661069,9.60879062597,78.
7.92,6319.,6.,3.,3664.,0.,0.,9992.,1.13195035234,9.81023638696,78.
7.94,6317.,8.,4.,3663.,0.,0.,9992.,1.1495128516,7.47183353542,104.
7.96,6320.,10.,3.,3659.,0.,0.,9992.,1.1630712628,6.04797056658,130.
7.98,6323.,13.,4.,3651.,0.,0.,9991.,1.17163485716,4.68653942865,169.
8.,6327.,9.,4.,3651.,0.,0.,9991.,1.1750233063,6.78902354754,117.
8.02,6328.,12.,3.,3648.,0.,0.,9991.,1.17256134369,5.08109915597,156.
8.04,6326.,13.,9.,3645.,0.,0.,9993.,1.16405894529,4.65623578116,169.
8.06,6314.,20.,8.,3647.,0.,0.,9989.,1.14931200729,2.98821121895,260.
8.08,6303.,26.,11.,3646.,0.,0.,9986.,1.12976260202,2.25952520405,338.
8.1,6302.,31.,9.,3648.,0.,0.,9990.,1.10662752764,1.85627843347,403.
8.12,6298.,25.,15.,3649.,0.,0.,9987.,1.0794958892,2.24535144954,325.
8.14,6291.,24.,17.,3657.,0.,0.,9989.,1.04751547133,2.26961685455,312.
8.16,6279.,32.,18.,3663.,0.,0.,9992.,1.01135728826,1.64345559342,416.
8.18,6261.,39.,16.,3673.,0.,0.,9989.,0.972193724365,1.29625829915,507.
8.2,6263.,35.,15.,3676.,0.,0.,9989.,0.933693480188,1.38720174199,455.
8.22,6255.,29.,19.,3681.,0.,0.,9984.,0.892568582091,1.60046780237,377.
8.24,6258.,31.,12.,3685.,0.,0.,9986.,0.851425526983,1.42819765816,403.
8.26,6253.,25.,19.,3688.,0.,0.,9985.,0.809138338345,1.68300774376,325.
8.28,6237.,30.,11.,3710.,0.,0.,9988.,0.765580391798,1.32700601245,390.
8.3,6228.,29.,18.,3715.,0.,0.,9990.,0.724121905571,1.29842548585,377.
8.32,6213.,35.,9.,3733.,0.,0.,9990.,0.683880770291,1.01605143015,455.
8.34,6217.,29.,11.,3736.,0.,0.,9993.,0.647819957256,1.16160819922,377.
8.36,6212.,20.,16.,3743.,0.,0.,9991.,0.613940175569,1.59624445648,260.
8.38,6213.,20.,16.,3746.,0.,0.,9995.,0.583625649995,1.51742668999,260.
8.4,6217.,21.,6.,3751.,0.,0.,9995.,0.557605274075,1.38073686914,273.
8.42,6220.,16.,8.,3751.,0.,0.,9995.,0.53567471987,1.74094283958,208.
8.44,6226.,9.,10.,3750.,0.,0.,9995.,0.518534140163,2.99597503205,117.
8.46,6224.,12.,1.,3756.,0.,0.,9993.,0.50565775908,2.19118362268,156.
8.48,6229.,8.,3.,3750.,0.,0.,9990.,0.498437501813,3.23984376178,104.
8.5,6236.,7.,4.,3744.,0.,0.,9991.,0.496338504241,3.68708603151,91.
8.52,6240.,6.,3.,3739.,0.,0.,9988.,0.499417692835,4.32828667124,78.
8.54,6248.,3.,3.,3737.,0.,0.,9991.,0.507709209168,8.80029295891,39.
8.56,6253.,5.,2.,3731.,0.,0.,9991.,0.520991343453,5.41830997191,65.
8.58,6266.,2.,4.,3724.,0.,0.,9996.,0.539582316175,14.0291402206,26.
8.6,6277.,3.,1.,3716.,0.,0.,9997.,0.562874067499,9.75648383664,39.
8.62,6282.,2.,2.,3710.,0.,0.,9996.,0.590048213894,15.3412535612,26.
8.64,6293.,1.,0.,3705.,0.,0.,9999.,0.621447906523,32.3152911392,13.
8.66,6304.,0.,1.,3692.,0.,0.,9997.,0.656622643964,inf,0.
8.68,6305.,2.,0.,3687.,0.,0.,9994.,0.693729675504,18.0369715631,26.
8.7,6313.,1.,2.,3681.,0.,0.,9997.,0.73349079359,38.1415212667,13.
8.72,6318.,2.,2.,3676.,0.,0.,9998.,0.774747316158,20.1434302201,26.
8.74,6322.,1.,0.,3672.,0.,0.,9995.,0.817248463693,42.496920112,13.
8.76,6331.,0.,1.,3666.,0.,0.,9998.,0.860323628534,inf,0.
8.78,6342.,0.,0.,3658.,0.,0.,10000.,0.903535231927,inf,0.
8.8,6346.,1.,0.,3653.,0.,0.,10000.,0.945026518372,49.1413789553,13.
8.82,6352.,1.,0.,3648.,0.,0.,10001.,0.985140525266,51.2273073138,13.
8.84,6353.,2.,2.,3640.,0.,0.,9997.,1.02276466186,26.5918812083,26.
8.86,6355.,4.,2.,3637.,0.,0.,9998.,1.05721957671,13.7438544972,52.
8.88,6367.,3.,1.,3626.,0.,0.,9997.,1.09023104377,18.897338092,39.
8.9,6379.,2.,1.,3614.,0.,0.,9996.,1.11947632462,29.1063844401,26.
8.92,6391.,2.,3.,3602.,0.,0.,9998.,1.14416098381,29.7481855791,26.
8.94,6390.,9.,1.,3597.,0.,0.,9997.,1.16221518538,6.71502107108,117.
8.96,6391.,12.,5.,3593.,0.,0.,10001.,1.17507899366,5.09200897251,156.
8.98,6391.,14.,5.,3589.,0.,0.,9999.,1.18328759107,4.3950681954,182.
9.,6382.,15.,7.,3591.,0.,0.,9995.,1.1847633382,4.10717957242,195.
9.02,6375.,18.,10.,3592.,0.,0.,9995.,1.1807975725,3.41119298723,234.
9.04,6368.,27.,15.,3587.,0.,0.,9997.,1.17131858724,2.25587283468,351.
9.06,6361.,28.,19.,3590.,0.,0.,9998.,1.15682493916,2.14838917273,364.
9.08,6343.,28.,20.,3599.,0.,0.,9990.,1.13647705563,2.11060024618,364.
9.1,6335.,29.,11.,3612.,0.,0.,9987.,1.11275646952,1.99528746258,377.
9.12,6333.,25.,19.,3611.,0.,0.,9988.,1.08538631315,2.25760353135,325.
9.14,6320.,26.,18.,3623.,0.,0.,9987.,1.05255500904,2.10511001808,338.
9.16,6303.,33.,18.,3632.,0.,0.,9986.,1.01583295127,1.60070646867,429.
9.18,6295.,34.,18.,3640.,0.,0.,9987.,0.977668915515,1.49525834138,442.
9.2,6281.,31.,15.,3659.,0.,0.,9986.,0.936658242733,1.57116866523,403.
9.22,6277.,25.,18.,3666.,0.,0.,9986.,0.895528519304,1.86269932015,325.
9.24,6272.,30.,9.,3678.,0.,0.,9989.,0.853074001083,1.47866160188,390.
9.26,6266.,26.,17.,3679.,0.,0.,9988.,0.810577000225,1.62115400045,338.
9.28,6267.,29.,11.,3682.,0.,0.,9989.,0.769185826169,1.37922975727,377.
9.3,6269.,19.,23.,3679.,0.,0.,9990.,0.728888925181,1.9948539005,247.
9.32,6270.,24.,9.,3690.,0.,0.,9993.,0.689947714292,1.4948867143,312.
9.34,6266.,23.,11.,3692.,0.,0.,9992.,0.652991169559,1.47632786161,299.
9.36,6269.,17.,12.,3698.,0.,0.,9996.,0.619263650208,1.89421822417,221.
9.38,6262.,13.,18.,3704.,0.,0.,9997.,0.588110843096,2.35244337239,169.
9.4,6264.,12.,12.,3710.,0.,0.,9998.,0.561652143375,2.43382595463,156.
9.42,6270.,14.,6.,3711.,0.,0.,10001.,0.539656830673,2.00443965679,182.
9.44,6281.,8.,4.,3707.,0.,0.,10000.,0.522853273031,3.3985462747,104.
9.46,6290.,6.,1.,3702.,0.,0.,9999.,0.510713168602,4.42618079455,78.
9.48,6299.,5.,2.,3694.,0.,0.,10000.,0.503534783447,5.23676174785,65.
9.5,6306.,2.,4.,3689.,0.,0.,10001.,0.501408115795,13.0366110107,26.
9.52,6318.,1.,2.,3683.,0.,0.,10004.,0.504851680826,26.252287403,13.
9.54,6320.,1.,0.,3682.,0.,0.,10003.,0.512943804432,26.6730778305,13.
9.56,6322.,0.,1.,3679.,0.,0.,10002.,0.526161029871,inf,0.
9.58,6334.,0.,1.,3668.,0.,0.,10003.,0.545056289193,inf,0.
9.6,6335.,0.,0.,3665.,0.,0.,10000.,0.567904647991,inf,0.
9.62,6340.,0.,0.,3658.,0.,0.,9998.,0.595376845795,inf,0.
9.64,6349.,0.,0.,3648.,0.,0.,9997.,0.627103465735,inf,0.
9.66,6361.,0.,0.,3639.,0.,0.,10000.,0.662360977993,inf,0.
9.68,6369.,1.,0.,3634.,0.,0.,10004.,0.700071008029,36.4036924175,13.
9.7,6375.,0.,1.,3630.,0.,0.,10006.,0.740028184577,inf,0.
9.72,6388.,0.,1.,3623.,0.,0.,10012.,0.782235745477,inf,0.
9.74,6398.,1.,0.,3611.,0.,0.,10010.,0.825833655884,42.943350106,13.
9.76,6405.,1.,0.,3604.,0.,0.,10010.,0.869336123707,45.2054784328,13.
9.78,6413.,2.,0.,3596.,0.,0.,10011.,0.91264658424,23.7288111902,26.
9.8,6417.,2.,1.,3592.,0.,0.,10012.,0.954454271702,24.8158110642,26.
9.82,6426.,2.,2.,3581.,0.,0.,10011.,0.995621766098,25.8861659186,26.
9.84,6422.,9.,3.,3578.,0.,0.,10012.,1.032323969,5.96453848755,117.
9.86,6417.,11.,5.,3577.,0.,0.,10010.,1.0662541531,5.04047417831,143.
9.88,6418.,9.,6.,3575.,0.,0.,10008.,1.09775595702,6.34258997387,117.
9.9,6414.,10.,6.,3575.,0.,0.,10005.,1.12460606468,5.84795153635,130.
9.92,6401.,21.,5.,3576.,0.,0.,10003.,1.14537844913,2.83617520737,273.
9.94,6405.,10.,11.,3577.,0.,0.,10003.,1.16424463363,6.05407209489,130.
9.96,6397.,12.,8.,3585.,0.,0.,10002.,1.17606458687,5.09627987644,156.
9.98,6394.,14.,9.,3584.,0.,0.,10001.,1.18360629329,4.39625194651,182.
10.,6395.,21.,12.,3577.,0.,0.,10005.,1.18599009286,2.93673737279,273.
