t,s,e,i,r,c,o,n,reff,coal,reportr
5.,8772.,17.,9.,1203.,0.,0.,10001.,1.20453029679,3.68444561371,221.
5.02,8761.,18.,7.,1215.,0.,0.,10001.,1.2003094934,3.46756075872,234.
5.04,8746.,22.,4.,1224.,0.,0.,9996.,1.19077532,2.81455984727,286.
5.06,8746.,20.,11.,1219.,0.,0.,9996.,1.17745286844,3.06137745795,260.
5.08,8734.,24.,10.,1226.,0.,0.,9994.,1.15773781395,2.50843193023,312.
5.1,8724.,24.,12.,1234.,0.,0.,9994.,1.13336500125,2.45562416939,312.
5.12,8719.,25.,6.,1245.,0.,0.,9995.,1.10520334984,2.29882296766,325.
5.14,8715.,21.,11.,1250.,0.,0.,9997.,1.07316228188,2.65735422179,273.
5.16,8700.,23.,14.,1260.,0.,0.,9997.,1.03662347211,2.34367045868,299.
5.18,8690.,22.,15.,1275.,0.,0.,10002.,0.99739910884,2.35748880271,286.
5.2,8671.,28.,14.,1290.,0.,0.,10003.,0.955405576872,1.77432464276,364.
5.22,8658.,31.,17.,1296.,0.,0.,10002.,0.912755613095,1.53107393164,403.
5.24,8642.,37.,16.,1307.,0.,0.,10002.,0.868830400303,1.22105894097,481.
5.26,8627.,37.,16.,1322.,0.,0.,10002.,0.82482211101,1.15920945331,481.
5.28,8625.,27.,18.,1336.,0.,0.,10006.,0.782162739791,1.50638749886,351.
5.3,8621.,23.,20.,1342.,0.,0.,10006.,0.74068004356,1.67458096805,299.
5.32,8610.,29.,9.,1356.,0.,0.,10004.,0.700452874937,1.2559844654,377.
5.34,8604.,23.,13.,1365.,0.,0.,10005.,0.662761967952,1.49841836233,299.
5.36,8600.,23.,10.,1372.,0.,0.,10005.,0.628188311262,1.42025183416,299.
5.38,8594.,16.,13.,1378.,0.,0.,10001.,0.597135188584,1.9406893629,208.
5.4,8587.,14.,8.,1392.,0.,0.,10001.,0.56968104119,2.11595815299,182.
5.42,8580.,12.,9.,1398.,0.,0.,9999.,0.546674997139,2.3689249876,156.
5.44,8580.,9.,5.,1404.,0.,0.,9998.,0.528725333718,3.0548574837,117.
5.46,8577.,8.,8.,1405.,0.,0.,9998.,0.515478058011,3.35060737707,104.
5.48,8578.,6.,4.,1413.,0.,0.,10001.,0.50746420002,4.39802306684,78.
5.5,8583.,3.,5.,1411.,0.,0.,10002.,0.505054225899,8.75427324892,39.
5.52,8584.,2.,1.,1412.,0.,0.,9999.,0.507920726818,13.2059388973,26.
5.54,8584.,0.,1.,1411.,0.,0.,9996.,0.516001979343,inf,0.
5.56,8585.,1.,0.,1411.,0.,0.,9997.,0.529086367935,27.5124911326,13.
5.58,8589.,0.,0.,1405.,0.,0.,9994.,0.54752222094,inf,0.
5.6,8588.,0.,0.,1403.,0.,0.,9991.,0.570317644074,inf,0.
5.62,8596.,0.,0.,1398.,0.,0.,9994.,0.597692497099,inf,0.
5.64,8599.,0.,0.,1396.,0.,0.,9995.,0.628743695591,inf,0.
5.66,8604.,0.,0.,1391.,0.,0.,9995.,0.663425061466,inf,0.
5.68,8608.,0.,0.,1389.,0.,0.,9997.,0.700780518336,inf,0.
5.7,8612.,0.,0.,1387.,0.,0.,9999.,0.740424787991,inf,0.
5.72,8615.,1.,0.,1385.,0.,0.,10001.,0.781646473323,40.6456166128,13.
5.74,8619.,1.,0.,1384.,0.,0.,10004.,0.823892490431,42.8424095024,13.
5.76,8620.,1.,1.,1382.,0.,0.,10004.,0.86644535824,45.0551586285,13.
5.78,8626.,1.,0.,1378.,0.,0.,10005.,0.909109386695,47.2736881081,13.
5.8,8629.,2.,0.,1370.,0.,0.,10001.,0.950967984882,24.7251676069,26.
5.82,8636.,1.,1.,1363.,0.,0.,10001.,0.991300341966,51.5476177822,13.
5.84,8638.,4.,2.,1360.,0.,0.,10004.,1.02851586331,13.370706223,52.
5.86,8639.,6.,2.,1355.,0.,0.,10002.,1.06327187098,9.2150228818,78.
5.88,8643.,6.,1.,1354.,0.,0.,10004.,1.09458412029,9.48639570916,78.
5.9,8649.,5.,2.,1349.,0.,0.,10005.,1.122386126,11.6728157104,65.
5.92,8648.,5.,2.,1348.,0.,0.,10003.,1.14530666505,11.9111893165,65.
5.94,8648.,7.,4.,1345.,0.,0.,10004.,1.16332832992,8.64186759372,91.
5.96,8647.,6.,12.,1343.,0.,0.,10008.,1.17588475965,10.1910012503,78.
5.98,8632.,17.,8.,1351.,0.,0.,10008.,1.18180853721,3.61494376089,221.
6.,8621.,21.,13.,1356.,0.,0.,10011.,1.1826131832,2.92837550126,273.
6.02,8610.,25.,11.,1364.,0.,0.,10010.,1.17856098982,2.45140685883,325.
6.04,8595.,27.,17.,1370.,0.,0.,10009.,1.16869662831,2.250823136,351.
6.06,8582.,34.,7.,1387.,0.,0.,10010.,1.1537580367,1.76457111496,442.
6.08,8572.,27.,17.,1393.,0.,0.,10009.,1.13456099541,2.18508043561,351.
6.1,8551.,34.,12.,1409.,0.,0.,10006.,1.10955770454,1.69697060694,442.
6.12,8528.,36.,16.,1423.,0.,0.,10003.,1.08012802953,1.56018493154,468.
6.14,8513.,31.,22.,1436.,0.,0.,10002.,1.04776402797,1.75753965982,403.
6.16,8493.,36.,19.,1454.,0.,0.,10002.,1.01145310428,1.4609878173,468.
6.18,8482.,39.,17.,1465.,0.,0.,10003.,0.973428481125,1.2979046415,507.
6.2,8462.,37.,15.,1488.,0.,0.,10002.,0.93247033722,1.31049885231,481.
6.22,8458.,34.,14.,1496.,0.,0.,10002.,0.891670937348,1.36373202183,442.
6.24,8445.,37.,12.,1507.,0.,0.,10001.,0.849109741317,1.19334342023,481.
6.26,8435.,25.,19.,1519.,0.,0.,9998.,0.806787760853,1.67811854257,325.
6.28,8416.,23.,20.,1536.,0.,0.,9995.,0.76404941335,1.72741606497,299.
6.3,8410.,20.,20.,1546.,0.,0.,9996.,0.723274652378,1.88051409618,260.
6.32,8397.,26.,16.,1555.,0.,0.,9994.,0.683808132959,1.36761626592,338.
6.34,8383.,21.,18.,1574.,0.,0.,9996.,0.646319841759,1.60041103674,273.
6.36,8378.,19.,5.,1595.,0.,0.,9997.,0.612462012161,1.67621182276,247.
6.38,8373.,16.,9.,1600.,0.,0.,9998.,0.581954058406,1.89135068982,208.
6.4,8375.,12.,8.,1606.,0.,0.,10001.,0.555616480723,2.40767141647,156.
6.42,8372.,15.,6.,1611.,0.,0.,10004.,0.533155665443,1.84827297353,195.
6.44,8375.,10.,9.,1612.,0.,0.,10006.,0.515679992349,2.68153596021,130.
6.46,8377.,9.,7.,1614.,0.,0.,10007.,0.503005254375,2.90625258083,117.
6.48,8381.,8.,3.,1614.,0.,0.,10006.,0.495562159803,3.22115403872,104.
6.5,8382.,9.,2.,1612.,0.,0.,10005.,0.493078777446,2.84889960302,117.
6.52,8389.,2.,3.,1615.,0.,0.,10009.,0.495886516973,12.8930494413,26.
6.54,8393.,3.,1.,1610.,0.,0.,10007.,0.503965990207,8.73541049693,39.
6.56,8399.,2.,1.,1605.,0.,0.,10007.,0.517106082279,13.4447581392,26.
6.58,8404.,1.,1.,1603.,0.,0.,10009.,0.534926171374,27.8161609115,13.
6.6,8401.,1.,0.,1604.,0.,0.,10006.,0.55706287606,28.9672695551,13.
6.62,8404.,2.,0.,1601.,0.,0.,10007.,0.583583341471,15.1731668783,26.
6.64,8408.,1.,3.,1595.,0.,0.,10007.,0.614040895182,31.9301265495,13.
6.66,8411.,3.,0.,1595.,0.,0.,10009.,0.647636346012,11.2256966642,39.
6.68,8413.,1.,1.,1593.,0.,0.,10008.,0.684152701167,35.5759404607,13.
6.7,8420.,1.,0.,1590.,0.,0.,10011.,0.723049661305,37.5985823879,13.
6.72,8417.,1.,0.,1590.,0.,0.,10008.,0.763147610501,39.6836757461,13.
6.74,8414.,1.,0.,1587.,0.,0.,10002.,0.804457313323,41.8317802928,13.
6.76,8415.,1.,1.,1584.,0.,0.,10001.,0.846093365682,43.9968550155,13.
6.78,8415.,1.,0.,1581.,0.,0.,9997.,0.887581434039,46.15423457,13.
6.8,8415.,1.,0.,1580.,0.,0.,9996.,0.927847768188,48.2480839458,13.
6.82,8416.,0.,1.,1578.,0.,0.,9995.,0.96662712509,inf,0.
6.84,8414.,2.,1.,1577.,0.,0.,9994.,1.00284690922,26.0740196397,26.
6.86,8416.,5.,1.,1572.,0.,0.,9994.,1.03665460827,10.781207926,65.
6.88,8421.,5.,3.,1570.,0.,0.,9999.,1.06700243947,11.0968253704,65.
6.9,8418.,6.,5.,1570.,0.,0.,9999.,1.0930646229,9.47322673181,78.
6.92,8411.,12.,0.,1574.,0.,0.,9997.,1.11458788146,4.82988081966,156.
6.94,8406.,9.,5.,1571.,0.,0.,9991.,1.13224583861,6.54186484532,117.
6.96,8394.,15.,4.,1576.,0.,0.,9989.,1.14365109748,3.96465713795,195.
6.98,8385.,20.,7.,1574.,0.,0.,9986.,1.15052084923,2.991354208,260.
7.,8379.,20.,8.,1581.,0.,0.,9988.,1.15206289416,2.99536352482,260.
7.02,8369.,23.,15.,1583.,0.,0.,9990.,1.14786567064,2.5951745597,299.
7.04,8349.,32.,16.,1590.,0.,0.,9987.,1.13774781598,1.84884020096,416.
7.06,8335.,26.,20.,1603.,0.,0.,9984.,1.12346963358,2.24693926716,338.
7.08,8318.,37.,13.,1615.,0.,0.,9983.,1.10380973721,1.55130017121,481.
7.1,8307.,36.,15.,1623.,0.,0.,9981.,1.08059670866,1.56086191252,468.
7.12,8297.,28.,21.,1636.,0.,0.,9982.,1.05308114734,1.95572213077,364.
7.14,8276.,37.,21.,1650.,0.,0.,9984.,1.02043092212,1.43411913379,481.
7.16,8258.,43.,18.,1666.,0.,0.,9985.,0.985140757307,1.19133300884,559.
7.18,8242.,36.,29.,1675.,0.,0.,9982.,0.947875055162,1.36915285746,468.
7.2,8218.,45.,22.,1697.,0.,0.,9982.,0.907397181568,1.04854785426,585.
7.22,8196.,46.,24.,1714.,0.,0.,9980.,0.865954731585,0.978905348748,598.
7.24,8187.,45.,17.,1735.,0.,0.,9984.,0.824570540611,0.95283706915,585.
7.26,8176.,35.,19.,1753.,0.,0.,9983.,0.783190044698,1.16359663784,455.
7.28,8161.,33.,20.,1769.,0.,0.,9983.,0.741789744886,1.16888081012,429.
7.3,8148.,31.,21.,1783.,0.,0.,9983.,0.701654712039,1.17696919439,403.
7.32,8145.,28.,10.,1804.,0.,0.,9987.,0.663751464805,1.23268129178,364.
7.34,8142.,21.,8.,1816.,0.,0.,9987.,0.628304714194,1.55580214943,273.
7.36,8142.,14.,5.,1828.,0.,0.,9989.,0.595686253124,2.21254894018,182.
7.38,8137.,13.,7.,1827.,0.,0.,9984.,0.566344237633,2.26537695053,169.
7.4,8130.,15.,8.,1828.,0.,0.,9981.,0.540443404196,1.87353713455,195.
7.42,8126.,10.,2.,1837.,0.,0.,9975.,0.518994081784,2.69876922527,130.
7.44,8133.,7.,4.,1832.,0.,0.,9976.,0.502285101318,3.73126075265,91.
7.46,8135.,7.,1.,1834.,0.,0.,9977.,0.489942925522,3.63957601817,91.
7.48,8137.,6.,2.,1831.,0.,0.,9976.,0.482581501641,4.18237301422,78.
7.5,8142.,2.,1.,1829.,0.,0.,9974.,0.480449207269,12.491679389,26.
7.52,8151.,1.,1.,1823.,0.,0.,9976.,0.483411800402,25.1374136209,13.
7.54,8160.,1.,0.,1816.,0.,0.,9977.,0.491448589092,25.5553266328,13.
7.56,8163.,1.,0.,1813.,0.,0.,9977.,0.504087338193,26.212541586,13.
7.58,8161.,1.,0.,1805.,0.,0.,9967.,0.521647837653,27.1256875579,13.
7.6,8168.,1.,0.,1798.,0.,0.,9967.,0.543732135999,28.274071072,13.
7.62,8172.,0.,1.,1794.,0.,0.,9967.,0.569750404399,inf,0.
7.64,8180.,1.,1.,1786.,0.,0.,9968.,0.59972722903,31.1858159096,13.
7.66,8182.,1.,1.,1782.,0.,0.,9966.,0.632721893792,32.9015384772,13.
7.68,8182.,1.,0.,1781.,0.,0.,9964.,0.668305768933,34.7518999845,13.
7.7,8188.,2.,0.,1776.,0.,0.,9966.,0.706302019557,18.3638525085,26.
7.72,8190.,1.,1.,1774.,0.,0.,9966.,0.745695525551,38.7761673286,13.
7.74,8197.,1.,1.,1769.,0.,0.,9968.,0.786383246526,40.8919288193,13.
7.76,8202.,1.,0.,1765.,0.,0.,9968.,0.827407269645,43.0251780215,13.
7.78,8204.,1.,0.,1762.,0.,0.,9967.,0.867930548639,45.1323885292,13.
7.8,8210.,2.,0.,1758.,0.,0.,9970.,0.90760494493,23.5977285682,26.
7.82,8211.,5.,1.,1756.,0.,0.,9973.,0.945162065482,9.82968548102,65.
7.84,8215.,6.,4.,1749.,0.,0.,9974.,0.981091880824,8.50279630048,78.
7.86,8212.,7.,6.,1746.,0.,0.,9971.,1.01385985119,7.53153032312,91.
7.88,8212.,11.,2.,1748.,0.,0.,9973.,1.04323328497,4.93164825622,143.
7.9,8209.,8.,5.,1752.,0.,0.,9974.,1.06859804995,6.94588732465,104.
7.92,8204.,7.,10.,1752.,0.,0.,9973.,1.08977341376,8.09545964504,91.
7.94,8200.,12.,7.,1754.,0.,0.,9973.,1.10649215675,4.79479934591,156.
7.96,8196.,12.,6.,1759.,0.,0.,9973.,1.11846585425,4.84668536842,156.
7.98,8196.,12.,7.,1757.,0.,0.,9972.,1.12616666486,4.88005554772,156.
8.,8192.,14.,7.,1759.,0.,0.,9972.,1.12815872387,4.19030383153,182.
8.02,8176.,22.,8.,1767.,0.,0.,9973.,1.12330593036,2.65508674449,286.
8.04,8169.,24.,9.,1773.,0.,0.,9975.,1.11455778844,2.41487520828,312.
8.06,8161.,22.,10.,1780.,0.,0.,9973.,1.1012295721,2.60290626133,286.
8.08,8152.,20.,9.,1790.,0.,0.,9971.,1.08308322807,2.81601639299,260.
8.1,8139.,28.,12.,1791.,0.,0.,9970.,1.0599109422,1.96840603551,364.
8.12,8119.,34.,12.,1805.,0.,0.,9970.,1.03172913906,1.57793868326,442.
8.14,8116.,30.,15.,1811.,0.,0.,9972.,1.00190713506,1.73663903411,390.
8.16,8103.,27.,16.,1826.,0.,0.,9972.,0.967910156081,1.86412326356,351.
8.18,8094.,29.,13.,1837.,0.,0.,9973.,0.931694283037,1.67062423165,377.
8.2,8080.,33.,24.,1838.,0.,0.,9975.,0.892785875917,1.40681410751,429.
8.22,8062.,36.,24.,1853.,0.,0.,9975.,0.852223823583,1.2309899674,468.
8.24,8041.,46.,22.,1866.,0.,0.,9975.,0.810596556409,0.916326542028,598.
8.26,8029.,36.,21.,1887.,0.,0.,9973.,0.769879907772,1.11204875567,468.
8.28,8016.,26.,26.,1901.,0.,0.,9969.,0.729633273243,1.45926654649,338.
8.3,8009.,27.,12.,1921.,0.,0.,9969.,0.690653464291,1.33014741271,351.
8.32,8004.,26.,10.,1925.,0.,0.,9965.,0.653701122444,1.30740224489,338.
8.34,8004.,23.,15.,1923.,0.,0.,9965.,0.619019096461,1.39952143548,299.
8.36,7999.,21.,11.,1933.,0.,0.,9964.,0.586692411395,1.45276216155,273.
8.38,7996.,21.,8.,1941.,0.,0.,9966.,0.557535653478,1.38056447528,273.
8.4,7995.,19.,5.,1946.,0.,0.,9965.,0.532322589212,1.45688287574,247.
8.42,7995.,10.,11.,1948.,0.,0.,9964.,0.511191049488,2.65819345734,130.
8.44,7994.,8.,4.,1956.,0.,0.,9962.,0.494394432138,3.2135638089,104.
8.46,7995.,8.,3.,1956.,0.,0.,9962.,0.482236231431,3.1345355043,104.
8.48,8002.,5.,1.,1956.,0.,0.,9964.,0.475146596928,4.94152460805,65.
8.5,8010.,2.,1.,1954.,0.,0.,9967.,0.472992010337,12.2977922688,26.
8.52,8019.,1.,1.,1947.,0.,0.,9968.,0.475964957239,24.7501777764,13.
8.54,8017.,4.,0.,1948.,0.,0.,9969.,0.483223663586,6.28190762662,52.
8.56,8021.,1.,2.,1944.,0.,0.,9968.,0.495765671661,25.7798149264,13.
8.58,8026.,1.,1.,1943.,0.,0.,9971.,0.51281288764,26.6662701573,13.
8.6,8034.,2.,0.,1939.,0.,0.,9975.,0.534383024834,13.8939586457,26.
8.62,8036.,0.,3.,1935.,0.,0.,9974.,0.559875297987,inf,0.
8.64,8041.,0.,0.,1932.,0.,0.,9973.,0.589240698953,inf,0.
8.66,8047.,0.,0.,1928.,0.,0.,9975.,0.6217207569,inf,0.
8.68,8054.,0.,0.,1924.,0.,0.,9978.,0.656927707125,inf,0.
8.7,8062.,0.,0.,1918.,0.,0.,9980.,0.6944576229,inf,0.
8.72,8072.,0.,0.,1911.,0.,0.,9983.,0.733700137326,inf,0.
8.74,8084.,0.,0.,1900.,0.,0.,9984.,0.774299679045,inf,0.
8.76,8088.,0.,0.,1897.,0.,0.,9985.,0.8145179697,inf,0.
8.78,8091.,0.,0.,1894.,0.,0.,9985.,0.854432802667,inf,0.
8.8,8093.,1.,0.,1890.,0.,0.,9984.,0.893416199032,46.4576423497,13.
8.82,8097.,3.,0.,1885.,0.,0.,9985.,0.930919483067,16.1359377065,39.
8.84,8097.,5.,0.,1882.,0.,0.,9984.,0.966030958912,10.0467219727,65.
8.86,8096.,5.,1.,1880.,0.,0.,9982.,0.99843692686,10.3837440393,65.
8.88,8098.,7.,1.,1876.,0.,0.,9982.,1.02782344596,7.63525988429,91.
8.9,8105.,6.,3.,1868.,0.,0.,9982.,1.05421438796,9.13652469563,78.
8.92,8109.,6.,5.,1862.,0.,0.,9982.,1.07618295893,9.32691897742,78.
8.94,8111.,9.,3.,1859.,0.,0.,9982.,1.09349585804,6.3179760687,117.
8.96,8105.,10.,5.,1861.,0.,0.,9981.,1.10516103109,5.74683736167,130.
8.98,8103.,14.,4.,1861.,0.,0.,9982.,1.11227265759,4.13129844249,182.
9.,8104.,14.,6.,1859.,0.,0.,9983.,1.11481009697,4.14072321731,182.
9.02,8103.,12.,8.,1861.,0.,0.,9984.,1.11204984657,4.81888266845,156.
9.04,8094.,20.,9.,1861.,0.,0.,9984.,1.10332949205,2.86865667933,260.
9.06,8087.,17.,15.,1868.,0.,0.,9987.,1.08971442461,3.33324412233,221.
9.08,8077.,18.,13.,1880.,0.,0.,9988.,1.0712921563,3.09484400709,234.
9.1,8059.,25.,15.,1886.,0.,0.,9985.,1.047916243,2.17966578544,325.
9.12,8037.,31.,12.,1899.,0.,0.,9979.,1.02038780383,1.71161825159,403.
9.14,8024.,33.,16.,1904.,0.,0.,9977.,0.990053466464,1.56008425019,429.
9.16,8015.,28.,20.,1915.,0.,0.,9978.,0.956822776524,1.77695658497,364.
9.18,7996.,35.,20.,1925.,0.,0.,9976.,0.920136788008,1.36706037075,455.
9.2,7990.,31.,23.,1935.,0.,0.,9979.,0.882487599045,1.48030177904,403.
9.22,7965.,37.,19.,1955.,0.,0.,9976.,0.841885676698,1.18319068076,481.
9.24,7949.,38.,18.,1968.,0.,0.,9973.,0.80148292528,1.09676610828,494.
9.26,7932.,39.,21.,1981.,0.,0.,9973.,0.760578830297,1.01410510706,507.
9.28,7921.,37.,13.,2002.,0.,0.,9973.,0.720696997083,1.01287145536,481.
9.3,7909.,32.,19.,2016.,0.,0.,9976.,0.681551427822,1.10752107021,416.
9.32,7898.,31.,15.,2033.,0.,0.,9977.,0.644268074059,1.08070773713,403.
9.34,7889.,17.,19.,2050.,0.,0.,9975.,0.609513489646,1.86439420362,221.
9.36,7888.,19.,8.,2059.,0.,0.,9974.,0.577970977325,1.58181530636,247.
9.38,7884.,14.,6.,2071.,0.,0.,9975.,0.549230256019,2.03999809379,182.
9.4,7888.,11.,9.,2070.,0.,0.,9978.,0.524514058717,2.47952100484,143.
9.42,7892.,9.,9.,2070.,0.,0.,9980.,0.503796362132,2.91082342565,117.
9.44,7896.,11.,10.,2065.,0.,0.,9982.,0.487355126406,2.30386059756,143.
9.46,7894.,7.,10.,2071.,0.,0.,9982.,0.475190185891,3.52998423805,91.
9.48,7898.,4.,5.,2077.,0.,0.,9984.,0.468031789425,6.08441326252,52.
9.5,7908.,4.,0.,2077.,0.,0.,9989.,0.465940428235,6.05722556706,52.
9.52,7916.,2.,0.,2071.,0.,0.,9989.,0.468863653495,12.1904549909,26.
9.54,7924.,3.,0.,2062.,0.,0.,9989.,0.476661812201,8.26213807816,39.
9.56,7933.,2.,1.,2051.,0.,0.,9987.,0.489393693943,12.7242360425,26.
9.58,7943.,2.,0.,2047.,0.,0.,9992.,0.506443065679,13.1675197077,26.
9.6,7949.,1.,1.,2040.,0.,0.,9991.,0.527882504977,27.4498902588,13.
9.62,7959.,1.,0.,2036.,0.,0.,9996.,0.553290227638,28.7710918372,13.
9.64,7963.,1.,0.,2032.,0.,0.,9996.,0.582182251312,30.2734770682,13.
9.66,7965.,1.,1.,2026.,0.,0.,9993.,0.614276870177,31.9423972492,13.
9.68,7969.,1.,1.,2020.,0.,0.,9991.,0.649148894162,33.7557424964,13.
9.7,7979.,0.,1.,2011.,0.,0.,9991.,0.686551314487,inf,0.
9.72,7985.,0.,0.,2008.,0.,0.,9993.,0.725066017971,inf,0.
9.74,7984.,0.,0.,2006.,0.,0.,9990.,0.764262211702,inf,0.
9.76,7991.,2.,0.,2000.,0.,0.,9993.,0.804105143163,20.9067337222,26.
9.78,7993.,2.,1.,1994.,0.,0.,9990.,0.843661257306,21.93519269,26.
9.8,7998.,2.,0.,1990.,0.,0.,9990.,0.882398510143,22.9423612637,26.
9.82,7997.,3.,1.,1987.,0.,0.,9988.,0.919146233653,15.93186805,39.
9.84,8000.,2.,3.,1980.,0.,0.,9985.,0.954362564598,24.8134266796,26.
9.86,8001.,6.,2.,1977.,0.,0.,9986.,0.986325836764,8.54815725195,78.
9.88,8000.,9.,5.,1970.,0.,0.,9984.,1.01518157752,5.86549355899,117.
9.9,7997.,8.,4.,1973.,0.,0.,9982.,1.04016686743,6.76108463828,104.
9.92,8002.,8.,4.,1968.,0.,0.,9982.,1.0619824932,6.90288620582,104.
9.94,8002.,12.,2.,1966.,0.,0.,9982.,1.07880086994,4.67480376973,156.
9.96,7995.,13.,7.,1964.,0.,0.,9979.,1.09038042133,4.36152168532,169.
9.98,7996.,14.,6.,1967.,0.,0.,9983.,1.09747516752,4.0763363365,182.
10.,7991.,13.,10.,1971.,0.,0.,9985.,1.09904530094,4.39618120377,169.
