t,s,e,i,r,c,o,n,reff,coal,reportr
5.,6889.,3.,27.,3080.,0.,0.,9999.,1.08042569029,18.7273786317,39.
5.02,6858.,29.,18.,3091.,0.,0.,9996.,1.07346274064,1.92482974183,377.
5.04,6847.,33.,13.,3103.,0.,0.,9996.,1.06451903931,1.67742394072,429.
5.06,6845.,29.,12.,3113.,0.,0.,9999.,1.05198596122,1.8863196546,377.
5.08,6839.,24.,17.,3120.,0.,0.,10000.,1.03457441303,2.24157789491,312.
5.1,6827.,33.,16.,3124.,0.,0.,10000.,1.01217624841,1.59494439144,429.
5.12,6825.,38.,12.,3127.,0.,0.,10002.,0.987203922939,1.35091063139,494.
5.14,6812.,40.,16.,3136.,0.,0.,10004.,0.957197180633,1.24435633482,520.
5.16,6802.,38.,17.,3146.,0.,0.,10003.,0.924933672106,1.2656987092,494.
5.18,6797.,30.,24.,3150.,0.,0.,10001.,0.890928077453,1.54427533425,390.
5.2,6783.,37.,17.,3165.,0.,0.,10002.,0.853525646211,1.19954955684,481.
5.22,6777.,29.,19.,3180.,0.,0.,10005.,0.815599455918,1.46245419682,377.
5.24,6769.,26.,16.,3195.,0.,0.,10006.,0.776791323208,1.55358264642,338.
5.26,6772.,25.,13.,3193.,0.,0.,10003.,0.739276295477,1.53769469459,325.
5.28,6767.,26.,9.,3201.,0.,0.,10003.,0.700966365247,1.40193273049,338.
5.3,6756.,23.,11.,3209.,0.,0.,9999.,0.663283697335,1.49959792441,299.
5.32,6753.,21.,10.,3214.,0.,0.,9998.,0.627719795612,1.55435377961,273.
5.34,6740.,21.,17.,3218.,0.,0.,9996.,0.593390614321,1.46934818784,273.
5.36,6736.,21.,15.,3221.,0.,0.,9993.,0.562532265542,1.39293703848,273.
5.38,6737.,19.,10.,3231.,0.,0.,9997.,0.534749455791,1.46352482638,247.
5.4,6735.,18.,9.,3237.,0.,0.,9999.,0.510325789577,1.47427450322,234.
5.42,6737.,14.,8.,3241.,0.,0.,10000.,0.490114772625,1.82042629832,182.
5.44,6747.,13.,5.,3237.,0.,0.,10002.,0.474583437971,1.89833375188,169.
5.46,6748.,9.,10.,3237.,0.,0.,10004.,0.462830585031,2.67413226907,117.
5.48,6749.,9.,2.,3244.,0.,0.,10004.,0.455786327924,2.6334321169,117.
5.5,6757.,3.,4.,3242.,0.,0.,10006.,0.453849562336,7.86672574716,39.
5.52,6765.,3.,1.,3237.,0.,0.,10006.,0.456775551829,7.91744289836,39.
5.54,6776.,2.,2.,3226.,0.,0.,10006.,0.464658149418,12.0811118849,26.
5.56,6785.,1.,5.,3214.,0.,0.,10005.,0.477113249564,24.8098889773,13.
5.58,6790.,1.,4.,3208.,0.,0.,10003.,0.493822360361,25.6787627387,13.
5.6,6797.,1.,2.,3202.,0.,0.,10002.,0.51486918998,26.773197879,13.
5.62,6803.,2.,0.,3199.,0.,0.,10004.,0.539610365974,14.0298695153,26.
5.64,6819.,1.,1.,3183.,0.,0.,10004.,0.568837545662,29.5795523744,13.
5.66,6825.,0.,3.,3175.,0.,0.,10003.,0.600453541439,inf,0.
5.68,6826.,1.,0.,3176.,0.,0.,10003.,0.63418829553,32.9777913676,13.
5.7,6833.,1.,0.,3167.,0.,0.,10001.,0.670709169778,34.8768768285,13.
5.72,6841.,0.,1.,3155.,0.,0.,9997.,0.709057034818,inf,0.
5.74,6848.,1.,0.,3147.,0.,0.,9996.,0.748096468452,38.9010163595,13.
5.76,6859.,0.,0.,3137.,0.,0.,9996.,0.787906903476,inf,0.
5.78,6869.,0.,0.,3127.,0.,0.,9996.,0.827415788365,inf,0.
5.8,6873.,0.,1.,3123.,0.,0.,9997.,0.865283176692,inf,0.
5.82,6880.,1.,1.,3116.,0.,0.,9998.,0.902078036822,46.9080579147,13.
5.84,6886.,4.,0.,3113.,0.,0.,10003.,0.936355963852,12.1726275301,52.
5.86,6889.,6.,1.,3108.,0.,0.,10004.,0.968016937373,8.3894801239,78.
5.88,6893.,6.,3.,3101.,0.,0.,10003.,0.996940126774,8.64014776538,78.
5.9,6895.,3.,4.,3098.,0.,0.,10000.,1.02225798049,17.7191383285,39.
5.92,6904.,4.,4.,3095.,0.,0.,10007.,1.04367675886,13.5677978652,52.
5.94,6909.,9.,3.,3084.,0.,0.,10005.,1.06118513993,6.1312919196,117.
5.96,6908.,13.,5.,3080.,0.,0.,10006.,1.07292949256,4.29171797025,169.
5.98,6906.,16.,9.,3076.,0.,0.,10007.,1.07978779878,3.50931034604,208.
6.,6902.,15.,6.,3085.,0.,0.,10008.,1.08149108592,3.74916909786,195.
6.02,6895.,18.,8.,3086.,0.,0.,10007.,1.07806789351,3.11441835904,234.
6.04,6884.,26.,9.,3084.,0.,0.,10003.,1.06952255012,2.13904510024,338.
6.06,6881.,23.,19.,3081.,0.,0.,10004.,1.05699013713,2.38971683176,299.
6.08,6870.,25.,10.,3096.,0.,0.,10001.,1.03916004328,2.16145289002,325.
6.1,6862.,24.,18.,3096.,0.,0.,10000.,1.01736537522,2.20429164631,312.
6.12,6843.,34.,19.,3104.,0.,0.,10000.,0.990005499188,1.51412605758,442.
6.14,6833.,37.,11.,3117.,0.,0.,9998.,0.960724227435,1.35020702234,481.
6.16,6825.,33.,14.,3129.,0.,0.,10001.,0.928246798051,1.4626919242,429.
6.18,6815.,29.,12.,3143.,0.,0.,9999.,0.893466132743,1.60207720354,377.
6.2,6807.,31.,10.,3151.,0.,0.,9999.,0.856802629043,1.43721731323,403.
6.22,6811.,24.,18.,3150.,0.,0.,10003.,0.819855182328,1.77635289504,312.
6.24,6798.,29.,16.,3157.,0.,0.,10000.,0.780587352876,1.39967387412,377.
6.26,6789.,36.,7.,3170.,0.,0.,10002.,0.741206226271,1.07063121573,468.
6.28,6784.,30.,17.,3171.,0.,0.,10002.,0.702797585685,1.21818248185,390.
6.3,6774.,29.,18.,3181.,0.,0.,10002.,0.66485140766,1.19214735167,377.
6.32,6765.,32.,20.,3184.,0.,0.,10001.,0.628646614449,1.02155074848,416.
6.34,6763.,31.,11.,3196.,0.,0.,10001.,0.595117859781,0.998262216407,403.
6.36,6763.,21.,15.,3203.,0.,0.,10002.,0.564278864515,1.39726195023,273.
6.38,6770.,15.,15.,3202.,0.,0.,10002.,0.537100200497,1.86194736172,195.
6.4,6765.,13.,7.,3214.,0.,0.,9999.,0.512598955677,2.05039582271,169.
6.42,6772.,9.,6.,3214.,0.,0.,10001.,0.492611751177,2.84620122902,117.
6.44,6771.,12.,6.,3210.,0.,0.,9999.,0.476414491811,2.06446279785,156.
6.46,6779.,9.,2.,3211.,0.,0.,10001.,0.465096280434,2.68722295362,117.
6.48,6786.,5.,4.,3205.,0.,0.,10000.,0.458468396459,4.76807132317,65.
6.5,6789.,3.,3.,3201.,0.,0.,9996.,0.456455097876,7.91188836318,39.
6.52,6800.,3.,1.,3192.,0.,0.,9996.,0.459598088561,7.96636686838,39.
6.54,6807.,2.,0.,3187.,0.,0.,9996.,0.467250917472,12.1485238543,26.
6.56,6811.,2.,0.,3182.,0.,0.,9995.,0.479420720228,12.4649387259,26.
6.58,6813.,3.,0.,3181.,0.,0.,9997.,0.495792488064,8.59373645978,39.
6.6,6817.,2.,1.,3174.,0.,0.,9994.,0.516797534861,13.4367359064,26.
6.62,6824.,1.,1.,3171.,0.,0.,9997.,0.541655081834,28.1660642554,13.
6.64,6838.,0.,3.,3159.,0.,0.,10000.,0.5706506851,inf,0.
6.66,6848.,3.,0.,3150.,0.,0.,10001.,0.602597531241,10.4450238748,39.
6.68,6854.,2.,0.,3145.,0.,0.,10001.,0.636917057714,16.5598435006,26.
6.7,6869.,1.,1.,3134.,0.,0.,10005.,0.673973272011,35.0466101446,13.
6.72,6876.,0.,1.,3128.,0.,0.,10005.,0.712114857431,inf,0.
6.74,6890.,0.,0.,3118.,0.,0.,10008.,0.75178217732,inf,0.
6.76,6896.,3.,0.,3111.,0.,0.,10010.,0.791049254575,13.7115204126,39.
6.78,6900.,2.,2.,3104.,0.,0.,10008.,0.830153357609,21.5839872978,26.
6.8,6909.,5.,1.,3095.,0.,0.,10010.,0.868685802096,9.0343323418,65.
6.82,6911.,5.,2.,3088.,0.,0.,10006.,0.905418153209,9.41634879337,65.
6.84,6919.,2.,6.,3077.,0.,0.,10004.,0.940749246041,24.4594803971,26.
6.86,6921.,6.,2.,3076.,0.,0.,10005.,0.972416256909,8.42760755988,78.
6.88,6922.,5.,7.,3069.,0.,0.,10003.,1.00113442007,10.4117979687,65.
6.9,6920.,9.,5.,3068.,0.,0.,10002.,1.02575934777,5.92660956489,117.
6.92,6918.,10.,4.,3069.,0.,0.,10001.,1.04642055013,5.44138686069,130.
6.94,6923.,10.,3.,3065.,0.,0.,10001.,1.06376075609,5.53155593165,130.
6.96,6923.,9.,6.,3063.,0.,0.,10001.,1.07579682268,6.2157149755,117.
6.98,6920.,11.,5.,3065.,0.,0.,10001.,1.08262589027,5.11786784493,143.
7.,6921.,14.,6.,3059.,0.,0.,10000.,1.0853358165,4.03124731844,182.
7.02,6917.,19.,7.,3059.,0.,0.,10002.,1.08204834977,2.96139548359,247.
7.04,6921.,13.,13.,3059.,0.,0.,10006.,1.07494861292,4.29979445167,169.
7.06,6911.,17.,9.,3067.,0.,0.,10004.,1.06159843594,3.24724227463,221.
7.08,6903.,18.,16.,3066.,0.,0.,10003.,1.04394287404,3.01583496946,234.
7.1,6894.,22.,20.,3068.,0.,0.,10004.,1.02170103931,2.41492972928,286.
7.12,6876.,27.,14.,3086.,0.,0.,10003.,0.994481403119,1.91529751712,351.
7.14,6862.,28.,11.,3102.,0.,0.,10003.,0.964319390079,1.79087886729,364.
7.16,6845.,33.,13.,3109.,0.,0.,10000.,0.931060031882,1.46712489872,429.
7.18,6839.,32.,16.,3113.,0.,0.,10000.,0.896522940623,1.45684977851,416.
7.2,6830.,37.,14.,3120.,0.,0.,10001.,0.85952573542,1.20798211464,481.
7.22,6829.,27.,20.,3126.,0.,0.,10002.,0.822104068018,1.5833115384,351.
7.24,6818.,34.,19.,3131.,0.,0.,10002.,0.782727328013,1.19711238402,442.
7.26,6815.,30.,15.,3145.,0.,0.,10005.,0.743821740054,1.28929101609,390.
7.28,6815.,23.,13.,3152.,0.,0.,10003.,0.705938492561,1.59603485275,299.
7.3,6807.,25.,8.,3158.,0.,0.,9998.,0.66835756591,1.39018373709,325.
7.32,6812.,24.,5.,3160.,0.,0.,10001.,0.633014151903,1.37153066246,312.
7.34,6816.,19.,12.,3155.,0.,0.,10002.,0.599721688754,1.64134356922,247.
7.36,6818.,14.,14.,3157.,0.,0.,10003.,0.568810984521,2.11272651394,182.
7.38,6821.,10.,5.,3166.,0.,0.,10002.,0.541146302451,2.81396077275,130.
7.4,6833.,11.,1.,3161.,0.,0.,10006.,0.517389256805,2.44584012308,143.
7.42,6838.,6.,3.,3157.,0.,0.,10004.,0.497263587545,4.30961775873,78.
7.44,6847.,4.,3.,3150.,0.,0.,10004.,0.481521144965,6.25977488455,52.
7.46,6854.,5.,3.,3147.,0.,0.,10009.,0.469866054477,4.88660696656,65.
7.48,6861.,4.,4.,3140.,0.,0.,10009.,0.463118658593,6.0205425617,52.
7.5,6867.,3.,2.,3138.,0.,0.,10010.,0.461053656352,7.99159671011,39.
7.52,6877.,0.,2.,3133.,0.,0.,10012.,0.464059568607,inf,0.
7.54,6882.,0.,0.,3130.,0.,0.,10012.,0.471644187943,inf,0.
7.56,6887.,0.,0.,3125.,0.,0.,10012.,0.483947176317,inf,0.
7.58,6891.,0.,0.,3119.,0.,0.,10010.,0.500817410014,inf,0.
7.6,6897.,0.,0.,3111.,0.,0.,10008.,0.522130921694,inf,0.
7.62,6906.,1.,0.,3097.,0.,0.,10004.,0.547780271559,28.4845741211,13.
7.64,6914.,1.,0.,3091.,0.,0.,10006.,0.576647114507,29.9856499544,13.
7.66,6918.,0.,0.,3087.,0.,0.,10005.,0.608513879464,inf,0.
7.68,6923.,0.,0.,3083.,0.,0.,10006.,0.643007502798,inf,0.
7.7,6928.,1.,0.,3078.,0.,0.,10007.,0.679626382934,35.3405719125,13.
7.72,6932.,1.,0.,3074.,0.,0.,10007.,0.717771030582,37.3240935903,13.
7.74,6941.,1.,0.,3063.,0.,0.,10005.,0.757573983524,39.3938471432,13.
7.76,6951.,0.,1.,3057.,0.,0.,10009.,0.79743804125,inf,0.
7.78,6958.,1.,0.,3054.,0.,0.,10013.,0.836713435996,43.5090986718,13.
7.8,6964.,2.,1.,3046.,0.,0.,10013.,0.875338749989,22.7588074997,26.
7.82,6973.,2.,2.,3039.,0.,0.,10016.,0.912628763851,23.7283478601,26.
7.84,6968.,5.,5.,3036.,0.,0.,10014.,0.946465496464,9.84324116323,65.
7.86,6967.,10.,0.,3037.,0.,0.,10014.,0.977999601875,5.08559792975,130.
7.88,6971.,6.,5.,3031.,0.,0.,10013.,1.00721441708,8.72919161473,78.
7.9,6966.,11.,4.,3027.,0.,0.,10008.,1.03195892772,4.8783512947,143.
7.92,6972.,9.,2.,3025.,0.,0.,10008.,1.0538509984,6.08891687967,117.
7.94,6975.,8.,6.,3020.,0.,0.,10009.,1.07089424037,6.96081256241,104.
7.96,6964.,16.,9.,3018.,0.,0.,10007.,1.08151915472,3.51493725282,208.
7.98,6953.,18.,13.,3021.,0.,0.,10005.,1.08735380357,3.14124432142,234.
8.,6954.,17.,6.,3028.,0.,0.,10005.,1.08996582015,3.33401309692,221.
8.02,6949.,21.,14.,3019.,0.,0.,10003.,1.08694553892,2.6914841916,273.
8.04,6948.,29.,8.,3020.,0.,0.,10005.,1.07925003086,1.93520695189,377.
8.06,6949.,19.,19.,3018.,0.,0.,10005.,1.06732892421,2.92111073995,247.
8.08,6928.,31.,20.,3026.,0.,0.,10005.,1.04751419195,1.75712058004,403.
8.1,6913.,36.,18.,3039.,0.,0.,10006.,1.02431208703,1.47956190348,468.
8.12,6894.,42.,17.,3051.,0.,0.,10004.,0.996985088969,1.2343624911,546.
8.14,6890.,34.,19.,3064.,0.,0.,10007.,0.967867209629,1.48026749708,442.
8.16,6883.,31.,14.,3081.,0.,0.,10009.,0.935386961003,1.56903619265,403.
8.18,6878.,32.,21.,3080.,0.,0.,10011.,0.900644732468,1.46354769026,416.
8.2,6870.,33.,11.,3098.,0.,0.,10012.,0.863609685437,1.36083950432,429.
8.22,6865.,28.,15.,3101.,0.,0.,10009.,0.825859914805,1.53373984178,364.
8.24,6860.,31.,9.,3108.,0.,0.,10008.,0.787076905221,1.32025803456,403.
8.26,6865.,23.,11.,3111.,0.,0.,10010.,0.748904714302,1.69317587581,299.
8.28,6862.,23.,8.,3113.,0.,0.,10006.,0.710593919647,1.60656016616,299.
8.3,6860.,16.,11.,3118.,0.,0.,10005.,0.673090209055,2.18754317943,208.
8.32,6860.,17.,11.,3118.,0.,0.,10006.,0.637156069507,1.94894797731,221.
8.34,6853.,18.,7.,3127.,0.,0.,10005.,0.602796417457,1.74141187265,234.
8.36,6847.,17.,8.,3133.,0.,0.,10005.,0.571116202776,1.74694367908,221.
8.38,6849.,14.,7.,3136.,0.,0.,10006.,0.543150475012,2.01741605005,182.
8.4,6850.,15.,9.,3137.,0.,0.,10011.,0.51841742983,1.79718042341,195.
8.42,6848.,12.,7.,3141.,0.,0.,10008.,0.49779175664,2.15709761211,156.
8.44,6852.,7.,4.,3142.,0.,0.,10005.,0.481824611056,3.57926853927,91.
8.46,6856.,4.,1.,3144.,0.,0.,10005.,0.470191068895,6.11248389563,52.
8.48,6861.,3.,0.,3139.,0.,0.,10003.,0.463396446451,8.03220507183,39.
8.5,6871.,2.,2.,3129.,0.,0.,10004.,0.461598900919,12.0015714239,26.
8.52,6873.,0.,2.,3126.,0.,0.,10001.,0.464299766437,inf,0.
8.54,6881.,0.,0.,3122.,0.,0.,10003.,0.471999945734,inf,0.
8.56,6889.,0.,1.,3116.,0.,0.,10006.,0.484377994108,inf,0.
8.58,6896.,0.,1.,3110.,0.,0.,10007.,0.501331044226,inf,0.
8.6,6900.,0.,2.,3103.,0.,0.,10005.,0.522514662978,inf,0.
8.62,6906.,1.,1.,3095.,0.,0.,10003.,0.547835033158,28.4874217242,13.
8.64,6911.,0.,2.,3091.,0.,0.,10004.,0.576512139327,inf,0.
8.66,6912.,2.,0.,3089.,0.,0.,10003.,0.608107674495,15.8107995369,26.
8.68,6921.,2.,1.,3078.,0.,0.,10002.,0.643078820292,16.7200493276,26.
8.7,6926.,3.,1.,3072.,0.,0.,10002.,0.679769833104,11.7826771071,39.
8.72,6930.,2.,1.,3070.,0.,0.,10003.,0.717850880916,18.6641229038,26.
8.74,6936.,2.,1.,3063.,0.,0.,10002.,0.757255322642,19.6886383887,26.
8.76,6940.,2.,1.,3059.,0.,0.,10002.,0.796733302495,20.7150658649,26.
8.78,6941.,4.,2.,3054.,0.,0.,10001.,0.835670654779,10.8637185121,52.
8.8,6944.,0.,5.,3049.,0.,0.,9998.,0.874134352701,inf,0.
8.82,6941.,4.,2.,3047.,0.,0.,9994.,0.910440361433,11.8357246986,52.
8.84,6946.,4.,1.,3043.,0.,0.,9994.,0.945365317284,12.2897491247,52.
8.86,6951.,3.,2.,3039.,0.,0.,9995.,0.977608445095,16.9452130483,39.
8.88,6959.,4.,2.,3033.,0.,0.,9998.,1.00698910334,13.0908583434,52.
8.9,6964.,8.,1.,3027.,0.,0.,10000.,1.03248797334,6.71117182668,104.
8.92,6965.,9.,4.,3020.,0.,0.,9998.,1.05384591859,6.08888752962,117.
8.94,6967.,10.,11.,3014.,0.,0.,10002.,1.07041459103,5.56615587338,130.
8.96,6955.,18.,9.,3019.,0.,0.,10001.,1.08076944991,3.12222285531,234.
8.98,6955.,14.,10.,3025.,0.,0.,10004.,1.0877752993,4.04030825453,182.
9.,6938.,22.,5.,3033.,0.,0.,9998.,1.08821936254,2.57215485691,286.
9.02,6933.,22.,6.,3035.,0.,0.,9996.,1.08520227192,2.56502355181,286.
9.04,6932.,19.,7.,3038.,0.,0.,9996.,1.0777341873,2.9495883021,247.
9.06,6928.,15.,9.,3045.,0.,0.,9997.,1.06495497568,3.69184391568,195.
9.08,6928.,19.,9.,3039.,0.,0.,9995.,1.04856223016,2.86974926148,247.
9.1,6915.,22.,13.,3041.,0.,0.,9991.,1.02614672786,2.42543772041,286.
9.12,6899.,33.,7.,3052.,0.,0.,9991.,0.999006359691,1.57419183951,429.
9.14,6894.,39.,6.,3055.,0.,0.,9994.,0.969688820079,1.29291842677,507.
9.16,6882.,35.,17.,3060.,0.,0.,9994.,0.93665478168,1.39160138992,455.
9.18,6866.,45.,15.,3068.,0.,0.,9994.,0.900602726063,1.04069648345,585.
9.2,6861.,32.,25.,3073.,0.,0.,9991.,0.864291155059,1.40447312697,416.
9.22,6844.,36.,18.,3093.,0.,0.,9991.,0.824816949043,1.19140225973,468.
9.24,6847.,24.,22.,3102.,0.,0.,9995.,0.786607131919,1.70431545249,312.
9.26,6836.,31.,19.,3109.,0.,0.,9995.,0.746860267657,1.25279786833,403.
9.28,6833.,25.,17.,3120.,0.,0.,9995.,0.708369565999,1.47340869728,325.
9.3,6825.,24.,17.,3127.,0.,0.,9993.,0.670460225531,1.45266382198,312.
9.32,6822.,20.,19.,3130.,0.,0.,9991.,0.63457792967,1.64990261714,260.
9.34,6817.,18.,13.,3142.,0.,0.,9990.,0.600530168195,1.73486493034,234.
9.36,6813.,19.,13.,3142.,0.,0.,9987.,0.569304459293,1.55809641491,247.
9.38,6821.,14.,4.,3149.,0.,0.,9988.,0.541904817493,2.01278932212,182.
9.4,6822.,11.,3.,3149.,0.,0.,9985.,0.517642743587,2.44703842423,143.
9.42,6821.,16.,4.,3144.,0.,0.,9985.,0.496971204777,1.61515641553,208.
9.44,6831.,12.,7.,3138.,0.,0.,9988.,0.481165488207,2.0850504489,156.
9.46,6826.,9.,8.,3142.,0.,0.,9985.,0.469071313855,2.71018981338,117.
9.48,6833.,7.,7.,3140.,0.,0.,9987.,0.462244677734,3.43381760602,91.
9.5,6842.,6.,3.,3137.,0.,0.,9988.,0.46038698395,3.99002052756,78.
9.52,6844.,7.,2.,3135.,0.,0.,9988.,0.462942460715,3.43900113674,91.
9.54,6846.,3.,2.,3135.,0.,0.,9986.,0.470398569912,8.15357521181,39.
9.56,6852.,3.,0.,3131.,0.,0.,9986.,0.482741361267,8.36751692863,39.
9.58,6858.,3.,1.,3128.,0.,0.,9990.,0.499416904014,8.65655966957,39.
9.6,6860.,2.,3.,3126.,0.,0.,9991.,0.520213527439,13.5255517134,26.
9.62,6869.,0.,2.,3118.,0.,0.,9989.,0.545663619268,inf,0.
9.64,6875.,0.,1.,3112.,0.,0.,9988.,0.574427754379,inf,0.
9.66,6884.,0.,0.,3104.,0.,0.,9988.,0.606553833233,inf,0.
9.68,6890.,0.,1.,3096.,0.,0.,9987.,0.641159939713,inf,0.
9.7,6891.,0.,0.,3092.,0.,0.,9983.,0.677621893503,inf,0.
9.72,6896.,0.,0.,3087.,0.,0.,9983.,0.715760048172,inf,0.
9.74,6900.,0.,0.,3081.,0.,0.,9981.,0.754909925539,inf,0.
9.76,6907.,0.,0.,3075.,0.,0.,9982.,0.794533550552,inf,0.
9.78,6909.,2.,0.,3070.,0.,0.,9981.,0.833484776344,21.6706041849,26.
9.8,6921.,3.,0.,3064.,0.,0.,9988.,0.872111320202,15.1165962168,39.
9.82,6925.,6.,1.,3057.,0.,0.,9989.,0.908796336858,7.87623491944,78.
9.84,6926.,7.,2.,3050.,0.,0.,9985.,0.943492928335,7.00880461049,91.
9.86,6924.,6.,4.,3047.,0.,0.,9981.,0.975177018957,8.45153416429,78.
9.88,6925.,10.,2.,3046.,0.,0.,9983.,1.00357486023,5.21858927322,130.
9.9,6927.,10.,3.,3042.,0.,0.,9982.,1.02885426267,5.35004216589,130.
9.92,6926.,14.,3.,3038.,0.,0.,9981.,1.04972988445,3.89899671368,182.
9.94,6934.,12.,5.,3032.,0.,0.,9983.,1.06737205009,4.62527888374,156.
9.96,6922.,20.,9.,3033.,0.,0.,9984.,1.07747294894,2.80142966725,260.
9.98,6915.,19.,12.,3037.,0.,0.,9983.,1.08379428078,2.96617382107,247.
10.,6907.,28.,9.,3038.,0.,0.,9982.,1.08509353603,2.01517370976,364.
