t,neff
5.,0.273724882105
5.02,0.360388408594
5.04,0.432267678561
5.06,0.525033818483
5.08,0.479633150316
5.1,0.617476651339
5.12,0.559035691525
5.14,0.653282314825
5.16,0.615220093716
5.18,0.57707313941
5.2,0.840445301335
5.22,0.948130211653
5.24,0.615100505768
5.26,0.548016754364
5.28,0.81553012856
5.3,0.639098266793
5.32,0.616201984356
5.34,0.682315355689
5.36,0.620519567322
5.38,0.58360861942
5.4,0.503015774502
5.42,0.485539060081
5.44,0.347031072262
5.46,0.394509428644
5.48,0.239967070846
5.5,0.240837582739
5.52,0.15953577043
5.54,0.156888889355
5.56,0.114621493285
5.58,0.110731269526
5.6,0.0353994856188
5.62,0.
5.64,0.
5.66,0.0303540972248
5.68,0.
5.7,0.
5.72,0.0256544445653
5.74,0.0242953335511
5.76,0.0461608665963
5.78,0.0440025654531
5.8,0.042021045468
5.82,0.
5.84,0.0775930980646
5.86,0.131243446893
5.88,0.0727751609193
5.9,0.141860492665
5.92,0.191138217269
5.94,0.153827966609
5.96,0.219613590786
5.98,0.150968952588
6.,0.251363915009
6.02,0.36969871379
6.04,0.372638849179
6.06,0.32517014157
6.08,0.469721124404
6.1,0.390385973174
6.12,0.528780063594
6.14,0.563912427247
6.16,0.60309431145
6.18,0.849608991079
6.2,0.7591361562
6.22,0.749338148615
6.24,0.763049347443
6.26,0.704868122967
6.28,0.897920591875
6.3,0.569207817537
6.32,0.659209906308
6.34,0.697034228618
6.36,0.703408801971
6.38,0.537749487776
6.4,0.422185991906
6.42,0.329534751843
6.44,0.416581656495
6.46,0.193891902438
6.48,0.196810779692
6.5,0.237210640824
6.52,0.0785196995154
6.54,0.115744909269
6.56,0.112776591051
6.58,0.0362973308203
6.6,0.
6.62,0.0331606557871
6.64,0.031487971528
6.66,0.0298482216184
6.68,0.0282290874821
6.7,0.
6.72,0.
6.74,0.0239575380661
6.76,0.0227595839599
6.78,0.021663620121
6.8,0.0206871254814
6.82,0.0396375020641
6.84,0.0762678995932
6.86,0.0737165724405
6.88,0.0893535325024
6.9,0.104504575945
6.92,0.136498426287
6.94,0.117582026687
6.96,0.265769888317
6.98,0.197720199449
7.,0.180732566286
7.02,0.263512604171
7.04,0.364885298837
7.06,0.352416960135
7.08,0.425874786744
7.1,0.451555131888
7.12,0.337847724087
7.14,0.384626431419
7.16,0.417108476366
7.18,0.668868401984
7.2,0.696996482175
7.22,0.772871341421
7.24,0.880634719763
7.26,0.808189879663
7.28,0.802547947316
7.3,0.740941830147
7.32,0.782362819042
7.34,0.620002824783
7.36,0.591796095417
7.38,0.425813918814
7.4,0.617349148857
7.42,0.428218928767
7.44,0.368801099592
7.46,0.264374551469
7.48,0.268211763789
7.5,0.230918749449
7.52,0.153012490772
7.54,0.112886195211
7.56,0.0366533664967
7.58,0.
7.6,0.
7.62,0.
7.64,0.
7.66,0.0290927288011
7.68,0.
7.7,0.
7.72,0.
7.74,0.0233138314627
7.76,0.0221334497399
7.78,0.0210683799779
7.8,0.0200998794731
7.82,0.0964122569336
7.84,0.111409502293
7.86,0.0539008998118
7.88,0.0871713420888
7.9,0.0849514433785
7.92,0.133156560168
7.94,0.18017235444
7.96,0.226833083096
7.98,0.257519385856
8.,0.321500511935
8.02,0.321882261604
8.04,0.308253504348
8.06,0.493041613373
8.08,0.551225310857
8.1,0.511671807286
8.12,0.436749135846
8.14,0.41399621382
8.16,0.615508722772
8.18,0.639417679712
8.2,0.706961736206
8.22,0.570766618473
8.24,0.688408109714
8.26,0.607364995213
8.28,0.764799390961
8.3,0.651102221806
8.32,0.771895190625
8.34,0.815846735163
8.36,0.491285671677
8.38,0.516714324924
8.4,0.338054500854
8.42,0.316490508944
8.44,0.217904086159
8.46,0.260551253231
8.48,0.188593763773
8.5,0.113638554961
8.52,0.150571443348
8.54,0.0370034745351
8.56,0.0360533817804
8.58,0.
8.6,0.0333899444484
8.62,0.0318430827654
8.64,0.
8.66,0.
8.68,0.
8.7,0.
8.72,0.0242053815225
8.74,0.0229387565889
8.76,0.0217943259712
8.78,0.0207704447811
8.8,0.0397099324955
8.82,0.0381028747085
8.84,0.0183523562206
8.86,0.106520500958
8.88,0.0688333922921
8.9,0.067045175377
8.92,0.114949191609
8.94,0.129283056318
8.96,0.191684948049
8.98,0.20637948529
9.,0.221762747452
9.02,0.254137976964
9.04,0.207787703433
9.06,0.453136583349
9.08,0.279696322823
9.1,0.369433722442
9.12,0.499506345434
9.14,0.514714374958
9.16,0.587845846265
9.18,0.591050147547
9.2,0.576309994774
9.22,0.603274651454
9.24,0.677397740278
9.26,0.643602548219
9.28,0.872669359992
9.3,0.614216376815
9.32,0.730677179095
9.34,0.600574184866
9.36,0.422417755614
9.38,0.603444179937
9.4,0.63192390867
9.42,0.484279874935
9.44,0.357182854891
9.46,0.255940992902
9.48,0.185445608098
9.5,0.0744354187922
9.52,0.0369632535599
9.54,0.036377109098
9.56,0.
9.58,0.
9.6,0.0328410686493
9.62,0.0313189208379
9.64,0.029746728586
9.66,0.
9.68,0.
9.7,0.
9.72,0.
9.74,0.
9.76,0.0214660195477
9.78,0.0408853946936
9.8,0.0390714159621
9.82,0.0562089458395
9.84,0.0902107011034
9.86,0.0872443442538
9.88,0.0677521952556
9.9,0.148742466229
9.92,0.210489162631
9.94,0.19126861082
9.96,0.204957977957
9.98,0.140876617215
10.,0.18714992404
