t,neff
5.,0.2561067461
5.02,0.27390009849
5.04,0.378996858221
5.06,0.383007455674
5.08,0.388859301675
5.1,0.433388553224
5.12,0.593840158337
5.14,0.707673299417
5.16,0.613250458871
5.18,0.698895798287
5.2,1.07521949826
5.22,1.01318877908
5.24,0.756011197403
5.26,0.796864442864
5.28,0.973088504848
5.3,0.667289573142
5.32,0.646396440664
5.34,0.652231905231
5.36,0.556909039666
5.38,0.481914030433
5.4,0.396013793091
5.42,0.41201681891
5.44,0.309349297547
5.46,0.316382615727
5.48,0.280598415981
5.5,0.241275976933
5.52,0.119868135804
5.54,0.0785811420672
5.56,0.0765370484595
5.58,0.
5.6,0.
5.62,0.
5.64,0.
5.66,0.0608193269687
5.68,0.
5.7,0.0543970208381
5.72,0.077159864464
5.74,0.0730755863121
5.76,0.0694016429702
5.78,0.0440997744459
5.8,0.0421390322838
5.82,0.0201986710708
5.84,0.116657656479
5.86,0.131628707195
5.88,0.0729692966871
5.9,0.124387387741
5.92,0.104441914786
5.94,0.137034020584
5.96,0.339110964003
5.98,0.201852661644
6.,0.285592090505
6.02,0.370769781748
6.04,0.305775132869
6.06,0.412503967116
6.08,0.524233769616
6.1,0.517130021993
6.12,0.530944044738
6.14,0.566103577336
6.16,0.585645373914
6.18,0.811518154274
6.2,0.697522330589
6.22,0.685194481516
6.24,0.812083002444
6.26,0.707591809833
6.28,0.64292005469
6.3,0.543578334885
6.32,0.516952950456
6.34,0.363962157102
6.36,0.575837522389
6.38,0.470813139585
6.4,0.457753751633
6.42,0.549832634263
6.44,0.415957324559
6.46,0.271179164569
6.48,0.275212742817
6.5,0.236825367261
6.52,0.0784703931645
6.54,0.115684934775
6.56,0.112650537937
6.58,0.0725052905103
6.6,0.0694963543496
6.62,0.0662353428664
6.64,0.0628180360323
6.66,0.
6.68,0.0281262446524
6.7,0.0265837819542
6.72,0.
6.74,0.0238705387485
6.76,0.
6.78,0.
6.8,0.0412700530525
6.82,0.019780500415
6.84,0.0952498058434
6.86,0.110501430405
6.88,0.143036996709
6.9,0.104562698753
6.92,0.0853583315839
6.94,0.184798278903
6.96,0.29922747145
6.98,0.263982686695
7.,0.214089817048
7.02,0.330269929541
7.04,0.44957374964
7.06,0.353780133502
7.08,0.531237891861
7.1,0.612104019465
7.12,0.574038931197
7.14,0.610262939203
7.16,0.574726259891
7.18,0.836761248779
7.2,0.727001008668
7.22,0.827305857706
7.24,0.685712073239
7.26,0.697759187619
7.28,0.635672200928
7.3,0.806406738612
7.32,0.851189452057
7.34,0.719051353313
7.36,0.600075808281
7.38,0.332073229807
7.4,0.521712879485
7.42,0.361890110444
7.44,0.448713952926
7.46,0.191421698072
7.48,0.310804399456
7.5,0.
7.52,0.116318271727
7.54,0.0762253852187
7.56,0.0742271320131
7.58,0.0716551661567
7.6,0.
7.62,0.032780167598
7.64,0.031113836825
7.66,0.088359647646
7.68,0.0278566214533
7.7,0.
7.72,0.
7.74,0.0236094377034
7.76,0.022414660212
7.78,0.0427092975265
7.8,0.061164149429
7.82,0.058648236926
7.84,0.131894219223
7.86,0.0911623702578
7.88,0.141529282868
7.9,0.120643918516
7.92,0.185699325286
7.94,0.199289384743
7.96,0.279326920731
7.98,0.342634045178
8.,0.260309506945
8.02,0.326132457245
8.04,0.312146981393
8.06,0.449137928112
8.08,0.388553995395
8.1,0.517810005947
8.12,0.459816781412
8.14,0.418994806708
8.16,0.622769264545
8.18,0.745556421559
8.2,0.715459097572
8.22,0.620124322781
8.24,0.672829955205
8.26,0.731947191083
8.28,0.873094530456
8.3,0.605721722165
8.32,0.80886536142
8.34,0.677084778443
8.36,0.466091617094
8.38,0.588561781601
8.4,0.376447104858
8.42,0.35614037066
8.44,0.183990492802
8.46,0.188596165712
8.48,0.152868358431
8.5,0.153401755045
8.52,0.190472891346
8.54,0.0374497970931
8.56,0.109370136533
8.58,0.
8.6,0.0337328916834
8.62,0.0321683557036
8.64,0.0305403278051
8.66,0.
8.68,0.0547167194289
8.7,0.0258461866759
8.72,0.0489296703746
8.74,0.0231918205925
8.76,0.0220283658181
8.78,0.
8.8,0.0200324041471
8.82,0.0192151611831
8.84,0.037016296648
8.86,0.0895292874613
8.88,0.0694553861252
8.9,0.0676483775133
8.92,0.115877199312
8.94,0.162832005059
8.96,0.225527123257
8.98,0.288151106129
9.,0.31947853009
9.02,0.36855840097
9.04,0.484563101378
9.06,0.52372821373
9.08,0.516906050363
9.1,0.544987093022
9.12,0.506859311636
9.14,0.504696037982
9.16,0.672283215219
9.18,0.698452484137
9.2,0.688605046195
9.22,0.593189353649
9.24,0.801729958158
9.26,0.8911891244
9.28,0.988996653188
9.3,0.730927244222
9.32,0.717357216485
9.34,0.758873456142
9.36,0.646801896485
9.38,0.486357316258
9.4,0.407573132175
9.42,0.423921983137
9.44,0.255253835005
9.46,0.186618486641
9.48,0.15137600257
9.5,0.0759740547338
9.52,0.0377316869135
9.54,0.0371184853968
9.56,0.
9.58,0.
9.6,0.0334874744332
9.62,0.0319261688526
9.64,0.0302987140821
9.66,0.
9.68,0.
9.7,0.
9.72,0.
9.74,0.
9.76,0.0218394000208
9.78,0.0415992327821
9.8,0.0397433256515
9.82,0.0762320883172
9.84,0.128570234972
9.86,0.106526116517
9.88,0.0689633326923
9.9,0.117704376169
9.92,0.247485865437
9.94,0.211143911635
9.96,0.305683192485
9.98,0.271751880323
10.,0.366719467977
