t,prevalence
5.,4
5.02,1
5.04,7
5.06,9
5.08,12
5.1,18
5.12,13
5.14,14
5.16,10
5.18,13
5.2,11
5.22,7
5.24,16
5.26,16
5.28,10
5.3,7
5.32,10
5.34,5
5.36,1
5.38,0
5.4,2
5.42,4
5.44,5
5.46,2
5.48,2
5.5,1
5.52,0
5.54,1
5.56,0
5.58,0
5.6,0
5.62,0
5.64,1
5.66,0
5.68,1
5.7,0
5.72,0
5.74,0
5.76,0
5.78,0
5.8,0
5.82,1
5.84,1
5.86,2
5.88,0
5.9,1
5.92,1
5.94,2
5.96,2
5.98,5
6.,5
6.02,3
6.04,4
6.06,3
6.08,8
6.1,6
6.12,9
6.14,7
6.16,4
6.18,8
6.2,5
6.22,8
6.24,9
6.26,4
6.28,5
6.3,2
6.32,4
6.34,6
6.36,4
6.38,9
6.4,9
6.42,4
6.44,4
6.46,2
6.48,2
6.5,4
6.52,2
6.54,0
6.56,0
6.58,1
6.6,1
6.62,0
6.64,0
6.66,1
6.68,1
6.7,0
6.72,0
6.74,0
6.76,0
6.78,0
6.8,0
6.82,0
6.84,1
6.86,1
6.88,2
6.9,1
6.92,2
6.94,7
6.96,4
6.98,6
7.,3
7.02,7
7.04,7
7.06,6
7.08,11
7.1,9
7.12,7
7.14,7
7.16,7
7.18,15
7.2,9
7.22,9
7.24,9
7.26,19
7.28,13
7.3,9
7.32,10
7.34,7
7.36,4
7.38,6
7.4,1
7.42,2
7.44,8
7.46,4
7.48,2
7.5,1
7.52,1
7.54,0
7.56,1
7.58,1
7.6,0
7.62,0
7.64,0
7.66,0
7.68,0
7.7,0
7.72,0
7.74,1
7.76,0
7.78,0
7.8,0
7.82,0
7.84,0
7.86,0
7.88,1
7.9,1
7.92,2
7.94,5
7.96,3
7.98,9
8.,1
8.02,3
8.04,7
8.06,7
8.08,13
8.1,4
8.12,9
8.14,12
8.16,10
8.18,5
8.2,14
8.22,3
8.24,16
8.26,17
8.28,9
8.3,15
8.32,6
8.34,10
8.36,6
8.38,5
8.4,3
8.42,4
8.44,4
8.46,0
8.48,3
8.5,2
8.52,0
8.54,0
8.56,0
8.58,2
8.6,0
8.62,0
8.64,1
8.66,0
8.68,1
8.7,0
8.72,0
8.74,0
8.76,1
8.78,1
8.8,0
8.82,0
8.84,1
8.86,0
8.88,1
8.9,0
8.92,0
8.94,2
8.96,3
8.98,2
9.,1
9.02,6
9.04,3
9.06,6
9.08,6
9.1,8
9.12,12
9.14,7
9.16,7
9.18,5
9.2,6
9.22,8
9.24,15
9.26,12
9.28,7
9.3,9
9.32,11
9.34,9
9.36,7
9.38,4
9.4,1
9.42,1
9.44,3
9.46,2
9.48,1
9.5,0
9.52,0
9.54,0
9.56,0
9.58,0
9.6,0
9.62,0
9.64,0
9.66,1
9.68,0
9.7,0
9.72,0
9.74,0
9.76,0
9.78,0
9.8,1
9.82,1
9.84,0
9.86,0
9.88,2
9.9,3
9.92,4
9.94,5
9.96,2
9.98,2
10.,3
