t,s,e,i,r,c,o,n,reff,coal,reportr
5.,9908.,13.,7.,72.,0.,0.,10000.,1.24375300577,4.97501202307,169.
5.02,9896.,20.,6.,79.,0.,0.,10001.,1.23932400099,3.22224240258,260.
5.04,9884.,27.,6.,88.,0.,0.,10005.,1.22898860504,2.36694101712,351.
5.06,9877.,25.,7.,101.,0.,0.,10010.,1.21377138843,2.52464448794,325.
5.08,9864.,26.,8.,112.,0.,0.,10010.,1.19327619038,2.38655238077,338.
5.1,9854.,26.,5.,122.,0.,0.,10007.,1.1686588623,2.3373177246,338.
5.12,9842.,24.,14.,128.,0.,0.,10008.,1.13888530815,2.46758483434,312.
5.14,9828.,29.,7.,143.,0.,0.,10007.,1.10513303722,1.98161785984,377.
5.16,9813.,31.,11.,152.,0.,0.,10007.,1.06771412947,1.79100434621,403.
5.18,9802.,30.,12.,163.,0.,0.,10007.,1.02785643962,1.78161782867,390.
5.2,9780.,40.,14.,173.,0.,0.,10007.,0.984621744865,1.28000826833,520.
5.22,9764.,37.,15.,193.,0.,0.,10009.,0.940256784348,1.32144196719,481.
5.24,9745.,39.,19.,209.,0.,0.,10012.,0.89465215486,1.19286953981,507.
5.26,9711.,50.,23.,228.,0.,0.,10012.,0.847844238044,0.881758007566,650.
5.28,9693.,42.,26.,253.,0.,0.,10014.,0.802850638391,0.994005552294,546.
5.3,9682.,33.,13.,287.,0.,0.,10015.,0.759684446111,1.19707852115,429.
5.32,9668.,31.,22.,293.,0.,0.,10014.,0.718230959484,1.20477451268,403.
5.34,9653.,24.,21.,313.,0.,0.,10011.,0.679273587457,1.47175943949,312.
5.36,9643.,27.,9.,335.,0.,0.,10014.,0.643277980574,1.23890574037,351.
5.38,9636.,22.,0.,355.,0.,0.,10013.,0.61127823217,1.44483945786,286.
5.4,9634.,11.,8.,362.,0.,0.,10015.,0.583411562907,2.75794557011,143.
5.42,9633.,9.,5.,368.,0.,0.,10015.,0.560137581168,3.23635046897,117.
5.44,9626.,7.,5.,374.,0.,0.,10012.,0.541460268252,4.02227627844,91.
5.46,9624.,7.,3.,378.,0.,0.,10012.,0.527968840898,3.92205424667,91.
5.48,9626.,4.,2.,381.,0.,0.,10013.,0.519912248789,6.75885923426,52.
5.5,9625.,4.,0.,386.,0.,0.,10015.,0.517036430497,6.72147359646,52.
5.52,9624.,3.,1.,385.,0.,0.,10013.,0.519804226299,9.00993992251,39.
5.54,9626.,1.,3.,384.,0.,0.,10014.,0.527973092052,27.4546007867,13.
5.56,9627.,0.,1.,387.,0.,0.,10015.,0.541354306382,inf,0.
5.58,9626.,1.,0.,387.,0.,0.,10014.,0.559786441498,29.1088949579,13.
5.6,9626.,1.,0.,385.,0.,0.,10012.,0.583101770931,30.3212920884,13.
5.62,9623.,1.,0.,384.,0.,0.,10008.,0.610758534904,31.759443815,13.
5.64,9626.,1.,0.,383.,0.,0.,10010.,0.642400523089,33.4048272006,13.
5.66,9619.,0.,1.,383.,0.,0.,10003.,0.67742237814,inf,0.
5.68,9617.,0.,0.,384.,0.,0.,10001.,0.715370876581,inf,0.
5.7,9622.,0.,0.,383.,0.,0.,10005.,0.755731230243,inf,0.
5.72,9622.,0.,0.,383.,0.,0.,10005.,0.797686773345,inf,0.
5.74,9626.,0.,0.,383.,0.,0.,10009.,0.840674991084,inf,0.
5.76,9628.,0.,0.,382.,0.,0.,10010.,0.884087426184,inf,0.
5.78,9631.,1.,0.,381.,0.,0.,10013.,0.927078609957,48.2080877178,13.
5.8,9632.,1.,0.,380.,0.,0.,10013.,0.969140460979,50.3953039709,13.
5.82,9632.,1.,1.,380.,0.,0.,10014.,1.00932388246,52.4848418879,13.
5.84,9630.,0.,1.,381.,0.,0.,10012.,1.04727934222,inf,0.
5.86,9623.,4.,0.,380.,0.,0.,10007.,1.08208132043,14.0670571656,52.
5.88,9620.,6.,0.,380.,0.,0.,10006.,1.1134186716,9.64962848716,78.
5.9,9616.,6.,1.,381.,0.,0.,10004.,1.14077467211,9.88671382495,78.
5.92,9618.,4.,4.,381.,0.,0.,10007.,1.16386568023,15.130253843,52.
5.94,9619.,5.,2.,384.,0.,0.,10010.,1.18206611171,12.2934875618,65.
5.96,9613.,11.,1.,384.,0.,0.,10009.,1.19481444786,5.6482137535,143.
5.98,9604.,12.,9.,384.,0.,0.,10009.,1.20179408786,5.20777438072,156.
6.,9597.,14.,8.,390.,0.,0.,10009.,1.20362985347,4.47062517005,182.
6.02,9584.,24.,5.,395.,0.,0.,10008.,1.19941122624,2.59872432351,312.
6.04,9574.,18.,14.,401.,0.,0.,10007.,1.19020490524,3.43836972626,234.
6.06,9555.,24.,11.,415.,0.,0.,10005.,1.17478804408,2.5453740955,312.
6.08,9544.,19.,17.,426.,0.,0.,10006.,1.15502642747,3.16112495939,247.
6.1,9528.,23.,9.,443.,0.,0.,10003.,1.13044797005,2.55579541055,299.
6.12,9506.,34.,10.,450.,0.,0.,10000.,1.1008844477,1.6837056259,442.
6.14,9492.,28.,23.,457.,0.,0.,10000.,1.06809785666,1.98361030522,364.
6.16,9465.,38.,18.,479.,0.,0.,10000.,1.03057050601,1.41025437664,494.
6.18,9448.,32.,23.,493.,0.,0.,9996.,0.991825568509,1.61171654883,416.
6.2,9438.,30.,25.,505.,0.,0.,9998.,0.951045529153,1.6484789172,390.
6.22,9417.,36.,21.,524.,0.,0.,9998.,0.907838992678,1.31132298942,468.
6.24,9407.,36.,16.,540.,0.,0.,9999.,0.864744454143,1.24907532265,468.
6.26,9385.,43.,17.,554.,0.,0.,9999.,0.820447259004,0.99216877833,559.
6.28,9365.,42.,15.,573.,0.,0.,9995.,0.77715762898,0.962195159689,546.
6.3,9363.,35.,11.,586.,0.,0.,9995.,0.736124606111,1.09367084336,455.
6.32,9363.,23.,13.,598.,0.,0.,9997.,0.696755488036,1.5752732773,299.
6.34,9345.,29.,10.,613.,0.,0.,9997.,0.658520799546,1.18079591643,377.
6.36,9342.,17.,15.,624.,0.,0.,9998.,0.624195792034,1.90930477563,221.
6.38,9336.,17.,5.,637.,0.,0.,9995.,0.593313732124,1.81484200415,221.
6.4,9332.,17.,0.,646.,0.,0.,9995.,0.566253990614,1.73207103011,221.
6.42,9334.,9.,5.,648.,0.,0.,9996.,0.543783034743,3.14185753407,117.
6.44,9331.,11.,7.,652.,0.,0.,10001.,0.525443882162,2.48391653386,143.
6.46,9328.,13.,6.,655.,0.,0.,10002.,0.512242025817,2.04896810327,169.
6.48,9327.,9.,9.,659.,0.,0.,10004.,0.504216091713,2.9132485299,117.
6.5,9326.,8.,9.,662.,0.,0.,10005.,0.501475451722,3.25959043619,104.
6.52,9329.,6.,0.,672.,0.,0.,10007.,0.504173019956,4.36949950628,78.
6.54,9331.,2.,4.,671.,0.,0.,10008.,0.512099570876,13.3145888428,26.
6.56,9332.,2.,1.,673.,0.,0.,10008.,0.525132637708,13.6534485804,26.
6.58,9330.,3.,0.,674.,0.,0.,10007.,0.542952514756,9.41117692243,39.
6.6,9328.,2.,2.,673.,0.,0.,10005.,0.565445547248,14.7015842284,26.
6.62,9327.,4.,1.,673.,0.,0.,10005.,0.592149326037,7.69794123848,52.
6.64,9331.,3.,2.,669.,0.,0.,10005.,0.623024610718,10.7990932524,39.
6.66,9328.,5.,3.,668.,0.,0.,10004.,0.656862906368,6.83137422623,65.
6.68,9327.,4.,1.,672.,0.,0.,10004.,0.693590858581,9.01668116155,52.
6.7,9328.,2.,1.,672.,0.,0.,10003.,0.732786363027,19.0524454387,26.
6.72,9333.,2.,0.,670.,0.,0.,10005.,0.773727983333,20.1169275666,26.
6.74,9332.,1.,1.,671.,0.,0.,10005.,0.815324695632,42.3968841729,13.
6.76,9332.,1.,1.,667.,0.,0.,10001.,0.857678478622,44.5992808883,13.
6.78,9334.,1.,0.,667.,0.,0.,10002.,0.899477575423,46.772833922,13.
6.8,9335.,1.,0.,667.,0.,0.,10003.,0.940196264138,48.8902057352,13.
6.82,9342.,1.,0.,660.,0.,0.,10003.,0.980011691584,50.9606079624,13.
6.84,9338.,3.,1.,658.,0.,0.,10000.,1.01674246012,17.6235359755,39.
6.86,9340.,3.,0.,657.,0.,0.,10000.,1.05099388761,18.2172273852,39.
6.88,9339.,6.,2.,657.,0.,0.,10004.,1.08111182806,9.36963584315,78.
6.9,9339.,3.,4.,656.,0.,0.,10002.,1.10813487684,19.2076711986,39.
6.92,9331.,9.,3.,658.,0.,0.,10001.,1.12981347776,6.52781120481,117.
6.94,9337.,5.,7.,654.,0.,0.,10003.,1.14821445409,11.9414303225,65.
6.96,9332.,10.,4.,659.,0.,0.,10005.,1.16035225235,6.03383171224,130.
6.98,9332.,8.,9.,662.,0.,0.,10011.,1.16752414244,7.58890692588,104.
7.,9317.,18.,4.,671.,0.,0.,10010.,1.16839627417,3.37536701426,234.
7.02,9309.,11.,14.,673.,0.,0.,10007.,1.16511215108,5.507802896,143.
7.04,9293.,18.,9.,683.,0.,0.,10003.,1.15573397611,3.33878704209,234.
7.06,9288.,21.,8.,687.,0.,0.,10004.,1.14207452226,2.82799405513,273.
7.08,9273.,26.,9.,697.,0.,0.,10005.,1.12234184647,2.24468369293,338.
7.1,9270.,26.,6.,706.,0.,0.,10008.,1.09928812388,2.19857624777,338.
7.12,9252.,25.,12.,715.,0.,0.,10004.,1.07104043615,2.22776410719,325.
7.14,9246.,23.,14.,724.,0.,0.,10007.,1.03968865101,2.35060042837,299.
7.16,9220.,29.,25.,729.,0.,0.,10003.,1.00359327652,1.7995465648,377.
7.18,9196.,42.,12.,752.,0.,0.,10002.,0.964792180941,1.19450460497,546.
7.2,9185.,36.,17.,766.,0.,0.,10004.,0.924996192944,1.33610561203,468.
7.22,9169.,39.,14.,779.,0.,0.,10001.,0.883665581485,1.17822077531,507.
7.24,9155.,36.,13.,797.,0.,0.,10001.,0.841410894962,1.21537129272,468.
7.26,9144.,32.,17.,809.,0.,0.,10002.,0.799139002179,1.29860087854,416.
7.28,9123.,36.,13.,831.,0.,0.,10003.,0.756469700271,1.09267845595,468.
7.3,9107.,33.,19.,843.,0.,0.,10002.,0.715496636276,1.12744924504,429.
7.32,9098.,27.,17.,858.,0.,0.,10000.,0.676832180468,1.30352864386,351.
7.34,9093.,21.,15.,871.,0.,0.,10000.,0.640570706408,1.58617508253,273.
7.36,9087.,18.,13.,883.,0.,0.,10001.,0.606975563285,1.7534849606,234.
7.38,9084.,14.,9.,896.,0.,0.,10003.,0.576837136482,2.1425379355,182.
7.4,9085.,13.,1.,904.,0.,0.,10003.,0.550825461318,2.20330184527,169.
7.42,9083.,8.,6.,906.,0.,0.,10003.,0.528789898712,3.43713434163,104.
7.44,9083.,11.,3.,909.,0.,0.,10006.,0.511223010311,2.4166905942,143.
7.46,9077.,4.,5.,914.,0.,0.,10000.,0.498558189592,6.4812564647,52.
7.48,9075.,5.,1.,917.,0.,0.,9998.,0.490887427695,5.10522924803,65.
7.5,9077.,1.,3.,915.,0.,0.,9996.,0.488525736439,25.4033382948,13.
7.52,9080.,0.,1.,916.,0.,0.,9997.,0.491207019616,inf,0.
7.54,9085.,0.,0.,914.,0.,0.,9999.,0.499047497836,inf,0.
7.56,9088.,0.,0.,910.,0.,0.,9998.,0.511913713199,inf,0.
7.58,9089.,0.,0.,908.,0.,0.,9997.,0.529456782737,inf,0.
7.6,9086.,0.,0.,907.,0.,0.,9993.,0.55143736351,inf,0.
7.62,9084.,0.,0.,905.,0.,0.,9989.,0.57764559778,inf,0.
7.64,9088.,0.,0.,903.,0.,0.,9991.,0.607649948509,inf,0.
7.66,9088.,0.,0.,903.,0.,0.,9991.,0.640795189203,inf,0.
7.68,9091.,0.,0.,901.,0.,0.,9992.,0.676852908204,inf,0.
7.7,9090.,0.,0.,901.,0.,0.,9991.,0.714947306384,inf,0.
7.72,9092.,0.,1.,898.,0.,0.,9991.,0.754804706414,inf,0.
7.74,9093.,1.,0.,898.,0.,0.,9992.,0.795477180192,41.36481337,13.
7.76,9096.,2.,0.,895.,0.,0.,9993.,0.83665762625,21.7530982825,26.
7.78,9099.,2.,1.,891.,0.,0.,9993.,0.87762133387,22.8181546806,26.
7.8,9100.,4.,2.,888.,0.,0.,9994.,0.91735306202,11.9255898063,52.
7.82,9095.,7.,3.,887.,0.,0.,9992.,0.955150793388,7.09540589374,91.
7.84,9092.,5.,7.,886.,0.,0.,9990.,0.990948374746,10.3058630974,65.
7.86,9084.,14.,2.,891.,0.,0.,9991.,1.0231080001,3.80011542893,182.
7.88,9086.,6.,11.,893.,0.,0.,9996.,1.05266555306,9.12310145981,78.
7.9,9077.,6.,7.,904.,0.,0.,9994.,1.07790897744,9.34187780447,78.
7.92,9066.,14.,2.,911.,0.,0.,9993.,1.09860562004,4.08053516014,182.
7.94,9064.,10.,10.,909.,0.,0.,9993.,1.1157577935,5.80194052622,130.
7.96,9056.,15.,8.,915.,0.,0.,9994.,1.12727345712,3.90788131802,195.
7.98,9040.,22.,7.,921.,0.,0.,9990.,1.1333695577,2.67887350002,286.
8.,9027.,25.,11.,926.,0.,0.,9989.,1.1344087684,2.35957023828,325.
8.02,9022.,25.,6.,939.,0.,0.,9992.,1.13088644471,2.352243805,325.
8.04,9019.,18.,9.,948.,0.,0.,9994.,1.12266776831,3.24326244177,234.
8.06,9012.,15.,14.,949.,0.,0.,9990.,1.10968985188,3.84692481984,195.
8.08,8994.,24.,17.,955.,0.,0.,9990.,1.09020804892,2.36211743933,312.
8.1,8970.,37.,14.,972.,0.,0.,9993.,1.06530914281,1.49719122773,481.
8.12,8960.,32.,18.,984.,0.,0.,9994.,1.03827546385,1.68719762876,416.
8.14,8950.,34.,14.,999.,0.,0.,9997.,1.00741092714,1.54074612387,442.
8.16,8925.,47.,16.,1007.,0.,0.,9995.,0.97226022056,1.07569215892,611.
8.18,8918.,40.,13.,1024.,0.,0.,9995.,0.936281262964,1.21716564185,520.
8.2,8904.,33.,19.,1036.,0.,0.,9992.,0.897774351045,1.41467473498,429.
8.22,8889.,32.,21.,1048.,0.,0.,9990.,0.85762377539,1.39363863501,416.
8.24,8886.,31.,15.,1060.,0.,0.,9992.,0.817423451634,1.37116191887,403.
8.26,8874.,29.,7.,1079.,0.,0.,9989.,0.776551693438,1.39243751927,377.
8.28,8872.,17.,22.,1078.,0.,0.,9989.,0.736688094551,2.25339887745,221.
8.3,8859.,18.,12.,1098.,0.,0.,9987.,0.697057752734,2.01372239679,234.
8.32,8855.,11.,15.,1104.,0.,0.,9985.,0.65974417309,3.11879063643,143.
8.34,8847.,16.,13.,1112.,0.,0.,9988.,0.623989636523,2.0279663187,208.
8.36,8843.,16.,7.,1123.,0.,0.,9989.,0.591386924276,1.9220075039,208.
8.38,8842.,9.,14.,1126.,0.,0.,9991.,0.562144423923,3.24794556044,117.
8.4,8834.,11.,9.,1137.,0.,0.,9991.,0.536250586223,2.53500277124,143.
8.42,8829.,13.,6.,1142.,0.,0.,9990.,0.51467151634,2.05868606536,169.
8.44,8824.,10.,6.,1147.,0.,0.,9987.,0.497590439309,2.58747028441,130.
8.46,8823.,9.,4.,1150.,0.,0.,9986.,0.485286529794,2.8038777277,117.
8.48,8826.,8.,2.,1149.,0.,0.,9985.,0.47804002669,3.10726017349,104.
8.5,8826.,7.,3.,1148.,0.,0.,9984.,0.475587806034,3.53293798768,91.
8.52,8823.,3.,6.,1150.,0.,0.,9982.,0.478021160359,8.28570011288,39.
8.54,8827.,2.,0.,1158.,0.,0.,9987.,0.485457925702,12.6219060683,26.
8.56,8827.,2.,0.,1155.,0.,0.,9984.,0.497909178226,12.9456386339,26.
8.58,8830.,1.,1.,1153.,0.,0.,9985.,0.514987561169,26.7793531808,13.
8.6,8833.,0.,0.,1154.,0.,0.,9987.,0.536404638326,inf,0.
8.62,8835.,1.,0.,1151.,0.,0.,9987.,0.561924359841,29.2200667117,13.
8.64,8841.,0.,1.,1145.,0.,0.,9987.,0.591371576281,inf,0.
8.66,8843.,2.,0.,1143.,0.,0.,9988.,0.623707511673,16.2163953035,26.
8.68,8850.,2.,0.,1135.,0.,0.,9987.,0.659239600746,17.1402296194,26.
8.7,8855.,2.,0.,1129.,0.,0.,9986.,0.696812790434,18.1171325513,26.
8.72,8857.,0.,2.,1125.,0.,0.,9984.,0.735810877469,inf,0.
8.74,8865.,0.,1.,1121.,0.,0.,9987.,0.775919470439,inf,0.
8.76,8870.,0.,0.,1121.,0.,0.,9991.,0.816033279736,inf,0.
8.78,8871.,0.,0.,1117.,0.,0.,9988.,0.856058492035,inf,0.
8.8,8874.,1.,0.,1111.,0.,0.,9986.,0.895287107194,46.5549295741,13.
8.82,8878.,3.,0.,1107.,0.,0.,9988.,0.932734991798,16.1674065245,39.
8.84,8878.,3.,1.,1106.,0.,0.,9988.,0.967818006258,16.7755121085,39.
8.86,8872.,6.,4.,1107.,0.,0.,9989.,0.999431041263,8.66173569094,78.
8.88,8868.,9.,3.,1108.,0.,0.,9988.,1.02823190924,5.94089547564,117.
8.9,8861.,8.,0.,1113.,0.,0.,9982.,1.0535236024,6.84790341558,104.
8.92,8855.,8.,5.,1113.,0.,0.,9981.,1.07432702086,6.98312563562,104.
8.94,8853.,7.,7.,1113.,0.,0.,9980.,1.09120373174,8.10608486437,91.
8.96,8844.,15.,4.,1117.,0.,0.,9980.,1.10242843139,3.82175189548,195.
8.98,8838.,15.,10.,1117.,0.,0.,9980.,1.10915452928,3.84506903484,195.
9.,8832.,19.,10.,1119.,0.,0.,9980.,1.11090434269,3.04036978,247.
9.02,8818.,26.,6.,1129.,0.,0.,9979.,1.10675545937,2.21351091874,338.
9.04,8805.,30.,10.,1133.,0.,0.,9978.,1.09778697369,1.90283075439,390.
9.06,8786.,32.,7.,1150.,0.,0.,9975.,1.08348827056,1.76066843966,416.
9.08,8774.,28.,15.,1158.,0.,0.,9975.,1.06514005002,1.97811723574,364.
9.1,8767.,24.,17.,1170.,0.,0.,9978.,1.04276538366,2.25932499793,312.
9.12,8752.,19.,22.,1181.,0.,0.,9974.,1.01620627331,2.78119611643,247.
9.14,8739.,29.,15.,1193.,0.,0.,9976.,0.985731449679,1.76751846149,377.
9.16,8725.,37.,12.,1205.,0.,0.,9979.,0.951996833594,1.33794149586,481.
9.18,8711.,41.,13.,1214.,0.,0.,9979.,0.916015144321,1.16177530499,533.
9.2,8701.,34.,8.,1238.,0.,0.,9981.,0.878273099025,1.34324121027,442.
9.22,8694.,33.,11.,1245.,0.,0.,9983.,0.839398055797,1.3226878455,429.
9.24,8686.,24.,13.,1258.,0.,0.,9981.,0.799906045751,1.73312976579,312.
9.26,8670.,28.,7.,1273.,0.,0.,9978.,0.759536340396,1.41056748931,364.
9.28,8662.,22.,14.,1275.,0.,0.,9973.,0.720404623988,1.70277456579,286.
9.3,8650.,22.,7.,1290.,0.,0.,9969.,0.681841799286,1.61162607104,286.
9.32,8645.,15.,14.,1294.,0.,0.,9968.,0.645196548073,2.23668136665,195.
9.34,8639.,21.,9.,1299.,0.,0.,9968.,0.610541694784,1.51181752994,273.
9.36,8637.,14.,18.,1303.,0.,0.,9972.,0.578595105901,2.1490675362,182.
9.38,8631.,17.,15.,1311.,0.,0.,9974.,0.549665030596,1.68132832888,221.
9.4,8629.,13.,11.,1322.,0.,0.,9975.,0.524646655448,2.09858662179,169.
9.42,8626.,10.,10.,1331.,0.,0.,9977.,0.503493173437,2.61816450187,130.
9.44,8622.,8.,3.,1343.,0.,0.,9976.,0.486735649185,3.1637817197,104.
9.46,8623.,6.,3.,1345.,0.,0.,9977.,0.474713883229,4.11418698798,78.
9.48,8622.,4.,5.,1343.,0.,0.,9974.,0.467505864041,6.07757623253,52.
9.5,8624.,3.,5.,1342.,0.,0.,9974.,0.46516897803,8.06292895253,39.
9.52,8628.,2.,0.,1345.,0.,0.,9975.,0.467784298301,12.1623917558,26.
9.54,8631.,2.,0.,1343.,0.,0.,9976.,0.475201929422,12.355250165,26.
9.56,8635.,1.,1.,1337.,0.,0.,9974.,0.487567283045,25.3534987183,13.
9.58,8638.,0.,1.,1336.,0.,0.,9975.,0.504294695918,inf,0.
9.6,8640.,0.,0.,1336.,0.,0.,9976.,0.525262801928,inf,0.
9.62,8644.,0.,0.,1335.,0.,0.,9979.,0.550217109586,inf,0.
9.64,8649.,0.,0.,1329.,0.,0.,9978.,0.579050583454,inf,0.
9.66,8652.,0.,0.,1327.,0.,0.,9979.,0.610786418314,inf,0.
9.68,8651.,0.,0.,1323.,0.,0.,9974.,0.645255945655,inf,0.
9.7,8655.,1.,0.,1320.,0.,0.,9976.,0.68175721343,35.4513750984,13.
9.72,8660.,0.,1.,1315.,0.,0.,9976.,0.720021695896,inf,0.
9.74,8668.,0.,1.,1310.,0.,0.,9979.,0.759285034252,inf,0.
9.76,8670.,0.,1.,1305.,0.,0.,9976.,0.798832759799,inf,0.
9.78,8674.,3.,1.,1302.,0.,0.,9980.,0.837718816991,14.5204594945,39.
9.8,8670.,3.,5.,1299.,0.,0.,9977.,0.875494844415,15.1752439699,39.
9.82,8669.,2.,1.,1302.,0.,0.,9974.,0.912055573859,23.7134449203,26.
9.84,8670.,4.,1.,1300.,0.,0.,9975.,0.946375054072,12.3028757029,52.
9.86,8668.,4.,5.,1298.,0.,0.,9975.,0.977820892467,12.7116716021,52.
9.88,8660.,8.,3.,1302.,0.,0.,9973.,1.00562485649,6.5365615672,104.
9.9,8654.,10.,2.,1305.,0.,0.,9971.,1.0300475495,5.35624725742,130.
9.92,8656.,8.,6.,1304.,0.,0.,9974.,1.05092052218,6.83098339414,104.
9.94,8651.,12.,5.,1304.,0.,0.,9972.,1.06716104045,4.6243645086,156.
9.96,8643.,10.,8.,1307.,0.,0.,9968.,1.07867023805,5.60908523785,130.
9.98,8635.,14.,12.,1308.,0.,0.,9969.,1.08487411469,4.029532426,182.
10.,8616.,24.,10.,1316.,0.,0.,9966.,1.08525789235,2.35139210008,312.
