t,neff
5.,0.322807185519
5.02,0.388844953083
5.04,0.391809888952
5.06,0.429802325415
5.08,0.403569630104
5.1,0.515245225822
5.12,0.422836499015
5.14,0.490147784168
5.16,0.488531247059
5.18,0.723059252996
5.2,0.815158559198
5.22,0.703467501203
5.24,0.738231324774
5.26,0.611889127718
5.28,0.770259235235
5.3,0.629959436186
5.32,0.527043817493
5.34,0.61539588576
5.36,0.618210370761
5.38,0.617767620706
5.4,0.51087897202
5.42,0.425477168772
5.44,0.329894382824
5.46,0.338225331329
5.48,0.30516303254
5.5,0.191644963169
5.52,0.0380977393645
5.54,0.0375078086475
5.56,0.
5.58,0.
5.6,0.
5.62,0.
5.64,0.
5.66,0.
5.68,0.
5.7,0.
5.72,0.
5.74,0.0234718084989
5.76,0.
5.78,0.0212748588963
5.8,0.0203458623535
5.82,0.058584142164
5.84,0.0188088587449
5.86,0.091013544774
5.88,0.159218057036
5.9,0.241850591161
5.92,0.236997177194
5.94,0.149803025292
5.96,0.197550155283
5.98,0.278066280934
6.,0.212062168243
6.02,0.22911528977
6.04,0.313492340449
6.06,0.401237940707
6.08,0.459141937768
6.1,0.39968845839
6.12,0.356654449844
6.14,0.47838848309
6.16,0.64760171991
6.18,0.49491131436
6.2,0.557198231007
6.22,0.669915360567
6.24,0.840017724514
6.26,0.668884329334
6.28,0.908730087302
6.3,1.01462088491
6.32,0.931522078989
6.34,0.984343214708
6.36,0.786585019185
6.38,0.629001118047
6.4,0.659234625637
6.42,0.361289442238
6.44,0.261312942279
6.46,0.191262516655
6.48,0.116502451395
6.5,0.156141202837
6.52,0.0776335664281
6.54,0.152893058998
6.56,0.0745186765125
6.58,0.
6.6,0.
6.62,0.
6.64,0.0313296076481
6.66,0.0297017626321
6.68,0.0281127382662
6.7,0.0266002379458
6.72,0.
6.74,0.
6.76,0.
6.78,0.
6.8,0.0206979417367
6.82,0.01985930099
6.84,0.0956757388741
6.86,0.0555168221343
6.88,0.0898897476073
6.9,0.0876771672325
6.92,0.0858858326288
6.94,0.118370892424
6.96,0.133719874982
6.98,0.249295857234
7.,0.199042711356
7.02,0.316249856209
7.04,0.301809119837
7.06,0.339376598921
7.08,0.310838843055
7.1,0.494348292807
7.12,0.56211280545
7.14,0.635801712625
7.16,0.678506525215
7.18,0.806827713736
7.2,0.588416575912
7.22,0.748282848307
7.24,0.715944702455
7.26,0.608158337391
7.28,0.821758335662
7.3,0.923024080363
7.32,0.602452756653
7.34,0.576006391537
7.36,0.479667047934
7.38,0.370207779072
7.4,0.387761701707
7.42,0.403546825677
7.44,0.341425928483
7.46,0.233326597444
7.48,0.197393815872
7.5,0.198571254101
7.52,0.197493316173
7.54,0.0777346484013
7.56,0.
7.58,0.0366364316562
7.6,0.0351679389638
7.62,0.0335649115199
7.64,0.0638048156102
7.66,0.0302280108548
7.68,0.
7.7,0.0270838888468
7.72,0.0256369075418
7.74,0.0486453877404
7.76,0.0231192784964
7.78,0.044089362362
7.8,0.0843288878729
7.82,0.10118159414
7.84,0.0975040437339
7.86,0.150969719765
7.88,0.146693202555
7.9,0.250596819147
7.92,0.280884859553
7.94,0.328556127287
7.96,0.273665506347
7.98,0.271855441649
8.,0.356452336409
8.02,0.28935320747
8.04,0.428847076767
8.06,0.504039849883
8.08,0.565629963756
8.1,0.415147302163
8.12,0.612014897897
8.14,0.573419533931
8.16,0.633317315543
8.18,0.927084836979
8.2,0.924390475574
8.22,0.922068524908
8.24,0.873119972678
8.26,0.471417995489
8.28,0.680620789249
8.3,0.636017666427
8.32,0.672421290161
8.34,0.586900403043
8.36,0.619072096257
8.38,0.582605844901
8.4,0.609907568794
8.42,0.485555972876
8.44,0.501948128969
8.46,0.316701014463
8.48,0.321382779625
8.5,0.242317572548
8.52,0.200787375951
8.54,0.118566102773
8.56,0.0770260681725
8.58,0.0372257961405
8.6,0.0357136082287
8.62,0.
8.64,0.
8.66,0.
8.68,0.
8.7,0.0274726099155
8.72,0.0260184463688
8.74,0.024679651174
8.76,0.0234476335143
8.78,0.0446940383842
8.8,0.0427361968017
8.82,0.0410088449392
8.84,0.118614989126
8.86,0.114762476093
8.88,0.20449542457
8.9,0.145148379623
8.92,0.231393449245
8.94,0.245376765878
8.96,0.260028203742
8.98,0.31017542158
9.,0.344021552406
9.02,0.379605351804
9.04,0.347578856123
9.06,0.439545221985
9.08,0.482603867047
9.1,0.47438689405
9.12,0.448971754289
9.14,0.501536448313
9.16,0.498726148863
9.18,0.809735252966
9.2,0.866350441084
9.22,0.769750268239
9.24,0.903433801864
9.26,0.826071609557
9.28,0.527817779502
9.3,0.669099305821
9.32,0.677490314192
9.34,0.559916084387
9.36,0.623421418736
9.38,0.621280601521
9.4,0.469714892416
9.42,0.263292153568
9.44,0.272082650333
9.46,0.278789942554
9.48,0.202280881591
9.5,0.203201940968
9.52,0.0404134275169
9.54,0.0397668865163
9.56,0.0387548150069
9.58,0.0374796391778
9.6,0.0359615317026
9.62,0.0343097207021
9.64,0.
9.66,0.0308853824886
9.68,0.0292360315311
9.7,0.0553211949453
9.72,0.052380368332
9.74,0.0248336764517
9.76,0.0236118214854
9.78,0.0224980731119
9.8,0.0215050746947
9.82,0.0206305345416
9.84,0.0397541839175
9.86,0.0577149452066
9.88,0.149471153359
9.9,0.127607170657
9.92,0.160869559439
9.94,0.105544724746
9.96,0.243770128951
9.98,0.172934081671
10.,0.224324120832
