t,s,e,i,r,c,o,n,reff,coal,reportr
5.,6372.,19.,9.,3599.,0.,0.,9999.,1.1130790016,3.04632147805,247.
5.02,6377.,16.,13.,3594.,0.,0.,10000.,1.11133160076,3.61182770247,208.
5.04,6376.,29.,8.,3592.,0.,0.,10005.,1.10311825989,1.97800515567,377.
5.06,6381.,16.,15.,3593.,0.,0.,10005.,1.09163189656,3.54780366383,208.
5.08,6371.,29.,11.,3596.,0.,0.,10007.,1.07271496669,1.92348890578,377.
5.1,6371.,23.,22.,3595.,0.,0.,10011.,1.05091571899,2.37598336467,299.
5.12,6359.,30.,13.,3608.,0.,0.,10010.,1.023663739,1.77435048092,390.
5.14,6358.,38.,10.,3606.,0.,0.,10012.,0.994286727873,1.36060289077,494.
5.16,6355.,25.,23.,3608.,0.,0.,10011.,0.961731475962,2.00040147,325.
5.18,6349.,27.,11.,3626.,0.,0.,10013.,0.925809044655,1.78303964156,351.
5.2,6348.,24.,17.,3623.,0.,0.,10012.,0.88881052863,1.92575614537,312.
5.22,6339.,29.,18.,3625.,0.,0.,10011.,0.849202629532,1.5227081633,377.
5.24,6332.,30.,17.,3630.,0.,0.,10009.,0.809099760068,1.40243958412,390.
5.26,6331.,27.,19.,3633.,0.,0.,10010.,0.769254138805,1.48152648955,351.
5.28,6318.,28.,15.,3646.,0.,0.,10007.,0.728649210711,1.35320567704,364.
5.3,6313.,28.,19.,3647.,0.,0.,10007.,0.689778486776,1.28101718973,364.
5.32,6307.,31.,17.,3653.,0.,0.,10008.,0.652332846502,1.09423574252,403.
5.34,6305.,22.,18.,3664.,0.,0.,10009.,0.617465831971,1.45946469375,286.
5.36,6298.,25.,12.,3671.,0.,0.,10006.,0.585052594256,1.21690939605,325.
5.38,6300.,13.,14.,3678.,0.,0.,10005.,0.556529843046,2.22611937218,169.
5.4,6303.,15.,7.,3683.,0.,0.,10008.,0.531469076386,1.84242613147,195.
5.42,6310.,13.,8.,3676.,0.,0.,10007.,0.510938007571,2.04375203029,169.
5.44,6318.,11.,7.,3675.,0.,0.,10011.,0.494541092066,2.33783061704,143.
5.46,6316.,10.,7.,3677.,0.,0.,10010.,0.482214437125,2.50751507305,130.
5.48,6322.,8.,4.,3679.,0.,0.,10013.,0.475113454388,3.08823745352,104.
5.5,6331.,7.,2.,3673.,0.,0.,10013.,0.473301742225,3.51595579939,91.
5.52,6334.,4.,4.,3668.,0.,0.,10010.,0.476157945076,6.19005328599,52.
5.54,6338.,1.,2.,3666.,0.,0.,10007.,0.484039161441,25.1700363949,13.
5.56,6344.,1.,2.,3658.,0.,0.,10005.,0.496874037439,25.8374499468,13.
5.58,6349.,2.,1.,3653.,0.,0.,10005.,0.514198712349,13.3691665211,26.
5.6,6348.,1.,2.,3649.,0.,0.,10000.,0.535691687998,27.8559677759,13.
5.62,6352.,1.,0.,3645.,0.,0.,9998.,0.561516287671,29.1988469589,13.
5.64,6358.,1.,0.,3639.,0.,0.,9998.,0.591098888707,30.7371422128,13.
5.66,6365.,0.,0.,3634.,0.,0.,9999.,0.623965199614,inf,0.
5.68,6369.,0.,0.,3632.,0.,0.,10001.,0.659206580641,inf,0.
5.7,6378.,0.,0.,3623.,0.,0.,10001.,0.697298680347,inf,0.
5.72,6387.,0.,0.,3617.,0.,0.,10004.,0.736827811859,inf,0.
5.74,6395.,0.,0.,3609.,0.,0.,10004.,0.777496551194,inf,0.
5.76,6407.,0.,1.,3599.,0.,0.,10007.,0.818846844275,inf,0.
5.78,6409.,1.,2.,3591.,0.,0.,10003.,0.85926682104,44.6818746941,13.
5.8,6415.,3.,1.,3583.,0.,0.,10002.,0.899089495997,15.5842179306,39.
5.82,6425.,3.,2.,3570.,0.,0.,10000.,0.938109297835,16.2605611625,39.
5.84,6424.,5.,3.,3568.,0.,0.,10000.,0.973242955292,10.121726735,65.
5.86,6426.,6.,2.,3565.,0.,0.,9999.,1.00622733823,8.72063693133,78.
5.88,6439.,8.,0.,3554.,0.,0.,10001.,1.03747483189,6.74358640726,104.
5.9,6446.,3.,5.,3547.,0.,0.,10001.,1.0643503767,18.4487398628,39.
5.92,6449.,2.,4.,3542.,0.,0.,9997.,1.0869343643,28.2602934719,26.
5.94,6448.,7.,4.,3539.,0.,0.,9998.,1.10386626617,8.20014940581,91.
5.96,6455.,11.,5.,3529.,0.,0.,10000.,1.11734452349,5.28199229289,143.
5.98,6455.,11.,9.,3524.,0.,0.,9999.,1.12503730895,5.31835818778,143.
6.,6442.,24.,11.,3523.,0.,0.,10000.,1.12519426911,2.43792091641,312.
6.02,6440.,17.,14.,3526.,0.,0.,9997.,1.1226475217,3.4339806546,221.
6.04,6435.,24.,11.,3528.,0.,0.,9998.,1.11410539407,2.4138950205,312.
6.06,6428.,25.,10.,3533.,0.,0.,9996.,1.1006625399,2.28937808299,325.
6.08,6422.,29.,8.,3539.,0.,0.,9998.,1.08227544095,1.94063182515,377.
6.1,6410.,29.,13.,3546.,0.,0.,9998.,1.05872371546,1.89840114497,377.
6.12,6400.,28.,9.,3564.,0.,0.,10001.,1.03119101166,1.91506902165,364.
6.14,6389.,29.,12.,3574.,0.,0.,10004.,0.999933606593,1.79298439803,377.
6.16,6373.,29.,20.,3578.,0.,0.,10000.,0.965516400074,1.73127078634,377.
6.18,6361.,36.,13.,3589.,0.,0.,9999.,0.928857592923,1.34168318978,468.
6.2,6353.,33.,13.,3598.,0.,0.,9997.,0.890845266235,1.4037561771,429.
6.22,6342.,32.,12.,3609.,0.,0.,9995.,0.850964571081,1.38281742801,416.
6.24,6337.,30.,14.,3612.,0.,0.,9993.,0.811035146936,1.40579425469,390.
6.26,6332.,26.,17.,3620.,0.,0.,9995.,0.770530285537,1.54106057107,338.
6.28,6313.,27.,12.,3634.,0.,0.,9986.,0.729603661167,1.40516260669,351.
6.3,6312.,27.,13.,3636.,0.,0.,9988.,0.690981169451,1.33077854857,351.
6.32,6309.,22.,13.,3644.,0.,0.,9988.,0.65384635384,1.54545501817,286.
6.34,6307.,26.,13.,3643.,0.,0.,9989.,0.618898381168,1.23779676234,338.
6.36,6304.,23.,11.,3651.,0.,0.,9989.,0.586606597381,1.32624100278,299.
6.38,6305.,19.,14.,3649.,0.,0.,9987.,0.557975387167,1.5270905333,247.
6.4,6302.,12.,11.,3662.,0.,0.,9987.,0.532502116924,2.30750917334,156.
6.42,6303.,9.,11.,3664.,0.,0.,9987.,0.51139326946,2.95471666799,117.
6.44,6303.,10.,8.,3664.,0.,0.,9985.,0.494651649054,2.57218857508,130.
6.46,6310.,9.,5.,3657.,0.,0.,9981.,0.483156101621,2.79156858714,117.
6.48,6317.,11.,0.,3656.,0.,0.,9984.,0.476116638024,2.25073319793,143.
6.5,6326.,7.,4.,3649.,0.,0.,9986.,0.474206640866,3.52267790358,91.
6.52,6338.,2.,1.,3647.,0.,0.,9988.,0.477508113138,12.4152109416,26.
6.54,6347.,2.,1.,3635.,0.,0.,9985.,0.485794500405,12.6306570105,26.
6.56,6355.,2.,1.,3629.,0.,0.,9987.,0.49863266843,12.9644493792,26.
6.58,6359.,1.,2.,3625.,0.,0.,9987.,0.515936823814,26.8287148383,13.
6.6,6369.,2.,1.,3618.,0.,0.,9990.,0.538001826789,13.9880474965,26.
6.62,6376.,0.,2.,3613.,0.,0.,9991.,0.564032787667,inf,0.
6.64,6381.,1.,0.,3609.,0.,0.,9991.,0.593652822998,30.8699467959,13.
6.66,6388.,1.,0.,3602.,0.,0.,9991.,0.626721332179,32.5895092733,13.
6.68,6388.,2.,0.,3599.,0.,0.,9989.,0.661967407089,17.2111525843,26.
6.7,6397.,3.,0.,3589.,0.,0.,9989.,0.700216101642,12.1370790951,39.
6.72,6405.,0.,3.,3581.,0.,0.,9989.,0.740013935136,inf,0.
6.74,6419.,0.,0.,3575.,0.,0.,9994.,0.781195325836,inf,0.
6.76,6427.,1.,0.,3566.,0.,0.,9994.,0.822471409836,42.7685133115,13.
6.78,6434.,1.,0.,3558.,0.,0.,9993.,0.863481841469,44.9010557564,13.
6.8,6440.,1.,0.,3554.,0.,0.,9995.,0.90322548359,46.9677251467,13.
6.82,6449.,1.,1.,3543.,0.,0.,9994.,0.942178826632,48.9932989849,13.
6.84,6450.,2.,1.,3539.,0.,0.,9992.,0.977964354926,25.4270732281,26.
6.86,6452.,6.,2.,3531.,0.,0.,9991.,1.01110756425,8.76293222351,78.
6.88,6455.,9.,1.,3526.,0.,0.,9991.,1.04109379911,6.01520861711,117.
6.9,6453.,10.,3.,3523.,0.,0.,9989.,1.06678621789,5.54728833303,130.
6.92,6459.,9.,7.,3516.,0.,0.,9991.,1.08927355543,6.29358054248,117.
6.94,6458.,13.,6.,3517.,0.,0.,9994.,1.10602071436,4.42408285743,169.
6.96,6457.,17.,6.,3513.,0.,0.,9993.,1.1184736501,3.42121351795,221.
6.98,6453.,17.,7.,3518.,0.,0.,9995.,1.12513883093,3.44160112991,221.
7.,6454.,16.,4.,3521.,0.,0.,9995.,1.12785418056,3.66552608683,208.
7.02,6456.,10.,9.,3518.,0.,0.,9993.,1.12588719811,5.85461343019,130.
7.04,6453.,17.,6.,3516.,0.,0.,9992.,1.11789264256,3.41943631842,221.
7.06,6440.,22.,8.,3518.,0.,0.,9988.,1.10360052633,2.60851033497,286.
7.08,6443.,20.,15.,3511.,0.,0.,9989.,1.08679280094,2.82566128243,260.
7.1,6443.,21.,10.,3513.,0.,0.,9987.,1.06534635859,2.63800050698,273.
7.12,6446.,24.,10.,3506.,0.,0.,9986.,1.04016278522,2.25368603465,312.
7.14,6441.,19.,17.,3508.,0.,0.,9985.,1.00999026933,2.76418389501,247.
7.16,6420.,35.,19.,3508.,0.,0.,9982.,0.9743908545,1.4476664124,455.
7.18,6410.,34.,26.,3514.,0.,0.,9984.,0.937419029844,1.4336996927,442.
7.2,6400.,33.,21.,3528.,0.,0.,9982.,0.89878439163,1.41626631408,429.
7.22,6391.,37.,16.,3536.,0.,0.,9980.,0.858828239338,1.20700184988,481.
7.24,6379.,38.,15.,3549.,0.,0.,9981.,0.817392036041,1.11853647037,494.
7.26,6377.,33.,12.,3562.,0.,0.,9984.,0.776861233668,1.22414497426,429.
7.28,6381.,23.,13.,3567.,0.,0.,9984.,0.737610260459,1.66764058886,299.
7.3,6382.,19.,11.,3570.,0.,0.,9982.,0.699064084244,1.91322802004,247.
7.32,6382.,23.,6.,3569.,0.,0.,9980.,0.661942050735,1.49656463644,299.
7.34,6385.,23.,9.,3566.,0.,0.,9983.,0.626928999686,1.41740469494,299.
7.36,6394.,16.,8.,3566.,0.,0.,9984.,0.595279341746,1.93465786067,208.
7.38,6406.,15.,7.,3560.,0.,0.,9988.,0.566856853564,1.96510375902,195.
7.4,6410.,12.,9.,3558.,0.,0.,9989.,0.541519382737,2.34658399186,156.
7.42,6409.,10.,8.,3556.,0.,0.,9983.,0.520201920397,2.70504998607,130.
7.44,6414.,7.,10.,3554.,0.,0.,9985.,0.503362791851,3.73926645375,91.
7.46,6428.,6.,2.,3551.,0.,0.,9987.,0.491895651212,4.26309564383,78.
7.48,6434.,7.,2.,3543.,0.,0.,9986.,0.484837885582,3.60165286432,91.
7.5,6438.,6.,5.,3541.,0.,0.,9990.,0.482409098096,4.18087885016,78.
7.52,6441.,5.,5.,3539.,0.,0.,9990.,0.485171034243,5.04577875612,65.
7.54,6446.,2.,2.,3538.,0.,0.,9988.,0.493223694901,12.8238160674,26.
7.56,6454.,0.,3.,3531.,0.,0.,9988.,0.506349809265,inf,0.
7.58,6463.,0.,1.,3525.,0.,0.,9989.,0.524269862867,inf,0.
7.6,6467.,0.,0.,3523.,0.,0.,9990.,0.546280077539,inf,0.
7.62,6482.,0.,0.,3512.,0.,0.,9994.,0.573237618101,inf,0.
7.64,6487.,0.,0.,3507.,0.,0.,9994.,0.603333311617,inf,0.
7.66,6491.,1.,1.,3496.,0.,0.,9989.,0.636954081522,33.1216122391,13.
7.68,6504.,0.,0.,3488.,0.,0.,9992.,0.673785746834,inf,0.
7.7,6512.,0.,0.,3481.,0.,0.,9993.,0.712518688971,inf,0.
7.72,6521.,0.,0.,3476.,0.,0.,9997.,0.752813303329,inf,0.
7.74,6539.,0.,0.,3465.,0.,0.,10004.,0.795003901213,inf,0.
7.76,6542.,1.,0.,3458.,0.,0.,10001.,0.836602133838,43.5033109596,13.
7.78,6556.,1.,0.,3445.,0.,0.,10002.,0.879063270623,45.7112900724,13.
7.8,6564.,2.,0.,3433.,0.,0.,9999.,0.92024849818,23.9264609527,26.
7.82,6570.,1.,3.,3427.,0.,0.,10001.,0.959184717602,49.8776053153,13.
7.84,6569.,6.,0.,3426.,0.,0.,10001.,0.995111101174,8.62429621018,78.
7.86,6573.,10.,0.,3424.,0.,0.,10007.,1.02842279016,5.34779850883,130.
7.88,6580.,4.,3.,3423.,0.,0.,10010.,1.05924003815,13.7701204959,52.
7.9,6590.,4.,4.,3416.,0.,0.,10014.,1.08671477514,14.1272920768,52.
7.92,6597.,8.,3.,3407.,0.,0.,10015.,1.10988035694,7.21422232009,104.
7.94,6602.,7.,8.,3392.,0.,0.,10009.,1.12898818238,8.38676935483,91.
7.96,6599.,13.,6.,3390.,0.,0.,10008.,1.1413574811,4.56542992441,169.
7.98,6599.,15.,6.,3389.,0.,0.,10009.,1.14898586464,3.98315099743,195.
8.,6594.,15.,10.,3389.,0.,0.,10008.,1.15082274611,3.98951885318,195.
8.02,6593.,13.,12.,3392.,0.,0.,10010.,1.14782649432,4.59130597726,169.
8.04,6582.,24.,12.,3395.,0.,0.,10013.,1.13784870584,2.46533886266,312.
8.06,6570.,30.,14.,3399.,0.,0.,10013.,1.12306713562,1.94664970174,390.
8.08,6559.,40.,14.,3401.,0.,0.,10014.,1.10359742518,1.43467665274,520.
8.1,6542.,36.,22.,3409.,0.,0.,10009.,1.07933831665,1.55904423515,468.
8.12,6527.,40.,15.,3426.,0.,0.,10008.,1.05091813916,1.3661935809,520.
8.14,6515.,37.,18.,3437.,0.,0.,10007.,1.01934801124,1.43259720499,481.
8.16,6509.,33.,12.,3457.,0.,0.,10011.,0.985037006615,1.55217952558,429.
8.18,6503.,32.,17.,3458.,0.,0.,10010.,0.948549468247,1.5413928859,416.
8.2,6487.,36.,8.,3474.,0.,0.,10005.,0.908907983926,1.31286708789,468.
8.22,6486.,25.,18.,3481.,0.,0.,10010.,0.868982252363,1.80748308491,325.
8.24,6474.,28.,17.,3487.,0.,0.,10006.,0.827492472827,1.53677173525,364.
8.26,6473.,34.,7.,3498.,0.,0.,10012.,0.786350869956,1.2026542717,442.
8.28,6471.,31.,13.,3499.,0.,0.,10014.,0.745772886121,1.25097387349,403.
8.3,6471.,25.,11.,3508.,0.,0.,10015.,0.706477283526,1.46947274973,325.
8.32,6474.,21.,8.,3510.,0.,0.,10013.,0.669271284025,1.65724317949,273.
8.34,6479.,15.,12.,3510.,0.,0.,10016.,0.634062681367,2.19808396207,195.
8.36,6481.,15.,11.,3508.,0.,0.,10015.,0.601511340308,2.08523931307,195.
8.38,6490.,14.,9.,3504.,0.,0.,10017.,0.572627267091,2.12690127777,182.
8.4,6489.,15.,4.,3508.,0.,0.,10016.,0.546715576977,1.89528066685,195.
8.42,6497.,5.,10.,3507.,0.,0.,10019.,0.525449811785,5.46467804256,65.
8.44,6500.,7.,2.,3513.,0.,0.,10022.,0.508228694472,3.77541315894,91.
8.46,6506.,7.,3.,3502.,0.,0.,10018.,0.496323908773,3.68697760802,91.
8.48,6514.,4.,5.,3500.,0.,0.,10023.,0.489054295279,6.35770583863,52.
8.5,6524.,4.,0.,3498.,0.,0.,10026.,0.487097900696,6.33227270905,52.
8.52,6530.,3.,1.,3491.,0.,0.,10025.,0.490157727363,8.49606727429,39.
8.54,6535.,2.,3.,3487.,0.,0.,10027.,0.498088760403,12.9503077705,26.
8.56,6545.,1.,1.,3483.,0.,0.,10030.,0.511339027578,26.589629434,13.
8.58,6551.,2.,1.,3476.,0.,0.,10030.,0.529236047171,13.7601372264,26.
8.6,6553.,2.,1.,3473.,0.,0.,10029.,0.551392083225,14.3361941639,26.
8.62,6561.,2.,2.,3463.,0.,0.,10028.,0.57825675353,15.0346755918,26.
8.64,6573.,2.,0.,3454.,0.,0.,10029.,0.609198398076,15.83915835,26.
8.66,6583.,2.,0.,3444.,0.,0.,10029.,0.643405475695,16.7285423681,26.
8.68,6592.,1.,0.,3436.,0.,0.,10029.,0.680382727515,35.3799018308,13.
8.7,6601.,2.,1.,3429.,0.,0.,10033.,0.71937721165,18.7038075029,26.
8.72,6606.,1.,2.,3424.,0.,0.,10033.,0.759889658467,39.5142622403,13.
8.74,6614.,1.,1.,3420.,0.,0.,10036.,0.80155835154,41.6810342801,13.
8.76,6620.,1.,0.,3415.,0.,0.,10036.,0.843624516494,43.8684748577,13.
8.78,6628.,0.,0.,3404.,0.,0.,10032.,0.886059764939,inf,0.
8.8,6633.,1.,0.,3395.,0.,0.,10029.,0.927140343521,48.2112978631,13.
8.82,6644.,1.,0.,3385.,0.,0.,10030.,0.967183767734,50.2935559222,13.
8.84,6656.,1.,0.,3375.,0.,0.,10032.,1.00517464761,52.2690816756,13.
8.86,6650.,8.,0.,3371.,0.,0.,10029.,1.03818792574,6.74822151729,104.
8.88,6659.,10.,3.,3357.,0.,0.,10029.,1.06992652818,5.56361794654,130.
8.9,6655.,14.,4.,3356.,0.,0.,10029.,1.09579211941,4.07008501496,182.
8.92,6662.,10.,2.,3353.,0.,0.,10027.,1.11947461005,5.82126797227,130.
8.94,6661.,12.,5.,3351.,0.,0.,10029.,1.13680602745,4.9261594523,156.
8.96,6668.,14.,5.,3343.,0.,0.,10030.,1.15076201028,4.27425889531,182.
8.98,6666.,14.,11.,3341.,0.,0.,10032.,1.15799059611,4.30110792839,182.
9.,6666.,17.,8.,3344.,0.,0.,10035.,1.16025840603,3.54902571256,221.
9.02,6662.,17.,7.,3346.,0.,0.,10032.,1.15729573226,3.53996341633,221.
9.04,6656.,19.,5.,3353.,0.,0.,10033.,1.148347579,3.14284600568,247.
9.06,6663.,12.,13.,3347.,0.,0.,10035.,1.13646745066,4.92469228619,156.
9.08,6657.,20.,10.,3347.,0.,0.,10034.,1.1178540252,2.90642046551,260.
9.1,6648.,20.,15.,3351.,0.,0.,10034.,1.09409405546,2.8446445442,260.
9.12,6631.,34.,12.,3359.,0.,0.,10036.,1.06468453895,1.62834105957,442.
9.14,6626.,29.,19.,3363.,0.,0.,10037.,1.03361657989,1.85338145359,377.
9.16,6616.,31.,15.,3371.,0.,0.,10033.,0.999034349817,1.67579955453,403.
9.18,6606.,32.,16.,3382.,0.,0.,10036.,0.9610770908,1.56175027255,416.
9.2,6600.,26.,20.,3388.,0.,0.,10034.,0.922068004127,1.84413600825,338.
9.22,6586.,31.,23.,3392.,0.,0.,10032.,0.880445022917,1.47687552231,403.
9.24,6574.,25.,23.,3409.,0.,0.,10031.,0.838180059744,1.74341452427,325.
9.26,6566.,22.,23.,3422.,0.,0.,10033.,0.795979112881,1.8814051759,286.
9.28,6558.,34.,13.,3428.,0.,0.,10033.,0.754368207724,1.15373961181,442.
9.3,6554.,30.,15.,3435.,0.,0.,10034.,0.71418396651,1.23791887528,390.
9.32,6566.,20.,16.,3434.,0.,0.,10036.,0.677226491387,1.76078887761,260.
9.34,6568.,18.,8.,3439.,0.,0.,10033.,0.641683483112,1.85375228454,234.
9.36,6575.,12.,12.,3435.,0.,0.,10034.,0.609080102519,2.63934711092,156.
9.38,6566.,24.,6.,3437.,0.,0.,10033.,0.578409033825,1.25321957329,312.
9.4,6567.,17.,13.,3437.,0.,0.,10034.,0.552294742784,1.6893721544,221.
9.42,6570.,15.,10.,3440.,0.,0.,10035.,0.530506541469,1.83908934376,195.
9.44,6575.,7.,14.,3439.,0.,0.,10035.,0.513426881947,3.81402826589,91.
9.46,6575.,6.,9.,3442.,0.,0.,10032.,0.500887736195,4.34102704702,78.
9.48,6581.,5.,4.,3444.,0.,0.,10034.,0.493542830912,5.13284544148,65.
9.5,6586.,6.,4.,3440.,0.,0.,10036.,0.491237010221,4.25738742191,78.
9.52,6587.,3.,7.,3439.,0.,0.,10036.,0.493894357421,8.56083552864,39.
9.54,6590.,2.,6.,3435.,0.,0.,10033.,0.501980407939,13.0514906064,26.
9.56,6594.,2.,2.,3433.,0.,0.,10031.,0.515115876686,13.3930127938,26.
9.58,6599.,3.,0.,3429.,0.,0.,10031.,0.533060679548,9.2397184455,39.
9.6,6604.,3.,1.,3421.,0.,0.,10029.,0.555683399606,9.63184559318,39.
9.62,6617.,2.,1.,3412.,0.,0.,10032.,0.582959806463,15.156954968,26.
9.64,6620.,2.,3.,3404.,0.,0.,10029.,0.613554449302,15.9524156819,26.
9.66,6625.,2.,0.,3403.,0.,0.,10030.,0.647445890216,16.8335931456,26.
9.68,6630.,0.,2.,3394.,0.,0.,10026.,0.684509595762,inf,0.
9.7,6638.,0.,0.,3389.,0.,0.,10027.,0.723842349865,inf,0.
9.72,6644.,0.,0.,3379.,0.,0.,10023.,0.765023314012,inf,0.
9.74,6651.,0.,0.,3371.,0.,0.,10022.,0.807168406802,inf,0.
9.76,6655.,0.,0.,3366.,0.,0.,10021.,0.849354228241,inf,0.
9.78,6659.,1.,0.,3358.,0.,0.,10018.,0.891448025577,46.35529733,13.
9.8,6673.,1.,1.,3350.,0.,0.,10025.,0.933103582684,48.5213862996,13.
9.82,6686.,0.,3.,3336.,0.,0.,10025.,0.973783248544,inf,0.
9.84,6688.,1.,3.,3334.,0.,0.,10026.,1.01061165083,52.5518058434,13.
9.86,6700.,3.,1.,3322.,0.,0.,10026.,1.04630683439,18.1359851294,39.
9.88,6702.,5.,0.,3315.,0.,0.,10022.,1.07758762977,11.2069113496,65.
9.9,6709.,6.,3.,3307.,0.,0.,10025.,1.10512436717,9.57774451549,78.
9.92,6708.,6.,3.,3308.,0.,0.,10025.,1.12742927439,9.77105371141,78.
9.94,6707.,7.,5.,3306.,0.,0.,10025.,1.14511338295,8.50655655902,91.
9.96,6715.,8.,4.,3300.,0.,0.,10027.,1.15921998602,7.53492990911,104.
9.98,6718.,10.,3.,3295.,0.,0.,10026.,1.16772222454,6.07215556759,130.
10.,6727.,10.,1.,3289.,0.,0.,10027.,1.17181001057,6.09341205496,130.
