t,prevalence
5.,5
5.02,8
5.04,7
5.06,12
5.08,9
5.1,14
5.12,12
5.14,6
5.16,9
5.18,6
5.2,8
5.22,8
5.24,7
5.26,3
5.28,8
5.3,8
5.32,5
5.34,8
5.36,8
5.38,7
5.4,6
5.42,5
5.44,2
5.46,2
5.48,1
5.5,0
5.52,1
5.54,0
5.56,0
5.58,0
5.6,2
5.62,2
5.64,0
5.66,0
5.68,0
5.7,0
5.72,1
5.74,0
5.76,0
5.78,1
5.8,1
5.82,2
5.84,2
5.86,1
5.88,3
5.9,2
5.92,1
5.94,5
5.96,5
5.98,5
6.,4
6.02,4
6.04,3
6.06,5
6.08,6
6.1,8
6.12,5
6.14,9
6.16,6
6.18,9
6.2,6
6.22,5
6.24,8
6.26,6
6.28,9
6.3,9
6.32,9
6.34,5
6.36,6
6.38,5
6.4,5
6.42,8
6.44,6
6.46,6
6.48,1
6.5,2
6.52,3
6.54,3
6.56,1
6.58,1
6.6,0
6.62,0
6.64,0
6.66,0
6.68,0
6.7,0
6.72,0
6.74,0
6.76,0
6.78,0
6.8,0
6.82,0
6.84,0
6.86,0
6.88,0
6.9,0
6.92,3
6.94,1
6.96,3
6.98,2
7.,5
7.02,6
7.04,6
7.06,3
7.08,5
7.1,7
7.12,6
7.14,9
7.16,10
7.18,10
7.2,8
7.22,6
7.24,7
7.26,9
7.28,9
7.3,5
7.32,12
7.34,4
7.36,8
7.38,9
7.4,12
7.42,5
7.44,4
7.46,2
7.48,2
7.5,3
7.52,3
7.54,3
7.56,2
7.58,0
7.6,0
7.62,0
7.64,0
7.66,1
7.68,0
7.7,0
7.72,0
7.74,0
7.76,0
7.78,0
7.8,0
7.82,2
7.84,0
7.86,2
7.88,1
7.9,2
7.92,5
7.94,3
7.96,0
7.98,2
8.,5
8.02,5
8.04,8
8.06,6
8.08,4
8.1,6
8.12,16
8.14,9
8.16,8
8.18,13
8.2,8
8.22,5
8.24,8
8.26,10
8.28,7
8.3,7
8.32,6
8.34,10
8.36,5
8.38,4
8.4,1
8.42,3
8.44,3
8.46,3
8.48,2
8.5,0
8.52,2
8.54,0
8.56,0
8.58,0
8.6,0
8.62,1
8.64,0
8.66,0
8.68,0
8.7,0
8.72,0
8.74,0
8.76,0
8.78,0
8.8,0
8.82,1
8.84,2
8.86,1
8.88,2
8.9,4
8.92,3
8.94,1
8.96,4
8.98,4
9.,3
9.02,6
9.04,9
9.06,4
9.08,9
9.1,7
9.12,6
9.14,6
9.16,6
9.18,5
9.2,7
9.22,9
9.24,9
9.26,4
9.28,7
9.3,5
9.32,4
9.34,4
9.36,6
9.38,3
9.4,5
9.42,1
9.44,0
9.46,3
9.48,1
9.5,1
9.52,3
9.54,1
9.56,1
9.58,2
9.6,0
9.62,0
9.64,0
9.66,0
9.68,0
9.7,1
9.72,0
9.74,0
9.76,1
9.78,0
9.8,0
9.82,0
9.84,1
9.86,1
9.88,1
9.9,2
9.92,2
9.94,2
9.96,1
9.98,5
10.,1
