t,s,e,i,r,c,o,n,reff,coal,reportr
5.,6487.,28.,3.,3482.,0.,0.,10000.,1.06988931293,1.98693729545,364.
5.02,6490.,11.,18.,3483.,0.,0.,10002.,1.06775903196,5.04758815107,143.
5.04,6467.,27.,8.,3495.,0.,0.,9997.,1.05733397468,2.0363469142,351.
5.06,6455.,28.,7.,3504.,0.,0.,9994.,1.04387771722,1.93863004626,364.
5.08,6456.,23.,14.,3502.,0.,0.,9995.,1.02766015556,2.3234055691,299.
5.1,6437.,27.,23.,3506.,0.,0.,9993.,1.0044157784,1.93443038802,351.
5.12,6431.,31.,14.,3515.,0.,0.,9991.,0.979400413794,1.64286521023,403.
5.14,6416.,32.,17.,3525.,0.,0.,9990.,0.949508784773,1.54295177526,416.
5.16,6406.,39.,13.,3533.,0.,0.,9991.,0.917237648596,1.22298353146,507.
5.18,6395.,36.,21.,3538.,0.,0.,9990.,0.882558555592,1.27480680252,468.
5.2,6374.,40.,23.,3550.,0.,0.,9987.,0.844808515943,1.09825107073,520.
5.22,6362.,51.,15.,3559.,0.,0.,9987.,0.806705123451,0.822522870969,663.
5.24,6348.,41.,17.,3576.,0.,0.,9982.,0.767996725637,0.974044627637,533.
5.26,6342.,33.,21.,3588.,0.,0.,9984.,0.729527103127,1.14955785947,429.
5.28,6337.,32.,10.,3606.,0.,0.,9985.,0.691618458144,1.12387999448,416.
5.3,6337.,28.,9.,3609.,0.,0.,9983.,0.655373010118,1.21712130451,364.
5.32,6344.,16.,15.,3610.,0.,0.,9985.,0.621007689883,2.01827499212,208.
5.34,6343.,17.,14.,3615.,0.,0.,9989.,0.587732068121,1.79776867896,221.
5.36,6343.,19.,15.,3616.,0.,0.,9993.,0.557108437662,1.52471782939,247.
5.38,6336.,22.,12.,3620.,0.,0.,9990.,0.529301155336,1.25107545807,286.
5.4,6338.,20.,11.,3621.,0.,0.,9990.,0.505536941588,1.31439604813,260.
5.42,6337.,13.,15.,3622.,0.,0.,9987.,0.485489194531,1.94195677812,169.
5.44,6338.,9.,11.,3630.,0.,0.,9988.,0.46952863644,2.71283212165,117.
5.46,6344.,8.,7.,3629.,0.,0.,9988.,0.458358158426,2.97932802977,104.
5.48,6349.,7.,7.,3624.,0.,0.,9987.,0.451716018287,3.35560470727,91.
5.5,6356.,5.,4.,3624.,0.,0.,9989.,0.449759185301,4.67749552713,65.
5.52,6361.,1.,4.,3621.,0.,0.,9987.,0.452569789309,23.5336290441,13.
5.54,6370.,0.,0.,3618.,0.,0.,9988.,0.460236675468,inf,0.
5.56,6382.,0.,0.,3608.,0.,0.,9990.,0.472693570764,inf,0.
5.58,6393.,1.,0.,3598.,0.,0.,9992.,0.489534371459,25.4557873159,13.
5.6,6402.,0.,1.,3589.,0.,0.,9992.,0.510539553849,inf,0.
5.62,6416.,1.,0.,3577.,0.,0.,9994.,0.535769728318,27.8600258725,13.
5.64,6420.,0.,1.,3568.,0.,0.,9989.,0.564097177946,inf,0.
5.66,6427.,0.,0.,3562.,0.,0.,9989.,0.595515371561,inf,0.
5.68,6439.,0.,0.,3554.,0.,0.,9993.,0.629802544061,inf,0.
5.7,6445.,0.,0.,3550.,0.,0.,9995.,0.665742127151,inf,0.
5.72,6458.,0.,0.,3539.,0.,0.,9997.,0.703978322215,inf,0.
5.74,6464.,0.,0.,3533.,0.,0.,9997.,0.742593975528,inf,0.
5.76,6471.,0.,0.,3527.,0.,0.,9998.,0.781624714883,inf,0.
5.78,6482.,2.,0.,3517.,0.,0.,10001.,0.820770615301,21.3400359978,26.
5.8,6496.,0.,2.,3504.,0.,0.,10002.,0.859687158993,inf,0.
5.82,6507.,1.,1.,3495.,0.,0.,10004.,0.896758687098,46.6314517291,13.
5.84,6509.,6.,0.,3489.,0.,0.,10004.,0.930774518922,8.06671249733,78.
5.86,6512.,5.,2.,3483.,0.,0.,10002.,0.962559670927,10.0106205776,65.
5.88,6521.,5.,0.,3481.,0.,0.,10007.,0.991518982158,10.3117974144,65.
5.9,6523.,4.,2.,3477.,0.,0.,10006.,1.01651264323,13.214664362,52.
5.92,6526.,6.,2.,3473.,0.,0.,10007.,1.03755700008,8.99216066735,78.
5.94,6530.,9.,3.,3467.,0.,0.,10009.,1.05442384279,6.09222664725,117.
5.96,6534.,13.,1.,3457.,0.,0.,10005.,1.06743405853,4.2697362341,169.
5.98,6536.,15.,4.,3453.,0.,0.,10008.,1.07468244318,3.72556580302,195.
6.,6544.,12.,5.,3447.,0.,0.,10008.,1.07842747905,4.67318574254,156.
6.02,6536.,16.,8.,3447.,0.,0.,10007.,1.07478983625,3.49306696781,208.
6.04,6532.,26.,6.,3442.,0.,0.,10006.,1.06700067959,2.13400135919,338.
6.06,6523.,31.,9.,3442.,0.,0.,10005.,1.05371463313,1.76752132008,403.
6.08,6515.,33.,12.,3447.,0.,0.,10007.,1.03580812987,1.63218250767,429.
6.1,6508.,31.,15.,3452.,0.,0.,10006.,1.01417511607,1.70119696889,403.
6.12,6494.,36.,16.,3459.,0.,0.,10005.,0.987611012332,1.42654924004,468.
6.14,6483.,32.,17.,3469.,0.,0.,10001.,0.958368905353,1.5573494712,416.
6.16,6468.,31.,16.,3483.,0.,0.,9998.,0.92546665551,1.55239568021,403.
6.18,6475.,27.,13.,3489.,0.,0.,10004.,0.892348624398,1.71859735069,351.
6.2,6469.,25.,14.,3495.,0.,0.,10003.,0.856028366178,1.78053900165,325.
6.22,6454.,28.,20.,3498.,0.,0.,10000.,0.817306892396,1.51785565731,364.
6.24,6439.,33.,16.,3509.,0.,0.,9997.,0.777837270641,1.22568297192,429.
6.26,6431.,33.,14.,3518.,0.,0.,9996.,0.738876796088,1.16429070899,429.
6.28,6416.,43.,14.,3523.,0.,0.,9996.,0.699469923903,0.84587060565,559.
6.3,6411.,38.,11.,3535.,0.,0.,9995.,0.662230066279,0.906209564381,494.
6.32,6406.,35.,17.,3538.,0.,0.,9996.,0.626386746139,0.930631737121,455.
6.34,6404.,30.,13.,3549.,0.,0.,9996.,0.592968693778,1.02781240255,390.
6.36,6393.,25.,15.,3559.,0.,0.,9992.,0.561556154273,1.16803680089,325.
6.38,6390.,19.,16.,3565.,0.,0.,9990.,0.533812244728,1.46095982768,247.
6.4,6386.,16.,9.,3576.,0.,0.,9987.,0.509518566953,1.6559353426,208.
6.42,6388.,14.,8.,3576.,0.,0.,9986.,0.489445406336,1.81794008068,182.
6.44,6392.,10.,7.,3579.,0.,0.,9988.,0.473529038202,2.46235099865,130.
6.46,6393.,11.,3.,3579.,0.,0.,9986.,0.461990949746,2.18395721698,143.
6.48,6399.,7.,4.,3576.,0.,0.,9986.,0.455318988713,3.38236963044,91.
6.5,6399.,9.,3.,3575.,0.,0.,9986.,0.452937954674,2.61697484923,117.
6.52,6400.,5.,4.,3575.,0.,0.,9984.,0.45548136741,4.73700622106,65.
6.54,6405.,4.,0.,3573.,0.,0.,9982.,0.463043608367,6.01956690878,52.
6.56,6411.,1.,3.,3566.,0.,0.,9981.,0.475269675449,24.7140231233,13.
6.58,6424.,1.,1.,3557.,0.,0.,9983.,0.492351621127,25.6022842986,13.
6.6,6435.,0.,1.,3546.,0.,0.,9982.,0.513685297609,inf,0.
6.62,6444.,0.,1.,3538.,0.,0.,9983.,0.538700802149,inf,0.
6.64,6450.,0.,1.,3530.,0.,0.,9981.,0.567187395659,inf,0.
6.66,6453.,0.,2.,3526.,0.,0.,9981.,0.598403739459,inf,0.
6.68,6459.,0.,1.,3521.,0.,0.,9981.,0.632518310002,inf,0.
6.7,6464.,1.,1.,3515.,0.,0.,9981.,0.668641315528,34.7693484075,13.
6.72,6476.,2.,0.,3505.,0.,0.,9983.,0.706930478869,18.3801924506,26.
6.74,6483.,1.,1.,3497.,0.,0.,9982.,0.745895903519,38.786586983,13.
6.76,6489.,2.,0.,3491.,0.,0.,9982.,0.785055254042,20.4114366051,26.
6.78,6494.,0.,3.,3487.,0.,0.,9984.,0.823690225281,inf,0.
6.8,6505.,1.,2.,3478.,0.,0.,9986.,0.86225756426,44.8373933415,13.
6.82,6509.,1.,2.,3471.,0.,0.,9983.,0.898921295946,46.7439073892,13.
6.84,6513.,4.,2.,3463.,0.,0.,9982.,0.93339916836,12.1341891887,52.
6.86,6524.,8.,3.,3450.,0.,0.,9985.,0.965975259109,6.27883918421,104.
6.88,6526.,9.,5.,3446.,0.,0.,9986.,0.994365940653,5.74522543488,117.
6.9,6533.,6.,4.,3440.,0.,0.,9983.,1.02041654539,8.84361006006,78.
6.92,6535.,11.,2.,3433.,0.,0.,9981.,1.04169440478,4.92437354989,143.
6.94,6543.,8.,5.,3425.,0.,0.,9981.,1.05948689786,6.88666483609,104.
6.96,6539.,14.,4.,3424.,0.,0.,9981.,1.07081957163,3.97732983747,182.
6.98,6536.,12.,6.,3426.,0.,0.,9980.,1.0776975843,4.67002286531,156.
7.,6532.,18.,3.,3426.,0.,0.,9979.,1.0795781967,3.11878145713,234.
7.02,6533.,12.,9.,3425.,0.,0.,9979.,1.07731087205,4.66834711222,156.
7.04,6523.,21.,8.,3428.,0.,0.,9980.,1.06830646293,2.64533028917,273.
7.06,6509.,22.,12.,3436.,0.,0.,9979.,1.05419262734,2.49172802827,286.
7.08,6499.,28.,14.,3435.,0.,0.,9976.,1.03647514402,1.92488241032,364.
7.1,6503.,31.,13.,3435.,0.,0.,9982.,1.01583247637,1.70397705714,403.
7.12,6496.,31.,11.,3442.,0.,0.,9980.,0.990389910816,1.66129920524,403.
7.14,6487.,33.,16.,3445.,0.,0.,9981.,0.960881788762,1.51411675805,429.
7.16,6473.,41.,22.,3446.,0.,0.,9982.,0.927666638537,1.17655280985,533.
7.18,6462.,36.,14.,3468.,0.,0.,9980.,0.892698656554,1.28945361502,468.
7.2,6453.,37.,14.,3477.,0.,0.,9981.,0.855793302415,1.20273653312,481.
7.22,6457.,34.,17.,3476.,0.,0.,9984.,0.818997195047,1.25258394537,442.
7.24,6448.,31.,14.,3490.,0.,0.,9983.,0.780016830394,1.3084153284,403.
7.26,6430.,35.,15.,3501.,0.,0.,9981.,0.739872155435,1.09923863093,455.
7.28,6424.,38.,12.,3511.,0.,0.,9985.,0.701113614505,0.959418630375,494.
7.3,6422.,35.,15.,3513.,0.,0.,9985.,0.664030684132,0.986559873568,455.
7.32,6419.,20.,23.,3523.,0.,0.,9985.,0.628349363392,1.63370834482,260.
7.34,6416.,23.,12.,3538.,0.,0.,9989.,0.594496129444,1.3440782057,299.
7.36,6423.,17.,9.,3543.,0.,0.,9992.,0.564191330971,1.72576171826,221.
7.38,6431.,14.,4.,3548.,0.,0.,9997.,0.536861152133,1.99405570792,182.
7.4,6441.,10.,9.,3543.,0.,0.,10003.,0.513084837143,2.66804115315,130.
7.42,6446.,7.,6.,3543.,0.,0.,10002.,0.493099272775,3.66302316919,91.
7.44,6448.,4.,7.,3540.,0.,0.,9999.,0.477152105079,6.20297736603,52.
7.46,6460.,6.,3.,3531.,0.,0.,10000.,0.466179147381,4.0402192773,78.
7.48,6471.,5.,0.,3526.,0.,0.,10002.,0.459705567734,4.78093790443,65.
7.5,6482.,4.,0.,3517.,0.,0.,10003.,0.45803316371,5.95443112823,52.
7.52,6488.,2.,0.,3511.,0.,0.,10001.,0.460959349499,11.984943087,26.
7.54,6495.,0.,2.,3503.,0.,0.,10000.,0.468704885796,inf,0.
7.56,6503.,0.,1.,3496.,0.,0.,10000.,0.481173983765,inf,0.
7.58,6505.,0.,0.,3495.,0.,0.,10000.,0.497712114731,inf,0.
7.6,6515.,0.,0.,3488.,0.,0.,10003.,0.518979617138,inf,0.
7.62,6524.,0.,0.,3478.,0.,0.,10002.,0.544352552575,inf,0.
7.64,6533.,0.,0.,3473.,0.,0.,10006.,0.573050732173,inf,0.
7.66,6538.,0.,1.,3467.,0.,0.,10006.,0.604771207886,inf,0.
7.68,6540.,0.,0.,3464.,0.,0.,10004.,0.638978047873,inf,0.
7.7,6553.,0.,0.,3450.,0.,0.,10003.,0.676356729155,inf,0.
7.72,6560.,0.,0.,3446.,0.,0.,10006.,0.714454010219,inf,0.
7.74,6569.,0.,0.,3437.,0.,0.,10006.,0.753977748762,inf,0.
7.76,6576.,1.,1.,3431.,0.,0.,10009.,0.79343459257,41.2585988136,13.
7.78,6592.,1.,0.,3421.,0.,0.,10014.,0.833615559022,43.3480090691,13.
7.8,6603.,1.,0.,3414.,0.,0.,10018.,0.872452002297,45.3675041194,13.
7.82,6612.,2.,0.,3405.,0.,0.,10019.,0.909864953602,23.6564887936,26.
7.84,6617.,2.,0.,3397.,0.,0.,10016.,0.945084663694,24.572201256,26.
7.86,6620.,2.,1.,3391.,0.,0.,10014.,0.977350911816,25.4111237072,26.
7.88,6629.,5.,1.,3380.,0.,0.,10015.,1.007135253,10.4742066312,65.
7.9,6635.,7.,1.,3375.,0.,0.,10018.,1.03272764928,7.67169110892,91.
7.92,6636.,7.,1.,3373.,0.,0.,10017.,1.05399244703,7.82965817791,91.
7.94,6639.,8.,2.,3366.,0.,0.,10015.,1.07138223449,6.96398452419,104.
7.96,6639.,8.,5.,3363.,0.,0.,10015.,1.08350453535,7.04277947975,104.
7.98,6638.,12.,4.,3359.,0.,0.,10013.,1.09090878484,4.72727140097,156.
8.,6640.,15.,5.,3356.,0.,0.,10016.,1.09337393112,3.79036296121,195.
8.02,6639.,15.,10.,3351.,0.,0.,10015.,1.09085524004,3.7816314988,195.
8.04,6633.,20.,9.,3352.,0.,0.,10014.,1.0826334187,2.81484688862,260.
8.06,6629.,23.,12.,3353.,0.,0.,10017.,1.0695548734,2.41812406161,299.
8.08,6618.,28.,10.,3360.,0.,0.,10016.,1.05123846178,1.95230000044,364.
8.1,6617.,28.,17.,3354.,0.,0.,10016.,1.03013163283,1.91310160382,364.
8.12,6604.,30.,17.,3365.,0.,0.,10016.,1.00323686244,1.7389438949,390.
8.14,6594.,28.,20.,3374.,0.,0.,10016.,0.973317982044,1.80759053808,364.
8.16,6571.,42.,21.,3383.,0.,0.,10017.,0.938420940598,1.16185449788,546.
8.18,6552.,45.,23.,3394.,0.,0.,10014.,0.902058639809,1.04237887267,585.
8.2,6533.,48.,19.,3412.,0.,0.,10012.,0.863720228605,0.935696914322,624.
8.22,6525.,35.,24.,3426.,0.,0.,10010.,0.825472555471,1.22641636813,455.
8.24,6523.,28.,27.,3431.,0.,0.,10009.,0.787039818633,1.46164537746,364.
8.26,6512.,37.,15.,3449.,0.,0.,10013.,0.746912868013,1.04971538207,481.
8.28,6516.,28.,15.,3457.,0.,0.,10016.,0.708953412343,1.31662776578,364.
8.3,6510.,30.,13.,3462.,0.,0.,10015.,0.671113462797,1.16326333552,390.
8.32,6517.,24.,9.,3468.,0.,0.,10018.,0.635841055819,1.37765562094,312.
8.34,6518.,18.,15.,3469.,0.,0.,10020.,0.602078784042,1.73933870945,234.
8.36,6513.,19.,9.,3479.,0.,0.,10020.,0.570498187201,1.56136345971,247.
8.38,6516.,10.,10.,3482.,0.,0.,10018.,0.542816711775,2.82264690123,130.
8.4,6517.,12.,7.,3484.,0.,0.,10020.,0.518258160876,2.2457853638,156.
8.42,6523.,13.,1.,3483.,0.,0.,10020.,0.498093148736,1.99237259494,169.
8.44,6528.,12.,3.,3477.,0.,0.,10020.,0.482059679812,2.08892527919,156.
8.46,6539.,8.,5.,3471.,0.,0.,10023.,0.470797266091,3.06018222959,104.
8.48,6535.,7.,6.,3472.,0.,0.,10020.,0.463418198423,3.44253518828,91.
8.5,6546.,7.,2.,3464.,0.,0.,10019.,0.461816866863,3.43063958241,91.
8.52,6558.,2.,6.,3454.,0.,0.,10020.,0.465049203559,12.0912792925,26.
8.54,6567.,0.,3.,3452.,0.,0.,10022.,0.472860397659,inf,0.
8.56,6573.,0.,1.,3449.,0.,0.,10023.,0.485237420837,inf,0.
8.58,6577.,0.,0.,3440.,0.,0.,10017.,0.502366972087,inf,0.
8.6,6586.,0.,0.,3432.,0.,0.,10018.,0.523849880407,inf,0.
8.62,6588.,0.,0.,3429.,0.,0.,10017.,0.548869474819,inf,0.
8.64,6592.,0.,0.,3426.,0.,0.,10018.,0.577533370706,inf,0.
8.66,6602.,0.,0.,3418.,0.,0.,10020.,0.609838007401,inf,0.
8.68,6617.,0.,0.,3408.,0.,0.,10025.,0.645146917091,inf,0.
8.7,6623.,0.,0.,3397.,0.,0.,10020.,0.682421890597,inf,0.
8.72,6631.,0.,0.,3391.,0.,0.,10022.,0.7210337058,inf,0.
8.74,6642.,0.,0.,3380.,0.,0.,10022.,0.761139461734,inf,0.
8.76,6651.,2.,0.,3372.,0.,0.,10025.,0.801203028819,20.8312787493,26.
8.78,6659.,1.,1.,3362.,0.,0.,10023.,0.841332149639,43.7492717812,13.
8.8,6666.,3.,1.,3355.,0.,0.,10025.,0.880161163711,15.2561268377,39.
8.82,6666.,4.,0.,3350.,0.,0.,10020.,0.917204246119,11.9236551996,52.
8.84,6671.,3.,3.,3343.,0.,0.,10020.,0.952416950468,16.5085604748,39.
8.86,6670.,4.,2.,3344.,0.,0.,10020.,0.984143055977,12.7938597277,52.
8.88,6672.,4.,4.,3338.,0.,0.,10018.,1.01336463239,13.1737402211,52.
8.9,6672.,10.,3.,3332.,0.,0.,10017.,1.03859031537,5.40066963994,130.
8.92,6677.,11.,5.,3328.,0.,0.,10021.,1.06008114299,5.01129267596,143.
8.94,6682.,7.,8.,3323.,0.,0.,10020.,1.07778336308,8.00639069719,91.
8.96,6679.,12.,6.,3322.,0.,0.,10019.,1.08959746804,4.72158902819,156.
8.98,6678.,10.,9.,3321.,0.,0.,10018.,1.09693474925,5.7040606961,130.
9.,6681.,10.,10.,3320.,0.,0.,10021.,1.09957627593,5.71779663484,130.
9.02,6680.,14.,8.,3321.,0.,0.,10023.,1.09671589851,4.07351619446,182.
9.04,6678.,20.,10.,3315.,0.,0.,10023.,1.08899955648,2.83139884684,260.
9.06,6669.,25.,11.,3316.,0.,0.,10021.,1.07557916506,2.23720466333,325.
9.08,6657.,27.,15.,3319.,0.,0.,10018.,1.05722232335,2.03613188201,351.
9.1,6653.,31.,11.,3320.,0.,0.,10015.,1.03583951538,1.73753725161,403.
9.12,6638.,32.,13.,3329.,0.,0.,10012.,1.00880479932,1.63930779889,416.
9.14,6632.,35.,11.,3341.,0.,0.,10019.,0.978633912019,1.45397038357,455.
9.16,6626.,35.,17.,3342.,0.,0.,10020.,0.945992312067,1.40547429221,455.
9.18,6609.,42.,13.,3355.,0.,0.,10019.,0.909452129213,1.12598835045,546.
9.2,6600.,33.,20.,3363.,0.,0.,10016.,0.872229745893,1.37442262989,429.
9.22,6579.,41.,20.,3375.,0.,0.,10015.,0.831888523749,1.05507812768,533.
9.24,6565.,41.,17.,3392.,0.,0.,10015.,0.791632822742,1.00402211665,533.
9.26,6550.,41.,14.,3407.,0.,0.,10012.,0.751346426144,0.952927174621,533.
9.28,6542.,39.,17.,3413.,0.,0.,10011.,0.71213776275,0.949517017,507.
9.3,6539.,36.,19.,3419.,0.,0.,10013.,0.674237707513,0.973898910853,468.
9.32,6541.,33.,14.,3427.,0.,0.,10015.,0.638373820508,1.00592238383,429.
9.34,6545.,20.,20.,3429.,0.,0.,10014.,0.604935056683,1.57283114737,260.
9.36,6539.,22.,9.,3442.,0.,0.,10012.,0.573233296368,1.35491506414,286.
9.38,6540.,18.,17.,3439.,0.,0.,10014.,0.545033658424,1.57454167989,234.
9.4,6539.,17.,9.,3446.,0.,0.,10011.,0.520475182408,1.59204173443,221.
9.42,6545.,11.,8.,3449.,0.,0.,10013.,0.500122445113,2.36421519508,143.
9.44,6542.,10.,5.,3456.,0.,0.,10013.,0.483431235194,2.51384242301,130.
9.46,6545.,9.,4.,3455.,0.,0.,10013.,0.471699873695,2.72537704802,117.
9.48,6550.,6.,7.,3449.,0.,0.,10012.,0.464853037574,4.02872632564,78.
9.5,6555.,3.,3.,3449.,0.,0.,10010.,0.462867602983,8.0230384517,39.
9.52,6566.,2.,0.,3444.,0.,0.,10012.,0.465988556445,12.1157024676,26.
9.54,6573.,0.,2.,3440.,0.,0.,10015.,0.473623239403,inf,0.
9.56,6584.,0.,1.,3435.,0.,0.,10020.,0.486194995693,inf,0.
9.58,6596.,1.,0.,3429.,0.,0.,10026.,0.50336597694,26.1750308009,13.
9.6,6606.,2.,0.,3418.,0.,0.,10026.,0.525021416247,13.6505568224,26.
9.62,6618.,1.,2.,3405.,0.,0.,10026.,0.550873935307,28.645444636,13.
9.64,6621.,1.,1.,3402.,0.,0.,10025.,0.579669057733,30.1427910021,13.
9.66,6623.,1.,0.,3401.,0.,0.,10025.,0.61147268715,31.7965797318,13.
9.68,6632.,1.,0.,3395.,0.,0.,10028.,0.646415951918,33.6136294997,13.
9.7,6639.,1.,0.,3386.,0.,0.,10026.,0.683661123618,35.5503784281,13.
9.72,6647.,1.,0.,3379.,0.,0.,10027.,0.722413080933,37.5654802085,13.
9.74,6648.,2.,0.,3373.,0.,0.,10023.,0.761751023371,19.8055266077,26.
9.76,6659.,1.,0.,3364.,0.,0.,10024.,0.802246761783,41.7168316127,13.
9.78,6666.,1.,1.,3355.,0.,0.,10023.,0.842216565474,43.7952614046,13.
9.8,6670.,3.,2.,3348.,0.,0.,10023.,0.8808650469,15.2683274796,39.
9.82,6680.,2.,1.,3343.,0.,0.,10026.,0.918580519453,23.8830935058,26.
9.84,6690.,3.,0.,3333.,0.,0.,10026.,0.954557983963,16.545671722,39.
9.86,6696.,3.,1.,3331.,0.,0.,10031.,0.986895877148,17.1061952039,39.
9.88,6703.,5.,1.,3326.,0.,0.,10035.,1.01634832352,10.5700225646,65.
9.9,6708.,7.,2.,3315.,0.,0.,10032.,1.04263292477,7.74527315541,91.
9.92,6715.,8.,2.,3309.,0.,0.,10034.,1.06473300191,6.92076451242,104.
9.94,6715.,11.,3.,3303.,0.,0.,10032.,1.08181056681,5.11401358854,143.
9.96,6717.,10.,2.,3302.,0.,0.,10031.,1.09448581274,5.69132622627,130.
9.98,6720.,11.,5.,3296.,0.,0.,10032.,1.10229327214,5.21084092287,143.
10.,6720.,11.,4.,3294.,0.,0.,10029.,1.10511275939,5.22416940801,143.
