t,s,e,i,r,c,o,n,reff,coal,reportr
5.,5931.,30.,15.,4024.,0.,0.,10000.,1.09217589436,1.89310488355,390.
5.02,5928.,25.,19.,4034.,0.,0.,10006.,1.0885109819,2.26410284234,325.
5.04,5912.,33.,12.,4048.,0.,0.,10005.,1.0783656918,1.69924290829,429.
5.06,5908.,31.,13.,4057.,0.,0.,10009.,1.06515358756,1.78670924365,403.
5.08,5906.,32.,13.,4060.,0.,0.,10011.,1.04798360338,1.70297335549,416.
5.1,5896.,28.,20.,4064.,0.,0.,10008.,1.02566561043,1.90480756222,364.
5.12,5882.,31.,14.,4079.,0.,0.,10006.,0.998676810513,1.67519981118,403.
5.14,5869.,29.,26.,4081.,0.,0.,10005.,0.968315420402,1.73628971934,377.
5.16,5856.,41.,15.,4095.,0.,0.,10007.,0.9346968447,1.18546916889,533.
5.18,5852.,30.,18.,4104.,0.,0.,10004.,0.9004691004,1.56081310736,390.
5.2,5846.,34.,10.,4115.,0.,0.,10005.,0.863560368995,1.32073938787,442.
5.22,5841.,32.,15.,4119.,0.,0.,10007.,0.825295007947,1.34110438791,416.
5.24,5838.,31.,11.,4125.,0.,0.,10005.,0.786786183746,1.31977037273,403.
5.26,5830.,24.,10.,4139.,0.,0.,10003.,0.747356409157,1.61927221984,312.
5.28,5839.,24.,9.,4137.,0.,0.,10009.,0.709820331628,1.53794405186,312.
5.3,5841.,24.,7.,4138.,0.,0.,10010.,0.672649395509,1.4574070236,312.
5.32,5840.,21.,9.,4141.,0.,0.,10011.,0.636629809422,1.57641667095,273.
5.34,5848.,15.,13.,4137.,0.,0.,10013.,0.603558747278,2.09233699056,195.
5.36,5840.,20.,5.,4148.,0.,0.,10013.,0.571556613642,1.48604719547,260.
5.38,5845.,14.,9.,4145.,0.,0.,10013.,0.543930200026,2.02031217152,182.
5.4,5847.,9.,10.,4144.,0.,0.,10010.,0.519678653353,3.00258777493,117.
5.42,5859.,11.,0.,4141.,0.,0.,10011.,0.499973123528,2.36350931122,143.
5.44,5871.,6.,6.,4129.,0.,0.,10012.,0.484450417585,4.19857028574,78.
5.46,5873.,9.,2.,4129.,0.,0.,10013.,0.472591407656,2.73052813312,117.
5.48,5881.,7.,5.,4120.,0.,0.,10013.,0.46596348932,3.46144306352,91.
5.5,5890.,7.,1.,4117.,0.,0.,10015.,0.464143442164,3.44792271322,91.
5.52,5896.,2.,4.,4112.,0.,0.,10014.,0.467105319681,12.1447383117,26.
5.54,5896.,2.,4.,4111.,0.,0.,10013.,0.474442182793,12.3354967526,26.
5.56,5900.,1.,2.,4110.,0.,0.,10013.,0.486794755425,25.3133272821,13.
5.58,5905.,0.,0.,4108.,0.,0.,10013.,0.503797848231,inf,0.
5.6,5913.,0.,0.,4104.,0.,0.,10017.,0.525177445845,inf,0.
5.62,5925.,0.,0.,4091.,0.,0.,10016.,0.551209776508,inf,0.
5.64,5933.,0.,0.,4079.,0.,0.,10012.,0.580716453226,inf,0.
5.66,5942.,0.,2.,4068.,0.,0.,10012.,0.613321525493,inf,0.
5.68,5951.,0.,1.,4061.,0.,0.,10013.,0.648600558703,inf,0.
5.7,5959.,1.,0.,4053.,0.,0.,10013.,0.68603266799,35.6736987355,13.
5.72,5973.,2.,0.,4041.,0.,0.,10016.,0.725602629212,18.8656683595,26.
5.74,5984.,1.,2.,4030.,0.,0.,10017.,0.766025784746,39.8333408068,13.
5.76,5989.,3.,0.,4027.,0.,0.,10019.,0.806008577824,13.9708153489,39.
5.78,5998.,4.,0.,4015.,0.,0.,10017.,0.846632038885,11.0062165055,52.
5.8,6009.,3.,0.,4008.,0.,0.,10020.,0.886309629188,15.3627002393,39.
5.82,6013.,2.,1.,4000.,0.,0.,10016.,0.924134254124,24.0274906072,26.
5.84,6018.,5.,0.,3994.,0.,0.,10017.,0.959595312854,9.97979125368,65.
5.86,6030.,2.,4.,3981.,0.,0.,10017.,0.99368668357,25.8358537728,26.
5.88,6041.,6.,3.,3970.,0.,0.,10020.,1.02423958887,8.87674310357,78.
5.9,6042.,5.,9.,3962.,0.,0.,10018.,1.0500145321,10.9201511338,65.
5.92,6048.,10.,3.,3958.,0.,0.,10019.,1.07232371913,5.57608333948,130.
5.94,6046.,6.,9.,3956.,0.,0.,10017.,1.08916306685,9.439413246,78.
5.96,6041.,13.,2.,3958.,0.,0.,10014.,1.10090534073,4.40362136292,169.
5.98,6045.,6.,12.,3952.,0.,0.,10015.,1.10899725225,9.61130951948,78.
6.,6043.,17.,5.,3954.,0.,0.,10019.,1.11069004797,3.39740485261,221.
6.02,6049.,19.,6.,3949.,0.,0.,10023.,1.1088453324,3.03473459393,247.
6.04,6049.,17.,10.,3945.,0.,0.,10021.,1.10159321493,3.36957924565,221.
6.06,6044.,22.,8.,3946.,0.,0.,10020.,1.08847678588,2.57276331207,286.
6.08,6039.,24.,16.,3940.,0.,0.,10019.,1.07072799931,2.31991066517,312.
6.1,6023.,33.,17.,3946.,0.,0.,10019.,1.04660812685,1.64920068473,429.
6.12,6019.,37.,14.,3947.,0.,0.,10017.,1.02081516572,1.43465915182,481.
6.14,6017.,36.,17.,3948.,0.,0.,10018.,0.991445430854,1.43208784457,468.
6.16,6014.,33.,17.,3954.,0.,0.,10018.,0.958861772648,1.51093370236,429.
6.18,6009.,34.,11.,3964.,0.,0.,10018.,0.923335124566,1.41215960228,442.
6.2,6003.,35.,16.,3961.,0.,0.,10015.,0.885866696282,1.3161448059,455.
6.22,5997.,41.,11.,3964.,0.,0.,10013.,0.846829043246,1.07402707924,533.
6.24,5989.,35.,24.,3965.,0.,0.,10013.,0.8064915551,1.19821602472,455.
6.26,5977.,34.,26.,3972.,0.,0.,10009.,0.765741251795,1.17113367922,442.
6.28,5963.,36.,21.,3985.,0.,0.,10005.,0.72518425327,1.04748836584,468.
6.3,5963.,38.,23.,3984.,0.,0.,10008.,0.686836142072,0.939881036519,494.
6.32,5955.,29.,24.,3994.,0.,0.,10002.,0.649750316833,1.16506953363,377.
6.34,5943.,27.,20.,4010.,0.,0.,10000.,0.614160853214,1.18282830989,351.
6.36,5943.,26.,17.,4012.,0.,0.,9998.,0.582509780058,1.16501956012,338.
6.38,5944.,20.,15.,4018.,0.,0.,9997.,0.554028341333,1.44047368747,260.
6.4,5945.,17.,10.,4029.,0.,0.,10001.,0.5288643504,1.61770271887,221.
6.42,5946.,15.,10.,4033.,0.,0.,10004.,0.507752235632,1.76020775019,195.
6.44,5949.,10.,10.,4032.,0.,0.,10001.,0.49142657338,2.55541818158,130.
6.46,5959.,8.,9.,4028.,0.,0.,10004.,0.479943085269,3.11963005425,104.
6.48,5967.,9.,4.,4027.,0.,0.,10007.,0.473060910782,2.73324081785,117.
6.5,5973.,6.,7.,4021.,0.,0.,10007.,0.471060287208,4.08252248913,78.
6.52,5977.,3.,3.,4022.,0.,0.,10005.,0.473948429386,8.21510610936,39.
6.54,5984.,3.,5.,4016.,0.,0.,10008.,0.481763978651,8.35057562995,39.
6.56,5995.,2.,3.,4011.,0.,0.,10011.,0.494731793958,12.8630266429,26.
6.58,6001.,2.,2.,4008.,0.,0.,10013.,0.511988295891,13.3116956932,26.
6.6,6007.,1.,3.,4001.,0.,0.,10012.,0.533792727393,27.7572218244,13.
6.62,6011.,4.,2.,3990.,0.,0.,10007.,0.559713395852,7.27627414608,52.
6.64,6017.,1.,2.,3988.,0.,0.,10008.,0.589173681136,30.6370314191,13.
6.66,6021.,1.,0.,3984.,0.,0.,10006.,0.6218484116,32.3361174032,13.
6.68,6022.,1.,0.,3980.,0.,0.,10003.,0.656995003472,34.1637401806,13.
6.7,6032.,1.,0.,3970.,0.,0.,10003.,0.695131055764,36.1468148997,13.
6.72,6042.,1.,1.,3956.,0.,0.,10000.,0.735159154769,38.228276048,13.
6.74,6050.,3.,1.,3945.,0.,0.,9999.,0.775868792245,13.4483923989,39.
6.76,6061.,2.,0.,3935.,0.,0.,9998.,0.817411754912,21.2527056277,26.
6.78,6070.,1.,1.,3928.,0.,0.,10000.,0.858251562528,44.6290812515,13.
6.8,6074.,0.,4.,3922.,0.,0.,10000.,0.897688729749,inf,0.
6.82,6075.,7.,2.,3916.,0.,0.,10000.,0.935156856603,6.94687950619,91.
6.84,6079.,5.,4.,3909.,0.,0.,9997.,0.971261244223,10.1011169399,65.
6.86,6087.,5.,5.,3897.,0.,0.,9994.,1.00538821026,10.4560373867,65.
6.88,6085.,11.,4.,3893.,0.,0.,9993.,1.03448724223,4.89030332689,143.
6.9,6087.,14.,2.,3891.,0.,0.,9994.,1.06037522648,3.9385365555,182.
6.92,6084.,18.,5.,3888.,0.,0.,9995.,1.08129678934,3.12374628032,234.
6.94,6089.,19.,6.,3883.,0.,0.,9997.,1.09910382438,3.00807362462,247.
6.96,6092.,16.,8.,3880.,0.,0.,9996.,1.11219868467,3.61464572518,208.
6.98,6084.,19.,7.,3887.,0.,0.,9997.,1.11816174986,3.06023215752,247.
7.,6086.,22.,5.,3887.,0.,0.,10000.,1.12071868033,2.64897142624,286.
7.02,6090.,16.,9.,3884.,0.,0.,9999.,1.1190405982,3.63688194415,208.
7.04,6083.,24.,11.,3882.,0.,0.,10000.,1.11011135867,2.40524127712,312.
7.06,6083.,17.,18.,3883.,0.,0.,10001.,1.09758162123,3.35730848848,221.
7.08,6071.,32.,12.,3887.,0.,0.,10002.,1.07823118672,1.75212567842,416.
7.1,6062.,30.,21.,3884.,0.,0.,9997.,1.05570324394,1.82988562282,390.
7.12,6045.,40.,18.,3894.,0.,0.,9997.,1.02727579926,1.33545853903,520.
7.14,6040.,31.,23.,3902.,0.,0.,9996.,0.997425627569,1.6731010527,403.
7.16,6024.,42.,11.,3916.,0.,0.,9993.,0.962858977741,1.1921111153,546.
7.18,6032.,32.,18.,3918.,0.,0.,10000.,0.928537639347,1.50887366394,416.
7.2,6024.,32.,18.,3925.,0.,0.,9999.,0.890388167564,1.44688077229,416.
7.22,6014.,41.,8.,3935.,0.,0.,9998.,0.850503691685,1.07868760897,533.
7.24,6014.,29.,20.,3938.,0.,0.,10001.,0.810829841151,1.45390178413,377.
7.26,6004.,33.,25.,3939.,0.,0.,10001.,0.769815646042,1.21304283619,429.
7.28,5987.,26.,24.,3964.,0.,0.,10001.,0.728394201229,1.45678840246,338.
7.3,5982.,34.,17.,3970.,0.,0.,10003.,0.689369027782,1.05432910131,442.
7.32,5972.,28.,15.,3984.,0.,0.,9999.,0.651800688701,1.2104869933,364.
7.34,5971.,26.,9.,3994.,0.,0.,10000.,0.617054426139,1.23410885228,338.
7.36,5970.,13.,18.,3999.,0.,0.,10000.,0.585039183959,2.34015673584,169.
7.38,5968.,17.,13.,4002.,0.,0.,10000.,0.55609845369,1.70100703482,221.
7.4,5967.,15.,13.,4005.,0.,0.,10000.,0.530874542001,1.84036507894,195.
7.42,5973.,11.,3.,4013.,0.,0.,10000.,0.510261894563,2.41214713793,143.
7.44,5990.,8.,7.,3998.,0.,0.,10003.,0.494714510351,3.21564431728,104.
7.46,5996.,8.,6.,3990.,0.,0.,10000.,0.483116266952,3.14025573519,104.
7.48,5997.,9.,5.,3985.,0.,0.,9996.,0.47596248896,2.75000549177,117.
7.5,6008.,3.,0.,3986.,0.,0.,9997.,0.47429452286,8.2211050629,39.
7.52,6020.,0.,1.,3980.,0.,0.,10001.,0.477549054477,inf,0.
7.54,6023.,0.,0.,3970.,0.,0.,9993.,0.485631682647,inf,0.
7.56,6035.,0.,0.,3956.,0.,0.,9991.,0.4990297195,inf,0.
7.58,6044.,0.,0.,3947.,0.,0.,9991.,0.51679240108,inf,0.
7.6,6053.,0.,0.,3940.,0.,0.,9993.,0.538903057971,inf,0.
7.62,6063.,0.,0.,3931.,0.,0.,9994.,0.56528973093,inf,0.
7.64,6073.,0.,0.,3923.,0.,0.,9996.,0.59537097321,inf,0.
7.66,6079.,0.,1.,3917.,0.,0.,9997.,0.628403871437,inf,0.
7.68,6092.,0.,1.,3902.,0.,0.,9995.,0.665163914608,inf,0.
7.7,6098.,0.,0.,3894.,0.,0.,9992.,0.703510562229,inf,0.
7.72,6110.,0.,0.,3883.,0.,0.,9993.,0.743953808984,inf,0.
7.74,6114.,0.,1.,3876.,0.,0.,9991.,0.78470415599,inf,0.
7.76,6123.,0.,2.,3865.,0.,0.,9990.,0.826434613609,inf,0.
7.78,6128.,0.,1.,3862.,0.,0.,9991.,0.867232828355,inf,0.
7.8,6134.,3.,0.,3858.,0.,0.,9995.,0.90700975583,15.7215024344,39.
7.82,6148.,4.,1.,3844.,0.,0.,9997.,0.946678135851,12.3068157661,52.
7.84,6158.,4.,0.,3836.,0.,0.,9998.,0.983784918507,12.7892039406,52.
7.86,6166.,6.,2.,3822.,0.,0.,9996.,1.01823285093,8.82468470802,78.
7.88,6179.,4.,3.,3815.,0.,0.,10001.,1.04962752731,13.6451578551,52.
7.9,6180.,8.,2.,3811.,0.,0.,10001.,1.07582260146,6.99284690949,104.
7.92,6187.,6.,7.,3805.,0.,0.,10005.,1.09850371396,9.52036552101,78.
7.94,6187.,13.,3.,3803.,0.,0.,10006.,1.11578894589,4.46315578354,169.
7.96,6190.,19.,5.,3794.,0.,0.,10008.,1.12873523476,3.08917011617,247.
7.98,6190.,19.,7.,3792.,0.,0.,10008.,1.13639279328,3.11012764475,247.
8.,6185.,24.,8.,3789.,0.,0.,10006.,1.13826627419,2.46624359408,312.
8.02,6188.,21.,6.,3790.,0.,0.,10005.,1.13636626011,2.81385931076,273.
8.04,6180.,20.,9.,3793.,0.,0.,10002.,1.1275877648,2.93172818849,260.
8.06,6179.,22.,7.,3795.,0.,0.,10003.,1.11468039668,2.63469911943,286.
8.08,6175.,23.,12.,3790.,0.,0.,10000.,1.0969212969,2.47999597561,299.
8.1,6159.,31.,12.,3795.,0.,0.,9997.,1.07259588905,1.79919310421,403.
8.12,6155.,37.,13.,3793.,0.,0.,9998.,1.04586437216,1.46986344195,481.
8.14,6149.,33.,16.,3801.,0.,0.,9999.,1.01512086902,1.59958439966,429.
8.16,6143.,37.,9.,3813.,0.,0.,10002.,0.980996083381,1.37869719827,481.
8.18,6141.,37.,8.,3815.,0.,0.,10001.,0.945222063209,1.32842019694,481.
8.2,6129.,35.,16.,3821.,0.,0.,10001.,0.90572671818,1.34565112415,455.
8.22,6123.,39.,19.,3825.,0.,0.,10006.,0.865226221328,1.15363496177,507.
8.24,6115.,32.,22.,3839.,0.,0.,10008.,0.823870385083,1.33878937576,416.
8.26,6095.,43.,18.,3857.,0.,0.,10013.,0.78054684228,0.943917111594,559.
8.28,6090.,36.,13.,3873.,0.,0.,10012.,0.74011141158,1.06904981673,468.
8.3,6092.,28.,19.,3874.,0.,0.,10013.,0.701344355327,1.30249665989,364.
8.32,6084.,26.,14.,3889.,0.,0.,10013.,0.663096252588,1.32619250518,338.
8.34,6080.,21.,14.,3893.,0.,0.,10008.,0.627816439015,1.55459308708,273.
8.36,6078.,18.,8.,3900.,0.,0.,10004.,0.595384653526,1.72000011019,234.
8.38,6081.,17.,10.,3896.,0.,0.,10004.,0.566401237241,1.73252143156,221.
8.4,6085.,16.,10.,3898.,0.,0.,10009.,0.540886017747,1.75787955768,208.
8.42,6093.,10.,8.,3900.,0.,0.,10011.,0.519941328154,2.7036949064,130.
8.44,6101.,11.,3.,3896.,0.,0.,10011.,0.503479345278,2.38008417768,143.
8.46,6104.,7.,5.,3890.,0.,0.,10006.,0.491523247072,3.65131554968,91.
8.48,6115.,6.,3.,3881.,0.,0.,10005.,0.484891190513,4.20239031778,78.
8.5,6127.,4.,1.,3874.,0.,0.,10006.,0.483253779557,6.28229913423,52.
8.52,6134.,3.,2.,3867.,0.,0.,10006.,0.486349191938,8.43005266026,39.
8.54,6138.,2.,1.,3865.,0.,0.,10006.,0.494261089536,12.8507883279,26.
8.56,6148.,2.,1.,3854.,0.,0.,10005.,0.507662239178,13.1992182186,26.
8.58,6156.,1.,2.,3847.,0.,0.,10006.,0.525579884437,27.3301539907,13.
8.6,6163.,0.,0.,3845.,0.,0.,10008.,0.547874052417,inf,0.
8.62,6172.,1.,0.,3835.,0.,0.,10008.,0.574647463024,29.8816680772,13.
8.64,6180.,1.,0.,3822.,0.,0.,10003.,0.60543682069,31.4827146759,13.
8.66,6187.,2.,0.,3817.,0.,0.,10006.,0.638992878686,16.6138148458,26.
8.68,6187.,2.,0.,3814.,0.,0.,10003.,0.67499636109,17.5499053883,26.
8.7,6193.,2.,0.,3808.,0.,0.,10003.,0.713684785866,18.5558044325,26.
8.72,6201.,2.,0.,3799.,0.,0.,10002.,0.7543545774,19.6132190124,26.
8.74,6203.,0.,2.,3796.,0.,0.,10001.,0.795330854829,inf,0.
8.76,6207.,1.,2.,3795.,0.,0.,10005.,0.836516245719,43.4988447774,13.
8.78,6215.,1.,0.,3790.,0.,0.,10006.,0.878226517321,45.6677789007,13.
8.8,6226.,2.,0.,3780.,0.,0.,10008.,0.91941758273,23.904857151,26.
8.82,6231.,4.,0.,3771.,0.,0.,10006.,0.958595603707,12.4617428482,52.
8.84,6237.,5.,0.,3764.,0.,0.,10006.,0.995609091742,10.3543345541,65.
8.86,6247.,1.,5.,3758.,0.,0.,10011.,1.03006320998,53.5632869191,13.
8.88,6246.,7.,2.,3757.,0.,0.,10012.,1.0598431151,7.87312028362,91.
8.9,6250.,5.,5.,3750.,0.,0.,10010.,1.08703006512,11.3051126773,65.
8.92,6253.,8.,0.,3750.,0.,0.,10011.,1.10955663257,7.21211811169,104.
8.94,6259.,8.,2.,3746.,0.,0.,10015.,1.12775934629,7.33043575088,104.
8.96,6269.,6.,3.,3737.,0.,0.,10015.,1.14234174096,9.90029508836,78.
8.98,6265.,13.,3.,3733.,0.,0.,10014.,1.14947255596,4.59789022383,169.
9.,6259.,17.,6.,3734.,0.,0.,10016.,1.15073493652,3.51989509995,221.
9.02,6255.,17.,13.,3732.,0.,0.,10017.,1.14729409624,3.50937017672,221.
9.04,6252.,17.,13.,3734.,0.,0.,10016.,1.13913024619,3.4843984001,221.
9.06,6250.,25.,10.,3735.,0.,0.,10020.,1.12557576303,2.34119758709,325.
9.08,6249.,27.,9.,3739.,0.,0.,10024.,1.10740880742,2.13278733281,351.
9.1,6239.,30.,17.,3737.,0.,0.,10023.,1.0837094773,1.87842976066,390.
9.12,6228.,31.,17.,3748.,0.,0.,10024.,1.05552370187,1.770555887,403.
9.14,6218.,30.,14.,3762.,0.,0.,10024.,1.0239517468,1.77484969446,390.
9.16,6205.,35.,13.,3769.,0.,0.,10022.,0.988919625647,1.46925201525,455.
9.18,6195.,31.,25.,3772.,0.,0.,10023.,0.951440777021,1.59596517436,403.
9.2,6188.,30.,20.,3787.,0.,0.,10025.,0.912256379087,1.58124439042,390.
9.22,6164.,37.,23.,3802.,0.,0.,10026.,0.869282309393,1.22169405644,481.
9.24,6159.,39.,20.,3808.,0.,0.,10026.,0.828308715555,1.10441162074,507.
9.26,6154.,36.,23.,3812.,0.,0.,10025.,0.787159222246,1.13700776547,468.
9.28,6154.,31.,10.,3834.,0.,0.,10029.,0.746621530176,1.25239740546,403.
9.3,6150.,25.,14.,3837.,0.,0.,10026.,0.707103591297,1.4707754699,325.
9.32,6154.,23.,4.,3845.,0.,0.,10026.,0.669855883097,1.51445677918,299.
9.34,6158.,17.,5.,3848.,0.,0.,10028.,0.634602472675,1.94113697524,221.
9.36,6165.,16.,8.,3839.,0.,0.,10028.,0.602461611526,1.95800023746,208.
9.38,6172.,16.,8.,3833.,0.,0.,10029.,0.573444192835,1.86369362671,208.
9.4,6182.,12.,4.,3833.,0.,0.,10031.,0.548303012237,2.3759797197,156.
9.42,6188.,8.,2.,3836.,0.,0.,10034.,0.52683768266,3.42444493729,104.
9.44,6188.,8.,6.,3831.,0.,0.,10033.,0.509539184809,3.31200470126,104.
9.46,6190.,8.,2.,3831.,0.,0.,10031.,0.497206108102,3.23183970266,104.
9.48,6193.,6.,3.,3827.,0.,0.,10029.,0.489901054467,4.24580913872,78.
9.5,6195.,6.,1.,3827.,0.,0.,10029.,0.487496561693,4.22497020134,78.
9.52,6203.,1.,3.,3824.,0.,0.,10031.,0.490594275453,25.5109023236,13.
9.54,6213.,1.,2.,3814.,0.,0.,10030.,0.499103318226,25.9533725478,13.
9.56,6217.,3.,1.,3809.,0.,0.,10030.,0.512080253877,8.87605773387,39.
9.58,6215.,5.,0.,3809.,0.,0.,10029.,0.529400228156,5.50576237282,65.
9.6,6225.,1.,3.,3799.,0.,0.,10028.,0.552282003879,28.7186642017,13.
9.62,6230.,3.,3.,3792.,0.,0.,10028.,0.57889072903,10.0341059698,39.
9.64,6236.,3.,1.,3791.,0.,0.,10031.,0.609217681664,10.5597731488,39.
9.66,6247.,1.,1.,3780.,0.,0.,10029.,0.643710028739,33.4729214944,13.
9.68,6262.,0.,2.,3766.,0.,0.,10030.,0.681339730817,inf,0.
9.7,6266.,0.,0.,3765.,0.,0.,10031.,0.720081722584,inf,0.
9.72,6279.,0.,0.,3756.,0.,0.,10035.,0.761331422905,inf,0.
9.74,6283.,0.,0.,3748.,0.,0.,10031.,0.803178929338,inf,0.
9.76,6292.,1.,0.,3739.,0.,0.,10032.,0.845689459619,43.9758519002,13.
9.78,6305.,1.,0.,3726.,0.,0.,10032.,0.888635132278,46.2090268785,13.
9.8,6317.,1.,0.,3717.,0.,0.,10035.,0.930345979691,48.3779909439,13.
9.82,6327.,2.,2.,3707.,0.,0.,10038.,0.970261554525,25.2268004177,26.
9.84,6330.,6.,2.,3704.,0.,0.,10042.,1.00683221125,8.72587916415,78.
9.86,6340.,4.,2.,3695.,0.,0.,10041.,1.04227452336,13.5495688037,52.
9.88,6350.,4.,2.,3684.,0.,0.,10040.,1.07448524593,13.968308197,52.
9.9,6352.,5.,4.,3679.,0.,0.,10040.,1.10146928902,11.4552806058,65.
9.92,6360.,12.,5.,3666.,0.,0.,10043.,1.12494725285,4.87477142903,156.
9.94,6360.,11.,4.,3665.,0.,0.,10040.,1.14310425124,5.40376555133,143.
9.96,6361.,13.,2.,3663.,0.,0.,10039.,1.15633500047,4.62534000187,169.
9.98,6363.,13.,8.,3655.,0.,0.,10039.,1.16454583787,4.65818335148,169.
10.,6358.,20.,9.,3654.,0.,0.,10041.,1.16602595961,3.03166749499,260.
