t,neff
5.,0.473268574839
5.02,0.559740013208
5.04,0.581897119911
5.06,0.641532734333
5.08,0.599033338452
5.1,0.540178580063
5.12,0.647694495812
5.14,0.610352995053
5.16,0.671599333096
5.18,0.615937936358
5.2,0.749149653859
5.22,0.671329913917
5.24,0.563289089556
5.26,0.741149246713
5.28,0.729525660892
5.3,0.826248981496
5.32,0.640254474613
5.34,0.768914777144
5.36,0.714139692745
5.38,0.512396777437
5.4,0.500695289908
5.42,0.484173326809
5.44,0.423375766455
5.46,0.196967792937
5.48,0.15987692638
5.5,0.120445878984
5.52,0.0399081632504
5.54,0.0784860757291
5.56,0.
5.58,0.
5.6,0.
5.62,0.
5.64,0.
5.66,0.030374405835
5.68,0.0287512311025
5.7,0.0271929132392
5.72,0.0257314731226
5.74,0.0487830434633
5.76,0.0463087670434
5.78,0.0662061264703
5.8,0.0421584744099
5.82,0.
5.84,0.0584428531407
5.86,0.112953599594
5.88,0.109701937934
5.9,0.142616734735
5.92,0.157104947083
5.94,0.206258914985
5.96,0.187039203603
5.98,0.304412372817
6.,0.337744448666
6.02,0.423961540598
6.04,0.633531636216
6.06,0.658645038248
6.08,0.511151916389
6.1,0.612798691344
6.12,0.610445848823
6.14,0.55308269251
6.16,0.771115615517
6.18,0.677609032845
6.2,0.663434479461
6.22,0.739631449218
6.24,0.799614083592
6.26,0.61887667961
6.28,0.626450574582
6.3,0.633677705255
6.32,0.611425602749
6.34,0.307453273481
6.36,0.518599057681
6.38,0.340388850704
6.4,0.427518535955
6.42,0.370787559334
6.44,0.306419249902
6.46,0.196323752674
6.48,0.238949306248
6.5,0.0400098422018
6.52,0.0795205738162
6.54,0.
6.56,0.
6.58,0.
6.6,0.0352831472329
6.62,0.
6.64,0.
6.66,0.
6.68,0.
6.7,0.
6.72,0.
6.74,0.
6.76,0.
6.78,0.0219859171034
6.8,0.0630606024453
6.82,0.0403263353367
6.84,0.0777329726223
6.86,0.112778568176
6.88,0.109477166614
6.9,0.160251341534
6.92,0.209420927239
6.94,0.223279957094
6.96,0.322761860101
6.98,0.337527163535
7.,0.354188402663
7.02,0.42321863645
7.04,0.42636720385
7.06,0.517844430381
7.08,0.562523916282
7.1,0.539770466903
7.12,0.609051560917
7.14,0.819414763925
7.16,0.709445233002
7.18,0.983648902733
7.2,0.790947156474
7.22,0.761650777455
7.24,1.17940197305
7.26,1.11810321746
7.28,1.02343188411
7.3,0.942926067199
7.32,1.02529965781
7.34,0.773466439833
7.36,0.914191192926
7.38,0.446113552263
7.4,0.503689838717
7.42,0.600030682669
7.44,0.542816512749
7.46,0.476866148706
7.48,0.282369047086
7.5,0.20263816628
7.52,0.120922851927
7.54,0.
7.56,0.154610997504
7.58,0.0746791807411
7.6,0.0358294764221
7.62,0.0341556706179
7.64,0.0324485649357
7.66,0.0307310043831
7.68,0.
7.7,0.
7.72,0.
7.74,0.0246505495402
7.76,0.0468636160197
7.78,0.0223351705645
7.8,0.0640488847573
7.82,0.0614463195232
7.84,0.098643320413
7.86,0.171712747261
7.88,0.148276028075
7.9,0.180760905061
7.92,0.159345263981
7.94,0.139432080306
7.96,0.120467472544
7.98,0.239154882969
8.,0.272760068255
8.02,0.187870717225
8.04,0.327118612436
8.06,0.418427194259
8.08,0.425592749362
8.1,0.43442288202
8.12,0.575653208706
8.14,0.534927301513
8.16,0.572600659634
8.18,0.697282042933
8.2,0.662994762393
8.22,0.829415177596
8.24,0.752932255743
8.26,0.843581916797
8.28,0.862962101192
8.3,0.883752087883
8.32,0.817811462817
8.34,0.616879504834
8.36,0.749293477964
8.38,0.54810239329
8.4,0.609486173929
8.42,0.484994345542
8.44,0.308174791927
8.46,0.355304499948
8.48,0.200186372745
8.5,0.120546022195
8.52,0.
8.54,0.0786068871003
8.56,0.1149497351
8.58,0.
8.6,0.
8.62,0.0338721906317
8.64,0.0643491668804
8.66,0.0609374725758
8.68,0.
8.7,0.
8.72,0.
8.74,0.
8.76,0.0231971354366
8.78,0.0442145709499
8.8,0.
8.82,0.0810895342616
8.84,0.0976387680599
8.86,0.13223466757
8.88,0.0916471606581
8.9,0.125245932389
8.92,0.0876127902316
8.94,0.137974406634
8.96,0.221821697591
8.98,0.220315975092
9.,0.219863532579
9.02,0.237239658722
9.04,0.221688896737
9.06,0.275893717168
9.08,0.333327797849
9.1,0.394280106257
9.12,0.459797801497
9.14,0.493179866906
9.16,0.510018943684
9.18,0.488863064315
9.2,0.5735813042
9.22,0.622248183548
9.24,0.700092438005
9.26,0.835332843136
9.28,0.803678504229
9.3,0.875254877136
9.32,0.838486428095
9.34,0.824273011442
9.36,0.869456594493
9.38,0.677197221661
9.4,0.780417049092
9.42,0.369344615054
9.44,0.228841030658
9.46,0.312647346751
9.48,0.237723868609
9.5,0.278746777035
9.52,0.118700591779
9.54,0.0778627278742
9.56,0.0758274902264
9.58,0.0366211090922
9.6,0.0351338279001
9.62,0.
9.64,0.
9.66,0.0301609947989
9.68,0.
9.7,0.0269524745767
9.72,0.
9.74,0.
9.76,0.
9.78,0.
9.8,0.
9.82,0.0200654712141
9.84,0.0580171484178
9.86,0.130995732817
9.88,0.0726709976312
9.9,0.141804582081
9.92,0.0868314633274
9.94,0.170980955707
9.96,0.219613251009
9.98,0.18455594548
10.,0.335133466643
