t,s,e,i,r,c,o,n,reff,coal,reportr
5.,8607.,7.,20.,1367.,0.,0.,10001.,1.20021615238,8.9158914177,91.
5.02,8593.,16.,11.,1380.,0.,0.,10000.,1.19568383796,3.88597247336,208.
5.04,8579.,26.,5.,1392.,0.,0.,10002.,1.18545473625,2.3709094725,338.
5.06,8570.,30.,7.,1396.,0.,0.,10003.,1.1708450354,2.02946472802,390.
5.08,8554.,33.,15.,1399.,0.,0.,10001.,1.15066990292,1.81317681673,429.
5.1,8538.,32.,22.,1410.,0.,0.,10002.,1.12551514944,1.82896211784,416.
5.12,8511.,43.,11.,1435.,0.,0.,10000.,1.09503364491,1.32422673338,559.
5.14,8501.,39.,14.,1446.,0.,0.,10000.,1.06273816269,1.41698421692,507.
5.16,8489.,34.,16.,1464.,0.,0.,10003.,1.02656464194,1.57004004062,442.
5.18,8468.,33.,21.,1477.,0.,0.,9999.,0.98729943793,1.55574456886,429.
5.2,8450.,33.,16.,1501.,0.,0.,10000.,0.945788704013,1.49033371542,429.
5.22,8436.,32.,16.,1520.,0.,0.,10004.,0.902973964195,1.46733269182,416.
5.24,8429.,22.,16.,1539.,0.,0.,10006.,0.860224309152,2.033257458,286.
5.26,8420.,28.,16.,1548.,0.,0.,10012.,0.816708652149,1.51674463971,364.
5.28,8405.,30.,17.,1562.,0.,0.,10014.,0.773423222969,1.34060025315,390.
5.3,8391.,35.,19.,1564.,0.,0.,10009.,0.731888777536,1.08737761234,455.
5.32,8385.,30.,18.,1577.,0.,0.,10010.,0.692320198547,1.20002167748,390.
5.34,8375.,29.,10.,1595.,0.,0.,10009.,0.654872804922,1.17425468469,377.
5.36,8369.,21.,17.,1602.,0.,0.,10009.,0.620554502059,1.53661114795,273.
5.38,8362.,19.,8.,1619.,0.,0.,10008.,0.589619947993,1.61369669977,247.
5.4,8358.,17.,6.,1626.,0.,0.,10007.,0.562756807331,1.7213737636,221.
5.42,8360.,11.,11.,1628.,0.,0.,10010.,0.540330211615,2.55428827309,143.
5.44,8362.,11.,5.,1635.,0.,0.,10013.,0.522505024199,2.47002375076,143.
5.46,8363.,10.,4.,1637.,0.,0.,10014.,0.50960182538,2.64992949198,130.
5.48,8367.,5.,4.,1639.,0.,0.,10015.,0.50196122385,5.22039672804,65.
5.5,8366.,5.,2.,1642.,0.,0.,10015.,0.499276600792,5.19247664824,65.
5.52,8373.,5.,1.,1638.,0.,0.,10017.,0.502220887964,5.22309723483,65.
5.54,8380.,4.,1.,1634.,0.,0.,10019.,0.510382890623,6.6349775781,52.
5.56,8385.,3.,0.,1632.,0.,0.,10020.,0.52357616672,9.07532022314,39.
5.58,8385.,2.,2.,1630.,0.,0.,10019.,0.541459205167,14.0779393343,26.
5.6,8392.,4.,0.,1625.,0.,0.,10021.,0.564256672105,7.33533673736,52.
5.62,8395.,2.,3.,1622.,0.,0.,10022.,0.591119932104,15.3691182347,26.
5.64,8400.,2.,1.,1621.,0.,0.,10024.,0.621921083905,16.1699481815,26.
5.66,8397.,2.,2.,1619.,0.,0.,10020.,0.65587225706,17.0526786836,26.
5.68,8400.,5.,0.,1617.,0.,0.,10022.,0.692728252759,7.20437382869,65.
5.7,8403.,4.,0.,1616.,0.,0.,10023.,0.731911699372,9.51485209184,52.
5.72,8406.,1.,1.,1616.,0.,0.,10024.,0.772743579138,40.1826661152,13.
5.74,8401.,2.,4.,1616.,0.,0.,10023.,0.813971427471,21.1632571142,26.
5.76,8395.,4.,2.,1621.,0.,0.,10022.,0.855386630275,11.1200261936,52.
5.78,8395.,3.,0.,1623.,0.,0.,10021.,0.897061005457,15.5490574279,39.
5.8,8399.,2.,1.,1619.,0.,0.,10021.,0.938110361733,24.390869405,26.
5.82,8395.,2.,0.,1620.,0.,0.,10017.,0.977029407063,25.4027645836,26.
5.84,8390.,4.,0.,1619.,0.,0.,10013.,1.01357941462,13.1765323901,52.
5.86,8390.,3.,2.,1618.,0.,0.,10013.,1.04749993518,18.1566655431,39.
5.88,8389.,4.,1.,1618.,0.,0.,10012.,1.07804335269,14.014563585,52.
5.9,8392.,9.,0.,1616.,0.,0.,10017.,1.104612227,6.38220397819,117.
5.92,8392.,10.,2.,1616.,0.,0.,10020.,1.12673734452,5.8590341915,130.
5.94,8387.,11.,4.,1618.,0.,0.,10020.,1.14389928138,5.40752387559,143.
5.96,8382.,12.,4.,1620.,0.,0.,10018.,1.15638323748,5.01099402908,156.
5.98,8385.,13.,4.,1620.,0.,0.,10022.,1.16418021877,4.65672087509,169.
6.,8384.,12.,8.,1620.,0.,0.,10024.,1.16643704265,5.05456051815,156.
6.02,8387.,16.,7.,1617.,0.,0.,10027.,1.16387723923,3.78260102751,208.
6.04,8378.,18.,11.,1619.,0.,0.,10026.,1.15490912906,3.33640415061,234.
6.06,8366.,27.,8.,1625.,0.,0.,10026.,1.14035225485,2.1962339723,351.
6.08,8356.,28.,6.,1640.,0.,0.,10030.,1.12078531865,2.08145844892,364.
6.1,8346.,27.,14.,1643.,0.,0.,10030.,1.09713354048,2.11299792981,351.
6.12,8328.,37.,10.,1656.,0.,0.,10031.,1.06817733488,1.50122220037,481.
6.14,8312.,36.,21.,1666.,0.,0.,10035.,1.03548644423,1.49570264166,468.
6.16,8291.,39.,20.,1685.,0.,0.,10035.,0.999423541995,1.33256472266,507.
6.18,8269.,42.,24.,1701.,0.,0.,10036.,0.9605433023,1.18924408856,546.
6.2,8251.,39.,23.,1723.,0.,0.,10036.,0.920202371677,1.22693649557,507.
6.22,8238.,30.,31.,1739.,0.,0.,10038.,0.878793703515,1.52324241943,390.
6.24,8225.,37.,13.,1761.,0.,0.,10036.,0.836895841449,1.17617793933,481.
6.26,8219.,32.,18.,1765.,0.,0.,10034.,0.795464476139,1.29262977373,416.
6.28,8209.,27.,20.,1779.,0.,0.,10035.,0.753806635856,1.45177574313,351.
6.3,8199.,29.,14.,1795.,0.,0.,10037.,0.713146932265,1.27874622337,377.
6.32,8196.,24.,19.,1798.,0.,0.,10037.,0.6748947325,1.46227192042,312.
6.34,8189.,23.,21.,1804.,0.,0.,10037.,0.638542452932,1.44366119793,299.
6.36,8176.,26.,19.,1816.,0.,0.,10037.,0.604552485125,1.20910497025,338.
6.38,8171.,20.,5.,1839.,0.,0.,10035.,0.574602002621,1.49396520681,260.
6.4,8168.,13.,11.,1843.,0.,0.,10035.,0.548429291521,2.19371716609,169.
6.42,8162.,15.,9.,1846.,0.,0.,10032.,0.526376046697,1.82477029522,195.
6.44,8159.,9.,10.,1853.,0.,0.,10031.,0.50890559601,2.94034344361,117.
6.46,8161.,5.,9.,1860.,0.,0.,10035.,0.496252224189,5.16102313157,65.
6.48,8161.,6.,2.,1866.,0.,0.,10035.,0.488626880873,4.2347663009,78.
6.5,8167.,2.,3.,1862.,0.,0.,10034.,0.486477507274,12.6484151891,26.
6.52,8172.,2.,2.,1863.,0.,0.,10039.,0.489090534484,12.7163538966,26.
6.54,8176.,2.,3.,1860.,0.,0.,10041.,0.496867260189,12.9185487649,26.
6.56,8177.,2.,2.,1859.,0.,0.,10040.,0.509571122772,13.2488491921,26.
6.58,8178.,0.,2.,1859.,0.,0.,10039.,0.527040152384,inf,0.
6.6,8183.,0.,0.,1857.,0.,0.,10040.,0.549162822467,inf,0.
6.62,8186.,1.,0.,1855.,0.,0.,10042.,0.575255559916,29.9132891156,13.
6.64,8189.,1.,1.,1854.,0.,0.,10045.,0.605031494503,31.4616377141,13.
6.66,8189.,1.,1.,1854.,0.,0.,10045.,0.638033907425,33.1777631861,13.
6.68,8194.,1.,1.,1846.,0.,0.,10042.,0.674394089677,35.0684926632,13.
6.7,8194.,2.,3.,1841.,0.,0.,10040.,0.712499071775,18.5249758661,26.
6.72,8200.,3.,1.,1838.,0.,0.,10042.,0.752455312547,13.0425587508,39.
6.74,8201.,2.,2.,1837.,0.,0.,10042.,0.793090049046,20.6203412752,26.
6.76,8202.,3.,3.,1834.,0.,0.,10042.,0.834056946533,14.4569870732,39.
6.78,8204.,6.,3.,1830.,0.,0.,10043.,0.874731022843,7.58100219798,78.
6.8,8208.,6.,2.,1831.,0.,0.,10047.,0.914404509756,7.92483908455,78.
6.82,8209.,4.,4.,1834.,0.,0.,10051.,0.952150481747,12.3779562627,52.
6.84,8210.,6.,0.,1835.,0.,0.,10051.,0.988084123432,8.56339573641,78.
6.86,8212.,6.,2.,1831.,0.,0.,10051.,1.02140017472,8.8521348476,78.
6.88,8207.,7.,5.,1827.,0.,0.,10046.,1.05108571114,7.80806528275,91.
6.9,8200.,11.,9.,1827.,0.,0.,10047.,1.07611700648,5.08709857609,143.
6.92,8204.,14.,7.,1823.,0.,0.,10048.,1.09842639515,4.0798694677,182.
6.94,8200.,16.,9.,1825.,0.,0.,10050.,1.11505594188,3.62393181112,208.
6.96,8188.,17.,8.,1837.,0.,0.,10050.,1.12602214259,3.4443030244,221.
6.98,8176.,21.,11.,1842.,0.,0.,10050.,1.13199984705,2.80304724032,273.
7.,8164.,32.,8.,1846.,0.,0.,10050.,1.1328907368,1.8409474473,416.
7.02,8160.,26.,10.,1857.,0.,0.,10053.,1.12944743467,2.25889486935,338.
7.04,8155.,19.,15.,1868.,0.,0.,10057.,1.1207033594,3.06718814152,247.
7.06,8141.,23.,12.,1881.,0.,0.,10057.,1.10626244734,2.50111509834,299.
7.08,8133.,26.,9.,1889.,0.,0.,10057.,1.08794579342,2.17589158683,338.
7.1,8118.,26.,18.,1894.,0.,0.,10056.,1.06440235566,2.12880471131,338.
7.12,8103.,32.,23.,1900.,0.,0.,10058.,1.03652809997,1.68435816245,416.
7.14,8089.,32.,24.,1913.,0.,0.,10058.,1.00540135044,1.63377719447,416.
7.16,8074.,33.,16.,1939.,0.,0.,10062.,0.970654045742,1.52951546602,429.
7.18,8065.,25.,21.,1953.,0.,0.,10064.,0.934239773094,1.94321872803,325.
7.2,8042.,40.,16.,1961.,0.,0.,10059.,0.894842648219,1.16329544268,520.
7.22,8020.,37.,18.,1980.,0.,0.,10055.,0.85409196,1.2003454573,481.
7.24,8006.,42.,19.,1989.,0.,0.,10056.,0.812992383543,1.00656199867,546.
7.26,7998.,30.,21.,2005.,0.,0.,10054.,0.772535463231,1.3390614696,390.
7.28,7986.,38.,17.,2015.,0.,0.,10056.,0.731797832156,1.00140755979,494.
7.3,7973.,32.,20.,2031.,0.,0.,10056.,0.692179217381,1.12479122824,416.
7.32,7961.,29.,18.,2051.,0.,0.,10059.,0.654110060332,1.17288700473,377.
7.34,7951.,33.,16.,2058.,0.,0.,10058.,0.618689793377,0.974905128957,429.
7.36,7946.,27.,25.,2057.,0.,0.,10055.,0.586493951902,1.12954390737,351.
7.38,7932.,21.,17.,2082.,0.,0.,10052.,0.556851670979,1.37887080433,273.
7.4,7926.,20.,13.,2096.,0.,0.,10055.,0.531121990362,1.38091717494,260.
7.42,7926.,9.,17.,2104.,0.,0.,10056.,0.50993621301,2.94629811962,117.
7.44,7925.,8.,13.,2112.,0.,0.,10058.,0.492983249745,3.20439112334,104.
7.46,7921.,10.,5.,2122.,0.,0.,10058.,0.480556933045,2.49889605183,130.
7.48,7926.,8.,4.,2123.,0.,0.,10061.,0.473330263642,3.07664671368,104.
7.5,7929.,8.,2.,2121.,0.,0.,10060.,0.47108008344,3.06202054236,104.
7.52,7934.,6.,1.,2122.,0.,0.,10063.,0.473713844746,4.1055199878,78.
7.54,7932.,6.,1.,2121.,0.,0.,10060.,0.481128618135,4.16978135717,78.
7.56,7932.,2.,2.,2123.,0.,0.,10059.,0.493369639903,12.8276106375,26.
7.58,7932.,2.,1.,2120.,0.,0.,10055.,0.510372988963,13.269697713,26.
7.6,7938.,1.,1.,2117.,0.,0.,10057.,0.531820329205,27.6546571186,13.
7.62,7936.,0.,1.,2117.,0.,0.,10054.,0.557021655697,inf,0.
7.64,7932.,2.,0.,2113.,0.,0.,10047.,0.5859267899,15.2340965374,26.
7.66,7939.,1.,1.,2109.,0.,0.,10050.,0.618247785545,32.1488848483,13.
7.68,7939.,3.,2.,2105.,0.,0.,10049.,0.652951567293,11.3178271664,39.
7.7,7941.,2.,2.,2104.,0.,0.,10049.,0.689881352119,17.9369151551,26.
7.72,7936.,2.,1.,2105.,0.,0.,10044.,0.728084914047,18.9302077652,26.
7.74,7946.,0.,2.,2094.,0.,0.,10042.,0.768429890223,inf,0.
7.76,7954.,0.,0.,2093.,0.,0.,10047.,0.808435433483,inf,0.
7.78,7956.,1.,0.,2088.,0.,0.,10045.,0.848119744162,44.1022266964,13.
7.8,7962.,1.,0.,2082.,0.,0.,10045.,0.887175716536,46.1331372599,13.
7.82,7965.,1.,2.,2078.,0.,0.,10046.,0.924309070941,48.0640716889,13.
7.84,7967.,3.,0.,2077.,0.,0.,10047.,0.959220500319,16.6264886722,39.
7.86,7974.,4.,0.,2066.,0.,0.,10044.,0.992489194973,12.9023595347,52.
7.88,7980.,5.,0.,2058.,0.,0.,10043.,1.0223186914,10.6321143906,65.
7.9,7980.,6.,3.,2054.,0.,0.,10043.,1.04766267928,9.07974322042,78.
7.92,7979.,8.,2.,2052.,0.,0.,10041.,1.06904609908,6.94879964405,104.
7.94,7980.,10.,3.,2048.,0.,0.,10041.,1.08611244487,5.64778471331,130.
7.96,7970.,12.,7.,2051.,0.,0.,10040.,1.09713423527,4.75424835282,156.
7.98,7964.,14.,5.,2057.,0.,0.,10040.,1.10374585511,4.09962746184,182.
8.,7961.,15.,8.,2056.,0.,0.,10040.,1.1058214315,3.83351429588,195.
8.02,7947.,24.,7.,2062.,0.,0.,10040.,1.10138979289,2.38634455126,312.
8.04,7943.,21.,10.,2067.,0.,0.,10041.,1.09330857407,2.70724027866,273.
8.06,7932.,23.,12.,2073.,0.,0.,10040.,1.07968696551,2.44103140029,299.
8.08,7922.,29.,7.,2081.,0.,0.,10039.,1.06162055564,1.90359547908,377.
8.1,7916.,26.,18.,2080.,0.,0.,10040.,1.03957090804,2.07914181609,338.
8.12,7910.,27.,12.,2088.,0.,0.,10037.,1.01395675283,1.95280559803,351.
8.14,7893.,30.,16.,2098.,0.,0.,10037.,0.983092626467,1.70402721921,390.
8.16,7885.,36.,18.,2100.,0.,0.,10039.,0.950104292912,1.37237286754,468.
8.18,7871.,43.,18.,2107.,0.,0.,10039.,0.914037611906,1.10534780975,559.
8.2,7851.,43.,15.,2126.,0.,0.,10035.,0.875679160242,1.05896084494,559.
8.22,7842.,34.,16.,2143.,0.,0.,10035.,0.836800250327,1.27981214756,442.
8.24,7838.,30.,20.,2148.,0.,0.,10036.,0.797518493043,1.38236538794,390.
8.26,7831.,25.,15.,2163.,0.,0.,10034.,0.757912436141,1.57645786717,325.
8.28,7819.,31.,5.,2180.,0.,0.,10035.,0.717994163206,1.20437730602,403.
8.3,7825.,22.,12.,2180.,0.,0.,10039.,0.680480913014,1.60840943076,286.
8.32,7811.,26.,6.,2194.,0.,0.,10037.,0.643192137086,1.28638427417,338.
8.34,7813.,21.,9.,2196.,0.,0.,10039.,0.609102243812,1.50825317515,273.
8.36,7813.,17.,10.,2201.,0.,0.,10041.,0.577481278565,1.76641332267,221.
8.38,7810.,17.,11.,2205.,0.,0.,10043.,0.548778227701,1.67861575532,221.
8.4,7811.,13.,6.,2215.,0.,0.,10045.,0.523936900776,2.0957476031,169.
8.42,7819.,9.,8.,2211.,0.,0.,10047.,0.50350276744,2.90912710077,117.
8.44,7817.,13.,7.,2212.,0.,0.,10049.,0.48670049673,1.94680198692,169.
8.46,7814.,12.,11.,2212.,0.,0.,10049.,0.474489958387,2.05612315301,156.
8.48,7818.,10.,7.,2215.,0.,0.,10050.,0.467391659764,2.43043663077,130.
8.5,7825.,7.,5.,2215.,0.,0.,10052.,0.465271201787,3.45630035613,91.
8.52,7826.,4.,8.,2215.,0.,0.,10053.,0.467730311131,6.08049404471,52.
8.54,7831.,3.,4.,2218.,0.,0.,10056.,0.475191238428,8.23664813275,39.
8.56,7834.,4.,1.,2214.,0.,0.,10053.,0.487564872362,6.3383433407,52.
8.58,7835.,0.,3.,2211.,0.,0.,10049.,0.504432669299,inf,0.
8.6,7841.,0.,0.,2210.,0.,0.,10051.,0.525635236552,inf,0.
8.62,7848.,0.,0.,2205.,0.,0.,10053.,0.550899798365,inf,0.
8.64,7852.,0.,0.,2198.,0.,0.,10050.,0.579844151773,inf,0.
8.66,7858.,0.,0.,2195.,0.,0.,10053.,0.611757315188,inf,0.
8.68,7864.,0.,0.,2188.,0.,0.,10052.,0.646590080706,inf,0.
8.7,7871.,0.,0.,2183.,0.,0.,10054.,0.683459976939,inf,0.
8.72,7882.,0.,0.,2177.,0.,0.,10059.,0.722052373332,inf,0.
8.74,7890.,0.,0.,2169.,0.,0.,10059.,0.761724809724,inf,0.
8.76,7897.,1.,0.,2162.,0.,0.,10060.,0.801604807529,41.6834499915,13.
8.78,7900.,1.,0.,2157.,0.,0.,10058.,0.84106159086,43.7352027247,13.
8.8,7902.,2.,1.,2152.,0.,0.,10057.,0.879439542432,22.8654281032,26.
8.82,7903.,5.,1.,2147.,0.,0.,10056.,0.916202191113,9.52850278758,65.
8.84,7905.,6.,2.,2143.,0.,0.,10056.,0.950903939305,8.24116747398,78.
8.86,7911.,5.,4.,2137.,0.,0.,10057.,0.983375070891,10.2271007373,65.
8.88,7911.,5.,5.,2136.,0.,0.,10057.,1.01206826469,10.5255099528,65.
8.9,7908.,8.,5.,2135.,0.,0.,10056.,1.03686792665,6.73964152321,104.
8.92,7906.,9.,7.,2133.,0.,0.,10055.,1.05779051924,6.1116785556,117.
8.94,7898.,12.,7.,2136.,0.,0.,10053.,1.0736687493,4.65256458032,156.
8.96,7899.,11.,8.,2134.,0.,0.,10052.,1.08606243489,5.13411332859,143.
8.98,7896.,13.,9.,2135.,0.,0.,10053.,1.09290648826,4.37162595303,169.
9.,7893.,16.,6.,2136.,0.,0.,10051.,1.09517600835,3.55932202713,208.
9.02,7884.,15.,10.,2138.,0.,0.,10047.,1.09189722055,3.78524369792,195.
9.04,7867.,25.,8.,2143.,0.,0.,10043.,1.08263196598,2.25187448923,325.
9.06,7864.,25.,6.,2149.,0.,0.,10044.,1.0700046535,2.22560967928,325.
9.08,7852.,25.,12.,2156.,0.,0.,10045.,1.0516113989,2.18735170971,325.
9.1,7850.,24.,13.,2159.,0.,0.,10046.,1.03028772984,2.23229008131,312.
9.12,7839.,24.,16.,2169.,0.,0.,10048.,1.00375543677,2.17480344633,312.
9.14,7821.,35.,14.,2178.,0.,0.,10048.,0.973058430277,1.4456868107,455.
9.16,7805.,36.,20.,2186.,0.,0.,10047.,0.939715828416,1.35736730771,468.
9.18,7789.,37.,20.,2199.,0.,0.,10045.,0.903974899267,1.27045120978,481.
9.2,7782.,34.,21.,2210.,0.,0.,10047.,0.86694638096,1.32591799441,442.
9.22,7767.,38.,13.,2230.,0.,0.,10048.,0.827724898134,1.13267617639,494.
9.24,7760.,26.,23.,2239.,0.,0.,10048.,0.788639001107,1.57727800221,338.
9.26,7752.,23.,16.,2256.,0.,0.,10047.,0.749295747283,1.69405995038,299.
9.28,7743.,24.,17.,2264.,0.,0.,10048.,0.710095418004,1.53854007234,312.
9.3,7734.,26.,9.,2277.,0.,0.,10046.,0.672098691685,1.34419738337,338.
9.32,7731.,27.,7.,2283.,0.,0.,10048.,0.635907664964,1.22471105845,351.
9.34,7730.,24.,7.,2285.,0.,0.,10046.,0.602211645197,1.30479189793,312.
9.36,7721.,23.,10.,2288.,0.,0.,10042.,0.570624464782,1.29010748559,299.
9.38,7717.,17.,12.,2296.,0.,0.,10042.,0.542297478118,1.65879228601,221.
9.4,7716.,13.,14.,2299.,0.,0.,10042.,0.517719224559,2.07087689824,169.
9.42,7718.,12.,12.,2300.,0.,0.,10042.,0.497246355,2.154734205,156.
9.44,7718.,10.,9.,2302.,0.,0.,10039.,0.481015248219,2.50127929074,130.
9.46,7721.,9.,7.,2302.,0.,0.,10039.,0.469309735524,2.71156736081,117.
9.48,7730.,8.,3.,2301.,0.,0.,10042.,0.462498822116,3.00624234375,104.
9.5,7735.,4.,6.,2299.,0.,0.,10044.,0.460286163768,5.98372012898,52.
9.52,7742.,5.,2.,2296.,0.,0.,10045.,0.463078459676,4.81601598063,65.
9.54,7743.,4.,3.,2293.,0.,0.,10043.,0.470459520728,6.11597376946,52.
9.56,7751.,4.,1.,2292.,0.,0.,10048.,0.482639246463,6.27431020402,52.
9.58,7754.,1.,0.,2290.,0.,0.,10045.,0.499416522934,25.9696591926,13.
9.6,7754.,2.,0.,2285.,0.,0.,10041.,0.520320718965,13.5283386931,26.
9.62,7758.,0.,1.,2281.,0.,0.,10040.,0.545287276364,inf,0.
9.64,7770.,0.,0.,2276.,0.,0.,10046.,0.574017188352,inf,0.
9.66,7779.,0.,1.,2269.,0.,0.,10049.,0.60584810601,inf,0.
9.68,7788.,0.,0.,2268.,0.,0.,10056.,0.640086534606,inf,0.
9.7,7794.,1.,0.,2262.,0.,0.,10057.,0.676571979608,35.1817429396,13.
9.72,7796.,0.,0.,2261.,0.,0.,10057.,0.71431613115,inf,0.
9.74,7803.,1.,0.,2257.,0.,0.,10061.,0.753175811145,39.1651421795,13.
9.76,7811.,0.,1.,2250.,0.,0.,10062.,0.792717563732,inf,0.
9.78,7809.,1.,0.,2249.,0.,0.,10059.,0.831290763333,43.2271196933,13.
9.8,7812.,0.,1.,2243.,0.,0.,10056.,0.869509604881,inf,0.
9.82,7818.,0.,1.,2239.,0.,0.,10058.,0.9061678372,inf,0.
9.84,7815.,4.,1.,2238.,0.,0.,10058.,0.939890777157,12.218580103,52.
9.86,7813.,5.,2.,2237.,0.,0.,10057.,0.971193202992,10.1004093111,65.
9.88,7816.,7.,1.,2232.,0.,0.,10056.,1.00001418079,7.42867677159,91.
9.9,7815.,5.,3.,2231.,0.,0.,10054.,1.0248779422,10.6587305989,65.
9.92,7816.,9.,2.,2225.,0.,0.,10052.,1.04606098845,6.04390793328,117.
9.94,7811.,6.,6.,2226.,0.,0.,10049.,1.06226447382,9.20629210641,78.
9.96,7813.,9.,5.,2224.,0.,0.,10051.,1.07434485869,6.20732585022,117.
9.98,7814.,7.,6.,2223.,0.,0.,10050.,1.08187950157,8.03681915454,91.
10.,7811.,10.,6.,2223.,0.,0.,10050.,1.08390611773,5.63631181221,130.
