t,neff
5.,0.28765624031
5.02,0.28810082884
5.04,0.451947744815
5.06,0.457246604583
5.08,0.448485272449
5.1,0.390364199664
5.12,0.557906958062
5.14,0.593149361814
5.16,0.801522618258
5.18,0.911172008215
5.2,0.829410453253
5.22,0.846500652786
5.24,0.710848712701
5.26,0.86492727905
5.28,0.714987985239
5.3,0.703544947254
5.32,0.853454495119
5.34,0.815100925046
5.36,0.64484126357
5.38,0.677957575227
5.4,0.574177885138
5.42,0.492167575653
5.44,0.399419105937
5.46,0.297831578318
5.48,0.226767198251
5.5,0.113904362496
5.52,0.113210426518
5.54,0.0742158581104
5.56,0.0361520201754
5.58,0.0698615643377
5.6,0.0670373811395
5.62,0.0959427817178
5.64,0.0911714987907
5.66,0.
5.68,0.
5.7,0.0257358690443
5.72,0.0243637047837
5.74,0.0692772876421
5.76,0.0657558601105
5.78,0.0208823644087
5.8,0.
5.82,0.0574671090945
5.84,0.0184445239578
5.86,0.089195800393
5.88,0.121266749421
5.9,0.0844429082743
5.92,0.14899767782
5.94,0.211938370578
5.96,0.25779901878
5.98,0.271955994378
6.,0.207445845446
6.02,0.320367144596
6.04,0.177450879548
6.06,0.343398187791
6.08,0.448979694876
6.1,0.526378614676
6.12,0.539399965191
6.14,0.592003079312
6.16,0.650011956616
6.18,0.675084075867
6.2,0.604229435128
6.22,0.696298860402
6.24,0.820033988487
6.26,0.863433266283
6.28,0.836858062892
6.3,0.597841507198
6.32,0.687147574263
6.34,0.756467112277
6.36,0.891378096977
6.38,0.646748824597
6.4,0.609218177955
6.42,0.316694462657
6.44,0.400211707501
6.46,0.335688804014
6.48,0.189061412284
6.5,0.189839108108
6.52,0.188653650581
6.54,0.0742597764343
6.56,0.
6.58,0.0349182388269
6.6,0.0334895269065
6.62,0.0639032455707
6.64,0.0303425457075
6.66,0.0287205107873
6.68,0.0271748989378
6.7,0.
6.72,0.
6.74,0.0460590389325
6.76,0.0218810641788
6.78,0.083403127542
6.8,0.0398536159368
6.82,0.0573744271252
6.84,0.0736186011894
6.86,0.0890074225317
6.88,0.138319111158
6.9,0.101163672045
6.92,0.132057641595
6.94,0.211068313051
6.96,0.224795038877
6.98,0.239193140491
7.,0.254500833753
7.02,0.23916948949
7.04,0.289007916754
7.06,0.308577587125
7.08,0.297234593395
7.1,0.455742674154
7.12,0.415649111353
7.14,0.571694124725
7.16,0.61021168823
7.18,0.653374833542
7.2,0.74181990779
7.22,0.987713496742
7.24,0.882908164229
7.26,0.836800281066
7.28,1.00627399375
7.3,0.829412280075
7.32,0.793839794362
7.34,0.722691726978
7.36,0.701240899265
7.38,0.352368660912
7.4,0.402658110511
7.42,0.209565154355
7.44,0.216590365593
7.46,0.333120412248
7.48,0.262921862827
7.5,0.226128894161
7.52,0.18723573809
7.54,0.0736575954318
7.56,0.0358858492837
7.58,0.0346566832767
7.6,0.0665214155301
7.62,0.0317349406464
7.64,0.0301552274634
7.66,0.0856998986633
7.68,0.0540309499245
7.7,0.0511078263077
7.72,0.0725672456128
7.74,0.0229260546397
7.76,0.0872105578539
7.78,0.103808167221
7.8,0.0396497340343
7.82,0.114116435241
7.84,0.109919285584
7.86,0.177151451159
7.88,0.0860001204939
7.9,0.0671524943263
7.92,0.180970867324
7.94,0.178185193461
7.96,0.192276283736
7.98,0.191085679977
8.,0.254295921117
8.02,0.2547810667
8.04,0.304727338308
8.06,0.32432997981
8.08,0.429401628842
8.1,0.523571604639
8.12,0.537712433978
8.14,0.554658928204
8.16,0.55551600165
8.18,0.731524285841
8.2,0.762163116735
8.22,0.670801565148
8.24,0.68305215818
8.26,0.648872526311
8.28,0.635923626221
8.3,0.568565648581
8.32,0.737770321582
8.34,0.519562472874
8.36,0.639933974606
8.38,0.511910167038
8.4,0.435503705586
8.42,0.243861105545
8.44,0.360235928663
8.46,0.258450584019
8.48,0.224746540292
8.5,0.0751909874143
8.52,0.03735527588
8.54,0.
8.56,0.
8.58,0.
8.6,0.
8.62,0.
8.64,0.0300290000386
8.66,0.0284485985816
8.68,0.
8.7,0.
8.72,0.
8.74,0.0228389161272
8.76,0.
8.78,0.
8.8,0.0197252409974
8.82,0.0567774554272
8.84,0.0546758118415
8.86,0.0881885997258
8.88,0.13707419619
8.9,0.100244158267
8.92,0.147369606614
8.94,0.112811557826
8.96,0.239129341885
8.98,0.221716411319
9.,0.268567357662
9.02,0.300871221046
9.04,0.430838451157
9.06,0.209527784566
9.08,0.377134538003
9.1,0.317912919844
9.12,0.308540242989
9.14,0.335267419321
9.16,0.383264035688
9.18,0.492732425388
9.2,0.474230702724
9.22,0.599979579431
9.24,0.695515080798
9.26,0.571454805903
9.28,0.820441983993
9.3,0.840855766536
9.32,0.807567576757
9.34,0.738586525217
9.36,0.568806942101
9.38,0.660847311743
9.4,0.461028671253
9.42,0.34259416439
9.44,0.176883322714
9.46,0.217552063963
9.48,0.257617937502
9.5,0.147859180523
9.52,0.0367277384695
9.54,0.108447107882
9.56,0.0704484951632
9.58,0.0680476926992
9.6,0.0652784450866
9.62,0.0311378499034
9.64,0.0887740542333
9.66,0.0560939488514
9.68,0.0265289736523
9.7,0.0250768725287
9.72,0.0237286248479
9.74,0.
9.76,0.
9.78,0.
9.8,0.0777641626934
9.82,0.0372864633233
9.84,0.0179410512186
9.86,0.0867450791145
9.88,0.101039515464
9.9,0.114888231007
9.92,0.0643254054799
9.94,0.126620798273
9.96,0.125077284375
9.98,0.155195450533
10.,0.24788616979
