t,prevalence
5.,7
5.02,9
5.04,9
5.06,5
5.08,8
5.1,12
5.12,6
5.14,4
5.16,10
5.18,7
5.2,9
5.22,5
5.24,11
5.26,6
5.28,8
5.3,5
5.32,7
5.34,3
5.36,7
5.38,6
5.4,3
5.42,5
5.44,3
5.46,2
5.48,3
5.5,1
5.52,3
5.54,1
5.56,0
5.58,0
5.6,1
5.62,0
5.64,0
5.66,0
5.68,0
5.7,1
5.72,1
5.74,0
5.76,0
5.78,0
5.8,1
5.82,1
5.84,1
5.86,1
5.88,2
5.9,2
5.92,4
5.94,4
5.96,1
5.98,8
6.,5
6.02,5
6.04,2
6.06,6
6.08,5
6.1,5
6.12,4
6.14,7
6.16,3
6.18,4
6.2,2
6.22,5
6.24,6
6.26,4
6.28,8
6.3,10
6.32,5
6.34,5
6.36,6
6.38,7
6.4,5
6.42,3
6.44,2
6.46,4
6.48,2
6.5,1
6.52,4
6.54,3
6.56,2
6.58,1
6.6,0
6.62,0
6.64,0
6.66,0
6.68,0
6.7,0
6.72,1
6.74,0
6.76,0
6.78,0
6.8,0
6.82,1
6.84,0
6.86,0
6.88,0
6.9,1
6.92,4
6.94,2
6.96,3
6.98,3
7.,3
7.02,6
7.04,6
7.06,4
7.08,4
7.1,5
7.12,5
7.14,6
7.16,9
7.18,10
7.2,4
7.22,11
7.24,5
7.26,11
7.28,5
7.3,3
7.32,5
7.34,6
7.36,7
7.38,9
7.4,14
7.42,3
7.44,3
7.46,3
7.48,4
7.5,1
7.52,1
7.54,2
7.56,0
7.58,0
7.6,0
7.62,0
7.64,0
7.66,0
7.68,0
7.7,0
7.72,0
7.74,0
7.76,0
7.78,0
7.8,0
7.82,3
7.84,1
7.86,1
7.88,1
7.9,1
7.92,3
7.94,4
7.96,6
7.98,1
8.,5
8.02,5
8.04,5
8.06,6
8.08,3
8.1,5
8.12,12
8.14,8
8.16,8
8.18,10
8.2,8
8.22,9
8.24,11
8.26,11
8.28,12
8.3,11
8.32,9
8.34,9
8.36,6
8.38,4
8.4,4
8.42,4
8.44,5
8.46,2
8.48,1
8.5,0
8.52,0
8.54,1
8.56,0
8.58,0
8.6,0
8.62,0
8.64,0
8.66,0
8.68,0
8.7,0
8.72,0
8.74,0
8.76,0
8.78,0
8.8,0
8.82,1
8.84,0
8.86,2
8.88,3
8.9,3
8.92,2
8.94,2
8.96,4
8.98,5
9.,4
9.02,1
9.04,6
9.06,6
9.08,10
9.1,5
9.12,5
9.14,8
9.16,9
9.18,5
9.2,9
9.22,11
9.24,13
9.26,8
9.28,6
9.3,8
9.32,6
9.34,7
9.36,10
9.38,4
9.4,5
9.42,5
9.44,0
9.46,1
9.48,1
9.5,0
9.52,0
9.54,2
9.56,0
9.58,0
9.6,1
9.62,0
9.64,2
9.66,1
9.68,0
9.7,2
9.72,0
9.74,0
9.76,0
9.78,0
9.8,0
9.82,1
9.84,0
9.86,3
9.88,1
9.9,2
9.92,3
9.94,1
9.96,1
9.98,2
10.,0
