t,s,e,i,r,c,o,n,reff,coal,reportr
5.,7409.,14.,7.,2570.,0.,0.,10000.,1.16210956537,4.31640695708,182.
5.02,7406.,20.,4.,2569.,0.,0.,9999.,1.15913782007,3.01375833217,260.
5.04,7391.,25.,9.,2569.,0.,0.,9994.,1.14956995691,2.39110551038,325.
5.06,7377.,34.,10.,2572.,0.,0.,9993.,1.13466889964,1.73537596416,442.
5.08,7369.,29.,11.,2584.,0.,0.,9993.,1.11576823665,2.00068787262,377.
5.1,7359.,27.,16.,2592.,0.,0.,9994.,1.09193777941,2.10299127886,351.
5.12,7346.,31.,14.,2604.,0.,0.,9995.,1.06353402299,1.7839925547,403.
5.14,7335.,31.,14.,2617.,0.,0.,9997.,1.03162789253,1.73047259392,403.
5.16,7331.,26.,19.,2621.,0.,0.,9997.,0.997676985528,1.99535397106,338.
5.18,7315.,36.,12.,2635.,0.,0.,9998.,0.959317123359,1.3856802893,468.
5.2,7296.,45.,14.,2640.,0.,0.,9995.,0.918916035639,1.06185853007,585.
5.22,7293.,35.,20.,2650.,0.,0.,9998.,0.878500091551,1.30520013602,455.
5.24,7277.,39.,20.,2665.,0.,0.,10001.,0.835682856828,1.1142438091,507.
5.26,7270.,35.,20.,2675.,0.,0.,10000.,0.794047908989,1.17972832193,455.
5.28,7262.,28.,21.,2688.,0.,0.,9999.,0.752702127008,1.39787537873,364.
5.3,7254.,32.,8.,2705.,0.,0.,9999.,0.712327036846,1.15753143487,416.
5.32,7251.,26.,14.,2711.,0.,0.,10002.,0.673884484809,1.34776896962,338.
5.34,7246.,21.,13.,2725.,0.,0.,10005.,0.637500391261,1.57857239741,273.
5.36,7239.,21.,10.,2732.,0.,0.,10002.,0.604122718724,1.49592292255,273.
5.38,7245.,16.,10.,2732.,0.,0.,10003.,0.574849042411,1.86825938784,208.
5.4,7250.,12.,7.,2737.,0.,0.,10006.,0.549080711472,2.37934974971,156.
5.42,7253.,12.,6.,2735.,0.,0.,10006.,0.527449177742,2.28561310355,156.
5.44,7256.,8.,5.,2735.,0.,0.,10004.,0.510392759025,3.31755293366,104.
5.46,7261.,9.,0.,2736.,0.,0.,10006.,0.49802230395,2.8774622006,117.
5.48,7259.,6.,4.,2730.,0.,0.,9999.,0.490577890953,4.25167505493,78.
5.5,7272.,3.,3.,2725.,0.,0.,10003.,0.48869095086,8.47064314824,39.
5.52,7274.,2.,1.,2724.,0.,0.,10001.,0.491493312776,12.7788261322,26.
5.54,7279.,2.,1.,2716.,0.,0.,9998.,0.499656385356,12.9910660193,26.
5.56,7280.,3.,1.,2711.,0.,0.,9995.,0.512542041337,8.88406204984,39.
5.58,7284.,2.,0.,2709.,0.,0.,9995.,0.530286510215,13.7874492656,26.
5.6,7286.,1.,1.,2706.,0.,0.,9994.,0.552469747369,28.7284268632,13.
5.62,7295.,0.,1.,2700.,0.,0.,9996.,0.579221588085,inf,0.
5.64,7303.,0.,0.,2697.,0.,0.,10000.,0.609585660517,inf,0.
5.66,7309.,0.,0.,2690.,0.,0.,9999.,0.643428972335,inf,0.
5.68,7313.,0.,0.,2684.,0.,0.,9997.,0.679986489514,inf,0.
5.7,7321.,0.,1.,2676.,0.,0.,9998.,0.718978196263,inf,0.
5.72,7328.,0.,0.,2671.,0.,0.,9999.,0.759542989082,inf,0.
5.74,7330.,1.,0.,2664.,0.,0.,9995.,0.801001762627,41.6520916566,13.
5.76,7335.,2.,1.,2659.,0.,0.,9997.,0.842680552992,21.9096943778,26.
5.78,7344.,2.,1.,2652.,0.,0.,9999.,0.884554975643,22.9984293667,26.
5.8,7349.,3.,0.,2649.,0.,0.,10001.,0.925035976246,16.0339569216,39.
5.82,7354.,3.,2.,2645.,0.,0.,10004.,0.963853305097,16.7067906217,39.
5.84,7350.,5.,2.,2643.,0.,0.,10000.,0.999962619816,10.3996112461,65.
5.86,7347.,6.,5.,2639.,0.,0.,9997.,1.03331562732,8.95540210345,78.
5.88,7346.,10.,7.,2636.,0.,0.,9999.,1.06310856684,5.52816454756,130.
5.9,7349.,13.,1.,2635.,0.,0.,9998.,1.09001769785,4.3600707914,169.
5.92,7350.,7.,6.,2632.,0.,0.,9995.,1.11266868498,8.26553880268,91.
5.94,7344.,9.,11.,2629.,0.,0.,9993.,1.12959311359,6.52653798963,117.
5.96,7336.,12.,5.,2638.,0.,0.,9991.,1.14135806474,4.94588494721,156.
5.98,7335.,13.,9.,2634.,0.,0.,9991.,1.14894462032,4.59577848127,169.
6.,7332.,14.,8.,2639.,0.,0.,9993.,1.15083761944,4.27453972935,182.
6.02,7323.,25.,12.,2635.,0.,0.,9995.,1.14660590081,2.38494027368,325.
6.04,7310.,26.,18.,2637.,0.,0.,9991.,1.13731290257,2.27462580514,338.
6.06,7300.,36.,5.,2653.,0.,0.,9994.,1.12271304891,1.6216966262,468.
6.08,7296.,28.,15.,2652.,0.,0.,9991.,1.10493617184,2.05202431913,364.
6.1,7275.,40.,9.,2663.,0.,0.,9987.,1.0802303678,1.40429947814,520.
6.12,7259.,36.,13.,2676.,0.,0.,9984.,1.05209628302,1.51969463102,468.
6.14,7247.,36.,12.,2690.,0.,0.,9985.,1.02047610952,1.47402104709,468.
6.16,7236.,36.,20.,2693.,0.,0.,9985.,0.985931893349,1.42412384595,468.
6.18,7217.,40.,19.,2709.,0.,0.,9985.,0.947697280842,1.23200646509,520.
6.2,7205.,38.,17.,2726.,0.,0.,9986.,0.908272629071,1.24289938715,494.
6.22,7189.,38.,13.,2742.,0.,0.,9982.,0.867360515448,1.18691438956,494.
6.24,7183.,35.,18.,2747.,0.,0.,9983.,0.826375324735,1.22775762532,455.
6.26,7172.,33.,18.,2762.,0.,0.,9985.,0.784520880808,1.23621472127,429.
6.28,7163.,24.,19.,2778.,0.,0.,9984.,0.743556279861,1.61103860637,312.
6.3,7153.,28.,10.,2794.,0.,0.,9985.,0.703393906276,1.3063029688,364.
6.32,7144.,23.,6.,2809.,0.,0.,9982.,0.665270525924,1.5040898847,299.
6.34,7139.,13.,16.,2811.,0.,0.,9979.,0.629723032619,2.51889213048,169.
6.36,7140.,18.,11.,2809.,0.,0.,9978.,0.597294002452,1.72551600708,234.
6.38,7143.,16.,4.,2817.,0.,0.,9980.,0.568062080538,1.84620176175,208.
6.4,7145.,17.,6.,2811.,0.,0.,9979.,0.542592629692,1.65969510259,221.
6.42,7152.,10.,10.,2807.,0.,0.,9979.,0.521511541136,2.71186001391,130.
6.44,7154.,11.,3.,2811.,0.,0.,9979.,0.504478691081,2.38480835784,143.
6.46,7160.,10.,0.,2809.,0.,0.,9979.,0.492423595142,2.56060269474,130.
6.48,7166.,6.,2.,2808.,0.,0.,9982.,0.485117545299,4.20435205926,78.
6.5,7173.,5.,3.,2803.,0.,0.,9984.,0.4829553199,5.02273532696,65.
6.52,7177.,2.,2.,2803.,0.,0.,9984.,0.485764885426,12.6298870211,26.
6.54,7186.,0.,1.,2800.,0.,0.,9987.,0.493815841485,inf,0.
6.56,7189.,1.,1.,2795.,0.,0.,9986.,0.506591426184,26.3427541616,13.
6.58,7199.,0.,2.,2786.,0.,0.,9987.,0.524518202706,inf,0.
6.6,7206.,1.,0.,2782.,0.,0.,9989.,0.546677153452,28.4272119795,13.
6.62,7215.,1.,0.,2772.,0.,0.,9988.,0.573328449867,29.8130793931,13.
6.64,7224.,1.,0.,2764.,0.,0.,9989.,0.603655505593,31.3900862908,13.
6.66,7233.,0.,1.,2757.,0.,0.,9991.,0.637248357935,inf,0.
6.68,7231.,1.,0.,2754.,0.,0.,9986.,0.673102498151,35.0013299039,13.
6.7,7236.,2.,0.,2748.,0.,0.,9986.,0.71148449831,18.4985969561,26.
6.72,7240.,2.,0.,2742.,0.,0.,9984.,0.751549276308,19.540281184,26.
6.74,7239.,3.,0.,2738.,0.,0.,9980.,0.792246503071,13.7322727199,39.
6.76,7244.,2.,1.,2733.,0.,0.,9980.,0.83364364892,21.6747348719,26.
6.78,7252.,2.,0.,2732.,0.,0.,9986.,0.874611057345,22.739887491,26.
6.8,7257.,2.,1.,2725.,0.,0.,9985.,0.914919443831,23.7879055396,26.
6.82,7265.,1.,0.,2719.,0.,0.,9985.,0.954000380396,49.6080197806,13.
6.84,7265.,2.,2.,2716.,0.,0.,9985.,0.989883251131,25.7369645294,26.
6.86,7264.,5.,2.,2709.,0.,0.,9980.,1.0233824005,10.6431769652,65.
6.88,7268.,6.,2.,2703.,0.,0.,9979.,1.05392852304,9.13404719965,78.
6.9,7269.,9.,2.,2695.,0.,0.,9975.,1.08063790964,6.24368570014,117.
6.92,7266.,10.,4.,2692.,0.,0.,9972.,1.1024894657,5.73294522165,130.
6.94,7266.,10.,5.,2690.,0.,0.,9971.,1.12006166287,5.82432064693,130.
6.96,7267.,11.,7.,2688.,0.,0.,9973.,1.13266345746,5.35440907165,143.
6.98,7266.,12.,6.,2689.,0.,0.,9973.,1.14019074443,4.94082655919,156.
7.,7250.,25.,6.,2687.,0.,0.,9968.,1.14082087229,2.37290741437,325.
7.02,7248.,18.,10.,2692.,0.,0.,9968.,1.1379366683,3.28737259732,234.
7.04,7239.,21.,11.,2696.,0.,0.,9967.,1.12897848734,2.79556577818,273.
7.06,7230.,21.,10.,2704.,0.,0.,9965.,1.11518328044,2.76140621823,273.
7.08,7214.,27.,4.,2719.,0.,0.,9964.,1.09547821101,2.10980988787,351.
7.1,7209.,28.,3.,2726.,0.,0.,9966.,1.07268591238,1.99213098014,364.
7.12,7203.,18.,11.,2729.,0.,0.,9961.,1.04639037657,3.02290553231,234.
7.14,7194.,30.,14.,2725.,0.,0.,9963.,1.01524989421,1.7597664833,390.
7.16,7173.,32.,22.,2736.,0.,0.,9963.,0.97950605976,1.59169734711,416.
7.18,7168.,34.,8.,2756.,0.,0.,9966.,0.943057367463,1.44232303259,442.
7.2,7157.,34.,14.,2762.,0.,0.,9967.,0.903941577111,1.38249888264,442.
7.22,7150.,30.,15.,2771.,0.,0.,9966.,0.864040080915,1.49766947359,390.
7.24,7144.,31.,11.,2781.,0.,0.,9967.,0.823207906831,1.38086487597,403.
7.26,7137.,28.,18.,2788.,0.,0.,9971.,0.781788497021,1.45189292304,364.
7.28,7130.,26.,12.,2800.,0.,0.,9968.,0.741318720726,1.48263744145,338.
7.3,7120.,25.,15.,2807.,0.,0.,9967.,0.701413274987,1.45893961197,325.
7.32,7110.,27.,10.,2817.,0.,0.,9964.,0.663300438568,1.27746751132,351.
7.34,7101.,21.,13.,2826.,0.,0.,9961.,0.627502978354,1.55381689878,273.
7.36,7102.,17.,8.,2835.,0.,0.,9962.,0.595069337011,1.82021208968,221.
7.38,7103.,13.,12.,2832.,0.,0.,9960.,0.566015295699,2.2640611828,169.
7.4,7102.,14.,5.,2839.,0.,0.,9960.,0.540356038721,2.00703671525,182.
7.42,7104.,15.,4.,2841.,0.,0.,9964.,0.518791288243,1.79847646591,195.
7.44,7100.,10.,8.,2841.,0.,0.,9959.,0.501676236477,2.60871642968,130.
7.46,7100.,9.,6.,2844.,0.,0.,9959.,0.489277755235,2.82693814136,117.
7.48,7107.,7.,3.,2847.,0.,0.,9964.,0.481992566448,3.5805162079,91.
7.5,7115.,4.,4.,2842.,0.,0.,9965.,0.479963594556,6.23952672923,52.
7.52,7120.,2.,4.,2838.,0.,0.,9964.,0.482874218813,12.5547296891,26.
7.54,7129.,2.,3.,2832.,0.,0.,9966.,0.490931147096,12.7642098245,26.
7.56,7139.,0.,5.,2824.,0.,0.,9968.,0.503976476688,inf,0.
7.58,7141.,1.,1.,2823.,0.,0.,9966.,0.521388671712,27.112210929,13.
7.6,7142.,1.,0.,2821.,0.,0.,9964.,0.543181295699,28.2454273763,13.
7.62,7147.,1.,0.,2817.,0.,0.,9965.,0.569235753701,29.6002591925,13.
7.64,7150.,3.,1.,2811.,0.,0.,9965.,0.59891084944,10.3811213903,39.
7.66,7160.,1.,2.,2806.,0.,0.,9969.,0.632208958014,32.8748658167,13.
7.68,7169.,1.,0.,2803.,0.,0.,9973.,0.66820106567,34.7464554148,13.
7.7,7173.,0.,1.,2801.,0.,0.,9975.,0.706067744922,inf,0.
7.72,7180.,1.,0.,2796.,0.,0.,9977.,0.745843894798,38.7838825295,13.
7.74,7186.,1.,0.,2790.,0.,0.,9977.,0.786682585076,40.9074944239,13.
7.76,7194.,0.,1.,2782.,0.,0.,9977.,0.828138559868,inf,0.
7.78,7198.,0.,0.,2781.,0.,0.,9979.,0.868707457229,inf,0.
7.8,7208.,2.,0.,2771.,0.,0.,9981.,0.90910600364,23.6367560946,26.
7.82,7208.,3.,0.,2766.,0.,0.,9977.,0.947274407638,16.4194230657,39.
7.84,7215.,3.,1.,2758.,0.,0.,9977.,0.983858834772,17.0535531361,39.
7.86,7219.,3.,0.,2754.,0.,0.,9976.,1.0174504099,17.635807105,39.
7.88,7220.,5.,2.,2750.,0.,0.,9977.,1.04717794682,10.8906506469,65.
7.9,7224.,9.,1.,2746.,0.,0.,9980.,1.07340998389,6.20192435139,117.
7.92,7227.,9.,1.,2743.,0.,0.,9980.,1.09569287664,6.33066995393,117.
7.94,7228.,7.,3.,2742.,0.,0.,9980.,1.11319912916,8.26947924516,91.
7.96,7234.,6.,5.,2737.,0.,0.,9982.,1.12650334868,9.76302902192,78.
7.98,7235.,8.,7.,2733.,0.,0.,9983.,1.13418892214,7.37222799388,104.
8.,7235.,10.,5.,2736.,0.,0.,9986.,1.13640845131,5.9093239468,130.
8.02,7229.,13.,6.,2733.,0.,0.,9981.,1.13347541811,4.53390167245,169.
8.04,7219.,22.,6.,2733.,0.,0.,9980.,1.12439278118,2.65765566462,286.
8.06,7225.,21.,8.,2730.,0.,0.,9984.,1.11229128486,2.75424508633,273.
8.08,7215.,28.,12.,2733.,0.,0.,9988.,1.09299739413,2.02985230338,364.
8.1,7214.,24.,14.,2740.,0.,0.,9992.,1.0706367509,2.31971296028,312.
8.12,7197.,33.,11.,2750.,0.,0.,9991.,1.04237936608,1.64253718292,429.
8.14,7187.,30.,13.,2759.,0.,0.,9989.,1.01162203723,1.75347819787,390.
8.16,7185.,28.,17.,2758.,0.,0.,9988.,0.978688906059,1.81756511125,364.
8.18,7185.,26.,12.,2765.,0.,0.,9988.,0.943211825842,1.88642365168,338.
8.2,7177.,28.,12.,2773.,0.,0.,9990.,0.904380649508,1.67956406337,364.
8.22,7167.,28.,9.,2782.,0.,0.,9986.,0.864359824599,1.60523967425,364.
8.24,7168.,21.,16.,2783.,0.,0.,9988.,0.824236814728,2.04096735076,273.
8.26,7142.,29.,18.,2795.,0.,0.,9984.,0.781317531159,1.40098315932,377.
8.28,7134.,29.,11.,2811.,0.,0.,9985.,0.740471764708,1.32774247465,377.
8.3,7134.,25.,5.,2826.,0.,0.,9990.,0.701174417697,1.45844278881,325.
8.32,7134.,21.,6.,2828.,0.,0.,9989.,0.663873746573,1.64387784866,273.
8.34,7132.,13.,15.,2831.,0.,0.,9991.,0.628349963887,2.51339985555,169.
8.36,7131.,15.,13.,2835.,0.,0.,9994.,0.595586072052,2.06469838311,195.
8.38,7127.,18.,13.,2834.,0.,0.,9992.,0.566108954797,1.63542586941,234.
8.4,7128.,12.,8.,2845.,0.,0.,9993.,0.540543293376,2.34235427129,156.
8.42,7133.,8.,8.,2845.,0.,0.,9994.,0.519345436274,3.37574533578,104.
8.44,7132.,11.,5.,2848.,0.,0.,9996.,0.502071998291,2.37343126465,143.
8.46,7129.,11.,1.,2852.,0.,0.,9993.,0.489604704489,2.31449496668,143.
8.48,7134.,7.,2.,2849.,0.,0.,9992.,0.482467899625,3.58404725436,91.
8.5,7138.,3.,6.,2843.,0.,0.,9990.,0.480310135499,8.32537568198,39.
8.52,7142.,5.,1.,2840.,0.,0.,9988.,0.483202370253,5.02530465063,65.
8.54,7146.,4.,1.,2836.,0.,0.,9987.,0.491067075321,6.38387197917,52.
8.56,7149.,2.,2.,2833.,0.,0.,9986.,0.50377272302,13.0980907985,26.
8.58,7154.,0.,2.,2831.,0.,0.,9987.,0.521239508564,inf,0.
8.6,7163.,0.,0.,2826.,0.,0.,9989.,0.543414994474,inf,0.
8.62,7165.,0.,0.,2821.,0.,0.,9986.,0.569469310435,inf,0.
8.64,7171.,0.,0.,2816.,0.,0.,9987.,0.599346694392,inf,0.
8.66,7176.,0.,0.,2810.,0.,0.,9986.,0.632543048412,inf,0.
8.68,7181.,0.,0.,2807.,0.,0.,9988.,0.668314364261,inf,0.
8.7,7190.,0.,0.,2800.,0.,0.,9990.,0.706678450132,inf,0.
8.72,7192.,2.,0.,2792.,0.,0.,9986.,0.746417106514,19.4068447694,26.
8.74,7196.,1.,2.,2786.,0.,0.,9985.,0.787146159829,40.9316003111,13.
8.76,7199.,4.,1.,2782.,0.,0.,9986.,0.827967247371,10.7635742158,52.
8.78,7201.,2.,4.,2778.,0.,0.,9985.,0.868547294193,22.582229649,26.
8.8,7201.,3.,0.,2779.,0.,0.,9983.,0.908041177602,15.7393804118,39.
8.82,7207.,0.,3.,2774.,0.,0.,9984.,0.946478925179,inf,0.
8.84,7207.,3.,2.,2768.,0.,0.,9980.,0.982472509784,17.0295235029,39.
8.86,7206.,7.,1.,2763.,0.,0.,9977.,1.01551638576,7.54383600852,91.
8.88,7215.,8.,1.,2753.,0.,0.,9977.,1.04645275434,6.80194290318,104.
8.9,7221.,8.,4.,2745.,0.,0.,9978.,1.07317928162,6.97566533051,104.
8.92,7219.,13.,5.,2741.,0.,0.,9978.,1.09469936707,4.37879746829,169.
8.94,7219.,13.,9.,2736.,0.,0.,9977.,1.11214733349,4.44858933397,169.
8.96,7213.,11.,11.,2743.,0.,0.,9978.,1.12368344038,5.31195808178,143.
8.98,7214.,14.,3.,2748.,0.,0.,9979.,1.13135018483,4.20215782935,182.
9.,7214.,17.,5.,2747.,0.,0.,9983.,1.13345047285,3.46702497576,221.
9.02,7211.,18.,8.,2747.,0.,0.,9984.,1.13031335773,3.26534970012,234.
9.04,7204.,19.,10.,2750.,0.,0.,9983.,1.12171927135,3.06996853211,247.
9.06,7197.,21.,11.,2758.,0.,0.,9987.,1.10764784816,2.74274705259,273.
9.08,7191.,21.,9.,2765.,0.,0.,9986.,1.08957982174,2.69800717764,273.
9.1,7187.,19.,9.,2772.,0.,0.,9987.,1.0671636637,2.92065844801,247.
9.12,7170.,22.,14.,2775.,0.,0.,9981.,1.03950925972,2.45702188662,286.
9.14,7164.,27.,8.,2777.,0.,0.,9976.,1.00969867524,1.94460485602,351.
9.16,7150.,32.,19.,2777.,0.,0.,9978.,0.974897527171,1.58420848165,416.
9.18,7135.,36.,19.,2789.,0.,0.,9979.,0.937492826478,1.35415630491,468.
9.2,7121.,39.,12.,2808.,0.,0.,9980.,0.898223158109,1.19763087748,507.
9.22,7107.,32.,24.,2815.,0.,0.,9978.,0.857810871099,1.39394266554,416.
9.24,7090.,39.,19.,2830.,0.,0.,9978.,0.816084785189,1.08811304692,507.
9.26,7082.,36.,15.,2844.,0.,0.,9977.,0.775297254037,1.11987381139,468.
9.28,7065.,38.,13.,2862.,0.,0.,9978.,0.733824375518,1.00418072439,494.
9.3,7067.,29.,16.,2867.,0.,0.,9979.,0.695354892072,1.24684325475,377.
9.32,7065.,26.,16.,2874.,0.,0.,9981.,0.657979727605,1.31595945521,338.
9.34,7070.,24.,17.,2872.,0.,0.,9983.,0.623386742019,1.35067127437,312.
9.36,7073.,20.,13.,2880.,0.,0.,9986.,0.59121512783,1.53715933236,260.
9.38,7068.,23.,11.,2881.,0.,0.,9983.,0.561928631561,1.27044734092,299.
9.4,7066.,15.,11.,2890.,0.,0.,9982.,0.5364320867,1.85963123389,195.
9.42,7067.,13.,8.,2894.,0.,0.,9982.,0.515158614488,2.06063445795,169.
9.44,7066.,16.,2.,2899.,0.,0.,9983.,0.498073545502,1.61873902288,208.
9.46,7065.,12.,2.,2900.,0.,0.,9979.,0.485890041854,2.1055235147,156.
9.48,7070.,8.,4.,2895.,0.,0.,9977.,0.478858482993,3.11258013945,104.
9.5,7074.,2.,1.,2898.,0.,0.,9975.,0.476719423189,12.3947050029,26.
9.52,7080.,2.,0.,2892.,0.,0.,9974.,0.479680029187,12.4716807589,26.
9.54,7087.,1.,1.,2887.,0.,0.,9976.,0.487549647944,25.3525816931,13.
9.56,7094.,0.,0.,2883.,0.,0.,9977.,0.500347950647,inf,0.
9.58,7095.,0.,0.,2881.,0.,0.,9976.,0.517510779107,inf,0.
9.6,7108.,0.,0.,2873.,0.,0.,9981.,0.539674680729,inf,0.
9.62,7111.,0.,0.,2868.,0.,0.,9979.,0.565573884045,inf,0.
9.64,7115.,1.,0.,2865.,0.,0.,9981.,0.595023736195,30.9412342821,13.
9.66,7119.,0.,1.,2860.,0.,0.,9980.,0.627895933743,inf,0.
9.68,7125.,1.,0.,2851.,0.,0.,9977.,0.663833704799,34.5193526495,13.
9.7,7128.,1.,0.,2847.,0.,0.,9976.,0.701567878144,36.4815296635,13.
9.72,7132.,1.,1.,2842.,0.,0.,9976.,0.740932015778,38.5284648204,13.
9.74,7139.,1.,0.,2836.,0.,0.,9976.,0.78161563299,40.6440129155,13.
9.76,7144.,1.,0.,2830.,0.,0.,9975.,0.822547689963,42.7724798781,13.
9.78,7149.,0.,0.,2826.,0.,0.,9975.,0.863139760146,inf,0.
9.8,7152.,1.,0.,2818.,0.,0.,9971.,0.902947693479,46.9532800609,13.
9.82,7159.,1.,0.,2813.,0.,0.,9973.,0.941212186899,48.9430337187,13.
9.84,7163.,1.,1.,2808.,0.,0.,9973.,0.977159725237,50.8123057123,13.
9.86,7170.,4.,1.,2799.,0.,0.,9974.,1.01074695474,13.1397104116,52.
9.88,7167.,5.,3.,2793.,0.,0.,9968.,1.04042945165,10.8204662972,65.
9.9,7169.,9.,3.,2787.,0.,0.,9968.,1.06651995441,6.16211529216,117.
9.92,7169.,9.,8.,2784.,0.,0.,9970.,1.08798960715,6.28616217463,117.
9.94,7172.,10.,8.,2780.,0.,0.,9970.,1.10568235226,5.74954823174,130.
9.96,7169.,12.,0.,2789.,0.,0.,9970.,1.11772501389,4.84347506017,156.
9.98,7170.,9.,5.,2786.,0.,0.,9970.,1.12546484553,6.50268577418,117.
10.,7168.,9.,2.,2788.,0.,0.,9967.,1.12803096007,6.51751221371,117.
