t,neff
5.,0.293902774354
5.02,0.311746823718
5.04,0.314153586107
5.06,0.423998828706
5.08,0.575901088771
5.1,0.515128523762
5.12,0.661490749684
5.14,0.839875151622
5.16,0.88933561159
5.18,0.967060218312
5.2,1.03129002845
5.22,0.986989819578
5.24,1.06209716464
5.26,1.0169755828
5.28,0.777323345823
5.3,0.736218595528
5.32,0.837934249134
5.34,0.505501810194
5.36,0.666632605007
5.38,0.561063428732
5.4,0.661592426323
5.42,0.344353491866
5.44,0.355922813477
5.46,0.324122701031
5.48,0.205546194707
5.5,0.123903427325
5.52,0.0821456606078
5.54,0.0404062149085
5.56,0.0787454798098
5.58,0.0380427862847
5.6,0.
5.62,0.
5.64,0.
5.66,0.
5.68,0.029645530483
5.7,0.0560498068037
5.72,0.0530531752874
5.74,0.0251284659345
5.76,0.
5.78,0.068210486739
5.8,0.0217312827825
5.82,0.0417299016329
5.84,0.0803986782889
5.86,0.0971404418759
5.88,0.11322469794
5.9,0.147305969309
5.92,0.14426800151
5.94,0.212976332877
5.96,0.193052543208
5.98,0.121941344656
6.,0.191127044394
6.02,0.226455458657
6.04,0.403584577261
6.06,0.426141946948
6.08,0.342769500477
6.1,0.534429086363
6.12,0.452773859877
6.14,0.602659027431
6.16,0.74520089192
6.18,0.794357838456
6.2,0.916414961378
6.22,0.775991570913
6.24,0.766483161999
6.26,0.731371958613
6.28,0.558096342144
6.3,0.842973491724
6.32,0.741549851733
6.34,0.626386494141
6.36,0.594611772593
6.38,0.451812104441
6.4,0.545836241585
6.42,0.454191393526
6.44,0.313014140287
6.46,0.240825380578
6.48,0.0814968109687
6.5,0.163780692012
6.52,0.162693660296
6.54,0.0800192142681
6.56,0.0389964582899
6.58,0.037698392913
6.6,0.0361455496608
6.62,0.0344689154604
6.64,0.
6.66,0.
6.68,0.
6.7,0.
6.72,0.
6.74,0.0497956607318
6.76,0.0473169226643
6.78,0.0450954461683
6.8,0.
6.82,0.0413416516374
6.84,0.0398083070069
6.86,0.0962814770724
6.88,0.130931417405
6.9,0.127600024245
6.92,0.142838554473
6.94,0.193291218285
6.96,0.121577190165
6.98,0.189905881492
7.,0.293063663678
7.02,0.311087575622
7.04,0.348241489007
7.06,0.476255911458
7.08,0.556821096533
7.1,0.550528953548
7.12,0.546023417569
7.14,0.542999465944
7.16,0.662489549247
7.18,0.771913112813
7.2,0.695521059005
7.22,0.659550013712
7.24,0.596677822046
7.26,0.678895652923
7.28,0.50414341868
7.3,0.672844391249
7.32,0.621823966433
7.34,0.438142355535
7.36,0.495183942684
7.38,0.520471673347
7.4,0.435648252164
7.42,0.453616109471
7.44,0.156300182037
7.46,0.280359530809
7.48,0.16256721436
7.5,0.122440632966
7.52,0.081098898978
7.54,0.0398841670543
7.56,0.0777347321149
7.58,0.
7.6,0.
7.62,0.
7.64,0.
7.66,0.
7.68,0.0292550482673
7.7,0.0276944100633
7.72,0.0262080379848
7.74,0.0248458318105
7.76,0.
7.78,0.0224936018559
7.8,0.0645126604828
7.82,0.0618700303083
7.84,0.0198559250813
7.86,0.115238154169
7.88,0.111961543817
7.9,0.12738196667
7.92,0.160457752489
7.94,0.157985406797
7.96,0.155991613536
7.98,0.258623615178
8.,0.223616590427
8.02,0.327548389237
8.04,0.364648719398
8.06,0.351454733009
8.08,0.590734021629
8.1,0.640283586227
8.12,0.713686431723
8.14,0.639479633162
8.16,0.721646545373
8.18,0.64500534215
8.2,0.803849472308
8.22,0.93325724001
8.24,0.64418229804
8.26,1.05736820968
8.28,0.822925174687
8.3,0.841561793161
8.32,0.533128251201
8.34,0.344189011419
8.36,0.594139895148
8.38,0.45076070493
8.4,0.471966470224
8.42,0.37796612771
8.44,0.351670322456
8.46,0.360323892909
8.48,0.284292428425
8.5,0.163226759838
8.52,0.162356911042
8.54,0.0799123637598
8.56,0.
8.58,0.
8.6,0.
8.62,0.
8.64,0.
8.66,0.
8.68,0.
8.7,0.
8.72,0.0524601901152
8.74,0.0497449313965
8.76,0.0945442519317
8.78,0.0450521844044
8.8,0.0861989779331
8.82,0.0206855987987
8.84,0.0597876077062
8.86,0.0770704449536
8.88,0.131099991629
8.9,0.127848241242
8.92,0.196844192173
8.94,0.158505066655
8.96,0.156763038152
8.98,0.276902704949
9.,0.553726657602
9.02,0.520886481106
9.04,0.542319619187
9.06,0.478235010422
9.08,0.413896372402
9.1,0.367666404114
9.12,0.415132842223
9.14,0.544809602042
9.16,0.745854975117
9.18,0.754408418643
9.2,0.984595028081
9.22,0.847672285327
9.24,0.69698871168
9.26,0.556318079446
9.28,0.667371766579
9.3,0.619739116803
9.32,0.386767874367
9.34,0.313988215277
9.36,0.463759672737
9.38,0.41765272404
9.4,0.473875696885
9.42,0.227641381257
9.44,0.431573643589
9.46,0.401949411696
9.48,0.285516871112
9.5,0.0409709509545
9.52,0.162907029229
9.54,0.0801169984356
9.56,0.0390437160685
9.58,0.0377323452332
9.6,0.0361945918255
9.62,0.0690865775712
9.64,0.065644327709
9.66,0.0621501982914
9.68,0.0588071684944
9.7,0.0556571750141
9.72,0.131830304966
9.74,0.0999233829288
9.76,0.118782238874
9.78,0.0226377936774
9.8,0.0649202898089
9.82,0.0415195452652
9.84,0.0799428343194
9.86,0.0773031354952
9.88,0.0562869589252
9.9,0.0731960596145
9.92,0.0716829642782
9.94,0.141138920396
9.96,0.174397531546
9.98,0.207955902073
10.,0.155555553276
