t,s,e,i,r,c,o,n,reff,coal,reportr
5.,7585.,10.,5.,2400.,0.,0.,10000.,1.14679667569,5.9633427136,130.
5.02,7592.,8.,4.,2399.,0.,0.,10003.,1.14492549564,7.44201572165,104.
5.04,7585.,16.,4.,2397.,0.,0.,10002.,1.13627549877,3.692895371,208.
5.06,7582.,17.,7.,2397.,0.,0.,10003.,1.12300612697,3.43507756484,221.
5.08,7570.,23.,12.,2399.,0.,0.,10004.,1.10363859674,2.49518291438,299.
5.1,7556.,32.,14.,2403.,0.,0.,10005.,1.07953480722,1.75424406173,416.
5.12,7543.,34.,18.,2408.,0.,0.,10003.,1.0518176646,1.60866231056,442.
5.14,7533.,37.,21.,2413.,0.,0.,10004.,1.02054061498,1.43427329672,481.
5.16,7513.,34.,26.,2428.,0.,0.,10001.,0.985166753592,1.50672562314,442.
5.18,7475.,48.,25.,2450.,0.,0.,9998.,0.944936059108,1.0236807307,624.
5.2,7466.,45.,14.,2473.,0.,0.,9998.,0.906133143283,1.04708718779,585.
5.22,7453.,39.,27.,2479.,0.,0.,9998.,0.865386424157,1.15384856554,507.
5.24,7438.,41.,13.,2505.,0.,0.,9997.,0.823687331606,1.0446766157,533.
5.26,7434.,32.,23.,2510.,0.,0.,9999.,0.782747416848,1.27196455238,416.
5.28,7422.,30.,13.,2532.,0.,0.,9997.,0.74168258906,1.28558315437,390.
5.3,7423.,25.,18.,2533.,0.,0.,9999.,0.702626777566,1.46146369734,325.
5.32,7416.,31.,12.,2542.,0.,0.,10001.,0.664422078648,1.11451445451,403.
5.34,7408.,28.,11.,2548.,0.,0.,9995.,0.628869820284,1.16790109481,364.
5.36,7401.,28.,11.,2554.,0.,0.,9994.,0.595837537333,1.10655542648,364.
5.38,7407.,16.,11.,2562.,0.,0.,9996.,0.566898290753,1.84241944495,208.
5.4,7404.,20.,3.,2569.,0.,0.,9996.,0.541055980055,1.40674554814,260.
5.42,7405.,17.,7.,2567.,0.,0.,9996.,0.519595780034,1.58935179775,221.
5.44,7408.,14.,10.,2567.,0.,0.,9999.,0.502537734772,1.86656872915,182.
5.46,7410.,10.,4.,2580.,0.,0.,10004.,0.490005256501,2.5480273338,130.
5.48,7416.,7.,2.,2583.,0.,0.,10008.,0.482673579743,3.5855751638,91.
5.5,7415.,4.,1.,2588.,0.,0.,10008.,0.480084753193,6.24110179151,52.
5.52,7422.,3.,1.,2586.,0.,0.,10012.,0.482871098304,8.36976570393,39.
5.54,7423.,1.,2.,2584.,0.,0.,10010.,0.490570690121,25.5096758863,13.
5.56,7432.,1.,2.,2577.,0.,0.,10012.,0.503511196767,26.1825822319,13.
5.58,7440.,3.,1.,2570.,0.,0.,10014.,0.521113288986,9.03263034242,39.
5.6,7447.,0.,2.,2564.,0.,0.,10013.,0.543274319549,inf,0.
5.62,7461.,0.,0.,2559.,0.,0.,10020.,0.569663467186,inf,0.
5.64,7465.,0.,0.,2555.,0.,0.,10020.,0.599430575393,inf,0.
5.66,7463.,0.,0.,2552.,0.,0.,10015.,0.63227362534,inf,0.
5.68,7469.,1.,0.,2546.,0.,0.,10016.,0.668168358118,34.7447546221,13.
5.7,7477.,0.,0.,2539.,0.,0.,10016.,0.706536934387,inf,0.
5.72,7481.,1.,0.,2533.,0.,0.,10015.,0.746234850166,38.8042122087,13.
5.74,7489.,0.,1.,2526.,0.,0.,10016.,0.787200152239,inf,0.
5.76,7495.,1.,0.,2517.,0.,0.,10013.,0.828673261117,43.0910095781,13.
5.78,7502.,2.,1.,2507.,0.,0.,10012.,0.869857891748,22.6163051854,26.
5.8,7510.,2.,0.,2502.,0.,0.,10014.,0.910017014764,23.6604423839,26.
5.82,7513.,1.,1.,2498.,0.,0.,10013.,0.948316987402,49.3124833449,13.
5.84,7518.,3.,1.,2495.,0.,0.,10017.,0.984247756037,17.060294438,39.
5.86,7520.,5.,2.,2490.,0.,0.,10017.,1.01745726156,10.5815555202,65.
5.88,7524.,7.,1.,2486.,0.,0.,10018.,1.04759732512,7.78215155801,91.
5.9,7524.,11.,2.,2482.,0.,0.,10019.,1.07346083461,5.07454212725,143.
5.92,7532.,9.,4.,2477.,0.,0.,10022.,1.09612629666,6.33317415846,117.
5.94,7535.,6.,4.,2477.,0.,0.,10022.,1.11392890298,9.65405049247,78.
5.96,7534.,11.,2.,2473.,0.,0.,10020.,1.12660792425,5.32578291464,143.
5.98,7534.,13.,5.,2471.,0.,0.,10023.,1.13391155621,4.53564622482,169.
6.,7530.,15.,7.,2470.,0.,0.,10022.,1.13598191664,3.93807064435,195.
6.02,7521.,18.,10.,2471.,0.,0.,10020.,1.132293888,3.271071232,234.
6.04,7516.,21.,10.,2473.,0.,0.,10020.,1.12391626741,2.7830307574,273.
6.06,7505.,24.,14.,2474.,0.,0.,10017.,1.11004768959,2.40510332745,312.
6.08,7493.,29.,14.,2479.,0.,0.,10015.,1.09121282818,1.95665748502,377.
6.1,7476.,34.,16.,2488.,0.,0.,10014.,1.06714516034,1.63210436287,442.
6.12,7466.,23.,24.,2501.,0.,0.,10014.,1.03993697503,2.35116185659,299.
6.14,7439.,37.,19.,2516.,0.,0.,10011.,1.00710118318,1.41538544664,481.
6.16,7423.,43.,15.,2531.,0.,0.,10012.,0.972295790133,1.17579956016,559.
6.18,7410.,33.,28.,2541.,0.,0.,10012.,0.9354093887,1.47397843068,429.
6.2,7388.,45.,17.,2562.,0.,0.,10012.,0.895412614459,1.03469902115,585.
6.22,7371.,45.,15.,2579.,0.,0.,10010.,0.854839187352,0.987814172051,585.
6.24,7364.,36.,21.,2591.,0.,0.,10012.,0.814270766972,1.17616888563,468.
6.26,7360.,35.,18.,2600.,0.,0.,10013.,0.773872212815,1.1497530019,455.
6.28,7354.,30.,17.,2612.,0.,0.,10013.,0.733713036407,1.27176926311,390.
6.3,7348.,32.,13.,2622.,0.,0.,10015.,0.694416447725,1.12842672755,416.
6.32,7350.,27.,9.,2626.,0.,0.,10012.,0.657785445531,1.26684604324,351.
6.34,7343.,18.,17.,2632.,0.,0.,10010.,0.622417835243,1.79809596848,234.
6.36,7338.,17.,12.,2643.,0.,0.,10010.,0.589821271209,1.80415918252,221.
6.38,7338.,13.,6.,2651.,0.,0.,10008.,0.560943940633,2.24377576253,169.
6.4,7341.,11.,7.,2648.,0.,0.,10007.,0.535862496578,2.53316816564,143.
6.42,7340.,7.,7.,2656.,0.,0.,10010.,0.514314516306,3.82062212113,91.
6.44,7340.,7.,3.,2660.,0.,0.,10010.,0.497377637283,3.69480530553,91.
6.46,7341.,3.,7.,2657.,0.,0.,10008.,0.485248432753,8.41097283438,39.
6.48,7351.,2.,1.,2657.,0.,0.,10011.,0.478299651327,12.4357909345,26.
6.5,7354.,3.,0.,2652.,0.,0.,10009.,0.47608773272,8.25218736714,39.
6.52,7359.,2.,0.,2649.,0.,0.,10010.,0.47886801295,12.4505683367,26.
6.54,7361.,1.,1.,2646.,0.,0.,10009.,0.486521842161,25.2991357924,13.
6.56,7369.,0.,0.,2642.,0.,0.,10011.,0.499292873881,inf,0.
6.58,7371.,0.,0.,2639.,0.,0.,10010.,0.516486689331,inf,0.
6.6,7376.,0.,0.,2634.,0.,0.,10010.,0.538255987304,inf,0.
6.62,7382.,1.,0.,2627.,0.,0.,10010.,0.564194715109,29.3381251856,13.
6.64,7391.,1.,1.,2617.,0.,0.,10010.,0.594081359431,30.8922306904,13.
6.66,7390.,3.,0.,2616.,0.,0.,10009.,0.626464300099,10.858714535,39.
6.68,7385.,1.,4.,2615.,0.,0.,10005.,0.6613801684,34.3917687568,13.
6.7,7389.,0.,1.,2615.,0.,0.,10005.,0.698989059762,inf,0.
6.72,7395.,0.,0.,2611.,0.,0.,10006.,0.738319784103,inf,0.
6.74,7398.,2.,0.,2606.,0.,0.,10006.,0.778411929611,20.2387101699,26.
6.76,7404.,2.,0.,2601.,0.,0.,10007.,0.819102808312,21.2966730161,26.
6.78,7410.,3.,1.,2594.,0.,0.,10008.,0.859533881056,14.8985872716,39.
6.8,7417.,3.,3.,2587.,0.,0.,10010.,0.899106969354,15.5845208021,39.
6.82,7422.,6.,0.,2582.,0.,0.,10010.,0.937111419365,8.12163230117,78.
6.84,7420.,6.,4.,2579.,0.,0.,10009.,0.972194146177,8.4256826002,78.
6.86,7421.,6.,3.,2576.,0.,0.,10006.,1.00516635147,8.71144171273,78.
6.88,7415.,7.,6.,2576.,0.,0.,10004.,1.03386562005,7.68014460609,91.
6.9,7416.,5.,10.,2572.,0.,0.,10003.,1.05974468186,11.0213446914,65.
6.92,7420.,9.,5.,2573.,0.,0.,10007.,1.08144562838,6.2483525195,117.
6.94,7416.,14.,0.,2578.,0.,0.,10008.,1.09787030592,4.07780399342,182.
6.96,7422.,9.,7.,2569.,0.,0.,10007.,1.11130164577,6.42085395331,117.
6.98,7417.,18.,5.,2569.,0.,0.,10009.,1.1178637823,3.22938425997,234.
7.,7424.,17.,8.,2566.,0.,0.,10015.,1.12077348978,3.42824832167,221.
7.02,7424.,21.,11.,2562.,0.,0.,10018.,1.1179135798,2.76816695951,273.
7.04,7416.,27.,6.,2568.,0.,0.,10017.,1.10929474247,2.13641950402,351.
7.06,7415.,26.,9.,2569.,0.,0.,10019.,1.09651706055,2.19303412111,338.
7.08,7414.,21.,15.,2573.,0.,0.,10023.,1.07884619759,2.67142867974,273.
7.1,7398.,26.,13.,2584.,0.,0.,10021.,1.05527356329,2.11054712659,338.
7.12,7378.,37.,20.,2584.,0.,0.,10019.,1.02716661525,1.44358551333,481.
7.14,7363.,35.,18.,2606.,0.,0.,10022.,0.995718121087,1.47935263704,455.
7.16,7355.,38.,14.,2614.,0.,0.,10021.,0.962523630871,1.31713760014,494.
7.18,7350.,31.,28.,2614.,0.,0.,10023.,0.9268169469,1.55466068512,403.
7.2,7334.,31.,25.,2630.,0.,0.,10020.,0.888158234395,1.48981381253,403.
7.22,7329.,34.,13.,2651.,0.,0.,10027.,0.848527253516,1.2977475642,442.
7.24,7320.,37.,13.,2660.,0.,0.,10030.,0.80795291592,1.13550139535,481.
7.26,7312.,26.,18.,2674.,0.,0.,10030.,0.767522126529,1.53504425306,338.
7.28,7304.,28.,13.,2686.,0.,0.,10031.,0.727416855714,1.35091701775,364.
7.3,7300.,20.,16.,2694.,0.,0.,10030.,0.688848523631,1.79100616144,260.
7.32,7300.,19.,7.,2701.,0.,0.,10027.,0.652333387321,1.78533348109,247.
7.34,7306.,16.,9.,2697.,0.,0.,10028.,0.618169994095,2.00905248081,208.
7.36,7301.,17.,4.,2707.,0.,0.,10029.,0.585735461764,1.79166141245,221.
7.38,7306.,13.,8.,2704.,0.,0.,10031.,0.557217166904,2.22886866761,169.
7.4,7311.,6.,6.,2706.,0.,0.,10029.,0.532501936453,4.61501678259,78.
7.42,7313.,7.,1.,2709.,0.,0.,10030.,0.511400843763,3.79897769653,91.
7.44,7318.,5.,1.,2702.,0.,0.,10026.,0.495095498188,5.14899318116,65.
7.46,7330.,3.,2.,2695.,0.,0.,10030.,0.483458561638,8.37994840173,39.
7.48,7333.,6.,2.,2689.,0.,0.,10030.,0.476224632002,4.12728014402,78.
7.5,7341.,3.,3.,2682.,0.,0.,10029.,0.474298386994,8.22117204124,39.
7.52,7349.,3.,4.,2674.,0.,0.,10030.,0.477263714794,8.27257105643,39.
7.54,7354.,1.,3.,2673.,0.,0.,10031.,0.484993154927,25.2196440562,13.
7.56,7363.,0.,3.,2666.,0.,0.,10032.,0.497842019279,inf,0.
7.58,7362.,0.,1.,2666.,0.,0.,10029.,0.514878766089,inf,0.
7.6,7364.,0.,0.,2663.,0.,0.,10027.,0.536469213113,inf,0.
7.62,7377.,0.,0.,2656.,0.,0.,10033.,0.562520069273,inf,0.
7.64,7382.,0.,0.,2652.,0.,0.,10034.,0.591938714542,inf,0.
7.66,7390.,0.,0.,2644.,0.,0.,10034.,0.624903446252,inf,0.
7.68,7392.,0.,0.,2639.,0.,0.,10031.,0.660291169942,inf,0.
7.7,7395.,1.,0.,2632.,0.,0.,10028.,0.697952163633,36.2935125089,13.
7.72,7397.,1.,0.,2626.,0.,0.,10024.,0.737193312638,38.3340522572,13.
7.74,7399.,1.,0.,2622.,0.,0.,10022.,0.777274255777,40.4182613004,13.
7.76,7402.,3.,2.,2616.,0.,0.,10023.,0.817574344866,14.1712886443,39.
7.78,7404.,3.,1.,2616.,0.,0.,10024.,0.857467051603,14.8627622278,39.
7.8,7415.,2.,2.,2604.,0.,0.,10023.,0.897698681994,23.3401657318,26.
7.82,7417.,4.,0.,2604.,0.,0.,10025.,0.935078895705,12.1560256442,52.
7.84,7416.,4.,2.,2601.,0.,0.,10023.,0.970312835822,12.6140668657,52.
7.86,7426.,4.,2.,2594.,0.,0.,10026.,1.00383712564,13.0498826334,52.
7.88,7425.,6.,6.,2586.,0.,0.,10023.,1.03329742937,8.95524438785,78.
7.9,7427.,8.,3.,2583.,0.,0.,10021.,1.05941021284,6.88616638346,104.
7.92,7425.,11.,3.,2578.,0.,0.,10017.,1.08109402753,5.11062631196,143.
7.94,7430.,10.,3.,2572.,0.,0.,10015.,1.09917406981,5.71570516303,130.
7.96,7431.,10.,5.,2567.,0.,0.,10013.,1.11198249974,5.78230899867,130.
7.98,7425.,13.,6.,2568.,0.,0.,10012.,1.11873419529,4.47493678116,169.
8.,7425.,16.,6.,2565.,0.,0.,10012.,1.12126033032,3.64409607354,208.
8.02,7422.,15.,5.,2566.,0.,0.,10008.,1.11872913678,3.87826100751,195.
8.04,7417.,19.,9.,2565.,0.,0.,10010.,1.11022015894,3.03849727709,247.
8.06,7413.,25.,11.,2562.,0.,0.,10011.,1.09709731753,2.28196242045,325.
8.08,7393.,29.,14.,2571.,0.,0.,10007.,1.07751044887,1.93208770141,377.
8.1,7383.,29.,13.,2582.,0.,0.,10007.,1.05460727311,1.89101993799,377.
8.12,7379.,27.,14.,2587.,0.,0.,10007.,1.02853774012,1.98088749949,351.
8.14,7372.,31.,17.,2590.,0.,0.,10010.,0.998130342214,1.67428315468,403.
8.16,7347.,34.,17.,2607.,0.,0.,10005.,0.963014292222,1.4728453881,442.
8.18,7333.,36.,18.,2621.,0.,0.,10008.,0.926059189868,1.33764105203,468.
8.2,7314.,38.,17.,2641.,0.,0.,10010.,0.886621056202,1.21327091901,494.
8.22,7305.,34.,17.,2656.,0.,0.,10012.,0.847015715705,1.29543580049,442.
8.24,7284.,24.,24.,2675.,0.,0.,10007.,0.805827236055,1.74595901145,312.
8.26,7262.,36.,21.,2683.,0.,0.,10002.,0.764407692846,1.10414444522,468.
8.28,7246.,36.,7.,2709.,0.,0.,9998.,0.724022434602,1.04581018331,468.
8.3,7250.,24.,21.,2704.,0.,0.,9999.,0.686251399347,1.48687803192,312.
8.32,7245.,29.,10.,2714.,0.,0.,9998.,0.649296436095,1.16425567851,377.
8.34,7246.,20.,12.,2722.,0.,0.,10000.,0.614809978729,1.59850594469,260.
8.36,7241.,18.,17.,2722.,0.,0.,9998.,0.582723075093,1.68342221693,234.
8.38,7232.,13.,14.,2734.,0.,0.,9993.,0.553670749672,2.21468299869,169.
8.4,7232.,19.,10.,2737.,0.,0.,9998.,0.528381159893,1.44609580602,247.
8.42,7233.,18.,5.,2740.,0.,0.,9996.,0.507526843617,1.46618865934,234.
8.44,7239.,11.,12.,2736.,0.,0.,9998.,0.491122370661,2.32166938858,143.
8.46,7241.,13.,10.,2736.,0.,0.,10000.,0.479021229899,1.91608491959,169.
8.48,7238.,10.,4.,2748.,0.,0.,10000.,0.47146524316,2.45161926443,130.
8.5,7244.,4.,7.,2748.,0.,0.,10003.,0.469247781201,6.10022115561,52.
8.52,7248.,3.,4.,2744.,0.,0.,9999.,0.472163834568,8.18417313252,39.
8.54,7249.,2.,0.,2747.,0.,0.,9998.,0.479646391305,12.4708061739,26.
8.56,7258.,1.,1.,2742.,0.,0.,10002.,0.492214480577,25.59515299,13.
8.58,7262.,0.,1.,2738.,0.,0.,10001.,0.509306967046,inf,0.
8.6,7268.,0.,1.,2731.,0.,0.,10000.,0.530905173568,inf,0.
8.62,7274.,0.,1.,2726.,0.,0.,10001.,0.556440740382,inf,0.
8.64,7282.,0.,1.,2718.,0.,0.,10001.,0.585846781285,inf,0.
8.66,7282.,1.,0.,2713.,0.,0.,9996.,0.618111758242,32.1418114286,13.
8.68,7284.,0.,0.,2710.,0.,0.,9994.,0.653052887007,inf,0.
8.7,7292.,0.,0.,2705.,0.,0.,9997.,0.690365011506,inf,0.
8.72,7298.,0.,0.,2697.,0.,0.,9995.,0.729437164702,inf,0.
8.74,7309.,0.,0.,2691.,0.,0.,10000.,0.769508845797,inf,0.
8.76,7315.,0.,0.,2683.,0.,0.,9998.,0.809985235666,inf,0.
8.78,7324.,0.,0.,2678.,0.,0.,10002.,0.850067817175,inf,0.
8.8,7331.,1.,0.,2672.,0.,0.,10004.,0.889214833889,46.2391713622,13.
8.82,7334.,2.,1.,2666.,0.,0.,10003.,0.926648430259,24.0928591867,26.
8.84,7336.,2.,0.,2664.,0.,0.,10002.,0.961860871893,25.0083826692,26.
8.86,7341.,1.,2.,2657.,0.,0.,10001.,0.994827554281,51.7310328226,13.
8.88,7344.,4.,1.,2650.,0.,0.,9999.,1.02447819931,13.318216591,52.
8.9,7353.,3.,3.,2645.,0.,0.,10004.,1.05063696427,18.211040714,39.
8.92,7350.,10.,1.,2644.,0.,0.,10005.,1.07145745272,5.57157875413,130.
8.94,7351.,8.,3.,2643.,0.,0.,10005.,1.0885739674,7.07573078811,104.
8.96,7352.,11.,3.,2639.,0.,0.,10005.,1.10104054715,5.20491895019,143.
8.98,7356.,8.,7.,2636.,0.,0.,10007.,1.10889165881,7.20779578225,104.
9.,7344.,15.,6.,2640.,0.,0.,10005.,1.10980433136,3.84732168204,195.
9.02,7334.,20.,8.,2641.,0.,0.,10003.,1.10601733206,2.87564506336,260.
9.04,7328.,23.,5.,2646.,0.,0.,10002.,1.0977754588,2.48192712424,299.
9.06,7318.,22.,13.,2648.,0.,0.,10001.,1.08412058884,2.56246684634,286.
9.08,7310.,25.,10.,2657.,0.,0.,10002.,1.06594601574,2.21716771275,325.
9.1,7301.,23.,14.,2662.,0.,0.,10000.,1.04362420187,2.35949819553,299.
9.12,7286.,26.,15.,2673.,0.,0.,10000.,1.01628563798,2.03257127597,338.
9.14,7272.,32.,15.,2685.,0.,0.,10004.,0.985181382198,1.60091974607,416.
9.16,7255.,31.,16.,2700.,0.,0.,10002.,0.951240543292,1.59562929842,403.
9.18,7250.,30.,10.,2711.,0.,0.,10001.,0.916218247239,1.58811162855,390.
9.2,7250.,28.,12.,2708.,0.,0.,9998.,0.879917665257,1.6341328069,364.
9.22,7240.,35.,9.,2713.,0.,0.,9997.,0.840738553427,1.24909727938,455.
9.24,7239.,32.,6.,2719.,0.,0.,9996.,0.801730182759,1.30281154698,416.
9.26,7228.,33.,10.,2726.,0.,0.,9997.,0.76120933659,1.19948137887,429.
9.28,7221.,29.,16.,2733.,0.,0.,9999.,0.721452267648,1.29363854889,377.
9.3,7213.,24.,22.,2739.,0.,0.,9998.,0.682817439399,1.47943778537,312.
9.32,7207.,31.,10.,2749.,0.,0.,9997.,0.645955486998,1.08353823626,403.
9.34,7206.,22.,15.,2760.,0.,0.,10003.,0.611232681357,1.4447317923,286.
9.36,7206.,19.,9.,2770.,0.,0.,10004.,0.579558627954,1.58616045545,247.
9.38,7211.,16.,6.,2771.,0.,0.,10004.,0.551455995594,1.79223198568,208.
9.4,7208.,15.,6.,2774.,0.,0.,10003.,0.526364447721,1.82473008543,195.
9.42,7206.,10.,6.,2781.,0.,0.,10003.,0.505278464813,2.62744801703,130.
9.44,7212.,5.,7.,2779.,0.,0.,10003.,0.489046012028,5.08607852509,65.
9.46,7218.,5.,5.,2777.,0.,0.,10005.,0.477261057002,4.96351499282,65.
9.48,7219.,7.,5.,2775.,0.,0.,10006.,0.469945663214,3.49102492673,91.
9.5,7227.,3.,4.,2771.,0.,0.,10005.,0.468052982185,8.11291835788,39.
9.52,7234.,2.,2.,2769.,0.,0.,10007.,0.470875080593,12.2427520954,26.
9.54,7240.,1.,1.,2768.,0.,0.,10010.,0.478476599283,24.8807831627,13.
9.56,7242.,1.,2.,2763.,0.,0.,10008.,0.490834969361,25.5234184068,13.
9.58,7253.,1.,1.,2754.,0.,0.,10009.,0.508269193958,26.4299980858,13.
9.6,7260.,0.,1.,2749.,0.,0.,10010.,0.529791007026,inf,0.
9.62,7270.,0.,0.,2741.,0.,0.,10011.,0.555579227848,inf,0.
9.64,7272.,0.,0.,2740.,0.,0.,10012.,0.584399492551,inf,0.
9.66,7279.,0.,0.,2734.,0.,0.,10013.,0.616808118417,inf,0.
9.68,7289.,0.,0.,2723.,0.,0.,10012.,0.652326273806,inf,0.
9.7,7295.,0.,0.,2718.,0.,0.,10013.,0.689545430642,inf,0.
9.72,7298.,1.,0.,2715.,0.,0.,10014.,0.728053171679,37.8587649273,13.
9.74,7310.,1.,0.,2704.,0.,0.,10015.,0.768461436013,39.9599946727,13.
9.76,7320.,0.,0.,2699.,0.,0.,10019.,0.808839978708,inf,0.
9.78,7325.,0.,0.,2691.,0.,0.,10016.,0.848995527167,inf,0.
9.8,7334.,0.,0.,2685.,0.,0.,10019.,0.888246881788,inf,0.
9.82,7347.,0.,0.,2674.,0.,0.,10021.,0.926623553711,inf,0.
9.84,7350.,1.,0.,2668.,0.,0.,10019.,0.962061307058,50.027187967,13.
9.86,7350.,3.,0.,2665.,0.,0.,10018.,0.9943569661,17.2355207457,39.
9.88,7355.,3.,1.,2659.,0.,0.,10018.,1.02406676319,17.7504905619,39.
9.9,7358.,5.,3.,2655.,0.,0.,10021.,1.04956783978,10.9155055338,65.
9.92,7359.,8.,3.,2647.,0.,0.,10017.,1.07148430284,6.96464796847,104.
9.94,7363.,8.,4.,2642.,0.,0.,10017.,1.0890447886,7.07879112592,104.
9.96,7363.,11.,4.,2637.,0.,0.,10015.,1.10158687832,5.20750160659,143.
9.98,7359.,14.,4.,2634.,0.,0.,10011.,1.10890064849,4.11877383724,182.
10.,7358.,16.,5.,2633.,0.,0.,10012.,1.11114256034,3.61121332109,208.
