t,s,e,i,r,c,o,n,reff,coal,reportr
5.,6478.,1.,17.,3504.,0.,0.,10000.,1.10581027959,57.5021345385,13.
5.02,6470.,16.,10.,3501.,0.,0.,9997.,1.10228709606,3.58243306219,208.
5.04,6461.,22.,11.,3498.,0.,0.,9992.,1.09388347563,2.58554276058,286.
5.06,6449.,27.,13.,3505.,0.,0.,9994.,1.07942006103,2.07888308051,351.
5.08,6441.,26.,18.,3508.,0.,0.,9993.,1.06138008494,2.12276016989,338.
5.1,6432.,26.,13.,3521.,0.,0.,9992.,1.03887726639,2.07775453279,338.
5.12,6421.,33.,14.,3526.,0.,0.,9994.,1.01180957527,1.59436660345,429.
5.14,6417.,32.,15.,3532.,0.,0.,9996.,0.982314691955,1.59626137443,416.
5.16,6406.,38.,14.,3535.,0.,0.,9993.,0.94916053301,1.2988512557,494.
5.18,6393.,28.,25.,3545.,0.,0.,9991.,0.913080235023,1.69572043647,364.
5.2,6385.,39.,16.,3556.,0.,0.,9996.,0.875105988084,1.16680798411,507.
5.22,6374.,41.,16.,3567.,0.,0.,9998.,0.835602738648,1.05978883926,533.
5.24,6360.,43.,19.,3579.,0.,0.,10001.,0.794874256757,0.961243287241,559.
5.26,6350.,37.,15.,3600.,0.,0.,10002.,0.754660065032,1.06060333464,481.
5.28,6352.,28.,18.,3606.,0.,0.,10004.,0.716163975722,1.33001881205,364.
5.3,6347.,30.,13.,3616.,0.,0.,10006.,0.677826655615,1.1748995364,390.
5.32,6349.,26.,11.,3619.,0.,0.,10005.,0.641970149669,1.28394029934,338.
5.34,6337.,29.,15.,3621.,0.,0.,10002.,0.606943512738,1.0883125056,377.
5.36,6328.,27.,13.,3627.,0.,0.,9995.,0.575134356797,1.10766616865,351.
5.38,6329.,24.,14.,3633.,0.,0.,10000.,0.546679747232,1.18447278567,312.
5.4,6336.,19.,11.,3637.,0.,0.,10003.,0.522391109971,1.42970198518,247.
5.42,6342.,9.,7.,3644.,0.,0.,10002.,0.502128678394,2.90118791961,117.
5.44,6347.,11.,6.,3637.,0.,0.,10001.,0.486024522723,2.29757047106,143.
5.46,6347.,11.,4.,3637.,0.,0.,9999.,0.474107671696,2.2412362662,143.
5.48,6352.,6.,10.,3630.,0.,0.,9998.,0.467237077494,4.04938800495,78.
5.5,6355.,4.,8.,3631.,0.,0.,9998.,0.465013237736,6.04517209056,52.
5.52,6369.,5.,1.,3626.,0.,0.,10001.,0.468347022346,4.8708090324,65.
5.54,6383.,3.,3.,3615.,0.,0.,10004.,0.476558493588,8.2603472222,39.
5.56,6391.,0.,2.,3610.,0.,0.,10003.,0.489295994091,inf,0.
5.58,6397.,1.,0.,3607.,0.,0.,10005.,0.50633144152,26.329234959,13.
5.6,6404.,0.,1.,3600.,0.,0.,10005.,0.527892033474,inf,0.
5.62,6403.,3.,2.,3595.,0.,0.,10003.,0.55290577016,9.58370001611,39.
5.64,6405.,2.,1.,3593.,0.,0.,10001.,0.581783428406,15.1263691386,26.
5.66,6412.,2.,1.,3586.,0.,0.,10001.,0.614188249479,15.9688944864,26.
5.68,6417.,0.,2.,3583.,0.,0.,10002.,0.649040488272,inf,0.
5.7,6427.,0.,1.,3578.,0.,0.,10006.,0.686370240372,inf,0.
5.72,6439.,0.,0.,3568.,0.,0.,10007.,0.725755257153,inf,0.
5.74,6446.,0.,0.,3562.,0.,0.,10008.,0.765609825046,inf,0.
5.76,6457.,0.,0.,3550.,0.,0.,10007.,0.806513479273,inf,0.
5.78,6461.,2.,0.,3541.,0.,0.,10004.,0.846500045816,22.0090011912,26.
5.8,6472.,1.,1.,3532.,0.,0.,10006.,0.886143408786,46.0794572569,13.
5.82,6480.,3.,0.,3523.,0.,0.,10006.,0.9241185836,16.0180554491,39.
5.84,6482.,4.,1.,3513.,0.,0.,10000.,0.959748962531,12.4767365129,52.
5.86,6486.,7.,2.,3503.,0.,0.,9998.,0.992678600358,7.37418388838,91.
5.88,6494.,7.,2.,3495.,0.,0.,9998.,1.02290337634,7.59871079567,91.
5.9,6502.,6.,5.,3485.,0.,0.,9998.,1.04955321943,9.09612790172,78.
5.92,6498.,11.,1.,3485.,0.,0.,9995.,1.07055856736,5.06082231844,143.
5.94,6503.,7.,5.,3481.,0.,0.,9996.,1.0882406887,8.08407368745,91.
5.96,6511.,10.,3.,3476.,0.,0.,10000.,1.10146687658,5.72762775822,130.
5.98,6511.,11.,1.,3474.,0.,0.,9997.,1.10927222294,5.24383232663,143.
6.,6511.,9.,7.,3471.,0.,0.,9998.,1.11166579262,6.42295791291,117.
6.02,6505.,15.,8.,3467.,0.,0.,9995.,1.10847177013,3.84270213646,195.
6.04,6494.,21.,14.,3466.,0.,0.,9995.,1.09914055423,2.72168137238,273.
6.06,6493.,26.,5.,3472.,0.,0.,9996.,1.08656724461,2.17313448922,338.
6.08,6493.,17.,17.,3467.,0.,0.,9994.,1.06984184501,3.27245740827,221.
6.1,6474.,25.,16.,3478.,0.,0.,9993.,1.04555634054,2.17475718833,325.
6.12,6464.,31.,18.,3480.,0.,0.,9993.,1.01868736745,1.70876590669,403.
6.14,6450.,37.,17.,3492.,0.,0.,9996.,0.987366333662,1.38764998244,481.
6.16,6437.,43.,18.,3499.,0.,0.,9997.,0.953372107252,1.15291510644,559.
6.18,6422.,41.,22.,3513.,0.,0.,9998.,0.916579976119,1.16249167703,533.
6.2,6414.,36.,25.,3530.,0.,0.,10005.,0.878289850478,1.26864089514,468.
6.22,6400.,29.,27.,3551.,0.,0.,10007.,0.838256639844,1.50308087144,377.
6.24,6386.,29.,27.,3565.,0.,0.,10007.,0.797645203444,1.4302603648,377.
6.26,6372.,34.,19.,3587.,0.,0.,10012.,0.756518268341,1.15702793982,442.
6.28,6364.,34.,23.,3592.,0.,0.,10013.,0.716872003504,1.09639247595,442.
6.3,6363.,33.,16.,3603.,0.,0.,10015.,0.67892470673,1.06982075,429.
6.32,6352.,33.,13.,3614.,0.,0.,10012.,0.641824437843,1.01135972024,429.
6.34,6361.,26.,6.,3620.,0.,0.,10013.,0.60857288209,1.21714576418,338.
6.36,6354.,20.,10.,3629.,0.,0.,10013.,0.57645927886,1.49879412504,260.
6.38,6359.,17.,8.,3628.,0.,0.,10012.,0.548612720613,1.67810949835,221.
6.4,6368.,11.,6.,3628.,0.,0.,10013.,0.524505101114,2.47947865981,143.
6.42,6366.,7.,7.,3631.,0.,0.,10011.,0.503575753976,3.74084845811,91.
6.44,6367.,8.,2.,3628.,0.,0.,10005.,0.487361107219,3.16784719692,104.
6.46,6375.,4.,3.,3621.,0.,0.,10003.,0.476008790781,6.18811428015,52.
6.48,6377.,6.,0.,3617.,0.,0.,10000.,0.468982199151,4.06451239265,78.
6.5,6385.,2.,3.,3609.,0.,0.,9999.,0.467161696663,12.1462041132,26.
6.52,6386.,2.,3.,3606.,0.,0.,9997.,0.469785019523,12.2144105076,26.
6.54,6392.,2.,2.,3600.,0.,0.,9996.,0.477612375951,12.4179217747,26.
6.56,6402.,2.,0.,3594.,0.,0.,9998.,0.490383273972,12.7499651233,26.
6.58,6406.,0.,2.,3592.,0.,0.,10000.,0.507297325931,inf,0.
6.6,6413.,0.,0.,3588.,0.,0.,10001.,0.528845350392,inf,0.
6.62,6420.,0.,0.,3583.,0.,0.,10003.,0.554373738002,inf,0.
6.64,6430.,0.,0.,3573.,0.,0.,10003.,0.583937470031,inf,0.
6.66,6442.,0.,0.,3561.,0.,0.,10003.,0.6169384935,inf,0.
6.68,6448.,0.,0.,3552.,0.,0.,10000.,0.652306384758,inf,0.
6.7,6464.,0.,0.,3538.,0.,0.,10002.,0.690597721766,inf,0.
6.72,6469.,1.,0.,3528.,0.,0.,9998.,0.729792983919,37.9492351638,13.
6.74,6479.,1.,0.,3517.,0.,0.,9997.,0.770376065553,40.0595554087,13.
6.76,6487.,2.,0.,3507.,0.,0.,9996.,0.811152281433,21.0899593173,26.
6.78,6494.,1.,1.,3502.,0.,0.,9998.,0.851334199056,44.2693783509,13.
6.8,6496.,2.,2.,3494.,0.,0.,9994.,0.890497434435,23.1529332953,26.
6.82,6501.,5.,3.,3487.,0.,0.,9996.,0.928040896749,9.65162532619,65.
6.84,6503.,6.,4.,3486.,0.,0.,9999.,0.962954595882,8.34560649764,78.
6.86,6505.,8.,1.,3482.,0.,0.,9996.,0.995785736507,6.4726072873,104.
6.88,6513.,6.,5.,3473.,0.,0.,9997.,1.02599878457,8.89198946627,78.
6.9,6516.,4.,9.,3467.,0.,0.,9996.,1.05202354704,13.6763061116,52.
6.92,6515.,5.,7.,3467.,0.,0.,9994.,1.07346675192,11.16405422,65.
6.94,6519.,9.,4.,3462.,0.,0.,9994.,1.09113651386,6.3043443023,117.
6.96,6519.,14.,0.,3460.,0.,0.,9993.,1.10359275274,4.0990587959,182.
6.98,6517.,14.,4.,3456.,0.,0.,9991.,1.11096121339,4.12642736403,182.
7.,6525.,8.,12.,3446.,0.,0.,9991.,1.11483664633,7.24643820113,104.
7.02,6513.,19.,10.,3450.,0.,0.,9992.,1.11016821152,3.03835510521,247.
7.04,6507.,23.,6.,3455.,0.,0.,9991.,1.10178179958,2.49098493818,299.
7.06,6512.,24.,11.,3447.,0.,0.,9994.,1.08996486858,2.36159054859,312.
7.08,6504.,35.,11.,3445.,0.,0.,9995.,1.07154707943,1.59201280372,455.
7.1,6489.,44.,7.,3457.,0.,0.,9997.,1.04755953558,1.23802490568,572.
7.12,6495.,36.,10.,3458.,0.,0.,9999.,1.02295857517,1.4776068308,468.
7.14,6494.,28.,14.,3460.,0.,0.,9996.,0.994101855939,1.84618916103,364.
7.16,6486.,25.,23.,3462.,0.,0.,9996.,0.96072550757,1.99830905575,325.
7.18,6455.,46.,13.,3477.,0.,0.,9991.,0.92193538512,1.04218782666,598.
7.2,6444.,42.,18.,3487.,0.,0.,9991.,0.883634317718,1.09402344098,546.
7.22,6431.,38.,19.,3503.,0.,0.,9991.,0.843665866585,1.15449013322,494.
7.24,6428.,35.,13.,3517.,0.,0.,9993.,0.804016060866,1.19453814757,455.
7.26,6429.,32.,10.,3523.,0.,0.,9994.,0.764660355269,1.24257307731,416.
7.28,6421.,34.,18.,3523.,0.,0.,9996.,0.724522851279,1.10809377254,442.
7.3,6419.,25.,19.,3535.,0.,0.,9998.,0.686064404306,1.42701396096,325.
7.32,6417.,28.,11.,3546.,0.,0.,10002.,0.649040488272,1.20536090679,364.
7.34,6414.,21.,16.,3550.,0.,0.,10001.,0.614379824104,1.52132146921,273.
7.36,6411.,21.,11.,3557.,0.,0.,10000.,0.582386657435,1.4421002946,273.
7.38,6409.,18.,9.,3565.,0.,0.,10001.,0.553534550165,1.59909981159,234.
7.4,6405.,15.,10.,3569.,0.,0.,9999.,0.528291281445,1.83140977568,195.
7.42,6409.,11.,6.,3572.,0.,0.,9998.,0.507636426113,2.39973583254,143.
7.44,6415.,8.,6.,3568.,0.,0.,9997.,0.491428206468,3.19428334204,104.
7.46,6418.,6.,7.,3565.,0.,0.,9996.,0.479555104639,4.1561442402,78.
7.48,6424.,8.,1.,3562.,0.,0.,9995.,0.472675046532,3.07238780246,104.
7.5,6425.,7.,0.,3560.,0.,0.,9992.,0.470417641815,3.49453105348,91.
7.52,6435.,5.,1.,3552.,0.,0.,9993.,0.47357918483,4.92522352223,65.
7.54,6441.,3.,0.,3547.,0.,0.,9991.,0.481514525929,8.34625178277,39.
7.56,6448.,1.,2.,3539.,0.,0.,9990.,0.494302323614,25.7037208279,13.
7.58,6455.,2.,1.,3531.,0.,0.,9989.,0.511740597905,13.3052555455,26.
7.6,6462.,0.,5.,3519.,0.,0.,9986.,0.533686564606,inf,0.
7.62,6466.,1.,0.,3522.,0.,0.,9989.,0.559128431321,29.0746784287,13.
7.64,6474.,0.,1.,3514.,0.,0.,9989.,0.588757322687,inf,0.
7.66,6474.,1.,1.,3511.,0.,0.,9987.,0.620996370859,32.2918112846,13.
7.68,6477.,1.,0.,3508.,0.,0.,9986.,0.656158767137,34.1202558911,13.
7.7,6492.,1.,0.,3496.,0.,0.,9989.,0.694491831142,36.1135752194,13.
7.72,6503.,0.,1.,3485.,0.,0.,9989.,0.734289648691,inf,0.
7.74,6514.,0.,1.,3476.,0.,0.,9991.,0.775002830855,inf,0.
7.76,6529.,1.,0.,3468.,0.,0.,9998.,0.81624076321,42.4445196869,13.
7.78,6533.,1.,0.,3465.,0.,0.,9999.,0.85636127043,44.5307860624,13.
7.8,6536.,3.,0.,3461.,0.,0.,10000.,0.895443204546,15.5210155455,39.
7.82,6547.,3.,0.,3453.,0.,0.,10003.,0.933953531448,16.1885278784,39.
7.84,6551.,4.,3.,3439.,0.,0.,9997.,0.970256435391,12.6133336601,52.
7.86,6554.,6.,3.,3434.,0.,0.,9997.,1.00318630027,8.694281269,78.
7.88,6560.,6.,4.,3425.,0.,0.,9995.,1.03360952105,8.9579491824,78.
7.9,6565.,7.,1.,3422.,0.,0.,9995.,1.06004075895,7.87458849504,91.
7.92,6572.,9.,3.,3414.,0.,0.,9998.,1.08242532613,6.25401299543,117.
7.94,6577.,6.,3.,3412.,0.,0.,9998.,1.10040400606,9.53683471917,78.
7.96,6581.,12.,3.,3400.,0.,0.,9996.,1.11375428912,4.82626858617,156.
7.98,6586.,8.,6.,3396.,0.,0.,9996.,1.12216214396,7.29405393574,104.
8.,6582.,18.,9.,3389.,0.,0.,9998.,1.12378808893,3.24649892357,234.
8.02,6582.,20.,11.,3379.,0.,0.,9992.,1.12192955139,2.91701683362,260.
8.04,6574.,27.,9.,3384.,0.,0.,9994.,1.11279227168,2.1431554862,351.
8.06,6570.,29.,12.,3385.,0.,0.,9996.,1.09945276407,1.97143254246,377.
8.08,6564.,25.,18.,3390.,0.,0.,9997.,1.08121584874,2.24892896538,325.
8.1,6553.,31.,14.,3397.,0.,0.,9995.,1.05810313685,1.77488268116,403.
8.12,6548.,32.,10.,3400.,0.,0.,9990.,1.03223514768,1.67738211499,416.
8.14,6538.,34.,14.,3406.,0.,0.,9992.,1.00123803369,1.531305228,442.
8.16,6530.,34.,20.,3412.,0.,0.,9996.,0.967242917736,1.47931269771,442.
8.18,6522.,33.,23.,3422.,0.,0.,10000.,0.930666306031,1.46650448223,429.
8.2,6517.,37.,9.,3437.,0.,0.,10000.,0.892840171974,1.25480240386,481.
8.22,6513.,34.,18.,3437.,0.,0.,10002.,0.853483551907,1.30532778527,442.
8.24,6512.,27.,25.,3439.,0.,0.,10003.,0.81370852614,1.56714234664,351.
8.26,6512.,26.,10.,3457.,0.,0.,10005.,0.773680752184,1.54736150437,338.
8.28,6506.,23.,9.,3465.,0.,0.,10003.,0.73360022396,1.65857441939,299.
8.3,6500.,26.,8.,3468.,0.,0.,10002.,0.694443872444,1.38888774489,338.
8.32,6502.,25.,4.,3475.,0.,0.,10006.,0.657374823508,1.3673396329,325.
8.34,6510.,21.,4.,3475.,0.,0.,10010.,0.623014748922,1.54270318781,273.
8.36,6514.,18.,4.,3473.,0.,0.,10009.,0.591211270725,1.70794367098,234.
8.38,6519.,15.,8.,3466.,0.,0.,10008.,0.562641255649,1.95048968625,195.
8.4,6521.,14.,5.,3467.,0.,0.,10007.,0.537429099796,1.99616522781,182.
8.42,6523.,9.,9.,3466.,0.,0.,10007.,0.516201327982,2.98249656168,117.
8.44,6526.,6.,7.,3467.,0.,0.,10006.,0.499481816329,4.32884240819,78.
8.46,6531.,5.,2.,3469.,0.,0.,10007.,0.487462079542,5.06960562724,65.
8.48,6536.,6.,2.,3464.,0.,0.,10008.,0.480291265444,4.16252430051,78.
8.5,6542.,4.,6.,3460.,0.,0.,10012.,0.478027182164,6.21435336814,52.
8.52,6549.,3.,0.,3458.,0.,0.,10010.,0.48115040397,8.33994033548,39.
8.54,6553.,1.,2.,3455.,0.,0.,10011.,0.488908693248,25.4232520489,13.
8.56,6558.,0.,1.,3451.,0.,0.,10010.,0.501730435139,inf,0.
8.58,6566.,0.,0.,3444.,0.,0.,10010.,0.519448432003,inf,0.
8.6,6578.,0.,0.,3435.,0.,0.,10013.,0.541801908782,inf,0.
8.62,6587.,1.,0.,3427.,0.,0.,10015.,0.568112832334,29.5418672814,13.
8.64,6596.,0.,1.,3417.,0.,0.,10014.,0.598354690337,inf,0.
8.66,6603.,0.,0.,3410.,0.,0.,10013.,0.631725631259,inf,0.
8.68,6614.,0.,0.,3402.,0.,0.,10016.,0.668030783004,inf,0.
8.7,6618.,1.,0.,3398.,0.,0.,10017.,0.705991923537,36.7115800239,13.
8.72,6626.,0.,2.,3389.,0.,0.,10017.,0.746086914232,inf,0.
8.74,6633.,0.,0.,3381.,0.,0.,10014.,0.787348317615,inf,0.
8.76,6644.,0.,0.,3371.,0.,0.,10015.,0.829207866871,inf,0.
8.78,6652.,1.,0.,3362.,0.,0.,10015.,0.870567028592,45.2694854868,13.
8.8,6659.,3.,1.,3356.,0.,0.,10019.,0.91056434315,15.7831152813,39.
8.82,6662.,5.,0.,3348.,0.,0.,10015.,0.949219980329,9.87188779543,65.
8.84,6671.,3.,2.,3339.,0.,0.,10015.,0.98625362312,17.0950628007,39.
8.86,6675.,5.,1.,3332.,0.,0.,10013.,1.02007452468,10.6087750567,65.
8.88,6684.,5.,3.,3320.,0.,0.,10012.,1.05135905749,10.9341341979,65.
8.9,6682.,9.,1.,3317.,0.,0.,10009.,1.07742342708,6.22511313426,117.
8.92,6691.,9.,3.,3311.,0.,0.,10014.,1.10026415781,6.35708180067,117.
8.94,6696.,11.,3.,3309.,0.,0.,10019.,1.11796580924,5.28492928005,143.
8.96,6694.,18.,3.,3304.,0.,0.,10019.,1.13027748764,3.26524607542,234.
8.98,6684.,20.,7.,3305.,0.,0.,10016.,1.13658588977,2.95512331341,260.
9.,6682.,13.,11.,3304.,0.,0.,10010.,1.13949407928,4.5579763171,169.
9.02,6681.,20.,5.,3302.,0.,0.,10008.,1.13698388657,2.95615810509,260.
9.04,6678.,14.,9.,3302.,0.,0.,10003.,1.12937947855,4.1948380632,182.
9.06,6674.,16.,13.,3299.,0.,0.,10002.,1.1161866026,3.62760645845,208.
9.08,6661.,26.,17.,3297.,0.,0.,10001.,1.0967547631,2.19350952621,338.
9.1,6656.,28.,12.,3305.,0.,0.,10001.,1.07408961707,1.99473786028,364.
9.12,6656.,26.,11.,3311.,0.,0.,10004.,1.04779202947,2.09558405894,338.
9.14,6653.,28.,11.,3310.,0.,0.,10002.,1.0178306414,1.89025690546,364.
9.16,6640.,32.,18.,3314.,0.,0.,10004.,0.982749928601,1.59696863398,416.
9.18,6620.,42.,15.,3328.,0.,0.,10005.,0.944178469785,1.16898286735,546.
9.2,6613.,38.,17.,3337.,0.,0.,10005.,0.905539566762,1.23915940715,494.
9.22,6600.,41.,12.,3350.,0.,0.,10003.,0.864797837,1.09681676888,533.
9.24,6588.,31.,28.,3355.,0.,0.,10002.,0.82328742847,1.38099826711,403.
9.26,6566.,34.,24.,3374.,0.,0.,9998.,0.780642586249,1.19392395544,442.
9.28,6560.,33.,22.,3381.,0.,0.,9996.,0.740207117956,1.16638697375,429.
9.3,6551.,30.,12.,3401.,0.,0.,9994.,0.700452836124,1.21411824928,390.
9.32,6548.,24.,16.,3406.,0.,0.,9994.,0.662820491209,1.43611106429,312.
9.34,6558.,16.,14.,3407.,0.,0.,9995.,0.628550289608,2.04278844122,208.
9.36,6554.,15.,8.,3416.,0.,0.,9993.,0.595794087967,2.06541950495,195.
9.38,6550.,15.,7.,3418.,0.,0.,9990.,0.566335389643,1.96329601743,195.
9.4,6559.,11.,9.,3416.,0.,0.,9995.,0.541209872501,2.55844667,143.
9.42,6555.,11.,8.,3419.,0.,0.,9993.,0.519460402094,2.45563099172,143.
9.44,6555.,10.,3.,3423.,0.,0.,9991.,0.502454625348,2.61276405181,130.
9.46,6555.,8.,4.,3418.,0.,0.,9985.,0.490331370759,3.18715390993,104.
9.48,6560.,10.,2.,3417.,0.,0.,9989.,0.482971793739,2.51145332744,130.
9.5,6569.,8.,1.,3413.,0.,0.,9991.,0.481008993742,3.12655845933,104.
9.52,6577.,2.,6.,3409.,0.,0.,9994.,0.48398114042,12.5835096509,26.
9.54,6587.,2.,2.,3401.,0.,0.,9992.,0.492379871873,12.8018766687,26.
9.56,6597.,1.,3.,3389.,0.,0.,9990.,0.505724632271,26.2976808781,13.
9.58,6609.,3.,1.,3380.,0.,0.,9993.,0.523739709754,9.07815496907,39.
9.6,6611.,3.,0.,3377.,0.,0.,9991.,0.545719001632,9.45912936162,39.
9.62,6611.,1.,2.,3375.,0.,0.,9989.,0.57166688207,29.7266778676,13.
9.64,6617.,1.,0.,3370.,0.,0.,9988.,0.601822251004,31.2947570522,13.
9.66,6625.,0.,1.,3363.,0.,0.,9989.,0.635353294817,inf,0.
9.68,6631.,2.,0.,3357.,0.,0.,9990.,0.671490913576,17.458763753,26.
9.7,6641.,2.,1.,3348.,0.,0.,9992.,0.710218038624,18.4656690042,26.
9.72,6647.,3.,2.,3340.,0.,0.,9992.,0.75032413894,13.0056184083,39.
9.74,6655.,3.,3.,3332.,0.,0.,9993.,0.79161983236,13.7214104276,39.
9.76,6666.,4.,2.,3325.,0.,0.,9997.,0.833451554133,10.8348702037,52.
9.78,6674.,2.,1.,3322.,0.,0.,9999.,0.874843887778,22.7459410822,26.
9.8,6674.,3.,2.,3315.,0.,0.,9994.,0.914898380144,15.8582385892,39.
9.82,6682.,5.,2.,3309.,0.,0.,9998.,0.953688477177,9.91836016264,65.
9.84,6688.,5.,5.,3301.,0.,0.,9999.,0.990349121522,10.2996308638,65.
9.86,6690.,4.,3.,3301.,0.,0.,9998.,1.023900684,13.3107088919,52.
9.88,6693.,5.,4.,3294.,0.,0.,9996.,1.0544598251,10.9663821811,65.
9.9,6702.,9.,4.,3285.,0.,0.,10000.,1.08162086365,6.24936499,117.
9.92,6708.,7.,2.,3286.,0.,0.,10003.,1.10427262963,8.20316810586,91.
9.94,6702.,12.,3.,3286.,0.,0.,10003.,1.12075738189,4.85661532152,156.
9.96,6702.,10.,5.,3283.,0.,0.,10000.,1.13377837611,5.89564755576,130.
9.98,6695.,18.,2.,3285.,0.,0.,10000.,1.14027792341,3.29413622319,234.
10.,6705.,16.,5.,3271.,0.,0.,9997.,1.14490319998,3.72093539995,208.
