t,s,e,i,r,c,o,n,reff,coal,reportr
5.,7473.,7.,34.,2486.,0.,0.,10000.,1.13574605598,8.43697070159,91.
5.02,7451.,18.,14.,2514.,0.,0.,9997.,1.13019031681,3.26499424857,234.
5.04,7437.,23.,16.,2519.,0.,0.,9995.,1.12068950576,2.53373279562,299.
5.06,7427.,26.,13.,2530.,0.,0.,9996.,1.10655041593,2.21310083186,338.
5.08,7413.,29.,6.,2547.,0.,0.,9995.,1.08735486126,1.94973975123,377.
5.1,7404.,27.,11.,2553.,0.,0.,9995.,1.06439008405,2.04993645818,351.
5.12,7398.,25.,21.,2551.,0.,0.,9995.,1.0377997571,2.15862349477,325.
5.14,7387.,29.,21.,2563.,0.,0.,10000.,1.00637426564,1.80453316598,377.
5.16,7359.,40.,13.,2584.,0.,0.,9996.,0.970482606312,1.26162738821,520.
5.18,7354.,37.,15.,2592.,0.,0.,9998.,0.934480547868,1.31332401322,481.
5.2,7345.,28.,22.,2602.,0.,0.,9997.,0.896178840018,1.66433213146,364.
5.22,7341.,23.,27.,2608.,0.,0.,9999.,0.856734309983,1.93696452692,299.
5.24,7319.,32.,22.,2625.,0.,0.,9998.,0.814647884818,1.32380281283,416.
5.26,7308.,39.,16.,2638.,0.,0.,10001.,0.77333235537,1.03110980716,507.
5.28,7303.,29.,17.,2655.,0.,0.,10004.,0.733077446875,1.31448369785,377.
5.3,7296.,22.,16.,2668.,0.,0.,10002.,0.693993167589,1.64034748703,286.
5.32,7287.,28.,10.,2677.,0.,0.,10002.,0.65619829236,1.21865397153,364.
5.34,7285.,23.,9.,2685.,0.,0.,10002.,0.621213233517,1.40448209317,299.
5.36,7285.,18.,10.,2689.,0.,0.,10002.,0.589080872828,1.70178918817,234.
5.38,7283.,15.,13.,2687.,0.,0.,9998.,0.56019811451,1.9420201303,195.
5.4,7281.,18.,11.,2688.,0.,0.,9998.,0.534730987838,1.54477840931,234.
5.42,7278.,18.,8.,2691.,0.,0.,9995.,0.513394802308,1.48314054,234.
5.44,7282.,11.,10.,2693.,0.,0.,9996.,0.496711385063,2.34809018394,143.
5.46,7280.,5.,11.,2697.,0.,0.,9993.,0.48444794809,5.03825866014,65.
5.48,7278.,10.,2.,2703.,0.,0.,9993.,0.476872942603,2.47973930154,130.
5.5,7282.,4.,4.,2702.,0.,0.,9992.,0.474687416371,6.17093641282,52.
5.52,7291.,4.,4.,2695.,0.,0.,9994.,0.477676934284,6.20980014569,52.
5.54,7300.,2.,2.,2692.,0.,0.,9996.,0.485633057075,12.6264594839,26.
5.56,7313.,2.,3.,2685.,0.,0.,10003.,0.498476847886,12.960398045,26.
5.58,7318.,2.,2.,2680.,0.,0.,10002.,0.515855148798,13.4122338688,26.
5.6,7327.,0.,2.,2673.,0.,0.,10002.,0.537894117798,inf,0.
5.62,7333.,1.,1.,2666.,0.,0.,10001.,0.563874847877,29.3214920896,13.
5.64,7339.,1.,0.,2662.,0.,0.,10002.,0.593447429744,30.8592663467,13.
5.66,7347.,1.,0.,2656.,0.,0.,10004.,0.626374904722,32.5714950456,13.
5.68,7351.,1.,0.,2652.,0.,0.,10004.,0.661829187615,34.415117756,13.
5.7,7359.,1.,1.,2647.,0.,0.,10008.,0.699566051577,36.377434682,13.
5.72,7366.,1.,0.,2644.,0.,0.,10011.,0.738884394505,38.4219885142,13.
5.74,7373.,0.,0.,2637.,0.,0.,10010.,0.779509165449,inf,0.
5.76,7377.,0.,1.,2633.,0.,0.,10011.,0.820037365212,inf,0.
5.78,7385.,0.,1.,2624.,0.,0.,10010.,0.860922238222,inf,0.
5.8,7390.,0.,1.,2622.,0.,0.,10013.,0.900228586329,inf,0.
5.82,7390.,1.,1.,2620.,0.,0.,10012.,0.937742004467,48.7625842323,13.
5.84,7395.,2.,2.,2613.,0.,0.,10012.,0.973671679069,25.3154636558,26.
5.86,7396.,5.,0.,2612.,0.,0.,10013.,1.00629220847,10.4654389681,65.
5.88,7408.,5.,1.,2599.,0.,0.,10013.,1.0373344323,10.7882780959,65.
5.9,7403.,7.,2.,2598.,0.,0.,10010.,1.06265155055,7.89398294694,91.
5.92,7403.,6.,4.,2594.,0.,0.,10007.,1.08458588551,9.39974434111,78.
5.94,7407.,11.,5.,2585.,0.,0.,10008.,1.10224738524,5.21062400295,143.
5.96,7407.,13.,5.,2582.,0.,0.,10007.,1.11483030798,4.45932123192,169.
5.98,7405.,14.,3.,2584.,0.,0.,10006.,1.12220261162,4.16818112888,182.
6.,7402.,13.,6.,2584.,0.,0.,10005.,1.12439328394,4.49757313576,169.
6.02,7401.,17.,7.,2581.,0.,0.,10006.,1.1215964252,3.43076553591,221.
6.04,7386.,20.,11.,2587.,0.,0.,10004.,1.11200295775,2.89120769015,260.
6.06,7378.,21.,16.,2589.,0.,0.,10004.,1.09837084651,2.71977542946,273.
6.08,7370.,18.,12.,2604.,0.,0.,10004.,1.08007497458,3.12021659322,234.
6.1,7353.,29.,10.,2606.,0.,0.,9998.,1.05674120479,1.89484629825,377.
6.12,7346.,26.,15.,2610.,0.,0.,9997.,1.03029897576,2.06059795153,338.
6.14,7327.,34.,18.,2617.,0.,0.,9996.,0.998599554128,1.52726990631,442.
6.16,7314.,27.,16.,2639.,0.,0.,9996.,0.96454814276,1.85764827494,351.
6.18,7300.,28.,15.,2651.,0.,0.,9994.,0.927989981075,1.72340996485,364.
6.2,7287.,39.,12.,2659.,0.,0.,9997.,0.88910213849,1.18546951799,507.
6.22,7289.,29.,14.,2665.,0.,0.,9997.,0.850835813587,1.52563663126,377.
6.24,7278.,27.,12.,2676.,0.,0.,9993.,0.810489668802,1.56094306584,351.
6.26,7283.,25.,12.,2675.,0.,0.,9995.,0.771149499505,1.60399095897,325.
6.28,7273.,17.,16.,2687.,0.,0.,9993.,0.730869672585,2.23560135144,221.
6.3,7265.,19.,10.,2699.,0.,0.,9993.,0.691666833259,1.89298291208,247.
6.32,7258.,23.,9.,2705.,0.,0.,9995.,0.654044566319,1.47870945429,299.
6.34,7251.,24.,11.,2709.,0.,0.,9995.,0.61874699047,1.34061847935,312.
6.36,7251.,19.,13.,2716.,0.,0.,9999.,0.586507476274,1.60517835612,247.
6.38,7250.,18.,9.,2722.,0.,0.,9999.,0.557604029376,1.61085608486,234.
6.4,7250.,21.,6.,2720.,0.,0.,9997.,0.532507548157,1.31859011925,273.
6.42,7256.,11.,8.,2722.,0.,0.,9997.,0.511740508853,2.41913695094,143.
6.44,7254.,11.,3.,2729.,0.,0.,9997.,0.494751986361,2.33882757189,143.
6.46,7258.,8.,3.,2729.,0.,0.,9998.,0.482742416752,3.13782570889,104.
6.48,7255.,8.,6.,2726.,0.,0.,9995.,0.475270803765,3.08926022447,104.
6.5,7261.,5.,4.,2725.,0.,0.,9995.,0.473176435238,4.92103492648,65.
6.52,7269.,2.,6.,2722.,0.,0.,9999.,0.475997441347,12.375933475,26.
6.54,7271.,5.,3.,2717.,0.,0.,9996.,0.483703829862,5.03051983056,65.
6.56,7279.,2.,7.,2708.,0.,0.,9996.,0.496506752523,12.9091755656,26.
6.58,7282.,3.,3.,2707.,0.,0.,9995.,0.513676964882,8.90373405795,39.
6.6,7289.,2.,3.,2703.,0.,0.,9997.,0.535372071519,13.9196738595,26.
6.62,7292.,1.,1.,2702.,0.,0.,9996.,0.561002604814,29.1721354503,13.
6.64,7294.,1.,0.,2702.,0.,0.,9997.,0.590103625128,30.6853885067,13.
6.66,7299.,1.,0.,2699.,0.,0.,9999.,0.622593795209,32.3748773509,13.
6.68,7298.,2.,0.,2695.,0.,0.,9995.,0.657649110636,17.0988768765,26.
6.7,7304.,1.,2.,2691.,0.,0.,9998.,0.695032082251,36.1416682771,13.
6.72,7309.,2.,0.,2689.,0.,0.,10000.,0.733973200662,19.0833032172,26.
6.74,7315.,1.,1.,2684.,0.,0.,10001.,0.774073095173,40.251800949,13.
6.76,7321.,1.,0.,2675.,0.,0.,9997.,0.814952008122,42.3775044223,13.
6.78,7332.,1.,1.,2668.,0.,0.,10002.,0.855427307564,44.4822199933,13.
6.8,7335.,0.,2.,2662.,0.,0.,9999.,0.89477970942,inf,0.
6.82,7341.,3.,0.,2656.,0.,0.,10000.,0.932642058411,16.1657956791,39.
6.84,7341.,1.,3.,2652.,0.,0.,9997.,0.968011980957,50.3366230098,13.
6.86,7341.,3.,2.,2648.,0.,0.,9994.,1.00070784099,17.3456025772,39.
6.88,7343.,5.,4.,2639.,0.,0.,9991.,1.03049670015,10.7171656816,65.
6.9,7337.,10.,4.,2638.,0.,0.,9989.,1.05539179695,5.48803734415,130.
6.92,7340.,13.,3.,2634.,0.,0.,9990.,1.07718592589,4.30874370355,169.
6.94,7346.,11.,6.,2629.,0.,0.,9992.,1.09492035094,5.17598711354,143.
6.96,7342.,15.,6.,2630.,0.,0.,9993.,1.10659528365,3.83619698331,195.
6.98,7345.,16.,6.,2625.,0.,0.,9992.,1.11466941673,3.62267560438,208.
7.,7333.,18.,12.,2631.,0.,0.,9994.,1.11513794782,3.22150962704,234.
7.02,7327.,17.,9.,2638.,0.,0.,9991.,1.11204904975,3.40156179922,221.
7.04,7324.,18.,9.,2644.,0.,0.,9995.,1.10366141457,3.18835519765,234.
7.06,7313.,29.,5.,2648.,0.,0.,9995.,1.08967454111,1.95389917717,377.
7.08,7314.,20.,7.,2655.,0.,0.,9996.,1.07272600104,2.7890876027,260.
7.1,7308.,23.,7.,2658.,0.,0.,9996.,1.05048413921,2.37500761909,299.
7.12,7296.,24.,18.,2660.,0.,0.,9998.,1.02318397368,2.21689860964,312.
7.14,7286.,27.,20.,2666.,0.,0.,9999.,0.992713715596,1.91189308189,351.
7.16,7263.,34.,19.,2681.,0.,0.,9997.,0.957726606415,1.46475833922,442.
7.18,7247.,35.,18.,2696.,0.,0.,9996.,0.921068195335,1.36844417593,455.
7.2,7231.,36.,27.,2704.,0.,0.,9998.,0.882181216558,1.27426175725,468.
7.22,7204.,44.,19.,2727.,0.,0.,9994.,0.84116629598,0.994105622522,572.
7.24,7189.,45.,17.,2741.,0.,0.,9992.,0.800658609034,0.925205503772,585.
7.26,7183.,37.,24.,2749.,0.,0.,9993.,0.760713368714,1.06911068035,481.
7.28,7173.,25.,30.,2763.,0.,0.,9991.,0.72096488541,1.49960696165,325.
7.3,7158.,25.,26.,2780.,0.,0.,9989.,0.681752753443,1.41804572716,325.
7.32,7148.,27.,21.,2793.,0.,0.,9989.,0.644518974285,1.24129580233,351.
7.34,7150.,19.,13.,2809.,0.,0.,9991.,0.610372664783,1.67049360888,247.
7.36,7144.,16.,7.,2818.,0.,0.,9985.,0.578662837666,1.88065422241,208.
7.38,7148.,10.,12.,2818.,0.,0.,9988.,0.550364579097,2.86189581131,130.
7.4,7148.,6.,12.,2824.,0.,0.,9990.,0.525383596706,4.55332450478,78.
7.42,7146.,7.,3.,2836.,0.,0.,9992.,0.504234783494,3.74574410596,91.
7.44,7149.,5.,6.,2832.,0.,0.,9992.,0.48783455437,5.07347936545,65.
7.46,7150.,5.,2.,2834.,0.,0.,9991.,0.475892337013,4.94928030494,65.
7.48,7155.,5.,0.,2831.,0.,0.,9991.,0.46890751913,4.87663819895,65.
7.5,7169.,3.,2.,2818.,0.,0.,9992.,0.46732135237,8.10023677442,39.
7.52,7168.,2.,2.,2816.,0.,0.,9988.,0.469900579638,12.2174150706,26.
7.54,7172.,0.,4.,2811.,0.,0.,9987.,0.477547812324,inf,0.
7.56,7174.,1.,0.,2810.,0.,0.,9985.,0.489883701335,25.4739524694,13.
7.58,7172.,0.,2.,2808.,0.,0.,9982.,0.506576372837,inf,0.
7.6,7179.,0.,0.,2806.,0.,0.,9985.,0.527926348379,inf,0.
7.62,7188.,0.,0.,2798.,0.,0.,9986.,0.553555247329,inf,0.
7.64,7197.,0.,0.,2792.,0.,0.,9989.,0.582722389928,inf,0.
7.66,7201.,0.,0.,2788.,0.,0.,9989.,0.614849452566,inf,0.
7.68,7206.,2.,0.,2777.,0.,0.,9985.,0.650008992867,16.9002338145,26.
7.7,7222.,1.,0.,2765.,0.,0.,9988.,0.687917202955,35.7716945536,13.
7.72,7224.,1.,0.,2761.,0.,0.,9986.,0.726454497178,37.7756338532,13.
7.74,7228.,1.,1.,2759.,0.,0.,9989.,0.765785608455,39.8208516396,13.
7.76,7229.,2.,0.,2759.,0.,0.,9990.,0.805274702416,20.9371422628,26.
7.78,7229.,4.,1.,2752.,0.,0.,9986.,0.844761605579,10.9819008725,52.
7.8,7231.,7.,0.,2747.,0.,0.,9985.,0.883329774977,6.5618783284,91.
7.82,7237.,7.,2.,2740.,0.,0.,9986.,0.92071831728,6.83962178551,91.
7.84,7243.,4.,4.,2735.,0.,0.,9986.,0.956141402055,12.4298382267,52.
7.86,7251.,7.,4.,2722.,0.,0.,9984.,0.989429276119,7.35004605117,91.
7.88,7257.,3.,3.,2720.,0.,0.,9983.,1.01924382302,17.6668929324,39.
7.9,7262.,6.,4.,2712.,0.,0.,9984.,1.04512655013,9.05776343446,78.
7.92,7258.,11.,5.,2712.,0.,0.,9986.,1.06557862679,5.03728078117,143.
7.94,7261.,13.,4.,2710.,0.,0.,9988.,1.08268453247,4.33073812989,169.
7.96,7263.,13.,5.,2705.,0.,0.,9986.,1.09545566245,4.3818226498,169.
7.98,7262.,15.,7.,2703.,0.,0.,9987.,1.10262517868,3.82243395275,195.
8.,7251.,23.,9.,2704.,0.,0.,9987.,1.10344098364,2.49473613693,299.
8.02,7244.,22.,17.,2705.,0.,0.,9988.,1.09978202878,2.5994847953,286.
8.04,7231.,30.,12.,2713.,0.,0.,9986.,1.09062920214,1.89042395038,390.
8.06,7222.,30.,14.,2718.,0.,0.,9984.,1.07730069754,1.86732120908,390.
8.08,7209.,28.,29.,2723.,0.,0.,9989.,1.05806685807,1.96498130784,364.
8.1,7197.,38.,13.,2742.,0.,0.,9990.,1.03514984828,1.41652084502,494.
8.12,7195.,34.,22.,2743.,0.,0.,9994.,1.00942368174,1.54382445443,442.
8.14,7175.,38.,22.,2759.,0.,0.,9994.,0.978079111715,1.33842404761,494.
8.16,7148.,49.,20.,2773.,0.,0.,9990.,0.943222726199,1.00097105637,637.
8.18,7145.,34.,22.,2793.,0.,0.,9994.,0.908286084217,1.38914342292,442.
8.2,7136.,38.,16.,2802.,0.,0.,9992.,0.871113999806,1.19205073658,494.
8.22,7131.,22.,31.,2812.,0.,0.,9996.,0.832475944642,1.96767041461,286.
8.24,7114.,34.,15.,2833.,0.,0.,9996.,0.791988604649,1.21127668946,442.
8.26,7106.,35.,15.,2842.,0.,0.,9998.,0.752182353169,1.11752806756,455.
8.28,7098.,32.,12.,2855.,0.,0.,9997.,0.712998381427,1.15862236982,416.
8.3,7089.,31.,17.,2860.,0.,0.,9997.,0.674640647204,1.13165527918,403.
8.32,7087.,28.,18.,2863.,0.,0.,9996.,0.638571250295,1.18591803626,364.
8.34,7082.,20.,15.,2877.,0.,0.,9994.,0.604386242753,1.57140423116,260.
8.36,7080.,12.,18.,2883.,0.,0.,9993.,0.573019743627,2.48308555572,156.
8.38,7070.,16.,7.,2895.,0.,0.,9988.,0.544358921967,1.76916649639,208.
8.4,7071.,16.,5.,2895.,0.,0.,9987.,0.519880156584,1.6896105089,208.
8.42,7078.,10.,9.,2890.,0.,0.,9987.,0.499686622911,2.59837043914,130.
8.44,7083.,9.,7.,2891.,0.,0.,9990.,0.483427599215,2.79313723991,117.
8.46,7087.,4.,5.,2895.,0.,0.,9991.,0.471699159778,6.13208907711,52.
8.48,7090.,6.,5.,2890.,0.,0.,9991.,0.464647702394,4.02694675408,78.
8.5,7090.,3.,6.,2890.,0.,0.,9989.,0.462310430383,8.01338079331,39.
8.52,7091.,3.,1.,2893.,0.,0.,9988.,0.464852819505,8.05744887142,39.
8.54,7096.,2.,4.,2888.,0.,0.,9990.,0.472345462193,12.280982017,26.
8.56,7102.,1.,4.,2886.,0.,0.,9993.,0.484578864504,25.1981009542,13.
8.58,7110.,2.,3.,2879.,0.,0.,9994.,0.501594158733,13.0414481271,26.
8.6,7115.,4.,2.,2874.,0.,0.,9995.,0.522696461027,6.79505399335,52.
8.62,7119.,4.,1.,2870.,0.,0.,9994.,0.547802630104,7.12143419136,52.
8.64,7128.,3.,2.,2862.,0.,0.,9995.,0.576789184601,9.99767919974,39.
8.66,7132.,0.,4.,2856.,0.,0.,9992.,0.608775129918,inf,0.
8.68,7139.,0.,0.,2854.,0.,0.,9993.,0.643449801313,inf,0.
8.7,7146.,1.,0.,2840.,0.,0.,9987.,0.680746130966,35.3987988103,13.
8.72,7154.,0.,1.,2834.,0.,0.,9989.,0.719199147183,inf,0.
8.74,7166.,0.,1.,2824.,0.,0.,9991.,0.759064908355,inf,0.
8.76,7170.,0.,1.,2821.,0.,0.,9992.,0.798542527023,inf,0.
8.78,7178.,1.,0.,2813.,0.,0.,9992.,0.838298197906,43.5915062911,13.
8.8,7185.,2.,2.,2808.,0.,0.,9997.,0.876656904769,22.793079524,26.
8.82,7186.,3.,1.,2805.,0.,0.,9995.,0.913406687234,15.8323825787,39.
8.84,7192.,3.,2.,2799.,0.,0.,9996.,0.948459152683,16.4399586465,39.
8.86,7198.,6.,3.,2787.,0.,0.,9994.,0.981214417578,8.50385828568,78.
8.88,7194.,12.,4.,2783.,0.,0.,9993.,1.00938438562,4.37399900436,156.
8.9,7197.,7.,10.,2781.,0.,0.,9995.,1.03463201444,7.68583782157,91.
8.92,7203.,10.,5.,2780.,0.,0.,9998.,1.05623457852,5.49241980828,130.
8.94,7205.,12.,7.,2777.,0.,0.,10001.,1.07293790191,4.64939757495,156.
8.96,7211.,13.,6.,2774.,0.,0.,10004.,1.08565574443,4.3426229777,169.
8.98,7211.,15.,1.,2779.,0.,0.,10006.,1.09280257021,3.7883822434,195.
9.,7214.,8.,8.,2780.,0.,0.,10010.,1.09528796479,7.11937177116,104.
9.02,7211.,14.,8.,2780.,0.,0.,10013.,1.09203860157,4.05614337726,182.
9.04,7206.,17.,9.,2778.,0.,0.,10010.,1.08425267541,3.31653759538,221.
9.06,7202.,16.,13.,2780.,0.,0.,10011.,1.07141984198,3.48211448645,208.
9.08,7196.,16.,18.,2782.,0.,0.,10012.,1.05373259075,3.42463091994,208.
9.1,7180.,26.,9.,2797.,0.,0.,10012.,1.03043549835,2.0608709967,338.
9.12,7174.,31.,12.,2796.,0.,0.,10013.,1.00456765892,1.68508123432,403.
9.14,7167.,31.,10.,2805.,0.,0.,10013.,0.97513470229,1.6357098232,403.
9.16,7166.,29.,8.,2812.,0.,0.,10015.,0.943237483155,1.69132238359,377.
9.18,7165.,21.,16.,2813.,0.,0.,10015.,0.908918647436,2.25065569841,273.
9.2,7160.,31.,7.,2819.,0.,0.,10017.,0.871862354404,1.46247878803,403.
9.22,7155.,27.,14.,2822.,0.,0.,10018.,0.833443405538,1.60515026252,351.
9.24,7148.,28.,10.,2833.,0.,0.,10019.,0.793946953727,1.47447291407,364.
9.26,7145.,25.,15.,2835.,0.,0.,10020.,0.754650008287,1.56967201724,325.
9.28,7134.,31.,13.,2843.,0.,0.,10021.,0.714898332263,1.19918429928,403.
9.3,7131.,25.,15.,2851.,0.,0.,10022.,0.67694480191,1.40804518797,325.
9.32,7121.,24.,16.,2858.,0.,0.,10019.,0.640161845027,1.38701733089,312.
9.34,7110.,30.,10.,2868.,0.,0.,10018.,0.605322150469,1.04922506081,390.
9.36,7103.,24.,14.,2877.,0.,0.,10018.,0.57344662764,1.24246769322,312.
9.38,7101.,13.,17.,2885.,0.,0.,10016.,0.545217343006,2.18086937203,169.
9.4,7100.,13.,10.,2892.,0.,0.,10015.,0.520552874252,2.08221149701,169.
9.42,7102.,10.,2.,2900.,0.,0.,10014.,0.500029118488,2.60015141614,130.
9.44,7107.,6.,6.,2895.,0.,0.,10014.,0.483903112753,4.19382697719,78.
9.46,7113.,8.,1.,2892.,0.,0.,10014.,0.472342311421,3.07022502424,104.
9.48,7119.,3.,5.,2885.,0.,0.,10012.,0.465569659011,8.06987408953,39.
9.5,7119.,5.,0.,2887.,0.,0.,10011.,0.46318128298,4.81708534299,65.
9.52,7125.,4.,1.,2882.,0.,0.,10012.,0.465962048104,6.05750662536,52.
9.54,7125.,1.,4.,2877.,0.,0.,10007.,0.473470143153,24.6204474439,13.
9.56,7128.,0.,7.,2875.,0.,0.,10010.,0.485526905013,inf,0.
9.58,7139.,0.,0.,2873.,0.,0.,10012.,0.502734576564,inf,0.
9.6,7140.,0.,0.,2871.,0.,0.,10011.,0.523694730647,inf,0.
9.62,7144.,0.,1.,2867.,0.,0.,10012.,0.548738043112,inf,0.
9.64,7148.,0.,0.,2865.,0.,0.,10013.,0.577367778647,inf,0.
9.66,7153.,0.,0.,2858.,0.,0.,10011.,0.609408849579,inf,0.
9.68,7162.,0.,0.,2851.,0.,0.,10013.,0.644233459631,inf,0.
9.7,7176.,0.,0.,2839.,0.,0.,10015.,0.681692782867,inf,0.
9.72,7180.,0.,0.,2831.,0.,0.,10011.,0.720226710907,inf,0.
9.74,7184.,0.,0.,2825.,0.,0.,10009.,0.759603057158,inf,0.
9.76,7186.,2.,0.,2819.,0.,0.,10007.,0.799124843838,20.7772459398,26.
9.78,7190.,1.,1.,2812.,0.,0.,10004.,0.838692407087,43.6120051685,13.
9.8,7197.,2.,0.,2804.,0.,0.,10003.,0.877594335297,22.8174527177,26.
9.82,7198.,4.,0.,2801.,0.,0.,10003.,0.914200271514,11.8846035297,52.
9.84,7199.,6.,1.,2797.,0.,0.,10003.,0.948717923165,8.22222200076,78.
9.86,7202.,6.,3.,2792.,0.,0.,10003.,0.98087636944,8.50092853514,78.
9.88,7206.,8.,3.,2785.,0.,0.,10002.,1.01015831669,6.5660290585,104.
9.9,7206.,10.,6.,2780.,0.,0.,10002.,1.03520084047,5.38304437042,130.
9.92,7208.,4.,9.,2778.,0.,0.,9999.,1.05686206191,13.7392068048,52.
9.94,7202.,8.,9.,2778.,0.,0.,9997.,1.07292027989,6.97398181931,104.
9.96,7197.,19.,3.,2778.,0.,0.,9997.,1.08430667855,2.96757617287,247.
9.98,7189.,17.,8.,2777.,0.,0.,9991.,1.09110421982,3.33749526063,221.
10.,7192.,13.,11.,2777.,0.,0.,9993.,1.09380535793,4.37522143174,169.
