t,s,e,i,r,c,o,n,reff,coal,reportr
5.,8895.,18.,9.,1078.,0.,0.,10000.,1.17464384029,3.39341553862,234.
5.02,8887.,20.,7.,1081.,0.,0.,9995.,1.17152912683,3.04597572976,260.
5.04,8870.,27.,8.,1091.,0.,0.,9996.,1.16129269095,2.23656370108,351.
5.06,8854.,27.,11.,1103.,0.,0.,9995.,1.14634343091,2.20777253361,351.
5.08,8838.,33.,12.,1116.,0.,0.,9999.,1.12598220172,1.77427498453,429.
5.1,8821.,31.,14.,1131.,0.,0.,9997.,1.10163908653,1.8479107258,403.
5.12,8804.,30.,14.,1145.,0.,0.,9993.,1.07334708403,1.86046827899,390.
5.14,8794.,20.,21.,1156.,0.,0.,9991.,1.04194051168,2.70904533036,260.
5.16,8779.,27.,15.,1173.,0.,0.,9994.,1.00617819773,1.9378246771,351.
5.18,8757.,38.,10.,1189.,0.,0.,9994.,0.967274581102,1.32363890046,494.
5.2,8748.,32.,13.,1202.,0.,0.,9995.,0.927625228208,1.50739099584,416.
5.22,8725.,35.,13.,1219.,0.,0.,9992.,0.885389795643,1.31543626781,455.
5.24,8714.,34.,10.,1232.,0.,0.,9990.,0.843446198163,1.28997653837,442.
5.26,8702.,31.,14.,1240.,0.,0.,9987.,0.801251945,1.34403552065,403.
5.28,8690.,30.,24.,1244.,0.,0.,9988.,0.759167280277,1.31588995248,390.
5.3,8671.,32.,17.,1268.,0.,0.,9988.,0.717665171612,1.16620590387,416.
5.32,8667.,25.,14.,1282.,0.,0.,9988.,0.679105796769,1.41254005728,325.
5.34,8658.,23.,10.,1296.,0.,0.,9987.,0.642472469675,1.45254645318,299.
5.36,8656.,19.,7.,1308.,0.,0.,9990.,0.608916823838,1.66650920208,247.
5.38,8652.,15.,11.,1314.,0.,0.,9992.,0.578605488247,2.00583235926,195.
5.4,8650.,6.,17.,1319.,0.,0.,9992.,0.552325550291,4.78682143586,78.
5.42,8651.,8.,6.,1331.,0.,0.,9996.,0.530195793012,3.44627265458,104.
5.44,8645.,5.,9.,1335.,0.,0.,9994.,0.512482851765,5.32982165835,65.
5.46,8645.,5.,4.,1340.,0.,0.,9994.,0.499817294654,5.1980998644,65.
5.48,8640.,5.,3.,1342.,0.,0.,9990.,0.492049472025,5.11731450906,65.
5.5,8643.,6.,2.,1342.,0.,0.,9993.,0.489499320767,4.24232744665,78.
5.52,8644.,2.,6.,1341.,0.,0.,9993.,0.492129486074,12.7953666379,26.
5.54,8646.,1.,2.,1345.,0.,0.,9994.,0.499875110419,25.9935057418,13.
5.56,8655.,2.,1.,1340.,0.,0.,9998.,0.512870388835,13.3346301097,26.
5.58,8663.,0.,2.,1336.,0.,0.,10001.,0.53066580065,inf,0.
5.6,8668.,0.,0.,1334.,0.,0.,10002.,0.552921534032,inf,0.
5.62,8668.,1.,0.,1332.,0.,0.,10001.,0.579153837995,30.1159995757,13.
5.64,8673.,1.,0.,1330.,0.,0.,10004.,0.609258893201,31.6814624464,13.
5.66,8676.,1.,0.,1328.,0.,0.,10005.,0.642649895704,33.4177945766,13.
5.68,8677.,1.,0.,1325.,0.,0.,10003.,0.678869822077,35.301230748,13.
5.7,8679.,0.,1.,1323.,0.,0.,10003.,0.717250132905,inf,0.
5.72,8683.,0.,0.,1320.,0.,0.,10003.,0.757418260742,inf,0.
5.74,8688.,1.,0.,1319.,0.,0.,10008.,0.798284291229,41.5107831439,13.
5.76,8685.,1.,0.,1317.,0.,0.,10003.,0.839546724554,43.6564296768,13.
5.78,8687.,2.,0.,1311.,0.,0.,10000.,0.880828429779,22.9015391743,26.
5.8,8690.,1.,1.,1309.,0.,0.,10001.,0.920922162643,47.8879524575,13.
5.82,8686.,3.,3.,1306.,0.,0.,9998.,0.959048263146,16.6235032279,39.
5.84,8687.,7.,0.,1306.,0.,0.,10000.,0.995036519153,7.39169985657,91.
5.86,8686.,5.,2.,1304.,0.,0.,9997.,1.02852666337,10.6966772991,65.
5.88,8679.,10.,1.,1305.,0.,0.,9995.,1.05789587624,5.50105855645,130.
5.9,8676.,10.,4.,1305.,0.,0.,9995.,1.08374710749,5.63548495894,130.
5.92,8677.,12.,1.,1308.,0.,0.,9998.,1.10558098829,4.79085094927,156.
5.94,8672.,11.,3.,1309.,0.,0.,9995.,1.12277956097,5.30768519733,143.
5.96,8669.,10.,6.,1310.,0.,0.,9995.,1.13509059369,5.9024710872,130.
5.98,8656.,13.,10.,1313.,0.,0.,9992.,1.14142014002,4.5656805601,169.
6.,8649.,19.,7.,1314.,0.,0.,9989.,1.14341566332,3.12934813119,247.
6.02,8643.,19.,9.,1319.,0.,0.,9990.,1.13993406933,3.11981955817,247.
6.04,8630.,17.,17.,1322.,0.,0.,9986.,1.13100247229,3.45953697406,221.
6.06,8615.,29.,7.,1332.,0.,0.,9983.,1.11674042653,2.00243110964,377.
6.08,8599.,32.,9.,1340.,0.,0.,9980.,1.09761871792,1.78363041662,416.
6.1,8588.,30.,19.,1342.,0.,0.,9979.,1.07447476365,1.86242292366,390.
6.12,8570.,26.,27.,1353.,0.,0.,9976.,1.04659924175,2.09319848349,338.
6.14,8554.,31.,20.,1377.,0.,0.,9982.,1.01441836307,1.70160499611,403.
6.16,8532.,39.,21.,1392.,0.,0.,9984.,0.978848485356,1.30513131381,507.
6.18,8501.,49.,18.,1412.,0.,0.,9980.,0.940314743135,0.997885033531,637.
6.2,8488.,45.,14.,1431.,0.,0.,9978.,0.9015886729,1.0418357998,585.
6.22,8466.,43.,19.,1449.,0.,0.,9977.,0.860398795959,1.04048226488,559.
6.24,8441.,48.,20.,1462.,0.,0.,9971.,0.818578816522,0.886793717899,624.
6.26,8433.,40.,25.,1474.,0.,0.,9972.,0.777651292527,1.01094668029,520.
6.28,8425.,36.,17.,1496.,0.,0.,9974.,0.737049718812,1.06462737162,468.
6.3,8411.,35.,24.,1506.,0.,0.,9976.,0.696983360957,1.03551813628,455.
6.32,8403.,30.,18.,1527.,0.,0.,9978.,0.659079856732,1.142405085,390.
6.34,8406.,25.,15.,1534.,0.,0.,9980.,0.624210163158,1.29835713937,325.
6.36,8397.,25.,5.,1557.,0.,0.,9984.,0.591052140819,1.2293884529,325.
6.38,8392.,21.,7.,1563.,0.,0.,9983.,0.561723854682,1.39093525921,273.
6.4,8391.,18.,5.,1567.,0.,0.,9981.,0.536378198524,1.54953701796,234.
6.42,8388.,10.,8.,1572.,0.,0.,9978.,0.515004631836,2.67802408555,130.
6.44,8387.,9.,5.,1577.,0.,0.,9978.,0.497985650738,2.87725042649,117.
6.46,8386.,8.,7.,1576.,0.,0.,9977.,0.485669144558,3.15684943963,104.
6.48,8384.,8.,2.,1584.,0.,0.,9978.,0.478044455984,3.1072889639,104.
6.5,8387.,4.,4.,1584.,0.,0.,9979.,0.475667071823,6.18367193369,52.
6.52,8382.,3.,0.,1587.,0.,0.,9972.,0.47821798209,8.28911168957,39.
6.54,8388.,2.,2.,1587.,0.,0.,9979.,0.485687611662,12.6278779032,26.
6.56,8391.,2.,1.,1586.,0.,0.,9980.,0.498123310008,12.9512060602,26.
6.58,8398.,0.,0.,1586.,0.,0.,9984.,0.515308742747,inf,0.
6.6,8402.,0.,0.,1582.,0.,0.,9984.,0.536919969307,inf,0.
6.62,8406.,0.,0.,1579.,0.,0.,9985.,0.562548252339,inf,0.
6.64,8409.,0.,0.,1574.,0.,0.,9983.,0.591956093159,inf,0.
6.66,8414.,0.,0.,1567.,0.,0.,9981.,0.624741625336,inf,0.
6.68,8418.,1.,0.,1564.,0.,0.,9983.,0.65992567451,34.3161350745,13.
6.7,8417.,2.,0.,1564.,0.,0.,9983.,0.696991487323,18.1217786704,26.
6.72,8427.,1.,0.,1562.,0.,0.,9990.,0.736043945866,38.2742851851,13.
6.74,8426.,2.,0.,1561.,0.,0.,9989.,0.775683421266,20.1677689529,26.
6.76,8428.,1.,0.,1558.,0.,0.,9987.,0.816008710515,42.4324529468,13.
6.78,8435.,0.,1.,1554.,0.,0.,9990.,0.856132730542,inf,0.
6.8,8440.,0.,0.,1552.,0.,0.,9992.,0.895234059631,inf,0.
6.82,8440.,2.,0.,1549.,0.,0.,9991.,0.932539546643,24.2460282127,26.
6.84,8439.,5.,0.,1546.,0.,0.,9990.,0.967597410365,10.0630130678,65.
6.86,8436.,7.,3.,1544.,0.,0.,9990.,0.999623608981,7.425775381,91.
6.88,8433.,7.,5.,1545.,0.,0.,9990.,1.02842504982,7.63972894151,91.
6.9,8438.,8.,1.,1546.,0.,0.,9993.,1.05422871205,6.85248662833,104.
6.92,8441.,6.,2.,1542.,0.,0.,9991.,1.07626455609,9.32762615274,78.
6.94,8439.,6.,3.,1544.,0.,0.,9992.,1.09294067481,9.47215251499,78.
6.96,8438.,3.,10.,1545.,0.,0.,9996.,1.10473367826,19.1487170899,39.
6.98,8422.,17.,0.,1555.,0.,0.,9994.,1.11034157312,3.39633892955,221.
7.,8419.,15.,4.,1559.,0.,0.,9997.,1.11211851373,3.85534418094,195.
7.02,8415.,18.,4.,1559.,0.,0.,9996.,1.10919673298,3.2043461175,234.
7.04,8409.,22.,3.,1564.,0.,0.,9998.,1.10071666127,2.60169392663,286.
7.06,8400.,24.,10.,1563.,0.,0.,9997.,1.08734564996,2.35591557492,312.
7.08,8390.,26.,3.,1575.,0.,0.,9994.,1.06944071097,2.13888142194,338.
7.1,8381.,28.,9.,1576.,0.,0.,9994.,1.04700245984,1.94443313971,364.
7.12,8371.,21.,21.,1582.,0.,0.,9995.,1.02035331029,2.52658914929,273.
7.14,8356.,29.,10.,1601.,0.,0.,9996.,0.989549686846,1.77436495572,377.
7.16,8335.,32.,20.,1611.,0.,0.,9998.,0.954908304919,1.55172599549,416.
7.18,8319.,41.,15.,1623.,0.,0.,9998.,0.918526652212,1.16496063207,533.
7.2,8313.,35.,19.,1633.,0.,0.,10000.,0.881057710086,1.30900002641,455.
7.22,8295.,35.,24.,1647.,0.,0.,10001.,0.840997035904,1.24948131049,455.
7.24,8288.,26.,17.,1669.,0.,0.,10000.,0.801410558674,1.60282111735,338.
7.26,8272.,29.,19.,1679.,0.,0.,9999.,0.760744857079,1.36409422649,377.
7.28,8260.,30.,15.,1693.,0.,0.,9998.,0.720880294472,1.24952584375,390.
7.3,8254.,25.,16.,1701.,0.,0.,9996.,0.682604952545,1.41981830129,325.
7.32,8247.,22.,10.,1717.,0.,0.,9996.,0.645679386713,1.52615127769,286.
7.34,8242.,16.,10.,1726.,0.,0.,9994.,0.61117454251,1.98631726316,208.
7.36,8238.,13.,10.,1731.,0.,0.,9992.,0.579396111388,2.31758444555,169.
7.38,8238.,12.,6.,1735.,0.,0.,9991.,0.550974236796,2.38755502612,156.
7.4,8237.,13.,5.,1736.,0.,0.,9991.,0.526007042558,2.10402817023,169.
7.42,8239.,9.,5.,1738.,0.,0.,9991.,0.505198156016,2.9189226792,117.
7.44,8243.,11.,3.,1735.,0.,0.,9992.,0.488749763189,2.31045342598,143.
7.46,8247.,8.,5.,1731.,0.,0.,9991.,0.476949790737,3.10017363979,104.
7.48,8247.,6.,7.,1731.,0.,0.,9991.,0.469621045954,4.07004906494,78.
7.5,8247.,6.,3.,1735.,0.,0.,9991.,0.467165221085,4.04876524941,78.
7.52,8246.,4.,3.,1738.,0.,0.,9991.,0.469564101484,6.10433331929,52.
7.54,8250.,3.,2.,1734.,0.,0.,9989.,0.477218819856,8.2717928775,39.
7.56,8250.,4.,0.,1735.,0.,0.,9989.,0.489311723166,6.36105240116,52.
7.58,8254.,0.,2.,1729.,0.,0.,9985.,0.506422051421,inf,0.
7.6,8256.,1.,0.,1727.,0.,0.,9984.,0.527590010307,27.4346805359,13.
7.62,8263.,1.,0.,1725.,0.,0.,9989.,0.552756938743,28.7433608146,13.
7.64,8265.,1.,0.,1721.,0.,0.,9987.,0.581586104852,30.2424774523,13.
7.66,8272.,1.,0.,1719.,0.,0.,9992.,0.613521930642,31.9031403934,13.
7.68,8274.,0.,0.,1718.,0.,0.,9992.,0.648052612718,inf,0.
7.7,8279.,0.,0.,1715.,0.,0.,9994.,0.684809466678,inf,0.
7.72,8280.,0.,0.,1714.,0.,0.,9994.,0.722914991181,inf,0.
7.74,8282.,1.,0.,1709.,0.,0.,9992.,0.762198111661,39.6343018064,13.
7.76,8284.,2.,1.,1706.,0.,0.,9993.,0.801584886937,20.8412070604,26.
7.78,8282.,2.,2.,1703.,0.,0.,9989.,0.840687742062,21.8578812936,26.
7.8,8283.,3.,4.,1701.,0.,0.,9991.,0.878668946241,15.2302617348,39.
7.82,8287.,2.,2.,1702.,0.,0.,9993.,0.915451249919,23.8017324979,26.
7.84,8289.,1.,3.,1700.,0.,0.,9993.,0.950113416823,49.4058976748,13.
7.86,8289.,5.,2.,1698.,0.,0.,9994.,0.981811729848,10.2108419904,65.
7.88,8288.,7.,3.,1699.,0.,0.,9997.,1.01003421222,7.50311129076,91.
7.9,8291.,9.,1.,1697.,0.,0.,9998.,1.0353447585,5.98199193802,117.
7.92,8298.,7.,4.,1693.,0.,0.,10002.,1.05686782646,7.85101813944,91.
7.94,8298.,9.,4.,1692.,0.,0.,10003.,1.07349787506,6.20243216699,117.
7.96,8293.,14.,5.,1691.,0.,0.,10003.,1.08498995351,4.02996268446,182.
7.98,8294.,7.,9.,1695.,0.,0.,10005.,1.09226406788,8.11396164711,91.
8.,8283.,16.,6.,1699.,0.,0.,10004.,1.09338781959,3.55351041367,208.
8.02,8287.,7.,8.,1703.,0.,0.,10005.,1.09134221492,8.10711359652,91.
8.04,8276.,19.,4.,1708.,0.,0.,10007.,1.08233300578,2.96217454215,247.
8.06,8269.,22.,9.,1707.,0.,0.,10007.,1.06931859617,2.52748031822,286.
8.08,8246.,27.,12.,1722.,0.,0.,10007.,1.04972013486,2.02168322269,351.
8.1,8233.,31.,12.,1731.,0.,0.,10007.,1.02717732108,1.72300711923,403.
8.12,8219.,26.,14.,1746.,0.,0.,10005.,1.00082448506,2.00164897012,338.
8.14,8201.,38.,12.,1754.,0.,0.,10005.,0.970320352393,1.32780679801,494.
8.16,8193.,29.,28.,1755.,0.,0.,10005.,0.937983201495,1.68190091303,377.
8.18,8172.,29.,20.,1779.,0.,0.,10000.,0.902115466032,1.61758635288,377.
8.2,8160.,29.,21.,1793.,0.,0.,10003.,0.864582549246,1.55028595037,377.
8.22,8144.,31.,19.,1808.,0.,0.,10002.,0.825605194619,1.38488613291,403.
8.24,8132.,31.,19.,1822.,0.,0.,10004.,0.786011688849,1.31847122001,403.
8.26,8123.,30.,20.,1830.,0.,0.,10003.,0.746743158025,1.29435480724,390.
8.28,8116.,33.,11.,1844.,0.,0.,10004.,0.707888072016,1.11545999227,429.
8.3,8101.,31.,12.,1858.,0.,0.,10002.,0.669549977511,1.12311609131,403.
8.32,8097.,22.,14.,1871.,0.,0.,10004.,0.633428545378,1.49719474362,286.
8.34,8079.,29.,14.,1878.,0.,0.,10000.,0.598728041915,1.07358131654,377.
8.36,8067.,28.,5.,1897.,0.,0.,9997.,0.567085546862,1.05315887274,364.
8.38,8069.,17.,8.,1905.,0.,0.,9999.,0.539239392099,1.64943814054,221.
8.4,8068.,12.,10.,1909.,0.,0.,9999.,0.514802649018,2.23081147908,156.
8.42,8068.,11.,7.,1913.,0.,0.,9999.,0.494316985757,2.3367712054,143.
8.44,8066.,11.,9.,1909.,0.,0.,9995.,0.478111406232,2.26016301128,143.
8.46,8064.,14.,4.,1917.,0.,0.,9999.,0.465993198289,1.73083187936,182.
8.48,8069.,8.,6.,1914.,0.,0.,9997.,0.459209156564,2.98485951767,104.
8.5,8071.,4.,5.,1916.,0.,0.,9996.,0.456966715136,5.94056729677,52.
8.52,8073.,4.,2.,1917.,0.,0.,9996.,0.459482759802,5.97327587742,52.
8.54,8079.,1.,1.,1918.,0.,0.,9999.,0.466860001113,24.2767200579,13.
8.56,8083.,1.,1.,1912.,0.,0.,9997.,0.479023227093,24.9092078088,13.
8.58,8089.,0.,0.,1911.,0.,0.,10000.,0.495554070994,inf,0.
8.6,8098.,0.,0.,1907.,0.,0.,10005.,0.516407012726,inf,0.
8.62,8106.,1.,0.,1900.,0.,0.,10007.,0.541278981142,28.1465070194,13.
8.64,8111.,1.,0.,1895.,0.,0.,10007.,0.569608833174,29.619659325,13.
8.66,8113.,1.,0.,1894.,0.,0.,10008.,0.600767140224,31.2398912917,13.
8.68,8112.,0.,1.,1893.,0.,0.,10006.,0.634475151521,inf,0.
8.7,8119.,1.,1.,1886.,0.,0.,10007.,0.670702398539,34.8765247241,13.
8.72,8124.,1.,1.,1884.,0.,0.,10010.,0.708161115638,36.8243780132,13.
8.74,8130.,0.,1.,1879.,0.,0.,10010.,0.746864016361,inf,0.
8.76,8127.,1.,0.,1878.,0.,0.,10006.,0.785371394241,40.8393125005,13.
8.78,8130.,1.,0.,1874.,0.,0.,10005.,0.823938800038,42.844817602,13.
8.8,8129.,2.,1.,1872.,0.,0.,10004.,0.861211887829,22.3915090835,26.
8.82,8125.,2.,4.,1871.,0.,0.,10002.,0.896747738253,23.3154411946,26.
8.84,8125.,3.,4.,1870.,0.,0.,10002.,0.930477162093,16.1282708096,39.
8.86,8123.,7.,0.,1870.,0.,0.,10000.,0.961572147128,7.14310737867,91.
8.88,8119.,10.,1.,1869.,0.,0.,9999.,0.989240771165,5.14405201006,130.
8.9,8118.,7.,3.,1869.,0.,0.,9997.,1.01384266007,7.53140261765,91.
8.92,8112.,12.,2.,1871.,0.,0.,9997.,1.03369483617,4.47934429008,156.
8.94,8110.,9.,5.,1871.,0.,0.,9995.,1.05001640216,6.06676143467,117.
8.96,8101.,16.,2.,1877.,0.,0.,9996.,1.06061241143,3.44699033714,208.
8.98,8104.,9.,9.,1876.,0.,0.,9998.,1.06798956368,6.17060636795,117.
9.,8101.,16.,4.,1883.,0.,0.,10004.,1.06936312043,3.47543014139,208.
9.02,8104.,13.,10.,1883.,0.,0.,10010.,1.06670925651,4.26683702606,169.
9.04,8094.,23.,8.,1885.,0.,0.,10010.,1.05821385371,2.39248349535,299.
9.06,8078.,30.,9.,1891.,0.,0.,10008.,1.04451475569,1.81049224319,390.
9.08,8061.,36.,12.,1894.,0.,0.,10003.,1.02657988232,1.48283760779,468.
9.1,8051.,32.,12.,1905.,0.,0.,10000.,1.00517350604,1.63340694732,416.
9.12,8040.,26.,29.,1905.,0.,0.,10000.,0.979517237417,1.95903447483,338.
9.14,8026.,29.,20.,1923.,0.,0.,9998.,0.950279684504,1.70394977911,377.
9.16,8004.,38.,15.,1939.,0.,0.,9996.,0.917170402097,1.25507528708,494.
9.18,7995.,36.,19.,1952.,0.,0.,10002.,0.882399774441,1.27457745197,468.
9.2,7983.,38.,16.,1963.,0.,0.,10000.,0.846082485218,1.15779708504,494.
9.22,7969.,38.,23.,1973.,0.,0.,10003.,0.807783652807,1.10538815647,494.
9.24,7964.,37.,14.,1988.,0.,0.,10003.,0.769850329804,1.08195181486,481.
9.26,7949.,38.,13.,2004.,0.,0.,10004.,0.730674383152,0.999870208524,494.
9.28,7947.,29.,22.,2007.,0.,0.,10005.,0.693078392163,1.24276125491,377.
9.3,7935.,30.,18.,2022.,0.,0.,10005.,0.655633379133,1.1364311905,390.
9.32,7929.,28.,12.,2033.,0.,0.,10002.,0.620409932868,1.15218987533,364.
9.34,7925.,19.,4.,2054.,0.,0.,10002.,0.587197789081,1.60706763327,247.
9.36,7919.,14.,10.,2053.,0.,0.,9996.,0.556737287758,2.06788135453,182.
9.38,7917.,16.,8.,2056.,0.,0.,9997.,0.529187303895,1.71985873766,208.
9.4,7910.,13.,12.,2061.,0.,0.,9996.,0.504872467683,2.01948987073,169.
9.42,7915.,10.,10.,2066.,0.,0.,10001.,0.484845874656,2.52119854821,130.
9.44,7910.,5.,7.,2075.,0.,0.,9997.,0.468770719573,4.87521548355,65.
9.46,7911.,6.,4.,2075.,0.,0.,9996.,0.457289009905,3.96317141918,78.
9.48,7915.,4.,3.,2076.,0.,0.,9998.,0.450399917889,5.85519893256,52.
9.5,7919.,4.,0.,2074.,0.,0.,9997.,0.448315876178,5.82810639031,52.
9.52,7923.,1.,4.,2071.,0.,0.,9999.,0.450810064674,23.442123363,13.
9.54,7932.,2.,2.,2066.,0.,0.,10002.,0.458227851332,11.9139241346,26.
9.56,7942.,0.,1.,2062.,0.,0.,10005.,0.470290791611,inf,0.
9.58,7942.,1.,0.,2061.,0.,0.,10004.,0.486353910881,25.2904033658,13.
9.6,7946.,1.,0.,2056.,0.,0.,10003.,0.506815331072,26.3543972157,13.
9.62,7952.,1.,0.,2051.,0.,0.,10004.,0.531154850342,27.6200522178,13.
9.64,7962.,0.,1.,2045.,0.,0.,10008.,0.559089183788,inf,0.
9.66,7958.,1.,0.,2045.,0.,0.,10004.,0.589525021475,30.6553011167,13.
9.68,7962.,1.,0.,2041.,0.,0.,10004.,0.622867491453,32.3891095556,13.
9.7,7965.,0.,0.,2040.,0.,0.,10005.,0.658112144271,inf,0.
9.72,7972.,0.,0.,2034.,0.,0.,10006.,0.695189222542,inf,0.
9.74,7975.,0.,0.,2031.,0.,0.,10006.,0.732917785738,inf,0.
9.76,7973.,1.,0.,2028.,0.,0.,10002.,0.770797383031,40.0814639176,13.
9.78,7982.,0.,1.,2020.,0.,0.,10003.,0.809101407542,inf,0.
9.8,7983.,1.,0.,2017.,0.,0.,10001.,0.845997885429,43.9918900423,13.
9.82,7984.,2.,0.,2012.,0.,0.,9998.,0.88153826076,22.9199947798,26.
9.84,7984.,1.,2.,2009.,0.,0.,9996.,0.914878621982,47.5736883431,13.
9.86,7980.,10.,2.,2006.,0.,0.,9998.,0.944833277142,4.91313304114,130.
9.88,7982.,8.,2.,2005.,0.,0.,9997.,0.972742891159,6.32282879253,104.
9.9,7984.,7.,1.,2003.,0.,0.,9995.,0.997307158389,7.40856746232,91.
9.92,7989.,7.,0.,1999.,0.,0.,9995.,1.01822491494,7.563956511,91.
9.94,7997.,3.,4.,1991.,0.,0.,9995.,1.0353860873,17.9466921799,39.
9.96,7987.,12.,4.,1991.,0.,0.,9994.,1.04589637939,4.53221764404,156.
9.98,7984.,9.,8.,1994.,0.,0.,9995.,1.05249111608,6.0810597818,117.
10.,7976.,13.,2.,2001.,0.,0.,9992.,1.05412708696,4.21650834784,169.
