t,s,e,i,r,c,o,n,reff,coal,reportr
5.,6988.,19.,10.,2983.,0.,0.,10000.,1.1339897969,3.1035510231,247.
5.02,6981.,23.,10.,2985.,0.,0.,9999.,1.13041464666,2.55572007072,299.
5.04,6984.,19.,14.,2983.,0.,0.,10000.,1.12316755231,3.07393224842,247.
5.06,6969.,29.,14.,2986.,0.,0.,9998.,1.10843787479,1.98754377548,377.
5.08,6952.,26.,13.,3004.,0.,0.,9995.,1.08882243121,2.17764486242,338.
5.1,6933.,36.,11.,3011.,0.,0.,9991.,1.06463182694,1.53780152781,468.
5.12,6934.,31.,16.,3013.,0.,0.,9994.,1.03871528873,1.74236112948,403.
5.14,6921.,36.,16.,3022.,0.,0.,9995.,1.00727364311,1.45495081783,468.
5.16,6916.,31.,17.,3030.,0.,0.,9994.,0.974049069208,1.63388876125,403.
5.18,6905.,30.,16.,3038.,0.,0.,9989.,0.937716240716,1.62537481724,390.
5.2,6890.,36.,21.,3039.,0.,0.,9986.,0.898607901804,1.29798919149,468.
5.22,6879.,34.,15.,3055.,0.,0.,9983.,0.858581917986,1.31312528633,442.
5.24,6876.,30.,14.,3062.,0.,0.,9982.,0.818501759948,1.41873638391,390.
5.26,6864.,32.,9.,3080.,0.,0.,9985.,0.776801885033,1.26230306318,416.
5.28,6847.,31.,17.,3090.,0.,0.,9985.,0.735266019346,1.23334945181,403.
5.3,6843.,28.,19.,3098.,0.,0.,9988.,0.695977535145,1.29252970813,364.
5.32,6835.,21.,26.,3110.,0.,0.,9992.,0.657853615235,1.62897085677,273.
5.34,6825.,28.,14.,3128.,0.,0.,9995.,0.621853160266,1.15487015478,364.
5.36,6819.,27.,12.,3138.,0.,0.,9996.,0.589110351982,1.13458290011,351.
5.38,6816.,20.,14.,3145.,0.,0.,9995.,0.559965465941,1.45591021145,260.
5.4,6810.,15.,13.,3153.,0.,0.,9991.,0.534398957489,1.85258305263,195.
5.42,6812.,11.,9.,3159.,0.,0.,9991.,0.5132841937,2.42643437022,143.
5.44,6817.,6.,8.,3160.,0.,0.,9991.,0.496745587457,4.30512842462,78.
5.46,6822.,8.,4.,3157.,0.,0.,9991.,0.484824301644,3.15135796069,104.
5.48,6824.,7.,4.,3154.,0.,0.,9989.,0.477610117781,3.54796087494,91.
5.5,6836.,5.,2.,3150.,0.,0.,9993.,0.475757487574,4.94787787077,65.
5.52,6847.,1.,6.,3142.,0.,0.,9996.,0.478884294093,24.9019832928,13.
5.54,6850.,2.,2.,3142.,0.,0.,9996.,0.486570694599,12.6508380596,26.
5.56,6864.,3.,1.,3131.,0.,0.,9999.,0.49977023766,8.66268411945,39.
5.58,6870.,1.,3.,3127.,0.,0.,10001.,0.517136890913,26.8911183275,13.
5.6,6871.,1.,1.,3124.,0.,0.,9997.,0.538862182472,28.0208334885,13.
5.62,6880.,1.,1.,3115.,0.,0.,9997.,0.565110279045,29.3857345103,13.
5.64,6889.,1.,1.,3104.,0.,0.,9995.,0.595217371455,30.9513033156,13.
5.66,6892.,1.,1.,3104.,0.,0.,9998.,0.627769374323,32.6440074648,13.
5.68,6898.,2.,1.,3093.,0.,0.,9994.,0.663784362571,17.2583934268,26.
5.7,6913.,2.,1.,3082.,0.,0.,9998.,0.702393752054,18.2622375534,26.
5.72,6920.,0.,3.,3077.,0.,0.,10000.,0.7419904765,inf,0.
5.74,6927.,1.,1.,3073.,0.,0.,10002.,0.782599205339,40.6951586777,13.
5.76,6927.,1.,1.,3070.,0.,0.,9999.,0.823170758047,42.8048794184,13.
5.78,6937.,2.,0.,3061.,0.,0.,10000.,0.864349119693,22.473077112,26.
5.8,6941.,3.,0.,3056.,0.,0.,10000.,0.903992062989,15.6691957585,39.
5.82,6946.,4.,1.,3050.,0.,0.,10001.,0.942152315298,12.2479800989,52.
5.84,6948.,6.,2.,3044.,0.,0.,10000.,0.977968813923,8.47572972067,78.
5.86,6950.,5.,3.,3042.,0.,0.,10000.,1.01098851954,10.5142806032,65.
5.88,6953.,7.,3.,3037.,0.,0.,10000.,1.04093655755,7.7326715704,91.
5.9,6950.,12.,4.,3032.,0.,0.,9998.,1.06649512871,4.62147889106,156.
5.92,6951.,14.,2.,3028.,0.,0.,9995.,1.08866581118,4.04361587011,182.
5.94,6957.,12.,4.,3020.,0.,0.,9993.,1.10708289524,4.7973592127,156.
5.96,6955.,15.,2.,3022.,0.,0.,9994.,1.11917527468,3.8798076189,195.
5.98,6953.,11.,11.,3019.,0.,0.,9994.,1.12644395991,5.32500781048,143.
6.,6945.,15.,12.,3018.,0.,0.,9990.,1.1281400375,3.91088546334,195.
6.02,6940.,20.,7.,3023.,0.,0.,9990.,1.12478803687,2.92444889585,260.
6.04,6941.,26.,6.,3020.,0.,0.,9993.,1.11703421212,2.23406842424,338.
6.06,6944.,22.,15.,3014.,0.,0.,9995.,1.10479306291,2.61132905779,286.
6.08,6925.,32.,10.,3025.,0.,0.,9992.,1.08491932909,1.76299390976,416.
6.1,6924.,24.,17.,3029.,0.,0.,9994.,1.06293062006,2.30301634346,312.
6.12,6905.,30.,19.,3040.,0.,0.,9994.,1.03437107999,1.79290987198,390.
6.14,6896.,26.,20.,3055.,0.,0.,9997.,1.00343438726,2.00686877451,338.
6.16,6886.,32.,13.,3066.,0.,0.,9997.,0.969532836344,1.57549085906,416.
6.18,6875.,30.,16.,3077.,0.,0.,9998.,0.932801719772,1.61685631427,390.
6.2,6862.,32.,17.,3085.,0.,0.,9996.,0.894060770286,1.45284875171,416.
6.22,6848.,44.,11.,3097.,0.,0.,10000.,0.853259733553,1.00839786693,572.
6.24,6838.,36.,21.,3105.,0.,0.,10000.,0.812513174442,1.17363014086,468.
6.26,6824.,38.,23.,3113.,0.,0.,9998.,0.771270909102,1.0554233493,494.
6.28,6811.,45.,13.,3131.,0.,0.,10000.,0.730303054255,0.843905751583,585.
6.3,6806.,41.,11.,3144.,0.,0.,10002.,0.691245488513,0.876701595188,533.
6.32,6806.,22.,20.,3155.,0.,0.,10003.,0.654342076883,1.54662672718,286.
6.34,6802.,21.,12.,3172.,0.,0.,10007.,0.619014349081,1.53279743582,273.
6.36,6799.,21.,3.,3183.,0.,0.,10006.,0.586795472008,1.45301735926,273.
6.38,6808.,15.,8.,3177.,0.,0.,10008.,0.558581709996,1.93641659465,195.
6.4,6810.,15.,5.,3177.,0.,0.,10007.,0.533544517265,1.84962099319,195.
6.42,6816.,9.,12.,3174.,0.,0.,10011.,0.512559551155,2.96145518445,117.
6.44,6818.,11.,3.,3179.,0.,0.,10011.,0.495825910994,2.34390430652,143.
6.46,6825.,10.,6.,3172.,0.,0.,10013.,0.483971807838,2.51665340076,130.
6.48,6828.,8.,4.,3171.,0.,0.,10011.,0.476839873872,3.09945918017,104.
6.5,6832.,8.,2.,3167.,0.,0.,10009.,0.474719021531,3.08567363995,104.
6.52,6833.,6.,3.,3164.,0.,0.,10006.,0.477427505083,4.13770504406,78.
6.54,6842.,4.,3.,3160.,0.,0.,10009.,0.485371201797,6.30982562336,52.
6.56,6847.,0.,4.,3158.,0.,0.,10009.,0.498034377536,inf,0.
6.58,6853.,0.,0.,3160.,0.,0.,10013.,0.515238996777,inf,0.
6.6,6860.,0.,0.,3153.,0.,0.,10013.,0.53713981944,inf,0.
6.62,6865.,0.,0.,3149.,0.,0.,10014.,0.562920954417,inf,0.
6.64,6873.,0.,0.,3137.,0.,0.,10010.,0.592945090837,inf,0.
6.66,6878.,0.,0.,3129.,0.,0.,10007.,0.625930710523,inf,0.
6.68,6889.,1.,0.,3117.,0.,0.,10007.,0.662057114886,34.4269699741,13.
6.7,6894.,1.,0.,3109.,0.,0.,10004.,0.700043151574,36.4022438819,13.
6.72,6907.,2.,0.,3100.,0.,0.,10009.,0.739930626191,19.238196281,26.
6.74,6911.,2.,1.,3096.,0.,0.,10010.,0.78016754672,20.2843562147,26.
6.76,6913.,2.,2.,3089.,0.,0.,10006.,0.820932356485,21.3442412686,26.
6.78,6926.,1.,0.,3083.,0.,0.,10010.,0.862116405001,44.8300530601,13.
6.8,6934.,1.,0.,3077.,0.,0.,10012.,0.901997989211,46.903895439,13.
6.82,6941.,1.,0.,3072.,0.,0.,10014.,0.940251912281,48.8930994386,13.
6.84,6950.,1.,1.,3062.,0.,0.,10014.,0.976882689044,50.7978998303,13.
6.86,6948.,4.,1.,3057.,0.,0.,10010.,1.00968789969,13.125942696,52.
6.88,6952.,5.,0.,3049.,0.,0.,10006.,1.04016274948,10.8176925946,65.
6.9,6957.,4.,2.,3040.,0.,0.,10003.,1.0670356719,13.8714637347,52.
6.92,6962.,6.,1.,3032.,0.,0.,10001.,1.08973446372,9.44436535227,78.
6.94,6965.,6.,2.,3025.,0.,0.,9998.,1.10780166421,9.6009477565,78.
6.96,6967.,5.,9.,3018.,0.,0.,9999.,1.12054566524,11.6536749185,65.
6.98,6964.,12.,2.,3020.,0.,0.,9998.,1.12777467091,4.88702357393,156.
7.,6956.,12.,5.,3023.,0.,0.,9996.,1.12924864096,4.89341077751,156.
7.02,6961.,10.,6.,3018.,0.,0.,9995.,1.12762719618,5.86366142013,130.
7.04,6968.,13.,4.,3017.,0.,0.,10002.,1.1203703567,4.48148142679,169.
7.06,6974.,14.,5.,3010.,0.,0.,10003.,1.10867868777,4.11794941172,182.
7.08,6971.,18.,7.,3009.,0.,0.,10005.,1.09070695915,3.15093121531,234.
7.1,6961.,27.,9.,3014.,0.,0.,10011.,1.06679599439,2.05457006327,351.
7.12,6949.,29.,12.,3019.,0.,0.,10009.,1.03940225384,1.86375576551,377.
7.14,6942.,31.,12.,3030.,0.,0.,10015.,1.00831232326,1.69136260676,403.
7.16,6929.,35.,17.,3035.,0.,0.,10016.,0.973736482146,1.44669420205,455.
7.18,6919.,35.,22.,3040.,0.,0.,10016.,0.937084561151,1.39223991942,455.
7.2,6908.,38.,20.,3053.,0.,0.,10019.,0.897987983777,1.22882566201,494.
7.22,6896.,30.,22.,3071.,0.,0.,10019.,0.857611065054,1.48652584609,390.
7.24,6888.,28.,17.,3089.,0.,0.,10022.,0.816657688499,1.51664999293,364.
7.26,6883.,29.,15.,3095.,0.,0.,10022.,0.776076327247,1.39158513851,377.
7.28,6874.,25.,14.,3107.,0.,0.,10020.,0.735586995873,1.53002095142,325.
7.3,6873.,30.,13.,3107.,0.,0.,10023.,0.696587743664,1.20741875568,390.
7.32,6867.,25.,12.,3119.,0.,0.,10023.,0.658889352032,1.37048985223,325.
7.34,6869.,17.,9.,3124.,0.,0.,10019.,0.624362956271,1.90981610154,221.
7.36,6871.,10.,12.,3126.,0.,0.,10019.,0.592240063952,3.07964833255,130.
7.38,6871.,13.,6.,3131.,0.,0.,10021.,0.56301938393,2.25207753572,169.
7.4,6872.,10.,6.,3130.,0.,0.,10018.,0.537810866313,2.79661650483,130.
7.42,6875.,9.,7.,3125.,0.,0.,10016.,0.516738234347,2.98559868734,117.
7.44,6879.,7.,9.,3123.,0.,0.,10018.,0.499912464225,3.71363544853,91.
7.46,6878.,6.,9.,3125.,0.,0.,10018.,0.487486696815,4.22488470573,78.
7.48,6881.,5.,4.,3125.,0.,0.,10015.,0.4803492507,4.99563220728,65.
7.5,6887.,6.,1.,3120.,0.,0.,10014.,0.47830174059,4.14528175178,78.
7.52,6894.,3.,1.,3116.,0.,0.,10014.,0.481304813854,8.34261677348,39.
7.54,6903.,1.,1.,3109.,0.,0.,10014.,0.489454032357,25.4516096826,13.
7.56,6911.,0.,0.,3106.,0.,0.,10017.,0.50228811505,inf,0.
7.58,6930.,0.,0.,3094.,0.,0.,10024.,0.52045644019,inf,0.
7.6,6938.,0.,0.,3090.,0.,0.,10028.,0.542434644535,inf,0.
7.62,6947.,0.,0.,3080.,0.,0.,10027.,0.56890630214,inf,0.
7.64,6954.,0.,0.,3070.,0.,0.,10024.,0.599095199579,inf,0.
7.66,6960.,0.,0.,3065.,0.,0.,10025.,0.63225583608,inf,0.
7.68,6971.,0.,0.,3056.,0.,0.,10027.,0.668601335832,inf,0.
7.7,6978.,0.,0.,3052.,0.,0.,10030.,0.706736054114,inf,0.
7.72,6990.,1.,0.,3040.,0.,0.,10031.,0.747179902812,38.8533549462,13.
7.74,6993.,3.,2.,3034.,0.,0.,10032.,0.787693152115,13.65334797,39.
7.76,7004.,1.,2.,3026.,0.,0.,10033.,0.829500477292,43.1340248192,13.
7.78,7003.,1.,0.,3023.,0.,0.,10027.,0.870223107026,45.2516015653,13.
7.8,7006.,0.,1.,3020.,0.,0.,10027.,0.910000625929,inf,0.
7.82,7015.,0.,1.,3014.,0.,0.,10030.,0.948760314458,inf,0.
7.84,7016.,0.,2.,3007.,0.,0.,10025.,0.985077490282,inf,0.
7.86,7018.,6.,2.,2998.,0.,0.,10024.,1.01843595947,8.82644498208,78.
7.88,7019.,7.,3.,2992.,0.,0.,10021.,1.0486153531,7.78971405161,91.
7.9,7021.,9.,1.,2992.,0.,0.,10023.,1.07470296393,6.2093949027,117.
7.92,7024.,6.,6.,2991.,0.,0.,10027.,1.09658823542,9.50376470696,78.
7.94,7020.,8.,5.,2994.,0.,0.,10027.,1.11332028494,7.23658185211,104.
7.96,7025.,9.,3.,2991.,0.,0.,10028.,1.12660667756,6.50928302589,117.
7.98,7021.,12.,4.,2989.,0.,0.,10026.,1.1338300922,4.91326373286,156.
8.,7016.,15.,8.,2985.,0.,0.,10024.,1.13580760712,3.93746637134,195.
8.02,7020.,20.,6.,2981.,0.,0.,10027.,1.13355553935,2.94724440231,260.
8.04,7021.,18.,9.,2980.,0.,0.,10028.,1.12596519333,3.25278833628,234.
8.06,7012.,21.,14.,2983.,0.,0.,10030.,1.11171892626,2.75282781742,273.
8.08,7000.,25.,12.,2994.,0.,0.,10031.,1.09240556518,2.27220357558,325.
8.1,6986.,30.,12.,3001.,0.,0.,10029.,1.06870576941,1.85242333364,390.
8.12,6971.,35.,12.,3007.,0.,0.,10025.,1.0410287732,1.54667132018,455.
8.14,6958.,30.,16.,3020.,0.,0.,10024.,1.00972889798,1.75019675649,390.
8.16,6947.,35.,17.,3028.,0.,0.,10027.,0.975195031895,1.44886119024,455.
8.18,6938.,33.,21.,3037.,0.,0.,10029.,0.938439830109,1.47875367169,429.
8.2,6922.,37.,14.,3054.,0.,0.,10027.,0.899089970408,1.26358590436,481.
8.22,6913.,37.,10.,3066.,0.,0.,10026.,0.859124998435,1.20741891672,481.
8.24,6905.,30.,20.,3073.,0.,0.,10028.,0.818183416577,1.41818458873,390.
8.26,6900.,35.,16.,3079.,0.,0.,10030.,0.777372588996,1.15495356079,455.
8.28,6893.,35.,12.,3089.,0.,0.,10029.,0.736958248034,1.09490939708,455.
8.3,6883.,29.,15.,3099.,0.,0.,10026.,0.697392519382,1.25049693131,377.
8.32,6879.,23.,15.,3107.,0.,0.,10024.,0.659974907214,1.49211718153,299.
8.34,6875.,24.,12.,3112.,0.,0.,10023.,0.624658941079,1.35342770567,312.
8.36,6867.,25.,8.,3121.,0.,0.,10021.,0.591777156335,1.23089648518,325.
8.38,6867.,16.,10.,3127.,0.,0.,10020.,0.562747775164,1.82893026928,208.
8.4,6865.,12.,14.,3128.,0.,0.,10019.,0.537209413598,2.32790745892,156.
8.42,6863.,15.,10.,3132.,0.,0.,10020.,0.515630368576,1.78751861106,195.
8.44,6869.,9.,10.,3129.,0.,0.,10017.,0.4992355755,2.884472214,117.
8.46,6870.,10.,5.,3131.,0.,0.,10016.,0.487016915363,2.53248795989,130.
8.48,6876.,7.,5.,3126.,0.,0.,10014.,0.480048143322,3.56607192182,91.
8.5,6887.,7.,1.,3120.,0.,0.,10015.,0.478253982054,3.55274386668,91.
8.52,6891.,4.,3.,3115.,0.,0.,10013.,0.481143415841,6.25486440594,52.
8.54,6897.,1.,2.,3111.,0.,0.,10011.,0.489175152503,25.4371079301,13.
8.56,6908.,1.,2.,3105.,0.,0.,10016.,0.502120203315,26.1102505724,13.
8.58,6917.,1.,0.,3101.,0.,0.,10019.,0.519739362465,27.0264468482,13.
8.6,6924.,3.,0.,3097.,0.,0.,10024.,0.541556098127,9.38697236753,39.
8.62,6933.,0.,2.,3090.,0.,0.,10025.,0.567873077734,inf,0.
8.64,6938.,0.,2.,3085.,0.,0.,10025.,0.597657158322,inf,0.
8.66,6943.,0.,0.,3080.,0.,0.,10023.,0.630837385877,inf,0.
8.68,6951.,0.,0.,3075.,0.,0.,10026.,0.666749594743,inf,0.
8.7,6963.,0.,0.,3066.,0.,0.,10029.,0.705287162818,inf,0.
8.72,6972.,0.,0.,3059.,0.,0.,10031.,0.745255834393,inf,0.
8.74,6974.,0.,1.,3055.,0.,0.,10030.,0.785709628356,inf,0.
8.76,6980.,0.,0.,3049.,0.,0.,10029.,0.82698780696,inf,0.
8.78,6991.,0.,0.,3042.,0.,0.,10033.,0.868212410329,inf,0.
8.8,6994.,0.,0.,3040.,0.,0.,10034.,0.907808206247,inf,0.
8.82,6994.,1.,1.,3036.,0.,0.,10032.,0.945731539081,49.1780400322,13.
8.84,6999.,2.,1.,3029.,0.,0.,10031.,0.982102822736,25.5346733911,26.
8.86,7003.,6.,2.,3024.,0.,0.,10035.,1.01514520793,8.79792513544,78.
8.88,7004.,7.,0.,3024.,0.,0.,10035.,1.04491458797,7.76222265348,91.
8.9,7005.,5.,3.,3019.,0.,0.,10032.,1.07129189714,11.1414357302,65.
8.92,7005.,6.,4.,3017.,0.,0.,10032.,1.09307688499,9.47333300324,78.
8.94,7004.,6.,3.,3019.,0.,0.,10032.,1.11022918299,9.62198625259,78.
8.96,7000.,11.,4.,3014.,0.,0.,10029.,1.122485466,5.30629493017,143.
8.98,7005.,11.,4.,3011.,0.,0.,10031.,1.13068235704,5.34504386962,143.
9.,7011.,10.,9.,3006.,0.,0.,10036.,1.13364105392,5.8949334804,130.
9.02,7013.,12.,8.,3004.,0.,0.,10037.,1.13129696263,4.90228683805,156.
9.04,7016.,13.,7.,3004.,0.,0.,10040.,1.1238185213,4.49527408522,169.
9.06,7014.,19.,6.,3002.,0.,0.,10041.,1.11081777185,3.04013284926,247.
9.08,7007.,23.,14.,2997.,0.,0.,10041.,1.09240893781,2.46979412027,299.
9.1,6991.,31.,9.,3008.,0.,0.,10039.,1.06840534452,1.79216380372,403.
9.12,6979.,30.,15.,3012.,0.,0.,10036.,1.04108113641,1.80454063644,390.
9.14,6969.,27.,18.,3019.,0.,0.,10033.,1.01041799367,1.94599021002,351.
9.16,6950.,40.,18.,3027.,0.,0.,10035.,0.974838390442,1.26728990757,520.
9.18,6927.,44.,19.,3044.,0.,0.,10034.,0.936485072116,1.10675508523,572.
9.2,6916.,46.,22.,3052.,0.,0.,10036.,0.897505058383,1.01457093556,598.
9.22,6901.,47.,17.,3075.,0.,0.,10040.,0.856437774203,0.947548175714,611.
9.24,6900.,39.,12.,3089.,0.,0.,10040.,0.81661375901,1.08881834535,507.
9.26,6885.,46.,13.,3095.,0.,0.,10039.,0.77498724627,0.876072539262,598.
9.28,6882.,36.,18.,3103.,0.,0.,10039.,0.735049270169,1.06173783469,468.
9.3,6875.,28.,21.,3117.,0.,0.,10041.,0.695541344852,1.29171964044,364.
9.32,6864.,30.,15.,3131.,0.,0.,10040.,0.657486339821,1.13964298902,390.
9.34,6861.,24.,13.,3138.,0.,0.,10036.,0.622579412331,1.34892206005,312.
9.36,6855.,20.,16.,3140.,0.,0.,10031.,0.590154115475,1.53440070023,260.
9.38,6851.,17.,14.,3149.,0.,0.,10031.,0.560820910204,1.71545219592,221.
9.4,6858.,15.,11.,3151.,0.,0.,10035.,0.535805976178,1.85746071742,195.
9.42,6863.,14.,7.,3154.,0.,0.,10038.,0.514705747473,1.9117642049,182.
9.44,6868.,13.,6.,3152.,0.,0.,10039.,0.498069003795,1.99227601518,169.
9.46,6868.,10.,0.,3160.,0.,0.,10038.,0.485808064173,2.5262019337,130.
9.48,6875.,8.,3.,3152.,0.,0.,10038.,0.478830741136,3.11239981738,104.
9.5,6884.,6.,1.,3149.,0.,0.,10040.,0.476855300314,4.13274593605,78.
9.52,6901.,6.,1.,3135.,0.,0.,10043.,0.480402300098,4.16348660085,78.
9.54,6916.,3.,3.,3127.,0.,0.,10049.,0.48866784503,8.4702426472,39.
9.56,6926.,2.,1.,3122.,0.,0.,10051.,0.50167550579,13.0435631505,26.
9.58,6932.,1.,0.,3120.,0.,0.,10053.,0.519104844339,26.9934519056,13.
9.6,6935.,1.,0.,3117.,0.,0.,10053.,0.540851741145,28.1242905395,13.
9.62,6941.,1.,0.,3109.,0.,0.,10051.,0.567057674134,29.486999055,13.
9.64,6953.,0.,1.,3102.,0.,0.,10056.,0.597102893925,inf,0.
9.66,6962.,0.,2.,3095.,0.,0.,10059.,0.630299843512,inf,0.
9.68,6968.,0.,0.,3089.,0.,0.,10057.,0.666320022945,inf,0.
9.7,6971.,0.,0.,3086.,0.,0.,10057.,0.704131620916,inf,0.
9.72,6977.,0.,0.,3081.,0.,0.,10058.,0.743788275766,inf,0.
9.74,6983.,1.,0.,3072.,0.,0.,10056.,0.784689502168,40.8038541127,13.
9.76,6985.,1.,0.,3066.,0.,0.,10052.,0.825686617287,42.9357040989,13.
9.78,6994.,2.,0.,3058.,0.,0.,10054.,0.866770748773,22.5360394681,26.
9.8,7000.,3.,0.,3054.,0.,0.,10057.,0.906509089076,15.7128242106,39.
9.82,7008.,0.,3.,3048.,0.,0.,10059.,0.945081045435,inf,0.
9.84,7006.,7.,1.,3044.,0.,0.,10058.,0.980446042537,7.28331345884,91.
9.86,7001.,12.,3.,3039.,0.,0.,10055.,1.01283668246,4.38895895733,156.
9.88,6996.,14.,8.,3035.,0.,0.,10053.,1.04185228853,3.86973707168,182.
9.9,7000.,12.,7.,3037.,0.,0.,10056.,1.06797227723,4.62787986799,156.
9.92,7003.,12.,8.,3034.,0.,0.,10057.,1.09004837187,4.72354294476,156.
9.94,6992.,20.,12.,3032.,0.,0.,10056.,1.10568184803,2.87477280487,260.
9.96,6988.,21.,17.,3033.,0.,0.,10059.,1.11721923918,2.76644763988,273.
9.98,6981.,23.,13.,3043.,0.,0.,10060.,1.12356024374,2.54022315975,299.
10.,6977.,28.,7.,3048.,0.,0.,10060.,1.12545204062,2.09012521829,364.
