t,s,e,i,r,c,o,n,reff,coal,reportr
5.,7565.,1.,38.,2398.,0.,0.,10002.,1.13694572997,59.1211779587,13.
5.02,7534.,25.,17.,2424.,0.,0.,10000.,1.12996170254,2.35032034129,325.
5.04,7522.,29.,16.,2434.,0.,0.,10001.,1.12044778307,2.00907878343,377.
5.06,7510.,30.,16.,2442.,0.,0.,9998.,1.1064765943,1.91789276346,390.
5.08,7489.,33.,24.,2447.,0.,0.,9993.,1.08672445336,1.71241429015,429.
5.1,7479.,22.,20.,2469.,0.,0.,9990.,1.06396330791,2.51482236415,286.
5.12,7469.,26.,11.,2486.,0.,0.,9992.,1.03662927153,2.07325854307,338.
5.14,7465.,19.,14.,2495.,0.,0.,9993.,1.0065995828,2.75490412136,247.
5.16,7443.,33.,11.,2507.,0.,0.,9994.,0.971035868089,1.53011712547,429.
5.18,7438.,29.,11.,2515.,0.,0.,9993.,0.935301125006,1.67709167242,377.
5.2,7431.,32.,16.,2514.,0.,0.,9993.,0.897129936535,1.45783614687,416.
5.22,7421.,34.,15.,2523.,0.,0.,9993.,0.857127532763,1.31090093246,442.
5.24,7414.,35.,19.,2525.,0.,0.,9993.,0.816618870583,1.21326232201,455.
5.26,7407.,29.,15.,2541.,0.,0.,9992.,0.7759475863,1.39135429268,377.
5.28,7399.,24.,21.,2549.,0.,0.,9993.,0.735412112642,1.59339291072,312.
5.3,7390.,28.,15.,2560.,0.,0.,9993.,0.695884508287,1.29235694396,364.
5.32,7388.,26.,9.,2573.,0.,0.,9996.,0.658423334058,1.31684666812,338.
5.34,7391.,22.,6.,2577.,0.,0.,9996.,0.623743948854,1.47430387911,286.
5.36,7395.,15.,7.,2578.,0.,0.,9995.,0.591860004777,2.05178134989,195.
5.38,7399.,15.,4.,2580.,0.,0.,9998.,0.562905844462,1.95140692747,195.
5.4,7401.,11.,10.,2575.,0.,0.,9997.,0.537662272723,2.54167619833,143.
5.42,7400.,10.,5.,2580.,0.,0.,9995.,0.51630048577,2.684762526,130.
5.44,7402.,11.,1.,2581.,0.,0.,9995.,0.499433152296,2.36095671994,143.
5.46,7403.,6.,5.,2581.,0.,0.,9995.,0.487155912083,4.22201790472,78.
5.48,7405.,5.,1.,2581.,0.,0.,9992.,0.479943984767,4.99141744157,65.
5.5,7414.,5.,3.,2570.,0.,0.,9992.,0.478014448486,4.97135026425,65.
5.52,7420.,1.,5.,2569.,0.,0.,9995.,0.480771840272,25.0001356941,13.
5.54,7424.,0.,2.,2569.,0.,0.,9995.,0.48853782133,inf,0.
5.56,7433.,0.,0.,2564.,0.,0.,9997.,0.501424471884,inf,0.
5.58,7438.,0.,0.,2561.,0.,0.,9999.,0.518744157071,inf,0.
5.6,7440.,0.,0.,2559.,0.,0.,9999.,0.54038740543,inf,0.
5.62,7448.,0.,0.,2556.,0.,0.,10004.,0.566293853456,inf,0.
5.64,7448.,0.,0.,2552.,0.,0.,10000.,0.595803817299,inf,0.
5.66,7459.,0.,0.,2544.,0.,0.,10003.,0.629042123793,inf,0.
5.68,7467.,0.,0.,2535.,0.,0.,10002.,0.665064666628,inf,0.
5.7,7469.,0.,0.,2531.,0.,0.,10000.,0.702831271911,inf,0.
5.72,7474.,1.,0.,2525.,0.,0.,10000.,0.742346614515,38.6020239548,13.
5.74,7485.,2.,1.,2516.,0.,0.,10004.,0.783178197509,20.3626331352,26.
5.76,7493.,1.,1.,2511.,0.,0.,10006.,0.824248093394,42.8609008565,13.
5.78,7500.,2.,1.,2504.,0.,0.,10007.,0.86504014986,22.4910438963,26.
5.8,7508.,1.,0.,2500.,0.,0.,10009.,0.904977016771,47.0588048721,13.
5.82,7505.,3.,0.,2498.,0.,0.,10006.,0.942500020115,16.3366670153,39.
5.84,7511.,4.,1.,2491.,0.,0.,10007.,0.978634361425,12.7222466985,52.
5.86,7513.,6.,1.,2488.,0.,0.,10008.,1.01155363154,8.76679814001,78.
5.88,7513.,7.,0.,2488.,0.,0.,10008.,1.04106902729,7.73365563128,91.
5.9,7512.,4.,5.,2485.,0.,0.,10006.,1.06694906397,13.8703378316,52.
5.92,7513.,4.,3.,2484.,0.,0.,10004.,1.08900833118,14.1571083053,52.
5.94,7509.,8.,3.,2483.,0.,0.,10003.,1.1057762618,7.18754570172,104.
5.96,7512.,12.,0.,2480.,0.,0.,10004.,1.11862266882,4.84736489823,156.
5.98,7514.,9.,7.,2476.,0.,0.,10006.,1.12628629789,6.50743194337,117.
6.,7508.,16.,4.,2479.,0.,0.,10007.,1.12781539087,3.66540002034,208.
6.02,7510.,20.,2.,2476.,0.,0.,10008.,1.12546177368,2.92620061156,260.
6.04,7507.,23.,6.,2474.,0.,0.,10010.,1.11720805486,2.52586168924,299.
6.06,7499.,27.,13.,2473.,0.,0.,10012.,1.1033109785,2.12489521785,351.
6.08,7494.,30.,11.,2480.,0.,0.,10015.,1.08506119368,1.88077273571,390.
6.1,7481.,30.,14.,2484.,0.,0.,10009.,1.06222757547,1.84119446414,390.
6.12,7482.,27.,8.,2495.,0.,0.,10012.,1.03635917545,1.99595100457,351.
6.14,7483.,27.,9.,2498.,0.,0.,10017.,1.00660919422,1.93865474443,351.
6.16,7476.,31.,10.,2501.,0.,0.,10018.,0.973004533174,1.63213663629,403.
6.18,7467.,33.,17.,2502.,0.,0.,10019.,0.936511133682,1.47571451368,429.
6.2,7449.,33.,25.,2513.,0.,0.,10020.,0.896879769276,1.41326509098,429.
6.22,7437.,35.,18.,2529.,0.,0.,10019.,0.856746436041,1.27288041926,455.
6.24,7418.,33.,30.,2542.,0.,0.,10023.,0.814613899071,1.28363402278,429.
6.26,7405.,32.,19.,2565.,0.,0.,10021.,0.773493142873,1.25692635717,416.
6.28,7389.,35.,15.,2577.,0.,0.,10016.,0.732731714706,1.08862997614,455.
6.3,7389.,30.,16.,2581.,0.,0.,10016.,0.694192581219,1.20326714078,390.
6.32,7379.,26.,18.,2594.,0.,0.,10017.,0.656242587345,1.31248517469,338.
6.34,7374.,20.,17.,2609.,0.,0.,10020.,0.62081871755,1.61412866563,260.
6.36,7366.,19.,18.,2614.,0.,0.,10017.,0.588244200517,1.60993149615,247.
6.38,7361.,17.,10.,2626.,0.,0.,10014.,0.559120085118,1.71024967213,221.
6.4,7370.,16.,5.,2628.,0.,0.,10019.,0.534234539389,1.73626225301,208.
6.42,7375.,12.,6.,2629.,0.,0.,10022.,0.513169975312,2.22373655969,156.
6.44,7378.,11.,7.,2627.,0.,0.,10023.,0.496423126665,2.34672750787,143.
6.46,7376.,5.,6.,2627.,0.,0.,10014.,0.484458240501,5.03836570121,65.
6.48,7380.,4.,6.,2624.,0.,0.,10014.,0.477272806362,6.2045464827,52.
6.5,7388.,4.,3.,2620.,0.,0.,10015.,0.475244172966,6.17817424856,52.
6.52,7399.,0.,4.,2616.,0.,0.,10019.,0.478262760425,inf,0.
6.54,7404.,0.,1.,2616.,0.,0.,10021.,0.485957595476,inf,0.
6.56,7414.,0.,1.,2610.,0.,0.,10025.,0.498745839053,inf,0.
6.58,7413.,0.,0.,2607.,0.,0.,10020.,0.515917062262,inf,0.
6.6,7419.,0.,0.,2607.,0.,0.,10026.,0.537410963681,inf,0.
6.62,7426.,0.,0.,2601.,0.,0.,10027.,0.563325995514,inf,0.
6.64,7433.,0.,0.,2596.,0.,0.,10029.,0.592884525047,inf,0.
6.66,7441.,0.,0.,2587.,0.,0.,10028.,0.625959694392,inf,0.
6.68,7447.,0.,0.,2583.,0.,0.,10030.,0.661431684549,inf,0.
6.7,7455.,0.,0.,2575.,0.,0.,10030.,0.699415628078,inf,0.
6.72,7461.,0.,0.,2570.,0.,0.,10031.,0.738765231968,inf,0.
6.74,7473.,0.,0.,2555.,0.,0.,10028.,0.780051226805,inf,0.
6.76,7482.,0.,0.,2544.,0.,0.,10026.,0.821396259398,inf,0.
6.78,7496.,0.,0.,2536.,0.,0.,10032.,0.862424242693,inf,0.
6.8,7498.,2.,0.,2531.,0.,0.,10031.,0.901789513463,23.44652735,26.
6.82,7503.,4.,0.,2526.,0.,0.,10033.,0.939713150138,12.2162709518,52.
6.84,7507.,2.,2.,2520.,0.,0.,10031.,0.97577297051,25.3700972333,26.
6.86,7503.,8.,0.,2518.,0.,0.,10029.,1.00809192633,6.55259752113,104.
6.88,7498.,7.,3.,2516.,0.,0.,10024.,1.03733208741,7.70589550648,91.
6.9,7493.,9.,5.,2511.,0.,0.,10018.,1.06297563825,6.14163702099,117.
6.92,7491.,10.,1.,2512.,0.,0.,10014.,1.08473513275,5.64062269029,130.
6.94,7490.,9.,1.,2512.,0.,0.,10012.,1.10198682877,6.36703501069,117.
6.96,7487.,7.,5.,2509.,0.,0.,10008.,1.11445427958,8.27880321973,91.
6.98,7484.,9.,8.,2507.,0.,0.,10008.,1.12156536807,6.48015545996,117.
7.,7478.,13.,6.,2508.,0.,0.,10005.,1.12353348571,4.49413394283,169.
7.02,7475.,13.,7.,2511.,0.,0.,10006.,1.12044052126,4.48176208504,169.
7.04,7476.,11.,7.,2516.,0.,0.,10010.,1.11259456749,5.25953795539,143.
7.06,7469.,14.,10.,2518.,0.,0.,10011.,1.09900691504,4.08202568445,182.
7.08,7469.,15.,5.,2523.,0.,0.,10012.,1.08176547079,3.75012029875,195.
7.1,7459.,20.,11.,2520.,0.,0.,10010.,1.05899798976,2.75339477337,260.
7.12,7447.,21.,7.,2535.,0.,0.,10010.,1.03171729363,2.5547285366,273.
7.14,7441.,25.,10.,2532.,0.,0.,10008.,1.0018595198,2.08386780119,325.
7.16,7433.,25.,19.,2534.,0.,0.,10011.,0.968084506713,2.01361577396,325.
7.18,7418.,33.,15.,2544.,0.,0.,10010.,0.931202046229,1.46734867891,429.
7.2,7418.,27.,10.,2560.,0.,0.,10015.,0.893593190125,1.72099429209,351.
7.22,7412.,31.,12.,2565.,0.,0.,10020.,0.853781206264,1.43214912018,403.
7.24,7408.,26.,7.,2580.,0.,0.,10021.,0.813678102861,1.62735620572,338.
7.26,7401.,21.,12.,2587.,0.,0.,10021.,0.773075320784,1.9142817467,273.
7.28,7397.,24.,8.,2592.,0.,0.,10021.,0.733159042432,1.5885112586,312.
7.3,7393.,20.,10.,2597.,0.,0.,10020.,0.694291106265,1.80515687629,260.
7.32,7394.,19.,6.,2603.,0.,0.,10022.,0.657248527951,1.79878544492,247.
7.34,7397.,21.,4.,2601.,0.,0.,10023.,0.622568694908,1.5415986731,273.
7.36,7398.,19.,5.,2600.,0.,0.,10022.,0.590504949312,1.61611880864,247.
7.38,7396.,16.,7.,2599.,0.,0.,10018.,0.56155427533,1.82505139482,208.
7.4,7395.,11.,12.,2600.,0.,0.,10018.,0.536100240893,2.53429204786,143.
7.42,7396.,9.,7.,2608.,0.,0.,10020.,0.514733925872,2.97401823837,117.
7.44,7404.,8.,8.,2603.,0.,0.,10023.,0.498172516919,3.23812135997,104.
7.46,7407.,9.,4.,2603.,0.,0.,10023.,0.486057491096,2.80833217078,117.
7.48,7410.,7.,3.,2600.,0.,0.,10020.,0.478925985865,3.557735895,91.
7.5,7415.,2.,5.,2598.,0.,0.,10020.,0.476742973968,12.3953173232,26.
7.52,7420.,3.,0.,2596.,0.,0.,10019.,0.479620176017,8.3134163843,39.
7.54,7428.,2.,1.,2589.,0.,0.,10020.,0.487581478661,12.6771184452,26.
7.56,7430.,2.,0.,2585.,0.,0.,10017.,0.500221351262,13.0057551328,26.
7.58,7437.,2.,0.,2580.,0.,0.,10019.,0.517639033042,13.4586148591,26.
7.6,7439.,1.,1.,2579.,0.,0.,10020.,0.539182376484,28.0374835772,13.
7.62,7447.,0.,0.,2570.,0.,0.,10017.,0.565482986498,inf,0.
7.64,7456.,0.,0.,2564.,0.,0.,10020.,0.59525327189,inf,0.
7.66,7461.,0.,0.,2559.,0.,0.,10020.,0.628143267106,inf,0.
7.68,7466.,0.,0.,2552.,0.,0.,10018.,0.663913550173,inf,0.
7.7,7474.,1.,0.,2546.,0.,0.,10021.,0.701827932163,36.4950524725,13.
7.72,7479.,0.,0.,2544.,0.,0.,10023.,0.741138615057,inf,0.
7.74,7485.,0.,0.,2539.,0.,0.,10024.,0.781615591368,inf,0.
7.76,7491.,0.,0.,2533.,0.,0.,10024.,0.822548389283,inf,0.
7.78,7491.,2.,0.,2530.,0.,0.,10023.,0.862622870549,22.4281946343,26.
7.8,7497.,2.,0.,2523.,0.,0.,10022.,0.902478963722,23.4644530568,26.
7.82,7499.,1.,2.,2520.,0.,0.,10022.,0.940243035666,48.8926378546,13.
7.84,7508.,2.,2.,2514.,0.,0.,10026.,0.976389638349,25.3861305971,26.
7.86,7515.,4.,1.,2509.,0.,0.,10029.,1.00970422849,13.1261549704,52.
7.88,7522.,6.,0.,2504.,0.,0.,10032.,1.03982256914,9.01179559922,78.
7.9,7522.,6.,1.,2503.,0.,0.,10032.,1.06560049026,9.23520424894,78.
7.92,7521.,7.,3.,2501.,0.,0.,10032.,1.08712519664,8.075787175,91.
7.94,7524.,10.,4.,2498.,0.,0.,10036.,1.10434192825,5.74257802691,130.
7.96,7516.,13.,5.,2504.,0.,0.,10038.,1.11542737784,4.46170951134,169.
7.98,7518.,13.,7.,2501.,0.,0.,10039.,1.12318158805,4.4927263522,169.
8.,7514.,10.,11.,2506.,0.,0.,10041.,1.12489471515,5.8494525188,130.
8.02,7504.,23.,6.,2508.,0.,0.,10041.,1.12086669977,2.53413340817,299.
8.04,7503.,18.,8.,2512.,0.,0.,10041.,1.11316540079,3.21581115783,234.
8.06,7487.,24.,11.,2517.,0.,0.,10039.,1.09858282704,2.38026279192,312.
8.08,7486.,28.,14.,2517.,0.,0.,10045.,1.08066572694,2.00695063575,364.
8.1,7480.,38.,16.,2515.,0.,0.,10049.,1.05785795845,1.44759510103,494.
8.12,7470.,40.,16.,2524.,0.,0.,10050.,1.03078472437,1.34002014168,520.
8.14,7456.,31.,27.,2537.,0.,0.,10051.,0.999584349534,1.6767221347,403.
8.16,7428.,47.,21.,2555.,0.,0.,10051.,0.963583201891,1.06609205316,611.
8.18,7417.,43.,18.,2575.,0.,0.,10053.,0.927093991821,1.12113692034,559.
8.2,7401.,45.,17.,2590.,0.,0.,10053.,0.88817531104,1.02633591498,585.
8.22,7394.,40.,17.,2606.,0.,0.,10057.,0.848574345281,1.10314664887,520.
8.24,7378.,44.,19.,2612.,0.,0.,10053.,0.807803416286,0.954676764702,572.
8.26,7372.,35.,20.,2625.,0.,0.,10052.,0.767671316622,1.14054024184,455.
8.28,7358.,35.,17.,2640.,0.,0.,10050.,0.727189099938,1.08039523419,455.
8.3,7343.,32.,23.,2650.,0.,0.,10048.,0.687673864825,1.11747003034,416.
8.32,7339.,36.,12.,2659.,0.,0.,10046.,0.650801114699,0.940046054565,468.
8.34,7342.,20.,17.,2665.,0.,0.,10044.,0.616647630046,1.60328383812,260.
8.36,7336.,22.,16.,2672.,0.,0.,10046.,0.584157238104,1.38073529006,286.
8.38,7335.,21.,9.,2678.,0.,0.,10043.,0.555536397741,1.37561393726,273.
8.4,7335.,12.,10.,2685.,0.,0.,10042.,0.530479679522,2.29874527793,156.
8.42,7335.,4.,13.,2688.,0.,0.,10040.,0.50947164465,6.62313138045,52.
8.44,7341.,2.,5.,2692.,0.,0.,10040.,0.493097267996,12.8205289679,26.
8.46,7349.,4.,5.,2684.,0.,0.,10042.,0.481339006122,6.25740707958,52.
8.48,7356.,4.,2.,2686.,0.,0.,10048.,0.474110975969,6.1634426876,52.
8.5,7362.,3.,2.,2683.,0.,0.,10050.,0.471922429377,8.17998877587,39.
8.52,7370.,2.,1.,2679.,0.,0.,10052.,0.474824285491,12.3454314228,26.
8.54,7383.,1.,2.,2672.,0.,0.,10058.,0.482796667464,25.1054267081,13.
8.56,7389.,2.,0.,2667.,0.,0.,10058.,0.49543321614,12.8812636196,26.
8.58,7390.,2.,1.,2666.,0.,0.,10059.,0.51232227957,13.3203792688,26.
8.6,7395.,2.,1.,2665.,0.,0.,10063.,0.5337028931,13.8762752206,26.
8.62,7393.,1.,0.,2665.,0.,0.,10059.,0.559038555282,29.0700048747,13.
8.64,7402.,1.,0.,2656.,0.,0.,10059.,0.588650999869,30.6098519932,13.
8.66,7400.,3.,1.,2653.,0.,0.,10057.,0.620715599802,10.7590703966,39.
8.68,7403.,2.,1.,2648.,0.,0.,10054.,0.65595408762,17.0548062781,26.
8.7,7406.,3.,2.,2645.,0.,0.,10056.,0.693022062096,12.0123824097,39.
8.72,7409.,2.,2.,2644.,0.,0.,10057.,0.731719760243,19.0247137663,26.
8.74,7414.,1.,3.,2642.,0.,0.,10060.,0.771430966584,40.1144102624,13.
8.76,7417.,2.,1.,2641.,0.,0.,10061.,0.811427733448,21.0971210696,26.
8.78,7420.,1.,1.,2640.,0.,0.,10062.,0.85113508653,44.2590244995,13.
8.8,7430.,1.,0.,2630.,0.,0.,10061.,0.890946528244,46.3292194687,13.
8.82,7436.,2.,0.,2624.,0.,0.,10062.,0.928637544846,24.144576166,26.
8.84,7446.,1.,1.,2616.,0.,0.,10064.,0.964670509378,50.1628664876,13.
8.86,7450.,6.,1.,2608.,0.,0.,10065.,0.99739070124,8.64405274408,78.
8.88,7449.,9.,0.,2603.,0.,0.,10061.,1.02676311566,5.9324091127,117.
8.9,7454.,7.,3.,2597.,0.,0.,10061.,1.05292356479,7.82171790988,91.
8.92,7462.,8.,5.,2591.,0.,0.,10066.,1.07495383911,6.98719995422,104.
8.94,7459.,13.,9.,2586.,0.,0.,10067.,1.09143019732,4.36572078928,169.
8.96,7459.,16.,5.,2589.,0.,0.,10069.,1.10356009051,3.58657029414,208.
8.98,7455.,15.,5.,2593.,0.,0.,10068.,1.11056133562,3.84994596348,195.
9.,7455.,17.,5.,2593.,0.,0.,10070.,1.11284794975,3.40400549336,221.
9.02,7446.,16.,8.,2597.,0.,0.,10067.,1.10933080154,3.605325105,208.
9.04,7443.,18.,8.,2602.,0.,0.,10071.,1.10097420237,3.18059214017,234.
9.06,7437.,14.,13.,2605.,0.,0.,10069.,1.08799492008,4.04112398886,182.
9.08,7428.,25.,10.,2606.,0.,0.,10069.,1.06973708188,2.2250531303,325.
9.1,7411.,34.,13.,2610.,0.,0.,10068.,1.04612170372,1.59995084098,442.
9.12,7403.,35.,5.,2623.,0.,0.,10066.,1.01991565322,1.51530325621,455.
9.14,7402.,24.,16.,2625.,0.,0.,10067.,0.990767685952,2.14666331956,312.
9.16,7385.,34.,18.,2632.,0.,0.,10069.,0.956292516195,1.46256502477,442.
9.18,7378.,35.,14.,2644.,0.,0.,10071.,0.92057086326,1.36770528256,455.
9.2,7362.,39.,18.,2652.,0.,0.,10071.,0.881915940005,1.17588792001,507.
9.22,7351.,36.,20.,2662.,0.,0.,10069.,0.842634009166,1.21713801324,468.
9.24,7338.,36.,20.,2676.,0.,0.,10070.,0.802067564793,1.15854203803,468.
9.26,7333.,36.,13.,2689.,0.,0.,10071.,0.762169483855,1.10091147668,468.
9.28,7337.,32.,14.,2690.,0.,0.,10073.,0.723458000734,1.17561925119,416.
9.3,7326.,28.,19.,2701.,0.,0.,10074.,0.684311100935,1.27086347317,364.
9.32,7322.,24.,17.,2714.,0.,0.,10077.,0.647296174319,1.40247504436,312.
9.34,7314.,24.,7.,2732.,0.,0.,10077.,0.612284249947,1.32661587489,312.
9.36,7311.,21.,6.,2737.,0.,0.,10075.,0.580490801837,1.43740579502,273.
9.38,7314.,13.,12.,2739.,0.,0.,10078.,0.552022099998,2.20808839999,169.
9.4,7312.,14.,7.,2744.,0.,0.,10077.,0.526979566109,1.95735267412,182.
9.42,7320.,13.,3.,2743.,0.,0.,10079.,0.506462446143,2.02584978457,169.
9.44,7328.,8.,3.,2742.,0.,0.,10081.,0.490222150721,3.18644397969,104.
9.46,7337.,6.,3.,2737.,0.,0.,10083.,0.478598990729,4.14785791965,78.
9.48,7343.,3.,4.,2735.,0.,0.,10085.,0.471536744853,8.17330357745,39.
9.5,7342.,4.,2.,2735.,0.,0.,10083.,0.469100051327,6.09830066726,52.
9.52,7343.,3.,3.,2731.,0.,0.,10080.,0.471770642048,8.17735779549,39.
9.54,7345.,1.,1.,2731.,0.,0.,10078.,0.479358544105,24.9266442935,13.
9.56,7350.,0.,1.,2725.,0.,0.,10076.,0.491937880127,inf,0.
9.58,7358.,0.,1.,2720.,0.,0.,10079.,0.509091622775,inf,0.
9.6,7362.,0.,0.,2716.,0.,0.,10078.,0.530530443931,inf,0.
9.62,7363.,0.,0.,2714.,0.,0.,10077.,0.555775508665,inf,0.
9.64,7369.,0.,0.,2709.,0.,0.,10078.,0.584921810958,inf,0.
9.66,7374.,0.,0.,2705.,0.,0.,10079.,0.617184596672,inf,0.
9.68,7382.,0.,0.,2695.,0.,0.,10077.,0.652600431415,inf,0.
9.7,7385.,1.,1.,2691.,0.,0.,10078.,0.689548412603,35.8565174553,13.
9.72,7390.,0.,3.,2689.,0.,0.,10082.,0.728033534339,inf,0.
9.74,7394.,0.,0.,2689.,0.,0.,10083.,0.767595016171,inf,0.
9.76,7395.,0.,0.,2684.,0.,0.,10079.,0.807576086384,inf,0.
9.78,7402.,0.,0.,2676.,0.,0.,10078.,0.847722340185,inf,0.
9.8,7404.,1.,1.,2670.,0.,0.,10076.,0.88650711664,46.0983700653,13.
9.82,7409.,2.,1.,2668.,0.,0.,10080.,0.92361341627,24.013948823,26.
9.84,7410.,5.,0.,2665.,0.,0.,10080.,0.958482690281,9.96821997892,65.
9.86,7421.,2.,3.,2656.,0.,0.,10082.,0.991833013645,25.7876583548,26.
9.88,7422.,7.,0.,2652.,0.,0.,10081.,1.02101181838,7.58465922223,91.
9.9,7423.,5.,4.,2647.,0.,0.,10079.,1.04667203633,10.8853891778,65.
9.92,7419.,9.,2.,2648.,0.,0.,10078.,1.0674868001,6.1677015117,117.
9.94,7419.,12.,2.,2646.,0.,0.,10079.,1.08428475802,4.69856728476,156.
9.96,7414.,13.,4.,2646.,0.,0.,10077.,1.09603151765,4.38412607059,169.
9.98,7420.,12.,6.,2639.,0.,0.,10077.,1.10436022147,4.78556095971,156.
10.,7416.,19.,5.,2639.,0.,0.,10079.,1.10603769565,3.02705053546,247.
