t,s,e,i,r,c,o,n,reff,coal,reportr
5.,6232.,22.,11.,3735.,0.,0.,10000.,1.06556334383,2.51860426724,286.
5.02,6220.,19.,11.,3745.,0.,0.,9995.,1.06164634587,2.90555842028,247.
5.04,6212.,22.,10.,3750.,0.,0.,9994.,1.05324158113,2.48948010085,286.
5.06,6211.,22.,5.,3756.,0.,0.,9994.,1.04129021107,2.46123140799,286.
5.08,6213.,23.,7.,3754.,0.,0.,9997.,1.02507899051,2.31756989159,299.
5.1,6218.,18.,10.,3755.,0.,0.,10001.,1.0050555614,2.90349384405,234.
5.12,6210.,26.,5.,3759.,0.,0.,10000.,0.979578418954,1.95915683791,338.
5.14,6212.,24.,7.,3756.,0.,0.,9999.,0.952208106961,2.06311756508,312.
5.16,6209.,29.,8.,3752.,0.,0.,9998.,0.921020507406,1.65148504776,377.
5.18,6206.,23.,18.,3749.,0.,0.,9996.,0.887382517809,2.00625612722,299.
5.2,6188.,33.,22.,3756.,0.,0.,9999.,0.84924282499,1.33820081514,429.
5.22,6182.,29.,20.,3768.,0.,0.,9999.,0.811681240191,1.45542843069,377.
5.24,6166.,35.,20.,3779.,0.,0.,10000.,0.771969980226,1.14692682776,455.
5.26,6152.,41.,22.,3787.,0.,0.,10002.,0.732328807781,0.928807268405,533.
5.28,6151.,33.,18.,3800.,0.,0.,10002.,0.694779011063,1.09480329016,429.
5.3,6151.,26.,18.,3809.,0.,0.,10004.,0.65810446289,1.31620892578,338.
5.32,6146.,22.,16.,3817.,0.,0.,10001.,0.622712921374,1.47186690507,286.
5.34,6151.,15.,20.,3820.,0.,0.,10006.,0.589859792425,2.04484728041,195.
5.36,6160.,13.,13.,3824.,0.,0.,10010.,0.559943777349,2.2397751094,169.
5.38,6149.,19.,7.,3832.,0.,0.,10007.,0.531631408307,1.45499122273,247.
5.4,6160.,14.,7.,3828.,0.,0.,10009.,0.50840878804,1.88837549843,182.
5.42,6164.,10.,9.,3826.,0.,0.,10009.,0.488494555611,2.54017168918,130.
5.44,6170.,11.,1.,3827.,0.,0.,10009.,0.472867792115,2.23537501727,143.
5.46,6180.,8.,3.,3816.,0.,0.,10007.,0.462021064548,3.00313691956,104.
5.48,6187.,2.,7.,3812.,0.,0.,10008.,0.455391488716,11.8401787066,26.
5.5,6198.,3.,0.,3806.,0.,0.,10007.,0.453860841681,7.8669212558,39.
5.52,6200.,3.,0.,3803.,0.,0.,10006.,0.456439563096,7.91161909366,39.
5.54,6210.,0.,0.,3802.,0.,0.,10012.,0.464032031532,inf,0.
5.56,6223.,0.,1.,3788.,0.,0.,10012.,0.476786796036,inf,0.
5.58,6233.,2.,0.,3779.,0.,0.,10014.,0.49371614215,12.8366196959,26.
5.6,6243.,1.,1.,3767.,0.,0.,10012.,0.515104708796,26.7854448574,13.
5.62,6251.,1.,1.,3760.,0.,0.,10013.,0.540126294571,28.0865673177,13.
5.64,6259.,0.,0.,3754.,0.,0.,10013.,0.568772412509,inf,0.
5.66,6270.,0.,0.,3747.,0.,0.,10017.,0.600611207906,inf,0.
5.68,6289.,0.,0.,3732.,0.,0.,10021.,0.635929953326,inf,0.
5.7,6295.,0.,0.,3723.,0.,0.,10018.,0.672570011425,inf,0.
5.72,6303.,1.,0.,3712.,0.,0.,10016.,0.710952858316,36.9695486324,13.
5.74,6307.,3.,0.,3705.,0.,0.,10015.,0.749805322937,12.9966255976,39.
5.76,6317.,2.,0.,3698.,0.,0.,10017.,0.789532650979,20.5278489254,26.
5.78,6327.,0.,2.,3688.,0.,0.,10017.,0.829226622727,inf,0.
5.8,6334.,2.,1.,3679.,0.,0.,10016.,0.867804490043,22.5629167411,26.
5.82,6339.,5.,1.,3669.,0.,0.,10014.,0.904770661274,9.40961487725,65.
5.84,6348.,3.,2.,3662.,0.,0.,10015.,0.940040873362,16.2940418049,39.
5.86,6347.,8.,2.,3657.,0.,0.,10014.,0.971444306431,6.3143879918,104.
5.88,6349.,11.,5.,3648.,0.,0.,10013.,1.00020430476,4.72823853161,143.
5.9,6346.,9.,4.,3650.,0.,0.,10009.,1.02492517122,5.92178987818,117.
5.92,6352.,5.,7.,3646.,0.,0.,10010.,1.04665145851,10.8851751685,65.
5.94,6353.,7.,9.,3639.,0.,0.,10008.,1.0636069346,7.90108008559,91.
5.96,6355.,6.,9.,3635.,0.,0.,10005.,1.07630251808,9.32795515669,78.
5.98,6353.,13.,6.,3633.,0.,0.,10005.,1.0832633387,4.3330533548,169.
6.,6348.,15.,5.,3633.,0.,0.,10001.,1.08528879247,3.76233448056,195.
6.02,6353.,17.,7.,3626.,0.,0.,10003.,1.08347992639,3.31417389249,221.
6.04,6350.,18.,14.,3622.,0.,0.,10004.,1.07556320513,3.10718259261,234.
6.06,6351.,18.,13.,3623.,0.,0.,10005.,1.0635909207,3.07259599313,234.
6.08,6347.,25.,13.,3621.,0.,0.,10006.,1.04624566317,2.1761909794,325.
6.1,6339.,26.,10.,3629.,0.,0.,10004.,1.02430631293,2.04861262585,338.
6.12,6328.,26.,19.,3629.,0.,0.,10002.,0.997992387858,1.99598477572,338.
6.14,6314.,32.,12.,3642.,0.,0.,10000.,0.96774642034,1.57258793305,416.
6.16,6304.,26.,16.,3653.,0.,0.,9999.,0.935018941745,1.87003788349,338.
6.18,6298.,30.,9.,3660.,0.,0.,9997.,0.90044731807,1.56077535132,390.
6.2,6291.,31.,11.,3665.,0.,0.,9998.,0.863464928499,1.44839278329,403.
6.22,6291.,32.,7.,3670.,0.,0.,10000.,0.825910070103,1.34210386392,416.
6.24,6293.,28.,10.,3669.,0.,0.,10000.,0.787870107941,1.46318734332,364.
6.26,6297.,31.,6.,3665.,0.,0.,9999.,0.749814382852,1.25775315833,403.
6.28,6295.,24.,15.,3663.,0.,0.,9997.,0.711399991517,1.54136664829,312.
6.3,6296.,15.,15.,3668.,0.,0.,9994.,0.674292247049,2.33754645644,195.
6.32,6297.,18.,8.,3672.,0.,0.,9995.,0.638395245169,1.84425293049,234.
6.34,6300.,21.,3.,3672.,0.,0.,9996.,0.604752771259,1.49748305264,273.
6.36,6305.,15.,4.,3671.,0.,0.,9995.,0.573984388575,1.98981254706,195.
6.38,6306.,12.,7.,3667.,0.,0.,9992.,0.546023806872,2.36610316311,156.
6.4,6314.,10.,9.,3659.,0.,0.,9992.,0.522005619343,2.71442922059,130.
6.42,6317.,10.,5.,3661.,0.,0.,9993.,0.501421297616,2.6073907476,130.
6.44,6313.,9.,4.,3661.,0.,0.,9987.,0.484893094339,2.80160454507,117.
6.46,6315.,7.,1.,3660.,0.,0.,9983.,0.473248760229,3.51556221884,91.
6.48,6319.,6.,4.,3651.,0.,0.,9980.,0.466412202496,4.0422390883,78.
6.5,6325.,7.,1.,3646.,0.,0.,9979.,0.464460247531,3.45027612452,91.
6.52,6328.,2.,5.,3644.,0.,0.,9979.,0.467123308141,12.1452060117,26.
6.54,6337.,2.,2.,3641.,0.,0.,9982.,0.474945024877,12.3485706468,26.
6.56,6348.,1.,1.,3632.,0.,0.,9982.,0.487825627884,25.3669326499,13.
6.58,6353.,1.,2.,3627.,0.,0.,9983.,0.5047839889,26.2487674228,13.
6.6,6357.,2.,1.,3625.,0.,0.,9985.,0.525929059949,13.6741555587,26.
6.62,6366.,0.,0.,3619.,0.,0.,9985.,0.551605518729,inf,0.
6.64,6372.,0.,0.,3615.,0.,0.,9987.,0.580548497303,inf,0.
6.66,6376.,0.,0.,3610.,0.,0.,9986.,0.612661107785,inf,0.
6.68,6388.,0.,0.,3598.,0.,0.,9986.,0.648204578951,inf,0.
6.7,6396.,0.,0.,3588.,0.,0.,9984.,0.685688198354,inf,0.
6.72,6404.,1.,0.,3578.,0.,0.,9983.,0.724733047612,37.6861184758,13.
6.74,6411.,1.,0.,3573.,0.,0.,9985.,0.764459266709,39.7518818688,13.
6.76,6417.,1.,1.,3565.,0.,0.,9984.,0.804682133501,41.8434709421,13.
6.78,6429.,1.,0.,3561.,0.,0.,9991.,0.844787624184,43.9289564576,13.
6.8,6436.,1.,0.,3557.,0.,0.,9994.,0.883720317672,45.9534565189,13.
6.82,6447.,0.,1.,3547.,0.,0.,9995.,0.921934816954,inf,0.
6.84,6448.,2.,0.,3545.,0.,0.,9995.,0.956759984713,24.8757596025,26.
6.86,6451.,5.,0.,3538.,0.,0.,9994.,0.989338005339,10.2891152555,65.
6.88,6452.,7.,1.,3534.,0.,0.,9994.,1.01836302411,7.56498246481,91.
6.9,6457.,7.,2.,3527.,0.,0.,9993.,1.0445222116,7.75930785759,91.
6.92,6458.,7.,7.,3520.,0.,0.,9992.,1.06603456477,7.9191139097,91.
6.94,6457.,17.,4.,3516.,0.,0.,9994.,1.08253274721,3.31127663852,221.
6.96,6451.,17.,8.,3517.,0.,0.,9993.,1.09387336799,3.34596559621,221.
6.98,6443.,17.,10.,3518.,0.,0.,9988.,1.10047930712,3.36617199825,221.
7.,6447.,15.,10.,3518.,0.,0.,9990.,1.10342802329,3.8252171474,195.
7.02,6447.,15.,6.,3524.,0.,0.,9992.,1.10072169871,3.81583522221,195.
7.04,6444.,19.,9.,3523.,0.,0.,9995.,1.09246775602,2.98991175332,247.
7.06,6436.,21.,9.,3526.,0.,0.,9992.,1.07922801809,2.67237414004,273.
7.08,6424.,28.,13.,3525.,0.,0.,9990.,1.06063441565,1.96974962907,364.
7.1,6412.,30.,12.,3532.,0.,0.,9986.,1.03796983537,1.79914771464,390.
7.12,6407.,29.,16.,3537.,0.,0.,9989.,1.01176655517,1.81420209892,377.
7.14,6392.,35.,14.,3545.,0.,0.,9986.,0.98107498087,1.45759711444,455.
7.16,6383.,39.,19.,3548.,0.,0.,9989.,0.947684121723,1.26357882896,507.
7.18,6370.,40.,14.,3564.,0.,0.,9988.,0.911562064582,1.18503068396,520.
7.2,6365.,33.,19.,3571.,0.,0.,9988.,0.874496395999,1.37799432097,429.
7.22,6358.,26.,20.,3586.,0.,0.,9990.,0.835541665607,1.67108333121,338.
7.24,6355.,23.,14.,3601.,0.,0.,9993.,0.79618970781,1.80008107853,299.
7.26,6341.,28.,17.,3609.,0.,0.,9995.,0.755355849175,1.4028037199,364.
7.28,6333.,27.,14.,3619.,0.,0.,9993.,0.715980862129,1.37892610484,351.
7.3,6328.,21.,17.,3621.,0.,0.,9987.,0.678194420619,1.67933856534,273.
7.32,6324.,26.,11.,3627.,0.,0.,9988.,0.641581860227,1.28316372045,338.
7.34,6326.,16.,16.,3632.,0.,0.,9990.,0.607613290206,1.97474319317,208.
7.36,6322.,19.,12.,3635.,0.,0.,9988.,0.575935363502,1.57624415274,247.
7.38,6321.,20.,7.,3642.,0.,0.,9990.,0.547432200683,1.42332372178,260.
7.4,6326.,17.,7.,3635.,0.,0.,9985.,0.523364359483,1.60087921724,221.
7.42,6330.,10.,13.,3634.,0.,0.,9987.,0.502755056346,2.614326293,130.
7.44,6335.,9.,6.,3637.,0.,0.,9987.,0.486582884941,2.81136777966,117.
7.46,6338.,9.,1.,3637.,0.,0.,9985.,0.474877252734,2.74373523802,117.
7.48,6343.,6.,2.,3634.,0.,0.,9985.,0.467949224871,4.05555994888,78.
7.5,6353.,3.,3.,3628.,0.,0.,9987.,0.466142657243,8.07980605888,39.
7.52,6358.,2.,2.,3625.,0.,0.,9987.,0.468961903347,12.193009487,26.
7.54,6366.,0.,1.,3618.,0.,0.,9985.,0.476975164232,inf,0.
7.56,6373.,0.,0.,3612.,0.,0.,9985.,0.489599661558,inf,0.
7.58,6383.,0.,0.,3598.,0.,0.,9981.,0.507269295623,inf,0.
7.6,6393.,0.,0.,3590.,0.,0.,9983.,0.529013383398,inf,0.
7.62,6403.,0.,0.,3580.,0.,0.,9983.,0.554922671277,inf,0.
7.64,6405.,0.,0.,3574.,0.,0.,9979.,0.584022930917,inf,0.
7.66,6406.,0.,0.,3571.,0.,0.,9977.,0.616099033202,inf,0.
7.68,6419.,0.,0.,3560.,0.,0.,9979.,0.651807122605,inf,0.
7.7,6432.,0.,0.,3546.,0.,0.,9978.,0.689962247373,inf,0.
7.72,6446.,0.,0.,3535.,0.,0.,9981.,0.729632312516,inf,0.
7.74,6457.,0.,0.,3526.,0.,0.,9983.,0.770098641237,inf,0.
7.76,6459.,1.,1.,3520.,0.,0.,9981.,0.810192317443,42.1300005071,13.
7.78,6464.,1.,1.,3517.,0.,0.,9983.,0.850067383371,44.2035039353,13.
7.8,6471.,1.,1.,3512.,0.,0.,9985.,0.889327005291,46.2450042752,13.
7.82,6481.,2.,1.,3501.,0.,0.,9985.,0.927725078995,24.1208520539,26.
7.84,6488.,4.,2.,3495.,0.,0.,9989.,0.96327347356,12.5225551563,52.
7.86,6494.,6.,1.,3486.,0.,0.,9987.,0.996630629906,8.63746545918,78.
7.88,6494.,8.,2.,3484.,0.,0.,9988.,1.02560790383,6.6664513749,104.
7.9,6494.,11.,0.,3483.,0.,0.,9988.,1.05103343356,4.96852168593,143.
7.92,6496.,11.,4.,3477.,0.,0.,9988.,1.07273673659,5.07111911844,143.
7.94,6496.,11.,5.,3474.,0.,0.,9986.,1.08994367649,5.15246101612,143.
7.96,6492.,11.,9.,3473.,0.,0.,9985.,1.10170757716,5.20807218292,143.
7.98,6493.,13.,8.,3471.,0.,0.,9985.,1.10935262844,4.43741051376,169.
8.,6493.,16.,7.,3470.,0.,0.,9986.,1.11174623798,3.61317527343,208.
8.02,6483.,17.,9.,3472.,0.,0.,9981.,1.10808799318,3.38944562618,221.
8.04,6474.,21.,3.,3479.,0.,0.,9977.,1.0995338836,2.72265533083,273.
8.06,6473.,19.,9.,3473.,0.,0.,9974.,1.08739127679,2.97601823121,247.
8.08,6467.,26.,6.,3472.,0.,0.,9971.,1.06976852475,2.13953704949,338.
8.1,6460.,23.,11.,3479.,0.,0.,9973.,1.04710318254,2.36736371705,299.
8.12,6451.,25.,15.,3482.,0.,0.,9973.,1.02034920706,2.12232635068,325.
8.14,6449.,29.,15.,3481.,0.,0.,9974.,0.991014500351,1.77699151787,377.
8.16,6419.,48.,15.,3489.,0.,0.,9971.,0.95474948391,1.0343119409,624.
8.18,6406.,44.,22.,3499.,0.,0.,9971.,0.918276695637,1.08523609484,572.
8.2,6387.,45.,20.,3518.,0.,0.,9970.,0.87910329434,1.01585269568,585.
8.22,6373.,45.,18.,3534.,0.,0.,9970.,0.839192968632,0.969734097086,585.
8.24,6369.,36.,20.,3545.,0.,0.,9970.,0.799784498494,1.1552442756,468.
8.26,6361.,35.,11.,3566.,0.,0.,9973.,0.759409836826,1.12826604328,455.
8.28,6356.,33.,5.,3580.,0.,0.,9974.,0.719950003222,1.13446667174,429.
8.3,6352.,26.,19.,3574.,0.,0.,9971.,0.681858981046,1.36371796209,338.
8.32,6348.,25.,12.,3586.,0.,0.,9971.,0.645114718634,1.34183861476,325.
8.34,6350.,20.,9.,3590.,0.,0.,9969.,0.611203305717,1.58912859486,260.
8.36,6356.,21.,9.,3584.,0.,0.,9970.,0.58007816493,1.43638402745,273.
8.38,6359.,17.,9.,3587.,0.,0.,9972.,0.551717287884,1.68760582176,221.
8.4,6359.,12.,8.,3592.,0.,0.,9971.,0.526833198985,2.28294386227,156.
8.42,6355.,11.,7.,3599.,0.,0.,9972.,0.505499897688,2.38963587998,143.
8.44,6362.,8.,0.,3605.,0.,0.,9975.,0.48924457657,3.1800897477,104.
8.46,6369.,4.,4.,3599.,0.,0.,9976.,0.477630453642,6.20919589735,52.
8.48,6379.,3.,2.,3590.,0.,0.,9974.,0.471124108128,8.16615120756,39.
8.5,6385.,4.,1.,3580.,0.,0.,9970.,0.469289443866,6.10076277026,52.
8.52,6393.,2.,0.,3572.,0.,0.,9967.,0.472489689807,12.284731935,26.
8.54,6401.,1.,1.,3564.,0.,0.,9967.,0.480463687443,24.9841117471,13.
8.56,6416.,0.,0.,3554.,0.,0.,9970.,0.493644675029,inf,0.
8.58,6427.,0.,0.,3540.,0.,0.,9967.,0.511483500348,inf,0.
8.6,6437.,1.,0.,3530.,0.,0.,9968.,0.533455879145,27.7397057155,13.
8.62,6444.,1.,0.,3524.,0.,0.,9969.,0.559260276721,29.0815343895,13.
8.64,6455.,1.,0.,3510.,0.,0.,9966.,0.589349815325,30.6461903969,13.
8.66,6459.,1.,0.,3503.,0.,0.,9963.,0.622069229212,32.347599919,13.
8.68,6466.,1.,0.,3494.,0.,0.,9961.,0.657766133312,34.2038389322,13.
8.7,6477.,1.,0.,3483.,0.,0.,9961.,0.695975175103,36.1907091053,13.
8.72,6486.,1.,0.,3474.,0.,0.,9961.,0.735634040729,38.2529701179,13.
8.74,6498.,1.,0.,3462.,0.,0.,9961.,0.776700185254,40.3884096332,13.
8.76,6500.,1.,0.,3458.,0.,0.,9959.,0.817136323062,42.4910887992,13.
8.78,6504.,2.,1.,3448.,0.,0.,9955.,0.857733444747,22.3010695634,26.
8.8,6512.,1.,1.,3441.,0.,0.,9955.,0.89765876785,46.6782559282,13.
8.82,6516.,4.,2.,3431.,0.,0.,9953.,0.935734013714,12.1645421783,52.
8.84,6521.,4.,4.,3422.,0.,0.,9951.,0.971870157628,12.6343120492,52.
8.86,6524.,5.,4.,3417.,0.,0.,9950.,1.00495789787,10.4515621378,65.
8.88,6519.,8.,4.,3418.,0.,0.,9949.,1.03359204619,6.71834830025,104.
8.9,6525.,11.,0.,3416.,0.,0.,9952.,1.0598708049,5.01029835045,143.
8.92,6530.,7.,4.,3405.,0.,0.,9946.,1.0829050959,8.04443785529,91.
8.94,6526.,7.,6.,3405.,0.,0.,9944.,1.09960208686,8.16847264522,91.
8.96,6522.,11.,8.,3402.,0.,0.,9943.,1.11147385027,5.25424001944,143.
8.98,6515.,18.,4.,3408.,0.,0.,9945.,1.11758847785,3.228588936,234.
9.,6510.,18.,10.,3406.,0.,0.,9944.,1.11936494051,3.23372093926,234.
9.02,6503.,22.,14.,3405.,0.,0.,9944.,1.11564216915,2.63697239982,286.
9.04,6489.,23.,15.,3411.,0.,0.,9938.,1.10640639207,2.50144053859,299.
9.06,6486.,22.,13.,3415.,0.,0.,9936.,1.09374218538,2.58520880181,286.
9.08,6474.,29.,17.,3413.,0.,0.,9933.,1.07502343217,1.9276282232,377.
9.1,6466.,24.,20.,3423.,0.,0.,9933.,1.05229630498,2.27997532746,312.
9.12,6447.,31.,16.,3437.,0.,0.,9931.,1.02402909658,1.71772622652,403.
9.14,6438.,39.,23.,3433.,0.,0.,9933.,0.993407725035,1.32454363338,507.
9.16,6420.,40.,27.,3446.,0.,0.,9933.,0.95855131089,1.24611670416,520.
9.18,6408.,42.,26.,3460.,0.,0.,9936.,0.921799068543,1.14127503724,546.
9.2,6398.,39.,20.,3482.,0.,0.,9939.,0.883363996905,1.17781866254,507.
9.22,6391.,42.,18.,3490.,0.,0.,9941.,0.844018216143,1.04497493427,546.
9.24,6365.,47.,15.,3514.,0.,0.,9941.,0.80161387544,0.886891947295,611.
9.26,6351.,40.,24.,3522.,0.,0.,9937.,0.76096286682,0.989251726865,520.
9.28,6350.,31.,10.,3547.,0.,0.,9938.,0.721875905299,1.21088861534,403.
9.3,6351.,26.,13.,3547.,0.,0.,9937.,0.684084286752,1.3681685735,338.
9.32,6353.,28.,7.,3550.,0.,0.,9938.,0.647766690253,1.2029952819,364.
9.34,6354.,23.,9.,3554.,0.,0.,9940.,0.613372627661,1.38675550602,299.
9.36,6351.,17.,8.,3560.,0.,0.,9936.,0.581605249715,1.77902782266,221.
9.38,6356.,13.,6.,3562.,0.,0.,9937.,0.553399339184,2.21359735674,169.
9.4,6351.,12.,15.,3557.,0.,0.,9935.,0.528077017927,2.28833374435,156.
9.42,6360.,13.,7.,3556.,0.,0.,9936.,0.507730578317,2.03092231327,169.
9.44,6361.,12.,6.,3556.,0.,0.,9935.,0.491137147777,2.1282609737,156.
9.46,6368.,9.,6.,3554.,0.,0.,9937.,0.479429734861,2.77003846808,117.
9.48,6376.,6.,7.,3550.,0.,0.,9939.,0.472560816057,4.0955270725,78.
9.5,6381.,5.,6.,3550.,0.,0.,9942.,0.470316297089,4.89128948973,65.
9.52,6386.,1.,5.,3552.,0.,0.,9944.,0.473063987971,24.5993273745,13.
9.54,6396.,0.,2.,3547.,0.,0.,9945.,0.481150419469,inf,0.
9.56,6404.,0.,1.,3540.,0.,0.,9945.,0.493960015338,inf,0.
9.58,6411.,0.,0.,3533.,0.,0.,9944.,0.511390255378,inf,0.
9.6,6417.,1.,0.,3526.,0.,0.,9944.,0.533081915566,27.7202596094,13.
9.62,6424.,0.,1.,3521.,0.,0.,9946.,0.558813790121,inf,0.
9.64,6438.,0.,1.,3505.,0.,0.,9944.,0.589098130801,inf,0.
9.66,6449.,0.,0.,3498.,0.,0.,9947.,0.622105189504,inf,0.
9.68,6460.,2.,0.,3490.,0.,0.,9952.,0.657750064714,17.1015016826,26.
9.7,6463.,1.,2.,3483.,0.,0.,9949.,0.695308465519,36.156040207,13.
9.72,6466.,2.,4.,3476.,0.,0.,9948.,0.734324024473,19.0924246363,26.
9.74,6473.,4.,1.,3473.,0.,0.,9951.,0.774489479208,10.0683632297,52.
9.76,6484.,3.,5.,3461.,0.,0.,9953.,0.815616295027,14.1373491138,39.
9.78,6489.,2.,0.,3462.,0.,0.,9953.,0.855927236472,22.2541081483,26.
9.8,6499.,2.,0.,3454.,0.,0.,9955.,0.895866758639,23.2925357246,26.
9.82,6503.,2.,1.,3447.,0.,0.,9953.,0.933867141065,24.2805456677,26.
9.84,6508.,3.,1.,3441.,0.,0.,9953.,0.969737774288,16.8087880877,39.
9.86,6514.,7.,0.,3435.,0.,0.,9956.,1.0028127852,7.44946640436,91.
9.88,6525.,5.,4.,3424.,0.,0.,9958.,1.03360833434,10.7495266771,65.
9.9,6526.,8.,3.,3420.,0.,0.,9957.,1.05950093168,6.8867560559,104.
9.92,6531.,5.,2.,3417.,0.,0.,9955.,1.08209176119,11.2537543164,65.
9.94,6531.,7.,2.,3414.,0.,0.,9954.,1.0993390347,8.1665185435,91.
9.96,6537.,7.,3.,3408.,0.,0.,9955.,1.11268725875,8.26567677927,91.
9.98,6536.,8.,4.,3406.,0.,0.,9954.,1.12017710025,7.28115115161,104.
10.,6528.,12.,5.,3406.,0.,0.,9951.,1.12167036782,4.86057159387,156.
