t,s,e,i,r,c,o,n,reff,coal,reportr
5.,5977.,15.,8.,4000.,0.,0.,10000.,1.13281954253,3.92710774745,195.
5.02,5976.,16.,10.,3996.,0.,0.,9998.,1.13030432334,3.67348905085,208.
5.04,5972.,19.,10.,4000.,0.,0.,10001.,1.12159978022,3.06964150375,247.
5.06,5972.,20.,11.,3998.,0.,0.,10001.,1.10905126793,2.88353329661,260.
5.08,5961.,19.,23.,3998.,0.,0.,10001.,1.08975034431,2.98247462654,247.
5.1,5944.,35.,13.,4009.,0.,0.,10001.,1.06498576635,1.58226456716,455.
5.12,5940.,30.,14.,4016.,0.,0.,10000.,1.03862722601,1.80028719174,390.
5.14,5942.,33.,12.,4016.,0.,0.,10003.,1.00921808406,1.59028304154,429.
5.16,5948.,30.,17.,4009.,0.,0.,10004.,0.977425576183,1.69420433205,390.
5.18,5938.,33.,12.,4020.,0.,0.,10003.,0.940504587997,1.48200722957,429.
5.2,5935.,28.,15.,4027.,0.,0.,10005.,0.902334223156,1.67576355729,364.
5.22,5924.,34.,19.,4031.,0.,0.,10008.,0.861403195854,1.31744018189,442.
5.24,5913.,31.,19.,4038.,0.,0.,10001.,0.820515884053,1.37634922486,403.
5.26,5905.,33.,15.,4049.,0.,0.,10002.,0.779175597856,1.22779185117,429.
5.28,5900.,29.,10.,4059.,0.,0.,9998.,0.739013448784,1.32512756334,377.
5.3,5903.,21.,15.,4059.,0.,0.,9998.,0.700499923368,1.73457123882,273.
5.32,5905.,20.,7.,4070.,0.,0.,10002.,0.663128128103,1.72413313307,260.
5.34,5903.,18.,15.,4064.,0.,0.,10000.,0.627858817449,1.81381436152,234.
5.36,5897.,18.,15.,4069.,0.,0.,9999.,0.594837030265,1.71841808743,234.
5.38,5897.,17.,10.,4076.,0.,0.,10000.,0.565544540931,1.72990094873,221.
5.4,5898.,9.,15.,4077.,0.,0.,9999.,0.540128228388,3.12074087513,117.
5.42,5896.,11.,11.,4082.,0.,0.,10000.,0.518407064465,2.45065157747,143.
5.44,5898.,10.,6.,4087.,0.,0.,10001.,0.501455327807,2.6075677046,130.
5.46,5909.,9.,1.,4082.,0.,0.,10001.,0.489974426399,2.83096335253,117.
5.48,5914.,4.,4.,4078.,0.,0.,10000.,0.482902061673,6.27772680174,52.
5.5,5920.,2.,3.,4076.,0.,0.,10001.,0.480816066088,12.5012177183,26.
5.52,5924.,3.,2.,4071.,0.,0.,10000.,0.483718602189,8.38445577128,39.
5.54,5930.,0.,3.,4066.,0.,0.,9999.,0.491814099904,inf,0.
5.56,5936.,0.,1.,4059.,0.,0.,9996.,0.504938579322,inf,0.
5.58,5950.,0.,0.,4045.,0.,0.,9995.,0.523416734413,inf,0.
5.6,5961.,0.,0.,4035.,0.,0.,9996.,0.546061489869,inf,0.
5.62,5966.,0.,0.,4027.,0.,0.,9993.,0.572562695056,inf,0.
5.64,5976.,0.,0.,4019.,0.,0.,9995.,0.603047092184,inf,0.
5.66,5981.,1.,0.,4012.,0.,0.,9994.,0.636537027615,33.099925436,13.
5.68,5994.,0.,1.,3999.,0.,0.,9994.,0.673661598797,inf,0.
5.7,6007.,0.,3.,3985.,0.,0.,9995.,0.713055402691,inf,0.
5.72,6017.,1.,1.,3971.,0.,0.,9990.,0.75427199955,39.2221439766,13.
5.74,6024.,2.,1.,3964.,0.,0.,9991.,0.795753019757,20.6895785137,26.
5.76,6029.,2.,1.,3960.,0.,0.,9992.,0.837366147608,21.7715198378,26.
5.78,6039.,1.,1.,3952.,0.,0.,9993.,0.879443346818,45.7310540346,13.
5.8,6045.,2.,0.,3944.,0.,0.,9991.,0.920346034121,23.9289968871,26.
5.82,6061.,1.,2.,3925.,0.,0.,9989.,0.961331703227,49.9892485678,13.
5.84,6064.,5.,0.,3921.,0.,0.,9990.,0.997884154742,10.3779952093,65.
5.86,6068.,6.,1.,3917.,0.,0.,9992.,1.0317531229,8.94186039849,78.
5.88,6080.,5.,1.,3909.,0.,0.,9995.,1.06363847481,11.061840138,65.
5.9,6088.,5.,1.,3901.,0.,0.,9995.,1.0914410282,11.3509866933,65.
5.92,6090.,5.,1.,3896.,0.,0.,9992.,1.11433606789,11.589095106,65.
5.94,6104.,8.,2.,3882.,0.,0.,9996.,1.13413180147,7.37185670954,104.
5.96,6105.,8.,3.,3881.,0.,0.,9997.,1.14703724494,7.45574209214,104.
5.98,6108.,8.,5.,3875.,0.,0.,9996.,1.15550203133,7.51076320367,104.
6.,6110.,16.,5.,3869.,0.,0.,10000.,1.15802700433,3.76358776407,208.
6.02,6110.,10.,13.,3868.,0.,0.,10001.,1.15530250585,6.0075730304,130.
6.04,6098.,22.,5.,3874.,0.,0.,9999.,1.1454928834,2.70752863348,286.
6.06,6100.,27.,9.,3866.,0.,0.,10002.,1.13270869865,2.18151304926,351.
6.08,6092.,30.,15.,3866.,0.,0.,10003.,1.11347621942,1.93002544699,390.
6.1,6078.,30.,8.,3886.,0.,0.,10002.,1.08888565259,1.88740179782,390.
6.12,6079.,25.,13.,3886.,0.,0.,10003.,1.0626130186,2.21023507869,325.
6.14,6069.,26.,19.,3891.,0.,0.,10005.,1.03058232504,2.06116465009,338.
6.16,6066.,29.,13.,3898.,0.,0.,10006.,0.996617088682,1.78703753833,377.
6.18,6058.,31.,18.,3902.,0.,0.,10009.,0.958935891198,1.60853762395,403.
6.2,6047.,32.,22.,3908.,0.,0.,10009.,0.91899485155,1.49336663377,416.
6.22,6034.,39.,14.,3922.,0.,0.,10009.,0.877310530126,1.1697473735,507.
6.24,6035.,27.,20.,3926.,0.,0.,10008.,0.836859438814,1.61172928957,351.
6.26,6017.,35.,15.,3941.,0.,0.,10008.,0.793478211878,1.17888191479,455.
6.28,6016.,34.,16.,3942.,0.,0.,10008.,0.752790263874,1.15132628593,442.
6.3,6007.,31.,17.,3952.,0.,0.,10007.,0.712200334756,1.19465862604,403.
6.32,6007.,35.,11.,3961.,0.,0.,10014.,0.673774302369,1.00103610638,455.
6.34,6005.,23.,17.,3969.,0.,0.,10014.,0.637814868566,1.44201622458,299.
6.36,5993.,22.,18.,3981.,0.,0.,10014.,0.603615145096,1.42672670659,286.
6.38,5989.,19.,14.,3991.,0.,0.,10013.,0.573621979342,1.56991278557,247.
6.4,5989.,13.,14.,3995.,0.,0.,10011.,0.547804413622,2.19121765449,169.
6.42,5991.,9.,8.,4004.,0.,0.,10012.,0.526128605512,3.03985416518,117.
6.44,6001.,5.,4.,4001.,0.,0.,10011.,0.509702864576,5.30090979159,65.
6.46,6013.,4.,3.,3996.,0.,0.,10016.,0.497851406536,6.47206828497,52.
6.48,6026.,2.,2.,3982.,0.,0.,10012.,0.491457566382,12.7778967259,26.
6.5,6024.,6.,6.,3975.,0.,0.,10011.,0.48877410958,4.23604228302,78.
6.52,6028.,4.,0.,3975.,0.,0.,10007.,0.491866317143,6.39426212286,52.
6.54,6036.,2.,2.,3968.,0.,0.,10008.,0.500155195916,13.0040350938,26.
6.56,6042.,1.,0.,3965.,0.,0.,10008.,0.513339086262,26.6936324856,13.
6.58,6051.,0.,1.,3958.,0.,0.,10010.,0.531503968738,inf,0.
6.6,6056.,0.,0.,3951.,0.,0.,10007.,0.554154216406,inf,0.
6.62,6073.,0.,0.,3937.,0.,0.,10010.,0.581841762964,inf,0.
6.64,6081.,0.,0.,3930.,0.,0.,10011.,0.612662049471,inf,0.
6.66,6091.,0.,0.,3920.,0.,0.,10011.,0.647143141204,inf,0.
6.68,6093.,1.,0.,3915.,0.,0.,10009.,0.68376188314,35.5556179233,13.
6.7,6101.,1.,0.,3910.,0.,0.,10012.,0.722983898648,37.5951627297,13.
6.72,6112.,1.,1.,3902.,0.,0.,10016.,0.764192009552,39.7379844967,13.
6.74,6121.,1.,1.,3896.,0.,0.,10019.,0.80630674728,41.9279508586,13.
6.76,6127.,2.,1.,3889.,0.,0.,10019.,0.848684059002,22.0657855341,26.
6.78,6130.,5.,0.,3885.,0.,0.,10020.,0.890289965622,9.25901564247,65.
6.8,6142.,6.,1.,3873.,0.,0.,10022.,0.932221709883,8.07925481899,78.
6.82,6149.,4.,0.,3870.,0.,0.,10023.,0.971980957843,12.635752452,52.
6.84,6160.,4.,0.,3863.,0.,0.,10027.,1.00994126985,13.1292365081,52.
6.86,6160.,7.,0.,3860.,0.,0.,10027.,1.043740036,7.75349741028,91.
6.88,6170.,8.,0.,3851.,0.,0.,10029.,1.07572383261,6.99220491198,104.
6.9,6177.,6.,0.,3847.,0.,0.,10030.,1.10353242434,9.56394767763,78.
6.92,6176.,7.,6.,3840.,0.,0.,10029.,1.12590300012,8.36385085804,91.
6.94,6177.,12.,3.,3836.,0.,0.,10028.,1.144032934,4.95747604733,156.
6.96,6186.,10.,3.,3826.,0.,0.,10025.,1.15900971985,6.0268505432,130.
6.98,6184.,16.,4.,3821.,0.,0.,10025.,1.16649540392,3.79111006273,208.
7.,6181.,18.,11.,3817.,0.,0.,10027.,1.16832913062,3.37517304402,234.
7.02,6173.,24.,9.,3819.,0.,0.,10025.,1.1644204606,2.52291099798,312.
7.04,6162.,23.,13.,3823.,0.,0.,10021.,1.15497391437,2.61124537162,299.
7.06,6152.,25.,16.,3830.,0.,0.,10023.,1.13997111543,2.3711399201,325.
7.08,6125.,38.,20.,3837.,0.,0.,10020.,1.11760848894,1.52935898487,494.
7.1,6113.,37.,29.,3841.,0.,0.,10020.,1.09318862536,1.53637320321,481.
7.12,6095.,44.,18.,3865.,0.,0.,10022.,1.06338999361,1.25673362882,572.
7.14,6081.,36.,27.,3879.,0.,0.,10023.,1.03076560493,1.48888365156,468.
7.16,6066.,46.,16.,3897.,0.,0.,10025.,0.994728238339,1.12447539986,598.
7.18,6059.,40.,16.,3912.,0.,0.,10027.,0.957372462802,1.24458420164,520.
7.2,6044.,40.,22.,3921.,0.,0.,10027.,0.916890007557,1.19195700982,520.
7.22,6031.,40.,22.,3931.,0.,0.,10024.,0.875562184238,1.13823083951,520.
7.24,6030.,43.,14.,3940.,0.,0.,10027.,0.834581662813,1.00926154573,559.
7.26,6029.,34.,17.,3947.,0.,0.,10027.,0.793554137007,1.21367103307,442.
7.28,6030.,32.,18.,3950.,0.,0.,10030.,0.752887075376,1.22344149749,416.
7.3,6024.,34.,17.,3959.,0.,0.,10034.,0.712294035628,1.08939087802,442.
7.32,6026.,34.,10.,3965.,0.,0.,10035.,0.674490983838,1.03157444587,442.
7.34,6027.,29.,8.,3971.,0.,0.,10035.,0.638811946223,1.14545590357,377.
7.36,6033.,20.,13.,3969.,0.,0.,10035.,0.60637234465,1.57656809609,260.
7.38,6037.,17.,13.,3971.,0.,0.,10038.,0.576779307582,1.76426611731,221.
7.4,6048.,13.,2.,3976.,0.,0.,10039.,0.551658105403,2.20663242161,169.
7.42,6056.,12.,3.,3969.,0.,0.,10040.,0.530353684043,2.29819929752,156.
7.44,6063.,5.,6.,3963.,0.,0.,10037.,0.513634933057,5.34180330379,65.
7.46,6065.,7.,4.,3961.,0.,0.,10037.,0.50110614851,3.7225028175,91.
7.48,6073.,4.,12.,3950.,0.,0.,10039.,0.493958617283,6.42146202468,52.
7.5,6078.,4.,3.,3956.,0.,0.,10041.,0.491682125194,6.39186762752,52.
7.52,6087.,1.,3.,3952.,0.,0.,10043.,0.494900142004,25.7348073842,13.
7.54,6086.,0.,2.,3953.,0.,0.,10041.,0.502640908188,inf,0.
7.56,6094.,0.,0.,3945.,0.,0.,10039.,0.51615828728,inf,0.
7.58,6106.,1.,0.,3932.,0.,0.,10039.,0.53478569529,27.8088561551,13.
7.6,6110.,2.,0.,3927.,0.,0.,10039.,0.55731333069,14.4901465979,26.
7.62,6114.,0.,2.,3919.,0.,0.,10035.,0.584310572358,inf,0.
7.64,6122.,0.,1.,3911.,0.,0.,10034.,0.615378991749,inf,0.
7.66,6130.,0.,1.,3905.,0.,0.,10036.,0.64966435097,inf,0.
7.68,6141.,0.,0.,3895.,0.,0.,10036.,0.687294459446,inf,0.
7.7,6149.,1.,0.,3886.,0.,0.,10036.,0.726929480093,37.8003329648,13.
7.72,6154.,1.,0.,3881.,0.,0.,10036.,0.767909962451,39.9313180475,13.
7.74,6168.,1.,0.,3868.,0.,0.,10037.,0.811040855624,42.1741244924,13.
7.76,6175.,1.,1.,3860.,0.,0.,10037.,0.853798876271,44.3975415661,13.
7.78,6186.,1.,1.,3852.,0.,0.,10040.,0.896633432793,46.6249385052,13.
7.8,6192.,2.,2.,3844.,0.,0.,10040.,0.93812570049,24.3912682127,26.
7.82,6201.,4.,1.,3836.,0.,0.,10042.,0.978346077974,12.7184990137,52.
7.84,6205.,5.,1.,3827.,0.,0.,10038.,1.01620427287,10.5685244379,65.
7.86,6208.,3.,4.,3820.,0.,0.,10035.,1.05103451175,18.217931537,39.
7.88,6216.,6.,3.,3814.,0.,0.,10039.,1.08266428217,9.38309044548,78.
7.9,6207.,14.,4.,3811.,0.,0.,10036.,1.10822903101,4.11627925804,182.
7.92,6208.,13.,5.,3810.,0.,0.,10036.,1.13094732048,4.52378928193,169.
7.94,6211.,11.,7.,3806.,0.,0.,10035.,1.14952760062,5.43413047568,143.
7.96,6206.,12.,4.,3811.,0.,0.,10033.,1.16182977635,5.0345956975,156.
7.98,6204.,16.,2.,3815.,0.,0.,10037.,1.16886888332,3.7988238708,208.
8.,6208.,17.,6.,3809.,0.,0.,10040.,1.17191327047,3.58467588613,221.
8.02,6211.,18.,8.,3806.,0.,0.,10043.,1.16948861666,3.37852267034,234.
8.04,6207.,19.,12.,3808.,0.,0.,10046.,1.16051328203,3.17614161399,247.
8.06,6207.,21.,6.,3813.,0.,0.,10047.,1.14741518749,2.8412185595,273.
8.08,6202.,22.,11.,3811.,0.,0.,10046.,1.12872958499,2.6679062918,286.
8.1,6197.,22.,17.,3810.,0.,0.,10046.,1.10534220342,2.61262702626,286.
8.12,6179.,34.,10.,3819.,0.,0.,10042.,1.07589833633,1.64549157321,442.
8.14,6183.,26.,12.,3825.,0.,0.,10046.,1.0456557212,2.0913114424,338.
8.16,6176.,23.,20.,3829.,0.,0.,10048.,1.01044826639,2.2844917327,299.
8.18,6160.,34.,22.,3831.,0.,0.,10047.,0.971393747893,1.48566102619,442.
8.2,6152.,34.,24.,3836.,0.,0.,10046.,0.931508778394,1.4246604846,442.
8.22,6144.,33.,19.,3852.,0.,0.,10048.,0.88983668471,1.40216689712,429.
8.24,6130.,35.,15.,3869.,0.,0.,10049.,0.846564727388,1.25775330926,455.
8.26,6125.,30.,13.,3884.,0.,0.,10052.,0.804184881626,1.39392046148,390.
8.28,6127.,24.,11.,3893.,0.,0.,10055.,0.76309615987,1.65337501305,312.
8.3,6133.,24.,12.,3891.,0.,0.,10060.,0.723308261024,1.56716789889,312.
8.32,6137.,16.,13.,3892.,0.,0.,10058.,0.685344434226,2.22736941124,208.
8.34,6127.,18.,14.,3899.,0.,0.,10058.,0.647926083352,1.87178646302,234.
8.36,6125.,26.,2.,3906.,0.,0.,10059.,0.614150376218,1.22830075244,338.
8.38,6132.,14.,11.,3900.,0.,0.,10057.,0.584748858755,2.17192433252,182.
8.4,6136.,13.,9.,3898.,0.,0.,10056.,0.558738711015,2.23495484406,169.
8.42,6135.,9.,15.,3895.,0.,0.,10054.,0.53652396133,3.09991622102,117.
8.44,6142.,11.,7.,3899.,0.,0.,10059.,0.519189514529,2.45435043232,143.
8.46,6149.,8.,5.,3895.,0.,0.,10057.,0.507036114019,3.29573474112,104.
8.48,6160.,6.,0.,3892.,0.,0.,10058.,0.500088445404,4.33409986017,78.
8.5,6173.,5.,1.,3881.,0.,0.,10060.,0.498424047559,5.18361009462,65.
8.52,6185.,1.,5.,3872.,0.,0.,10063.,0.501868537891,26.0971639703,13.
8.54,6188.,4.,1.,3870.,0.,0.,10063.,0.509947753376,6.62932079389,52.
8.56,6199.,2.,2.,3861.,0.,0.,10064.,0.523747444843,13.6174335659,26.
8.58,6209.,0.,4.,3851.,0.,0.,10064.,0.542455938585,inf,0.
8.6,6218.,0.,0.,3849.,0.,0.,10067.,0.565586877245,inf,0.
8.62,6226.,0.,0.,3845.,0.,0.,10071.,0.592887381369,inf,0.
8.64,6234.,0.,0.,3834.,0.,0.,10068.,0.624520974057,inf,0.
8.66,6243.,0.,0.,3824.,0.,0.,10067.,0.659602785231,inf,0.
8.68,6255.,0.,0.,3815.,0.,0.,10070.,0.697689587716,inf,0.
8.7,6263.,0.,0.,3808.,0.,0.,10071.,0.737833308607,inf,0.
8.72,6277.,0.,0.,3794.,0.,0.,10071.,0.780536102239,inf,0.
8.74,6286.,0.,0.,3787.,0.,0.,10073.,0.823602836917,inf,0.
8.76,6289.,1.,0.,3781.,0.,0.,10071.,0.866625651809,45.0645338941,13.
8.78,6301.,1.,2.,3768.,0.,0.,10072.,0.910400500982,47.3408260511,13.
8.8,6307.,0.,2.,3759.,0.,0.,10068.,0.952891434524,inf,0.
8.82,6317.,1.,1.,3748.,0.,0.,10067.,0.994172629208,51.6969767188,13.
8.84,6321.,2.,3.,3741.,0.,0.,10067.,1.03221970128,26.8377122334,26.
8.86,6320.,9.,2.,3733.,0.,0.,10064.,1.06691321766,6.16438747982,117.
8.88,6318.,13.,3.,3730.,0.,0.,10064.,1.0976964287,4.3907857148,169.
8.9,6327.,7.,6.,3725.,0.,0.,10065.,1.12639959379,8.36753983962,91.
8.92,6330.,14.,4.,3718.,0.,0.,10066.,1.14973593199,4.27044774739,182.
8.94,6332.,9.,12.,3714.,0.,0.,10067.,1.16819700501,6.74958269562,117.
8.96,6331.,14.,10.,3710.,0.,0.,10065.,1.18146287134,4.38829066496,182.
8.98,6325.,20.,13.,3708.,0.,0.,10066.,1.18823279909,3.08940527764,260.
9.,6325.,22.,4.,3711.,0.,0.,10062.,1.19138929511,2.81601106117,286.
9.02,6316.,20.,8.,3713.,0.,0.,10057.,1.18760386842,3.0877700579,260.
9.04,6313.,14.,16.,3712.,0.,0.,10055.,1.1792754516,4.38016596309,182.
9.06,6303.,27.,12.,3714.,0.,0.,10056.,1.16411877424,2.24200652817,351.
9.08,6293.,32.,15.,3721.,0.,0.,10061.,1.14358355929,1.85832328384,416.
9.1,6284.,26.,17.,3734.,0.,0.,10061.,1.1191890626,2.23837812521,338.
9.12,6268.,31.,16.,3745.,0.,0.,10060.,1.08944237816,1.8274517311,403.
9.14,6267.,31.,15.,3748.,0.,0.,10061.,1.05828146785,1.77518181704,403.
9.16,6264.,35.,13.,3752.,0.,0.,10064.,1.02321651964,1.52020740061,455.
9.18,6258.,24.,21.,3759.,0.,0.,10062.,0.985376588861,2.1349826092,312.
9.2,6242.,38.,19.,3765.,0.,0.,10064.,0.9434457561,1.29103103466,494.
9.22,6223.,39.,29.,3776.,0.,0.,10067.,0.899577237886,1.19943631718,507.
9.24,6213.,42.,20.,3794.,0.,0.,10069.,0.856322891437,1.06020929416,546.
9.26,6202.,41.,12.,3814.,0.,0.,10069.,0.812919819766,1.03102025922,533.
9.28,6199.,30.,18.,3822.,0.,0.,10069.,0.770990023102,1.33638270671,390.
9.3,6187.,31.,21.,3829.,0.,0.,10068.,0.7290970658,1.22300152973,403.
9.32,6177.,25.,18.,3845.,0.,0.,10065.,0.689331651763,1.43380983567,325.
9.34,6181.,24.,12.,3848.,0.,0.,10065.,0.653181955887,1.41522757109,312.
9.36,6182.,21.,18.,3846.,0.,0.,10067.,0.619373142602,1.53368587692,273.
9.38,6182.,18.,5.,3863.,0.,0.,10068.,0.588872780918,1.70118803376,234.
9.4,6186.,12.,7.,3864.,0.,0.,10069.,0.562564405548,2.43777909071,156.
9.42,6179.,13.,8.,3867.,0.,0.,10067.,0.539674083796,2.15869633519,169.
9.44,6181.,13.,6.,3865.,0.,0.,10065.,0.522174757045,2.08869902818,169.
9.46,6187.,6.,7.,3864.,0.,0.,10064.,0.509814681942,4.41839391016,78.
9.48,6192.,7.,5.,3859.,0.,0.,10063.,0.502436537853,3.73238570976,91.
9.5,6196.,6.,4.,3856.,0.,0.,10062.,0.500181687577,4.334907959,78.
9.52,6208.,3.,1.,3852.,0.,0.,10064.,0.503684770338,8.73053601919,39.
9.54,6221.,3.,1.,3845.,0.,0.,10070.,0.512310882499,8.88005529665,39.
9.56,6230.,1.,1.,3835.,0.,0.,10067.,0.526209745486,27.3629067653,13.
9.58,6240.,1.,0.,3827.,0.,0.,10068.,0.544947693921,28.3372800839,13.
9.6,6244.,0.,2.,3822.,0.,0.,10068.,0.567895415614,inf,0.
9.62,6257.,1.,1.,3812.,0.,0.,10071.,0.59583943868,30.9836508114,13.
9.64,6260.,1.,1.,3807.,0.,0.,10069.,0.627063366464,32.6072950562,13.
9.66,6263.,1.,0.,3804.,0.,0.,10068.,0.661650156151,34.4058081198,13.
9.68,6269.,0.,1.,3797.,0.,0.,10067.,0.699459542341,inf,0.
9.7,6275.,2.,0.,3791.,0.,0.,10068.,0.739467284288,19.2261493915,26.
9.72,6282.,0.,3.,3784.,0.,0.,10069.,0.78131300615,inf,0.
9.74,6290.,2.,0.,3781.,0.,0.,10073.,0.824126923991,21.4273000238,26.
9.76,6295.,2.,1.,3776.,0.,0.,10074.,0.867194129057,22.5470473555,26.
9.78,6299.,1.,1.,3770.,0.,0.,10071.,0.910201900347,47.3304988181,13.
9.8,6303.,2.,0.,3764.,0.,0.,10069.,0.952192519443,24.7570055055,26.
9.82,6314.,2.,1.,3754.,0.,0.,10071.,0.993305809721,25.8259510528,26.
9.84,6316.,6.,0.,3748.,0.,0.,10070.,1.0310959309,8.93616473443,78.
9.86,6323.,5.,1.,3740.,0.,0.,10069.,1.06688961134,11.0956519579,65.
9.88,6322.,5.,2.,3736.,0.,0.,10065.,1.0982822634,11.4221355394,65.
9.9,6328.,6.,2.,3729.,0.,0.,10065.,1.12657762439,9.76367274473,78.
9.92,6336.,7.,2.,3720.,0.,0.,10065.,1.15094006845,8.54984050848,91.
9.94,6336.,6.,5.,3719.,0.,0.,10066.,1.16905109607,10.1317761659,78.
9.96,6340.,10.,5.,3713.,0.,0.,10068.,1.18278986562,6.15050730124,130.
9.98,6346.,14.,6.,3705.,0.,0.,10071.,1.19158603328,4.42589098077,182.
10.,6346.,14.,5.,3703.,0.,0.,10068.,1.19463253306,4.43720655137,182.
