t,s,e,i,r,c,o,n,reff,coal,reportr
5.,6223.,12.,6.,3759.,0.,0.,10000.,1.13151969925,4.90325203008,156.
5.02,6220.,12.,12.,3753.,0.,0.,9997.,1.12876482289,4.89131423253,156.
5.04,6216.,18.,11.,3751.,0.,0.,9996.,1.12054975153,3.23714372665,234.
5.06,6210.,20.,15.,3752.,0.,0.,9997.,1.10683274884,2.87776514699,260.
5.08,6203.,24.,11.,3760.,0.,0.,9998.,1.08824031474,2.35785401526,312.
5.1,6195.,19.,11.,3772.,0.,0.,9997.,1.06528273897,2.91551065403,247.
5.12,6192.,23.,8.,3772.,0.,0.,9995.,1.03921701446,2.34953411964,299.
5.14,6187.,29.,9.,3772.,0.,0.,9997.,1.00873690697,1.80876962629,377.
5.16,6181.,29.,14.,3773.,0.,0.,9997.,0.975125054582,1.74850009787,377.
5.18,6180.,28.,14.,3771.,0.,0.,9993.,0.940001232979,1.74571657553,364.
5.2,6163.,31.,25.,3773.,0.,0.,9992.,0.900095069858,1.50983689138,403.
5.22,6152.,32.,20.,3789.,0.,0.,9993.,0.859496290107,1.39668147142,416.
5.24,6141.,30.,19.,3802.,0.,0.,9992.,0.818265149502,1.41832625914,390.
5.26,6130.,30.,24.,3808.,0.,0.,9992.,0.776774896655,1.34640982087,390.
5.28,6113.,36.,15.,3826.,0.,0.,9990.,0.735169043984,1.06191084131,468.
5.3,6110.,27.,25.,3830.,0.,0.,9992.,0.696020558647,1.34048403888,351.
5.32,6096.,22.,22.,3851.,0.,0.,9991.,0.657484076339,1.55405327135,286.
5.34,6092.,24.,13.,3863.,0.,0.,9992.,0.622130546077,1.3479495165,312.
5.36,6090.,18.,13.,3869.,0.,0.,9990.,0.589875126242,1.70408369803,234.
5.38,6096.,20.,4.,3870.,0.,0.,9990.,0.561435666167,1.45973273204,260.
5.4,6098.,15.,7.,3867.,0.,0.,9987.,0.536396440222,1.85950765944,195.
5.42,6098.,11.,9.,3866.,0.,0.,9984.,0.515206253201,2.43552046968,143.
5.44,6096.,10.,4.,3870.,0.,0.,9980.,0.498276227354,2.59103638224,130.
5.46,6104.,9.,2.,3862.,0.,0.,9977.,0.486745835803,2.81230927353,117.
5.48,6106.,6.,2.,3856.,0.,0.,9970.,0.479760206287,4.15792178782,78.
5.5,6117.,6.,1.,3848.,0.,0.,9972.,0.478015240749,4.14279875316,78.
5.52,6126.,2.,3.,3841.,0.,0.,9972.,0.481235108261,12.5121128148,26.
5.54,6131.,0.,2.,3840.,0.,0.,9973.,0.489094961746,inf,0.
5.56,6146.,1.,0.,3832.,0.,0.,9979.,0.5024134807,26.1255009964,13.
5.58,6164.,0.,0.,3823.,0.,0.,9987.,0.520626006097,inf,0.
5.6,6172.,0.,0.,3816.,0.,0.,9988.,0.542851322961,inf,0.
5.62,6179.,0.,0.,3806.,0.,0.,9985.,0.569364852769,inf,0.
5.64,6184.,0.,0.,3800.,0.,0.,9984.,0.599339895047,inf,0.
5.66,6188.,0.,0.,3792.,0.,0.,9980.,0.632694151282,inf,0.
5.68,6189.,1.,1.,3784.,0.,0.,9975.,0.668585291379,34.7664351517,13.
5.7,6201.,1.,0.,3777.,0.,0.,9979.,0.70730705765,36.7799669978,13.
5.72,6209.,0.,0.,3768.,0.,0.,9977.,0.747687279221,inf,0.
5.74,6220.,0.,0.,3758.,0.,0.,9978.,0.789285306191,inf,0.
5.76,6226.,1.,0.,3752.,0.,0.,9979.,0.830671817712,43.194934521,13.
5.78,6232.,2.,0.,3746.,0.,0.,9980.,0.87180723823,22.666988194,26.
5.8,6236.,1.,2.,3739.,0.,0.,9978.,0.912034459154,47.425791876,13.
5.82,6248.,1.,3.,3727.,0.,0.,9979.,0.951677570513,49.4872336667,13.
5.84,6245.,5.,1.,3724.,0.,0.,9975.,0.987394723514,10.2689051245,65.
5.86,6252.,5.,2.,3718.,0.,0.,9977.,1.02137796444,10.6223308302,65.
5.88,6253.,5.,4.,3716.,0.,0.,9978.,1.05124278571,10.9329249714,65.
5.9,6259.,6.,4.,3708.,0.,0.,9977.,1.07844561973,9.34652870436,78.
5.92,6269.,7.,3.,3699.,0.,0.,9978.,1.102023694,8.18646172689,91.
5.94,6276.,8.,2.,3693.,0.,0.,9979.,1.12061389902,7.28399034361,104.
5.96,6276.,10.,5.,3689.,0.,0.,9980.,1.13317968184,5.89253434557,130.
5.98,6277.,10.,6.,3686.,0.,0.,9979.,1.14116351996,5.93405030379,130.
6.,6278.,15.,2.,3679.,0.,0.,9974.,1.1444959646,3.96758601061,195.
6.02,6274.,20.,5.,3673.,0.,0.,9972.,1.14141879218,2.96768885966,260.
6.04,6271.,16.,12.,3674.,0.,0.,9973.,1.13307163332,3.68248280828,208.
6.06,6259.,28.,8.,3677.,0.,0.,9972.,1.11836295818,2.07695977947,364.
6.08,6267.,25.,12.,3676.,0.,0.,9980.,1.10145133925,2.29101878563,325.
6.1,6252.,29.,14.,3681.,0.,0.,9976.,1.07734748056,1.93179548239,377.
6.12,6240.,33.,11.,3688.,0.,0.,9972.,1.04968845149,1.65405452962,429.
6.14,6228.,33.,21.,3690.,0.,0.,9972.,1.01796728473,1.60406966079,429.
6.16,6217.,39.,10.,3708.,0.,0.,9974.,0.9830662065,1.310754942,507.
6.18,6211.,31.,19.,3716.,0.,0.,9977.,0.94623148041,1.5872269994,403.
6.2,6203.,29.,18.,3724.,0.,0.,9974.,0.907571935378,1.62737036688,377.
6.22,6187.,36.,13.,3738.,0.,0.,9974.,0.866032757082,1.25093620467,468.
6.24,6186.,35.,13.,3743.,0.,0.,9977.,0.825500472328,1.2264578446,455.
6.26,6170.,34.,17.,3753.,0.,0.,9974.,0.783254561611,1.19791874129,442.
6.28,6162.,32.,16.,3761.,0.,0.,9971.,0.742474054421,1.20652033843,416.
6.3,6158.,27.,17.,3768.,0.,0.,9970.,0.703036396336,1.35399602257,351.
6.32,6152.,28.,14.,3777.,0.,0.,9971.,0.66485486385,1.23473046143,364.
6.34,6147.,27.,7.,3788.,0.,0.,9969.,0.629195594584,1.21178410809,351.
6.36,6150.,20.,13.,3790.,0.,0.,9973.,0.596702112841,1.55142549339,260.
6.38,6149.,15.,14.,3795.,0.,0.,9973.,0.567282259764,1.96657850052,195.
6.4,6150.,15.,10.,3801.,0.,0.,9976.,0.54156699888,1.87743226278,195.
6.42,6157.,11.,5.,3804.,0.,0.,9977.,0.520556003163,2.46081019677,143.
6.44,6163.,6.,10.,3795.,0.,0.,9974.,0.50405572803,4.36848297626,78.
6.46,6165.,6.,3.,3801.,0.,0.,9975.,0.491708672919,4.2614751653,78.
6.48,6168.,5.,0.,3802.,0.,0.,9975.,0.484388742823,5.03764292536,65.
6.5,6172.,6.,0.,3798.,0.,0.,9976.,0.482119846782,4.17837200544,78.
6.52,6175.,3.,4.,3795.,0.,0.,9977.,0.484841259364,8.40391516232,39.
6.54,6189.,2.,1.,3788.,0.,0.,9980.,0.49337556122,12.8277645917,26.
6.56,6204.,1.,2.,3773.,0.,0.,9980.,0.507103955791,26.3694057011,13.
6.58,6212.,0.,0.,3768.,0.,0.,9980.,0.52504821169,inf,0.
6.6,6224.,1.,0.,3755.,0.,0.,9980.,0.54786374209,28.4889145887,13.
6.62,6227.,1.,1.,3750.,0.,0.,9979.,0.574132816929,29.8549064803,13.
6.64,6239.,1.,1.,3737.,0.,0.,9978.,0.605033978152,31.4617668639,13.
6.66,6245.,2.,0.,3730.,0.,0.,9977.,0.638714133782,16.6065674783,26.
6.68,6251.,0.,2.,3724.,0.,0.,9977.,0.675147659421,inf,0.
6.7,6261.,3.,0.,3714.,0.,0.,9978.,0.714222433366,12.3798555117,39.
6.72,6270.,0.,3.,3706.,0.,0.,9979.,0.754881569941,inf,0.
6.74,6278.,1.,0.,3700.,0.,0.,9979.,0.796565369161,41.4213991964,13.
6.76,6287.,0.,0.,3692.,0.,0.,9979.,0.838810426912,inf,0.
6.78,6292.,2.,0.,3686.,0.,0.,9980.,0.880200761063,22.8852197876,26.
6.8,6296.,2.,2.,3680.,0.,0.,9980.,0.92062511539,23.9362530002,26.
6.82,6303.,4.,1.,3668.,0.,0.,9976.,0.960343723322,12.4844684032,52.
6.84,6308.,2.,3.,3662.,0.,0.,9975.,0.997355631053,25.9312464074,26.
6.86,6312.,5.,3.,3655.,0.,0.,9975.,1.03138680913,10.7264228149,65.
6.88,6310.,7.,4.,3651.,0.,0.,9972.,1.06146380271,7.88515967725,91.
6.9,6311.,12.,0.,3647.,0.,0.,9970.,1.08816885942,4.71539839082,156.
6.92,6314.,11.,4.,3641.,0.,0.,9970.,1.11082483584,5.25117195126,143.
6.94,6314.,14.,6.,3634.,0.,0.,9968.,1.12864312557,4.19210303783,182.
6.96,6309.,11.,12.,3635.,0.,0.,9967.,1.1406238662,5.39204009476,143.
6.98,6302.,13.,12.,3640.,0.,0.,9967.,1.14708794183,4.58835176732,169.
7.,6298.,17.,8.,3643.,0.,0.,9966.,1.14906366458,3.51478297402,221.
7.02,6298.,15.,15.,3641.,0.,0.,9969.,1.14612987823,3.97325024455,195.
7.04,6292.,19.,8.,3650.,0.,0.,9969.,1.13732216541,3.11267118956,247.
7.06,6285.,22.,15.,3646.,0.,0.,9968.,1.1234593038,2.65544926353,286.
7.08,6279.,30.,18.,3646.,0.,0.,9973.,1.10433497285,1.91418061961,390.
7.1,6266.,39.,10.,3660.,0.,0.,9975.,1.07986821354,1.43982428472,507.
7.12,6256.,43.,14.,3658.,0.,0.,9971.,1.05248550441,1.27277316813,559.
7.14,6248.,29.,25.,3668.,0.,0.,9970.,1.02144114877,1.83154964608,377.
7.16,6229.,40.,21.,3679.,0.,0.,9969.,0.985457725746,1.28109504347,520.
7.18,6208.,39.,26.,3696.,0.,0.,9969.,0.946533409715,1.26204454629,507.
7.2,6198.,43.,21.,3710.,0.,0.,9972.,0.907022253839,1.09686412092,559.
7.22,6193.,39.,8.,3731.,0.,0.,9971.,0.867133432446,1.15617790993,507.
7.24,6188.,32.,18.,3730.,0.,0.,9968.,0.826512941939,1.34308353065,416.
7.26,6177.,29.,13.,3747.,0.,0.,9966.,0.78477263574,1.40717851926,377.
7.28,6178.,22.,17.,3747.,0.,0.,9964.,0.744924896547,1.76073157366,286.
7.3,6172.,21.,18.,3753.,0.,0.,9964.,0.705059033611,1.74586046418,273.
7.32,6171.,26.,8.,3762.,0.,0.,9967.,0.66717586577,1.33435173154,338.
7.34,6172.,20.,15.,3759.,0.,0.,9966.,0.631944721476,1.64305627584,260.
7.36,6166.,23.,11.,3763.,0.,0.,9963.,0.598854984852,1.35393300923,299.
7.38,6175.,19.,6.,3766.,0.,0.,9966.,0.570081053361,1.56022183025,247.
7.4,6180.,14.,9.,3763.,0.,0.,9966.,0.54475485453,2.02337517397,182.
7.42,6178.,13.,3.,3771.,0.,0.,9965.,0.522960489872,2.09184195949,169.
7.44,6189.,10.,5.,3756.,0.,0.,9960.,0.506893701438,2.63584724748,130.
7.46,6199.,7.,5.,3749.,0.,0.,9960.,0.495165057353,3.67836899748,91.
7.48,6206.,6.,2.,3749.,0.,0.,9963.,0.487959999114,4.22898665899,78.
7.5,6211.,4.,5.,3746.,0.,0.,9966.,0.485653115778,6.31349050511,52.
7.52,6220.,4.,2.,3740.,0.,0.,9966.,0.488913560225,6.35587628292,52.
7.54,6223.,3.,0.,3736.,0.,0.,9962.,0.496982338872,8.61436054045,39.
7.56,6231.,1.,2.,3728.,0.,0.,9962.,0.510231144474,26.5320195126,13.
7.58,6242.,2.,2.,3718.,0.,0.,9964.,0.528431043885,13.739207141,26.
7.6,6254.,1.,0.,3704.,0.,0.,9959.,0.551665292246,28.6865951968,13.
7.62,6263.,1.,0.,3694.,0.,0.,9958.,0.578669800569,30.0908296296,13.
7.64,6272.,0.,1.,3686.,0.,0.,9959.,0.609394592541,inf,0.
7.66,6276.,0.,2.,3680.,0.,0.,9958.,0.643109417092,inf,0.
7.68,6283.,0.,0.,3677.,0.,0.,9960.,0.679762122049,inf,0.
7.7,6289.,0.,0.,3671.,0.,0.,9960.,0.718713064154,inf,0.
7.72,6297.,0.,0.,3663.,0.,0.,9960.,0.759578492359,inf,0.
7.74,6307.,0.,0.,3653.,0.,0.,9960.,0.801771519649,inf,0.
7.76,6315.,0.,0.,3649.,0.,0.,9964.,0.843814567415,inf,0.
7.78,6319.,1.,0.,3643.,0.,0.,9963.,0.885486189546,46.0452818564,13.
7.8,6324.,1.,1.,3635.,0.,0.,9961.,0.926483227929,48.1771278523,13.
7.82,6328.,1.,0.,3629.,0.,0.,9958.,0.965895592042,50.2265707862,13.
7.84,6332.,2.,1.,3627.,0.,0.,9962.,1.00245672239,26.063874782,26.
7.86,6329.,5.,1.,3625.,0.,0.,9960.,1.03572210216,10.7715098624,65.
7.88,6334.,3.,3.,3623.,0.,0.,9963.,1.06646357824,18.4853686894,39.
7.9,6341.,3.,2.,3619.,0.,0.,9965.,1.09389017501,18.9607630335,39.
7.92,6337.,6.,2.,3617.,0.,0.,9962.,1.11576653523,9.66997663863,78.
7.94,6338.,10.,0.,3613.,0.,0.,9961.,1.13372934321,5.8953925847,130.
7.96,6339.,8.,7.,3605.,0.,0.,9959.,1.14696827278,7.45529377309,104.
7.98,6335.,16.,8.,3599.,0.,0.,9958.,1.15413675306,3.75094444743,208.
8.,6340.,13.,7.,3599.,0.,0.,9959.,1.1575395637,4.63015825482,169.
8.02,6334.,17.,10.,3595.,0.,0.,9956.,1.15418637976,3.53045245574,221.
8.04,6319.,26.,6.,3598.,0.,0.,9949.,1.14449871603,2.28899743207,338.
8.06,6321.,24.,9.,3597.,0.,0.,9951.,1.13182467173,2.45228678874,312.
8.08,6316.,24.,9.,3603.,0.,0.,9952.,1.11318646166,2.41190400027,312.
8.1,6312.,32.,8.,3602.,0.,0.,9954.,1.09009067684,1.77139734987,416.
8.12,6297.,31.,11.,3616.,0.,0.,9955.,1.06108586268,1.77988596321,403.
8.14,6298.,25.,12.,3625.,0.,0.,9960.,1.03064904398,2.14375001149,325.
8.16,6282.,33.,17.,3628.,0.,0.,9960.,0.994740630896,1.56747008505,429.
8.18,6277.,39.,18.,3628.,0.,0.,9962.,0.957726328981,1.27696843864,507.
8.2,6263.,28.,28.,3646.,0.,0.,9965.,0.917178254051,1.70333104324,364.
8.22,6248.,31.,23.,3665.,0.,0.,9967.,0.87518553222,1.46805315082,403.
8.24,6233.,33.,13.,3686.,0.,0.,9965.,0.832774093712,1.31225008706,429.
8.26,6231.,29.,17.,3693.,0.,0.,9970.,0.791315596636,1.418910725,377.
8.28,6233.,28.,16.,3698.,0.,0.,9975.,0.750727848986,1.3942088624,364.
8.3,6226.,28.,16.,3700.,0.,0.,9970.,0.71079970828,1.32005660109,364.
8.32,6222.,29.,19.,3700.,0.,0.,9970.,0.672487301743,1.20583929968,377.
8.34,6218.,23.,17.,3711.,0.,0.,9969.,0.636463023771,1.43895987983,299.
8.36,6222.,24.,11.,3717.,0.,0.,9974.,0.603627367517,1.30785929629,312.
8.38,6219.,20.,16.,3721.,0.,0.,9976.,0.573567644941,1.49127587685,260.
8.4,6224.,19.,10.,3724.,0.,0.,9977.,0.54802848011,1.49986741925,247.
8.42,6229.,12.,10.,3726.,0.,0.,9977.,0.526643388615,2.28212135066,156.
8.44,6227.,10.,5.,3734.,0.,0.,9976.,0.50918801837,2.64777769552,130.
8.46,6233.,9.,2.,3735.,0.,0.,9979.,0.49693295221,2.87116816832,117.
8.48,6239.,7.,4.,3730.,0.,0.,9980.,0.489719080356,3.63791316836,91.
8.5,6248.,4.,6.,3726.,0.,0.,9984.,0.487665442797,6.33965075637,52.
8.52,6258.,3.,2.,3721.,0.,0.,9984.,0.491013652114,8.5109033033,39.
8.54,6268.,4.,1.,3713.,0.,0.,9986.,0.499373069897,6.49184990866,52.
8.56,6282.,4.,3.,3697.,0.,0.,9986.,0.513171017791,6.67122323128,52.
8.58,6285.,2.,3.,3693.,0.,0.,9983.,0.531058652002,13.8075249521,26.
8.6,6285.,3.,0.,3692.,0.,0.,9980.,0.55323322928,9.58937597418,39.
8.62,6291.,1.,2.,3686.,0.,0.,9980.,0.579975532443,30.158727687,13.
8.64,6293.,1.,1.,3682.,0.,0.,9977.,0.610331856088,31.7372565166,13.
8.66,6302.,1.,0.,3672.,0.,0.,9975.,0.644673102325,33.5230013209,13.
8.68,6306.,1.,0.,3668.,0.,0.,9975.,0.681224567367,35.4236775031,13.
8.7,6316.,1.,1.,3656.,0.,0.,9974.,0.720785498226,37.4808459077,13.
8.72,6319.,0.,0.,3654.,0.,0.,9973.,0.76123866777,inf,0.
8.74,6324.,0.,0.,3648.,0.,0.,9972.,0.802965200913,inf,0.
8.76,6333.,0.,0.,3638.,0.,0.,9971.,0.845625662939,inf,0.
8.78,6337.,0.,0.,3633.,0.,0.,9970.,0.88738506658,inf,0.
8.8,6351.,0.,0.,3622.,0.,0.,9973.,0.929319252138,inf,0.
8.82,6353.,1.,0.,3618.,0.,0.,9972.,0.968350143124,50.3542074425,13.
8.84,6359.,3.,1.,3606.,0.,0.,9969.,1.0060243503,17.4377554052,39.
8.86,6369.,4.,1.,3595.,0.,0.,9969.,1.04132702551,13.5372513316,52.
8.88,6375.,4.,2.,3588.,0.,0.,9969.,1.07272077726,13.9453701044,52.
8.9,6374.,6.,3.,3582.,0.,0.,9965.,1.09958302721,9.52971956913,78.
8.92,6382.,8.,7.,3566.,0.,0.,9963.,1.12357697666,7.30325034832,104.
8.94,6374.,18.,4.,3569.,0.,0.,9965.,1.13971128508,3.292499268,234.
8.96,6372.,17.,5.,3568.,0.,0.,9962.,1.15259203757,3.52557564434,221.
8.98,6371.,15.,3.,3572.,0.,0.,9961.,1.16034581143,4.02253214631,195.
9.,6374.,17.,4.,3567.,0.,0.,9962.,1.16339673324,3.55862530166,221.
9.02,6368.,17.,12.,3562.,0.,0.,9959.,1.16003233835,3.54833421143,221.
9.04,6362.,15.,18.,3565.,0.,0.,9960.,1.15101427981,3.99018283667,195.
9.06,6347.,25.,16.,3574.,0.,0.,9962.,1.13522527903,2.36126858039,325.
9.08,6342.,24.,17.,3581.,0.,0.,9964.,1.11642275759,2.41891597479,312.
9.1,6329.,33.,18.,3584.,0.,0.,9964.,1.09192962342,1.7206163763,429.
9.12,6322.,28.,26.,3589.,0.,0.,9965.,1.06422948673,1.97642618965,364.
9.14,6308.,40.,14.,3609.,0.,0.,9971.,1.03114669773,1.34049070705,520.
9.16,6306.,39.,11.,3616.,0.,0.,9972.,0.997339363455,1.32978581794,507.
9.18,6290.,37.,11.,3630.,0.,0.,9968.,0.95913215656,1.34796951733,481.
9.2,6276.,41.,14.,3635.,0.,0.,9966.,0.918989803219,1.16554804311,533.
9.22,6270.,32.,23.,3639.,0.,0.,9964.,0.878531603525,1.42761385573,416.
9.24,6260.,35.,17.,3652.,0.,0.,9964.,0.836465430249,1.24274863923,455.
9.26,6249.,42.,12.,3663.,0.,0.,9966.,0.7939200584,0.982948643733,546.
9.28,6254.,29.,19.,3666.,0.,0.,9968.,0.753786147058,1.35161653955,377.
9.3,6254.,24.,15.,3675.,0.,0.,9968.,0.714139623837,1.54730251831,312.
9.32,6254.,30.,10.,3674.,0.,0.,9968.,0.676081554569,1.17187469459,390.
9.34,6243.,24.,16.,3684.,0.,0.,9967.,0.639150205257,1.38482544472,312.
9.36,6247.,13.,20.,3688.,0.,0.,9968.,0.60641754167,2.42567016668,169.
9.38,6248.,19.,10.,3692.,0.,0.,9969.,0.576646888848,1.57819148527,247.
9.4,6259.,14.,10.,3685.,0.,0.,9968.,0.551607851329,2.04882916208,182.
9.42,6274.,11.,2.,3687.,0.,0.,9974.,0.530607553751,2.50832661773,143.
9.44,6281.,6.,8.,3677.,0.,0.,9972.,0.513809670694,4.45301714601,78.
9.46,6285.,3.,7.,3674.,0.,0.,9969.,0.501581347721,8.69407669382,39.
9.48,6283.,7.,0.,3677.,0.,0.,9967.,0.493816028527,3.66834764048,91.
9.5,6294.,5.,2.,3665.,0.,0.,9966.,0.492143086573,5.11828810036,65.
9.52,6294.,2.,5.,3658.,0.,0.,9959.,0.495077953602,12.8720267936,26.
9.54,6301.,0.,3.,3660.,0.,0.,9964.,0.503110582882,inf,0.
9.56,6310.,2.,0.,3652.,0.,0.,9964.,0.516596418467,13.4315068801,26.
9.58,6317.,1.,2.,3646.,0.,0.,9966.,0.534673022555,27.8029971729,13.
9.6,6325.,1.,0.,3642.,0.,0.,9968.,0.557424454331,28.9860716252,13.
9.62,6330.,2.,0.,3636.,0.,0.,9968.,0.58427352684,15.1911116978,26.
9.64,6338.,2.,0.,3628.,0.,0.,9968.,0.615251221243,15.9965317523,26.
9.66,6346.,0.,2.,3621.,0.,0.,9969.,0.64956486794,inf,0.
9.68,6352.,0.,0.,3615.,0.,0.,9967.,0.686744627997,inf,0.
9.7,6363.,0.,0.,3606.,0.,0.,9969.,0.726513368466,inf,0.
9.72,6372.,0.,0.,3598.,0.,0.,9970.,0.767854463294,inf,0.
9.74,6381.,0.,0.,3590.,0.,0.,9971.,0.810283809191,inf,0.
9.76,6388.,1.,0.,3584.,0.,0.,9973.,0.852798584969,44.3455264184,13.
9.78,6396.,0.,1.,3576.,0.,0.,9973.,0.895377554301,inf,0.
9.8,6406.,1.,0.,3569.,0.,0.,9976.,0.937085319922,48.728436636,13.
9.82,6411.,1.,0.,3567.,0.,0.,9979.,0.976505266415,50.7782738536,13.
9.84,6416.,1.,1.,3561.,0.,0.,9979.,1.01402484604,52.7292919943,13.
9.86,6421.,5.,0.,3551.,0.,0.,9977.,1.04898718965,10.9094667724,65.
9.88,6432.,4.,1.,3542.,0.,0.,9979.,1.08122757323,14.055958452,52.
9.9,6441.,4.,3.,3534.,0.,0.,9982.,1.10924889594,14.4202356472,52.
9.92,6445.,6.,4.,3525.,0.,0.,9980.,1.13273558025,9.81704169553,78.
9.94,6447.,9.,4.,3518.,0.,0.,9978.,1.1512622466,6.6517374248,117.
9.96,6452.,10.,1.,3514.,0.,0.,9977.,1.16530811763,6.05960221167,130.
9.98,6449.,7.,8.,3508.,0.,0.,9972.,1.17325626247,8.7156179498,91.
10.,6450.,11.,3.,3504.,0.,0.,9968.,1.17655979452,5.56191902863,143.
