t,s,e,i,r,c,o,n,reff,coal,reportr
5.,6066.,11.,3.,3920.,0.,0.,10000.,1.21697213699,5.75295919306,143.
5.02,6060.,14.,5.,3921.,0.,0.,10000.,1.21302934961,4.50553758426,182.
5.04,6055.,21.,11.,3915.,0.,0.,10002.,1.20362054809,2.98039373812,273.
5.06,6052.,24.,8.,3920.,0.,0.,10004.,1.18932689382,2.57687493661,312.
5.08,6046.,27.,9.,3919.,0.,0.,10001.,1.16997555609,2.25328625618,351.
5.1,6049.,23.,14.,3915.,0.,0.,10001.,1.14722694706,2.59373048901,299.
5.12,6037.,28.,16.,3918.,0.,0.,9999.,1.11747706278,2.07531454516,364.
5.14,6024.,38.,16.,3924.,0.,0.,10002.,1.0831323089,1.48218105428,494.
5.16,6013.,38.,22.,3921.,0.,0.,9994.,1.04698156134,1.43271161025,494.
5.18,5997.,44.,24.,3931.,0.,0.,9996.,1.00614262404,1.18907764659,572.
5.2,5991.,44.,21.,3944.,0.,0.,10000.,0.964636900204,1.14002542751,572.
5.22,5967.,56.,18.,3958.,0.,0.,9999.,0.919261236941,0.853599720017,728.
5.24,5957.,40.,32.,3967.,0.,0.,9996.,0.875436492298,1.13806743999,520.
5.26,5947.,37.,13.,3999.,0.,0.,9996.,0.831141053704,1.16809012953,481.
5.28,5938.,34.,13.,4006.,0.,0.,9991.,0.787853464831,1.20495235798,442.
5.3,5941.,24.,14.,4012.,0.,0.,9991.,0.746792223776,1.61804981818,312.
5.32,5936.,23.,15.,4018.,0.,0.,9992.,0.706328316627,1.59691619411,299.
5.34,5930.,21.,12.,4027.,0.,0.,9990.,0.668311865727,1.65486747704,273.
5.36,5929.,19.,12.,4032.,0.,0.,9992.,0.633509620772,1.73381580422,247.
5.38,5937.,12.,13.,4032.,0.,0.,9994.,0.603065026216,2.61328178027,156.
5.4,5936.,13.,10.,4033.,0.,0.,9992.,0.575825501573,2.30330200629,169.
5.42,5932.,17.,6.,4035.,0.,0.,9990.,0.552649578053,1.69045753287,221.
5.44,5936.,11.,2.,4040.,0.,0.,9989.,0.534864212541,2.52844900474,143.
5.46,5940.,5.,7.,4036.,0.,0.,9988.,0.52204929561,5.42931267435,65.
5.48,5941.,5.,1.,4041.,0.,0.,9988.,0.514114094675,5.34678658462,65.
5.5,5944.,4.,2.,4033.,0.,0.,9983.,0.511940128817,6.65522167462,52.
5.52,5952.,4.,1.,4023.,0.,0.,9980.,0.515478876115,6.7012253895,52.
5.54,5957.,2.,2.,4016.,0.,0.,9977.,0.524120601418,13.6271356369,26.
5.56,5963.,0.,2.,4011.,0.,0.,9976.,0.53799721835,inf,0.
5.58,5966.,2.,0.,4004.,0.,0.,9972.,0.556820438306,14.477331396,26.
5.6,5980.,0.,1.,3994.,0.,0.,9975.,0.581082380852,inf,0.
5.62,5989.,0.,1.,3987.,0.,0.,9977.,0.609383625145,inf,0.
5.64,5995.,1.,0.,3984.,0.,0.,9980.,0.64133189036,33.3492582987,13.
5.66,6008.,0.,1.,3974.,0.,0.,9983.,0.677577255973,inf,0.
5.68,6023.,0.,0.,3964.,0.,0.,9987.,0.717039307211,inf,0.
5.7,6036.,1.,0.,3954.,0.,0.,9991.,0.758733860076,39.454160724,13.
5.72,6046.,0.,1.,3947.,0.,0.,9994.,0.801942098658,inf,0.
5.74,6056.,2.,1.,3935.,0.,0.,9994.,0.846544056439,22.0101454674,26.
5.76,6061.,2.,2.,3928.,0.,0.,9993.,0.890987661749,23.1656792055,26.
5.78,6075.,3.,0.,3916.,0.,0.,9994.,0.936367680038,16.2303731207,39.
5.8,6085.,2.,3.,3904.,0.,0.,9994.,0.980360464274,25.4893720711,26.
5.82,6096.,5.,4.,3889.,0.,0.,9994.,1.02295695542,10.6387523364,65.
5.84,6097.,7.,4.,3888.,0.,0.,9996.,1.06139520693,7.88465010863,91.
5.86,6101.,6.,2.,3886.,0.,0.,9995.,1.09774539571,9.51379342948,78.
5.88,6102.,11.,2.,3879.,0.,0.,9994.,1.13007396165,5.34216781869,143.
5.9,6103.,10.,5.,3875.,0.,0.,9993.,1.15839497477,6.02365386879,130.
5.92,6103.,10.,4.,3873.,0.,0.,9990.,1.18230616573,6.14799206178,130.
5.94,6105.,14.,4.,3866.,0.,0.,9989.,1.20154394273,4.46287750156,182.
5.96,6111.,14.,6.,3863.,0.,0.,9994.,1.21572468409,4.51554882663,182.
5.98,6110.,13.,6.,3862.,0.,0.,9991.,1.2241395682,4.89655827281,169.
6.,6111.,16.,1.,3863.,0.,0.,9991.,1.22710451427,3.98808967137,208.
6.02,6113.,17.,11.,3851.,0.,0.,9992.,1.22461804661,3.74589049551,221.
6.04,6106.,23.,5.,3853.,0.,0.,9987.,1.2155814,2.74827099131,299.
6.06,6097.,25.,6.,3858.,0.,0.,9986.,1.2003299335,2.49668626167,325.
6.08,6095.,28.,7.,3856.,0.,0.,9986.,1.18122932716,2.19371160758,364.
6.1,6085.,30.,18.,3854.,0.,0.,9987.,1.15567232947,2.00316537108,390.
6.12,6075.,35.,15.,3866.,0.,0.,9991.,1.12541146052,1.6720398842,455.
6.14,6065.,37.,13.,3877.,0.,0.,9992.,1.09159560267,1.53413436051,481.
6.16,6058.,39.,18.,3874.,0.,0.,9989.,1.05534493564,1.40712658086,507.
6.18,6048.,40.,13.,3885.,0.,0.,9986.,1.01571523627,1.32042980715,520.
6.2,6041.,40.,14.,3891.,0.,0.,9986.,0.974051288919,1.26626667559,520.
6.22,6038.,33.,16.,3898.,0.,0.,9985.,0.931503556444,1.46782378591,429.
6.24,6037.,26.,17.,3905.,0.,0.,9985.,0.888170614149,1.7763412283,338.
6.26,6027.,27.,15.,3916.,0.,0.,9985.,0.843249642552,1.62403634862,351.
6.28,6015.,28.,15.,3920.,0.,0.,9978.,0.799109598244,1.48406068245,364.
6.3,6010.,23.,20.,3924.,0.,0.,9977.,0.756525712852,1.71040595949,299.
6.32,5995.,22.,21.,3937.,0.,0.,9975.,0.714564495398,1.68897062549,286.
6.34,5995.,26.,10.,3942.,0.,0.,9973.,0.676789068326,1.35357813665,338.
6.36,5999.,17.,13.,3946.,0.,0.,9975.,0.642081485657,1.96401395613,221.
6.38,5996.,21.,13.,3943.,0.,0.,9973.,0.610340577544,1.51131952535,273.
6.4,5990.,15.,17.,3951.,0.,0.,9973.,0.582170816497,2.01819216386,195.
6.42,5991.,17.,15.,3951.,0.,0.,9974.,0.559041623273,1.71000967119,221.
6.44,5993.,19.,9.,3951.,0.,0.,9972.,0.540920784465,1.48041477854,247.
6.46,5997.,13.,7.,3954.,0.,0.,9971.,0.527957465577,2.11182986231,169.
6.48,5996.,11.,9.,3955.,0.,0.,9971.,0.519758259723,2.45703904596,143.
6.5,6002.,8.,3.,3958.,0.,0.,9971.,0.5175576337,3.36412461905,104.
6.52,6010.,4.,0.,3959.,0.,0.,9973.,0.520867361594,6.77127570072,52.
6.54,6018.,2.,2.,3947.,0.,0.,9969.,0.529912531843,13.7777258279,26.
6.56,6027.,2.,2.,3937.,0.,0.,9968.,0.544207876883,14.149404799,26.
6.58,6034.,3.,2.,3927.,0.,0.,9966.,0.563506086983,9.76743884104,39.
6.6,6045.,1.,1.,3919.,0.,0.,9966.,0.587928955903,30.572305707,13.
6.62,6056.,1.,0.,3912.,0.,0.,9969.,0.616695400965,32.0681608502,13.
6.64,6067.,1.,0.,3899.,0.,0.,9967.,0.649880829867,33.7938031531,13.
6.66,6070.,0.,0.,3894.,0.,0.,9964.,0.685874946086,inf,0.
6.68,6079.,0.,0.,3887.,0.,0.,9966.,0.725231085709,inf,0.
6.7,6087.,0.,0.,3881.,0.,0.,9968.,0.766910115447,inf,0.
6.72,6101.,0.,0.,3867.,0.,0.,9968.,0.811348076111,inf,0.
6.74,6108.,1.,0.,3860.,0.,0.,9969.,0.855954098735,44.5096131342,13.
6.76,6117.,2.,1.,3850.,0.,0.,9970.,0.901294281599,23.4336513216,26.
6.78,6127.,1.,1.,3845.,0.,0.,9974.,0.946276368059,49.2063711391,13.
6.8,6128.,0.,2.,3839.,0.,0.,9969.,0.989764133352,inf,0.
6.82,6136.,2.,1.,3830.,0.,0.,9969.,1.03225144933,26.8385376827,26.
6.84,6148.,3.,1.,3816.,0.,0.,9968.,1.07327991958,18.603518606,39.
6.86,6149.,5.,1.,3812.,0.,0.,9967.,1.10949010278,11.538697069,65.
6.88,6161.,5.,2.,3798.,0.,0.,9966.,1.14420630378,11.8997455593,65.
6.9,6161.,5.,6.,3792.,0.,0.,9964.,1.17280733162,12.1971962488,65.
6.92,6161.,7.,6.,3790.,0.,0.,9964.,1.19665666114,8.88944948274,91.
6.94,6162.,8.,7.,3785.,0.,0.,9962.,1.21604923771,7.9043200451,104.
6.96,6162.,12.,7.,3780.,0.,0.,9961.,1.2299318555,5.32970470719,156.
6.98,6164.,11.,7.,3780.,0.,0.,9962.,1.23855351838,5.85498026872,143.
7.,6163.,15.,8.,3778.,0.,0.,9964.,1.24089969526,4.30178561025,195.
7.02,6168.,17.,5.,3777.,0.,0.,9967.,1.23873552167,3.78907336042,221.
7.04,6175.,17.,6.,3775.,0.,0.,9973.,1.23104361227,3.76554516695,221.
7.06,6156.,27.,6.,3781.,0.,0.,9970.,1.21389034203,2.33786288094,351.
7.08,6157.,19.,20.,3776.,0.,0.,9972.,1.1949203474,3.2703083192,247.
7.1,6157.,27.,20.,3771.,0.,0.,9975.,1.17075341034,2.25478434584,351.
7.12,6146.,28.,17.,3778.,0.,0.,9969.,1.14107704838,2.11914308984,364.
7.14,6138.,29.,13.,3792.,0.,0.,9972.,1.10695001869,1.98487589558,377.
7.16,6129.,33.,16.,3794.,0.,0.,9972.,1.06953382984,1.6853260349,429.
7.18,6115.,36.,15.,3806.,0.,0.,9972.,1.02840916399,1.48547990354,468.
7.2,6104.,25.,23.,3820.,0.,0.,9972.,0.985591175713,2.05002964548,325.
7.22,6104.,27.,17.,3824.,0.,0.,9972.,0.942913237882,1.81598105074,351.
7.24,6095.,28.,18.,3832.,0.,0.,9973.,0.897782600631,1.66731054403,364.
7.26,6088.,26.,22.,3838.,0.,0.,9974.,0.852723679896,1.70544735979,338.
7.28,6081.,31.,14.,3844.,0.,0.,9970.,0.80852613016,1.35623737962,403.
7.3,6080.,30.,12.,3848.,0.,0.,9970.,0.765874508479,1.3275158147,390.
7.32,6080.,30.,13.,3847.,0.,0.,9970.,0.725059373565,1.25676958085,390.
7.34,6084.,23.,11.,3852.,0.,0.,9970.,0.687043149972,1.55331494776,299.
7.36,6083.,18.,8.,3860.,0.,0.,9969.,0.651463982931,1.8820070618,234.
7.38,6083.,16.,5.,3865.,0.,0.,9969.,0.619444868572,2.01319582286,208.
7.4,6092.,15.,4.,3861.,0.,0.,9972.,0.592143617428,2.05276454042,195.
7.42,6106.,12.,3.,3851.,0.,0.,9972.,0.569886958816,2.46951015487,156.
7.44,6108.,8.,5.,3851.,0.,0.,9972.,0.551300542552,3.58345352659,104.
7.46,6117.,6.,1.,3850.,0.,0.,9974.,0.538359919393,4.66578596807,78.
7.48,6119.,6.,1.,3843.,0.,0.,9969.,0.530526826115,4.59789915966,78.
7.5,6126.,7.,1.,3830.,0.,0.,9964.,0.528621371771,3.92690161887,91.
7.52,6131.,4.,3.,3826.,0.,0.,9964.,0.531833988697,6.91384185306,52.
7.54,6139.,4.,0.,3819.,0.,0.,9962.,0.540946977808,7.03231071151,52.
7.56,6150.,0.,5.,3808.,0.,0.,9963.,0.555592848311,inf,0.
7.58,6158.,1.,3.,3800.,0.,0.,9962.,0.575317170444,29.9164928631,13.
7.6,6161.,1.,0.,3797.,0.,0.,9959.,0.599632141791,31.1808713731,13.
7.62,6173.,2.,1.,3787.,0.,0.,9963.,0.628988327147,16.3536965058,26.
7.64,6181.,0.,3.,3781.,0.,0.,9965.,0.662225088809,inf,0.
7.66,6184.,1.,1.,3779.,0.,0.,9965.,0.69868616669,36.3316806679,13.
7.68,6190.,1.,1.,3769.,0.,0.,9961.,0.738844184722,38.4198976055,13.
7.7,6198.,1.,0.,3764.,0.,0.,9963.,0.781287066908,40.6269274792,13.
7.72,6202.,0.,2.,3759.,0.,0.,9963.,0.825193591568,inf,0.
7.74,6209.,1.,0.,3756.,0.,0.,9966.,0.870369814039,45.25923033,13.
7.76,6212.,2.,0.,3746.,0.,0.,9960.,0.91621079004,23.821480541,26.
7.78,6226.,4.,0.,3733.,0.,0.,9963.,0.96262794245,12.5141632519,52.
7.8,6237.,2.,2.,3722.,0.,0.,9963.,1.00797593837,26.2073743977,26.
7.82,6243.,3.,2.,3716.,0.,0.,9964.,1.05077894603,18.2135017311,39.
7.84,6252.,3.,4.,3709.,0.,0.,9968.,1.09143559811,18.918217034,39.
7.86,6254.,7.,2.,3708.,0.,0.,9971.,1.12798301025,8.37930236183,91.
7.88,6258.,9.,1.,3703.,0.,0.,9971.,1.16163811308,6.71168687555,117.
7.9,6266.,9.,4.,3692.,0.,0.,9971.,1.19195773591,6.88686691857,117.
7.92,6266.,14.,6.,3686.,0.,0.,9972.,1.21607453253,4.5168482637,182.
7.94,6275.,10.,5.,3681.,0.,0.,9971.,1.23723163818,6.43360451854,130.
7.96,6278.,16.,4.,3673.,0.,0.,9971.,1.25182866263,4.06844315356,208.
7.98,6281.,15.,5.,3674.,0.,0.,9975.,1.26041793343,4.36944883589,195.
8.,6277.,13.,10.,3676.,0.,0.,9976.,1.26233294624,5.04933178494,169.
8.02,6264.,23.,12.,3678.,0.,0.,9977.,1.25675453641,2.84135808233,299.
8.04,6255.,31.,10.,3680.,0.,0.,9976.,1.24661735773,2.09110008393,403.
8.06,6248.,35.,11.,3682.,0.,0.,9976.,1.2312906558,1.82934611719,455.
8.08,6242.,27.,17.,3688.,0.,0.,9974.,1.21117381538,2.33263105184,351.
8.1,6221.,36.,13.,3699.,0.,0.,9969.,1.18363496977,1.70969495634,468.
8.12,6217.,28.,19.,3705.,0.,0.,9969.,1.15425903185,2.1436239163,364.
8.14,6203.,33.,18.,3715.,0.,0.,9969.,1.11900900861,1.76328692266,429.
8.16,6191.,38.,18.,3718.,0.,0.,9965.,1.08111196915,1.47941637883,494.
8.18,6180.,41.,23.,3719.,0.,0.,9963.,1.04027962189,1.31937903264,533.
8.2,6171.,41.,12.,3738.,0.,0.,9962.,0.997409637705,1.26500734538,533.
8.22,6158.,33.,17.,3756.,0.,0.,9964.,0.952018622162,1.50015055613,429.
8.24,6161.,30.,12.,3761.,0.,0.,9964.,0.908323987399,1.57442824482,390.
8.26,6159.,28.,15.,3765.,0.,0.,9967.,0.86327425496,1.60322361635,364.
8.28,6164.,25.,8.,3770.,0.,0.,9967.,0.819808443197,1.70520156185,325.
8.3,6165.,23.,6.,3774.,0.,0.,9968.,0.776737450589,1.7561020622,299.
8.32,6163.,25.,9.,3772.,0.,0.,9969.,0.735031112324,1.52886471363,325.
8.34,6162.,17.,18.,3772.,0.,0.,9969.,0.695921197009,2.12870013203,221.
8.36,6157.,20.,11.,3779.,0.,0.,9967.,0.6595213894,1.71475561244,260.
8.38,6158.,14.,15.,3781.,0.,0.,9968.,0.627145188129,2.32939641305,182.
8.4,6159.,14.,7.,3785.,0.,0.,9965.,0.599076561898,2.22514151562,182.
8.42,6164.,10.,5.,3786.,0.,0.,9965.,0.575704356197,2.99366265223,130.
8.44,6172.,8.,9.,3775.,0.,0.,9964.,0.557524375436,3.62390844033,104.
8.46,6175.,7.,2.,3776.,0.,0.,9960.,0.544228431421,4.04283977627,91.
8.48,6179.,4.,4.,3768.,0.,0.,9955.,0.53648233036,6.97427029467,52.
8.5,6185.,5.,5.,3758.,0.,0.,9953.,0.534302422978,5.55674519897,65.
8.52,6193.,6.,1.,3753.,0.,0.,9953.,0.537805906582,4.66098452371,78.
8.54,6197.,1.,4.,3749.,0.,0.,9951.,0.546661354021,28.4263904091,13.
8.56,6199.,0.,0.,3747.,0.,0.,9946.,0.560976725118,inf,0.
8.58,6211.,0.,0.,3736.,0.,0.,9947.,0.581143788098,inf,0.
8.6,6217.,0.,0.,3729.,0.,0.,9946.,0.605873336225,inf,0.
8.62,6226.,0.,0.,3720.,0.,0.,9946.,0.635472996578,inf,0.
8.64,6236.,0.,0.,3711.,0.,0.,9947.,0.669326743995,inf,0.
8.66,6238.,0.,0.,3707.,0.,0.,9945.,0.706204612551,inf,0.
8.68,6242.,0.,0.,3703.,0.,0.,9945.,0.746249627551,inf,0.
8.7,6261.,0.,0.,3688.,0.,0.,9949.,0.790339097274,inf,0.
8.72,6267.,0.,0.,3678.,0.,0.,9945.,0.835351241223,inf,0.
8.74,6277.,0.,0.,3671.,0.,0.,9948.,0.881494071026,inf,0.
8.76,6282.,0.,0.,3664.,0.,0.,9946.,0.927839314639,inf,0.
8.78,6288.,0.,0.,3656.,0.,0.,9944.,0.974071631439,inf,0.
8.8,6291.,1.,0.,3649.,0.,0.,9941.,1.01895302451,52.9855572746,13.
8.82,6305.,1.,0.,3637.,0.,0.,9943.,1.06345568655,55.2996957006,13.
8.84,6315.,1.,0.,3627.,0.,0.,9943.,1.10520563365,57.4706929496,13.
8.86,6315.,5.,0.,3623.,0.,0.,9943.,1.14219252374,11.8788022469,65.
8.88,6316.,6.,1.,3616.,0.,0.,9939.,1.17617905366,10.1935517984,78.
8.9,6315.,8.,3.,3611.,0.,0.,9937.,1.2053890651,7.83502892314,104.
8.92,6326.,9.,0.,3609.,0.,0.,9944.,1.23117601046,7.11346139379,117.
8.94,6334.,11.,2.,3600.,0.,0.,9947.,1.25187781828,5.91796786823,143.
8.96,6338.,5.,8.,3598.,0.,0.,9949.,1.26658721547,13.1725070409,65.
8.98,6326.,18.,5.,3601.,0.,0.,9950.,1.27263772089,3.67650897145,234.
9.,6321.,18.,7.,3604.,0.,0.,9950.,1.27450322465,3.68189820455,234.
9.02,6323.,18.,9.,3603.,0.,0.,9953.,1.27165078137,3.67365781286,234.
9.04,6322.,21.,10.,3602.,0.,0.,9955.,1.26262831177,3.12650820057,273.
9.06,6321.,18.,16.,3604.,0.,0.,9959.,1.24780310276,3.60476451909,234.
9.08,6322.,17.,12.,3610.,0.,0.,9961.,1.22829765894,3.7571457803,221.
9.1,6308.,27.,9.,3610.,0.,0.,9954.,1.20199657602,2.31495636863,351.
9.12,6295.,34.,12.,3612.,0.,0.,9953.,1.17061946297,1.79035917866,442.
9.14,6280.,38.,13.,3624.,0.,0.,9955.,1.13449288632,1.55246394971,494.
9.16,6276.,34.,19.,3621.,0.,0.,9950.,1.09760740593,1.67869367965,442.
9.18,6262.,40.,19.,3631.,0.,0.,9952.,1.05524776819,1.37182209865,520.
9.2,6249.,42.,16.,3647.,0.,0.,9954.,1.01082841015,1.25150184114,546.
9.22,6243.,36.,28.,3649.,0.,0.,9956.,0.965935049265,1.39523951561,468.
9.24,6235.,31.,16.,3673.,0.,0.,9955.,0.92006495081,1.5433347562,403.
9.26,6234.,30.,12.,3683.,0.,0.,9959.,0.874488512952,1.51578008912,390.
9.28,6233.,31.,11.,3681.,0.,0.,9956.,0.829901317347,1.39209253232,403.
9.3,6237.,29.,7.,3686.,0.,0.,9959.,0.786518976398,1.41030988871,377.
9.32,6244.,24.,3.,3688.,0.,0.,9959.,0.745439346775,1.61511858468,312.
9.34,6250.,20.,4.,3683.,0.,0.,9957.,0.706710391214,1.83744701716,260.
9.36,6257.,17.,8.,3675.,0.,0.,9957.,0.670906249786,2.05218382287,221.
9.38,6264.,12.,10.,3674.,0.,0.,9960.,0.638452879164,2.76662914305,156.
9.4,6267.,12.,7.,3674.,0.,0.,9960.,0.609887572464,2.64284614734,156.
9.42,6270.,5.,3.,3681.,0.,0.,9959.,0.585957337683,6.09395631191,65.
9.44,6271.,9.,3.,3676.,0.,0.,9959.,0.566751567211,3.27456461055,117.
9.46,6284.,4.,2.,3670.,0.,0.,9960.,0.553835054745,7.19985571169,52.
9.48,6290.,1.,3.,3664.,0.,0.,9958.,0.545955210557,28.389670949,13.
9.5,6289.,3.,2.,3660.,0.,0.,9954.,0.543232071538,9.41602257333,39.
9.52,6297.,2.,2.,3653.,0.,0.,9954.,0.546782427313,14.2163431101,26.
9.54,6303.,2.,5.,3645.,0.,0.,9955.,0.555788614113,14.4505039669,26.
9.56,6313.,0.,2.,3638.,0.,0.,9953.,0.57089132877,inf,0.
9.58,6315.,0.,0.,3635.,0.,0.,9950.,0.590696588695,inf,0.
9.6,6323.,1.,0.,3628.,0.,0.,9952.,0.615831985906,32.0232632671,13.
9.62,6337.,1.,0.,3617.,0.,0.,9955.,0.646217748656,33.6033229301,13.
9.64,6348.,3.,0.,3612.,0.,0.,9963.,0.680253801505,11.7910658928,39.
9.66,6355.,0.,4.,3604.,0.,0.,9963.,0.718150374732,inf,0.
9.68,6366.,0.,1.,3593.,0.,0.,9960.,0.759927999531,inf,0.
9.7,6374.,0.,0.,3585.,0.,0.,9959.,0.803795407337,inf,0.
9.72,6382.,0.,0.,3578.,0.,0.,9960.,0.849398865218,inf,0.
9.74,6390.,0.,0.,3569.,0.,0.,9959.,0.896371767366,inf,0.
9.76,6394.,1.,0.,3566.,0.,0.,9961.,0.942959380662,49.0338877944,13.
9.78,6397.,2.,1.,3558.,0.,0.,9958.,0.989563588102,25.7286532907,26.
9.8,6408.,1.,2.,3551.,0.,0.,9962.,1.03571559851,53.8572111226,13.
9.82,6414.,2.,2.,3545.,0.,0.,9963.,1.07966885029,28.0713901076,26.
9.84,6415.,4.,1.,3541.,0.,0.,9961.,1.12067812581,14.5688156355,52.
9.86,6424.,3.,2.,3535.,0.,0.,9964.,1.15945850626,20.0972807751,39.
9.88,6429.,3.,2.,3528.,0.,0.,9962.,1.1944580412,20.7039393808,39.
9.9,6427.,9.,2.,3521.,0.,0.,9959.,1.2240573044,7.0723310921,117.
9.92,6432.,5.,3.,3520.,0.,0.,9960.,1.24979496302,12.9978676155,65.
9.94,6424.,9.,5.,3519.,0.,0.,9957.,1.26839063961,7.3284792511,117.
9.96,6422.,13.,8.,3515.,0.,0.,9958.,1.28221388462,5.12885553846,169.
9.98,6418.,23.,2.,3517.,0.,0.,9960.,1.2898495576,2.91618160849,299.
10.,6415.,22.,6.,3513.,0.,0.,9956.,1.29267694089,3.05541822392,286.
