t,s,e,i,r,c,o,n,reff,coal,reportr
5.,6377.,16.,8.,3599.,0.,0.,10000.,1.08450704887,3.52464790882,208.
5.02,6381.,18.,9.,3595.,0.,0.,10003.,1.08241772056,3.12698452605,234.
5.04,6376.,21.,12.,3593.,0.,0.,10002.,1.07438883705,2.66039140602,273.
5.06,6371.,21.,14.,3593.,0.,0.,9999.,1.06185391601,2.62935255392,273.
5.08,6362.,27.,15.,3594.,0.,0.,9998.,1.04392749965,2.01052703636,351.
5.1,6353.,30.,10.,3607.,0.,0.,10000.,1.02147036347,1.77054863001,390.
5.12,6350.,29.,15.,3606.,0.,0.,10000.,0.996289305541,1.78644978925,377.
5.14,6340.,30.,18.,3614.,0.,0.,10002.,0.966325718702,1.67496457908,390.
5.16,6329.,32.,21.,3621.,0.,0.,10003.,0.933318199323,1.5166420739,416.
5.18,6293.,46.,13.,3648.,0.,0.,10000.,0.894637732587,1.01132961075,598.
5.2,6286.,33.,18.,3664.,0.,0.,10001.,0.857893216558,1.35183173518,429.
5.22,6277.,33.,23.,3669.,0.,0.,10002.,0.819487794194,1.29131409994,429.
5.24,6266.,37.,12.,3688.,0.,0.,10003.,0.780047677721,1.09628322274,481.
5.26,6264.,29.,6.,3705.,0.,0.,10004.,0.741513124993,1.32960974137,377.
5.28,6264.,22.,8.,3708.,0.,0.,10002.,0.703747470591,1.66340311231,286.
5.3,6269.,16.,7.,3712.,0.,0.,10004.,0.66713160178,2.16817770579,208.
5.32,6272.,16.,8.,3712.,0.,0.,10008.,0.631628381901,2.05279224118,208.
5.34,6275.,15.,6.,3707.,0.,0.,10003.,0.598702623578,2.0755024284,195.
5.36,6279.,16.,6.,3703.,0.,0.,10004.,0.56803974365,1.84612916686,208.
5.38,6286.,12.,5.,3706.,0.,0.,10009.,0.54045291011,2.34196261048,156.
5.4,6292.,15.,1.,3705.,0.,0.,10013.,0.516311333742,1.78987929031,195.
5.42,6300.,10.,6.,3698.,0.,0.,10014.,0.496346408935,2.58100132646,130.
5.44,6304.,8.,6.,3692.,0.,0.,10010.,0.480497930385,3.12323654751,104.
5.46,6311.,6.,1.,3695.,0.,0.,10013.,0.469002653545,4.06468966406,78.
5.48,6317.,3.,5.,3689.,0.,0.,10014.,0.462188903654,8.01127433001,39.
5.5,6324.,3.,3.,3685.,0.,0.,10015.,0.460235467966,7.97741477808,39.
5.52,6337.,2.,1.,3678.,0.,0.,10018.,0.463467093721,12.0501444368,26.
5.54,6342.,1.,1.,3672.,0.,0.,10016.,0.471165255866,24.500593305,13.
5.56,6350.,1.,1.,3664.,0.,0.,10016.,0.483714163272,25.1531364902,13.
5.58,6362.,1.,1.,3654.,0.,0.,10018.,0.501030955682,26.0536096955,13.
5.6,6369.,0.,1.,3648.,0.,0.,10018.,0.522368983692,inf,0.
5.62,6379.,0.,0.,3643.,0.,0.,10022.,0.547737374816,inf,0.
5.64,6388.,0.,0.,3634.,0.,0.,10022.,0.576862664773,inf,0.
5.66,6386.,0.,0.,3630.,0.,0.,10016.,0.608502403908,inf,0.
5.68,6398.,0.,0.,3620.,0.,0.,10018.,0.643674185273,inf,0.
5.7,6404.,1.,1.,3612.,0.,0.,10018.,0.680545587748,35.3883705629,13.
5.72,6411.,1.,0.,3608.,0.,0.,10020.,0.71896873223,37.386374076,13.
5.74,6418.,1.,0.,3604.,0.,0.,10023.,0.758302973516,39.4317546228,13.
5.76,6427.,1.,1.,3592.,0.,0.,10021.,0.798653251829,41.5299690951,13.
5.78,6434.,3.,0.,3585.,0.,0.,10022.,0.838308498861,14.5306806469,39.
5.8,6445.,2.,0.,3576.,0.,0.,10023.,0.877662364931,22.8192214882,26.
5.82,6453.,1.,1.,3568.,0.,0.,10023.,0.915278823173,47.594498805,13.
5.84,6461.,2.,1.,3563.,0.,0.,10027.,0.950503310282,24.7130860673,26.
5.86,6461.,4.,2.,3557.,0.,0.,10024.,0.982606909762,12.7738898269,52.
5.88,6469.,7.,0.,3549.,0.,0.,10025.,1.01242885189,7.52090004263,91.
5.9,6467.,10.,4.,3543.,0.,0.,10024.,1.03731036706,5.3940139087,130.
5.92,6474.,10.,7.,3536.,0.,0.,10027.,1.05923295931,5.50801138842,130.
5.94,6478.,7.,7.,3536.,0.,0.,10028.,1.07656524358,7.99734180945,91.
5.96,6474.,13.,2.,3539.,0.,0.,10028.,1.08807391526,4.35229566105,169.
5.98,6483.,13.,5.,3529.,0.,0.,10030.,1.09675975624,4.38703902496,169.
6.,6483.,15.,7.,3526.,0.,0.,10031.,1.09912668842,3.81030585318,195.
6.02,6484.,17.,7.,3522.,0.,0.,10030.,1.09692893097,3.35531202414,221.
6.04,6479.,16.,10.,3520.,0.,0.,10025.,1.08924011619,3.54003037762,208.
6.06,6472.,23.,11.,3516.,0.,0.,10022.,1.07621204039,2.43317504784,299.
6.08,6468.,25.,13.,3515.,0.,0.,10021.,1.05888489926,2.20248059045,325.
6.1,6453.,33.,14.,3517.,0.,0.,10017.,1.03578807503,1.63215090611,429.
6.12,6445.,25.,18.,3529.,0.,0.,10017.,1.00947830801,2.09971488067,325.
6.14,6424.,35.,19.,3541.,0.,0.,10019.,0.977467410064,1.45223729495,455.
6.16,6413.,35.,16.,3553.,0.,0.,10017.,0.944383680804,1.40308432577,455.
6.18,6406.,31.,24.,3556.,0.,0.,10017.,0.909156692475,1.52503703254,403.
6.2,6391.,38.,19.,3565.,0.,0.,10013.,0.871177972387,1.192138278,494.
6.22,6381.,39.,17.,3577.,0.,0.,10014.,0.832067134858,1.10942284648,507.
6.24,6371.,33.,21.,3590.,0.,0.,10015.,0.792168698737,1.24826582831,429.
6.26,6369.,33.,16.,3598.,0.,0.,10016.,0.753039417252,1.18660756658,429.
6.28,6361.,30.,22.,3603.,0.,0.,10016.,0.713646315315,1.23698694655,390.
6.3,6354.,33.,16.,3615.,0.,0.,10018.,0.675232146244,1.06400216984,429.
6.32,6358.,27.,12.,3620.,0.,0.,10017.,0.639713820486,1.23204143205,351.
6.34,6358.,18.,17.,3624.,0.,0.,10017.,0.605773888946,1.75001345695,234.
6.36,6357.,17.,10.,3634.,0.,0.,10018.,0.574292450026,1.7566592589,221.
6.38,6360.,15.,5.,3639.,0.,0.,10019.,0.546269447382,1.89373408426,195.
6.4,6365.,11.,7.,3632.,0.,0.,10015.,0.522197291698,2.4685690153,143.
6.42,6369.,8.,6.,3635.,0.,0.,10018.,0.50158223149,3.26028450469,104.
6.44,6372.,9.,3.,3633.,0.,0.,10017.,0.48534156674,2.80419571894,117.
6.46,6375.,3.,6.,3632.,0.,0.,10016.,0.473616919922,8.20935994532,39.
6.48,6385.,4.,0.,3630.,0.,0.,10019.,0.466931044794,6.07010358232,52.
6.5,6391.,3.,0.,3626.,0.,0.,10020.,0.464879368885,8.05790906067,39.
6.52,6397.,3.,0.,3621.,0.,0.,10021.,0.467715231615,8.10706401466,39.
6.54,6397.,5.,1.,3617.,0.,0.,10020.,0.475061641523,4.94064107184,65.
6.56,6406.,1.,2.,3613.,0.,0.,10022.,0.48768784369,25.3597678719,13.
6.58,6411.,2.,0.,3609.,0.,0.,10022.,0.504688373711,13.1218977165,26.
6.6,6417.,0.,1.,3604.,0.,0.,10022.,0.526095759926,inf,0.
6.62,6425.,1.,0.,3595.,0.,0.,10021.,0.551742250661,28.6905970344,13.
6.64,6438.,0.,0.,3583.,0.,0.,10021.,0.581435886305,inf,0.
6.66,6444.,1.,0.,3576.,0.,0.,10021.,0.61372267533,31.9135791172,13.
6.68,6447.,2.,1.,3569.,0.,0.,10019.,0.648539118891,16.8620170912,26.
6.7,6457.,0.,1.,3563.,0.,0.,10021.,0.685972413776,inf,0.
6.72,6466.,0.,1.,3554.,0.,0.,10021.,0.725064406743,inf,0.
6.74,6473.,2.,0.,3546.,0.,0.,10021.,0.764954002703,19.8888040703,26.
6.76,6478.,2.,0.,3542.,0.,0.,10022.,0.804910461099,20.9276719886,26.
6.78,6487.,2.,1.,3533.,0.,0.,10023.,0.845129727896,21.9733729253,26.
6.8,6493.,3.,1.,3528.,0.,0.,10025.,0.884022474069,15.3230562172,39.
6.82,6505.,4.,0.,3519.,0.,0.,10028.,0.922194345659,11.9885264936,52.
6.84,6510.,4.,3.,3510.,0.,0.,10027.,0.957711894434,12.4502546276,52.
6.86,6516.,3.,3.,3506.,0.,0.,10028.,0.990576181446,17.1699871451,39.
6.88,6509.,9.,6.,3505.,0.,0.,10029.,1.01828274222,5.88341139947,117.
6.9,6511.,6.,11.,3501.,0.,0.,10029.,1.04384731729,9.04667674982,78.
6.92,6508.,10.,2.,3508.,0.,0.,10028.,1.06468963163,5.53638608448,130.
6.94,6513.,9.,0.,3507.,0.,0.,10029.,1.08227389503,6.25313806017,117.
6.96,6524.,8.,4.,3496.,0.,0.,10032.,1.09604013635,7.12426088624,104.
6.98,6525.,16.,5.,3487.,0.,0.,10033.,1.10353502448,3.58648882958,208.
7.,6537.,14.,7.,3482.,0.,0.,10040.,1.10728835926,4.11278533438,182.
7.02,6543.,18.,9.,3474.,0.,0.,10044.,1.10536735423,3.19328346778,234.
7.04,6537.,23.,5.,3478.,0.,0.,10043.,1.09702127835,2.48022202062,299.
7.06,6533.,23.,7.,3478.,0.,0.,10041.,1.08429992424,2.45146069829,299.
7.08,6534.,21.,11.,3479.,0.,0.,10045.,1.06713409247,2.64242727659,273.
7.1,6525.,23.,12.,3483.,0.,0.,10043.,1.04463354743,2.3617801942,299.
7.12,6511.,33.,14.,3480.,0.,0.,10038.,1.0176823611,1.60362069022,429.
7.14,6504.,20.,20.,3494.,0.,0.,10038.,0.987766907036,2.56819395829,260.
7.16,6493.,37.,9.,3501.,0.,0.,10040.,0.953974130139,1.34072039911,481.
7.18,6490.,36.,14.,3500.,0.,0.,10040.,0.918968157957,1.32739845038,468.
7.2,6484.,24.,24.,3506.,0.,0.,10038.,0.881653831591,1.91024996845,312.
7.22,6480.,28.,12.,3525.,0.,0.,10045.,0.842368805495,1.56439921021,364.
7.24,6475.,33.,12.,3526.,0.,0.,10046.,0.802615653258,1.26472769604,429.
7.26,6471.,29.,13.,3535.,0.,0.,10048.,0.76266277621,1.36753325389,377.
7.28,6468.,33.,11.,3538.,0.,0.,10050.,0.723195803789,1.13958126658,429.
7.3,6466.,30.,9.,3543.,0.,0.,10048.,0.685082699912,1.18747667985,390.
7.32,6465.,22.,13.,3547.,0.,0.,10047.,0.648537376718,1.53290652679,286.
7.34,6469.,21.,11.,3545.,0.,0.,10046.,0.614570453858,1.52179350479,273.
7.36,6476.,13.,10.,3548.,0.,0.,10047.,0.583354242391,2.33341696956,169.
7.38,6479.,15.,6.,3551.,0.,0.,10051.,0.554718792822,1.92302514845,195.
7.4,6484.,8.,6.,3551.,0.,0.,10049.,0.530160443243,3.44604288108,104.
7.42,6493.,9.,2.,3546.,0.,0.,10050.,0.509719516914,2.94504609772,117.
7.44,6495.,8.,2.,3538.,0.,0.,10043.,0.493429473428,3.20729157728,104.
7.46,6508.,5.,3.,3531.,0.,0.,10047.,0.482006037212,5.01286278701,65.
7.48,6510.,6.,4.,3528.,0.,0.,10048.,0.474698202224,4.11405108594,78.
7.5,6509.,5.,4.,3523.,0.,0.,10041.,0.472472440789,4.9137133842,65.
7.52,6515.,5.,5.,3517.,0.,0.,10042.,0.475346639302,4.94360504874,65.
7.54,6519.,1.,4.,3518.,0.,0.,10042.,0.483061137715,25.1191791612,13.
7.56,6528.,2.,0.,3513.,0.,0.,10043.,0.495936505394,12.8943491403,26.
7.58,6532.,1.,1.,3505.,0.,0.,10039.,0.513342999097,26.6938359531,13.
7.6,6537.,1.,0.,3502.,0.,0.,10040.,0.534973085094,27.8186004249,13.
7.62,6550.,1.,0.,3496.,0.,0.,10047.,0.56102093801,29.1730887765,13.
7.64,6558.,1.,0.,3488.,0.,0.,10047.,0.590740753799,30.7185191975,13.
7.66,6566.,1.,1.,3478.,0.,0.,10046.,0.623785685582,32.4368556503,13.
7.68,6571.,1.,1.,3470.,0.,0.,10043.,0.659433320896,34.2905326866,13.
7.7,6577.,3.,0.,3464.,0.,0.,10044.,0.697120837834,12.0834278558,39.
7.72,6587.,2.,1.,3454.,0.,0.,10044.,0.736941319258,19.1604743007,26.
7.74,6591.,2.,0.,3450.,0.,0.,10043.,0.777192543969,20.2070061432,26.
7.76,6597.,3.,2.,3443.,0.,0.,10045.,0.817819703178,14.1755415218,39.
7.78,6601.,3.,0.,3437.,0.,0.,10041.,0.858440060759,14.8796277198,39.
7.8,6612.,3.,1.,3429.,0.,0.,10045.,0.89843195073,15.5728204793,39.
7.82,6618.,4.,0.,3425.,0.,0.,10047.,0.93643974927,12.1737167405,52.
7.84,6616.,4.,2.,3423.,0.,0.,10045.,0.971561872142,12.6303043378,52.
7.86,6621.,6.,3.,3416.,0.,0.,10046.,1.00473503148,8.70770360616,78.
7.88,6628.,6.,4.,3410.,0.,0.,10048.,1.03493867501,8.96946851675,78.
7.9,6630.,9.,3.,3404.,0.,0.,10046.,1.06112676741,6.13095465616,117.
7.92,6627.,13.,4.,3398.,0.,0.,10042.,1.08264620857,4.33058483426,169.
7.94,6631.,12.,5.,3391.,0.,0.,10039.,1.10078451091,4.77006621396,156.
7.96,6632.,12.,6.,3387.,0.,0.,10037.,1.11362923254,4.82572667435,156.
7.98,6627.,17.,5.,3388.,0.,0.,10037.,1.12033902531,3.42691937154,221.
8.,6629.,17.,10.,3382.,0.,0.,10038.,1.12309576549,3.43535175325,221.
8.02,6622.,20.,6.,3386.,0.,0.,10034.,1.11982845171,2.91155397445,260.
8.04,6618.,26.,9.,3382.,0.,0.,10035.,1.11149986725,2.22299973451,338.
8.06,6605.,32.,14.,3381.,0.,0.,10032.,1.09723343951,1.78300433921,416.
8.08,6594.,36.,16.,3385.,0.,0.,10031.,1.07843635078,1.55774139558,468.
8.1,6579.,35.,17.,3399.,0.,0.,10030.,1.05464395751,1.56689959402,455.
8.12,6565.,38.,14.,3412.,0.,0.,10029.,1.02704350939,1.40542796022,494.
8.14,6555.,30.,29.,3410.,0.,0.,10024.,0.996902692074,1.72796466626,390.
8.16,6519.,50.,18.,3434.,0.,0.,10021.,0.959610135793,0.997994541225,650.
8.18,6506.,46.,24.,3447.,0.,0.,10023.,0.922796222465,1.04316094713,598.
8.2,6490.,37.,26.,3471.,0.,0.,10024.,0.88370217367,1.24195981164,481.
8.22,6475.,42.,20.,3488.,0.,0.,10025.,0.843398069125,1.0442071332,546.
8.24,6452.,34.,22.,3511.,0.,0.,10019.,0.801919932872,1.22646577969,442.
8.26,6436.,38.,23.,3517.,0.,0.,10014.,0.761113149102,1.04152325667,494.
8.28,6422.,42.,4.,3542.,0.,0.,10010.,0.720921822333,0.892569875269,546.
8.3,6418.,24.,23.,3540.,0.,0.,10005.,0.682919551625,1.47965902852,312.
8.32,6413.,29.,11.,3551.,0.,0.,10004.,0.64608616365,1.15849932792,377.
8.34,6405.,23.,17.,3556.,0.,0.,10001.,0.611228233529,1.38190731059,299.
8.36,6400.,25.,14.,3560.,0.,0.,9999.,0.579275723575,1.20489350504,325.
8.38,6399.,16.,14.,3568.,0.,0.,9997.,0.550828737987,1.79019339846,208.
8.4,6400.,21.,13.,3563.,0.,0.,9997.,0.52601416888,1.30251127532,273.
8.42,6400.,19.,6.,3568.,0.,0.,9993.,0.505284537431,1.38288399718,247.
8.44,6408.,11.,10.,3567.,0.,0.,9996.,0.489108995224,2.31215161379,143.
8.46,6412.,11.,10.,3563.,0.,0.,9996.,0.477318868135,2.25641646755,143.
8.48,6411.,9.,6.,3568.,0.,0.,9994.,0.470005193177,2.71558556058,117.
8.5,6412.,6.,5.,3572.,0.,0.,9995.,0.467573502964,4.05230369236,78.
8.52,6418.,3.,5.,3569.,0.,0.,9995.,0.470471303942,8.154835935,39.
8.54,6422.,2.,0.,3569.,0.,0.,9993.,0.478206802537,12.433376866,26.
8.56,6431.,1.,1.,3563.,0.,0.,9996.,0.490864536249,25.5249558849,13.
8.58,6437.,0.,1.,3558.,0.,0.,9996.,0.50805319094,inf,0.
8.6,6442.,1.,1.,3552.,0.,0.,9996.,0.529519104664,27.5349934425,13.
8.62,6448.,2.,1.,3547.,0.,0.,9998.,0.554991163794,14.4297702586,26.
8.64,6452.,2.,1.,3542.,0.,0.,9997.,0.584099170346,15.186578429,26.
8.66,6461.,2.,2.,3535.,0.,0.,10000.,0.616633962746,16.0324830314,26.
8.68,6460.,2.,0.,3535.,0.,0.,9997.,0.651276952371,16.9332007616,26.
8.7,6468.,0.,2.,3530.,0.,0.,10000.,0.688584017099,inf,0.
8.72,6475.,0.,0.,3524.,0.,0.,9999.,0.727671142761,inf,0.
8.74,6485.,0.,0.,3517.,0.,0.,10002.,0.767827931959,inf,0.
8.76,6495.,0.,0.,3509.,0.,0.,10004.,0.808474821003,inf,0.
8.78,6507.,1.,0.,3499.,0.,0.,10007.,0.849090766021,44.1527198331,13.
8.8,6515.,2.,0.,3490.,0.,0.,10007.,0.888613290981,23.1039455655,26.
8.82,6520.,2.,0.,3483.,0.,0.,10005.,0.926445726202,24.0875888813,26.
8.84,6525.,3.,1.,3475.,0.,0.,10004.,0.962125533885,16.6768425873,39.
8.86,6528.,3.,3.,3465.,0.,0.,9999.,0.995278696095,17.251497399,39.
8.88,6531.,6.,1.,3461.,0.,0.,9999.,1.02478995214,8.88151291857,78.
8.9,6543.,5.,4.,3450.,0.,0.,10002.,1.05180924907,10.9388161903,65.
8.92,6536.,13.,4.,3448.,0.,0.,10001.,1.07215709043,4.28862836172,169.
8.94,6538.,11.,4.,3448.,0.,0.,10001.,1.0894698731,5.15022121827,143.
8.96,6539.,15.,3.,3443.,0.,0.,10000.,1.10207554755,3.82052856483,195.
8.98,6537.,16.,8.,3442.,0.,0.,10003.,1.10888021302,3.60386069231,208.
9.,6530.,22.,3.,3448.,0.,0.,10003.,1.1101939967,2.6240949013,286.
9.02,6524.,24.,8.,3446.,0.,0.,10002.,1.10678565068,2.39803557648,312.
9.04,6521.,25.,5.,3451.,0.,0.,10002.,1.09882208381,2.28554993433,325.
9.06,6514.,23.,13.,3454.,0.,0.,10004.,1.08514508452,2.45337149544,299.
9.08,6510.,27.,11.,3458.,0.,0.,10006.,1.06735845778,2.05565332609,351.
9.1,6503.,25.,14.,3462.,0.,0.,10004.,1.04517012235,2.1739538545,325.
9.12,6496.,23.,16.,3468.,0.,0.,10003.,1.01889044764,2.30357840335,299.
9.14,6481.,31.,15.,3477.,0.,0.,10004.,0.987619074501,1.65665135078,403.
9.16,6472.,28.,16.,3487.,0.,0.,10003.,0.954405970299,1.77246823055,364.
9.18,6463.,30.,11.,3499.,0.,0.,10003.,0.918530044946,1.59211874457,390.
9.2,6464.,34.,12.,3495.,0.,0.,10005.,0.881833390338,1.34868636169,442.
9.22,6450.,41.,10.,3502.,0.,0.,10003.,0.84198946335,1.06788907547,533.
9.24,6448.,29.,17.,3507.,0.,0.,10001.,0.802865189091,1.43962033906,377.
9.26,6426.,37.,10.,3525.,0.,0.,9998.,0.761146693985,1.06971967803,481.
9.28,6420.,31.,15.,3529.,0.,0.,9995.,0.72177889279,1.21072588468,403.
9.3,6415.,29.,18.,3530.,0.,0.,9992.,0.683488421797,1.22556544598,377.
9.32,6409.,34.,10.,3537.,0.,0.,9990.,0.646588039673,0.988899354794,442.
9.34,6411.,20.,13.,3551.,0.,0.,9995.,0.61216807679,1.59163699965,260.
9.36,6411.,18.,9.,3558.,0.,0.,9996.,0.580445504792,1.6768425694,234.
9.38,6420.,15.,6.,3557.,0.,0.,9998.,0.552581152537,1.91561466213,195.
9.4,6425.,16.,4.,3553.,0.,0.,9998.,0.528016094273,1.71605230639,208.
9.42,6425.,11.,9.,3552.,0.,0.,9997.,0.507055340944,2.39698888446,143.
9.44,6434.,9.,6.,3551.,0.,0.,10000.,0.490897082453,2.83629425417,117.
9.46,6443.,10.,6.,3544.,0.,0.,10003.,0.479290916594,2.49231276629,130.
9.48,6447.,8.,4.,3544.,0.,0.,10003.,0.472219183773,3.06942469452,104.
9.5,6455.,5.,4.,3539.,0.,0.,10003.,0.470332678761,4.89145985911,65.
9.52,6463.,4.,2.,3533.,0.,0.,10002.,0.473438454933,6.15469991413,52.
9.54,6468.,3.,2.,3531.,0.,0.,10004.,0.481102555815,8.33911096746,39.
9.56,6469.,2.,1.,3529.,0.,0.,10001.,0.493518137522,12.8314715756,26.
9.58,6476.,0.,2.,3522.,0.,0.,10000.,0.510926891959,inf,0.
9.6,6479.,0.,1.,3515.,0.,0.,9995.,0.532613710986,inf,0.
9.62,6492.,0.,0.,3504.,0.,0.,9996.,0.558890124726,inf,0.
9.64,6495.,0.,0.,3501.,0.,0.,9996.,0.588050780474,inf,0.
9.66,6503.,0.,0.,3494.,0.,0.,9997.,0.620828666142,inf,0.
9.68,6512.,1.,0.,3482.,0.,0.,9995.,0.656650798958,34.1458415458,13.
9.7,6515.,0.,1.,3476.,0.,0.,9992.,0.69414295682,inf,0.
9.72,6523.,1.,1.,3468.,0.,0.,9993.,0.733505609037,38.1422916699,13.
9.74,6537.,1.,0.,3457.,0.,0.,9995.,0.774526823853,40.2753948403,13.
9.76,6549.,0.,0.,3450.,0.,0.,9999.,0.815604190656,inf,0.
9.78,6557.,0.,1.,3440.,0.,0.,9998.,0.856385414859,inf,0.
9.8,6567.,1.,0.,3432.,0.,0.,10000.,0.896332823992,46.6093068476,13.
9.82,6580.,2.,0.,3417.,0.,0.,9999.,0.935532339254,24.3238408206,26.
9.84,6583.,4.,2.,3407.,0.,0.,9996.,0.971454613802,12.6289099794,52.
9.86,6583.,6.,2.,3403.,0.,0.,9994.,1.00416629641,8.7027745689,78.
9.88,6580.,12.,2.,3400.,0.,0.,9994.,1.03299517198,4.47631241191,156.
9.9,6581.,11.,6.,3398.,0.,0.,9996.,1.05855288156,5.00406816739,143.
9.92,6584.,12.,3.,3394.,0.,0.,9993.,1.08089557911,4.68388084282,156.
9.94,6588.,13.,5.,3385.,0.,0.,9991.,1.09890049204,4.39560196818,169.
9.96,6580.,19.,7.,3384.,0.,0.,9990.,1.11009573618,3.03815675165,247.
9.98,6577.,23.,6.,3381.,0.,0.,9987.,1.11745285585,2.52641515235,299.
10.,6578.,24.,7.,3380.,0.,0.,9989.,1.11992210837,2.42649790147,312.
