t,cases
5.01,1.885
5.02,1.885
5.03,2.08
5.04,2.08
5.05,2.925
5.06,2.925
5.07,3.835
5.08,3.835
5.09,4.355
5.1,4.355
5.11,4.16
5.12,4.16
5.13,4.29
5.14,4.29
5.15,5.33
5.16,5.33
5.17,5.915
5.18,5.915
5.19,6.24
5.2,6.24
5.21,6.37
5.22,6.37
5.23,5.07
5.24,5.07
5.25,3.705
5.26,3.705
5.27,3.705
5.28,3.705
5.29,3.77
5.3,3.77
5.31,3.315
5.32,3.315
5.33,2.99
5.34,2.99
5.35,2.99
5.36,2.99
5.37,2.47
5.38,2.47
5.39,1.755
5.4,1.755
5.41,1.365
5.42,1.365
5.43,1.235
5.44,1.235
5.45,1.17
5.46,1.17
5.47,0.975
5.48,0.975
5.49,0.91
5.5,0.91
5.51,0.52
5.52,0.52
5.53,0.065
5.54,0.065
5.55,0.
5.56,0.
5.57,0.
5.58,0.
5.59,0.
5.6,0.
5.61,0.
5.62,0.
5.63,0.065
5.64,0.065
5.65,0.13
5.66,0.13
5.67,0.065
5.68,0.065
5.69,0.
5.7,0.
5.71,0.
5.72,0.
5.73,0.
5.74,0.
5.75,0.065
5.76,0.065
5.77,0.065
5.78,0.065
5.79,0.065
5.8,0.065
5.81,0.13
5.82,0.13
5.83,0.195
5.84,0.195
5.85,0.39
5.86,0.39
5.87,0.455
5.88,0.455
5.89,0.52
5.9,0.52
5.91,0.845
5.92,0.845
5.93,1.04
5.94,1.04
5.95,1.495
5.96,1.495
5.97,2.145
5.98,2.145
5.99,1.95
6.,1.95
6.01,1.95
6.02,1.95
6.03,2.665
6.04,2.665
6.05,3.12
6.06,3.12
6.07,3.25
6.08,3.25
6.09,3.575
6.1,3.575
6.11,4.355
6.12,4.355
6.13,3.835
6.14,3.835
6.15,3.705
6.16,3.705
6.17,4.615
6.18,4.615
6.19,4.68
6.2,4.68
6.21,4.29
6.22,4.29
6.23,4.03
6.24,4.03
6.25,4.355
6.26,4.355
6.27,4.615
6.28,4.615
6.29,3.64
6.3,3.64
6.31,2.73
6.32,2.73
6.33,2.6
6.34,2.6
6.35,2.535
6.36,2.535
6.37,2.47
6.38,2.47
6.39,2.015
6.4,2.015
6.41,1.365
6.42,1.365
6.43,1.105
6.44,1.105
6.45,1.235
6.46,1.235
6.47,0.975
6.48,0.975
6.49,0.715
6.5,0.715
6.51,0.585
6.52,0.585
6.53,0.455
6.54,0.455
6.55,0.39
6.56,0.39
6.57,0.26
6.58,0.26
6.59,0.13
6.6,0.13
6.61,0.195
6.62,0.195
6.63,0.26
6.64,0.26
6.65,0.195
6.66,0.195
6.67,0.195
6.68,0.195
6.69,0.26
6.7,0.26
6.71,0.13
6.72,0.13
6.73,0.13
6.74,0.13
6.75,0.325
6.76,0.325
6.77,0.325
6.78,0.325
6.79,0.26
6.8,0.26
6.81,0.325
6.82,0.325
6.83,0.39
6.84,0.39
6.85,0.585
6.86,0.585
6.87,0.78
6.88,0.78
6.89,0.845
6.9,0.845
6.91,1.105
6.92,1.105
6.93,1.105
6.94,1.105
6.95,1.43
6.96,1.43
6.97,1.82
6.98,1.82
6.99,1.495
7.,1.495
7.01,1.755
7.02,1.755
7.03,2.665
7.04,2.665
7.05,3.25
7.06,3.25
7.07,3.705
7.08,3.705
7.09,4.485
7.1,4.485
7.11,5.005
7.12,5.005
7.13,5.07
7.14,5.07
7.15,5.135
7.16,5.135
7.17,4.94
7.18,4.94
7.19,4.29
7.2,4.29
7.21,4.095
7.22,4.095
7.23,4.68
7.24,4.68
7.25,4.55
7.26,4.55
7.27,3.64
7.28,3.64
7.29,2.99
7.3,2.99
7.31,2.925
7.32,2.925
7.33,3.12
7.34,3.12
7.35,2.795
7.36,2.795
7.37,2.665
7.38,2.665
7.39,2.6
7.4,2.6
7.41,1.95
7.42,1.95
7.43,1.17
7.44,1.17
7.45,0.715
7.46,0.715
7.47,0.52
7.48,0.52
7.49,0.52
7.5,0.52
7.51,0.65
7.52,0.65
7.53,0.52
7.54,0.52
7.55,0.26
7.56,0.26
7.57,0.13
7.58,0.13
7.59,0.0650000000001
7.6,0.0649999999999
7.61,0.
7.62,0.
7.63,0.
7.64,0.
7.65,0.0649999999999
7.66,0.0650000000001
7.67,0.195
7.68,0.195
7.69,0.13
7.7,0.13
7.71,0.
7.72,0.
7.73,0.
7.74,0.
7.75,0.
7.76,0.
7.77,0.
7.78,0.
7.79,0.0649999999999
7.8,0.0650000000001
7.81,0.455
7.82,0.455
7.83,0.845
7.84,0.845
7.85,0.845
7.86,0.845
7.87,1.105
7.88,1.105
7.89,1.235
7.9,1.235
7.91,1.3
7.92,1.3
7.93,1.56
7.94,1.56
7.95,1.56
7.96,1.56
7.97,1.69
7.98,1.69
7.99,1.95
8.,1.95
8.01,2.275
8.02,2.275
8.03,2.275
8.04,2.275
8.05,2.86
8.06,2.86
8.07,3.965
8.08,3.965
8.09,4.55
8.1,4.55
8.11,5.2
8.12,5.2
8.13,5.33
8.14,5.33
8.15,5.33
8.16,5.33
8.17,5.265
8.18,5.265
8.19,5.005
8.2,5.005
8.21,5.135
8.22,5.135
8.23,5.135
8.24,5.135
8.25,4.615
8.26,4.615
8.27,4.485
8.28,4.485
8.29,4.485
8.3,4.485
8.31,3.445
8.32,3.445
8.33,2.925
8.34,2.925
8.35,2.925
8.36,2.925
8.37,2.21
8.38,2.21
8.39,1.495
8.4,1.495
8.41,1.365
8.42,1.365
8.43,1.235
8.44,1.235
8.45,0.78
8.46,0.78
8.47,0.585
8.48,0.585
8.49,0.585
8.5,0.585
8.51,0.39
8.52,0.39
8.53,0.195
8.54,0.195
8.55,0.13
8.56,0.13
8.57,0.13
8.58,0.13
8.59,0.13
8.6,0.13
8.61,0.13
8.62,0.13
8.63,0.0650000000001
8.64,0.0649999999999
8.65,0.13
8.66,0.13
8.67,0.325
8.68,0.325
8.69,0.325
8.7,0.325
8.71,0.13
8.72,0.13
8.73,0.
8.74,0.
8.75,0.
8.76,0.
8.77,0.
8.78,0.
8.79,0.
8.8,0.
8.81,0.0649999999999
8.82,0.0650000000001
8.83,0.13
8.84,0.13
8.85,0.39
8.86,0.39
8.87,0.585
8.88,0.585
8.89,0.845
8.9,0.845
8.91,1.3
8.92,1.3
8.93,1.43
8.94,1.43
8.95,1.95
8.96,1.95
8.97,2.535
8.98,2.535
8.99,2.47
9.,2.47
9.01,2.21
9.02,2.21
9.03,2.6
9.04,2.6
9.05,3.575
9.06,3.575
9.07,3.705
9.08,3.705
9.09,3.51
9.1,3.51
9.11,3.315
9.12,3.315
9.13,3.315
9.14,3.315
9.15,3.835
9.16,3.835
9.17,4.355
9.18,4.355
9.19,4.68
9.2,4.68
9.21,4.485
9.22,4.485
9.23,4.355
9.24,4.355
9.25,3.9
9.26,3.9
9.27,3.575
9.28,3.575
9.29,3.38
9.3,3.38
9.31,2.99
9.32,2.99
9.33,2.86
9.34,2.86
9.35,2.6
9.36,2.6
9.37,2.34
9.38,2.34
9.39,1.885
9.4,1.885
9.41,1.625
9.42,1.625
9.43,1.56
9.44,1.56
9.45,1.04
9.46,1.04
9.47,0.52
9.48,0.52
9.49,0.26
9.5,0.26
9.51,0.0650000000001
9.52,0.0649999999999
9.53,0.0649999999999
9.54,0.0650000000001
9.55,0.195
9.56,0.195
9.57,0.26
9.58,0.26
9.59,0.325
9.6,0.325
9.61,0.325
9.62,0.325
9.63,0.195
9.64,0.195
9.65,0.0650000000001
9.66,0.0649999999999
9.67,0.
9.68,0.
9.69,0.
9.7,0.
9.71,0.
9.72,0.
9.73,0.0650000000001
9.74,0.0649999999999
9.75,0.195
9.76,0.195
9.77,0.195
9.78,0.195
9.79,0.0649999999999
9.8,0.0650000000001
9.81,0.13
9.82,0.13
9.83,0.325
9.84,0.325
9.85,0.52
9.86,0.52
9.87,0.585
9.88,0.585
9.89,0.455
9.9,0.455
9.91,0.39
9.92,0.39
9.93,0.39
9.94,0.39
9.95,0.65
9.96,0.65
9.97,0.78
9.98,0.78
9.99,1.04
10.,1.04
