t,neff
5.,0.279161869305
5.02,0.296874463664
5.04,0.387201461949
5.06,0.444943223692
5.08,0.506691945923
5.1,0.425149229157
5.12,0.550659019796
5.14,0.744921785195
5.16,0.852144998298
5.18,0.928014537338
5.2,1.05715186563
5.22,0.923482853013
5.24,0.970029543599
5.26,0.919540244682
5.28,0.645971094281
5.3,0.739619391296
5.32,0.780592067152
5.34,0.63434292323
5.36,0.768844379101
5.38,0.597590634647
5.4,0.625412261001
5.42,0.382602783934
5.44,0.355563549308
5.46,0.3231400872
5.48,0.081907676353
5.5,0.287544427759
5.52,0.122383292921
5.54,0.0801562821647
5.56,0.117057061143
5.58,0.0753723755339
5.6,0.0361521066113
5.62,0.
5.64,0.
5.66,0.
5.68,0.
5.7,0.0552120786905
5.72,0.0261235007651
5.74,0.
5.76,0.0469323016051
5.78,0.0670165716116
5.8,0.0213233754501
5.82,0.0409128818778
5.84,0.0985095580352
5.86,0.0570313300836
5.88,0.0738198575106
5.9,0.108029481431
5.92,0.141017330601
5.94,0.242759621999
5.96,0.222994712893
5.98,0.153188525131
6.,0.203884369064
6.02,0.426641114394
6.04,0.464376860663
6.06,0.50474032059
6.08,0.459847425578
6.1,0.687957617819
6.12,0.612431850072
6.14,0.63091937272
6.16,0.872678596784
6.18,0.92669575396
6.2,1.03217649635
6.22,0.900604648535
6.24,0.827158053094
6.26,0.871696718192
6.28,0.682388707218
6.3,0.720869904968
6.32,0.730743882811
6.34,0.647638600364
6.36,0.648949810372
6.38,0.443183154179
6.4,0.606701304553
6.42,0.51944342235
6.44,0.498394755007
6.46,0.353395698471
6.48,0.159416680411
6.5,0.20016188802
6.52,0.119325624931
6.54,0.0390905049965
6.56,0.
6.58,0.
6.6,0.0352618429287
6.62,0.0335640668373
6.64,0.0318600842318
6.66,0.0301507282128
6.68,0.0285171782783
6.7,0.0269585322616
6.72,0.0254850339478
6.74,0.0482827781764
6.76,0.0458394038877
6.78,0.0436361240408
6.8,0.
6.82,0.0399041141607
6.84,0.0384297129842
6.86,0.111511110658
6.88,0.16235014713
6.9,0.193352469485
6.92,0.206607244452
6.94,0.271249184528
6.96,0.150746878543
6.98,0.199566633599
7.,0.29879411405
7.02,0.332743111146
7.04,0.351802768282
7.06,0.389919446581
7.08,0.518222833398
7.1,0.617955403962
7.12,0.52481894511
7.14,0.521520058555
7.16,0.772035836253
7.18,0.882670194327
7.2,0.794053272553
7.22,0.809395112531
7.24,0.735535267985
7.26,0.799729395142
7.28,0.79284290924
7.3,0.72956587809
7.32,0.799417459477
7.34,0.694429378278
7.36,0.668577043691
7.38,0.669056517609
7.4,0.664774889587
7.42,0.728633270742
7.44,0.338914130305
7.46,0.501757810264
7.48,0.43097993032
7.5,0.354025102264
7.52,0.0781817707852
7.54,0.0768246852138
7.56,0.0373628134957
7.58,0.
7.6,0.
7.62,0.
7.64,0.
7.66,0.
7.68,0.0560126463695
7.7,0.052981353639
7.72,0.
7.74,0.
7.76,0.
7.78,0.0214722663113
7.8,0.0410037403074
7.82,0.058979585023
7.84,0.0189155648963
7.86,0.0914770073845
7.88,0.106634169688
7.9,0.0866138911314
7.92,0.15275620161
7.94,0.133653042206
7.96,0.164967602575
7.98,0.229589065
8.,0.196150473772
8.02,0.245650271859
8.04,0.330166965281
8.06,0.317139309089
8.08,0.475732891114
8.1,0.485887976352
8.12,0.588050787379
8.14,0.588641828416
8.16,0.704493939752
8.18,0.592696305813
8.2,0.929319549143
8.22,1.03875212432
8.24,0.817102347293
8.26,1.15060309927
8.28,0.884558056249
8.3,0.854279555122
8.32,0.676708736283
8.34,0.416685607661
8.36,0.596064122787
8.38,0.494219558523
8.4,0.517213775288
8.42,0.358910354043
8.44,0.371076617899
8.46,0.41848587688
8.48,0.347071858715
8.5,0.154898616602
8.52,0.153724249876
8.54,0.0755777773435
8.56,0.
8.58,0.
8.6,0.
8.62,0.
8.64,0.
8.66,0.0291591874446
8.68,0.
8.7,0.
8.72,0.0492998404168
8.74,0.
8.76,0.
8.78,0.0211170166326
8.8,0.0605684058148
8.82,0.0193752118926
8.84,0.130687851816
8.86,0.126326987511
8.88,0.14026099897
8.9,0.119524206026
8.92,0.200903225919
8.94,0.115210244773
8.96,0.130040725714
8.98,0.193510451221
9.,0.386840492304
9.02,0.355524701714
9.04,0.406746193376
9.06,0.428527034143
9.08,0.334606628673
9.1,0.375705246858
9.12,0.403038154542
9.14,0.542642986905
9.16,0.769069344829
9.18,0.780530671811
9.2,0.977911854052
9.22,0.810274479527
9.24,0.873525456899
9.26,0.753281305339
9.28,0.695656876936
9.3,0.524355729864
9.32,0.38782727077
9.34,0.409338318196
9.36,0.493417760896
9.38,0.681036787085
9.4,0.645391376899
9.42,0.424307991838
9.44,0.621144909293
9.46,0.59919841267
9.48,0.380006242074
9.5,0.114416266489
9.52,0.227366298886
9.54,0.149012565806
9.56,0.108885750223
9.58,0.0700902678876
9.6,0.100810154481
9.62,0.0961785690178
9.64,0.0913600715439
9.66,0.0865169459436
9.68,0.0818108339762
9.7,0.0257864116546
9.72,0.0243881197362
9.74,0.0462171495059
9.76,0.0439170296431
9.78,0.0418287507797
9.8,0.119995663883
9.82,0.0959280822366
9.84,0.0738362174798
9.86,0.125016657137
9.88,0.138709623627
9.9,0.152165964862
9.92,0.132478491559
9.94,0.162858265973
9.96,0.177205214076
9.98,0.175981687235
10.,0.143483029471
