t,neff
5.,0.32518852286
5.02,0.271926028738
5.04,0.402183389637
5.06,0.536695180137
5.08,0.564259534539
5.1,0.441154049592
5.12,0.511875830053
5.14,0.567375096945
5.16,0.523517490274
5.18,0.58690565606
5.2,0.612274290421
5.22,0.664887613166
5.24,0.773439534071
5.26,0.893422205568
5.28,0.775475462487
5.3,0.848388959349
5.32,0.80347592364
5.34,0.521963564591
5.36,0.515606996104
5.38,0.724124345093
5.4,0.568001413
5.42,0.433322016402
5.44,0.447511929863
5.46,0.333110107903
5.48,0.126707382042
5.5,0.296822215539
5.52,0.295119832458
5.54,0.041462941679
5.56,0.
5.58,0.077880956748
5.6,0.0373228359206
5.62,0.0355855392445
5.64,0.0337854245811
5.66,0.0320002771944
5.68,0.0604530196526
5.7,0.
5.72,0.0270337820091
5.74,0.0768708055405
5.76,0.0243161404223
5.78,0.0231541651572
5.8,0.0663555030357
5.82,0.106048942858
5.84,0.0611972538585
5.86,0.0986081055174
5.88,0.153203497257
5.9,0.168145844015
5.92,0.201595080846
5.94,0.234433670043
5.96,0.160340968248
5.98,0.336549638467
6.,0.389093421451
6.02,0.443207934232
6.04,0.464693616302
6.06,0.41607048908
6.08,0.552026547348
6.1,0.564393537723
6.12,0.657032184044
6.14,0.637893210514
6.16,0.723025463384
6.18,0.837165344814
6.2,0.715769005433
6.22,0.748844984465
6.24,0.736988270051
6.26,0.74915797746
6.28,0.681009312014
6.3,0.459685078402
6.32,0.546182508169
6.34,0.672575305372
6.36,0.472318216285
6.38,0.354524064648
6.4,0.40797170335
6.42,0.463287876173
6.44,0.398953649058
6.46,0.368034501283
6.48,0.332236188188
6.5,0.375630053746
6.52,0.290716760239
6.54,0.163357702421
6.56,0.158974807132
6.58,0.115227787587
6.6,0.184176888747
6.62,0.0702332723828
6.64,0.0667392057109
6.66,0.
6.68,0.
6.7,0.
6.72,0.0267113931325
6.74,0.0253182573839
6.76,0.
6.78,0.
6.8,0.
6.82,0.
6.84,0.0404310222817
6.86,0.0977403128246
6.88,0.113877083084
6.9,0.111002097408
6.92,0.108778949036
6.94,0.285640612177
6.96,0.30029418208
6.98,0.298512514807
7.,0.297791165057
7.02,0.298395626056
7.04,0.33597438986
7.06,0.33981926078
7.08,0.436656334122
7.1,0.483247211918
7.12,0.495489479612
7.14,0.668303659332
7.16,0.712018992425
7.18,0.612351069746
7.2,0.550413286478
7.22,0.460657803207
7.24,0.531869878391
7.26,0.636299811433
7.28,0.643863616062
7.3,0.509451541423
7.32,0.53818351414
7.34,0.441688440636
7.36,0.598820104038
7.38,0.594707652908
7.4,0.365672393409
7.42,0.190193120306
7.44,0.275064799697
7.46,0.201280365978
7.48,0.245144016056
7.5,0.123102545657
7.52,0.0815749272845
7.54,0.
7.56,0.
7.58,0.
7.6,0.
7.62,0.
7.64,0.
7.66,0.
7.68,0.0292928471871
7.7,0.0276687505011
7.72,0.0261651342628
7.74,0.
7.76,0.0471245322599
7.78,0.0448690011554
7.8,0.0428888695192
7.82,0.0411002602701
7.84,0.0593629755217
7.86,0.0764723294856
7.88,0.130016764265
7.9,0.181255978101
7.92,0.177462063115
7.94,0.2271314202
7.96,0.172716765586
7.98,0.223067964503
8.,0.29105868289
8.02,0.240202989537
8.04,0.310952617978
8.06,0.314300794966
8.08,0.408122109894
8.1,0.398723775348
8.12,0.408887202065
8.14,0.516509966372
8.16,0.633155025345
8.18,0.678290115461
8.2,0.729743523933
8.22,0.810125464461
8.24,0.684881657489
8.26,0.921076988272
8.28,0.944712246233
8.3,0.9425145584
8.32,0.879159506507
8.34,0.680591613706
8.36,0.717132160739
8.38,0.651632322762
8.4,0.57479139595
8.42,0.411612786385
8.44,0.232048097811
8.46,0.198100138694
8.48,0.160643916964
8.5,0.161397476564
8.52,0.0801436563865
8.54,0.0394050389388
8.56,0.
8.58,0.
8.6,0.
8.62,0.
8.64,0.
8.66,0.
8.68,0.
8.7,0.
8.72,0.
8.74,0.
8.76,0.0231406452267
8.78,0.0441057286174
8.8,0.0210753721182
8.82,0.121323629457
8.84,0.136299436033
8.86,0.0376376809101
8.88,0.128093158316
8.9,0.17842967142
8.92,0.104809568632
8.94,0.137648744737
8.96,0.221272415705
8.98,0.203056366632
9.,0.287362908337
9.02,0.407292295376
9.04,0.410650196931
9.06,0.415362716392
9.08,0.510179090073
9.1,0.413175029815
9.12,0.516742166831
9.14,0.704283869924
9.16,0.74992920413
9.18,0.738308964253
9.2,0.748781152439
9.22,0.670888516078
9.24,1.01272249139
9.26,0.918231567378
9.28,0.864012345277
9.3,0.718384857687
9.32,0.817410206234
9.34,0.708975368508
9.36,0.650078442839
9.38,0.512312836295
9.4,0.321841953019
9.42,0.371916159447
9.44,0.423022445911
9.46,0.157526232308
9.48,0.159829308277
9.5,0.120227371944
9.52,0.
9.54,0.
9.56,0.
9.58,0.
9.6,0.
9.62,0.
9.64,0.
9.66,0.
9.68,0.
9.7,0.
9.72,0.0255781905023
9.74,0.0242394724393
9.76,0.0230069765121
9.78,0.0438573408671
9.8,0.0419028413681
9.82,0.0401994331315
9.84,0.0774267095677
9.86,0.131013286041
9.88,0.0907887581454
9.9,0.124002936519
9.92,0.138843516314
9.94,0.102477011575
9.96,0.219558977114
9.98,0.234992265556
10.,0.268298642333
