t,prevalence
5.,3
5.02,2
5.04,3
5.06,3
5.08,5
5.1,4
5.12,8
5.14,4
5.16,10
5.18,5
5.2,11
5.22,8
5.24,8
5.26,10
5.28,7
5.3,3
5.32,2
5.34,8
5.36,2
5.38,3
5.4,1
5.42,3
5.44,1
5.46,0
5.48,1
5.5,1
5.52,0
5.54,1
5.56,1
5.58,0
5.6,1
5.62,0
5.64,0
5.66,0
5.68,0
5.7,0
5.72,1
5.74,0
5.76,1
5.78,0
5.8,0
5.82,0
5.84,0
5.86,1
5.88,2
5.9,0
5.92,0
5.94,1
5.96,4
5.98,1
6.,1
6.02,5
6.04,7
6.06,3
6.08,3
6.1,1
6.12,4
6.14,5
6.16,9
6.18,14
6.2,7
6.22,6
6.24,8
6.26,8
6.28,12
6.3,1
6.32,3
6.34,4
6.36,5
6.38,2
6.4,2
6.42,6
6.44,3
6.46,5
6.48,1
6.5,2
6.52,0
6.54,0
6.56,0
6.58,0
6.6,0
6.62,0
6.64,0
6.66,0
6.68,0
6.7,0
6.72,0
6.74,0
6.76,0
6.78,0
6.8,1
6.82,0
6.84,1
6.86,1
6.88,2
6.9,0
6.92,2
6.94,1
6.96,1
6.98,3
7.,5
7.02,3
7.04,6
7.06,9
7.08,5
7.1,2
7.12,4
7.14,9
7.16,9
7.18,5
7.2,5
7.22,14
7.24,5
7.26,12
7.28,6
7.3,5
7.32,6
7.34,5
7.36,4
7.38,2
7.4,3
7.42,0
7.44,4
7.46,1
7.48,6
7.5,3
7.52,0
7.54,1
7.56,1
7.58,0
7.6,0
7.62,0
7.64,0
7.66,0
7.68,0
7.7,0
7.72,1
7.74,1
7.76,0
7.78,0
7.8,0
7.82,1
7.84,2
7.86,0
7.88,2
7.9,2
7.92,2
7.94,4
7.96,4
7.98,0
8.,3
8.02,2
8.04,2
8.06,6
8.08,7
8.1,6
8.12,8
8.14,11
8.16,7
8.18,8
8.2,8
8.22,6
8.24,11
8.26,9
8.28,10
8.3,6
8.32,5
8.34,9
8.36,4
8.38,1
8.4,3
8.42,1
8.44,0
8.46,2
8.48,0
8.5,4
8.52,0
8.54,0
8.56,1
8.58,0
8.6,0
8.62,0
8.64,0
8.66,0
8.68,1
8.7,0
8.72,0
8.74,0
8.76,1
8.78,1
8.8,1
8.82,4
8.84,3
8.86,3
8.88,2
8.9,2
8.92,0
8.94,5
8.96,6
8.98,4
9.,2
9.02,6
9.04,5
9.06,2
9.08,2
9.1,9
9.12,7
9.14,13
9.16,10
9.18,5
9.2,9
9.22,13
9.24,8
9.26,11
9.28,10
9.3,8
9.32,8
9.34,9
9.36,5
9.38,5
9.4,1
9.42,5
9.44,1
9.46,2
9.48,4
9.5,2
9.52,0
9.54,1
9.56,0
9.58,0
9.6,0
9.62,0
9.64,0
9.66,1
9.68,0
9.7,1
9.72,1
9.74,1
9.76,1
9.78,1
9.8,1
9.82,1
9.84,3
9.86,1
9.88,0
9.9,3
9.92,2
9.94,3
9.96,2
9.98,7
10.,1
