t,s,e,i,r,c,o,n,reff,coal,reportr
5.,6720.,3.,17.,3260.,0.,0.,10000.,1.09027671153,18.8981296665,39.
5.02,6700.,28.,3.,3265.,0.,0.,9996.,1.08501682688,2.01503124992,364.
5.04,6697.,24.,11.,3264.,0.,0.,9996.,1.07722290952,2.33398297064,312.
5.06,6691.,23.,15.,3266.,0.,0.,9995.,1.06432305101,2.4062955936,299.
5.08,6684.,23.,14.,3276.,0.,0.,9997.,1.046424876,2.36583015443,299.
5.1,6681.,24.,22.,3274.,0.,0.,10001.,1.02469934893,2.22018192269,312.
5.12,6670.,27.,18.,3287.,0.,0.,10002.,0.998164746692,1.922391364,351.
5.14,6656.,38.,11.,3296.,0.,0.,10001.,0.96792680531,1.32453141779,494.
5.16,6653.,36.,17.,3294.,0.,0.,10000.,0.936254528832,1.35236765276,468.
5.18,6627.,45.,14.,3313.,0.,0.,9999.,0.89887930572,1.0387049755,585.
5.2,6610.,45.,19.,3323.,0.,0.,9997.,0.860965109786,0.994893015753,585.
5.22,6602.,42.,16.,3335.,0.,0.,9995.,0.822851438883,1.01876844814,546.
5.24,6602.,32.,15.,3347.,0.,0.,9996.,0.784624381785,1.2750146204,416.
5.26,6602.,28.,9.,3359.,0.,0.,9998.,0.746027204339,1.38547909377,364.
5.28,6604.,24.,16.,3355.,0.,0.,9999.,0.708033725417,1.53407307174,312.
5.3,6602.,20.,16.,3359.,0.,0.,9997.,0.670724630723,1.74388403988,260.
5.32,6595.,20.,11.,3368.,0.,0.,9994.,0.634497388269,1.6496932095,260.
5.34,6597.,16.,15.,3365.,0.,0.,9993.,0.601076566599,1.95349884145,208.
5.36,6582.,27.,2.,3379.,0.,0.,9990.,0.568860544837,1.09558327154,351.
5.38,6584.,26.,3.,3382.,0.,0.,9995.,0.54079503586,1.08159007172,338.
5.4,6586.,20.,10.,3380.,0.,0.,9996.,0.516456966572,1.34278811309,260.
5.42,6586.,12.,13.,3382.,0.,0.,9993.,0.496054348516,2.14956884357,156.
5.44,6589.,15.,4.,3386.,0.,0.,9994.,0.479889289617,1.66361620401,195.
5.46,6601.,6.,7.,3384.,0.,0.,9998.,0.468694046102,4.06201506621,78.
5.48,6605.,5.,1.,3385.,0.,0.,9996.,0.461864199118,4.80338767083,65.
5.5,6608.,2.,5.,3382.,0.,0.,9997.,0.459611640492,11.9499026528,26.
5.52,6609.,5.,3.,3377.,0.,0.,9994.,0.462236389188,4.80725844755,65.
5.54,6611.,3.,2.,3375.,0.,0.,9991.,0.469732959862,8.14203797095,39.
5.56,6618.,1.,3.,3366.,0.,0.,9988.,0.482290962586,25.0791300545,13.
5.58,6624.,1.,0.,3363.,0.,0.,9988.,0.499166248172,25.956644905,13.
5.6,6626.,1.,1.,3357.,0.,0.,9985.,0.520166074036,27.0486358499,13.
5.62,6635.,1.,0.,3352.,0.,0.,9988.,0.545366008986,28.3590324672,13.
5.64,6643.,2.,1.,3345.,0.,0.,9991.,0.574075108611,14.9259528239,26.
5.66,6649.,1.,1.,3342.,0.,0.,9993.,0.605814474961,31.502352698,13.
5.68,6658.,1.,2.,3335.,0.,0.,9996.,0.64043038306,33.3023799191,13.
5.7,6665.,1.,0.,3326.,0.,0.,9992.,0.677463896272,35.2281226061,13.
5.72,6674.,1.,0.,3317.,0.,0.,9992.,0.716039903655,37.2340749901,13.
5.74,6679.,1.,0.,3310.,0.,0.,9990.,0.755332605347,39.277295478,13.
5.76,6689.,1.,1.,3299.,0.,0.,9990.,0.795441480372,41.3629569793,13.
5.78,6696.,0.,0.,3294.,0.,0.,9990.,0.834984989252,inf,0.
5.8,6710.,1.,1.,3283.,0.,0.,9995.,0.874165186057,45.456589675,13.
5.82,6716.,2.,1.,3279.,0.,0.,9998.,0.911042285396,23.6870994203,26.
5.84,6720.,3.,3.,3270.,0.,0.,9996.,0.946061640311,16.3984017654,39.
5.86,6726.,5.,1.,3265.,0.,0.,9997.,0.978497683933,10.1763759129,65.
5.88,6721.,5.,3.,3261.,0.,0.,9990.,1.00700505537,10.4728525758,65.
5.9,6725.,8.,2.,3254.,0.,0.,9989.,1.03268695579,6.7124652126,104.
5.92,6728.,9.,1.,3251.,0.,0.,9989.,1.05415694873,6.09068459266,117.
5.94,6736.,7.,5.,3242.,0.,0.,9990.,1.07201738154,7.96355769146,91.
5.96,6732.,10.,6.,3241.,0.,0.,9989.,1.0836115458,5.63478003818,130.
5.98,6732.,12.,2.,3241.,0.,0.,9987.,1.09118145309,4.72845296339,156.
6.,6734.,12.,5.,3236.,0.,0.,9987.,1.09397028271,4.74053789174,156.
6.02,6737.,13.,8.,3228.,0.,0.,9986.,1.09210124911,4.36840499645,169.
6.04,6730.,20.,6.,3236.,0.,0.,9992.,1.08296437016,2.81570736241,260.
6.06,6729.,25.,9.,3232.,0.,0.,9995.,1.07036762969,2.22636466976,325.
6.08,6719.,28.,10.,3236.,0.,0.,9993.,1.05232541642,1.9543186305,364.
6.1,6717.,32.,8.,3236.,0.,0.,9993.,1.03104560819,1.67544911331,416.
6.12,6712.,15.,24.,3238.,0.,0.,9989.,1.00575726495,3.48662518515,195.
6.14,6700.,26.,18.,3239.,0.,0.,9983.,0.976082132073,1.95216426415,338.
6.16,6686.,39.,7.,3252.,0.,0.,9984.,0.942406359084,1.25654181211,507.
6.18,6673.,39.,11.,3262.,0.,0.,9985.,0.906387767091,1.20851702279,507.
6.2,6673.,33.,12.,3268.,0.,0.,9986.,0.870128408448,1.37111143149,429.
6.22,6663.,33.,15.,3277.,0.,0.,9988.,0.831036293493,1.3095117352,429.
6.24,6668.,27.,20.,3276.,0.,0.,9991.,0.79286483973,1.52699895059,351.
6.26,6646.,34.,16.,3293.,0.,0.,9989.,0.751675855965,1.14962189736,442.
6.28,6637.,27.,16.,3308.,0.,0.,9988.,0.712355419114,1.37194377015,351.
6.3,6627.,28.,9.,3324.,0.,0.,9988.,0.673871150707,1.25147499417,364.
6.32,6632.,25.,10.,3322.,0.,0.,9989.,0.638376495721,1.3278231111,325.
6.34,6633.,22.,12.,3320.,0.,0.,9987.,0.60471974301,1.42933757439,286.
6.36,6633.,15.,15.,3325.,0.,0.,9988.,0.57338309799,1.98772807303,195.
6.38,6631.,12.,15.,3326.,0.,0.,9984.,0.545255591943,2.36277423175,156.
6.4,6627.,7.,13.,3333.,0.,0.,9980.,0.520505221397,3.86661021609,91.
6.42,6622.,12.,6.,3341.,0.,0.,9981.,0.499365509553,2.16391720806,156.
6.44,6629.,6.,10.,3336.,0.,0.,9981.,0.48343140314,4.18973882721,78.
6.46,6627.,6.,4.,3337.,0.,0.,9974.,0.471672377028,4.08782726758,78.
6.48,6629.,5.,3.,3335.,0.,0.,9972.,0.4646580595,4.8324438188,65.
6.5,6634.,5.,4.,3329.,0.,0.,9972.,0.462576828913,4.8107990207,65.
6.52,6641.,1.,0.,3329.,0.,0.,9971.,0.465545881737,24.2083858503,13.
6.54,6644.,1.,1.,3323.,0.,0.,9969.,0.473119517292,24.6022148992,13.
6.56,6655.,1.,1.,3310.,0.,0.,9967.,0.486009206686,25.2724787477,13.
6.58,6662.,1.,1.,3303.,0.,0.,9967.,0.503087575877,26.1605539456,13.
6.6,6673.,0.,0.,3294.,0.,0.,9967.,0.524801814252,inf,0.
6.62,6672.,0.,0.,3290.,0.,0.,9962.,0.54983853391,inf,0.
6.64,6679.,0.,0.,3281.,0.,0.,9960.,0.578982621368,inf,0.
6.66,6686.,0.,0.,3271.,0.,0.,9957.,0.611388218351,inf,0.
6.68,6697.,0.,0.,3263.,0.,0.,9960.,0.646510145485,inf,0.
6.7,6705.,0.,0.,3255.,0.,0.,9960.,0.683719349741,inf,0.
6.72,6706.,1.,0.,3248.,0.,0.,9955.,0.722147202573,37.5516545338,13.
6.74,6709.,1.,0.,3242.,0.,0.,9952.,0.761622387674,39.604364159,13.
6.76,6715.,0.,0.,3236.,0.,0.,9951.,0.801662959558,inf,0.
6.78,6719.,1.,2.,3228.,0.,0.,9950.,0.841221321458,43.7435087158,13.
6.8,6722.,2.,0.,3226.,0.,0.,9950.,0.879689102964,22.8719166771,26.
6.82,6728.,2.,0.,3221.,0.,0.,9951.,0.916980787402,23.8415004724,26.
6.84,6742.,1.,2.,3210.,0.,0.,9955.,0.953068008411,49.5595364374,13.
6.86,6747.,6.,1.,3204.,0.,0.,9958.,0.985396962863,8.54010701148,78.
6.88,6752.,7.,3.,3197.,0.,0.,9959.,1.01479879972,7.53850536933,91.
6.9,6752.,11.,1.,3197.,0.,0.,9961.,1.03974755866,4.91517027731,143.
6.92,6759.,8.,3.,3193.,0.,0.,9963.,1.06177775501,6.90155540754,104.
6.94,6760.,8.,4.,3188.,0.,0.,9960.,1.07907739356,7.01400305814,104.
6.96,6758.,9.,7.,3186.,0.,0.,9960.,1.09096389644,6.30334695721,117.
6.98,6761.,13.,6.,3183.,0.,0.,9963.,1.09852191122,4.3940876449,169.
7.,6762.,15.,9.,3179.,0.,0.,9965.,1.10094424583,3.81660671889,195.
7.02,6755.,23.,11.,3173.,0.,0.,9962.,1.09765720935,2.48165977766,299.
7.04,6750.,26.,8.,3181.,0.,0.,9965.,1.08912568298,2.17825136595,338.
7.06,6743.,27.,10.,3186.,0.,0.,9966.,1.07571571588,2.07174878613,351.
7.08,6737.,31.,8.,3192.,0.,0.,9968.,1.0577908944,1.77435891964,403.
7.1,6730.,23.,17.,3195.,0.,0.,9965.,1.0359437557,2.34213370853,299.
7.12,6717.,34.,8.,3211.,0.,0.,9970.,1.00842460486,1.54229645449,442.
7.14,6711.,35.,12.,3215.,0.,0.,9973.,0.978664986526,1.45401655141,455.
7.16,6709.,33.,15.,3218.,0.,0.,9975.,0.946501475986,1.49145687125,429.
7.18,6696.,33.,18.,3228.,0.,0.,9975.,0.910423628336,1.4346069295,429.
7.2,6696.,34.,17.,3229.,0.,0.,9976.,0.874002730368,1.33671005821,442.
7.22,6684.,30.,19.,3241.,0.,0.,9974.,0.834825658494,1.44703114139,390.
7.24,6671.,36.,18.,3249.,0.,0.,9974.,0.794573549391,1.14771734912,468.
7.26,6659.,32.,23.,3259.,0.,0.,9973.,0.754354478185,1.22582602705,416.
7.28,6650.,34.,16.,3271.,0.,0.,9971.,0.714967626528,1.0934798994,442.
7.3,6648.,37.,14.,3275.,0.,0.,9974.,0.67695542671,0.951396815916,481.
7.32,6646.,24.,20.,3289.,0.,0.,9979.,0.640365164214,1.3874578558,312.
7.34,6648.,22.,10.,3299.,0.,0.,9979.,0.606573158619,1.43371837492,286.
7.36,6641.,17.,9.,3310.,0.,0.,9977.,0.574707587918,1.75792909245,221.
7.38,6644.,14.,6.,3317.,0.,0.,9981.,0.546488768688,2.02981542656,182.
7.4,6652.,8.,7.,3314.,0.,0.,9981.,0.522416452927,3.39570694403,104.
7.42,6657.,7.,5.,3314.,0.,0.,9983.,0.501904290196,3.72843187003,91.
7.44,6667.,5.,10.,3303.,0.,0.,9985.,0.486007846303,5.05448160155,65.
7.46,6672.,5.,6.,3297.,0.,0.,9980.,0.474589726378,4.93573315433,65.
7.48,6673.,6.,6.,3295.,0.,0.,9980.,0.467367284576,4.05051646632,78.
7.5,6675.,7.,3.,3293.,0.,0.,9978.,0.465155807664,3.45544314265,91.
7.52,6682.,3.,1.,3295.,0.,0.,9981.,0.467950742728,8.11114620729,39.
7.54,6688.,1.,2.,3286.,0.,0.,9977.,0.475870878596,24.745285687,13.
7.56,6699.,1.,0.,3279.,0.,0.,9979.,0.488634188273,25.4089777902,13.
7.58,6708.,0.,1.,3272.,0.,0.,9981.,0.505850775911,inf,0.
7.6,6712.,0.,0.,3273.,0.,0.,9985.,0.526917399477,inf,0.
7.62,6719.,0.,0.,3264.,0.,0.,9983.,0.552547022073,inf,0.
7.64,6723.,0.,0.,3258.,0.,0.,9981.,0.581570647173,inf,0.
7.66,6731.,0.,0.,3252.,0.,0.,9983.,0.613900122146,inf,0.
7.68,6738.,0.,0.,3245.,0.,0.,9983.,0.648969549389,inf,0.
7.7,6745.,0.,0.,3237.,0.,0.,9982.,0.68628232772,inf,0.
7.72,6755.,0.,0.,3229.,0.,0.,9984.,0.725310942451,inf,0.
7.74,6761.,0.,0.,3224.,0.,0.,9985.,0.764988917874,inf,0.
7.76,6772.,0.,0.,3216.,0.,0.,9988.,0.805472917534,inf,0.
7.78,6778.,3.,0.,3205.,0.,0.,9986.,0.845548871301,14.6561804359,39.
7.8,6782.,5.,0.,3198.,0.,0.,9985.,0.884430072485,9.19807275384,65.
7.82,6795.,5.,0.,3187.,0.,0.,9987.,0.922774088567,9.59685052109,65.
7.84,6802.,5.,2.,3178.,0.,0.,9987.,0.958468811968,9.96807564447,65.
7.86,6809.,5.,4.,3172.,0.,0.,9990.,0.991266608964,10.3091727332,65.
7.88,6812.,9.,3.,3164.,0.,0.,9988.,1.02084392637,5.89820935237,117.
7.9,6820.,10.,2.,3159.,0.,0.,9991.,1.04706545496,5.44474036577,130.
7.92,6816.,16.,3.,3156.,0.,0.,9991.,1.06773118925,3.47012636507,208.
7.94,6825.,8.,9.,3152.,0.,0.,9994.,1.08574677324,7.05735402607,104.
7.96,6819.,15.,4.,3160.,0.,0.,9998.,1.09662738682,3.80164160766,195.
7.98,6815.,17.,4.,3161.,0.,0.,9997.,1.10352985288,3.37550307941,221.
8.,6813.,16.,9.,3162.,0.,0.,10000.,1.10536536244,3.59243742795,208.
8.02,6797.,20.,13.,3167.,0.,0.,9997.,1.10061517389,2.86159945211,260.
8.04,6804.,18.,8.,3168.,0.,0.,9998.,1.09421509605,3.16106583303,234.
8.06,6800.,23.,8.,3165.,0.,0.,9996.,1.08155323832,2.44525079968,299.
8.08,6795.,21.,15.,3167.,0.,0.,9998.,1.06369626638,2.63391456437,273.
8.1,6787.,26.,12.,3175.,0.,0.,10000.,1.0410612101,2.0821224202,338.
8.12,6779.,34.,4.,3184.,0.,0.,10001.,1.0145780219,1.5517075629,442.
8.14,6777.,23.,16.,3184.,0.,0.,10000.,0.98562138275,2.22836138709,299.
8.16,6754.,28.,26.,3192.,0.,0.,10000.,0.950467922401,1.76515471303,364.
8.18,6737.,38.,23.,3202.,0.,0.,10000.,0.913708209997,1.25033755052,494.
8.2,6719.,44.,14.,3220.,0.,0.,9997.,0.875162567724,1.03428303458,572.
8.22,6714.,41.,13.,3231.,0.,0.,9999.,0.836475990583,1.0608963783,533.
8.24,6710.,36.,17.,3238.,0.,0.,10001.,0.797061110299,1.15131049265,468.
8.26,6704.,21.,18.,3257.,0.,0.,10000.,0.757401712301,1.87547090665,273.
8.28,6700.,27.,12.,3260.,0.,0.,9999.,0.718326159947,1.38344297471,351.
8.3,6698.,25.,11.,3268.,0.,0.,10002.,0.680137499085,1.4146859981,325.
8.32,6700.,12.,21.,3270.,0.,0.,10003.,0.644019352481,2.79075052742,156.
8.34,6691.,16.,14.,3282.,0.,0.,10003.,0.60903178869,1.97935331324,208.
8.36,6693.,17.,10.,3280.,0.,0.,10000.,0.57787545472,1.76761903797,221.
8.38,6689.,10.,12.,3288.,0.,0.,9999.,0.549199711263,2.85583849857,130.
8.4,6690.,8.,12.,3288.,0.,0.,9998.,0.524507432237,3.40929830954,104.
8.42,6694.,10.,3.,3292.,0.,0.,9999.,0.503886312941,2.62020882729,130.
8.44,6704.,6.,3.,3286.,0.,0.,9999.,0.488020799487,4.22951359555,78.
8.46,6704.,6.,6.,3279.,0.,0.,9995.,0.476150279364,4.12663575449,78.
8.48,6713.,5.,2.,3276.,0.,0.,9996.,0.469416255667,4.88192905893,65.
8.5,6722.,2.,2.,3270.,0.,0.,9996.,0.467587548724,12.1572762668,26.
8.52,6728.,3.,0.,3266.,0.,0.,9997.,0.470418091776,8.15391359079,39.
8.54,6731.,1.,1.,3257.,0.,0.,9990.,0.478307222293,24.8719755593,13.
8.56,6740.,0.,3.,3247.,0.,0.,9990.,0.49108345555,inf,0.
8.58,6748.,1.,0.,3245.,0.,0.,9994.,0.508205254381,26.4266732278,13.
8.6,6753.,0.,0.,3239.,0.,0.,9992.,0.529764662276,inf,0.
8.62,6766.,0.,0.,3232.,0.,0.,9998.,0.55557735226,inf,0.
8.64,6768.,1.,0.,3228.,0.,0.,9997.,0.584526333179,30.3953693253,13.
8.66,6773.,1.,1.,3220.,0.,0.,9995.,0.616989079877,32.0834321536,13.
8.68,6780.,1.,1.,3211.,0.,0.,9993.,0.652361301446,33.9227876752,13.
8.7,6786.,0.,2.,3205.,0.,0.,9993.,0.689693916139,inf,0.
8.72,6796.,1.,0.,3197.,0.,0.,9994.,0.728983122492,37.9071223696,13.
8.74,6803.,1.,0.,3191.,0.,0.,9995.,0.768970978446,39.9864908792,13.
8.76,6808.,2.,0.,3185.,0.,0.,9995.,0.809187705345,21.038880339,26.
8.78,6817.,2.,0.,3177.,0.,0.,9996.,0.849563328775,22.0886465481,26.
8.8,6823.,2.,1.,3173.,0.,0.,9999.,0.888531006593,23.1018061714,26.
8.82,6826.,3.,1.,3166.,0.,0.,9996.,0.926149328878,16.0532550339,39.
8.84,6828.,3.,2.,3161.,0.,0.,9994.,0.961458571049,16.6652818982,39.
8.86,6828.,6.,2.,3157.,0.,0.,9993.,0.993734244842,8.6123634553,78.
8.88,6830.,8.,1.,3154.,0.,0.,9993.,1.02302927086,6.64969026057,104.
8.9,6827.,9.,3.,3151.,0.,0.,9990.,1.0482450745,6.05652709714,117.
8.92,6837.,4.,6.,3148.,0.,0.,9995.,1.07059223136,13.9176990076,52.
8.94,6839.,10.,4.,3141.,0.,0.,9994.,1.08797394611,5.65746451977,130.
8.96,6845.,6.,8.,3136.,0.,0.,9995.,1.10113909865,9.54320552161,78.
8.98,6841.,12.,10.,3135.,0.,0.,9998.,1.10762914861,4.79972631065,156.
9.,6833.,24.,7.,3136.,0.,0.,10000.,1.10861023361,2.40198883949,312.
9.02,6817.,27.,15.,3142.,0.,0.,10001.,1.10341220877,2.12509017986,351.
9.04,6812.,30.,11.,3150.,0.,0.,10003.,1.09495406458,1.8979203786,390.
9.06,6808.,27.,13.,3155.,0.,0.,10003.,1.08206790326,2.08398262851,351.
9.08,6790.,39.,10.,3164.,0.,0.,10003.,1.06238226386,1.41650968515,507.
9.1,6774.,32.,24.,3173.,0.,0.,10003.,1.03875550716,1.68797769914,416.
9.12,6760.,37.,19.,3190.,0.,0.,10006.,1.01122882588,1.42118645799,481.
9.14,6747.,34.,13.,3211.,0.,0.,10005.,0.980767911664,1.49999798254,442.
9.16,6742.,27.,21.,3215.,0.,0.,10005.,0.948305049848,1.82636528119,351.
9.18,6725.,35.,19.,3226.,0.,0.,10005.,0.911624892946,1.35441412666,455.
9.2,6708.,40.,22.,3230.,0.,0.,10000.,0.8734676778,1.13550798114,520.
9.22,6689.,34.,30.,3243.,0.,0.,9996.,0.83361142822,1.27493512551,442.
9.24,6667.,39.,33.,3256.,0.,0.,9995.,0.792428676783,1.05657156904,507.
9.26,6660.,38.,22.,3276.,0.,0.,9996.,0.752731791393,1.03005403033,494.
9.28,6655.,37.,23.,3285.,0.,0.,10000.,0.713430231103,1.00265870317,481.
9.3,6640.,35.,19.,3307.,0.,0.,10001.,0.674315401622,1.00184002527,455.
9.32,6630.,35.,14.,3318.,0.,0.,9997.,0.637673281304,0.947400303652,455.
9.34,6634.,29.,11.,3325.,0.,0.,9999.,0.604085065693,1.08318701435,377.
9.36,6627.,25.,11.,3337.,0.,0.,10000.,0.572176996628,1.19012815299,325.
9.38,6627.,15.,17.,3338.,0.,0.,9997.,0.544218061635,1.88662261367,195.
9.4,6626.,15.,6.,3349.,0.,0.,9996.,0.51959366239,1.80125802962,195.
9.42,6635.,11.,10.,3347.,0.,0.,10003.,0.499245409794,2.36006920994,143.
9.44,6638.,12.,6.,3348.,0.,0.,10004.,0.482974787231,2.09289074467,156.
9.46,6642.,10.,6.,3346.,0.,0.,10004.,0.471322339271,2.45087616421,130.
9.48,6646.,7.,0.,3347.,0.,0.,10000.,0.464545291075,3.45090787656,91.
9.5,6646.,5.,4.,3342.,0.,0.,9997.,0.462254685641,4.80744873066,65.
9.52,6652.,2.,2.,3341.,0.,0.,9997.,0.465104213213,12.0927095435,26.
9.54,6662.,0.,0.,3337.,0.,0.,9999.,0.472977951814,inf,0.
9.56,6671.,0.,0.,3328.,0.,0.,9999.,0.485618549131,inf,0.
9.58,6684.,0.,0.,3318.,0.,0.,10002.,0.50298265983,inf,0.
9.6,6689.,0.,0.,3314.,0.,0.,10003.,0.524166894653,inf,0.
9.62,6701.,0.,0.,3306.,0.,0.,10007.,0.549745130038,inf,0.
9.64,6703.,0.,0.,3301.,0.,0.,10004.,0.578507454479,inf,0.
9.66,6711.,0.,0.,3293.,0.,0.,10004.,0.610791178611,inf,0.
9.68,6731.,1.,0.,3277.,0.,0.,10009.,0.646611293094,33.6237872409,13.
9.7,6738.,1.,0.,3267.,0.,0.,10006.,0.683925718341,35.5641373537,13.
9.72,6745.,1.,0.,3263.,0.,0.,10009.,0.722428238145,37.5662683835,13.
9.74,6747.,1.,1.,3259.,0.,0.,10008.,0.761650428001,39.6058222561,13.
9.76,6745.,2.,1.,3255.,0.,0.,10003.,0.801058461401,20.8275199964,26.
9.78,6750.,4.,1.,3248.,0.,0.,10003.,0.840624832976,10.9281228287,52.
9.8,6756.,7.,1.,3241.,0.,0.,10005.,0.879278254614,6.53178131999,91.
9.82,6764.,7.,0.,3238.,0.,0.,10009.,0.916545204672,6.80862152042,91.
9.84,6765.,9.,3.,3234.,0.,0.,10011.,0.950969848926,5.49449246046,117.
9.86,6773.,6.,4.,3229.,0.,0.,10012.,0.98385900699,8.52677806058,78.
9.88,6772.,8.,3.,3229.,0.,0.,10012.,1.01241682079,6.58070933516,104.
9.9,6772.,9.,5.,3226.,0.,0.,10012.,1.03751533445,5.99453304347,117.
9.92,6769.,14.,3.,3222.,0.,0.,10008.,1.05856742055,3.93182184774,182.
9.94,6771.,14.,4.,3219.,0.,0.,10008.,1.07564943602,3.9952693338,182.
9.96,6777.,17.,5.,3215.,0.,0.,10014.,1.0881316138,3.32840258338,221.
9.98,6768.,22.,4.,3220.,0.,0.,10014.,1.094058844,2.58595726764,286.
10.,6761.,20.,13.,3219.,0.,0.,10013.,1.09550454151,2.84831180793,260.
