t,neff
5.,0.224603908132
5.02,0.354235166822
5.04,0.372886482872
5.06,0.443086949725
5.08,0.400263781448
5.1,0.442816080603
5.12,0.576702524315
5.14,0.594550546094
5.16,0.540767865247
5.18,0.58208793694
5.2,0.852034847044
5.22,0.806596627053
5.24,0.802266213488
5.26,0.845157619706
5.28,0.66839886937
5.3,0.653602693927
5.32,0.635839031577
5.34,0.671854217988
5.36,0.832612499048
5.38,0.713661863454
5.4,0.611663325944
5.42,0.636861122545
5.44,0.402482593761
5.46,0.187428930737
5.48,0.228347790566
5.5,0.267589730245
5.52,0.1519224011
5.54,0.1493912591
5.56,0.0728073497188
5.58,0.
5.6,0.0337519981129
5.62,0.0321780934335
5.64,0.0305598665992
5.66,0.0289486230894
5.68,0.
5.7,0.
5.72,0.
5.74,0.023227917745
5.76,0.0441287207255
5.78,0.0841137929981
5.8,0.0804138726459
5.82,0.0771604959318
5.84,0.111561159898
5.86,0.0898336335106
5.88,0.0872368707736
5.9,0.204481839799
5.92,0.150234015005
5.94,0.180619984333
5.96,0.211098872111
5.98,0.209736294418
6.,0.112685319467
6.02,0.226047530547
6.04,0.325437184526
6.06,0.329686021163
6.08,0.436187305001
6.1,0.462773714892
6.12,0.581165913985
6.14,0.635502365405
6.16,0.58224827051
6.18,0.780945809313
6.2,0.753139822657
6.22,0.638820387524
6.24,0.647670832959
6.26,0.564042175415
6.28,0.544735559719
6.3,0.522853498749
6.32,0.552266363638
6.34,0.495699977595
6.36,0.399531240216
6.38,0.549654443011
6.4,0.47415802381
6.42,0.317140209147
6.44,0.218543323645
6.46,0.111985780825
6.48,0.265120874134
6.5,0.190278411641
6.52,0.151332381166
6.54,0.0744786631776
6.56,0.108857772886
6.58,0.035065289296
6.6,0.168437493607
6.62,0.128509548334
6.64,0.0610783547522
6.66,0.115785305148
6.68,0.0274066285915
6.7,0.0259228017046
6.72,0.0982146203707
6.74,0.0232732524352
6.76,0.0663669417942
6.78,0.0421891659018
6.8,0.0605260493459
6.82,0.0967844052451
6.84,0.130524493938
6.86,0.126237957368
6.88,0.0876085997224
6.9,0.119609540417
6.92,0.134022331214
6.94,0.131751385295
6.96,0.162767456705
6.98,0.161707776902
7.,0.242268676175
7.02,0.242853805946
7.04,0.27731611821
7.06,0.247736079072
7.08,0.403479077487
7.1,0.343317070545
7.12,0.493198896617
7.14,0.526799319707
7.16,0.60179381521
7.18,0.762561968992
7.2,0.673079767383
7.22,0.939887027854
7.24,1.01056592071
7.26,0.802412319657
7.28,0.846754436732
7.3,0.869000676135
7.32,0.723989597585
7.34,0.676335210852
7.36,0.49628033003
7.38,0.522190671332
7.4,0.375890598888
7.42,0.391275309969
7.44,0.330872411542
7.46,0.263598085949
7.48,0.344150407791
7.5,0.153626162907
7.52,0.0763450808297
7.54,0.0750699171642
7.56,0.0365663468964
7.58,0.0353486685009
7.6,0.101758548287
7.62,0.0323517086927
7.64,0.0615171271323
7.66,0.116618353273
7.68,0.
7.7,0.
7.72,0.
7.74,0.
7.76,0.0222611280268
7.78,0.0212125381548
7.8,0.0608440685013
7.82,0.0778307169564
7.84,0.112509084551
7.86,0.0543706779006
7.88,0.0704225686749
7.9,0.120124908365
7.92,0.168184854424
7.94,0.264839134391
7.96,0.212727597599
7.98,0.341154790598
8.,0.372911248746
8.02,0.308961510823
8.04,0.44281406749
8.06,0.464719851791
8.08,0.523689356519
8.1,0.72552531997
8.12,0.567066245058
8.14,0.529691240595
8.16,0.586171865605
8.18,0.708348911384
8.2,0.636250158206
8.22,0.666123713899
8.24,0.609297556656
8.26,0.783988059187
8.28,0.651852699627
8.3,0.848111595088
8.32,0.700021738428
8.34,0.532178930782
8.36,0.561293196378
8.38,0.524794076784
8.4,0.377322271398
8.42,0.285567211489
8.44,0.25846956238
8.46,0.264964735442
8.48,0.115249229402
8.5,0.154351973418
8.52,0.115102596924
8.54,0.
8.56,0.
8.58,0.
8.6,0.
8.62,0.
8.64,0.0308700132508
8.66,0.
8.68,0.
8.7,0.0261375239644
8.72,0.
8.74,0.0234696704395
8.76,0.0223111482622
8.78,0.
8.8,0.0406348474505
8.82,0.0389573376995
8.84,0.0187482405997
8.86,0.0725572698399
8.88,0.0881027433532
8.9,0.171898977443
8.92,0.16836858286
8.94,0.182352402569
8.96,0.262310117064
8.98,0.325894737006
9.,0.358212793657
9.02,0.408491606888
9.04,0.41173889181
9.06,0.350049956845
9.08,0.457813126805
9.1,0.467529300304
9.12,0.497685754783
9.14,0.605333334332
9.16,0.626658347047
9.18,0.691085595301
9.2,0.720166260767
9.22,0.688743480313
9.24,0.610333155382
9.26,0.73805032762
9.28,0.62726798276
9.3,0.76896581745
9.32,0.503857623552
9.34,0.680689863419
9.36,0.655369131262
9.38,0.689752566142
9.4,0.550806110896
9.42,0.43043540313
9.44,0.370728977656
9.46,0.151876693717
9.48,0.192486524218
9.5,0.19324146609
9.52,0.
9.54,0.0377719390751
9.56,0.0367972467865
9.58,0.
9.6,0.
9.62,0.
9.64,0.030911688753
9.66,0.0292815381066
9.68,0.0277000018235
9.7,0.0261883241861
9.72,0.
9.74,0.0234984139876
9.76,0.
9.78,0.
9.8,0.0203153950259
9.82,0.0585002708977
9.84,0.0563571437082
9.86,0.0907740179243
9.88,0.088145735936
9.9,0.120458813461
9.92,0.134805360442
9.94,0.16583191792
9.96,0.229602940213
9.98,0.277044549273
10.,0.308943961536
