t,cases
5.01,2.405
5.02,2.405
5.03,2.99
5.04,2.99
5.05,3.445
5.06,3.445
5.07,3.25
5.08,3.25
5.09,3.055
5.1,3.055
5.11,3.38
5.12,3.38
5.13,3.9
5.14,3.9
5.15,4.745
5.16,4.745
5.17,5.2
5.18,5.2
5.19,5.525
5.2,5.525
5.21,5.46
5.22,5.46
5.23,4.615
5.24,4.615
5.25,4.355
5.26,4.355
5.27,4.355
5.28,4.355
5.29,3.9
5.3,3.9
5.31,3.64
5.32,3.64
5.33,3.185
5.34,3.185
5.35,2.795
5.36,2.795
5.37,2.47
5.38,2.47
5.39,1.885
5.4,1.885
5.41,1.56
5.42,1.56
5.43,1.235
5.44,1.235
5.45,0.975
5.46,0.975
5.47,0.65
5.48,0.65
5.49,0.52
5.5,0.52
5.51,0.52
5.52,0.52
5.53,0.39
5.54,0.39
5.55,0.39
5.56,0.39
5.57,0.325
5.58,0.325
5.59,0.13
5.6,0.13
5.61,0.
5.62,0.
5.63,0.
5.64,0.
5.65,0.
5.66,0.
5.67,0.
5.68,0.
5.69,0.
5.7,0.
5.71,0.
5.72,0.
5.73,0.
5.74,0.
5.75,0.
5.76,0.
5.77,0.
5.78,0.
5.79,0.
5.8,0.
5.81,0.
5.82,0.
5.83,0.065
5.84,0.065
5.85,0.325
5.86,0.325
5.87,0.52
5.88,0.52
5.89,0.65
5.9,0.65
5.91,0.715
5.92,0.715
5.93,0.585
5.94,0.585
5.95,0.845
5.96,0.845
5.97,1.365
5.98,1.365
5.99,1.625
6.,1.625
6.01,1.56
6.02,1.56
6.03,1.69
6.04,1.69
6.05,1.95
6.06,1.95
6.07,2.015
6.08,2.015
6.09,2.535
6.1,2.535
6.11,3.51
6.12,3.51
6.13,3.965
6.14,3.965
6.15,3.835
6.16,3.835
6.17,3.705
6.18,3.705
6.19,4.095
6.2,4.095
6.21,4.42
6.22,4.42
6.23,4.355
6.24,4.355
6.25,4.355
6.26,4.355
6.27,4.615
6.28,4.615
6.29,4.16
6.3,4.16
6.31,2.86
6.32,2.86
6.33,2.795
6.34,2.795
6.35,2.535
6.36,2.535
6.37,2.015
6.38,2.015
6.39,2.015
6.4,2.015
6.41,1.625
6.42,1.625
6.43,1.56
6.44,1.56
6.45,1.495
6.46,1.495
6.47,1.3
6.48,1.3
6.49,1.3
6.5,1.3
6.51,0.975
6.52,0.975
6.53,0.715
6.54,0.715
6.55,0.715
6.56,0.715
6.57,0.52
6.58,0.52
6.59,0.39
6.6,0.39
6.61,0.26
6.62,0.26
6.63,0.065
6.64,0.065
6.65,0.
6.66,0.
6.67,0.065
6.68,0.065
6.69,0.13
6.7,0.13
6.71,0.13
6.72,0.13
6.73,0.195
6.74,0.195
6.75,0.195
6.76,0.195
6.77,0.195
6.78,0.195
6.79,0.26
6.8,0.26
6.81,0.52
6.82,0.52
6.83,0.65
6.84,0.65
6.85,0.65
6.86,0.65
6.87,0.845
6.88,0.845
6.89,0.845
6.9,0.845
6.91,0.845
6.92,0.845
6.93,0.845
6.94,0.845
6.95,1.3
6.96,1.3
6.97,1.885
6.98,1.885
6.99,2.08
7.,2.08
7.01,2.73
7.02,2.73
7.03,3.315
7.04,3.315
7.05,3.445
7.06,3.445
7.07,3.705
7.08,3.705
7.09,4.29
7.1,4.29
7.11,4.68
7.12,4.68
7.13,4.875
7.14,4.875
7.15,5.395
7.16,5.395
7.17,5.265
7.18,5.265
7.19,5.525
7.2,5.525
7.21,5.72
7.22,5.72
7.23,5.265
7.24,5.265
7.25,5.395
7.26,5.395
7.27,4.94
7.28,4.94
7.29,4.095
7.3,4.095
7.31,3.25
7.32,3.25
7.33,2.47
7.34,2.47
7.35,2.08
7.36,2.08
7.37,2.145
7.38,2.145
7.39,2.145
7.4,2.145
7.41,1.625
7.42,1.625
7.43,0.91
7.44,0.91
7.45,0.65
7.46,0.65
7.47,0.715
7.48,0.715
7.49,0.715
7.5,0.715
7.51,0.585
7.52,0.585
7.53,0.325
7.54,0.325
7.55,0.195
7.56,0.195
7.57,0.195
7.58,0.195
7.59,0.13
7.6,0.13
7.61,0.
7.62,0.
7.63,0.
7.64,0.
7.65,0.
7.66,0.
7.67,0.0649999999999
7.68,0.0650000000001
7.69,0.13
7.7,0.13
7.71,0.0649999999999
7.72,0.0650000000001
7.73,0.
7.74,0.
7.75,0.
7.76,0.
7.77,0.0649999999999
7.78,0.0650000000001
7.79,0.13
7.8,0.13
7.81,0.13
7.82,0.13
7.83,0.325
7.84,0.325
7.85,0.52
7.86,0.52
7.87,0.715
7.88,0.715
7.89,1.17
7.9,1.17
7.91,1.43
7.92,1.43
7.93,1.17
7.94,1.17
7.95,1.235
7.96,1.235
7.97,1.3
7.98,1.3
7.99,1.235
8.,1.235
8.01,1.625
8.02,1.625
8.03,1.95
8.04,1.95
8.05,2.535
8.06,2.535
8.07,3.38
8.08,3.38
8.09,3.965
8.1,3.965
8.11,4.55
8.12,4.55
8.13,4.68
8.14,4.68
8.15,4.875
8.16,4.875
8.17,5.33
8.18,5.33
8.19,5.2
8.2,5.2
8.21,4.94
8.22,4.94
8.23,4.745
8.24,4.745
8.25,4.16
8.26,4.16
8.27,3.835
8.28,3.835
8.29,3.705
8.3,3.705
8.31,3.445
8.32,3.445
8.33,3.575
8.34,3.575
8.35,3.055
8.36,3.055
8.37,2.145
8.38,2.145
8.39,1.495
8.4,1.495
8.41,1.235
8.42,1.235
8.43,1.235
8.44,1.235
8.45,0.91
8.46,0.91
8.47,0.845
8.48,0.845
8.49,0.78
8.5,0.78
8.51,0.52
8.52,0.52
8.53,0.39
8.54,0.39
8.55,0.195
8.56,0.195
8.57,0.195
8.58,0.195
8.59,0.13
8.6,0.13
8.61,0.0649999999999
8.62,0.0650000000001
8.63,0.195
8.64,0.195
8.65,0.26
8.66,0.26
8.67,0.26
8.68,0.26
8.69,0.26
8.7,0.26
8.71,0.13
8.72,0.13
8.73,0.
8.74,0.
8.75,0.
8.76,0.
8.77,0.
8.78,0.
8.79,0.0649999999999
8.8,0.0650000000001
8.81,0.195
8.82,0.195
8.83,0.195
8.84,0.195
8.85,0.325
8.86,0.325
8.87,0.455
8.88,0.455
8.89,0.585
8.9,0.585
8.91,0.78
8.92,0.78
8.93,0.975
8.94,0.975
8.95,1.235
8.96,1.235
8.97,1.365
8.98,1.365
8.99,1.755
9.,1.755
9.01,2.08
9.02,2.08
9.03,2.47
9.04,2.47
9.05,3.77
9.06,3.77
9.07,4.42
9.08,4.42
9.09,4.68
9.1,4.68
9.11,4.81
9.12,4.81
9.13,4.16
9.14,4.16
9.15,4.16
9.16,4.16
9.17,4.745
9.18,4.745
9.19,4.94
9.2,4.94
9.21,4.225
9.22,4.225
9.23,3.51
9.24,3.51
9.25,3.25
9.26,3.25
9.27,3.38
9.28,3.38
9.29,3.315
9.3,3.315
9.31,3.055
9.32,3.055
9.33,2.73
9.34,2.73
9.35,2.275
9.36,2.275
9.37,2.145
9.38,2.145
9.39,2.34
9.4,2.34
9.41,2.405
9.42,2.405
9.43,1.82
9.44,1.82
9.45,1.3
9.46,1.3
9.47,0.91
9.48,0.91
9.49,0.52
9.5,0.52
9.51,0.325
9.52,0.325
9.53,0.195
9.54,0.195
9.55,0.13
9.56,0.13
9.57,0.13
9.58,0.13
9.59,0.13
9.6,0.13
9.61,0.13
9.62,0.13
9.63,0.26
9.64,0.26
9.65,0.26
9.66,0.26
9.67,0.13
9.68,0.13
9.69,0.13
9.7,0.13
9.71,0.13
9.72,0.13
9.73,0.13
9.74,0.13
9.75,0.13
9.76,0.13
9.77,0.0649999999999
9.78,0.0650000000001
9.79,0.
9.8,0.
9.81,0.13
9.82,0.13
9.83,0.325
9.84,0.325
9.85,0.52
9.86,0.52
9.87,0.78
9.88,0.78
9.89,1.04
9.9,1.04
9.91,1.43
9.92,1.43
9.93,1.365
9.94,1.365
9.95,1.105
9.96,1.105
9.97,1.495
9.98,1.495
9.99,2.015
10.,2.015
