t,neff
5.,0.2595113108
5.02,0.390496617327
5.04,0.426493279095
5.06,0.348172906135
5.08,0.370510431601
5.1,0.412897363333
5.12,0.564686757764
5.14,0.636764148434
5.16,0.601848468512
5.18,0.468882770236
5.2,0.611588475106
5.22,0.617866961201
5.24,0.536710806141
5.26,0.754159272279
5.28,1.02046475534
5.3,0.656344143709
5.32,0.750348103982
5.34,0.734571655141
5.36,0.898422844705
5.38,0.782989349921
5.4,0.511908433837
5.42,0.639520570751
5.44,0.403637463686
5.46,0.225402420162
5.48,0.228752524924
5.5,0.191493562519
5.52,0.076027788496
5.54,0.0746411677755
5.56,0.0726484663492
5.58,0.0702031746697
5.6,0.
5.62,0.
5.64,0.
5.66,0.
5.68,0.
5.7,0.
5.72,0.
5.74,0.
5.76,0.
5.78,0.
5.8,0.01991138725
5.82,0.0381469174963
5.84,0.0733819306958
5.86,0.0708981181964
5.88,0.0344120918864
5.9,0.0839322388009
5.92,0.0493317825355
5.94,0.096946842134
5.96,0.175652062741
5.98,0.190394260591
6.,0.205690291873
6.02,0.317164596421
6.04,0.351537912348
6.06,0.518088378291
6.08,0.527106383769
6.1,0.53908231878
6.12,0.744378298916
6.14,0.676685682327
6.16,0.644871289386
6.18,0.921913853908
6.2,0.902277756973
6.22,0.839200365094
6.24,0.882057310921
6.26,0.882847001288
6.28,0.709835947409
6.3,0.645609349376
6.32,0.518001071375
6.34,0.460697411982
6.36,0.729322089256
6.38,0.543659513471
6.4,0.401486428878
6.42,0.383548647804
6.44,0.216106219286
6.46,0.295004022812
6.48,0.298924015784
6.5,0.187670681666
6.52,0.149232998002
6.54,0.0366661176431
6.56,0.0356998375049
6.58,0.
6.6,0.0330974901978
6.62,0.
6.64,0.
6.66,0.0283682090864
6.68,0.
6.7,0.0253435141259
6.72,0.0239637811084
6.74,0.
6.76,0.0215568041151
6.78,0.0205385039206
6.8,0.0196338412012
6.82,0.0188113923708
6.84,0.054331541994
6.86,0.0699987681774
6.88,0.0169978120569
6.9,0.132603334494
6.92,0.0812116351533
6.94,0.175791198783
6.96,0.110548522923
6.98,0.282770699833
7.,0.329289746038
7.02,0.282876828389
7.04,0.348227793672
7.06,0.33651214055
7.08,0.309097149472
7.1,0.282069644502
7.12,0.35692054737
7.14,0.508718167487
7.16,0.580389697762
7.18,0.546039787425
7.2,0.490309581083
7.22,0.389886837253
7.24,0.689941051016
7.26,0.679964006615
7.28,0.669058079381
7.3,0.756796727943
7.32,0.559382653844
7.34,0.534174744639
7.36,0.563769843396
7.38,0.342807321399
7.4,0.326474079744
7.42,0.373787302667
7.44,0.140427391301
7.46,0.143823578272
7.48,0.328686040188
7.5,0.293572131443
7.52,0.109387311584
7.54,0.0717071073166
7.56,0.0348826047756
7.58,0.
7.6,0.0323064141579
7.62,0.0307974164532
7.64,0.
7.66,0.0276908232329
7.68,0.0261707663245
7.7,0.
7.72,0.0234172489536
7.74,0.
7.76,0.0210798981217
7.78,0.0200624726247
7.8,0.0959207779122
7.82,0.091948771431
7.84,0.0708030997619
7.86,0.0684944813643
7.88,0.116343667886
7.9,0.129533092308
7.92,0.206193894896
7.94,0.202597885014
7.96,0.107806472551
7.98,0.198751777043
8.,0.259380064997
8.02,0.290895974268
8.04,0.37053861026
8.06,0.312089831381
8.08,0.317315036778
8.1,0.372517685904
8.12,0.3818406822
8.14,0.410816244268
8.16,0.460419115453
8.18,0.515187636099
8.2,0.537333570399
8.22,0.663428870605
8.24,0.76095635134
8.26,0.980704114938
8.28,0.727809398965
8.3,0.769453954713
8.32,0.629303095816
8.34,0.609652191794
8.36,0.729716812989
8.38,0.55181240356
8.4,0.288647551376
8.42,0.233995781344
8.44,0.172709709515
8.46,0.212425229639
8.48,0.21580533466
8.5,0.216772734413
8.52,0.143571988418
8.54,0.0352742595764
8.56,0.0343292168945
8.58,0.0331556091909
8.6,0.0317571805291
8.62,0.0605772480715
8.64,0.0575883405736
8.66,0.
8.68,0.
8.7,0.
8.72,0.
8.74,0.
8.76,0.0207455954287
8.78,0.0395426996279
8.8,0.0566847234004
8.82,0.0724473839584
8.84,0.069705410209
8.86,0.151796614817
8.88,0.114574272124
8.9,0.191543839873
8.92,0.109446675325
8.94,0.215451046313
8.96,0.258961524507
8.98,0.242125632887
9.,0.196451491442
9.02,0.272688919394
9.04,0.397204571413
9.06,0.41757385161
9.08,0.629368731614
9.1,0.626398001932
9.12,0.759490491684
9.14,0.92147209571
9.16,0.778063404394
9.18,0.901369347829
9.2,0.863487528436
9.22,0.823740233063
9.24,0.589490063335
9.26,0.686826901685
9.28,0.583305769667
9.3,0.715366116264
9.32,0.547404128611
9.34,0.577843395322
9.36,0.492554854685
9.38,0.67052832435
9.4,0.510401973926
9.42,0.332199455026
9.44,0.481283730458
9.46,0.422630649717
9.48,0.464515159612
9.5,0.251128732724
9.52,0.107006732815
9.54,0.0701904294788
9.56,0.0341665379586
9.58,0.
9.6,0.
9.62,0.
9.64,0.
9.66,0.
9.68,0.
9.7,0.
9.72,0.
9.74,0.0217387955462
9.76,0.0206624047015
9.78,0.0787642962495
9.8,0.0376044805663
9.82,0.0360580704566
9.84,0.0520546531444
9.86,0.117433825649
9.88,0.14671696663
9.9,0.15894003781
9.92,0.202590196681
9.94,0.16866387223
9.96,0.272829527492
9.98,0.240934944411
10.,0.300782992636
