t,s,e,i,r,c,o,n,reff,coal,reportr
5.,9850.,2.,36.,114.,0.,0.,10002.,1.1395112667,29.6272929342,26.
5.02,9828.,20.,11.,144.,0.,0.,10003.,1.13429123958,2.9491572229,260.
5.04,9811.,25.,11.,153.,0.,0.,10000.,1.12503643099,2.34007577645,325.
5.06,9796.,27.,15.,162.,0.,0.,10000.,1.11074864959,2.13921962143,351.
5.08,9782.,27.,12.,181.,0.,0.,10002.,1.0916511967,2.10243934179,351.
5.1,9770.,31.,14.,190.,0.,0.,10005.,1.0682617226,1.79192288952,403.
5.12,9749.,33.,19.,206.,0.,0.,10007.,1.03997091849,1.63874205337,429.
5.14,9732.,35.,13.,226.,0.,0.,10006.,1.00882541235,1.49882632692,455.
5.16,9720.,31.,17.,240.,0.,0.,10008.,0.974758782841,1.63507924864,403.
5.18,9706.,36.,14.,257.,0.,0.,10013.,0.937602661347,1.35431495528,468.
5.2,9689.,34.,16.,272.,0.,0.,10011.,0.898787575159,1.37461629142,442.
5.22,9674.,31.,19.,285.,0.,0.,10009.,0.858708745313,1.44041466956,403.
5.24,9662.,28.,15.,305.,0.,0.,10010.,0.817800295839,1.51877197799,364.
5.26,9653.,24.,10.,320.,0.,0.,10007.,0.777235205552,1.68400961203,312.
5.28,9647.,21.,15.,324.,0.,0.,10007.,0.737044327286,1.82506214376,273.
5.3,9636.,30.,6.,336.,0.,0.,10008.,0.697412460449,1.20884826478,390.
5.32,9630.,16.,15.,346.,0.,0.,10007.,0.65990064381,2.14467709238,208.
5.34,9621.,13.,16.,356.,0.,0.,10006.,0.624368087112,2.49747234845,169.
5.36,9610.,13.,10.,369.,0.,0.,10002.,0.591632116365,2.36652846546,169.
5.38,9606.,6.,17.,373.,0.,0.,10002.,0.562319553516,4.87343613048,78.
5.4,9600.,11.,9.,384.,0.,0.,10004.,0.53646079869,2.5359965029,143.
5.42,9595.,7.,6.,394.,0.,0.,10002.,0.514947947809,3.8253276123,91.
5.44,9593.,8.,5.,396.,0.,0.,10002.,0.497886407245,3.23626164709,104.
5.46,9591.,6.,6.,399.,0.,0.,10002.,0.485480351607,4.2074963806,78.
5.48,9590.,4.,6.,401.,0.,0.,10001.,0.478018479161,6.21424022909,52.
5.5,9596.,4.,4.,401.,0.,0.,10005.,0.475626018693,6.18313824301,52.
5.52,9595.,3.,4.,403.,0.,0.,10005.,0.478076495254,8.28665925107,39.
5.54,9593.,2.,1.,405.,0.,0.,10001.,0.48563014156,12.6263836806,26.
5.56,9600.,0.,2.,405.,0.,0.,10007.,0.498000763737,inf,0.
5.58,9604.,1.,0.,406.,0.,0.,10011.,0.51496758493,26.7783144164,13.
5.6,9603.,0.,1.,406.,0.,0.,10010.,0.53630678728,inf,0.
5.62,9606.,0.,0.,406.,0.,0.,10012.,0.561757907938,inf,0.
5.64,9606.,0.,0.,405.,0.,0.,10011.,0.590854197056,inf,0.
5.66,9610.,0.,0.,403.,0.,0.,10013.,0.623218235744,inf,0.
5.68,9615.,0.,0.,402.,0.,0.,10017.,0.658215006608,inf,0.
5.7,9620.,0.,0.,401.,0.,0.,10021.,0.6953512149,inf,0.
5.72,9619.,0.,0.,400.,0.,0.,10019.,0.734024874324,inf,0.
5.74,9619.,1.,0.,400.,0.,0.,10020.,0.773492774113,40.2216242539,13.
5.76,9621.,0.,1.,400.,0.,0.,10022.,0.813354968368,inf,0.
5.78,9621.,2.,0.,401.,0.,0.,10024.,0.852726282208,22.1708833374,26.
5.8,9622.,3.,0.,399.,0.,0.,10024.,0.891414840695,15.451190572,39.
5.82,9623.,3.,1.,397.,0.,0.,10024.,0.928564740077,16.0951221613,39.
5.84,9620.,3.,3.,398.,0.,0.,10024.,0.963190527356,16.6953024742,39.
5.86,9616.,6.,2.,397.,0.,0.,10021.,0.995308709527,8.6260088159,78.
5.88,9603.,12.,2.,401.,0.,0.,10018.,1.02327161184,4.43417698464,156.
5.9,9604.,9.,5.,402.,0.,0.,10020.,1.04853909138,6.05822586131,117.
5.92,9596.,13.,4.,405.,0.,0.,10018.,1.06918362532,4.27673450128,169.
5.94,9593.,12.,7.,408.,0.,0.,10020.,1.08555977016,4.70409233736,156.
5.96,9585.,19.,3.,412.,0.,0.,10019.,1.09703643304,3.00241550095,247.
5.98,9579.,14.,7.,418.,0.,0.,10018.,1.10389774156,4.10019161151,182.
6.,9571.,13.,9.,422.,0.,0.,10015.,1.10579750537,4.42319002149,169.
6.02,9553.,24.,10.,427.,0.,0.,10014.,1.1013412091,2.38623928637,312.
6.04,9548.,20.,13.,439.,0.,0.,10020.,1.09269259291,2.84100074155,260.
6.06,9539.,21.,12.,447.,0.,0.,10019.,1.07955678091,2.67318821939,273.
6.08,9527.,21.,13.,457.,0.,0.,10018.,1.0614956647,2.62846545544,273.
6.1,9509.,24.,21.,465.,0.,0.,10019.,1.03827086474,2.2495868736,312.
6.12,9483.,32.,17.,484.,0.,0.,10016.,1.0106864867,1.64236554089,416.
6.14,9467.,36.,18.,495.,0.,0.,10016.,0.980375553332,1.41609802148,468.
6.16,9449.,44.,10.,514.,0.,0.,10017.,0.946730489819,1.11886330615,572.
6.18,9437.,35.,11.,529.,0.,0.,10012.,0.911708228957,1.35453794016,455.
6.2,9422.,34.,13.,540.,0.,0.,10009.,0.874194311644,1.33700306487,442.
6.22,9413.,31.,12.,555.,0.,0.,10011.,0.835374259961,1.40127295219,403.
6.24,9401.,28.,16.,566.,0.,0.,10011.,0.795629539629,1.47759771645,364.
6.26,9388.,29.,10.,583.,0.,0.,10010.,0.755671531265,1.35499722848,377.
6.28,9377.,23.,19.,589.,0.,0.,10008.,0.716344364358,1.61956117159,299.
6.3,9368.,26.,14.,599.,0.,0.,10007.,0.678083521012,1.35616704202,338.
6.32,9364.,24.,4.,618.,0.,0.,10010.,0.641480549085,1.38987452302,312.
6.34,9362.,21.,6.,621.,0.,0.,10010.,0.607317143096,1.50383292576,273.
6.36,9360.,16.,10.,625.,0.,0.,10011.,0.575723015245,1.87109979955,208.
6.38,9353.,12.,12.,631.,0.,0.,10008.,0.547181103649,2.37111811581,156.
6.4,9349.,9.,9.,641.,0.,0.,10008.,0.52222577727,3.01730449089,117.
6.42,9345.,9.,6.,647.,0.,0.,10007.,0.501280266918,2.89628598664,117.
6.44,9349.,6.,6.,649.,0.,0.,10010.,0.484834770081,4.20190134071,78.
6.46,9347.,6.,2.,655.,0.,0.,10010.,0.472751354937,4.09717840945,78.
6.48,9345.,3.,3.,658.,0.,0.,10009.,0.46543401825,8.067522983,39.
6.5,9346.,3.,3.,660.,0.,0.,10012.,0.46291088575,8.02378868634,39.
6.52,9348.,1.,1.,663.,0.,0.,10013.,0.465397443685,24.2006670716,13.
6.54,9345.,1.,2.,663.,0.,0.,10011.,0.47260298611,24.5753552777,13.
6.56,9346.,2.,2.,663.,0.,0.,10013.,0.484533976506,12.5978833891,26.
6.58,9346.,2.,1.,663.,0.,0.,10012.,0.501083541952,13.0281720907,26.
6.6,9346.,1.,0.,663.,0.,0.,10010.,0.521953892941,27.141602433,13.
6.62,9348.,0.,1.,660.,0.,0.,10009.,0.546833947605,inf,0.
6.64,9346.,1.,1.,657.,0.,0.,10005.,0.575206635839,29.9107450636,13.
6.66,9345.,1.,0.,655.,0.,0.,10001.,0.606759883821,31.5515139587,13.
6.68,9350.,1.,0.,654.,0.,0.,10005.,0.640841580179,33.3237621693,13.
6.7,9354.,0.,1.,653.,0.,0.,10008.,0.67700250675,inf,0.
6.72,9354.,1.,0.,653.,0.,0.,10008.,0.714587307689,37.1585399998,13.
6.74,9353.,0.,1.,653.,0.,0.,10007.,0.753079962449,inf,0.
6.76,9354.,0.,0.,653.,0.,0.,10007.,0.791968254311,inf,0.
6.78,9352.,2.,0.,651.,0.,0.,10005.,0.830458428625,21.5919191442,26.
6.8,9355.,2.,1.,648.,0.,0.,10006.,0.868238138462,22.5741916,26.
6.82,9352.,3.,1.,647.,0.,0.,10003.,0.904309284901,15.6746942716,39.
6.84,9353.,4.,3.,644.,0.,0.,10004.,0.938329650755,12.1982854598,52.
6.86,9348.,4.,3.,649.,0.,0.,10004.,0.969213450526,12.5997748568,52.
6.88,9342.,7.,4.,649.,0.,0.,10002.,0.997052523675,7.40667589015,91.
6.9,9330.,9.,4.,654.,0.,0.,9997.,1.02096804198,5.89892646476,117.
6.92,9324.,12.,4.,655.,0.,0.,9995.,1.04126807517,4.51216165907,156.
6.94,9315.,12.,7.,659.,0.,0.,9993.,1.05694889556,4.58011188075,156.
6.96,9308.,16.,4.,668.,0.,0.,9996.,1.06778407007,3.47029822772,208.
6.98,9298.,18.,2.,676.,0.,0.,9994.,1.07408807694,3.10292111116,234.
7.,9302.,13.,7.,674.,0.,0.,9996.,1.07676103432,4.3070441373,169.
7.02,9293.,18.,11.,676.,0.,0.,9998.,1.07308099593,3.10001176601,234.
7.04,9285.,21.,10.,683.,0.,0.,9999.,1.0648260078,2.63671201931,273.
7.06,9268.,31.,8.,692.,0.,0.,9999.,1.05098489477,1.76294240413,403.
7.08,9261.,31.,9.,697.,0.,0.,9998.,1.03392214826,1.73432102288,403.
7.1,9253.,29.,13.,703.,0.,0.,9998.,1.01244077189,1.81541103925,377.
7.12,9244.,30.,8.,721.,0.,0.,10003.,0.98649455469,1.7099238948,390.
7.14,9233.,28.,14.,725.,0.,0.,10000.,0.957673008967,1.77853558808,364.
7.16,9224.,28.,15.,733.,0.,0.,10000.,0.925758019849,1.71926489401,364.
7.18,9207.,30.,16.,748.,0.,0.,10001.,0.890466276166,1.54347487869,390.
7.2,9183.,34.,16.,763.,0.,0.,9996.,0.853127423497,1.30478311829,442.
7.22,9175.,24.,19.,777.,0.,0.,9995.,0.815555961329,1.76703791621,312.
7.24,9158.,35.,13.,792.,0.,0.,9998.,0.776071642025,1.15302072529,455.
7.26,9153.,27.,14.,805.,0.,0.,9999.,0.737566107186,1.42049768791,351.
7.28,9144.,23.,7.,825.,0.,0.,9999.,0.699173369399,1.58073979168,299.
7.3,9133.,21.,13.,829.,0.,0.,9996.,0.661800998491,1.6387453296,273.
7.32,9125.,18.,13.,841.,0.,0.,9997.,0.625920745084,1.8082154858,234.
7.34,9123.,13.,11.,849.,0.,0.,9996.,0.592641975692,2.37056790277,169.
7.36,9116.,11.,14.,853.,0.,0.,9994.,0.561668638692,2.65516083745,143.
7.38,9107.,16.,8.,863.,0.,0.,9994.,0.53353565155,1.73399086754,208.
7.4,9104.,13.,11.,868.,0.,0.,9996.,0.509150815214,2.03660326086,169.
7.42,9099.,12.,8.,875.,0.,0.,9994.,0.488719336802,2.11778379281,156.
7.44,9096.,14.,7.,878.,0.,0.,9995.,0.472422233764,1.75471115398,182.
7.46,9096.,8.,5.,884.,0.,0.,9993.,0.460838953035,2.99545319473,104.
7.48,9092.,5.,4.,890.,0.,0.,9991.,0.453649016851,4.71794977525,65.
7.5,9098.,5.,1.,891.,0.,0.,9995.,0.451393802448,4.69449554546,65.
7.52,9100.,1.,2.,893.,0.,0.,9996.,0.45382106515,23.5986953878,13.
7.54,9099.,1.,1.,893.,0.,0.,9994.,0.460944818003,23.9691305362,13.
7.56,9102.,0.,2.,889.,0.,0.,9993.,0.472828470929,inf,0.
7.58,9104.,1.,1.,891.,0.,0.,9997.,0.488841153031,25.4197399576,13.
7.6,9110.,0.,1.,891.,0.,0.,10002.,0.509180740854,inf,0.
7.62,9107.,1.,1.,888.,0.,0.,9997.,0.533375542822,27.7355282267,13.
7.64,9110.,1.,1.,887.,0.,0.,9999.,0.561018280163,29.1729505685,13.
7.66,9113.,1.,0.,885.,0.,0.,9999.,0.591814747183,30.7743668535,13.
7.68,9113.,1.,0.,882.,0.,0.,9996.,0.625160151208,32.5083278628,13.
7.7,9107.,2.,0.,880.,0.,0.,9989.,0.660379421258,17.1698649527,26.
7.72,9107.,2.,0.,876.,0.,0.,9985.,0.697320602286,18.1303356594,26.
7.74,9111.,1.,1.,874.,0.,0.,9987.,0.735063832309,38.2233192801,13.
7.76,9113.,0.,2.,874.,0.,0.,9989.,0.77295402816,inf,0.
7.78,9110.,3.,3.,873.,0.,0.,9989.,0.810264582627,14.0445860989,39.
7.8,9107.,6.,1.,873.,0.,0.,9987.,0.846829253638,7.33918686486,78.
7.82,9107.,5.,2.,870.,0.,0.,9984.,0.882294404258,9.17586180429,65.
7.84,9107.,3.,3.,868.,0.,0.,9981.,0.915755360897,15.8730929222,39.
7.86,9109.,6.,0.,869.,0.,0.,9984.,0.946325497236,8.20148764271,78.
7.88,9105.,5.,0.,871.,0.,0.,9981.,0.973802575643,10.1275467867,65.
7.9,9103.,7.,1.,871.,0.,0.,9982.,0.997624655193,7.41092601001,91.
7.92,9104.,3.,5.,870.,0.,0.,9982.,1.01802342286,17.6457393296,39.
7.94,9098.,8.,3.,874.,0.,0.,9983.,1.03336055266,6.71684359232,104.
7.96,9094.,10.,2.,874.,0.,0.,9980.,1.04490719318,5.43351740456,130.
7.98,9088.,10.,4.,877.,0.,0.,9979.,1.05140731606,5.46731804351,130.
8.,9082.,14.,9.,876.,0.,0.,9981.,1.05287468855,3.91067741463,182.
8.02,9073.,16.,11.,883.,0.,0.,9983.,1.0492513549,3.41006690343,208.
8.04,9068.,17.,17.,888.,0.,0.,9990.,1.0408768116,3.18385848253,221.
8.06,9055.,24.,12.,900.,0.,0.,9991.,1.02765304434,2.22658159606,312.
8.08,9035.,30.,14.,913.,0.,0.,9992.,1.00929661904,1.74944747301,390.
8.1,9021.,29.,18.,923.,0.,0.,9991.,0.987747457263,1.77113337164,377.
8.12,9007.,33.,10.,943.,0.,0.,9993.,0.962164434731,1.51613789715,429.
8.14,8998.,30.,18.,949.,0.,0.,9995.,0.933765023385,1.61852604053,390.
8.16,8981.,33.,21.,960.,0.,0.,9995.,0.901820465335,1.42105043022,429.
8.18,8964.,36.,23.,973.,0.,0.,9996.,0.867397889266,1.25290806227,468.
8.2,8940.,42.,22.,988.,0.,0.,9992.,0.830884503137,1.02871414674,546.
8.22,8923.,40.,21.,1008.,0.,0.,9992.,0.793394087479,1.03141231372,520.
8.24,8901.,37.,21.,1030.,0.,0.,9989.,0.754972435494,1.06104234177,481.
8.26,8893.,32.,19.,1047.,0.,0.,9991.,0.717188622132,1.16543151096,416.
8.28,8877.,33.,20.,1062.,0.,0.,9992.,0.679233384953,1.07030715205,429.
8.3,8866.,26.,19.,1080.,0.,0.,9991.,0.642774998271,1.28554999654,338.
8.32,8857.,24.,15.,1095.,0.,0.,9991.,0.607902389432,1.31712184377,312.
8.34,8853.,20.,21.,1099.,0.,0.,9993.,0.575275075216,1.49571519556,260.
8.36,8844.,21.,12.,1116.,0.,0.,9993.,0.544964296654,1.34943540124,273.
8.38,8847.,12.,9.,1127.,0.,0.,9995.,0.518251636559,2.24575709176,156.
8.4,8850.,10.,10.,1127.,0.,0.,9997.,0.494896087539,2.5734596552,130.
8.42,8849.,9.,5.,1133.,0.,0.,9996.,0.47519640947,2.74557925471,117.
8.44,8850.,8.,1.,1134.,0.,0.,9993.,0.459737636533,2.98829463747,104.
8.46,8850.,5.,4.,1133.,0.,0.,9992.,0.448420503888,4.66357324044,65.
8.48,8851.,5.,1.,1137.,0.,0.,9994.,0.441491657582,4.59151323885,65.
8.5,8853.,4.,1.,1138.,0.,0.,9996.,0.439194279427,5.70952563255,52.
8.52,8853.,1.,2.,1139.,0.,0.,9995.,0.441547237203,22.9604563345,13.
8.54,8858.,1.,0.,1137.,0.,0.,9996.,0.448646253573,23.3296051858,13.
8.56,8862.,0.,1.,1132.,0.,0.,9995.,0.460268891339,inf,0.
8.58,8865.,1.,0.,1133.,0.,0.,9999.,0.475912787739,24.7474649624,13.
8.6,8867.,1.,0.,1130.,0.,0.,9998.,0.495797140798,25.7814513215,13.
8.62,8872.,1.,0.,1127.,0.,0.,10000.,0.519456262608,27.0117256556,13.
8.64,8870.,2.,0.,1127.,0.,0.,9999.,0.546238435241,14.2021993163,26.
8.66,8874.,0.,2.,1123.,0.,0.,9999.,0.576293653736,inf,0.
8.68,8875.,0.,0.,1125.,0.,0.,10000.,0.60858959985,inf,0.
8.7,8876.,0.,0.,1123.,0.,0.,9999.,0.642985135515,inf,0.
8.72,8879.,0.,0.,1123.,0.,0.,10002.,0.678707166578,inf,0.
8.74,8883.,1.,1.,1118.,0.,0.,10003.,0.715522757153,37.2071833719,13.
8.76,8877.,4.,0.,1120.,0.,0.,10001.,0.752033349697,9.77643354606,52.
8.78,8878.,4.,0.,1121.,0.,0.,10003.,0.788524812776,10.2508225661,52.
8.8,8876.,3.,2.,1123.,0.,0.,10004.,0.823946808879,14.2817446872,39.
8.82,8872.,3.,4.,1123.,0.,0.,10002.,0.857980551584,14.8716628941,39.
8.84,8870.,4.,2.,1125.,0.,0.,10001.,0.890140131266,11.5718217065,52.
8.86,8869.,7.,0.,1125.,0.,0.,10001.,0.919825911541,6.83299248574,91.
8.88,8867.,2.,5.,1125.,0.,0.,9999.,0.946640682091,24.6126577344,26.
8.9,8858.,9.,2.,1128.,0.,0.,9997.,0.969317783048,5.6005027465,117.
8.92,8861.,7.,5.,1126.,0.,0.,9999.,0.989166170571,7.34809155282,91.
8.94,8856.,12.,7.,1126.,0.,0.,10001.,1.00406354227,4.35094201651,156.
8.96,8856.,10.,6.,1130.,0.,0.,10002.,1.01532263447,5.27967769922,130.
8.98,8854.,11.,6.,1133.,0.,0.,10004.,1.0217756141,4.8302119939,143.
9.,8849.,9.,10.,1134.,0.,0.,10002.,1.02370915726,5.91476401974,117.
9.02,8833.,18.,10.,1142.,0.,0.,10003.,1.01945406178,2.94508951182,234.
9.04,8830.,17.,5.,1151.,0.,0.,10003.,1.01224058281,3.09626531211,221.
9.06,8821.,20.,11.,1150.,0.,0.,10002.,0.999995370262,2.59998796268,260.
9.08,8806.,28.,7.,1161.,0.,0.,10002.,0.982731592528,1.82507295755,364.
9.1,8797.,24.,14.,1169.,0.,0.,10004.,0.961969063234,2.08426630367,312.
9.12,8786.,31.,9.,1182.,0.,0.,10008.,0.937149605268,1.57199288626,403.
9.14,8777.,34.,6.,1192.,0.,0.,10009.,0.909556791469,1.39108685754,442.
9.16,8766.,31.,15.,1198.,0.,0.,10010.,0.878912371453,1.47430462308,403.
9.18,8751.,29.,15.,1213.,0.,0.,10008.,0.845771696943,1.51655614624,377.
9.2,8733.,33.,16.,1222.,0.,0.,10004.,0.810672316578,1.2774230443,429.
9.22,8713.,29.,21.,1238.,0.,0.,10001.,0.77402462713,1.38790622796,377.
9.24,8693.,36.,23.,1251.,0.,0.,10003.,0.736298165581,1.06354179473,468.
9.26,8680.,35.,20.,1271.,0.,0.,10006.,0.698961547685,1.03845715656,455.
9.28,8667.,34.,26.,1283.,0.,0.,10010.,0.661972500271,1.01242852983,442.
9.3,8647.,37.,17.,1305.,0.,0.,10006.,0.625957962576,0.879724704162,481.
9.32,8643.,21.,23.,1317.,0.,0.,10004.,0.592443575979,1.46700314052,273.
9.34,8634.,25.,11.,1332.,0.,0.,10002.,0.560539439827,1.16592203484,325.
9.36,8630.,18.,12.,1343.,0.,0.,10003.,0.531246070639,1.53471087074,234.
9.38,8626.,11.,10.,1354.,0.,0.,10001.,0.505002443991,2.38728428069,143.
9.4,8629.,11.,3.,1359.,0.,0.,10002.,0.482296444877,2.27994683033,143.
9.42,8642.,8.,3.,1356.,0.,0.,10009.,0.463477627926,3.01260458152,104.
9.44,8641.,7.,2.,1358.,0.,0.,10008.,0.448207773018,3.32954345671,91.
9.46,8642.,5.,2.,1357.,0.,0.,10006.,0.437268689024,4.54759436585,65.
9.48,8651.,3.,3.,1354.,0.,0.,10011.,0.430782801797,7.46690189781,39.
9.5,8651.,3.,2.,1354.,0.,0.,10010.,0.428572886894,7.42859670616,39.
9.52,8651.,2.,0.,1357.,0.,0.,10010.,0.430825837042,11.2014717631,26.
9.54,8654.,1.,1.,1354.,0.,0.,10010.,0.437700890727,22.7604463178,13.
9.56,8657.,1.,0.,1351.,0.,0.,10009.,0.448992827965,23.3476270542,13.
9.58,8657.,1.,1.,1347.,0.,0.,10006.,0.464421291473,24.1499071566,13.
9.6,8657.,2.,0.,1347.,0.,0.,10006.,0.483668006562,12.5753681706,26.
9.62,8662.,1.,2.,1344.,0.,0.,10009.,0.506704712683,26.3486450595,13.
9.64,8665.,1.,0.,1342.,0.,0.,10008.,0.533134115679,27.7229740153,13.
9.66,8672.,1.,0.,1336.,0.,0.,10009.,0.562612738387,29.2558623961,13.
9.68,8680.,0.,1.,1334.,0.,0.,10015.,0.594326282599,inf,0.
9.7,8685.,0.,0.,1330.,0.,0.,10015.,0.628143799326,inf,0.
9.72,8684.,0.,0.,1327.,0.,0.,10011.,0.663204680637,inf,0.
9.74,8687.,0.,0.,1322.,0.,0.,10009.,0.699315557487,inf,0.
9.76,8688.,0.,0.,1318.,0.,0.,10006.,0.735654034946,inf,0.
9.78,8691.,0.,0.,1315.,0.,0.,10006.,0.771684440178,inf,0.
9.8,8691.,1.,0.,1313.,0.,0.,10005.,0.80669287761,41.9480296357,13.
9.82,8693.,3.,0.,1309.,0.,0.,10005.,0.840418003341,14.5672453912,39.
9.84,8697.,3.,2.,1305.,0.,0.,10007.,0.872255585295,15.1190968118,39.
9.86,8698.,4.,1.,1305.,0.,0.,10008.,0.901460119892,11.7189815586,52.
9.88,8697.,5.,1.,1304.,0.,0.,10007.,0.927749213054,9.64859181577,65.
9.9,8693.,5.,6.,1301.,0.,0.,10005.,0.950501448777,9.88521506728,65.
9.92,8691.,7.,0.,1306.,0.,0.,10004.,0.969703925688,7.20351487654,91.
9.94,8691.,5.,2.,1305.,0.,0.,10003.,0.985159384153,10.2456575952,65.
9.96,8687.,7.,3.,1303.,0.,0.,10000.,0.996146312912,7.39994403877,91.
9.98,8684.,10.,3.,1307.,0.,0.,10004.,1.00215715302,5.21121719568,130.
10.,8679.,13.,5.,1310.,0.,0.,10007.,1.00354079529,4.01416318115,169.
