t,s,e,i,r,c,o,n,reff,coal,reportr
5.,5606.,19.,1.,4373.,0.,0.,9999.,1.14344603291,3.12943124797,247.
5.02,5623.,12.,8.,4361.,0.,0.,10004.,1.14375762709,4.95628305074,156.
5.04,5623.,18.,8.,4355.,0.,0.,10004.,1.1360504408,3.28192349564,234.
5.06,5622.,17.,11.,4352.,0.,0.,10002.,1.12336506104,3.43617548083,221.
5.08,5613.,28.,13.,4347.,0.,0.,10001.,1.10419202375,2.05064232982,364.
5.1,5612.,33.,9.,4346.,0.,0.,10000.,1.08210091097,1.70512870819,429.
5.12,5605.,32.,14.,4349.,0.,0.,10000.,1.05460674602,1.71373596227,416.
5.14,5601.,32.,17.,4348.,0.,0.,9998.,1.02418109697,1.66429428258,416.
5.16,5586.,35.,10.,4366.,0.,0.,9997.,0.988460528877,1.46856992862,455.
5.18,5590.,28.,13.,4371.,0.,0.,10002.,0.95283482571,1.7695503906,364.
5.2,5583.,28.,11.,4380.,0.,0.,10002.,0.913663439806,1.69680353107,364.
5.22,5577.,31.,13.,4383.,0.,0.,10004.,0.872986157356,1.46436387686,403.
5.24,5571.,28.,12.,4391.,0.,0.,10002.,0.831783918714,1.54474156333,364.
5.26,5560.,30.,16.,4393.,0.,0.,9999.,0.789700084895,1.36881348048,390.
5.28,5560.,26.,13.,4398.,0.,0.,9997.,0.74948031816,1.49896063632,338.
5.3,5553.,23.,11.,4404.,0.,0.,9991.,0.709592188837,1.60429538346,299.
5.32,5556.,25.,8.,4405.,0.,0.,9994.,0.67193762573,1.39763026152,325.
5.34,5562.,14.,12.,4406.,0.,0.,9994.,0.636975200634,2.36590788807,182.
5.36,5567.,11.,9.,4407.,0.,0.,9994.,0.604570544422,2.85796984636,143.
5.38,5576.,12.,12.,4392.,0.,0.,9992.,0.575900819984,2.49557021993,156.
5.4,5574.,9.,8.,4397.,0.,0.,9988.,0.549893740825,3.17716383588,117.
5.42,5575.,9.,5.,4395.,0.,0.,9984.,0.528317998174,3.05250398945,117.
5.44,5585.,10.,1.,4387.,0.,0.,9983.,0.511887690006,2.66181598803,130.
5.46,5590.,8.,6.,4380.,0.,0.,9984.,0.499633737684,3.24761929495,104.
5.48,5597.,7.,4.,4376.,0.,0.,9984.,0.492572480123,3.65910985234,91.
5.5,5608.,3.,1.,4372.,0.,0.,9984.,0.490959642867,8.50996714303,39.
5.52,5616.,1.,2.,4365.,0.,0.,9984.,0.494244603961,25.700719406,13.
5.54,5623.,1.,1.,4360.,0.,0.,9985.,0.502532941127,26.1317129386,13.
5.56,5628.,2.,0.,4355.,0.,0.,9985.,0.515725492032,13.4088627928,26.
5.58,5641.,1.,1.,4344.,0.,0.,9987.,0.534411944636,27.7894211211,13.
5.6,5649.,1.,1.,4339.,0.,0.,9990.,0.557181171525,28.9734209193,13.
5.62,5658.,0.,3.,4325.,0.,0.,9986.,0.584721063218,inf,0.
5.64,5664.,3.,1.,4319.,0.,0.,9987.,0.615535779604,10.6692868465,39.
5.66,5674.,5.,2.,4306.,0.,0.,9987.,0.650257195199,6.76267483007,65.
5.68,5683.,1.,4.,4297.,0.,0.,9985.,0.68791638756,35.7716521531,13.
5.7,5694.,0.,1.,4290.,0.,0.,9985.,0.728047148538,inf,0.
5.72,5697.,0.,0.,4284.,0.,0.,9981.,0.769178784248,inf,0.
5.74,5709.,0.,0.,4273.,0.,0.,9982.,0.812243863574,inf,0.
5.76,5720.,0.,0.,4264.,0.,0.,9984.,0.855570236349,inf,0.
5.78,5731.,0.,0.,4254.,0.,0.,9985.,0.898799319883,inf,0.
5.8,5744.,1.,0.,4240.,0.,0.,9985.,0.94161166787,48.9638067293,13.
5.82,5760.,3.,1.,4226.,0.,0.,9990.,0.982991267083,17.0385152961,39.
5.84,5764.,5.,4.,4220.,0.,0.,9993.,1.02036646607,10.6118112471,65.
5.86,5767.,10.,2.,4217.,0.,0.,9996.,1.05474632198,5.48468087431,130.
5.88,5779.,9.,2.,4208.,0.,0.,9998.,1.08756316566,6.28369829049,117.
5.9,5786.,5.,4.,4205.,0.,0.,10000.,1.11565143814,11.6027749567,65.
5.92,5790.,5.,3.,4202.,0.,0.,10000.,1.1391254489,11.8469046686,65.
5.94,5791.,9.,4.,4195.,0.,0.,9999.,1.15748112518,6.68766872328,117.
5.96,5794.,6.,10.,4189.,0.,0.,9999.,1.17118401588,10.1502614709,78.
5.98,5792.,14.,5.,4192.,0.,0.,10003.,1.17825119009,4.37636156319,182.
6.,5788.,11.,13.,4190.,0.,0.,10002.,1.18021415552,5.57919418971,143.
6.02,5788.,13.,8.,4191.,0.,0.,10000.,1.17779071195,4.71116284779,169.
6.04,5779.,20.,5.,4190.,0.,0.,9994.,1.16873638172,3.03871459246,260.
6.06,5783.,17.,12.,4178.,0.,0.,9990.,1.15692345352,3.53882468135,221.
6.08,5783.,15.,16.,4176.,0.,0.,9990.,1.13888715503,3.94814213745,195.
6.1,5774.,26.,14.,4177.,0.,0.,9991.,1.11434051514,2.22868103029,338.
6.12,5758.,33.,16.,4185.,0.,0.,9992.,1.08426181508,1.70853376922,429.
6.14,5750.,32.,17.,4194.,0.,0.,9993.,1.05195284607,1.70942337487,416.
6.16,5736.,42.,20.,4195.,0.,0.,9993.,1.01540979344,1.25717402997,546.
6.18,5721.,43.,21.,4209.,0.,0.,9994.,0.975944828345,1.18021235056,559.
6.2,5710.,37.,18.,4228.,0.,0.,9993.,0.935288706204,1.31445980331,481.
6.22,5699.,44.,12.,4237.,0.,0.,9992.,0.893154575663,1.05554631669,572.
6.24,5692.,31.,21.,4245.,0.,0.,9989.,0.850955970457,1.42741001496,403.
6.26,5687.,30.,18.,4253.,0.,0.,9988.,0.808627777858,1.40162148162,390.
6.28,5678.,29.,19.,4261.,0.,0.,9987.,0.766152937981,1.373791475,377.
6.3,5687.,25.,14.,4265.,0.,0.,9991.,0.726715429122,1.51156809257,325.
6.32,5686.,22.,12.,4267.,0.,0.,9987.,0.688141696787,1.62651673786,286.
6.34,5694.,23.,11.,4262.,0.,0.,9990.,0.652353293663,1.47488570741,299.
6.36,5697.,18.,10.,4265.,0.,0.,9990.,0.618936135441,1.78803772461,234.
6.38,5705.,16.,10.,4261.,0.,0.,9992.,0.58922420696,1.91497867262,208.
6.4,5710.,13.,2.,4271.,0.,0.,9996.,0.562859766835,2.25143906734,169.
6.42,5714.,9.,4.,4268.,0.,0.,9995.,0.540894473623,3.12516806982,117.
6.44,5724.,5.,6.,4262.,0.,0.,9997.,0.523892899447,5.44848615425,65.
6.46,5731.,7.,1.,4260.,0.,0.,9999.,0.511467874721,3.79947564078,91.
6.48,5735.,10.,2.,4250.,0.,0.,9997.,0.504061050087,2.62111746045,130.
6.5,5738.,7.,3.,4246.,0.,0.,9994.,0.501838019446,3.72793957303,91.
6.52,5752.,3.,0.,4244.,0.,0.,9999.,0.505454094206,8.76120429958,39.
6.54,5761.,3.,1.,4233.,0.,0.,9998.,0.514196674551,8.91274235888,39.
6.56,5775.,2.,1.,4222.,0.,0.,10000.,0.528402140087,13.7384556423,26.
6.58,5789.,2.,1.,4210.,0.,0.,10002.,0.547610549424,14.237874285,26.
6.6,5796.,1.,1.,4203.,0.,0.,10001.,0.571051524355,29.6946792665,13.
6.62,5806.,2.,0.,4191.,0.,0.,9999.,0.59923589502,15.5801332705,26.
6.64,5813.,0.,3.,4183.,0.,0.,9999.,0.630970219993,inf,0.
6.66,5822.,2.,1.,4172.,0.,0.,9997.,0.666551014624,17.3303263802,26.
6.68,5831.,0.,2.,4165.,0.,0.,9998.,0.704913742766,inf,0.
6.7,5841.,0.,0.,4160.,0.,0.,10001.,0.745648057168,inf,0.
6.72,5855.,0.,0.,4148.,0.,0.,10003.,0.788772505055,inf,0.
6.74,5864.,0.,0.,4139.,0.,0.,10003.,0.832544880006,inf,0.
6.76,5871.,0.,0.,4132.,0.,0.,10003.,0.876488097808,inf,0.
6.78,5878.,0.,0.,4127.,0.,0.,10005.,0.920010713308,inf,0.
6.8,5885.,1.,0.,4122.,0.,0.,10008.,0.962508647055,50.0504496469,13.
6.82,5890.,2.,2.,4117.,0.,0.,10011.,1.00306828193,26.0797753302,26.
6.84,5902.,6.,0.,4105.,0.,0.,10013.,1.04270890256,9.03681048887,78.
6.86,5907.,8.,2.,4095.,0.,0.,10012.,1.07862490958,7.01106191224,104.
6.88,5904.,9.,7.,4091.,0.,0.,10011.,1.10964437397,6.41127860514,117.
6.9,5918.,7.,6.,4086.,0.,0.,10017.,1.13916697834,8.46238326768,91.
6.92,5924.,10.,3.,4082.,0.,0.,10019.,1.16327839959,6.04904767787,130.
6.94,5930.,9.,7.,4075.,0.,0.,10021.,1.18266175413,6.83315680165,117.
6.96,5926.,11.,9.,4074.,0.,0.,10020.,1.19535565294,5.65077217753,143.
6.98,5923.,14.,6.,4072.,0.,0.,10015.,1.20345645783,4.46998112907,182.
7.,5925.,15.,9.,4063.,0.,0.,10012.,1.20694272354,4.18406810826,195.
7.02,5921.,24.,8.,4060.,0.,0.,10013.,1.20329038826,2.60712917456,312.
7.04,5914.,26.,10.,4066.,0.,0.,10016.,1.19341149977,2.38682299955,338.
7.06,5909.,23.,18.,4065.,0.,0.,10015.,1.17917960102,2.66597127187,299.
7.08,5896.,25.,12.,4076.,0.,0.,10009.,1.15893686127,2.41058867144,325.
7.1,5893.,17.,20.,4081.,0.,0.,10011.,1.13503454616,3.47187037649,221.
7.12,5875.,33.,14.,4087.,0.,0.,10009.,1.1044145252,1.74028955487,429.
7.14,5857.,42.,21.,4090.,0.,0.,10010.,1.06970853807,1.32440104713,546.
7.16,5850.,43.,17.,4102.,0.,0.,10012.,1.03362526831,1.24996544075,559.
7.18,5840.,42.,20.,4110.,0.,0.,10012.,0.994453934925,1.23122868134,546.
7.2,5832.,33.,27.,4122.,0.,0.,10014.,0.95326884078,1.50212059759,429.
7.22,5825.,44.,19.,4126.,0.,0.,10014.,0.910895881564,1.07651331458,572.
7.24,5810.,33.,27.,4144.,0.,0.,10014.,0.866428554617,1.36528135879,429.
7.26,5797.,33.,25.,4160.,0.,0.,10015.,0.822046355466,1.29534577225,429.
7.28,5778.,36.,18.,4186.,0.,0.,10018.,0.777233736315,1.12267095245,468.
7.3,5774.,39.,18.,4185.,0.,0.,10016.,0.735991121495,0.981321495326,507.
7.32,5779.,33.,21.,4189.,0.,0.,10022.,0.696954400566,1.09823117665,429.
7.34,5778.,26.,17.,4202.,0.,0.,10023.,0.659797540026,1.31959508005,338.
7.36,5783.,19.,11.,4212.,0.,0.,10025.,0.626085893496,1.71349823483,247.
7.38,5786.,19.,5.,4213.,0.,0.,10023.,0.595741776466,1.6304511777,247.
7.4,5794.,14.,5.,4208.,0.,0.,10021.,0.569715157756,2.11608487167,182.
7.42,5798.,9.,0.,4211.,0.,0.,10018.,0.547585942256,3.16382988859,117.
7.44,5807.,6.,3.,4202.,0.,0.,10018.,0.530375406949,4.59658686023,78.
7.46,5810.,5.,5.,4197.,0.,0.,10017.,0.517586546649,5.38290008515,65.
7.48,5821.,8.,1.,4188.,0.,0.,10018.,0.51054729747,3.31855743356,104.
7.5,5833.,4.,0.,4181.,0.,0.,10018.,0.50892444397,6.61601777161,52.
7.52,5844.,2.,1.,4174.,0.,0.,10021.,0.512411130501,13.322689393,26.
7.54,5856.,1.,0.,4168.,0.,0.,10025.,0.521268171184,27.1059449016,13.
7.56,5867.,1.,0.,4158.,0.,0.,10026.,0.535427862604,27.8422488554,13.
7.58,5875.,0.,1.,4148.,0.,0.,10024.,0.554526007553,inf,0.
7.6,5884.,0.,1.,4139.,0.,0.,10024.,0.578391566249,inf,0.
7.62,5894.,0.,0.,4129.,0.,0.,10023.,0.606861740493,inf,0.
7.64,5900.,0.,0.,4119.,0.,0.,10019.,0.639135208823,inf,0.
7.66,5907.,0.,0.,4106.,0.,0.,10013.,0.675201874858,inf,0.
7.68,5912.,2.,0.,4097.,0.,0.,10011.,0.713777793702,18.5582226362,26.
7.7,5916.,4.,0.,4089.,0.,0.,10009.,0.754618742737,9.81004365558,52.
7.72,5924.,4.,1.,4079.,0.,0.,10008.,0.797669315691,10.369701104,52.
7.74,5933.,0.,2.,4074.,0.,0.,10009.,0.841836245692,inf,0.
7.76,5936.,1.,0.,4072.,0.,0.,10009.,0.885660782759,46.0543607035,13.
7.78,5943.,3.,0.,4061.,0.,0.,10007.,0.929998453451,16.1199731932,39.
7.8,5952.,1.,2.,4050.,0.,0.,10005.,0.973758583486,50.6354463413,13.
7.82,5964.,4.,0.,4042.,0.,0.,10010.,1.01577196362,13.2050355271,52.
7.84,5975.,3.,4.,4030.,0.,0.,10012.,1.05571127832,18.2989954909,39.
7.86,5981.,6.,3.,4025.,0.,0.,10015.,1.09181024314,9.46235544052,78.
7.88,5985.,9.,1.,4020.,0.,0.,10015.,1.12441888014,6.49664241857,117.
7.9,5986.,8.,4.,4013.,0.,0.,10011.,1.15294702076,7.49415563492,104.
7.92,5989.,11.,4.,4006.,0.,0.,10010.,1.17709963844,5.56447101809,143.
7.94,5990.,12.,7.,4003.,0.,0.,10012.,1.19570185414,5.18137470128,156.
7.96,5985.,16.,7.,4005.,0.,0.,10013.,1.20810074645,3.92632742597,208.
7.98,5987.,16.,10.,3998.,0.,0.,10011.,1.2169462576,3.9550753372,208.
8.,5981.,21.,9.,4000.,0.,0.,10011.,1.21847181582,3.01716830584,273.
8.02,5974.,22.,11.,4003.,0.,0.,10010.,1.21442512449,2.87045938516,286.
8.04,5960.,22.,11.,4015.,0.,0.,10008.,1.20365542377,2.84500372891,286.
8.06,5969.,23.,6.,4010.,0.,0.,10008.,1.19198613407,2.69492517267,299.
8.08,5967.,17.,12.,4013.,0.,0.,10009.,1.17289285129,3.587672251,221.
8.1,5953.,38.,3.,4014.,0.,0.,10008.,1.14693468372,1.56948956719,494.
8.12,5945.,36.,15.,4017.,0.,0.,10013.,1.11712705776,1.61362797232,468.
8.14,5940.,32.,22.,4017.,0.,0.,10011.,1.08475909295,1.76273352605,416.
8.16,5928.,34.,20.,4029.,0.,0.,10011.,1.04751156416,1.6020765099,442.
8.18,5920.,37.,17.,4037.,0.,0.,10011.,1.00817728846,1.41689781081,481.
8.2,5914.,29.,19.,4044.,0.,0.,10006.,0.967445014656,1.7347289918,377.
8.22,5907.,34.,10.,4054.,0.,0.,10005.,0.924549724993,1.41401722646,442.
8.24,5905.,28.,16.,4055.,0.,0.,10004.,0.881475874345,1.63702662378,364.
8.26,5897.,27.,11.,4066.,0.,0.,10001.,0.837397503862,1.61276556299,351.
8.28,5891.,23.,21.,4064.,0.,0.,9999.,0.793939825226,1.79499438747,299.
8.3,5894.,25.,11.,4070.,0.,0.,10000.,0.7524891515,1.56517743512,325.
8.32,5899.,24.,11.,4069.,0.,0.,10003.,0.712777850977,1.54435201045,312.
8.34,5902.,15.,15.,4071.,0.,0.,10003.,0.675304775982,2.34105655674,195.
8.36,5902.,20.,7.,4074.,0.,0.,10003.,0.640374521013,1.66497375463,260.
8.38,5900.,17.,6.,4076.,0.,0.,9999.,0.608937612921,1.86263269835,221.
8.4,5902.,13.,5.,4078.,0.,0.,9998.,0.581669669227,2.32667867691,169.
8.42,5904.,15.,7.,4072.,0.,0.,9998.,0.558712416579,1.93686971081,195.
8.44,5905.,14.,4.,4075.,0.,0.,9998.,0.540404987875,2.00721852639,182.
8.46,5905.,13.,6.,4071.,0.,0.,9995.,0.527207553951,2.1088302158,169.
8.48,5919.,4.,6.,4067.,0.,0.,9996.,0.520285236022,6.76370806829,52.
8.5,5932.,2.,4.,4059.,0.,0.,9997.,0.518649318998,13.4848822939,26.
8.52,5934.,3.,0.,4056.,0.,0.,9993.,0.521760339776,9.04384588945,39.
8.54,5943.,0.,2.,4047.,0.,0.,9992.,0.53075956038,inf,0.
8.56,5953.,0.,0.,4041.,0.,0.,9994.,0.545015830267,inf,0.
8.58,5967.,0.,0.,4031.,0.,0.,9998.,0.564674286878,inf,0.
8.6,5979.,0.,0.,4021.,0.,0.,10000.,0.58914052723,inf,0.
8.62,5988.,0.,0.,4014.,0.,0.,10002.,0.617834703284,inf,0.
8.64,5999.,0.,0.,4004.,0.,0.,10003.,0.650899144621,inf,0.
8.66,6009.,0.,0.,3995.,0.,0.,10004.,0.687478951285,inf,0.
8.68,6026.,0.,0.,3980.,0.,0.,10006.,0.727904991161,inf,0.
8.7,6039.,0.,0.,3972.,0.,0.,10011.,0.770154185318,inf,0.
8.72,6049.,2.,0.,3964.,0.,0.,10015.,0.813931326502,21.162214489,26.
8.74,6055.,0.,2.,3953.,0.,0.,10010.,0.859061055965,inf,0.
8.76,6061.,0.,2.,3947.,0.,0.,10010.,0.904220643795,inf,0.
8.78,6065.,5.,1.,3940.,0.,0.,10011.,0.948710570924,9.86658993761,65.
8.8,6070.,3.,5.,3932.,0.,0.,10010.,0.992567573397,17.2045046056,39.
8.82,6078.,2.,7.,3922.,0.,0.,10009.,1.03529155364,26.9175803948,26.
8.84,6092.,5.,1.,3915.,0.,0.,10013.,1.07627628506,11.1932733646,65.
8.86,6097.,4.,1.,3907.,0.,0.,10009.,1.1136528208,14.4774866704,52.
8.88,6103.,6.,0.,3900.,0.,0.,10009.,1.14727520805,9.94305180314,78.
8.9,6107.,6.,2.,3894.,0.,0.,10009.,1.17648753742,10.1962253243,78.
8.92,6110.,10.,3.,3887.,0.,0.,10010.,1.20088141441,6.24458335491,130.
8.94,6115.,14.,4.,3878.,0.,0.,10011.,1.22077582744,4.5343102162,182.
8.96,6124.,16.,5.,3870.,0.,0.,10015.,1.23591169685,4.01671301478,208.
8.98,6123.,17.,8.,3867.,0.,0.,10015.,1.24409317766,3.8054614846,221.
9.,6129.,14.,8.,3864.,0.,0.,10015.,1.24812423136,4.63589000218,182.
9.02,6123.,23.,6.,3862.,0.,0.,10014.,1.24421741305,2.81301328167,299.
9.04,6121.,24.,6.,3863.,0.,0.,10014.,1.23542961143,2.67676415809,312.
9.06,6121.,19.,10.,3865.,0.,0.,10015.,1.22148558772,3.34301318745,247.
9.08,6110.,18.,13.,3871.,0.,0.,10012.,1.20064152599,3.46851996397,234.
9.1,6099.,30.,11.,3870.,0.,0.,10010.,1.17482899424,2.03637025668,390.
9.12,6081.,32.,8.,3881.,0.,0.,10002.,1.14393956579,1.85890179441,416.
9.14,6075.,30.,13.,3882.,0.,0.,10000.,1.11063306268,1.92509730865,390.
9.16,6070.,29.,16.,3883.,0.,0.,9998.,1.07399844159,1.92579030906,377.
9.18,6060.,30.,21.,3890.,0.,0.,10001.,1.03305123506,1.79062214077,390.
9.2,6047.,37.,14.,3904.,0.,0.,10002.,0.989597496061,1.39078567014,481.
9.22,6039.,32.,14.,3915.,0.,0.,10000.,0.945682659071,1.53673432099,416.
9.24,6030.,34.,11.,3925.,0.,0.,10000.,0.900495451669,1.37722833785,442.
9.26,6022.,37.,13.,3928.,0.,0.,10000.,0.855233516879,1.20194980751,481.
9.28,6021.,32.,14.,3937.,0.,0.,10004.,0.811054572657,1.31796368057,416.
9.3,6022.,27.,18.,3940.,0.,0.,10007.,0.768293153451,1.47967570294,351.
9.32,6024.,26.,10.,3946.,0.,0.,10006.,0.727663403047,1.45532680609,338.
9.34,6026.,24.,7.,3946.,0.,0.,10003.,0.689492812617,1.493901094,312.
9.36,6032.,17.,13.,3942.,0.,0.,10004.,0.654414264874,2.00173775138,221.
9.38,6032.,14.,4.,3956.,0.,0.,10006.,0.622125770295,2.3107528611,182.
9.4,6036.,12.,4.,3954.,0.,0.,10006.,0.594400379736,2.57573497886,156.
9.42,6043.,4.,11.,3945.,0.,0.,10003.,0.571580536943,7.43054698026,52.
9.44,6045.,12.,5.,3940.,0.,0.,10002.,0.552996056517,2.39631624491,156.
9.46,6055.,9.,6.,3934.,0.,0.,10004.,0.540113441212,3.12065543811,117.
9.48,6058.,9.,3.,3934.,0.,0.,10004.,0.532077624203,3.07422627317,117.
9.5,6076.,6.,1.,3926.,0.,0.,10009.,0.530602678131,4.59855654381,78.
9.52,6087.,5.,2.,3916.,0.,0.,10010.,0.53430425651,5.5567642677,65.
9.54,6098.,2.,3.,3910.,0.,0.,10013.,0.543460175465,14.1299645621,26.
9.56,6111.,1.,0.,3902.,0.,0.,10014.,0.55836382797,29.0349190544,13.
9.58,6122.,2.,0.,3889.,0.,0.,10013.,0.57847449515,15.0403368739,26.
9.6,6136.,2.,1.,3875.,0.,0.,10014.,0.603765244644,15.6978963608,26.
9.62,6142.,1.,0.,3868.,0.,0.,10011.,0.633154514623,32.9240347604,13.
9.64,6158.,0.,1.,3855.,0.,0.,10014.,0.667416908819,inf,0.
9.66,6166.,0.,0.,3850.,0.,0.,10016.,0.704595863744,inf,0.
9.68,6177.,0.,0.,3840.,0.,0.,10017.,0.7453255274,inf,0.
9.7,6187.,0.,0.,3832.,0.,0.,10019.,0.788398612086,inf,0.
9.72,6193.,0.,0.,3826.,0.,0.,10019.,0.832974749214,inf,0.
9.74,6199.,0.,0.,3821.,0.,0.,10020.,0.878613508806,inf,0.
9.76,6207.,0.,1.,3815.,0.,0.,10023.,0.92480086324,inf,0.
9.78,6207.,2.,1.,3812.,0.,0.,10022.,0.96985708521,25.2162842155,26.
9.8,6220.,1.,1.,3802.,0.,0.,10024.,1.01567507781,52.8151040461,13.
9.82,6227.,2.,1.,3793.,0.,0.,10023.,1.05918982408,27.5389354261,26.
9.84,6241.,3.,2.,3779.,0.,0.,10025.,1.10128035909,19.0888595575,39.
9.86,6248.,7.,1.,3768.,0.,0.,10024.,1.13952610453,8.46505106224,91.
9.88,6257.,5.,2.,3757.,0.,0.,10021.,1.17481645544,12.2180911366,65.
9.9,6263.,4.,1.,3754.,0.,0.,10022.,1.20497521372,15.6646777784,52.
9.92,6271.,3.,3.,3745.,0.,0.,10022.,1.23104915129,21.3381852891,39.
9.94,6277.,8.,3.,3737.,0.,0.,10025.,1.25136691545,8.13388495041,104.
9.96,6270.,13.,6.,3733.,0.,0.,10022.,1.26449278745,5.05797114981,169.
9.98,6277.,15.,1.,3732.,0.,0.,10025.,1.27411124898,4.41691899648,195.
10.,6285.,14.,3.,3726.,0.,0.,10028.,1.27823323041,4.74772342722,182.
