t,neff
5.,0.50136220473
5.02,0.483451391869
5.04,0.331010330481
5.06,0.552468874939
5.08,0.561459262142
5.1,0.450027418974
5.12,0.629855318561
5.14,0.799751753377
5.16,0.827219880596
5.18,0.882494756049
5.2,0.749757399373
5.22,0.783307977596
5.24,0.823094418028
5.26,1.0362343356
5.28,0.915090180342
5.3,0.905854602515
5.32,0.924251424729
5.34,0.662946271797
5.36,0.697579191664
5.38,0.500901152964
5.4,0.362283001357
5.42,0.292874117806
5.44,0.345429636919
5.46,0.486345358558
5.48,0.357726660126
5.5,0.268585610139
5.52,0.133179737297
5.54,0.0435924862566
5.56,0.0423703188894
5.58,0.
5.6,0.
5.62,0.
5.64,0.
5.66,0.
5.68,0.031453271676
5.7,0.0297006989136
5.72,0.0280834572181
5.74,0.0532148244435
5.76,0.0252486671334
5.78,0.071939345551
5.8,0.0457468929004
5.82,0.087735211549
5.84,0.126572358664
5.86,0.183228017207
5.88,0.098641878637
5.9,0.230791625656
5.92,0.225780634558
5.94,0.184878227728
5.96,0.164141611638
5.98,0.289222182831
6.,0.270185077046
6.02,0.306478598663
6.04,0.326111660537
6.06,0.347945817394
6.08,0.484088135803
6.1,0.512711591003
6.12,0.524537097973
6.14,0.601535644663
6.16,0.685048449119
6.18,0.711724767934
6.2,0.72023789925
6.22,0.84748517341
6.24,0.790631036831
6.26,0.779909849612
6.28,0.959134629865
6.3,0.72241756681
6.32,0.670452152725
6.34,0.545478222303
6.36,0.779252036625
6.38,0.604269779989
6.4,0.446690690301
6.42,0.348269143219
6.44,0.359629276807
6.46,0.204593748716
6.48,0.124380442919
6.5,0.249696118627
6.52,0.206594835987
6.54,0.0811442531225
6.56,0.0394534803812
6.58,0.0380469214715
6.6,0.036430095315
6.62,0.
6.64,0.0329335368886
6.66,0.
6.68,0.
6.7,0.
6.72,0.
6.74,0.
6.76,0.0235736588926
6.78,0.
6.8,0.0428918482159
6.82,0.0205274107547
6.84,0.0790364558581
6.86,0.0954313114899
6.88,0.129592175432
6.9,0.07206524071
6.92,0.14108777515
6.94,0.138595902671
6.96,0.154238268417
6.98,0.221198643551
7.,0.220413567898
7.02,0.203857512944
7.04,0.429088759895
7.06,0.2944023369
7.08,0.511195882983
7.1,0.576301517574
7.12,0.720721932469
7.14,0.704494804706
7.16,0.65047788332
7.18,0.613774747917
7.2,0.725329299529
7.22,0.804548455148
7.24,0.703051507258
7.26,0.888844443625
7.28,0.808019718127
7.3,0.882278482872
7.32,0.669494726953
7.34,0.614040968662
7.36,0.743900520734
7.38,0.508934466086
7.4,0.390492745272
7.42,0.110731495937
7.44,0.266900684952
7.46,0.312664547904
7.48,0.396168386008
7.5,0.278298061824
7.52,0.0393901710134
7.54,0.
7.56,0.
7.58,0.
7.6,0.
7.62,0.
7.64,0.0313980073553
7.66,0.0297182289393
7.68,0.0280338538932
7.7,0.
7.72,0.
7.74,0.
7.76,0.
7.78,0.0428468522315
7.8,0.0204598877364
7.82,0.0588730366719
7.84,0.0377893384187
7.86,0.146080798847
7.88,0.141679639099
7.9,0.189785212755
7.92,0.202813881216
7.94,0.266174558349
7.96,0.180686194177
7.98,0.326746307372
8.,0.342506314161
8.02,0.261468398327
8.04,0.312629296441
8.06,0.449501675854
8.08,0.491198877626
8.1,0.553202935754
8.12,0.673991376
8.14,0.768461151705
8.16,0.738449616055
8.18,0.668187168611
8.2,0.697107251053
8.22,0.901164527653
8.24,0.742127268755
8.26,0.6379247971
8.28,0.774071024905
8.3,0.843887771147
8.32,0.555984762884
8.34,0.704976767696
8.36,0.619164051911
8.38,0.618912615968
8.4,0.750923912412
8.42,0.496602606086
8.44,0.439470876269
8.46,0.375030178289
8.48,0.190054048306
8.5,0.114401183397
8.52,0.113561875145
8.54,0.111591639892
8.56,0.0361775080773
8.58,0.0699037829605
8.6,0.
8.62,0.
8.64,0.
8.66,0.
8.68,0.
8.7,0.
8.72,0.
8.74,0.0460572742449
8.76,0.0218774953685
8.78,0.0208097177971
8.8,0.0198821207114
8.82,0.0571575249471
8.84,0.018322277146
8.86,0.0884883447838
8.88,0.0858432703624
8.9,0.167284740339
8.92,0.114691203813
8.94,0.209813224345
8.96,0.302955141434
8.98,0.221309560295
9.,0.31579767118
9.02,0.31597566222
9.04,0.334145639117
9.06,0.322287606305
9.08,0.49169344098
9.1,0.468549821619
9.12,0.600642117352
9.14,0.38851461193
9.16,0.585722313375
9.18,0.646710186696
9.2,0.634692735164
9.22,0.664738762485
9.24,0.697783363064
9.26,0.712551817911
9.28,0.873461932332
9.3,0.948463330178
9.32,0.757598850302
9.34,0.713919610725
9.36,0.511608739485
9.38,0.570284755251
9.4,0.29848879859
9.42,0.483374743135
9.44,0.213969163081
9.46,0.182412954481
9.48,0.222101548846
9.5,0.148593409118
9.52,0.147624754357
9.54,0.108864167896
9.56,0.0706425884194
9.58,0.034094151
9.6,0.
9.62,0.
9.64,0.
9.66,0.0278987146814
9.68,0.026363277778
9.7,0.0249168388207
9.72,0.
9.74,0.
9.76,0.
9.78,0.0201478931379
9.8,0.038484936114
9.82,0.0368578624472
9.84,0.0532191666597
9.86,0.0856548127624
9.88,0.116411221459
9.9,0.113402637986
9.92,0.238052585522
9.94,0.187235748672
9.96,0.27807354039
9.98,0.306949723582
10.,0.168242492335
