t,cases
5.01,2.21
5.02,2.21
5.03,2.73
5.04,2.73
5.05,3.315
5.06,3.315
5.07,3.77
5.08,3.77
5.09,3.965
5.1,3.965
5.11,4.095
5.12,4.095
5.13,3.835
5.14,3.835
5.15,3.705
5.16,3.705
5.17,3.835
5.18,3.835
5.19,4.16
5.2,4.16
5.21,4.875
5.22,4.875
5.23,4.68
5.24,4.68
5.25,4.225
5.26,4.225
5.27,4.16
5.28,4.16
5.29,4.16
5.3,4.16
5.31,3.575
5.32,3.575
5.33,2.795
5.34,2.795
5.35,2.86
5.36,2.86
5.37,2.535
5.38,2.535
5.39,1.755
5.4,1.755
5.41,1.365
5.42,1.365
5.43,1.17
5.44,1.17
5.45,1.04
5.46,1.04
5.47,0.78
5.48,0.78
5.49,0.52
5.5,0.52
5.51,0.52
5.52,0.52
5.53,0.325
5.54,0.325
5.55,0.065
5.56,0.065
5.57,0.
5.58,0.
5.59,0.
5.6,0.
5.61,0.
5.62,0.
5.63,0.
5.64,0.
5.65,0.
5.66,0.
5.67,0.065
5.68,0.065
5.69,0.13
5.7,0.13
5.71,0.13
5.72,0.13
5.73,0.195
5.74,0.195
5.75,0.195
5.76,0.195
5.77,0.065
5.78,0.065
5.79,0.065
5.8,0.065
5.81,0.195
5.82,0.195
5.83,0.26
5.84,0.26
5.85,0.39
5.86,0.39
5.87,0.65
5.88,0.65
5.89,0.845
5.9,0.845
5.91,1.17
5.92,1.17
5.93,1.495
5.94,1.495
5.95,1.625
5.96,1.625
5.97,1.82
5.98,1.82
5.99,2.275
6.,2.275
6.01,2.535
6.02,2.535
6.03,3.38
6.04,3.38
6.05,3.77
6.06,3.77
6.07,3.835
6.08,3.835
6.09,4.68
6.1,4.68
6.11,4.485
6.12,4.485
6.13,4.55
6.14,4.55
6.15,4.875
6.16,4.875
6.17,5.135
6.18,5.135
6.19,5.265
6.2,5.265
6.21,5.265
6.22,5.265
6.23,5.135
6.24,5.135
6.25,4.225
6.26,4.225
6.27,4.355
6.28,4.355
6.29,4.485
6.3,4.485
6.31,3.965
6.32,3.965
6.33,3.835
6.34,3.835
6.35,3.185
6.36,3.185
6.37,2.6
6.38,2.6
6.39,2.34
6.4,2.34
6.41,1.755
6.42,1.755
6.43,1.3
6.44,1.3
6.45,1.04
6.46,1.04
6.47,0.975
6.48,0.975
6.49,0.845
6.5,0.845
6.51,0.585
6.52,0.585
6.53,0.455
6.54,0.455
6.55,0.455
6.56,0.455
6.57,0.26
6.58,0.26
6.59,0.065
6.6,0.065
6.61,0.26
6.62,0.26
6.63,0.325
6.64,0.325
6.65,0.26
6.66,0.26
6.67,0.26
6.68,0.26
6.69,0.195
6.7,0.195
6.71,0.065
6.72,0.065
6.73,0.
6.74,0.
6.75,0.
6.76,0.
6.77,0.065
6.78,0.065
6.79,0.13
6.8,0.13
6.81,0.26
6.82,0.26
6.83,0.39
6.84,0.39
6.85,0.78
6.86,0.78
6.87,1.105
6.88,1.105
6.89,1.105
6.9,1.105
6.91,1.3
6.92,1.3
6.93,1.56
6.94,1.56
6.95,2.015
6.96,2.015
6.97,2.73
6.98,2.73
6.99,3.055
7.,3.055
7.01,3.055
7.02,3.055
7.03,2.86
7.04,2.86
7.05,3.055
7.06,3.055
7.07,2.73
7.08,2.73
7.09,2.535
7.1,2.535
7.11,3.055
7.12,3.055
7.13,3.315
7.14,3.315
7.15,3.77
7.16,3.77
7.17,4.42
7.18,4.42
7.19,5.07
7.2,5.07
7.21,5.33
7.22,5.33
7.23,5.33
7.24,5.33
7.25,5.07
7.26,5.07
7.27,4.81
7.28,4.81
7.29,4.16
7.3,4.16
7.31,3.77
7.32,3.77
7.33,3.575
7.34,3.575
7.35,2.86
7.36,2.86
7.37,2.34
7.38,2.34
7.39,2.145
7.4,2.145
7.41,1.885
7.42,1.885
7.43,1.625
7.44,1.625
7.45,1.625
7.46,1.625
7.47,1.365
7.48,1.365
7.49,0.715
7.5,0.715
7.51,0.325
7.52,0.325
7.53,0.13
7.54,0.13
7.55,0.13
7.56,0.13
7.57,0.195
7.58,0.195
7.59,0.13
7.6,0.13
7.61,0.13
7.62,0.13
7.63,0.26
7.64,0.26
7.65,0.455
7.66,0.455
7.67,0.455
7.68,0.455
7.69,0.325
7.7,0.325
7.71,0.26
7.72,0.26
7.73,0.26
7.74,0.26
7.75,0.325
7.76,0.325
7.77,0.325
7.78,0.325
7.79,0.195
7.8,0.195
7.81,0.195
7.82,0.195
7.83,0.325
7.84,0.325
7.85,0.39
7.86,0.39
7.87,0.585
7.88,0.585
7.89,0.78
7.9,0.78
7.91,1.3
7.92,1.3
7.93,1.755
7.94,1.755
7.95,1.43
7.96,1.43
7.97,1.56
7.98,1.56
7.99,1.95
8.,1.95
8.01,2.015
8.02,2.015
8.03,2.405
8.04,2.405
8.05,3.055
8.06,3.055
8.07,3.51
8.08,3.51
8.09,3.38
8.1,3.38
8.11,3.315
8.12,3.315
8.13,3.77
8.14,3.77
8.15,4.03
8.16,4.03
8.17,3.835
8.18,3.835
8.19,4.29
8.2,4.29
8.21,4.81
8.22,4.81
8.23,4.875
8.24,4.875
8.25,4.485
8.26,4.485
8.27,3.51
8.28,3.51
8.29,3.64
8.3,3.64
8.31,3.575
8.32,3.575
8.33,2.665
8.34,2.665
8.35,2.015
8.36,2.015
8.37,1.495
8.38,1.495
8.39,1.17
8.4,1.17
8.41,1.3
8.42,1.3
8.43,1.365
8.44,1.365
8.45,0.91
8.46,0.91
8.47,0.585
8.48,0.585
8.49,0.455
8.5,0.455
8.51,0.195
8.52,0.195
8.53,0.0650000000001
8.54,0.0649999999999
8.55,0.0650000000001
8.56,0.0649999999999
8.57,0.195
8.58,0.195
8.59,0.39
8.6,0.39
8.61,0.26
8.62,0.26
8.63,0.13
8.64,0.13
8.65,0.26
8.66,0.26
8.67,0.39
8.68,0.39
8.69,0.39
8.7,0.39
8.71,0.39
8.72,0.39
8.73,0.195
8.74,0.195
8.75,0.0650000000001
8.76,0.0649999999999
8.77,0.0649999999999
8.78,0.0650000000001
8.79,0.13
8.8,0.13
8.81,0.13
8.82,0.13
8.83,0.
8.84,0.
8.85,0.26
8.86,0.26
8.87,0.65
8.88,0.65
8.89,0.715
8.9,0.715
8.91,1.04
8.92,1.04
8.93,1.56
8.94,1.56
8.95,1.755
8.96,1.755
8.97,2.015
8.98,2.015
8.99,2.015
9.,2.015
9.01,1.885
9.02,1.885
9.03,1.95
9.04,1.95
9.05,2.275
9.06,2.275
9.07,2.21
9.08,2.21
9.09,1.95
9.1,1.95
9.11,2.925
9.12,2.925
9.13,3.51
9.14,3.51
9.15,4.16
9.16,4.16
9.17,4.68
9.18,4.68
9.19,4.68
9.2,4.68
9.21,5.07
9.22,5.07
9.23,4.225
9.24,4.225
9.25,3.9
9.26,3.9
9.27,4.095
9.28,4.095
9.29,3.9
9.3,3.9
9.31,3.51
9.32,3.51
9.33,2.535
9.34,2.535
9.35,2.405
9.36,2.405
9.37,2.275
9.38,2.275
9.39,2.08
9.4,2.08
9.41,1.82
9.42,1.82
9.43,1.235
9.44,1.235
9.45,1.04
9.46,1.04
9.47,0.845
9.48,0.845
9.49,0.78
9.5,0.78
9.51,0.65
9.52,0.65
9.53,0.325
9.54,0.325
9.55,0.195
9.56,0.195
9.57,0.195
9.58,0.195
9.59,0.13
9.6,0.13
9.61,0.13
9.62,0.13
9.63,0.195
9.64,0.195
9.65,0.13
9.66,0.13
9.67,0.
9.68,0.
9.69,0.
9.7,0.
9.71,0.
9.72,0.
9.73,0.
9.74,0.
9.75,0.26
9.76,0.26
9.77,0.325
9.78,0.325
9.79,0.195
9.8,0.195
9.81,0.195
9.82,0.195
9.83,0.13
9.84,0.13
9.85,0.195
9.86,0.195
9.87,0.39
9.88,0.39
9.89,0.585
9.9,0.585
9.91,0.585
9.92,0.585
9.93,0.715
9.94,0.715
9.95,0.975
9.96,0.975
9.97,1.365
9.98,1.365
9.99,1.43
10.,1.43
