t,neff
5.,0.444124275239
5.02,0.445544578432
5.04,0.397253215201
5.06,0.507301453544
5.08,0.497953813619
5.1,0.581442901969
5.12,0.465895988057
5.14,0.595212200684
5.16,0.616319378881
5.18,0.577871088483
5.2,0.818486958456
5.22,0.767211321321
5.24,0.948955589929
5.26,0.8741498848
5.28,0.895851914457
5.3,0.863860209845
5.32,0.854874125279
5.34,1.02914286903
5.36,0.788763310533
5.38,0.518600029628
5.4,0.397979309238
5.42,0.414810763432
5.44,0.467615562596
5.46,0.319277947136
5.48,0.405383548195
5.5,0.244285163232
5.52,0.24281363897
5.54,0.119422013334
5.56,0.0387975217589
5.58,0.0374894155708
5.6,0.107842767706
5.62,0.137224715199
5.64,0.0652003254544
5.66,0.0617690268492
5.68,0.
5.7,0.
5.72,0.
5.74,0.
5.76,0.
5.78,0.0224856651325
5.8,0.021500723791
5.82,0.0412222121248
5.84,0.0992460594707
5.86,0.134350373158
5.88,0.111861091382
5.9,0.236593043704
5.92,0.285542763707
5.94,0.298491055318
5.96,0.156074432178
5.98,0.241335846541
6.,0.292478407925
6.02,0.41405170888
6.04,0.347355665369
6.06,0.421713411096
6.08,0.446241657375
6.1,0.437437871854
6.12,0.373628192018
6.14,0.442467341687
6.16,0.637659761508
6.18,0.599614960637
6.2,0.668134121802
6.22,0.54105076608
6.24,0.757854344333
6.26,0.722767375263
6.28,0.551972167753
6.3,0.416307363341
6.32,0.498516267784
6.34,0.650724719893
6.36,0.621156672758
6.38,0.412477067783
6.4,0.576037509467
6.42,0.487406233417
6.44,0.465082152574
6.46,0.397157249027
6.48,0.161197802525
6.5,0.283666921994
6.52,0.16106459434
6.54,0.0791791471979
6.56,0.0385924751662
6.58,0.
6.6,0.
6.62,0.
6.64,0.0324515901366
6.66,0.
6.68,0.0290640263601
6.7,0.0549970277415
6.72,0.052050931772
6.74,0.0493265714954
6.76,0.0234335840713
6.78,0.0223310485747
6.8,0.106786110669
6.82,0.122928410999
6.84,0.138206650644
6.86,0.133629694715
6.88,0.241148108606
6.9,0.235399108964
6.92,0.177318491096
6.94,0.244527272377
6.96,0.276509921194
6.98,0.274635703553
7.,0.274104660384
7.02,0.326456339941
7.04,0.328927877987
7.06,0.350649175065
7.08,0.463342016404
7.1,0.509324776245
7.12,0.578619331117
7.14,0.499444299152
7.16,0.416956168031
7.18,0.474319335259
7.2,0.494473806945
7.22,0.698177561636
7.24,0.851442717412
7.26,0.797303147935
7.28,0.630524479705
7.3,0.666218880597
7.32,0.792688267028
7.34,0.744301225053
7.36,0.68689636139
7.38,0.550549702496
7.4,0.432009934324
7.42,0.412251320775
7.44,0.271105157008
7.46,0.277687211345
7.48,0.241437732224
7.5,0.161617428122
7.52,0.
7.54,0.0394851347281
7.56,0.
7.58,0.
7.6,0.
7.62,0.0340432973706
7.64,0.0970926578156
7.66,0.0306366537666
7.68,0.
7.7,0.0273953749297
7.72,0.0259249186029
7.74,0.
7.76,0.0233415351334
7.78,0.0444939514147
7.8,0.0425554148122
7.82,0.0816800660452
7.84,0.0983501535091
7.86,0.133189165074
7.88,0.0923716709603
7.9,0.0720595697679
7.92,0.123686643714
7.94,0.29605803537
7.96,0.154976931735
7.98,0.359340417487
8.,0.358395125451
8.02,0.393469150395
8.04,0.413509768096
8.06,0.243763766456
8.08,0.354143498299
8.1,0.288966586556
8.12,0.556019408931
8.14,0.631091037895
8.16,0.971716731946
8.18,0.762030671196
8.2,0.730788577262
8.22,0.923324841476
8.24,1.04107114906
8.26,1.02214015148
8.28,0.895577826051
8.3,0.778713395484
8.32,0.73451149431
8.34,0.838516061054
8.36,0.523897810086
8.38,0.516248266269
8.4,0.396453333388
8.42,0.375050427466
8.44,0.193726528124
8.46,0.158885970798
8.48,0.120943426781
8.5,0.121443537253
8.52,0.0804525911988
8.54,0.0791525190274
8.56,0.
8.58,0.
8.6,0.
8.62,0.0341205209909
8.64,0.
8.66,0.
8.68,0.058100230101
8.7,0.0274656263141
8.72,0.0260116353159
8.74,0.073992442783
8.76,0.0937303206806
8.78,0.0892884332413
8.8,0.0426880221024
8.82,0.0819247263057
8.84,0.0789046600852
8.86,0.0953741848459
8.88,0.129733183231
8.9,0.0903618857475
8.92,0.124032297158
8.94,0.209424373867
8.96,0.258665910106
8.98,0.273936534543
9.,0.27349341995
9.02,0.377391217632
9.04,0.467068175772
9.06,0.508062481827
9.08,0.552742465286
9.1,0.6923614757
9.12,0.67311621182
9.14,0.55795255162
9.16,0.657177250254
9.18,0.558554501178
9.2,0.582323120811
9.22,0.60905980843
9.24,0.520756452428
9.26,0.697314634389
9.28,0.577195869115
9.3,0.665322810733
9.32,0.43911017105
9.34,0.494865472451
9.36,0.423837176571
9.38,0.411258659552
9.4,0.286874263195
9.42,0.261306801071
9.44,0.192905768931
9.46,0.276621983214
9.48,0.160332874562
9.5,0.0805150241108
9.52,0.0800071070697
9.54,0.0786670549178
9.56,0.0766520555409
9.58,0.
9.6,0.071045636152
9.62,0.0677774679327
9.64,0.
9.66,0.
9.68,0.
9.7,0.
9.72,0.0258099610639
9.74,0.0244711710928
9.76,0.
9.78,0.0442983038722
9.8,0.0423458099823
9.82,0.0406317781408
9.84,0.0391155631422
9.86,0.0945438125901
9.88,0.110209840279
9.9,0.107547879778
9.92,0.12292376019
9.94,0.103683174727
9.96,0.187940359522
9.98,0.237570352085
10.,0.322014248744
