t,cases
5.01,3.055
5.02,3.055
5.03,3.25
5.04,3.25
5.05,3.965
5.06,3.965
5.07,4.81
5.08,4.81
5.09,4.55
5.1,4.55
5.11,4.615
5.12,4.615
5.13,5.265
5.14,5.265
5.15,4.81
5.16,4.81
5.17,4.485
5.18,4.485
5.19,4.29
5.2,4.29
5.21,3.9
5.22,3.9
5.23,4.095
5.24,4.095
5.25,4.16
5.26,4.16
5.27,3.575
5.28,3.575
5.29,3.055
5.3,3.055
5.31,3.315
5.32,3.315
5.33,3.445
5.34,3.445
5.35,2.795
5.36,2.795
5.37,2.015
5.38,2.015
5.39,1.885
5.4,1.885
5.41,1.82
5.42,1.82
5.43,1.3
5.44,1.3
5.45,0.975
5.46,0.975
5.47,0.78
5.48,0.78
5.49,0.715
5.5,0.715
5.51,0.585
5.52,0.585
5.53,0.39
5.54,0.39
5.55,0.39
5.56,0.39
5.57,0.26
5.58,0.26
5.59,0.13
5.6,0.13
5.61,0.065
5.62,0.065
5.63,0.065
5.64,0.065
5.65,0.13
5.66,0.13
5.67,0.065
5.68,0.065
5.69,0.065
5.7,0.065
5.71,0.065
5.72,0.065
5.73,0.
5.74,0.
5.75,0.
5.76,0.
5.77,0.065
5.78,0.065
5.79,0.13
5.8,0.13
5.81,0.325
5.82,0.325
5.83,0.52
5.84,0.52
5.85,0.91
5.86,0.91
5.87,1.365
5.88,1.365
5.89,1.365
5.9,1.365
5.91,1.56
5.92,1.56
5.93,1.56
5.94,1.56
5.95,1.625
5.96,1.625
5.97,2.145
5.98,2.145
5.99,2.535
6.,2.535
6.01,2.6
6.02,2.6
6.03,2.405
6.04,2.405
6.05,2.6
6.06,2.6
6.07,2.925
6.08,2.925
6.09,2.73
6.1,2.73
6.11,2.86
6.12,2.86
6.13,3.51
6.14,3.51
6.15,4.55
6.16,4.55
6.17,5.2
6.18,5.2
6.19,4.94
6.2,4.94
6.21,4.42
6.22,4.42
6.23,4.03
6.24,4.03
6.25,4.355
6.26,4.355
6.27,4.485
6.28,4.485
6.29,4.16
6.3,4.16
6.31,3.575
6.32,3.575
6.33,2.795
6.34,2.795
6.35,2.34
6.36,2.34
6.37,2.405
6.38,2.405
6.39,2.145
6.4,2.145
6.41,1.43
6.42,1.43
6.43,1.17
6.44,1.17
6.45,0.91
6.46,0.91
6.47,0.52
6.48,0.52
6.49,0.26
6.5,0.26
6.51,0.195
6.52,0.195
6.53,0.26
6.54,0.26
6.55,0.26
6.56,0.26
6.57,0.13
6.58,0.13
6.59,0.
6.6,0.
6.61,0.
6.62,0.
6.63,0.
6.64,0.
6.65,0.
6.66,0.
6.67,0.
6.68,0.
6.69,0.
6.7,0.
6.71,0.
6.72,0.
6.73,0.
6.74,0.
6.75,0.13
6.76,0.13
6.77,0.195
6.78,0.195
6.79,0.195
6.8,0.195
6.81,0.195
6.82,0.195
6.83,0.39
6.84,0.39
6.85,0.65
6.86,0.65
6.87,0.715
6.88,0.715
6.89,0.975
6.9,0.975
6.91,1.56
6.92,1.56
6.93,2.015
6.94,2.015
6.95,2.275
6.96,2.275
6.97,2.405
6.98,2.405
6.99,2.405
7.,2.405
7.01,3.12
7.02,3.12
7.03,3.445
7.04,3.445
7.05,3.25
7.06,3.25
7.07,3.9
7.08,3.9
7.09,4.485
7.1,4.485
7.11,4.485
7.12,4.485
7.13,4.745
7.14,4.745
7.15,5.33
7.16,5.33
7.17,5.2
7.18,5.2
7.19,4.68
7.2,4.68
7.21,4.875
7.22,4.875
7.23,5.07
7.24,5.07
7.25,4.745
7.26,4.745
7.27,3.9
7.28,3.9
7.29,3.055
7.3,3.055
7.31,3.055
7.32,3.055
7.33,3.25
7.34,3.25
7.35,3.055
7.36,3.055
7.37,2.145
7.38,2.145
7.39,1.625
7.4,1.625
7.41,1.495
7.42,1.495
7.43,1.235
7.44,1.235
7.45,1.04
7.46,1.04
7.47,0.65
7.48,0.65
7.49,0.52
7.5,0.52
7.51,0.39
7.52,0.39
7.53,0.13
7.54,0.13
7.55,0.
7.56,0.
7.57,0.0650000000001
7.58,0.0649999999999
7.59,0.13
7.6,0.13
7.61,0.195
7.62,0.195
7.63,0.26
7.64,0.26
7.65,0.26
7.66,0.26
7.67,0.26
7.68,0.26
7.69,0.26
7.7,0.26
7.71,0.13
7.72,0.13
7.73,0.
7.74,0.
7.75,0.13
7.76,0.13
7.77,0.195
7.78,0.195
7.79,0.195
7.8,0.195
7.81,0.195
7.82,0.195
7.83,0.13
7.84,0.13
7.85,0.26
7.86,0.26
7.87,0.585
7.88,0.585
7.89,0.91
7.9,0.91
7.91,1.17
7.92,1.17
7.93,1.43
7.94,1.43
7.95,1.56
7.96,1.56
7.97,1.755
7.98,1.755
7.99,1.95
8.,1.95
8.01,2.21
8.02,2.21
8.03,2.665
8.04,2.665
8.05,2.925
8.06,2.925
8.07,3.315
8.08,3.315
8.09,3.575
8.1,3.575
8.11,3.64
8.12,3.64
8.13,4.16
8.14,4.16
8.15,4.55
8.16,4.55
8.17,4.875
8.18,4.875
8.19,5.265
8.2,5.265
8.21,4.68
8.22,4.68
8.23,4.095
8.24,4.095
8.25,4.355
8.26,4.355
8.27,4.42
8.28,4.42
8.29,3.51
8.3,3.51
8.31,2.6
8.32,2.6
8.33,2.275
8.34,2.275
8.35,2.08
8.36,2.08
8.37,1.885
8.38,1.885
8.39,1.495
8.4,1.495
8.41,1.105
8.42,1.105
8.43,0.78
8.44,0.78
8.45,0.715
8.46,0.715
8.47,0.78
8.48,0.78
8.49,0.65
8.5,0.65
8.51,0.26
8.52,0.26
8.53,0.0650000000001
8.54,0.0649999999999
8.55,0.0650000000001
8.56,0.0649999999999
8.57,0.
8.58,0.
8.59,0.0650000000001
8.6,0.0649999999999
8.61,0.13
8.62,0.13
8.63,0.13
8.64,0.13
8.65,0.0649999999999
8.66,0.0650000000001
8.67,0.
8.68,0.
8.69,0.0650000000001
8.7,0.0649999999999
8.71,0.0650000000001
8.72,0.0649999999999
8.73,0.
8.74,0.
8.75,0.
8.76,0.
8.77,0.
8.78,0.
8.79,0.13
8.8,0.13
8.81,0.13
8.82,0.13
8.83,0.26
8.84,0.26
8.85,0.78
8.86,0.78
8.87,1.235
8.88,1.235
8.89,1.3
8.9,1.3
8.91,1.235
8.92,1.235
8.93,1.365
8.94,1.365
8.95,1.625
8.96,1.625
8.97,1.755
8.98,1.755
8.99,2.34
9.,2.34
9.01,2.86
9.02,2.86
9.03,3.315
9.04,3.315
9.05,3.77
9.06,3.77
9.07,3.51
9.08,3.51
9.09,3.38
9.1,3.38
9.11,3.445
9.12,3.445
9.13,3.055
9.14,3.055
9.15,3.38
9.16,3.38
9.17,4.03
9.18,4.03
9.19,3.64
9.2,3.64
9.21,3.965
9.22,3.965
9.23,4.03
9.24,4.03
9.25,4.095
9.26,4.095
9.27,4.355
9.28,4.355
9.29,3.965
9.3,3.965
9.31,3.965
9.32,3.965
9.33,3.575
9.34,3.575
9.35,2.275
9.36,2.275
9.37,1.56
9.38,1.56
9.39,1.69
9.4,1.69
9.41,1.69
9.42,1.69
9.43,1.235
9.44,1.235
9.45,0.91
9.46,0.91
9.47,0.975
9.48,0.975
9.49,0.715
9.5,0.715
9.51,0.39
9.52,0.39
9.53,0.26
9.54,0.26
9.55,0.26
9.56,0.26
9.57,0.325
9.58,0.325
9.59,0.455
9.6,0.455
9.61,0.52
9.62,0.52
9.63,0.325
9.64,0.325
9.65,0.0649999999999
9.66,0.0650000000001
9.67,0.
9.68,0.
9.69,0.
9.7,0.
9.71,0.
9.72,0.
9.73,0.
9.74,0.
9.75,0.
9.76,0.
9.77,0.0649999999999
9.78,0.0650000000001
9.79,0.13
9.8,0.13
9.81,0.195
9.82,0.195
9.83,0.325
9.84,0.325
9.85,0.39
9.86,0.39
9.87,0.585
9.88,0.585
9.89,0.715
9.9,0.715
9.91,0.65
9.92,0.65
9.93,0.91
9.94,0.91
9.95,1.3
9.96,1.3
9.97,1.495
9.98,1.495
9.99,1.56
10.,1.56
