t,prevalence
5.,3
5.02,2
5.04,3
5.06,3
5.08,4
5.1,7
5.12,9
5.14,17
5.16,5
5.18,9
5.2,6
5.22,5
5.24,4
5.26,9
5.28,18
5.3,16
5.32,13
5.34,6
5.36,6
5.38,11
5.4,11
5.42,3
5.44,7
5.46,3
5.48,4
5.5,2
5.52,4
5.54,2
5.56,1
5.58,0
5.6,0
5.62,0
5.64,0
5.66,0
5.68,0
5.7,1
5.72,0
5.74,0
5.76,0
5.78,0
5.8,1
5.82,1
5.84,0
5.86,0
5.88,0
5.9,2
5.92,0
5.94,2
5.96,3
5.98,2
6.,4
6.02,5
6.04,2
6.06,3
6.08,4
6.1,7
6.12,8
6.14,7
6.16,6
6.18,6
6.2,10
6.22,9
6.24,5
6.26,11
6.28,11
6.3,17
6.32,11
6.34,7
6.36,3
6.38,6
6.4,7
6.42,3
6.44,2
6.46,3
6.48,2
6.5,1
6.52,0
6.54,3
6.56,3
6.58,0
6.6,0
6.62,0
6.64,0
6.66,0
6.68,0
6.7,0
6.72,0
6.74,0
6.76,1
6.78,1
6.8,0
6.82,0
6.84,1
6.86,2
6.88,2
6.9,0
6.92,1
6.94,3
6.96,4
6.98,0
7.,1
7.02,1
7.04,3
7.06,7
7.08,0
7.1,5
7.12,7
7.14,6
7.16,9
7.18,4
7.2,12
7.22,11
7.24,8
7.26,9
7.28,9
7.3,9
7.32,7
7.34,7
7.36,3
7.38,3
7.4,1
7.42,2
7.44,0
7.46,5
7.48,1
7.5,0
7.52,2
7.54,2
7.56,0
7.58,1
7.6,0
7.62,0
7.64,0
7.66,0
7.68,0
7.7,0
7.72,0
7.74,0
7.76,1
7.78,0
7.8,1
7.82,0
7.84,0
7.86,1
7.88,1
7.9,1
7.92,3
7.94,3
7.96,4
7.98,4
8.,5
8.02,3
8.04,0
8.06,4
8.08,9
8.1,5
8.12,8
8.14,4
8.16,12
8.18,11
8.2,14
8.22,11
8.24,12
8.26,11
8.28,5
8.3,7
8.32,3
8.34,5
8.36,3
8.38,3
8.4,4
8.42,3
8.44,8
8.46,0
8.48,3
8.5,1
8.52,1
8.54,1
8.56,0
8.58,1
8.6,2
8.62,0
8.64,2
8.66,0
8.68,3
8.7,0
8.72,1
8.74,1
8.76,0
8.78,0
8.8,0
8.82,2
8.84,4
8.86,0
8.88,0
8.9,0
8.92,0
8.94,2
8.96,2
8.98,2
9.,3
9.02,6
9.04,5
9.06,5
9.08,9
9.1,10
9.12,12
9.14,9
9.16,10
9.18,9
9.2,4
9.22,14
9.24,7
9.26,6
9.28,13
9.3,8
9.32,6
9.34,3
9.36,5
9.38,7
9.4,8
9.42,3
9.44,5
9.46,4
9.48,3
9.5,1
9.52,0
9.54,1
9.56,0
9.58,0
9.6,0
9.62,0
9.64,0
9.66,0
9.68,0
9.7,0
9.72,0
9.74,0
9.76,0
9.78,1
9.8,0
9.82,0
9.84,1
9.86,2
9.88,1
9.9,0
9.92,0
9.94,2
9.96,1
9.98,4
10.,2
