t,s,e,i,r,c,o,n,reff,coal,reportr
5.,6681.,21.,3.,3294.,0.,0.,9999.,1.16969353655,2.89638399527,273.
5.02,6679.,20.,7.,3295.,0.,0.,10001.,1.16647559949,3.03283655868,260.
5.04,6678.,25.,8.,3292.,0.,0.,10003.,1.15821023836,2.4090772958,325.
5.06,6684.,19.,8.,3296.,0.,0.,10007.,1.14582291245,3.13593639198,247.
5.08,6679.,24.,8.,3297.,0.,0.,10008.,1.12700327265,2.44184042408,312.
5.1,6677.,27.,10.,3298.,0.,0.,10012.,1.10377022705,2.12577969653,351.
5.12,6677.,25.,10.,3300.,0.,0.,10012.,1.07706894255,2.24030340051,325.
5.14,6676.,21.,16.,3301.,0.,0.,10014.,1.0461671919,2.59050923709,273.
5.16,6666.,26.,18.,3306.,0.,0.,10016.,1.01057168504,2.02114337008,338.
5.18,6649.,33.,16.,3318.,0.,0.,10016.,0.971455074385,1.53077769297,429.
5.2,6636.,36.,14.,3329.,0.,0.,10015.,0.930955522979,1.34471353319,468.
5.22,6624.,39.,12.,3343.,0.,0.,10018.,0.888766613521,1.18502215136,507.
5.24,6620.,35.,11.,3353.,0.,0.,10019.,0.846965780194,1.25834915915,455.
5.26,6613.,35.,5.,3364.,0.,0.,10017.,0.804771985776,1.19566123601,455.
5.28,6608.,24.,18.,3363.,0.,0.,10013.,0.763359282212,1.65394511146,312.
5.3,6606.,21.,10.,3375.,0.,0.,10012.,0.723062568843,1.79044064666,273.
5.32,6610.,12.,18.,3373.,0.,0.,10013.,0.684875060053,2.9677919269,156.
5.34,6600.,20.,7.,3386.,0.,0.,10013.,0.647557956543,1.68365068701,260.
5.36,6605.,13.,6.,3389.,0.,0.,10013.,0.614528109728,2.45811243891,169.
5.38,6608.,12.,1.,3393.,0.,0.,10014.,0.584531397915,2.53296939096,156.
5.4,6614.,11.,2.,3391.,0.,0.,10018.,0.558395035628,2.63968562297,143.
5.42,6615.,11.,3.,3388.,0.,0.,10017.,0.536309291439,2.5352802868,143.
5.44,6625.,10.,3.,3381.,0.,0.,10019.,0.519328462113,2.70050800299,130.
5.46,6633.,9.,2.,3376.,0.,0.,10020.,0.507054727587,2.92964953717,117.
5.48,6644.,6.,1.,3371.,0.,0.,10022.,0.499991561605,4.33326020058,78.
5.5,6650.,2.,1.,3366.,0.,0.,10019.,0.497975148895,12.9473538713,26.
5.52,6658.,4.,1.,3358.,0.,0.,10021.,0.501095125517,6.51423663172,52.
5.54,6669.,1.,1.,3351.,0.,0.,10022.,0.509704983159,26.5046591243,13.
5.56,6682.,0.,1.,3341.,0.,0.,10024.,0.523535375345,inf,0.
5.58,6692.,0.,1.,3332.,0.,0.,10025.,0.542119085858,inf,0.
5.6,6693.,0.,0.,3331.,0.,0.,10024.,0.564726480126,inf,0.
5.62,6697.,0.,0.,3324.,0.,0.,10021.,0.591990358581,inf,0.
5.64,6699.,0.,0.,3318.,0.,0.,10017.,0.623024967776,inf,0.
5.66,6704.,0.,0.,3311.,0.,0.,10015.,0.657630544754,inf,0.
5.68,6713.,0.,0.,3302.,0.,0.,10015.,0.695408190935,inf,0.
5.7,6712.,0.,0.,3298.,0.,0.,10010.,0.734811630578,inf,0.
5.72,6716.,0.,0.,3293.,0.,0.,10009.,0.776145548388,inf,0.
5.74,6725.,0.,2.,3284.,0.,0.,10011.,0.818892377325,inf,0.
5.76,6733.,1.,1.,3280.,0.,0.,10015.,0.861767104205,44.8118894187,13.
5.78,6740.,1.,0.,3276.,0.,0.,10017.,0.904421042755,47.0298942233,13.
5.8,6745.,2.,0.,3267.,0.,0.,10014.,0.946341478921,24.6048784519,26.
5.82,6752.,2.,0.,3257.,0.,0.,10011.,0.986996644751,25.6619127635,26.
5.84,6760.,4.,0.,3250.,0.,0.,10014.,1.02502684873,13.3253490335,52.
5.86,6768.,4.,2.,3238.,0.,0.,10012.,1.06079597804,13.7903477146,52.
5.88,6775.,5.,0.,3232.,0.,0.,10012.,1.09287735297,11.3659244709,65.
5.9,6785.,7.,0.,3225.,0.,0.,10017.,1.12106377189,8.32790230549,91.
5.92,6796.,9.,2.,3213.,0.,0.,10020.,1.14537230858,6.61770667181,117.
5.94,6796.,11.,4.,3211.,0.,0.,10022.,1.16327911954,5.499137656,143.
5.96,6796.,9.,5.,3211.,0.,0.,10021.,1.17655859786,6.79789412095,117.
5.98,6800.,13.,4.,3205.,0.,0.,10022.,1.18511953444,4.74047813777,169.
6.,6795.,15.,6.,3206.,0.,0.,10022.,1.18692219044,4.11466359354,195.
6.02,6796.,14.,9.,3205.,0.,0.,10024.,1.18418608798,4.39840546966,182.
6.04,6792.,20.,5.,3205.,0.,0.,10022.,1.17574876872,3.05694679868,260.
6.06,6793.,12.,15.,3203.,0.,0.,10023.,1.16264959636,5.03814825088,156.
6.08,6776.,28.,8.,3212.,0.,0.,10024.,1.14154587678,2.12001377117,364.
6.1,6775.,29.,4.,3216.,0.,0.,10024.,1.11862979205,2.00581893746,377.
6.12,6776.,29.,7.,3216.,0.,0.,10028.,1.09129468456,1.95680426197,377.
6.14,6774.,27.,14.,3216.,0.,0.,10031.,1.05972533515,2.04095249733,351.
6.16,6777.,29.,9.,3218.,0.,0.,10033.,1.02565855216,1.83911188663,377.
6.18,6773.,28.,15.,3215.,0.,0.,10031.,0.988092378083,1.83502870215,364.
6.2,6768.,31.,13.,3219.,0.,0.,10031.,0.94795916264,1.59012504701,403.
6.22,6759.,29.,16.,3227.,0.,0.,10031.,0.905704762875,1.62402233343,377.
6.24,6752.,30.,11.,3241.,0.,0.,10034.,0.862562529465,1.49510838441,390.
6.26,6744.,28.,14.,3247.,0.,0.,10033.,0.819405265804,1.52175263649,364.
6.28,6739.,29.,15.,3252.,0.,0.,10035.,0.776785754172,1.39285721438,377.
6.3,6734.,26.,17.,3258.,0.,0.,10035.,0.735383509004,1.47076701801,338.
6.32,6726.,25.,11.,3272.,0.,0.,10034.,0.695435528954,1.44650590022,325.
6.34,6722.,17.,16.,3282.,0.,0.,10037.,0.657950935153,2.01255580164,221.
6.36,6716.,23.,7.,3293.,0.,0.,10039.,0.623237218444,1.40905805909,299.
6.38,6722.,10.,7.,3298.,0.,0.,10037.,0.593253051612,3.08491586838,130.
6.4,6726.,13.,6.,3295.,0.,0.,10040.,0.566606478026,2.26642591211,169.
6.42,6722.,14.,10.,3294.,0.,0.,10040.,0.543735816801,2.01959017669,182.
6.44,6727.,8.,11.,3290.,0.,0.,10036.,0.526430925274,3.42180101428,104.
6.46,6721.,9.,11.,3294.,0.,0.,10035.,0.513013837031,2.96407994729,117.
6.48,6720.,9.,8.,3294.,0.,0.,10031.,0.505257177949,2.91926369482,117.
6.5,6726.,6.,6.,3293.,0.,0.,10031.,0.50306376175,4.35988593517,78.
6.52,6733.,6.,1.,3294.,0.,0.,10034.,0.506083254216,4.38605486988,78.
6.54,6742.,3.,6.,3289.,0.,0.,10040.,0.51436048349,8.91558171382,39.
6.56,6753.,3.,2.,3283.,0.,0.,10041.,0.528202438282,9.15550893022,39.
6.58,6754.,2.,2.,3283.,0.,0.,10041.,0.546269855256,14.2030162367,26.
6.6,6761.,0.,6.,3279.,0.,0.,10046.,0.569214752716,inf,0.
6.62,6769.,2.,0.,3278.,0.,0.,10049.,0.596687671501,15.513879459,26.
6.64,6771.,2.,1.,3275.,0.,0.,10049.,0.627715879058,16.3206128555,26.
6.66,6773.,0.,0.,3276.,0.,0.,10049.,0.662151174807,inf,0.
6.68,6783.,0.,0.,3268.,0.,0.,10051.,0.70014284067,inf,0.
6.7,6786.,0.,0.,3265.,0.,0.,10051.,0.739882463089,inf,0.
6.72,6790.,1.,0.,3258.,0.,0.,10049.,0.781573994841,40.6418477317,13.
6.74,6799.,1.,0.,3248.,0.,0.,10048.,0.824854629028,42.8924407094,13.
6.76,6805.,2.,0.,3241.,0.,0.,10048.,0.868121984005,22.5711715841,26.
6.78,6814.,3.,1.,3231.,0.,0.,10049.,0.911439232303,15.7982800266,39.
6.8,6818.,4.,0.,3227.,0.,0.,10049.,0.95325185641,12.3922741333,52.
6.82,6825.,1.,4.,3222.,0.,0.,10052.,0.9935983917,51.6671163684,13.
6.84,6831.,5.,2.,3217.,0.,0.,10055.,1.03156914271,10.7283190842,65.
6.86,6835.,5.,1.,3215.,0.,0.,10056.,1.06660989807,11.0927429399,65.
6.88,6833.,8.,4.,3212.,0.,0.,10057.,1.09730141294,7.13245918411,104.
6.9,6835.,6.,7.,3208.,0.,0.,10056.,1.12494527058,9.74952567836,78.
6.92,6840.,14.,0.,3202.,0.,0.,10056.,1.14866097761,4.26645505971,182.
6.94,6844.,12.,5.,3198.,0.,0.,10059.,1.16718622563,5.05780697773,156.
6.96,6840.,12.,8.,3200.,0.,0.,10060.,1.17958536261,5.11153657131,156.
6.98,6841.,13.,9.,3198.,0.,0.,10061.,1.1876434662,4.7505738648,169.
7.,6830.,21.,5.,3202.,0.,0.,10058.,1.18876568201,2.94361026022,273.
7.02,6829.,22.,5.,3201.,0.,0.,10057.,1.18603172206,2.80334770669,286.
7.04,6825.,20.,12.,3201.,0.,0.,10058.,1.17723259487,3.06080474666,260.
7.06,6818.,21.,9.,3205.,0.,0.,10053.,1.1634461191,2.88091419968,273.
7.08,6813.,24.,12.,3207.,0.,0.,10056.,1.14412678954,2.47894137735,312.
7.1,6795.,26.,14.,3213.,0.,0.,10048.,1.11925224628,2.23850449256,338.
7.12,6782.,34.,12.,3220.,0.,0.,10048.,1.09008691578,1.66719175354,442.
7.14,6777.,29.,19.,3223.,0.,0.,10048.,1.05840093444,1.8978223652,377.
7.16,6765.,37.,12.,3233.,0.,0.,10047.,1.02241574967,1.43690862116,481.
7.18,6753.,37.,15.,3243.,0.,0.,10048.,0.983507842625,1.38222723828,481.
7.2,6741.,40.,15.,3252.,0.,0.,10048.,0.942579976746,1.22535396977,520.
7.22,6739.,29.,21.,3262.,0.,0.,10051.,0.901227881118,1.61599482131,377.
7.24,6728.,25.,18.,3279.,0.,0.,10050.,0.858128196196,1.78490664809,325.
7.26,6724.,25.,18.,3282.,0.,0.,10049.,0.815674451798,1.69660285974,325.
7.28,6724.,26.,13.,3287.,0.,0.,10050.,0.773899944851,1.5477998897,338.
7.3,6720.,28.,12.,3290.,0.,0.,10050.,0.73275933972,1.36083877377,364.
7.32,6720.,15.,18.,3296.,0.,0.,10049.,0.69377801753,2.40509712744,195.
7.34,6709.,24.,14.,3300.,0.,0.,10047.,0.656024885565,1.42138725206,312.
7.36,6707.,15.,14.,3314.,0.,0.,10050.,0.621720792553,2.15529874752,195.
7.38,6713.,11.,12.,3317.,0.,0.,10053.,0.591515816232,2.79625658582,143.
7.4,6712.,12.,6.,3320.,0.,0.,10050.,0.564864486849,2.44774610968,156.
7.42,6719.,11.,4.,3315.,0.,0.,10049.,0.543006391102,2.56693930339,143.
7.44,6723.,5.,8.,3313.,0.,0.,10049.,0.525437281361,5.46454772616,65.
7.46,6732.,6.,5.,3306.,0.,0.,10049.,0.513137579871,4.44719235888,78.
7.48,6733.,3.,7.,3303.,0.,0.,10046.,0.505478735099,8.76163140839,39.
7.5,6741.,3.,4.,3296.,0.,0.,10044.,0.503533100165,8.72790706953,39.
7.52,6748.,0.,6.,3295.,0.,0.,10049.,0.506453616958,inf,0.
7.54,6757.,1.,1.,3296.,0.,0.,10055.,0.514735835446,26.7662634432,13.
7.56,6762.,1.,2.,3289.,0.,0.,10054.,0.528222509997,27.4675705198,13.
7.58,6766.,0.,1.,3289.,0.,0.,10056.,0.546424137093,inf,0.
7.6,6778.,0.,1.,3282.,0.,0.,10061.,0.569795218967,inf,0.
7.62,6784.,0.,0.,3278.,0.,0.,10062.,0.597237299574,inf,0.
7.64,6785.,1.,0.,3271.,0.,0.,10057.,0.628513411434,32.6826973946,13.
7.66,6799.,1.,0.,3257.,0.,0.,10057.,0.664164281331,34.5365426292,13.
7.68,6798.,2.,0.,3252.,0.,0.,10052.,0.701621338043,18.2421547891,26.
7.7,6804.,0.,2.,3244.,0.,0.,10050.,0.741918831466,inf,0.
7.72,6806.,0.,0.,3244.,0.,0.,10050.,0.783337749056,inf,0.
7.74,6815.,0.,0.,3235.,0.,0.,10050.,0.82663121244,inf,0.
7.76,6826.,0.,0.,3228.,0.,0.,10054.,0.87028130476,inf,0.
7.78,6830.,0.,0.,3222.,0.,0.,10052.,0.913306732992,inf,0.
7.8,6843.,1.,0.,3212.,0.,0.,10056.,0.956081212945,49.7162230732,13.
7.82,6838.,3.,0.,3204.,0.,0.,10045.,0.996184681989,17.2672011545,39.
7.84,6848.,3.,1.,3196.,0.,0.,10048.,1.03485679942,17.9375178566,39.
7.86,6856.,4.,1.,3188.,0.,0.,10049.,1.07063224216,13.9182191481,52.
7.88,6857.,6.,0.,3184.,0.,0.,10047.,1.10225154193,9.55284669676,78.
7.9,6862.,8.,1.,3179.,0.,0.,10050.,1.13006335457,7.3454118047,104.
7.92,6864.,10.,3.,3170.,0.,0.,10047.,1.15372393616,5.99936446806,130.
7.94,6865.,9.,4.,3170.,0.,0.,10048.,1.17204928998,6.7718403421,117.
7.96,6863.,9.,10.,3162.,0.,0.,10044.,1.1854371918,6.84919266375,117.
7.98,6852.,15.,9.,3170.,0.,0.,10046.,1.19132929933,4.129941571,195.
8.,6841.,26.,8.,3171.,0.,0.,10046.,1.19210251258,2.38420502515,338.
8.02,6830.,27.,12.,3171.,0.,0.,10040.,1.18821391293,2.28841198046,351.
8.04,6819.,27.,12.,3182.,0.,0.,10040.,1.17830638603,2.26933081754,351.
8.06,6811.,31.,9.,3189.,0.,0.,10040.,1.16375652337,1.95210771662,403.
8.08,6805.,26.,13.,3194.,0.,0.,10038.,1.14483254935,2.28966509871,338.
8.1,6800.,28.,18.,3196.,0.,0.,10042.,1.12074506616,2.0813836943,364.
8.12,6789.,34.,13.,3210.,0.,0.,10046.,1.09142928544,1.6692447895,442.
8.14,6778.,28.,17.,3222.,0.,0.,10045.,1.05887325436,1.96647890096,364.
8.16,6767.,32.,15.,3232.,0.,0.,10046.,1.02281981947,1.66208220664,416.
8.18,6758.,33.,15.,3240.,0.,0.,10046.,0.984431989166,1.55122616475,429.
8.2,6750.,39.,14.,3243.,0.,0.,10046.,0.944026331314,1.25870177509,507.
8.22,6753.,28.,19.,3246.,0.,0.,10046.,0.903549628052,1.67802073781,364.
8.24,6733.,34.,22.,3252.,0.,0.,10041.,0.859535658661,1.31458394854,442.
8.26,6717.,33.,17.,3271.,0.,0.,10038.,0.815718211111,1.28537415084,429.
8.28,6709.,30.,14.,3285.,0.,0.,10038.,0.773096617691,1.34003413733,390.
8.3,6699.,27.,21.,3293.,0.,0.,10040.,0.731197026013,1.40823130936,351.
8.32,6685.,30.,9.,3312.,0.,0.,10036.,0.691058585938,1.19783488229,390.
8.34,6687.,27.,11.,3307.,0.,0.,10032.,0.654851345615,1.26119518415,351.
8.36,6694.,16.,12.,3313.,0.,0.,10035.,0.621443254896,2.01969057841,208.
8.38,6693.,16.,7.,3320.,0.,0.,10036.,0.590752501399,1.91994562955,208.
8.4,6700.,12.,6.,3321.,0.,0.,10039.,0.564472428535,2.44604719032,156.
8.42,6702.,13.,3.,3322.,0.,0.,10040.,0.542118036923,2.16847214769,169.
8.44,6707.,8.,4.,3321.,0.,0.,10040.,0.524656687031,3.4102684657,104.
8.46,6708.,8.,4.,3317.,0.,0.,10037.,0.5119195204,3.3274768826,104.
8.48,6713.,6.,3.,3318.,0.,0.,10040.,0.504278420399,4.37041297679,78.
8.5,6722.,2.,8.,3311.,0.,0.,10043.,0.50216385181,13.0562601471,26.
8.52,6726.,2.,1.,3312.,0.,0.,10041.,0.505204657067,13.1353210837,26.
8.54,6730.,0.,2.,3312.,0.,0.,10044.,0.513240501524,inf,0.
8.56,6738.,0.,0.,3310.,0.,0.,10048.,0.526662018471,inf,0.
8.58,6745.,0.,0.,3305.,0.,0.,10050.,0.545053381805,inf,0.
8.6,6752.,0.,0.,3301.,0.,0.,10053.,0.568061212445,inf,0.
8.62,6754.,0.,0.,3298.,0.,0.,10052.,0.595187735127,inf,0.
8.64,6760.,0.,0.,3289.,0.,0.,10049.,0.626696107286,inf,0.
8.66,6767.,0.,0.,3283.,0.,0.,10050.,0.661498767379,inf,0.
8.68,6778.,0.,0.,3274.,0.,0.,10052.,0.699557138755,inf,0.
8.7,6785.,0.,0.,3266.,0.,0.,10051.,0.739773432369,inf,0.
8.72,6793.,0.,0.,3258.,0.,0.,10051.,0.781763724368,inf,0.
8.74,6800.,1.,0.,3250.,0.,0.,10051.,0.824729712044,42.8859450263,13.
8.76,6817.,1.,0.,3235.,0.,0.,10053.,0.869220304359,45.1994558267,13.
8.78,6825.,1.,0.,3227.,0.,0.,10053.,0.912547350962,47.45246225,13.
8.8,6826.,4.,1.,3221.,0.,0.,10052.,0.954085538421,12.4031119995,52.
8.82,6830.,3.,4.,3215.,0.,0.,10052.,0.99432630261,17.2349892452,39.
8.84,6836.,5.,3.,3211.,0.,0.,10055.,1.03232420723,10.7361717552,65.
8.86,6839.,4.,5.,3209.,0.,0.,10057.,1.0671279843,13.8726637959,52.
8.88,6837.,7.,4.,3209.,0.,0.,10057.,1.09794376705,8.15615369811,91.
8.9,6836.,9.,5.,3202.,0.,0.,10052.,1.12555757239,6.50322152939,117.
8.92,6835.,10.,4.,3205.,0.,0.,10054.,1.14804964443,5.96985815104,130.
8.94,6836.,11.,4.,3205.,0.,0.,10056.,1.16616969229,5.51280218174,143.
8.96,6842.,7.,9.,3197.,0.,0.,10055.,1.18051700869,8.76955492167,91.
8.98,6832.,20.,7.,3198.,0.,0.,10057.,1.18655274932,3.08503714824,260.
9.,6827.,23.,10.,3200.,0.,0.,10060.,1.18800729886,2.68592954524,299.
9.02,6820.,25.,9.,3208.,0.,0.,10062.,1.18388005519,2.46247051479,325.
9.04,6810.,21.,23.,3206.,0.,0.,10060.,1.1744117426,2.90806717215,273.
9.06,6791.,35.,8.,3227.,0.,0.,10061.,1.15791729945,1.72033427347,455.
9.08,6789.,36.,13.,3225.,0.,0.,10063.,1.13930332902,1.64566036414,468.
9.1,6774.,39.,15.,3236.,0.,0.,10064.,1.11401927253,1.48535903004,507.
9.12,6754.,38.,28.,3245.,0.,0.,10065.,1.08375283085,1.48303018959,494.
9.14,6734.,44.,14.,3271.,0.,0.,10063.,1.05011773878,1.24104823675,572.
9.16,6725.,40.,16.,3282.,0.,0.,10063.,1.01475441192,1.3191807355,520.
9.18,6718.,29.,31.,3285.,0.,0.,10063.,0.97695201028,1.75177601843,377.
9.2,6697.,38.,27.,3300.,0.,0.,10062.,0.935124628014,1.27964422781,494.
9.22,6683.,43.,19.,3317.,0.,0.,10062.,0.89276176823,1.07961888251,559.
9.24,6675.,41.,19.,3332.,0.,0.,10067.,0.849930574862,1.07796072909,533.
9.26,6664.,33.,28.,3343.,0.,0.,10068.,0.806870398196,1.27143214261,429.
9.28,6659.,38.,16.,3358.,0.,0.,10071.,0.764820625939,1.04659664602,494.
9.3,6653.,35.,16.,3369.,0.,0.,10073.,0.723797103553,1.07535569671,455.
9.32,6652.,29.,16.,3378.,0.,0.,10075.,0.68498536694,1.22824962348,377.
9.34,6653.,26.,12.,3386.,0.,0.,10077.,0.648612313804,1.29722462761,338.
9.36,6648.,29.,7.,3391.,0.,0.,10075.,0.614722491414,1.10226101909,377.
9.38,6653.,13.,14.,3396.,0.,0.,10076.,0.584890761309,2.33956304523,169.
9.4,6652.,14.,8.,3401.,0.,0.,10075.,0.558425923475,2.07415343005,182.
9.42,6663.,7.,9.,3399.,0.,0.,10078.,0.536931156605,3.98863144907,91.
9.44,6668.,11.,6.,3398.,0.,0.,10083.,0.519381460148,2.45525781161,143.
9.46,6671.,11.,0.,3401.,0.,0.,10083.,0.506773309932,2.39565564695,143.
9.48,6677.,9.,0.,3396.,0.,0.,10082.,0.499484634319,2.88591122051,117.
9.5,6679.,4.,2.,3396.,0.,0.,10081.,0.497070775427,6.46192008055,52.
9.52,6684.,3.,1.,3390.,0.,0.,10078.,0.500206736893,8.67025010615,39.
9.54,6683.,1.,2.,3386.,0.,0.,10072.,0.508239370629,26.4284472727,13.
9.56,6689.,1.,2.,3381.,0.,0.,10073.,0.521534425926,27.1197901481,13.
9.58,6706.,0.,2.,3367.,0.,0.,10075.,0.540557180417,inf,0.
9.6,6717.,1.,2.,3355.,0.,0.,10075.,0.563882580875,29.3218942055,13.
9.62,6726.,0.,0.,3352.,0.,0.,10078.,0.591191125058,inf,0.
9.64,6737.,0.,0.,3340.,0.,0.,10077.,0.62282844112,inf,0.
9.66,6747.,0.,0.,3329.,0.,0.,10076.,0.657841815594,inf,0.
9.68,6756.,1.,0.,3320.,0.,0.,10077.,0.695556623439,36.1689444188,13.
9.7,6762.,1.,1.,3315.,0.,0.,10079.,0.735217562279,38.2313132385,13.
9.72,6771.,1.,1.,3304.,0.,0.,10077.,0.777221360606,40.4155107515,13.
9.74,6782.,3.,0.,3294.,0.,0.,10079.,0.820261525611,14.2178664439,39.
9.76,6788.,1.,2.,3290.,0.,0.,10081.,0.863118588829,44.8821666191,13.
9.78,6793.,2.,0.,3287.,0.,0.,10082.,0.905656184286,23.5470607914,26.
9.8,6798.,0.,1.,3284.,0.,0.,10083.,0.947250628505,inf,0.
9.82,6804.,0.,0.,3280.,0.,0.,10084.,0.987397838102,inf,0.
9.84,6807.,2.,0.,3273.,0.,0.,10082.,1.02519195558,26.654990845,26.
9.86,6811.,5.,0.,3266.,0.,0.,10082.,1.06012369729,11.0252864518,65.
9.88,6813.,6.,2.,3259.,0.,0.,10080.,1.09159320768,9.46047446654,78.
9.9,6817.,6.,2.,3255.,0.,0.,10080.,1.11931133525,9.70069823882,78.
9.92,6814.,8.,0.,3254.,0.,0.,10076.,1.14202339508,7.42315206801,104.
9.94,6817.,11.,0.,3247.,0.,0.,10075.,1.1607353209,5.48711242608,143.
9.96,6818.,9.,6.,3240.,0.,0.,10073.,1.17427392321,6.78469377854,117.
9.98,6819.,10.,3.,3242.,0.,0.,10074.,1.18229645208,6.1479415508,130.
10.,6820.,12.,5.,3241.,0.,0.,10078.,1.18466949981,5.13356783252,156.
