t,neff
5.,0.194710537962
5.02,0.244097184293
5.04,0.295123966149
5.06,0.39855519799
5.08,0.456175587405
5.1,0.500654140885
5.12,0.478151979609
5.14,0.41997357726
5.16,0.681198945566
5.18,0.727491580904
5.2,0.738561501675
5.22,0.881145885028
5.24,0.766825315294
5.26,0.831952883495
5.28,0.752369552973
5.3,0.715476316254
5.32,0.56023686093
5.34,0.74030227075
5.36,0.593759131796
5.38,0.559200673013
5.4,0.344630801272
5.42,0.287193904653
5.44,0.148468826103
5.46,0.190286871459
5.48,0.115955060738
5.5,0.116527236502
5.52,0.
5.54,0.
5.56,0.0370762744498
5.58,0.
5.6,0.
5.62,0.
5.64,0.
5.66,0.0296173503512
5.68,0.0280345150743
5.7,0.0265367661961
5.72,0.
5.74,0.
5.76,0.
5.78,0.
5.8,0.0206826899608
5.82,0.0198523198322
5.84,0.057411816495
5.86,0.0740791389274
5.88,0.0899655627149
5.9,0.105359698021
5.92,0.154928604014
5.94,0.11864756378
5.96,0.150923246089
5.98,0.183382243904
6.,0.249731379293
6.02,0.33402905503
6.04,0.370166250659
6.06,0.391773108714
6.08,0.520154847503
6.1,0.407211151551
6.12,0.418244705023
6.14,0.506425107798
6.16,0.699477942834
6.18,0.72757770603
6.2,0.716853708584
6.22,1.0385442584
6.24,0.90480917019
6.26,0.781395777111
6.28,0.721261179646
6.3,0.89897610943
6.32,0.547224071155
6.34,0.578172782209
6.36,0.674730801922
6.38,0.43921351317
6.4,0.495439713251
6.42,0.257991060271
6.44,0.343032324816
6.46,0.312561029344
6.48,0.238136162193
6.5,0.279341809871
6.52,0.158687668892
6.54,0.0781204900052
6.56,0.0380987100108
6.58,0.
6.6,0.
6.62,0.
6.64,0.
6.66,0.
6.68,0.0287921790842
6.7,0.0272547020307
6.72,0.0516266882905
6.74,0.048981352047
6.76,0.046581791281
6.78,0.
6.8,0.0424964125944
6.82,0.0203923568613
6.84,0.0196511809103
6.86,0.0950993125771
6.88,0.129421138242
6.9,0.12633310006
6.92,0.123818532585
6.94,0.156722897977
6.96,0.189597309881
6.98,0.308590428215
7.,0.291057436836
7.02,0.240232354636
7.04,0.259284908067
7.06,0.332407404063
7.08,0.42709062745
7.1,0.509316165529
7.12,0.391947285004
7.14,0.577561375818
7.16,0.858247230037
7.18,0.891971105215
7.2,1.0178750952
7.22,0.975174952301
7.24,0.833530531258
7.26,0.651419593389
7.28,0.793687522164
7.3,0.81080370006
7.32,0.591335739312
7.34,0.625075922401
7.36,0.461680177924
7.38,0.555174472081
7.4,0.363409701649
7.42,0.416434375385
7.44,0.548119009434
7.46,0.321142473766
7.48,0.326235209633
7.5,0.245934081121
7.52,0.163044548333
7.54,0.0401062203844
7.56,0.
7.58,0.
7.6,0.
7.62,0.
7.64,0.
7.66,0.
7.68,0.
7.7,0.0279421517294
7.72,0.0264519385007
7.74,0.0250993111377
7.76,0.
7.78,0.
7.8,0.
7.82,0.
7.84,0.0805003400347
7.86,0.0973429426749
7.88,0.113514677764
7.9,0.12925788858
7.92,0.108643651947
7.94,0.196252978069
7.96,0.211796746269
7.98,0.263209566338
8.,0.245148969511
8.02,0.333695975746
8.04,0.282969974682
8.06,0.286295094812
8.08,0.327605744871
8.1,0.409017377437
8.12,0.477241990547
8.14,0.610509327292
8.16,0.693213059095
8.18,0.678335999102
8.2,0.752657353784
8.22,0.903921758443
8.24,0.803429970308
8.26,1.02548453384
8.28,0.892657541762
8.3,0.800525457686
8.32,0.665033365934
8.34,0.734765932604
8.36,0.775518146771
8.38,0.532115744044
8.4,0.371720527322
8.42,0.620052248363
8.44,0.400681382324
8.46,0.493245940549
8.48,0.333816101882
8.5,0.167725583556
8.52,0.125128652935
8.54,0.0821177529876
8.56,0.120090124785
8.58,0.0773824314848
8.6,0.074279865409
8.62,0.
8.64,0.
8.66,0.
8.68,0.
8.7,0.
8.72,0.
8.74,0.
8.76,0.
8.78,0.
8.8,0.
8.82,0.0427667958305
8.84,0.0412124064954
8.86,0.119643276193
8.88,0.116249117909
8.9,0.094493082216
8.92,0.111186411034
8.94,0.146018277346
8.96,0.234810661683
8.98,0.215254260703
9.,0.232791410654
9.02,0.215442044522
9.04,0.2532055556
9.06,0.402913428036
9.08,0.577781897244
9.1,0.533133384174
9.12,0.605607747973
9.14,0.56383368176
9.16,0.750486835987
9.18,0.86687859037
9.2,0.881235294106
9.22,0.73321251932
9.24,0.669838336606
9.26,0.941076079462
9.28,0.74390867654
9.3,0.611158451092
9.32,0.738957123817
9.34,0.650445704699
9.36,0.549051484312
9.38,0.505569040931
9.4,0.491638785637
9.42,0.472664977549
9.44,0.285035304544
9.46,0.37580015441
9.48,0.211950207023
9.5,0.170423770742
9.52,0.127088040255
9.54,0.125074250067
9.56,0.121926352158
9.58,0.157205116503
9.6,0.0754505909362
9.62,0.0359956513348
9.64,0.
9.66,0.0324397164125
9.68,0.0306995535447
9.7,0.0290571240625
9.72,0.0275167307564
9.74,0.0260996023271
9.76,0.0496404666839
9.78,0.0473200955282
9.8,0.0678849011403
9.82,0.
9.84,0.125596168278
9.86,0.222963715892
9.88,0.256196205734
9.9,0.211665017292
9.92,0.226400222986
9.94,0.334480728285
9.96,0.312802914704
9.98,0.311100928749
10.,0.475312928592
