t,s,e,i,r,c,o,n,reff,coal,reportr
5.,5867.,17.,1.,4115.,0.,0.,10000.,1.08523823933,3.31955226148,221.
5.02,5867.,19.,6.,4105.,0.,0.,9997.,1.08311819546,2.9643234823,247.
5.04,5868.,19.,11.,4100.,0.,0.,9998.,1.07589537278,2.94455575707,247.
5.06,5856.,26.,13.,4102.,0.,0.,9997.,1.06178882457,2.12357764914,338.
5.08,5852.,26.,10.,4109.,0.,0.,9997.,1.0445217048,2.08904340961,338.
5.1,5850.,22.,8.,4117.,0.,0.,9997.,1.02335455536,2.41883803994,286.
5.12,5850.,19.,15.,4112.,0.,0.,9996.,0.998698504662,2.73328011802,247.
5.14,5830.,34.,20.,4113.,0.,0.,9997.,0.966970068485,1.47889539886,442.
5.16,5812.,42.,18.,4125.,0.,0.,9997.,0.932768473269,1.154856205,546.
5.18,5814.,33.,17.,4134.,0.,0.,9998.,0.899175390596,1.41688243367,429.
5.2,5805.,37.,16.,4142.,0.,0.,10000.,0.861782253045,1.21115343671,481.
5.22,5802.,35.,14.,4150.,0.,0.,10001.,0.823956996648,1.22416468073,455.
5.24,5798.,35.,15.,4155.,0.,0.,10003.,0.785058475314,1.1663725919,455.
5.26,5803.,20.,18.,4165.,0.,0.,10006.,0.747009089657,1.94222363311,260.
5.28,5804.,19.,12.,4170.,0.,0.,10005.,0.709014793304,1.94046153957,247.
5.3,5797.,27.,7.,4174.,0.,0.,10005.,0.670912945633,1.29212863603,351.
5.32,5804.,21.,13.,4171.,0.,0.,10009.,0.635671346868,1.5740433351,273.
5.34,5810.,16.,9.,4173.,0.,0.,10008.,0.602628370365,1.95854220369,208.
5.36,5812.,13.,8.,4175.,0.,0.,10008.,0.571654029982,2.28661611993,169.
5.38,5815.,12.,8.,4171.,0.,0.,10006.,0.543946805466,2.35710282369,156.
5.4,5819.,9.,6.,4170.,0.,0.,10004.,0.51982225949,3.00341749928,117.
5.42,5824.,9.,6.,4166.,0.,0.,10005.,0.499515803496,2.88609130909,117.
5.44,5829.,9.,0.,4165.,0.,0.,10003.,0.483577648074,2.79400418887,117.
5.46,5834.,7.,3.,4158.,0.,0.,10002.,0.472078202756,3.50686664904,91.
5.48,5841.,7.,2.,4153.,0.,0.,10003.,0.465335515314,3.45677811376,91.
5.5,5850.,4.,2.,4146.,0.,0.,10002.,0.463661707752,6.02760220078,52.
5.52,5858.,5.,1.,4135.,0.,0.,9999.,0.46687655058,4.85551612603,65.
5.54,5872.,3.,2.,4127.,0.,0.,10004.,0.475058111007,8.23434059079,39.
5.56,5877.,3.,3.,4121.,0.,0.,10004.,0.487511022951,8.45019106448,39.
5.58,5884.,1.,2.,4116.,0.,0.,10003.,0.504762816221,26.2476664435,13.
5.6,5885.,2.,1.,4114.,0.,0.,10002.,0.525823286743,13.6714054553,26.
5.62,5893.,2.,1.,4107.,0.,0.,10003.,0.551408405806,14.336618551,26.
5.64,5900.,2.,0.,4102.,0.,0.,10004.,0.580541524601,15.0940796396,26.
5.66,5906.,3.,0.,4096.,0.,0.,10005.,0.612769424909,10.6213366984,39.
5.68,5919.,3.,0.,4087.,0.,0.,10009.,0.648266488992,11.2366191425,39.
5.7,5928.,0.,3.,4079.,0.,0.,10010.,0.685731471854,inf,0.
5.72,5936.,0.,3.,4073.,0.,0.,10012.,0.724632881782,inf,0.
5.74,5935.,1.,2.,4067.,0.,0.,10005.,0.764077559098,39.7320330731,13.
5.76,5940.,0.,1.,4061.,0.,0.,10002.,0.804365914945,inf,0.
5.78,5950.,0.,0.,4045.,0.,0.,9995.,0.845482097213,inf,0.
5.8,5957.,2.,0.,4036.,0.,0.,9995.,0.884789833572,23.0045356729,26.
5.82,5962.,1.,1.,4031.,0.,0.,9995.,0.922341373989,47.9617514474,13.
5.84,5968.,4.,1.,4020.,0.,0.,9993.,0.958188319538,12.456448154,52.
5.86,5982.,7.,2.,4005.,0.,0.,9996.,0.992280209715,7.37122441503,91.
5.88,5997.,7.,2.,3986.,0.,0.,9992.,1.02420385103,7.60837146477,91.
5.9,5995.,10.,2.,3982.,0.,0.,9989.,1.04955965343,5.45771019785,130.
5.92,5995.,13.,3.,3978.,0.,0.,9989.,1.07090271069,4.28361084275,169.
5.94,5999.,13.,5.,3967.,0.,0.,9984.,1.0891333677,4.3565334708,169.
5.96,6003.,15.,2.,3962.,0.,0.,9982.,1.10241177862,3.82169416589,195.
5.98,6001.,14.,5.,3960.,0.,0.,9980.,1.10974332391,4.12190377454,182.
6.,6006.,14.,6.,3954.,0.,0.,9980.,1.11317587713,4.13465325793,182.
6.02,6000.,19.,7.,3953.,0.,0.,9979.,1.10966958685,3.03699044823,247.
6.04,5999.,23.,6.,3953.,0.,0.,9981.,1.10178758216,2.49099801184,299.
6.06,6000.,26.,7.,3952.,0.,0.,9985.,1.08920582505,2.17841165011,338.
6.08,5997.,26.,9.,3956.,0.,0.,9988.,1.07136723068,2.14273446136,338.
6.1,5992.,28.,15.,3950.,0.,0.,9985.,1.04945468006,1.94898726298,364.
6.12,5976.,33.,23.,3953.,0.,0.,9985.,1.02133284969,1.60937297528,429.
6.14,5953.,39.,22.,3969.,0.,0.,9983.,0.988755654054,1.31834087207,507.
6.16,5945.,36.,17.,3986.,0.,0.,9984.,0.955355992336,1.3799586556,468.
6.18,5942.,35.,12.,3997.,0.,0.,9986.,0.920075789437,1.36696974431,455.
6.2,5938.,35.,11.,3995.,0.,0.,9979.,0.883381892428,1.31245309732,455.
6.22,5938.,27.,18.,3994.,0.,0.,9977.,0.845299222987,1.62798368872,351.
6.24,5927.,28.,18.,4003.,0.,0.,9976.,0.804697312816,1.49443786666,364.
6.26,5923.,35.,19.,4002.,0.,0.,9979.,0.764519424782,1.1358574311,455.
6.28,5919.,35.,10.,4015.,0.,0.,9979.,0.724947077154,1.07706422891,455.
6.3,5920.,20.,16.,4022.,0.,0.,9978.,0.687002269313,1.78620590021,260.
6.32,5918.,21.,16.,4026.,0.,0.,9981.,0.649975260281,1.60946254927,273.
6.34,5913.,24.,10.,4033.,0.,0.,9980.,0.615032513773,1.33257044651,312.
6.36,5915.,16.,16.,4035.,0.,0.,9982.,0.583300225026,1.89572573133,208.
6.38,5909.,21.,8.,4043.,0.,0.,9981.,0.554124234585,1.37211715231,273.
6.4,5913.,17.,6.,4045.,0.,0.,9981.,0.529436674479,1.61945335723,221.
6.42,5927.,16.,7.,4032.,0.,0.,9982.,0.50952127332,1.65594413829,208.
6.44,5938.,13.,7.,4023.,0.,0.,9981.,0.493706187147,1.97482474859,169.
6.46,5944.,12.,8.,4015.,0.,0.,9979.,0.482087811856,2.08904718471,156.
6.48,5943.,10.,1.,4019.,0.,0.,9973.,0.474885789337,2.46940610455,130.
6.5,5952.,5.,5.,4014.,0.,0.,9976.,0.472975556282,4.91894578533,65.
6.52,5960.,2.,1.,4015.,0.,0.,9978.,0.476005556887,12.3761444791,26.
6.54,5972.,0.,2.,4006.,0.,0.,9980.,0.484310217463,inf,0.
6.56,5981.,0.,0.,3999.,0.,0.,9980.,0.497331186047,inf,0.
6.58,5993.,1.,0.,3986.,0.,0.,9980.,0.51529828363,26.7955107488,13.
6.6,6001.,1.,0.,3977.,0.,0.,9979.,0.537423685211,27.946031631,13.
6.62,6010.,1.,0.,3967.,0.,0.,9978.,0.563765093702,29.3157848725,13.
6.64,6024.,1.,0.,3959.,0.,0.,9984.,0.593930121593,30.8843663228,13.
6.66,6029.,1.,1.,3953.,0.,0.,9984.,0.626846852052,32.5960363067,13.
6.68,6041.,0.,1.,3946.,0.,0.,9988.,0.663019380661,inf,0.
6.7,6051.,0.,0.,3936.,0.,0.,9987.,0.701571708762,inf,0.
6.72,6060.,0.,0.,3928.,0.,0.,9988.,0.741547672894,inf,0.
6.74,6063.,1.,0.,3926.,0.,0.,9990.,0.781728407756,40.6498772033,13.
6.76,6072.,0.,1.,3917.,0.,0.,9990.,0.823228389587,inf,0.
6.78,6083.,1.,1.,3908.,0.,0.,9993.,0.864554106118,44.9568135181,13.
6.8,6090.,0.,1.,3904.,0.,0.,9995.,0.904544248187,inf,0.
6.82,6099.,3.,0.,3891.,0.,0.,9993.,0.943724572303,16.3578925866,39.
6.84,6108.,4.,1.,3885.,0.,0.,9998.,0.98017549652,12.7422814548,52.
6.86,6112.,7.,0.,3878.,0.,0.,9997.,1.01374289169,7.53066148116,91.
6.88,6122.,5.,2.,3868.,0.,0.,9997.,1.04502917245,10.8683033935,65.
6.9,6133.,6.,2.,3859.,0.,0.,10000.,1.07253856717,9.29533424884,78.
6.92,6132.,6.,4.,3854.,0.,0.,9996.,1.09460831355,9.48660538406,78.
6.94,6129.,10.,2.,3850.,0.,0.,9991.,1.11195557468,5.78216898835,130.
6.96,6129.,11.,6.,3844.,0.,0.,9990.,1.12464951441,5.3165249772,143.
6.98,6133.,12.,6.,3840.,0.,0.,9991.,1.13290491587,4.90925463542,156.
7.,6136.,10.,10.,3834.,0.,0.,9990.,1.13613218409,5.90788735726,130.
7.02,6140.,19.,7.,3826.,0.,0.,9992.,1.13408446484,3.1038101143,247.
7.04,6144.,22.,5.,3820.,0.,0.,9991.,1.12728911885,2.66450155364,286.
7.06,6138.,18.,16.,3817.,0.,0.,9989.,1.11381136519,3.21767727722,234.
7.08,6134.,24.,8.,3824.,0.,0.,9990.,1.09562296549,2.37384975855,312.
7.1,6131.,22.,14.,3824.,0.,0.,9991.,1.07315464651,2.5365473463,286.
7.12,6129.,19.,15.,3823.,0.,0.,9986.,1.04737653669,2.86650420569,247.
7.14,6124.,22.,16.,3825.,0.,0.,9987.,1.01675027999,2.40322793453,286.
7.16,6115.,30.,12.,3833.,0.,0.,9990.,0.982084639745,1.70228004223,390.
7.18,6107.,30.,9.,3845.,0.,0.,9991.,0.945151609539,1.63826278987,390.
7.2,6099.,29.,17.,3843.,0.,0.,9988.,0.90651589165,1.62547677123,377.
7.22,6091.,37.,16.,3842.,0.,0.,9986.,0.866297949634,1.21749982111,481.
7.24,6076.,39.,20.,3849.,0.,0.,9984.,0.824265755287,1.09902100705,507.
7.26,6065.,36.,20.,3861.,0.,0.,9982.,0.782612993384,1.13044099044,468.
7.28,6054.,40.,16.,3872.,0.,0.,9982.,0.741258756879,0.963636383942,520.
7.3,6047.,36.,17.,3881.,0.,0.,9981.,0.701529401902,1.01332024719,468.
7.32,6045.,25.,18.,3892.,0.,0.,9980.,0.663990224035,1.38109966599,325.
7.34,6043.,21.,16.,3904.,0.,0.,9984.,0.628302459272,1.55579656582,273.
7.36,6045.,21.,14.,3907.,0.,0.,9987.,0.595821562203,1.47536767784,273.
7.38,6047.,18.,14.,3907.,0.,0.,9986.,0.566781435619,1.63736859179,234.
7.4,6048.,13.,13.,3913.,0.,0.,9987.,0.541198932286,2.16479572914,169.
7.42,6051.,13.,11.,3909.,0.,0.,9984.,0.520076870936,2.08030748374,169.
7.44,6056.,13.,3.,3910.,0.,0.,9982.,0.50346667931,2.01386671724,169.
7.46,6060.,8.,5.,3906.,0.,0.,9979.,0.491495985842,3.19472390798,104.
7.48,6066.,3.,6.,3905.,0.,0.,9980.,0.484374339067,8.39582187717,39.
7.5,6070.,5.,3.,3901.,0.,0.,9979.,0.482207413581,5.01495710124,65.
7.52,6078.,2.,6.,3893.,0.,0.,9979.,0.485381182842,12.6199107539,26.
7.54,6086.,1.,3.,3888.,0.,0.,9978.,0.493654183798,25.6700175575,13.
7.56,6101.,0.,3.,3877.,0.,0.,9981.,0.507258579956,inf,0.
7.58,6110.,0.,0.,3873.,0.,0.,9983.,0.525200461,inf,0.
7.6,6119.,0.,0.,3861.,0.,0.,9980.,0.547936347482,inf,0.
7.62,6134.,0.,0.,3848.,0.,0.,9982.,0.575166278933,inf,0.
7.64,6139.,0.,0.,3844.,0.,0.,9983.,0.605329058941,inf,0.
7.66,6145.,2.,0.,3836.,0.,0.,9983.,0.638971597147,16.6132615258,26.
7.68,6157.,1.,0.,3830.,0.,0.,9988.,0.675750757611,35.1390393958,13.
7.7,6160.,1.,0.,3824.,0.,0.,9985.,0.714352563341,37.1463332937,13.
7.72,6170.,1.,0.,3813.,0.,0.,9984.,0.755310596424,39.276151014,13.
7.74,6175.,1.,0.,3804.,0.,0.,9980.,0.796966809253,41.4422740812,13.
7.76,6180.,0.,1.,3796.,0.,0.,9977.,0.838962534812,inf,0.
7.78,6185.,2.,1.,3788.,0.,0.,9976.,0.880548967586,22.8942731572,26.
7.8,6195.,1.,2.,3782.,0.,0.,9980.,0.921522814383,47.9191863479,13.
7.82,6200.,4.,1.,3771.,0.,0.,9976.,0.960987561101,12.4928382943,52.
7.84,6205.,3.,0.,3771.,0.,0.,9979.,0.997637369536,17.292381072,39.
7.86,6212.,3.,1.,3762.,0.,0.,9978.,1.03229094059,17.8930429701,39.
7.88,6214.,3.,2.,3758.,0.,0.,9977.,1.06285998702,18.4229064418,39.
7.9,6215.,9.,0.,3751.,0.,0.,9975.,1.08960272767,6.29548242654,117.
7.92,6217.,9.,1.,3748.,0.,0.,9975.,1.11211783754,6.42556972802,117.
7.94,6220.,8.,0.,3748.,0.,0.,9976.,1.13016204582,7.34605329785,104.
7.96,6226.,9.,1.,3740.,0.,0.,9976.,1.14405194245,6.61007788972,117.
7.98,6232.,11.,3.,3731.,0.,0.,9977.,1.15280785765,5.44963714524,143.
8.,6231.,11.,5.,3729.,0.,0.,9976.,1.15534133279,5.4616135732,143.
8.02,6229.,10.,7.,3731.,0.,0.,9977.,1.15225291163,5.99171514048,130.
8.04,6222.,16.,12.,3725.,0.,0.,9975.,1.14343154499,3.7161525212,208.
8.06,6219.,24.,4.,3729.,0.,0.,9976.,1.12998034775,2.44829075345,312.
8.08,6209.,23.,13.,3732.,0.,0.,9977.,1.11046412123,2.51061453495,299.
8.1,6199.,29.,11.,3739.,0.,0.,9978.,1.08647087802,1.94815467782,377.
8.12,6191.,33.,16.,3739.,0.,0.,9979.,1.05871377164,1.66827624621,429.
8.14,6179.,35.,16.,3748.,0.,0.,9978.,1.02680710268,1.52554198113,455.
8.16,6171.,38.,17.,3755.,0.,0.,9981.,0.991972051486,1.35743543888,494.
8.18,6161.,42.,17.,3763.,0.,0.,9983.,0.954273041182,1.18148090813,546.
8.2,6153.,47.,12.,3769.,0.,0.,9981.,0.915183500328,1.01254344717,611.
8.22,6154.,31.,22.,3773.,0.,0.,9980.,0.875784388582,1.46905768407,403.
8.24,6142.,33.,29.,3776.,0.,0.,9980.,0.83355322306,1.31347780603,429.
8.26,6129.,33.,14.,3800.,0.,0.,9976.,0.791347063684,1.24697113065,429.
8.28,6128.,27.,17.,3805.,0.,0.,9977.,0.750695426962,1.44578378526,351.
8.3,6115.,27.,16.,3819.,0.,0.,9977.,0.709702693784,1.36683481766,351.
8.32,6105.,23.,16.,3833.,0.,0.,9977.,0.6707823357,1.51655136767,299.
8.34,6106.,22.,12.,3838.,0.,0.,9978.,0.63523444323,1.50146322945,286.
8.36,6106.,20.,12.,3841.,0.,0.,9979.,0.602316468623,1.56602281842,260.
8.38,6112.,7.,15.,3846.,0.,0.,9980.,0.573218257105,4.25819276707,91.
8.4,6109.,17.,4.,3847.,0.,0.,9977.,0.547205370927,1.67380466401,221.
8.42,6114.,15.,5.,3841.,0.,0.,9975.,0.525965780245,1.82334803818,195.
8.44,6118.,15.,8.,3836.,0.,0.,9977.,0.508875957562,1.76410331955,195.
8.46,6126.,9.,6.,3838.,0.,0.,9979.,0.496848912421,2.8706826051,117.
8.48,6129.,8.,4.,3840.,0.,0.,9981.,0.489355899436,3.18081334634,104.
8.5,6131.,3.,6.,3841.,0.,0.,9981.,0.486955723947,8.44056588174,39.
8.52,6141.,0.,3.,3836.,0.,0.,9980.,0.490363141479,inf,0.
8.54,6152.,1.,0.,3828.,0.,0.,9981.,0.49885765958,25.9405982982,13.
8.56,6160.,1.,0.,3823.,0.,0.,9984.,0.512010151846,26.624527896,13.
8.58,6173.,0.,1.,3811.,0.,0.,9985.,0.530509502321,inf,0.
8.6,6181.,0.,1.,3802.,0.,0.,9984.,0.553266493698,inf,0.
8.62,6191.,0.,0.,3794.,0.,0.,9985.,0.580336578375,inf,0.
8.64,6197.,1.,0.,3787.,0.,0.,9985.,0.61092568926,31.7681358415,13.
8.66,6203.,0.,1.,3781.,0.,0.,9985.,0.644873379673,inf,0.
8.68,6207.,1.,0.,3776.,0.,0.,9984.,0.681511352149,35.4385903118,13.
8.7,6213.,3.,0.,3768.,0.,0.,9984.,0.720570943919,12.4898963613,39.
8.72,6225.,2.,0.,3758.,0.,0.,9985.,0.761967192149,19.8111469959,26.
8.74,6234.,2.,1.,3745.,0.,0.,9982.,0.804420346374,20.9149290057,26.
8.76,6242.,1.,2.,3741.,0.,0.,9986.,0.846615600476,44.0240112248,13.
8.78,6253.,0.,0.,3738.,0.,0.,9991.,0.888893475405,inf,0.
8.8,6261.,1.,0.,3729.,0.,0.,9991.,0.930315093458,48.3763848598,13.
8.82,6270.,3.,0.,3720.,0.,0.,9993.,0.97018413975,16.816525089,39.
8.84,6285.,0.,3.,3708.,0.,0.,9996.,1.00878119994,inf,0.
8.86,6286.,5.,0.,3705.,0.,0.,9996.,1.04270702077,10.8441530161,65.
8.88,6288.,5.,4.,3695.,0.,0.,9992.,1.07390258717,11.1685869066,65.
8.9,6288.,7.,2.,3693.,0.,0.,9990.,1.10074570092,8.17696806401,91.
8.92,6287.,7.,4.,3692.,0.,0.,9990.,1.12295102445,8.34192189595,91.
8.94,6289.,12.,2.,3689.,0.,0.,9992.,1.14086943065,4.9437675328,156.
8.96,6297.,13.,6.,3676.,0.,0.,9992.,1.15524563136,4.62098252545,169.
8.98,6303.,8.,8.,3673.,0.,0.,9992.,1.16419126741,7.56724323816,104.
9.,6298.,17.,7.,3668.,0.,0.,9990.,1.16612785127,3.56697930976,221.
9.02,6298.,17.,8.,3670.,0.,0.,9993.,1.1631513376,3.55787467971,221.
9.04,6286.,22.,10.,3677.,0.,0.,9995.,1.15288143349,2.72499247916,286.
9.06,6280.,23.,10.,3681.,0.,0.,9994.,1.13900878235,2.57515029052,299.
9.08,6272.,27.,15.,3683.,0.,0.,9997.,1.1194873774,2.15604976388,351.
9.1,6258.,36.,9.,3692.,0.,0.,9995.,1.09494603055,1.5815887108,468.
9.12,6261.,25.,17.,3694.,0.,0.,9997.,1.06875655811,2.22301364086,325.
9.14,6241.,32.,15.,3708.,0.,0.,9996.,1.03524252572,1.68226910429,416.
9.16,6227.,45.,9.,3714.,0.,0.,9995.,0.999571839991,1.15506079288,585.
9.18,6210.,34.,21.,3725.,0.,0.,9990.,0.96118863958,1.47005321348,442.
9.2,6203.,32.,18.,3737.,0.,0.,9990.,0.921789199301,1.49790744886,416.
9.22,6196.,30.,20.,3740.,0.,0.,9986.,0.881231669008,1.52746822628,390.
9.24,6185.,27.,25.,3748.,0.,0.,9985.,0.838968584961,1.61579134881,351.
9.26,6183.,26.,13.,3762.,0.,0.,9984.,0.797679605596,1.59535921119,338.
9.28,6181.,22.,19.,3759.,0.,0.,9981.,0.756884608604,1.78899998397,286.
9.3,6169.,26.,14.,3771.,0.,0.,9980.,0.715754675228,1.43150935046,338.
9.32,6172.,16.,14.,3779.,0.,0.,9981.,0.677872136948,2.20308444508,208.
9.34,6173.,19.,7.,3781.,0.,0.,9980.,0.642076054037,1.75726077947,247.
9.36,6183.,12.,9.,3774.,0.,0.,9978.,0.609973134439,2.6432169159,156.
9.38,6185.,13.,6.,3776.,0.,0.,9980.,0.580064613906,2.32025845562,169.
9.4,6182.,9.,6.,3778.,0.,0.,9975.,0.553855273112,3.20005268909,117.
9.42,6184.,11.,2.,3777.,0.,0.,9974.,0.532040969929,2.51510276694,143.
9.44,6185.,13.,3.,3773.,0.,0.,9974.,0.514603543353,2.05841417341,169.
9.46,6196.,11.,0.,3772.,0.,0.,9979.,0.502526258792,2.37557867793,143.
9.48,6207.,5.,3.,3767.,0.,0.,9982.,0.495533982194,5.15355341482,65.
9.5,6209.,4.,4.,3763.,0.,0.,9980.,0.493200301208,6.41160391571,52.
9.52,6223.,3.,3.,3756.,0.,0.,9985.,0.49666207009,8.6088092149,39.
9.54,6233.,0.,0.,3756.,0.,0.,9989.,0.50502105804,inf,0.
9.56,6241.,0.,0.,3749.,0.,0.,9990.,0.518431195659,inf,0.
9.58,6252.,0.,0.,3738.,0.,0.,9990.,0.537029868099,inf,0.
9.6,6265.,0.,0.,3730.,0.,0.,9995.,0.560168231613,inf,0.
9.62,6270.,0.,0.,3726.,0.,0.,9996.,0.58709516449,inf,0.
9.64,6280.,0.,0.,3717.,0.,0.,9997.,0.618365017099,inf,0.
9.66,6293.,1.,0.,3708.,0.,0.,10002.,0.653117949039,33.96213335,13.
9.68,6302.,1.,0.,3702.,0.,0.,10005.,0.690489735957,35.9054662697,13.
9.7,6309.,1.,2.,3696.,0.,0.,10008.,0.729950138368,37.9574071952,13.
9.72,6324.,3.,1.,3685.,0.,0.,10013.,0.771920599986,13.3799570664,39.
9.74,6331.,4.,2.,3675.,0.,0.,10012.,0.814489119234,10.58835855,52.
9.76,6336.,1.,3.,3671.,0.,0.,10011.,0.857218966474,44.5753862566,13.
9.78,6344.,1.,1.,3665.,0.,0.,10011.,0.900027877823,46.8014496468,13.
9.8,6350.,0.,1.,3660.,0.,0.,10011.,0.941654499919,inf,0.
9.82,6351.,3.,1.,3655.,0.,0.,10010.,0.981048668066,17.0048435798,39.
9.84,6350.,8.,1.,3655.,0.,0.,10014.,1.01738207963,6.61298351759,104.
9.86,6360.,8.,1.,3647.,0.,0.,10016.,1.05287537482,6.8436899363,104.
9.88,6370.,8.,1.,3640.,0.,0.,10019.,1.08497526339,7.05233921206,104.
9.9,6378.,7.,3.,3635.,0.,0.,10023.,1.11282465159,8.26669741179,91.
9.92,6381.,5.,6.,3630.,0.,0.,10022.,1.13610164788,11.815457138,65.
9.94,6388.,5.,4.,3624.,0.,0.,10021.,1.1554751755,12.0169418252,65.
9.96,6388.,9.,2.,3621.,0.,0.,10020.,1.1686655791,6.75229001255,117.
9.98,6391.,8.,5.,3617.,0.,0.,10021.,1.17702912934,7.65068934072,104.
10.,6398.,7.,4.,3611.,0.,0.,10020.,1.1810968578,8.77386237221,91.
