t,s,e,i,r,c,o,n,reff,coal,reportr
5.,6614.,1.,42.,3342.,0.,0.,9999.,1.10925638714,57.6813321311,13.
5.02,6598.,23.,18.,3357.,0.,0.,9996.,1.1044112841,2.4969298597,299.
5.04,6600.,33.,15.,3351.,0.,0.,9999.,1.09697252453,1.72856276592,429.
5.06,6592.,33.,9.,3365.,0.,0.,9999.,1.08338475583,1.70715173647,429.
5.08,6589.,32.,18.,3363.,0.,0.,10002.,1.06568981921,1.73174595622,416.
5.1,6583.,36.,12.,3370.,0.,0.,10001.,1.04360390851,1.50742786784,468.
5.12,6573.,41.,14.,3373.,0.,0.,10001.,1.01681115488,1.28961414765,533.
5.14,6551.,42.,28.,3378.,0.,0.,9999.,0.984873644054,1.21936736883,546.
5.16,6537.,42.,13.,3404.,0.,0.,9996.,0.95122991289,1.17771322548,546.
5.18,6526.,42.,18.,3410.,0.,0.,9996.,0.915205571286,1.13311165969,546.
5.2,6510.,43.,21.,3420.,0.,0.,9994.,0.876702574022,1.06019846161,559.
5.22,6492.,40.,18.,3444.,0.,0.,9994.,0.836420619931,1.08734680591,520.
5.24,6483.,37.,25.,3452.,0.,0.,9997.,0.796298155538,1.11912173211,481.
5.26,6475.,36.,22.,3467.,0.,0.,10000.,0.756116826863,1.09216874991,468.
5.28,6470.,27.,23.,3485.,0.,0.,10005.,0.716551632111,1.38002536555,351.
5.3,6462.,33.,6.,3505.,0.,0.,10006.,0.677956354329,1.06829486137,429.
5.32,6467.,20.,17.,3502.,0.,0.,10006.,0.642323187015,1.67004028624,260.
5.34,6460.,27.,9.,3508.,0.,0.,10004.,0.607707909182,1.17040041768,351.
5.36,6466.,20.,8.,3510.,0.,0.,10004.,0.576809352818,1.49970431733,260.
5.38,6469.,15.,12.,3513.,0.,0.,10009.,0.548439830446,1.90125807888,195.
5.4,6466.,9.,11.,3522.,0.,0.,10008.,0.523460502916,3.02443846129,117.
5.42,6473.,9.,2.,3526.,0.,0.,10010.,0.503073921735,2.90664932558,117.
5.44,6480.,8.,1.,3523.,0.,0.,10012.,0.48693603279,3.16508421313,104.
5.46,6487.,8.,0.,3515.,0.,0.,10010.,0.475509841783,3.09081397159,104.
5.48,6492.,7.,3.,3507.,0.,0.,10009.,0.468610915417,3.48110965738,91.
5.5,6499.,4.,4.,3502.,0.,0.,10009.,0.466663010393,6.06661913511,52.
5.52,6499.,4.,1.,3502.,0.,0.,10006.,0.469256845677,6.10033899379,52.
5.54,6504.,2.,2.,3499.,0.,0.,10007.,0.476898901918,12.3993714499,26.
5.56,6514.,2.,2.,3491.,0.,0.,10009.,0.489637659312,12.7305791421,26.
5.58,6515.,3.,1.,3490.,0.,0.,10009.,0.506388700455,8.77740414123,39.
5.6,6521.,4.,1.,3483.,0.,0.,10009.,0.527860330631,6.8621842982,52.
5.62,6531.,1.,3.,3474.,0.,0.,10009.,0.553696171377,28.7922009116,13.
5.64,6534.,0.,1.,3472.,0.,0.,10007.,0.582700655819,inf,0.
5.66,6549.,0.,0.,3458.,0.,0.,10007.,0.615895660789,inf,0.
5.68,6555.,0.,1.,3451.,0.,0.,10007.,0.650998568511,inf,0.
5.7,6560.,0.,0.,3446.,0.,0.,10006.,0.688237957969,inf,0.
5.72,6564.,2.,0.,3440.,0.,0.,10006.,0.726889466881,18.8991261389,26.
5.74,6568.,3.,0.,3435.,0.,0.,10006.,0.766516973034,13.2862941993,39.
5.76,6574.,2.,3.,3430.,0.,0.,10009.,0.806507463549,20.9691940523,26.
5.78,6583.,1.,0.,3423.,0.,0.,10007.,0.847043121392,44.0462423124,13.
5.8,6593.,1.,1.,3416.,0.,0.,10011.,0.886372457345,46.0913677819,13.
5.82,6601.,0.,4.,3407.,0.,0.,10012.,0.924244181158,inf,0.
5.84,6601.,3.,5.,3400.,0.,0.,10009.,0.959295273923,16.627784748,39.
5.86,6602.,4.,7.,3396.,0.,0.,10009.,0.991549306809,12.8901409885,52.
5.88,6600.,9.,3.,3394.,0.,0.,10006.,1.0204777358,5.89609358465,117.
5.9,6601.,11.,5.,3386.,0.,0.,10003.,1.0462482223,4.94590068722,143.
5.92,6609.,10.,5.,3384.,0.,0.,10008.,1.06828373149,5.55507540375,130.
5.94,6607.,12.,6.,3384.,0.,0.,10009.,1.08476510847,4.70064880338,156.
5.96,6608.,12.,4.,3385.,0.,0.,10009.,1.09720487359,4.75455445221,156.
5.98,6604.,16.,6.,3381.,0.,0.,10007.,1.10420049211,3.58865159935,208.
6.,6606.,11.,11.,3380.,0.,0.,10008.,1.10691835384,5.2327049454,143.
6.02,6600.,13.,9.,3385.,0.,0.,10007.,1.10353168503,4.41412674011,169.
6.04,6601.,13.,11.,3383.,0.,0.,10008.,1.09615209693,4.38460838774,169.
6.06,6601.,23.,6.,3382.,0.,0.,10012.,1.08345525888,2.44955102007,299.
6.08,6599.,25.,7.,3382.,0.,0.,10013.,1.06613468274,2.2175601401,325.
6.1,6594.,25.,7.,3385.,0.,0.,10011.,1.04430354092,2.17215136512,325.
6.12,6588.,28.,10.,3383.,0.,0.,10009.,1.01831700982,1.8911601611,364.
6.14,6585.,20.,17.,3383.,0.,0.,10005.,0.989391490608,2.57241787558,260.
6.16,6583.,23.,13.,3387.,0.,0.,10006.,0.956966242153,2.16357585182,299.
6.18,6578.,32.,8.,3390.,0.,0.,10008.,0.921391933193,1.49726189144,416.
6.2,6573.,29.,12.,3388.,0.,0.,10002.,0.884478784648,1.58596195868,377.
6.22,6567.,25.,11.,3400.,0.,0.,10003.,0.84532227309,1.75827032803,325.
6.24,6557.,30.,17.,3400.,0.,0.,10004.,0.804823930024,1.39502814538,390.
6.26,6541.,39.,13.,3412.,0.,0.,10005.,0.76344224251,1.01792299001,507.
6.28,6525.,38.,14.,3426.,0.,0.,10003.,0.722787359963,0.989077439949,494.
6.3,6524.,25.,21.,3436.,0.,0.,10006.,0.684461042346,1.42367896808,325.
6.32,6512.,25.,23.,3444.,0.,0.,10004.,0.646922038205,1.34559783947,325.
6.34,6510.,25.,12.,3457.,0.,0.,10004.,0.61241153077,1.273815984,325.
6.36,6509.,28.,11.,3455.,0.,0.,10003.,0.58070328025,1.07844894904,364.
6.38,6512.,21.,12.,3458.,0.,0.,10003.,0.55241650909,1.3678884987,273.
6.4,6512.,18.,12.,3463.,0.,0.,10005.,0.527342548155,1.523434028,234.
6.42,6513.,13.,8.,3468.,0.,0.,10002.,0.5065875397,2.0263501588,169.
6.44,6527.,11.,3.,3462.,0.,0.,10003.,0.49090911057,2.32066124997,143.
6.46,6531.,10.,3.,3462.,0.,0.,10006.,0.478926507431,2.49041783864,130.
6.48,6537.,5.,9.,3453.,0.,0.,10004.,0.472094977886,4.90978777002,65.
6.5,6539.,6.,7.,3453.,0.,0.,10005.,0.469722944874,4.07093218891,78.
6.52,6545.,5.,0.,3457.,0.,0.,10007.,0.472531026494,4.91432267554,65.
6.54,6558.,1.,4.,3445.,0.,0.,10008.,0.480810347244,25.0021380567,13.
6.56,6565.,1.,1.,3439.,0.,0.,10006.,0.493619127494,25.6681946297,13.
6.58,6578.,1.,0.,3432.,0.,0.,10011.,0.511183330567,26.5815331895,13.
6.6,6593.,0.,1.,3419.,0.,0.,10013.,0.533475370945,inf,0.
6.62,6599.,0.,0.,3414.,0.,0.,10013.,0.55923769653,inf,0.
6.64,6609.,1.,0.,3405.,0.,0.,10015.,0.588918333909,30.6237533633,13.
6.66,6619.,1.,0.,3395.,0.,0.,10015.,0.621981519723,32.3430390256,13.
6.68,6625.,0.,0.,3387.,0.,0.,10012.,0.657621917352,inf,0.
6.7,6632.,1.,0.,3381.,0.,0.,10014.,0.695235933981,36.152268567,13.
6.72,6641.,0.,1.,3373.,0.,0.,10015.,0.734755470896,inf,0.
6.74,6648.,0.,1.,3365.,0.,0.,10014.,0.775233540223,inf,0.
6.76,6657.,0.,3.,3356.,0.,0.,10016.,0.816119249209,inf,0.
6.78,6664.,0.,2.,3350.,0.,0.,10016.,0.856695009951,inf,0.
6.8,6665.,1.,3.,3348.,0.,0.,10017.,0.895515522576,46.566807174,13.
6.82,6675.,2.,2.,3337.,0.,0.,10016.,0.934232104125,24.2900347073,26.
6.84,6679.,4.,4.,3329.,0.,0.,10016.,0.969952326294,12.6093802418,52.
6.86,6679.,8.,2.,3327.,0.,0.,10016.,1.00241281962,6.51568332752,104.
6.88,6684.,3.,5.,3325.,0.,0.,10017.,1.03233075136,17.8937330236,39.
6.9,6685.,9.,2.,3320.,0.,0.,10016.,1.05818686116,6.11396853114,117.
6.92,6690.,9.,2.,3315.,0.,0.,10016.,1.08051291307,6.24296349771,117.
6.94,6691.,8.,2.,3315.,0.,0.,10016.,1.09778882134,7.13562733873,104.
6.96,6691.,11.,4.,3313.,0.,0.,10019.,1.10987747179,5.24669350299,143.
6.98,6697.,10.,6.,3311.,0.,0.,10024.,1.11785123897,5.81282644263,130.
7.,6700.,16.,6.,3303.,0.,0.,10025.,1.12076545739,3.64248773653,208.
7.02,6700.,15.,11.,3299.,0.,0.,10025.,1.11824043728,3.87656684925,195.
7.04,6693.,26.,11.,3296.,0.,0.,10026.,1.10943409302,2.21886818603,338.
7.06,6691.,25.,12.,3299.,0.,0.,10027.,1.09658450529,2.28089577101,325.
7.08,6695.,23.,10.,3300.,0.,0.,10028.,1.08002650982,2.44179906569,299.
7.1,6684.,16.,24.,3304.,0.,0.,10028.,1.0567624792,3.43447805741,208.
7.12,6668.,35.,10.,3315.,0.,0.,10028.,1.02872990017,1.52839870882,455.
7.14,6664.,34.,15.,3316.,0.,0.,10029.,0.998865105296,1.52767604339,442.
7.16,6655.,29.,20.,3324.,0.,0.,10028.,0.9653104238,1.73090144957,377.
7.18,6634.,41.,25.,3329.,0.,0.,10029.,0.927290198053,1.17607537314,533.
7.2,6634.,40.,13.,3350.,0.,0.,10037.,0.889574205109,1.15644646664,520.
7.22,6625.,33.,18.,3361.,0.,0.,10037.,0.849899401033,1.33923541981,429.
7.24,6608.,36.,24.,3370.,0.,0.,10038.,0.808336562668,1.16759725719,468.
7.26,6596.,35.,24.,3380.,0.,0.,10035.,0.767560117194,1.14037503126,455.
7.28,6592.,28.,15.,3401.,0.,0.,10036.,0.727808038366,1.35164349982,364.
7.3,6586.,26.,15.,3410.,0.,0.,10037.,0.688831632761,1.37766326552,338.
7.32,6584.,19.,14.,3417.,0.,0.,10034.,0.652119163613,1.78474718462,247.
7.34,6582.,18.,14.,3422.,0.,0.,10036.,0.617210462092,1.78305244604,234.
7.36,6592.,11.,11.,3423.,0.,0.,10037.,0.58611596491,2.77073001594,143.
7.38,6594.,9.,13.,3421.,0.,0.,10037.,0.55747775786,3.22098260097,117.
7.4,6593.,13.,4.,3424.,0.,0.,10034.,0.532358868773,2.12943547509,169.
7.42,6602.,9.,7.,3419.,0.,0.,10037.,0.511719387428,2.95660090514,117.
7.44,6609.,6.,8.,3415.,0.,0.,10038.,0.495343317768,4.29297542066,78.
7.46,6614.,5.,3.,3417.,0.,0.,10039.,0.483418677585,5.02755424688,65.
7.48,6611.,10.,2.,3415.,0.,0.,10038.,0.475822028771,2.47427454961,130.
7.5,6625.,4.,4.,3410.,0.,0.,10043.,0.474099994743,6.16329993165,52.
7.52,6633.,2.,0.,3410.,0.,0.,10045.,0.477072776409,12.4038921866,26.
7.54,6629.,1.,2.,3406.,0.,0.,10038.,0.484563298884,25.197291542,13.
7.56,6636.,1.,0.,3400.,0.,0.,10037.,0.497416516083,25.8656588363,13.
7.58,6648.,1.,0.,3388.,0.,0.,10037.,0.515284836053,26.7948114748,13.
7.6,6652.,0.,0.,3386.,0.,0.,10038.,0.536908851346,inf,0.
7.62,6663.,0.,0.,3377.,0.,0.,10040.,0.563142917492,inf,0.
7.64,6667.,0.,0.,3373.,0.,0.,10040.,0.592607329793,inf,0.
7.66,6678.,0.,0.,3364.,0.,0.,10042.,0.625838464037,inf,0.
7.68,6683.,1.,0.,3355.,0.,0.,10039.,0.661595045495,34.4029423658,13.
7.7,6692.,1.,0.,3348.,0.,0.,10041.,0.699639379122,36.3812477143,13.
7.72,6690.,1.,0.,3345.,0.,0.,10036.,0.738628000101,38.4086560052,13.
7.74,6701.,1.,0.,3339.,0.,0.,10041.,0.779312749282,40.5242629626,13.
7.76,6712.,0.,2.,3330.,0.,0.,10044.,0.82056808964,inf,0.
7.78,6718.,2.,1.,3325.,0.,0.,10046.,0.861057968904,22.3875071915,26.
7.8,6723.,3.,1.,3320.,0.,0.,10047.,0.900611207556,15.6105942643,39.
7.82,6729.,2.,3.,3315.,0.,0.,10049.,0.938697184572,24.4061267989,26.
7.84,6727.,3.,3.,3314.,0.,0.,10047.,0.973908792749,16.881085741,39.
7.86,6721.,9.,0.,3317.,0.,0.,10047.,1.00560396637,5.81015625012,117.
7.88,6722.,10.,3.,3309.,0.,0.,10044.,1.03540891756,5.38412637133,130.
7.9,6727.,12.,3.,3301.,0.,0.,10043.,1.06197241046,4.60188044532,156.
7.92,6726.,13.,3.,3302.,0.,0.,10044.,1.08329894072,4.33319576289,169.
7.94,6725.,13.,4.,3300.,0.,0.,10042.,1.10051042701,4.40204170804,169.
7.96,6723.,17.,1.,3299.,0.,0.,10040.,1.11285294998,3.40402078818,221.
7.98,6726.,13.,6.,3300.,0.,0.,10045.,1.12034477599,4.48137910395,169.
8.,6718.,15.,12.,3302.,0.,0.,10047.,1.12131572633,3.88722785127,195.
8.02,6714.,14.,11.,3308.,0.,0.,10047.,1.11812332213,4.15302948218,182.
8.04,6709.,18.,9.,3313.,0.,0.,10049.,1.10954093249,3.20534047163,234.
8.06,6709.,23.,8.,3310.,0.,0.,10050.,1.09701816827,2.48021498913,299.
8.08,6702.,25.,16.,3306.,0.,0.,10049.,1.07889638223,2.24410447504,325.
8.1,6685.,34.,12.,3319.,0.,0.,10050.,1.05460692551,1.61292823901,442.
8.12,6672.,32.,19.,3323.,0.,0.,10046.,1.02750267403,1.66969184529,416.
8.14,6656.,40.,10.,3340.,0.,0.,10046.,0.995977721368,1.29477103778,520.
8.16,6646.,37.,20.,3342.,0.,0.,10045.,0.962373503335,1.35252492361,481.
8.18,6644.,31.,16.,3355.,0.,0.,10046.,0.92711644201,1.55516306402,403.
8.2,6637.,35.,14.,3362.,0.,0.,10048.,0.889002187166,1.3208032495,455.
8.22,6628.,35.,10.,3370.,0.,0.,10043.,0.849776274923,1.26252475131,455.
8.24,6622.,32.,13.,3373.,0.,0.,10040.,0.809887775761,1.31606763561,416.
8.26,6613.,26.,16.,3385.,0.,0.,10040.,0.769155128682,1.53831025736,338.
8.28,6605.,33.,8.,3395.,0.,0.,10041.,0.728880206587,1.14853850735,429.
8.3,6608.,24.,10.,3402.,0.,0.,10044.,0.690650945613,1.49641038216,312.
8.32,6607.,22.,10.,3402.,0.,0.,10041.,0.653941015055,1.54567876286,286.
8.34,6605.,21.,11.,3402.,0.,0.,10039.,0.619182140803,1.53321292008,273.
8.36,6600.,25.,12.,3406.,0.,0.,10043.,0.586476681862,1.21987149827,325.
8.38,6600.,24.,9.,3408.,0.,0.,10041.,0.557762734319,1.20848592436,312.
8.4,6607.,19.,11.,3410.,0.,0.,10047.,0.532799022079,1.45818679727,247.
8.42,6609.,13.,7.,3417.,0.,0.,10046.,0.511803030991,2.04721212396,169.
8.44,6612.,10.,9.,3412.,0.,0.,10043.,0.495321444035,2.57567150898,130.
8.46,6614.,13.,7.,3408.,0.,0.,10042.,0.483274258542,1.93309703417,169.
8.48,6615.,9.,3.,3413.,0.,0.,10040.,0.476015083315,2.75030937027,117.
8.5,6621.,5.,4.,3409.,0.,0.,10039.,0.474002534909,4.92962636306,65.
8.52,6623.,2.,3.,3407.,0.,0.,10035.,0.476828227189,12.3975339069,26.
8.54,6625.,2.,0.,3407.,0.,0.,10034.,0.484463960888,12.5960629831,26.
8.56,6629.,1.,1.,3402.,0.,0.,10033.,0.497089918103,25.8486757414,13.
8.58,6639.,1.,0.,3390.,0.,0.,10030.,0.514946381951,26.7772118615,13.
8.6,6646.,0.,1.,3381.,0.,0.,10028.,0.53695949473,inf,0.
8.62,6652.,1.,0.,3374.,0.,0.,10027.,0.562942129477,29.2729907328,13.
8.64,6659.,0.,1.,3366.,0.,0.,10026.,0.592722742368,inf,0.
8.66,6669.,0.,0.,3356.,0.,0.,10025.,0.626054857894,inf,0.
8.68,6671.,0.,0.,3351.,0.,0.,10022.,0.66152731246,inf,0.
8.7,6681.,0.,0.,3340.,0.,0.,10021.,0.69988339546,inf,0.
8.72,6698.,0.,0.,3328.,0.,0.,10026.,0.740248855802,inf,0.
8.74,6709.,0.,0.,3319.,0.,0.,10028.,0.781254617022,inf,0.
8.76,6714.,1.,0.,3312.,0.,0.,10027.,0.822204221444,42.7546195151,13.
8.78,6717.,1.,3.,3305.,0.,0.,10026.,0.8626471915,44.857653958,13.
8.8,6722.,1.,2.,3300.,0.,0.,10025.,0.902453357505,46.9275745903,13.
8.82,6729.,4.,1.,3294.,0.,0.,10028.,0.940662944532,12.2286182789,52.
8.84,6733.,4.,1.,3289.,0.,0.,10027.,0.976721754595,12.6973828097,52.
8.86,6740.,5.,2.,3282.,0.,0.,10029.,1.01025672414,10.5066699311,65.
8.88,6745.,2.,3.,3280.,0.,0.,10030.,1.04040185525,27.0504482366,26.
8.9,6751.,5.,2.,3275.,0.,0.,10033.,1.06682347817,11.0949641729,65.
8.92,6752.,8.,3.,3271.,0.,0.,10034.,1.08857033859,7.07570720087,104.
8.94,6754.,8.,2.,3268.,0.,0.,10032.,1.10635785312,7.19132604526,104.
8.96,6758.,7.,4.,3260.,0.,0.,10029.,1.11987342566,8.31905973347,91.
8.98,6756.,12.,5.,3255.,0.,0.,10028.,1.12724959297,4.88474823621,156.
9.,6758.,10.,8.,3248.,0.,0.,10024.,1.13058038223,5.87901798758,130.
9.02,6749.,19.,14.,3242.,0.,0.,10024.,1.12653098578,3.08313743478,247.
9.04,6745.,22.,13.,3247.,0.,0.,10027.,1.11794212746,2.64240866491,286.
9.06,6729.,31.,10.,3254.,0.,0.,10024.,1.10314235707,1.85043234089,403.
9.08,6725.,30.,15.,3254.,0.,0.,10024.,1.08529896847,1.88118487868,390.
9.1,6720.,25.,21.,3261.,0.,0.,10027.,1.06256015745,2.2101251275,325.
9.12,6701.,31.,15.,3277.,0.,0.,10024.,1.03423363328,1.73484351389,403.
9.14,6687.,36.,10.,3294.,0.,0.,10027.,1.00251249162,1.448073599,468.
9.16,6676.,33.,15.,3303.,0.,0.,10027.,0.968453057133,1.52604724154,429.
9.18,6667.,33.,10.,3316.,0.,0.,10026.,0.932181732575,1.46889242709,429.
9.2,6663.,25.,24.,3316.,0.,0.,10028.,0.89426477892,1.86007074015,325.
9.22,6634.,45.,3.,3345.,0.,0.,10027.,0.851902743674,0.984420948246,585.
9.24,6635.,35.,14.,3347.,0.,0.,10031.,0.812205782392,1.20670573384,455.
9.26,6630.,36.,9.,3357.,0.,0.,10032.,0.771747329334,1.11474614237,468.
9.28,6630.,26.,15.,3363.,0.,0.,10034.,0.732149438364,1.46429887673,338.
9.3,6630.,22.,6.,3376.,0.,0.,10034.,0.693640930582,1.63951492683,286.
9.32,6633.,18.,7.,3377.,0.,0.,10035.,0.656906951739,1.89773119391,234.
9.34,6640.,15.,8.,3373.,0.,0.,10036.,0.622649265921,2.15851745519,195.
9.36,6640.,15.,11.,3369.,0.,0.,10035.,0.590501464539,2.04707174373,195.
9.38,6648.,16.,6.,3368.,0.,0.,10038.,0.561987098276,1.8264580694,208.
9.4,6653.,12.,8.,3369.,0.,0.,10042.,0.536775667788,2.32602789375,156.
9.42,6663.,10.,4.,3366.,0.,0.,10043.,0.516138940584,2.68392249104,130.
9.44,6663.,9.,4.,3364.,0.,0.,10040.,0.4992911275,2.88479318111,117.
9.46,6670.,7.,5.,3359.,0.,0.,10041.,0.487414625369,3.62079435988,91.
9.48,6668.,6.,5.,3360.,0.,0.,10039.,0.479876757268,4.15893189632,78.
9.5,6670.,5.,5.,3355.,0.,0.,10035.,0.477700820996,4.96808853835,65.
9.52,6679.,1.,4.,3352.,0.,0.,10036.,0.480812078848,25.0022281001,13.
9.54,6686.,1.,2.,3347.,0.,0.,10036.,0.488827251486,25.4190170773,13.
9.56,6697.,2.,0.,3339.,0.,0.,10038.,0.501938901361,13.0504114354,26.
9.58,6709.,1.,1.,3327.,0.,0.,10038.,0.519961126532,27.0379785797,13.
9.6,6716.,1.,2.,3318.,0.,0.,10037.,0.542128548462,28.19068452,13.
9.62,6724.,1.,0.,3307.,0.,0.,10032.,0.568751699368,29.5750883672,13.
9.64,6730.,2.,0.,3298.,0.,0.,10030.,0.598803607002,15.568893782,26.
9.66,6737.,0.,1.,3294.,0.,0.,10032.,0.631997088486,inf,0.
9.68,6746.,0.,1.,3283.,0.,0.,10030.,0.668431089434,inf,0.
9.7,6759.,1.,1.,3276.,0.,0.,10037.,0.706925752479,36.7601391289,13.
9.72,6767.,0.,1.,3269.,0.,0.,10037.,0.747054961086,inf,0.
9.74,6779.,0.,0.,3263.,0.,0.,10042.,0.788305482888,inf,0.
9.76,6791.,0.,0.,3253.,0.,0.,10044.,0.830226146714,inf,0.
9.78,6799.,0.,0.,3242.,0.,0.,10041.,0.871873823275,inf,0.
9.8,6809.,1.,0.,3233.,0.,0.,10043.,0.912495034151,47.4497417759,13.
9.82,6817.,1.,0.,3225.,0.,0.,10043.,0.951541347521,49.4801500711,13.
9.84,6818.,2.,1.,3219.,0.,0.,10040.,0.987771622987,25.6820621977,26.
9.86,6819.,4.,2.,3213.,0.,0.,10038.,1.02118160629,13.2753608817,52.
9.88,6818.,6.,1.,3214.,0.,0.,10039.,1.0507191307,9.10623246606,78.
9.9,6822.,7.,2.,3207.,0.,0.,10038.,1.07750623741,8.00433204935,91.
9.92,6822.,10.,1.,3203.,0.,0.,10036.,1.0996366902,5.71811078904,130.
9.94,6826.,10.,3.,3199.,0.,0.,10038.,1.11748366294,5.81091504731,130.
9.96,6826.,10.,6.,3196.,0.,0.,10038.,1.13012758472,5.87666344054,130.
9.98,6823.,12.,5.,3199.,0.,0.,10039.,1.13718124536,4.92778539655,156.
10.,6813.,19.,3.,3198.,0.,0.,10033.,1.13875918408,3.11660408274,247.
