t,prevalence
5.,4
5.02,2
5.04,5
5.06,6
5.08,8
5.1,7
5.12,7
5.14,6
5.16,9
5.18,10
5.2,6
5.22,15
5.24,11
5.26,6
5.28,9
5.3,8
5.32,7
5.34,8
5.36,4
5.38,3
5.4,5
5.42,2
5.44,3
5.46,3
5.48,5
5.5,2
5.52,2
5.54,1
5.56,2
5.58,0
5.6,0
5.62,0
5.64,0
5.66,0
5.68,0
5.7,1
5.72,0
5.74,0
5.76,1
5.78,0
5.8,1
5.82,0
5.84,0
5.86,0
5.88,2
5.9,2
5.92,2
5.94,4
5.96,4
5.98,3
6.,4
6.02,7
6.04,4
6.06,6
6.08,4
6.1,10
6.12,9
6.14,14
6.16,13
6.18,14
6.2,14
6.22,10
6.24,14
6.26,10
6.28,8
6.3,11
6.32,8
6.34,8
6.36,6
6.38,4
6.4,2
6.42,4
6.44,1
6.46,6
6.48,3
6.5,0
6.52,2
6.54,1
6.56,0
6.58,1
6.6,0
6.62,1
6.64,0
6.66,0
6.68,0
6.7,0
6.72,0
6.74,0
6.76,1
6.78,0
6.8,0
6.82,0
6.84,0
6.86,1
6.88,1
6.9,1
6.92,0
6.94,1
6.96,2
6.98,2
7.,4
7.02,3
7.04,4
7.06,6
7.08,4
7.1,6
7.12,4
7.14,11
7.16,10
7.18,4
7.2,12
7.22,6
7.24,6
7.26,8
7.28,12
7.3,15
7.32,11
7.34,7
7.36,2
7.38,6
7.4,4
7.42,7
7.44,3
7.46,2
7.48,0
7.5,4
7.52,3
7.54,2
7.56,0
7.58,0
7.6,0
7.62,0
7.64,0
7.66,0
7.68,1
7.7,0
7.72,0
7.74,0
7.76,0
7.78,1
7.8,0
7.82,0
7.84,0
7.86,1
7.88,0
7.9,1
7.92,2
7.94,1
7.96,5
7.98,2
8.,1
8.02,2
8.04,4
8.06,5
8.08,5
8.1,5
8.12,6
8.14,7
8.16,13
8.18,6
8.2,6
8.22,7
8.24,7
8.26,10
8.28,6
8.3,3
8.32,3
8.34,7
8.36,3
8.38,4
8.4,4
8.42,3
8.44,0
8.46,2
8.48,0
8.5,2
8.52,2
8.54,0
8.56,0
8.58,4
8.6,0
8.62,0
8.64,0
8.66,0
8.68,0
8.7,1
8.72,1
8.74,0
8.76,0
8.78,0
8.8,0
8.82,1
8.84,1
8.86,1
8.88,1
8.9,1
8.92,2
8.94,0
8.96,3
8.98,1
9.,4
9.02,6
9.04,8
9.06,10
9.08,6
9.1,5
9.12,6
9.14,11
9.16,10
9.18,5
9.2,5
9.22,13
9.24,7
9.26,7
9.28,4
9.3,7
9.32,11
9.34,4
9.36,7
9.38,10
9.4,8
9.42,3
9.44,1
9.46,0
9.48,2
9.5,3
9.52,0
9.54,0
9.56,0
9.58,0
9.6,0
9.62,0
9.64,0
9.66,0
9.68,0
9.7,0
9.72,0
9.74,0
9.76,0
9.78,0
9.8,1
9.82,1
9.84,0
9.86,2
9.88,2
9.9,5
9.92,5
9.94,3
9.96,4
9.98,3
10.,7
