t,prevalence
5.,7
5.02,8
5.04,4
5.06,7
5.08,8
5.1,8
5.12,8
5.14,14
5.16,13
5.18,13
5.2,10
5.22,5
5.24,12
5.26,7
5.28,10
5.3,10
5.32,13
5.34,2
5.36,5
5.38,2
5.4,2
5.42,6
5.44,0
5.46,4
5.48,1
5.5,1
5.52,0
5.54,0
5.56,1
5.58,0
5.6,0
5.62,0
5.64,0
5.66,0
5.68,0
5.7,0
5.72,1
5.74,0
5.76,0
5.78,0
5.8,0
5.82,0
5.84,1
5.86,3
5.88,1
5.9,2
5.92,2
5.94,1
5.96,2
5.98,2
6.,5
6.02,8
6.04,9
6.06,2
6.08,6
6.1,4
6.12,6
6.14,9
6.16,11
6.18,13
6.2,11
6.22,13
6.24,10
6.26,10
6.28,4
6.3,10
6.32,5
6.34,10
6.36,5
6.38,5
6.4,3
6.42,4
6.44,4
6.46,3
6.48,0
6.5,1
6.52,3
6.54,0
6.56,0
6.58,0
6.6,2
6.62,1
6.64,0
6.66,0
6.68,0
6.7,1
6.72,0
6.74,0
6.76,1
6.78,1
6.8,2
6.82,1
6.84,1
6.86,0
6.88,1
6.9,1
6.92,0
6.94,3
6.96,2
6.98,2
7.,5
7.02,5
7.04,4
7.06,4
7.08,6
7.1,11
7.12,8
7.14,11
7.16,12
7.18,15
7.2,11
7.22,11
7.24,11
7.26,19
7.28,7
7.3,6
7.32,5
7.34,12
7.36,6
7.38,8
7.4,3
7.42,2
7.44,4
7.46,1
7.48,3
7.5,0
7.52,1
7.54,2
7.56,0
7.58,0
7.6,2
7.62,2
7.64,2
7.66,0
7.68,1
7.7,0
7.72,0
7.74,0
7.76,0
7.78,0
7.8,2
7.82,1
7.84,1
7.86,2
7.88,4
7.9,4
7.92,3
7.94,3
7.96,4
7.98,3
8.,1
8.02,3
8.04,2
8.06,7
8.08,6
8.1,6
8.12,8
8.14,10
8.16,6
8.18,5
8.2,11
8.22,9
8.24,9
8.26,8
8.28,11
8.3,6
8.32,8
8.34,6
8.36,3
8.38,5
8.4,4
8.42,3
8.44,0
8.46,5
8.48,1
8.5,3
8.52,1
8.54,2
8.56,1
8.58,1
8.6,2
8.62,1
8.64,3
8.66,2
8.68,0
8.7,0
8.72,1
8.74,0
8.76,1
8.78,1
8.8,0
8.82,0
8.84,1
8.86,0
8.88,1
8.9,0
8.92,1
8.94,3
8.96,1
8.98,9
9.,3
9.02,7
9.04,5
9.06,4
9.08,7
9.1,7
9.12,6
9.14,6
9.16,6
9.18,8
9.2,8
9.22,8
9.24,5
9.26,5
9.28,7
9.3,4
9.32,4
9.34,3
9.36,5
9.38,4
9.4,3
9.42,3
9.44,4
9.46,2
9.48,2
9.5,0
9.52,2
9.54,0
9.56,1
9.58,2
9.6,0
9.62,1
9.64,1
9.66,0
9.68,0
9.7,0
9.72,1
9.74,0
9.76,0
9.78,0
9.8,0
9.82,0
9.84,0
9.86,0
9.88,0
9.9,0
9.92,4
9.94,2
9.96,3
9.98,1
10.,4
