t,s,e,i,r,c,o,n,reff,coal,reportr
5.,8844.,17.,9.,1130.,0.,0.,10000.,1.18019046559,3.60999436534,221.
5.02,8830.,25.,7.,1137.,0.,0.,9999.,1.17578511732,2.44563304403,325.
5.04,8828.,18.,15.,1142.,0.,0.,10003.,1.16713069407,3.37171089399,234.
5.06,8819.,23.,10.,1154.,0.,0.,10006.,1.15255056015,2.60576648381,299.
5.08,8807.,22.,11.,1165.,0.,0.,10005.,1.13315185718,2.67835893515,286.
5.1,8784.,33.,8.,1173.,0.,0.,9998.,1.1084433847,1.74663806074,429.
5.12,8775.,28.,17.,1177.,0.,0.,9997.,1.08062890996,2.00688226135,364.
5.14,8763.,31.,14.,1189.,0.,0.,9997.,1.04855606374,1.75886823594,403.
5.16,8742.,39.,7.,1209.,0.,0.,9997.,1.01216991243,1.34955988324,507.
5.18,8735.,30.,11.,1221.,0.,0.,9997.,0.974698061693,1.68947664027,390.
5.2,8717.,37.,14.,1230.,0.,0.,9998.,0.933777927128,1.31233654623,481.
5.22,8704.,38.,10.,1248.,0.,0.,10000.,0.891832919483,1.22040294245,494.
5.24,8688.,35.,19.,1261.,0.,0.,10003.,0.848668290768,1.26087860343,455.
5.26,8659.,47.,21.,1275.,0.,0.,10002.,0.804468552532,0.89005031344,611.
5.28,8652.,37.,18.,1300.,0.,0.,10007.,0.762345717229,1.07140479178,481.
5.3,8644.,30.,11.,1321.,0.,0.,10006.,0.721653283772,1.25086569187,390.
5.32,8642.,18.,18.,1328.,0.,0.,10006.,0.6830367213,1.97321719487,234.
5.34,8635.,18.,13.,1338.,0.,0.,10004.,0.6464035971,1.8673881694,234.
5.36,8628.,18.,9.,1349.,0.,0.,10004.,0.612471355184,1.76936169275,234.
5.38,8621.,14.,9.,1358.,0.,0.,10002.,0.582012581353,2.16176101645,182.
5.4,8614.,11.,7.,1368.,0.,0.,10000.,0.555366186161,2.62536742549,143.
5.42,8611.,8.,6.,1372.,0.,0.,9997.,0.533240619867,3.46606402914,104.
5.44,8608.,7.,4.,1375.,0.,0.,9994.,0.51565557013,3.83058423525,91.
5.46,8609.,8.,1.,1376.,0.,0.,9994.,0.502970025857,3.26930516807,104.
5.48,8613.,6.,1.,1376.,0.,0.,9996.,0.495372427818,4.29322770775,78.
5.5,8617.,5.,0.,1375.,0.,0.,9997.,0.492961478383,5.12679937518,65.
5.52,8622.,4.,1.,1371.,0.,0.,9998.,0.495790860508,6.4452811866,52.
5.54,8624.,2.,4.,1369.,0.,0.,9999.,0.503594433655,13.093455275,26.
5.56,8628.,1.,1.,1369.,0.,0.,9999.,0.51659520196,26.8629505019,13.
5.58,8628.,1.,1.,1368.,0.,0.,9998.,0.534239913619,27.7804755082,13.
5.6,8627.,0.,1.,1368.,0.,0.,9996.,0.556426899528,inf,0.
5.62,8629.,1.,1.,1365.,0.,0.,9996.,0.582902341055,30.3109217349,13.
5.64,8635.,1.,1.,1362.,0.,0.,9999.,0.61327477533,31.8902883172,13.
5.66,8636.,2.,1.,1360.,0.,0.,9999.,0.646801727207,16.8168449074,26.
5.68,8639.,1.,1.,1358.,0.,0.,9999.,0.683277618187,35.5304361457,13.
5.7,8641.,1.,0.,1356.,0.,0.,9998.,0.721980063376,37.5429632956,13.
5.72,8643.,1.,0.,1353.,0.,0.,9997.,0.76231448975,39.640353467,13.
5.74,8651.,1.,0.,1349.,0.,0.,10001.,0.803805673185,41.7978950056,13.
5.76,8653.,1.,0.,1349.,0.,0.,10003.,0.845249392267,43.9529683979,13.
5.78,8658.,1.,1.,1346.,0.,0.,10006.,0.886587695462,46.102560164,13.
5.8,8661.,1.,1.,1346.,0.,0.,10009.,0.926759484977,48.1914932188,13.
5.82,8666.,2.,0.,1342.,0.,0.,10010.,0.965742829879,25.1093135768,26.
5.84,8661.,2.,4.,1340.,0.,0.,10007.,1.00178944637,26.0465256056,26.
5.86,8653.,8.,1.,1339.,0.,0.,10001.,1.03497965539,6.72736776001,104.
5.88,8655.,9.,4.,1335.,0.,0.,10003.,1.06521175986,6.15455683475,117.
5.9,8655.,8.,3.,1337.,0.,0.,10003.,1.09161909659,7.09552412785,104.
5.92,8655.,9.,4.,1336.,0.,0.,10004.,1.1137061059,6.43474638965,117.
5.94,8655.,10.,4.,1335.,0.,0.,10004.,1.1313436178,5.88298681257,130.
5.96,8646.,19.,3.,1335.,0.,0.,10003.,1.14306886961,3.12839901158,247.
5.98,8640.,22.,8.,1334.,0.,0.,10004.,1.14991008527,2.71796929245,286.
6.,8627.,22.,11.,1340.,0.,0.,10000.,1.15123282979,2.7210957795,286.
6.02,8612.,31.,6.,1350.,0.,0.,9999.,1.14675667388,1.92359184006,403.
6.04,8600.,23.,17.,1358.,0.,0.,9998.,1.13755591696,2.57186555139,299.
6.06,8575.,32.,11.,1378.,0.,0.,9996.,1.1217834368,1.8228980848,416.
6.08,8569.,29.,15.,1383.,0.,0.,9996.,1.10352228246,1.97872960992,377.
6.1,8559.,29.,12.,1397.,0.,0.,9997.,1.08015891747,1.9368366796,377.
6.12,8544.,32.,15.,1406.,0.,0.,9997.,1.05218158481,1.70979507531,416.
6.14,8530.,36.,14.,1421.,0.,0.,10001.,1.02026770605,1.47372001985,468.
6.16,8520.,35.,12.,1433.,0.,0.,10000.,0.98617027541,1.46516726632,455.
6.18,8509.,30.,21.,1440.,0.,0.,10000.,0.9491949279,1.64527120836,390.
6.2,8500.,24.,23.,1455.,0.,0.,10002.,0.910168426119,1.97203158992,312.
6.22,8486.,33.,14.,1468.,0.,0.,10001.,0.86940917061,1.36997808702,429.
6.24,8478.,30.,14.,1479.,0.,0.,10001.,0.828320514181,1.43575555791,390.
6.26,8463.,33.,16.,1490.,0.,0.,10002.,0.786259078424,1.23895369934,429.
6.28,8447.,33.,11.,1505.,0.,0.,9996.,0.745101779434,1.17409977365,429.
6.3,8450.,27.,8.,1511.,0.,0.,9996.,0.706162732333,1.36001711412,351.
6.32,8453.,23.,8.,1513.,0.,0.,9997.,0.668700220202,1.51184397611,299.
6.34,8444.,19.,15.,1519.,0.,0.,9997.,0.632548220367,1.73118460311,247.
6.36,8444.,16.,6.,1532.,0.,0.,9998.,0.599769560591,1.94925107192,208.
6.38,8445.,12.,3.,1536.,0.,0.,9996.,0.570472855512,2.47204904055,156.
6.4,8446.,5.,6.,1538.,0.,0.,9995.,0.544807208378,5.66599496713,65.
6.42,8449.,5.,4.,1537.,0.,0.,9995.,0.52331338033,5.44245915543,65.
6.44,8449.,7.,3.,1540.,0.,0.,9999.,0.505877707622,3.75794868519,91.
6.46,8452.,7.,3.,1539.,0.,0.,10001.,0.493451874112,3.6656424934,91.
6.48,8453.,6.,3.,1539.,0.,0.,10001.,0.48592704634,4.21136773495,78.
6.5,8452.,7.,1.,1541.,0.,0.,10001.,0.483328766133,3.59044226271,91.
6.52,8457.,5.,2.,1538.,0.,0.,10002.,0.486108383363,5.05552718697,65.
6.54,8459.,4.,2.,1535.,0.,0.,10000.,0.493909940139,6.4208292218,52.
6.56,8462.,3.,3.,1532.,0.,0.,10000.,0.506605407525,8.78116039711,39.
6.58,8462.,3.,0.,1532.,0.,0.,9997.,0.524013717956,9.08290444456,39.
6.6,8464.,2.,2.,1530.,0.,0.,9998.,0.545804470816,14.1909162412,26.
6.62,8467.,1.,0.,1531.,0.,0.,9999.,0.571787384796,29.7329440094,13.
6.64,8472.,0.,2.,1526.,0.,0.,10000.,0.601638023186,inf,0.
6.66,8472.,1.,0.,1525.,0.,0.,9998.,0.634582250224,32.9982770116,13.
6.68,8474.,1.,0.,1522.,0.,0.,9997.,0.670361488938,34.8587974248,13.
6.7,8476.,2.,0.,1519.,0.,0.,9997.,0.70826468593,18.4148818342,26.
6.72,8477.,3.,0.,1518.,0.,0.,9998.,0.747598471173,12.9583735003,39.
6.74,8473.,3.,0.,1518.,0.,0.,9994.,0.787818261809,13.655516538,39.
6.76,8480.,2.,1.,1511.,0.,0.,9994.,0.829096228207,21.5565019334,26.
6.78,8480.,3.,2.,1510.,0.,0.,9995.,0.869315994994,15.0681439132,39.
6.8,8480.,5.,2.,1509.,0.,0.,9996.,0.908571887477,9.44914762976,65.
6.82,8485.,6.,3.,1500.,0.,0.,9994.,0.947085934394,8.20807809808,78.
6.84,8481.,6.,5.,1502.,0.,0.,9994.,0.982245462976,8.51279401246,78.
6.86,8481.,7.,2.,1503.,0.,0.,9993.,1.01521894213,7.54162642724,91.
6.88,8480.,7.,6.,1502.,0.,0.,9995.,1.04450903931,7.75921000628,91.
6.9,8476.,6.,2.,1507.,0.,0.,9991.,1.07032657893,9.27616368406,78.
6.92,8481.,7.,4.,1503.,0.,0.,9995.,1.09229884968,8.11422002623,91.
6.94,8484.,8.,10.,1495.,0.,0.,9997.,1.10976777506,7.21349053791,104.
6.96,8471.,19.,5.,1504.,0.,0.,9999.,1.12038051774,3.06630457488,247.
6.98,8469.,22.,9.,1505.,0.,0.,10005.,1.12703878935,2.66390986573,286.
7.,8456.,23.,13.,1511.,0.,0.,10003.,1.12807525642,2.55043101451,299.
7.02,8443.,23.,13.,1519.,0.,0.,9998.,1.1243654201,2.5420435585,299.
7.04,8434.,20.,15.,1528.,0.,0.,9997.,1.11571003561,2.90084609258,260.
7.06,8421.,27.,8.,1542.,0.,0.,9998.,1.10141675052,2.12124707508,351.
7.08,8406.,29.,16.,1547.,0.,0.,9998.,1.08231447001,1.9407018083,377.
7.1,8385.,39.,10.,1564.,0.,0.,9998.,1.05809400965,1.41079201286,507.
7.12,8368.,38.,18.,1576.,0.,0.,10000.,1.03019828008,1.40974501485,494.
7.14,8361.,33.,18.,1589.,0.,0.,10001.,1.00005372688,1.57584223629,429.
7.16,8341.,40.,16.,1604.,0.,0.,10001.,0.965354904321,1.25496137562,520.
7.18,8326.,42.,14.,1620.,0.,0.,10002.,0.928595215226,1.14968931409,546.
7.2,8309.,44.,14.,1637.,0.,0.,10004.,0.889538534058,1.05127281298,572.
7.22,8299.,36.,20.,1650.,0.,0.,10005.,0.849910683306,1.22764876478,468.
7.24,8286.,33.,18.,1667.,0.,0.,10004.,0.809318891797,1.27529037495,429.
7.26,8278.,31.,19.,1679.,0.,0.,10007.,0.768687297803,1.28941095115,403.
7.28,8259.,37.,14.,1699.,0.,0.,10009.,0.727572257078,1.02253398292,481.
7.3,8259.,23.,17.,1709.,0.,0.,10008.,0.689373368422,1.55858326774,299.
7.32,8255.,21.,13.,1722.,0.,0.,10011.,0.652123582275,1.61478220373,273.
7.34,8248.,26.,9.,1729.,0.,0.,10012.,0.616939982805,1.23387996561,338.
7.36,8243.,24.,6.,1738.,0.,0.,10011.,0.5847324111,1.26692022405,312.
7.38,8248.,17.,10.,1740.,0.,0.,10015.,0.556108171457,1.70103675975,221.
7.4,8250.,13.,10.,1744.,0.,0.,10017.,0.530995500803,2.12398200321,169.
7.42,8253.,12.,5.,1750.,0.,0.,10020.,0.509898167353,2.2095587252,156.
7.44,8259.,9.,5.,1752.,0.,0.,10025.,0.493219098408,2.84971034636,117.
7.46,8258.,6.,3.,1756.,0.,0.,10023.,0.481067358253,4.16925043819,78.
7.48,8258.,7.,1.,1757.,0.,0.,10023.,0.473675343496,3.51873112311,91.
7.5,8264.,4.,4.,1750.,0.,0.,10022.,0.47158772544,6.13064043072,52.
7.52,8270.,2.,1.,1751.,0.,0.,10024.,0.474316335565,12.3322247247,26.
7.54,8270.,2.,1.,1745.,0.,0.,10018.,0.482006865116,12.532178493,26.
7.56,8280.,1.,0.,1739.,0.,0.,10020.,0.494719940208,25.7254368908,13.
7.58,8284.,1.,0.,1734.,0.,0.,10019.,0.511864536163,26.6169558805,13.
7.6,8289.,1.,0.,1728.,0.,0.,10018.,0.533452406644,27.7395251455,13.
7.62,8293.,1.,0.,1726.,0.,0.,10020.,0.558863211198,29.0608869823,13.
7.64,8299.,0.,2.,1723.,0.,0.,10024.,0.587941390429,inf,0.
7.66,8298.,0.,0.,1723.,0.,0.,10021.,0.620122478354,inf,0.
7.68,8302.,0.,0.,1719.,0.,0.,10021.,0.655181998242,inf,0.
7.7,8304.,0.,0.,1717.,0.,0.,10021.,0.692230309151,inf,0.
7.72,8302.,1.,1.,1714.,0.,0.,10018.,0.730703277828,37.996570447,13.
7.74,8307.,2.,0.,1711.,0.,0.,10020.,0.770379417851,20.0298648641,26.
7.76,8308.,2.,0.,1705.,0.,0.,10015.,0.810576421343,21.0749869549,26.
7.78,8310.,2.,1.,1704.,0.,0.,10017.,0.850017695206,22.1004600754,26.
7.8,8315.,2.,3.,1698.,0.,0.,10018.,0.888936863442,23.1123584495,26.
7.82,8308.,6.,4.,1697.,0.,0.,10015.,0.925384923084,8.02000266673,78.
7.84,8310.,4.,8.,1694.,0.,0.,10016.,0.960326738797,12.4842476044,52.
7.86,8304.,12.,1.,1697.,0.,0.,10014.,0.991946592629,4.29843523473,156.
7.88,8307.,8.,4.,1697.,0.,0.,10016.,1.02105478183,6.63685608192,104.
7.9,8300.,8.,6.,1701.,0.,0.,10015.,1.04559009357,6.79633560822,104.
7.92,8294.,15.,6.,1701.,0.,0.,10016.,1.06597477239,3.69537921097,195.
7.94,8289.,14.,14.,1697.,0.,0.,10014.,1.08241971706,4.02041609194,182.
7.96,8278.,16.,13.,1704.,0.,0.,10011.,1.09354181831,3.5540109095,208.
7.98,8268.,20.,9.,1712.,0.,0.,10009.,1.09985036241,2.85961094226,260.
8.,8254.,27.,12.,1717.,0.,0.,10010.,1.10035736572,2.11920677843,351.
8.02,8250.,16.,15.,1733.,0.,0.,10014.,1.09690795233,3.56495084508,208.
8.04,8239.,16.,11.,1747.,0.,0.,10013.,1.08817243807,3.53656042371,208.
8.06,8227.,17.,9.,1755.,0.,0.,10008.,1.07496752098,3.28813594654,221.
8.08,8218.,21.,10.,1758.,0.,0.,10007.,1.05715689982,2.61772184717,273.
8.1,8209.,24.,14.,1763.,0.,0.,10010.,1.03464294161,2.24172637348,312.
8.12,8202.,29.,13.,1766.,0.,0.,10010.,1.00875299333,1.8087984708,377.
8.14,8189.,31.,15.,1776.,0.,0.,10011.,0.978502515002,1.64135905742,403.
8.16,8179.,36.,16.,1781.,0.,0.,10012.,0.945565636093,1.36581702991,468.
8.18,8170.,35.,12.,1797.,0.,0.,10014.,0.910104694765,1.35215554651,455.
8.2,8163.,28.,16.,1806.,0.,0.,10013.,0.873122682087,1.62151355245,364.
8.22,8148.,27.,18.,1819.,0.,0.,10012.,0.833863177141,1.60595871153,351.
8.24,8141.,31.,10.,1830.,0.,0.,10012.,0.794520936951,1.33274479747,403.
8.26,8137.,26.,4.,1842.,0.,0.,10009.,0.755443187409,1.51088637482,338.
8.28,8136.,17.,9.,1845.,0.,0.,10007.,0.716879883885,2.19280905659,221.
8.3,8133.,18.,4.,1853.,0.,0.,10008.,0.678856230219,1.96114022063,234.
8.32,8128.,14.,14.,1852.,0.,0.,10008.,0.642283385073,2.3856240017,182.
8.34,8118.,20.,14.,1854.,0.,0.,10006.,0.607580258216,1.57970867136,260.
8.36,8114.,19.,10.,1867.,0.,0.,10010.,0.575639058785,1.57543321352,247.
8.38,8111.,11.,15.,1874.,0.,0.,10011.,0.547089674292,2.58624209665,143.
8.4,8107.,13.,6.,1884.,0.,0.,10010.,0.522156468005,2.08862587202,169.
8.42,8103.,11.,6.,1885.,0.,0.,10005.,0.501381232292,2.37016582538,143.
8.44,8101.,9.,8.,1884.,0.,0.,10002.,0.484895978304,2.80162120798,117.
8.46,8100.,7.,0.,1894.,0.,0.,10001.,0.472901109833,3.51297967304,91.
8.48,8107.,6.,1.,1886.,0.,0.,10000.,0.466083580472,4.03939103076,78.
8.5,8108.,6.,4.,1883.,0.,0.,10001.,0.463657079485,4.01836135554,78.
8.52,8109.,1.,6.,1884.,0.,0.,10000.,0.46619856347,24.2423253004,13.
8.54,8116.,0.,3.,1882.,0.,0.,10001.,0.473835235482,inf,0.
8.56,8116.,2.,1.,1880.,0.,0.,9999.,0.485939575697,12.6344289681,26.
8.58,8120.,2.,0.,1878.,0.,0.,10000.,0.502684340863,13.0697928624,26.
8.6,8128.,0.,1.,1870.,0.,0.,9999.,0.524084955642,inf,0.
8.62,8126.,1.,0.,1872.,0.,0.,9999.,0.548759216824,28.5354792749,13.
8.64,8132.,0.,1.,1865.,0.,0.,9998.,0.577608487295,inf,0.
8.66,8139.,2.,0.,1860.,0.,0.,10001.,0.609456519124,15.8458694972,26.
8.68,8143.,2.,0.,1856.,0.,0.,10001.,0.643919084412,16.7418961947,26.
8.7,8156.,2.,0.,1845.,0.,0.,10003.,0.681116311214,17.7090240916,26.
8.72,8159.,1.,1.,1841.,0.,0.,10002.,0.719265843082,37.4018238403,13.
8.74,8163.,0.,1.,1837.,0.,0.,10001.,0.758463265543,inf,0.
8.76,8173.,0.,0.,1833.,0.,0.,10006.,0.798122276522,inf,0.
8.78,8172.,2.,0.,1828.,0.,0.,10002.,0.837155479981,21.7660424795,26.
8.8,8178.,0.,2.,1821.,0.,0.,10001.,0.875776664719,inf,0.
8.82,8179.,2.,1.,1816.,0.,0.,9998.,0.912565321301,23.7266983538,26.
8.84,8178.,4.,1.,1813.,0.,0.,9996.,0.946963352512,12.3105235827,52.
8.86,8173.,6.,5.,1813.,0.,0.,9997.,0.97795831438,8.47563872463,78.
8.88,8170.,10.,1.,1815.,0.,0.,9996.,1.00622466342,5.23236824977,130.
8.9,8169.,9.,4.,1812.,0.,0.,9994.,1.03124978754,5.95833210576,117.
8.92,8165.,9.,5.,1814.,0.,0.,9993.,1.0518105272,6.07712749048,117.
8.94,8162.,9.,9.,1812.,0.,0.,9992.,1.06818212735,6.17171895801,117.
8.96,8152.,19.,3.,1817.,0.,0.,9991.,1.0790526781,2.95319680322,247.
8.98,8149.,16.,9.,1818.,0.,0.,9992.,1.08586470238,3.52906028274,208.
9.,8140.,25.,4.,1822.,0.,0.,9991.,1.087223457,2.26142479057,325.
9.02,8137.,23.,7.,1823.,0.,0.,9990.,1.0844827572,2.45187405975,299.
9.04,8126.,22.,13.,1827.,0.,0.,9988.,1.07593421703,2.54311724026,286.
9.06,8112.,22.,12.,1843.,0.,0.,9989.,1.06195733983,2.51008098506,286.
9.08,8098.,28.,12.,1852.,0.,0.,9990.,1.04349289352,1.93791537368,364.
9.1,8092.,29.,15.,1855.,0.,0.,9991.,1.02183608739,1.83225781187,377.
9.12,8085.,24.,17.,1867.,0.,0.,9993.,0.996054921819,2.15811899727,312.
9.14,8071.,32.,4.,1885.,0.,0.,9992.,0.966236542997,1.57013438237,416.
9.16,8066.,34.,8.,1885.,0.,0.,9993.,0.934274818835,1.42889089939,442.
9.18,8055.,40.,13.,1885.,0.,0.,9993.,0.899179801255,1.16893374163,520.
9.2,8040.,32.,16.,1905.,0.,0.,9993.,0.861687616252,1.40024237641,416.
9.22,8025.,37.,15.,1918.,0.,0.,9995.,0.822672271206,1.15618805683,481.
9.24,8018.,29.,19.,1927.,0.,0.,9993.,0.784004574621,1.40580130622,377.
9.26,8005.,35.,12.,1940.,0.,0.,9992.,0.744452672332,1.10604397032,455.
9.28,7997.,23.,23.,1946.,0.,0.,9989.,0.705902039605,1.59595243737,299.
9.3,7984.,25.,15.,1967.,0.,0.,9991.,0.667553230292,1.38851071901,325.
9.32,7977.,26.,9.,1981.,0.,0.,9993.,0.631297390257,1.26259478051,338.
9.34,7976.,23.,12.,1981.,0.,0.,9992.,0.597788871109,1.35152266512,299.
9.36,7978.,16.,15.,1986.,0.,0.,9995.,0.566840094856,1.84223030828,208.
9.38,7970.,22.,15.,1989.,0.,0.,9996.,0.538385868376,1.27254841616,286.
9.4,7969.,21.,8.,1998.,0.,0.,9996.,0.513987013138,1.27272974682,273.
9.42,7967.,22.,9.,2000.,0.,0.,9998.,0.493311241516,1.16600838904,286.
9.44,7971.,8.,15.,2003.,0.,0.,9997.,0.477353286745,3.10279636384,104.
9.46,7966.,10.,7.,2015.,0.,0.,9998.,0.465217358774,2.41913026563,130.
9.48,7972.,5.,10.,2013.,0.,0.,10000.,0.458322228139,4.76655117265,65.
9.5,7971.,5.,2.,2021.,0.,0.,9999.,0.455913889568,4.74150445151,65.
9.52,7974.,1.,3.,2021.,0.,0.,9999.,0.458483059443,23.841119091,13.
9.54,7974.,2.,0.,2021.,0.,0.,9997.,0.465731144177,12.1090097486,26.
9.56,7978.,1.,1.,2015.,0.,0.,9995.,0.477868092784,24.8491408248,13.
9.58,7981.,0.,1.,2014.,0.,0.,9996.,0.494276987202,inf,0.
9.6,7984.,0.,0.,2014.,0.,0.,9998.,0.514851476252,inf,0.
9.62,7988.,0.,0.,2012.,0.,0.,10000.,0.53938595559,inf,0.
9.64,7992.,1.,0.,2005.,0.,0.,9998.,0.567664415945,29.5185496291,13.
9.66,7996.,0.,1.,2002.,0.,0.,9999.,0.598868296751,inf,0.
9.68,7999.,0.,1.,1996.,0.,0.,9996.,0.632848476132,inf,0.
9.7,8006.,0.,0.,1993.,0.,0.,9999.,0.668857112874,inf,0.
9.72,8011.,0.,0.,1988.,0.,0.,9999.,0.706430623043,inf,0.
9.74,8018.,0.,0.,1982.,0.,0.,10000.,0.74506512299,inf,0.
9.76,8022.,0.,0.,1977.,0.,0.,9999.,0.783925012396,inf,0.
9.78,8025.,2.,0.,1972.,0.,0.,9999.,0.822343169387,21.3809224041,26.
9.8,8024.,2.,1.,1970.,0.,0.,9997.,0.859628722671,22.3503467895,26.
9.82,8021.,3.,1.,1967.,0.,0.,9992.,0.895473990743,15.5215491729,39.
9.84,8026.,4.,2.,1961.,0.,0.,9993.,0.929641668233,12.085341687,52.
9.86,8026.,8.,5.,1954.,0.,0.,9993.,0.960753122217,6.24489529441,104.
9.88,8022.,4.,8.,1957.,0.,0.,9991.,0.98849129164,12.8503867913,52.
9.9,8018.,7.,3.,1961.,0.,0.,9989.,1.01269428689,7.52287184544,91.
9.92,8022.,6.,2.,1960.,0.,0.,9990.,1.03369967792,8.95873054198,78.
9.94,8020.,8.,5.,1955.,0.,0.,9988.,1.05001856244,6.82512065584,104.
9.96,8015.,8.,5.,1958.,0.,0.,9986.,1.0614496542,6.89942275233,104.
9.98,8018.,6.,10.,1951.,0.,0.,9985.,1.06915779402,9.26603421482,78.
10.,8011.,8.,6.,1957.,0.,0.,9982.,1.07095823362,6.96122851855,104.
