t,prevalence
5.,2
5.02,7
5.04,2
5.06,5
5.08,8
5.1,5
5.12,7
5.14,12
5.16,12
5.18,15
5.2,10
5.22,13
5.24,12
5.26,15
5.28,12
5.3,7
5.32,5
5.34,11
5.36,4
5.38,6
5.4,8
5.42,8
5.44,2
5.46,2
5.48,0
5.5,1
5.52,2
5.54,1
5.56,0
5.58,1
5.6,0
5.62,0
5.64,0
5.66,0
5.68,0
5.7,0
5.72,0
5.74,0
5.76,0
5.78,0
5.8,0
5.82,1
5.84,0
5.86,0
5.88,3
5.9,4
5.92,3
5.94,2
5.96,3
5.98,2
6.,1
6.02,3
6.04,3
6.06,4
6.08,3
6.1,14
6.12,7
6.14,9
6.16,9
6.18,5
6.2,9
6.22,7
6.24,10
6.26,11
6.28,6
6.3,4
6.32,7
6.34,13
6.36,5
6.38,4
6.4,1
6.42,2
6.44,0
6.46,0
6.48,1
6.5,3
6.52,3
6.54,0
6.56,1
6.58,1
6.6,1
6.62,0
6.64,0
6.66,0
6.68,0
6.7,1
6.72,1
6.74,0
6.76,0
6.78,0
6.8,0
6.82,0
6.84,1
6.86,0
6.88,3
6.9,3
6.92,3
6.94,2
6.96,2
6.98,2
7.,4
7.02,5
7.04,8
7.06,4
7.08,6
7.1,9
7.12,8
7.14,11
7.16,11
7.18,11
7.2,6
7.22,11
7.24,9
7.26,12
7.28,9
7.3,7
7.32,10
7.34,19
7.36,6
7.38,10
7.4,6
7.42,4
7.44,6
7.46,1
7.48,0
7.5,0
7.52,0
7.54,0
7.56,0
7.58,1
7.6,0
7.62,0
7.64,0
7.66,0
7.68,0
7.7,0
7.72,0
7.74,0
7.76,0
7.78,1
7.8,0
7.82,3
7.84,1
7.86,0
7.88,0
7.9,0
7.92,3
7.94,2
7.96,2
7.98,6
8.,3
8.02,4
8.04,5
8.06,4
8.08,4
8.1,8
8.12,6
8.14,6
8.16,5
8.18,12
8.2,7
8.22,4
8.24,5
8.26,8
8.28,8
8.3,3
8.32,5
8.34,6
8.36,8
8.38,3
8.4,4
8.42,6
8.44,5
8.46,3
8.48,0
8.5,1
8.52,1
8.54,0
8.56,1
8.58,0
8.6,0
8.62,0
8.64,1
8.66,1
8.68,0
8.7,1
8.72,0
8.74,0
8.76,0
8.78,0
8.8,0
8.82,0
8.84,0
8.86,0
8.88,0
8.9,2
8.92,2
8.94,1
8.96,1
8.98,1
9.,6
9.02,5
9.04,1
9.06,6
9.08,8
9.1,9
9.12,7
9.14,10
9.16,9
9.18,6
9.2,9
9.22,3
9.24,6
9.26,7
9.28,9
9.3,11
9.32,7
9.34,3
9.36,8
9.38,4
9.4,4
9.42,3
9.44,3
9.46,7
9.48,1
9.5,1
9.52,1
9.54,1
9.56,0
9.58,1
9.6,0
9.62,0
9.64,0
9.66,0
9.68,0
9.7,0
9.72,0
9.74,0
9.76,0
9.78,0
9.8,0
9.82,0
9.84,0
9.86,0
9.88,2
9.9,1
9.92,1
9.94,5
9.96,4
9.98,3
10.,1
