t,s,e,i,r,c,o,n,reff,coal,reportr
5.,5980.,20.,17.,3983.,0.,0.,10000.,1.08616993606,2.82404183375,260.
5.02,5965.,28.,11.,3996.,0.,0.,10000.,1.0810044893,2.00757976584,364.
5.04,5956.,32.,8.,3998.,0.,0.,9994.,1.07274377952,1.74320864172,416.
5.06,5956.,33.,10.,3998.,0.,0.,9997.,1.06042355246,1.67097044631,429.
5.08,5957.,26.,13.,4002.,0.,0.,9998.,1.04396251557,2.08792503114,338.
5.1,5957.,25.,11.,4005.,0.,0.,9998.,1.02315637555,2.12816526115,325.
5.12,5953.,22.,14.,4009.,0.,0.,9998.,0.997734811132,2.35828228086,286.
5.14,5944.,25.,16.,4010.,0.,0.,9995.,0.968272872777,2.01400757538,325.
5.16,5926.,36.,15.,4018.,0.,0.,9995.,0.934080676929,1.34922764445,468.
5.18,5916.,30.,17.,4032.,0.,0.,9995.,0.898701523803,1.55774930793,390.
5.2,5905.,38.,13.,4038.,0.,0.,9994.,0.861317900303,1.17864554778,494.
5.22,5902.,30.,17.,4046.,0.,0.,9995.,0.823520186768,1.4274349904,390.
5.24,5900.,21.,19.,4057.,0.,0.,9997.,0.784917438295,1.9436050853,273.
5.26,5901.,26.,13.,4060.,0.,0.,10000.,0.746357709054,1.49271541811,338.
5.28,5899.,27.,17.,4053.,0.,0.,9996.,0.708246975433,1.36403121195,351.
5.3,5902.,20.,17.,4058.,0.,0.,9997.,0.671269742097,1.74530132945,260.
5.32,5908.,15.,13.,4061.,0.,0.,9997.,0.636142351424,2.20529348494,195.
5.34,5912.,16.,11.,4059.,0.,0.,9998.,0.602739459942,1.95890324481,208.
5.36,5913.,21.,3.,4061.,0.,0.,9998.,0.571659336742,1.41553740527,273.
5.38,5910.,18.,5.,4062.,0.,0.,9995.,0.543449866516,1.56996628105,234.
5.4,5908.,11.,10.,4065.,0.,0.,9994.,0.518762929401,2.45233384808,143.
5.42,5909.,11.,8.,4067.,0.,0.,9995.,0.498154141188,2.35491048562,143.
5.44,5908.,10.,7.,4070.,0.,0.,9995.,0.481667911009,2.50467313725,130.
5.46,5920.,10.,7.,4056.,0.,0.,9993.,0.47081228553,2.44822388476,130.
5.48,5919.,10.,5.,4058.,0.,0.,9992.,0.463545928802,2.41043882977,130.
5.5,5930.,8.,5.,4051.,0.,0.,9994.,0.461886380813,3.00226147528,104.
5.52,5940.,5.,5.,4042.,0.,0.,9992.,0.465190541829,4.83798163502,65.
5.54,5951.,1.,6.,4033.,0.,0.,9991.,0.473372428505,24.6153662823,13.
5.56,5958.,2.,0.,4030.,0.,0.,9990.,0.485987430403,12.6356731905,26.
5.58,5970.,1.,2.,4022.,0.,0.,9995.,0.503296703823,26.1714285988,13.
5.6,5979.,0.,3.,4014.,0.,0.,9996.,0.524892175007,inf,0.
5.62,5982.,0.,2.,4009.,0.,0.,9993.,0.550180666729,inf,0.
5.64,5986.,0.,0.,4007.,0.,0.,9993.,0.57900642054,inf,0.
5.66,5993.,0.,0.,3999.,0.,0.,9992.,0.611364453524,inf,0.
5.68,6001.,0.,0.,3989.,0.,0.,9990.,0.646608864081,inf,0.
5.7,6009.,0.,0.,3982.,0.,0.,9991.,0.683849924827,inf,0.
5.72,6021.,0.,0.,3969.,0.,0.,9990.,0.723328735935,inf,0.
5.74,6028.,0.,0.,3965.,0.,0.,9993.,0.762954720767,inf,0.
5.76,6039.,0.,0.,3953.,0.,0.,9992.,0.803811587395,inf,0.
5.78,6049.,1.,0.,3942.,0.,0.,9992.,0.844284860785,43.9028127608,13.
5.8,6060.,4.,0.,3930.,0.,0.,9994.,0.883926583545,11.4910455861,52.
5.82,6065.,5.,0.,3923.,0.,0.,9993.,0.921520559573,9.58381381956,65.
5.84,6072.,3.,3.,3916.,0.,0.,9994.,0.957189568783,16.5912858589,39.
5.86,6076.,5.,3.,3906.,0.,0.,9990.,0.990270950966,10.29881789,65.
5.88,6082.,9.,2.,3896.,0.,0.,9989.,1.02027390161,5.89491587595,117.
5.9,6089.,9.,3.,3887.,0.,0.,9988.,1.04687538273,6.04861332242,117.
5.92,6099.,6.,6.,3880.,0.,0.,9991.,1.06959684179,9.26983929551,78.
5.94,6098.,7.,8.,3877.,0.,0.,9990.,1.08646639992,8.07089325658,91.
5.96,6093.,14.,4.,3877.,0.,0.,9988.,1.09807829031,4.07857650686,182.
5.98,6090.,15.,6.,3876.,0.,0.,9987.,1.1050941815,3.83099316253,195.
6.,6083.,16.,5.,3881.,0.,0.,9985.,1.10653802125,3.59624856908,208.
6.02,6079.,18.,5.,3878.,0.,0.,9980.,1.10387183259,3.18896307192,234.
6.04,6080.,18.,4.,3880.,0.,0.,9982.,1.09639406173,3.16736062277,234.
6.06,6081.,15.,10.,3873.,0.,0.,9979.,1.08463183899,3.76005704184,195.
6.08,6076.,20.,10.,3872.,0.,0.,9978.,1.06695156091,2.77407405837,260.
6.1,6071.,18.,15.,3873.,0.,0.,9977.,1.04493146719,3.01869090521,234.
6.12,6057.,26.,17.,3875.,0.,0.,9975.,1.01750615327,2.03501230653,338.
6.14,6051.,27.,18.,3885.,0.,0.,9981.,0.987085698965,1.90105393875,351.
6.16,6047.,28.,18.,3886.,0.,0.,9979.,0.954681452797,1.77297984091,364.
6.18,6031.,36.,11.,3901.,0.,0.,9979.,0.917640170729,1.32548024661,468.
6.2,6031.,31.,7.,3913.,0.,0.,9982.,0.880754111299,1.47739399315,403.
6.22,6027.,28.,18.,3906.,0.,0.,9979.,0.842310106318,1.56429019745,364.
6.24,6015.,30.,18.,3915.,0.,0.,9978.,0.801740440465,1.38968343014,390.
6.26,6006.,30.,19.,3927.,0.,0.,9982.,0.761007909574,1.31908037659,390.
6.28,6004.,28.,22.,3929.,0.,0.,9983.,0.721792212818,1.34047125238,364.
6.3,6005.,29.,14.,3934.,0.,0.,9982.,0.684010872036,1.22650225331,377.
6.32,6003.,16.,26.,3938.,0.,0.,9983.,0.647277912539,2.10365321575,208.
6.34,5996.,27.,17.,3945.,0.,0.,9985.,0.612099305361,1.17885792144,351.
6.36,5997.,22.,13.,3954.,0.,0.,9986.,0.580477033521,1.37203662469,286.
6.38,5999.,19.,13.,3957.,0.,0.,9988.,0.552020406104,1.51079269039,247.
6.4,6003.,13.,6.,3964.,0.,0.,9986.,0.527526855959,2.11010742384,169.
6.42,6013.,10.,5.,3962.,0.,0.,9990.,0.507175503569,2.63731261856,130.
6.44,6019.,8.,6.,3956.,0.,0.,9989.,0.491012282906,3.19157983889,104.
6.46,6026.,5.,4.,3954.,0.,0.,9989.,0.479434278419,4.98611649556,65.
6.48,6030.,2.,4.,3951.,0.,0.,9987.,0.472475310168,12.2843580644,26.
6.5,6041.,1.,2.,3946.,0.,0.,9990.,0.47072054738,24.4774684637,13.
6.52,6042.,4.,1.,3941.,0.,0.,9988.,0.473368161107,6.1537860944,52.
6.54,6048.,0.,0.,3945.,0.,0.,9993.,0.480992010622,inf,0.
6.56,6053.,0.,0.,3941.,0.,0.,9994.,0.493538861537,inf,0.
6.58,6058.,1.,0.,3935.,0.,0.,9994.,0.510766584917,26.5598624157,13.
6.6,6068.,1.,0.,3926.,0.,0.,9995.,0.532758719159,27.7034533962,13.
6.62,6075.,1.,1.,3918.,0.,0.,9995.,0.558622324718,29.0483608854,13.
6.64,6079.,1.,0.,3912.,0.,0.,9992.,0.588060857045,30.5791645664,13.
6.66,6085.,1.,0.,3907.,0.,0.,9993.,0.620687539434,32.2757520506,13.
6.68,6092.,1.,0.,3898.,0.,0.,9991.,0.656348430432,34.1301183824,13.
6.7,6097.,1.,0.,3892.,0.,0.,9990.,0.693934157486,36.0845761893,13.
6.72,6107.,0.,2.,3884.,0.,0.,9993.,0.733440035124,inf,0.
6.74,6122.,0.,2.,3870.,0.,0.,9994.,0.774774624956,inf,0.
6.76,6136.,1.,1.,3856.,0.,0.,9994.,0.816559177092,42.4610772088,13.
6.78,6145.,1.,2.,3847.,0.,0.,9995.,0.857426558402,44.5861810369,13.
6.8,6148.,3.,2.,3839.,0.,0.,9992.,0.896941977221,15.5469942718,39.
6.82,6156.,6.,1.,3832.,0.,0.,9995.,0.93516000347,8.10472003008,78.
6.84,6157.,4.,1.,3827.,0.,0.,9989.,0.97107479052,12.6239722768,52.
6.86,6162.,5.,1.,3820.,0.,0.,9988.,1.00448839303,10.4466792875,65.
6.88,6171.,2.,3.,3814.,0.,0.,9990.,1.03510029687,26.9126077186,26.
6.9,6170.,5.,3.,3812.,0.,0.,9990.,1.06058925506,11.0301282526,65.
6.92,6172.,3.,4.,3811.,0.,0.,9990.,1.08250738211,18.76346129,39.
6.94,6176.,8.,5.,3803.,0.,0.,9992.,1.10014322863,7.15093098608,104.
6.96,6172.,9.,11.,3797.,0.,0.,9989.,1.11220428812,6.42606922027,117.
6.98,6166.,16.,8.,3797.,0.,0.,9987.,1.11888517621,3.63637682269,208.
7.,6156.,19.,10.,3801.,0.,0.,9986.,1.11970506642,3.06445597126,247.
7.02,6151.,15.,13.,3804.,0.,0.,9983.,1.11661049495,3.8709163825,195.
7.04,6142.,26.,14.,3803.,0.,0.,9985.,1.10724162443,2.21448324887,338.
7.06,6135.,35.,13.,3806.,0.,0.,9989.,1.09316802963,1.62413535831,455.
7.08,6124.,35.,21.,3810.,0.,0.,9990.,1.07408865976,1.59578886594,455.
7.1,6109.,42.,7.,3829.,0.,0.,9987.,1.05041912986,1.30051892269,546.
7.12,6103.,34.,19.,3832.,0.,0.,9988.,1.02389921782,1.56596350961,442.
7.14,6087.,37.,19.,3841.,0.,0.,9984.,0.992659931211,1.39508963305,481.
7.16,6073.,40.,14.,3857.,0.,0.,9984.,0.958306090118,1.24579791715,520.
7.18,6059.,47.,15.,3863.,0.,0.,9984.,0.921438790986,1.01946419428,611.
7.2,6051.,42.,25.,3865.,0.,0.,9983.,0.883586349794,1.09396405213,546.
7.22,6035.,45.,26.,3877.,0.,0.,9983.,0.84309020947,0.974237575387,585.
7.24,6027.,46.,12.,3899.,0.,0.,9984.,0.802857146244,0.907577643581,598.
7.26,6017.,37.,19.,3909.,0.,0.,9982.,0.762401696954,1.07148346599,481.
7.28,6016.,35.,17.,3918.,0.,0.,9986.,0.72301756086,1.07419751899,455.
7.3,6005.,35.,12.,3932.,0.,0.,9984.,0.683873850627,1.0160411495,455.
7.32,5999.,26.,19.,3940.,0.,0.,9984.,0.64678182126,1.29356364252,338.
7.34,5998.,22.,18.,3945.,0.,0.,9983.,0.612426143808,1.44755270355,286.
7.36,5987.,22.,14.,3957.,0.,0.,9980.,0.579857490083,1.37057224929,286.
7.38,5987.,19.,8.,3967.,0.,0.,9981.,0.551302556695,1.5088280499,247.
7.4,5994.,21.,4.,3965.,0.,0.,9984.,0.526841477141,1.30455984816,273.
7.42,5995.,18.,7.,3960.,0.,0.,9980.,0.506163937179,1.46225137407,234.
7.44,6006.,14.,4.,3959.,0.,0.,9983.,0.490246252886,1.82091465358,182.
7.46,6018.,14.,4.,3954.,0.,0.,9990.,0.478749863121,1.77821377731,182.
7.48,6016.,9.,7.,3957.,0.,0.,9989.,0.471283973078,2.72297406667,117.
7.5,6021.,8.,6.,3955.,0.,0.,9990.,0.469162128087,3.04955383257,104.
7.52,6028.,6.,3.,3956.,0.,0.,9993.,0.472035012265,4.0909701063,78.
7.54,6029.,2.,6.,3954.,0.,0.,9991.,0.479576940255,12.4690004466,26.
7.56,6045.,0.,3.,3948.,0.,0.,9996.,0.492787954855,inf,0.
7.58,6053.,1.,1.,3941.,0.,0.,9996.,0.510242911363,26.5326313909,13.
7.6,6063.,0.,2.,3933.,0.,0.,9998.,0.532160000919,inf,0.
7.62,6076.,1.,1.,3915.,0.,0.,9993.,0.558826100141,29.0589572073,13.
7.64,6087.,1.,1.,3906.,0.,0.,9995.,0.588658009822,30.6102165107,13.
7.66,6095.,1.,0.,3900.,0.,0.,9996.,0.621520981353,32.3190910304,13.
7.68,6105.,1.,1.,3887.,0.,0.,9994.,0.657551599465,34.1926831722,13.
7.7,6107.,2.,0.,3884.,0.,0.,9993.,0.694863646453,18.0664548078,26.
7.72,6111.,1.,2.,3873.,0.,0.,9987.,0.734361353598,38.1867903871,13.
7.74,6116.,1.,0.,3870.,0.,0.,9987.,0.774557806113,40.2770059179,13.
7.76,6129.,1.,0.,3860.,0.,0.,9990.,0.815954217202,42.4296192945,13.
7.78,6133.,1.,0.,3851.,0.,0.,9985.,0.856609207406,44.5436787851,13.
7.8,6139.,3.,0.,3840.,0.,0.,9982.,0.896526196197,15.5397874007,39.
7.82,6144.,4.,3.,3827.,0.,0.,9978.,0.934927250899,12.1540542617,52.
7.84,6146.,10.,2.,3818.,0.,0.,9976.,0.970603056936,5.04713589607,130.
7.86,6150.,6.,10.,3812.,0.,0.,9978.,1.00353697524,8.69732045206,78.
7.88,6141.,11.,7.,3817.,0.,0.,9976.,1.03151377471,4.87624693501,143.
7.9,6150.,10.,6.,3812.,0.,0.,9978.,1.05842274312,5.5037982642,130.
7.92,6149.,10.,6.,3812.,0.,0.,9977.,1.07987865849,5.61536902415,130.
7.94,6152.,13.,4.,3808.,0.,0.,9977.,1.09751565219,4.39006260877,169.
7.96,6159.,13.,4.,3799.,0.,0.,9975.,1.11141936788,4.44567747153,169.
7.98,6153.,15.,7.,3797.,0.,0.,9972.,1.11820568214,3.87644636474,195.
8.,6148.,19.,5.,3801.,0.,0.,9973.,1.11970761975,3.06446295932,247.
8.02,6149.,16.,8.,3801.,0.,0.,9974.,1.11725467014,3.63107767794,208.
8.04,6152.,18.,7.,3797.,0.,0.,9974.,1.11026749128,3.20743941924,234.
8.06,6148.,23.,9.,3790.,0.,0.,9970.,1.09757212459,2.48146741212,299.
8.08,6138.,21.,10.,3799.,0.,0.,9968.,1.07892012072,2.67161172749,273.
8.1,6133.,21.,13.,3800.,0.,0.,9967.,1.05666191258,2.61649616447,273.
8.12,6125.,28.,8.,3806.,0.,0.,9967.,1.02975523798,1.91240258483,364.
8.14,6125.,24.,11.,3807.,0.,0.,9967.,1.00056059999,2.16788129999,312.
8.16,6117.,32.,10.,3808.,0.,0.,9967.,0.966895550292,1.57120526922,416.
8.18,6118.,29.,6.,3815.,0.,0.,9968.,0.931904812551,1.67100173285,377.
8.2,6119.,23.,6.,3820.,0.,0.,9968.,0.894860503555,2.0231628776,299.
8.22,6117.,26.,8.,3816.,0.,0.,9967.,0.85591741904,1.71183483808,338.
8.24,6111.,27.,11.,3820.,0.,0.,9969.,0.81527166016,1.57015282697,351.
8.26,6111.,18.,12.,3830.,0.,0.,9971.,0.775166464365,2.23936978594,234.
8.28,6118.,17.,9.,3832.,0.,0.,9976.,0.736013214849,2.25133453954,221.
8.3,6117.,13.,12.,3836.,0.,0.,9978.,0.697047765556,2.78819106223,169.
8.32,6114.,16.,10.,3839.,0.,0.,9979.,0.659510823153,2.14341017525,208.
8.34,6119.,16.,12.,3833.,0.,0.,9980.,0.624968665822,2.03114816392,208.
8.36,6119.,15.,7.,3838.,0.,0.,9979.,0.592701443677,2.05469833808,195.
8.38,6120.,16.,6.,3837.,0.,0.,9979.,0.563662579147,1.83190338223,208.
8.4,6121.,13.,9.,3835.,0.,0.,9978.,0.538327631916,2.15331052766,169.
8.42,6123.,10.,8.,3834.,0.,0.,9975.,0.517230240534,2.68959725078,130.
8.44,6131.,7.,7.,3832.,0.,0.,9977.,0.500750475147,3.71986067252,91.
8.46,6137.,9.,8.,3827.,0.,0.,9981.,0.488656899765,2.82335097642,117.
8.48,6145.,4.,11.,3821.,0.,0.,9981.,0.481775474889,6.26308117356,52.
8.5,6153.,3.,3.,3822.,0.,0.,9981.,0.479880019761,8.31792034253,39.
8.52,6159.,1.,0.,3822.,0.,0.,9982.,0.482824717536,25.1068853119,13.
8.54,6169.,1.,0.,3816.,0.,0.,9986.,0.490958943998,25.5298650879,13.
8.56,6173.,2.,0.,3814.,0.,0.,9989.,0.503575149091,13.0929538764,26.
8.58,6180.,2.,0.,3808.,0.,0.,9990.,0.521261369043,13.5527955951,26.
8.6,6188.,1.,0.,3801.,0.,0.,9990.,0.543566407323,28.2654531808,13.
8.62,6195.,1.,0.,3793.,0.,0.,9989.,0.569999010266,29.6399485338,13.
8.64,6201.,0.,1.,3788.,0.,0.,9990.,0.599982796127,inf,0.
8.66,6209.,0.,0.,3778.,0.,0.,9987.,0.633716393036,inf,0.
8.68,6213.,1.,0.,3769.,0.,0.,9983.,0.669921317776,34.8359085243,13.
8.7,6219.,1.,0.,3760.,0.,0.,9980.,0.708528907721,36.8435032015,13.
8.72,6223.,0.,1.,3754.,0.,0.,9978.,0.748494961461,inf,0.
8.74,6223.,1.,1.,3751.,0.,0.,9976.,0.788977773643,41.0268442294,13.
8.76,6226.,0.,0.,3747.,0.,0.,9973.,0.830280724402,inf,0.
8.78,6230.,1.,0.,3743.,0.,0.,9974.,0.871117072838,45.2980877876,13.
8.8,6240.,0.,1.,3731.,0.,0.,9972.,0.912189851087,inf,0.
8.82,6247.,2.,0.,3724.,0.,0.,9973.,0.951077260359,24.7280087693,26.
8.84,6250.,5.,2.,3717.,0.,0.,9974.,0.987225109397,10.2671411377,65.
8.86,6254.,10.,3.,3704.,0.,0.,9971.,1.02122378941,5.31036370494,130.
8.88,6259.,10.,1.,3701.,0.,0.,9971.,1.05186162304,5.46968043979,130.
8.9,6260.,11.,2.,3698.,0.,0.,9971.,1.07811022272,5.09652105284,143.
8.92,6266.,12.,6.,3690.,0.,0.,9974.,1.10075702092,4.76994709066,156.
8.94,6266.,14.,4.,3686.,0.,0.,9970.,1.11863808274,4.15494145018,182.
8.96,6265.,15.,5.,3685.,0.,0.,9970.,1.13111452134,3.92119700732,195.
8.98,6265.,16.,5.,3682.,0.,0.,9968.,1.13901671021,3.70180430818,208.
9.,6255.,19.,7.,3686.,0.,0.,9967.,1.13988082915,3.11967384821,247.
9.02,6261.,16.,9.,3685.,0.,0.,9971.,1.13794700482,3.69832776566,208.
9.04,6244.,24.,16.,3687.,0.,0.,9971.,1.12721001584,2.44228836764,312.
9.06,6240.,28.,6.,3699.,0.,0.,9973.,1.11366132724,2.06822817915,364.
9.08,6237.,26.,10.,3698.,0.,0.,9971.,1.09599220495,2.19198440991,338.
9.1,6239.,25.,12.,3694.,0.,0.,9970.,1.0746013317,2.23517076994,325.
9.12,6237.,31.,5.,3696.,0.,0.,9969.,1.04837467889,1.7585639775,403.
9.14,6234.,24.,15.,3698.,0.,0.,9971.,1.01795796342,2.2055755874,312.
9.16,6223.,32.,8.,3710.,0.,0.,9973.,0.983058859072,1.59747064599,416.
9.18,6215.,31.,18.,3710.,0.,0.,9974.,0.946110539101,1.5870241301,403.
9.2,6208.,34.,14.,3721.,0.,0.,9977.,0.907057152393,1.38726388013,442.
9.22,6207.,32.,13.,3723.,0.,0.,9975.,0.867814063177,1.41019785266,416.
9.24,6205.,23.,18.,3725.,0.,0.,9971.,0.827646204639,1.87120011484,299.
9.26,6200.,27.,16.,3729.,0.,0.,9972.,0.786377045719,1.5145039399,351.
9.28,6188.,34.,6.,3742.,0.,0.,9970.,0.744882423345,1.13923194159,442.
9.3,6191.,21.,14.,3749.,0.,0.,9975.,0.705692428977,1.74742887175,273.
9.32,6191.,17.,6.,3757.,0.,0.,9971.,0.668352540322,2.04437247628,221.
9.34,6187.,14.,12.,3758.,0.,0.,9971.,0.63248427355,2.34922730176,182.
9.36,6182.,21.,8.,3760.,0.,0.,9971.,0.59928421547,1.48394186688,273.
9.38,6188.,15.,7.,3761.,0.,0.,9971.,0.570382763163,1.9773269123,195.
9.4,6186.,15.,5.,3766.,0.,0.,9972.,0.544371572968,1.88715478629,195.
9.42,6192.,7.,8.,3765.,0.,0.,9972.,0.523216259039,3.88674935286,91.
9.44,6202.,10.,2.,3759.,0.,0.,9973.,0.506752580628,2.63511341927,130.
9.46,6213.,6.,3.,3753.,0.,0.,9975.,0.495005947349,4.29005154369,78.
9.48,6212.,7.,1.,3751.,0.,0.,9971.,0.487516801236,3.62155338061,91.
9.5,6224.,4.,5.,3739.,0.,0.,9972.,0.485855499222,6.31612148989,52.
9.52,6228.,3.,1.,3739.,0.,0.,9971.,0.488772478766,8.47205629862,39.
9.54,6231.,2.,1.,3736.,0.,0.,9970.,0.496689021319,12.9139145543,26.
9.56,6236.,1.,1.,3731.,0.,0.,9969.,0.509735096284,26.5062250068,13.
9.58,6240.,1.,0.,3725.,0.,0.,9966.,0.527589641656,27.4346613661,13.
9.6,6251.,0.,1.,3712.,0.,0.,9964.,0.550533273787,inf,0.
9.62,6260.,1.,0.,3701.,0.,0.,9962.,0.577540706514,30.0321167387,13.
9.64,6264.,1.,0.,3696.,0.,0.,9961.,0.607842921324,31.6078319088,13.
9.66,6269.,1.,0.,3688.,0.,0.,9958.,0.641703605692,33.368587496,13.
9.68,6276.,0.,1.,3681.,0.,0.,9958.,0.678413260664,inf,0.
9.7,6278.,1.,2.,3677.,0.,0.,9958.,0.716830949468,37.2752093724,13.
9.72,6289.,1.,0.,3672.,0.,0.,9962.,0.757648272183,39.3977101535,13.
9.74,6299.,0.,2.,3662.,0.,0.,9963.,0.799655422118,inf,0.
9.76,6306.,1.,2.,3653.,0.,0.,9962.,0.841877857736,43.7776486023,13.
9.78,6311.,2.,0.,3649.,0.,0.,9962.,0.883505963927,22.9711550621,26.
9.8,6316.,1.,1.,3643.,0.,0.,9961.,0.924319461989,48.0646120234,13.
9.82,6322.,4.,0.,3635.,0.,0.,9961.,0.963655185237,12.5275174081,52.
9.84,6330.,2.,2.,3629.,0.,0.,9963.,1.0009655231,26.0251036005,26.
9.86,6342.,3.,2.,3619.,0.,0.,9966.,1.03611298703,17.9592917752,39.
9.88,6350.,6.,1.,3611.,0.,0.,9968.,1.0674758804,9.25145763011,78.
9.9,6351.,8.,3.,3603.,0.,0.,9965.,1.09444100649,7.11386654221,104.
9.92,6353.,13.,7.,3594.,0.,0.,9967.,1.11682424801,4.46729699204,169.
9.94,6356.,11.,10.,3590.,0.,0.,9967.,1.13504687764,5.36567614882,143.
9.96,6353.,13.,6.,3596.,0.,0.,9968.,1.14723261963,4.58893047852,169.
9.98,6356.,12.,3.,3597.,0.,0.,9968.,1.15556108701,5.00743137703,156.
10.,6368.,9.,7.,3588.,0.,0.,9972.,1.15989153456,6.70159553302,117.
