t,prevalence
5.,5
5.02,3
5.04,3
5.06,6
5.08,7
5.1,3
5.12,3
5.14,11
5.16,14
5.18,7
5.2,6
5.22,10
5.24,8
5.26,9
5.28,4
5.3,5
5.32,8
5.34,14
5.36,7
5.38,3
5.4,6
5.42,1
5.44,3
5.46,3
5.48,3
5.5,0
5.52,0
5.54,2
5.56,0
5.58,0
5.6,1
5.62,2
5.64,0
5.66,0
5.68,0
5.7,0
5.72,0
5.74,0
5.76,0
5.78,0
5.8,1
5.82,1
5.84,0
5.86,3
5.88,1
5.9,2
5.92,1
5.94,2
5.96,2
5.98,6
6.,6
6.02,2
6.04,4
6.06,6
6.08,8
6.1,5
6.12,5
6.14,5
6.16,10
6.18,8
6.2,10
6.22,10
6.24,6
6.26,7
6.28,5
6.3,6
6.32,3
6.34,5
6.36,8
6.38,2
6.4,3
6.42,2
6.44,2
6.46,3
6.48,3
6.5,2
6.52,2
6.54,0
6.56,0
6.58,0
6.6,0
6.62,0
6.64,0
6.66,0
6.68,0
6.7,0
6.72,0
6.74,0
6.76,0
6.78,0
6.8,1
6.82,1
6.84,0
6.86,0
6.88,4
6.9,2
6.92,0
6.94,2
6.96,1
6.98,1
7.,1
7.02,3
7.04,8
7.06,7
7.08,9
7.1,9
7.12,8
7.14,8
7.16,14
7.18,8
7.2,4
7.22,3
7.24,3
7.26,4
7.28,14
7.3,4
7.32,5
7.34,5
7.36,14
7.38,11
7.4,4
7.42,4
7.44,4
7.46,8
7.48,0
7.5,3
7.52,0
7.54,0
7.56,0
7.58,0
7.6,0
7.62,0
7.64,0
7.66,0
7.68,0
7.7,0
7.72,0
7.74,0
7.76,1
7.78,1
7.8,2
7.82,2
7.84,0
7.86,0
7.88,2
7.9,1
7.92,0
7.94,1
7.96,4
7.98,2
8.,3
8.02,2
8.04,1
8.06,8
8.08,5
8.1,8
8.12,9
8.14,9
8.16,11
8.18,9
8.2,11
8.22,11
8.24,8
8.26,9
8.28,12
8.3,10
8.32,2
8.34,10
8.36,3
8.38,12
8.4,6
8.42,3
8.44,5
8.46,0
8.48,2
8.5,1
8.52,2
8.54,1
8.56,0
8.58,1
8.6,0
8.62,0
8.64,0
8.66,0
8.68,0
8.7,0
8.72,0
8.74,0
8.76,0
8.78,0
8.8,0
8.82,0
8.84,0
8.86,2
8.88,3
8.9,1
8.92,3
8.94,5
8.96,3
8.98,6
9.,4
9.02,6
9.04,10
9.06,12
9.08,8
9.1,11
9.12,7
9.14,6
9.16,9
9.18,10
9.2,6
9.22,6
9.24,10
9.26,7
9.28,10
9.3,6
9.32,8
9.34,7
9.36,9
9.38,8
9.4,6
9.42,8
9.44,1
9.46,3
9.48,2
9.5,2
9.52,1
9.54,0
9.56,2
9.58,0
9.6,0
9.62,0
9.64,0
9.66,0
9.68,0
9.7,0
9.72,1
9.74,1
9.76,0
9.78,0
9.8,0
9.82,1
9.84,0
9.86,1
9.88,0
9.9,1
9.92,0
9.94,0
9.96,1
9.98,2
10.,1
