t,neff
5.,0.421839152286
5.02,0.607754382573
5.04,0.5193764813
5.06,0.582838391382
5.08,0.688407653808
5.1,0.801582041479
5.12,0.762282364215
5.14,0.682294040502
5.16,0.683851508583
5.18,0.688154199533
5.2,0.810430692201
5.22,0.775147942127
5.24,0.889272044926
5.26,0.828114563593
5.28,0.901843790397
5.3,0.863418069306
5.32,0.880631876763
5.34,0.962829725732
5.36,0.805061879923
5.38,0.662417232537
5.4,0.57797264982
5.42,0.320566430046
5.44,0.414104740854
5.46,0.296932033408
5.48,0.129057873599
5.5,0.172792498976
5.52,0.0428713165685
5.54,0.
5.56,0.
5.58,0.
5.6,0.
5.62,0.
5.64,0.
5.66,0.0325593613936
5.68,0.0615311468941
5.7,0.0290803358896
5.72,0.027519381416
5.74,0.
5.76,0.
5.78,0.0236045109919
5.8,0.0225522238531
5.82,0.
5.84,0.0416493427817
5.86,0.0603959910547
5.88,0.078244935389
5.9,0.114476926716
5.92,0.186908746106
5.94,0.257723966255
5.96,0.364007693362
5.98,0.271007447825
6.,0.252257652845
6.02,0.270994626724
6.04,0.327412208193
6.06,0.349786458528
6.08,0.449369295921
6.1,0.631312705588
6.12,0.50901786021
6.14,0.54458879256
6.16,0.836017339504
6.18,0.91323279232
6.2,0.838418474023
6.22,0.758385361095
6.24,0.745402235158
6.26,0.836693531951
6.28,0.633651673414
6.3,0.785375593578
6.32,0.798969494783
6.34,0.844062624461
6.36,0.787806392226
6.38,0.612290315674
6.4,0.603082511438
6.42,0.745016143155
6.44,0.526557901063
6.46,0.29041404208
6.48,0.294621749956
6.5,0.211262722505
6.52,0.167820695261
6.54,0.
6.56,0.
6.58,0.
6.6,0.0372406345538
6.62,0.0355282068218
6.64,0.
6.66,0.
6.68,0.
6.7,0.
6.72,0.
6.74,0.0512101057633
6.76,0.
6.78,0.069459035226
6.8,0.0885188455755
6.82,0.0424255781018
6.84,0.122590077297
6.86,0.138286236417
6.88,0.153445352617
6.9,0.14962355648
6.92,0.219854061384
6.94,0.234397585308
6.96,0.196024386121
6.98,0.212235994332
7.,0.317686953709
7.02,0.300702710796
7.04,0.320684477824
7.06,0.252239088878
7.08,0.329586052815
7.1,0.317618703651
7.12,0.248930994214
7.14,0.474154523405
7.16,0.675212709288
7.18,0.572942256577
7.2,0.664052416388
7.22,0.765512957561
7.24,0.706710147944
7.26,0.769686956556
7.28,0.622743090548
7.3,0.743753999622
7.32,0.544448794794
7.34,0.702366593401
7.36,0.808338764579
7.38,0.566497133337
7.4,0.445145848204
7.42,0.657521959932
7.44,0.439697022989
7.46,0.491756273793
7.48,0.457213824414
7.5,0.375410930187
7.52,0.124281036909
7.54,0.122188274495
7.56,0.118981114557
7.58,0.
7.6,0.0367563501364
7.62,0.0350343920853
7.64,0.
7.66,0.
7.68,0.
7.7,0.
7.72,0.
7.74,0.
7.76,0.0240248769677
7.78,0.045772861002
7.8,0.0656112258953
7.82,0.
7.84,0.060522654635
7.86,0.116992285768
7.88,0.0946205300949
7.9,0.11068784289
7.92,0.162510661923
7.94,0.142032742423
7.96,0.0876418669475
7.98,0.121827124869
8.,0.190970989174
8.02,0.26093643821
8.04,0.333142715774
8.06,0.354840984666
8.08,0.650484853779
8.1,0.590419548664
8.12,0.473042796319
8.14,0.527012550289
8.16,0.525015451632
8.18,0.566061867097
8.2,0.677391664232
8.22,0.639657905802
8.24,0.623760246418
8.26,0.783479335066
8.28,0.747120317616
8.3,0.563106544093
8.32,0.535471096101
8.34,0.377159897136
8.36,0.53009010516
8.38,0.522595228445
8.4,0.364759074078
8.42,0.30376938086
8.44,0.392371692663
8.46,0.281482701577
8.48,0.203975188927
8.5,0.204693374026
8.52,0.162703334869
8.54,0.
8.56,0.
8.58,0.03765922432
8.6,0.
8.62,0.0344254317233
8.64,0.0327093680987
8.66,0.0619322900541
8.68,0.0585482336455
8.7,0.0277069739906
8.72,0.0262226561156
8.74,0.0497130973141
8.76,0.0472154835783
8.78,0.0449321494016
8.8,0.0643611387235
8.82,0.0617383280514
8.84,0.0594427241726
8.86,0.11498784206
8.88,0.204592098699
8.9,0.181329278328
8.92,0.284449487498
8.94,0.262419293294
8.96,0.242219727147
8.98,0.292171136145
9.,0.30869148227
9.02,0.344221971323
9.04,0.38113696446
9.06,0.438320074203
9.08,0.37424991675
9.1,0.473237729255
9.12,0.37319211538
9.14,0.403764714854
9.16,0.597183047204
9.18,0.453935686497
9.2,0.667048043408
9.22,0.652357427296
9.24,0.755271237055
9.26,0.820783551544
9.28,0.602687287286
9.3,0.469815274526
9.32,0.291902827349
9.34,0.648279800982
9.36,0.651527212393
9.38,0.411419216534
9.4,0.538481576537
9.42,0.485954579993
9.44,0.696019562375
9.46,0.51517884963
9.48,0.160856536873
9.5,0.201863873774
9.52,0.120273473701
9.54,0.0788126947571
9.56,0.
9.58,0.0370756191288
9.6,0.0711380399043
9.62,0.0339438461297
9.64,0.0322522105964
9.66,0.0305386982399
9.68,0.0289082726426
9.7,0.0273467190978
9.72,0.0258702953444
9.74,0.0245228284569
9.76,0.0932945991417
9.78,0.0888558713764
9.8,0.10612499871
9.82,0.0610413889249
9.84,0.0587955995963
9.86,0.151778811475
9.88,0.110489018378
9.9,0.197612244996
9.92,0.158403960506
9.94,0.173190597228
9.96,0.188330829385
9.98,0.255264769162
10.,0.305845586958
