t,s,e,i,r,c,o,n,reff,coal,reportr
5.,7441.,28.,4.,2526.,0.,0.,9999.,1.08168928753,2.00885153398,364.
5.02,7437.,23.,10.,2530.,0.,0.,10000.,1.07856427137,2.43849313527,299.
5.04,7427.,23.,10.,2541.,0.,0.,10001.,1.06974891887,2.4185627731,299.
5.06,7421.,22.,9.,2547.,0.,0.,9999.,1.05713738089,2.49868835484,286.
5.08,7414.,23.,17.,2546.,0.,0.,10000.,1.03957114851,2.35033477054,299.
5.1,7402.,32.,14.,2554.,0.,0.,10002.,1.01700005487,1.65262508916,416.
5.12,7389.,33.,20.,2559.,0.,0.,10001.,0.990753951012,1.56118804402,429.
5.14,7369.,41.,21.,2571.,0.,0.,10002.,0.959963382859,1.21751453436,533.
5.16,7356.,39.,18.,2588.,0.,0.,10001.,0.927331540557,1.23644205408,507.
5.18,7340.,43.,21.,2595.,0.,0.,9999.,0.891950598858,1.0786379335,559.
5.2,7328.,44.,18.,2609.,0.,0.,9999.,0.854954509072,1.01040078345,572.
5.22,7329.,38.,23.,2614.,0.,0.,10004.,0.817636141372,1.11887050925,494.
5.24,7311.,30.,30.,2634.,0.,0.,10005.,0.77773661917,1.34807680656,390.
5.26,7300.,35.,17.,2656.,0.,0.,10008.,0.738292013493,1.09689099148,455.
5.28,7280.,30.,24.,2671.,0.,0.,10005.,0.698840498537,1.2113235308,390.
5.3,7270.,22.,23.,2692.,0.,0.,10007.,0.661042326523,1.56246368087,286.
5.32,7262.,22.,13.,2710.,0.,0.,10007.,0.625125275298,1.47756883252,286.
5.34,7258.,13.,14.,2721.,0.,0.,10006.,0.591692406359,2.36676962543,169.
5.36,7246.,22.,6.,2731.,0.,0.,10005.,0.560215331329,1.3241453286,286.
5.38,7246.,14.,8.,2738.,0.,0.,10006.,0.532627804355,1.97833184475,182.
5.4,7252.,11.,5.,2739.,0.,0.,10007.,0.508923947087,2.40582229532,143.
5.42,7253.,10.,5.,2737.,0.,0.,10005.,0.488837299945,2.54195395971,130.
5.44,7256.,7.,4.,2738.,0.,0.,10005.,0.472934945921,3.51323102684,91.
5.46,7261.,5.,4.,2734.,0.,0.,10004.,0.461610756266,4.80075186516,65.
5.48,7268.,5.,1.,2729.,0.,0.,10003.,0.455001370778,4.73201425609,65.
5.5,7273.,4.,2.,2726.,0.,0.,10005.,0.452842836298,5.88695687188,52.
5.52,7275.,4.,1.,2727.,0.,0.,10007.,0.455257546039,5.91834809851,52.
5.54,7279.,0.,4.,2721.,0.,0.,10004.,0.462755088123,inf,0.
5.56,7283.,0.,0.,2722.,0.,0.,10005.,0.47469476449,inf,0.
5.58,7286.,0.,0.,2718.,0.,0.,10004.,0.491110518661,inf,0.
5.6,7297.,0.,0.,2711.,0.,0.,10008.,0.512030746959,inf,0.
5.62,7301.,0.,0.,2706.,0.,0.,10007.,0.536617030093,inf,0.
5.64,7302.,0.,0.,2703.,0.,0.,10005.,0.564544900547,inf,0.
5.66,7308.,0.,0.,2694.,0.,0.,10002.,0.596006805601,inf,0.
5.68,7316.,0.,0.,2691.,0.,0.,10007.,0.629773686874,inf,0.
5.7,7320.,0.,0.,2683.,0.,0.,10003.,0.665854853039,inf,0.
5.72,7324.,1.,0.,2673.,0.,0.,9998.,0.703556503223,36.5849381676,13.
5.74,7334.,1.,0.,2665.,0.,0.,10000.,0.742324018337,38.6008489535,13.
5.76,7335.,2.,0.,2663.,0.,0.,10000.,0.780679859207,20.2976763394,26.
5.78,7345.,3.,0.,2656.,0.,0.,10004.,0.819421129537,14.2032995786,39.
5.8,7350.,1.,3.,2649.,0.,0.,10003.,0.857178333688,44.5732733518,13.
5.82,7348.,3.,2.,2644.,0.,0.,9997.,0.893101390241,15.4804240975,39.
5.84,7354.,6.,1.,2638.,0.,0.,9999.,0.927264845689,8.03629532931,78.
5.86,7360.,4.,3.,2630.,0.,0.,9997.,0.959270487612,12.470516339,52.
5.88,7361.,7.,1.,2632.,0.,0.,10001.,0.986999571443,7.33199681644,91.
5.9,7365.,8.,1.,2628.,0.,0.,10002.,1.01191642855,6.57745678555,104.
5.92,7367.,6.,5.,2623.,0.,0.,10001.,1.0328776471,8.95160627484,78.
5.94,7372.,10.,6.,2618.,0.,0.,10006.,1.04942255645,5.45699729352,130.
5.96,7367.,16.,5.,2614.,0.,0.,10002.,1.06100072154,3.448252345,208.
5.98,7365.,14.,6.,2615.,0.,0.,10000.,1.06812234216,3.96731155659,182.
6.,7364.,14.,6.,2615.,0.,0.,9999.,1.07049588944,3.97612758936,182.
6.02,7359.,17.,6.,2614.,0.,0.,9996.,1.06767925309,3.26584242123,221.
6.04,7360.,17.,6.,2617.,0.,0.,10000.,1.06020457494,3.24297869982,221.
6.06,7356.,22.,4.,2617.,0.,0.,9999.,1.04787799135,2.47680252502,286.
6.08,7345.,25.,10.,2618.,0.,0.,9998.,1.03010217444,2.14261252284,325.
6.1,7336.,26.,13.,2626.,0.,0.,10001.,1.00803274779,2.01606549558,338.
6.12,7329.,32.,9.,2634.,0.,0.,10004.,0.98241415716,1.59642300538,416.
6.14,7324.,30.,14.,2638.,0.,0.,10006.,0.953719798305,1.65311431706,390.
6.16,7322.,30.,10.,2646.,0.,0.,10008.,0.922399727324,1.59882619403,390.
6.18,7305.,35.,9.,2658.,0.,0.,10007.,0.886987767248,1.31781039705,455.
6.2,7301.,33.,11.,2663.,0.,0.,10008.,0.851038419871,1.34103023737,429.
6.22,7305.,33.,10.,2665.,0.,0.,10013.,0.814226148595,1.28302302203,429.
6.24,7293.,27.,19.,2672.,0.,0.,10011.,0.775356816186,1.49327979414,351.
6.26,7278.,35.,12.,2688.,0.,0.,10013.,0.735699468174,1.09303920986,455.
6.28,7268.,27.,20.,2697.,0.,0.,10012.,0.697200767011,1.34275703276,351.
6.3,7258.,23.,14.,2718.,0.,0.,10013.,0.659555740886,1.49116950113,299.
6.32,7260.,20.,10.,2727.,0.,0.,10017.,0.624329219411,1.62325597047,260.
6.34,7262.,13.,14.,2728.,0.,0.,10017.,0.591368382365,2.36547352946,169.
6.36,7263.,14.,11.,2732.,0.,0.,10020.,0.560689051571,2.08255933441,182.
6.38,7263.,18.,8.,2729.,0.,0.,10018.,0.53323791237,1.54046508018,234.
6.4,7258.,15.,7.,2737.,0.,0.,10017.,0.508836528779,1.7639666331,195.
6.42,7266.,11.,1.,2744.,0.,0.,10022.,0.488882787842,2.3110822698,143.
6.44,7274.,7.,2.,2743.,0.,0.,10026.,0.473115113086,3.51456941149,91.
6.46,7276.,7.,3.,2740.,0.,0.,10026.,0.461549363548,3.42865241493,91.
6.48,7278.,7.,5.,2736.,0.,0.,10026.,0.454582179141,3.3768961879,91.
6.5,7286.,6.,4.,2731.,0.,0.,10027.,0.452656914976,3.92302659645,78.
6.52,7283.,4.,1.,2735.,0.,0.,10023.,0.455030633159,5.91539823106,52.
6.54,7286.,2.,1.,2734.,0.,0.,10023.,0.462322045405,12.0203731805,26.
6.56,7290.,1.,0.,2730.,0.,0.,10021.,0.474392365289,24.668402995,13.
6.58,7294.,0.,1.,2724.,0.,0.,10019.,0.490913680033,inf,0.
6.6,7306.,0.,0.,2717.,0.,0.,10023.,0.511895048486,inf,0.
6.62,7316.,0.,0.,2709.,0.,0.,10025.,0.536754035374,inf,0.
6.64,7328.,0.,0.,2698.,0.,0.,10026.,0.565368377432,inf,0.
6.66,7332.,1.,0.,2694.,0.,0.,10027.,0.596473250064,31.0166090033,13.
6.68,7334.,0.,0.,2694.,0.,0.,10028.,0.630001080584,inf,0.
6.7,7338.,0.,1.,2688.,0.,0.,10027.,0.665894533458,inf,0.
6.72,7344.,1.,0.,2684.,0.,0.,10029.,0.70329708181,36.5714482541,13.
6.74,7349.,1.,0.,2680.,0.,0.,10030.,0.741617418097,38.5641057411,13.
6.76,7351.,0.,1.,2677.,0.,0.,10029.,0.780120424461,inf,0.
6.78,7358.,3.,0.,2670.,0.,0.,10031.,0.818661929014,14.1901401029,39.
6.8,7363.,2.,1.,2662.,0.,0.,10028.,0.85655368942,22.2703959249,26.
6.82,7363.,6.,1.,2658.,0.,0.,10028.,0.89215802241,7.73203619422,78.
6.84,7373.,5.,4.,2651.,0.,0.,10033.,0.926510103671,9.63570507818,65.
6.86,7378.,9.,2.,2650.,0.,0.,10039.,0.957593430228,5.53276204132,117.
6.88,7384.,7.,3.,2643.,0.,0.,10037.,0.986532364692,7.32852613771,91.
6.9,7379.,9.,2.,2640.,0.,0.,10030.,1.01100970172,5.8413893877,117.
6.92,7379.,7.,3.,2640.,0.,0.,10029.,1.03167169469,7.66384687481,91.
6.94,7381.,8.,2.,2638.,0.,0.,10029.,1.04829409821,6.81391163836,104.
6.96,7382.,8.,6.,2630.,0.,0.,10026.,1.06061606294,6.8940044091,104.
6.98,7378.,10.,8.,2629.,0.,0.,10025.,1.06733934213,5.55016457909,130.
7.,7377.,7.,13.,2629.,0.,0.,10026.,1.0694977512,7.94484043751,91.
7.02,7367.,16.,5.,2639.,0.,0.,10027.,1.06553545003,3.46299021261,208.
7.04,7363.,15.,11.,2639.,0.,0.,10028.,1.05767523289,3.66660747403,195.
7.06,7351.,17.,9.,2649.,0.,0.,10026.,1.04434571519,3.19446924646,221.
7.08,7346.,19.,12.,2651.,0.,0.,10028.,1.02716032241,2.81117561924,247.
7.1,7339.,15.,11.,2659.,0.,0.,10024.,1.00613110477,3.4879211632,195.
7.12,7328.,19.,15.,2662.,0.,0.,10024.,0.980320255815,2.68298175276,247.
7.14,7316.,18.,16.,2675.,0.,0.,10025.,0.950872476486,2.74696493207,234.
7.16,7300.,27.,15.,2681.,0.,0.,10023.,0.918251968012,1.76848527173,351.
7.18,7287.,30.,14.,2692.,0.,0.,10023.,0.883389736233,1.53120887614,390.
7.2,7277.,31.,14.,2701.,0.,0.,10023.,0.846971426979,1.42072626461,403.
7.22,7269.,29.,14.,2710.,0.,0.,10022.,0.809485943651,1.45149203689,377.
7.24,7260.,25.,9.,2726.,0.,0.,10020.,0.771155137284,1.60400268555,325.
7.26,7256.,20.,11.,2734.,0.,0.,10021.,0.73289003878,1.90551410083,260.
7.28,7253.,23.,9.,2738.,0.,0.,10023.,0.694998273334,1.57130044406,299.
7.3,7258.,20.,6.,2740.,0.,0.,10024.,0.658831966629,1.71296311324,260.
7.32,7260.,17.,7.,2739.,0.,0.,10023.,0.623955481477,1.90856970805,221.
7.34,7262.,21.,10.,2734.,0.,0.,10027.,0.590778606378,1.46288035865,273.
7.36,7260.,18.,8.,2740.,0.,0.,10026.,0.560122055152,1.61813038155,234.
7.38,7263.,14.,7.,2742.,0.,0.,10026.,0.532812428299,1.97901759082,182.
7.4,7269.,10.,12.,2735.,0.,0.,10026.,0.509150248116,2.64758129021,130.
7.42,7275.,10.,2.,2743.,0.,0.,10030.,0.489097921014,2.54330918927,130.
7.44,7281.,9.,0.,2741.,0.,0.,10031.,0.473334353268,2.73482070777,117.
7.46,7292.,7.,1.,2734.,0.,0.,10034.,0.462195517878,3.43345241853,91.
7.48,7302.,4.,2.,2726.,0.,0.,10034.,0.455717584898,5.92432860368,52.
7.5,7309.,3.,0.,2721.,0.,0.,10033.,0.453814279323,7.86611417492,39.
7.52,7315.,2.,1.,2711.,0.,0.,10029.,0.456756518884,11.875669491,26.
7.54,7323.,1.,2.,2705.,0.,0.,10031.,0.464299237075,24.1435603279,13.
7.56,7325.,3.,0.,2705.,0.,0.,10033.,0.476099846679,8.25239734243,39.
7.58,7334.,0.,1.,2700.,0.,0.,10035.,0.492818815955,inf,0.
7.6,7338.,0.,0.,2693.,0.,0.,10031.,0.513727090596,inf,0.
7.62,7346.,0.,0.,2686.,0.,0.,10032.,0.538578984608,inf,0.
7.64,7350.,0.,0.,2681.,0.,0.,10031.,0.56678306037,inf,0.
7.66,7355.,0.,0.,2675.,0.,0.,10030.,0.59816538087,inf,0.
7.68,7367.,0.,0.,2665.,0.,0.,10032.,0.632583500857,inf,0.
7.7,7378.,0.,0.,2657.,0.,0.,10035.,0.668990624189,inf,0.
7.72,7384.,0.,0.,2651.,0.,0.,10035.,0.706704879121,inf,0.
7.74,7397.,0.,0.,2644.,0.,0.,10041.,0.745643538291,inf,0.
7.76,7405.,0.,0.,2640.,0.,0.,10045.,0.784599412721,inf,0.
7.78,7407.,2.,0.,2637.,0.,0.,10046.,0.822883230997,21.3949640059,26.
7.8,7411.,4.,1.,2629.,0.,0.,10045.,0.8606785649,11.1888213437,52.
7.82,7410.,3.,4.,2627.,0.,0.,10044.,0.896422634434,15.5379923302,39.
7.84,7409.,12.,2.,2626.,0.,0.,10049.,0.929551565454,4.02805678363,156.
7.86,7407.,7.,6.,2622.,0.,0.,10042.,0.961070150313,7.13937825947,91.
7.88,7414.,4.,3.,2624.,0.,0.,10045.,0.989751604015,12.8667708522,52.
7.9,7414.,9.,3.,2621.,0.,0.,10047.,1.01408632258,5.85916541937,117.
7.92,7415.,9.,6.,2621.,0.,0.,10051.,1.03443574353,5.9767398515,117.
7.94,7416.,10.,7.,2621.,0.,0.,10054.,1.0506459893,5.46335914438,130.
7.96,7415.,13.,6.,2621.,0.,0.,10055.,1.06228473331,4.24913893325,169.
7.98,7414.,12.,11.,2621.,0.,0.,10058.,1.06902829101,4.63245592769,156.
8.,7410.,18.,7.,2623.,0.,0.,10058.,1.07086412432,3.09360747027,234.
8.02,7409.,14.,12.,2625.,0.,0.,10060.,1.06809495141,3.96720981953,182.
8.04,7407.,17.,7.,2629.,0.,0.,10060.,1.06061123565,3.24422260318,221.
8.06,7397.,20.,7.,2636.,0.,0.,10060.,1.04732918242,2.7230558743,260.
8.08,7392.,21.,6.,2640.,0.,0.,10059.,1.03040696655,2.55148391717,273.
8.1,7384.,23.,8.,2642.,0.,0.,10057.,1.00897866635,2.2811691587,299.
8.12,7384.,25.,11.,2637.,0.,0.,10057.,0.98457048269,2.047906604,325.
8.14,7381.,25.,14.,2636.,0.,0.,10056.,0.956363299817,1.98923566362,325.
8.16,7376.,21.,17.,2642.,0.,0.,10056.,0.924767122885,2.28989954238,273.
8.18,7356.,37.,17.,2648.,0.,0.,10058.,0.888651338089,1.24891539407,481.
8.2,7340.,29.,34.,2657.,0.,0.,10060.,0.851161936674,1.52622140369,377.
8.22,7317.,37.,24.,2683.,0.,0.,10061.,0.811672715643,1.14072922198,481.
8.24,7321.,25.,20.,2697.,0.,0.,10063.,0.774311645665,1.61056822298,325.
8.26,7306.,31.,18.,2710.,0.,0.,10065.,0.734714304928,1.23242399536,403.
8.28,7305.,26.,16.,2725.,0.,0.,10072.,0.696575638471,1.39315127694,338.
8.3,7291.,24.,20.,2736.,0.,0.,10071.,0.658738822913,1.42726744964,312.
8.32,7283.,22.,9.,2756.,0.,0.,10070.,0.623010768624,1.47257090766,286.
8.34,7287.,19.,6.,2760.,0.,0.,10072.,0.590163821679,1.61518519617,247.
8.36,7289.,13.,6.,2763.,0.,0.,10071.,0.559846680459,2.23938672183,169.
8.38,7296.,12.,4.,2758.,0.,0.,10070.,0.532894646672,2.30921013558,156.
8.4,7298.,9.,6.,2757.,0.,0.,10070.,0.508947961994,2.94058822485,117.
8.42,7295.,10.,5.,2759.,0.,0.,10069.,0.488542901649,2.54042308857,130.
8.44,7298.,6.,9.,2753.,0.,0.,10066.,0.472789864588,4.09751215976,78.
8.46,7300.,9.,4.,2757.,0.,0.,10070.,0.46104843894,2.66383542499,117.
8.48,7300.,9.,1.,2755.,0.,0.,10065.,0.4541895483,2.62420627907,117.
8.5,7308.,7.,3.,2749.,0.,0.,10067.,0.452219699769,3.35934634114,91.
8.52,7318.,3.,3.,2744.,0.,0.,10068.,0.455173797452,7.88967915583,39.
8.54,7325.,2.,0.,2747.,0.,0.,10074.,0.462443680319,12.0235356883,26.
8.56,7333.,2.,1.,2740.,0.,0.,10076.,0.474585812437,12.3392311233,26.
8.58,7338.,1.,0.,2737.,0.,0.,10076.,0.491081191335,25.5362219494,13.
8.6,7343.,0.,0.,2734.,0.,0.,10077.,0.511730450961,inf,0.
8.62,7355.,0.,0.,2727.,0.,0.,10082.,0.536564563011,inf,0.
8.64,7359.,0.,0.,2724.,0.,0.,10083.,0.564550490323,inf,0.
8.66,7363.,0.,1.,2717.,0.,0.,10081.,0.595786579345,inf,0.
8.68,7366.,1.,0.,2716.,0.,0.,10083.,0.62929844898,32.723519347,13.
8.7,7370.,1.,0.,2712.,0.,0.,10083.,0.665083965921,34.5843662279,13.
8.72,7373.,1.,0.,2707.,0.,0.,10081.,0.702432177278,36.5264732185,13.
8.74,7379.,0.,1.,2703.,0.,0.,10083.,0.740730709492,inf,0.
8.76,7386.,1.,0.,2695.,0.,0.,10082.,0.77971424234,40.5451406017,13.
8.78,7397.,1.,1.,2686.,0.,0.,10085.,0.818594377798,42.5669076455,13.
8.8,7402.,1.,2.,2679.,0.,0.,10084.,0.856308704321,44.5280526247,13.
8.82,7407.,3.,3.,2666.,0.,0.,10079.,0.892948083158,15.4777667747,39.
8.84,7409.,2.,8.,2661.,0.,0.,10080.,0.92669282552,24.0940134635,26.
8.86,7408.,5.,1.,2665.,0.,0.,10079.,0.957671337938,9.95978191455,65.
8.88,7409.,6.,2.,2662.,0.,0.,10079.,0.98574758832,8.54314576544,78.
8.9,7417.,7.,1.,2655.,0.,0.,10080.,1.01117539351,7.51158863748,91.
8.92,7421.,9.,3.,2650.,0.,0.,10083.,1.03198717613,5.96259257318,117.
8.94,7420.,9.,3.,2652.,0.,0.,10084.,1.04808531263,6.05560402851,117.
8.96,7422.,8.,5.,2647.,0.,0.,10082.,1.06044003778,6.89286024556,104.
8.98,7419.,14.,4.,2645.,0.,0.,10082.,1.06720272671,3.96389584206,182.
9.,7416.,15.,5.,2647.,0.,0.,10083.,1.06907394809,3.70612302006,195.
9.02,7413.,13.,14.,2645.,0.,0.,10085.,1.06602243758,4.26408975032,169.
9.04,7401.,23.,10.,2652.,0.,0.,10086.,1.05702023187,2.38978487205,299.
9.06,7394.,30.,5.,2657.,0.,0.,10086.,1.04420567501,1.80995650335,390.
9.08,7385.,29.,19.,2655.,0.,0.,10088.,1.02647189381,1.84057029234,377.
9.1,7359.,37.,17.,2674.,0.,0.,10087.,1.0025718996,1.409019967,481.
9.12,7350.,38.,19.,2678.,0.,0.,10085.,0.977316003051,1.33737979365,494.
9.14,7334.,44.,20.,2690.,0.,0.,10088.,0.9472591156,1.11948804571,572.
9.16,7329.,37.,20.,2705.,0.,0.,10091.,0.915687432244,1.28691206694,481.
9.18,7317.,37.,12.,2722.,0.,0.,10088.,0.881311204128,1.23859953013,481.
9.2,7316.,35.,14.,2726.,0.,0.,10091.,0.845772588393,1.25657641704,455.
9.22,7310.,28.,21.,2735.,0.,0.,10094.,0.808245169916,1.50102674413,364.
9.24,7302.,34.,6.,2751.,0.,0.,10093.,0.770006537285,1.17765705702,442.
9.26,7300.,30.,10.,2749.,0.,0.,10089.,0.732364602145,1.26943197705,390.
9.28,7297.,27.,14.,2752.,0.,0.,10090.,0.694571499007,1.33769325735,351.
9.3,7293.,17.,21.,2761.,0.,0.,10092.,0.65754840536,2.01132453404,221.
9.32,7287.,19.,15.,2773.,0.,0.,10094.,0.621870826052,1.70196226077,247.
9.34,7280.,19.,7.,2786.,0.,0.,10092.,0.588428457464,1.61043577832,247.
9.36,7278.,20.,9.,2785.,0.,0.,10092.,0.557838600444,1.45038036115,260.
9.38,7283.,15.,11.,2785.,0.,0.,10094.,0.530680356525,1.83969190262,195.
9.4,7286.,9.,9.,2789.,0.,0.,10093.,0.506953218738,2.9290630416,117.
9.42,7289.,8.,6.,2790.,0.,0.,10093.,0.486980340634,3.16537221412,104.
9.44,7297.,9.,3.,2784.,0.,0.,10093.,0.471460484137,2.72399390835,117.
9.46,7306.,5.,5.,2779.,0.,0.,10095.,0.460284670176,4.78696056983,65.
9.48,7311.,8.,4.,2771.,0.,0.,10094.,0.453567093464,2.94818610751,104.
9.5,7311.,5.,2.,2772.,0.,0.,10090.,0.451374089017,4.69429052578,65.
9.52,7320.,3.,4.,2765.,0.,0.,10092.,0.454215441535,7.87306765328,39.
9.54,7328.,0.,1.,2765.,0.,0.,10094.,0.461716427401,inf,0.
9.56,7334.,0.,0.,2758.,0.,0.,10092.,0.473898013938,inf,0.
9.58,7341.,0.,0.,2751.,0.,0.,10092.,0.490503075033,inf,0.
9.6,7352.,0.,0.,2743.,0.,0.,10095.,0.5114440921,inf,0.
9.62,7353.,0.,1.,2735.,0.,0.,10089.,0.53604647765,inf,0.
9.64,7357.,1.,0.,2729.,0.,0.,10087.,0.564173247355,29.3370088625,13.
9.66,7360.,0.,1.,2723.,0.,0.,10084.,0.595366655621,inf,0.
9.68,7365.,1.,0.,2720.,0.,0.,10086.,0.629025861743,32.7093448106,13.
9.7,7373.,1.,1.,2711.,0.,0.,10086.,0.665156787665,34.5881529586,13.
9.72,7378.,1.,1.,2704.,0.,0.,10084.,0.702699415679,36.5403696153,13.
9.74,7382.,2.,1.,2695.,0.,0.,10080.,0.741252405539,19.272562544,26.
9.76,7389.,2.,1.,2687.,0.,0.,10079.,0.780263116969,20.2868410412,26.
9.78,7396.,1.,0.,2682.,0.,0.,10079.,0.818970953095,42.5864895609,13.
9.8,7405.,1.,1.,2674.,0.,0.,10081.,0.85691069448,44.559356113,13.
9.82,7403.,3.,3.,2672.,0.,0.,10081.,0.892288805676,15.4663392984,39.
9.84,7401.,6.,1.,2671.,0.,0.,10079.,0.925784056057,8.02346181916,78.
9.86,7401.,5.,9.,2665.,0.,0.,10080.,0.956671493615,9.94938353359,65.
9.88,7396.,10.,4.,2665.,0.,0.,10075.,0.984408650281,5.11892498146,130.
9.9,7398.,8.,8.,2663.,0.,0.,10077.,1.00888534657,6.5577547527,104.
9.92,7395.,11.,4.,2663.,0.,0.,10073.,1.02939245467,4.86621887661,143.
9.94,7404.,7.,8.,2656.,0.,0.,10075.,1.04675952638,7.77592791026,91.
9.96,7401.,13.,6.,2657.,0.,0.,10077.,1.0579642809,4.23185712359,169.
9.98,7405.,15.,5.,2655.,0.,0.,10080.,1.06540021224,3.69338740245,195.
10.,7409.,16.,4.,2651.,0.,0.,10080.,1.06838272021,3.4722438407,208.
