t,s,e,i,r,c,o,n,reff,coal,reportr
5.,5644.,13.,15.,4328.,0.,0.,10000.,1.06597764176,4.26391056703,169.
5.02,5638.,25.,9.,4327.,0.,0.,9999.,1.06255164861,2.2101074291,325.
5.04,5646.,20.,11.,4318.,0.,0.,9995.,1.05731217473,2.74901165429,260.
5.06,5640.,21.,14.,4321.,0.,0.,9996.,1.04426740237,2.58580499633,273.
5.08,5639.,26.,12.,4319.,0.,0.,9996.,1.027805131,2.05561026199,338.
5.1,5634.,34.,4.,4327.,0.,0.,9999.,1.00612587516,1.53878075024,442.
5.12,5638.,18.,17.,4326.,0.,0.,9999.,0.982483747478,2.8382863816,234.
5.14,5625.,27.,12.,4331.,0.,0.,9995.,0.952809300268,1.83504013385,351.
5.16,5617.,32.,13.,4335.,0.,0.,9997.,0.920459676953,1.49574697505,416.
5.18,5615.,36.,20.,4325.,0.,0.,9996.,0.886866235964,1.2810290075,468.
5.2,5608.,28.,24.,4335.,0.,0.,9995.,0.850496673764,1.5794938227,364.
5.22,5602.,35.,15.,4346.,0.,0.,9998.,0.812554147746,1.20722330522,455.
5.24,5606.,28.,14.,4352.,0.,0.,10000.,0.775281192295,1.43980792855,364.
5.26,5602.,30.,8.,4361.,0.,0.,10001.,0.736691369975,1.27693170796,390.
5.28,5607.,25.,11.,4355.,0.,0.,9998.,0.699865362818,1.45571995466,325.
5.3,5617.,21.,11.,4352.,0.,0.,10001.,0.66403818194,1.64428502195,273.
5.32,5618.,23.,9.,4354.,0.,0.,10004.,0.62857349457,1.42112268337,299.
5.34,5628.,17.,13.,4348.,0.,0.,10006.,0.596164921797,1.8235632902,221.
5.36,5635.,19.,4.,4350.,0.,0.,10008.,0.565918218054,1.5488288073,247.
5.38,5640.,16.,9.,4344.,0.,0.,10009.,0.538527289171,1.75021368981,208.
5.4,5641.,12.,6.,4346.,0.,0.,10005.,0.514483316306,2.22942770399,156.
5.42,5644.,13.,5.,4340.,0.,0.,10002.,0.494421337488,1.97768534995,169.
5.44,5658.,9.,7.,4331.,0.,0.,10005.,0.479181864539,2.76860632845,117.
5.46,5667.,9.,0.,4328.,0.,0.,10004.,0.468129482939,2.70474812365,117.
5.48,5679.,6.,3.,4317.,0.,0.,10005.,0.461866144566,4.00283991957,78.
5.5,5691.,6.,0.,4311.,0.,0.,10008.,0.460283698669,3.98912538847,78.
5.52,5695.,3.,4.,4306.,0.,0.,10008.,0.463028565904,8.02582847567,39.
5.54,5698.,1.,0.,4305.,0.,0.,10004.,0.470690275946,24.4758943492,13.
5.56,5709.,1.,0.,4296.,0.,0.,10006.,0.483452786103,25.1395448773,13.
5.58,5718.,1.,0.,4287.,0.,0.,10006.,0.500703587061,26.0365865272,13.
5.6,5727.,0.,0.,4282.,0.,0.,10009.,0.522118141087,inf,0.
5.62,5737.,0.,0.,4273.,0.,0.,10010.,0.547734470481,inf,0.
5.64,5747.,0.,0.,4266.,0.,0.,10013.,0.576878073545,inf,0.
5.66,5757.,0.,0.,4257.,0.,0.,10014.,0.609342501106,inf,0.
5.68,5768.,0.,0.,4248.,0.,0.,10016.,0.64458314924,inf,0.
5.7,5776.,0.,0.,4242.,0.,0.,10018.,0.681676327339,inf,0.
5.72,5788.,0.,0.,4232.,0.,0.,10020.,0.720871536016,inf,0.
5.74,5798.,0.,0.,4221.,0.,0.,10019.,0.761096525806,inf,0.
5.76,5809.,1.,0.,4206.,0.,0.,10016.,0.802071741589,41.7077305626,13.
5.78,5822.,3.,0.,4194.,0.,0.,10019.,0.842694508803,14.6067048193,39.
5.8,5830.,5.,2.,4183.,0.,0.,10020.,0.881958694992,9.17237042792,65.
5.82,5839.,4.,4.,4173.,0.,0.,10020.,0.920037145124,11.9604828866,52.
5.84,5837.,2.,5.,4174.,0.,0.,10018.,0.954506086558,24.8171582505,26.
5.86,5837.,9.,2.,4173.,0.,0.,10021.,0.986154340192,5.69778063222,117.
5.88,5846.,10.,4.,4162.,0.,0.,10022.,1.0163921083,5.28523896317,130.
5.9,5851.,6.,6.,4161.,0.,0.,10024.,1.04227203156,9.0330242735,78.
5.92,5855.,9.,6.,4157.,0.,0.,10027.,1.06387552727,6.14683637981,117.
5.94,5862.,8.,7.,4151.,0.,0.,10028.,1.08190805363,7.0324023486,104.
5.96,5854.,17.,3.,4154.,0.,0.,10028.,1.09265624055,3.34224261815,221.
5.98,5852.,20.,6.,4151.,0.,0.,10029.,1.09958354586,2.85891721923,260.
6.,5847.,22.,9.,4150.,0.,0.,10028.,1.10123462797,2.60291821157,286.
6.02,5843.,17.,12.,4156.,0.,0.,10028.,1.09800193971,3.35859416851,221.
6.04,5844.,23.,12.,4153.,0.,0.,10032.,1.09035480422,2.46514999215,299.
6.06,5839.,30.,8.,4157.,0.,0.,10034.,1.07701869874,1.86683241115,390.
6.08,5839.,24.,9.,4160.,0.,0.,10032.,1.06043947508,2.29761886268,312.
6.1,5830.,24.,14.,4163.,0.,0.,10031.,1.0378064565,2.24858065574,312.
6.12,5826.,25.,11.,4170.,0.,0.,10032.,1.011905202,2.10476282016,325.
6.14,5817.,29.,15.,4169.,0.,0.,10030.,0.981893511255,1.76063664087,377.
6.16,5803.,34.,20.,4172.,0.,0.,10029.,0.947905352048,1.44973759725,442.
6.18,5788.,34.,26.,4183.,0.,0.,10031.,0.911001097142,1.39329579563,442.
6.2,5766.,37.,23.,4201.,0.,0.,10027.,0.871667866058,1.22504673068,481.
6.22,5759.,33.,22.,4214.,0.,0.,10028.,0.832827568172,1.31233434985,429.
6.24,5738.,41.,25.,4222.,0.,0.,10026.,0.791478275177,1.0038261051,533.
6.26,5728.,38.,20.,4237.,0.,0.,10023.,0.751607636608,1.02851571325,494.
6.28,5720.,30.,28.,4246.,0.,0.,10024.,0.712118137683,1.23433810532,390.
6.3,5709.,31.,21.,4264.,0.,0.,10025.,0.673298608578,1.12940411762,403.
6.32,5715.,25.,17.,4272.,0.,0.,10029.,0.637832457549,1.3266915117,325.
6.34,5717.,24.,17.,4273.,0.,0.,10031.,0.604083245073,1.30884703099,312.
6.36,5710.,25.,16.,4280.,0.,0.,10031.,0.572135543879,1.19004193127,325.
6.38,5711.,21.,11.,4289.,0.,0.,10032.,0.544056417491,1.3471873195,273.
6.4,5713.,18.,4.,4296.,0.,0.,10031.,0.519699480741,1.50135405548,234.
6.42,5714.,14.,8.,4295.,0.,0.,10031.,0.499106304671,1.85382341735,182.
6.44,5717.,10.,9.,4294.,0.,0.,10030.,0.482971809374,2.51145340875,130.
6.46,5728.,8.,0.,4295.,0.,0.,10031.,0.471894856059,3.06731656438,104.
6.48,5736.,4.,5.,4286.,0.,0.,10031.,0.46529272854,6.04880547102,52.
6.5,5745.,4.,2.,4284.,0.,0.,10035.,0.463400994557,6.02421292924,52.
6.52,5757.,3.,6.,4269.,0.,0.,10035.,0.466810059134,8.09137435833,39.
6.54,5770.,2.,3.,4265.,0.,0.,10040.,0.474928863935,12.3481504623,26.
6.56,5779.,2.,0.,4257.,0.,0.,10038.,0.487820476458,12.6833323879,26.
6.58,5782.,2.,0.,4252.,0.,0.,10036.,0.504794349518,13.1246530875,26.
6.6,5794.,0.,3.,4243.,0.,0.,10040.,0.526595407564,inf,0.
6.62,5802.,1.,0.,4239.,0.,0.,10042.,0.552175086899,28.7131045188,13.
6.64,5806.,0.,2.,4228.,0.,0.,10036.,0.581464801419,inf,0.
6.66,5821.,0.,0.,4216.,0.,0.,10037.,0.614704657336,inf,0.
6.68,5832.,0.,0.,4204.,0.,0.,10036.,0.650436455917,inf,0.
6.7,5842.,0.,0.,4189.,0.,0.,10031.,0.688572029876,inf,0.
6.72,5852.,0.,0.,4180.,0.,0.,10032.,0.727970651005,inf,0.
6.74,5864.,1.,0.,4170.,0.,0.,10035.,0.768532946069,39.9637131956,13.
6.76,5869.,3.,0.,4163.,0.,0.,10035.,0.808821873635,14.019579143,39.
6.78,5887.,3.,0.,4148.,0.,0.,10038.,0.850489945869,14.7418257284,39.
6.8,5895.,3.,2.,4138.,0.,0.,10038.,0.890192705112,15.4300068886,39.
6.82,5898.,4.,0.,4133.,0.,0.,10035.,0.92794449434,12.0632784264,52.
6.84,5907.,5.,0.,4121.,0.,0.,10033.,0.964508800709,10.0308915274,65.
6.86,5917.,4.,1.,4108.,0.,0.,10030.,0.998773234673,12.9840520508,52.
6.88,5928.,5.,1.,4098.,0.,0.,10032.,1.02962135899,10.7080621335,65.
6.9,5933.,7.,3.,4090.,0.,0.,10033.,1.05593109703,7.84405957796,91.
6.92,5937.,8.,4.,4083.,0.,0.,10032.,1.07823756869,7.00854419646,104.
6.94,5943.,13.,0.,4080.,0.,0.,10036.,1.09598331464,4.38393325856,169.
6.96,5953.,11.,5.,4068.,0.,0.,10037.,1.11013837651,5.24792687076,143.
6.98,5952.,11.,4.,4067.,0.,0.,10034.,1.11781612998,5.28422170535,143.
7.,5945.,15.,8.,4066.,0.,0.,10034.,1.1190225876,3.87927830367,195.
7.02,5939.,15.,12.,4067.,0.,0.,10033.,1.1154858339,3.86701755752,195.
7.04,5937.,17.,9.,4068.,0.,0.,10031.,1.1078168747,3.3886163226,221.
7.06,5931.,20.,11.,4069.,0.,0.,10031.,1.09431551966,2.84522035112,260.
7.08,5928.,18.,12.,4072.,0.,0.,10030.,1.07681772647,3.11080676535,234.
7.1,5919.,28.,11.,4070.,0.,0.,10028.,1.05396468326,1.9573629832,364.
7.12,5917.,22.,18.,4072.,0.,0.,10029.,1.02801821475,2.42986123487,286.
7.14,5897.,33.,21.,4079.,0.,0.,10030.,0.99539728999,1.56850482059,429.
7.16,5892.,32.,21.,4087.,0.,0.,10032.,0.962155464643,1.56350263004,416.
7.18,5882.,33.,14.,4104.,0.,0.,10033.,0.925611658031,1.45853958235,429.
7.2,5873.,31.,17.,4115.,0.,0.,10036.,0.887047264927,1.48795025085,403.
7.22,5860.,34.,24.,4116.,0.,0.,10034.,0.846926766796,1.29529976098,442.
7.24,5857.,28.,15.,4132.,0.,0.,10032.,0.807409501026,1.49947478762,364.
7.26,5846.,28.,16.,4139.,0.,0.,10029.,0.766632249989,1.42374560712,364.
7.28,5839.,26.,16.,4144.,0.,0.,10025.,0.726860670817,1.45372134163,338.
7.3,5830.,27.,16.,4150.,0.,0.,10023.,0.687706104866,1.32447101678,351.
7.32,5832.,27.,10.,4154.,0.,0.,10023.,0.651280082968,1.25431719683,351.
7.34,5836.,19.,14.,4156.,0.,0.,10025.,0.617026377677,1.68870377048,247.
7.36,5841.,15.,17.,4155.,0.,0.,10028.,0.585436683993,2.02951383784,195.
7.38,5836.,21.,4.,4162.,0.,0.,10023.,0.556463718613,1.37791016038,273.
7.4,5843.,22.,3.,4157.,0.,0.,10025.,0.531843424622,1.2570844582,286.
7.42,5845.,14.,9.,4156.,0.,0.,10024.,0.510905417388,1.89764869316,182.
7.44,5845.,14.,5.,4159.,0.,0.,10023.,0.494130098023,1.83534036409,182.
7.46,5862.,8.,8.,4146.,0.,0.,10024.,0.483271540398,3.14126501259,104.
7.48,5876.,3.,6.,4143.,0.,0.,10028.,0.47679184113,8.26439191293,39.
7.5,5882.,4.,3.,4138.,0.,0.,10027.,0.474830175456,6.17279228093,52.
7.52,5887.,2.,3.,4135.,0.,0.,10027.,0.477732045656,12.4210331871,26.
7.54,5900.,1.,1.,4127.,0.,0.,10029.,0.486161815035,25.2804143818,13.
7.56,5913.,1.,1.,4110.,0.,0.,10025.,0.499779019437,25.9885090107,13.
7.58,5916.,0.,0.,4106.,0.,0.,10022.,0.51721464937,inf,0.
7.6,5923.,0.,1.,4099.,0.,0.,10023.,0.539232787957,inf,0.
7.62,5935.,0.,1.,4090.,0.,0.,10026.,0.565734056833,inf,0.
7.64,5941.,0.,0.,4080.,0.,0.,10021.,0.595875516706,inf,0.
7.66,5953.,1.,0.,4063.,0.,0.,10017.,0.629899171644,32.7547569255,13.
7.68,5969.,0.,0.,4049.,0.,0.,10018.,0.666912048729,inf,0.
7.7,5977.,0.,0.,4038.,0.,0.,10015.,0.705609399516,inf,0.
7.72,5990.,0.,0.,4030.,0.,0.,10020.,0.746029803168,inf,0.
7.74,5996.,1.,0.,4024.,0.,0.,10021.,0.78693066134,40.9203943897,13.
7.76,6009.,3.,0.,4009.,0.,0.,10021.,0.829272563382,14.3740577653,39.
7.78,6024.,2.,0.,3998.,0.,0.,10024.,0.871497698773,22.6589401681,26.
7.8,6030.,2.,1.,3989.,0.,0.,10022.,0.91203252547,23.7128456622,26.
7.82,6032.,3.,2.,3984.,0.,0.,10021.,0.950352843975,16.4727826289,39.
7.84,6037.,6.,1.,3978.,0.,0.,10022.,0.986817434125,8.55241776242,78.
7.86,6045.,7.,2.,3969.,0.,0.,10023.,1.0210919071,7.58525416706,91.
7.88,6054.,5.,4.,3962.,0.,0.,10025.,1.05224024217,10.9432985186,65.
7.9,6053.,5.,5.,3961.,0.,0.,10024.,1.07825544471,11.213856625,65.
7.92,6057.,7.,3.,3958.,0.,0.,10025.,1.10079925424,8.17736588867,91.
7.94,6064.,9.,2.,3951.,0.,0.,10026.,1.11941302842,6.46771971976,117.
7.96,6067.,12.,3.,3943.,0.,0.,10025.,1.13275182706,4.90859125057,156.
7.98,6073.,13.,7.,3935.,0.,0.,10028.,1.1412229642,4.56489185681,169.
8.,6066.,17.,8.,3933.,0.,0.,10024.,1.14293738523,3.49604376659,221.
8.02,6065.,20.,11.,3926.,0.,0.,10022.,1.14040195487,2.96504508266,260.
8.04,6066.,22.,12.,3924.,0.,0.,10024.,1.13267810533,2.67723915805,286.
8.06,6068.,20.,12.,3926.,0.,0.,10026.,1.12015142751,2.91239371154,260.
8.08,6056.,30.,4.,3939.,0.,0.,10029.,1.10017854025,1.90697613644,390.
8.1,6060.,25.,14.,3932.,0.,0.,10031.,1.07874907828,2.24379808282,325.
8.12,6054.,27.,15.,3937.,0.,0.,10033.,1.05140121875,2.02492086575,351.
8.14,6053.,28.,17.,3940.,0.,0.,10038.,1.0209153691,1.89598568546,364.
8.16,6027.,46.,7.,3957.,0.,0.,10037.,0.983710491912,1.11202055607,598.
8.18,6010.,40.,13.,3970.,0.,0.,10033.,0.945754176261,1.22948042914,520.
8.2,5998.,36.,21.,3976.,0.,0.,10031.,0.906378601818,1.30921353596,468.
8.22,5989.,36.,24.,3983.,0.,0.,10032.,0.865743279751,1.25051807075,468.
8.24,5974.,41.,17.,4003.,0.,0.,10035.,0.823292191701,1.04417546265,533.
8.26,5979.,25.,19.,4011.,0.,0.,10034.,0.783682884271,1.63006039928,325.
8.28,5967.,33.,16.,4018.,0.,0.,10034.,0.74212834213,1.1694143573,429.
8.3,5965.,28.,17.,4024.,0.,0.,10034.,0.702859317674,1.30531016139,364.
8.32,5961.,21.,17.,4031.,0.,0.,10030.,0.665221383158,1.64721485353,273.
8.34,5964.,20.,14.,4035.,0.,0.,10033.,0.630056724351,1.63814748331,260.
8.36,5955.,22.,20.,4041.,0.,0.,10038.,0.59626816905,1.40936112685,286.
8.38,5960.,18.,12.,4049.,0.,0.,10039.,0.567381415289,1.63910186639,234.
8.4,5958.,16.,10.,4050.,0.,0.,10034.,0.541824565552,1.76092983805,208.
8.42,5961.,17.,3.,4053.,0.,0.,10034.,0.520525578357,1.59219588674,221.
8.44,5965.,13.,5.,4053.,0.,0.,10036.,0.503621565033,2.01448626013,169.
8.46,5975.,8.,5.,4049.,0.,0.,10037.,0.491949416597,3.19767120788,104.
8.48,5977.,9.,4.,4045.,0.,0.,10035.,0.484648901068,2.80019365061,117.
8.5,5990.,4.,7.,4032.,0.,0.,10033.,0.48325940571,6.28237227423,52.
8.52,5997.,0.,7.,4030.,0.,0.,10034.,0.48631907626,inf,0.
8.54,6000.,0.,1.,4030.,0.,0.,10031.,0.494303271011,inf,0.
8.56,6012.,1.,0.,4019.,0.,0.,10032.,0.507792136618,26.4051911042,13.
8.58,6020.,1.,0.,4012.,0.,0.,10033.,0.525729962662,27.3379580584,13.
8.6,6030.,1.,1.,3999.,0.,0.,10031.,0.548536297719,28.5238874814,13.
8.62,6036.,2.,1.,3989.,0.,0.,10028.,0.575246793567,14.9564166327,26.
8.64,6044.,2.,0.,3984.,0.,0.,10030.,0.605662345295,15.7472209777,26.
8.66,6051.,0.,2.,3978.,0.,0.,10031.,0.639375147094,inf,0.
8.68,6058.,0.,0.,3972.,0.,0.,10030.,0.676046156545,inf,0.
8.7,6065.,0.,0.,3963.,0.,0.,10028.,0.715069962308,inf,0.
8.72,6068.,0.,0.,3958.,0.,0.,10026.,0.755292110848,inf,0.
8.74,6077.,0.,0.,3948.,0.,0.,10025.,0.797243083416,inf,0.
8.76,6083.,0.,0.,3940.,0.,0.,10023.,0.839317428055,inf,0.
8.78,6092.,1.,0.,3929.,0.,0.,10022.,0.881511202327,45.838582521,13.
8.8,6103.,2.,0.,3919.,0.,0.,10024.,0.922889542519,23.9951281055,26.
8.82,6103.,4.,2.,3916.,0.,0.,10025.,0.961155369854,12.4950198081,52.
8.84,6110.,4.,3.,3911.,0.,0.,10028.,0.9981525511,12.9759831643,52.
8.86,6117.,8.,2.,3905.,0.,0.,10032.,1.03232683369,6.71012441897,104.
8.88,6124.,7.,3.,3899.,0.,0.,10033.,1.06355815389,7.90071771461,91.
8.9,6131.,8.,3.,3889.,0.,0.,10031.,1.09138788761,7.09402126948,104.
8.92,6133.,9.,1.,3885.,0.,0.,10028.,1.11427804539,6.4380509289,117.
8.94,6135.,13.,1.,3878.,0.,0.,10027.,1.13240666536,4.52962666142,169.
8.96,6147.,10.,7.,3865.,0.,0.,10029.,1.14723064521,5.96559935507,130.
8.98,6142.,13.,3.,3871.,0.,0.,10029.,1.15407418637,4.61629674549,169.
9.,6135.,12.,10.,3867.,0.,0.,10024.,1.15593815668,5.0090653456,156.
9.02,6128.,19.,7.,3868.,0.,0.,10022.,1.15224784492,3.15352041767,247.
9.04,6128.,15.,12.,3868.,0.,0.,10023.,1.14436926176,3.96714677408,195.
9.06,6117.,16.,14.,3873.,0.,0.,10020.,1.12987298219,3.67208719212,208.
9.08,6112.,31.,10.,3867.,0.,0.,10020.,1.11134924382,1.86419873157,403.
9.1,6108.,28.,16.,3867.,0.,0.,10019.,1.08859590346,2.02167810642,364.
9.12,6093.,36.,20.,3870.,0.,0.,10019.,1.05965300304,1.53060989328,468.
9.14,6086.,34.,16.,3884.,0.,0.,10020.,1.02832521672,1.57273268439,442.
9.16,6079.,32.,17.,3896.,0.,0.,10024.,0.993484558882,1.61441240818,416.
9.18,6070.,31.,20.,3902.,0.,0.,10023.,0.956148985753,1.60386281481,403.
9.2,6058.,39.,15.,3911.,0.,0.,10023.,0.916176085879,1.22156811451,507.
9.22,6056.,38.,15.,3914.,0.,0.,10023.,0.87621458029,1.19903047829,494.
9.24,6043.,37.,17.,3928.,0.,0.,10025.,0.833631982306,1.17159089405,481.
9.26,6039.,35.,13.,3945.,0.,0.,10032.,0.791705042827,1.1762474922,455.
9.28,6032.,31.,20.,3951.,0.,0.,10034.,0.750212528864,1.25842101616,403.
9.3,6022.,28.,18.,3963.,0.,0.,10031.,0.709787874686,1.31817748156,364.
9.32,6022.,23.,14.,3966.,0.,0.,10025.,0.672363891292,1.52012705857,299.
9.34,6015.,22.,8.,3980.,0.,0.,10025.,0.635951621269,1.50315837755,286.
9.36,6015.,19.,10.,3980.,0.,0.,10024.,0.603117076259,1.65063620871,247.
9.38,6022.,11.,12.,3981.,0.,0.,10026.,0.574027041322,2.71358237716,143.
9.4,6021.,16.,4.,3982.,0.,0.,10023.,0.548154755409,1.78150295508,208.
9.42,6032.,12.,2.,3979.,0.,0.,10025.,0.527198300781,2.28452597005,156.
9.44,6036.,9.,6.,3977.,0.,0.,10028.,0.510022609233,2.94679729779,117.
9.46,6045.,5.,5.,3974.,0.,0.,10029.,0.498109859642,5.18034254028,65.
9.48,6053.,5.,3.,3966.,0.,0.,10027.,0.491203001929,5.10851122006,65.
9.5,6058.,5.,1.,3963.,0.,0.,10027.,0.489037946772,5.08599464643,65.
9.52,6067.,1.,5.,3955.,0.,0.,10028.,0.492290010235,25.5990805322,13.
9.54,6070.,4.,3.,3951.,0.,0.,10028.,0.500219744663,6.50285668062,52.
9.56,6085.,1.,3.,3938.,0.,0.,10027.,0.514214229665,26.7391399426,13.
9.58,6093.,1.,1.,3931.,0.,0.,10026.,0.532476601084,27.6887832564,13.
9.6,6100.,1.,1.,3925.,0.,0.,10027.,0.555125413039,28.866521478,13.
9.62,6112.,1.,2.,3911.,0.,0.,10026.,0.582605990794,30.2955115213,13.
9.64,6121.,1.,0.,3904.,0.,0.,10026.,0.613623142568,31.9084034136,13.
9.66,6130.,0.,1.,3896.,0.,0.,10027.,0.647981024297,inf,0.
9.68,6139.,0.,0.,3887.,0.,0.,10026.,0.685358723821,inf,0.
9.7,6144.,0.,0.,3881.,0.,0.,10025.,0.724600919794,inf,0.
9.72,6155.,0.,0.,3877.,0.,0.,10032.,0.765662911301,inf,0.
9.74,6162.,0.,0.,3869.,0.,0.,10031.,0.807910716159,inf,0.
9.76,6168.,1.,0.,3860.,0.,0.,10029.,0.85053636891,44.2278911833,13.
9.78,6175.,1.,0.,3849.,0.,0.,10025.,0.893253898093,46.4492027008,13.
9.8,6184.,2.,0.,3840.,0.,0.,10026.,0.934951738682,24.3087452057,26.
9.82,6198.,1.,0.,3829.,0.,0.,10028.,0.975824807499,50.74288999,13.
9.84,6202.,3.,1.,3820.,0.,0.,10026.,1.0133841276,17.5653248783,39.
9.86,6216.,5.,1.,3805.,0.,0.,10027.,1.04955753318,10.9153983451,65.
9.88,6213.,6.,3.,3801.,0.,0.,10023.,1.08009136735,9.36079185038,78.
9.9,6215.,7.,4.,3796.,0.,0.,10022.,1.10733436615,8.22591243423,91.
9.92,6220.,6.,7.,3786.,0.,0.,10019.,1.13109984373,9.80286531233,78.
9.94,6219.,11.,6.,3784.,0.,0.,10020.,1.14871343408,5.43028168836,143.
9.96,6225.,12.,3.,3782.,0.,0.,10022.,1.16259945505,5.03793097186,156.
9.98,6222.,10.,6.,3783.,0.,0.,10021.,1.17003941209,6.08420494288,130.
10.,6222.,14.,7.,3775.,0.,0.,10018.,1.17303256813,4.35697811021,182.
