t,prevalence
2013.75,0
2013.77,0
2013.79,0
2013.81,0
2013.83,1
2013.85,2
2013.87,18
2013.89,39
2013.91,83
2013.93,182
2013.95,264
2013.97,308
2013.99,307
2014.01,334
2014.03,332
2014.05,323
2014.07,318
2014.09,308
2014.11,292
2014.13,286
2014.15,291
2014.17,270
2014.19,271
2014.21,267
2014.23,258
2014.25,259
