t,cases
2013.77,0.
2013.79,0.0510705860056
2013.81,0.170761775968
2013.83,0.533534807422
2013.85,1.64783151615
2013.87,5.0107328749
2013.89,14.594883266
2013.91,37.6975977216
2013.93,73.2540424749
2013.95,89.4047470925
2013.97,72.0029958173
2013.99,48.6019952444
2014.01,31.6733795254
2014.03,20.6089187082
2014.05,13.4692723015
2014.07,8.87458980747
2014.09,5.92535616041
2014.11,4.03936623962
2014.13,2.84000257991
2014.15,2.0836801615
2014.17,1.61287101116
2014.19,1.32572200904
2014.21,1.15639525761
2014.23,1.06235014996
2014.25,1.01611398814
