t,neff
2013.75,0.
2013.77,0.0221509991369
2013.79,0.0758848505786
2013.81,0.243598294509
2013.83,0.778017668527
2013.85,2.49254876918
2013.87,8.09010139955
2013.89,27.3517723192
2013.91,103.912133727
2013.93,520.51017111
2013.95,4070.58702354
2013.97,36283.8925262
2013.99,62568.1062048
2014.01,40070.7570248
2014.03,24049.6834512
2014.05,14502.7003553
2014.07,8862.01735485
2014.09,5519.72144394
2014.11,3526.71781248
2014.13,2328.6709222
2014.15,1601.71770455
2014.17,1155.81015389
2014.19,878.721646908
2014.21,703.725640242
2014.23,590.883335359
2014.25,516.136706948
