t,prevalence
2013.75,0
2013.77,0
2013.79,0
2013.81,0
2013.83,2
2013.85,8
2013.87,7
2013.89,37
2013.91,93
2013.93,157
2013.95,263
2013.97,281
2013.99,304
2014.01,308
2014.03,309
2014.05,307
2014.07,285
2014.09,318
2014.11,274
2014.13,301
2014.15,272
2014.17,262
2014.19,265
2014.21,268
2014.23,259
2014.25,208
