t,s,e,i,r,c,o,n,reff,coal,reportr
2013.75,17000,0,0,0,0,0,17000,1.95186,inf,0
2013.77,16997.6,1.56768,0.591331,0.218843,0,0,17000,1.95158,124.428,5.61078
2013.79,16986.1,6.02716,3.72767,4.10007,0,0,17000,1.95026,32.3421,21.5714
2013.81,16956,15.7637,10.698,17.5706,0,0,17000,1.9468,12.3438,56.419
2013.83,16884.8,37.0559,25.983,52.1252,0,0,17000,1.93863,5.22909,132.624
2013.85,16725.3,82.9229,59.1121,132.624,0,0,17000,1.92032,2.31466,296.784
2013.87,16381,178.488,129.082,311.4,0,0,17000,1.88079,1.05322,638.814
2013.89,15675.5,363.721,268.801,691.978,0,0,17000,1.79978,0.494583,1301.77
2013.91,14358.5,672.08,516.826,1452.63,0,0,17000,1.64857,0.245173,2405.4
2013.93,12273.1,1047.76,864.473,2814.71,0,0,17000,1.40913,0.134424,3749.96
2013.95,9702.47,1272.16,1168.34,4857.03,0,0,17000,1.11399,0.0875238,4553.11
2013.97,7356.99,1160.69,1215.22,7267.1,0,0,17000,0.844693,0.0727397,4154.14
2013.99,5725.45,828.182,983.74,9462.63,0,0,17000,0.657368,0.0793359,2964.09
2014.01,4782.94,501.76,657.273,11058,0,0,17000,0.549153,0.109392,1795.82
2014.03,4296.24,278.087,388.066,12037.6,0,0,17000,0.493273,0.177294,995.283
2014.05,4066.89,147.949,213.742,12571.4,0,0,17000,0.466941,0.315455,529.514
2014.07,3974.09,77.6145,113.839,12834.5,0,0,17000,0.456286,0.587599,277.785
2014.09,3952.11,40.7589,59.9382,12947.2,0,0,17000,0.453762,1.11274,145.878
2014.11,3966.61,21.6515,31.6431,12980.1,0,0,17000,0.455426,2.10241,77.4914
2014.13,3999.86,11.7574,16.9397,12971.4,0,0,17000,0.459245,3.90409,42.0801
2014.15,4042.76,6.61828,9.30966,12941.3,0,0,17000,0.464169,7.01001,23.687
2014.17,4090.57,3.9368,5.33945,12900.2,0,0,17000,0.469659,11.9241,14.09
2014.19,4140.86,2.53196,3.26538,12853.3,0,0,17000,0.475433,18.768,9.06199
2014.21,4192.34,1.79487,2.17859,12803.7,0,0,17000,0.481343,26.8046,6.4239
2014.23,4244.33,1.4098,1.6094,12752.7,0,0,17000,0.487313,34.5492,5.04572
2014.25,4296.48,1.2119,1.31373,12701,0,0,17000,0.4933,40.6849,4.33742
