t,s,e,i,r,c,o,n,reff,coal,reportr
2013.75,17000,0,0,0,0,0,17000,1.96949,inf,0
2013.77,16997.6,1.58844,0.593336,0.219499,0,0,17000,1.96921,123.951,5.45109
2013.79,16986,6.1482,3.76187,4.1291,0,0,17000,1.96786,32.0019,21.099
2013.81,16955.2,16.1965,10.8685,17.78,0,0,17000,1.96429,12.1259,55.582
2013.83,16882,38.3697,26.5948,53.0463,0,0,17000,1.95582,5.09646,131.675
2013.85,16716.6,86.546,60.9798,135.837,0,0,17000,1.93666,2.23736,297.003
2013.87,16357,187.654,134.17,321.129,0,0,17000,1.895,1.00967,643.979
2013.89,15616.3,384.386,281.085,718.275,0,0,17000,1.80918,0.470591,1319.11
2013.91,14232.6,710.43,541.643,1515.31,0,0,17000,1.64888,0.232058,2438.01
2013.93,12059.5,1098.28,901.614,2940.57,0,0,17000,1.39712,0.127189,3769.02
2013.95,9431.92,1309.16,1201.65,5057.27,0,0,17000,1.09271,0.083453,4492.68
2013.97,7098.15,1166.06,1224.24,7511.56,0,0,17000,0.822336,0.0705113,4001.6
2013.99,5517.54,813.437,969.562,9699.46,0,0,17000,0.63922,0.0785698,2791.5
2014.01,4623.9,484.297,635.68,11256.1,0,0,17000,0.53569,0.110594,1661.98
2014.03,4170.65,265.055,369.833,12194.5,0,0,17000,0.483179,0.182264,909.596
2014.05,3961.49,139.723,201.442,12697.3,0,0,17000,0.458947,0.328416,479.492
2014.07,3880.32,72.7831,106.374,12940.5,0,0,17000,0.449544,0.617548,249.772
2014.09,3864.99,38.009,55.6321,13041.4,0,0,17000,0.447767,1.17787,130.437
2014.11,3883.32,20.1058,29.2153,13067.4,0,0,17000,0.449891,2.23725,68.9978
2014.13,3918.86,10.8909,15.5814,13054.7,0,0,17000,0.454009,4.16802,37.3746
2014.15,3963.18,6.13084,8.54841,13022.1,0,0,17000,0.459143,7.48786,21.0394
2014.17,4011.95,3.66023,4.90906,12979.5,0,0,17000,0.464793,12.6964,12.5609
2014.19,4062.93,2.37283,3.01804,12931.7,0,0,17000,0.4707,19.8339,8.14291
2014.21,4114.96,1.70134,2.03269,12881.3,0,0,17000,0.476727,28.0161,5.83855
2014.23,4167.42,1.35311,1.51992,12829.7,0,0,17000,0.482805,35.6754,4.6435
2014.25,4219.99,1.17602,1.25578,12777.6,0,0,17000,0.488895,41.5652,4.03579
