t,cases
2013.77,0.
2013.79,0.0585367830807
2013.81,0.199229251032
2013.83,0.633122418347
2013.85,1.9878260553
2013.87,6.12969666265
2013.89,17.9551610814
2013.91,45.5739291588
2013.93,83.4762125895
2013.95,94.5143469181
2013.97,74.6742586397
2013.99,52.3891317498
2014.01,36.1388791608
2014.03,24.9404312966
2014.05,17.265178305
2014.07,12.0124442427
2014.09,8.42368041145
2014.11,5.97759412839
2014.13,4.31586810821
2014.15,3.19228383322
2014.17,2.4376536043
2014.19,1.93572599326
2014.21,1.60665553432
2014.23,1.39559340032
2014.25,1.26487937705
