t,s,e,i,r,c,o,n,reff,coal,reportr
2013.75,17000,0,0,0,0,0,17000,2.03998,inf,0
2013.77,16997.5,1.63808,0.617694,0.225969,0,0,17000,2.03969,123.356,5.04557
2013.79,16985.1,6.53695,4.02044,4.3222,0,0,17000,2.0382,30.8891,20.1349
2013.81,16951,17.8845,12.0332,19.074,0,0,17000,2.03411,11.2676,55.0871
2013.83,16866.5,44.1648,30.6496,58.6574,0,0,17000,2.02397,4.54006,136.035
2013.85,16667.3,103.915,73.2939,155.504,0,0,17000,2.00006,1.90678,320.074
2013.87,16216.8,234.017,167.798,381.343,0,0,17000,1.94601,0.823818,720.811
2013.89,15264.7,490.786,362.036,882.476,0,0,17000,1.83175,0.369749,1511.71
2013.91,13494.7,899.122,700.809,1905.33,0,0,17000,1.61936,0.178426,2769.45
2013.93,10871.1,1305.78,1121.36,3701.71,0,0,17000,1.30453,0.0989733,4022.01
2013.95,8053.71,1383.62,1364.49,6198.18,0,0,17000,0.966437,0.0691975,4261.79
2013.97,5900.79,1072.22,1230.47,8796.53,0,0,17000,0.708089,0.0654243,3302.61
2013.99,4629.07,662.339,864.247,10844.3,0,0,17000,0.555484,0.0830854,2040.12
2014.01,3982.76,360.333,513.204,12143.7,0,0,17000,0.477928,0.131399,1109.89
2014.03,3685.2,184.963,276.837,12853,0,0,17000,0.442221,0.236858,569.718
2014.05,3565.77,93.0145,142.427,13198.8,0,0,17000,0.427889,0.455737,286.5
2014.07,3534.8,46.7205,71.9701,13346.5,0,0,17000,0.424172,0.899432,143.907
2014.09,3547.46,23.7184,36.3569,13392.5,0,0,17000,0.425691,1.77805,73.0566
2014.11,3581.62,12.3031,18.5955,13387.5,0,0,17000,0.429791,3.4608,37.8957
2014.13,3626.39,6.61604,9.7556,13357.2,0,0,17000,0.435163,6.5161,20.3785
2014.15,3676.35,3.76694,5.34212,13314.5,0,0,17000,0.441159,11.6022,11.6028
2014.17,3728.82,2.33242,3.12807,13265.7,0,0,17000,0.447454,19.0053,7.18425
2014.19,3782.43,1.60866,2.01313,13213.9,0,0,17000,0.453888,27.9523,4.95496
2014.21,3836.5,1.24524,1.45175,13160.8,0,0,17000,0.460377,36.6263,3.83556
2014.23,3890.68,1.06626,1.17168,13107.1,0,0,17000,0.466878,43.3783,3.28427
2014.25,3944.79,0.98267,1.03599,13053.2,0,0,17000,0.473371,47.723,3.02679
