t,s,e,i,r,c,o,n,reff,coal,reportr
2013.75,17000,0,0,0,0,0,17000,2.00786,inf,0
2013.77,16997.5,1.62231,0.60663,0.22374,0,0,17000,2.00757,123.488,5.22684
2013.79,16985.5,6.38938,3.90156,4.24721,0,0,17000,2.00614,31.3321,20.5857
2013.81,16952.8,17.1856,11.4913,18.5345,0,0,17000,2.00228,11.6264,55.3697
2013.83,16873.4,41.6482,28.7403,56.2157,0,0,17000,1.99291,4.77503,134.185
2013.85,16689.7,96.1364,67.4285,146.693,0,0,17000,1.97122,2.04612,309.738
2013.87,16281.8,212.839,151.622,353.787,0,0,17000,1.92303,0.901612,685.737
2013.89,15429,441.843,322.894,806.234,0,0,17000,1.82231,0.411567,1423.56
2013.91,13838.8,813.729,624.283,1723.21,0,0,17000,1.63449,0.200442,2621.72
2013.93,11414.4,1218.26,1018.51,3348.82,0,0,17000,1.34815,0.110429,3925.07
2013.95,8662.68,1363.8,1293.21,5680.32,0,0,17000,1.02314,0.074864,4393.95
2013.97,6412.73,1125.14,1232.15,8229.99,0,0,17000,0.757404,0.0671751,3625.02
2013.99,5002.18,732.903,912.178,10352.7,0,0,17000,0.590805,0.0804421,2361.31
2014.01,4251.54,414.446,565.248,11768.8,0,0,17000,0.502147,0.120906,1335.29
2014.03,3890.43,218.648,314.917,12576,0,0,17000,0.459496,0.209711,704.452
2014.05,3735.06,112.2,166.019,12986.7,0,0,17000,0.441147,0.392352,361.491
2014.07,3684.25,57.2477,85.4948,13173,0,0,17000,0.435144,0.758509,184.444
2014.09,3685.92,29.4166,43.8395,13240.8,0,0,17000,0.435342,1.4768,94.7762
2014.11,3713.9,15.3824,22.6767,13248,0,0,17000,0.438647,2.84562,49.5598
2014.13,3755.05,8.28952,11.9757,13224.7,0,0,17000,0.443507,5.33896,26.7077
2014.15,3802.79,4.68747,6.55551,13186,0,0,17000,0.449145,9.56165,15.1024
2014.17,3853.77,2.84892,3.79849,13139.6,0,0,17000,0.455167,15.9432,9.17881
2014.19,3906.31,1.90749,2.39029,13089.4,0,0,17000,0.461372,24.1365,6.14566
2014.21,3959.52,1.42623,1.66994,13037.4,0,0,17000,0.467657,32.7207,4.59511
2014.23,4012.97,1.18314,1.30326,12984.5,0,0,17000,0.473969,39.9761,3.8119
2014.25,4066.41,1.06449,1.1201,12931.4,0,0,17000,0.480281,45.0234,3.42964
