t,neff
2013.75,0.
2013.77,0.0217226873996
2013.79,0.0726560649624
2013.81,0.227147124513
2013.83,0.705679068183
2013.85,2.19598770035
2013.87,6.89673999163
2013.89,22.2907645671
2013.91,78.1637311028
2013.93,334.108733376
2013.95,2022.56480142
2013.97,15905.7814547
2013.99,45925.9577125
2014.01,32014.7184682
2014.03,18346.2323126
2014.05,10541.0193427
2014.07,6170.93408366
2014.09,3709.95279224
2014.11,2310.74424264
2014.13,1506.03440772
2014.15,1036.9657732
2014.17,759.041482613
2014.19,590.916678882
2014.21,486.410771995
2014.23,419.097597994
2014.25,373.745720583
