t,s,e,i,r,c,o,n,reff,coal,reportr
0.,1689.,0.,35.,276.,0.,0.,2000.,2.91055163715,6.65268945635,7334.59012563
0.002738,1646.,0.,65.,289.,0.,0.,2000.,2.83645233556,3.49101825915,13274.5969304
0.005476,1605.,0.,103.,292.,0.,0.,2000.,2.7657995131,2.14819379659,20511.1691892
0.008214,1516.,0.,150.,334.,0.,0.,2000.,2.61243119119,1.3932966353,28214.2568649
0.010952,1446.,0.,195.,359.,0.,0.,2000.,2.49180442115,1.02227873688,34984.934073
0.01369,1373.,0.,232.,395.,0.,0.,2000.,2.36600793239,0.815864804274,39521.7965027
0.016428,1220.,0.,298.,482.,0.,0.,2000.,2.10235227787,0.564389873255,45108.0704741
0.019166,1100.,0.,378.,522.,0.,0.,2000.,1.89556352923,0.401177466504,51589.6570115
0.021904,977.,0.,441.,582.,0.,0.,2000.,1.68360506187,0.30541588424,53457.8279245
0.024642,754.,0.,504.,741.,0.,0.,1999.,1.29997262362,0.206344860892,47173.4065659
0.02738,658.,0.,524.,817.,0.,0.,1999.,1.13445886783,0.173199827149,42800.8641654
0.030118,562.,0.,532.,905.,0.,0.,1999.,0.968945112035,0.145706031885,37114.4735714
0.032856,400.,0.,505.,1094.,0.,0.,1999.,0.689640649136,0.109250003823,25075.3340026
0.035594,334.,0.,493.,1172.,0.,0.,1999.,0.575849942028,0.0934442096597,20440.3695422
0.038332,293.,0.,448.,1258.,0.,0.,1999.,0.505161775492,0.0902074599092,16294.4982303
0.04107,225.,0.,389.,1386.,0.,0.,2000.,0.387728903706,0.0797385920218,10859.511135
0.043808,211.,0.,347.,1442.,0.,0.,2000.,0.363603549698,0.0838279077113,9084.27108565
0.046546,195.,0.,312.,1493.,0.,0.,2000.,0.336031716545,0.0861619786014,7548.61648047
0.049284,160.,0.,256.,1585.,0.,0.,2001.,0.275580541254,0.0861189191418,5079.50053639
0.052022,147.,0.,226.,1628.,0.,0.,2001.,0.253189622277,0.0896246450538,4119.90153369
0.05476,140.,0.,199.,1662.,0.,0.,2001.,0.241132973597,0.096937878833,3454.9532457
0.057498,117.,0.,164.,1720.,0.,0.,2001.,0.201518270792,0.0983015955082,2379.52774151
0.060236,116.,0.,145.,1740.,0.,0.,2001.,0.199795892409,0.110232216502,2085.86911675
0.062974,113.,0.,119.,1769.,0.,0.,2001.,0.19462875726,0.130842862024,1667.57919221
0.065712,108.,0.,91.,1802.,0.,0.,2001.,0.186016865346,0.163531310195,1218.78250175
0.06845,106.,0.,74.,1821.,0.,0.,2001.,0.182572108581,0.19737525252,972.744194518
0.071188,104.,0.,57.,1840.,0.,0.,2001.,0.179127351815,0.251406809565,735.138651849
0.073926,101.,0.,50.,1850.,0.,0.,2001.,0.173960216666,0.278336346666,626.256779999
0.076664,98.,0.,39.,1864.,0.,0.,2001.,0.168793081518,0.346242218498,473.970972902
0.079402,94.,0.,33.,1873.,0.,0.,2000.,0.161984519771,0.392689744898,384.875218975
0.08214,94.,0.,26.,1880.,0.,0.,2000.,0.161984519771,0.498413906986,303.235021011
