t,s,e,i,r,c,o,n,reff,coal,reportr
0.,1717.,0.,37.,246.,0.,0.,2000.,3.03900261488,6.57081646461,8095.90296604
0.002738,1675.,0.,65.,260.,0.,0.,2000.,2.96466475243,3.64881815684,13874.6310414
0.005476,1627.,0.,107.,266.,0.,0.,2000.,2.87970719535,2.15305210867,22185.264233
0.008214,1528.,0.,153.,319.,0.,0.,2000.,2.70448223386,1.41410835757,29792.5762882
0.010952,1455.,0.,202.,343.,0.,0.,2000.,2.57527594913,1.01991126698,37454.8134041
0.01369,1388.,0.,229.,383.,0.,0.,2000.,2.45668935903,0.858232090491,40505.8941517
0.016428,1226.,0.,279.,494.,0.,0.,1999.,2.17104312543,0.622521326289,43611.9143037
0.019166,1103.,0.,372.,524.,0.,0.,1999.,1.95323047908,0.420049565393,52315.3251517
0.021904,970.,0.,449.,580.,0.,0.,1999.,1.7177094875,0.306050688195,55530.1123117
0.024642,758.,0.,498.,743.,0.,0.,1999.,1.34229256858,0.215629328286,48129.242339
0.02738,647.,0.,530.,822.,0.,0.,1999.,1.1457299365,0.172940367774,43721.054377
0.030118,545.,0.,529.,925.,0.,0.,1999.,0.965104815139,0.145951578849,36758.912199
0.032856,383.,0.,520.,1097.,0.,0.,2000.,0.677890507571,0.104290847319,25380.2206035
0.035594,331.,0.,499.,1170.,0.,0.,2000.,0.585853154063,0.0939243533567,21048.5321192
0.038332,280.,0.,456.,1264.,0.,0.,2000.,0.49558574966,0.0869448683614,16271.0713328
0.04107,207.,0.,389.,1404.,0.,0.,2000.,0.366379464927,0.0753479619388,10261.5560537
0.043808,182.,0.,349.,1469.,0.,0.,2000.,0.322130737279,0.0738408566829,8094.50116635
0.046546,162.,0.,313.,1525.,0.,0.,2000.,0.286731755161,0.0732860716065,6461.7868343
0.049284,133.,0.,255.,1612.,0.,0.,2000.,0.235403231089,0.073851994067,4322.00332279
0.052022,120.,0.,223.,1657.,0.,0.,2000.,0.212393892711,0.0761951184615,3410.19634138
0.05476,114.,0.,185.,1701.,0.,0.,2000.,0.201774198076,0.0872537072761,2687.63231837
0.057498,98.,0.,160.,1742.,0.,0.,2000.,0.173455012381,0.0867275061905,1998.20174263
0.060236,91.,0.,140.,1769.,0.,0.,2000.,0.16106536864,0.0920373535083,1623.53891589
0.062974,88.,0.,117.,1795.,0.,0.,2000.,0.155755521322,0.106499501758,1312.08451161
0.065712,83.,0.,88.,1829.,0.,0.,2000.,0.146905775792,0.133550705266,930.794995419
0.06845,81.,0.,69.,1850.,0.,0.,2000.,0.14336587758,0.166221307339,712.241679819
0.071188,74.,0.,61.,1865.,0.,0.,2000.,0.130976233839,0.171772109952,575.24761902
0.073926,73.,0.,51.,1876.,0.,0.,2000.,0.129206284733,0.202676525071,474.445477539
0.076664,72.,0.,39.,1889.,0.,0.,2000.,0.127436335627,0.261407867953,357.84123044
0.079402,72.,0.,33.,1895.,0.,0.,2000.,0.127436335627,0.308936571217,302.78873345
0.08214,70.,0.,29.,1900.,0.,0.,1999.,0.123958416623,0.341954252754,258.82517391
