t,s,e,i,r,c,o,n,reff,coal,reportr
0.,1684.,0.,40.,276.,0.,0.,2000.,2.80967335868,5.61934671736,8091.85927299
0.002738,1651.,0.,62.,288.,0.,0.,2001.,2.75323782003,3.55256492907,12290.4536286
0.005476,1606.,0.,100.,295.,0.,0.,2001.,2.67819499635,2.14255599708,19283.0039737
0.008214,1514.,0.,148.,339.,0.,0.,2001.,2.52477411237,1.36474276345,26903.9929415
0.010952,1450.,0.,198.,353.,0.,0.,2001.,2.41804654091,0.976988501379,34471.6714872
0.01369,1383.,0.,230.,388.,0.,0.,2001.,2.30631611454,0.802196909405,38192.5948568
0.016428,1225.,0.,294.,482.,0.,0.,2001.,2.04283242249,0.555872768026,43242.6767194
0.019166,1099.,0.,377.,525.,0.,0.,2001.,1.83271251618,0.388904512717,49747.1485392
0.021904,972.,0.,440.,589.,0.,0.,2001.,1.62092499156,0.29471363483,51350.9037327
0.024642,770.,0.,486.,745.,0.,0.,2001.,1.28406609414,0.211368904385,44932.0407661
0.02738,668.,0.,515.,818.,0.,0.,2001.,1.11396902712,0.173043732369,41305.9715257
0.030118,582.,0.,518.,901.,0.,0.,2001.,0.970553852973,0.149892486946,36197.7765005
0.032856,423.,0.,513.,1065.,0.,0.,2001.,0.705402542625,0.110004295146,26054.7483144
0.035594,350.,0.,503.,1148.,0.,0.,2001.,0.583666406427,0.0928296471455,21138.0625752
0.038332,304.,0.,451.,1246.,0.,0.,2001.,0.50695596444,0.0899256699671,16461.8740773
0.04107,230.,0.,383.,1387.,0.,0.,2000.,0.383743986043,0.0801554017844,10582.1241591
0.043808,197.,0.,353.,1450.,0.,0.,2000.,0.328685066306,0.0744895334405,8353.85964524
0.046546,169.,0.,323.,1508.,0.,0.,2000.,0.281968407136,0.0698373763804,6557.45727635
0.049284,142.,0.,252.,1606.,0.,0.,2000.,0.236920200079,0.0752127619297,4298.68011023
0.052022,135.,0.,226.,1638.,0.,0.,1999.,0.225353712142,0.079771225537,3666.95560398
0.05476,133.,0.,194.,1672.,0.,0.,1999.,0.222015138629,0.0915526344861,3101.10745637
0.057498,115.,0.,158.,1726.,0.,0.,1999.,0.19196797701,0.0971989757012,2183.82770646
0.060236,110.,0.,138.,1751.,0.,0.,1999.,0.183621543227,0.106447271436,1824.4636535
0.062974,107.,0.,114.,1779.,0.,0.,2000.,0.178524376116,0.125280263941,1465.32807916
0.065712,103.,0.,90.,1806.,0.,0.,1999.,0.171936535931,0.152832476383,1114.14875283
0.06845,101.,0.,75.,1823.,0.,0.,1999.,0.168597962417,0.179837826579,910.428997054
0.071188,97.,0.,58.,1844.,0.,0.,1999.,0.161920815391,0.223339055712,676.181325073
0.073926,97.,0.,47.,1855.,0.,0.,1999.,0.161920815391,0.275609898538,547.940039283
0.076664,96.,0.,43.,1860.,0.,0.,1999.,0.160251528634,0.298142378855,496.138732652
0.079402,94.,0.,30.,1875.,0.,0.,1999.,0.156912955121,0.41843454699,338.931983062
0.08214,92.,0.,26.,1881.,0.,0.,1999.,0.153574381608,0.472536558794,287.49124237
