t,s,e,i,r,c,o,n,reff,coal,reportr
0.,1727.,0.,41.,232.,0.,0.,2000.,2.76280754185,5.39084398409,8155.80786353
0.002738,1691.,0.,67.,242.,0.,0.,2000.,2.70521572279,3.23010832572,13049.9606468
0.005476,1650.,0.,102.,248.,0.,0.,2000.,2.63962503998,2.070294149,19385.4062936
0.008214,1564.,0.,140.,296.,0.,0.,2000.,2.50204458335,1.42973976192,25220.6094002
0.010952,1496.,0.,191.,313.,0.,0.,2000.,2.39326003625,1.00241258063,32912.1120185
0.01369,1429.,0.,232.,339.,0.,0.,2000.,2.2860752619,0.788301814448,38186.6011748
0.016428,1275.,0.,299.,426.,0.,0.,2000.,2.03971025817,0.545741875095,43910.8824378
0.019166,1167.,0.,362.,471.,0.,0.,2000.,1.866934801,0.412582276465,48659.7886534
0.021904,1039.,0.,444.,517.,0.,0.,2000.,1.66216388881,0.299488988975,53136.0551976
0.024642,813.,0.,508.,679.,0.,0.,2000.,1.30061524697,0.204821298736,47571.3032733
0.02738,717.,0.,520.,763.,0.,0.,2000.,1.14703706283,0.176467240435,42945.0676323
0.030118,620.,0.,531.,848.,0.,0.,1999.,0.992355283574,0.149507387356,37939.7272016
0.032856,472.,0.,524.,1003.,0.,0.,1999.,0.755470473947,0.115339003656,28502.3900411
0.035594,412.,0.,495.,1092.,0.,0.,1999.,0.659436091665,0.106575529966,23502.302307
0.038332,361.,0.,440.,1197.,0.,0.,1998.,0.578096059352,0.105108374428,18314.0831603
0.04107,273.,0.,389.,1336.,0.,0.,1998.,0.437175136297,0.089907483043,12244.4012174
0.043808,248.,0.,356.,1395.,0.,0.,1999.,0.39694211343,0.089200474928,10174.4202514
0.046546,225.,0.,319.,1454.,0.,0.,1998.,0.360309178267,0.0903596685308,8275.58120643
0.049284,176.,0.,255.,1567.,0.,0.,1998.,0.281841846111,0.0884209713289,5174.61629459
0.052022,158.,0.,237.,1603.,0.,0.,1998.,0.253017111849,0.0854066200336,4317.4839966
0.05476,147.,0.,200.,1651.,0.,0.,1998.,0.235401996468,0.094160798587,3389.78874913
0.057498,133.,0.,164.,1701.,0.,0.,1998.,0.212982758709,0.103894028638,2514.90041483
0.060236,124.,0.,143.,1731.,0.,0.,1998.,0.198570391578,0.111088330953,2044.48075169
0.062974,121.,0.,111.,1766.,0.,0.,1998.,0.193766269201,0.13965136519,1548.58002346
0.065712,114.,0.,85.,1799.,0.,0.,1998.,0.182556650322,0.171818023832,1117.24669997
0.06845,109.,0.,69.,1820.,0.,0.,1998.,0.174549779694,0.202376556166,867.163305518
0.071188,104.,0.,58.,1836.,0.,0.,1998.,0.166542909065,0.229714357332,695.483188257
0.073926,102.,0.,47.,1849.,0.,0.,1998.,0.163340160814,0.278025805641,552.743104195
0.076664,99.,0.,45.,1854.,0.,0.,1998.,0.158536038437,0.281841846111,513.656764537
0.079402,99.,0.,34.,1866.,0.,0.,1999.,0.158456730764,0.372839366504,387.902076911
0.08214,98.,0.,29.,1872.,0.,0.,1999.,0.156856157726,0.432706642003,327.515657332
