t,s,e,i,r,c,o,n,reff,coal,reportr
0.,1616.,0.,35.,349.,0.,0.,2000.,2.89591561599,6.6192356937,7297.7073523
0.002738,1573.,0.,65.,362.,0.,0.,2000.,2.81885845542,3.46936425282,13192.2575714
0.005476,1530.,0.,103.,367.,0.,0.,2000.,2.74180129484,2.12955440376,20333.1984026
0.008214,1445.,0.,153.,403.,0.,0.,2001.,2.58818490823,1.35329929842,28511.4449491
0.010952,1377.,0.,197.,427.,0.,0.,2001.,2.46638797137,1.00157887162,34983.246986
0.01369,1306.,0.,231.,464.,0.,0.,2001.,2.33921764024,0.810118663288,38905.8677925
0.016428,1157.,0.,293.,551.,0.,0.,2001.,2.07233905801,0.565826363962,43718.0647678
0.019166,1053.,0.,363.,585.,0.,0.,2001.,1.88606138987,0.415660912369,49294.1004858
0.021904,923.,0.,456.,622.,0.,0.,2001.,1.6532143047,0.290037597317,54278.3320521
0.024642,721.,0.,497.,783.,0.,0.,2001.,1.29140575698,0.207872154041,46211.6636078
0.02738,621.,0.,530.,850.,0.,0.,2001.,1.11229261454,0.167893224836,42445.0861709
0.030118,534.,0.,516.,951.,0.,0.,2001.,0.95646418062,0.148289020251,35534.5572384
0.032856,399.,0.,507.,1094.,0.,0.,2000.,0.715018769048,0.112823474406,26101.0451453
0.035594,329.,0.,488.,1183.,0.,0.,2000.,0.589576879741,0.0966519474985,20715.3732466
0.038332,275.,0.,471.,1254.,0.,0.,2000.,0.492807422276,0.0837040207687,16712.0853042
0.04107,218.,0.,382.,1400.,0.,0.,2000.,0.390661883841,0.081814007087,10744.7644532
0.043808,191.,0.,345.,1463.,0.,0.,1999.,0.342448379298,0.0794083198371,8506.41774176
0.046546,167.,0.,314.,1518.,0.,0.,1999.,0.299418216454,0.0762848959119,6769.24703759
0.049284,135.,0.,254.,1609.,0.,0.,1998.,0.242165809472,0.0762726958968,4428.72832363
0.052022,126.,0.,223.,1649.,0.,0.,1998.,0.226021422174,0.0810839182687,3628.99995443
0.05476,118.,0.,189.,1690.,0.,0.,1997.,0.211776850106,0.089640994754,2881.85937625
0.057498,101.,0.,159.,1737.,0.,0.,1997.,0.181266625938,0.0912033338055,2075.14033374
0.060236,96.,0.,138.,1763.,0.,0.,1997.,0.172293030595,0.0998800177362,1711.90355199
0.062974,95.,0.,114.,1788.,0.,0.,1997.,0.170498311526,0.119647937913,1399.45014101
0.065712,92.,0.,90.,1815.,0.,0.,1997.,0.16511415432,0.146768137173,1069.93971999
0.06845,92.,0.,71.,1834.,0.,0.,1997.,0.16511415432,0.186044117544,844.063556885
0.071188,87.,0.,56.,1854.,0.,0.,1997.,0.156140558977,0.223057941395,629.558733794
0.073926,85.,0.,51.,1862.,0.,0.,1998.,0.152474768927,0.239176108121,559.8873515
0.076664,84.,0.,43.,1871.,0.,0.,1998.,0.150680948116,0.280336647658,466.508215367
0.079402,82.,0.,31.,1885.,0.,0.,1998.,0.147093306494,0.379595629663,328.312260095
0.08214,82.,0.,27.,1889.,0.,0.,1998.,0.147093306494,0.435832019242,285.949387825
