t,s,e,i,r,c,o,n,reff,coal,reportr
0.,1745.,0.,38.,217.,0.,0.,2000.,2.77550935488,5.84317758923,7593.79359496
0.002738,1703.,0.,66.,231.,0.,0.,2000.,2.70870626439,3.28328032048,12871.7721684
0.005476,1658.,0.,102.,240.,0.,0.,2000.,2.63713152458,2.06833845065,19367.0939165
0.008214,1564.,0.,156.,280.,0.,0.,2000.,2.48761984587,1.27570248506,27940.9461088
0.010952,1499.,0.,191.,310.,0.,0.,2000.,2.38423411058,0.998632088203,32787.9874887
0.01369,1431.,0.,226.,343.,0.,0.,2000.,2.27607672598,0.805690876453,37036.3204852
0.016428,1274.,0.,288.,439.,0.,0.,2001.,2.02534773766,0.562596593795,41997.6106881
0.019166,1150.,0.,370.,481.,0.,0.,2001.,1.82821813054,0.395290406604,48703.7309976
0.021904,1023.,0.,440.,538.,0.,0.,2001.,1.62631925873,0.295694410679,51521.7941167
0.024642,813.,0.,488.,700.,0.,0.,2001.,1.29247073055,0.211880447631,45412.2515885
0.02738,699.,0.,521.,781.,0.,0.,2001.,1.11123867239,0.170631657949,41684.7850787
0.030118,608.,0.,521.,872.,0.,0.,2001.,0.966570976843,0.148417808344,36258.0104833
0.032856,456.,0.,514.,1031.,0.,0.,2001.,0.724928232632,0.112829296908,26828.1440333
0.035594,403.,0.,481.,1117.,0.,0.,2001.,0.640671223138,0.106556544389,22187.7257997
0.038332,349.,0.,456.,1196.,0.,0.,2001.,0.554824458747,0.0973376243416,18215.9966296
0.04107,275.,0.,392.,1335.,0.,0.,2002.,0.436964223509,0.0891763721446,12332.8782443
0.043808,234.,0.,362.,1406.,0.,0.,2002.,0.371816830186,0.0821694652344,9691.03386196
0.046546,220.,0.,323.,1459.,0.,0.,2002.,0.349571378807,0.0865811464537,8129.63198553
0.049284,179.,0.,256.,1567.,0.,0.,2002.,0.284423985484,0.0888824954637,5242.50290044
0.052022,167.,0.,228.,1607.,0.,0.,2002.,0.265356455731,0.0931075283266,4356.09157728
0.05476,162.,0.,197.,1643.,0.,0.,2002.,0.257411651667,0.104532650423,3651.12686724
0.057498,140.,0.,161.,1700.,0.,0.,2001.,0.222565685457,0.110591644948,2579.98142582
0.060236,139.,0.,138.,1725.,0.,0.,2002.,0.220865552973,0.128038001724,2194.52013434
0.062974,135.,0.,109.,1758.,0.,0.,2002.,0.214509709722,0.157438319062,1683.4722019
0.065712,127.,0.,88.,1787.,0.,0.,2002.,0.20179802322,0.183452748382,1278.59227512
0.06845,127.,0.,78.,1796.,0.,0.,2001.,0.201898871808,0.207075765957,1133.86406407
0.071188,124.,0.,60.,1817.,0.,0.,2001.,0.197129607119,0.262839476159,851.599902755
0.073926,124.,0.,51.,1826.,0.,0.,2001.,0.197129607119,0.309222913128,723.859917342
0.076664,123.,0.,40.,1838.,0.,0.,2001.,0.195539852223,0.391079704446,563.154774403
0.079402,118.,0.,31.,1852.,0.,0.,2001.,0.187591077743,0.484106007078,418.703285521
0.08214,116.,0.,27.,1858.,0.,0.,2001.,0.18441156795,0.546404645779,358.496088095
