t,s,e,i,r,c,o,n,reff,coal,reportr
0.,1755.,0.,38.,207.,0.,0.,2000.,2.53525690429,5.3373829564,6936.46289013
0.002738,1710.,0.,67.,223.,0.,0.,2000.,2.470250317,2.94955261731,11916.4875292
0.005476,1666.,0.,103.,231.,0.,0.,2000.,2.40668832054,1.86927248197,17848.0005851
0.008214,1566.,0.,153.,280.,0.,0.,1999.,2.26336091813,1.18345668922,24933.1838741
0.010952,1509.,0.,196.,294.,0.,0.,1999.,2.18097804946,0.89019512223,30777.962234
0.01369,1449.,0.,224.,326.,0.,0.,1999.,2.09425924034,0.747949728693,33776.2130282
0.016428,1306.,0.,286.,407.,0.,0.,1999.,1.88757941193,0.527994241099,38869.0352504
0.019166,1197.,0.,365.,437.,0.,0.,1999.,1.73004024202,0.379186902361,45465.4575603
0.021904,1052.,0.,449.,498.,0.,0.,1999.,1.52046978664,0.270907757085,49153.7472624
0.024642,845.,0.,503.,651.,0.,0.,1999.,1.22128989516,0.1942409376,44230.2348431
0.02738,742.,0.,519.,738.,0.,0.,1999.,1.07242260616,0.16530598939,40074.2879472
0.030118,652.,0.,521.,826.,0.,0.,1999.,0.942344392479,0.14469779539,35349.2228507
0.032856,498.,0.,507.,993.,0.,0.,1998.,0.720126359029,0.113629405764,26287.49261
0.035594,428.,0.,485.,1084.,0.,0.,1997.,0.619213695207,0.102138341477,21622.9422366
0.038332,384.,0.,451.,1162.,0.,0.,1997.,0.555556212522,0.0985465565449,18040.021333
0.04107,292.,0.,393.,1312.,0.,0.,1997.,0.422454203272,0.0859957665694,11953.7641358
0.043808,262.,0.,359.,1376.,0.,0.,1997.,0.379051374169,0.0844682727953,9797.71991951
0.046546,235.,0.,324.,1438.,0.,0.,1997.,0.339988827976,0.0839478587595,7931.25937902
0.049284,199.,0.,255.,1543.,0.,0.,1997.,0.287905433052,0.0903232731143,5285.94375083
0.052022,189.,0.,233.,1575.,0.,0.,1997.,0.273437823351,0.0938842311934,4587.19292453
0.05476,184.,0.,207.,1606.,0.,0.,1997.,0.2662040185,0.102880780097,3967.50469173
0.057498,161.,0.,162.,1674.,0.,0.,1997.,0.232928516188,0.115026427747,2716.87821281
0.060236,159.,0.,136.,1702.,0.,0.,1997.,0.230034994247,0.135314702498,2252.50266367
0.062974,157.,0.,112.,1728.,0.,0.,1997.,0.227141472307,0.162243908791,1831.66883269
0.065712,149.,0.,87.,1761.,0.,0.,1997.,0.215567384546,0.198222882341,1350.3140968
0.06845,149.,0.,72.,1776.,0.,0.,1997.,0.215567384546,0.239519316163,1117.50132149
0.071188,143.,0.,60.,1794.,0.,0.,1997.,0.206886818726,0.275849091634,893.751056895
0.073926,142.,0.,50.,1805.,0.,0.,1997.,0.205440057756,0.328704092409,739.58420792
0.076664,140.,0.,39.,1818.,0.,0.,1997.,0.202546535815,0.415480073467,568.75067257
0.079402,137.,0.,33.,1828.,0.,0.,1998.,0.198107050576,0.480259516548,470.702352169
0.08214,137.,0.,27.,1835.,0.,0.,1999.,0.198007947499,0.586690214813,384.927449939
