t,s,e,i,r,c,o,n,reff,coal,reportr
0.,1717.,0.,43.,240.,0.,0.,2000.,2.79785195891,5.20530597006,8662.14966477
0.002738,1680.,0.,68.,252.,0.,0.,2000.,2.73756044902,3.22065935178,13403.0959584
0.005476,1641.,0.,100.,258.,0.,0.,1999.,2.6753476124,2.14027808992,19262.5028093
0.008214,1552.,0.,145.,302.,0.,0.,1999.,2.53024953958,1.39599974597,26415.8051932
0.010952,1491.,0.,187.,321.,0.,0.,1999.,2.43080029865,1.03991456627,32728.2952211
0.01369,1424.,0.,223.,353.,0.,0.,2000.,2.3204083806,0.832433499765,37256.4769588
0.016428,1267.,0.,304.,428.,0.,0.,1999.,2.06560964346,0.54358148512,45212.063876
0.019166,1165.,0.,367.,467.,0.,0.,1999.,1.89931747011,0.414020156972,50187.5648301
0.021904,1035.,0.,440.,525.,0.,0.,2000.,1.68653277663,0.306642323023,53429.3583635
0.024642,819.,0.,500.,681.,0.,0.,2000.,1.3345607189,0.213529715023,48044.1858803
0.02738,714.,0.,518.,768.,0.,0.,2000.,1.16346319083,0.179685434878,43392.5231653
0.030118,608.,0.,528.,863.,0.,0.,1999.,0.991231778391,0.150186633089,37682.6672873
0.032856,434.,0.,524.,1040.,0.,0.,1998.,0.707911027023,0.108078019393,26708.0672275
0.035594,385.,0.,489.,1124.,0.,0.,1998.,0.627985588488,0.102737928587,22110.1165995
0.038332,345.,0.,456.,1197.,0.,0.,1998.,0.562740332541,0.0987263741301,18475.890598
0.04107,273.,0.,386.,1339.,0.,0.,1998.,0.445298871837,0.0922899216243,12375.7462461
0.043808,241.,0.,350.,1407.,0.,0.,1998.,0.39310266708,0.0898520381896,9906.18721041
0.046546,205.,0.,319.,1474.,0.,0.,1998.,0.334381936728,0.0838575389912,7680.08432276
0.049284,173.,0.,256.,1569.,0.,0.,1998.,0.28218573197,0.0881830412406,5201.24741167
0.052022,161.,0.,229.,1608.,0.,0.,1998.,0.262612155186,0.0917422376196,4329.94921471
0.05476,155.,0.,186.,1656.,0.,0.,1997.,0.252951969381,0.10879654597,3387.53277395
0.057498,141.,0.,157.,1699.,0.,0.,1997.,0.230104694727,0.117250799861,2601.1034692
0.060236,138.,0.,138.,1721.,0.,0.,1997.,0.225208850159,0.130555855165,2237.67513518
0.062974,132.,0.,116.,1749.,0.,0.,1997.,0.215417161021,0.148563559325,1799.16412885
0.065712,124.,0.,91.,1782.,0.,0.,1997.,0.202361575505,0.177900286158,1325.87304271
0.06845,120.,0.,72.,1805.,0.,0.,1997.,0.195833782747,0.217593091941,1015.20232976
0.071188,115.,0.,56.,1826.,0.,0.,1997.,0.187674041799,0.268105773999,756.701736534
0.073926,112.,0.,51.,1834.,0.,0.,1997.,0.18277819723,0.286710897616,671.16154023
0.076664,112.,0.,41.,1845.,0.,0.,1998.,0.182686716651,0.356461886149,539.291187554
0.079402,110.,0.,31.,1857.,0.,0.,1998.,0.179424453854,0.463030848655,400.475381002
0.08214,110.,0.,28.,1860.,0.,0.,1998.,0.179424453854,0.512641296725,361.719698969
