t,s,e,i,r,c,o,n,reff,coal,reportr
0.,1669.,0.,35.,296.,0.,0.,2000.,2.74092326761,6.26496746882,6907.12663438
0.002738,1622.,0.,63.,315.,0.,0.,2000.,2.66373729183,3.38252354518,12082.7123557
0.005476,1576.,0.,103.,321.,0.,0.,2000.,2.58819357085,2.01024743367,19194.0435214
0.008214,1491.,0.,145.,364.,0.,0.,2000.,2.44860191253,1.35095277933,25563.4039668
0.010952,1415.,0.,190.,395.,0.,0.,2000.,2.32379054743,0.978438125236,31789.4546889
0.01369,1343.,0.,230.,427.,0.,0.,2000.,2.20554820156,0.767147200542,36523.8782178
0.016428,1184.,0.,299.,518.,0.,0.,2001.,1.94345795877,0.51998875151,41838.7629364
0.019166,1073.,0.,374.,554.,0.,0.,2001.,1.76125877513,0.376739844948,47427.1762968
0.021904,923.,0.,453.,625.,0.,0.,2001.,1.51504366211,0.267557379623,49414.6640835
0.024642,720.,0.,497.,784.,0.,0.,2001.,1.18183254249,0.190234614486,42290.6957006
0.02738,634.,0.,510.,857.,0.,0.,2001.,1.04066921103,0.163242229181,38213.373429
0.030118,541.,0.,525.,935.,0.,0.,2001.,0.888015840957,0.135316699574,33566.9987882
0.032856,400.,0.,515.,1086.,0.,0.,2001.,0.656573634719,0.101992020927,24345.7503754
0.035594,350.,0.,489.,1163.,0.,0.,2002.,0.574214966378,0.0939410987939,20216.9605362
0.038332,308.,0.,454.,1240.,0.,0.,2002.,0.505309170413,0.0890412635088,16517.5461624
0.04107,238.,0.,389.,1375.,0.,0.,2002.,0.390466177137,0.0803015274318,10936.1766893
0.043808,217.,0.,356.,1430.,0.,0.,2003.,0.355835539125,0.0799630425,9120.77653885
0.046546,194.,0.,326.,1483.,0.,0.,2003.,0.318120251568,0.0780663194031,7466.9185448
0.049284,164.,0.,256.,1583.,0.,0.,2003.,0.268926398233,0.0840394994477,4956.85137222
0.052022,149.,0.,228.,1627.,0.,0.,2004.,0.244207550671,0.0856868598845,4008.91115181
0.05476,143.,0.,193.,1668.,0.,0.,2004.,0.23437368957,0.097149715884,3256.85679027
0.057498,131.,0.,165.,1708.,0.,0.,2004.,0.214705967368,0.104099862967,2550.70689234
0.060236,128.,0.,142.,1734.,0.,0.,2004.,0.209789036818,0.118191006658,2144.88311243
0.062974,126.,0.,118.,1760.,0.,0.,2004.,0.206511083118,0.140007513978,1754.51816217
0.065712,119.,0.,86.,1799.,0.,0.,2004.,0.195038245167,0.181430925736,1207.67681407
0.06845,116.,0.,74.,1814.,0.,0.,2004.,0.190121314616,0.205536556342,1012.96636428
0.071188,112.,0.,58.,1834.,0.,0.,2004.,0.183565407216,0.253193665125,766.569140533
0.073926,111.,0.,48.,1845.,0.,0.,2004.,0.181926430366,0.303210717276,628.737743344
0.076664,109.,0.,40.,1855.,0.,0.,2004.,0.178648476665,0.357296953331,514.507612796
0.079402,105.,0.,32.,1867.,0.,0.,2004.,0.172092569265,0.430231423162,396.501279586
0.08214,104.,0.,29.,1871.,0.,0.,2004.,0.170453592415,0.470216806661,355.907100962
