t,s,e,i,r,c,o,n,reff,coal,reportr
0.,1682.,0.,37.,281.,0.,0.,2000.,2.8596019599,6.18292315653,7617.97962116
0.002738,1637.,0.,66.,297.,0.,0.,2000.,2.78309655669,3.37345037174,13225.2748374
0.005476,1591.,0.,109.,300.,0.,0.,2000.,2.70489103341,1.98524112544,21227.9848302
0.008214,1504.,0.,145.,351.,0.,0.,2000.,2.55698058721,1.41074791018,26694.8773305
0.010952,1429.,0.,195.,376.,0.,0.,2000.,2.42947158186,0.996706289995,34109.7810093
0.01369,1365.,0.,221.,414.,0.,0.,2000.,2.3206638973,0.840059329339,36926.4039338
0.016428,1211.,0.,292.,497.,0.,0.,2000.,2.05884540632,0.564067234609,43285.1658225
0.019166,1091.,0.,371.,538.,0.,0.,2000.,1.85483099777,0.39996355747,49546.2456124
0.021904,970.,0.,436.,594.,0.,0.,2000.,1.64911646914,0.302590177825,51769.0641994
0.024642,761.,0.,495.,744.,0.,0.,2000.,1.29379137425,0.209097595838,46110.7245781
0.02738,662.,0.,513.,825.,0.,0.,2000.,1.12547948719,0.175513370322,41570.7103388
0.030118,573.,0.,515.,913.,0.,0.,2001.,0.973681959865,0.151251566581,36104.1270718
0.032856,422.,0.,527.,1052.,0.,0.,2001.,0.717092124019,0.108856489415,27209.3435538
0.035594,364.,0.,491.,1146.,0.,0.,2001.,0.618534438727,0.100779541952,21866.4294779
0.038332,321.,0.,455.,1226.,0.,0.,2002.,0.545193349532,0.0958581713463,17860.5341307
0.04107,240.,0.,394.,1369.,0.,0.,2003.,0.407417690572,0.082724404177,11557.6250461
0.043808,212.,0.,362.,1429.,0.,0.,2003.,0.359885626672,0.0795327351761,9380.05897357
0.046546,192.,0.,317.,1495.,0.,0.,2004.,0.325771510665,0.0822136304517,7435.40895941
0.049284,146.,0.,256.,1602.,0.,0.,2004.,0.247722086235,0.0774131519484,4566.01349348
0.052022,132.,0.,224.,1648.,0.,0.,2004.,0.223967913582,0.079988540565,3612.15451025
0.05476,126.,0.,193.,1685.,0.,0.,2004.,0.213787553874,0.088616602642,2970.79184863
0.057498,113.,0.,161.,1730.,0.,0.,2004.,0.191730107839,0.0952696188021,2222.53541007
0.060236,106.,0.,137.,1761.,0.,0.,2004.,0.179853021513,0.105023662197,1774.0702042
0.062974,102.,0.,115.,1787.,0.,0.,2004.,0.173066115041,0.120393819159,1432.98743254
0.065712,97.,0.,88.,1819.,0.,0.,2004.,0.16458248195,0.149620438137,1042.79460564
0.06845,93.,0.,72.,1839.,0.,0.,2004.,0.157795575478,0.175328417198,818.012263279
0.071188,90.,0.,57.,1857.,0.,0.,2004.,0.152705395624,0.21432336228,626.702943642
0.073926,90.,0.,49.,1865.,0.,0.,2004.,0.152705395624,0.249314931631,538.744635762
0.076664,87.,0.,40.,1877.,0.,0.,2004.,0.14761521577,0.29523043154,425.131821418
0.079402,85.,0.,32.,1887.,0.,0.,2004.,0.144221762534,0.360554406335,332.286940878
0.08214,82.,0.,29.,1893.,0.,0.,2004.,0.13913158268,0.383811262565,290.506744635
