t,s,e,i,r,c,o,n,reff,coal,reportr
0.,1727.,0.,36.,237.,0.,0.,2000.,2.65176491974,5.89281093275,6873.37467196
0.002738,1688.,0.,65.,247.,0.,0.,2000.,2.59188140389,3.19000788171,12130.0049702
0.005476,1642.,0.,103.,255.,0.,0.,2000.,2.52124956468,1.95825208907,18697.5867717
0.008214,1558.,0.,142.,300.,0.,0.,2000.,2.39226968439,1.34775756867,24458.5652533
0.010952,1484.,0.,195.,321.,0.,0.,2000.,2.27864455176,0.934828534055,31992.1695067
0.01369,1417.,0.,229.,354.,0.,0.,2000.,2.17576774248,0.760093534492,35874.058538
0.016428,1275.,0.,288.,436.,0.,0.,1999.,1.95870968064,0.544086022401,40615.8039378
0.019166,1169.,0.,357.,473.,0.,0.,1999.,1.79586793465,0.402435391517,46160.9893921
0.021904,1023.,0.,449.,527.,0.,0.,1999.,1.57157647318,0.28001362551,50805.9242248
0.024642,812.,0.,509.,678.,0.,0.,1999.,1.24742922407,0.196059602997,45715.7862036
0.02738,709.,0.,528.,762.,0.,0.,1999.,1.08919620673,0.165029728292,41406.8829949
0.030118,624.,0.,510.,865.,0.,0.,1999.,0.958615561351,0.150371068447,35200.3634128
0.032856,478.,0.,507.,1014.,0.,0.,1999.,0.734324099881,0.115869680455,26805.7669421
0.035594,409.,0.,490.,1100.,0.,0.,1999.,0.628323340693,0.102583402562,22167.2474597
0.038332,358.,0.,458.,1181.,0.,0.,1997.,0.550525754623,0.0961617038642,18154.1372844
0.04107,275.,0.,389.,1333.,0.,0.,1997.,0.422889895311,0.0869696442798,11844.3001879
0.043808,252.,0.,350.,1395.,0.,0.,1997.,0.387520922248,0.0885762107996,9765.52724066
0.046546,236.,0.,310.,1451.,0.,0.,1997.,0.362916419248,0.0936558501286,8100.29447762
0.049284,199.,0.,256.,1542.,0.,0.,1997.,0.306018506061,0.0956307831441,5640.53310372
0.052022,184.,0.,228.,1585.,0.,0.,1997.,0.282951784499,0.0992813278943,4644.93649433
0.05476,175.,0.,184.,1638.,0.,0.,1997.,0.269111751561,0.117005109374,3565.19248468
0.057498,161.,0.,155.,1681.,0.,0.,1997.,0.247582811436,0.12778467687,2763.02417563
0.060236,154.,0.,139.,1704.,0.,0.,1997.,0.236818341374,0.136298325971,2370.07796047
0.062974,151.,0.,115.,1731.,0.,0.,1997.,0.232204997061,0.161533910999,1922.65737567
0.065712,141.,0.,87.,1768.,0.,0.,1996.,0.21693581354,0.199481207852,1358.88593601
0.06845,137.,0.,74.,1784.,0.,0.,1995.,0.210887261004,0.227986228112,1123.60732663
0.071188,131.,0.,60.,1804.,0.,0.,1995.,0.201651322566,0.268868430087,871.133713483
0.073926,129.,0.,50.,1816.,0.,0.,1995.,0.198572676419,0.317716282271,714.86163511
0.076664,127.,0.,39.,1829.,0.,0.,1995.,0.195494030273,0.401013395433,548.947237008
0.079402,127.,0.,31.,1837.,0.,0.,1995.,0.195494030273,0.504500723286,436.34267557
0.08214,126.,0.,27.,1842.,0.,0.,1995.,0.1939547072,0.574680613927,377.047950798
