t,s,e,i,r,c,o,n,reff,coal,reportr
0.,1768.,0.,39.,193.,0.,0.,2000.,2.75920270239,5.65990297927,7747.84118832
0.002738,1726.,0.,63.,211.,0.,0.,2000.,2.69365603186,3.42051559602,12218.4237605
0.005476,1680.,0.,105.,215.,0.,0.,2000.,2.62186682128,1.99761281621,19821.3131689
0.008214,1599.,0.,145.,256.,0.,0.,2000.,2.49545538525,1.37680297117,26052.554222
0.010952,1527.,0.,189.,284.,0.,0.,2000.,2.38308966434,1.00871520184,32429.0841524
0.01369,1448.,0.,234.,318.,0.,0.,2000.,2.25979949834,0.772581025074,38073.101948
0.016428,1293.,0.,293.,415.,0.,0.,2001.,2.01689262506,0.550687406161,42548.3668184
0.019166,1188.,0.,363.,450.,0.,0.,2001.,1.85310784113,0.408398422287,48432.8265357
0.021904,1062.,0.,443.,496.,0.,0.,2001.,1.6565661004,0.299154149057,52837.8323384
0.024642,833.,0.,510.,658.,0.,0.,2001.,1.29935928591,0.203821064456,47712.4729785
0.02738,736.,0.,517.,748.,0.,0.,2001.,1.14805334265,0.17764848629,42735.1376268
0.030118,654.,0.,514.,833.,0.,0.,2001.,1.02014522567,0.15877746703,37753.5345116
0.032856,467.,0.,521.,1013.,0.,0.,2001.,0.728452324753,0.111854483647,27325.7036061
0.035594,401.,0.,503.,1097.,0.,0.,2001.,0.625501889135,0.0994834018504,22653.1764169
0.038332,366.,0.,448.,1187.,0.,0.,2001.,0.570906961155,0.101947671635,18415.174939
0.04107,302.,0.,378.,1321.,0.,0.,2001.,0.471076235707,0.0996986742238,12820.810831
0.043808,270.,0.,351.,1380.,0.,0.,2001.,0.421160872983,0.0959910821615,10643.577582
0.046546,247.,0.,321.,1433.,0.,0.,2001.,0.385284206026,0.0960209859254,8904.68856966
0.049284,209.,0.,255.,1537.,0.,0.,2001.,0.326009712791,0.102277556954,5985.53832684
0.052022,196.,0.,226.,1579.,0.,0.,2001.,0.305731596684,0.108223574048,4974.86454125
0.05476,188.,0.,195.,1618.,0.,0.,2001.,0.293252756003,0.120308822976,4117.26869429
0.057498,170.,0.,168.,1664.,0.,0.,2002.,0.265042909244,0.126210909164,3205.95903022
0.060236,164.,0.,140.,1698.,0.,0.,2002.,0.255688453624,0.146107687785,2577.33961253
0.062974,161.,0.,112.,1729.,0.,0.,2002.,0.251011225813,0.179293732724,2024.15452496
0.065712,156.,0.,87.,1759.,0.,0.,2002.,0.24321584613,0.223646755062,1523.50406016
0.06845,156.,0.,71.,1775.,0.,0.,2002.,0.24321584613,0.274046023808,1243.31940542
0.071188,146.,0.,59.,1796.,0.,0.,2001.,0.227738842428,0.308798430411,967.434602634
0.073926,144.,0.,47.,1810.,0.,0.,2001.,0.224619132258,0.382330437886,760.11114356
0.076664,141.,0.,44.,1816.,0.,0.,2001.,0.219939567002,0.399890121823,696.768548264
0.079402,140.,0.,35.,1827.,0.,0.,2002.,0.218270631142,0.498904299753,550.041990478
0.08214,139.,0.,32.,1831.,0.,0.,2002.,0.216711555205,0.541778888013,499.303423193
