t,s,e,i,r,c,o,n,reff,coal,reportr
0.,1722.,0.,36.,242.,0.,0.,2000.,2.71598825926,6.03552946503,7039.84156801
0.002738,1680.,0.,63.,257.,0.,0.,2000.,2.64974464318,3.36475510245,12019.2417015
0.005476,1635.,0.,105.,260.,0.,0.,2000.,2.57876934024,1.96477664018,19495.4962122
0.008214,1545.,0.,150.,305.,0.,0.,2000.,2.43681873436,1.29963665832,26317.642331
0.010952,1484.,0.,191.,325.,0.,0.,2000.,2.34060776814,0.980359274615,32188.0380275
0.01369,1413.,0.,234.,353.,0.,0.,2000.,2.22862451239,0.761922910219,37547.8657848
0.016428,1249.,0.,296.,455.,0.,0.,2000.,1.96995896389,0.532421341592,41983.7654384
0.019166,1139.,0.,371.,490.,0.,0.,2000.,1.79646377892,0.387377634268,47987.1404625
0.021904,1008.,0.,445.,547.,0.,0.,2000.,1.58984678591,0.285815152523,50938.6910205
0.024642,786.,0.,495.,719.,0.,0.,2000.,1.23970195806,0.20035587201,44182.9777853
0.02738,678.,0.,526.,796.,0.,0.,2000.,1.069361231,0.162640491407,40498.8485404
0.030118,587.,0.,526.,887.,0.,0.,2000.,0.92583339616,0.140811162914,35063.1623794
0.032856,435.,0.,516.,1049.,0.,0.,2000.,0.68609459511,0.106371255056,25489.7863975
0.035594,372.,0.,497.,1131.,0.,0.,2000.,0.58672917099,0.0944433273224,20995.5166547
0.038332,330.,0.,453.,1217.,0.,0.,2000.,0.520485554911,0.0919179787922,16976.156859
0.04107,248.,0.,394.,1358.,0.,0.,2000.,0.39115278066,0.079421884398,11096.2220818
0.043808,222.,0.,352.,1426.,0.,0.,2000.,0.350144827849,0.0795783699657,8874.07051701
0.046546,200.,0.,327.,1473.,0.,0.,2000.,0.315445790855,0.0771732821664,7426.85569989
0.049284,166.,0.,256.,1578.,0.,0.,2000.,0.26182000641,0.081818752003,4825.86635814
0.052022,154.,0.,226.,1621.,0.,0.,2001.,0.242771873022,0.0859369462024,3950.38391781
0.05476,149.,0.,196.,1656.,0.,0.,2001.,0.234889669352,0.0958733344295,3314.7630139
0.057498,127.,0.,165.,1709.,0.,0.,2001.,0.200207973206,0.0970705324637,2378.47072169
0.060236,122.,0.,137.,1742.,0.,0.,2001.,0.192325769537,0.112307018708,1897.10139071
0.062974,115.,0.,110.,1775.,0.,0.,2000.,0.181381329742,0.131913694358,1436.54013155
0.065712,105.,0.,87.,1808.,0.,0.,2000.,0.165609040199,0.152284174896,1037.37502781
0.06845,103.,0.,73.,1824.,0.,0.,2000.,0.16245458229,0.178032418948,853.861284518
0.071188,99.,0.,59.,1843.,0.,0.,2001.,0.156067632657,0.211617129026,662.975303527
0.073926,97.,0.,49.,1855.,0.,0.,2001.,0.152914751189,0.249656736635,539.483242195
0.076664,97.,0.,41.,1864.,0.,0.,2002.,0.152838370194,0.298221210136,451.178868814
0.079402,91.,0.,35.,1876.,0.,0.,2002.,0.143384450389,0.327735886603,361.328814979
0.08214,89.,0.,31.,1882.,0.,0.,2002.,0.140233143787,0.361891983966,313.000376932
