t,s,e,i,r,c,o,n,reff,coal,reportr
0.,1752.,0.,42.,206.,0.,0.,2000.,2.79657502043,5.32680956272,8456.84286177
0.002738,1711.,0.,70.,219.,0.,0.,2000.,2.73113005705,3.12129149377,13764.8954875
0.005476,1669.,0.,103.,228.,0.,0.,2000.,2.66408887505,2.06919524276,19756.8830974
0.008214,1572.,0.,149.,279.,0.,0.,2000.,2.50925566901,1.34725136591,26919.2948172
0.010952,1510.,0.,193.,298.,0.,0.,2001.,2.40908557185,0.998584692996,33476.6531065
0.01369,1453.,0.,225.,323.,0.,0.,2001.,2.31814658007,0.824229895135,37553.9745971
0.016428,1300.,0.,301.,400.,0.,0.,2001.,2.07404718106,0.551241775698,44948.750508
0.019166,1197.,0.,360.,444.,0.,0.,2001.,1.90971882749,0.424381961664,49499.9120085
0.021904,1059.,0.,446.,495.,0.,0.,2000.,1.69039551748,0.303209958293,54281.9808575
0.024642,826.,0.,511.,663.,0.,0.,2000.,1.31847657927,0.206415120042,48509.3903043
0.02738,731.,0.,522.,747.,0.,0.,2000.,1.16683581046,0.178825411565,43854.3571005
0.030118,626.,0.,526.,847.,0.,0.,1999.,0.999732721833,0.152050604081,37861.8776413
0.032856,468.,0.,526.,1006.,0.,0.,2000.,0.747030313676,0.113616777745,28291.5320395
0.035594,408.,0.,496.,1096.,0.,0.,2000.,0.651257196538,0.105041483313,23257.6970028
0.038332,363.,0.,454.,1183.,0.,0.,2000.,0.579427358684,0.102101737213,18940.3215007
0.04107,287.,0.,379.,1334.,0.,0.,2000.,0.458114743643,0.0966996820355,12501.0351245
0.043808,256.,0.,352.,1392.,0.,0.,2000.,0.408631966455,0.0928709014671,10356.3685578
0.046546,229.,0.,320.,1451.,0.,0.,2000.,0.365534063743,0.0913835159358,8421.90482864
0.049284,198.,0.,256.,1545.,0.,0.,1999.,0.316209391251,0.0988154347659,5828.37149953
0.052022,188.,0.,232.,1579.,0.,0.,1999.,0.300239219975,0.103530765509,5015.19593047
0.05476,178.,0.,190.,1631.,0.,0.,1999.,0.2842690487,0.119692231032,3888.80058622
0.057498,156.,0.,158.,1685.,0.,0.,1999.,0.249134671895,0.126144137668,2834.15602747
0.060236,149.,0.,140.,1710.,0.,0.,1999.,0.237955552002,0.135974601144,2398.59196418
0.062974,146.,0.,114.,1739.,0.,0.,1999.,0.233164500619,0.163624210961,1913.81422108
0.065712,137.,0.,88.,1774.,0.,0.,1999.,0.218791346471,0.198901224065,1386.26197124
0.06845,135.,0.,72.,1792.,0.,0.,1999.,0.215597312216,0.239552569129,1117.65646653
0.071188,125.,0.,58.,1816.,0.,0.,1999.,0.199627140941,0.275347780608,833.64294057
0.073926,123.,0.,47.,1829.,0.,0.,1999.,0.196433106686,0.334354224147,664.729633026
0.076664,123.,0.,41.,1835.,0.,0.,1999.,0.196433106686,0.383284110607,579.870530937
0.079402,120.,0.,32.,1847.,0.,0.,1999.,0.191642055303,0.479105138259,441.543295419
0.08214,118.,0.,26.,1855.,0.,0.,1999.,0.188448021048,0.579840064764,352.774695403
