t,s,e,i,r,c,o,n,reff,coal,reportr
0.,1634.,0.,38.,328.,0.,0.,2000.,3.04355719034,6.40748882176,8327.17247276
0.002738,1592.,0.,65.,343.,0.,0.,2000.,2.96532622217,3.64963227343,13877.7267197
0.005476,1552.,0.,98.,350.,0.,0.,2000.,2.89082053819,2.35985350056,20397.6297175
0.008214,1465.,0.,138.,397.,0.,0.,2000.,2.72877067555,1.5818960438,27113.0654322
0.010952,1399.,0.,189.,412.,0.,0.,2000.,2.60583629699,1.10299949079,35460.2203294
0.01369,1322.,0.,231.,447.,0.,0.,2000.,2.46241285534,0.852783672845,40954.85061
0.016428,1171.,0.,303.,525.,0.,0.,1999.,2.18224502085,0.576170302534,47607.8573748
0.019166,1056.,0.,373.,570.,0.,0.,1999.,1.96793402393,0.422077002451,52850.8361465
0.021904,924.,0.,445.,630.,0.,0.,1999.,1.72194227093,0.309562655449,55171.0303608
0.024642,732.,0.,512.,755.,0.,0.,1999.,1.36413608477,0.213146263245,50287.5126288
0.02738,645.,0.,516.,838.,0.,0.,1999.,1.20200515666,0.186357388629,44656.8955802
0.030118,540.,0.,520.,939.,0.,0.,1999.,1.0063298986,0.1548199844,37676.9914035
0.032856,377.,0.,517.,1104.,0.,0.,1998.,0.702918990445,0.108768896007,26165.4565003
0.035594,306.,0.,496.,1196.,0.,0.,1998.,0.570539021422,0.0920224228101,20375.089533
0.038332,261.,0.,459.,1278.,0.,0.,1998.,0.486636224154,0.0848167710945,16082.3539359
0.04107,185.,0.,395.,1418.,0.,0.,1998.,0.344933722102,0.0698599943497,9809.91505658
0.043808,169.,0.,348.,1481.,0.,0.,1998.,0.315101616407,0.0724371531969,7895.18610068
0.046546,147.,0.,312.,1539.,0.,0.,1998.,0.274082471076,0.070277556686,6156.98863024
0.049284,126.,0.,254.,1618.,0.,0.,1998.,0.23492783235,0.0739930180631,4296.36019802
0.052022,115.,0.,224.,1659.,0.,0.,1998.,0.214418259685,0.0765779498875,3458.1376922
0.05476,109.,0.,188.,1701.,0.,0.,1998.,0.203231220049,0.0864813702337,2750.93779459
0.057498,94.,0.,160.,1745.,0.,0.,1999.,0.175175945312,0.0875879726558,2018.02688999
0.060236,88.,0.,139.,1772.,0.,0.,1999.,0.163994501994,0.0943853248885,1641.25697595
0.062974,84.,0.,111.,1804.,0.,0.,1999.,0.156540206449,0.112821770413,1251.06932994
0.065712,79.,0.,90.,1830.,0.,0.,1999.,0.147222337017,0.130864299571,954.000743871
0.06845,75.,0.,71.,1853.,0.,0.,1999.,0.139768041472,0.157485117152,714.494228005
0.071188,74.,0.,56.,1869.,0.,0.,1999.,0.137904467586,0.197006382265,556.030813305
0.073926,74.,0.,49.,1876.,0.,0.,1999.,0.137904467586,0.22515015116,486.526961642
0.076664,73.,0.,41.,1885.,0.,0.,1999.,0.136040893699,0.265445646243,401.592718201
0.079402,71.,0.,33.,1895.,0.,0.,1999.,0.132313745927,0.320760596186,314.377460322
0.08214,70.,0.,29.,1900.,0.,0.,1999.,0.130450172041,0.35986254356,272.379959221
