t,s,e,i,r,c,o,n,reff,coal,reportr
0.,1762.,0.,37.,201.,0.,0.,2000.,2.80207796427,6.05854694976,7464.7356968
0.002738,1724.,0.,63.,213.,0.,0.,2000.,2.74164722497,3.48145679361,12436.1118125
0.005476,1680.,0.,101.,219.,0.,0.,2000.,2.67167478999,2.11617805148,19428.4190728
0.008214,1604.,0.,143.,254.,0.,0.,2001.,2.54953854213,1.42631526832,26250.0488297
0.010952,1531.,0.,201.,269.,0.,0.,2001.,2.43350592768,0.968559573205,35217.6977854
0.01369,1465.,0.,233.,303.,0.,0.,2001.,2.32859972831,0.799519220022,39064.5890422
0.016428,1317.,0.,290.,394.,0.,0.,2001.,2.09335552368,0.577477385842,43709.2633344
0.019166,1210.,0.,366.,426.,0.,0.,2002.,1.9223196422,0.420179156764,50656.9672112
0.021904,1086.,0.,432.,485.,0.,0.,2003.,1.72446022748,0.319344486569,53637.6109154
0.024642,867.,0.,508.,628.,0.,0.,2003.,1.37670996061,0.216804718206,50354.5435192
0.02738,766.,0.,525.,710.,0.,0.,2001.,1.21754770777,0.18553107928,46023.3033538
0.030118,658.,0.,545.,797.,0.,0.,2000.,1.04640595941,0.153600874776,41060.9698474
0.032856,489.,0.,520.,991.,0.,0.,2000.,0.777648197801,0.119638184277,29115.1485257
0.035594,417.,0.,495.,1088.,0.,0.,2000.,0.663147849659,0.107175410046,23634.5893618
0.038332,363.,0.,455.,1182.,0.,0.,2000.,0.577272588552,0.101498477108,18911.450001
0.04107,292.,0.,393.,1315.,0.,0.,2000.,0.464362523022,0.0945267222438,13139.6019514
0.043808,268.,0.,347.,1385.,0.,0.,2000.,0.426195740308,0.0982583839328,10648.0743759
0.046546,245.,0.,318.,1436.,0.,0.,1999.,0.389814147281,0.0980664521461,8925.18471614
0.049284,206.,0.,254.,1540.,0.,0.,2000.,0.327598218297,0.103180541196,5991.11621621
0.052022,194.,0.,229.,1576.,0.,0.,1999.,0.30866916152,0.107832021492,5089.33713515
0.05476,187.,0.,196.,1616.,0.,0.,1999.,0.297531614455,0.121441475288,4198.76614319
0.057498,166.,0.,162.,1671.,0.,0.,1999.,0.26411897326,0.130429122597,3080.6837041
0.060236,160.,0.,137.,1702.,0.,0.,1999.,0.254572504347,0.148655476991,2511.10318288
0.062974,156.,0.,111.,1731.,0.,0.,1998.,0.248332420062,0.178978320766,1984.67270114
0.065712,148.,0.,92.,1758.,0.,0.,1998.,0.235597424162,0.204867325358,1560.59733765
0.06845,145.,0.,72.,1781.,0.,0.,1998.,0.230821800699,0.256468667443,1196.58021482
0.071188,138.,0.,60.,1800.,0.,0.,1998.,0.219678679286,0.292904905714,949.011894515
0.073926,137.,0.,51.,1810.,0.,0.,1998.,0.218086804798,0.342096948703,800.814747219
0.076664,137.,0.,40.,1821.,0.,0.,1998.,0.218086804798,0.436173609596,628.089997819
0.079402,137.,0.,32.,1830.,0.,0.,1999.,0.217977706847,0.544944267117,502.220636575
0.08214,136.,0.,28.,1835.,0.,0.,1999.,0.216386628695,0.618247510556,436.235443448
