t,s,e,i,r,c,o,n,reff,coal,reportr
0.,1577.,0.,36.,387.,0.,0.,2000.,2.88957847048,6.42128548995,7489.78739548
0.002738,1535.,0.,66.,399.,0.,0.,2000.,2.81262076866,3.40923729535,13365.5738927
0.005476,1490.,0.,102.,408.,0.,0.,2000.,2.73016608815,2.1413067358,20050.3397514
0.008214,1406.,0.,146.,447.,0.,0.,1999.,2.57753945425,1.41235038589,27095.0947431
0.010952,1340.,0.,190.,469.,0.,0.,1999.,2.45654542581,1.03433491613,33605.5414251
0.01369,1270.,0.,229.,501.,0.,0.,2000.,2.32705431674,0.812944739474,38368.4715745
0.016428,1119.,0.,294.,587.,0.,0.,2000.,2.05037305546,0.557924640942,43402.296838
0.019166,1006.,0.,376.,618.,0.,0.,2000.,1.84332019106,0.392195785332,49902.3642123
0.021904,888.,0.,444.,668.,0.,0.,2000.,1.62710569549,0.293172197385,52015.3148733
0.024642,671.,0.,504.,825.,0.,0.,2000.,1.22949090278,0.195157286156,44615.7658802
0.02738,579.,0.,520.,901.,0.,0.,2000.,1.06091688929,0.163217982967,39720.7283349
0.030118,494.,0.,533.,973.,0.,0.,2000.,0.905169159426,0.135860286593,34736.7716621
0.032856,341.,0.,509.,1149.,0.,0.,1999.,0.625135813584,0.0982531730583,22909.9772962
0.035594,290.,0.,487.,1222.,0.,0.,1999.,0.531640427974,0.0873331298521,18641.4399665
0.038332,252.,0.,450.,1297.,0.,0.,1999.,0.461977199481,0.0821292799078,14968.0612632
0.04107,190.,0.,383.,1425.,0.,0.,1998.,0.34849047487,0.0727917440981,9609.97333501
0.043808,163.,0.,354.,1481.,0.,0.,1998.,0.29896814423,0.0675634224249,7620.10006014
0.046546,146.,0.,320.,1532.,0.,0.,1998.,0.267787417531,0.0669468543829,6169.82209992
0.049284,122.,0.,256.,1620.,0.,0.,1998.,0.223767568074,0.0699273650232,4124.48381474
0.052022,108.,0.,233.,1657.,0.,0.,1998.,0.198089322557,0.0680135013073,3323.14647522
0.05476,103.,0.,196.,1699.,0.,0.,1998.,0.188918520587,0.0771096002397,2666.01816253
0.057498,92.,0.,159.,1747.,0.,0.,1998.,0.168742756253,0.0849020157246,1931.76707358
0.060236,84.,0.,141.,1773.,0.,0.,1998.,0.1540694731,0.0874153038867,1564.11329091
0.062974,80.,0.,112.,1806.,0.,0.,1998.,0.146732831524,0.104809165374,1183.25355341
0.065712,76.,0.,87.,1835.,0.,0.,1998.,0.139396189948,0.12818040455,873.177733833
0.06845,75.,0.,72.,1850.,0.,0.,1997.,0.137630913895,0.152923237661,713.478657632
0.071188,72.,0.,60.,1865.,0.,0.,1997.,0.132125677339,0.176167569786,570.782926106
0.073926,71.,0.,50.,1876.,0.,0.,1997.,0.130290598487,0.20846495758,469.046154554
0.076664,71.,0.,38.,1888.,0.,0.,1997.,0.130290598487,0.274295996815,356.475077461
0.079402,68.,0.,30.,1899.,0.,0.,1997.,0.124785361932,0.332760965151,269.536381772
0.08214,68.,0.,27.,1902.,0.,0.,1997.,0.124785361932,0.369734405723,242.582743595
