t,s,e,i,r,c,o,n,reff,coal,reportr
0.,1687.,0.,35.,278.,0.,0.,2000.,3.02855676189,6.92241545574,7631.96303995
0.002738,1641.,0.,67.,292.,0.,0.,2000.,2.94597607958,3.5175833786,14211.3886079
0.005476,1598.,0.,103.,299.,0.,0.,2000.,2.86878109395,2.22817949045,21274.8805927
0.008214,1511.,0.,144.,345.,0.,0.,2000.,2.71259589046,1.50699771692,28124.1941923
0.010952,1444.,0.,192.,363.,0.,0.,1999.,2.59361213752,1.08067172397,35854.0941891
0.01369,1365.,0.,231.,403.,0.,0.,1999.,2.45171784468,0.849079773049,40776.9711927
0.016428,1206.,0.,299.,494.,0.,0.,1999.,2.16613312871,0.579567392296,46632.5139948
0.019166,1092.,0.,371.,536.,0.,0.,1999.,1.96137427574,0.422937849217,52392.2296537
0.021904,977.,0.,434.,588.,0.,0.,1999.,1.75481929249,0.323468994008,54834.5932518
0.024642,735.,0.,514.,750.,0.,0.,1999.,1.32015576252,0.205471714011,48856.3244593
0.02738,649.,0.,506.,844.,0.,0.,1999.,1.16568855765,0.18429858619,42468.3655324
0.030118,561.,0.,530.,908.,0.,0.,1999.,1.00762909221,0.152094957315,38451.1261587
0.032856,397.,0.,523.,1079.,0.,0.,1999.,0.71306372479,0.109072845092,26851.1276207
0.035594,336.,0.,503.,1160.,0.,0.,1999.,0.603499777152,0.0959840599844,21856.3479293
0.038332,290.,0.,455.,1254.,0.,0.,1999.,0.520877783851,0.0915829070508,17063.956199
0.04107,223.,0.,383.,1393.,0.,0.,1999.,0.400537054479,0.0836630923193,11045.2098143
0.043808,196.,0.,360.,1443.,0.,0.,1999.,0.352041536672,0.0782314525938,9124.91663054
0.046546,175.,0.,316.,1508.,0.,0.,1999.,0.3143228006,0.079575392557,7151.47235925
0.049284,140.,0.,252.,1607.,0.,0.,1999.,0.25145824048,0.0798280128508,4562.45831527
0.052022,127.,0.,227.,1645.,0.,0.,1999.,0.228108546721,0.0803906772586,3728.20608761
0.05476,119.,0.,190.,1690.,0.,0.,1999.,0.213739504408,0.0899955808034,2923.9564203
0.057498,105.,0.,158.,1736.,0.,0.,1999.,0.18859368036,0.0954904710684,2145.44170778
0.060236,100.,0.,139.,1760.,0.,0.,1999.,0.179613028914,0.103374405131,1797.56719337
0.062974,98.,0.,115.,1786.,0.,0.,1999.,0.176020768336,0.122449230147,1457.45196182
0.065712,91.,0.,87.,1821.,0.,0.,1999.,0.163447856312,0.150296879367,1023.83737194
0.06845,88.,0.,73.,1838.,0.,0.,1999.,0.158059465445,0.173215852542,830.760550377
0.071188,83.,0.,57.,1858.,0.,0.,1998.,0.14915342802,0.209338144589,612.125668594
0.073926,84.,0.,51.,1864.,0.,0.,1999.,0.150874944288,0.236666579275,554.012795426
0.076664,83.,0.,38.,1878.,0.,0.,1999.,0.149078813999,0.313850134734,407.879635101
0.079402,84.,0.,30.,1886.,0.,0.,2000.,0.150799506816,0.402132018176,325.726934722
0.08214,83.,0.,28.,1889.,0.,0.,2000.,0.149004274592,0.425726498834,300.392617577
