t,s,e,i,r,c,o,n,reff,coal,reportr
0.,1702.,0.,38.,260.,0.,0.,2000.,2.84153980288,5.9821890587,7774.45290069
0.002738,1662.,0.,69.,269.,0.,0.,2000.,2.77475860892,3.21711143064,13785.0007691
0.005476,1622.,0.,100.,278.,0.,0.,2000.,2.70797741497,2.16638193197,19497.4373878
0.008214,1528.,0.,146.,326.,0.,0.,2000.,2.55104160917,1.39783101872,26816.5493956
0.010952,1460.,0.,195.,345.,0.,0.,2000.,2.43751357944,1.00000557105,34222.6906553
0.01369,1398.,0.,229.,373.,0.,0.,2000.,2.33400272881,0.815372132334,38483.0369926
0.016428,1246.,0.,286.,468.,0.,0.,2000.,2.08023419177,0.581883690005,42836.1824769
0.019166,1126.,0.,360.,514.,0.,0.,2000.,1.8798906099,0.417753468866,48726.7646085
0.021904,1008.,0.,433.,559.,0.,0.,2000.,1.68288608772,0.310925836069,52465.6566709
0.024642,753.,0.,503.,744.,0.,0.,2000.,1.25715597625,0.199945284492,45529.1608357
0.02738,660.,0.,510.,830.,0.,0.,2000.,1.1018897003,0.172845443184,40461.3897948
0.030118,565.,0.,524.,911.,0.,0.,2000.,0.943284364647,0.144012880099,35588.2325094
0.032856,414.,0.,525.,1061.,0.,0.,2000.,0.691185357458,0.105323483041,26126.8065119
0.035594,367.,0.,490.,1144.,0.,0.,2001.,0.612411248934,0.09998551003,21605.8688624
0.038332,326.,0.,453.,1222.,0.,0.,2001.,0.543994733385,0.0960697100901,17742.9322241
0.04107,245.,0.,386.,1370.,0.,0.,2001.,0.408830397789,0.084731688661,11362.2144154
0.043808,219.,0.,353.,1429.,0.,0.,2001.,0.365444314759,0.0828202413051,9288.13270391
0.046546,199.,0.,319.,1484.,0.,0.,2002.,0.331904535402,0.0832362471228,7623.18336911
0.049284,173.,0.,252.,1577.,0.,0.,2002.,0.288540123741,0.091600039283,5235.27200517
0.052022,159.,0.,225.,1618.,0.,0.,2002.,0.265190055924,0.094289797662,4296.07890597
0.05476,156.,0.,190.,1656.,0.,0.,2002.,0.260186469963,0.109552197879,3559.3509091
0.057498,134.,0.,167.,1701.,0.,0.,2002.,0.223493506251,0.107062757485,2687.28591916
0.060236,129.,0.,142.,1731.,0.,0.,2002.,0.215154196316,0.121213631727,2199.73650313
0.062974,126.,0.,109.,1767.,0.,0.,2002.,0.210150610355,0.154238980077,1649.26199007
0.065712,120.,0.,89.,1793.,0.,0.,2002.,0.200143438433,0.179904214322,1282.51915348
0.06845,118.,0.,73.,1811.,0.,0.,2002.,0.19680771446,0.215679687079,1034.4213472
0.071188,111.,0.,61.,1830.,0.,0.,2002.,0.185132680551,0.2427969581,813.10273298
0.073926,111.,0.,48.,1843.,0.,0.,2002.,0.185132680551,0.308554467585,639.818543984
0.076664,111.,0.,42.,1849.,0.,0.,2002.,0.185132680551,0.35263367724,559.841225986
0.079402,110.,0.,30.,1862.,0.,0.,2002.,0.183464818564,0.489239516171,396.284008098
0.08214,109.,0.,25.,1868.,0.,0.,2002.,0.181796956577,0.581750261046,327.234521839
