t,s,e,i,r,c,o,n,reff,coal,reportr
0.,1618.,0.,36.,346.,0.,0.,2000.,2.86163122667,6.35918050371,7417.34813953
0.002738,1579.,0.,64.,356.,0.,0.,1999.,2.79405197463,3.49256496829,12874.9914991
0.005476,1534.,0.,102.,363.,0.,0.,1999.,2.71442414762,2.12896011578,19934.7309401
0.008214,1451.,0.,148.,400.,0.,0.,1999.,2.56755504446,1.3878675916,27359.8665537
0.010952,1380.,0.,200.,420.,0.,0.,2000.,2.44069906848,0.976279627393,35146.0665861
0.01369,1307.,0.,234.,459.,0.,0.,2000.,2.311589625,0.790287051284,38945.6620021
0.016428,1142.,0.,295.,563.,0.,0.,2000.,2.01976691029,0.547733399402,42899.8491747
0.019166,1025.,0.,369.,606.,0.,0.,2000.,1.81283807623,0.393027225198,48163.4820092
0.021904,897.,0.,448.,655.,0.,0.,2000.,1.58645439451,0.283295427592,51172.6729494
0.024642,703.,0.,502.,795.,0.,0.,2000.,1.24334162692,0.198142091939,44939.3397632
0.02738,613.,0.,519.,868.,0.,0.,2000.,1.08416560071,0.167116084888,40513.1001673
0.030118,544.,0.,506.,950.,0.,0.,2000.,0.962130647286,0.152115517357,35052.3437419
0.032856,379.,0.,516.,1105.,0.,0.,2000.,0.670307932576,0.103923710477,24903.2803111
0.035594,326.,0.,493.,1181.,0.,0.,2000.,0.576570939366,0.0935612071994,20465.9620637
0.038332,285.,0.,450.,1265.,0.,0.,2000.,0.504057416317,0.0896102073452,16331.4602887
0.04107,203.,0.,404.,1394.,0.,0.,2001.,0.358850944746,0.0710595930191,10438.2562808
0.043808,188.,0.,355.,1458.,0.,0.,2001.,0.332334865085,0.0748923639629,8494.47915158
0.046546,169.,0.,320.,1512.,0.,0.,2001.,0.298747830848,0.074686957712,6883.15002274
0.049284,146.,0.,253.,1602.,0.,0.,2001.,0.258089842034,0.0816094362164,4701.3645625
0.052022,138.,0.,223.,1640.,0.,0.,2001.,0.243947932882,0.0875149535002,3916.82801035
0.05476,131.,0.,189.,1681.,0.,0.,2001.,0.231573762373,0.098020640158,3151.25575838
0.057498,116.,0.,164.,1721.,0.,0.,2001.,0.205057682712,0.100028137908,2421.32111747
0.060236,111.,0.,137.,1753.,0.,0.,2001.,0.196218989492,0.11458043182,1935.50411235
0.062974,110.,0.,112.,1779.,0.,0.,2001.,0.194451250848,0.138893750606,1568.05488684
0.065712,104.,0.,88.,1809.,0.,0.,2001.,0.183844818983,0.167131653621,1164.84077308
0.06845,102.,0.,75.,1825.,0.,0.,2002.,0.180219277089,0.192233895562,973.184096281
0.071188,101.,0.,56.,1845.,0.,0.,2002.,0.178452421431,0.254932030616,719.520163211
0.073926,98.,0.,52.,1852.,0.,0.,2002.,0.173151854458,0.266387468397,648.280543091
0.076664,98.,0.,41.,1863.,0.,0.,2002.,0.173151854458,0.337857276991,511.14427436
0.079402,95.,0.,31.,1876.,0.,0.,2002.,0.167851287485,0.433164612864,374.644073666
0.08214,94.,0.,27.,1881.,0.,0.,2002.,0.166084431827,0.492102020228,322.868135472
