t,s,e,i,r,c,o,n,reff,coal,reportr
0.,1706.,0.,36.,258.,0.,0.,2000.,2.69890384419,5.9975640982,6995.55876414
0.002738,1664.,0.,66.,269.,0.,0.,1999.,2.63377644082,3.1924562919,12515.7056468
0.005476,1617.,0.,105.,276.,0.,0.,1998.,2.56066589218,1.9509835369,19358.6341449
0.008214,1535.,0.,146.,317.,0.,0.,1998.,2.43081146846,1.33195148957,25552.6901565
0.010952,1464.,0.,194.,340.,0.,0.,1998.,2.3183765406,0.956031563136,32383.0835192
0.01369,1392.,0.,236.,370.,0.,0.,1998.,2.20435802221,0.74724000753,37456.4515135
0.016428,1233.,0.,303.,462.,0.,0.,1998.,1.95256712744,0.51552927457,42597.2044521
0.019166,1129.,0.,363.,506.,0.,0.,1998.,1.78787371198,0.394021754707,46727.8673364
0.021904,1005.,0.,438.,555.,0.,0.,1998.,1.59150848587,0.290686481437,50189.8116103
0.024642,785.,0.,495.,719.,0.,0.,1999.,1.24249669834,0.200807547207,44282.5823289
0.02738,694.,0.,509.,796.,0.,0.,1999.,1.09846204924,0.172646294575,40256.4371804
0.030118,615.,0.,511.,873.,0.,0.,1999.,0.97342098023,0.152394674009,35814.1047046
0.032856,461.,0.,502.,1037.,0.,0.,2000.,0.729305200569,0.116223936346,26360.0071694
0.035594,391.,0.,489.,1120.,0.,0.,2000.,0.618564714583,0.101196681322,21778.426471
0.038332,354.,0.,457.,1189.,0.,0.,2000.,0.560030457704,0.0980359663377,18427.2421803
0.04107,281.,0.,393.,1326.,0.,0.,2000.,0.444543950889,0.0904924073057,12578.8156344
0.043808,260.,0.,350.,1390.,0.,0.,2000.,0.411321805093,0.0940164125927,10365.3094883
0.046546,236.,0.,314.,1450.,0.,0.,2000.,0.373353638469,0.0951219461068,8440.77905851
0.049284,206.,0.,253.,1541.,0.,0.,2000.,0.325893430189,0.103049305989,5936.47472433
0.052022,187.,0.,228.,1585.,0.,0.,2000.,0.295835298279,0.103801859045,4856.43225654
0.05476,178.,0.,196.,1626.,0.,0.,2000.,0.281597235795,0.114937647263,3973.90019153
0.057498,159.,0.,156.,1685.,0.,0.,2000.,0.251539103884,0.128994412248,2825.28721482
0.060236,154.,0.,137.,1709.,0.,0.,2000.,0.243629069171,0.142265149881,2403.1571383
0.062974,149.,0.,116.,1736.,0.,0.,2001.,0.23560123384,0.162483609545,1967.74150503
0.065712,138.,0.,87.,1776.,0.,0.,2001.,0.218207854161,0.200650900378,1366.85399846
0.06845,136.,0.,70.,1795.,0.,0.,2001.,0.215045421492,0.245766195991,1083.82892432
0.071188,131.,0.,59.,1811.,0.,0.,2001.,0.207139339819,0.28086690145,879.927915553
0.073926,131.,0.,47.,1822.,0.,0.,2000.,0.207242909489,0.352753888492,701.310005712
0.076664,130.,0.,40.,1830.,0.,0.,2000.,0.205660902547,0.411321805093,592.303399334
0.079402,127.,0.,33.,1840.,0.,0.,2000.,0.200914881719,0.487066379924,477.373758963
0.08214,126.,0.,29.,1845.,0.,0.,2000.,0.199332874776,0.549883792485,416.207042532
