t,s,e,i,r,c,o,n,reff,coal,reportr
0.,1749.,0.,39.,212.,0.,0.,2000.,2.96109984515,6.07405096441,8314.76836518
0.002738,1707.,0.,70.,223.,0.,0.,2000.,2.88999281628,3.30284893289,14565.563794
0.005476,1668.,0.,103.,229.,0.,0.,2000.,2.8239648609,2.19337076575,20942.5234084
0.008214,1585.,0.,146.,269.,0.,0.,2000.,2.68344382765,1.47038017954,28208.3615163
0.010952,1513.,0.,196.,291.,0.,0.,2000.,2.56154606387,1.04552900566,36148.5380534
0.01369,1439.,0.,235.,326.,0.,0.,2000.,2.4362622511,0.829365872715,41221.5572886
0.016428,1273.,0.,296.,431.,0.,0.,2000.,2.15522018461,0.582491941786,45932.0525743
0.019166,1162.,0.,366.,472.,0.,0.,2000.,1.96729446545,0.430009719223,51842.1437534
0.021904,1021.,0.,446.,533.,0.,0.,2000.,1.72857801138,0.310058836121,55508.0971013
0.024642,805.,0.,507.,688.,0.,0.,2000.,1.36288472004,0.215050843398,49750.7438203
0.02738,680.,0.,519.,801.,0.,0.,2000.,1.15125665792,0.177457673668,43020.1587932
0.030118,592.,0.,519.,889.,0.,0.,2000.,1.00227050219,0.154492562958,37452.8441258
0.032856,429.,0.,516.,1055.,0.,0.,2000.,0.726307509188,0.112605815378,26983.7765813
0.035594,355.,0.,500.,1144.,0.,0.,1999.,0.601324358594,0.096211897375,21647.6769094
0.038332,305.,0.,453.,1241.,0.,0.,1999.,0.516630786961,0.0912372250703,16850.4297475
0.04107,234.,0.,389.,1376.,0.,0.,1999.,0.396365915242,0.0815148411809,11101.4165541
0.043808,205.,0.,349.,1445.,0.,0.,1999.,0.347243643695,0.0795973968355,8725.53827876
0.046546,188.,0.,320.,1491.,0.,0.,1999.,0.31844782934,0.0796119573349,7337.03798799
0.049284,164.,0.,255.,1580.,0.,0.,1999.,0.277794914956,0.0871513458685,5100.31463859
0.052022,148.,0.,225.,1626.,0.,0.,1999.,0.250692972033,0.0891352789452,4061.22614694
0.05476,138.,0.,189.,1672.,0.,0.,1999.,0.233754257707,0.0989436011457,3180.92793887
0.057498,120.,0.,160.,1719.,0.,0.,1999.,0.203264571919,0.101632285959,2341.60786851
0.060236,113.,0.,142.,1744.,0.,0.,1999.,0.19140747189,0.107835195431,1956.94999261
0.062974,109.,0.,115.,1775.,0.,0.,1999.,0.18463198616,0.128439642546,1528.7528454
0.065712,104.,0.,85.,1810.,0.,0.,1999.,0.176162628996,0.165800121408,1078.11528946
0.06845,101.,0.,75.,1823.,0.,0.,1999.,0.171081014698,0.182486415678,923.837479372
0.071188,99.,0.,63.,1836.,0.,0.,1998.,0.1677772024,0.213050415746,761.037390085
0.073926,98.,0.,51.,1849.,0.,0.,1998.,0.166082483183,0.260521542249,609.85487825
0.076664,96.,0.,42.,1860.,0.,0.,1998.,0.162693044751,0.309891513812,491.983767327
0.079402,93.,0.,32.,1873.,0.,0.,1998.,0.157608887103,0.394022217757,363.130875885
0.08214,93.,0.,26.,1879.,0.,0.,1998.,0.157608887103,0.484950421854,295.043836656
