t,s,e,i,r,c,o,n,reff,coal,reportr
0.,1700.,0.,37.,263.,0.,0.,2000.,2.84868972079,6.15932912603,7588.90941618
0.002738,1660.,0.,65.,275.,0.,0.,2000.,2.78166172736,3.42358366444,13018.176884
0.005476,1615.,0.,103.,282.,0.,0.,2000.,2.70625523475,2.1019458134,20069.5888209
0.008214,1534.,0.,144.,323.,0.,0.,2001.,2.56923892859,1.42735496033,26637.8692116
0.010952,1463.,0.,200.,338.,0.,0.,2001.,2.45032369786,0.980129479146,35284.6612492
0.01369,1397.,0.,227.,377.,0.,0.,2001.,2.33978277916,0.824593049926,38241.4097427
0.016428,1223.,0.,302.,476.,0.,0.,2001.,2.04835672077,0.54261105186,44539.4685364
0.019166,1118.,0.,373.,510.,0.,0.,2001.,1.87249616829,0.401607757275,50287.7570957
0.021904,992.,0.,436.,572.,0.,0.,2000.,1.66229423707,0.305008116894,52182.7406901
0.024642,774.,0.,495.,731.,0.,0.,2000.,1.29699167288,0.209614815818,46224.7832213
0.02738,669.,0.,524.,807.,0.,0.,2000.,1.12104319012,0.17115163208,42294.7174769
0.030118,586.,0.,514.,900.,0.,0.,2000.,0.981960103754,0.152834257394,36340.3795197
0.032856,441.,0.,507.,1052.,0.,0.,2000.,0.738983627569,0.116604911648,26975.8583408
0.035594,387.,0.,490.,1123.,0.,0.,2000.,0.648495836438,0.105876871255,22878.9331095
0.038332,335.,0.,451.,1214.,0.,0.,2000.,0.561359444979,0.0995759547634,18228.4638974
0.04107,260.,0.,383.,1358.,0.,0.,2001.,0.435464225184,0.0909585848949,12008.3614737
0.043808,228.,0.,355.,1418.,0.,0.,2001.,0.381868628239,0.0860549021383,9760.56213778
0.046546,201.,0.,320.,1480.,0.,0.,2001.,0.336647343316,0.0841618358289,7756.35478999
0.049284,179.,0.,253.,1569.,0.,0.,2001.,0.299800370415,0.0947985360997,5461.16354749
0.052022,166.,0.,231.,1604.,0.,0.,2001.,0.278027159156,0.0962864620454,4624.14771109
0.05476,154.,0.,200.,1647.,0.,0.,2001.,0.257928810302,0.103171524121,3714.17486834
0.057498,138.,0.,161.,1702.,0.,0.,2001.,0.231131011829,0.114847707741,2679.27068912
0.060236,130.,0.,141.,1729.,0.,0.,2000.,0.217840978648,0.123597718382,2211.52161524
0.062974,125.,0.,113.,1762.,0.,0.,2000.,0.20946247947,0.148292020863,1704.18673297
0.065712,118.,0.,94.,1788.,0.,0.,2000.,0.197732580619,0.168283047336,1338.25410563
0.06845,115.,0.,73.,1812.,0.,0.,2000.,0.192705481112,0.21118408889,1012.86000873
0.071188,110.,0.,57.,1833.,0.,0.,2000.,0.184326981933,0.258704536047,756.477933854
0.073926,107.,0.,48.,1845.,0.,0.,2000.,0.179299882426,0.298833137377,619.660393664
0.076664,105.,0.,43.,1852.,0.,0.,2000.,0.175948482755,0.327346014427,544.736502608
0.079402,102.,0.,33.,1865.,0.,0.,2000.,0.170921383247,0.414354868478,406.109206596
0.08214,101.,0.,29.,1870.,0.,0.,2000.,0.169245683412,0.466884643894,353.384986963
