t,s,e,i,r,c,o,n,reff,coal,reportr
0.,1607.,0.,38.,355.,0.,0.,2000.,2.71063768789,5.70660565871,7416.30471406
0.002738,1563.,0.,65.,372.,0.,0.,2000.,2.63641985449,3.2448244363,12338.444919
0.005476,1517.,0.,104.,379.,0.,0.,2000.,2.55882848322,1.96832960247,19160.5076823
0.008214,1427.,0.,143.,430.,0.,0.,2000.,2.40701927854,1.34658421177,24782.6704919
0.010952,1355.,0.,196.,449.,0.,0.,2000.,2.2855719148,0.932886495838,32253.9908617
0.01369,1283.,0.,233.,484.,0.,0.,2000.,2.16412455106,0.743047056159,36305.3534687
0.016428,1138.,0.,294.,568.,0.,0.,2000.,1.91954305465,0.52232464072,40632.8873808
0.019166,1022.,0.,372.,606.,0.,0.,2000.,1.72387785751,0.37072642097,46172.3445356
0.021904,894.,0.,450.,657.,0.,0.,2001.,1.50721782418,0.267949835409,48833.8575033
0.024642,698.,0.,499.,804.,0.,0.,2001.,1.17677633252,0.188661536276,42279.2200749
0.02738,599.,0.,515.,887.,0.,0.,2001.,1.00986966072,0.156872957005,37445.9670194
0.030118,515.,0.,513.,973.,0.,0.,2001.,0.86825187858,0.135399903092,32069.7513872
0.032856,373.,0.,520.,1108.,0.,0.,2001.,0.628850389729,0.0967462138044,23544.1585914
0.035594,326.,0.,491.,1183.,0.,0.,2000.,0.549886674705,0.0895945702168,19439.5937242
0.038332,285.,0.,450.,1265.,0.,0.,2000.,0.480729148132,0.0854629596679,15575.6243995
0.04107,215.,0.,394.,1391.,0.,0.,2000.,0.362655322275,0.0736355984315,10287.8061823
0.043808,190.,0.,359.,1451.,0.,0.,2000.,0.320486098755,0.0714175150428,8283.92468061
0.046546,174.,0.,313.,1512.,0.,0.,1999.,0.293644618011,0.0750529375107,6617.57511149
0.049284,138.,0.,256.,1604.,0.,0.,1998.,0.233007120953,0.0728147252979,4294.78725341
0.052022,133.,0.,223.,1642.,0.,0.,1998.,0.224564833962,0.0805613754125,3605.6129741
0.05476,126.,0.,198.,1674.,0.,0.,1998.,0.212745632175,0.0859578311817,3032.90173228
0.057498,110.,0.,164.,1724.,0.,0.,1998.,0.185730313803,0.0906001530748,2193.10354539
0.060236,107.,0.,139.,1752.,0.,0.,1998.,0.180664941609,0.103979822509,1808.09473562
0.062974,106.,0.,113.,1779.,0.,0.,1998.,0.178976484211,0.12670901537,1456.15267554
0.065712,103.,0.,87.,1807.,0.,0.,1997.,0.173998198201,0.159998343173,1089.92471353
0.06845,102.,0.,68.,1827.,0.,0.,1997.,0.172308895306,0.202716347419,843.624351418
0.071188,96.,0.,56.,1845.,0.,0.,1997.,0.162173077935,0.231675825622,653.881850234
0.073926,95.,0.,48.,1854.,0.,0.,1997.,0.16048377504,0.2674729584,554.631926538
0.076664,95.,0.,40.,1862.,0.,0.,1997.,0.16048377504,0.32096755008,462.193272115
0.079402,93.,0.,32.,1872.,0.,0.,1997.,0.15710516925,0.392762923124,361.970309951
0.08214,93.,0.,27.,1877.,0.,0.,1997.,0.15710516925,0.465496797777,305.412449021
