t,s,e,i,r,c,o,n,reff,coal,reportr
0.,1644.,0.,37.,319.,0.,0.,2000.,2.72777093961,5.89788311268,7266.78178313
0.002738,1600.,0.,67.,333.,0.,0.,2000.,2.65476490473,3.16986854297,12806.5859004
0.005476,1557.,0.,102.,341.,0.,0.,2000.,2.58341809792,2.02621027288,18972.6225111
0.008214,1475.,0.,150.,375.,0.,0.,2000.,2.44736139655,1.30525941149,26431.5030828
0.010952,1410.,0.,198.,392.,0.,0.,2000.,2.3395115723,0.945257200928,33352.0769747
0.01369,1340.,0.,228.,432.,0.,0.,2000.,2.22336560771,0.780128283408,36498.7698162
0.016428,1192.,0.,293.,515.,0.,0.,2000.,1.97779985403,0.540013612021,41723.6657205
0.019166,1083.,0.,360.,557.,0.,0.,2000.,1.79694399489,0.399320887754,46576.7883476
0.021904,962.,0.,444.,594.,0.,0.,2000.,1.59617739897,0.287599531346,51026.5990903
0.024642,745.,0.,501.,754.,0.,0.,2000.,1.23612490877,0.197385214973,44589.497709
0.02738,633.,0.,514.,853.,0.,0.,2000.,1.05029136544,0.163469473219,38869.182852
0.030118,548.,0.,511.,941.,0.,0.,2000.,0.909256979871,0.142349429334,33453.3828034
0.032856,401.,0.,511.,1088.,0.,0.,2000.,0.665350454249,0.104164454677,24479.5739127
0.035594,348.,0.,492.,1161.,0.,0.,2001.,0.577122805377,0.0938411065653,20443.9982577
0.038332,305.,0.,456.,1240.,0.,0.,2001.,0.505811654138,0.0887388866908,16606.8082286
0.04107,235.,0.,385.,1380.,0.,0.,2000.,0.389918595383,0.0810220457938,10808.543464
0.043808,213.,0.,350.,1437.,0.,0.,2000.,0.353415577943,0.0807807035297,8906.07256415
0.046546,194.,0.,318.,1489.,0.,0.,2001.,0.321729380009,0.0809382088073,7366.31588468
0.049284,167.,0.,254.,1581.,0.,0.,2002.,0.276814272659,0.0871855976878,5062.37941839
0.052022,148.,0.,229.,1624.,0.,0.,2001.,0.245443032172,0.085744290715,4046.86471445
0.05476,139.,0.,192.,1670.,0.,0.,2001.,0.230517442378,0.096048934324,3186.67312343
0.057498,127.,0.,157.,1717.,0.,0.,2001.,0.210616655985,0.107320589037,2380.81067926
0.060236,124.,0.,140.,1737.,0.,0.,2001.,0.205641459387,0.117509405364,2072.86591062
0.062974,123.,0.,115.,1763.,0.,0.,2001.,0.203983060521,0.141901259493,1688.97974111
0.065712,117.,0.,95.,1789.,0.,0.,2001.,0.194032667325,0.163395930379,1327.1834445
0.06845,114.,0.,76.,1811.,0.,0.,2001.,0.189057470727,0.199007863923,1034.52247982
0.071188,108.,0.,60.,1833.,0.,0.,2001.,0.179107077531,0.238809436708,773.742574933
0.073926,108.,0.,50.,1844.,0.,0.,2002.,0.179017613456,0.28642818153,644.463408442
0.076664,107.,0.,42.,1853.,0.,0.,2002.,0.177360042961,0.337828653259,536.336769914
0.079402,107.,0.,32.,1863.,0.,0.,2002.,0.177360042961,0.443400107403,408.637538982
0.08214,106.,0.,25.,1871.,0.,0.,2002.,0.175702472466,0.562247911892,316.264450439
