t,cases
5.01,0.715
5.02,0.715
5.03,0.845
5.04,0.845
5.05,1.235
5.06,1.235
5.07,1.43
5.08,1.43
5.09,1.365
5.1,1.365
5.11,1.625
5.12,1.625
5.13,2.08
5.14,2.08
5.15,1.95
5.16,1.95
5.17,1.95
5.18,1.95
5.19,2.145
5.2,2.145
5.21,1.56
5.22,1.56
5.23,2.08
5.24,2.08
5.25,2.405
5.26,2.405
5.27,1.56
5.28,1.56
5.29,1.43
5.3,1.43
5.31,1.56
5.32,1.56
5.33,1.495
5.34,1.495
5.35,1.365
5.36,1.365
5.37,1.105
5.38,1.105
5.39,1.04
5.4,1.04
5.41,1.3
5.42,1.3
5.43,1.56
5.44,1.56
5.45,1.365
5.46,1.365
5.47,1.3
5.48,1.3
5.49,1.82
5.5,1.82
5.51,1.755
5.52,1.755
5.53,1.17
5.54,1.17
5.55,1.17
5.56,1.17
5.57,1.69
5.58,1.69
5.59,1.82
5.6,1.82
5.61,1.43
5.62,1.43
5.63,1.17
5.64,1.17
5.65,1.17
5.66,1.17
5.67,1.04
5.68,1.04
5.69,0.91
5.7,0.91
5.71,0.78
5.72,0.78
5.73,0.52
5.74,0.52
5.75,0.325
5.76,0.325
5.77,0.325
5.78,0.325
5.79,0.585
5.8,0.585
5.81,0.585
5.82,0.585
5.83,0.39
5.84,0.39
5.85,0.52
5.86,0.52
5.87,0.585
5.88,0.585
5.89,0.585
5.9,0.585
5.91,0.78
5.92,0.78
5.93,0.78
5.94,0.78
5.95,0.455
5.96,0.455
5.97,0.325
5.98,0.325
5.99,0.195
6.,0.195
6.01,0.195
6.02,0.195
6.03,0.455
6.04,0.455
6.05,0.91
6.06,0.91
6.07,1.04
6.08,1.04
6.09,0.845
6.1,0.845
6.11,0.65
6.12,0.65
6.13,0.585
6.14,0.585
6.15,1.105
6.16,1.105
6.17,1.82
6.18,1.82
6.19,1.95
6.2,1.95
6.21,1.43
6.22,1.43
6.23,1.17
6.24,1.17
6.25,1.365
6.26,1.365
6.27,1.56
6.28,1.56
6.29,1.625
6.3,1.625
6.31,1.82
6.32,1.82
6.33,2.015
6.34,2.015
6.35,2.47
6.36,2.47
6.37,3.12
6.38,3.12
6.39,3.12
6.4,3.12
6.41,2.86
6.42,2.86
6.43,2.86
6.44,2.86
6.45,2.34
6.46,2.34
6.47,1.95
6.48,1.95
6.49,1.625
6.5,1.625
6.51,1.365
6.52,1.365
6.53,1.495
6.54,1.495
6.55,1.43
6.56,1.43
6.57,1.69
6.58,1.69
6.59,2.275
6.6,2.275
6.61,2.6
6.62,2.6
6.63,2.405
6.64,2.405
6.65,2.145
6.66,2.145
6.67,1.885
6.68,1.885
6.69,1.82
6.7,1.82
6.71,2.145
6.72,2.145
6.73,2.275
6.74,2.275
6.75,2.795
6.76,2.795
6.77,2.925
6.78,2.925
6.79,2.21
6.8,2.21
6.81,1.69
6.82,1.69
6.83,1.17
6.84,1.17
6.85,1.235
6.86,1.235
6.87,1.69
6.88,1.69
6.89,1.82
6.9,1.82
6.91,2.405
6.92,2.405
6.93,2.405
6.94,2.405
6.95,2.145
6.96,2.145
6.97,2.6
6.98,2.6
6.99,2.86
7.,2.86
7.01,2.99
7.02,2.99
7.03,3.315
7.04,3.315
7.05,2.925
7.06,2.925
7.07,2.665
7.08,2.665
7.09,2.99
7.1,2.99
7.11,2.6
7.12,2.6
7.13,2.665
7.14,2.665
7.15,3.12
7.16,3.12
7.17,2.925
7.18,2.925
7.19,2.925
7.2,2.925
7.21,3.25
7.22,3.25
7.23,3.315
7.24,3.315
7.25,3.055
7.26,3.055
7.27,3.38
7.28,3.38
7.29,3.965
7.3,3.965
7.31,3.315
7.32,3.315
7.33,2.925
7.34,2.925
7.35,3.51
7.36,3.51
7.37,3.575
7.38,3.575
7.39,3.185
7.4,3.185
7.41,3.185
7.42,3.185
7.43,2.73
7.44,2.73
7.45,2.47
7.46,2.47
7.47,2.795
7.48,2.795
7.49,2.99
7.5,2.99
7.51,2.99
7.52,2.99
7.53,2.405
7.54,2.405
7.55,2.145
7.56,2.145
7.57,2.015
7.58,2.015
7.59,1.95
7.6,1.95
7.61,2.145
7.62,2.145
7.63,1.82
7.64,1.82
7.65,1.755
7.66,1.755
7.67,1.69
7.68,1.69
7.69,1.365
7.7,1.365
7.71,1.56
7.72,1.56
7.73,1.69
7.74,1.69
7.75,1.755
7.76,1.755
7.77,2.275
7.78,2.275
7.79,2.405
7.8,2.405
7.81,2.86
7.82,2.86
7.83,3.25
7.84,3.25
7.85,2.99
7.86,2.99
7.87,2.6
7.88,2.6
7.89,2.275
7.9,2.275
7.91,2.34
7.92,2.34
7.93,2.86
7.94,2.86
7.95,3.25
7.96,3.25
7.97,2.99
7.98,2.99
7.99,2.925
8.,2.925
8.01,2.665
8.02,2.665
8.03,2.535
8.04,2.535
8.05,3.055
8.06,3.055
8.07,3.12
8.08,3.12
8.09,2.86
8.1,2.86
8.11,2.795
8.12,2.795
8.13,2.47
8.14,2.47
8.15,2.145
8.16,2.145
8.17,1.95
8.18,1.95
8.19,2.145
8.2,2.145
8.21,2.665
8.22,2.665
8.23,2.47
8.24,2.47
8.25,2.34
8.26,2.34
8.27,2.6
8.28,2.6
8.29,2.405
8.3,2.405
8.31,2.34
8.32,2.34
8.33,2.73
8.34,2.73
8.35,3.25
8.36,3.25
8.37,2.925
8.38,2.925
8.39,2.665
8.4,2.665
8.41,2.47
8.42,2.47
8.43,2.21
8.44,2.21
8.45,2.86
8.46,2.86
8.47,2.795
8.48,2.795
8.49,2.275
8.5,2.275
8.51,2.47
8.52,2.47
8.53,2.73
8.54,2.73
8.55,3.055
8.56,3.055
8.57,2.86
8.58,2.86
8.59,2.665
8.6,2.665
8.61,3.445
8.62,3.445
8.63,3.64
8.64,3.64
8.65,3.12
8.66,3.12
8.67,2.665
8.68,2.665
8.69,2.405
8.7,2.405
8.71,2.535
8.72,2.535
8.73,2.99
8.74,2.99
8.75,3.055
8.76,3.055
8.77,3.185
8.78,3.185
8.79,3.38
8.8,3.38
8.81,3.185
8.82,3.185
8.83,3.12
8.84,3.12
8.85,3.055
8.86,3.055
8.87,3.12
8.88,3.12
8.89,3.12
8.9,3.12
8.91,3.38
8.92,3.38
8.93,3.25
8.94,3.25
8.95,2.73
8.96,2.73
8.97,2.925
8.98,2.925
8.99,3.055
9.,3.055
9.01,3.055
9.02,3.055
9.03,3.705
9.04,3.705
9.05,3.9
9.06,3.9
9.07,3.705
9.08,3.705
9.09,3.9
9.1,3.9
9.11,3.835
9.12,3.835
9.13,3.965
9.14,3.965
9.15,3.835
9.16,3.835
9.17,4.095
9.18,4.095
9.19,4.81
9.2,4.81
9.21,4.745
9.22,4.745
9.23,4.225
9.24,4.225
9.25,3.575
9.26,3.575
9.27,3.315
9.28,3.315
9.29,2.99
9.3,2.99
9.31,2.21
9.32,2.21
9.33,1.82
9.34,1.82
9.35,1.885
9.36,1.885
9.37,2.145
9.38,2.145
9.39,2.275
9.4,2.275
9.41,2.21
9.42,2.21
9.43,2.21
9.44,2.21
9.45,1.95
9.46,1.95
9.47,1.625
9.48,1.625
9.49,1.885
9.5,1.885
9.51,2.08
9.52,2.08
9.53,1.69
9.54,1.69
9.55,1.56
9.56,1.56
9.57,1.69
9.58,1.69
9.59,1.495
9.6,1.495
9.61,1.495
9.62,1.495
9.63,1.365
9.64,1.365
9.65,1.17
9.66,1.17
9.67,1.04
9.68,1.04
9.69,0.975
9.7,0.975
9.71,1.235
9.72,1.235
9.73,1.495
9.74,1.495
9.75,1.495
9.76,1.495
9.77,1.43
9.78,1.43
9.79,1.43
9.8,1.43
9.81,1.3
9.82,1.3
9.83,1.365
9.84,1.365
9.85,1.3
9.86,1.3
9.87,1.17
9.88,1.17
9.89,1.495
9.9,1.495
9.91,1.69
9.92,1.69
9.93,1.3
9.94,1.3
9.95,1.235
9.96,1.235
9.97,1.04
9.98,1.04
9.99,1.04
10.,1.04
