t,prevalence
5.,1
5.02,3
5.04,1
5.06,0
5.08,1
5.1,3
5.12,0
5.14,0
5.16,0
5.18,0
5.2,1
5.22,2
5.24,0
5.26,1
5.28,2
5.3,3
5.32,2
5.34,2
5.36,2
5.38,3
5.4,2
5.42,3
5.44,4
5.46,2
5.48,2
5.5,2
5.52,1
5.54,3
5.56,3
5.58,5
5.6,5
5.62,3
5.64,2
5.66,0
5.68,3
5.7,0
5.72,4
5.74,0
5.76,0
5.78,2
5.8,2
5.82,2
5.84,2
5.86,1
5.88,0
5.9,1
5.92,2
5.94,0
5.96,2
5.98,4
6.,2
6.02,4
6.04,8
6.06,3
6.08,4
6.1,5
6.12,5
6.14,0
6.16,4
6.18,8
6.2,5
6.22,9
6.24,9
6.26,10
6.28,13
6.3,8
6.32,3
6.34,3
6.36,11
6.38,9
6.4,6
6.42,8
6.44,7
6.46,1
6.48,9
6.5,6
6.52,9
6.54,9
6.56,8
6.58,6
6.6,6
6.62,7
6.64,5
6.66,8
6.68,4
6.7,3
6.72,4
6.74,4
6.76,12
6.78,7
6.8,7
6.82,10
6.84,6
6.86,8
6.88,6
6.9,3
6.92,5
6.94,8
6.96,4
6.98,3
7.,4
7.02,7
7.04,2
7.06,4
7.08,4
7.1,4
7.12,4
7.14,10
7.16,7
7.18,5
7.2,5
7.22,5
7.24,4
7.26,2
7.28,3
7.3,4
7.32,3
7.34,2
7.36,5
7.38,5
7.4,5
7.42,2
7.44,3
7.46,4
7.48,3
7.5,3
7.52,2
7.54,2
7.56,1
7.58,3
7.6,3
7.62,0
7.64,0
7.66,1
7.68,3
7.7,5
7.72,1
7.74,6
7.76,6
7.78,2
7.8,2
7.82,1
7.84,1
7.86,4
7.88,4
7.9,1
7.92,1
7.94,2
7.96,3
7.98,1
8.,5
8.02,2
8.04,0
8.06,1
8.08,1
8.1,0
8.12,4
8.14,1
8.16,2
8.18,2
8.2,0
8.22,1
8.24,1
8.26,2
8.28,2
8.3,5
8.32,4
8.34,1
8.36,1
8.38,4
8.4,5
8.42,4
8.44,4
8.46,8
8.48,4
8.5,2
8.52,2
8.54,1
8.56,0
8.58,3
8.6,4
8.62,2
8.64,2
8.66,3
8.68,7
8.7,1
8.72,4
8.74,5
8.76,6
8.78,3
8.8,3
8.82,2
8.84,1
8.86,7
8.88,3
8.9,6
8.92,4
8.94,8
8.96,12
8.98,11
9.,5
9.02,4
9.04,6
9.06,10
9.08,5
9.1,5
9.12,5
9.14,4
9.16,9
9.18,1
9.2,1
9.22,4
9.24,6
9.26,7
9.28,7
9.3,6
9.32,8
9.34,13
9.36,15
9.38,8
9.4,12
9.42,10
9.44,13
9.46,11
9.48,9
9.5,10
9.52,15
9.54,12
9.56,17
9.58,10
9.6,7
9.62,10
9.64,13
9.66,4
9.68,10
9.7,14
9.72,5
9.74,6
9.76,10
9.78,5
9.8,8
9.82,10
9.84,6
9.86,3
9.88,4
9.9,6
9.92,7
9.94,9
9.96,7
9.98,8
10.,8
