t,prevalence
5.,2
5.02,3
5.04,1
5.06,2
5.08,4
5.1,2
5.12,2
5.14,3
5.16,0
5.18,4
5.2,2
5.22,2
5.24,1
5.26,6
5.28,6
5.3,1
5.32,0
5.34,3
5.36,4
5.38,2
5.4,0
5.42,2
5.44,2
5.46,5
5.48,5
5.5,4
5.52,3
5.54,2
5.56,2
5.58,1
5.6,3
5.62,3
5.64,3
5.66,2
5.68,2
5.7,3
5.72,1
5.74,0
5.76,2
5.78,2
5.8,3
5.82,1
5.84,0
5.86,1
5.88,2
5.9,4
5.92,0
5.94,2
5.96,0
5.98,3
6.,0
6.02,2
6.04,3
6.06,3
6.08,0
6.1,0
6.12,0
6.14,3
6.16,0
6.18,5
6.2,4
6.22,2
6.24,1
6.26,2
6.28,5
6.3,0
6.32,2
6.34,3
6.36,0
6.38,1
6.4,2
6.42,0
6.44,4
6.46,2
6.48,4
6.5,5
6.52,2
6.54,1
6.56,1
6.58,2
6.6,3
6.62,2
6.64,6
6.66,2
6.68,5
6.7,3
6.72,4
6.74,1
6.76,1
6.78,2
6.8,3
6.82,3
6.84,1
6.86,1
6.88,1
6.9,4
6.92,5
6.94,1
6.96,1
6.98,3
7.,3
7.02,5
7.04,3
7.06,2
7.08,1
7.1,1
7.12,4
7.14,2
7.16,2
7.18,0
7.2,3
7.22,3
7.24,1
7.26,3
7.28,5
7.3,5
7.32,1
7.34,6
7.36,3
7.38,4
7.4,7
7.42,5
7.44,4
7.46,1
7.48,0
7.5,6
7.52,2
7.54,5
7.56,1
7.58,1
7.6,1
7.62,4
7.64,1
7.66,5
7.68,1
7.7,3
7.72,4
7.74,0
7.76,4
7.78,1
7.8,1
7.82,1
7.84,2
7.86,4
7.88,4
7.9,2
7.92,0
7.94,2
7.96,2
7.98,2
8.,5
8.02,2
8.04,4
8.06,3
8.08,2
8.1,3
8.12,3
8.14,4
8.16,3
8.18,2
8.2,2
8.22,3
8.24,2
8.26,4
8.28,4
8.3,4
8.32,2
8.34,3
8.36,1
8.38,6
8.4,3
8.42,2
8.44,3
8.46,5
8.48,4
8.5,2
8.52,3
8.54,2
8.56,9
8.58,3
8.6,2
8.62,1
8.64,3
8.66,6
8.68,5
8.7,9
8.72,5
8.74,2
8.76,5
8.78,2
8.8,2
8.82,6
8.84,4
8.86,6
8.88,2
8.9,7
8.92,8
8.94,9
8.96,6
8.98,7
9.,12
9.02,11
9.04,11
9.06,11
9.08,5
9.1,7
9.12,8
9.14,12
9.16,9
9.18,14
9.2,20
9.22,11
9.24,6
9.26,10
9.28,7
9.3,8
9.32,6
9.34,9
9.36,14
9.38,6
9.4,3
9.42,10
9.44,9
9.46,7
9.48,3
9.5,5
9.52,1
9.54,3
9.56,0
9.58,3
9.6,2
9.62,3
9.64,1
9.66,0
9.68,5
9.7,4
9.72,4
9.74,1
9.76,1
9.78,3
9.8,3
9.82,1
9.84,3
9.86,2
9.88,1
9.9,0
9.92,0
9.94,2
9.96,0
9.98,0
10.,0
