t,cases
5.01,0.585
5.02,0.585
5.03,0.52
5.04,0.52
5.05,0.65
5.06,0.65
5.07,0.715
5.08,0.715
5.09,0.585
5.1,0.585
5.11,0.585
5.12,0.585
5.13,0.78
5.14,0.78
5.15,0.65
5.16,0.65
5.17,0.39
5.18,0.39
5.19,0.455
5.2,0.455
5.21,0.585
5.22,0.585
5.23,0.715
5.24,0.715
5.25,0.845
5.26,0.845
5.27,1.105
5.28,1.105
5.29,1.3
5.3,1.3
5.31,1.43
5.32,1.43
5.33,1.95
5.34,1.95
5.35,2.535
5.36,2.535
5.37,2.535
5.38,2.535
5.39,2.34
5.4,2.34
5.41,1.95
5.42,1.95
5.43,2.015
5.44,2.015
5.45,2.34
5.46,2.34
5.47,2.6
5.48,2.6
5.49,2.665
5.5,2.665
5.51,2.21
5.52,2.21
5.53,2.6
5.54,2.6
5.55,3.185
5.56,3.185
5.57,3.25
5.58,3.25
5.59,3.315
5.6,3.315
5.61,2.925
5.62,2.925
5.63,2.925
5.64,2.925
5.65,2.795
5.66,2.795
5.67,2.275
5.68,2.275
5.69,2.21
5.7,2.21
5.71,2.08
5.72,2.08
5.73,2.6
5.74,2.6
5.75,3.185
5.76,3.185
5.77,3.055
5.78,3.055
5.79,3.575
5.8,3.575
5.81,3.965
5.82,3.965
5.83,3.64
5.84,3.64
5.85,3.185
5.86,3.185
5.87,2.405
5.88,2.405
5.89,2.275
5.9,2.275
5.91,2.795
5.92,2.795
5.93,3.25
5.94,3.25
5.95,3.25
5.96,3.25
5.97,2.6
5.98,2.6
5.99,2.08
6.,2.08
6.01,2.405
6.02,2.405
6.03,2.535
6.04,2.535
6.05,2.6
6.06,2.6
6.07,2.665
6.08,2.665
6.09,2.665
6.1,2.665
6.11,2.925
6.12,2.925
6.13,2.73
6.14,2.73
6.15,3.185
6.16,3.185
6.17,3.835
6.18,3.835
6.19,4.355
6.2,4.355
6.21,4.875
6.22,4.875
6.23,4.875
6.24,4.875
6.25,5.005
6.26,5.005
6.27,4.42
6.28,4.42
6.29,4.355
6.3,4.355
6.31,4.42
6.32,4.42
6.33,3.64
6.34,3.64
6.35,3.445
6.36,3.445
6.37,3.705
6.38,3.705
6.39,3.77
6.4,3.77
6.41,3.445
6.42,3.445
6.43,2.47
6.44,2.47
6.45,1.82
6.46,1.82
6.47,2.34
6.48,2.34
6.49,2.665
6.5,2.665
6.51,2.795
6.52,2.795
6.53,2.275
6.54,2.275
6.55,1.755
6.56,1.755
6.57,1.885
6.58,1.885
6.59,1.95
6.6,1.95
6.61,2.145
6.62,2.145
6.63,2.34
6.64,2.34
6.65,2.6
6.66,2.6
6.67,2.47
6.68,2.47
6.69,2.015
6.7,2.015
6.71,1.69
6.72,1.69
6.73,1.365
6.74,1.365
6.75,0.91
6.76,0.91
6.77,0.91
6.78,0.91
6.79,1.235
6.8,1.235
6.81,1.105
6.82,1.105
6.83,1.105
6.84,1.105
6.85,1.105
6.86,1.105
6.87,0.91
6.88,0.91
6.89,1.04
6.9,1.04
6.91,1.3
6.92,1.3
6.93,1.365
6.94,1.365
6.95,1.105
6.96,1.105
6.97,0.845
6.98,0.845
6.99,1.04
7.,1.04
7.01,1.105
7.02,1.105
7.03,0.845
7.04,0.845
7.05,0.78
7.06,0.78
7.07,0.715
7.08,0.715
7.09,0.91
7.1,0.91
7.11,1.3
7.12,1.3
7.13,1.3
7.14,1.3
7.15,0.975
7.16,0.975
7.17,0.845
7.18,0.845
7.19,1.17
7.2,1.17
7.21,1.56
7.22,1.56
7.23,1.885
7.24,1.885
7.25,1.885
7.26,1.885
7.27,1.43
7.28,1.43
7.29,1.235
7.3,1.235
7.31,1.105
7.32,1.105
7.33,1.04
7.34,1.04
7.35,1.17
7.36,1.17
7.37,1.235
7.38,1.235
7.39,1.04
7.4,1.04
7.41,1.365
7.42,1.365
7.43,1.625
7.44,1.625
7.45,1.3
7.46,1.3
7.47,1.3
7.48,1.3
7.49,1.235
7.5,1.235
7.51,1.17
7.52,1.17
7.53,1.365
7.54,1.365
7.55,1.43
7.56,1.43
7.57,1.495
7.58,1.495
7.59,1.365
7.6,1.365
7.61,0.975
7.62,0.975
7.63,1.04
7.64,1.04
7.65,1.04
7.66,1.04
7.67,1.17
7.68,1.17
7.69,1.365
7.7,1.365
7.71,1.17
7.72,1.17
7.73,0.91
7.74,0.91
7.75,0.78
7.76,0.78
7.77,0.91
7.78,0.91
7.79,0.975
7.8,0.975
7.81,0.845
7.82,0.845
7.83,1.3
7.84,1.3
7.85,1.3
7.86,1.3
7.87,1.105
7.88,1.105
7.89,1.17
7.9,1.17
7.91,1.105
7.92,1.105
7.93,1.365
7.94,1.365
7.95,1.625
7.96,1.625
7.97,1.625
7.98,1.625
7.99,1.495
8.,1.495
8.01,1.495
8.02,1.495
8.03,1.56
8.04,1.56
8.05,1.43
8.06,1.43
8.07,1.495
8.08,1.495
8.09,1.885
8.1,1.885
8.11,1.82
8.12,1.82
8.13,1.82
8.14,1.82
8.15,1.885
8.16,1.885
8.17,1.95
8.18,1.95
8.19,1.885
8.2,1.885
8.21,1.82
8.22,1.82
8.23,2.21
8.24,2.21
8.25,2.405
8.26,2.405
8.27,2.275
8.28,2.275
8.29,2.145
8.3,2.145
8.31,2.08
8.32,2.08
8.33,2.08
8.34,2.08
8.35,2.145
8.36,2.145
8.37,2.015
8.38,2.015
8.39,1.755
8.4,1.755
8.41,1.495
8.42,1.495
8.43,1.105
8.44,1.105
8.45,0.715
8.46,0.715
8.47,1.235
8.48,1.235
8.49,2.145
8.5,2.145
8.51,2.015
8.52,2.015
8.53,1.625
8.54,1.625
8.55,1.365
8.56,1.365
8.57,1.105
8.58,1.105
8.59,0.91
8.6,0.91
8.61,0.845
8.62,0.845
8.63,0.975
8.64,0.975
8.65,1.235
8.66,1.235
8.67,2.08
8.68,2.08
8.69,2.6
8.7,2.6
8.71,2.405
8.72,2.405
8.73,2.34
8.74,2.34
8.75,2.6
8.76,2.6
8.77,2.405
8.78,2.405
8.79,2.015
8.8,2.015
8.81,2.145
8.82,2.145
8.83,2.08
8.84,2.08
8.85,1.885
8.86,1.885
8.87,2.015
8.88,2.015
8.89,2.21
8.9,2.21
8.91,2.275
8.92,2.275
8.93,2.275
8.94,2.275
8.95,2.21
8.96,2.21
8.97,2.47
8.98,2.47
8.99,2.405
9.,2.405
9.01,1.755
9.02,1.755
9.03,1.235
9.04,1.235
9.05,1.43
9.06,1.43
9.07,1.95
9.08,1.95
9.09,1.95
9.1,1.95
9.11,2.015
9.12,2.015
9.13,2.08
9.14,2.08
9.15,2.08
9.16,2.08
9.17,2.6
9.18,2.6
9.19,2.795
9.2,2.795
9.21,2.47
9.22,2.47
9.23,2.145
9.24,2.145
9.25,1.82
9.26,1.82
9.27,2.405
9.28,2.405
9.29,2.795
9.3,2.795
9.31,2.795
9.32,2.795
9.33,2.73
9.34,2.73
9.35,2.34
9.36,2.34
9.37,2.275
9.38,2.275
9.39,2.015
9.4,2.015
9.41,2.21
9.42,2.21
9.43,2.21
9.44,2.21
9.45,2.015
9.46,2.015
9.47,2.21
9.48,2.21
9.49,2.34
9.5,2.34
9.51,2.6
9.52,2.6
9.53,2.665
9.54,2.665
9.55,2.405
9.56,2.405
9.57,2.275
9.58,2.275
9.59,2.145
9.6,2.145
9.61,2.47
9.62,2.47
9.63,2.275
9.64,2.275
9.65,1.82
9.66,1.82
9.67,2.34
9.68,2.34
9.69,2.275
9.7,2.275
9.71,1.95
9.72,1.95
9.73,2.145
9.74,2.145
9.75,2.275
9.76,2.275
9.77,1.885
9.78,1.885
9.79,1.95
9.8,1.95
9.81,2.275
9.82,2.275
9.83,1.885
9.84,1.885
9.85,1.69
9.86,1.69
9.87,1.755
9.88,1.755
9.89,1.56
9.9,1.56
9.91,1.235
9.92,1.235
9.93,0.845
9.94,0.845
9.95,0.715
9.96,0.715
9.97,0.91
9.98,0.91
9.99,1.04
10.,1.04
