t,s,e,i,r,c,o,n,reff,coal,reportr
5.,6250.,5.,3.,3734.,0.,0.,9992.,0.902164038923,9.3825060048,65.
5.02,6248.,6.,1.,3735.,0.,0.,9990.,0.902055902056,7.81781781782,78.
5.04,6253.,6.,2.,3729.,0.,0.,9990.,0.902777777778,7.82407407407,78.
5.06,6248.,9.,1.,3729.,0.,0.,9987.,0.902326871086,5.21344414405,117.
5.08,6251.,3.,7.,3723.,0.,0.,9984.,0.903031388683,15.6525440705,39.
5.1,6259.,8.,2.,3722.,0.,0.,9991.,0.90355358284,5.87309828846,104.
5.12,6267.,4.,4.,3719.,0.,0.,9994.,0.904436892905,11.7576796078,52.
5.14,6277.,3.,4.,3711.,0.,0.,9995.,0.905789433178,15.7003501751,39.
5.16,6281.,4.,3.,3706.,0.,0.,9994.,0.90645733594,11.7839453672,52.
5.18,6283.,6.,0.,3703.,0.,0.,9992.,0.906927465049,7.86003803042,78.
5.2,6290.,6.,3.,3694.,0.,0.,9993.,0.907847031384,7.86800760532,78.
5.22,6292.,6.,4.,3688.,0.,0.,9990.,0.908408408408,7.87287287287,78.
5.24,6294.,7.,7.,3682.,0.,0.,9990.,0.908697158697,6.75032175032,91.
5.26,6290.,17.,3.,3679.,0.,0.,9989.,0.908210570089,2.77805586145,221.
5.28,6281.,14.,8.,3680.,0.,0.,9983.,0.907456136971,3.37055136589,182.
5.3,6280.,15.,10.,3677.,0.,0.,9982.,0.907402555369,3.14566219195,195.
5.32,6287.,13.,7.,3681.,0.,0.,9988.,0.9078682881,3.6314731524,169.
5.34,6289.,12.,5.,3686.,0.,0.,9992.,0.907793542526,3.93377201761,156.
5.36,6297.,5.,9.,3685.,0.,0.,9996.,0.908584587681,9.44927971188,65.
5.38,6294.,12.,7.,3686.,0.,0.,9999.,0.907879249463,3.93414341434,156.
5.4,6289.,8.,6.,3694.,0.,0.,9997.,0.907339509545,5.89770681204,104.
5.42,6287.,12.,5.,3690.,0.,0.,9994.,0.907323240098,3.93173404042,156.
5.44,6286.,14.,4.,3691.,0.,0.,9995.,0.907088159464,3.3691845923,182.
5.46,6288.,15.,6.,3688.,0.,0.,9997.,0.907195235494,3.14494348304,195.
5.48,6292.,18.,4.,3686.,0.,0.,10000.,0.9075,2.62166666667,234.
5.5,6303.,8.,13.,3678.,0.,0.,10002.,0.90890475751,5.90788092382,104.
5.52,6300.,14.,10.,3678.,0.,0.,10002.,0.908472151724,3.37432513497,182.
5.54,6300.,18.,11.,3677.,0.,0.,10006.,0.908108980765,2.62342594443,234.
5.56,6295.,22.,11.,3680.,0.,0.,10008.,0.907206926766,2.14430728145,286.
5.58,6289.,26.,14.,3680.,0.,0.,10009.,0.906251681179,1.81250336236,338.
5.6,6280.,27.,11.,3692.,0.,0.,10010.,0.904864366403,1.7427017427,351.
5.62,6284.,33.,6.,3689.,0.,0.,10012.,0.905259842036,1.42647005412,429.
5.64,6281.,26.,11.,3695.,0.,0.,10013.,0.904737303045,1.80947460609,338.
5.66,6275.,21.,14.,3703.,0.,0.,10013.,0.903873041969,2.23816181821,273.
5.68,6270.,21.,9.,3711.,0.,0.,10011.,0.903333256495,2.23682520656,273.
5.7,6265.,17.,10.,3719.,0.,0.,10011.,0.902612895046,2.76093356132,221.
5.72,6257.,24.,11.,3721.,0.,0.,10013.,0.901280258741,1.95277389394,312.
5.74,6252.,24.,15.,3722.,0.,0.,10013.,0.900560041177,1.95121342255,312.
5.76,6240.,28.,22.,3722.,0.,0.,10012.,0.898921294447,1.66942526112,364.
5.78,6227.,29.,15.,3740.,0.,0.,10011.,0.897138148037,1.60866150683,377.
5.8,6216.,27.,18.,3746.,0.,0.,10007.,0.895911323612,1.72545884547,351.
5.82,6211.,33.,11.,3756.,0.,0.,10011.,0.894832991402,1.41003986524,429.
5.84,6212.,29.,10.,3762.,0.,0.,10013.,0.894798300671,1.60446591844,377.
5.86,6220.,24.,7.,3763.,0.,0.,10014.,0.895861178965,1.94103255442,312.
5.88,6229.,16.,13.,3759.,0.,0.,10017.,0.896888750662,2.91488843965,208.
5.9,6223.,23.,12.,3763.,0.,0.,10021.,0.895667175854,2.02498665845,299.
5.92,6211.,28.,5.,3778.,0.,0.,10022.,0.893850835853,1.66000869516,364.
5.94,6205.,22.,17.,3777.,0.,0.,10021.,0.893076462506,2.11090800229,286.
5.96,6199.,20.,22.,3777.,0.,0.,10018.,0.892480074328,2.32044819325,260.
5.98,6186.,24.,15.,3791.,0.,0.,10016.,0.890786280413,1.93003694089,312.
6.,6180.,23.,21.,3791.,0.,0.,10015.,0.89001113714,2.01219909267,299.
6.02,6175.,28.,8.,3808.,0.,0.,10019.,0.888936021559,1.6508811829,364.
6.04,6169.,20.,13.,3818.,0.,0.,10020.,0.887983648088,2.30875748503,260.
6.06,6158.,22.,16.,3823.,0.,0.,10019.,0.886488748301,2.09533704144,286.
6.08,6152.,21.,18.,3832.,0.,0.,10023.,0.885271567702,2.19210102479,273.
6.1,6145.,31.,13.,3833.,0.,0.,10022.,0.88435250142,1.48343000238,403.
6.12,6138.,25.,17.,3841.,0.,0.,10021.,0.88343325171,1.83754116356,325.
6.14,6142.,22.,10.,3848.,0.,0.,10022.,0.883920758946,2.08926724842,286.
6.16,6141.,23.,10.,3845.,0.,0.,10019.,0.884041475044,1.99870246532,299.
6.18,6127.,28.,9.,3849.,0.,0.,10013.,0.882554602094,1.63902997532,364.
6.2,6120.,19.,16.,3854.,0.,0.,10009.,0.881898598953,2.41361721819,247.
6.22,6124.,20.,11.,3856.,0.,0.,10011.,0.882298702197,2.29397662571,260.
6.24,6120.,21.,5.,3864.,0.,0.,10010.,0.881810497195,2.18353075496,273.
6.26,6119.,19.,10.,3861.,0.,0.,10009.,0.881754497875,2.41322283629,247.
6.28,6114.,20.,9.,3865.,0.,0.,10008.,0.881122025457,2.29091726619,260.
6.3,6107.,26.,8.,3867.,0.,0.,10008.,0.880113217119,1.76022643424,338.
6.32,6108.,23.,3.,3876.,0.,0.,10010.,0.880081457005,1.98974938105,299.
6.34,6112.,21.,7.,3875.,0.,0.,10015.,0.880218134337,2.17958776122,273.
6.36,6112.,15.,12.,3877.,0.,0.,10016.,0.880130253133,3.05111821086,195.
6.38,6119.,17.,5.,3874.,0.,0.,10015.,0.881226237567,2.6955155502,221.
6.4,6132.,12.,6.,3865.,0.,0.,10015.,0.883098429279,3.82675986021,156.
6.42,6146.,8.,6.,3859.,0.,0.,10019.,0.884761261296,5.75094819842,104.
6.44,6157.,11.,0.,3856.,0.,0.,10024.,0.885902679723,4.18790357687,143.
6.46,6165.,9.,2.,3847.,0.,0.,10023.,0.887142265098,5.12571086501,117.
6.48,6165.,8.,3.,3841.,0.,0.,10017.,0.887673647108,5.7698787062,104.
6.5,6170.,7.,2.,3840.,0.,0.,10019.,0.888216235307,6.59817774799,91.
6.52,6171.,6.,6.,3836.,0.,0.,10019.,0.888360192557,7.69912166883,78.
6.54,6172.,9.,6.,3835.,0.,0.,10022.,0.888238183688,5.13204283909,117.
6.56,6173.,10.,3.,3837.,0.,0.,10023.,0.888293463495,4.61912601018,130.
6.58,6175.,10.,5.,3830.,0.,0.,10020.,0.888847305389,4.62200598802,130.
6.6,6178.,6.,5.,3829.,0.,0.,10018.,0.889456670301,7.70862447594,78.
6.62,6182.,14.,3.,3820.,0.,0.,10019.,0.889943722312,3.3055052543,182.
6.64,6185.,15.,6.,3814.,0.,0.,10020.,0.890286734224,3.08632734531,195.
6.66,6187.,16.,3.,3815.,0.,0.,10021.,0.890485749158,2.89407868476,208.
6.68,6195.,13.,4.,3808.,0.,0.,10020.,0.891726163058,3.56690465223,169.
6.7,6199.,6.,12.,3803.,0.,0.,10020.,0.892301934592,7.73328343313,78.
6.72,6199.,11.,5.,3806.,0.,0.,10021.,0.89221289139,4.21773366839,143.
6.74,6206.,16.,1.,3802.,0.,0.,10025.,0.892863993862,2.90180798005,208.
6.76,6208.,15.,7.,3796.,0.,0.,10026.,0.893062652488,3.09595052863,195.
6.78,6212.,14.,6.,3793.,0.,0.,10025.,0.893727220411,3.31955824724,182.
6.8,6218.,12.,4.,3790.,0.,0.,10024.,0.894679691817,3.87694533121,156.
6.82,6222.,14.,7.,3782.,0.,0.,10025.,0.895165931326,3.32490203064,182.
6.84,6228.,16.,9.,3771.,0.,0.,10024.,0.896118546258,2.91238527534,208.
6.86,6233.,14.,10.,3769.,0.,0.,10026.,0.896659071031,3.33044797811,182.
6.88,6226.,17.,6.,3775.,0.,0.,10024.,0.89583077537,2.74018825407,221.
6.9,6232.,14.,5.,3774.,0.,0.,10025.,0.896604642241,3.33024581404,182.
6.92,6235.,15.,8.,3769.,0.,0.,10027.,0.896857331359,3.10910541538,195.
6.94,6239.,13.,6.,3769.,0.,0.,10027.,0.897432700938,3.58973080375,169.
6.96,6240.,11.,11.,3763.,0.,0.,10025.,0.897755610973,4.24393561551,143.
6.98,6247.,13.,5.,3763.,0.,0.,10028.,0.898493832653,3.59397533061,169.
7.,6241.,15.,8.,3761.,0.,0.,10025.,0.897899482064,3.11271820449,195.
7.02,6240.,13.,14.,3758.,0.,0.,10025.,0.897755610973,3.59102244389,169.
7.04,6235.,16.,7.,3767.,0.,0.,10025.,0.897036255515,2.91536783042,208.
7.06,6226.,23.,7.,3768.,0.,0.,10024.,0.89583077537,2.02535653562,299.
7.08,6220.,20.,11.,3772.,0.,0.,10023.,0.895056754081,2.32714756061,260.
7.1,6212.,23.,4.,3782.,0.,0.,10021.,0.894083962141,2.02140721875,299.
7.12,6211.,21.,8.,3783.,0.,0.,10023.,0.893761655884,2.21312410028,273.
7.14,6218.,17.,13.,3778.,0.,0.,10026.,0.894501219905,2.73612137853,221.
7.16,6218.,16.,10.,3781.,0.,0.,10025.,0.89459044696,2.90741895262,208.
7.18,6211.,15.,10.,3788.,0.,0.,10024.,0.893672493707,3.09806464485,195.
7.2,6207.,18.,11.,3790.,0.,0.,10026.,0.892918795746,2.57954318771,234.
7.22,6197.,20.,13.,3793.,0.,0.,10023.,0.891747058688,2.31854235259,260.
7.24,6199.,21.,12.,3794.,0.,0.,10026.,0.891767941813,2.20818728449,273.
7.26,6184.,28.,11.,3800.,0.,0.,10023.,0.889876361292,1.65262752811,364.
7.28,6180.,25.,13.,3806.,0.,0.,10024.,0.889212044938,1.84956105347,325.
7.3,6180.,28.,7.,3812.,0.,0.,10027.,0.888945999647,1.65089971363,364.
7.32,6179.,23.,14.,3816.,0.,0.,10032.,0.888359173721,2.00846421885,299.
7.34,6178.,27.,12.,3815.,0.,0.,10032.,0.888215403018,1.71063707248,351.
7.36,6171.,26.,14.,3817.,0.,0.,10028.,0.887562900801,1.7751258016,338.
7.38,6165.,29.,7.,3825.,0.,0.,10026.,0.886876812595,1.59026187086,377.
7.4,6164.,24.,12.,3824.,0.,0.,10024.,0.886909877832,1.92163806864,312.
7.42,6151.,20.,19.,3829.,0.,0.,10019.,0.885481047548,2.30225072363,260.
7.44,6141.,19.,12.,3842.,0.,0.,10014.,0.884482877817,2.42068998139,247.
7.46,6135.,24.,5.,3846.,0.,0.,10010.,0.883971797433,1.91527222777,312.
7.48,6138.,19.,9.,3847.,0.,0.,10013.,0.884139080734,2.41974906306,247.
7.5,6137.,21.,15.,3840.,0.,0.,10013.,0.883995037221,2.18894009217,273.
7.52,6142.,23.,14.,3837.,0.,0.,10016.,0.884450264193,1.99962668426,299.
7.54,6137.,21.,14.,3843.,0.,0.,10015.,0.883818503015,2.18850295985,273.
7.56,6137.,18.,13.,3847.,0.,0.,10015.,0.883818503015,2.55325345315,234.
7.58,6135.,26.,1.,3855.,0.,0.,10017.,0.883354067316,1.76670813463,338.
7.6,6142.,21.,4.,3851.,0.,0.,10018.,0.88427369197,2.1896300944,273.
7.62,6146.,14.,8.,3852.,0.,0.,10020.,0.884672961769,3.28592814371,182.
7.64,6142.,16.,7.,3854.,0.,0.,10019.,0.884185432294,2.87360265496,208.
7.66,6141.,14.,8.,3856.,0.,0.,10019.,0.884041475044,3.28358262159,182.
7.68,6149.,11.,9.,3852.,0.,0.,10021.,0.885016465423,4.18371420018,143.
7.7,6147.,20.,4.,3852.,0.,0.,10023.,0.884552068704,2.29983537863,260.
7.72,6146.,15.,7.,3853.,0.,0.,10021.,0.884584679865,3.06656022353,195.
7.74,6147.,20.,8.,3847.,0.,0.,10022.,0.884640329736,2.30006485731,260.
7.76,6139.,21.,6.,3855.,0.,0.,10021.,0.883577180229,2.18790539866,273.
7.78,6144.,21.,5.,3848.,0.,0.,10018.,0.88456163521,2.19034309671,273.
7.8,6145.,17.,9.,3846.,0.,0.,10017.,0.884793927247,2.70642848334,221.
7.82,6144.,16.,11.,3846.,0.,0.,10017.,0.884649941254,2.87511230907,208.
7.84,6144.,18.,6.,3846.,0.,0.,10014.,0.884914965203,2.55642101059,234.
7.86,6144.,17.,7.,3844.,0.,0.,10012.,0.885091736071,2.70733942798,221.
7.88,6141.,22.,2.,3844.,0.,0.,10009.,0.884924721597,2.09164025105,286.
7.9,6143.,18.,7.,3846.,0.,0.,10014.,0.884770936074,2.55600492644,234.
7.92,6147.,19.,3.,3844.,0.,0.,10013.,0.885435472347,2.42329708221,247.
7.94,6150.,16.,8.,3837.,0.,0.,10011.,0.886044581729,2.87964489062,208.
7.96,6146.,17.,7.,3842.,0.,0.,10012.,0.88537985187,2.70822072337,221.
7.98,6150.,17.,10.,3834.,0.,0.,10011.,0.886044581729,2.7102540147,221.
8.,6144.,18.,11.,3836.,0.,0.,10009.,0.885357024831,2.55769807174,234.
8.02,6130.,28.,9.,3842.,0.,0.,10009.,0.883339609736,1.64048784665,364.
8.04,6124.,26.,10.,3848.,0.,0.,10008.,0.882563180225,1.76512636045,338.
8.06,6123.,21.,6.,3858.,0.,0.,10008.,0.882419064748,2.18503768414,273.
8.08,6120.,19.,7.,3859.,0.,0.,10005.,0.882251182101,2.41458218259,247.
8.1,6124.,12.,6.,3861.,0.,0.,10003.,0.88300432947,3.82635209437,156.
8.12,6123.,13.,4.,3857.,0.,0.,9997.,0.883390017005,3.53356006802,169.
8.14,6127.,16.,5.,3850.,0.,0.,9998.,0.883878698817,2.87260577115,208.
8.16,6136.,10.,11.,3841.,0.,0.,9998.,0.885177035407,4.60292058412,130.
8.18,6131.,17.,6.,3843.,0.,0.,9997.,0.884544209417,2.70566464057,221.
8.2,6142.,21.,5.,3830.,0.,0.,9998.,0.886042593134,2.19401023062,273.
8.22,6146.,18.,11.,3814.,0.,0.,9989.,0.887418468007,2.56365335202,234.
8.24,6146.,21.,8.,3813.,0.,0.,9988.,0.887507316472,2.1976371646,273.
8.26,6152.,22.,7.,3807.,0.,0.,9988.,0.888373740797,2.09979247825,286.
8.28,6155.,20.,10.,3802.,0.,0.,9987.,0.88889594935,2.31112946831,260.
8.3,6142.,18.,18.,3804.,0.,0.,9982.,0.887462817687,2.56378147332,234.
8.32,6136.,24.,12.,3811.,0.,0.,9983.,0.886507062005,1.92076530101,312.
8.34,6126.,25.,9.,3821.,0.,0.,9981.,0.885239647638,1.84129846709,325.
8.36,6126.,21.,10.,3825.,0.,0.,9982.,0.885150964043,2.19180238715,273.
8.38,6127.,18.,8.,3825.,0.,0.,9978.,0.885650353855,2.55854546669,234.
8.4,6127.,14.,14.,3822.,0.,0.,9977.,0.88573912306,3.28988817137,182.
8.42,6115.,21.,7.,3835.,0.,0.,9978.,0.883915768537,2.18874380781,273.
8.44,6114.,18.,7.,3838.,0.,0.,9977.,0.883859800618,2.55337275734,234.
8.46,6114.,13.,13.,3834.,0.,0.,9974.,0.884125649766,3.53650259907,169.
8.48,6107.,15.,9.,3841.,0.,0.,9972.,0.883290521152,3.06207380666,195.
8.5,6100.,15.,13.,3846.,0.,0.,9974.,0.882101155312,3.05795067175,195.
8.52,6094.,21.,9.,3853.,0.,0.,9977.,0.880968535324,2.18144589699,273.
8.54,6092.,23.,14.,3850.,0.,0.,9979.,0.880502902249,1.99070221378,299.
8.56,6077.,27.,10.,3863.,0.,0.,9977.,0.878510959823,1.69194703373,351.
8.58,6067.,30.,18.,3859.,0.,0.,9974.,0.877329132668,1.52070382996,390.
8.6,6057.,32.,25.,3858.,0.,0.,9972.,0.876058733685,1.42359544224,416.
8.62,6045.,40.,21.,3868.,0.,0.,9974.,0.874147784239,1.13639211951,520.
8.64,6039.,34.,22.,3881.,0.,0.,9976.,0.873105067547,1.33533716213,442.
8.66,6024.,35.,26.,3892.,0.,0.,9977.,0.870849106792,1.29383295866,455.
8.68,6011.,39.,20.,3908.,0.,0.,9978.,0.868882695777,1.15851026104,507.
8.7,5999.,39.,17.,3917.,0.,0.,9972.,0.867669860224,1.15689314697,507.
8.72,5983.,41.,14.,3933.,0.,0.,9971.,0.865442475487,1.09763435915,533.
8.74,5983.,33.,16.,3943.,0.,0.,9975.,0.865095430885,1.36318067897,429.
8.76,5992.,30.,15.,3943.,0.,0.,9980.,0.86596269462,1.50100200401,390.
8.78,5995.,31.,11.,3949.,0.,0.,9986.,0.865875687501,1.4524366371,403.
8.8,5991.,24.,15.,3955.,0.,0.,9985.,0.865384615385,1.875,312.
8.82,5988.,25.,15.,3954.,0.,0.,9982.,0.865211226361,1.79963935083,325.
8.84,5971.,33.,14.,3963.,0.,0.,9981.,0.862841321588,1.35962874917,429.
8.86,5964.,24.,14.,3978.,0.,0.,9980.,0.861916139972,1.86748496994,312.
8.88,5967.,22.,8.,3984.,0.,0.,9981.,0.862263300271,2.03807689155,286.
8.9,5959.,17.,12.,3991.,0.,0.,9979.,0.861279841513,2.63450304463,221.
8.92,5958.,19.,7.,3992.,0.,0.,9976.,0.861394269323,2.35750010552,247.
8.94,5962.,20.,12.,3981.,0.,0.,9975.,0.862058993638,2.24135338346,260.
8.96,5964.,16.,9.,3986.,0.,0.,9975.,0.862348178138,2.80263157895,208.
8.98,5965.,16.,5.,3991.,0.,0.,9977.,0.862319874172,2.80253959106,208.
9.,5966.,19.,4.,3989.,0.,0.,9978.,0.862378000833,2.36019242333,247.
9.02,5963.,20.,7.,3985.,0.,0.,9975.,0.862203585888,2.24172932331,260.
9.04,5963.,18.,11.,3983.,0.,0.,9975.,0.862203585888,2.49081035923,234.
9.06,5960.,25.,13.,3976.,0.,0.,9974.,0.861856210763,1.79266091839,325.
9.08,5955.,22.,13.,3981.,0.,0.,9971.,0.861392268347,2.03601808882,286.
9.1,5948.,23.,19.,3982.,0.,0.,9972.,0.860293437008,1.94501124889,299.
9.12,5932.,29.,19.,3991.,0.,0.,9971.,0.858065312483,1.53859987066,377.
9.14,5923.,33.,15.,3997.,0.,0.,9968.,0.85702131436,1.35045782869,429.
9.16,5917.,27.,18.,4009.,0.,0.,9971.,0.855895558659,1.64839144631,351.
9.18,5917.,31.,12.,4014.,0.,0.,9974.,0.855638120652,1.43526394432,403.
9.2,5915.,26.,15.,4016.,0.,0.,9972.,0.85552045728,1.71104091456,338.
9.22,5907.,30.,14.,4026.,0.,0.,9977.,0.853935204817,1.48015435502,390.
9.24,5909.,29.,17.,4027.,0.,0.,9982.,0.853796448993,1.53094535681,377.
9.26,5902.,27.,11.,4040.,0.,0.,9980.,0.852955911824,1.64272990425,351.
9.28,5891.,27.,11.,4050.,0.,0.,9979.,0.851451509709,1.63983253722,351.
9.3,5892.,19.,8.,4061.,0.,0.,9980.,0.851510713735,2.33045037443,247.
9.32,5888.,11.,12.,4062.,0.,0.,9973.,0.851529899961,4.02541407254,143.
9.34,5887.,21.,3.,4061.,0.,0.,9972.,0.851470656299,2.10840352988,273.
9.36,5881.,18.,5.,4067.,0.,0.,9971.,0.85068814948,2.45754354294,234.
9.38,5886.,15.,6.,4060.,0.,0.,9967.,0.851753092899,2.95274405538,195.
9.4,5888.,18.,9.,4052.,0.,0.,9967.,0.852042509512,2.46145613859,234.
9.42,5888.,23.,6.,4053.,0.,0.,9970.,0.851786127614,1.925777332,299.
9.44,5886.,21.,13.,4049.,0.,0.,9969.,0.851582212551,2.10867976441,273.
9.46,5882.,21.,10.,4054.,0.,0.,9967.,0.851174259672,2.10766959538,273.
9.48,5871.,21.,11.,4064.,0.,0.,9967.,0.849582468299,2.10372801674,273.
9.5,5862.,32.,11.,4060.,0.,0.,9965.,0.84845034544,1.37873181134,416.
9.52,5864.,16.,14.,4068.,0.,0.,9962.,0.84899541334,2.75923509335,208.
9.54,5865.,15.,15.,4065.,0.,0.,9960.,0.849310704356,2.94427710843,195.
9.56,5863.,16.,9.,4072.,0.,0.,9960.,0.849021084337,2.7593185241,208.
9.58,5868.,10.,15.,4065.,0.,0.,9958.,0.849915800207,4.41956216108,130.
9.6,5858.,18.,5.,4076.,0.,0.,9957.,0.84855262243,2.45137424258,234.
9.62,5861.,12.,8.,4077.,0.,0.,9958.,0.848901926553,3.67857501506,156.
9.64,5863.,10.,13.,4069.,0.,0.,9955.,0.849447513812,4.41712707182,130.
9.66,5867.,13.,8.,4072.,0.,0.,9960.,0.849600324374,3.3984012975,169.
9.68,5868.,12.,10.,4070.,0.,0.,9960.,0.849745134384,3.68222891566,156.
9.7,5868.,13.,9.,4069.,0.,0.,9959.,0.849830458727,3.39932183491,169.
9.72,5877.,11.,5.,4065.,0.,0.,9958.,0.851219352048,4.02394602786,143.
9.74,5890.,8.,4.,4060.,0.,0.,9962.,0.852759717696,5.54293816503,104.
9.76,5898.,8.,4.,4054.,0.,0.,9964.,0.853746564555,5.54935266961,104.
9.78,5902.,11.,3.,4050.,0.,0.,9966.,0.854154124022,4.03781949538,143.
9.8,5906.,5.,5.,4047.,0.,0.,9963.,0.854990387511,8.89190003011,65.
9.82,5908.,9.,7.,4040.,0.,0.,9964.,0.855194083315,4.94112137027,117.
9.84,5911.,7.,1.,4044.,0.,0.,9963.,0.855714219535,6.35673420226,91.
9.86,5920.,6.,0.,4035.,0.,0.,9961.,0.857189191694,7.42897299468,78.
9.88,5928.,6.,1.,4029.,0.,0.,9964.,0.858089120835,7.43677238057,78.
9.9,5932.,6.,5.,4020.,0.,0.,9963.,0.858754314039,7.44253738834,78.
9.92,5933.,8.,6.,4016.,0.,0.,9963.,0.858899080444,5.58284402288,104.
9.94,5936.,10.,4.,4013.,0.,0.,9963.,0.859333379659,4.46853357422,130.
9.96,5937.,7.,7.,4008.,0.,0.,9959.,0.859823352669,6.38725919126,91.
9.98,5943.,4.,11.,3999.,0.,0.,9957.,0.86086518182,11.1912473637,52.
10.,5945.,4.,3.,4005.,0.,0.,9957.,0.8611548891,11.1950135583,52.
