t,s,e,i,r,c,o,n,reff,coal,reportr
5.,6250.,5.,3.,3734.,0.,0.,9992.,0.902164038923,9.3825060048,65.
5.02,6255.,4.,4.,3726.,0.,0.,9989.,0.903156934166,11.7410401442,52.
5.04,6257.,10.,3.,3718.,0.,0.,9988.,0.903536166477,4.69838806568,130.
5.06,6259.,6.,3.,3717.,0.,0.,9985.,0.904096529409,7.83550325488,78.
5.08,6264.,6.,1.,3712.,0.,0.,9983.,0.905000038527,7.84333366723,78.
5.1,6274.,6.,0.,3701.,0.,0.,9981.,0.906626436383,7.85742911532,78.
5.12,6280.,4.,3.,3694.,0.,0.,9981.,0.907493468359,11.7974150887,52.
5.14,6288.,7.,0.,3687.,0.,0.,9982.,0.908558482191,6.74929158199,91.
5.16,6297.,5.,1.,3678.,0.,0.,9981.,0.909950058958,9.46348061317,65.
5.18,6305.,1.,4.,3673.,0.,0.,9983.,0.910923570069,47.3680256436,13.
5.2,6309.,6.,1.,3669.,0.,0.,9985.,0.911318901429,7.89809714572,78.
5.22,6313.,6.,3.,3664.,0.,0.,9986.,0.911805373677,7.90231323853,78.
5.24,6322.,6.,4.,3657.,0.,0.,9989.,0.912831037218,7.91120232255,78.
5.26,6326.,7.,2.,3652.,0.,0.,9987.,0.913591515124,6.78667982663,91.
5.28,6329.,7.,3.,3647.,0.,0.,9986.,0.914116301283,6.7905782381,91.
5.3,6334.,5.,3.,3637.,0.,0.,9979.,0.915480200729,9.52099408758,65.
5.32,6338.,6.,4.,3631.,0.,0.,9979.,0.916058337894,7.93917226175,78.
5.34,6334.,7.,5.,3627.,0.,0.,9973.,0.916030975943,6.80480153557,91.
5.36,6337.,4.,9.,3621.,0.,0.,9971.,0.916648665746,11.9164326547,52.
5.38,6339.,10.,0.,3622.,0.,0.,9971.,0.916937966256,4.76807742453,130.
5.4,6351.,6.,5.,3609.,0.,0.,9971.,0.918673769316,7.96183933407,78.
5.42,6351.,8.,5.,3605.,0.,0.,9969.,0.918858075418,5.97257749022,104.
5.44,6357.,11.,3.,3599.,0.,0.,9970.,0.919633901705,4.34736026261,143.
5.46,6363.,10.,3.,3594.,0.,0.,9970.,0.920501890286,4.78660982949,130.
5.48,6358.,14.,3.,3592.,0.,0.,9967.,0.920055413634,3.41734867921,182.
5.5,6356.,14.,8.,3587.,0.,0.,9965.,0.919950596318,3.41695935775,182.
5.52,6352.,14.,6.,3592.,0.,0.,9964.,0.919463916252,3.41515168894,182.
5.54,6358.,9.,10.,3588.,0.,0.,9965.,0.920240071018,5.31694263255,117.
5.56,6361.,11.,6.,3588.,0.,0.,9966.,0.920581901542,4.35184171638,143.
5.58,6362.,16.,4.,3584.,0.,0.,9966.,0.920726624369,2.9923615292,208.
5.6,6365.,15.,0.,3582.,0.,0.,9962.,0.921530662672,3.1946396306,195.
5.62,6362.,9.,8.,3573.,0.,0.,9952.,0.922021858768,5.32723740622,117.
5.64,6361.,11.,10.,3567.,0.,0.,9949.,0.922154913134,4.35927777118,143.
5.66,6363.,10.,9.,3567.,0.,0.,9949.,0.922444853368,4.79671323751,130.
5.68,6366.,16.,3.,3563.,0.,0.,9948.,0.9229725341,2.99966073583,208.
5.7,6368.,11.,3.,3567.,0.,0.,9949.,0.923169703952,4.36407496414,143.
5.72,6364.,8.,9.,3569.,0.,0.,9950.,0.922497100889,5.99623115578,104.
5.74,6365.,14.,6.,3564.,0.,0.,9949.,0.922734793601,3.42730066195,182.
5.76,6376.,12.,8.,3558.,0.,0.,9954.,0.923865164371,4.00341571228,156.
5.78,6379.,8.,14.,3551.,0.,0.,9952.,0.924485607841,6.00915645096,104.
5.8,6374.,15.,12.,3552.,0.,0.,9953.,0.923668163445,3.20204963328,195.
5.82,6370.,17.,13.,3554.,0.,0.,9954.,0.922995780591,2.82328121122,221.
5.84,6372.,15.,12.,3555.,0.,0.,9954.,0.923285575184,3.20072332731,195.
5.86,6368.,20.,3.,3561.,0.,0.,9952.,0.922891417264,2.39951768489,260.
5.88,6370.,18.,9.,3557.,0.,0.,9954.,0.922995780591,2.66643225504,234.
5.9,6368.,26.,11.,3549.,0.,0.,9954.,0.922705985997,1.84541197199,338.
5.92,6366.,24.,4.,3561.,0.,0.,9955.,0.922323532821,1.99836765445,312.
5.94,6369.,17.,9.,3556.,0.,0.,9951.,0.92312910183,2.82368901736,221.
5.96,6366.,14.,6.,3563.,0.,0.,9949.,0.922879763718,3.42783912238,182.
5.98,6364.,18.,5.,3564.,0.,0.,9951.,0.92240439693,2.66472381335,234.
6.,6368.,13.,14.,3552.,0.,0.,9947.,0.923355321666,3.69342128667,169.
6.02,6367.,18.,10.,3554.,0.,0.,9949.,0.923024733835,2.66651589775,234.
6.04,6361.,26.,10.,3554.,0.,0.,9951.,0.921969573989,1.84393914798,338.
6.06,6361.,26.,7.,3559.,0.,0.,9953.,0.921784309331,1.84356861866,338.
6.08,6360.,23.,13.,3555.,0.,0.,9951.,0.921824633009,2.08412525724,299.
6.1,6358.,20.,14.,3560.,0.,0.,9952.,0.921442153104,2.39574959807,260.
6.12,6359.,21.,14.,3556.,0.,0.,9950.,0.921772323154,2.28248384781,273.
6.14,6349.,27.,4.,3569.,0.,0.,9949.,0.920415271732,1.77265163445,351.
6.16,6356.,16.,12.,3567.,0.,0.,9951.,0.921244869089,2.99404582454,208.
6.18,6351.,15.,6.,3578.,0.,0.,9950.,0.920612678779,3.19145728643,195.
6.2,6359.,8.,9.,3573.,0.,0.,9949.,0.9218649729,5.99212232385,104.
6.22,6355.,14.,3.,3573.,0.,0.,9945.,0.921655644506,3.42329239388,182.
6.24,6359.,11.,7.,3567.,0.,0.,9944.,0.922328501145,4.36009836905,143.
6.26,6363.,9.,7.,3565.,0.,0.,9944.,0.922908673185,5.33236122285,117.
6.28,6360.,13.,3.,3567.,0.,0.,9943.,0.922566320334,3.69026528133,169.
6.3,6365.,12.,3.,3562.,0.,0.,9942.,0.923384476115,4.00133272983,156.
6.32,6368.,14.,4.,3555.,0.,0.,9941.,0.923912622937,3.43167545662,182.
6.34,6377.,12.,3.,3552.,0.,0.,9944.,0.924939275326,4.00807019308,156.
6.36,6376.,13.,5.,3550.,0.,0.,9944.,0.924794232316,3.69917692927,169.
6.38,6372.,20.,2.,3550.,0.,0.,9944.,0.924214060276,2.40295655672,260.
6.4,6378.,17.,4.,3546.,0.,0.,9945.,0.924991298294,2.82938514772,221.
6.42,6382.,15.,7.,3542.,0.,0.,9946.,0.925478352333,3.20832495476,195.
6.44,6388.,11.,8.,3535.,0.,0.,9942.,0.926721136437,4.38086355407,143.
6.46,6385.,15.,7.,3535.,0.,0.,9942.,0.926285919874,3.21112452223,195.
6.48,6387.,13.,7.,3534.,0.,0.,9941.,0.92666927178,3.70667708712,169.
6.5,6382.,10.,12.,3536.,0.,0.,9940.,0.926036991178,4.81539235412,130.
6.52,6383.,14.,12.,3531.,0.,0.,9940.,0.926182092555,3.44010491521,182.
6.54,6388.,13.,7.,3529.,0.,0.,9937.,0.927187434685,3.70874973874,169.
6.56,6390.,12.,7.,3530.,0.,0.,9939.,0.92729109104,4.01826139451,156.
6.58,6388.,16.,2.,3532.,0.,0.,9938.,0.927094137499,3.01305594687,208.
6.6,6405.,8.,9.,3520.,0.,0.,9942.,0.929187363632,6.03971786361,104.
6.62,6400.,11.,5.,3525.,0.,0.,9941.,0.928555399937,4.38953461788,143.
6.64,6402.,13.,5.,3522.,0.,0.,9942.,0.928752147068,3.71500858827,169.
6.66,6397.,15.,10.,3518.,0.,0.,9940.,0.92821351184,3.21780684105,195.
6.68,6394.,17.,9.,3520.,0.,0.,9940.,0.927778207708,2.83790981181,221.
6.7,6395.,14.,5.,3525.,0.,0.,9939.,0.928016670923,3.44691906343,182.
6.72,6401.,13.,6.,3520.,0.,0.,9940.,0.92879391735,3.7151756694,169.
6.74,6408.,14.,12.,3510.,0.,0.,9944.,0.929435608639,3.45218940352,182.
6.76,6398.,19.,9.,3517.,0.,0.,9943.,0.92807850904,2.54000434053,247.
6.78,6397.,24.,10.,3511.,0.,0.,9942.,0.928026786129,2.01072470328,312.
6.8,6394.,27.,10.,3513.,0.,0.,9944.,0.927405006498,1.78611334585,351.
6.82,6386.,30.,11.,3516.,0.,0.,9943.,0.92633781787,1.60565221764,390.
6.84,6383.,27.,10.,3524.,0.,0.,9944.,0.925809533387,1.78304058282,351.
6.86,6386.,18.,17.,3525.,0.,0.,9946.,0.926058407709,2.67527984449,234.
6.88,6382.,21.,11.,3538.,0.,0.,9952.,0.924920387089,2.29027905374,273.
6.9,6374.,25.,14.,3539.,0.,0.,9952.,0.923760975761,1.92142282958,325.
6.92,6370.,24.,12.,3549.,0.,0.,9955.,0.922903063787,1.99962330487,312.
6.94,6356.,33.,16.,3549.,0.,0.,9954.,0.920967218436,1.45122107147,429.
6.96,6349.,29.,16.,3558.,0.,0.,9952.,0.92013781536,1.64990228961,377.
6.98,6338.,32.,13.,3568.,0.,0.,9951.,0.918635931449,1.4927833886,416.
7.,6331.,29.,19.,3575.,0.,0.,9954.,0.917344786016,1.64489409906,377.
7.02,6324.,37.,10.,3582.,0.,0.,9953.,0.916422570698,1.28794523449,481.
7.04,6312.,38.,14.,3589.,0.,0.,9953.,0.914683628438,1.25167233365,494.
7.06,6308.,35.,14.,3597.,0.,0.,9954.,0.914012148189,1.35796090588,455.
7.08,6299.,35.,18.,3601.,0.,0.,9953.,0.912799774324,1.35615966471,455.
7.1,6293.,36.,7.,3616.,0.,0.,9952.,0.912021936062,1.31736501876,468.
7.12,6294.,33.,9.,3616.,0.,0.,9952.,0.912166862478,1.43735384391,429.
7.14,6289.,30.,12.,3621.,0.,0.,9952.,0.911442230398,1.57983319936,390.
7.16,6282.,29.,19.,3621.,0.,0.,9951.,0.910519236567,1.63265518281,377.
7.18,6276.,26.,22.,3628.,0.,0.,9952.,0.90955818699,1.81911637398,338.
7.2,6266.,33.,13.,3638.,0.,0.,9950.,0.908291457286,1.43124714481,429.
7.22,6260.,28.,14.,3648.,0.,0.,9950.,0.907421724005,1.68521177315,364.
7.24,6259.,26.,11.,3654.,0.,0.,9950.,0.907276768458,1.81455353692,338.
7.26,6252.,33.,10.,3658.,0.,0.,9953.,0.905988917141,1.42761889974,429.
7.28,6242.,30.,18.,3660.,0.,0.,9950.,0.904812524159,1.56834170854,390.
7.3,6226.,33.,17.,3672.,0.,0.,9948.,0.902674677554,1.4223964616,429.
7.32,6220.,31.,14.,3683.,0.,0.,9948.,0.901804769416,1.5127047745,403.
7.34,6211.,26.,21.,3691.,0.,0.,9949.,0.90040939561,1.80081879122,338.
7.36,6187.,28.,23.,3709.,0.,0.,9947.,0.89711045464,1.6660622729,364.
7.38,6170.,43.,11.,3724.,0.,0.,9948.,0.894555534936,1.08178808876,559.
7.4,6172.,28.,16.,3732.,0.,0.,9948.,0.894845504315,1.66185593658,364.
7.42,6160.,33.,13.,3745.,0.,0.,9951.,0.892836437003,1.40689377952,429.
7.44,6155.,35.,13.,3745.,0.,0.,9948.,0.892380764591,1.32582285025,455.
7.46,6155.,30.,16.,3743.,0.,0.,9944.,0.892739727087,1.54741552695,390.
7.48,6153.,26.,23.,3743.,0.,0.,9945.,0.892359902541,1.78471980508,338.
7.5,6131.,38.,14.,3757.,0.,0.,9940.,0.889616545426,1.21737000953,494.
7.52,6113.,41.,8.,3775.,0.,0.,9937.,0.887272509115,1.12532123107,533.
7.54,6103.,40.,14.,3783.,0.,0.,9940.,0.885553706857,1.15121981891,520.
7.56,6107.,31.,15.,3788.,0.,0.,9941.,0.886044973033,1.48626898702,403.
7.58,6090.,39.,13.,3799.,0.,0.,9941.,0.883578497752,1.17810466367,507.
7.6,6089.,33.,14.,3806.,0.,0.,9942.,0.883344552249,1.39193687021,429.
7.62,6081.,29.,15.,3816.,0.,0.,9941.,0.882272716721,1.58200625067,377.
7.64,6076.,30.,13.,3823.,0.,0.,9942.,0.881458613806,1.52786159726,390.
7.66,6075.,29.,15.,3825.,0.,0.,9944.,0.88113628628,1.57996851333,377.
7.68,6063.,37.,17.,3829.,0.,0.,9946.,0.879218936101,1.23565904533,481.
7.7,6055.,27.,19.,3844.,0.,0.,9945.,0.878147116835,1.69124629909,351.
7.72,6050.,22.,15.,3857.,0.,0.,9944.,0.877510211028,2.07411504425,286.
7.74,6057.,19.,13.,3852.,0.,0.,9941.,0.878790633971,2.40511120876,247.
7.76,6060.,17.,13.,3853.,0.,0.,9943.,0.879049041073,2.68885589034,221.
7.78,6052.,25.,11.,3856.,0.,0.,9944.,0.877800297048,1.82582461786,325.
7.8,6046.,30.,11.,3856.,0.,0.,9943.,0.877018234707,1.52016494016,390.
7.82,6037.,32.,12.,3864.,0.,0.,9945.,0.875536605175,1.42274698341,416.
7.84,6036.,20.,24.,3868.,0.,0.,9948.,0.875127586527,2.27533172497,260.
7.86,6023.,34.,19.,3875.,0.,0.,9951.,0.872979522738,1.33514515242,442.
7.88,6007.,35.,16.,3893.,0.,0.,9951.,0.870660467058,1.29355269391,455.
7.9,6002.,34.,15.,3897.,0.,0.,9948.,0.87019810708,1.33089122259,442.
7.92,5995.,26.,17.,3910.,0.,0.,9948.,0.869183214253,1.73836642851,338.
7.94,5996.,22.,19.,3910.,0.,0.,9947.,0.869415594961,2.05498231536,286.
7.96,5980.,32.,18.,3914.,0.,0.,9944.,0.867357200322,1.40945545052,416.
7.98,5975.,35.,15.,3921.,0.,0.,9946.,0.86645771783,1.28730860935,455.
8.,5972.,27.,23.,3924.,0.,0.,9946.,0.866022676298,1.66789552472,351.
8.02,5954.,38.,17.,3937.,0.,0.,9946.,0.863412427106,1.18151174236,494.
8.04,5948.,33.,20.,3944.,0.,0.,9945.,0.862629075299,1.35929430047,429.
8.06,5944.,31.,17.,3954.,0.,0.,9946.,0.861962288666,1.44587222615,403.
8.08,5937.,34.,14.,3961.,0.,0.,9946.,0.860947191759,1.31674276387,442.
8.1,5940.,24.,17.,3968.,0.,0.,9949.,0.86112249395,1.86576540356,312.
8.12,5934.,27.,14.,3975.,0.,0.,9950.,0.860166215694,1.65661641541,351.
8.14,5921.,34.,13.,3982.,0.,0.,9950.,0.858281793583,1.31266627254,442.
8.16,5920.,26.,8.,3997.,0.,0.,9951.,0.858050601795,1.71610120359,338.
8.18,5918.,24.,10.,3999.,0.,0.,9951.,0.857760719835,1.85848155964,312.
8.2,5920.,24.,10.,3997.,0.,0.,9951.,0.858050601795,1.85910963722,312.
8.22,5923.,17.,15.,3996.,0.,0.,9951.,0.858485424735,2.62595541684,221.
8.24,5916.,19.,12.,4008.,0.,0.,9955.,0.857126299115,2.34581934495,247.
8.26,5919.,14.,8.,4012.,0.,0.,9953.,0.857733269443,3.18586642936,182.
8.28,5920.,14.,8.,4009.,0.,0.,9951.,0.858050601795,3.18704509238,182.
8.3,5918.,16.,7.,4011.,0.,0.,9952.,0.857674530052,2.78744222267,208.
8.32,5925.,12.,7.,4010.,0.,0.,9954.,0.858516483516,3.72023809524,156.
8.34,5931.,10.,8.,4003.,0.,0.,9952.,0.85955857346,4.46970458199,130.
8.36,5936.,7.,7.,4005.,0.,0.,9955.,0.860023953947,6.38874937217,91.
8.38,5947.,5.,3.,3999.,0.,0.,9954.,0.861704224046,8.96172393008,65.
8.4,5949.,8.,4.,3991.,0.,0.,9952.,0.862167248949,5.60408711817,104.
8.42,5948.,11.,4.,3990.,0.,0.,9953.,0.861935713237,4.07460518985,143.
8.44,5952.,11.,3.,3987.,0.,0.,9953.,0.862515360657,4.07734534129,143.
8.46,5960.,8.,4.,3982.,0.,0.,9954.,0.863587888904,5.61332127788,104.
8.48,5968.,7.,3.,3974.,0.,0.,9952.,0.864920850853,6.42512632062,91.
8.5,5975.,9.,2.,3967.,0.,0.,9953.,0.86584833332,5.00267925918,117.
8.52,5985.,11.,1.,3959.,0.,0.,9956.,0.867036112742,4.09871616933,143.
8.54,5991.,11.,2.,3951.,0.,0.,9955.,0.867992504733,4.1032372951,143.
8.56,6002.,12.,3.,3945.,0.,0.,9962.,0.868975182617,3.76555912467,156.
8.58,6008.,9.,4.,3944.,0.,0.,9965.,0.869581998533,5.02425154708,117.
8.6,6014.,11.,6.,3936.,0.,0.,9967.,0.870275756149,4.11403084725,143.
8.62,6020.,13.,2.,3935.,0.,0.,9970.,0.870881876398,3.48352750559,169.
8.64,6030.,11.,1.,3926.,0.,0.,9968.,0.872503549821,4.12456223552,143.
8.66,6038.,11.,4.,3914.,0.,0.,9967.,0.873748755509,4.1304486624,143.
8.68,6041.,11.,6.,3907.,0.,0.,9965.,0.874358331082,4.13333029239,143.
8.7,6049.,9.,5.,3905.,0.,0.,9968.,0.875252731819,5.05701578384,117.
8.72,6046.,12.,3.,3903.,0.,0.,9964.,0.875169842201,3.79240264954,156.
8.74,6048.,10.,6.,3898.,0.,0.,9962.,0.875635105709,4.55330254969,130.
8.76,6059.,7.,5.,3894.,0.,0.,9965.,0.876963603381,6.51458676797,91.
8.78,6065.,7.,4.,3889.,0.,0.,9965.,0.877832027481,6.52103791843,91.
8.8,6068.,7.,3.,3885.,0.,0.,9963.,0.878442545109,6.52557319224,91.
8.82,6072.,9.,5.,3877.,0.,0.,9963.,0.879021610729,5.07879152866,117.
8.84,6071.,11.,4.,3875.,0.,0.,9961.,0.879053307901,4.15552472826,143.
8.86,6069.,15.,3.,3873.,0.,0.,9960.,0.878851946247,3.04668674699,195.
8.88,6077.,12.,5.,3870.,0.,0.,9964.,0.879657150357,3.81184765155,156.
8.9,6074.,16.,9.,3867.,0.,0.,9966.,0.879046450239,2.85690096328,208.
8.92,6070.,17.,5.,3874.,0.,0.,9966.,0.878467558931,2.68707723908,221.
8.94,6075.,18.,6.,3868.,0.,0.,9967.,0.879102962854,2.53963078158,234.
8.96,6074.,18.,10.,3865.,0.,0.,9967.,0.878958254548,2.53921273536,234.
8.98,6073.,17.,13.,3861.,0.,0.,9964.,0.879078142853,2.68894490755,221.
9.,6074.,18.,10.,3865.,0.,0.,9967.,0.878958254548,2.53921273536,234.
9.02,6067.,15.,10.,3872.,0.,0.,9964.,0.878209631597,3.0444600562,195.
9.04,6067.,19.,6.,3870.,0.,0.,9962.,0.878385943508,2.40400363487,247.
9.06,6064.,22.,7.,3869.,0.,0.,9962.,0.877951600698,2.07515832892,286.
9.08,6067.,20.,8.,3865.,0.,0.,9960.,0.878562326228,2.28426204819,260.
9.1,6075.,19.,6.,3861.,0.,0.,9961.,0.879632489787,2.40741523521,247.
9.12,6068.,19.,9.,3867.,0.,0.,9963.,0.878442545109,2.40415854451,247.
9.14,6066.,19.,5.,3870.,0.,0.,9960.,0.878417516219,2.40409004439,247.
9.16,6068.,17.,4.,3874.,0.,0.,9963.,0.878442545109,2.68700072622,221.
9.18,6073.,13.,6.,3869.,0.,0.,9961.,0.879342898844,3.51737159538,169.
9.2,6075.,15.,5.,3864.,0.,0.,9959.,0.879809140553,3.05000502058,195.
9.22,6080.,14.,1.,3862.,0.,0.,9957.,0.880710130484,3.27120905608,182.
9.24,6088.,6.,8.,3856.,0.,0.,9958.,0.88178040076,7.64209680659,78.
9.26,6090.,7.,7.,3854.,0.,0.,9958.,0.882070078947,6.55252058646,91.
9.28,6099.,8.,0.,3852.,0.,0.,9959.,0.88328492975,5.74135204338,104.
9.3,6098.,8.,0.,3852.,0.,0.,9958.,0.883228791694,5.74098714601,104.
9.32,6103.,6.,3.,3849.,0.,0.,9961.,0.883686762991,7.65861861259,78.
9.34,6106.,7.,5.,3846.,0.,0.,9964.,0.88385495476,6.56577966393,91.
9.36,6108.,9.,3.,3841.,0.,0.,9961.,0.884410740349,5.10992872202,117.
9.38,6105.,12.,7.,3836.,0.,0.,9960.,0.88406510658,3.83094879518,156.
9.4,6099.,20.,5.,3836.,0.,0.,9960.,0.883196246525,2.29631024096,260.
9.42,6110.,17.,6.,3826.,0.,0.,9959.,0.884877999799,2.70668564644,221.
9.44,6120.,14.,4.,3822.,0.,0.,9960.,0.886237256719,3.2917383821,182.
9.46,6126.,15.,3.,3814.,0.,0.,9958.,0.88728428631,3.07591885921,195.
9.48,6126.,12.,7.,3813.,0.,0.,9958.,0.88728428631,3.84489857401,156.
9.5,6130.,12.,9.,3810.,0.,0.,9961.,0.887596240723,3.84625037647,156.
9.52,6128.,11.,11.,3806.,0.,0.,9956.,0.887752263807,4.19664706527,143.
9.54,6127.,12.,10.,3810.,0.,0.,9959.,0.887340017147,3.8451400743,156.
9.56,6125.,17.,6.,3808.,0.,0.,9956.,0.887317659239,2.71414813414,221.
9.58,6126.,16.,9.,3802.,0.,0.,9953.,0.887730023418,2.88512257611,208.
9.6,6125.,17.,5.,3805.,0.,0.,9952.,0.88767429817,2.7152390297,221.
9.62,6121.,23.,9.,3800.,0.,0.,9953.,0.887005464143,2.00540365806,299.
9.64,6118.,25.,8.,3802.,0.,0.,9953.,0.886570728578,1.84406711544,325.
9.66,6120.,23.,9.,3804.,0.,0.,9956.,0.886593318293,2.00447185005,299.
9.68,6111.,31.,6.,3811.,0.,0.,9959.,0.885022824349,1.48455441504,403.
9.7,6110.,33.,7.,3809.,0.,0.,9959.,0.884877999799,1.3943532118,429.
9.72,6111.,28.,12.,3807.,0.,0.,9958.,0.885111699909,1.64377887126,364.
9.74,6110.,20.,10.,3815.,0.,0.,9955.,0.885233550979,2.30160723255,260.
9.76,6099.,27.,8.,3821.,0.,0.,9955.,0.883639840822,1.70182487862,351.
9.78,6100.,29.,3.,3823.,0.,0.,9955.,0.883784723564,1.58471743536,377.
9.8,6102.,19.,15.,3817.,0.,0.,9953.,0.884252138899,2.42005848541,247.
9.82,6102.,20.,7.,3825.,0.,0.,9954.,0.884163305049,2.29882459313,260.
9.84,6107.,21.,5.,3823.,0.,0.,9956.,0.884710031832,2.19071055501,273.
9.86,6104.,17.,7.,3822.,0.,0.,9950.,0.884808658678,2.70647354419,221.
9.88,6103.,18.,6.,3827.,0.,0.,9954.,0.884308202346,2.55466814011,234.
9.9,6115.,11.,9.,3822.,0.,0.,9957.,0.88578000788,4.18732367361,143.
9.92,6119.,14.,6.,3819.,0.,0.,9958.,0.886270412656,3.29186153272,182.
9.94,6130.,15.,1.,3814.,0.,0.,9960.,0.887685356812,3.07730923695,195.
9.96,6134.,15.,4.,3809.,0.,0.,9962.,0.888086266273,3.07869905641,195.
9.98,6140.,15.,4.,3803.,0.,0.,9962.,0.888954951894,3.0817104999,195.
10.,6139.,15.,4.,3803.,0.,0.,9961.,0.888899399968,3.08151791989,195.
