t,neff
5.,0.106581333333
5.02,0.127795363709
5.04,0.149014219524
5.06,0.0638670501758
5.08,0.127639731715
5.1,0.0850066464616
5.12,0.0636383893045
5.14,0.127258834766
5.16,0.106021539604
5.18,0.14846864056
5.2,0.127023677102
5.22,0.105738008356
5.24,0.12668461904
5.26,0.168859329638
5.28,0.16869904551
5.3,0.147480240278
5.32,0.147349023324
5.34,0.16830228397
5.36,0.0840088244561
5.38,0.10497794581
5.4,0.146809381395
5.42,0.1467631786
5.44,0.12572327044
5.46,0.209197928112
5.48,0.146269530229
5.5,0.229849030977
5.52,0.271728608018
5.54,0.271399937363
5.56,0.334139768098
5.58,0.375516593613
5.6,0.271075655665
5.62,0.396266750091
5.64,0.354131250001
5.66,0.374557377049
5.68,0.228776200135
5.7,0.270429218043
5.72,0.270501769727
5.74,0.375110276866
5.76,0.479730745148
5.78,0.458795180723
5.8,0.479226599959
5.82,0.374753944697
5.84,0.416877901216
5.86,0.522264032613
5.88,0.544263943441
5.9,0.629318217605
5.92,0.798977434119
5.94,0.589082872928
5.96,0.568861480077
5.98,0.612268188301
6.,0.634058086016
6.02,0.698584830656
6.04,0.593329089752
6.06,0.699309466984
6.08,0.572401718924
6.1,0.658879846818
6.12,0.788118537469
6.14,0.854256854255
6.16,0.85621251071
6.18,0.793271108248
6.2,0.730480030104
6.22,0.709840142097
6.24,0.775432358171
6.26,0.625921365306
6.28,0.887677884356
6.3,0.714749512038
6.32,0.802480317097
6.34,0.542325025793
6.36,0.652466514209
6.38,0.718470088262
6.4,0.763309862997
6.42,0.764283371596
6.44,0.720964725186
6.46,0.590267607946
6.48,0.61291241916
6.5,0.481477584128
6.52,0.481715194385
6.54,0.438412123209
6.56,0.372514273166
6.58,0.459940769989
6.6,0.328303747535
6.62,0.349983023931
6.64,0.240391770628
6.66,0.305783027121
6.68,0.261901639344
6.7,0.217894162575
6.72,0.152541189307
6.74,0.0653196011117
6.76,0.108791986499
6.78,0.217491156463
6.8,0.173805251998
6.82,0.239006143641
6.84,0.282359208524
6.86,0.23875135722
6.88,0.303846279108
6.9,0.216856492027
6.92,0.216707323684
6.94,0.216455559164
6.96,0.281083360364
6.98,0.280873041599
7.,0.259109311741
7.02,0.151028380274
7.04,0.193935671569
7.06,0.10765503876
7.08,0.10747311828
7.1,0.107362655067
7.12,0.0858262222935
7.14,0.0642907687358
7.16,0.0856778616962
7.18,0.149908983831
7.2,0.235330231563
7.22,0.235306700893
7.24,0.192338515788
7.26,0.170858027658
7.28,0.0639131129213
7.3,0.149017605447
7.32,0.127571701721
7.34,0.0849986728247
7.36,0.191075747931
7.38,0.0848820317055
7.4,0.10596145701
7.42,0.0846466888643
7.44,0.042278895401
7.46,0.021111814346
7.48,0.0421709347665
7.5,0.0421249934186
7.52,0.0210404502656
7.54,0.042036891061
7.56,0.0839979002621
7.58,0.083904177806
7.6,0.0418617299446
7.62,0.104529070679
7.64,0.0835388628064
7.66,0.041741488086
7.68,0.104298890105
7.7,0.104233713482
7.72,0.104125695854
7.74,0.124892355694
7.76,0.166549123628
7.78,0.229076530878
7.8,0.124959400375
7.82,0.20816814942
7.84,0.104045761831
7.86,0.124686818323
7.88,0.166108517481
7.9,0.166032882112
7.92,0.145141673142
7.94,0.186409937888
7.96,0.165567447392
7.98,0.227786401739
8.,0.248183508989
8.02,0.33084185518
8.04,0.206712102437
8.06,0.289800941006
8.08,0.372754072925
8.1,0.37283253143
8.12,0.37283253143
8.14,0.351885406971
8.16,0.289685124864
8.18,0.393100739133
8.2,0.351667183463
8.22,0.330980878553
8.24,0.268755293875
8.26,0.413300289136
8.28,0.433830907402
8.3,0.371760334417
8.32,0.371493114653
8.34,0.412980446784
8.36,0.413044375644
8.38,0.26831270627
8.4,0.26818823772
8.42,0.185677179963
8.44,0.288846966652
8.46,0.227044083527
8.48,0.309650479431
8.5,0.185704127377
8.52,0.289125412542
8.54,0.289227912734
8.56,0.392666666667
8.58,0.392845125664
8.6,0.289359331477
8.62,0.22757524134
8.64,0.331634859064
8.66,0.352760780659
8.68,0.456797720799
8.7,0.603899194596
8.72,0.437423580786
8.74,0.396325574129
8.76,0.584972617745
8.78,0.480841423949
8.8,0.46037420299
8.82,0.355495693031
8.84,0.292761158967
8.86,0.522869674187
8.88,0.502248001254
8.9,0.355855290673
8.92,0.376943834328
8.94,0.629190887668
8.96,0.650647376424
8.98,0.419179229482
9.,0.461498821681
9.02,0.440704070406
9.04,0.356704378797
9.06,0.398874567746
9.08,0.314765944078
9.1,0.419975894775
9.12,0.399199161425
9.14,0.441270839887
9.16,0.356953697883
9.18,0.231052438577
9.2,0.272890424585
9.22,0.272847571189
9.24,0.335716303154
9.26,0.293521480088
9.28,0.188582171393
9.3,0.209634273772
9.32,0.272295646727
9.34,0.314249921703
9.36,0.29283278586
9.38,0.292678859883
9.4,0.292545587163
9.42,0.229697632058
9.44,0.417756960708
9.46,0.334015813566
9.48,0.333840715326
9.5,0.313188699859
9.52,0.459708333334
9.54,0.502234741783
9.56,0.544451750954
9.58,0.418934293617
9.6,0.335233322894
9.62,0.334866259972
9.64,0.334571220173
9.66,0.355572924808
9.68,0.334761532447
9.7,0.376510318949
9.72,0.334504532666
9.74,0.229713631157
9.76,0.292189109065
9.78,0.0833951483038
9.8,0.145826068908
9.82,0.187471980075
9.84,0.124839813375
9.86,0.0623443564662
9.88,0.145470165088
9.9,0.290985507247
9.92,0.290988919954
9.94,0.270108194854
9.96,0.207552244982
9.98,0.228226532196
10.,0.145305995651
