t,s,e,i,r,c,o,n,reff,coal,reportr
5.,6250.,5.,3.,3734.,0.,0.,9992.,0.902164038923,9.3825060048,65.
5.02,6254.,10.,3.,3728.,0.,0.,9995.,0.902470466002,4.69284642321,130.
5.04,6255.,9.,3.,3727.,0.,0.,9994.,0.902705084589,5.21562937763,117.
5.06,6257.,9.,7.,3720.,0.,0.,9993.,0.903084081934,5.21781914006,117.
5.08,6256.,14.,3.,3719.,0.,0.,9992.,0.903030116401,3.35411186092,182.
5.1,6264.,9.,6.,3715.,0.,0.,9994.,0.904003940826,5.22313388033,117.
5.12,6267.,15.,4.,3708.,0.,0.,9994.,0.904436892905,3.13538122874,195.
5.14,6269.,15.,5.,3701.,0.,0.,9990.,0.905087780088,3.13763763764,195.
5.16,6272.,13.,9.,3698.,0.,0.,9992.,0.90533965634,3.62135862536,169.
5.18,6280.,15.,6.,3695.,0.,0.,9996.,0.906131683443,3.1412565026,195.
5.2,6282.,14.,7.,3693.,0.,0.,9996.,0.906420260412,3.36670382439,182.
5.22,6286.,14.,5.,3691.,0.,0.,9996.,0.90699741435,3.36884753902,182.
5.24,6296.,13.,7.,3680.,0.,0.,9996.,0.908440299197,3.63376119679,169.
5.26,6293.,11.,10.,3681.,0.,0.,9995.,0.908098279909,4.2928282323,143.
5.28,6297.,15.,4.,3678.,0.,0.,9994.,0.908766413694,3.15039023414,195.
5.3,6297.,16.,2.,3678.,0.,0.,9993.,0.908857353994,2.95378640048,208.
5.32,6301.,15.,6.,3670.,0.,0.,9992.,0.909525697481,3.15302241793,195.
5.34,6299.,17.,1.,3675.,0.,0.,9992.,0.909237004989,2.78119554467,221.
5.36,6303.,11.,4.,3671.,0.,0.,9989.,0.91008763486,4.3022324557,143.
5.38,6303.,12.,2.,3671.,0.,0.,9988.,0.910178752965,3.94410792952,156.
5.4,6303.,8.,5.,3672.,0.,0.,9988.,0.910178752965,5.91616189427,104.
5.42,6306.,9.,8.,3665.,0.,0.,9988.,0.910611965127,5.26131357629,117.
5.44,6314.,7.,6.,3665.,0.,0.,9992.,0.911402198682,6.77041633307,91.
5.46,6320.,8.,4.,3658.,0.,0.,9990.,0.912450912451,5.93093093093,104.
5.48,6324.,4.,2.,3656.,0.,0.,9986.,0.913394136406,11.8741237733,52.
5.5,6325.,4.,3.,3652.,0.,0.,9984.,0.913721569896,11.8783804087,52.
5.52,6331.,3.,1.,3648.,0.,0.,9983.,0.914679955925,15.8544525694,39.
5.54,6335.,2.,2.,3645.,0.,0.,9984.,0.915166188979,23.7943209135,26.
5.56,6341.,2.,2.,3640.,0.,0.,9985.,0.915941219522,23.8144717076,26.
5.58,6341.,4.,0.,3636.,0.,0.,9981.,0.91630829345,11.9120078148,52.
5.6,6347.,5.,1.,3629.,0.,0.,9982.,0.917083442504,9.53766780204,65.
5.62,6359.,3.,1.,3619.,0.,0.,9982.,0.918817332737,15.9261671008,39.
5.64,6368.,3.,0.,3606.,0.,0.,9977.,0.920578869862,15.9567004109,39.
5.66,6373.,4.,0.,3600.,0.,0.,9977.,0.921301686186,11.9769219204,52.
5.68,6377.,6.,0.,3591.,0.,0.,9974.,0.922157224167,7.99202927612,78.
5.7,6386.,6.,1.,3578.,0.,0.,9971.,0.92373652824,8.00571657808,78.
5.72,6393.,7.,1.,3570.,0.,0.,9971.,0.924749080024,6.86956459447,91.
5.74,6394.,7.,0.,3565.,0.,0.,9966.,0.925357754828,6.87408617872,91.
5.76,6408.,5.,0.,3558.,0.,0.,9971.,0.926918833849,9.63995587203,65.
5.78,6411.,0.,6.,3551.,0.,0.,9968.,0.927631883566,inf,0.
5.8,6413.,3.,0.,3554.,0.,0.,9970.,0.927735128462,16.0807422267,39.
5.82,6430.,1.,2.,3537.,0.,0.,9970.,0.930194429442,48.370110331,13.
5.84,6436.,4.,3.,3528.,0.,0.,9971.,0.930969040988,12.1025975328,52.
5.86,6439.,6.,5.,3524.,0.,0.,9974.,0.931122842467,8.06973130138,78.
5.88,6441.,10.,2.,3522.,0.,0.,9975.,0.931318681319,4.84285714286,130.
5.9,6442.,11.,7.,3511.,0.,0.,9971.,0.931836942518,4.40504736463,143.
5.92,6441.,8.,12.,3511.,0.,0.,9972.,0.931598861427,6.05539259928,104.
5.94,6424.,24.,8.,3515.,0.,0.,9971.,0.929233237928,2.01333868218,312.
5.96,6417.,33.,5.,3516.,0.,0.,9971.,0.928220686144,1.46265077817,429.
5.98,6417.,28.,9.,3516.,0.,0.,9970.,0.928313787516,1.72401131967,364.
6.,6406.,23.,18.,3520.,0.,0.,9967.,0.927001412353,2.0958292801,299.
6.02,6401.,19.,19.,3526.,0.,0.,9965.,0.926463777066,2.53558507408,247.
6.04,6394.,28.,14.,3528.,0.,0.,9964.,0.925543495044,1.7188664908,364.
6.06,6379.,34.,11.,3539.,0.,0.,9963.,0.923464897042,1.41235807783,442.
6.08,6382.,25.,21.,3536.,0.,0.,9964.,0.923806472532,1.92151746287,325.
6.1,6375.,27.,16.,3544.,0.,0.,9962.,0.92297847204,1.77758816837,351.
6.12,6358.,38.,16.,3552.,0.,0.,9964.,0.920332427508,1.25940226922,494.
6.14,6343.,43.,17.,3559.,0.,0.,9962.,0.918345482063,1.11055732715,559.
6.16,6334.,44.,14.,3568.,0.,0.,9960.,0.917226598703,1.08399507119,572.
6.18,6320.,37.,28.,3576.,0.,0.,9961.,0.915107380322,1.28609685883,481.
6.2,6303.,42.,20.,3598.,0.,0.,9963.,0.912462650268,1.12971566224,546.
6.22,6292.,39.,17.,3611.,0.,0.,9959.,0.911236067878,1.21498142384,507.
6.24,6276.,38.,14.,3631.,0.,0.,9959.,0.90891887508,1.24378372379,494.
6.26,6256.,44.,12.,3644.,0.,0.,9956.,0.906295392033,1.0710763724,572.
6.28,6255.,33.,22.,3647.,0.,0.,9957.,0.906059517464,1.42773014873,429.
6.3,6250.,28.,21.,3658.,0.,0.,9957.,0.905335249264,1.68133689149,364.
6.32,6247.,29.,16.,3664.,0.,0.,9956.,0.904991578329,1.62274351976,377.
6.34,6235.,31.,18.,3672.,0.,0.,9956.,0.903253160058,1.515134333,403.
6.36,6219.,29.,16.,3693.,0.,0.,9957.,0.900844786428,1.61530789291,377.
6.38,6209.,28.,8.,3710.,0.,0.,9955.,0.899576942395,1.67064289302,364.
6.4,6212.,22.,10.,3714.,0.,0.,9958.,0.899740448345,2.12665924154,286.
6.42,6205.,26.,12.,3715.,0.,0.,9958.,0.898726574691,1.79745314938,338.
6.44,6196.,25.,10.,3724.,0.,0.,9955.,0.897693466754,1.86720241085,325.
6.46,6197.,23.,5.,3731.,0.,0.,9956.,0.897748168866,2.02969151222,299.
6.48,6199.,25.,8.,3725.,0.,0.,9957.,0.89794771363,1.86773124435,325.
6.5,6197.,22.,15.,3722.,0.,0.,9956.,0.897748168866,2.12195021732,286.
6.52,6183.,28.,9.,3730.,0.,0.,9950.,0.896260146888,1.66448312994,364.
6.54,6187.,26.,11.,3727.,0.,0.,9951.,0.896749843464,1.79349968693,338.
6.56,6187.,28.,7.,3731.,0.,0.,9953.,0.89656964657,1.66505791506,364.
6.58,6191.,16.,11.,3740.,0.,0.,9958.,0.896698827383,2.91427118899,208.
6.6,6182.,26.,7.,3742.,0.,0.,9957.,0.895485201752,1.7909704035,338.
6.62,6179.,23.,3.,3751.,0.,0.,9956.,0.895140541459,2.02379600678,299.
6.64,6185.,21.,4.,3749.,0.,0.,9959.,0.895739841041,2.21802246353,273.
6.66,6181.,23.,8.,3749.,0.,0.,9961.,0.894980809774,2.02343487427,299.
6.68,6184.,18.,10.,3752.,0.,0.,9964.,0.895145601087,2.58597618092,234.
6.7,6181.,21.,6.,3756.,0.,0.,9964.,0.894711345459,2.21547571257,273.
6.72,6189.,17.,9.,3751.,0.,0.,9966.,0.895689575325,2.73975634805,221.
6.74,6187.,16.,9.,3750.,0.,0.,9962.,0.895759655923,2.91121888175,208.
6.76,6180.,17.,6.,3759.,0.,0.,9962.,0.894746189366,2.73687069688,221.
6.78,6168.,26.,6.,3761.,0.,0.,9961.,0.893098468643,1.78619693729,338.
6.8,6163.,22.,15.,3760.,0.,0.,9960.,0.892464087118,2.10946056955,286.
6.82,6159.,23.,14.,3762.,0.,0.,9958.,0.892063976393,2.01684029445,299.
6.84,6149.,31.,9.,3768.,0.,0.,9957.,0.890705031636,1.49408585952,403.
6.86,6140.,19.,21.,3774.,0.,0.,9954.,0.889669402328,2.43488468005,247.
6.88,6129.,27.,15.,3783.,0.,0.,9954.,0.888075532063,1.71036769138,351.
6.9,6120.,31.,14.,3789.,0.,0.,9954.,0.886771456392,1.48748760427,403.
6.92,6111.,24.,20.,3797.,0.,0.,9952.,0.885645328345,1.91889821141,312.
6.94,6106.,22.,5.,3816.,0.,0.,9949.,0.885187533343,2.09226144245,286.
6.96,6111.,16.,6.,3815.,0.,0.,9948.,0.886001438248,2.87950467431,208.
6.98,6105.,16.,10.,3814.,0.,0.,9945.,0.885398538113,2.87754524887,208.
7.,6105.,16.,6.,3820.,0.,0.,9947.,0.885220514883,2.87696667337,208.
7.02,6108.,14.,7.,3819.,0.,0.,9948.,0.885566484179,3.28924694124,182.
7.04,6112.,9.,4.,3825.,0.,0.,9950.,0.885968303054,5.1189279732,117.
7.06,6121.,7.,3.,3816.,0.,0.,9947.,0.887540503128,6.59315802324,91.
7.08,6129.,6.,1.,3812.,0.,0.,9948.,0.888611162661,7.70129674306,78.
7.1,6134.,5.,3.,3806.,0.,0.,9948.,0.889336086109,9.24909529554,65.
7.12,6130.,11.,4.,3802.,0.,0.,9947.,0.888845496516,4.20181507444,143.
7.14,6135.,10.,4.,3796.,0.,0.,9945.,0.889749390881,4.62669683258,130.
7.16,6142.,10.,4.,3791.,0.,0.,9947.,0.8905854877,4.63104453604,130.
7.18,6137.,16.,1.,3792.,0.,0.,9946.,0.889949960556,2.89233737181,208.
7.2,6139.,11.,7.,3783.,0.,0.,9940.,0.890777356446,4.2109475032,143.
7.22,6152.,8.,10.,3775.,0.,0.,9945.,0.892214874115,5.79939668175,104.
7.24,6165.,10.,2.,3772.,0.,0.,9949.,0.893740770236,4.64745200523,130.
7.26,6166.,7.,8.,3768.,0.,0.,9949.,0.893885740353,6.64029407119,91.
7.28,6163.,9.,3.,3772.,0.,0.,9947.,0.893630472272,5.16319828424,117.
7.3,6166.,9.,7.,3764.,0.,0.,9946.,0.894155362032,5.16623098063,117.
7.32,6169.,8.,6.,3759.,0.,0.,9942.,0.894950327283,5.81717712734,104.
7.34,6168.,9.,11.,3752.,0.,0.,9940.,0.894985296394,5.17102615694,117.
7.36,6163.,11.,11.,3752.,0.,0.,9937.,0.89452976831,4.22868617746,143.
7.38,6158.,15.,12.,3752.,0.,0.,9937.,0.89380404239,3.09852068029,195.
7.4,6157.,17.,13.,3751.,0.,0.,9938.,0.893568973791,2.73326980219,221.
7.42,6149.,26.,10.,3751.,0.,0.,9936.,0.892587560386,1.78517512077,338.
7.44,6153.,22.,11.,3751.,0.,0.,9937.,0.893078316471,2.11091238439,286.
7.46,6150.,21.,11.,3754.,0.,0.,9936.,0.892732720178,2.21057625949,273.
7.48,6142.,26.,15.,3757.,0.,0.,9940.,0.891212660579,1.78242532116,338.
7.5,6138.,27.,11.,3762.,0.,0.,9938.,0.890811492794,1.71563694908,351.
7.52,6140.,20.,13.,3765.,0.,0.,9938.,0.891101753951,2.31686456027,260.
7.54,6143.,19.,4.,3770.,0.,0.,9936.,0.891716601635,2.44048754132,247.
7.56,6140.,15.,10.,3771.,0.,0.,9936.,0.891281122259,3.08977455717,195.
7.58,6143.,14.,6.,3773.,0.,0.,9936.,0.891716601635,3.31209023464,182.
7.6,6151.,11.,9.,3767.,0.,0.,9938.,0.892698190318,4.22002780878,143.
7.62,6145.,16.,7.,3768.,0.,0.,9936.,0.892006921219,2.89902249396,208.
7.64,6139.,22.,3.,3770.,0.,0.,9934.,0.891315373775,2.10674542892,286.
7.66,6147.,19.,9.,3761.,0.,0.,9936.,0.892297240803,2.44207665904,247.
7.68,6135.,25.,8.,3767.,0.,0.,9935.,0.89064496148,1.85254151988,325.
7.7,6140.,23.,10.,3764.,0.,0.,9937.,0.89119142908,2.01486757879,299.
7.72,6137.,22.,2.,3770.,0.,0.,9931.,0.891294160477,2.1066952884,286.
7.74,6138.,14.,7.,3765.,0.,0.,9924.,0.892068179704,3.31339609604,182.
7.76,6140.,11.,13.,3760.,0.,0.,9924.,0.89235885034,4.21842365615,143.
7.78,6142.,7.,13.,3762.,0.,0.,9924.,0.892649520975,6.63111072724,91.
7.8,6133.,12.,16.,3761.,0.,0.,9922.,0.89152117284,3.86325841564,156.
7.82,6132.,19.,11.,3766.,0.,0.,9928.,0.890837104072,2.43808049536,247.
7.84,6132.,14.,5.,3776.,0.,0.,9927.,0.890926842876,3.30915684497,182.
7.86,6135.,9.,5.,3778.,0.,0.,9927.,0.891362717065,5.1500956986,117.
7.88,6140.,8.,3.,3772.,0.,0.,9923.,0.892448778673,5.80091706137,104.
7.9,6144.,8.,4.,3769.,0.,0.,9925.,0.892850222825,5.80352644836,104.
7.92,6149.,8.,3.,3766.,0.,0.,9926.,0.893486802337,5.80766421519,104.
7.94,6155.,7.,5.,3758.,0.,0.,9925.,0.894448750242,6.64447643037,91.
7.96,6159.,4.,8.,3756.,0.,0.,9927.,0.89484971058,11.6330462375,52.
7.98,6160.,7.,6.,3751.,0.,0.,9924.,0.895265556692,6.65054413543,91.
8.,6167.,9.,2.,3748.,0.,0.,9926.,0.896102310947,5.17748001881,117.
8.02,6178.,8.,4.,3735.,0.,0.,9925.,0.897791125751,5.83564231738,104.
8.04,6184.,8.,7.,3725.,0.,0.,9924.,0.898753604316,5.84189842805,104.
8.06,6185.,7.,7.,3720.,0.,0.,9919.,0.899352059373,6.68090101249,91.
8.08,6186.,14.,7.,3712.,0.,0.,9919.,0.899497467952,3.34099059525,182.
8.1,6187.,17.,6.,3709.,0.,0.,9919.,0.899642876531,2.7518487988,221.
8.12,6201.,18.,6.,3704.,0.,0.,9929.,0.900770470339,2.6022258032,234.
8.14,6201.,13.,9.,3705.,0.,0.,9928.,0.900861200645,3.60344480258,169.
8.16,6202.,10.,13.,3699.,0.,0.,9924.,0.901369640033,4.68712212817,130.
8.18,6198.,15.,12.,3703.,0.,0.,9928.,0.900425370359,3.12147461724,195.
8.2,6192.,24.,13.,3701.,0.,0.,9930.,0.899372530792,1.94864048338,312.
8.22,6179.,29.,9.,3714.,0.,0.,9931.,0.897393941272,1.60912017056,377.
8.24,6172.,26.,11.,3724.,0.,0.,9933.,0.896196826429,1.79239365286,338.
8.26,6163.,30.,13.,3728.,0.,0.,9934.,0.894799910176,1.55098651097,390.
8.28,6160.,26.,12.,3735.,0.,0.,9933.,0.894454382826,1.78890876565,338.
8.3,6157.,32.,11.,3737.,0.,0.,9937.,0.893658897206,1.45219570796,416.
8.32,6156.,23.,13.,3748.,0.,0.,9940.,0.893244079864,2.01950835447,299.
8.34,6154.,23.,7.,3758.,0.,0.,9942.,0.892774244464,2.01844611792,299.
8.36,6149.,21.,8.,3763.,0.,0.,9941.,0.892138617845,2.20910514895,273.
8.38,6147.,20.,8.,3766.,0.,0.,9941.,0.891848444283,2.31880595514,260.
8.4,6152.,22.,2.,3764.,0.,0.,9940.,0.892663674354,2.1099323212,286.
8.42,6159.,16.,9.,3757.,0.,0.,9941.,0.893589485658,2.90416582839,208.
8.44,6167.,14.,8.,3757.,0.,0.,9946.,0.894300375876,3.3216871104,182.
8.46,6169.,11.,8.,3754.,0.,0.,9942.,0.894950327283,4.23067427443,143.
8.48,6166.,11.,3.,3761.,0.,0.,9941.,0.894605093126,4.22904225842,143.
8.5,6161.,14.,5.,3760.,0.,0.,9940.,0.893969586751,3.32045846508,182.
8.52,6162.,12.,7.,3757.,0.,0.,9938.,0.894294626685,3.87527671564,156.
8.54,6162.,18.,6.,3753.,0.,0.,9939.,0.894204648355,2.58325787303,234.
8.56,6165.,13.,11.,3749.,0.,0.,9938.,0.894730018422,3.57892007369,169.
8.58,6167.,13.,8.,3751.,0.,0.,9939.,0.894930228238,3.57972091295,169.
8.6,6173.,7.,5.,3754.,0.,0.,9939.,0.895800924099,6.65452115045,91.
8.62,6178.,7.,3.,3752.,0.,0.,9940.,0.896436310169,6.65924116125,91.
8.64,6178.,9.,0.,3753.,0.,0.,9940.,0.896436310169,5.17940979209,117.
8.66,6187.,9.,0.,3742.,0.,0.,9938.,0.897922891156,5.18799892668,117.
8.68,6194.,7.,2.,3733.,0.,0.,9936.,0.899119751022,6.67917529331,91.
8.7,6201.,4.,5.,3727.,0.,0.,9937.,0.900045285297,11.7005887089,52.
8.72,6208.,6.,4.,3721.,0.,0.,9939.,0.900879983283,7.80762652178,78.
8.74,6204.,13.,1.,3722.,0.,0.,9940.,0.900208945984,3.60083578393,169.
8.76,6205.,12.,6.,3716.,0.,0.,9939.,0.900444635353,3.90192675319,156.
8.78,6206.,10.,5.,3719.,0.,0.,9940.,0.900499148739,4.68259557344,130.
8.8,6207.,10.,7.,3716.,0.,0.,9940.,0.900644250116,4.6833501006,130.
8.82,6203.,11.,9.,3717.,0.,0.,9940.,0.900063844606,4.25484726541,143.
8.84,6203.,10.,12.,3718.,0.,0.,9943.,0.89979227752,4.67891984311,130.
8.86,6205.,8.,7.,3722.,0.,0.,9942.,0.900172926048,5.85112401931,104.
8.88,6206.,16.,0.,3722.,0.,0.,9944.,0.900136920602,2.92544499195,208.
8.9,6212.,9.,6.,3718.,0.,0.,9945.,0.90091657965,5.20529579353,117.
8.92,6211.,9.,3.,3722.,0.,0.,9945.,0.900771551224,5.20445785152,117.
8.94,6210.,14.,1.,3720.,0.,0.,9945.,0.900626522798,3.34518422754,182.
8.96,6221.,8.,7.,3709.,0.,0.,9945.,0.90222183548,5.86444193062,104.
8.98,6224.,9.,1.,3710.,0.,0.,9944.,0.902747694783,5.21587556986,117.
9.,6227.,5.,6.,3708.,0.,0.,9946.,0.903001206515,9.39121254776,65.
9.02,6230.,6.,5.,3706.,0.,0.,9947.,0.90334542305,7.82899366643,78.
9.04,6225.,11.,6.,3703.,0.,0.,9945.,0.902801949182,4.2677910325,143.
9.06,6230.,8.,6.,3700.,0.,0.,9944.,0.903617952844,5.87351669348,104.
9.08,6244.,5.,0.,3696.,0.,0.,9945.,0.905557489268,9.41779788839,65.
9.1,6251.,3.,3.,3691.,0.,0.,9948.,0.906299294794,15.7091877764,39.
9.12,6251.,4.,0.,3686.,0.,0.,9941.,0.906937469532,11.7901871039,52.
9.14,6258.,1.,3.,3677.,0.,0.,9939.,0.908135782117,47.2230606701,13.
9.16,6255.,6.,1.,3675.,0.,0.,9937.,0.907883125227,7.86832041864,78.
9.18,6262.,3.,4.,3667.,0.,0.,9936.,0.908990616871,15.7558373591,39.
9.2,6269.,4.,2.,3661.,0.,0.,9936.,0.910006735414,11.8300875604,52.
9.22,6273.,5.,0.,3656.,0.,0.,9934.,0.910770702018,9.47201530099,65.
9.24,6282.,6.,1.,3645.,0.,0.,9934.,0.912077403169,7.90467082746,78.
9.26,6290.,5.,4.,3632.,0.,0.,9931.,0.913514790516,9.50055382137,65.
9.28,6299.,8.,3.,3622.,0.,0.,9932.,0.914729777874,5.94574355618,104.
9.3,6298.,10.,2.,3620.,0.,0.,9930.,0.914768765977,4.75679758308,130.
9.32,6311.,4.,5.,3610.,0.,0.,9930.,0.9166569835,11.9165407855,52.
9.34,6312.,6.,4.,3608.,0.,0.,9930.,0.916802231002,7.94561933535,78.
9.36,6317.,7.,4.,3603.,0.,0.,9931.,0.91743607817,6.81523943784,91.
9.38,6317.,8.,8.,3597.,0.,0.,9930.,0.91752846851,5.96393504532,104.
9.4,6319.,10.,2.,3599.,0.,0.,9930.,0.917818963514,4.77265861027,130.
9.42,6318.,6.,7.,3594.,0.,0.,9925.,0.918136020151,7.95717884131,78.
9.44,6321.,4.,6.,3593.,0.,0.,9924.,0.918664542833,11.9426390568,52.
9.46,6321.,9.,7.,3588.,0.,0.,9925.,0.918571982174,5.30730478589,117.
9.48,6323.,6.,5.,3590.,0.,0.,9924.,0.918955213469,7.96427851673,78.
9.5,6322.,9.,1.,3586.,0.,0.,9918.,0.919365721997,5.31189083821,117.
9.52,6327.,6.,3.,3578.,0.,0.,9914.,0.920464067907,7.97735525519,78.
9.54,6338.,4.,3.,3567.,0.,0.,9912.,0.922250419072,11.9892554479,52.
9.56,6343.,1.,5.,3560.,0.,0.,9909.,0.923257411677,48.0093854072,13.
9.58,6351.,4.,3.,3552.,0.,0.,9910.,0.924328572537,12.016271443,52.
9.6,6359.,5.,1.,3544.,0.,0.,9909.,0.92558629684,9.62609748713,65.
9.62,6366.,2.,4.,3538.,0.,0.,9910.,0.926511682062,24.0893037336,26.
9.64,6370.,2.,0.,3540.,0.,0.,9912.,0.926906779661,24.0995762712,26.
9.66,6378.,0.,3.,3532.,0.,0.,9913.,0.927977248213,inf,0.
9.68,6383.,2.,2.,3528.,0.,0.,9915.,0.928517397882,24.1414523449,26.
9.7,6392.,3.,2.,3522.,0.,0.,9919.,0.929451635168,16.1104950096,39.
9.72,6397.,4.,0.,3520.,0.,0.,9921.,0.929991160941,12.0898850922,52.
9.74,6406.,3.,0.,3513.,0.,0.,9922.,0.931205712248,16.1408990123,39.
9.76,6408.,5.,1.,3506.,0.,0.,9920.,0.931684243176,9.68951612903,65.
9.78,6411.,2.,2.,3505.,0.,0.,9920.,0.932120424938,24.2351310484,26.
9.8,6422.,4.,0.,3497.,0.,0.,9923.,0.933437468508,12.1346870906,52.
9.82,6423.,2.,1.,3496.,0.,0.,9922.,0.933676910672,24.2755996775,26.
9.84,6423.,3.,2.,3490.,0.,0.,9918.,0.934053469217,16.1902601331,39.
9.86,6426.,3.,1.,3485.,0.,0.,9915.,0.934772489235,16.2027231467,39.
9.88,6437.,1.,1.,3478.,0.,0.,9917.,0.93618378697,48.6815569225,13.
9.9,6445.,4.,0.,3474.,0.,0.,9923.,0.936780517678,12.1781467298,52.
9.92,6450.,4.,1.,3464.,0.,0.,9919.,0.937885332734,12.1925093255,52.
9.94,6458.,4.,3.,3456.,0.,0.,9921.,0.938859296132,12.2051708497,52.
9.96,6465.,7.,3.,3444.,0.,0.,9919.,0.940066461414,6.98335085622,91.
9.98,6469.,8.,6.,3435.,0.,0.,9918.,0.940742938247,6.11482909861,104.
10.,6467.,12.,4.,3433.,0.,0.,9916.,0.94064177553,4.07611436063,156.
