t,s,e,i,r,c,o,n,reff,coal,reportr
5.,6250.,5.,3.,3734.,0.,0.,9992.,0.902164038923,9.3825060048,65.
5.02,6260.,5.,4.,3722.,0.,0.,9991.,0.903697943534,9.39845861275,65.
5.04,6265.,6.,2.,3718.,0.,0.,9991.,0.904419747003,7.83830447403,78.
5.06,6273.,6.,4.,3707.,0.,0.,9990.,0.905665280665,7.8490990991,78.
5.08,6272.,14.,2.,3701.,0.,0.,9989.,0.905611557328,3.36370007008,182.
5.1,6275.,9.,5.,3701.,0.,0.,9990.,0.905954030954,5.23440106773,117.
5.12,6276.,11.,4.,3696.,0.,0.,9987.,0.906370589459,4.28466096835,143.
5.14,6275.,12.,2.,3694.,0.,0.,9983.,0.906589278697,3.92855354102,156.
5.16,6282.,9.,4.,3687.,0.,0.,9982.,0.907691537074,5.24443999199,117.
5.18,6291.,8.,5.,3679.,0.,0.,9983.,0.908900900762,5.90785585495,104.
5.2,6288.,11.,6.,3675.,0.,0.,9980.,0.908740558039,4.29586445619,143.
5.22,6283.,18.,2.,3674.,0.,0.,9977.,0.908290992359,2.6239517557,234.
5.24,6284.,19.,3.,3669.,0.,0.,9975.,0.908617698091,2.48674317372,247.
5.26,6294.,18.,7.,3662.,0.,0.,9981.,0.90951654297,2.62749223525,234.
5.28,6293.,15.,2.,3668.,0.,0.,9978.,0.909645450761,3.15343756264,195.
5.3,6300.,12.,6.,3661.,0.,0.,9979.,0.910566034827,3.94578615092,156.
5.32,6308.,11.,6.,3652.,0.,0.,9977.,0.911905073978,4.31082398608,143.
5.34,6310.,10.,6.,3651.,0.,0.,9977.,0.912194200507,4.74340984264,130.
5.36,6309.,16.,3.,3651.,0.,0.,9979.,0.911866843448,2.96356724121,208.
5.38,6317.,13.,0.,3655.,0.,0.,9985.,0.912474480952,3.64989792381,169.
5.4,6321.,8.,8.,3649.,0.,0.,9986.,0.91296083748,5.93424544362,104.
5.42,6332.,10.,8.,3640.,0.,0.,9990.,0.914183414183,4.75375375375,130.
5.44,6327.,11.,5.,3644.,0.,0.,9987.,0.913735933637,4.31947895901,143.
5.46,6328.,11.,8.,3641.,0.,0.,9988.,0.913788854317,4.3197291295,143.
5.48,6334.,13.,2.,3642.,0.,0.,9991.,0.914380634879,3.65752253952,169.
5.5,6337.,9.,5.,3642.,0.,0.,9993.,0.914630626054,5.28453250609,117.
5.52,6337.,11.,5.,3639.,0.,0.,9992.,0.914722162345,4.32414113109,143.
5.54,6336.,15.,5.,3634.,0.,0.,9990.,0.914760914761,3.17117117117,195.
5.56,6335.,23.,1.,3629.,0.,0.,9988.,0.914799682696,2.06824276088,299.
5.58,6342.,14.,8.,3626.,0.,0.,9990.,0.915627165627,3.4009009009,182.
5.6,6337.,17.,8.,3625.,0.,0.,9987.,0.91518011877,2.79937448094,221.
5.62,6337.,19.,4.,3627.,0.,0.,9987.,0.91518011877,2.50470348295,247.
5.64,6330.,20.,9.,3629.,0.,0.,9988.,0.914077662426,2.37660192231,260.
5.66,6330.,17.,11.,3632.,0.,0.,9990.,0.913894663895,2.79544250132,221.
5.68,6321.,22.,14.,3631.,0.,0.,9988.,0.912778025939,2.15747533404,286.
5.7,6315.,19.,16.,3639.,0.,0.,9989.,0.911820310033,2.49550821693,247.
5.72,6310.,21.,9.,3649.,0.,0.,9989.,0.911098362044,2.25605308697,273.
5.74,6310.,18.,11.,3646.,0.,0.,9985.,0.911463348869,2.63311634118,234.
5.76,6302.,20.,11.,3653.,0.,0.,9986.,0.910216610948,2.36656318846,260.
5.78,6306.,16.,12.,3653.,0.,0.,9987.,0.910703144858,2.95978522079,208.
5.8,6310.,11.,14.,3648.,0.,0.,9983.,0.911645951964,4.30959904565,143.
5.82,6304.,14.,12.,3649.,0.,0.,9979.,0.911144171992,3.38424978168,182.
5.84,6298.,17.,11.,3652.,0.,0.,9978.,0.910368194644,2.7846556542,221.
5.86,6297.,16.,10.,3652.,0.,0.,9975.,0.91049739734,2.95911654135,208.
5.88,6297.,18.,8.,3654.,0.,0.,9977.,0.910314878066,2.62979853663,234.
5.9,6298.,18.,12.,3645.,0.,0.,9973.,0.910824611065,2.63127109863,234.
5.92,6285.,21.,12.,3652.,0.,0.,9970.,0.909218038732,2.25139704829,273.
5.94,6284.,15.,13.,3659.,0.,0.,9971.,0.908982202233,3.15113830107,195.
5.96,6284.,17.,7.,3662.,0.,0.,9970.,0.909073373968,2.78069502626,221.
5.98,6284.,16.,11.,3658.,0.,0.,9969.,0.909164563995,2.95478483298,208.
6.,6281.,16.,12.,3660.,0.,0.,9969.,0.90873052617,2.95337421005,208.
6.02,6284.,13.,11.,3659.,0.,0.,9967.,0.909346998943,3.63738799577,169.
6.04,6267.,23.,14.,3664.,0.,0.,9968.,0.906795977899,2.05014742829,299.
6.06,6264.,30.,4.,3671.,0.,0.,9969.,0.906270978495,1.57086969606,390.
6.08,6262.,29.,5.,3673.,0.,0.,9969.,0.905981619945,1.6245187668,377.
6.1,6256.,33.,9.,3673.,0.,0.,9971.,0.904931995093,1.42595344681,429.
6.12,6256.,27.,13.,3675.,0.,0.,9971.,0.904931995093,1.74283199055,351.
6.14,6242.,29.,15.,3682.,0.,0.,9968.,0.903178633165,1.61949272154,377.
6.16,6232.,28.,16.,3692.,0.,0.,9968.,0.901731695271,1.67464457693,364.
6.18,6212.,29.,20.,3704.,0.,0.,9965.,0.899108417924,1.61219440455,377.
6.2,6209.,28.,15.,3717.,0.,0.,9969.,0.898313618371,1.66829671983,364.
6.22,6206.,30.,12.,3722.,0.,0.,9970.,0.897789522413,1.55616850552,390.
6.24,6211.,26.,13.,3719.,0.,0.,9969.,0.898602976921,1.79720595384,338.
6.26,6201.,27.,15.,3722.,0.,0.,9965.,0.897516307075,1.72854992474,351.
6.28,6187.,31.,13.,3732.,0.,0.,9963.,0.895669747296,1.50241376966,403.
6.3,6175.,29.,15.,3738.,0.,0.,9957.,0.894471226273,1.60387944021,377.
6.32,6172.,28.,15.,3743.,0.,0.,9958.,0.893946884608,1.66018707141,364.
6.34,6168.,23.,13.,3753.,0.,0.,9957.,0.893457250794,2.01999030614,299.
6.36,6166.,19.,16.,3757.,0.,0.,9958.,0.893077850047,2.44421306329,247.
6.38,6158.,19.,17.,3765.,0.,0.,9959.,0.891829578194,2.44079674032,247.
6.4,6157.,25.,11.,3769.,0.,0.,9962.,0.89141622782,1.85414575386,325.
6.42,6151.,25.,7.,3776.,0.,0.,9959.,0.890815806344,1.8528968772,325.
6.44,6155.,23.,11.,3773.,0.,0.,9962.,0.891126665946,2.01472115779,299.
6.46,6155.,21.,15.,3774.,0.,0.,9965.,0.890858388977,2.20593505842,273.
6.48,6140.,35.,8.,3784.,0.,0.,9967.,0.888509002786,1.32007051843,455.
6.5,6123.,39.,13.,3790.,0.,0.,9965.,0.886226793778,1.18163572504,507.
6.52,6115.,36.,22.,3795.,0.,0.,9968.,0.884802521916,1.27804808721,468.
6.54,6104.,34.,26.,3807.,0.,0.,9971.,0.882945156338,1.35038670969,442.
6.56,6092.,34.,30.,3813.,0.,0.,9969.,0.881386143198,1.34800233666,442.
6.58,6077.,41.,16.,3837.,0.,0.,9971.,0.879039599454,1.11487949199,533.
6.6,6077.,25.,23.,3842.,0.,0.,9967.,0.879392379468,1.82913614929,325.
6.62,6063.,35.,23.,3846.,0.,0.,9967.,0.877366463175,1.30351588815,455.
6.64,6036.,38.,25.,3865.,0.,0.,9964.,0.873722323441,1.19562002155,494.
6.66,6014.,45.,26.,3879.,0.,0.,9964.,0.87053778217,1.00595477051,585.
6.68,5997.,47.,27.,3896.,0.,0.,9967.,0.867815714936,0.960136535674,611.
6.7,5978.,43.,31.,3912.,0.,0.,9964.,0.865326714634,1.04644160839,559.
6.72,5941.,51.,34.,3937.,0.,0.,9963.,0.860057211683,0.876921078579,663.
6.74,5920.,44.,39.,3958.,0.,0.,9961.,0.857189191694,1.013041772,572.
6.76,5896.,39.,37.,3988.,0.,0.,9960.,0.853799814643,1.13839975286,507.
6.78,5868.,53.,27.,4010.,0.,0.,9958.,0.849915800207,0.833879653033,689.
6.8,5852.,51.,23.,4035.,0.,0.,9961.,0.847343099627,0.863957670208,663.
6.82,5838.,47.,25.,4051.,0.,0.,9961.,0.845315963025,0.935243193134,611.
6.84,5821.,48.,23.,4067.,0.,0.,9959.,0.843023704882,0.913275680289,624.
6.86,5812.,44.,29.,4074.,0.,0.,9959.,0.841720283933,0.994760335558,572.
6.88,5798.,46.,25.,4094.,0.,0.,9963.,0.839355615778,0.948836783054,598.
6.9,5790.,37.,21.,4113.,0.,0.,9961.,0.83836578039,1.17824379947,481.
6.92,5773.,44.,22.,4120.,0.,0.,9959.,0.836072126488,0.988085240395,572.
6.94,5749.,45.,26.,4137.,0.,0.,9957.,0.832763575683,0.962304576345,585.
6.96,5737.,51.,20.,4149.,0.,0.,9957.,0.831025332005,0.847319946358,663.
6.98,5729.,50.,18.,4158.,0.,0.,9955.,0.830033226442,0.8632345555,650.
7.,5720.,44.,23.,4165.,0.,0.,9952.,0.828979099678,0.979702572347,572.
7.02,5712.,46.,27.,4169.,0.,0.,9954.,0.827653359299,0.935608145294,598.
7.04,5692.,49.,29.,4182.,0.,0.,9952.,0.82492116003,0.875426537174,637.
7.06,5671.,53.,31.,4200.,0.,0.,9955.,0.821630027431,0.806127574083,689.
7.08,5661.,39.,26.,4225.,0.,0.,9951.,0.820510887966,1.09401451729,507.
7.1,5642.,38.,30.,4242.,0.,0.,9952.,0.817674839228,1.11892346421,494.
7.12,5635.,35.,16.,4266.,0.,0.,9952.,0.816660354316,1.21332395498,455.
7.14,5627.,35.,8.,4280.,0.,0.,9950.,0.815664862775,1.21184493898,455.
7.16,5626.,39.,7.,4284.,0.,0.,9956.,0.815028432797,1.08670457706,507.
7.18,5615.,31.,19.,4291.,0.,0.,9956.,0.813434882715,1.36447141617,403.
7.2,5601.,38.,14.,4301.,0.,0.,9954.,0.811569759355,1.11056914438,494.
7.22,5604.,38.,11.,4307.,0.,0.,9960.,0.811515291937,1.11049461002,494.
7.24,5607.,24.,25.,4302.,0.,0.,9958.,0.812112796824,1.75957772645,312.
7.26,5594.,28.,15.,4320.,0.,0.,9957.,0.810311261501,1.50486377136,364.
7.28,5606.,20.,15.,4321.,0.,0.,9962.,0.811641931648,2.11026902228,260.
7.3,5609.,19.,4.,4332.,0.,0.,9964.,0.811913272396,2.22207842972,247.
7.32,5612.,19.,6.,4328.,0.,0.,9965.,0.812266007951,2.22304381123,247.
7.34,5612.,14.,8.,4329.,0.,0.,9963.,0.812429064462,3.017593668,182.
7.36,5607.,17.,4.,4335.,0.,0.,9963.,0.811705232437,2.48286306392,221.
7.38,5615.,11.,8.,4327.,0.,0.,9961.,0.813026572865,3.84339834445,143.
7.4,5619.,11.,8.,4322.,0.,0.,9960.,0.813687442076,3.84652245345,143.
7.42,5624.,9.,2.,4324.,0.,0.,9959.,0.814493268555,4.70596110721,117.
7.44,5630.,10.,2.,4317.,0.,0.,9959.,0.815362215854,4.23988352244,130.
7.46,5632.,7.,6.,4311.,0.,0.,9956.,0.815897641932,6.0609539115,91.
7.48,5638.,7.,4.,4307.,0.,0.,9956.,0.816766851068,6.06741089365,91.
7.5,5648.,10.,1.,4299.,0.,0.,9958.,0.818051199654,4.2538662382,130.
7.52,5654.,9.,3.,4289.,0.,0.,9955.,0.819167020824,4.73296500921,117.
7.54,5669.,5.,6.,4275.,0.,0.,9955.,0.821340261948,8.54193872426,65.
7.56,5676.,7.,3.,4268.,0.,0.,9954.,0.822437056614,6.10953242056,91.
7.58,5682.,8.,2.,4262.,0.,0.,9954.,0.823306440395,5.35149186257,104.
7.6,5691.,9.,1.,4254.,0.,0.,9955.,0.824527682262,4.76393771974,117.
7.62,5698.,5.,2.,4250.,0.,0.,9955.,0.825541861453,8.58563535912,65.
7.64,5705.,2.,3.,4242.,0.,0.,9952.,0.826805203438,21.4969352894,26.
7.66,5713.,3.,3.,4234.,0.,0.,9953.,0.827881427324,14.3499447403,39.
7.68,5719.,4.,3.,4230.,0.,0.,9956.,0.828501174398,10.7705152672,52.
7.7,5741.,5.,0.,4213.,0.,0.,9959.,0.831437740892,8.64695250527,65.
7.72,5750.,2.,3.,4204.,0.,0.,9959.,0.83274116184,21.6512702079,26.
7.74,5760.,4.,1.,4198.,0.,0.,9963.,0.833854492391,10.8401084011,52.
7.76,5763.,3.,2.,4192.,0.,0.,9960.,0.834540083411,14.4653614458,39.
7.78,5775.,1.,4.,4183.,0.,0.,9963.,0.836025988465,43.4733514002,13.
7.8,5776.,4.,0.,4182.,0.,0.,9962.,0.836254690902,10.8713109817,52.
7.82,5787.,5.,1.,4172.,0.,0.,9965.,0.837595044193,8.71098845961,65.
7.84,5799.,5.,1.,4159.,0.,0.,9964.,0.839416128833,8.72992773986,65.
7.86,5797.,7.,4.,4153.,0.,0.,9961.,0.839379348691,6.23538944742,91.
7.88,5796.,9.,2.,4155.,0.,0.,9962.,0.839150309638,4.84842401124,117.
7.9,5800.,8.,3.,4153.,0.,0.,9964.,0.839560880709,5.45714572461,104.
7.92,5808.,7.,2.,4147.,0.,0.,9964.,0.840718895717,6.24534036818,91.
7.94,5819.,4.,5.,4138.,0.,0.,9966.,0.842142129394,10.9478476821,52.
7.96,5820.,6.,2.,4134.,0.,0.,9962.,0.842625052121,7.30275045172,78.
7.98,5824.,9.,4.,4127.,0.,0.,9964.,0.843034925733,4.87086845979,117.
8.,5832.,13.,7.,4115.,0.,0.,9967.,0.84393884434,3.37575537736,169.
8.02,5833.,16.,6.,4111.,0.,0.,9966.,0.84416824897,2.74354680915,208.
8.04,5844.,14.,6.,4103.,0.,0.,9967.,0.84567534402,3.14107984922,182.
8.06,5840.,14.,8.,4102.,0.,0.,9964.,0.845350955748,3.13987497849,182.
8.08,5843.,17.,5.,4100.,0.,0.,9965.,0.845700335791,2.58684808595,221.
8.1,5842.,15.,8.,4097.,0.,0.,9962.,0.845810232731,2.93214214013,195.
8.12,5843.,12.,9.,4099.,0.,0.,9963.,0.845870104,3.66543711733,156.
8.14,5842.,14.,8.,4097.,0.,0.,9961.,0.845895144911,3.14189625253,182.
8.16,5840.,21.,7.,4094.,0.,0.,9962.,0.845520670857,2.0936702326,273.
8.18,5844.,20.,11.,4087.,0.,0.,9962.,0.846099794604,2.19985946597,260.
8.2,5842.,24.,17.,4082.,0.,0.,9965.,0.845555598441,1.83203712995,312.
8.22,5831.,26.,17.,4092.,0.,0.,9966.,0.843878803316,1.68775760663,338.
8.24,5817.,32.,15.,4103.,0.,0.,9967.,0.841768219741,1.36787335708,416.
8.26,5818.,30.,13.,4107.,0.,0.,9968.,0.841828466477,1.45916934189,390.
8.28,5810.,26.,15.,4115.,0.,0.,9966.,0.840839623952,1.6816792479,338.
8.3,5803.,30.,11.,4120.,0.,0.,9964.,0.839995136337,1.45599156965,390.
8.32,5799.,29.,10.,4123.,0.,0.,9961.,0.839668939634,1.50561327107,377.
8.34,5804.,18.,14.,4125.,0.,0.,9961.,0.840392916992,2.4278017602,234.
8.36,5805.,24.,7.,4127.,0.,0.,9963.,0.840368980613,1.82079945799,312.
8.38,5806.,22.,8.,4128.,0.,0.,9964.,0.840429391965,1.98646947192,286.
8.4,5807.,16.,9.,4129.,0.,0.,9961.,0.840827303406,2.73268873607,208.
8.42,5802.,14.,12.,4130.,0.,0.,9958.,0.840356420041,3.12132384587,182.
8.44,5804.,16.,10.,4128.,0.,0.,9958.,0.840646098228,2.73209981924,208.
8.46,5796.,18.,13.,4128.,0.,0.,9955.,0.839740370127,2.42591662481,234.
8.48,5786.,21.,14.,4136.,0.,0.,9957.,0.838123160359,2.07535258756,273.
8.5,5784.,16.,5.,4153.,0.,0.,9958.,0.837749316359,2.72268527817,208.
8.52,5794.,13.,4.,4145.,0.,0.,9956.,0.839366288593,3.35746515437,169.
8.54,5794.,10.,10.,4137.,0.,0.,9951.,0.839788038311,4.36689779922,130.
8.56,5795.,10.,9.,4135.,0.,0.,9949.,0.84010182701,4.36852950045,130.
8.58,5803.,13.,3.,4135.,0.,0.,9954.,0.840839013307,3.36335605323,169.
8.6,5811.,9.,4.,4129.,0.,0.,9953.,0.842082789109,4.86536722596,117.
8.62,5816.,6.,8.,4123.,0.,0.,9953.,0.842807348384,7.30433035266,78.
8.64,5815.,9.,3.,4127.,0.,0.,9954.,0.842577780869,4.86822717835,117.
8.66,5816.,7.,2.,4126.,0.,0.,9951.,0.842976739872,6.26211292476,91.
8.68,5821.,6.,4.,4115.,0.,0.,9946.,0.844125585856,7.31575507742,78.
8.7,5826.,4.,5.,4110.,0.,0.,9945.,0.844935607379,10.9841628959,52.
8.72,5817.,10.,4.,4110.,0.,0.,9941.,0.843969806474,4.38864299366,130.
8.74,5830.,8.,0.,4106.,0.,0.,9944.,0.845600748809,5.49640486726,104.
8.76,5837.,4.,1.,4102.,0.,0.,9944.,0.846616049879,11.0060086484,52.
8.78,5842.,5.,0.,4095.,0.,0.,9942.,0.847511721833,8.81412190706,65.
8.8,5848.,8.,0.,4093.,0.,0.,9949.,0.847785243202,5.51060408081,104.
8.82,5855.,8.,3.,4082.,0.,0.,9948.,0.848885357706,5.51775482509,104.
8.84,5857.,6.,6.,4082.,0.,0.,9951.,0.848919320053,7.35730077379,78.
8.86,5860.,13.,1.,4079.,0.,0.,9953.,0.849183470001,3.39673388001,169.
8.88,5861.,13.,2.,4075.,0.,0.,9951.,0.849499083973,3.39799633589,169.
8.9,5871.,9.,7.,4064.,0.,0.,9951.,0.850948493773,4.91659129736,117.
8.92,5873.,9.,7.,4063.,0.,0.,9952.,0.851152841331,4.91777197213,117.
8.94,5878.,8.,7.,4059.,0.,0.,9952.,0.851877473411,5.53720357717,104.
8.96,5871.,10.,6.,4058.,0.,0.,9945.,0.85146188653,4.42760180995,130.
8.98,5876.,13.,4.,4054.,0.,0.,9947.,0.852015683121,3.40806273248,169.
9.,5876.,12.,4.,4055.,0.,0.,9947.,0.852015683121,3.69206796019,156.
9.02,5877.,10.,4.,4056.,0.,0.,9947.,0.852160682386,4.43123554841,130.
9.04,5879.,7.,9.,4052.,0.,0.,9947.,0.852450680917,6.33249077252,91.
9.06,5889.,6.,5.,4044.,0.,0.,9944.,0.854158286404,7.40270514883,78.
9.08,5892.,10.,2.,4040.,0.,0.,9944.,0.854593415434,4.44388576026,130.
9.1,5901.,9.,3.,4031.,0.,0.,9944.,0.855898802525,4.94519308126,117.
9.12,5899.,13.,3.,4031.,0.,0.,9946.,0.855436665687,3.42174666275,169.
9.14,5906.,10.,6.,4026.,0.,0.,9948.,0.856279576877,4.45265379976,130.
9.16,5913.,9.,5.,4020.,0.,0.,9947.,0.857380655938,4.95375490098,117.
9.18,5917.,6.,3.,4021.,0.,0.,9947.,0.857960652999,7.43565899266,78.
9.2,5917.,4.,4.,4021.,0.,0.,9946.,0.858046914879,11.1546098934,52.
9.22,5927.,4.,3.,4015.,0.,0.,9949.,0.859237882431,11.1700924716,52.
9.24,5930.,6.,9.,4007.,0.,0.,9952.,0.859413647044,7.44825160772,78.
9.26,5937.,8.,5.,4003.,0.,0.,9953.,0.860341682832,5.59222093841,104.
9.28,5940.,10.,7.,3994.,0.,0.,9951.,0.860949421396,4.47693699126,130.
9.3,5938.,11.,10.,3992.,0.,0.,9951.,0.860659539436,4.06857236824,143.
9.32,5930.,13.,8.,4000.,0.,0.,9951.,0.859500011595,3.43800004638,169.
9.34,5934.,12.,6.,3999.,0.,0.,9951.,0.860079775515,3.72701236057,156.
9.36,5942.,12.,4.,3993.,0.,0.,9951.,0.861239303356,3.73203698121,156.
9.38,5953.,10.,0.,3985.,0.,0.,9948.,0.863093857289,4.4880880579,130.
9.4,5954.,8.,3.,3981.,0.,0.,9946.,0.863412427106,5.61218077619,104.
9.42,5955.,8.,2.,3983.,0.,0.,9948.,0.863383826668,5.61199487334,104.
9.44,5967.,6.,2.,3976.,0.,0.,9951.,0.864862827856,7.49547784142,78.
9.46,5980.,6.,2.,3969.,0.,0.,9957.,0.866224766496,7.50728130963,78.
9.48,5987.,3.,4.,3965.,0.,0.,9959.,0.867064580163,15.0291193895,39.
9.5,5987.,5.,6.,3961.,0.,0.,9959.,0.867064580163,9.0174716337,65.
9.52,5985.,4.,9.,3957.,0.,0.,9955.,0.867123208283,11.2726017077,52.
9.54,5983.,11.,7.,3957.,0.,0.,9958.,0.866572295951,4.09652358086,143.
9.56,5981.,14.,4.,3955.,0.,0.,9954.,0.866630732137,3.21891414794,182.
9.58,5982.,14.,7.,3950.,0.,0.,9953.,0.866862716305,3.21977580342,182.
9.6,5980.,11.,14.,3948.,0.,0.,9953.,0.866572892595,4.09652640136,143.
9.62,5981.,13.,12.,3949.,0.,0.,9955.,0.866543677317,3.46617470927,169.
9.64,5975.,16.,2.,3960.,0.,0.,9953.,0.86584833332,2.81400708329,208.
9.66,5979.,17.,0.,3960.,0.,0.,9956.,0.866166903607,2.64945170515,221.
9.68,5983.,15.,5.,3953.,0.,0.,9956.,0.866746376364,3.00472077139,195.
9.7,5978.,17.,5.,3954.,0.,0.,9954.,0.866196040247,2.64954082899,221.
9.72,5983.,18.,5.,3951.,0.,0.,9957.,0.866659327416,2.50368250142,234.
9.74,5982.,17.,7.,3950.,0.,0.,9956.,0.866601508174,2.65078108383,221.
9.76,5976.,18.,9.,3955.,0.,0.,9958.,0.865558422297,2.50050210886,234.
9.78,5974.,16.,8.,3956.,0.,0.,9954.,0.865616451059,2.81325346594,208.
9.8,5973.,14.,10.,3951.,0.,0.,9948.,0.865993551081,3.21654747544,182.
9.82,5973.,12.,10.,3951.,0.,0.,9946.,0.866167690142,3.75339332395,156.
9.84,5972.,13.,6.,3957.,0.,0.,9948.,0.865848566391,3.46339426557,169.
9.86,5978.,9.,9.,3953.,0.,0.,9949.,0.866631358389,5.00720340403,117.
9.88,5986.,11.,11.,3945.,0.,0.,9953.,0.867442363725,4.10063662852,143.
9.9,5981.,12.,12.,3949.,0.,0.,9954.,0.866630732137,3.75539983926,156.
9.92,5985.,14.,7.,3948.,0.,0.,9954.,0.867210321324,3.22106690778,182.
9.94,5985.,14.,6.,3949.,0.,0.,9954.,0.867210321324,3.22106690778,182.
9.96,5983.,12.,10.,3949.,0.,0.,9954.,0.866920526731,3.75665561583,156.
9.98,5979.,18.,4.,3952.,0.,0.,9953.,0.86642798074,2.50301416658,234.
10.,5978.,13.,11.,3949.,0.,0.,9951.,0.866457178637,3.46582871455,169.
