t,s,e,i,r,c,o,n,reff,coal,reportr
5.,6250.,5.,3.,3734.,0.,0.,9992.,0.902164038923,9.3825060048,65.
5.02,6254.,5.,2.,3730.,0.,0.,9991.,0.902831779371,9.38945050545,65.
5.04,6263.,6.,0.,3723.,0.,0.,9992.,0.904040540124,7.83501801441,78.
5.06,6276.,5.,2.,3709.,0.,0.,9992.,0.905917041325,9.42153722978,65.
5.08,6281.,3.,4.,3706.,0.,0.,9994.,0.90645733594,15.7119271563,39.
5.1,6280.,6.,4.,3703.,0.,0.,9993.,0.906403713369,7.85549884919,78.
5.12,6286.,3.,1.,3700.,0.,0.,9990.,0.907542157542,15.7307307307,39.
5.14,6293.,1.,4.,3690.,0.,0.,9988.,0.908734712424,47.2542050461,13.
5.16,6294.,5.,5.,3686.,0.,0.,9990.,0.908697158697,9.45045045045,65.
5.18,6296.,9.,6.,3681.,0.,0.,9992.,0.90880396625,5.25086736056,117.
5.2,6304.,4.,8.,3675.,0.,0.,9991.,0.910049814063,11.8306475828,52.
5.22,6299.,11.,6.,3676.,0.,0.,9992.,0.909237004989,4.29821129631,143.
5.24,6298.,13.,6.,3676.,0.,0.,9993.,0.909001685795,3.63600674318,169.
5.26,6297.,13.,7.,3676.,0.,0.,9993.,0.908857353994,3.63542941598,169.
5.28,6299.,16.,3.,3676.,0.,0.,9994.,0.909055048414,2.95442890734,208.
5.3,6303.,8.,6.,3676.,0.,0.,9993.,0.909723344803,5.91320174122,104.
5.32,6302.,13.,3.,3673.,0.,0.,9991.,0.909761092676,3.6390443707,169.
5.34,6307.,12.,3.,3670.,0.,0.,9992.,0.910391774958,3.94503102482,156.
5.36,6308.,17.,6.,3661.,0.,0.,9992.,0.910536121205,2.78516931192,221.
5.38,6308.,17.,10.,3654.,0.,0.,9989.,0.910809582849,2.78600578283,221.
5.4,6315.,11.,12.,3649.,0.,0.,9987.,0.912002911477,4.31128649062,143.
5.42,6312.,20.,6.,3651.,0.,0.,9989.,0.91138714124,2.36960656722,260.
5.44,6308.,23.,8.,3649.,0.,0.,9988.,0.910900773236,2.05942783514,299.
5.46,6305.,22.,8.,3654.,0.,0.,9989.,0.910376414055,2.15179879686,286.
5.48,6304.,23.,9.,3651.,0.,0.,9987.,0.910414307831,2.05832800031,299.
5.5,6300.,24.,12.,3652.,0.,0.,9988.,0.909745540803,1.97111533841,312.
5.52,6288.,29.,2.,3670.,0.,0.,9989.,0.907921790893,1.62799769402,377.
5.54,6297.,17.,7.,3671.,0.,0.,9992.,0.908948312496,2.78031248528,221.
5.56,6300.,13.,8.,3669.,0.,0.,9990.,0.909563409563,3.63825363825,169.
5.58,6298.,14.,7.,3666.,0.,0.,9985.,0.909729979585,3.37899706703,182.
5.6,6293.,15.,6.,3672.,0.,0.,9986.,0.908916714169,3.15091127579,195.
5.62,6291.,21.,5.,3668.,0.,0.,9985.,0.908718847502,2.25016095572,273.
5.64,6292.,18.,8.,3667.,0.,0.,9985.,0.908863294942,2.62560507428,234.
5.66,6288.,18.,10.,3661.,0.,0.,9977.,0.909013808683,2.62603989175,234.
5.68,6288.,17.,9.,3664.,0.,0.,9978.,0.908922706878,2.78023416222,221.
5.7,6293.,13.,10.,3663.,0.,0.,9979.,0.909554294788,3.63821717915,169.
5.72,6292.,18.,8.,3662.,0.,0.,9980.,0.909318637275,2.62692050768,234.
5.74,6295.,14.,8.,3661.,0.,0.,9978.,0.909934548314,3.37975689374,182.
5.76,6304.,16.,4.,3656.,0.,0.,9980.,0.911052874981,2.96092184369,208.
5.78,6310.,15.,9.,3646.,0.,0.,9980.,0.911919993834,3.16132264529,195.
5.8,6304.,9.,6.,3659.,0.,0.,9978.,0.911235487303,5.26491614886,117.
5.82,6312.,7.,5.,3651.,0.,0.,9975.,0.912666281087,6.77980665951,91.
5.84,6319.,12.,4.,3642.,0.,0.,9977.,0.91349526989,3.95847950286,156.
5.86,6320.,10.,4.,3637.,0.,0.,9971.,0.914189611412,4.75378597934,130.
5.88,6323.,5.,6.,3635.,0.,0.,9969.,0.914807055719,9.51399337948,65.
5.9,6328.,7.,3.,3631.,0.,0.,9969.,0.915530452094,6.80108335841,91.
5.92,6329.,9.,5.,3624.,0.,0.,9967.,0.915858872742,5.29162904251,117.
5.94,6331.,3.,10.,3625.,0.,0.,9969.,0.915964489919,15.8767178253,39.
5.96,6332.,11.,0.,3628.,0.,0.,9971.,0.915925414471,4.32982923205,143.
5.98,6335.,9.,4.,3623.,0.,0.,9971.,0.916359365236,5.29452077692,117.
6.,6345.,5.,7.,3612.,0.,0.,9969.,0.917989999769,9.54709599759,65.
6.02,6344.,6.,4.,3614.,0.,0.,9968.,0.917937399679,7.95545746388,78.
6.04,6344.,11.,2.,3613.,0.,0.,9970.,0.917753259779,4.33846995532,143.
6.06,6346.,9.,7.,3614.,0.,0.,9976.,0.917490438591,5.30105586742,117.
6.08,6341.,16.,6.,3611.,0.,0.,9974.,0.916951381284,2.98009198917,208.
6.1,6338.,19.,4.,3610.,0.,0.,9971.,0.916793316001,2.50911854906,247.
6.12,6338.,16.,7.,3610.,0.,0.,9971.,0.916793316001,2.979578277,208.
6.14,6335.,15.,10.,3614.,0.,0.,9974.,0.916083740803,3.17575696812,195.
6.16,6332.,18.,7.,3617.,0.,0.,9974.,0.915649920563,2.64521088163,234.
6.18,6330.,21.,6.,3620.,0.,0.,9977.,0.915085465802,2.26592591532,273.
6.2,6330.,21.,3.,3620.,0.,0.,9974.,0.915360707069,2.26660746512,273.
6.22,6333.,15.,12.,3613.,0.,0.,9973.,0.915886354696,3.17507269628,195.
6.24,6332.,19.,4.,3622.,0.,0.,9977.,0.915374592332,2.50523572638,247.
6.26,6323.,24.,9.,3616.,0.,0.,9972.,0.914531843007,1.98148565985,312.
6.28,6315.,22.,12.,3621.,0.,0.,9970.,0.913557981637,2.15931886569,286.
6.3,6301.,28.,6.,3636.,0.,0.,9971.,0.911441256567,1.69267661934,364.
6.32,6299.,18.,17.,3638.,0.,0.,9972.,0.911060585023,2.63195280118,234.
6.34,6291.,17.,18.,3645.,0.,0.,9971.,0.909994754017,2.78351336523,221.
6.36,6290.,20.,7.,3653.,0.,0.,9970.,0.909941362549,2.36584754263,260.
6.38,6293.,17.,9.,3649.,0.,0.,9968.,0.910558016422,2.78523628553,221.
6.4,6289.,13.,13.,3654.,0.,0.,9969.,0.909887960369,3.63955184148,169.
6.42,6289.,13.,4.,3660.,0.,0.,9966.,0.91016185801,3.64064743204,169.
6.44,6292.,11.,9.,3654.,0.,0.,9966.,0.91059602649,4.30463576159,143.
6.46,6289.,13.,13.,3649.,0.,0.,9964.,0.910344548065,3.64137819226,169.
6.48,6281.,19.,10.,3653.,0.,0.,9963.,0.909277789359,2.4885497393,247.
6.5,6265.,22.,12.,3660.,0.,0.,9959.,0.907325805031,2.14458826644,286.
6.52,6269.,18.,11.,3664.,0.,0.,9962.,0.90763169274,2.62204711236,234.
6.54,6264.,18.,15.,3663.,0.,0.,9960.,0.907089898054,2.62048192771,234.
6.56,6258.,19.,12.,3669.,0.,0.,9958.,0.906403046642,2.48068202239,247.
6.58,6252.,17.,8.,3679.,0.,0.,9956.,0.905715919276,2.77042516484,221.
6.6,6244.,23.,6.,3680.,0.,0.,9953.,0.904829622302,2.04570175477,299.
6.62,6240.,16.,12.,3680.,0.,0.,9948.,0.904704463209,2.94028950543,208.
6.64,6237.,20.,10.,3683.,0.,0.,9950.,0.904087746424,2.3506281407,260.
6.66,6237.,18.,3.,3692.,0.,0.,9950.,0.904087746424,2.61180904523,234.
6.68,6243.,9.,12.,3689.,0.,0.,9953.,0.904684710447,5.22706721591,117.
6.7,6246.,9.,8.,3693.,0.,0.,9956.,0.90484671014,5.22800321414,117.
6.72,6237.,15.,8.,3689.,0.,0.,9949.,0.904178618647,3.13448587798,195.
6.74,6236.,11.,7.,3693.,0.,0.,9947.,0.904215418642,4.27447288813,143.
6.76,6235.,17.,6.,3689.,0.,0.,9947.,0.904070419377,2.76539187103,221.
6.78,6238.,19.,5.,3687.,0.,0.,9949.,0.904323588764,2.47499087451,247.
6.8,6243.,12.,10.,3683.,0.,0.,9948.,0.905139417278,3.9222708082,156.
6.82,6240.,15.,7.,3683.,0.,0.,9945.,0.904977375566,3.13725490196,195.
6.84,6243.,13.,6.,3681.,0.,0.,9943.,0.905594581422,3.62237832569,169.
6.86,6241.,17.,6.,3680.,0.,0.,9944.,0.905213425955,2.76888812645,221.
6.88,6237.,12.,10.,3684.,0.,0.,9943.,0.904724235837,3.92047168863,156.
6.9,6240.,9.,5.,3687.,0.,0.,9941.,0.905341514938,5.23086208631,117.
6.92,6237.,18.,6.,3679.,0.,0.,9940.,0.904997291441,2.61443661972,234.
6.94,6234.,22.,5.,3678.,0.,0.,9939.,0.904652998677,2.13827072414,286.
6.96,6233.,16.,7.,3678.,0.,0.,9934.,0.904963141348,2.94113020938,208.
6.98,6238.,13.,10.,3674.,0.,0.,9935.,0.905597924974,3.6223916999,169.
7.,6250.,9.,7.,3671.,0.,0.,9937.,0.907157399308,5.24135386267,117.
7.02,6247.,12.,5.,3670.,0.,0.,9934.,0.906995787583,3.93031507952,156.
7.04,6243.,14.,5.,3672.,0.,0.,9934.,0.906415031516,3.36668440277,182.
7.06,6246.,10.,6.,3671.,0.,0.,9933.,0.906941895314,4.71609785563,130.
7.08,6250.,14.,3.,3667.,0.,0.,9934.,0.907431354633,3.37045931721,182.
7.1,6253.,8.,15.,3656.,0.,0.,9932.,0.90804973822,5.90232329843,104.
7.12,6249.,15.,7.,3659.,0.,0.,9930.,0.907651638392,3.14652567976,195.
7.14,6244.,18.,6.,3662.,0.,0.,9930.,0.906925400883,2.62000671366,234.
7.16,6249.,12.,6.,3664.,0.,0.,9931.,0.907560242597,3.93276105125,156.
7.18,6253.,13.,3.,3665.,0.,0.,9934.,0.907866921683,3.63146768673,169.
7.2,6264.,8.,5.,3659.,0.,0.,9936.,0.909280936455,5.91032608696,104.
7.22,6269.,10.,6.,3651.,0.,0.,9936.,0.910006735414,4.73203502415,130.
7.24,6271.,14.,1.,3652.,0.,0.,9938.,0.910113859777,3.38042290774,182.
7.26,6277.,12.,6.,3645.,0.,0.,9940.,0.910801346541,3.94680583501,156.
7.28,6283.,11.,2.,3646.,0.,0.,9942.,0.911488556706,4.30885499534,143.
7.3,6285.,11.,4.,3641.,0.,0.,9941.,0.911870420094,4.31066016772,143.
7.32,6280.,13.,9.,3638.,0.,0.,9940.,0.911236650673,3.64494660269,169.
7.34,6275.,18.,7.,3641.,0.,0.,9941.,0.910419552282,2.63010092881,234.
7.36,6275.,16.,12.,3638.,0.,0.,9941.,0.910419552282,2.95886354491,208.
7.38,6276.,16.,9.,3639.,0.,0.,9940.,0.910656245163,2.95963279678,208.
7.4,6284.,22.,4.,3634.,0.,0.,9944.,0.911450275388,2.15433701455,286.
7.42,6293.,23.,6.,3623.,0.,0.,9945.,0.912663882121,2.06341399436,299.
7.44,6297.,14.,12.,3624.,0.,0.,9947.,0.913060373827,3.39136710279,182.
7.46,6293.,17.,10.,3630.,0.,0.,9950.,0.912205257055,2.79027490393,221.
7.48,6288.,15.,10.,3637.,0.,0.,9950.,0.91148047932,3.15979899497,195.
7.5,6287.,18.,4.,3644.,0.,0.,9953.,0.911060832065,2.63195351485,234.
7.52,6297.,14.,9.,3638.,0.,0.,9958.,0.912051771286,3.38762086477,182.
7.54,6307.,13.,4.,3634.,0.,0.,9958.,0.91350016222,3.65400064888,169.
7.56,6306.,20.,4.,3631.,0.,0.,9961.,0.91308024372,2.37400863367,260.
7.58,6311.,17.,7.,3626.,0.,0.,9961.,0.913804221078,2.79516585271,221.
7.6,6302.,17.,12.,3627.,0.,0.,9958.,0.912775966753,2.79202060418,221.
7.62,6294.,24.,12.,3629.,0.,0.,9959.,0.911525716978,1.97497238679,312.
7.64,6291.,25.,7.,3634.,0.,0.,9957.,0.911274248499,1.89545043688,325.
7.66,6285.,24.,10.,3636.,0.,0.,9955.,0.910588030754,1.9729407333,312.
7.68,6285.,17.,18.,3638.,0.,0.,9958.,0.910313702164,2.78448897133,221.
7.7,6278.,21.,13.,3647.,0.,0.,9959.,0.90920852418,2.25137348845,273.
7.72,6258.,29.,14.,3654.,0.,0.,9955.,0.906676196731,1.62576421483,377.
7.74,6255.,35.,3.,3664.,0.,0.,9957.,0.906059517464,1.3461455688,455.
7.76,6249.,28.,12.,3668.,0.,0.,9957.,0.905190395624,1.68106787759,364.
7.78,6246.,22.,22.,3670.,0.,0.,9960.,0.904483317887,2.13786966046,286.
7.8,6230.,29.,22.,3681.,0.,0.,9962.,0.901985236205,1.61735283733,377.
7.82,6230.,27.,10.,3693.,0.,0.,9960.,0.902166357739,1.73750557787,351.
7.84,6227.,21.,16.,3695.,0.,0.,9959.,0.901822472136,2.23308421672,273.
7.86,6233.,17.,9.,3703.,0.,0.,9962.,0.902419579016,2.76034224169,221.
7.88,6232.,17.,1.,3710.,0.,0.,9960.,0.902455977757,2.76045357902,221.
7.9,6243.,11.,4.,3705.,0.,0.,9963.,0.903776665972,4.27239878459,143.
7.92,6242.,13.,10.,3696.,0.,0.,9961.,0.903813333539,3.61525333416,169.
7.94,6234.,20.,10.,3699.,0.,0.,9963.,0.902473768327,2.34643179765,260.
7.96,6227.,13.,14.,3708.,0.,0.,9962.,0.901550893395,3.60620357358,169.
7.98,6227.,12.,12.,3710.,0.,0.,9961.,0.901641401466,3.90711273968,156.
8.,6222.,12.,10.,3720.,0.,0.,9964.,0.900646172374,3.90280008029,156.
8.02,6219.,19.,8.,3720.,0.,0.,9966.,0.900031260131,2.46324344878,247.
8.04,6217.,16.,9.,3722.,0.,0.,9964.,0.899922412994,2.92474784223,208.
8.06,6214.,25.,2.,3721.,0.,0.,9962.,0.899668741217,1.87131098173,325.
8.08,6214.,15.,10.,3722.,0.,0.,9961.,0.899759060335,3.1191647425,195.
8.1,6205.,21.,8.,3725.,0.,0.,9959.,0.898636332038,2.22519472695,273.
8.12,6205.,16.,8.,3731.,0.,0.,9960.,0.898546107507,2.9202748494,208.
8.14,6205.,15.,2.,3737.,0.,0.,9959.,0.898636332038,3.11527261773,195.
8.16,6210.,7.,11.,3732.,0.,0.,9960.,0.899270157553,6.68029259897,91.
8.18,6208.,9.,9.,3733.,0.,0.,9959.,0.899070805688,5.19463132175,117.
8.2,6208.,11.,5.,3732.,0.,0.,9956.,0.899341718948,4.25143358048,143.
8.22,6209.,12.,1.,3731.,0.,0.,9953.,0.899757707379,3.89895006531,156.
8.24,6216.,10.,2.,3727.,0.,0.,9955.,0.900591121586,4.68307383225,130.
8.26,6230.,9.,2.,3718.,0.,0.,9959.,0.902256945785,5.2130401312,117.
8.28,6235.,6.,7.,3709.,0.,0.,9957.,0.903162444666,7.82740785377,78.
8.3,6237.,8.,6.,3710.,0.,0.,9961.,0.903089356181,5.87008081518,104.
8.32,6237.,11.,8.,3704.,0.,0.,9960.,0.903180027804,4.26957831325,143.
8.34,6241.,11.,7.,3701.,0.,0.,9960.,0.903759267841,4.27231653888,143.
8.36,6236.,12.,4.,3706.,0.,0.,9958.,0.903216586587,3.91393854188,156.
8.38,6239.,11.,7.,3700.,0.,0.,9957.,0.903741859225,4.27223424361,143.
8.4,6242.,8.,5.,3702.,0.,0.,9957.,0.904176420145,5.87714673094,104.
8.42,6241.,9.,6.,3695.,0.,0.,9951.,0.904576656386,5.22644290356,117.
8.44,6252.,8.,4.,3689.,0.,0.,9953.,0.905988917141,5.88892796142,104.
8.46,6251.,12.,2.,3689.,0.,0.,9954.,0.905753002272,3.92492967651,156.
8.48,6249.,12.,3.,3687.,0.,0.,9951.,0.905736184226,3.92485679831,156.
8.5,6242.,20.,0.,3687.,0.,0.,9949.,0.904903469232,2.35274902,260.
8.52,6245.,12.,7.,3683.,0.,0.,9947.,0.90552041203,3.92392178546,156.
8.54,6245.,11.,5.,3684.,0.,0.,9945.,0.905702517693,4.28150281091,143.
8.56,6251.,13.,6.,3676.,0.,0.,9946.,0.906481538771,3.62592615508,169.
8.58,6262.,12.,3.,3669.,0.,0.,9946.,0.908076691055,3.93499899457,156.
8.6,6262.,11.,5.,3667.,0.,0.,9945.,0.908168000928,4.29315782257,143.
8.62,6263.,16.,2.,3665.,0.,0.,9946.,0.908221704899,2.95172054092,208.
8.64,6267.,13.,8.,3660.,0.,0.,9948.,0.908619049828,3.63447619931,169.
8.66,6266.,10.,14.,3659.,0.,0.,9949.,0.908382752035,4.72359031058,130.
8.68,6261.,15.,8.,3661.,0.,0.,9945.,0.908022972503,3.14781297134,195.
8.7,6257.,13.,10.,3663.,0.,0.,9943.,0.907625387787,3.63050155115,169.
8.72,6254.,20.,6.,3660.,0.,0.,9940.,0.907464014858,2.35940643863,260.
8.74,6256.,13.,6.,3663.,0.,0.,9938.,0.907936901094,3.63174760438,169.
8.76,6255.,12.,5.,3663.,0.,0.,9935.,0.908065889822,3.93495218923,156.
8.78,6253.,12.,5.,3659.,0.,0.,9929.,0.908324101118,3.93607110484,156.
8.8,6258.,9.,4.,3659.,0.,0.,9930.,0.908958865908,5.25176233635,117.
8.82,6258.,11.,8.,3653.,0.,0.,9930.,0.908958865908,4.29689645702,143.
8.84,6257.,18.,5.,3651.,0.,0.,9931.,0.908722105606,2.62519719397,234.
8.86,6268.,15.,4.,3642.,0.,0.,9929.,0.910503033073,3.15641051465,195.
8.88,6271.,9.,7.,3642.,0.,0.,9929.,0.910938819464,5.26320206802,117.
8.9,6273.,14.,4.,3641.,0.,0.,9932.,0.910954103287,3.38354381221,182.
8.92,6273.,19.,9.,3635.,0.,0.,9936.,0.910587374582,2.49213386728,247.
8.94,6281.,19.,9.,3627.,0.,0.,9936.,0.911748652917,2.49531210272,247.
8.96,6277.,21.,8.,3626.,0.,0.,9932.,0.9115349763,2.25713422703,273.
8.98,6278.,17.,12.,3625.,0.,0.,9932.,0.911680194554,2.7886688304,221.
9.,6281.,20.,12.,3619.,0.,0.,9932.,0.912115849314,2.37150120822,260.
9.02,6278.,20.,6.,3629.,0.,0.,9933.,0.911588411588,2.37012987013,260.
9.04,6282.,17.,7.,3626.,0.,0.,9932.,0.912261067567,2.79044561844,221.
9.06,6279.,12.,14.,3625.,0.,0.,9930.,0.912009063444,3.95203927492,156.
9.08,6279.,8.,12.,3636.,0.,0.,9935.,0.911550075491,5.92507549069,104.
9.1,6272.,19.,1.,3643.,0.,0.,9935.,0.910533854671,2.49198739173,247.
9.12,6280.,17.,5.,3636.,0.,0.,9938.,0.911420034986,2.78787304819,221.
9.14,6287.,13.,14.,3626.,0.,0.,9940.,0.912252360316,3.64900944126,169.
9.16,6283.,23.,12.,3623.,0.,0.,9941.,0.911580246531,2.06096403564,299.
9.18,6274.,26.,7.,3630.,0.,0.,9937.,0.910640883721,1.82128176744,338.
9.2,6265.,26.,8.,3635.,0.,0.,9934.,0.909609189884,1.81921837977,338.
9.22,6266.,15.,25.,3627.,0.,0.,9933.,0.909845967986,3.15413268902,195.
9.24,6257.,24.,16.,3640.,0.,0.,9937.,0.908173415595,1.96770906712,312.
9.26,6249.,25.,12.,3649.,0.,0.,9935.,0.907194843405,1.88696527428,325.
9.28,6235.,27.,8.,3664.,0.,0.,9934.,0.905253519382,1.74345122251,351.
9.3,6231.,25.,9.,3673.,0.,0.,9938.,0.904308636624,1.88096196418,325.
9.32,6224.,23.,21.,3671.,0.,0.,9939.,0.90320183891,2.04202154884,299.
9.34,6213.,25.,12.,3688.,0.,0.,9938.,0.901696286205,1.87552827531,325.
9.36,6209.,21.,13.,3691.,0.,0.,9934.,0.901478604946,2.23223273606,273.
9.38,6203.,27.,13.,3690.,0.,0.,9933.,0.90069813907,1.73467789747,351.
9.4,6195.,26.,14.,3695.,0.,0.,9930.,0.899808273298,1.7996165466,338.
9.42,6189.,33.,8.,3701.,0.,0.,9931.,0.898846270032,1.41636381945,429.
9.44,6192.,20.,13.,3711.,0.,0.,9936.,0.898829431438,2.33695652174,260.
9.46,6195.,16.,10.,3716.,0.,0.,9937.,0.899174414194,2.92231684613,208.
9.48,6189.,19.,1.,3728.,0.,0.,9937.,0.898303543091,2.45851496004,247.
9.5,6196.,15.,5.,3723.,0.,0.,9939.,0.899138591562,3.11701378408,195.
9.52,6204.,10.,5.,3720.,0.,0.,9939.,0.900299519376,4.68155750075,130.
9.54,6208.,9.,6.,3716.,0.,0.,9939.,0.900879983283,5.20508434786,117.
9.56,6210.,12.,5.,3709.,0.,0.,9936.,0.901442307692,3.90625,156.
9.58,6207.,15.,11.,3704.,0.,0.,9937.,0.900916156401,3.12317600886,195.
9.6,6207.,15.,8.,3708.,0.,0.,9938.,0.900825502732,3.12286174281,195.
9.62,6205.,14.,8.,3713.,0.,0.,9940.,0.900354047361,3.34417217591,182.
9.64,6210.,14.,9.,3710.,0.,0.,9943.,0.900807680703,3.34585709975,182.
9.66,6203.,17.,9.,3711.,0.,0.,9940.,0.900063844606,2.75313646585,221.
9.68,6197.,22.,5.,3715.,0.,0.,9939.,0.899283707539,2.12557967237,286.
9.7,6203.,19.,8.,3711.,0.,0.,9941.,0.899973304032,2.46308483209,247.
9.72,6210.,13.,8.,3711.,0.,0.,9942.,0.900898286988,3.60359314795,169.
9.74,6206.,14.,11.,3710.,0.,0.,9941.,0.900408564376,3.34437466768,182.
9.76,6202.,20.,10.,3709.,0.,0.,9941.,0.899828217251,2.33955336485,260.
9.78,6207.,11.,12.,3714.,0.,0.,9944.,0.900281963612,4.25587837344,143.
9.8,6211.,15.,7.,3712.,0.,0.,9945.,0.900771551224,3.12267471091,195.
9.82,6215.,10.,5.,3712.,0.,0.,9942.,0.901623647927,4.68844296922,130.
9.84,6213.,13.,7.,3709.,0.,0.,9942.,0.901333503551,3.60533401421,169.
9.86,6203.,15.,9.,3713.,0.,0.,9940.,0.900063844606,3.12022132797,195.
9.88,6205.,17.,1.,3717.,0.,0.,9940.,0.900354047361,2.75402414487,221.
9.9,6214.,8.,12.,3710.,0.,0.,9944.,0.901297264682,5.85843222043,104.
9.92,6208.,13.,4.,3716.,0.,0.,9941.,0.900698737938,3.60279495175,169.
9.94,6216.,13.,2.,3707.,0.,0.,9938.,0.902131677942,3.60852671177,169.
9.96,6226.,11.,2.,3704.,0.,0.,9943.,0.903128602264,4.2693352107,143.
9.98,6228.,6.,7.,3698.,0.,0.,9939.,0.903782302816,7.83277995774,78.
10.,6224.,5.,5.,3702.,0.,0.,9936.,0.903474544779,9.3961352657,65.
