t,neff
5.,0.106581333333
5.02,0.12783887468
5.04,0.0850848359131
5.06,0.12762725387
5.08,0.085010358566
5.1,0.255148230794
5.12,0.361596768192
5.14,0.191269714832
5.16,0.467958771651
5.18,0.51027578511
5.2,0.510449474019
5.22,0.532195459137
5.24,0.511519412047
5.26,0.340938082308
5.28,0.319470156399
5.3,0.362203416893
5.32,0.31943823811
5.34,0.255509813308
5.36,0.25557612512
5.38,0.276951407739
5.4,0.340795146097
5.42,0.31923444976
5.44,0.191357552581
5.46,0.27627847698
5.48,0.254950652658
5.5,0.233779193206
5.52,0.148594147583
5.54,0.169760958287
5.56,0.276256900212
5.58,0.297697046951
5.6,0.382974653276
5.62,0.276366533865
5.64,0.297424797071
5.66,0.276081052408
5.68,0.254869509866
5.7,0.33973800053
5.72,0.445845126411
5.74,0.424714929727
5.76,0.638392857144
5.78,0.553439625851
5.8,0.489347144754
5.82,0.59607142857
5.84,0.595810495009
5.86,0.531804183923
5.88,0.446715514495
5.9,0.404275927991
5.92,0.468482142857
5.94,0.319159101768
5.96,0.27639043529
5.98,0.297367445309
6.,0.339558660105
6.02,0.33937086968
6.04,0.296655044902
6.06,0.275433037601
6.08,0.360410061297
6.1,0.360753200042
6.12,0.275602746962
6.14,0.233054587689
6.16,0.466607463791
6.18,0.402763866879
6.2,0.424079065588
6.22,0.381785317901
6.24,0.531119233011
6.26,0.488580962976
6.28,0.509915806195
6.3,0.33986977926
6.32,0.489242351942
6.34,0.489709706521
6.36,0.362060104067
6.38,0.490422115896
6.4,0.597261847773
6.42,0.597929712458
6.44,0.556353933183
6.46,0.471336218411
6.48,0.643104554201
6.5,0.53631792897
6.52,0.558082704756
6.54,0.536962689364
6.56,0.558868349139
6.58,0.602291901162
6.6,0.430027326796
6.62,0.689135683244
6.64,0.602605758406
6.66,0.366044415835
6.68,0.517744118594
6.7,0.647935483872
6.72,0.54005376344
6.74,0.562053268764
6.76,0.627981676097
6.78,0.694430584806
6.8,0.695739478526
6.82,0.916786703602
6.84,0.742113609211
6.86,0.677491706096
6.88,0.524219794555
6.9,0.459157963447
6.92,0.546814645559
6.94,0.437284635035
6.96,0.240162786912
6.98,0.240186662326
7.,0.305653376729
7.02,0.196422182469
7.04,0.261785075597
7.06,0.196135108801
7.08,0.239424709381
7.1,0.174117901335
7.12,0.304599600411
7.14,0.325975076874
7.16,0.217295139451
7.18,0.260475343573
7.2,0.216917030097
7.22,0.17369113051
7.24,0.195167178162
7.26,0.151649722984
7.28,0.194927395934
7.3,0.129821054329
7.32,0.0432179466538
7.34,0.259706404259
7.36,0.259664516129
7.38,0.17306455948
7.4,0.368118375034
7.42,0.237925400408
7.44,0.237618894256
7.46,0.237404129793
7.48,0.280665485965
7.5,0.259020618557
7.52,0.280397080919
7.54,0.280102877351
7.56,0.279922891567
7.58,0.27969823435
7.6,0.322418216806
7.62,0.300916960565
7.64,0.257469204927
7.66,0.257073482428
7.68,0.278145962898
7.7,0.213728300685
7.72,0.192194656488
7.74,0.192072472982
7.76,0.191866666667
7.78,0.149046335922
7.8,0.191456618113
7.82,0.212695899952
7.84,0.255139240506
7.86,0.106263840557
7.88,0.191339031339
7.9,0.276345991561
7.92,0.275789916851
7.94,0.339675721204
7.96,0.425173940545
7.98,0.340085375494
8.,0.361612069421
8.02,0.382632911393
8.04,0.467662447257
8.06,0.297356103732
8.08,0.297256637168
8.1,0.297415138098
8.12,0.297215109847
8.14,0.318633343878
8.16,0.339963086009
8.18,0.382958504909
8.2,0.361583029919
8.22,0.554358567422
8.24,0.511411354265
8.26,0.510975918884
8.28,0.426286016389
8.3,0.404827549781
8.32,0.404907495507
8.34,0.405028015646
8.36,0.596989793218
8.38,0.447742344914
8.4,0.405719733079
8.42,0.449212159797
8.44,0.277967647839
8.46,0.492591884427
8.48,0.53510587486
8.5,0.556675688585
8.52,0.492513408742
8.54,0.471164914516
8.56,0.342569654513
8.58,0.256712808274
8.6,0.299289878114
8.62,0.405872511648
8.64,0.448711675934
8.66,0.384319949214
8.68,0.363012118326
8.7,0.256147254839
8.72,0.256340533672
8.74,0.256355837967
8.76,0.341780459405
8.78,0.363098412698
8.8,0.448720228643
8.82,0.319968304279
8.84,0.34113064133
8.86,0.512213062777
8.88,0.319841646872
8.9,0.298400843882
8.92,0.127719298246
8.94,0.255398230089
8.96,0.276659289704
8.98,0.340745898613
9.,0.383604687994
9.02,0.298247058202
9.04,0.212999894481
9.06,0.234207391006
9.08,0.212747576907
9.1,0.340510225596
9.12,0.29799978923
9.14,0.425941157862
9.16,0.469008181578
9.18,0.619378172588
9.2,0.512944911892
9.22,0.363285699164
9.24,0.277850828437
9.26,0.34222151597
9.28,0.491962715813
9.3,0.406048873373
9.32,0.448969350484
9.34,0.342167143311
9.36,0.299425908272
9.38,0.385312350978
9.4,0.363682398433
9.42,0.427852793222
9.44,0.320603174603
9.46,0.256025356577
9.48,0.298796809803
9.5,0.234685255598
9.52,0.191851851852
9.54,0.213092788943
9.56,0.19179113924
9.58,0.213067552602
9.6,0.170393335442
9.62,0.276790553007
9.64,0.191385684942
9.66,0.148597266036
9.68,0.148661616162
9.7,0.233592253447
9.72,0.233394321767
9.74,0.254601672188
9.76,0.254546601482
9.78,0.212042875157
9.8,0.169600672551
9.82,0.233026771653
9.84,0.127012905257
9.86,0.296397984887
9.88,0.381225389825
9.9,0.275192943771
9.92,0.275046959442
9.94,0.211453744493
9.96,0.147761897283
9.98,0.253201444497
10.,0.168711752707
