t,s,e,i,r,c,o,n,reff,coal,reportr
5.,6250.,5.,3.,3734.,0.,0.,9992.,0.902164038923,9.3825060048,65.
5.02,6263.,4.,1.,3725.,0.,0.,9993.,0.903950072743,11.7513509457,52.
5.04,6270.,4.,1.,3720.,0.,0.,9995.,0.904779312733,11.7621310655,52.
5.06,6282.,5.,2.,3711.,0.,0.,10000.,0.906057692308,9.423,65.
5.08,6287.,4.,6.,3701.,0.,0.,9998.,0.906960238201,11.7904830966,52.
5.1,6293.,8.,0.,3699.,0.,0.,10000.,0.907644230769,5.8996875,104.
5.12,6302.,6.,2.,3690.,0.,0.,10000.,0.908942307692,7.8775,78.
5.14,6303.,7.,4.,3680.,0.,0.,9994.,0.909632317852,6.7572686469,91.
5.16,6301.,9.,4.,3677.,0.,0.,9991.,0.909616731982,5.25556334034,117.
5.18,6301.,9.,6.,3675.,0.,0.,9991.,0.909616731982,5.25556334034,117.
5.2,6304.,10.,1.,3677.,0.,0.,9992.,0.90995873622,4.73178542834,130.
5.22,6307.,4.,6.,3670.,0.,0.,9987.,0.910847563371,11.8410183238,52.
5.24,6303.,9.,6.,3666.,0.,0.,9984.,0.910543407914,5.26091746795,117.
5.26,6304.,13.,4.,3662.,0.,0.,9983.,0.91077909369,3.64311637476,169.
5.28,6313.,7.,6.,3661.,0.,0.,9987.,0.911714074451,6.77273312449,91.
5.3,6318.,8.,5.,3658.,0.,0.,9989.,0.912253478827,5.92964761237,104.
5.32,6321.,10.,4.,3653.,0.,0.,9988.,0.912778025939,4.74644573488,130.
5.34,6332.,8.,3.,3647.,0.,0.,9990.,0.914183414183,5.94219219219,104.
5.36,6341.,11.,1.,3640.,0.,0.,9993.,0.91520795326,4.32643759723,143.
5.38,6341.,11.,7.,3634.,0.,0.,9993.,0.91520795326,4.32643759723,143.
5.4,6346.,9.,9.,3628.,0.,0.,9992.,0.916021278561,5.29256738724,117.
5.42,6346.,16.,6.,3622.,0.,0.,9990.,0.916204666205,2.97766516517,208.
5.44,6353.,12.,11.,3615.,0.,0.,9991.,0.917123488062,3.9742017816,156.
5.46,6346.,20.,4.,3617.,0.,0.,9987.,0.916479885389,2.38284770201,260.
5.48,6354.,13.,13.,3608.,0.,0.,9988.,0.917543359724,3.6701734389,169.
5.5,6343.,24.,7.,3613.,0.,0.,9987.,0.91604662985,1.98476769801,312.
5.52,6347.,11.,14.,3616.,0.,0.,9988.,0.916532531345,4.33269923909,143.
5.54,6345.,12.,7.,3624.,0.,0.,9988.,0.916243723237,3.97038946736,156.
5.56,6338.,15.,7.,3629.,0.,0.,9989.,0.915141270782,3.17248973871,195.
5.58,6340.,9.,8.,3631.,0.,0.,9988.,0.915521702967,5.28968095047,117.
5.6,6342.,12.,8.,3625.,0.,0.,9987.,0.915902211336,3.96890958246,156.
5.62,6343.,14.,9.,3622.,0.,0.,9988.,0.915954915129,3.40211825619,182.
5.64,6339.,17.,6.,3627.,0.,0.,9989.,0.91528566038,2.7996973141,221.
5.66,6333.,20.,4.,3628.,0.,0.,9985.,0.914785639998,2.378442664,260.
5.68,6333.,20.,9.,3623.,0.,0.,9985.,0.914785639998,2.378442664,260.
5.7,6343.,17.,9.,3619.,0.,0.,9988.,0.915954915129,2.80174444628,221.
5.72,6347.,12.,8.,3619.,0.,0.,9986.,0.91671609484,3.97243641098,156.
5.74,6346.,18.,7.,3615.,0.,0.,9986.,0.916571661865,2.64787368983,234.
5.76,6347.,15.,3.,3619.,0.,0.,9984.,0.916899731879,3.17858573718,195.
5.78,6348.,11.,8.,3617.,0.,0.,9984.,0.917044193787,4.33511800699,143.
5.8,6353.,11.,8.,3612.,0.,0.,9984.,0.917766503328,4.33853256119,143.
5.82,6352.,11.,4.,3616.,0.,0.,9983.,0.917713959886,4.338284174,143.
5.84,6359.,5.,6.,3614.,0.,0.,9984.,0.918633274778,9.55378605769,65.
5.86,6370.,7.,2.,3608.,0.,0.,9987.,0.919945929709,6.83388404926,91.
5.88,6377.,7.,6.,3600.,0.,0.,9990.,0.92068029568,6.83933933934,91.
5.9,6379.,8.,0.,3603.,0.,0.,9990.,0.920969045969,5.9862987988,104.
5.92,6389.,4.,4.,3594.,0.,0.,9991.,0.922320473041,11.9901661495,52.
5.94,6391.,6.,0.,3592.,0.,0.,9989.,0.922793919465,7.99754730203,78.
5.96,6392.,7.,2.,3587.,0.,0.,9988.,0.92303071378,6.85679958808,91.
5.98,6394.,9.,2.,3582.,0.,0.,9987.,0.923411974028,5.33526918327,117.
6.,6400.,9.,3.,3577.,0.,0.,9989.,0.924093425845,5.33920646044,117.
6.02,6397.,15.,4.,3573.,0.,0.,9989.,0.923660257052,3.20202222445,195.
6.04,6397.,14.,5.,3572.,0.,0.,9988.,0.92375273405,3.43108158361,182.
6.06,6395.,17.,4.,3570.,0.,0.,9986.,0.923648877659,2.8252789199,221.
6.08,6410.,8.,7.,3557.,0.,0.,9982.,0.926186366228,6.02021138048,104.
6.1,6412.,9.,4.,3554.,0.,0.,9979.,0.926753875446,5.35457794702,117.
6.12,6416.,11.,1.,3553.,0.,0.,9981.,0.927146193152,4.38287291308,143.
6.14,6418.,8.,5.,3551.,0.,0.,9982.,0.927342293051,6.02772490483,104.
6.16,6421.,9.,3.,3549.,0.,0.,9982.,0.927775765609,5.3604822013,117.
6.18,6423.,5.,7.,3550.,0.,0.,9985.,0.927785909634,9.64897346019,65.
6.2,6435.,4.,5.,3544.,0.,0.,9988.,0.929240088106,12.0801211454,52.
6.22,6440.,7.,3.,3538.,0.,0.,9988.,0.929962108376,6.90828994794,91.
6.24,6448.,5.,2.,3532.,0.,0.,9987.,0.931210573746,9.68458996696,65.
6.26,6456.,5.,2.,3526.,0.,0.,9989.,0.932179243321,9.69466413054,65.
6.28,6461.,4.,3.,3519.,0.,0.,9987.,0.933088014419,12.1301441874,52.
6.3,6458.,8.,4.,3516.,0.,0.,9986.,0.932748155109,6.06286300821,104.
6.32,6464.,5.,6.,3511.,0.,0.,9986.,0.933614752962,9.7095934308,65.
6.34,6457.,9.,5.,3509.,0.,0.,9980.,0.933164405735,5.39161656647,117.
6.36,6462.,13.,3.,3504.,0.,0.,9982.,0.933699890572,3.73479956229,169.
6.38,6463.,11.,8.,3500.,0.,0.,9982.,0.933844381425,4.41453707583,143.
6.4,6460.,12.,7.,3504.,0.,0.,9983.,0.933317408826,4.04437543825,156.
6.42,6461.,14.,4.,3502.,0.,0.,9981.,0.933648932973,3.4678388939,182.
6.44,6466.,13.,1.,3503.,0.,0.,9983.,0.9341842671,3.7367370684,169.
6.46,6468.,12.,5.,3497.,0.,0.,9982.,0.934566835689,4.04978962132,156.
6.48,6476.,11.,9.,3492.,0.,0.,9988.,0.935160654324,4.4207594568,143.
6.5,6476.,18.,2.,3491.,0.,0.,9987.,0.935254292118,2.70184573279,234.
6.52,6479.,17.,8.,3485.,0.,0.,9989.,0.935500204071,2.86153003598,221.
6.54,6480.,17.,5.,3490.,0.,0.,9992.,0.935363675556,2.86111241935,221.
6.56,6474.,15.,9.,3492.,0.,0.,9990.,0.934684684685,3.24024024024,195.
6.58,6474.,14.,10.,3491.,0.,0.,9989.,0.934778256082,3.47203352259,182.
6.6,6460.,25.,7.,3496.,0.,0.,9988.,0.932850189458,1.94032839407,325.
6.62,6454.,21.,15.,3496.,0.,0.,9986.,0.932170423208,2.30823152413,273.
6.64,6446.,25.,9.,3505.,0.,0.,9985.,0.931108200763,1.93670505759,325.
6.66,6441.,23.,12.,3510.,0.,0.,9986.,0.930292794528,2.10327066589,299.
6.68,6441.,21.,17.,3509.,0.,0.,9988.,0.93010651243,2.30312088792,273.
6.7,6434.,27.,11.,3519.,0.,0.,9991.,0.928816704265,1.78883217118,351.
6.72,6430.,32.,11.,3519.,0.,0.,9992.,0.928146363244,1.50823784027,416.
6.74,6413.,34.,10.,3531.,0.,0.,9988.,0.926063198916,1.41633195128,442.
6.76,6414.,25.,7.,3542.,0.,0.,9988.,0.92620760297,1.92651181418,325.
6.78,6414.,18.,9.,3548.,0.,0.,9989.,0.926114880214,2.67544298729,234.
6.8,6411.,17.,7.,3556.,0.,0.,9991.,0.925496408306,2.83093019011,221.
6.82,6411.,16.,7.,3555.,0.,0.,9989.,0.925681711421,3.00846556212,208.
6.84,6410.,15.,4.,3560.,0.,0.,9989.,0.925537321823,3.20852938232,195.
6.86,6407.,18.,2.,3561.,0.,0.,9988.,0.925196774591,2.67279068215,234.
6.88,6407.,16.,6.,3559.,0.,0.,9988.,0.925196774591,3.00688951742,208.
6.9,6406.,13.,2.,3567.,0.,0.,9988.,0.925052370537,3.70020948215,169.
6.92,6413.,11.,5.,3559.,0.,0.,9988.,0.926063198916,4.37775330396,143.
6.94,6413.,11.,6.,3556.,0.,0.,9986.,0.926248671217,4.37863008211,143.
6.96,6409.,15.,9.,3553.,0.,0.,9986.,0.925670939315,3.20899258963,195.
6.98,6406.,18.,11.,3551.,0.,0.,9986.,0.925237640389,2.6729087389,234.
7.,6405.,21.,9.,3551.,0.,0.,9986.,0.925093207413,2.29070698979,273.
7.02,6413.,24.,6.,3549.,0.,0.,9992.,0.925692477059,2.00566703363,312.
7.04,6411.,21.,14.,3544.,0.,0.,9990.,0.925589050589,2.29193479193,273.
7.06,6404.,27.,7.,3553.,0.,0.,9991.,0.924485883449,1.78049133109,351.
7.08,6397.,22.,13.,3556.,0.,0.,9988.,0.92375273405,2.18341555321,286.
7.1,6390.,24.,15.,3563.,0.,0.,9992.,0.922372513395,1.99847377902,312.
7.12,6388.,24.,8.,3569.,0.,0.,9989.,0.922360750672,1.99844829312,312.
7.14,6387.,25.,12.,3569.,0.,0.,9993.,0.921847216128,1.91744220955,325.
7.16,6386.,19.,17.,3570.,0.,0.,9992.,0.92179512841,2.52280771986,247.
7.18,6373.,21.,22.,3577.,0.,0.,9993.,0.919826570907,2.27766579463,273.
7.2,6356.,27.,22.,3583.,0.,0.,9988.,0.917832167832,1.76767676768,351.
7.22,6349.,29.,9.,3604.,0.,0.,9991.,0.916546045287,1.64346187431,377.
7.24,6343.,32.,6.,3605.,0.,0.,9986.,0.916138362939,1.48872483978,416.
7.26,6345.,25.,17.,3600.,0.,0.,9987.,0.916335466876,1.9059777711,325.
7.28,6327.,33.,11.,3611.,0.,0.,9982.,0.914193625449,1.44054753101,429.
7.3,6316.,33.,14.,3616.,0.,0.,9979.,0.912878583487,1.43847534368,429.
7.32,6312.,34.,13.,3620.,0.,0.,9979.,0.912300446322,1.39528303555,442.
7.34,6302.,31.,17.,3628.,0.,0.,9978.,0.91094638975,1.52803910539,403.
7.36,6292.,39.,11.,3635.,0.,0.,9977.,0.909592061742,1.21278941566,507.
7.38,6295.,27.,18.,3639.,0.,0.,9979.,0.909843363371,1.75229092205,351.
7.4,6293.,33.,14.,3643.,0.,0.,9983.,0.90918985352,1.43266279949,429.
7.42,6290.,27.,13.,3653.,0.,0.,9983.,0.908756424383,1.75019755807,351.
7.44,6283.,29.,12.,3658.,0.,0.,9982.,0.907836027927,1.62784391215,377.
7.46,6273.,31.,3.,3673.,0.,0.,9980.,0.906572760906,1.52070269571,403.
7.48,6274.,26.,10.,3669.,0.,0.,9979.,0.906808143255,1.81361628651,338.
7.5,6268.,32.,4.,3676.,0.,0.,9980.,0.905850161862,1.47200651303,416.
7.52,6265.,25.,12.,3675.,0.,0.,9977.,0.905688853594,1.88383281548,325.
7.54,6273.,17.,13.,3674.,0.,0.,9977.,0.906845359712,2.77387992382,221.
7.56,6273.,26.,5.,3675.,0.,0.,9979.,0.906663608963,1.81332721793,338.
7.58,6266.,22.,10.,3679.,0.,0.,9977.,0.905833416859,2.14106080348,286.
7.6,6262.,20.,14.,3684.,0.,0.,9980.,0.904983043009,2.35295591182,260.
7.62,6253.,26.,9.,3691.,0.,0.,9979.,0.903772923139,1.80754584628,338.
7.64,6238.,31.,9.,3704.,0.,0.,9982.,0.901333939553,1.51191499538,403.
7.66,6231.,29.,6.,3713.,0.,0.,9979.,0.900593168731,1.61485671635,377.
7.68,6238.,24.,8.,3712.,0.,0.,9982.,0.901333939553,1.95289020236,312.
7.7,6239.,16.,15.,3714.,0.,0.,9984.,0.901297845784,2.9292179988,208.
7.72,6235.,17.,12.,3719.,0.,0.,9983.,0.900810223534,2.75541950728,221.
7.74,6233.,16.,8.,3727.,0.,0.,9984.,0.900431074334,2.92640099159,208.
7.76,6232.,15.,5.,3732.,0.,0.,9984.,0.900286612426,3.12099358974,195.
7.78,6229.,15.,5.,3734.,0.,0.,9983.,0.899943365259,3.11980366623,195.
7.8,6229.,15.,5.,3730.,0.,0.,9979.,0.900304100149,3.12105421385,195.
7.82,6230.,13.,1.,3736.,0.,0.,9980.,0.900358409126,3.6014336365,169.
7.84,6235.,11.,5.,3724.,0.,0.,9975.,0.901532677848,4.26179084074,143.
7.86,6244.,8.,1.,3722.,0.,0.,9975.,0.902834008097,5.86842105263,104.
7.88,6247.,7.,1.,3719.,0.,0.,9974.,0.903358347087,6.71066200693,91.
7.9,6254.,7.,1.,3713.,0.,0.,9975.,0.904279930596,6.71750805585,91.
7.92,6260.,8.,3.,3700.,0.,0.,9971.,0.905510596113,5.88581887474,104.
7.94,6267.,5.,6.,3690.,0.,0.,9968.,0.906795977899,9.43067817014,65.
7.96,6265.,11.,2.,3693.,0.,0.,9971.,0.906233847388,4.28401455129,143.
7.98,6266.,9.,9.,3685.,0.,0.,9969.,0.906560337045,5.23790416959,117.
8.,6266.,13.,5.,3685.,0.,0.,9969.,0.906560337045,3.62624134818,169.
8.02,6271.,10.,5.,3682.,0.,0.,9968.,0.907374753056,4.71834871589,130.
8.04,6280.,10.,4.,3676.,0.,0.,9970.,0.908494714914,4.72417251755,130.
8.06,6284.,7.,9.,3672.,0.,0.,9972.,0.908891048783,6.75176207667,91.
8.08,6290.,8.,9.,3669.,0.,0.,9976.,0.909394084264,5.91106154771,104.
8.1,6285.,12.,7.,3674.,0.,0.,9978.,0.908489060549,3.93678592904,156.
8.12,6279.,17.,9.,3673.,0.,0.,9978.,0.907621767889,2.77625481943,221.
8.14,6277.,16.,8.,3675.,0.,0.,9976.,0.907514573438,2.94942236367,208.
8.16,6278.,16.,12.,3669.,0.,0.,9975.,0.907750144592,2.95018796992,208.
8.18,6262.,24.,13.,3672.,0.,0.,9971.,0.905799896623,1.96256644268,312.
8.2,6264.,21.,10.,3676.,0.,0.,9971.,0.906089197133,2.24364944052,273.
8.22,6264.,18.,8.,3681.,0.,0.,9971.,0.906089197133,2.61759101394,234.
8.24,6269.,18.,6.,3681.,0.,0.,9974.,0.906539695516,2.61889245371,234.
8.26,6262.,19.,2.,3686.,0.,0.,9969.,0.905981619945,2.47952864406,247.
8.28,6259.,15.,6.,3686.,0.,0.,9966.,0.905820173204,3.14017660044,195.
8.3,6260.,17.,7.,3681.,0.,0.,9965.,0.906055810722,2.7714648328,221.
8.32,6257.,13.,7.,3684.,0.,0.,9961.,0.905985265613,3.62394106245,169.
8.34,6258.,11.,9.,3683.,0.,0.,9961.,0.906130061084,4.28352392513,143.
8.36,6258.,10.,10.,3685.,0.,0.,9963.,0.905948162046,4.71093044264,130.
8.38,6250.,23.,5.,3686.,0.,0.,9964.,0.904699224902,2.04540694326,299.
8.4,6239.,25.,14.,3684.,0.,0.,9962.,0.903288264636,1.87883959044,325.
8.42,6232.,29.,11.,3688.,0.,0.,9960.,0.902455977757,1.61819692563,377.
8.44,6229.,24.,8.,3696.,0.,0.,9957.,0.902293322827,1.95496886612,312.
8.46,6230.,16.,13.,3699.,0.,0.,9958.,0.902347552026,2.93262954409,208.
8.48,6225.,22.,9.,3702.,0.,0.,9958.,0.901623356559,2.13110975187,286.
8.5,6220.,19.,17.,3704.,0.,0.,9960.,0.900718257646,2.4651236525,247.
8.52,6218.,24.,13.,3703.,0.,0.,9958.,0.900609482905,1.95132054629,312.
8.54,6209.,24.,7.,3715.,0.,0.,9955.,0.899576942395,1.94908337519,312.
8.56,6211.,17.,10.,3714.,0.,0.,9952.,0.900137969948,2.75336320219,221.
8.58,6203.,21.,9.,3716.,0.,0.,9949.,0.899249634675,2.2267133811,273.
8.6,6212.,12.,7.,3723.,0.,0.,9954.,0.900102007697,3.90044203335,156.
8.62,6215.,13.,6.,3724.,0.,0.,9958.,0.900174965625,3.6006998625,169.
8.64,6217.,14.,5.,3728.,0.,0.,9964.,0.899922412994,3.34256896255,182.
8.66,6213.,21.,4.,3728.,0.,0.,9966.,0.89916292317,2.2264986669,273.
8.68,6222.,17.,6.,3725.,0.,0.,9970.,0.90010415863,2.75325977934,221.
8.7,6230.,17.,5.,3725.,0.,0.,9977.,0.900629139328,2.75486560265,221.
8.72,6227.,17.,6.,3723.,0.,0.,9973.,0.900556502557,2.75464341959,221.
8.74,6223.,20.,10.,3721.,0.,0.,9974.,0.899887785165,2.33970824143,260.
8.76,6223.,21.,12.,3716.,0.,0.,9972.,0.900068268074,2.22874047333,273.
8.78,6220.,19.,7.,3726.,0.,0.,9972.,0.899634360826,2.46215719805,247.
8.8,6233.,14.,9.,3721.,0.,0.,9977.,0.901062829122,3.34680479388,182.
8.82,6228.,23.,8.,3717.,0.,0.,9976.,0.900430263401,2.03575537812,299.
8.84,6227.,21.,14.,3717.,0.,0.,9979.,0.900015031566,2.22860864959,273.
8.86,6227.,17.,7.,3728.,0.,0.,9979.,0.900015031566,2.75298715538,221.
8.88,6221.,20.,8.,3729.,0.,0.,9978.,0.89923793885,2.33801864101,260.
8.9,6224.,18.,11.,3723.,0.,0.,9976.,0.899851952378,2.59957230687,234.
8.92,6217.,14.,10.,3731.,0.,0.,9972.,0.899200453578,3.339887399,182.
8.94,6221.,13.,10.,3726.,0.,0.,9970.,0.899959493866,3.59983797546,169.
8.96,6223.,12.,13.,3723.,0.,0.,9971.,0.900158536679,3.90068699228,156.
8.98,6214.,20.,10.,3724.,0.,0.,9968.,0.899127207063,2.33773073836,260.
9.,6212.,23.,3.,3728.,0.,0.,9966.,0.899018200343,2.03256288773,299.
9.02,6214.,17.,11.,3727.,0.,0.,9969.,0.899037014746,2.74999557452,221.
9.04,6215.,20.,9.,3721.,0.,0.,9965.,0.899542629974,2.33881083793,260.
9.06,6212.,17.,10.,3723.,0.,0.,9962.,0.899379179343,2.75104219564,221.
9.08,6211.,17.,13.,3724.,0.,0.,9965.,0.898963680574,2.74977125823,221.
9.1,6202.,25.,5.,3727.,0.,0.,9959.,0.898201858389,1.86825986545,325.
9.12,6199.,23.,11.,3725.,0.,0.,9958.,0.89785754013,2.02993878638,299.
9.14,6196.,20.,17.,3725.,0.,0.,9958.,0.89742302285,2.33329985941,260.
9.16,6188.,24.,10.,3736.,0.,0.,9958.,0.896264310102,1.94190600522,312.
9.18,6183.,22.,14.,3741.,0.,0.,9960.,0.895360287303,2.11630613363,286.
9.2,6191.,19.,7.,3743.,0.,0.,9960.,0.896518767377,2.45363031072,247.
9.22,6198.,17.,7.,3737.,0.,0.,9959.,0.897622560189,2.74566900764,221.
9.24,6198.,11.,13.,3738.,0.,0.,9960.,0.897532437442,4.24288061336,143.
9.26,6192.,20.,4.,3746.,0.,0.,9962.,0.896483560607,2.33085725758,260.
9.28,6191.,13.,9.,3747.,0.,0.,9960.,0.896518767377,3.58607506951,169.
9.3,6194.,10.,6.,3750.,0.,0.,9960.,0.896953197405,4.66415662651,130.
9.32,6207.,6.,9.,3741.,0.,0.,9963.,0.898565075394,7.78756398675,78.
9.34,6213.,9.,4.,3737.,0.,0.,9963.,0.899433673824,5.1967278932,117.
9.36,6214.,10.,6.,3738.,0.,0.,9968.,0.899127207063,4.67546147673,130.
9.38,6211.,15.,4.,3737.,0.,0.,9967.,0.898783292558,3.11578208087,195.
9.4,6212.,12.,7.,3737.,0.,0.,9968.,0.898837819484,3.89496388443,156.
9.42,6207.,17.,5.,3735.,0.,0.,9964.,0.898474894235,2.74827614707,221.
9.44,6210.,13.,6.,3730.,0.,0.,9959.,0.899360454788,3.59744181915,169.
9.46,6214.,15.,3.,3726.,0.,0.,9958.,0.900030126531,3.12010443864,195.
9.48,6216.,16.,4.,3723.,0.,0.,9959.,0.900229402087,2.92574555678,208.
9.5,6224.,12.,5.,3719.,0.,0.,9960.,0.901297497683,3.90562248996,156.
9.52,6225.,11.,5.,3721.,0.,0.,9962.,0.901261331521,4.26050811265,143.
9.54,6231.,12.,6.,3716.,0.,0.,9965.,0.901858427573,3.90805318615,156.
9.56,6226.,14.,11.,3712.,0.,0.,9963.,0.901315637088,3.3477437949,182.
9.58,6214.,18.,12.,3716.,0.,0.,9960.,0.89984939759,2.59956492637,234.
9.6,6205.,25.,13.,3718.,0.,0.,9961.,0.898455901091,1.86878827427,325.
9.62,6202.,19.,18.,3725.,0.,0.,9964.,0.897751134855,2.45700310592,247.
9.64,6199.,22.,8.,3735.,0.,0.,9964.,0.897316879227,2.12093080545,286.
9.66,6205.,16.,14.,3732.,0.,0.,9967.,0.897915042718,2.91822388883,208.
9.68,6195.,25.,9.,3739.,0.,0.,9968.,0.896378025065,1.86446629213,325.
9.7,6194.,19.,15.,3739.,0.,0.,9967.,0.896323251345,2.45309521421,247.
9.72,6187.,26.,8.,3748.,0.,0.,9969.,0.895130674321,1.79026134864,338.
9.74,6187.,22.,15.,3748.,0.,0.,9972.,0.894861381098,2.11512690078,286.
9.76,6178.,20.,11.,3757.,0.,0.,9966.,0.89409762423,2.324653823,260.
9.78,6172.,24.,9.,3762.,0.,0.,9967.,0.893139668599,1.93513594863,312.
9.8,6162.,24.,9.,3771.,0.,0.,9966.,0.891782059001,1.93219446117,312.
9.82,6167.,19.,11.,3772.,0.,0.,9969.,0.892237088822,2.44191203256,247.
9.84,6165.,21.,7.,3777.,0.,0.,9970.,0.891858267109,2.20841094713,273.
9.86,6173.,13.,10.,3777.,0.,0.,9973.,0.892746955241,3.57098782096,169.
9.88,6173.,15.,7.,3781.,0.,0.,9976.,0.89247848683,3.09392542101,195.
9.9,6171.,17.,11.,3778.,0.,0.,9977.,0.892099906709,2.72877618523,221.
9.92,6175.,20.,7.,3780.,0.,0.,9982.,0.892231015828,2.31980064115,260.
9.94,6177.,13.,5.,3785.,0.,0.,9980.,0.892698859257,3.57079543703,169.
9.96,6177.,11.,6.,3786.,0.,0.,9980.,0.892698859257,4.22003097103,143.
9.98,6175.,9.,9.,3785.,0.,0.,9978.,0.892588695129,5.15717912741,117.
10.,6183.,10.,8.,3782.,0.,0.,9983.,0.893297451822,4.64514674947,130.
