t,s,e,i,r,c,o,n,reff,coal,reportr
5.,6250.,5.,3.,3734.,0.,0.,9992.,0.902164038923,9.3825060048,65.
5.02,6254.,12.,2.,3726.,0.,0.,9994.,0.90256076723,3.91109665799,156.
5.04,6257.,6.,9.,3718.,0.,0.,9990.,0.903355278355,7.82907907908,78.
5.06,6261.,9.,4.,3718.,0.,0.,9992.,0.903751847632,5.22167734187,117.
5.08,6260.,7.,9.,3713.,0.,0.,9989.,0.903878882155,6.71452883887,91.
5.1,6261.,16.,4.,3710.,0.,0.,9991.,0.903842304228,2.93748748874,208.
5.12,6263.,11.,4.,3713.,0.,0.,9991.,0.904131025615,4.27407393927,143.
5.14,6265.,12.,5.,3705.,0.,0.,9987.,0.904781985812,3.92072193852,156.
5.16,6271.,10.,8.,3698.,0.,0.,9987.,0.905648496892,4.70937218384,130.
5.18,6262.,18.,10.,3697.,0.,0.,9987.,0.904348730272,2.61256299856,234.
5.2,6266.,19.,5.,3701.,0.,0.,9991.,0.904564107697,2.47564913685,247.
5.22,6269.,12.,13.,3696.,0.,0.,9990.,0.905087780088,3.92204704705,156.
5.24,6264.,20.,9.,3698.,0.,0.,9991.,0.904275386309,2.3511160044,260.
5.26,6265.,24.,4.,3703.,0.,0.,9996.,0.903967356173,1.95859593838,312.
5.28,6270.,17.,13.,3697.,0.,0.,9997.,0.904598302568,2.76700657256,221.
5.3,6264.,21.,11.,3699.,0.,0.,9995.,0.903913495209,2.23826198814,273.
5.32,6261.,24.,8.,3702.,0.,0.,9995.,0.903480586447,1.95754127064,312.
5.34,6259.,19.,12.,3706.,0.,0.,9996.,0.903101625265,2.47164655336,247.
5.36,6252.,20.,13.,3711.,0.,0.,9996.,0.902091605873,2.34543817527,260.
5.38,6247.,27.,13.,3710.,0.,0.,9997.,0.901279999384,1.73579851733,351.
5.4,6237.,30.,14.,3715.,0.,0.,9996.,0.899927278604,1.55987394958,390.
5.42,6231.,26.,14.,3722.,0.,0.,9993.,0.899331455095,1.79866291019,338.
5.44,6234.,18.,14.,3728.,0.,0.,9994.,0.899674420037,2.59905943566,234.
5.46,6234.,17.,11.,3731.,0.,0.,9993.,0.8997644505,2.75222067212,221.
5.48,6229.,15.,14.,3733.,0.,0.,9991.,0.899222762024,3.11730557502,195.
5.5,6237.,13.,5.,3738.,0.,0.,9993.,0.900197445904,3.60078978362,169.
5.52,6244.,10.,4.,3733.,0.,0.,9991.,0.901388172432,4.68721849665,130.
5.54,6247.,11.,1.,3732.,0.,0.,9991.,0.901821254514,4.26315502134,143.
5.56,6250.,12.,3.,3724.,0.,0.,9989.,0.902434986177,3.91055160677,156.
5.58,6241.,18.,5.,3722.,0.,0.,9986.,0.901406199448,2.60406235396,234.
5.6,6243.,19.,2.,3722.,0.,0.,9986.,0.901695065399,2.46779702109,247.
5.62,6254.,15.,2.,3715.,0.,0.,9986.,0.903283828129,3.13138393751,195.
5.64,6257.,11.,7.,3710.,0.,0.,9985.,0.903807634529,4.27254518141,143.
5.66,6261.,14.,4.,3706.,0.,0.,9985.,0.90438542429,3.35914586165,182.
5.68,6258.,17.,5.,3706.,0.,0.,9986.,0.90386156003,2.76475300715,221.
5.7,6258.,18.,4.,3706.,0.,0.,9986.,0.90386156003,2.61115561787,234.
5.72,6263.,13.,6.,3705.,0.,0.,9987.,0.904493148786,3.61797259514,169.
5.74,6263.,17.,4.,3704.,0.,0.,9988.,0.904402590801,2.7664079248,221.
5.76,6265.,14.,11.,3699.,0.,0.,9989.,0.904600830144,3.35994594053,182.
5.78,6266.,21.,6.,3697.,0.,0.,9990.,0.904654654655,2.2400972401,273.
5.8,6268.,20.,6.,3698.,0.,0.,9992.,0.904762271356,2.35238190552,260.
5.82,6268.,12.,6.,3703.,0.,0.,9989.,0.905033998937,3.92181399539,156.
5.84,6266.,12.,10.,3703.,0.,0.,9991.,0.904564107697,3.91977780002,156.
5.86,6260.,18.,6.,3709.,0.,0.,9993.,0.903517077339,2.61016044565,234.
5.88,6254.,13.,8.,3715.,0.,0.,9990.,0.902922152922,3.61168861169,169.
5.9,6260.,15.,3.,3715.,0.,0.,9993.,0.903517077339,3.13219253477,195.
5.92,6267.,10.,6.,3711.,0.,0.,9994.,0.904436892905,4.70307184311,130.
5.94,6269.,9.,6.,3709.,0.,0.,9993.,0.904816063552,5.22782614497,117.
5.96,6266.,12.,8.,3703.,0.,0.,9989.,0.904745219742,3.92056261888,156.
5.98,6256.,19.,7.,3708.,0.,0.,9990.,0.903210903211,2.47194562984,247.
6.,6257.,22.,7.,3706.,0.,0.,9992.,0.903174462647,2.13477600262,286.
6.02,6253.,18.,12.,3708.,0.,0.,9991.,0.902687418677,2.60776365396,234.
6.04,6248.,25.,8.,3712.,0.,0.,9993.,0.901785095721,1.8757129991,325.
6.06,6241.,28.,9.,3713.,0.,0.,9991.,0.900955090351,1.67320231065,364.
6.08,6242.,31.,7.,3710.,0.,0.,9990.,0.90118965119,1.51167296329,403.
6.1,6247.,26.,13.,3706.,0.,0.,9992.,0.901731000185,1.80346200037,338.
6.12,6243.,18.,19.,3710.,0.,0.,9990.,0.901334026334,2.60385385385,234.
6.14,6234.,25.,12.,3721.,0.,0.,9992.,0.899854498984,1.87169735789,325.
6.16,6234.,21.,14.,3726.,0.,0.,9995.,0.899584407588,2.2275423426,273.
6.18,6233.,22.,12.,3729.,0.,0.,9996.,0.899350124665,2.1257366583,286.
6.2,6229.,23.,16.,3727.,0.,0.,9995.,0.898862892985,2.03221175805,299.
6.22,6215.,26.,18.,3737.,0.,0.,9996.,0.896752931942,1.79350586388,338.
6.24,6206.,32.,15.,3747.,0.,0.,10000.,0.895096153846,1.45453125,416.
6.26,6206.,28.,11.,3754.,0.,0.,9999.,0.895185672413,1.66248767734,364.
6.28,6195.,25.,15.,3762.,0.,0.,9997.,0.893777748709,1.85905771732,325.
6.3,6185.,27.,16.,3768.,0.,0.,9996.,0.892424277403,1.71874305278,351.
6.32,6169.,34.,16.,3775.,0.,0.,9994.,0.89029379166,1.36162579901,442.
6.34,6168.,28.,10.,3791.,0.,0.,9997.,0.88988234932,1.65263864874,364.
6.36,6160.,27.,18.,3794.,0.,0.,9999.,0.888550393501,1.71128223934,351.
6.38,6150.,32.,2.,3815.,0.,0.,9999.,0.887107941563,1.44155040504,416.
6.4,6155.,22.,12.,3811.,0.,0.,10000.,0.887740384615,2.09829545455,286.
6.42,6149.,22.,11.,3817.,0.,0.,9999.,0.88696369637,2.09645964596,286.
6.44,6145.,13.,18.,3820.,0.,0.,9996.,0.886652738018,3.54661095207,169.
6.46,6141.,15.,10.,3830.,0.,0.,9996.,0.88607558408,3.07172869148,195.
6.48,6144.,12.,13.,3830.,0.,0.,9999.,0.886242470401,3.8403840384,156.
6.5,6134.,20.,11.,3834.,0.,0.,9999.,0.884800018463,2.300480048,260.
6.52,6129.,14.,11.,3840.,0.,0.,9994.,0.884521097274,3.28536407559,182.
6.54,6126.,13.,17.,3839.,0.,0.,9995.,0.883999692154,3.53599876862,169.
6.56,6120.,19.,10.,3845.,0.,0.,9994.,0.883222241037,2.41723981757,247.
6.58,6121.,19.,4.,3850.,0.,0.,9994.,0.883366558397,2.4176347914,247.
6.6,6119.,15.,4.,3856.,0.,0.,9994.,0.883077923677,3.06133680208,195.
6.62,6130.,13.,5.,3843.,0.,0.,9991.,0.884931053333,3.53972421333,169.
6.64,6135.,12.,8.,3840.,0.,0.,9995.,0.88529841844,3.83629314657,156.
6.66,6136.,16.,6.,3841.,0.,0.,9999.,0.885088508851,2.87653765377,208.
6.68,6142.,14.,7.,3837.,0.,0.,10000.,0.885865384615,3.29035714286,182.
6.7,6146.,13.,9.,3830.,0.,0.,9998.,0.886619631619,3.54647852647,169.
6.72,6147.,14.,5.,3830.,0.,0.,9996.,0.886941314988,3.29435345567,182.
6.74,6145.,11.,10.,3829.,0.,0.,9995.,0.886741447647,4.1918686616,143.
6.76,6148.,13.,6.,3833.,0.,0.,10000.,0.886730769231,3.54692307692,169.
6.78,6149.,15.,4.,3832.,0.,0.,10000.,0.886875,3.0745,195.
6.8,6148.,18.,6.,3828.,0.,0.,10000.,0.886730769231,2.56166666667,234.
6.82,6155.,12.,7.,3827.,0.,0.,10001.,0.887651619453,3.84649035096,156.
6.84,6159.,13.,7.,3820.,0.,0.,9999.,0.888406148307,3.55362459323,169.
6.86,6158.,14.,8.,3819.,0.,0.,9999.,0.888261903113,3.29925849728,182.
6.88,6163.,8.,10.,3819.,0.,0.,10000.,0.888894230769,5.7778125,104.
6.9,6158.,13.,15.,3816.,0.,0.,10002.,0.887995477828,3.55198191131,169.
6.92,6158.,17.,13.,3817.,0.,0.,10005.,0.887729212317,2.71540700238,221.
6.94,6148.,24.,13.,3820.,0.,0.,10005.,0.886287625418,1.92028985507,312.
6.96,6138.,32.,16.,3823.,0.,0.,10009.,0.884492418362,1.43730017984,416.
6.98,6129.,29.,19.,3829.,0.,0.,10006.,0.88346030843,1.58413572546,377.
7.,6115.,35.,11.,3846.,0.,0.,10007.,0.881354205902,1.30944053448,455.
7.02,6112.,32.,11.,3858.,0.,0.,10013.,0.880393949404,1.43064016778,416.
7.04,6103.,37.,9.,3865.,0.,0.,10014.,0.879009770936,1.23536508348,481.
7.06,6094.,32.,14.,3871.,0.,0.,10011.,0.877976533505,1.42671186695,416.
7.08,6081.,32.,18.,3879.,0.,0.,10010.,0.876191116576,1.42381056444,416.
7.1,6075.,27.,17.,3892.,0.,0.,10011.,0.875239160001,1.68564578963,351.
7.12,6068.,29.,11.,3898.,0.,0.,10006.,0.874667507188,1.56836932323,377.
7.14,6064.,31.,6.,3907.,0.,0.,10008.,0.873916251614,1.46592403497,403.
7.16,6065.,31.,17.,3897.,0.,0.,10010.,0.873885729655,1.46587283684,403.
7.18,6054.,26.,25.,3905.,0.,0.,10010.,0.872300776147,1.74460155229,338.
7.2,6043.,34.,18.,3918.,0.,0.,10013.,0.87045494703,1.33128403663,442.
7.22,6034.,31.,27.,3922.,0.,0.,10014.,0.869071761073,1.45779779277,403.
7.24,6019.,33.,23.,3937.,0.,0.,10012.,0.867084498602,1.36631496749,429.
7.26,6003.,39.,18.,3958.,0.,0.,10018.,0.864261636746,1.15234884899,507.
7.28,5991.,30.,20.,3975.,0.,0.,10016.,0.862706208528,1.49535742812,390.
7.3,5980.,22.,16.,3996.,0.,0.,10014.,0.861294188137,2.03578626287,286.
7.32,5977.,24.,14.,3996.,0.,0.,10011.,0.861120075609,1.86576016382,312.
7.34,5968.,27.,10.,4005.,0.,0.,10010.,0.859909321448,1.65612165612,351.
7.36,5970.,27.,14.,4000.,0.,0.,10011.,0.860111569581,1.65651117105,351.
7.38,5967.,27.,8.,4011.,0.,0.,10013.,0.859507640068,1.65534804754,351.
7.4,5965.,18.,14.,4014.,0.,0.,10011.,0.859391208133,2.48268571238,234.
7.42,5966.,28.,7.,4011.,0.,0.,10012.,0.859449429915,1.59612036984,364.
7.44,5967.,23.,8.,4015.,0.,0.,10013.,0.859507640068,1.9432346645,299.
7.46,5965.,21.,10.,4019.,0.,0.,10015.,0.859047966512,2.12716639327,273.
7.48,5969.,24.,8.,4018.,0.,0.,10019.,0.859280827965,1.86177512726,312.
7.5,5965.,23.,8.,4021.,0.,0.,10017.,0.858876448499,1.94180762269,299.
7.52,5968.,18.,8.,4022.,0.,0.,10016.,0.859394200049,2.4826943557,234.
7.54,5979.,17.,5.,4019.,0.,0.,10020.,0.86063450023,2.63252905953,221.
7.56,5981.,13.,9.,4018.,0.,0.,10021.,0.860836474173,3.44334589669,169.
7.58,5984.,11.,8.,4020.,0.,0.,10023.,0.861096401354,4.07063753367,143.
7.6,5990.,13.,4.,4014.,0.,0.,10021.,0.862131830848,3.44852732339,169.
7.62,6000.,10.,4.,4008.,0.,0.,10022.,0.863484948498,4.49012173219,130.
7.64,5997.,12.,5.,4004.,0.,0.,10018.,0.863397807024,3.74139049711,156.
7.66,5990.,15.,2.,4006.,0.,0.,10013.,0.862820640859,2.99111155498,195.
7.68,5995.,11.,6.,4000.,0.,0.,10012.,0.863627109008,4.08260087895,143.
7.7,6002.,9.,6.,3997.,0.,0.,10014.,0.864462828963,4.99467412289,117.
7.72,6008.,6.,2.,4000.,0.,0.,10016.,0.865154214795,7.49800319489,78.
7.74,6015.,7.,0.,3996.,0.,0.,10018.,0.86598929619,6.43306334313,91.
7.76,6025.,7.,0.,3988.,0.,0.,10020.,0.86725587287,6.44247219846,91.
7.78,6032.,4.,1.,3980.,0.,0.,10017.,0.868523510033,11.2908056304,52.
7.8,6038.,3.,3.,3971.,0.,0.,10015.,0.869561043051,15.0723914129,39.
7.82,6043.,5.,3.,3964.,0.,0.,10015.,0.870281116786,9.05092361458,65.
7.84,6044.,3.,5.,3962.,0.,0.,10014.,0.870512052357,15.0888755742,39.
7.86,6050.,5.,1.,3960.,0.,0.,10016.,0.871202230278,9.06050319489,65.
7.88,6062.,2.,2.,3952.,0.,0.,10018.,0.872755962345,22.691655021,26.
7.9,6072.,4.,2.,3941.,0.,0.,10019.,0.874108424762,11.3634095219,52.
7.92,6075.,5.,3.,3937.,0.,0.,10020.,0.874453017043,9.09431137725,65.
7.94,6080.,10.,2.,3930.,0.,0.,10022.,0.874998081145,4.54999002195,130.
7.96,6084.,8.,4.,3924.,0.,0.,10020.,0.875748502994,5.69236526946,104.
7.98,6085.,11.,4.,3921.,0.,0.,10021.,0.875805040185,4.14016928087,143.
8.,6091.,11.,4.,3914.,0.,0.,10020.,0.876756103178,4.14466521502,143.
8.02,6096.,10.,7.,3905.,0.,0.,10018.,0.877650997435,4.56378518666,130.
8.04,6098.,10.,6.,3905.,0.,0.,10019.,0.877851313274,4.56482682902,130.
8.06,6097.,11.,9.,3902.,0.,0.,10019.,0.877707356024,4.14916204666,143.
8.08,6103.,15.,5.,3899.,0.,0.,10022.,0.87830810678,3.04480143684,195.
8.1,6108.,12.,8.,3895.,0.,0.,10023.,0.878939976516,3.80873989823,156.
8.12,6110.,11.,4.,3899.,0.,0.,10024.,0.879140063847,4.15593484728,143.
8.14,6121.,4.,7.,3893.,0.,0.,10025.,0.880634951084,11.4482543641,52.
8.16,6121.,6.,1.,3898.,0.,0.,10026.,0.88054711596,7.63140833832,78.
8.18,6128.,4.,2.,3892.,0.,0.,10026.,0.881554113152,11.460203471,52.
8.2,6131.,4.,2.,3885.,0.,0.,10022.,0.882337703207,11.4703901417,52.
8.22,6136.,4.,2.,3880.,0.,0.,10022.,0.883057273997,11.479744562,52.
8.24,6148.,4.,3.,3868.,0.,0.,10023.,0.884695968503,11.5010475905,52.
8.26,6155.,7.,0.,3865.,0.,0.,10027.,0.885349939778,6.57688526692,91.
8.28,6163.,5.,4.,3853.,0.,0.,10025.,0.886677536927,9.22144638404,65.
8.3,6174.,1.,4.,3847.,0.,0.,10026.,0.88817152327,46.1849192101,13.
8.32,6180.,4.,3.,3840.,0.,0.,10027.,0.888945999647,11.5562979954,52.
8.34,6188.,4.,0.,3835.,0.,0.,10027.,0.890096738805,11.5712576045,52.
8.36,6197.,4.,0.,3830.,0.,0.,10031.,0.891035865739,11.5834662546,52.
8.38,6202.,6.,5.,3820.,0.,0.,10033.,0.891577026582,7.72700089704,78.
8.4,6206.,8.,3.,3816.,0.,0.,10033.,0.892152052074,5.79898833848,104.
8.42,6216.,9.,2.,3807.,0.,0.,10034.,0.893500559636,5.1624476779,117.
8.44,6223.,10.,4.,3796.,0.,0.,10033.,0.894595910419,4.65189873418,130.
8.46,6223.,9.,7.,3793.,0.,0.,10032.,0.894685084652,5.16929160021,117.
8.48,6231.,7.,4.,3786.,0.,0.,10028.,0.896192583842,6.65743062283,91.
8.5,6232.,12.,3.,3782.,0.,0.,10029.,0.896247037438,3.88373716223,156.
8.52,6233.,14.,1.,3783.,0.,0.,10031.,0.896212127022,3.32878790037,182.
8.54,6242.,8.,6.,3772.,0.,0.,10028.,0.8977746924,5.8355355006,104.
8.56,6243.,7.,3.,3772.,0.,0.,10025.,0.898187224247,6.67224795155,91.
8.58,6250.,6.,2.,3768.,0.,0.,10026.,0.89910463564,7.79224017554,78.
8.6,6255.,6.,1.,3766.,0.,0.,10028.,0.899644457059,7.79691862784,78.
8.62,6261.,5.,4.,3761.,0.,0.,10031.,0.900238108019,9.3624763234,65.
8.64,6264.,8.,6.,3754.,0.,0.,10032.,0.900579683474,5.85376794258,104.
8.66,6265.,9.,5.,3751.,0.,0.,10030.,0.900903060051,5.20521768029,117.
8.68,6278.,8.,3.,3743.,0.,0.,10032.,0.902592473316,5.86685107656,104.
8.7,6280.,8.,3.,3741.,0.,0.,10032.,0.902880014722,5.86872009569,104.
8.72,6282.,7.,6.,3736.,0.,0.,10031.,0.903257593767,6.7099135537,91.
8.74,6292.,7.,5.,3730.,0.,0.,10034.,0.904424955152,6.71858538113,91.
8.76,6297.,10.,5.,3725.,0.,0.,10037.,0.90487312329,4.70534024111,130.
8.78,6296.,12.,5.,3724.,0.,0.,10037.,0.904729424207,3.92049417157,156.
8.8,6301.,11.,7.,3719.,0.,0.,10038.,0.905357717596,4.27987284682,143.
8.82,6302.,9.,6.,3719.,0.,0.,10036.,0.905681853021,5.23282848412,117.
8.84,6304.,12.,2.,3717.,0.,0.,10035.,0.906059560768,3.92625809666,156.
8.86,6307.,7.,5.,3716.,0.,0.,10035.,0.906490743935,6.73393124066,91.
8.88,6310.,9.,8.,3711.,0.,0.,10038.,0.9066508805,5.23842730956,117.
8.9,6312.,17.,3.,3708.,0.,0.,10040.,0.906757585044,2.77361143661,221.
8.92,6321.,12.,5.,3702.,0.,0.,10040.,0.908050490346,3.93488545817,156.
8.94,6319.,11.,6.,3703.,0.,0.,10039.,0.907853601723,4.29167157178,143.
8.96,6317.,11.,7.,3700.,0.,0.,10035.,0.907928021157,4.29202337274,143.
8.98,6324.,13.,2.,3700.,0.,0.,10039.,0.908571953995,3.63428781598,169.
9.,6326.,11.,5.,3698.,0.,0.,10040.,0.90876877107,4.29599782687,143.
9.02,6330.,13.,6.,3691.,0.,0.,10040.,0.909343395648,3.63737358259,169.
9.04,6336.,10.,8.,3687.,0.,0.,10041.,0.910114683643,4.73259635494,130.
9.06,6340.,8.,4.,3692.,0.,0.,10044.,0.910417241062,5.91771206691,104.
9.08,6347.,8.,5.,3683.,0.,0.,10043.,0.91151318561,5.92483570646,104.
9.1,6346.,3.,10.,3682.,0.,0.,10041.,0.91155110202,15.8002191017,39.
9.12,6345.,10.,6.,3680.,0.,0.,10041.,0.911407460182,4.73931879295,130.
9.14,6346.,10.,8.,3679.,0.,0.,10043.,0.911369572377,4.73912177636,130.
9.16,6344.,17.,4.,3677.,0.,0.,10042.,0.911173073093,2.78711763534,221.
9.18,6352.,12.,6.,3673.,0.,0.,10043.,0.912231251771,3.95300209101,156.
9.2,6357.,13.,1.,3672.,0.,0.,10043.,0.912949317933,3.65179727173,169.
9.22,6363.,10.,5.,3660.,0.,0.,10038.,0.914266173157,4.75418410042,130.
9.24,6365.,8.,6.,3655.,0.,0.,10034.,0.91491812453,5.94696780945,104.
9.26,6364.,10.,4.,3657.,0.,0.,10035.,0.9146832241,4.75635276532,130.
9.28,6369.,10.,6.,3648.,0.,0.,10033.,0.915584340906,4.76103857271,130.
9.3,6374.,10.,2.,3647.,0.,0.,10033.,0.916303122772,4.76477623841,130.
9.32,6376.,10.,2.,3643.,0.,0.,10031.,0.916773387115,4.767221613,130.
9.34,6385.,4.,8.,3632.,0.,0.,10029.,0.918250534987,11.9372569548,52.
9.36,6384.,11.,3.,3630.,0.,0.,10028.,0.918198275598,4.34057366646,143.
9.38,6390.,9.,4.,3623.,0.,0.,10026.,0.919244579478,5.31119090365,117.
9.4,6389.,11.,6.,3618.,0.,0.,10024.,0.919284102769,4.34570666763,143.
9.42,6386.,14.,9.,3613.,0.,0.,10022.,0.919035813518,3.41356159307,182.
9.44,6386.,10.,13.,3612.,0.,0.,10021.,0.919127524506,4.77946312743,130.
9.46,6379.,12.,13.,3616.,0.,0.,10020.,0.918211653616,3.97891716567,156.
9.48,6376.,16.,4.,3624.,0.,0.,10020.,0.917779824965,2.98278443114,208.
9.5,6377.,11.,11.,3623.,0.,0.,10022.,0.917740586095,4.33841004336,143.
9.52,6370.,21.,4.,3628.,0.,0.,10023.,0.916641724035,2.26977950713,273.
9.54,6376.,17.,11.,3623.,0.,0.,10027.,0.917139109021,2.80536668642,221.
9.56,6363.,20.,8.,3632.,0.,0.,10023.,0.915634425437,2.38064950614,260.
9.58,6366.,20.,7.,3630.,0.,0.,10023.,0.916066124836,2.38177192457,260.
9.6,6367.,15.,12.,3631.,0.,0.,10025.,0.916027239593,3.17556109726,195.
9.62,6371.,20.,4.,3634.,0.,0.,10029.,0.916237143054,2.38221657194,260.
9.64,6375.,13.,13.,3627.,0.,0.,10028.,0.916903823141,3.66761529257,169.
9.66,6370.,16.,10.,3632.,0.,0.,10028.,0.916184682888,2.97760021939,208.
9.68,6370.,23.,1.,3632.,0.,0.,10026.,0.916367444644,2.07178726615,299.
9.7,6380.,16.,6.,3625.,0.,0.,10027.,0.9177144786,2.98257205545,208.
9.72,6378.,16.,4.,3624.,0.,0.,10022.,0.917884500253,2.98312462582,208.
9.74,6385.,13.,3.,3621.,0.,0.,10022.,0.91889189936,3.67556759744,169.
9.76,6392.,9.,7.,3614.,0.,0.,10022.,0.919899298466,5.31497372447,117.
9.78,6392.,9.,7.,3613.,0.,0.,10021.,0.919991095622,5.31550410804,117.
9.8,6396.,6.,11.,3606.,0.,0.,10019.,0.92075057391,7.97983830722,78.
9.82,6388.,9.,12.,3610.,0.,0.,10019.,0.919598915906,5.31323818079,117.
9.84,6387.,15.,0.,3616.,0.,0.,10018.,0.919546738947,3.18776202835,195.
9.86,6397.,11.,4.,3607.,0.,0.,10019.,0.92089453116,4.35331960185,143.
9.88,6396.,11.,4.,3607.,0.,0.,10018.,0.92084248353,4.3530735585,143.
9.9,6402.,10.,8.,3596.,0.,0.,10016.,0.921890360039,4.7938298722,130.
9.92,6406.,11.,9.,3594.,0.,0.,10020.,0.922098111469,4.35900925422,143.
9.94,6401.,11.,9.,3595.,0.,0.,10016.,0.921746359671,4.35734642753,143.
9.96,6401.,14.,5.,3595.,0.,0.,10015.,0.921838396252,3.42397118608,182.
9.98,6397.,9.,14.,3593.,0.,0.,10013.,0.921446350514,5.32391224741,117.
10.,6398.,14.,1.,3600.,0.,0.,10013.,0.921590394026,3.42305003495,182.
