t,s,e,i,r,c,o,n,reff,coal,reportr
5.,6250.,5.,3.,3734.,0.,0.,9992.,0.902164038923,9.3825060048,65.
5.02,6257.,5.,5.,3725.,0.,0.,9992.,0.903174462647,9.39301441153,65.
5.04,6253.,13.,3.,3722.,0.,0.,9991.,0.902687418677,3.61074967471,169.
5.06,6257.,8.,5.,3718.,0.,0.,9988.,0.903536166477,5.8729850821,104.
5.08,6247.,22.,3.,3707.,0.,0.,9979.,0.902905717391,2.13414078656,286.
5.1,6250.,16.,9.,3702.,0.,0.,9977.,0.903520404623,2.93644131502,208.
5.12,6246.,14.,13.,3704.,0.,0.,9977.,0.902942151564,3.35378513438,182.
5.14,6242.,21.,11.,3703.,0.,0.,9977.,0.902363898505,2.23442489154,273.
5.16,6239.,21.,9.,3708.,0.,0.,9977.,0.901930208711,2.233350993,273.
5.18,6244.,21.,9.,3704.,0.,0.,9978.,0.90256256071,2.234916817,273.
5.2,6244.,19.,8.,3710.,0.,0.,9981.,0.902291276502,2.46942875674,247.
5.22,6243.,15.,10.,3710.,0.,0.,9978.,0.902418011934,3.12838244137,195.
5.24,6249.,13.,7.,3710.,0.,0.,9979.,0.903194785974,3.61277914389,169.
5.26,6255.,8.,11.,3704.,0.,0.,9978.,0.904152597252,5.87699188214,104.
5.28,6257.,11.,4.,3705.,0.,0.,9977.,0.904532347476,4.27597109716,143.
5.3,6254.,16.,3.,3702.,0.,0.,9975.,0.904279930596,2.93890977444,208.
5.32,6254.,15.,6.,3700.,0.,0.,9975.,0.904279930596,3.13483709273,195.
5.34,6250.,17.,12.,3695.,0.,0.,9974.,0.903792167327,2.76454074712,221.
5.36,6247.,19.,11.,3699.,0.,0.,9976.,0.903177240762,2.47185350103,247.
5.38,6241.,14.,9.,3708.,0.,0.,9972.,0.902671711562,3.35278064294,182.
5.4,6238.,10.,7.,3713.,0.,0.,9968.,0.902599858007,4.69351926164,130.
5.42,6234.,10.,9.,3712.,0.,0.,9965.,0.902292639623,4.69192172604,130.
5.44,6238.,13.,4.,3709.,0.,0.,9964.,0.90296220239,3.61184880956,169.
5.46,6241.,11.,6.,3703.,0.,0.,9961.,0.903668538068,4.2718876345,143.
5.48,6238.,13.,13.,3698.,0.,0.,9962.,0.9031434837,3.6125739348,169.
5.5,6243.,12.,11.,3699.,0.,0.,9965.,0.903595275773,3.91557952835,156.
5.52,6244.,17.,5.,3701.,0.,0.,9967.,0.903558666677,2.76382650984,221.
5.54,6252.,14.,6.,3696.,0.,0.,9968.,0.904625571058,3.36003783536,182.
5.56,6252.,18.,6.,3692.,0.,0.,9968.,0.904625571058,2.61336276083,234.
5.58,6254.,17.,7.,3688.,0.,0.,9966.,0.90509655907,2.76853065127,221.
5.6,6255.,17.,7.,3688.,0.,0.,9967.,0.90515045805,2.76869551874,221.
5.62,6260.,13.,8.,3682.,0.,0.,9963.,0.906237694856,3.62495077942,169.
5.64,6252.,21.,6.,3685.,0.,0.,9964.,0.904988728654,2.24092447095,273.
5.66,6250.,20.,8.,3687.,0.,0.,9965.,0.904608437223,2.35198193678,260.
5.68,6248.,20.,10.,3691.,0.,0.,9969.,0.903956110095,2.35028588625,260.
5.7,6259.,14.,7.,3694.,0.,0.,9974.,0.905093628048,3.36177633275,182.
5.72,6265.,13.,6.,3688.,0.,0.,9972.,0.906142969545,3.62457187818,169.
5.74,6261.,21.,4.,3688.,0.,0.,9974.,0.905382841542,2.24190036953,273.
5.76,6264.,15.,11.,3684.,0.,0.,9974.,0.905816661782,3.14016442751,195.
5.78,6262.,17.,9.,3690.,0.,0.,9978.,0.905164438688,2.76873828305,221.
5.8,6267.,13.,6.,3692.,0.,0.,9978.,0.905887182571,3.62354873028,169.
5.82,6271.,16.,5.,3687.,0.,0.,9979.,0.906374540381,2.94571725624,208.
5.84,6275.,13.,8.,3679.,0.,0.,9975.,0.907316367843,3.62926547137,169.
5.86,6274.,17.,9.,3677.,0.,0.,9977.,0.906989922977,2.77432211734,221.
5.88,6278.,16.,9.,3673.,0.,0.,9976.,0.907659151194,2.94989224138,208.
5.9,6277.,10.,14.,3673.,0.,0.,9974.,0.90769654949,4.72002205735,130.
5.92,6270.,19.,11.,3675.,0.,0.,9975.,0.906593406593,2.48120300752,247.
5.94,6266.,17.,14.,3679.,0.,0.,9976.,0.905924218123,2.77106231426,221.
5.96,6260.,20.,9.,3686.,0.,0.,9975.,0.905147484095,2.35338345865,260.
5.98,6268.,22.,5.,3680.,0.,0.,9975.,0.906304222094,2.14217361586,286.
6.,6264.,25.,7.,3678.,0.,0.,9974.,0.905816661782,1.88409865651,325.
6.02,6262.,27.,10.,3679.,0.,0.,9978.,0.905164438688,1.7432796597,351.
6.04,6254.,26.,12.,3687.,0.,0.,9979.,0.90391745743,1.80783491486,338.
6.06,6245.,26.,14.,3693.,0.,0.,9978.,0.902707109487,1.80541421897,338.
6.08,6240.,23.,12.,3700.,0.,0.,9975.,0.902255639098,2.03988231448,299.
6.1,6232.,19.,15.,3706.,0.,0.,9972.,0.901369989818,2.46690734055,247.
6.12,6227.,20.,15.,3708.,0.,0.,9970.,0.900827482447,2.34215145436,260.
6.14,6222.,21.,8.,3715.,0.,0.,9966.,0.900465428611,2.22972391847,273.
6.16,6220.,18.,8.,3720.,0.,0.,9966.,0.900175982957,2.60050839521,234.
6.18,6219.,17.,10.,3721.,0.,0.,9967.,0.899940959011,2.7527605805,221.
6.2,6212.,19.,11.,3726.,0.,0.,9968.,0.898837819484,2.45997719017,247.
6.22,6213.,14.,15.,3727.,0.,0.,9969.,0.898892335471,3.33874296032,182.
6.24,6201.,27.,7.,3736.,0.,0.,9971.,0.89697623107,1.72750977836,351.
6.26,6193.,28.,9.,3740.,0.,0.,9970.,0.895908880488,1.66383077805,364.
6.28,6202.,22.,11.,3737.,0.,0.,9972.,0.897030917338,2.12025489553,286.
6.3,6201.,18.,12.,3739.,0.,0.,9970.,0.897066198596,2.59152457372,234.
6.32,6194.,23.,10.,3742.,0.,0.,9969.,0.896143429246,2.02606340525,299.
6.34,6198.,21.,12.,3740.,0.,0.,9971.,0.896542280305,2.22000945599,273.
6.36,6198.,23.,11.,3738.,0.,0.,9970.,0.896632204305,2.02716846191,299.
6.38,6192.,25.,14.,3738.,0.,0.,9969.,0.895854070696,1.86337646705,325.
6.4,6187.,25.,18.,3738.,0.,0.,9968.,0.89522047475,1.86205858748,325.
6.42,6162.,47.,16.,3744.,0.,0.,9969.,0.891513692447,0.986355574622,611.
6.44,6151.,44.,17.,3755.,0.,0.,9967.,0.890100794159,1.05193730219,572.
6.46,6119.,56.,26.,3763.,0.,0.,9964.,0.885736729148,0.822469819923,728.
6.48,6095.,65.,25.,3782.,0.,0.,9967.,0.881997128987,0.70559770319,845.
6.5,6071.,61.,28.,3804.,0.,0.,9964.,0.878788639101,0.749131298906,793.
6.52,6050.,57.,28.,3827.,0.,0.,9962.,0.875924667583,0.799089170427,741.
6.54,6037.,64.,25.,3838.,0.,0.,9964.,0.873867075317,0.710016998695,832.
6.56,6004.,60.,37.,3860.,0.,0.,9961.,0.869352011306,0.753438409798,780.
6.58,5986.,60.,19.,3892.,0.,0.,9957.,0.867093888335,0.751481369891,780.
6.6,5970.,49.,27.,3910.,0.,0.,9956.,0.864863089903,0.917813891326,637.
6.62,5958.,41.,35.,3923.,0.,0.,9957.,0.863037986419,1.09458476326,533.
6.64,5945.,41.,29.,3945.,0.,0.,9960.,0.860895505097,1.09186746988,533.
6.66,5938.,42.,22.,3957.,0.,0.,9959.,0.859968177219,1.06472250513,546.
6.68,5932.,38.,15.,3972.,0.,0.,9957.,0.859271791782,1.17584560981,494.
6.7,5920.,37.,12.,3984.,0.,0.,9953.,0.857878181298,1.20566663318,481.
6.72,5910.,40.,17.,3982.,0.,0.,9949.,0.856773390445,1.11380540758,520.
6.74,5910.,37.,9.,3994.,0.,0.,9950.,0.856687282567,1.20399293766,481.
6.76,5897.,36.,7.,4006.,0.,0.,9946.,0.855146637999,1.23521181044,468.
6.78,5890.,27.,9.,4016.,0.,0.,9942.,0.854475186853,1.64565591542,351.
6.8,5891.,23.,12.,4018.,0.,0.,9944.,0.854448372424,1.93179632026,299.
6.82,5891.,20.,13.,4021.,0.,0.,9945.,0.854362455041,2.22134238311,260.
6.84,5881.,22.,18.,4023.,0.,0.,9944.,0.852997942323,2.01617695458,286.
6.86,5874.,36.,13.,4024.,0.,0.,9947.,0.85172568459,1.2302704333,468.
6.88,5874.,32.,13.,4031.,0.,0.,9950.,0.851468882876,1.38363693467,416.
6.9,5871.,29.,16.,4036.,0.,0.,9952.,0.850862988499,1.52568535869,377.
6.92,5872.,26.,12.,4042.,0.,0.,9952.,0.851007914915,1.70201582983,338.
6.94,5870.,23.,11.,4046.,0.,0.,9950.,0.850889060688,1.92374918069,299.
6.96,5870.,21.,15.,4043.,0.,0.,9949.,0.850974585772,2.10717516477,273.
6.98,5861.,26.,13.,4047.,0.,0.,9947.,0.84984069414,1.69968138828,338.
7.,5859.,25.,16.,4047.,0.,0.,9947.,0.84955069561,1.76706544687,325.
7.02,5854.,24.,13.,4055.,0.,0.,9946.,0.848911042708,1.8393072592,312.
7.04,5851.,28.,9.,4058.,0.,0.,9946.,0.848476001176,1.57574114504,364.
7.06,5853.,30.,6.,4057.,0.,0.,9946.,0.848766028864,1.47119445003,390.
7.08,5852.,22.,13.,4058.,0.,0.,9945.,0.848706346444,2.0060331825,286.
7.1,5842.,30.,11.,4061.,0.,0.,9944.,0.84734126493,1.46872485921,390.
7.12,5842.,29.,10.,4066.,0.,0.,9947.,0.847085708099,1.51891230418,377.
7.14,5841.,25.,13.,4069.,0.,0.,9948.,0.846855572052,1.76145958987,325.
7.16,5833.,35.,8.,4071.,0.,0.,9947.,0.845780714711,1.25658849043,455.
7.18,5839.,26.,14.,4066.,0.,0.,9945.,0.846820976911,1.69364195382,338.
7.2,5836.,27.,12.,4071.,0.,0.,9946.,0.846300793516,1.62991263936,351.
7.22,5834.,25.,12.,4073.,0.,0.,9944.,0.846180920849,1.76005631537,325.
7.24,5834.,27.,10.,4073.,0.,0.,9944.,0.846180920849,1.62968177349,351.
7.26,5824.,31.,12.,4078.,0.,0.,9945.,0.844645550528,1.41682479443,403.
7.28,5823.,29.,15.,4081.,0.,0.,9948.,0.844245847638,1.51382014059,377.
7.3,5821.,30.,17.,4080.,0.,0.,9948.,0.843955878259,1.46285685565,390.
7.32,5820.,28.,22.,4080.,0.,0.,9950.,0.84364128334,1.56676238335,364.
7.34,5809.,35.,14.,4095.,0.,0.,9953.,0.841792965399,1.25066383431,455.
7.36,5802.,38.,19.,4098.,0.,0.,9957.,0.840440818597,1.15007690966,494.
7.38,5793.,37.,20.,4103.,0.,0.,9953.,0.83947437572,1.17980182534,481.
7.4,5794.,35.,15.,4111.,0.,0.,9955.,0.839450604644,1.24718375547,455.
7.42,5793.,25.,22.,4118.,0.,0.,9958.,0.8390528682,1.74522996586,325.
7.44,5772.,29.,25.,4131.,0.,0.,9957.,0.8360952094,1.49920520306,377.
7.46,5770.,30.,20.,4140.,0.,0.,9960.,0.835553753475,1.44829317269,390.
7.48,5769.,27.,23.,4142.,0.,0.,9961.,0.835325075487,1.60877421946,351.
7.5,5763.,29.,17.,4153.,0.,0.,9962.,0.834372538724,1.49611627633,377.
7.52,5750.,26.,24.,4161.,0.,0.,9961.,0.832573961527,1.66514792305,338.
7.54,5737.,34.,19.,4171.,0.,0.,9961.,0.830691620396,1.27046953708,442.
7.56,5727.,42.,13.,4172.,0.,0.,9954.,0.829826818751,1.02740463274,546.
7.58,5730.,32.,20.,4173.,0.,0.,9955.,0.830178109184,1.34903942742,416.
7.6,5729.,28.,17.,4184.,0.,0.,9958.,0.829783166221,1.54102588013,364.
7.62,5729.,28.,16.,4186.,0.,0.,9959.,0.829699846293,1.54087114312,364.
7.64,5731.,21.,23.,4185.,0.,0.,9960.,0.829906163114,2.05500573723,273.
7.66,5733.,21.,11.,4196.,0.,0.,9961.,0.83011243851,2.05551651441,273.
7.68,5734.,22.,9.,4197.,0.,0.,9962.,0.830173891557,1.96222919823,286.
7.7,5730.,23.,17.,4195.,0.,0.,9965.,0.829345015246,1.87504090403,299.
7.72,5720.,28.,16.,4202.,0.,0.,9966.,0.827814569536,1.53736991485,364.
7.74,5699.,33.,24.,4207.,0.,0.,9963.,0.82502374169,1.30003741115,429.
7.76,5681.,37.,24.,4220.,0.,0.,9962.,0.822500501907,1.15594665133,481.
7.78,5671.,44.,25.,4220.,0.,0.,9960.,0.821217562558,0.970529846659,572.
7.8,5650.,46.,23.,4240.,0.,0.,9959.,0.818258706852,0.924988103398,598.
7.82,5646.,39.,17.,4257.,0.,0.,9959.,0.817679408652,1.09023921154,507.
7.84,5645.,36.,16.,4263.,0.,0.,9960.,0.817452502317,1.18076472557,468.
7.86,5645.,24.,14.,4275.,0.,0.,9958.,0.817616682374,1.77150281181,312.
7.88,5643.,22.,17.,4278.,0.,0.,9960.,0.817162882298,1.93147590361,286.
7.9,5638.,28.,11.,4284.,0.,0.,9961.,0.816356868711,1.51609132761,364.
7.92,5637.,19.,10.,4296.,0.,0.,9962.,0.816130140688,2.23361933241,247.
7.94,5638.,16.,12.,4294.,0.,0.,9960.,0.816438832252,2.65342620482,208.
7.96,5634.,19.,3.,4305.,0.,0.,9961.,0.815777686825,2.23265472184,247.
7.98,5638.,17.,4.,4302.,0.,0.,9961.,0.816356868711,2.49709159841,221.
8.,5644.,7.,12.,4299.,0.,0.,9962.,0.817143607246,6.07020965383,91.
8.02,5650.,7.,5.,4298.,0.,0.,9960.,0.818176552363,6.07788296041,91.
8.04,5655.,11.,1.,4293.,0.,0.,9960.,0.81890060241,3.87116648412,143.
8.06,5655.,11.,7.,4285.,0.,0.,9958.,0.819065073308,3.87194398291,143.
8.08,5660.,9.,6.,4281.,0.,0.,9956.,0.819953951232,4.73751171823,117.
8.1,5660.,12.,11.,4276.,0.,0.,9959.,0.819706952351,3.55206346019,156.
8.12,5670.,10.,9.,4274.,0.,0.,9963.,0.820825515947,4.26829268293,130.
8.14,5675.,11.,5.,4273.,0.,0.,9964.,0.821466896211,3.88329805482,143.
8.16,5682.,6.,8.,4269.,0.,0.,9965.,0.822397622448,7.12744606121,78.
8.18,5683.,10.,3.,4270.,0.,0.,9966.,0.822459824943,4.2767910897,130.
8.2,5694.,6.,6.,4259.,0.,0.,9965.,0.824134470647,7.14249874561,78.
8.22,5700.,5.,8.,4251.,0.,0.,9964.,0.825085693111,8.58089120835,65.
8.24,5706.,7.,2.,4253.,0.,0.,9968.,0.825622762069,6.13319766109,91.
8.26,5709.,9.,3.,4248.,0.,0.,9969.,0.825973980879,4.77229411175,117.
8.28,5716.,4.,9.,4240.,0.,0.,9969.,0.826986735804,10.7508275655,52.
8.3,5717.,9.,11.,4231.,0.,0.,9968.,0.827214393752,4.77946094168,117.
8.32,5722.,9.,3.,4234.,0.,0.,9968.,0.827937862699,4.78364098448,117.
8.34,5729.,9.,0.,4230.,0.,0.,9968.,0.828950719225,4.78949304441,117.
8.36,5742.,5.,0.,4223.,0.,0.,9970.,0.830665072139,8.63891675025,65.
8.38,5753.,3.,2.,4212.,0.,0.,9970.,0.832256384538,14.425777332,39.
8.4,5755.,3.,1.,4214.,0.,0.,9973.,0.832295274163,14.4264514188,39.
8.42,5766.,2.,3.,4201.,0.,0.,9972.,0.83396973063,21.6832129964,26.
8.44,5778.,1.,3.,4194.,0.,0.,9976.,0.835370273271,43.4392542101,13.
8.46,5793.,0.,2.,4184.,0.,0.,9979.,0.837287149167,inf,0.
8.48,5797.,3.,1.,4178.,0.,0.,9979.,0.837865286332,14.5229982964,39.
8.5,5809.,2.,1.,4169.,0.,0.,9981.,0.839431458232,21.825217914,26.
8.52,5813.,6.,0.,4157.,0.,0.,9976.,0.840430494726,7.28373095429,78.
8.54,5820.,4.,3.,4150.,0.,0.,9977.,0.841358200785,10.9376566102,52.
8.56,5823.,5.,2.,4147.,0.,0.,9977.,0.841791890579,8.75463566202,65.
8.58,5831.,5.,2.,4140.,0.,0.,9978.,0.842863916,8.7657847264,65.
8.6,5848.,5.,1.,4128.,0.,0.,9982.,0.844982506974,8.78781807253,65.
8.62,5858.,6.,2.,4119.,0.,0.,9985.,0.846173105813,7.33350025038,78.
8.64,5861.,3.,4.,4117.,0.,0.,9985.,0.846606448134,14.6745117677,39.
8.66,5861.,8.,6.,4109.,0.,0.,9984.,0.846691244453,5.50349308894,104.
8.68,5869.,12.,3.,4099.,0.,0.,9983.,0.847931868792,3.67437143143,156.
8.7,5875.,8.,6.,4092.,0.,0.,9981.,0.84896880997,5.5182972648,104.
8.72,5883.,7.,7.,4084.,0.,0.,9981.,0.850124852605,6.31521319078,91.
8.74,5881.,9.,5.,4085.,0.,0.,9980.,0.849920995838,4.91065464262,117.
8.76,5887.,9.,3.,4079.,0.,0.,9978.,0.850958647486,4.91664996325,117.
8.78,5895.,12.,0.,4073.,0.,0.,9980.,0.851944273162,3.69175851703,156.
8.8,5903.,8.,6.,4062.,0.,0.,9979.,0.853185921204,5.54570848782,104.
8.82,5909.,9.,6.,4059.,0.,0.,9983.,0.853710923955,4.93255200508,117.
8.84,5905.,16.,0.,4060.,0.,0.,9981.,0.85330396985,2.77323790201,208.
8.86,5907.,12.,6.,4052.,0.,0.,9977.,0.853935204817,3.70038588754,156.
8.88,5913.,13.,7.,4047.,0.,0.,9980.,0.854545629721,3.41818251888,169.
8.9,5920.,12.,7.,4044.,0.,0.,9983.,0.855300164125,3.70630071121,156.
8.92,5920.,15.,7.,4040.,0.,0.,9982.,0.855385848373,2.96533760769,195.
8.94,5930.,13.,8.,4033.,0.,0.,9984.,0.856659116124,3.4266364645,169.
8.96,5942.,11.,8.,4027.,0.,0.,9988.,0.858048889437,4.0562311137,143.
8.98,5944.,16.,5.,4021.,0.,0.,9986.,0.858509605756,2.79015621871,208.
9.,5950.,11.,6.,4015.,0.,0.,9982.,0.859720573956,4.06413362234,143.
9.02,5955.,9.,5.,4012.,0.,0.,9981.,0.860529236318,4.97194669873,117.
9.04,5959.,11.,1.,4010.,0.,0.,9981.,0.861107257636,4.07068885428,143.
9.06,5965.,6.,3.,4007.,0.,0.,9981.,0.861974289612,7.4704438433,78.
9.08,5973.,5.,3.,4003.,0.,0.,9984.,0.86287097818,8.97385817308,65.
9.1,5981.,7.,5.,3995.,0.,0.,9988.,0.863680647546,6.41591338177,91.
9.12,5993.,8.,3.,3982.,0.,0.,9986.,0.86558682155,5.62631434008,104.
9.14,6000.,7.,2.,3979.,0.,0.,9988.,0.866424324574,6.43629498255,91.
9.16,6015.,5.,4.,3969.,0.,0.,9993.,0.868155785973,9.02882017412,65.
9.18,6021.,6.,4.,3961.,0.,0.,9992.,0.869108748537,7.53227582066,78.
9.2,6019.,10.,5.,3958.,0.,0.,9992.,0.868820056045,4.51786429143,130.
9.22,6023.,5.,8.,3954.,0.,0.,9990.,0.869571494571,9.04354354354,65.
9.24,6025.,6.,3.,3951.,0.,0.,9985.,0.870295828358,7.54256384577,78.
9.26,6025.,5.,3.,3949.,0.,0.,9982.,0.870557387914,9.0537968343,65.
9.28,6027.,6.,2.,3946.,0.,0.,9981.,0.870933620032,7.54809137361,78.
9.3,6034.,7.,5.,3936.,0.,0.,9982.,0.871857805589,6.47665798437,91.
9.32,6040.,6.,6.,3930.,0.,0.,9982.,0.872724750705,7.56361450611,78.
9.34,6041.,5.,4.,3929.,0.,0.,9979.,0.873131653395,9.08056919531,65.
9.36,6040.,8.,5.,3925.,0.,0.,9978.,0.873074610296,5.67498496693,104.
9.38,6050.,8.,2.,3919.,0.,0.,9979.,0.874432462016,5.68381100311,104.
9.4,6058.,10.,2.,3912.,0.,0.,9982.,0.875325586055,4.55169304749,130.
9.42,6069.,7.,8.,3902.,0.,0.,9986.,0.87656372768,6.51161626277,91.
9.44,6073.,9.,10.,3892.,0.,0.,9984.,0.877317169009,5.06894364316,117.
9.46,6063.,19.,10.,3893.,0.,0.,9985.,0.875784831093,2.39688480089,247.
9.48,6069.,17.,5.,3898.,0.,0.,9989.,0.876300468977,2.68044849334,221.
9.5,6082.,12.,7.,3890.,0.,0.,9991.,0.878001740028,3.80467420679,156.
9.52,6087.,11.,8.,3887.,0.,0.,9993.,0.878547675681,4.15313446685,143.
9.54,6084.,15.,6.,3887.,0.,0.,9992.,0.87820256205,3.04443554844,195.
9.56,6091.,16.,5.,3882.,0.,0.,9994.,0.879037037607,2.85687037222,208.
9.58,6093.,12.,6.,3883.,0.,0.,9994.,0.879325672326,3.81041124675,156.
9.6,6097.,13.,3.,3882.,0.,0.,9995.,0.879814907454,3.51925962981,169.
9.62,6097.,14.,4.,3881.,0.,0.,9996.,0.879726890756,3.26755702281,182.
9.64,6104.,17.,2.,3872.,0.,0.,9995.,0.880825027899,2.69428832063,221.
9.66,6106.,13.,4.,3870.,0.,0.,9993.,0.881289979909,3.52515991964,169.
9.68,6113.,13.,2.,3869.,0.,0.,9997.,0.881947276491,3.52778910596,169.
9.7,6113.,9.,2.,3871.,0.,0.,9995.,0.882123754185,5.09671502418,117.
9.72,6119.,8.,2.,3863.,0.,0.,9992.,0.883254680668,5.74115542434,104.
9.74,6126.,5.,9.,3853.,0.,0.,9993.,0.884176615939,9.19543680576,65.
9.76,6139.,2.,9.,3845.,0.,0.,9995.,0.885875630123,23.0327663832,26.
9.78,6137.,11.,4.,3847.,0.,0.,9999.,0.885232754045,4.18473665548,143.
9.8,6150.,6.,3.,3842.,0.,0.,10001.,0.886930537715,7.68673132687,78.
9.82,6156.,4.,3.,3833.,0.,0.,9996.,0.888239911349,11.5471188475,52.
9.84,6162.,5.,0.,3830.,0.,0.,9997.,0.889016705012,9.24577373212,65.
9.86,6171.,3.,3.,3820.,0.,0.,9997.,0.890315171475,15.4321296389,39.
9.88,6180.,4.,3.,3810.,0.,0.,9997.,0.891613637938,11.5909772932,52.
9.9,6181.,2.,4.,3808.,0.,0.,9995.,0.891936352792,23.1903451726,26.
9.92,6191.,7.,2.,3796.,0.,0.,9996.,0.893290008311,6.63586863317,91.
9.94,6197.,6.,1.,3791.,0.,0.,9995.,0.894245199523,7.75012506253,78.
9.96,6209.,4.,3.,3780.,0.,0.,9996.,0.895887201034,11.6465336134,52.
9.98,6214.,4.,1.,3775.,0.,0.,9994.,0.896788072844,11.658244947,52.
10.,6217.,3.,0.,3774.,0.,0.,9994.,0.897221024923,15.5518310987,39.
