t,s,e,i,r,c,o,n,reff,coal,reportr
5.,6250.,5.,3.,3734.,0.,0.,9992.,0.902164038923,9.3825060048,65.
5.02,6248.,6.,4.,3737.,0.,0.,9995.,0.901604648478,7.81390695348,78.
5.04,6258.,6.,4.,3732.,0.,0.,10000.,0.902596153846,7.8225,78.
5.06,6264.,7.,4.,3721.,0.,0.,9996.,0.903823067689,6.71411421712,91.
5.08,6267.,6.,6.,3716.,0.,0.,9995.,0.904346403971,7.83766883442,78.
5.1,6268.,7.,1.,3718.,0.,0.,9994.,0.904581210265,6.71974613339,91.
5.12,6267.,6.,4.,3713.,0.,0.,9990.,0.904799029799,7.84159159159,78.
5.14,6273.,6.,0.,3714.,0.,0.,9993.,0.905393390758,7.8467427199,78.
5.16,6279.,5.,1.,3709.,0.,0.,9994.,0.906168701221,9.4241544927,65.
5.18,6290.,4.,2.,3696.,0.,0.,9992.,0.907937888773,11.803192554,52.
5.2,6297.,6.,3.,3686.,0.,0.,9992.,0.908948312496,7.87755204163,78.
5.22,6303.,6.,0.,3686.,0.,0.,9995.,0.909541309116,7.88269134567,78.
5.24,6312.,6.,1.,3676.,0.,0.,9995.,0.910840035402,7.89394697349,78.
5.26,6317.,3.,5.,3669.,0.,0.,9994.,0.911652760887,15.8019811887,39.
5.28,6319.,4.,3.,3668.,0.,0.,9994.,0.911941395607,11.8552381429,52.
5.3,6326.,6.,2.,3660.,0.,0.,9994.,0.912951617124,7.91224734841,78.
5.32,6333.,6.,1.,3656.,0.,0.,9996.,0.913778973128,7.91941776711,78.
5.34,6344.,3.,0.,3651.,0.,0.,9998.,0.915183036607,15.8631726345,39.
5.36,6348.,4.,1.,3642.,0.,0.,9995.,0.916034940547,11.9084542271,52.
5.38,6348.,2.,5.,3640.,0.,0.,9995.,0.916034940547,23.8169084542,26.
5.4,6358.,3.,5.,3634.,0.,0.,10000.,0.917019230769,15.895,39.
5.42,6360.,6.,5.,3630.,0.,0.,10001.,0.917215970711,7.94920507949,78.
5.44,6364.,8.,5.,3626.,0.,0.,10003.,0.917609332585,5.9644606618,104.
5.46,6382.,5.,4.,3619.,0.,0.,10010.,0.919561208023,9.56343656344,65.
5.48,6386.,6.,3.,3617.,0.,0.,10012.,0.91995374781,7.97293248102,78.
5.5,6393.,7.,1.,3612.,0.,0.,10013.,0.920870176463,6.8407498823,91.
5.52,6396.,7.,2.,3609.,0.,0.,10014.,0.921210305572,6.84327655568,91.
5.54,6403.,6.,2.,3600.,0.,0.,10011.,0.922494871026,7.9949555489,78.
5.56,6409.,6.,2.,3597.,0.,0.,10014.,0.923082684242,8.0000499301,78.
5.58,6407.,6.,3.,3596.,0.,0.,10012.,0.922978963705,7.99915101878,78.
5.6,6405.,11.,3.,3593.,0.,0.,10012.,0.922690847906,4.36181128101,143.
5.62,6408.,10.,8.,3587.,0.,0.,10013.,0.923030829153,4.79976031159,130.
5.64,6403.,13.,9.,3586.,0.,0.,10011.,0.922494871026,3.68997948411,169.
5.66,6397.,12.,17.,3582.,0.,0.,10008.,0.921906705405,3.99492905675,156.
5.68,6384.,27.,7.,3590.,0.,0.,10008.,0.920033204206,1.77191580069,351.
5.7,6383.,31.,9.,3584.,0.,0.,10007.,0.919981013291,1.54319395778,403.
5.72,6374.,29.,12.,3593.,0.,0.,10008.,0.918592049437,1.6471305714,377.
5.74,6377.,19.,14.,3601.,0.,0.,10011.,0.918748991494,2.51447092409,247.
5.76,6372.,24.,9.,3605.,0.,0.,10010.,0.918120341197,1.98926073926,312.
5.78,6366.,24.,15.,3607.,0.,0.,10012.,0.917072589815,1.98699061127,312.
5.8,6363.,29.,10.,3612.,0.,0.,10014.,0.916457344333,1.64330282432,377.
5.82,6362.,20.,15.,3617.,0.,0.,10014.,0.916313315205,2.38241461953,260.
5.84,6360.,15.,5.,3633.,0.,0.,10013.,0.916116740545,3.17587136722,195.
5.86,6365.,16.,8.,3626.,0.,0.,10015.,0.916653865356,2.97912506241,208.
5.88,6362.,17.,12.,3622.,0.,0.,10013.,0.91640482757,2.80312064904,221.
5.9,6356.,27.,3.,3629.,0.,0.,10015.,0.915357732632,1.76291118877,351.
5.92,6361.,21.,5.,3626.,0.,0.,10013.,0.916260784058,2.26883622719,273.
5.94,6354.,23.,9.,3629.,0.,0.,10015.,0.915069703138,2.06885324188,299.
5.96,6359.,23.,2.,3635.,0.,0.,10019.,0.915424155643,2.06965461276,299.
5.98,6362.,14.,11.,3634.,0.,0.,10021.,0.915673240042,3.40107203444,182.
6.,6359.,8.,15.,3639.,0.,0.,10021.,0.915241454484,5.94906945415,104.
6.02,6344.,20.,15.,3643.,0.,0.,10022.,0.912991418878,2.37377768908,260.
6.04,6335.,26.,13.,3647.,0.,0.,10021.,0.91178717002,1.82357434004,338.
6.06,6334.,18.,17.,3649.,0.,0.,10018.,0.91191624307,2.6344247022,234.
6.08,6330.,23.,8.,3656.,0.,0.,10017.,0.91143133596,2.06062736826,299.
6.1,6332.,22.,8.,3659.,0.,0.,10021.,0.911355384462,2.15411272691,286.
6.12,6328.,22.,8.,3662.,0.,0.,10020.,0.910870566559,2.15296679369,286.
6.14,6322.,27.,11.,3664.,0.,0.,10024.,0.90964377801,1.75190653543,351.
6.16,6311.,34.,17.,3663.,0.,0.,10025.,0.907970458469,1.38866070119,442.
6.18,6302.,35.,15.,3672.,0.,0.,10024.,0.906766069126,1.3471953027,455.
6.2,6306.,18.,20.,3678.,0.,0.,10022.,0.907522680871,2.62173218918,234.
6.22,6297.,30.,16.,3679.,0.,0.,10022.,0.906227453449,1.57079425264,390.
6.24,6295.,26.,13.,3685.,0.,0.,10019.,0.906210891614,1.81242178323,338.
6.26,6295.,28.,12.,3686.,0.,0.,10021.,0.906030029246,1.68262719717,364.
6.28,6291.,28.,16.,3682.,0.,0.,10017.,0.905815882231,1.68222949557,364.
6.3,6289.,30.,9.,3691.,0.,0.,10019.,0.905347148111,1.56926839006,390.
6.32,6292.,20.,10.,3699.,0.,0.,10021.,0.905598243688,2.35455543359,260.
6.34,6292.,18.,8.,3703.,0.,0.,10021.,0.905598243688,2.61617270399,234.
6.36,6293.,22.,8.,3702.,0.,0.,10025.,0.905380778822,2.13999093176,286.
6.38,6294.,20.,5.,3703.,0.,0.,10022.,0.905795710974,2.35506884853,260.
6.4,6295.,22.,8.,3699.,0.,0.,10024.,0.905758871017,2.14088460422,286.
6.42,6297.,21.,9.,3698.,0.,0.,10025.,0.905956263188,2.24332027075,273.
6.44,6302.,20.,9.,3694.,0.,0.,10025.,0.906675618646,2.35735660848,260.
6.46,6300.,19.,9.,3694.,0.,0.,10022.,0.906659195923,2.48138306253,247.
6.48,6296.,25.,6.,3699.,0.,0.,10026.,0.905722045758,1.88390185518,325.
6.5,6295.,19.,12.,3701.,0.,0.,10027.,0.905487875045,2.47817734223,247.
6.52,6296.,19.,12.,3704.,0.,0.,10031.,0.905270584266,2.47758265167,247.
6.54,6297.,20.,4.,3713.,0.,0.,10034.,0.905143665384,2.35337353,260.
6.56,6297.,14.,14.,3713.,0.,0.,10038.,0.904782978528,3.36062249167,182.
6.58,6297.,17.,5.,3719.,0.,0.,10038.,0.904782978528,2.76757146373,221.
6.6,6302.,18.,6.,3711.,0.,0.,10037.,0.905591618703,2.61615356514,234.
6.62,6303.,18.,5.,3711.,0.,0.,10037.,0.905735317786,2.61656869583,234.
6.64,6305.,17.,4.,3708.,0.,0.,10034.,0.906293601754,2.7721921936,221.
6.66,6311.,19.,4.,3704.,0.,0.,10038.,0.906794565267,2.48175354705,247.
6.68,6306.,14.,8.,3702.,0.,0.,10030.,0.906798834266,3.36810995585,182.
6.7,6301.,18.,8.,3703.,0.,0.,10030.,0.906079837411,2.61756397474,234.
6.72,6296.,24.,9.,3703.,0.,0.,10032.,0.90518034597,1.96122408293,312.
6.74,6304.,21.,7.,3701.,0.,0.,10033.,0.906240176648,2.24402329456,273.
6.76,6303.,20.,13.,3700.,0.,0.,10036.,0.905825566422,2.3551464727,260.
6.78,6295.,24.,9.,3711.,0.,0.,10039.,0.904405510816,1.95954527343,312.
6.8,6293.,19.,16.,3710.,0.,0.,10038.,0.904208239459,2.47467518168,247.
6.82,6282.,31.,13.,3712.,0.,0.,10038.,0.902627707021,1.51408518597,403.
6.84,6278.,27.,19.,3713.,0.,0.,10037.,0.90214284072,1.73746028583,351.
6.86,6265.,27.,19.,3723.,0.,0.,10034.,0.900543919903,1.73438088278,351.
6.88,6254.,31.,18.,3729.,0.,0.,10032.,0.899141976445,1.50823815404,403.
6.9,6244.,31.,13.,3745.,0.,0.,10033.,0.897614794256,1.50567642907,403.
6.92,6243.,28.,15.,3749.,0.,0.,10035.,0.897292169714,1.66639974375,364.
6.94,6231.,32.,19.,3754.,0.,0.,10036.,0.895478201551,1.45515207752,416.
6.96,6216.,35.,18.,3765.,0.,0.,10034.,0.893500559636,1.32748654574,455.
6.98,6202.,40.,14.,3778.,0.,0.,10034.,0.891488170988,1.15893462228,520.
7.,6191.,41.,13.,3788.,0.,0.,10033.,0.889995706476,1.12877504236,533.
7.02,6175.,43.,15.,3796.,0.,0.,10029.,0.888049655998,1.07392051423,559.
7.04,6157.,49.,14.,3809.,0.,0.,10029.,0.885461009227,0.939672907751,637.
7.06,6145.,46.,23.,3817.,0.,0.,10031.,0.883559043887,0.998805875698,598.
7.08,6128.,50.,27.,3827.,0.,0.,10032.,0.881026867869,0.916267942584,650.
7.1,6110.,50.,21.,3851.,0.,0.,10032.,0.878438995215,0.913576555024,650.
7.12,6103.,40.,22.,3870.,0.,0.,10035.,0.877170288605,1.14032137519,520.
7.14,6087.,39.,23.,3882.,0.,0.,10031.,0.875219511821,1.16695934909,507.
7.16,6075.,43.,16.,3897.,0.,0.,10031.,0.873494091394,1.0563184361,559.
7.18,6074.,35.,14.,3907.,0.,0.,10030.,0.873437380167,1.29767839339,455.
7.2,6063.,35.,16.,3914.,0.,0.,10028.,0.872029471326,1.29558664311,455.
7.22,6059.,29.,20.,3917.,0.,0.,10025.,0.871714943411,1.56307507094,377.
7.24,6050.,32.,12.,3933.,0.,0.,10027.,0.870246488328,1.41415054353,416.
7.26,6046.,28.,22.,3932.,0.,0.,10028.,0.869584394465,1.61494244686,364.
7.28,6036.,38.,14.,3940.,0.,0.,10028.,0.868146113958,1.1879894191,494.
7.3,6024.,45.,12.,3948.,0.,0.,10029.,0.866333785867,1.00109681922,585.
7.32,6025.,40.,16.,3949.,0.,0.,10030.,0.866391210982,1.12630857428,520.
7.34,6024.,36.,16.,3952.,0.,0.,10028.,0.86642017735,1.25149581173,468.
7.36,6021.,35.,9.,3960.,0.,0.,10025.,0.866247841934,1.28699679373,455.
7.38,6026.,22.,12.,3965.,0.,0.,10025.,0.866967197391,2.04919519383,286.
7.4,6020.,20.,16.,3965.,0.,0.,10021.,0.866449686428,2.25276918471,260.
7.42,6027.,25.,5.,3965.,0.,0.,10022.,0.867370630766,1.80413091199,325.
7.44,6031.,14.,12.,3967.,0.,0.,10024.,0.867773113758,3.22315727967,182.
7.46,6021.,22.,7.,3968.,0.,0.,10018.,0.866853125912,2.04892557034,286.
7.48,6028.,15.,14.,3960.,0.,0.,10017.,0.867947566061,3.00888489568,195.
7.5,6027.,18.,10.,3963.,0.,0.,10018.,0.867716955634,2.50673787183,234.
7.52,6024.,23.,14.,3962.,0.,0.,10023.,0.866852393341,1.95984019364,299.
7.54,6010.,24.,12.,3977.,0.,0.,10023.,0.864837796146,1.87381522498,312.
7.56,6011.,21.,14.,3982.,0.,0.,10028.,0.864550412691,2.14079149809,273.
7.58,6008.,26.,17.,3984.,0.,0.,10035.,0.863516154996,1.72703230999,338.
7.6,6003.,22.,15.,3996.,0.,0.,10036.,0.862711546126,2.03913638175,286.
7.62,5985.,29.,21.,3998.,0.,0.,10033.,0.860381893597,1.54275374024,377.
7.64,5969.,32.,12.,4017.,0.,0.,10030.,0.8583384462,1.39479997507,416.
7.66,5961.,30.,14.,4026.,0.,0.,10031.,0.857102597333,1.48564450204,390.
7.68,5963.,23.,13.,4033.,0.,0.,10032.,0.857304701877,1.93825410859,299.
7.7,5957.,28.,15.,4029.,0.,0.,10029.,0.856698267332,1.5910110679,364.
7.72,5950.,24.,18.,4034.,0.,0.,10026.,0.855947613129,1.85455316178,312.
7.74,5935.,29.,16.,4042.,0.,0.,10022.,0.854130528223,1.53154439543,377.
7.76,5925.,34.,17.,4046.,0.,0.,10022.,0.852691386642,1.30411623839,442.
7.78,5926.,19.,27.,4052.,0.,0.,10024.,0.85266514212,2.33360986265,247.
7.8,5935.,18.,9.,4070.,0.,0.,10032.,0.853279122194,2.46502857523,234.
7.82,5936.,16.,12.,4066.,0.,0.,10030.,0.853593066953,2.7741774676,208.
7.84,5940.,12.,14.,4065.,0.,0.,10031.,0.854083111585,3.70102681687,156.
7.86,5942.,20.,5.,4067.,0.,0.,10034.,0.854115238957,2.22069962129,260.
7.88,5950.,18.,3.,4061.,0.,0.,10032.,0.855435682738,2.47125863902,234.
7.9,5954.,14.,4.,4061.,0.,0.,10033.,0.855925446028,3.17915165668,182.
7.92,5963.,10.,8.,4047.,0.,0.,10028.,0.857646666258,4.45976266454,130.
7.94,5961.,13.,2.,4049.,0.,0.,10025.,0.857615576444,3.43046230577,169.
7.96,5961.,5.,8.,4047.,0.,0.,10021.,0.857957903787,8.92276219938,65.
7.98,5967.,7.,2.,4043.,0.,0.,10019.,0.858992913464,6.38109021431,91.
8.,5975.,3.,3.,4041.,0.,0.,10022.,0.859887094546,14.9047096388,39.
8.02,5980.,5.,1.,4039.,0.,0.,10025.,0.860349127182,8.94763092269,65.
8.04,5981.,5.,3.,4036.,0.,0.,10025.,0.860492998274,8.94912718204,65.
8.06,5977.,8.,4.,4031.,0.,0.,10020.,0.860346614463,5.59225299401,104.
8.08,5984.,7.,4.,4019.,0.,0.,10014.,0.86187030465,6.40246512026,91.
8.1,5993.,6.,1.,4016.,0.,0.,10016.,0.862994209265,7.47928314696,78.
8.12,6005.,3.,2.,4007.,0.,0.,10017.,0.864635888221,14.9870220625,39.
8.14,6015.,2.,2.,3999.,0.,0.,10018.,0.86598929619,22.5157217009,26.
8.16,6024.,3.,1.,3991.,0.,0.,10019.,0.86719847674,15.0314402635,39.
8.18,6031.,3.,3.,3983.,0.,0.,10020.,0.86811953017,15.0474051896,39.
8.2,6031.,3.,5.,3978.,0.,0.,10017.,0.86837952404,15.05191175,39.
8.22,6040.,5.,1.,3972.,0.,0.,10018.,0.869588586698,9.04372130166,65.
8.24,6047.,3.,0.,3967.,0.,0.,10017.,0.870683299929,15.0918438654,39.
8.26,6053.,2.,0.,3959.,0.,0.,10014.,0.871808314514,22.6670161774,26.
8.28,6062.,1.,1.,3951.,0.,0.,10015.,0.873017396981,45.396904643,13.
8.3,6070.,3.,1.,3940.,0.,0.,10014.,0.874256809697,15.1537847014,39.
8.32,6078.,3.,1.,3931.,0.,0.,10013.,0.875496469974,15.1752721462,39.
8.34,6081.,3.,2.,3930.,0.,0.,10016.,0.875666241706,15.1782148562,39.
8.36,6088.,5.,2.,3922.,0.,0.,10017.,0.876586725643,9.11650194669,65.
8.38,6090.,7.,5.,3913.,0.,0.,10015.,0.877049809901,6.51522715926,91.
8.4,6095.,6.,2.,3915.,0.,0.,10018.,0.877507025815,7.6050608904,78.
8.42,6105.,6.,3.,3907.,0.,0.,10021.,0.878683610572,7.61525795829,78.
8.44,6119.,5.,4.,3899.,0.,0.,10027.,0.880171613566,9.15378478109,65.
8.46,6126.,7.,3.,3887.,0.,0.,10023.,0.88153017291,6.5485098559,91.
8.48,6138.,7.,3.,3875.,0.,0.,10023.,0.883256970506,6.56133749519,91.
8.5,6138.,8.,6.,3867.,0.,0.,10019.,0.883609603292,5.7434624214,104.
8.52,6145.,6.,4.,3865.,0.,0.,10020.,0.884529018885,7.66591816367,78.
8.54,6152.,8.,6.,3855.,0.,0.,10021.,0.885448250981,5.75541363137,104.
8.56,6160.,7.,4.,3851.,0.,0.,10022.,0.886511213791,6.58551187388,91.
8.58,6163.,6.,5.,3851.,0.,0.,10025.,0.886677536927,7.68453865337,78.
8.6,6164.,12.,5.,3845.,0.,0.,10026.,0.886732955853,3.84250947536,156.
8.62,6161.,13.,4.,3846.,0.,0.,10024.,0.886478221499,3.545912886,169.
8.64,6155.,10.,8.,3849.,0.,0.,10022.,0.885791643001,4.6061165436,130.
8.66,6164.,12.,10.,3839.,0.,0.,10025.,0.886821408018,3.84289276808,156.
8.68,6167.,19.,2.,3841.,0.,0.,10029.,0.886899146322,2.42730292678,247.
8.7,6173.,13.,3.,3839.,0.,0.,10028.,0.887850556902,3.55140222761,169.
8.72,6178.,7.,9.,3836.,0.,0.,10030.,0.888392514763,6.59948725253,91.
8.74,6180.,7.,6.,3837.,0.,0.,10030.,0.888680113506,6.60162370033,91.
8.76,6179.,9.,5.,3836.,0.,0.,10029.,0.888624910836,5.13427726261,117.
8.78,6183.,9.,4.,3836.,0.,0.,10032.,0.888934256533,5.1360645933,117.
8.8,6187.,11.,2.,3833.,0.,0.,10033.,0.889420680984,4.20453412829,143.
8.82,6185.,12.,5.,3829.,0.,0.,10031.,0.889310445312,3.85367859635,156.
8.84,6200.,14.,3.,3815.,0.,0.,10032.,0.891378358484,3.31083390294,182.
8.86,6200.,13.,3.,3815.,0.,0.,10031.,0.891467220846,3.56586888338,169.
8.88,6205.,9.,10.,3806.,0.,0.,10030.,0.892275097784,5.15536723164,117.
8.9,6207.,11.,4.,3807.,0.,0.,10029.,0.892651694701,4.21980801131,143.
8.92,6222.,7.,4.,3803.,0.,0.,10036.,0.894184780942,6.64251551557,91.
8.94,6228.,8.,4.,3795.,0.,0.,10035.,0.895136253881,5.81838565022,104.
8.96,6229.,9.,3.,3793.,0.,0.,10034.,0.895369206237,5.1732443027,117.
8.98,6237.,9.,9.,3781.,0.,0.,10036.,0.896340481957,5.17885611798,117.
9.,6240.,12.,6.,3779.,0.,0.,10037.,0.89668227558,3.88562319418,156.
9.02,6243.,11.,1.,3782.,0.,0.,10037.,0.897113372828,4.24089958064,143.
9.04,6251.,9.,2.,3774.,0.,0.,10036.,0.898352469571,5.1904809353,117.
9.06,6267.,7.,6.,3756.,0.,0.,10036.,0.900651883987,6.69055685247,91.
9.08,6268.,5.,4.,3758.,0.,0.,10035.,0.900885362769,9.3692077728,65.
9.1,6277.,6.,4.,3747.,0.,0.,10034.,0.902268824458,7.81966314531,78.
9.12,6277.,9.,4.,3745.,0.,0.,10035.,0.902178912269,5.21258927089,117.
9.14,6280.,8.,4.,3743.,0.,0.,10035.,0.902610095435,5.86696562033,104.
9.16,6286.,6.,7.,3737.,0.,0.,10036.,0.903382438606,7.82931446792,78.
9.18,6280.,16.,4.,3733.,0.,0.,10033.,0.902790023691,2.934067577,208.
9.2,6286.,12.,6.,3730.,0.,0.,10034.,0.903562502875,3.91543751246,156.
9.22,6293.,11.,4.,3725.,0.,0.,10033.,0.904658856543,4.27656914002,143.
9.24,6294.,12.,5.,3722.,0.,0.,10033.,0.904802612916,3.92081132264,156.
9.26,6298.,12.,0.,3727.,0.,0.,10037.,0.905016822373,3.92173956361,156.
9.28,6304.,11.,0.,3718.,0.,0.,10033.,0.906240176648,4.28404447143,143.
9.3,6306.,5.,7.,3711.,0.,0.,10029.,0.906889251939,9.43164822016,65.
9.32,6302.,6.,5.,3709.,0.,0.,10022.,0.906947024239,7.8602075434,78.
9.34,6302.,10.,5.,3703.,0.,0.,10020.,0.907128051589,4.71706586826,130.
9.36,6309.,10.,5.,3699.,0.,0.,10023.,0.907863836254,4.72089194852,130.
9.38,6318.,6.,7.,3691.,0.,0.,10022.,0.909249650768,7.88016363999,78.
9.4,6321.,8.,1.,3692.,0.,0.,10022.,0.909681393243,5.91292905608,104.
9.42,6330.,9.,3.,3682.,0.,0.,10024.,0.910794861563,5.26237031125,117.
9.44,6335.,9.,6.,3678.,0.,0.,10028.,0.911150701114,5.2644262731,117.
9.46,6332.,14.,6.,3674.,0.,0.,10026.,0.910900888459,3.38334615713,182.
9.48,6334.,10.,10.,3671.,0.,0.,10025.,0.911279493574,4.73865336658,130.
9.5,6332.,8.,4.,3674.,0.,0.,10018.,0.91162829983,5.92558394889,104.
9.52,6336.,8.,5.,3669.,0.,0.,10018.,0.912204186311,5.92932721102,104.
9.54,6333.,8.,9.,3671.,0.,0.,10021.,0.911499312981,5.92474553438,104.
9.56,6325.,11.,5.,3677.,0.,0.,10018.,0.910620498487,4.30475144739,143.
9.58,6332.,13.,6.,3668.,0.,0.,10019.,0.91153730988,3.64614923952,169.
9.6,6336.,11.,4.,3670.,0.,0.,10021.,0.911931098539,4.31094701128,143.
9.62,6342.,11.,2.,3667.,0.,0.,10022.,0.912703590562,4.31459879175,143.
9.64,6341.,11.,6.,3665.,0.,0.,10023.,0.912468629844,4.31348806835,143.
9.66,6339.,11.,7.,3662.,0.,0.,10019.,0.912545010634,4.31384914118,143.
9.68,6340.,12.,7.,3661.,0.,0.,10020.,0.912597881161,3.95459081836,156.
9.7,6347.,13.,6.,3654.,0.,0.,10020.,0.913605481345,3.65442192538,169.
9.72,6353.,12.,13.,3643.,0.,0.,10021.,0.914377883368,3.96230416126,156.
9.74,6352.,19.,2.,3644.,0.,0.,10017.,0.914599027807,2.50311312873,247.
9.76,6366.,11.,9.,3637.,0.,0.,10023.,0.916066124836,4.33049440832,143.
9.78,6356.,12.,10.,3645.,0.,0.,10023.,0.914627126839,3.9633842163,156.
9.8,6358.,7.,14.,3643.,0.,0.,10022.,0.915006217092,6.79718904125,91.
9.82,6353.,17.,2.,3647.,0.,0.,10019.,0.91456041214,2.79747890772,221.
9.84,6352.,15.,8.,3641.,0.,0.,10016.,0.914690341607,3.17092651757,195.
9.86,6345.,16.,18.,3637.,0.,0.,10016.,0.913682339027,2.96946760184,208.
9.88,6346.,20.,12.,3641.,0.,0.,10019.,0.913552711387,2.37523704961,260.
9.9,6346.,17.,11.,3646.,0.,0.,10020.,0.913461538462,2.79411764706,221.
9.92,6340.,20.,9.,3651.,0.,0.,10020.,0.912597881161,2.37275449102,260.
9.94,6350.,13.,14.,3649.,0.,0.,10026.,0.91349030981,3.65396123924,169.
9.96,6354.,14.,8.,3651.,0.,0.,10027.,0.913974576336,3.39476271211,182.
9.98,6352.,16.,9.,3650.,0.,0.,10027.,0.913686891547,2.96948239753,208.
10.,6349.,19.,13.,3649.,0.,0.,10030.,0.912982207224,2.49868814609,247.
