t,s,e,i,r,c,o,n,reff,coal,reportr
5.,6250.,5.,3.,3734.,0.,0.,9992.,0.902164038923,9.3825060048,65.
5.02,6253.,5.,5.,3727.,0.,0.,9990.,0.902777777778,9.38888888889,65.
5.04,6252.,5.,7.,3725.,0.,0.,9989.,0.902723765373,9.38832715988,65.
5.06,6264.,6.,5.,3717.,0.,0.,9992.,0.904184886371,7.83626901521,78.
5.08,6259.,11.,3.,3715.,0.,0.,9988.,0.903824974585,4.27262715258,143.
5.1,6272.,9.,3.,3706.,0.,0.,9990.,0.905520905521,5.23189856523,117.
5.12,6281.,5.,7.,3700.,0.,0.,9993.,0.90654804517,9.42809966977,65.
5.14,6281.,8.,6.,3699.,0.,0.,9994.,0.90645733594,5.89197268361,104.
5.16,6275.,9.,9.,3701.,0.,0.,9994.,0.905591431782,5.2323060503,117.
5.18,6279.,10.,9.,3698.,0.,0.,9996.,0.905987394958,4.71113445378,130.
5.2,6280.,7.,5.,3703.,0.,0.,9995.,0.90622234194,6.73193739727,91.
5.22,6276.,10.,0.,3703.,0.,0.,9989.,0.90618911572,4.71218340174,130.
5.24,6272.,9.,4.,3702.,0.,0.,9987.,0.905792915405,5.2334701779,117.
5.26,6276.,13.,4.,3698.,0.,0.,9991.,0.906007714635,3.62403085854,169.
5.28,6280.,11.,7.,3695.,0.,0.,9993.,0.906403713369,4.28481755411,143.
5.3,6282.,10.,4.,3696.,0.,0.,9992.,0.906783118803,4.71527221777,130.
5.32,6286.,10.,5.,3691.,0.,0.,9992.,0.907360503788,4.7182746197,130.
5.34,6287.,17.,4.,3682.,0.,0.,9990.,0.907686532687,2.77645292351,221.
5.36,6283.,15.,4.,3687.,0.,0.,9989.,0.907199842904,3.1449594554,195.
5.38,6291.,10.,7.,3682.,0.,0.,9990.,0.908264033264,4.72297297297,130.
5.4,6290.,9.,8.,3683.,0.,0.,9990.,0.90811965812,5.24691358025,117.
5.42,6289.,9.,6.,3686.,0.,0.,9990.,0.907975282975,5.24607941275,117.
5.44,6294.,5.,9.,3682.,0.,0.,9990.,0.908697158697,9.45045045045,65.
5.46,6293.,10.,10.,3678.,0.,0.,9991.,0.908461846431,4.72400160144,130.
5.48,6291.,14.,8.,3675.,0.,0.,9988.,0.908445904316,3.3742276446,182.
5.5,6287.,15.,10.,3681.,0.,0.,9993.,0.907414035979,3.14570199139,195.
5.52,6295.,9.,6.,3682.,0.,0.,9992.,0.908659620004,5.25003336002,117.
5.54,6292.,11.,5.,3681.,0.,0.,9989.,0.908499349284,4.29472419662,143.
5.56,6299.,6.,7.,3677.,0.,0.,9989.,0.909510076469,7.88242066273,78.
5.58,6302.,6.,3.,3679.,0.,0.,9990.,0.909852159852,7.88538538539,78.
5.6,6310.,7.,3.,3669.,0.,0.,9989.,0.911098362044,6.7681592609,91.
5.62,6312.,7.,2.,3669.,0.,0.,9990.,0.911295911296,6.76962676963,91.
5.64,6311.,9.,4.,3665.,0.,0.,9989.,0.911242751642,5.2649581206,117.
5.66,6315.,9.,3.,3663.,0.,0.,9990.,0.911729036729,5.26776776777,117.
5.68,6323.,5.,5.,3663.,0.,0.,9996.,0.912336088281,9.48829531813,65.
5.7,6319.,9.,2.,3662.,0.,0.,9992.,0.912123929913,5.27004937283,117.
5.72,6323.,10.,1.,3659.,0.,0.,9993.,0.912609980833,4.74557190033,130.
5.74,6328.,9.,3.,3653.,0.,0.,9993.,0.91333163984,5.27702725241,117.
5.76,6333.,6.,4.,3648.,0.,0.,9991.,0.914236274185,7.92338104294,78.
5.78,6345.,7.,2.,3640.,0.,0.,9994.,0.915693646957,6.80229566311,91.
5.8,6345.,6.,5.,3638.,0.,0.,9994.,0.915693646957,7.93601160696,78.
5.82,6346.,7.,5.,3635.,0.,0.,9993.,0.915929612267,6.80404854827,91.
5.84,6349.,10.,3.,3628.,0.,0.,9990.,0.916637791638,4.76651651652,130.
5.86,6355.,7.,4.,3628.,0.,0.,9994.,0.917136820554,6.81301638126,91.
5.88,6358.,10.,3.,3623.,0.,0.,9994.,0.917569772633,4.77136281769,130.
5.9,6357.,9.,3.,3624.,0.,0.,9993.,0.917517262083,5.30121084759,117.
5.92,6360.,9.,6.,3615.,0.,0.,9990.,0.918225918226,5.30530530531,117.
5.94,6354.,11.,6.,3617.,0.,0.,9988.,0.917543359724,4.33747770051,143.
5.96,6352.,14.,2.,3620.,0.,0.,9988.,0.917254551616,3.40694547743,182.
5.98,6360.,13.,3.,3612.,0.,0.,9988.,0.918409784049,3.67363913619,169.
6.,6366.,13.,7.,3603.,0.,0.,9989.,0.919184179521,3.67673671808,169.
6.02,6372.,12.,6.,3598.,0.,0.,9988.,0.920142632698,3.98728474169,156.
6.04,6375.,11.,6.,3593.,0.,0.,9985.,0.920852432495,4.35312058998,143.
6.06,6378.,11.,5.,3591.,0.,0.,9985.,0.921285774816,4.35516911731,143.
6.08,6384.,9.,8.,3584.,0.,0.,9985.,0.922152459458,5.32799198798,117.
6.1,6378.,12.,11.,3583.,0.,0.,9984.,0.921378051036,3.99263822115,156.
6.12,6378.,12.,10.,3585.,0.,0.,9985.,0.921285774816,3.99223835754,156.
6.14,6385.,11.,5.,3583.,0.,0.,9984.,0.922389284393,4.36038570804,143.
6.16,6380.,14.,5.,3586.,0.,0.,9985.,0.921574669697,3.4229916303,182.
6.18,6380.,18.,6.,3585.,0.,0.,9989.,0.92120563389,2.66126072013,234.
6.2,6376.,20.,7.,3582.,0.,0.,9985.,0.920996879935,2.39459188783,260.
6.22,6375.,18.,12.,3580.,0.,0.,9985.,0.920852432495,2.66024036054,234.
6.24,6374.,17.,7.,3588.,0.,0.,9986.,0.920615785176,2.81600122524,221.
6.26,6380.,17.,6.,3583.,0.,0.,9986.,0.921482383029,2.81865199515,221.
6.28,6368.,19.,10.,3586.,0.,0.,9983.,0.920025581951,2.5179647506,247.
6.3,6365.,25.,7.,3584.,0.,0.,9981.,0.919776421354,1.91313495642,325.
6.32,6358.,32.,10.,3579.,0.,0.,9979.,0.918949023719,1.49329216354,416.
6.34,6358.,34.,6.,3580.,0.,0.,9978.,0.919041121236,1.40559230307,442.
6.36,6360.,21.,11.,3585.,0.,0.,9977.,0.919422363744,2.2766649007,273.
6.38,6353.,28.,6.,3593.,0.,0.,9980.,0.918134345614,1.70510664186,364.
6.4,6355.,22.,4.,3599.,0.,0.,9980.,0.918423385232,2.17081891055,286.
6.42,6357.,16.,7.,3603.,0.,0.,9983.,0.918436341781,2.98491811079,208.
6.44,6354.,15.,0.,3613.,0.,0.,9982.,0.918094878474,3.18272891204,195.
6.46,6359.,7.,7.,3611.,0.,0.,9984.,0.918633274778,6.82413289835,91.
6.48,6362.,11.,2.,3606.,0.,0.,9981.,0.919342905366,4.34598464355,143.
6.5,6362.,14.,1.,3607.,0.,0.,9984.,0.919066660503,3.41367616758,182.
6.52,6372.,11.,1.,3598.,0.,0.,9982.,0.920695713823,4.35237973807,143.
6.54,6380.,6.,6.,3588.,0.,0.,9980.,0.922036380453,7.99098196393,78.
6.56,6385.,9.,3.,3584.,0.,0.,9981.,0.922666527942,5.33096216144,117.
6.58,6386.,9.,5.,3581.,0.,0.,9981.,0.922811033271,5.33179708112,117.
6.6,6388.,11.,4.,3578.,0.,0.,9981.,0.92310004393,4.36374566221,143.
6.62,6395.,9.,3.,3575.,0.,0.,9982.,0.924019003437,5.3387764643,117.
6.64,6402.,7.,6.,3566.,0.,0.,9981.,0.925123118541,6.8723431663,91.
6.66,6404.,8.,3.,3566.,0.,0.,9981.,0.925412129199,6.0151788398,104.
6.68,6405.,10.,3.,3567.,0.,0.,9985.,0.925185855707,4.81096644967,130.
6.7,6412.,7.,5.,3563.,0.,0.,9987.,0.926011507267,6.87894262541,91.
6.72,6420.,8.,4.,3557.,0.,0.,9989.,0.926981217801,6.02537791571,104.
6.74,6427.,10.,1.,3554.,0.,0.,9992.,0.927713324506,4.82410928743,130.
6.76,6425.,8.,5.,3548.,0.,0.,9986.,0.927981866921,6.03188213499,104.
6.78,6431.,6.,3.,3549.,0.,0.,9989.,0.928569503377,8.0476023626,78.
6.8,6436.,5.,4.,3544.,0.,0.,9989.,0.929291451366,9.6646310942,65.
6.82,6436.,4.,2.,3545.,0.,0.,9987.,0.929477551586,12.0832081706,52.
6.84,6442.,4.,0.,3540.,0.,0.,9986.,0.930437227503,12.0956839575,52.
6.86,6449.,3.,1.,3533.,0.,0.,9986.,0.931448258331,16.1451031444,39.
6.88,6456.,2.,3.,3529.,0.,0.,9990.,0.932085932086,24.2342342342,26.
6.9,6462.,3.,2.,3519.,0.,0.,9986.,0.933325887011,16.1776487082,39.
6.92,6465.,5.,2.,3511.,0.,0.,9983.,0.934039790721,9.7140138235,65.
6.94,6464.,7.,7.,3505.,0.,0.,9983.,0.933895314342,6.9375080494,91.
6.96,6468.,10.,8.,3500.,0.,0.,9986.,0.934192484863,4.85780092129,130.
6.98,6472.,11.,9.,3496.,0.,0.,9988.,0.934583038107,4.41802890742,143.
7.,6467.,16.,2.,3503.,0.,0.,9988.,0.933861017837,3.03504830797,208.
7.02,6469.,18.,3.,3496.,0.,0.,9986.,0.934336917839,2.69919554042,234.
7.04,6476.,12.,5.,3492.,0.,0.,9985.,0.935441623974,4.05358037056,156.
7.06,6478.,12.,6.,3489.,0.,0.,9985.,0.935730518855,4.05483224837,156.
7.08,6480.,14.,3.,3487.,0.,0.,9984.,0.93611316568,3.47699175824,182.
7.1,6479.,10.,8.,3486.,0.,0.,9983.,0.936062460028,4.86752479215,130.
7.12,6472.,17.,4.,3489.,0.,0.,9982.,0.9351447991,2.86044291489,221.
7.14,6474.,14.,10.,3485.,0.,0.,9983.,0.935340078133,3.47412029021,182.
7.16,6474.,16.,6.,3487.,0.,0.,9983.,0.935340078133,3.03985525393,208.
7.18,6479.,18.,9.,3480.,0.,0.,9986.,0.935781247593,2.7033680486,234.
7.2,6480.,18.,11.,3477.,0.,0.,9986.,0.935925680568,2.70378529942,234.
7.22,6475.,33.,8.,3468.,0.,0.,9984.,0.935390856139,1.47394922786,429.
7.24,6475.,29.,10.,3472.,0.,0.,9986.,0.935203515691,1.67691664883,377.
7.26,6472.,20.,16.,3476.,0.,0.,9984.,0.934957470414,2.43088942308,260.
7.28,6456.,29.,12.,3487.,0.,0.,9984.,0.932646079882,1.67233090186,377.
7.3,6447.,31.,16.,3491.,0.,0.,9985.,0.931252648203,1.56210121634,403.
7.32,6437.,29.,24.,3495.,0.,0.,9985.,0.929808173799,1.66724224267,377.
7.34,6420.,34.,13.,3515.,0.,0.,9982.,0.927631274756,1.41873018492,442.
7.36,6417.,27.,12.,3526.,0.,0.,9982.,0.927197802198,1.78571428571,351.
7.38,6421.,24.,6.,3533.,0.,0.,9984.,0.927589913092,2.00977814503,312.
7.4,6426.,20.,8.,3530.,0.,0.,9984.,0.928312222633,2.41361177885,260.
7.42,6426.,18.,10.,3530.,0.,0.,9984.,0.928312222633,2.68179086538,234.
7.44,6423.,18.,10.,3531.,0.,0.,9982.,0.928064747314,2.68107593669,234.
7.46,6419.,18.,9.,3536.,0.,0.,9982.,0.927486783903,2.67940626461,234.
7.48,6426.,13.,12.,3536.,0.,0.,9987.,0.928033366453,3.71213346581,169.
7.5,6426.,16.,10.,3536.,0.,0.,9988.,0.927940451619,3.01580646776,208.
7.52,6425.,15.,10.,3540.,0.,0.,9990.,0.92761030261,3.21571571572,195.
7.54,6430.,12.,10.,3537.,0.,0.,9989.,0.928425113779,4.02317549304,156.
7.56,6433.,10.,10.,3539.,0.,0.,9992.,0.928579401983,4.82861289031,130.
7.58,6435.,18.,10.,3529.,0.,0.,9992.,0.928868094476,2.68339671737,234.
7.6,6433.,19.,11.,3528.,0.,0.,9991.,0.928672343571,2.54162957188,247.
7.62,6436.,16.,9.,3530.,0.,0.,9991.,0.929105425652,3.01959263337,208.
7.64,6440.,20.,12.,3522.,0.,0.,9994.,0.929403796124,2.41644986992,260.
7.66,6445.,14.,20.,3517.,0.,0.,9996.,0.929939283406,3.45406019551,182.
7.68,6445.,13.,9.,3529.,0.,0.,9996.,0.929939283406,3.71975713362,169.
7.7,6441.,14.,9.,3531.,0.,0.,9995.,0.929455112171,3.45226184521,182.
7.72,6437.,16.,5.,3535.,0.,0.,9993.,0.929063806203,3.01945737016,208.
7.74,6435.,16.,10.,3532.,0.,0.,9993.,0.9287751426,3.01851921345,208.
7.76,6442.,17.,7.,3528.,0.,0.,9994.,0.929692430843,2.84376508258,221.
7.78,6440.,22.,3.,3528.,0.,0.,9993.,0.929496801607,2.19699244016,286.
7.8,6437.,17.,7.,3533.,0.,0.,9994.,0.928970844045,2.8415578759,221.
7.82,6433.,15.,9.,3540.,0.,0.,9997.,0.928114972953,3.21746523957,195.
7.84,6424.,20.,4.,3547.,0.,0.,9995.,0.92700196252,2.41020510255,260.
7.86,6423.,18.,10.,3546.,0.,0.,9997.,0.926672232439,2.67705311593,234.
7.88,6418.,20.,7.,3552.,0.,0.,9997.,0.925950862182,2.40747224167,260.
7.9,6410.,20.,9.,3555.,0.,0.,9994.,0.925074275334,2.40519311587,260.
7.92,6411.,20.,8.,3556.,0.,0.,9995.,0.925126024551,2.40532766383,260.
7.94,6411.,25.,3.,3556.,0.,0.,9995.,0.925126024551,1.92426213107,325.
7.96,6419.,15.,11.,3548.,0.,0.,9993.,0.926465833776,3.21174822376,195.
7.98,6427.,10.,9.,3547.,0.,0.,9993.,0.927620488188,4.82362653858,130.
8.,6424.,12.,4.,3547.,0.,0.,9987.,0.927744529427,4.02022629418,156.
8.02,6424.,16.,6.,3543.,0.,0.,9989.,0.927558776192,3.01456602262,208.
8.04,6428.,10.,8.,3544.,0.,0.,9990.,0.928043428043,4.82582582583,130.
8.06,6427.,13.,7.,3542.,0.,0.,9989.,0.927991944986,3.71196777994,169.
8.08,6435.,9.,6.,3540.,0.,0.,9990.,0.929054054054,5.36786786787,117.
8.1,6435.,9.,7.,3538.,0.,0.,9989.,0.929147061768,5.36840524577,117.
8.12,6428.,15.,7.,3538.,0.,0.,9988.,0.928229259727,3.21786143372,195.
8.14,6431.,12.,9.,3534.,0.,0.,9986.,0.928848464774,4.02501001402,156.
8.16,6431.,11.,9.,3537.,0.,0.,9988.,0.928662471889,4.3900407762,143.
8.18,6424.,19.,5.,3538.,0.,0.,9986.,0.927837433946,2.53934455606,247.
8.2,6427.,15.,9.,3532.,0.,0.,9983.,0.928549688316,3.21897225283,195.
8.22,6430.,11.,10.,3534.,0.,0.,9985.,0.928797041716,4.39067692448,143.
8.24,6425.,16.,9.,3534.,0.,0.,9984.,0.928167760725,3.01654522236,208.
8.26,6417.,21.,10.,3535.,0.,0.,9983.,0.927104924526,2.29568838454,273.
8.28,6414.,25.,4.,3540.,0.,0.,9983.,0.926671495388,1.92747671041,325.
8.3,6418.,24.,2.,3537.,0.,0.,9981.,0.92743520381,2.00944294159,312.
8.32,6418.,18.,8.,3538.,0.,0.,9982.,0.927342293051,2.67898884659,234.
8.34,6414.,21.,12.,3535.,0.,0.,9982.,0.92676432964,2.29484500673,273.
8.36,6408.,19.,12.,3544.,0.,0.,9983.,0.925804637114,2.5337811121,247.
8.38,6409.,14.,12.,3544.,0.,0.,9979.,0.926320272572,3.44061815527,182.
8.4,6410.,15.,10.,3542.,0.,0.,9977.,0.926650526981,3.21238849354,195.
8.42,6411.,13.,8.,3547.,0.,0.,9979.,0.926609341155,3.70643736462,169.
8.44,6399.,16.,10.,3556.,0.,0.,9981.,0.924689602553,3.0052412083,208.
8.46,6388.,27.,11.,3555.,0.,0.,9981.,0.92310004393,1.77782230683,351.
8.48,6394.,15.,15.,3564.,0.,0.,9988.,0.923319521888,3.20084100921,195.
8.5,6386.,21.,14.,3565.,0.,0.,9986.,0.922348980881,2.28391176218,273.
8.52,6386.,25.,12.,3565.,0.,0.,9988.,0.922164289455,1.91810172207,325.
8.54,6379.,29.,9.,3570.,0.,0.,9987.,0.921245696328,1.6518888348,377.
8.56,6378.,14.,15.,3578.,0.,0.,9985.,0.921285774816,3.42191859217,182.
8.58,6387.,15.,3.,3584.,0.,0.,9989.,0.922216361074,3.19701671839,195.
8.6,6391.,10.,6.,3579.,0.,0.,9986.,0.923071145758,4.79996995794,130.
8.62,6393.,8.,5.,3578.,0.,0.,9984.,0.92354497966,6.00304236779,104.
8.64,6396.,9.,5.,3577.,0.,0.,9987.,0.923700811054,5.33693801943,117.
8.66,6405.,9.,3.,3569.,0.,0.,9986.,0.925093207413,5.34498297617,117.
8.68,6409.,6.,3.,3570.,0.,0.,9988.,0.925485582699,8.02087505006,78.
8.7,6416.,7.,1.,3564.,0.,0.,9988.,0.926496411078,6.88254476801,91.
8.72,6426.,6.,1.,3559.,0.,0.,9992.,0.92756897826,8.03893114492,78.
8.74,6430.,7.,4.,3550.,0.,0.,9991.,0.928239261489,6.89549165678,91.
8.76,6441.,9.,3.,3541.,0.,0.,9994.,0.929548113483,5.37072243346,117.
8.78,6450.,9.,1.,3534.,0.,0.,9994.,0.93084696972,5.37822693616,117.
8.8,6460.,6.,3.,3528.,0.,0.,9997.,0.932010372342,8.07742322697,78.
8.82,6463.,8.,4.,3520.,0.,0.,9995.,0.932629776427,6.06209354677,104.
8.84,6462.,7.,11.,3513.,0.,0.,9993.,0.93267210124,6.9284213235,91.
8.86,6465.,9.,6.,3516.,0.,0.,9996.,0.932825053098,5.38965586234,117.
8.88,6464.,14.,5.,3511.,0.,0.,9994.,0.932867412755,3.46493610452,182.
8.9,6460.,13.,13.,3510.,0.,0.,9996.,0.932103610675,3.7284144427,169.
8.92,6457.,16.,8.,3518.,0.,0.,9999.,0.931391216045,3.02702145215,208.
8.94,6458.,21.,11.,3516.,0.,0.,10006.,0.930883777426,2.3050455441,273.
8.96,6456.,28.,7.,3520.,0.,0.,10011.,0.930130702381,1.72738559014,364.
8.98,6451.,23.,13.,3524.,0.,0.,10011.,0.929410340933,2.10127555341,299.
9.,6443.,26.,16.,3528.,0.,0.,10013.,0.928072352096,1.85614470419,338.
9.02,6432.,26.,17.,3539.,0.,0.,10014.,0.926395354196,1.85279070839,338.
9.04,6428.,25.,12.,3545.,0.,0.,10010.,0.92618919542,1.92647352647,325.
9.06,6428.,27.,13.,3541.,0.,0.,10009.,0.926281731057,1.78395000056,351.
9.08,6425.,24.,18.,3537.,0.,0.,10004.,0.926312167441,2.00700969612,312.
9.1,6418.,27.,15.,3543.,0.,0.,10003.,0.925395458286,1.78224310485,351.
9.12,6422.,30.,7.,3542.,0.,0.,10001.,0.926157384262,1.60533946605,390.
9.14,6429.,21.,15.,3537.,0.,0.,10002.,0.927074200545,2.29561230611,273.
9.16,6416.,28.,11.,3543.,0.,0.,9998.,0.92556972933,1.71891521161,364.
9.18,6420.,24.,12.,3542.,0.,0.,9998.,0.926146767815,2.00665133027,312.
9.2,6414.,29.,13.,3542.,0.,0.,9998.,0.925281210088,1.65912492843,377.
9.22,6401.,32.,14.,3550.,0.,0.,9997.,0.923498203307,1.50068458037,416.
9.24,6389.,39.,7.,3564.,0.,0.,9999.,0.92158254287,1.22877672383,507.
9.26,6385.,32.,19.,3563.,0.,0.,9999.,0.921005562095,1.4966340384,416.
9.28,6380.,29.,17.,3574.,0.,0.,10000.,0.920192307692,1.65,377.
9.3,6366.,32.,15.,3584.,0.,0.,9997.,0.918448611507,1.4924789937,416.
9.32,6359.,30.,19.,3589.,0.,0.,9997.,0.917438693146,1.59022706812,390.
9.34,6348.,32.,15.,3601.,0.,0.,9996.,0.915943300397,1.48840786315,416.
9.36,6345.,31.,14.,3607.,0.,0.,9997.,0.915418856426,1.53554130755,403.
9.38,6330.,34.,14.,3618.,0.,0.,9996.,0.913346107674,1.39688228232,442.
9.4,6325.,34.,10.,3630.,0.,0.,9999.,0.91235085047,1.39536012425,442.
9.42,6318.,38.,16.,3624.,0.,0.,9996.,0.911614645858,1.24747267328,494.
9.44,6307.,43.,12.,3636.,0.,0.,9998.,0.909845430625,1.10027819517,559.
9.46,6311.,32.,22.,3630.,0.,0.,9995.,0.910695732482,1.47988056528,416.
9.48,6304.,37.,15.,3639.,0.,0.,9995.,0.909685612037,1.27847707638,481.
9.5,6299.,29.,13.,3653.,0.,0.,9994.,0.909055048414,1.63002974198,377.
9.52,6294.,31.,9.,3658.,0.,0.,9992.,0.908515273757,1.52396110437,403.
9.54,6289.,20.,23.,3659.,0.,0.,9991.,0.907884403656,2.3604994495,260.
9.56,6287.,24.,14.,3668.,0.,0.,9993.,0.907414035979,1.96606374462,312.
9.58,6287.,17.,12.,3675.,0.,0.,9991.,0.907595682268,2.77617502811,221.
9.6,6277.,20.,9.,3686.,0.,0.,9992.,0.906061387572,2.35575960769,260.
9.62,6269.,23.,7.,3693.,0.,0.,9992.,0.904906617602,2.0458758311,299.
9.64,6258.,30.,9.,3693.,0.,0.,9990.,0.9034996535,1.56606606607,390.
9.66,6250.,26.,15.,3699.,0.,0.,9990.,0.902344652345,1.80468930469,338.
9.68,6238.,26.,20.,3707.,0.,0.,9991.,0.900522008269,1.80104401654,338.
9.7,6228.,31.,21.,3714.,0.,0.,9994.,0.898808515879,1.50767880083,403.
9.72,6210.,38.,24.,3723.,0.,0.,9995.,0.896121137492,1.22627103025,494.
9.74,6199.,42.,16.,3734.,0.,0.,9991.,0.894891941209,1.10796145102,546.
9.76,6188.,52.,16.,3736.,0.,0.,9992.,0.893214571657,0.893214571657,676.
9.78,6168.,45.,31.,3743.,0.,0.,9987.,0.890773390022,1.02933813958,585.
9.8,6148.,57.,16.,3769.,0.,0.,9990.,0.887618387618,0.809757125547,741.
9.82,6135.,53.,23.,3779.,0.,0.,9990.,0.885741510742,0.869029406765,689.
9.84,6121.,45.,27.,3796.,0.,0.,9989.,0.883808728062,1.02129008576,585.
9.86,6092.,52.,28.,3812.,0.,0.,9984.,0.880061945266,0.880061945266,676.
9.88,6078.,48.,27.,3833.,0.,0.,9986.,0.877863624459,0.951018926497,624.
9.9,6062.,51.,33.,3841.,0.,0.,9987.,0.875465027613,0.892631008546,663.
9.92,6040.,51.,28.,3870.,0.,0.,9989.,0.872113170642,0.889213428889,663.
9.94,6033.,44.,18.,3894.,0.,0.,9989.,0.871102443457,1.0294847059,572.
9.96,6016.,40.,26.,3907.,0.,0.,9989.,0.868647820295,1.12924216638,520.
9.98,6007.,39.,22.,3922.,0.,0.,9990.,0.867261492261,1.15634865635,507.
10.,6002.,37.,22.,3929.,0.,0.,9990.,0.86653961654,1.21783946108,481.
