t,neff
5.,0.106581333333
5.02,0.0851491901108
5.04,0.127601405302
5.06,0.12746649649
5.08,0.276232716443
5.1,0.233581978536
5.12,0.233600170095
5.14,0.276028911565
5.16,0.361112174375
5.18,0.254857325044
5.2,0.339573112456
5.22,0.27591949445
5.24,0.233419334289
5.26,0.339134860051
5.28,0.275268202277
5.3,0.211534391534
5.32,0.169254379002
5.34,0.147892428805
5.36,0.253515055468
5.38,0.359602242675
5.4,0.296078680203
5.42,0.274810822237
5.44,0.486520681264
5.46,0.443573578331
5.48,0.337620253164
5.5,0.337547189708
5.52,0.168793248945
5.54,0.358814158358
5.56,0.337814363359
5.58,0.316537426808
5.6,0.231990301497
5.62,0.358999525091
5.64,0.422528371603
5.66,0.443521773554
5.68,0.465258483984
5.7,0.401529119806
5.72,0.422711667459
5.74,0.444199175388
5.76,0.443725055433
5.78,0.443592017738
5.8,0.443643852979
5.82,0.464963549921
5.84,0.465378799894
5.86,0.31705229794
5.88,0.337600590624
5.9,0.25328058237
5.92,0.444024718746
5.94,0.593562049979
5.96,0.61538347379
5.98,0.743383211292
6.,0.55261218204
6.02,0.531157112528
6.04,0.637641434261
6.06,0.531452555519
6.08,0.574083519284
6.1,0.425247051324
6.12,0.446491311971
6.14,0.574243342369
6.16,0.382562141492
6.18,0.318794835007
6.2,0.31881377551
6.22,0.21237321438
6.24,0.276085178695
6.26,0.361228545619
6.28,0.276277636055
6.3,0.276421052632
6.32,0.361473684211
6.34,0.340210526316
6.36,0.383042298484
6.38,0.38351662404
6.4,0.49070593885
6.42,0.597967623016
6.44,0.447919334187
6.46,0.491394366951
6.48,0.79264759456
6.5,0.578278188244
6.52,0.643875744407
6.54,0.515349436394
6.56,0.515475346438
6.58,0.559105520614
6.6,0.430054821026
6.62,0.387010641728
6.64,0.365501826779
6.66,0.365774193548
6.68,0.344543839819
6.7,0.301214174329
6.72,0.279546456016
6.74,0.214811234628
6.76,0.150365355684
6.78,0.322139864647
6.8,0.236197841147
6.82,0.214535695115
6.84,0.235681415929
6.86,0.149882617784
6.88,0.1711739503
6.9,0.0641696113075
6.92,0.321383748994
6.94,0.385365696834
6.96,0.321067009481
6.98,0.235345002944
7.,0.363875944078
7.02,0.342285744874
7.04,0.342237926973
7.06,0.385435831457
7.08,0.428364688857
7.1,0.406864983652
7.12,0.492520769685
7.14,0.428098376467
7.16,0.406603460281
7.18,0.385435831457
7.2,0.514753464389
7.22,0.536675802033
7.24,0.536568327155
7.26,0.600592783505
7.28,0.644154168682
7.3,0.558447061355
7.32,0.450589751853
7.34,0.428873503999
7.36,0.407610762043
7.38,0.365020695586
7.4,0.451344632768
7.42,0.343396185871
7.44,0.322297515328
7.46,0.322530664945
7.48,0.408793456032
7.5,0.322816082674
7.52,0.279576207379
7.54,0.236464516129
7.56,0.300700623254
7.58,0.27944722267
7.6,0.300980044107
7.62,0.343879569892
7.64,0.34382411439
7.66,0.322172091525
7.68,0.322387096774
7.7,0.40828201408
7.72,0.364915445322
7.74,0.300530327429
7.76,0.364826439187
7.78,0.386162510057
7.8,0.300251997212
7.82,0.343021335907
7.84,0.321317269077
7.86,0.364101081486
7.88,0.235400823574
7.9,0.278167334937
7.92,0.320910840282
7.94,0.320942912123
7.96,0.321077959576
7.98,0.42835285936
8.,0.320974983965
8.02,0.213803418803
8.04,0.278318086985
8.06,0.235358135557
8.08,0.235390946502
8.1,0.278272673828
8.12,0.278479063051
8.14,0.364084469393
8.16,0.3426957638
8.18,0.364019466282
8.2,0.256805644644
8.22,0.235334616207
8.24,0.171029176018
8.26,0.149590680774
8.28,0.149381135297
8.3,0.0852804858559
8.32,0.063895274585
8.34,0.0851002286381
8.36,0.0850425170067
8.38,0.084978230859
8.4,0.0848936283092
8.42,0.127213740458
8.44,0.190699300699
8.46,0.190377657886
8.48,0.190237868697
8.5,0.253540412044
8.52,0.211253764464
8.54,0.126619160728
8.56,0.105449174447
8.58,0.126478962354
8.6,0.105243209097
8.62,0.0630788643534
8.64,0.189144208038
8.66,0.272875878712
8.68,0.188695378812
8.7,0.188806040585
8.72,0.29390884268
8.74,0.314803149606
8.76,0.335895820206
8.78,0.335770744764
8.8,0.293685756241
8.82,0.293421342134
8.84,0.293178367625
8.86,0.398294305621
8.88,0.293170093654
8.9,0.251270787575
8.92,0.27237317418
8.94,0.293341711174
8.96,0.314474304573
8.98,0.230338042909
9.,0.230338042909
9.02,0.272318726768
9.04,0.230446573478
9.06,0.272217687075
9.08,0.209377289377
9.1,0.398265786993
9.12,0.335166352793
9.14,0.398129315756
9.16,0.356017777778
9.18,0.377164390015
9.2,0.377417530631
9.22,0.462040388145
9.24,0.441013215859
9.26,0.440653574234
9.28,0.462065712937
9.3,0.630558615264
9.32,0.652323200505
9.34,0.653585778901
9.36,0.484564280457
9.38,0.675853491437
9.4,0.782243325949
9.42,0.613861679081
9.44,0.592565362067
9.46,0.52875382505
9.48,0.422844486632
9.5,0.465680029579
9.52,0.530052910052
9.54,0.786335825248
9.56,0.701871419478
9.58,0.810359497977
9.6,0.962304000001
9.62,0.878699812883
9.64,0.945536432359
9.66,0.730803968893
9.68,0.820742656963
9.7,1.12811650696
9.72,1.19571188189
9.74,1.35442408377
9.76,1.09339009879
9.78,1.22918296893
9.8,1.07804845888
9.82,1.168596752
9.84,1.08186728395
9.86,0.861360251527
9.88,0.796392572942
9.9,0.797158506222
9.92,0.797450199202
9.94,0.642795591737
9.96,0.665293238078
9.98,0.532588528679
10.,0.599840186449
