t,neff
5.,0.106581333333
5.02,0.148993288591
5.04,0.106315509444
5.06,0.0637244897961
5.08,0.0636940239045
5.1,0.10599840891
5.12,0.0423422278696
5.14,0.190366492147
5.16,0.126775471399
5.18,0.211280101394
5.2,0.232371297323
5.22,0.274506202164
5.24,0.253365003959
5.26,0.168836841272
5.28,0.168817170279
5.3,0.105429053342
5.32,0.0631775110549
5.34,0.0841750841751
5.36,0.0631104100945
5.38,0.0630236220471
5.4,0.125899371069
5.42,0.0629074336006
5.44,0.104853249476
5.46,0.230542026709
5.48,0.272400397885
5.5,0.293228692513
5.52,0.188504159473
5.54,0.314326107446
5.56,0.377369165488
5.58,0.251644137064
5.6,0.209362414352
5.62,0.293128205128
5.64,0.271973237154
5.66,0.397731743043
5.68,0.460866834171
5.7,0.376793222466
5.72,0.335104133962
5.74,0.35629734402
5.76,0.419371069183
5.78,0.188646864687
5.8,0.314249803614
5.82,0.314218381775
5.84,0.377040527804
5.86,0.293065494874
5.88,0.209236884774
5.9,0.335147135825
5.92,0.230134379085
5.94,0.0835803436211
5.96,0.188125391849
5.98,0.125372198715
6.,0.146136505949
6.02,0.187721657545
6.04,0.187418045582
6.06,0.124808981756
6.08,0.103845555037
6.1,0.124426484302
6.12,0.124389182468
6.14,0.103604723431
6.16,0.10350359675
6.18,0.144755700326
6.2,0.144598698481
6.22,0.165213529564
6.24,0.18573153739
6.26,0.247488782299
6.28,0.268237358101
6.3,0.144361910657
6.32,0.16489198247
6.34,0.144250296377
6.36,0.102881547803
6.38,0.10278077615
6.4,0.123259898321
6.42,0.123197289389
6.44,0.0410234322924
6.46,0.102553060597
6.48,0.0819957993957
6.5,0.0204865058637
6.52,0.0409648179444
6.54,0.0613972055887
6.56,0.0613218831466
6.58,0.0612528718028
6.6,0.0816161616163
6.62,0.0611743119265
6.64,0.142674614091
6.66,0.1426888787
6.68,0.0610529528459
6.7,0.0406854818205
6.72,0.0405842970177
6.74,0.162247578478
6.76,0.182509505703
6.78,0.162173560422
6.8,0.202684495771
6.82,0.161983705278
6.84,0.303980553023
6.86,0.283499822884
6.88,0.202336519496
6.9,0.202142712755
6.92,0.202071020862
6.94,0.283084697797
6.96,0.303044070877
6.98,0.282627118644
7.,0.282527101295
7.02,0.242190951732
7.04,0.201754385965
7.06,0.201693377684
7.08,0.120851320755
7.1,0.161208459214
7.12,0.0604106280195
7.14,0.100664050709
7.16,0.060346855678
7.18,0.1205907173
7.2,0.200903614458
7.22,0.200873362445
7.24,0.301537070524
7.26,0.241096550686
7.28,0.16047339652
7.3,0.100326059694
7.32,0.100205421113
7.34,0.100225462198
7.36,0.180378719567
7.38,0.120198287517
7.4,0.200370648635
7.42,0.180315552216
7.44,0.200350718974
7.46,0.260065016254
7.48,0.2599479948
7.5,0.279706190976
7.52,0.0998252184767
7.54,0.359604316546
7.56,0.299565543071
7.58,0.319472659176
7.6,0.379696151925
7.62,0.3598740063
7.64,0.420294382697
7.66,0.681807875596
7.68,0.602350105452
7.7,0.58230054727
7.72,0.603470650371
7.74,0.584061256359
7.76,0.726470766435
7.78,0.686839524892
7.8,0.564802259886
7.82,0.383103448276
7.84,0.423858267716
7.86,0.443774346554
7.88,0.44388476868
7.9,0.565800616442
7.92,0.465470370933
7.94,0.445706180345
7.96,0.649518298564
7.98,0.528271586115
8.,0.630186682945
8.02,0.630286005087
8.04,0.467917303187
8.06,0.345921173235
8.08,0.736058931858
8.1,0.758448753465
8.12,0.820753069297
8.14,0.780671499822
8.16,0.844571664346
8.18,0.721271217048
8.2,0.722349659018
8.22,0.598982472468
8.24,0.516930723827
8.26,0.393377922953
8.28,0.539085293048
8.3,0.415041030436
8.32,0.352859517872
8.34,0.435705827361
8.36,0.394350423355
8.38,0.394618423789
8.4,0.415670360543
8.42,0.477919592241
8.44,0.394741549662
8.46,0.415600624024
8.48,0.332754709127
8.5,0.395477083334
8.52,0.520905015119
8.54,0.437486321713
8.56,0.437423389619
8.58,0.228980526918
8.6,0.395962059621
8.62,0.354191027044
8.64,0.395944748501
8.66,0.312783601941
8.68,0.271218239683
8.7,0.271163979757
8.72,0.229325825121
8.74,0.312961803382
8.76,0.229345843106
8.78,0.291947835159
8.8,0.250031269544
8.82,0.291628367464
8.84,0.333640110607
8.86,0.375035194744
8.88,0.458433766369
8.9,0.312376779847
8.92,0.332748008124
8.94,0.311982502734
8.96,0.332606817591
8.98,0.270200853366
9.,0.145473475975
9.02,0.20774274118
9.04,0.166149685338
9.06,0.145304849524
9.08,0.207428185549
9.1,0.331984831957
9.12,0.124409841171
9.14,0.165715767097
9.16,0.144904643449
9.18,0.165364793542
9.2,0.227270752521
9.22,0.206490956072
9.24,0.144596453131
9.26,0.103175832688
9.28,0.0824339933996
9.3,0.164776488786
9.32,0.123461063041
9.34,0.123340021608
9.36,0.205458750964
9.38,0.205384299219
9.4,0.246324549237
9.42,0.225484764543
9.44,0.122809282311
9.46,0.143255480434
9.48,0.143043322592
9.5,0.204338039697
9.52,0.306584804298
9.54,0.367941040995
9.56,0.327073994473
9.58,0.347567152724
9.6,0.327207207207
9.62,0.388740330926
9.64,0.347390926295
9.66,0.306443694385
9.68,0.244815438811
9.7,0.285838699785
9.72,0.326705509557
9.74,0.285823496346
9.76,0.265380959681
9.78,0.306100551808
9.8,0.428735244519
9.82,0.38814133047
9.84,0.347300613497
9.86,0.306472392638
9.88,0.306723979122
9.9,0.306943164362
9.92,0.348122628935
9.94,0.410167924818
9.96,0.554380012337
9.98,0.63730737536
10.,0.493395118936
