t,prevalence
5.,2
5.02,4
5.04,2
5.06,1
5.08,4
5.1,0
5.12,0
5.14,4
5.16,2
5.18,0
5.2,4
5.22,3
5.24,2
5.26,5
5.28,1
5.3,5
5.32,1
5.34,3
5.36,6
5.38,4
5.4,5
5.42,4
5.44,6
5.46,5
5.48,9
5.5,5
5.52,6
5.54,6
5.56,3
5.58,4
5.6,2
5.62,4
5.64,6
5.66,4
5.68,2
5.7,6
5.72,4
5.74,2
5.76,2
5.78,3
5.8,4
5.82,6
5.84,1
5.86,2
5.88,3
5.9,3
5.92,4
5.94,3
5.96,4
5.98,1
6.,5
6.02,6
6.04,4
6.06,5
6.08,7
6.1,0
6.12,5
6.14,3
6.16,7
6.18,2
6.2,2
6.22,3
6.24,2
6.26,3
6.28,2
6.3,2
6.32,3
6.34,3
6.36,4
6.38,0
6.4,0
6.42,1
6.44,6
6.46,2
6.48,3
6.5,3
6.52,5
6.54,0
6.56,1
6.58,5
6.6,3
6.62,5
6.64,4
6.66,3
6.68,7
6.7,4
6.72,2
6.74,5
6.76,4
6.78,4
6.8,5
6.82,5
6.84,8
6.86,6
6.88,7
6.9,3
6.92,7
6.94,7
6.96,6
6.98,9
7.,9
7.02,8
7.04,12
7.06,3
7.08,7
7.1,5
7.12,0
7.14,10
7.16,6
7.18,3
7.2,5
7.22,8
7.24,10
7.26,6
7.28,7
7.3,8
7.32,10
7.34,7
7.36,7
7.38,8
7.4,5
7.42,6
7.44,10
7.46,4
7.48,6
7.5,1
7.52,6
7.54,8
7.56,7
7.58,8
7.6,6
7.62,7
7.64,5
7.66,5
7.68,6
7.7,6
7.72,6
7.74,4
7.76,5
7.78,5
7.8,4
7.82,5
7.84,8
7.86,2
7.88,1
7.9,6
7.92,7
7.94,3
7.96,7
7.98,4
8.,5
8.02,5
8.04,2
8.06,7
8.08,3
8.1,8
8.12,4
8.14,3
8.16,3
8.18,3
8.2,2
8.22,2
8.24,0
8.26,1
8.28,3
8.3,3
8.32,2
8.34,1
8.36,1
8.38,3
8.4,3
8.42,5
8.44,1
8.46,5
8.48,2
8.5,2
8.52,1
8.54,2
8.56,0
8.58,2
8.6,5
8.62,6
8.64,6
8.66,4
8.68,8
8.7,4
8.72,7
8.74,6
8.76,5
8.78,5
8.8,5
8.82,1
8.84,6
8.86,8
8.88,4
8.9,4
8.92,4
8.94,6
8.96,8
8.98,4
9.,7
9.02,4
9.04,9
9.06,1
9.08,1
9.1,6
9.12,3
9.14,5
9.16,6
9.18,4
9.2,8
9.22,8
9.24,7
9.26,8
9.28,3
9.3,3
9.32,5
9.34,3
9.36,9
9.38,4
9.4,4
9.42,6
9.44,8
9.46,4
9.48,5
9.5,2
9.52,2
9.54,7
9.56,6
9.58,6
9.6,4
9.62,2
9.64,2
9.66,5
9.68,0
9.7,3
9.72,2
9.74,9
9.76,1
9.78,4
9.8,1
9.82,4
9.84,0
9.86,3
9.88,0
9.9,2
9.92,1
9.94,3
9.96,1
9.98,3
10.,1
