t,cases
5.01,0.585
5.02,0.585
5.03,0.91
5.04,0.91
5.05,1.04
5.06,1.04
5.07,0.78
5.08,0.78
5.09,0.78
5.1,0.78
5.11,0.65
5.12,0.65
5.13,0.715
5.14,0.715
5.15,0.78
5.16,0.78
5.17,0.39
5.18,0.39
5.19,0.455
5.2,0.455
5.21,0.78
5.22,0.78
5.23,0.78
5.24,0.78
5.25,0.845
5.26,0.845
5.27,0.91
5.28,0.91
5.29,0.78
5.3,0.78
5.31,0.715
5.32,0.715
5.33,0.845
5.34,0.845
5.35,0.715
5.36,0.715
5.37,0.91
5.38,0.91
5.39,1.04
5.4,1.04
5.41,0.91
5.42,0.91
5.43,1.235
5.44,1.235
5.45,1.365
5.46,1.365
5.47,1.56
5.48,1.56
5.49,1.82
5.5,1.82
5.51,1.82
5.52,1.82
5.53,1.495
5.54,1.495
5.55,1.3
5.56,1.3
5.57,1.755
5.58,1.755
5.59,2.015
5.6,2.015
5.61,1.56
5.62,1.56
5.63,1.3
5.64,1.3
5.65,1.365
5.66,1.365
5.67,1.69
5.68,1.69
5.69,1.755
5.7,1.755
5.71,1.235
5.72,1.235
5.73,1.43
5.74,1.43
5.75,1.69
5.76,1.69
5.77,1.3
5.78,1.3
5.79,1.495
5.8,1.495
5.81,2.08
5.82,2.08
5.83,2.08
5.84,2.08
5.85,2.275
5.86,2.275
5.87,2.47
5.88,2.47
5.89,2.86
5.9,2.86
5.91,3.25
5.92,3.25
5.93,2.665
5.94,2.665
5.95,2.015
5.96,2.015
5.97,2.08
5.98,2.08
5.99,2.015
6.,2.015
6.01,2.015
6.02,2.015
6.03,2.86
6.04,2.86
6.05,3.38
6.06,3.38
6.07,3.185
6.08,3.185
6.09,2.795
6.1,2.795
6.11,2.665
6.12,2.665
6.13,3.12
6.14,3.12
6.15,2.795
6.16,2.795
6.17,2.015
6.18,2.015
6.19,1.495
6.2,1.495
6.21,1.43
6.22,1.43
6.23,1.625
6.24,1.625
6.25,1.3
6.26,1.3
6.27,1.43
6.28,1.43
6.29,1.625
6.3,1.625
6.31,1.69
6.32,1.69
6.33,1.69
6.34,1.69
6.35,1.625
6.36,1.625
6.37,2.145
6.38,2.145
6.39,2.405
6.4,2.405
6.41,2.08
6.42,2.08
6.43,1.69
6.44,1.69
6.45,1.69
6.46,1.69
6.47,1.82
6.48,1.82
6.49,1.495
6.5,1.495
6.51,1.56
6.52,1.56
6.53,1.755
6.54,1.755
6.55,1.625
6.56,1.625
6.57,1.82
6.58,1.82
6.59,1.56
6.6,1.56
6.61,1.235
6.62,1.235
6.63,1.56
6.64,1.56
6.65,1.82
6.66,1.82
6.67,2.08
6.68,2.08
6.69,2.015
6.7,2.015
6.71,1.755
6.72,1.755
6.73,1.755
6.74,1.755
6.75,2.145
6.76,2.145
6.77,2.795
6.78,2.795
6.79,3.315
6.8,3.315
6.81,3.705
6.82,3.705
6.83,3.705
6.84,3.705
6.85,2.925
6.86,2.925
6.87,2.535
6.88,2.535
6.89,2.99
6.9,2.99
6.91,3.185
6.92,3.185
6.93,3.705
6.94,3.705
6.95,4.03
6.96,4.03
6.97,3.965
6.98,3.965
6.99,3.965
7.,3.965
7.01,4.29
7.02,4.29
7.03,4.875
7.04,4.875
7.05,4.745
7.06,4.745
7.07,4.55
7.08,4.55
7.09,4.615
7.1,4.615
7.11,4.485
7.12,4.485
7.13,4.095
7.14,4.095
7.15,3.835
7.16,3.835
7.17,3.575
7.18,3.575
7.19,3.835
7.2,3.835
7.21,3.965
7.22,3.965
7.23,3.51
7.24,3.51
7.25,3.835
7.26,3.835
7.27,4.095
7.28,4.095
7.29,4.095
7.3,4.095
7.31,4.16
7.32,4.16
7.33,3.705
7.34,3.705
7.35,3.51
7.36,3.51
7.37,4.615
7.38,4.615
7.39,4.615
7.4,4.615
7.41,3.965
7.42,3.965
7.43,4.42
7.44,4.42
7.45,4.225
7.46,4.225
7.47,3.64
7.48,3.64
7.49,4.16
7.5,4.16
7.51,5.135
7.52,5.135
7.53,5.265
7.54,5.265
7.55,4.615
7.56,4.615
7.57,4.55
7.58,4.55
7.59,4.68
7.6,4.68
7.61,4.03
7.62,4.03
7.63,3.835
7.64,3.835
7.65,3.835
7.66,3.835
7.67,4.29
7.68,4.29
7.69,4.16
7.7,4.16
7.71,3.185
7.72,3.185
7.73,2.665
7.74,2.665
7.75,2.34
7.76,2.34
7.77,2.73
7.78,2.73
7.79,3.575
7.8,3.575
7.81,4.03
7.82,4.03
7.83,3.38
7.84,3.38
7.85,3.51
7.86,3.51
7.87,4.485
7.88,4.485
7.89,4.485
7.9,4.485
7.91,3.9
7.92,3.9
7.93,3.12
7.94,3.12
7.95,3.51
7.96,3.51
7.97,4.355
7.98,4.355
7.99,4.03
8.,4.03
8.01,4.225
8.02,4.225
8.03,4.615
8.04,4.615
8.05,4.16
8.06,4.16
8.07,4.225
8.08,4.225
8.09,3.77
8.1,3.77
8.11,3.315
8.12,3.315
8.13,3.965
8.14,3.965
8.15,3.9
8.16,3.9
8.17,3.25
8.18,3.25
8.19,3.12
8.2,3.12
8.21,2.665
8.22,2.665
8.23,2.34
8.24,2.34
8.25,2.145
8.26,2.145
8.27,1.82
8.28,1.82
8.29,1.95
8.3,1.95
8.31,1.82
8.32,1.82
8.33,1.43
8.34,1.43
8.35,1.105
8.36,1.105
8.37,0.78
8.38,0.78
8.39,0.845
8.4,0.845
8.41,1.235
8.42,1.235
8.43,1.43
8.44,1.43
8.45,1.235
8.46,1.235
8.47,0.975
8.48,0.975
8.49,1.04
8.5,1.04
8.51,1.3
8.52,1.3
8.53,1.43
8.54,1.43
8.55,1.495
8.56,1.495
8.57,1.365
8.58,1.365
8.59,1.3
8.6,1.3
8.61,1.56
8.62,1.56
8.63,1.56
8.64,1.56
8.65,1.43
8.66,1.43
8.67,1.43
8.68,1.43
8.69,1.3
8.7,1.3
8.71,1.365
8.72,1.365
8.73,1.43
8.74,1.43
8.75,1.105
8.76,1.105
8.77,0.91
8.78,0.91
8.79,0.91
8.8,0.91
8.81,1.04
8.82,1.04
8.83,1.3
8.84,1.3
8.85,1.69
8.86,1.69
8.87,1.755
8.88,1.755
8.89,1.82
8.9,1.82
8.91,2.145
8.92,2.145
8.93,2.275
8.94,2.275
8.95,2.34
8.96,2.34
8.97,2.275
8.98,2.275
8.99,2.275
9.,2.275
9.01,2.145
9.02,2.145
9.03,2.21
9.04,2.21
9.05,2.665
9.06,2.665
9.07,2.73
9.08,2.73
9.09,2.535
9.1,2.535
9.11,2.47
9.12,2.47
9.13,2.47
9.14,2.47
9.15,2.34
9.16,2.34
9.17,1.95
9.18,1.95
9.19,1.82
9.2,1.82
9.21,1.885
9.22,1.885
9.23,1.3
9.24,1.3
9.25,0.845
9.26,0.845
9.27,0.975
9.28,0.975
9.29,1.04
9.3,1.04
9.31,0.91
9.32,0.91
9.33,0.845
9.34,0.845
9.35,1.04
9.36,1.04
9.37,1.365
9.38,1.365
9.39,2.08
9.4,2.08
9.41,2.405
9.42,2.405
9.43,2.015
9.44,2.015
9.45,1.885
9.46,1.885
9.47,1.755
9.48,1.755
9.49,1.56
9.5,1.56
9.51,1.495
9.52,1.495
9.53,1.495
9.54,1.495
9.55,1.885
9.56,1.885
9.57,2.145
9.58,2.145
9.59,2.145
9.6,2.145
9.61,2.6
9.62,2.6
9.63,3.12
9.64,3.12
9.65,3.12
9.66,3.12
9.67,3.51
9.68,3.51
9.69,4.16
9.7,4.16
9.71,3.965
9.72,3.965
9.73,3.12
9.74,3.12
9.75,3.055
9.76,3.055
9.77,3.64
9.78,3.64
9.79,3.12
9.8,3.12
9.81,2.535
9.82,2.535
9.83,2.665
9.84,2.665
9.85,2.47
9.86,2.47
9.87,2.275
9.88,2.275
9.89,1.885
9.9,1.885
9.91,1.625
9.92,1.625
9.93,1.885
9.94,1.885
9.95,1.95
9.96,1.95
9.97,1.95
9.98,1.95
9.99,1.95
10.,1.95
