t,s,e,i,r,c,o,n,reff,coal,reportr
5.,6250.,5.,3.,3734.,0.,0.,9992.,0.902164038923,9.3825060048,65.
5.02,6256.,4.,3.,3725.,0.,0.,9988.,0.903391762423,11.7440929115,52.
5.04,6262.,6.,3.,3717.,0.,0.,9988.,0.904258186747,7.83690428514,78.
5.06,6268.,6.,5.,3708.,0.,0.,9987.,0.905215241352,7.84519875839,78.
5.08,6268.,13.,2.,3706.,0.,0.,9989.,0.905033998937,3.62013599575,169.
5.1,6274.,11.,8.,3699.,0.,0.,9992.,0.905628348833,4.28115219448,143.
5.12,6271.,11.,6.,3700.,0.,0.,9988.,0.905557823234,4.28081880074,143.
5.14,6272.,13.,8.,3695.,0.,0.,9988.,0.905702227288,3.62280890915,169.
5.16,6270.,17.,4.,3698.,0.,0.,9989.,0.905322778133,2.76922261547,221.
5.18,6273.,12.,10.,3697.,0.,0.,9992.,0.905484002587,3.92376401121,156.
5.2,6278.,16.,8.,3691.,0.,0.,9993.,0.906115049766,2.94487391174,208.
5.22,6277.,13.,6.,3696.,0.,0.,9992.,0.906061387572,3.62424555029,169.
5.24,6279.,11.,7.,3696.,0.,0.,9993.,0.906259381567,4.28413525832,143.
5.26,6288.,16.,2.,3690.,0.,0.,9996.,0.90728599132,2.94867947179,208.
5.28,6295.,13.,3.,3686.,0.,0.,9997.,0.908205153854,3.63282061542,169.
5.3,6300.,10.,6.,3679.,0.,0.,9995.,0.909108400354,4.72736368184,130.
5.32,6299.,8.,6.,3682.,0.,0.,9995.,0.908964097433,5.90826663332,104.
5.34,6309.,7.,8.,3673.,0.,0.,9997.,0.910224990574,6.76167135855,91.
5.36,6310.,12.,7.,3669.,0.,0.,9998.,0.910278209488,3.94453890778,156.
5.38,6302.,17.,4.,3675.,0.,0.,9998.,0.909124132519,2.7808502877,221.
5.4,6304.,14.,10.,3671.,0.,0.,9999.,0.909321701401,3.3774806052,182.
5.42,6308.,13.,13.,3667.,0.,0.,10001.,0.909716720636,3.63886688254,169.
5.44,6302.,23.,2.,3671.,0.,0.,9998.,0.909124132519,2.05541108222,299.
5.46,6313.,21.,3.,3664.,0.,0.,10001.,0.910437802374,2.2544174154,273.
5.48,6320.,16.,10.,3656.,0.,0.,10002.,0.9113561903,2.96190761848,208.
5.5,6322.,16.,8.,3657.,0.,0.,10003.,0.91155345704,2.96254873538,208.
5.52,6320.,8.,12.,3661.,0.,0.,10001.,0.911447316807,5.92440755924,104.
5.54,6319.,17.,5.,3662.,0.,0.,10003.,0.911120894501,2.78695803024,221.
5.56,6317.,16.,6.,3664.,0.,0.,10003.,0.910832519475,2.96020568829,208.
5.58,6319.,15.,8.,3659.,0.,0.,10001.,0.911303100459,3.15918408159,195.
5.6,6324.,11.,8.,3660.,0.,0.,10003.,0.911841832066,4.31052502431,143.
5.62,6317.,17.,13.,3658.,0.,0.,10005.,0.910650444009,2.7855190052,221.
5.64,6315.,20.,12.,3659.,0.,0.,10006.,0.910271145005,2.36670497701,260.
5.66,6315.,21.,7.,3660.,0.,0.,10003.,0.910544144449,2.25468073864,273.
5.68,6306.,22.,6.,3668.,0.,0.,10002.,0.909337363297,2.1493428587,286.
5.7,6313.,19.,7.,3667.,0.,0.,10006.,0.90998285644,2.49047939657,247.
5.72,6311.,20.,8.,3665.,0.,0.,10004.,0.909876434042,2.36567872851,260.
5.74,6306.,21.,10.,3667.,0.,0.,10004.,0.909155568542,2.2512423602,273.
5.76,6314.,21.,5.,3666.,0.,0.,10006.,0.910127000723,2.25364781131,273.
5.78,6314.,21.,6.,3662.,0.,0.,10003.,0.910399956936,2.25432370289,273.
5.8,6312.,21.,9.,3659.,0.,0.,10001.,0.910293586026,2.25406030825,273.
5.82,6310.,22.,8.,3662.,0.,0.,10002.,0.909914171012,2.15070622239,286.
5.84,6305.,22.,7.,3669.,0.,0.,10003.,0.909102269319,2.14878718203,286.
5.86,6310.,15.,6.,3672.,0.,0.,10003.,0.909823206884,3.15405378386,195.
5.88,6321.,16.,3.,3663.,0.,0.,10003.,0.911409269527,2.96208012596,208.
5.9,6319.,12.,13.,3659.,0.,0.,10003.,0.911120894501,3.94819054284,156.
5.92,6311.,21.,11.,3665.,0.,0.,10008.,0.909512774396,2.25212686993,273.
5.94,6296.,28.,16.,3670.,0.,0.,10010.,0.907169753324,1.6847438276,364.
5.96,6289.,29.,18.,3673.,0.,0.,10009.,0.906251681179,1.62500301453,377.
5.98,6282.,35.,12.,3678.,0.,0.,10007.,0.905423895581,1.34520121629,455.
6.,6277.,26.,9.,3694.,0.,0.,10006.,0.904793662264,1.80958732453,338.
6.02,6280.,25.,7.,3695.,0.,0.,10007.,0.905135635824,1.88268212251,325.
6.04,6275.,30.,5.,3693.,0.,0.,10003.,0.90477664393,1.56827951615,390.
6.06,6274.,25.,17.,3687.,0.,0.,10003.,0.904632456417,1.88163550935,325.
6.08,6274.,27.,6.,3698.,0.,0.,10005.,0.904451620344,1.74190682437,351.
6.1,6274.,20.,14.,3697.,0.,0.,10005.,0.904451620344,2.35157421289,260.
6.12,6273.,21.,17.,3692.,0.,0.,10003.,0.904488268904,2.23968523729,273.
6.14,6271.,27.,6.,3699.,0.,0.,10003.,0.904199893878,1.74142201784,351.
6.16,6276.,18.,8.,3702.,0.,0.,10004.,0.904830375542,2.61395441823,234.
6.18,6273.,15.,9.,3702.,0.,0.,9999.,0.904850100395,3.13681368137,195.
6.2,6272.,15.,5.,3706.,0.,0.,9998.,0.904796343884,3.13662732547,195.
6.22,6277.,10.,5.,3706.,0.,0.,9998.,0.90551764199,4.70869173835,130.
6.24,6277.,13.,5.,3703.,0.,0.,9998.,0.90551764199,3.62207056796,169.
6.26,6273.,17.,5.,3702.,0.,0.,9997.,0.905031124722,2.76833049915,221.
6.28,6272.,13.,9.,3703.,0.,0.,9997.,0.904886850671,3.61954740268,169.
6.3,6270.,13.,8.,3708.,0.,0.,9999.,0.904417364813,3.61766945925,169.
6.32,6270.,17.,3.,3709.,0.,0.,9999.,0.904417364813,2.7664531159,221.
6.34,6270.,16.,5.,3708.,0.,0.,9999.,0.904417364813,2.93935643564,208.
6.36,6265.,18.,8.,3708.,0.,0.,9999.,0.903696138845,2.61067773444,234.
6.38,6256.,18.,17.,3706.,0.,0.,9997.,0.902578465847,2.60744890134,234.
6.4,6247.,23.,13.,3713.,0.,0.,9996.,0.90137016345,2.03788036954,299.
6.42,6239.,28.,5.,3721.,0.,0.,9993.,0.900486109507,1.67233134623,364.
6.44,6248.,21.,12.,3714.,0.,0.,9995.,0.901604648478,2.23254484385,273.
6.46,6237.,23.,15.,3719.,0.,0.,9994.,0.900107372116,2.03502536304,299.
6.48,6222.,37.,8.,3730.,0.,0.,9997.,0.897673148098,1.26159469462,481.
6.5,6226.,27.,12.,3736.,0.,0.,10001.,0.897890980133,1.72927151729,351.
6.52,6213.,30.,18.,3740.,0.,0.,10001.,0.896016167614,1.55309469053,390.
6.54,6210.,24.,16.,3751.,0.,0.,10001.,0.895583518571,1.9404309569,312.
6.56,6206.,24.,13.,3754.,0.,0.,9997.,0.895364763275,1.9399569871,312.
6.58,6201.,26.,11.,3763.,0.,0.,10001.,0.894285571443,1.78857114289,338.
6.6,6202.,20.,11.,3769.,0.,0.,10002.,0.894340362697,2.32528494301,260.
6.62,6202.,18.,11.,3770.,0.,0.,10001.,0.89442978779,2.58390827584,234.
6.64,6204.,17.,8.,3775.,0.,0.,10004.,0.894449912343,2.73596443775,221.
6.66,6200.,17.,17.,3771.,0.,0.,10005.,0.893783877292,2.73392715407,221.
6.68,6193.,16.,9.,3784.,0.,0.,10002.,0.893042545337,2.90238827235,208.
6.7,6199.,14.,9.,3781.,0.,0.,10003.,0.893818392944,3.31989688808,182.
6.72,6203.,13.,8.,3780.,0.,0.,10004.,0.894305739243,3.57722295697,169.
6.74,6207.,10.,6.,3777.,0.,0.,10000.,0.895240384615,4.65525,130.
6.76,6204.,7.,9.,3775.,0.,0.,9995.,0.895255319968,6.65046809119,91.
6.78,6206.,15.,5.,3770.,0.,0.,9996.,0.89545433558,3.10424169668,195.
6.8,6207.,11.,5.,3773.,0.,0.,9996.,0.895598624065,4.23373895013,143.
6.82,6210.,10.,1.,3771.,0.,0.,9992.,0.896390189074,4.66122898319,130.
6.84,6215.,11.,2.,3759.,0.,0.,9987.,0.897561060147,4.2430159207,143.
6.86,6219.,7.,4.,3757.,0.,0.,9987.,0.898138734201,6.67188773978,91.
6.88,6224.,8.,3.,3753.,0.,0.,9988.,0.898770832692,5.84201041249,104.
6.9,6226.,3.,9.,3750.,0.,0.,9988.,0.8990596408,15.5837004405,39.
6.92,6215.,15.,6.,3751.,0.,0.,9987.,0.897561060147,3.11154500851,195.
6.94,6221.,18.,7.,3743.,0.,0.,9989.,0.898247687841,2.59493776487,234.
6.96,6223.,15.,6.,3746.,0.,0.,9990.,0.898446523447,3.11461461461,195.
6.98,6227.,11.,9.,3745.,0.,0.,9992.,0.89884407526,4.24908108305,143.
7.,6223.,17.,7.,3743.,0.,0.,9990.,0.898446523447,2.74818936584,221.
7.02,6227.,16.,8.,3740.,0.,0.,9991.,0.898934040637,2.92153563207,208.
7.04,6226.,16.,7.,3739.,0.,0.,9988.,0.8990596408,2.9219438326,208.
7.06,6218.,18.,9.,3741.,0.,0.,9986.,0.898084241014,2.59446558515,234.
7.08,6219.,20.,7.,3744.,0.,0.,9990.,0.897869022869,2.33445945946,260.
7.1,6219.,19.,7.,3743.,0.,0.,9988.,0.898048812421,2.45781780242,247.
7.12,6219.,23.,4.,3742.,0.,0.,9988.,0.898048812421,2.03037122808,299.
7.14,6221.,20.,4.,3742.,0.,0.,9987.,0.898427571227,2.33591168519,260.
7.16,6223.,19.,8.,3738.,0.,0.,9988.,0.898626428637,2.4593986468,247.
7.18,6218.,18.,11.,3739.,0.,0.,9986.,0.898084241014,2.59446558515,234.
7.2,6206.,24.,13.,3740.,0.,0.,9983.,0.896620408541,1.94267755184,312.
7.22,6203.,25.,6.,3753.,0.,0.,9987.,0.895828037988,1.86332231901,325.
7.24,6203.,25.,11.,3746.,0.,0.,9985.,0.896007472748,1.86369554331,325.
7.26,6208.,28.,13.,3738.,0.,0.,9987.,0.896550130554,1.66502167103,364.
7.28,6201.,30.,12.,3743.,0.,0.,9986.,0.895628880433,1.55242339275,390.
7.3,6199.,26.,9.,3752.,0.,0.,9986.,0.895340014482,1.79068002896,338.
7.32,6206.,21.,6.,3754.,0.,0.,9987.,0.896261293528,2.21931367921,273.
7.34,6211.,20.,5.,3753.,0.,0.,9989.,0.896803791863,2.33168985884,260.
7.36,6207.,19.,8.,3753.,0.,0.,9987.,0.896405712041,2.45332089611,247.
7.38,6201.,17.,14.,3754.,0.,0.,9986.,0.895628880433,2.73957069309,221.
7.4,6195.,21.,7.,3763.,0.,0.,9986.,0.89476228258,2.21560184258,273.
7.42,6205.,16.,9.,3758.,0.,0.,9988.,0.896027155664,2.91208825591,208.
7.44,6198.,15.,13.,3762.,0.,0.,9988.,0.895016327285,3.10272326792,195.
7.46,6196.,15.,11.,3770.,0.,0.,9992.,0.894369341627,3.10048038431,195.
7.48,6194.,19.,7.,3775.,0.,0.,9995.,0.893812290761,2.44622311156,247.
7.5,6193.,15.,7.,3781.,0.,0.,9996.,0.89357858528,3.09773909564,195.
7.52,6198.,13.,7.,3779.,0.,0.,9997.,0.894210570864,3.57684228345,169.
7.54,6200.,11.,6.,3779.,0.,0.,9996.,0.894588604673,4.228964313,143.
7.56,6204.,14.,6.,3770.,0.,0.,9994.,0.895344899247,3.32556676863,182.
7.58,6199.,13.,6.,3776.,0.,0.,9994.,0.894623312449,3.5784932498,169.
7.6,6197.,14.,8.,3773.,0.,0.,9992.,0.894513687873,3.3224794121,182.
7.62,6200.,16.,10.,3768.,0.,0.,9994.,0.894767629809,2.90799479688,208.
7.64,6201.,16.,8.,3769.,0.,0.,9994.,0.894911947168,2.9084638283,208.
7.66,6206.,15.,11.,3765.,0.,0.,9997.,0.895364763275,3.10393117935,195.
7.68,6200.,15.,12.,3767.,0.,0.,9994.,0.894767629809,3.10186111667,195.
7.7,6203.,19.,4.,3771.,0.,0.,9997.,0.894931941121,2.4492874178,247.
7.72,6209.,17.,6.,3764.,0.,0.,9996.,0.895887201034,2.74036085022,221.
7.74,6210.,14.,9.,3765.,0.,0.,9998.,0.895852247373,3.32745120453,182.
7.76,6213.,17.,8.,3762.,0.,0.,10000.,0.896105769231,2.74102941176,221.
7.78,6215.,18.,8.,3759.,0.,0.,10000.,0.896394230769,2.58958333333,234.
7.8,6217.,14.,9.,3760.,0.,0.,10000.,0.896682692308,3.33053571429,182.
7.82,6218.,16.,7.,3757.,0.,0.,9998.,0.897006324342,2.91527055411,208.
7.84,6225.,15.,6.,3755.,0.,0.,10001.,0.897746763785,3.11218878112,195.
7.86,6226.,17.,4.,3754.,0.,0.,10001.,0.897890980133,2.74649005688,221.
7.88,6233.,11.,4.,3756.,0.,0.,10004.,0.898630932242,4.24807349787,143.
7.9,6235.,13.,4.,3754.,0.,0.,10006.,0.898739602392,3.59495840957,169.
7.92,6236.,15.,7.,3748.,0.,0.,10006.,0.898883746675,3.11613032181,195.
7.94,6236.,15.,9.,3747.,0.,0.,10007.,0.898793921178,3.11581892675,195.
7.96,6234.,15.,14.,3745.,0.,0.,10008.,0.898415882678,3.11450839329,195.
7.98,6231.,20.,8.,3750.,0.,0.,10009.,0.89789381864,2.33452392846,260.
8.,6236.,15.,3.,3754.,0.,0.,10008.,0.898704113632,3.11550759392,195.
8.02,6240.,10.,10.,3746.,0.,0.,10006.,0.899460323806,4.67719368379,130.
8.04,6231.,13.,9.,3752.,0.,0.,10005.,0.898252796679,3.59301118671,169.
8.06,6236.,11.,9.,3751.,0.,0.,10007.,0.898793921178,4.24884399102,143.
8.08,6237.,11.,8.,3754.,0.,0.,10010.,0.898668639053,4.24825174825,143.
8.1,6237.,13.,9.,3754.,0.,0.,10013.,0.898399388487,3.59359755395,169.
8.12,6233.,13.,12.,3756.,0.,0.,10014.,0.897733557635,3.59093423054,169.
8.14,6235.,17.,1.,3762.,0.,0.,10015.,0.897931948231,2.74661537106,221.
8.16,6232.,16.,2.,3761.,0.,0.,10011.,0.897858509486,2.91804015583,208.
8.18,6233.,17.,1.,3759.,0.,0.,10010.,0.898092292323,2.74710583534,221.
8.2,6236.,12.,3.,3758.,0.,0.,10009.,0.898614324031,3.89399540414,156.
8.22,6236.,11.,3.,3756.,0.,0.,10006.,0.898883746675,4.24926862065,143.
8.24,6238.,8.,3.,3753.,0.,0.,10002.,0.899531632135,5.84695560888,104.
8.26,6238.,7.,5.,3748.,0.,0.,9998.,0.899891516765,6.68490841025,91.
8.28,6248.,7.,1.,3744.,0.,0.,10000.,0.901153846154,6.69428571429,91.
8.3,6257.,4.,0.,3744.,0.,0.,10005.,0.902000922616,11.726011994,52.
8.32,6264.,3.,1.,3738.,0.,0.,10006.,0.90291978659,15.6506096342,39.
8.34,6269.,4.,0.,3730.,0.,0.,10003.,0.903911518852,11.7508497451,52.
8.36,6272.,4.,2.,3723.,0.,0.,10001.,0.904524932122,11.7588241176,52.
8.38,6278.,4.,2.,3719.,0.,0.,10003.,0.905209206469,11.7677196841,52.
8.4,6283.,4.,3.,3711.,0.,0.,10001.,0.906111311946,11.7794470553,52.
8.42,6288.,6.,2.,3703.,0.,0.,9999.,0.907013778301,7.86078607861,78.
8.44,6292.,9.,2.,3696.,0.,0.,9999.,0.907590759076,5.24385771911,117.
8.46,6302.,9.,2.,3685.,0.,0.,9998.,0.909124132519,5.25271721011,117.
8.48,6306.,9.,3.,3679.,0.,0.,9997.,0.90979216842,5.25657697309,117.
8.5,6310.,12.,3.,3674.,0.,0.,9999.,0.910187172563,3.94414441444,156.
8.52,6309.,10.,1.,3676.,0.,0.,9996.,0.910316049497,4.73364345738,130.
8.54,6315.,6.,2.,3672.,0.,0.,9995.,0.911272944164,7.89769884942,78.
8.56,6319.,5.,5.,3666.,0.,0.,9995.,0.911850155847,9.48324162081,65.
8.58,6322.,6.,2.,3665.,0.,0.,9995.,0.912283064609,7.90645322661,78.
8.6,6332.,5.,4.,3655.,0.,0.,9996.,0.913634684643,9.50180072029,65.
8.62,6340.,3.,3.,3652.,0.,0.,9998.,0.914605998123,15.8531706341,39.
8.64,6345.,9.,3.,3644.,0.,0.,10001.,0.915052725497,5.28697130287,117.
8.66,6354.,13.,0.,3636.,0.,0.,10003.,0.916167457455,3.66466982982,169.
8.68,6362.,9.,4.,3629.,0.,0.,10004.,0.917229262141,5.29954684793,117.
8.7,6357.,9.,8.,3628.,0.,0.,10002.,0.916691661668,5.29644071186,117.
8.72,6348.,14.,5.,3628.,0.,0.,9995.,0.916034940547,3.40241549346,182.
8.74,6350.,15.,10.,3620.,0.,0.,9995.,0.916323546389,3.17658829415,195.
8.76,6348.,16.,8.,3623.,0.,0.,9995.,0.916034940547,2.97711355678,208.
8.78,6351.,16.,4.,3625.,0.,0.,9996.,0.916376165851,2.97822253902,208.
8.8,6356.,14.,8.,3622.,0.,0.,10000.,0.916730769231,3.405,182.
8.82,6363.,14.,9.,3616.,0.,0.,10002.,0.917556873241,3.40806838632,182.
8.84,6367.,14.,6.,3613.,0.,0.,10000.,0.918317307692,3.41089285714,182.
8.86,6363.,19.,8.,3614.,0.,0.,10004.,0.917373435241,2.51070624382,247.
8.88,6371.,14.,6.,3615.,0.,0.,10006.,0.918343224834,3.41098912081,182.
8.9,6374.,12.,9.,3615.,0.,0.,10010.,0.918408514562,3.97977022977,156.
8.92,6367.,13.,7.,3618.,0.,0.,10005.,0.917858378503,3.67143351401,169.
8.94,6366.,14.,5.,3619.,0.,0.,10004.,0.917805954541,3.40899354544,182.
8.96,6363.,15.,2.,3625.,0.,0.,10005.,0.917281743744,3.17991004498,195.
8.98,6370.,11.,8.,3615.,0.,0.,10004.,0.918382646941,4.34144524009,143.
9.,6370.,11.,8.,3615.,0.,0.,10004.,0.918382646941,4.34144524009,143.
9.02,6367.,13.,8.,3615.,0.,0.,10003.,0.918041895124,3.6721675805,169.
9.04,6367.,11.,9.,3617.,0.,0.,10004.,0.917950127641,4.3394006034,143.
9.06,6370.,13.,9.,3612.,0.,0.,10004.,0.918382646941,3.67353058776,169.
9.08,6370.,10.,7.,3616.,0.,0.,10003.,0.918474457663,4.77606717985,130.
9.1,6366.,19.,6.,3617.,0.,0.,10008.,0.917439125623,2.51088602802,247.
9.12,6372.,16.,9.,3614.,0.,0.,10011.,0.918028630045,2.98359304765,208.
9.14,6372.,19.,2.,3621.,0.,0.,10014.,0.917753606489,2.5117467125,247.
9.16,6375.,17.,4.,3617.,0.,0.,10013.,0.918277393235,2.80884849695,221.
9.18,6369.,18.,7.,3615.,0.,0.,10009.,0.91777976744,2.6513637726,234.
9.2,6366.,18.,17.,3610.,0.,0.,10011.,0.917164196307,2.649585456,234.
9.22,6355.,22.,16.,3617.,0.,0.,10010.,0.915670867594,2.16431295977,286.
9.24,6356.,21.,12.,3622.,0.,0.,10011.,0.91572347341,2.26750574368,273.
9.26,6365.,21.,12.,3619.,0.,0.,10017.,0.916470845716,2.26935637987,273.
9.28,6361.,22.,15.,3622.,0.,0.,10020.,0.915620681713,2.1641943386,286.
9.3,6355.,30.,8.,3625.,0.,0.,10018.,0.914939647097,1.5858953883,390.
9.32,6349.,31.,10.,3630.,0.,0.,10020.,0.913893367112,1.53298242225,403.
9.34,6338.,31.,12.,3641.,0.,0.,10022.,0.91212793393,1.53002105046,403.
9.36,6342.,23.,15.,3641.,0.,0.,10021.,0.912794669655,2.06370968792,299.
9.38,6325.,32.,11.,3651.,0.,0.,10019.,0.910529609127,1.47961061483,416.
9.4,6318.,37.,15.,3648.,0.,0.,10018.,0.909612697145,1.27837460139,481.
9.42,6309.,29.,18.,3660.,0.,0.,10016.,0.908498325756,1.62903148067,377.
9.44,6311.,28.,10.,3668.,0.,0.,10017.,0.908695602092,1.68757754674,364.
9.46,6318.,25.,7.,3672.,0.,0.,10022.,0.909249650768,1.8912392736,325.
9.48,6321.,20.,9.,3673.,0.,0.,10023.,0.90959063385,2.36493564801,260.
9.5,6311.,22.,9.,3677.,0.,0.,10019.,0.908514207621,2.14739721801,286.
9.52,6300.,25.,15.,3678.,0.,0.,10018.,0.907021207979,1.8866041126,325.
9.54,6287.,37.,12.,3685.,0.,0.,10021.,0.904878601092,1.27172127721,481.
9.56,6284.,33.,21.,3686.,0.,0.,10024.,0.904176131131,1.42476238845,429.
9.58,6268.,38.,30.,3689.,0.,0.,10025.,0.901784001535,1.23402021263,494.
9.6,6250.,45.,21.,3708.,0.,0.,10024.,0.89928402603,1.0391726523,585.
9.62,6235.,41.,22.,3724.,0.,0.,10022.,0.897304775647,1.13804508131,533.
9.64,6217.,44.,19.,3740.,0.,0.,10020.,0.894892906495,1.05760070768,572.
9.66,6215.,34.,28.,3742.,0.,0.,10019.,0.894694311577,1.36835600594,442.
9.68,6185.,38.,28.,3768.,0.,0.,10019.,0.890375594064,1.21840870767,494.
9.7,6157.,52.,29.,3780.,0.,0.,10018.,0.886433266275,0.886433266275,676.
9.72,6141.,55.,29.,3788.,0.,0.,10013.,0.884571211272,0.836321872475,715.
9.74,6112.,62.,33.,3807.,0.,0.,10014.,0.880306033092,0.738321189045,806.
9.76,6107.,50.,34.,3825.,0.,0.,10016.,0.87941025129,0.914586661342,650.
9.78,6083.,56.,26.,3849.,0.,0.,10014.,0.876129188367,0.813548532055,728.
9.8,6067.,49.,23.,3872.,0.,0.,10011.,0.874086581683,0.927602086684,637.
9.82,6055.,53.,12.,3893.,0.,0.,10013.,0.872183469182,0.855727177311,689.
9.84,6048.,49.,18.,3900.,0.,0.,10015.,0.871001190522,0.924327794023,637.
9.86,6043.,39.,11.,3917.,0.,0.,10010.,0.870715822639,1.16095443019,507.
9.88,6032.,36.,18.,3922.,0.,0.,10008.,0.869304556355,1.25566213696,468.
9.9,6025.,36.,13.,3932.,0.,0.,10006.,0.868469303034,1.25445565994,468.
9.92,6024.,36.,16.,3932.,0.,0.,10008.,0.86815163254,1.25399680256,468.
9.94,6019.,29.,15.,3943.,0.,0.,10006.,0.867604437338,1.55570450833,377.
9.96,6019.,30.,7.,3955.,0.,0.,10011.,0.867171111777,1.50309659375,390.
9.98,6015.,24.,14.,3958.,0.,0.,10011.,0.866594822618,1.87762211567,312.
10.,6007.,27.,15.,3960.,0.,0.,10009.,0.86561517711,1.66711071147,351.
