t,prevalence
5.,2
5.02,2
5.04,1
5.06,1
5.08,3
5.1,1
5.12,2
5.14,2
5.16,1
5.18,3
5.2,2
5.22,2
5.24,4
5.26,1
5.28,0
5.3,0
5.32,1
5.34,0
5.36,0
5.38,1
5.4,0
5.42,4
5.44,3
5.46,1
5.48,0
5.5,1
5.52,2
5.54,4
5.56,2
5.58,0
5.6,1
5.62,2
5.64,0
5.66,1
5.68,5
5.7,1
5.72,2
5.74,3
5.76,2
5.78,1
5.8,1
5.82,0
5.84,1
5.86,2
5.88,5
5.9,5
5.92,6
5.94,4
5.96,5
5.98,3
6.,2
6.02,9
6.04,2
6.06,2
6.08,3
6.1,2
6.12,3
6.14,2
6.16,1
6.18,4
6.2,0
6.22,1
6.24,0
6.26,1
6.28,3
6.3,1
6.32,1
6.34,4
6.36,1
6.38,4
6.4,3
6.42,3
6.44,5
6.46,5
6.48,7
6.5,4
6.52,0
6.54,4
6.56,7
6.58,8
6.6,2
6.62,4
6.64,3
6.66,8
6.68,2
6.7,4
6.72,2
6.74,0
6.76,1
6.78,2
6.8,2
6.82,1
6.84,6
6.86,7
6.88,5
6.9,5
6.92,6
6.94,9
6.96,10
6.98,5
7.,7
7.02,7
7.04,8
7.06,11
7.08,7
7.1,6
7.12,13
7.14,14
7.16,9
7.18,14
7.2,9
7.22,8
7.24,8
7.26,9
7.28,6
7.3,3
7.32,10
7.34,8
7.36,6
7.38,11
7.4,8
7.42,4
7.44,10
7.46,9
7.48,8
7.5,7
7.52,11
7.54,7
7.56,4
7.58,7
7.6,9
7.62,10
7.64,7
7.66,4
7.68,10
7.7,11
7.72,5
7.74,9
7.76,1
7.78,3
7.8,2
7.82,1
7.84,6
7.86,2
7.88,3
7.9,2
7.92,1
7.94,2
7.96,3
7.98,2
8.,3
8.02,2
8.04,1
8.06,3
8.08,6
8.1,2
8.12,2
8.14,2
8.16,4
8.18,5
8.2,10
8.22,4
8.24,5
8.26,4
8.28,6
8.3,6
8.32,8
8.34,3
8.36,4
8.38,9
8.4,8
8.42,4
8.44,4
8.46,1
8.48,3
8.5,3
8.52,2
8.54,2
8.56,3
8.58,0
8.6,2
8.62,4
8.64,8
8.66,5
8.68,2
8.7,4
8.72,2
8.74,4
8.76,7
8.78,8
8.8,6
8.82,11
8.84,9
8.86,2
8.88,1
8.9,7
8.92,2
8.94,1
8.96,3
8.98,1
9.,2
9.02,4
9.04,3
9.06,1
9.08,3
9.1,3
9.12,4
9.14,4
9.16,5
9.18,8
9.2,7
9.22,5
9.24,11
9.26,11
9.28,9
9.3,10
9.32,9
9.34,8
9.36,12
9.38,11
9.4,16
9.42,13
9.44,11
9.46,7
9.48,8
9.5,10
9.52,9
9.54,3
9.56,4
9.58,9
9.6,9
9.62,7
9.64,0
9.66,5
9.68,1
9.7,6
9.72,6
9.74,4
9.76,10
9.78,2
9.8,10
9.82,3
9.84,4
9.86,4
9.88,3
9.9,5
9.92,4
9.94,0
9.96,0
9.98,1
10.,0
