t,s,e,i,r,c,o,n,reff,coal,reportr
5.,6250.,5.,3.,3734.,0.,0.,9992.,0.902164038923,9.3825060048,65.
5.02,6258.,8.,1.,3728.,0.,0.,9995.,0.903047677685,5.86980990495,104.
5.04,6260.,7.,0.,3727.,0.,0.,9994.,0.903426671387,6.71116955888,91.
5.06,6262.,8.,3.,3721.,0.,0.,9994.,0.903715306107,5.87414948969,104.
5.08,6268.,5.,2.,3721.,0.,0.,9996.,0.904400221627,9.40576230492,65.
5.1,6273.,5.,4.,3715.,0.,0.,9997.,0.905031124722,9.41232369711,65.
5.12,6275.,7.,5.,3708.,0.,0.,9995.,0.905500827337,6.7265775745,91.
5.14,6282.,4.,9.,3699.,0.,0.,9994.,0.9066016533,11.7858214929,52.
5.16,6288.,7.,3.,3695.,0.,0.,9993.,0.907558367781,6.74186216066,91.
5.18,6290.,3.,6.,3691.,0.,0.,9990.,0.90811965812,15.7407407407,39.
5.2,6290.,4.,3.,3693.,0.,0.,9990.,0.90811965812,11.8055555556,52.
5.22,6297.,1.,2.,3687.,0.,0.,9987.,0.909403378238,47.2889756684,13.
5.24,6304.,5.,1.,3676.,0.,0.,9986.,0.910505476898,9.46925695974,65.
5.26,6311.,6.,3.,3667.,0.,0.,9987.,0.911425237424,7.89901872434,78.
5.28,6311.,7.,7.,3661.,0.,0.,9986.,0.911516507726,6.77126548597,91.
5.3,6315.,10.,4.,3657.,0.,0.,9986.,0.912094239628,4.74289004606,130.
5.32,6313.,10.,9.,3654.,0.,0.,9986.,0.911805373677,4.74138794312,130.
5.34,6316.,10.,5.,3654.,0.,0.,9985.,0.912330033512,4.74411617426,130.
5.36,6316.,16.,5.,3652.,0.,0.,9989.,0.911964699631,2.9638852738,208.
5.38,6320.,14.,6.,3650.,0.,0.,9990.,0.912450912451,3.3891033891,182.
5.4,6319.,15.,10.,3647.,0.,0.,9991.,0.912215224471,3.1623461115,195.
5.42,6318.,17.,6.,3649.,0.,0.,9990.,0.912162162162,2.79014308426,221.
5.44,6318.,19.,10.,3645.,0.,0.,9992.,0.911979583667,2.49594412372,247.
5.46,6313.,27.,3.,3648.,0.,0.,9991.,0.911349060308,1.75519078282,351.
5.48,6321.,19.,10.,3644.,0.,0.,9994.,0.912230030326,2.49662955668,247.
5.5,6316.,21.,10.,3646.,0.,0.,9993.,0.911599658222,2.25729439179,273.
5.52,6313.,27.,7.,3648.,0.,0.,9995.,0.910984338323,1.75448835529,351.
5.54,6305.,25.,14.,3649.,0.,0.,9993.,0.910012008406,1.89282497748,325.
5.56,6305.,12.,17.,3655.,0.,0.,9989.,0.910376414055,3.94496446091,156.
5.58,6300.,17.,11.,3662.,0.,0.,9990.,0.909563409563,2.78219395866,221.
5.6,6299.,18.,6.,3667.,0.,0.,9990.,0.909419034419,2.62721054388,234.
5.62,6308.,14.,7.,3660.,0.,0.,9989.,0.910809582849,3.38300702201,182.
5.64,6305.,17.,10.,3658.,0.,0.,9990.,0.910285285285,2.78440204911,221.
5.66,6301.,16.,10.,3660.,0.,0.,9987.,0.909981052291,2.95743841995,208.
5.68,6303.,18.,12.,3657.,0.,0.,9990.,0.909996534997,2.62887887888,234.
5.7,6295.,24.,10.,3660.,0.,0.,9989.,0.908932518078,1.96935378917,312.
5.72,6290.,26.,13.,3662.,0.,0.,9991.,0.908028764349,1.8160575287,338.
5.74,6290.,24.,17.,3660.,0.,0.,9991.,0.908028764349,1.96739565609,312.
5.76,6286.,22.,12.,3672.,0.,0.,9992.,0.907360503788,2.14467028168,286.
5.78,6278.,24.,9.,3680.,0.,0.,9991.,0.906296436023,1.96364227805,312.
5.8,6272.,23.,8.,3689.,0.,0.,9992.,0.90533965634,2.0468548752,299.
5.82,6274.,23.,12.,3685.,0.,0.,9994.,0.905447114422,2.04709782391,299.
5.84,6270.,21.,15.,3686.,0.,0.,9992.,0.905050963848,2.24107857715,273.
5.86,6270.,15.,18.,3691.,0.,0.,9994.,0.904869844984,3.13688212928,195.
5.88,6266.,19.,11.,3699.,0.,0.,9995.,0.904202101051,2.47465838182,247.
5.9,6265.,18.,8.,3702.,0.,0.,9993.,0.904238736346,2.61224523833,234.
5.92,6262.,23.,3.,3707.,0.,0.,9995.,0.903624889368,2.04297801074,299.
5.94,6269.,15.,10.,3705.,0.,0.,9999.,0.90427311962,3.13481348135,195.
5.96,6270.,17.,4.,3708.,0.,0.,9999.,0.904417364813,2.7664531159,221.
5.98,6276.,15.,5.,3707.,0.,0.,10003.,0.904920831443,3.13705888234,195.
6.,6276.,12.,6.,3711.,0.,0.,10005.,0.904739937723,3.92053973013,156.
6.02,6279.,8.,7.,3712.,0.,0.,10006.,0.90508195083,5.88303268039,104.
6.04,6284.,5.,11.,3708.,0.,0.,10008.,0.905621656521,9.41846522782,65.
6.06,6278.,12.,8.,3706.,0.,0.,10004.,0.905118721742,3.92218112755,156.
6.08,6282.,15.,3.,3701.,0.,0.,10001.,0.905967095598,3.14068593141,195.
6.1,6285.,15.,6.,3696.,0.,0.,10002.,0.906309122791,3.14187162567,195.
6.12,6291.,11.,10.,3690.,0.,0.,10002.,0.907174334364,4.28846048972,143.
6.14,6286.,16.,7.,3692.,0.,0.,10001.,0.906543960989,2.94626787321,208.
6.16,6285.,15.,6.,3696.,0.,0.,10002.,0.906309122791,3.14187162567,195.
6.18,6290.,10.,5.,3696.,0.,0.,10001.,0.907120826379,4.71702829717,130.
6.2,6301.,9.,6.,3687.,0.,0.,10003.,0.908525519267,5.24925855577,117.
6.22,6301.,13.,8.,3681.,0.,0.,10003.,0.908525519267,3.63410207707,169.
6.24,6294.,14.,5.,3685.,0.,0.,9998.,0.90797005555,3.37246020633,182.
6.26,6293.,17.,6.,3685.,0.,0.,10001.,0.907553475422,2.77604592482,221.
6.28,6293.,17.,10.,3681.,0.,0.,10001.,0.907553475422,2.77604592482,221.
6.3,6292.,20.,7.,3681.,0.,0.,10000.,0.9075,2.3595,260.
6.32,6293.,15.,16.,3677.,0.,0.,10001.,0.907553475422,3.14618538146,195.
6.34,6286.,22.,16.,3678.,0.,0.,10002.,0.90645332472,2.14252604025,286.
6.36,6285.,19.,12.,3686.,0.,0.,10002.,0.906309122791,2.48042496764,247.
6.38,6276.,20.,15.,3692.,0.,0.,10003.,0.904920831443,2.35279416175,260.
6.4,6276.,23.,18.,3692.,0.,0.,10009.,0.904378367162,2.04468152576,299.
6.42,6272.,20.,8.,3707.,0.,0.,10007.,0.903982596798,2.35035475167,260.
6.44,6275.,18.,10.,3702.,0.,0.,10005.,0.904595779034,2.61327669499,234.
6.46,6275.,16.,8.,3705.,0.,0.,10004.,0.904686202442,2.94023015794,208.
6.48,6273.,17.,7.,3706.,0.,0.,10003.,0.904488268904,2.766669999,221.
6.5,6276.,14.,7.,3707.,0.,0.,10004.,0.904830375542,3.36079853773,182.
6.52,6273.,18.,11.,3698.,0.,0.,10000.,0.904759615385,2.61375,234.
6.54,6269.,15.,8.,3708.,0.,0.,10000.,0.904182692308,3.1345,195.
6.56,6272.,14.,7.,3706.,0.,0.,9999.,0.904705855201,3.3603360336,182.
6.58,6272.,16.,7.,3703.,0.,0.,9998.,0.904796343884,2.94058811762,208.
6.6,6266.,21.,4.,3703.,0.,0.,9994.,0.904292575545,2.23920066326,273.
6.62,6268.,19.,1.,3704.,0.,0.,9992.,0.904762271356,2.4761914795,247.
6.64,6269.,17.,8.,3697.,0.,0.,9991.,0.904997189778,2.76822669815,221.
6.66,6272.,15.,5.,3699.,0.,0.,9991.,0.90543027186,3.13882494245,195.
6.68,6275.,12.,5.,3699.,0.,0.,9991.,0.905863353942,3.92540786708,156.
6.7,6276.,13.,6.,3697.,0.,0.,9992.,0.905917041325,3.6236681653,169.
6.72,6274.,14.,8.,3695.,0.,0.,9991.,0.905718993248,3.36409911778,182.
6.74,6270.,17.,7.,3696.,0.,0.,9990.,0.905232155232,2.768945416,221.
6.76,6259.,24.,5.,3696.,0.,0.,9984.,0.90418708395,1.95907201522,312.
6.78,6258.,25.,9.,3692.,0.,0.,9984.,0.904042622041,1.88040865385,325.
6.8,6256.,24.,5.,3700.,0.,0.,9985.,0.903663187088,1.95793690536,312.
6.82,6258.,21.,8.,3700.,0.,0.,9987.,0.903771056219,2.23790928207,273.
6.84,6247.,26.,8.,3705.,0.,0.,9986.,0.902272797301,1.8045455946,338.
6.86,6254.,13.,18.,3702.,0.,0.,9987.,0.903193382166,3.61277352866,169.
6.88,6243.,24.,15.,3705.,0.,0.,9987.,0.90160477852,1.95347702013,312.
6.9,6244.,25.,11.,3704.,0.,0.,9984.,0.902020155325,1.87620192308,325.
6.92,6232.,26.,20.,3709.,0.,0.,9987.,0.900016174873,1.80003234975,338.
6.94,6221.,32.,13.,3721.,0.,0.,9987.,0.898427571227,1.45994480324,416.
6.96,6217.,28.,20.,3723.,0.,0.,9988.,0.897760004313,1.66726857944,364.
6.98,6210.,34.,12.,3735.,0.,0.,9991.,0.896479908841,1.3710869194,442.
7.,6207.,33.,13.,3738.,0.,0.,9991.,0.896046826759,1.4119525755,429.
7.02,6209.,33.,9.,3743.,0.,0.,9994.,0.896066486045,1.41198355377,429.
7.04,6200.,26.,24.,3743.,0.,0.,9993.,0.894857169249,1.7897143385,338.
7.06,6199.,27.,13.,3756.,0.,0.,9995.,0.894533805364,1.72280584737,351.
7.08,6191.,29.,17.,3759.,0.,0.,9996.,0.893290008311,1.60176139421,377.
7.1,6176.,35.,18.,3765.,0.,0.,9994.,0.891304013177,1.32422310529,455.
7.12,6175.,26.,18.,3776.,0.,0.,9995.,0.891070535268,1.78214107054,338.
7.14,6170.,25.,16.,3781.,0.,0.,9992.,0.890616339225,1.85248198559,325.
7.16,6161.,25.,13.,3792.,0.,0.,9991.,0.889406234842,1.84996496847,325.
7.18,6155.,22.,16.,3798.,0.,0.,9991.,0.888540070679,2.1001856216,286.
7.2,6148.,26.,12.,3804.,0.,0.,9990.,0.887618387618,1.77523677524,338.
7.22,6137.,29.,15.,3810.,0.,0.,9991.,0.88594157819,1.58858489882,377.
7.24,6127.,29.,10.,3823.,0.,0.,9989.,0.884675065649,1.58631391082,377.
7.26,6127.,22.,17.,3826.,0.,0.,9992.,0.884409450637,2.09042233787,286.
7.28,6118.,23.,15.,3834.,0.,0.,9990.,0.883287133287,1.996996997,299.
7.3,6125.,20.,15.,3835.,0.,0.,9995.,0.883855389233,2.29802401201,260.
7.32,6120.,22.,17.,3836.,0.,0.,9995.,0.88313387463,2.08740734003,286.
7.34,6120.,22.,12.,3842.,0.,0.,9996.,0.883045525903,2.08719851577,286.
7.36,6110.,23.,7.,3851.,0.,0.,9991.,0.882043839456,1.99418607181,299.
7.38,6113.,18.,7.,3853.,0.,0.,9991.,0.882476921537,2.54937777333,234.
7.4,6116.,23.,6.,3845.,0.,0.,9990.,0.882998382998,1.99634417026,299.
7.42,6124.,20.,4.,3843.,0.,0.,9991.,0.884064889169,2.29856871184,260.
7.44,6122.,18.,3.,3848.,0.,0.,9991.,0.883776167782,2.55313115137,234.
7.46,6131.,14.,5.,3839.,0.,0.,9989.,0.88525262404,3.28808117501,182.
7.48,6125.,23.,3.,3836.,0.,0.,9987.,0.884563393951,1.99988245589,299.
7.5,6132.,23.,9.,3826.,0.,0.,9990.,0.885308385308,2.00156678418,299.
7.52,6123.,24.,14.,3832.,0.,0.,9993.,0.883743620534,1.91477784449,312.
7.54,6123.,20.,11.,3838.,0.,0.,9992.,0.883832065653,2.2979633707,260.
7.56,6118.,21.,15.,3843.,0.,0.,9997.,0.882668646748,2.18565569671,273.
7.58,6117.,22.,9.,3848.,0.,0.,9996.,0.882612660449,2.08617537924,286.
7.6,6122.,14.,10.,3850.,0.,0.,9996.,0.883334102872,3.28095523924,182.
7.62,6128.,12.,6.,3853.,0.,0.,9999.,0.883934547301,3.8303830383,156.
7.64,6125.,18.,2.,3855.,0.,0.,10000.,0.883413461538,2.55208333333,234.
7.66,6134.,18.,7.,3842.,0.,0.,10001.,0.884623076154,2.55557777556,234.
7.68,6129.,20.,10.,3841.,0.,0.,10000.,0.883990384615,2.298375,260.
7.7,6137.,17.,8.,3842.,0.,0.,10004.,0.884790314643,2.70641743303,221.
7.72,6139.,19.,6.,3841.,0.,0.,10005.,0.884990197209,2.42207843447,247.
7.74,6149.,15.,5.,3836.,0.,0.,10005.,0.886431784108,3.07296351824,195.
7.76,6148.,13.,5.,3837.,0.,0.,10003.,0.886464829782,3.54585931913,169.
7.78,6140.,15.,7.,3837.,0.,0.,9999.,0.885665489626,3.0703070307,195.
7.8,6145.,16.,5.,3833.,0.,0.,9999.,0.886386715595,2.88075682568,208.
7.82,6148.,12.,4.,3836.,0.,0.,10000.,0.886730769231,3.8425,156.
7.84,6151.,11.,2.,3835.,0.,0.,9999.,0.887252186757,4.19428306467,143.
7.86,6154.,11.,1.,3832.,0.,0.,9998.,0.887773708588,4.1967484406,143.
7.88,6163.,8.,6.,3821.,0.,0.,9998.,0.889072045178,5.77896829366,104.
7.9,6170.,8.,4.,3819.,0.,0.,10001.,0.889814864667,5.78379662034,104.
7.92,6188.,6.,2.,3807.,0.,0.,10003.,0.892232330301,7.73268019594,78.
7.94,6195.,5.,3.,3803.,0.,0.,10006.,0.892973831086,9.28692784329,65.
7.96,6199.,7.,1.,3795.,0.,0.,10002.,0.89390775691,6.64045762276,91.
7.98,6203.,9.,3.,3790.,0.,0.,10005.,0.894216353362,5.16658337498,117.
8.,6208.,12.,3.,3783.,0.,0.,10006.,0.894847706761,3.87767339596,156.
8.02,6210.,9.,10.,3776.,0.,0.,10005.,0.895225464191,5.1724137931,117.
8.04,6214.,10.,8.,3775.,0.,0.,10007.,0.895623063855,4.65723993205,130.
8.06,6216.,10.,5.,3779.,0.,0.,10010.,0.89564281872,4.65734265734,130.
8.08,6217.,12.,2.,3778.,0.,0.,10009.,0.895876403545,3.88213108203,156.
8.1,6222.,11.,8.,3768.,0.,0.,10009.,0.896596908936,4.23845811497,143.
8.12,6224.,13.,5.,3767.,0.,0.,10009.,0.896885111092,3.58754044437,169.
8.14,6230.,11.,5.,3761.,0.,0.,10007.,0.897929141908,4.24475594357,143.
8.16,6231.,11.,5.,3754.,0.,0.,10001.,0.898612061871,4.24798429248,143.
8.18,6235.,8.,8.,3749.,0.,0.,10000.,0.899278846154,5.8453125,104.
8.2,6237.,10.,3.,3751.,0.,0.,10001.,0.899477359956,4.67728227177,130.
8.22,6251.,10.,0.,3742.,0.,0.,10003.,0.901316143618,4.68684394682,130.
8.24,6250.,12.,2.,3738.,0.,0.,10002.,0.901262055281,3.90546890622,156.
8.26,6252.,8.,6.,3736.,0.,0.,10002.,0.901550459139,5.8600779844,104.
8.28,6257.,6.,7.,3733.,0.,0.,10003.,0.902181268696,7.8189043287,78.
8.3,6266.,6.,4.,3731.,0.,0.,10007.,0.903117817528,7.82702108524,78.
8.32,6267.,8.,3.,3730.,0.,0.,10008.,0.903171693414,5.87061600719,104.
8.34,6262.,9.,2.,3729.,0.,0.,10002.,0.902992478427,5.21728987536,117.
8.36,6269.,7.,2.,3724.,0.,0.,10002.,0.904001891929,6.71544262576,91.
8.38,6274.,3.,5.,3718.,0.,0.,10000.,0.904903846154,15.685,39.
8.4,6273.,8.,3.,3717.,0.,0.,10001.,0.90466914847,5.88034946505,104.
8.42,6274.,10.,3.,3714.,0.,0.,10001.,0.904813364817,4.70502949705,130.
8.44,6280.,6.,5.,3713.,0.,0.,10004.,0.905407067942,7.8468612555,78.
8.46,6285.,7.,6.,3708.,0.,0.,10006.,0.905946816525,6.72989063705,91.
8.48,6291.,12.,7.,3701.,0.,0.,10011.,0.906358774579,3.92755468984,156.
8.5,6299.,11.,5.,3699.,0.,0.,10014.,0.907239480112,4.28876845144,143.
8.52,6298.,13.,7.,3698.,0.,0.,10016.,0.906914321701,3.6276572868,169.
8.54,6293.,24.,4.,3695.,0.,0.,10016.,0.906194319857,1.96342102636,312.
8.56,6290.,22.,7.,3694.,0.,0.,10013.,0.906033694658,2.14153418737,286.
8.58,6289.,19.,10.,3698.,0.,0.,10016.,0.905618318383,2.47853434505,247.
8.6,6295.,11.,9.,3705.,0.,0.,10020.,0.906120451405,4.28347849755,143.
8.62,6299.,10.,3.,3710.,0.,0.,10022.,0.906515281765,4.71387946518,130.
8.64,6301.,7.,7.,3706.,0.,0.,10021.,0.906893600362,6.73692388841,91.
8.66,6302.,11.,6.,3701.,0.,0.,10020.,0.907128051589,4.28824169842,143.
8.68,6313.,10.,3.,3696.,0.,0.,10022.,0.908530079978,4.72435641589,130.
8.7,6314.,4.,6.,3698.,0.,0.,10022.,0.908673994136,11.8127619238,52.
8.72,6318.,7.,3.,3693.,0.,0.,10021.,0.909340385191,6.75510000428,91.
8.74,6313.,9.,3.,3694.,0.,0.,10019.,0.908802122122,5.25085670559,117.
8.76,6315.,5.,7.,3691.,0.,0.,10018.,0.909180782284,9.45548013576,65.
8.78,6314.,6.,10.,3687.,0.,0.,10017.,0.909127560071,7.87910552061,78.
8.8,6317.,8.,2.,3691.,0.,0.,10018.,0.909468725525,5.91154671591,104.
8.82,6328.,7.,1.,3681.,0.,0.,10017.,0.911143363974,6.76849356095,91.
8.84,6336.,4.,4.,3677.,0.,0.,10021.,0.911931098539,11.855104281,52.
8.86,6343.,4.,0.,3672.,0.,0.,10019.,0.913120839635,11.8705709153,52.
8.88,6351.,3.,1.,3664.,0.,0.,10019.,0.914272497639,15.8473899591,39.
8.9,6356.,6.,2.,3656.,0.,0.,10020.,0.914900967296,7.92914171657,78.
8.92,6356.,5.,3.,3656.,0.,0.,10020.,0.914900967296,9.51497005988,65.
8.94,6365.,9.,3.,3649.,0.,0.,10026.,0.915648160935,5.29041159652,117.
8.96,6368.,8.,6.,3641.,0.,0.,10023.,0.916353924435,5.95630050883,104.
8.98,6372.,7.,5.,3640.,0.,0.,10024.,0.916838050218,6.81079694448,91.
9.,6377.,8.,6.,3631.,0.,0.,10022.,0.917740586095,5.96531380962,104.
9.02,6390.,8.,4.,3624.,0.,0.,10026.,0.919244579478,5.97508976661,104.
9.04,6396.,6.,4.,3620.,0.,0.,10026.,0.920107719928,7.97426690604,78.
9.06,6407.,7.,4.,3610.,0.,0.,10028.,0.921506320763,6.84547552567,91.
9.08,6412.,9.,3.,3606.,0.,0.,10030.,0.922041567605,5.32735127949,117.
9.1,6414.,9.,9.,3598.,0.,0.,10030.,0.922329166347,5.32901296112,117.
9.12,6417.,12.,5.,3598.,0.,0.,10032.,0.922576601031,3.9978319378,156.
9.14,6420.,10.,14.,3588.,0.,0.,10032.,0.923007913139,4.79964114833,130.
9.16,6416.,15.,7.,3597.,0.,0.,10035.,0.922157065655,3.19681116094,195.
9.18,6417.,14.,9.,3593.,0.,0.,10033.,0.922484646819,3.42637154533,182.
9.2,6417.,15.,10.,3589.,0.,0.,10031.,0.922668573576,3.1985843884,195.
9.22,6411.,17.,7.,3594.,0.,0.,10029.,0.921989691433,2.82020376203,221.
9.24,6411.,16.,7.,3593.,0.,0.,10027.,0.922173592838,2.99706417672,208.
9.26,6414.,12.,5.,3595.,0.,0.,10026.,0.922697141279,3.99835427887,156.
9.28,6417.,11.,6.,3593.,0.,0.,10027.,0.923036647206,4.36344596861,143.
9.3,6420.,15.,3.,3590.,0.,0.,10028.,0.923376085422,3.20103709613,195.
9.32,6423.,12.,4.,3589.,0.,0.,10028.,0.923807569574,4.00316613482,156.
9.34,6422.,12.,4.,3586.,0.,0.,10024.,0.924032322426,4.00414006385,156.
9.36,6417.,15.,10.,3576.,0.,0.,10018.,0.923865887556,3.20273507686,195.
9.38,6415.,19.,8.,3577.,0.,0.,10019.,0.923485761668,2.52743471614,247.
9.4,6415.,21.,6.,3575.,0.,0.,10017.,0.923670145368,2.2871832171,273.
9.42,6416.,19.,6.,3574.,0.,0.,10015.,0.923998617458,2.52883832147,247.
9.44,6422.,18.,9.,3569.,0.,0.,10018.,0.924585745658,2.67102548746,234.
9.46,6429.,11.,8.,3574.,0.,0.,10022.,0.925224122316,4.37378676004,143.
9.48,6428.,11.,2.,3577.,0.,0.,10018.,0.92544957538,4.37485253816,143.
9.5,6428.,12.,2.,3576.,0.,0.,10018.,0.92544957538,4.01028149331,156.
9.52,6435.,11.,5.,3568.,0.,0.,10019.,0.926364906677,4.37917955884,143.
9.54,6439.,9.,6.,3565.,0.,0.,10019.,0.926940735679,5.35565758392,117.
9.56,6437.,12.,3.,3565.,0.,0.,10017.,0.926837837215,4.0162972946,156.
9.58,6441.,13.,6.,3559.,0.,0.,10019.,0.92722865018,3.70891460072,169.
9.6,6443.,10.,12.,3554.,0.,0.,10019.,0.927516564681,4.82308613634,130.
9.62,6436.,15.,9.,3562.,0.,0.,10022.,0.926231521422,3.21093594093,195.
9.64,6429.,20.,6.,3562.,0.,0.,10017.,0.925685949271,2.4067834681,260.
9.66,6426.,23.,9.,3560.,0.,0.,10018.,0.925161632139,2.09166977701,299.
9.68,6420.,18.,14.,3565.,0.,0.,10017.,0.924390075333,2.67046021763,234.
9.7,6412.,24.,13.,3566.,0.,0.,10015.,0.92342255847,2.00074887668,312.
9.72,6401.,31.,14.,3575.,0.,0.,10021.,0.921286452296,1.54538372643,403.
9.74,6401.,29.,11.,3581.,0.,0.,10022.,0.921194525889,1.6517970809,377.
9.76,6407.,23.,14.,3582.,0.,0.,10026.,0.921690144087,2.08382119533,299.
9.78,6407.,16.,15.,3588.,0.,0.,10026.,0.921690144087,2.99549296828,208.
9.8,6412.,12.,11.,3592.,0.,0.,10027.,0.922317435233,3.99670888601,156.
9.82,6405.,20.,12.,3592.,0.,0.,10029.,0.921126809176,2.39492970386,260.
9.84,6402.,18.,15.,3597.,0.,0.,10032.,0.920420040486,2.65899122807,234.
9.86,6402.,21.,2.,3604.,0.,0.,10029.,0.920695368048,2.27981710183,273.
9.88,6402.,16.,9.,3601.,0.,0.,10028.,0.92078718051,2.99255833666,208.
9.9,6401.,12.,6.,3609.,0.,0.,10028.,0.920643352459,3.98945452732,156.
9.92,6404.,14.,3.,3606.,0.,0.,10027.,0.921166696074,3.42147629971,182.
9.94,6413.,7.,10.,3599.,0.,0.,10029.,0.922277318852,6.85120294005,91.
9.96,6412.,14.,4.,3601.,0.,0.,10031.,0.921949648398,3.42438440833,182.
9.98,6404.,18.,8.,3599.,0.,0.,10029.,0.920982995467,2.66061754246,234.
10.,6397.,24.,8.,3599.,0.,0.,10028.,0.920068040257,1.99348075389,312.
