t,s,e,i,r,c,o,n,reff,coal,reportr
5.,6250.,5.,3.,3734.,0.,0.,9992.,0.902164038923,9.3825060048,65.
5.02,6258.,7.,1.,3725.,0.,0.,9991.,0.903409222146,6.71103993594,91.
5.04,6263.,3.,5.,3721.,0.,0.,9992.,0.904040540124,15.6700360288,39.
5.06,6261.,6.,3.,3721.,0.,0.,9991.,0.903842304228,7.83329996997,78.
5.08,6264.,6.,5.,3717.,0.,0.,9992.,0.904184886371,7.83626901521,78.
5.1,6260.,9.,4.,3716.,0.,0.,9989.,0.903878882155,5.22241131912,117.
5.12,6256.,13.,5.,3709.,0.,0.,9983.,0.903844227494,3.61537690998,169.
5.14,6267.,13.,5.,3700.,0.,0.,9985.,0.905252108933,3.62100843573,169.
5.16,6272.,12.,5.,3700.,0.,0.,9989.,0.905611557328,3.92431674842,156.
5.18,6280.,6.,11.,3695.,0.,0.,9992.,0.90649442631,7.85628502802,78.
5.2,6273.,12.,0.,3707.,0.,0.,9992.,0.905484002587,3.92376401121,156.
5.22,6279.,7.,1.,3705.,0.,0.,9992.,0.906350080064,6.73288630905,91.
5.24,6285.,8.,3.,3701.,0.,0.,9997.,0.906762413339,5.89395568671,104.
5.26,6281.,11.,4.,3697.,0.,0.,9993.,0.90654804517,4.28549984989,143.
5.28,6278.,11.,6.,3695.,0.,0.,9990.,0.906387156387,4.28473928474,143.
5.3,6275.,6.,5.,3699.,0.,0.,9985.,0.906407688456,7.85553329995,78.
5.32,6281.,4.,6.,3692.,0.,0.,9983.,0.907456136971,11.7969297806,52.
5.34,6286.,6.,2.,3690.,0.,0.,9984.,0.908087555473,7.87009214744,78.
5.36,6296.,6.,1.,3682.,0.,0.,9985.,0.909441084704,7.8818227341,78.
5.38,6305.,3.,4.,3673.,0.,0.,9985.,0.910741111668,15.7861792689,39.
5.4,6305.,4.,1.,3673.,0.,0.,9983.,0.910923570069,11.8420064109,52.
5.42,6310.,2.,3.,3668.,0.,0.,9983.,0.911645951964,23.7027947511,26.
5.44,6317.,2.,3.,3661.,0.,0.,9983.,0.912657286618,23.7290894521,26.
5.46,6327.,6.,2.,3654.,0.,0.,9989.,0.913552985207,7.91745920513,78.
5.48,6332.,8.,1.,3650.,0.,0.,9991.,0.914091913491,5.94159743769,104.
5.5,6336.,6.,3.,3644.,0.,0.,9989.,0.914852491587,7.92872159375,78.
5.52,6344.,6.,3.,3636.,0.,0.,9989.,0.916007608369,7.93873260587,78.
5.54,6342.,10.,1.,3630.,0.,0.,9983.,0.916269196095,4.76459981969,130.
5.56,6344.,6.,4.,3627.,0.,0.,9981.,0.916741809438,7.9450956818,78.
5.58,6350.,9.,4.,3616.,0.,0.,9979.,0.917792749389,5.30280255203,117.
5.6,6349.,9.,9.,3609.,0.,0.,9976.,0.917924171859,5.30356188185,117.
5.62,6344.,12.,8.,3613.,0.,0.,9977.,0.917109351508,3.9741405232,156.
5.64,6337.,18.,8.,3612.,0.,0.,9975.,0.916281087334,2.6470342523,234.
5.66,6343.,14.,10.,3607.,0.,0.,9974.,0.917240594777,3.40689363774,182.
5.68,6350.,17.,9.,3602.,0.,0.,9978.,0.917884731024,2.80764741254,221.
5.7,6348.,20.,7.,3605.,0.,0.,9980.,0.91741174657,2.38527054108,260.
5.72,6355.,12.,13.,3605.,0.,0.,9985.,0.917963483687,3.97784176264,156.
5.74,6355.,13.,13.,3607.,0.,0.,9988.,0.917687763778,3.67075105511,169.
5.76,6356.,7.,16.,3608.,0.,0.,9987.,0.917924070522,6.81886452388,91.
5.78,6347.,19.,4.,3617.,0.,0.,9987.,0.916624303903,2.50865598963,247.
5.8,6347.,16.,7.,3617.,0.,0.,9987.,0.916624303903,2.97902898768,208.
5.82,6344.,21.,9.,3613.,0.,0.,9987.,0.916191048363,2.26866354833,273.
5.84,6346.,17.,14.,3614.,0.,0.,9991.,0.916112963205,2.80222788745,221.
5.86,6344.,19.,10.,3621.,0.,0.,9994.,0.915549329598,2.50571395469,247.
5.88,6339.,24.,5.,3626.,0.,0.,9994.,0.9148277428,1.98212677607,312.
5.9,6336.,22.,14.,3624.,0.,0.,9996.,0.914211838582,2.16086434574,286.
5.92,6326.,24.,15.,3628.,0.,0.,9993.,0.913042976237,1.97825978185,312.
5.94,6332.,17.,14.,3630.,0.,0.,9993.,0.913908967046,2.79548625214,221.
5.96,6335.,22.,7.,3634.,0.,0.,9998.,0.913884700017,2.16009110913,286.
5.98,6334.,20.,2.,3643.,0.,0.,9999.,0.913649057213,2.37548754875,260.
6.,6336.,11.,9.,3639.,0.,0.,9995.,0.914303305499,4.32216108054,143.
6.02,6334.,22.,7.,3633.,0.,0.,9996.,0.913923261612,2.16018225472,286.
6.04,6332.,18.,9.,3634.,0.,0.,9993.,0.913908967046,2.64018146036,234.
6.06,6326.,17.,11.,3636.,0.,0.,9990.,0.913317163317,2.79367602897,221.
6.08,6325.,17.,9.,3638.,0.,0.,9989.,0.913264206011,2.79351404192,221.
6.1,6318.,26.,12.,3635.,0.,0.,9991.,0.912070863777,1.82414172755,338.
6.12,6318.,20.,10.,3640.,0.,0.,9988.,0.912344813777,2.37209651582,260.
6.14,6307.,21.,10.,3646.,0.,0.,9984.,0.911121255547,2.25610977564,273.
6.16,6303.,21.,8.,3648.,0.,0.,9980.,0.910908355172,2.25558259376,273.
6.18,6307.,16.,8.,3647.,0.,0.,9978.,0.911669133632,2.96292468431,208.
6.2,6303.,15.,9.,3651.,0.,0.,9978.,0.911090938526,3.15844858689,195.
6.22,6304.,11.,6.,3656.,0.,0.,9977.,0.911326820919,4.30809042616,143.
6.24,6308.,7.,11.,3654.,0.,0.,9980.,0.911630954216,6.77211565989,91.
6.26,6309.,7.,8.,3658.,0.,0.,9982.,0.911592790099,6.77183215502,91.
6.28,6310.,5.,7.,3661.,0.,0.,9983.,0.911645951964,9.48111790043,65.
6.3,6309.,13.,1.,3660.,0.,0.,9983.,0.911501475585,3.64600590234,169.
6.32,6314.,11.,2.,3657.,0.,0.,9984.,0.912132488905,4.31189903846,143.
6.34,6314.,15.,3.,3650.,0.,0.,9982.,0.912315244363,3.16269284712,195.
6.36,6316.,16.,4.,3645.,0.,0.,9981.,0.912695660216,2.9662608957,208.
6.38,6314.,19.,12.,3640.,0.,0.,9985.,0.912041138631,2.49611258994,247.
6.4,6317.,14.,5.,3649.,0.,0.,9985.,0.912474480952,3.38919092925,182.
6.42,6315.,13.,10.,3648.,0.,0.,9986.,0.912094239628,3.64837695851,169.
6.44,6315.,15.,6.,3649.,0.,0.,9985.,0.912185586071,3.16224336505,195.
6.46,6320.,15.,6.,3646.,0.,0.,9987.,0.912725004044,3.16411334735,195.
6.48,6317.,12.,8.,3649.,0.,0.,9986.,0.912383105579,3.95366012417,156.
6.5,6315.,15.,3.,3654.,0.,0.,9987.,0.912002911477,3.16161009312,195.
6.52,6324.,9.,7.,3648.,0.,0.,9988.,0.913211238101,5.27633159792,117.
6.54,6321.,6.,10.,3650.,0.,0.,9987.,0.912869422557,7.91153499549,78.
6.56,6321.,9.,2.,3652.,0.,0.,9984.,0.913143722263,5.27594150641,117.
6.58,6330.,8.,2.,3644.,0.,0.,9984.,0.914443879438,5.94388521635,104.
6.6,6343.,8.,3.,3633.,0.,0.,9987.,0.91604662985,5.95430309402,104.
6.62,6346.,9.,1.,3630.,0.,0.,9986.,0.916571661865,5.29574737966,117.
6.64,6349.,9.,2.,3625.,0.,0.,9985.,0.917096799045,5.29878150559,117.
6.66,6355.,10.,6.,3613.,0.,0.,9984.,0.918055427145,4.77388822115,130.
6.68,6356.,9.,10.,3611.,0.,0.,9986.,0.918015991619,5.30409239602,117.
6.7,6361.,14.,9.,3606.,0.,0.,9990.,0.91837029337,3.41108966109,182.
6.72,6357.,17.,6.,3607.,0.,0.,9987.,0.918068489036,2.80820949587,221.
6.74,6359.,15.,4.,3610.,0.,0.,9988.,0.918265379994,3.18331998398,195.
6.76,6360.,15.,9.,3606.,0.,0.,9990.,0.918225918226,3.18318318318,195.
6.78,6358.,16.,10.,3603.,0.,0.,9987.,0.918212907549,2.98419194953,208.
6.8,6354.,18.,14.,3600.,0.,0.,9986.,0.917727125668,2.65121169637,234.
6.82,6350.,19.,11.,3606.,0.,0.,9986.,0.917149393767,2.51009307768,247.
6.84,6350.,21.,7.,3608.,0.,0.,9986.,0.917149393767,2.27103659409,273.
6.86,6356.,18.,5.,3605.,0.,0.,9984.,0.918199889053,2.65257745726,234.
6.88,6358.,12.,8.,3603.,0.,0.,9981.,0.918764884049,3.98131449755,156.
6.9,6354.,8.,9.,3606.,0.,0.,9977.,0.918554984156,5.97060739701,104.
6.92,6355.,11.,6.,3605.,0.,0.,9977.,0.918699547421,4.34294331508,143.
6.94,6352.,16.,10.,3601.,0.,0.,9979.,0.918081817972,2.98376590841,208.
6.96,6347.,17.,12.,3603.,0.,0.,9979.,0.917359146515,2.80603974228,221.
6.98,6347.,21.,5.,3605.,0.,0.,9978.,0.917451084694,2.27178363829,273.
7.,6349.,18.,6.,3608.,0.,0.,9981.,0.917464336085,2.65045252647,234.
7.02,6352.,16.,10.,3607.,0.,0.,9985.,0.917530141366,2.98197295944,208.
7.04,6345.,18.,12.,3609.,0.,0.,9984.,0.916610808062,2.64798677885,234.
7.06,6341.,19.,13.,3614.,0.,0.,9987.,0.915757792823,2.50628448562,247.
7.08,6334.,19.,15.,3616.,0.,0.,9984.,0.915021727071,2.50426998988,247.
7.1,6324.,21.,17.,3617.,0.,0.,9979.,0.914034857817,2.26332440983,273.
7.12,6320.,23.,11.,3624.,0.,0.,9978.,0.913548267727,2.06541347486,299.
7.14,6315.,22.,6.,3629.,0.,0.,9972.,0.913374757012,2.1588857893,286.
7.16,6318.,15.,8.,3625.,0.,0.,9966.,0.914358819988,3.16977724262,195.
7.18,6321.,14.,6.,3625.,0.,0.,9966.,0.914792988468,3.3978025286,182.
7.2,6323.,16.,5.,3623.,0.,0.,9967.,0.914990622902,2.97371952443,208.
7.22,6319.,11.,10.,3625.,0.,0.,9965.,0.91459531437,4.32354148611,143.
7.24,6317.,13.,11.,3623.,0.,0.,9964.,0.914397600593,3.65759040237,169.
7.26,6316.,17.,9.,3624.,0.,0.,9966.,0.914069374334,2.79597690973,221.
7.28,6314.,13.,9.,3627.,0.,0.,9963.,0.914055080722,3.65622032289,169.
7.3,6311.,13.,7.,3632.,0.,0.,9963.,0.913620781507,3.65448312603,169.
7.32,6313.,16.,8.,3631.,0.,0.,9968.,0.913451892209,2.96871864968,208.
7.34,6313.,15.,10.,3632.,0.,0.,9970.,0.91326865211,3.16599799398,195.
7.36,6310.,14.,7.,3639.,0.,0.,9970.,0.91283465782,3.39052872904,182.
7.38,6321.,13.,9.,3628.,0.,0.,9971.,0.914334261667,3.65733704667,169.
7.4,6318.,14.,5.,3633.,0.,0.,9970.,0.913991975928,3.39482733916,182.
7.42,6313.,16.,7.,3629.,0.,0.,9965.,0.91372689027,2.96961239338,208.
7.44,6311.,13.,10.,3630.,0.,0.,9964.,0.913529089337,3.65411635735,169.
7.46,6316.,19.,9.,3622.,0.,0.,9966.,0.914069374334,2.50166355081,247.
7.48,6308.,21.,8.,3627.,0.,0.,9964.,0.913094833709,2.26099673109,273.
7.5,6306.,21.,6.,3630.,0.,0.,9963.,0.912896949482,2.26050673205,273.
7.52,6304.,16.,9.,3631.,0.,0.,9960.,0.912882298424,2.96686746988,208.
7.54,6297.,17.,11.,3636.,0.,0.,9961.,0.911777084476,2.78896519957,221.
7.56,6290.,24.,11.,3636.,0.,0.,9961.,0.910763516175,1.97332095171,312.
7.58,6285.,28.,10.,3634.,0.,0.,9957.,0.91040512666,1.69075237808,364.
7.6,6282.,29.,15.,3630.,0.,0.,9956.,0.910061964953,1.6318352475,377.
7.62,6269.,43.,7.,3639.,0.,0.,9958.,0.90799627667,1.098042009,559.
7.64,6263.,38.,16.,3640.,0.,0.,9957.,0.907218346583,1.2414566848,494.
7.66,6246.,36.,21.,3650.,0.,0.,9953.,0.905119446012,1.30739475535,468.
7.68,6242.,32.,13.,3664.,0.,0.,9951.,0.904721597366,1.47017259572,416.
7.7,6240.,29.,10.,3670.,0.,0.,9949.,0.904613528998,1.6220656382,377.
7.72,6237.,29.,12.,3673.,0.,0.,9951.,0.903996892465,1.62095994511,377.
7.74,6239.,22.,15.,3678.,0.,0.,9954.,0.90401423471,2.13676091841,286.
7.76,6230.,27.,13.,3683.,0.,0.,9953.,0.902800856332,1.73872757516,351.
7.78,6222.,24.,16.,3691.,0.,0.,9953.,0.901641561493,1.95355671657,312.
7.8,6216.,26.,13.,3697.,0.,0.,9952.,0.900862602028,1.80172520406,338.
7.82,6208.,24.,22.,3699.,0.,0.,9953.,0.899612795524,1.94916105697,312.
7.84,6190.,31.,21.,3711.,0.,0.,9953.,0.897004382134,1.50465251197,403.
7.86,6188.,32.,14.,3720.,0.,0.,9954.,0.896624472574,1.45701476793,416.
7.88,6176.,34.,15.,3731.,0.,0.,9956.,0.894705936892,1.36837378583,442.
7.9,6168.,38.,17.,3732.,0.,0.,9955.,0.89363674999,1.22287134209,494.
7.92,6154.,44.,22.,3736.,0.,0.,9956.,0.891518836728,1.05361317068,572.
7.94,6142.,42.,26.,3749.,0.,0.,9959.,0.889512385396,1.10130104858,546.
7.96,6119.,51.,23.,3768.,0.,0.,9961.,0.886003490536,0.903376107998,663.
7.98,6106.,43.,27.,3786.,0.,0.,9962.,0.884032400043,1.06906243726,559.
8.,6083.,51.,21.,3805.,0.,0.,9960.,0.880879286376,0.898151429246,663.
8.02,6061.,48.,25.,3826.,0.,0.,9960.,0.877693466172,0.950834588353,624.
8.04,6048.,45.,26.,3843.,0.,0.,9962.,0.875635105709,1.01184501104,585.
8.06,6028.,50.,33.,3847.,0.,0.,9958.,0.873090055155,0.908013657361,650.
8.08,6013.,46.,31.,3867.,0.,0.,9957.,0.871004936612,0.98461427617,598.
8.1,5995.,45.,22.,3894.,0.,0.,9956.,0.868484794635,1.00358242936,585.
8.12,5986.,42.,13.,3916.,0.,0.,9957.,0.867093888335,1.07354481413,546.
8.14,5980.,39.,20.,3917.,0.,0.,9956.,0.866311771796,1.15508236239,507.
8.16,5972.,43.,17.,3923.,0.,0.,9955.,0.865239732643,1.04633642087,559.
8.18,5959.,45.,17.,3933.,0.,0.,9954.,0.863442991608,0.997756345858,585.
8.2,5949.,30.,34.,3940.,0.,0.,9953.,0.862080625092,1.49427308349,390.
8.22,5940.,39.,11.,3965.,0.,0.,9955.,0.860603484913,1.14747131322,507.
8.24,5939.,41.,12.,3966.,0.,0.,9958.,0.86019937584,1.09098457424,533.
8.26,5924.,40.,20.,3974.,0.,0.,9958.,0.858026789439,1.11543482627,520.
8.28,5918.,39.,16.,3984.,0.,0.,9957.,0.857243840823,1.14299178776,507.
8.3,5912.,37.,25.,3982.,0.,0.,9956.,0.856460734926,1.20367454638,481.
8.32,5904.,40.,20.,3993.,0.,0.,9957.,0.855215889865,1.11178065682,520.
8.34,5887.,36.,27.,4007.,0.,0.,9957.,0.852753377987,1.23175487931,468.
8.36,5880.,36.,19.,4022.,0.,0.,9957.,0.851739402508,1.23029024807,468.
8.38,5879.,34.,20.,4024.,0.,0.,9957.,0.851594548868,1.3024387218,442.
8.4,5860.,39.,15.,4042.,0.,0.,9956.,0.848927589084,1.13190345211,507.
8.42,5851.,32.,22.,4047.,0.,0.,9952.,0.847964460178,1.37794224779,416.
8.44,5845.,32.,16.,4058.,0.,0.,9951.,0.847180028292,1.37666754598,416.
8.46,5845.,32.,7.,4065.,0.,0.,9949.,0.847350332851,1.37694429088,416.
8.48,5845.,24.,15.,4062.,0.,0.,9946.,0.847605918112,1.83647948924,312.
8.5,5843.,24.,19.,4059.,0.,0.,9945.,0.847401090614,1.83603569633,312.
8.52,5838.,14.,20.,4072.,0.,0.,9944.,0.846761092889,3.14511263073,182.
8.54,5833.,18.,17.,4078.,0.,0.,9946.,0.845865751984,2.4436121724,234.
8.56,5831.,14.,12.,4086.,0.,0.,9943.,0.845830851237,3.14165744745,182.
8.58,5824.,12.,14.,4094.,0.,0.,9944.,0.844730490748,3.66049879324,156.
8.6,5822.,19.,15.,4088.,0.,0.,9944.,0.844440404728,2.31110005505,247.
8.62,5822.,26.,9.,4087.,0.,0.,9944.,0.844440404728,1.68888080946,338.
8.64,5822.,21.,15.,4086.,0.,0.,9944.,0.844440404728,2.0909952879,273.
8.66,5811.,20.,14.,4094.,0.,0.,9939.,0.843268940537,2.1924992454,260.
8.68,5805.,25.,12.,4094.,0.,0.,9936.,0.842652591973,1.7527173913,325.
8.7,5810.,23.,10.,4093.,0.,0.,9936.,0.843378390933,1.90676853602,299.
8.72,5811.,23.,6.,4096.,0.,0.,9936.,0.843523550725,1.90709672338,299.
8.74,5807.,20.,8.,4100.,0.,0.,9935.,0.843027757346,2.1918721691,260.
8.76,5806.,15.,10.,4101.,0.,0.,9932.,0.843137178971,2.92287555377,195.
8.78,5809.,18.,14.,4090.,0.,0.,9931.,0.843657777124,2.43723357836,234.
8.8,5809.,18.,13.,4092.,0.,0.,9932.,0.843572833731,2.43698818633,234.
8.82,5807.,28.,8.,4091.,0.,0.,9934.,0.843112620217,1.5657805804,364.
8.84,5800.,22.,14.,4093.,0.,0.,9929.,0.842520356067,1.9914117507,286.
8.86,5794.,24.,13.,4096.,0.,0.,9927.,0.841818350885,1.82393976025,312.
8.88,5788.,33.,12.,4098.,0.,0.,9931.,0.840607886726,1.32459424575,429.
8.9,5784.,30.,19.,4094.,0.,0.,9927.,0.84036543692,1.456633424,390.
8.92,5757.,44.,20.,4104.,0.,0.,9925.,0.836611121876,0.988722234944,572.
8.94,5751.,38.,28.,4105.,0.,0.,9922.,0.835991890593,1.14398890292,494.
8.96,5736.,44.,22.,4115.,0.,0.,9917.,0.834231816384,0.985910328453,572.
8.98,5725.,33.,22.,4138.,0.,0.,9918.,0.832548047838,1.31189389356,429.
9.,5714.,34.,17.,4151.,0.,0.,9916.,0.831115989698,1.27111857248,442.
9.02,5715.,30.,13.,4162.,0.,0.,9920.,0.830926256203,1.44027217742,390.
9.04,5708.,29.,13.,4168.,0.,0.,9918.,0.830075852762,1.48841187392,377.
9.06,5701.,29.,18.,4170.,0.,0.,9918.,0.829057890083,1.48658656153,377.
9.08,5701.,24.,4.,4189.,0.,0.,9918.,0.829057890083,1.79629209518,312.
9.1,5710.,11.,14.,4182.,0.,0.,9917.,0.830450430884,3.92576567327,143.
9.12,5707.,14.,11.,4186.,0.,0.,9918.,0.829930429522,3.08259873822,182.
9.14,5711.,17.,8.,4186.,0.,0.,9922.,0.830177306064,2.53936587737,221.
9.16,5713.,19.,4.,4188.,0.,0.,9924.,0.830300669705,2.27240183288,247.
9.18,5718.,14.,8.,4184.,0.,0.,9924.,0.831027346293,3.08667300052,182.
9.2,5718.,13.,9.,4183.,0.,0.,9923.,0.831111093884,3.32444437554,169.
9.22,5714.,15.,6.,4183.,0.,0.,9918.,0.830948392201,2.88062109296,195.
9.24,5727.,10.,9.,4176.,0.,0.,9922.,0.832503139876,4.32901632735,130.
9.26,5739.,8.,8.,4170.,0.,0.,9925.,0.833995349738,5.4209697733,104.
9.28,5747.,8.,6.,4167.,0.,0.,9928.,0.834905550735,5.42688607977,104.
9.3,5756.,7.,5.,4157.,0.,0.,9925.,0.836465801201,6.21374595178,91.
9.32,5761.,6.,4.,4153.,0.,0.,9924.,0.837276764952,7.25639862958,78.
9.34,5761.,6.,3.,4151.,0.,0.,9921.,0.837529948129,7.25859288378,78.
9.36,5774.,4.,1.,4145.,0.,0.,9924.,0.839166124081,10.9091596131,52.
9.38,5783.,4.,1.,4138.,0.,0.,9926.,0.840304793937,10.9239623212,52.
9.4,5789.,4.,2.,4129.,0.,0.,9924.,0.841346153846,10.9375,52.
9.42,5795.,5.,2.,4121.,0.,0.,9923.,0.842303041109,8.75995162753,65.
9.44,5807.,5.,4.,4109.,0.,0.,9925.,0.84387715559,8.77632241814,65.
9.46,5819.,7.,9.,4092.,0.,0.,9927.,0.845450635795,6.28049043734,91.
9.48,5821.,7.,5.,4097.,0.,0.,9930.,0.845485707646,6.28075097108,91.
9.5,5825.,8.,3.,4094.,0.,0.,9930.,0.846066697653,5.49943353474,104.
9.52,5826.,6.,7.,4089.,0.,0.,9928.,0.846382414926,7.33531426269,78.
9.54,5838.,7.,5.,4083.,0.,0.,9933.,0.847698812815,6.29719118091,91.
9.56,5841.,7.,4.,4083.,0.,0.,9935.,0.847963687043,6.29915881803,91.
9.58,5852.,3.,1.,4080.,0.,0.,9936.,0.849475102192,14.7242351047,39.
9.6,5854.,0.,4.,4078.,0.,0.,9936.,0.849765421776,inf,0.
9.62,5865.,0.,1.,4074.,0.,0.,9940.,0.851019579013,inf,0.
9.64,5868.,0.,0.,4071.,0.,0.,9939.,0.851540551209,inf,0.
9.66,5877.,0.,1.,4062.,0.,0.,9940.,0.852760795542,inf,0.
9.68,5892.,1.,0.,4046.,0.,0.,9939.,0.855023334649,44.4612134018,13.
9.7,5897.,1.,1.,4038.,0.,0.,9937.,0.855921149395,44.5078997685,13.
9.72,5903.,1.,1.,4030.,0.,0.,9935.,0.856964500019,44.562154001,13.
9.74,5899.,4.,0.,4031.,0.,0.,9934.,0.856470009757,11.1341101268,52.
9.76,5915.,2.,1.,4018.,0.,0.,9936.,0.858620169082,22.3241243961,26.
9.78,5930.,2.,1.,4007.,0.,0.,9940.,0.86045116855,22.3717303823,26.
9.8,5943.,3.,1.,3992.,0.,0.,9939.,0.86242424946,14.9486869906,39.
9.82,5947.,6.,0.,3986.,0.,0.,9939.,0.863004713367,7.47937418251,78.
9.84,5950.,8.,0.,3976.,0.,0.,9934.,0.863874649611,5.61518522247,104.
9.86,5955.,5.,5.,3969.,0.,0.,9934.,0.864600594694,8.99184618482,65.
9.88,5958.,7.,0.,3966.,0.,0.,9931.,0.865297475659,6.4279241049,91.
9.9,5962.,8.,0.,3961.,0.,0.,9931.,0.865878407163,5.62820964656,104.
9.92,5971.,5.,4.,3951.,0.,0.,9931.,0.867185503048,9.0187292317,65.
9.94,5975.,8.,3.,3943.,0.,0.,9929.,0.867941228879,5.64161798771,104.
9.96,5978.,3.,4.,3942.,0.,0.,9927.,0.868551967827,15.0549007757,39.
9.98,5975.,5.,1.,3943.,0.,0.,9924.,0.868378522928,9.03113663845,65.
10.,5976.,7.,2.,3939.,0.,0.,9924.,0.868523858246,6.4518915184,91.
