t,cases
5.01,0.65
5.02,0.65
5.03,0.65
5.04,0.65
5.05,0.52
5.06,0.52
5.07,0.325
5.08,0.325
5.09,0.26
5.1,0.26
5.11,0.325
5.12,0.325
5.13,0.455
5.14,0.455
5.15,0.325
5.16,0.325
5.17,0.39
5.18,0.39
5.19,0.585
5.2,0.585
5.21,0.455
5.22,0.455
5.23,0.39
5.24,0.39
5.25,0.26
5.26,0.26
5.27,0.195
5.28,0.195
5.29,0.325
5.3,0.325
5.31,0.65
5.32,0.65
5.33,0.845
5.34,0.845
5.35,0.975
5.36,0.975
5.37,1.04
5.38,1.04
5.39,1.105
5.4,1.105
5.41,1.3
5.42,1.3
5.43,1.43
5.44,1.43
5.45,1.3
5.46,1.3
5.47,1.365
5.48,1.365
5.49,1.43
5.5,1.43
5.51,1.17
5.52,1.17
5.53,1.755
5.54,1.755
5.55,1.95
5.56,1.95
5.57,1.365
5.58,1.365
5.59,1.235
5.6,1.235
5.61,1.04
5.62,1.04
5.63,1.625
5.64,1.625
5.65,2.6
5.66,2.6
5.67,2.925
5.68,2.925
5.69,2.925
5.7,2.925
5.71,2.86
5.72,2.86
5.73,2.34
5.74,2.34
5.75,2.665
5.76,2.665
5.77,2.665
5.78,2.665
5.79,2.405
5.8,2.405
5.81,3.445
5.82,3.445
5.83,3.705
5.84,3.705
5.85,3.315
5.86,3.315
5.87,3.575
5.88,3.575
5.89,3.835
5.9,3.835
5.91,3.185
5.92,3.185
5.93,3.185
5.94,3.185
5.95,3.055
5.96,3.055
5.97,2.665
5.98,2.665
5.99,2.73
6.,2.73
6.01,2.99
6.02,2.99
6.03,3.12
6.04,3.12
6.05,2.925
6.06,2.925
6.07,2.925
6.08,2.925
6.09,2.665
6.1,2.665
6.11,2.275
6.12,2.275
6.13,2.405
6.14,2.405
6.15,2.405
6.16,2.405
6.17,2.34
6.18,2.34
6.19,2.405
6.2,2.405
6.21,2.405
6.22,2.405
6.23,2.34
6.24,2.34
6.25,2.275
6.26,2.275
6.27,1.885
6.28,1.885
6.29,1.885
6.3,1.885
6.31,2.145
6.32,2.145
6.33,1.95
6.34,1.95
6.35,1.885
6.36,1.885
6.37,1.69
6.38,1.69
6.39,1.755
6.4,1.755
6.41,1.625
6.42,1.625
6.43,1.43
6.44,1.43
6.45,1.56
6.46,1.56
6.47,1.365
6.48,1.365
6.49,1.105
6.5,1.105
6.51,1.105
6.52,1.105
6.53,1.04
6.54,1.04
6.55,1.235
6.56,1.235
6.57,1.43
6.58,1.43
6.59,1.105
6.6,1.105
6.61,0.975
6.62,0.975
6.63,0.78
6.64,0.78
6.65,0.65
6.66,0.65
6.67,1.04
6.68,1.04
6.69,1.04
6.7,1.04
6.71,0.91
6.72,0.91
6.73,0.975
6.74,0.975
6.75,1.04
6.76,1.04
6.77,1.495
6.78,1.495
6.79,1.43
6.8,1.43
6.81,1.43
6.82,1.43
6.83,2.015
6.84,2.015
6.85,2.145
6.86,2.145
6.87,2.08
6.88,2.08
6.89,2.47
6.9,2.47
6.91,2.86
6.92,2.86
6.93,2.405
6.94,2.405
6.95,2.08
6.96,2.08
6.97,2.145
6.98,2.145
6.99,2.405
7.,2.405
7.01,3.25
7.02,3.25
7.03,3.9
7.04,3.9
7.05,4.225
7.06,4.225
7.07,4.745
7.08,4.745
7.09,5.2
7.1,5.2
7.11,4.94
7.12,4.94
7.13,4.81
7.14,4.81
7.15,5.2
7.16,5.2
7.17,5.07
7.18,5.07
7.19,4.81
7.2,4.81
7.21,4.68
7.22,4.68
7.23,4.16
7.24,4.16
7.25,3.705
7.26,3.705
7.27,3.51
7.28,3.51
7.29,3.38
7.3,3.38
7.31,3.12
7.32,3.12
7.33,2.665
7.34,2.665
7.35,2.405
7.36,2.405
7.37,2.34
7.38,2.34
7.39,2.795
7.4,2.795
7.41,2.99
7.42,2.99
7.43,2.99
7.44,2.99
7.45,3.055
7.46,3.055
7.47,2.73
7.48,2.73
7.49,2.6
7.5,2.6
7.51,2.665
7.52,2.665
7.53,3.055
7.54,3.055
7.55,3.25
7.56,3.25
7.57,2.925
7.58,2.925
7.59,2.925
7.6,2.925
7.61,2.665
7.62,2.665
7.63,2.145
7.64,2.145
7.65,2.08
7.66,2.08
7.67,2.145
7.68,2.145
7.69,2.015
7.7,2.015
7.71,2.015
7.72,2.015
7.73,1.82
7.74,1.82
7.75,1.17
7.76,1.17
7.77,1.04
7.78,1.04
7.79,1.235
7.8,1.235
7.81,1.235
7.82,1.235
7.83,1.105
7.84,1.105
7.85,1.105
7.86,1.105
7.87,1.365
7.88,1.365
7.89,1.43
7.9,1.43
7.91,1.3
7.92,1.3
7.93,1.495
7.94,1.495
7.95,1.56
7.96,1.56
7.97,1.495
7.98,1.495
7.99,1.625
8.,1.625
8.01,1.3
8.02,1.3
8.03,1.04
8.04,1.04
8.05,1.17
8.06,1.17
8.07,1.235
8.08,1.235
8.09,1.235
8.1,1.235
8.11,1.17
8.12,1.17
8.13,1.43
8.14,1.43
8.15,1.56
8.16,1.56
8.17,1.17
8.18,1.17
8.19,0.975
8.2,0.975
8.21,1.235
8.22,1.235
8.23,1.365
8.24,1.365
8.25,1.365
8.26,1.365
8.27,1.365
8.28,1.365
8.29,1.365
8.3,1.365
8.31,1.3
8.32,1.3
8.33,1.17
8.34,1.17
8.35,1.3
8.36,1.3
8.37,1.495
8.38,1.495
8.39,1.755
8.4,1.755
8.41,2.145
8.42,2.145
8.43,2.665
8.44,2.665
8.45,2.535
8.46,2.535
8.47,2.21
8.48,2.21
8.49,3.055
8.5,3.055
8.51,3.51
8.52,3.51
8.53,3.575
8.54,3.575
8.55,3.965
8.56,3.965
8.57,3.64
8.58,3.64
8.59,3.25
8.6,3.25
8.61,3.38
8.62,3.38
8.63,3.445
8.64,3.445
8.65,2.99
8.66,2.99
8.67,2.795
8.68,2.795
8.69,3.12
8.7,3.12
8.71,2.99
8.72,2.99
8.73,2.47
8.74,2.47
8.75,2.665
8.76,2.665
8.77,2.86
8.78,2.86
8.79,2.34
8.8,2.34
8.81,1.95
8.82,1.95
8.83,1.755
8.84,1.755
8.85,2.21
8.86,2.21
8.87,2.535
8.88,2.535
8.89,2.73
8.9,2.73
8.91,2.535
8.92,2.535
8.93,2.145
8.94,2.145
8.95,2.015
8.96,2.015
8.97,1.56
8.98,1.56
8.99,1.95
9.,1.95
9.01,2.99
9.02,2.99
9.03,3.185
9.04,3.185
9.05,2.795
9.06,2.795
9.07,2.47
9.08,2.47
9.09,2.86
9.1,2.86
9.11,3.185
9.12,3.185
9.13,3.12
9.14,3.12
9.15,3.51
9.16,3.51
9.17,3.445
9.18,3.445
9.19,3.575
9.2,3.575
9.21,3.965
9.22,3.965
9.23,3.705
9.24,3.705
9.25,3.38
9.26,3.38
9.27,2.73
9.28,2.73
9.29,2.275
9.3,2.275
9.31,2.015
9.32,2.015
9.33,1.625
9.34,1.625
9.35,1.755
9.36,1.755
9.37,1.755
9.38,1.755
9.39,1.69
9.4,1.69
9.41,1.625
9.42,1.625
9.43,1.625
9.44,1.625
9.45,1.56
9.46,1.56
9.47,1.43
9.48,1.43
9.49,1.365
9.5,1.365
9.51,0.91
9.52,0.91
9.53,0.845
9.54,0.845
9.55,1.56
9.56,1.56
9.57,1.885
9.58,1.885
9.59,1.56
9.6,1.56
9.61,1.625
9.62,1.625
9.63,2.145
9.64,2.145
9.65,2.795
9.66,2.795
9.67,3.315
9.68,3.315
9.69,3.64
9.7,3.64
9.71,3.575
9.72,3.575
9.73,3.835
9.74,3.835
9.75,4.16
9.76,4.16
9.77,3.965
9.78,3.965
9.79,3.835
9.8,3.835
9.81,4.355
9.82,4.355
9.83,4.875
9.84,4.875
9.85,4.16
9.86,4.16
9.87,3.64
9.88,3.64
9.89,3.12
9.9,3.12
9.91,2.34
9.92,2.34
9.93,2.405
9.94,2.405
9.95,2.99
9.96,2.99
9.97,3.51
9.98,3.51
9.99,3.965
10.,3.965
