t,s,e,i,r,c,o,n,reff,coal,reportr
5.,6250.,5.,3.,3734.,0.,0.,9992.,0.902164038923,9.3825060048,65.
5.02,6254.,6.,5.,3726.,0.,0.,9991.,0.902831779371,7.82454208788,78.
5.04,6259.,6.,3.,3721.,0.,0.,9989.,0.903734492557,7.83236560216,78.
5.06,6264.,11.,4.,3713.,0.,0.,9992.,0.904184886371,4.27432855375,143.
5.08,6271.,10.,6.,3706.,0.,0.,9993.,0.905104727155,4.70654458121,130.
5.1,6277.,6.,3.,3708.,0.,0.,9994.,0.905880066501,7.85096057635,78.
5.12,6290.,6.,3.,3695.,0.,0.,9994.,0.907756192177,7.8672203322,78.
5.14,6292.,11.,0.,3693.,0.,0.,9996.,0.907863145258,4.29171668667,143.
5.16,6295.,10.,3.,3690.,0.,0.,9998.,0.908114315171,4.72219443889,130.
5.18,6305.,9.,4.,3682.,0.,0.,10000.,0.909375,5.25416666667,117.
5.2,6315.,8.,3.,3677.,0.,0.,10003.,0.910544144449,5.91853693892,104.
5.22,6318.,8.,3.,3673.,0.,0.,10002.,0.911067786443,5.92194061188,104.
5.24,6320.,10.,3.,3667.,0.,0.,10000.,0.911538461538,4.74,130.
5.26,6325.,8.,4.,3663.,0.,0.,10000.,0.912259615385,5.9296875,104.
5.28,6331.,5.,5.,3658.,0.,0.,9999.,0.913216321632,9.49744974497,65.
5.3,6334.,9.,5.,3653.,0.,0.,10001.,0.913466345673,5.27780555278,117.
5.32,6337.,6.,3.,3655.,0.,0.,10001.,0.913898994716,7.9204579542,78.
5.34,6338.,10.,1.,3654.,0.,0.,10003.,0.913860457247,4.75207437769,130.
5.36,6340.,10.,2.,3647.,0.,0.,9999.,0.914514528376,4.75547554755,130.
5.38,6343.,7.,3.,3646.,0.,0.,9999.,0.914947263957,6.79675110368,91.
5.4,6344.,9.,4.,3644.,0.,0.,10001.,0.914908509149,5.28613805286,117.
5.42,6347.,8.,10.,3639.,0.,0.,10004.,0.915066665641,5.94793332667,104.
5.44,6349.,14.,1.,3639.,0.,0.,10003.,0.91544651989,3.40022993102,182.
5.46,6351.,12.,7.,3632.,0.,0.,10002.,0.915826450095,3.96858128374,156.
5.48,6353.,5.,12.,3632.,0.,0.,10002.,0.916114853952,9.5275944811,65.
5.5,6352.,10.,5.,3635.,0.,0.,10002.,0.915970652023,4.76304739052,130.
5.52,6346.,15.,7.,3633.,0.,0.,10001.,0.915196941844,3.17268273173,195.
5.54,6346.,15.,3.,3640.,0.,0.,10004.,0.914922492541,3.17173130748,195.
5.56,6349.,16.,3.,3634.,0.,0.,10002.,0.915538046237,2.97549865027,208.
5.58,6356.,10.,6.,3631.,0.,0.,10003.,0.916455832481,4.7655703289,130.
5.6,6359.,13.,0.,3633.,0.,0.,10005.,0.916705108984,3.66682043594,169.
5.62,6367.,11.,1.,3631.,0.,0.,10010.,0.917399907785,4.33679956407,143.
5.64,6367.,4.,9.,3629.,0.,0.,10009.,0.917491565284,11.9273903487,52.
5.66,6371.,7.,8.,3624.,0.,0.,10010.,0.917976254515,6.8192521764,91.
5.68,6372.,12.,2.,3628.,0.,0.,10014.,0.917753606489,3.97693229479,156.
5.7,6373.,8.,7.,3625.,0.,0.,10013.,0.91798930621,5.96693049036,104.
5.72,6366.,17.,10.,3620.,0.,0.,10013.,0.916981001621,2.80488306378,221.
5.74,6361.,17.,9.,3623.,0.,0.,10010.,0.916535387689,2.8035200094,221.
5.76,6365.,17.,8.,3621.,0.,0.,10011.,0.917020124017,2.80500273229,221.
5.78,6373.,14.,9.,3617.,0.,0.,10013.,0.91798930621,3.40967456592,182.
5.8,6374.,15.,9.,3616.,0.,0.,10014.,0.918041664746,3.18254443779,195.
5.82,6376.,12.,6.,3621.,0.,0.,10015.,0.918238027574,3.97903145282,156.
5.84,6374.,16.,1.,3620.,0.,0.,10011.,0.918316774625,2.98452951753,208.
5.86,6380.,13.,8.,3610.,0.,0.,10011.,0.919181208363,3.67672483345,169.
5.88,6377.,13.,13.,3611.,0.,0.,10014.,0.918473752132,3.67389500853,169.
5.9,6377.,19.,8.,3612.,0.,0.,10016.,0.918290350823,2.51321569699,247.
5.92,6376.,16.,9.,3614.,0.,0.,10015.,0.918238027574,2.98427358962,208.
5.94,6381.,13.,5.,3615.,0.,0.,10014.,0.919049868645,3.67619947458,169.
5.96,6380.,13.,8.,3610.,0.,0.,10011.,0.919181208363,3.67672483345,169.
5.98,6392.,12.,4.,3609.,0.,0.,10017.,0.920358467528,3.98822002596,156.
6.,6398.,10.,9.,3602.,0.,0.,10019.,0.92103848841,4.78940013973,130.
6.02,6392.,15.,5.,3602.,0.,0.,10014.,0.920634189058,3.1915318554,195.
6.04,6397.,14.,5.,3601.,0.,0.,10017.,0.921078397493,3.42114833355,182.
6.06,6398.,10.,11.,3600.,0.,0.,10019.,0.92103848841,4.78940013973,130.
6.08,6395.,18.,4.,3602.,0.,0.,10019.,0.920606616659,2.6595302259,234.
6.1,6403.,11.,7.,3597.,0.,0.,10018.,0.921850284872,4.3578377103,143.
6.12,6405.,8.,13.,3593.,0.,0.,10019.,0.922046189164,5.99330022956,104.
6.14,6399.,11.,10.,3597.,0.,0.,10017.,0.92136636948,4.35555011027,143.
6.16,6403.,14.,9.,3589.,0.,0.,10015.,0.922126425746,3.42504100991,182.
6.18,6401.,23.,8.,3585.,0.,0.,10017.,0.921654341466,2.08374025027,299.
6.2,6408.,19.,7.,3586.,0.,0.,10020.,0.922385997236,2.52442483454,247.
6.22,6405.,20.,11.,3586.,0.,0.,10022.,0.921770182522,2.39660247456,260.
6.24,6397.,26.,13.,3585.,0.,0.,10021.,0.920710738219,1.84142147644,338.
6.26,6396.,28.,14.,3585.,0.,0.,10023.,0.920383118827,1.70928293496,364.
6.28,6390.,35.,13.,3585.,0.,0.,10023.,0.919519720029,1.36614358404,455.
6.3,6379.,30.,15.,3599.,0.,0.,10023.,0.917936822232,1.59109049187,390.
6.32,6372.,26.,10.,3611.,0.,0.,10019.,0.917295599899,1.8345911998,338.
6.34,6359.,29.,13.,3614.,0.,0.,10015.,0.915789776873,1.64210580681,377.
6.36,6348.,36.,8.,3621.,0.,0.,10013.,0.914388218393,1.32078298212,468.
6.38,6342.,30.,19.,3623.,0.,0.,10014.,0.913432732636,1.58328340324,390.
6.4,6334.,30.,17.,3633.,0.,0.,10014.,0.912280499608,1.58128619932,390.
6.42,6326.,23.,19.,3647.,0.,0.,10015.,0.911037290219,2.05973648223,299.
6.44,6315.,34.,10.,3660.,0.,0.,10019.,0.909090036623,1.39037299719,442.
6.46,6314.,23.,10.,3672.,0.,0.,10019.,0.908946079372,2.05500852728,299.
6.48,6319.,23.,5.,3671.,0.,0.,10018.,0.909756668765,2.05684116417,299.
6.5,6320.,19.,9.,3667.,0.,0.,10015.,0.910173201736,2.49100034159,247.
6.52,6315.,25.,10.,3665.,0.,0.,10015.,0.909453128,1.89166250624,325.
6.54,6302.,24.,16.,3670.,0.,0.,10012.,0.907852884231,1.9670145825,312.
6.56,6285.,29.,20.,3674.,0.,0.,10008.,0.905765771998,1.6241317291,377.
6.58,6285.,26.,13.,3685.,0.,0.,10009.,0.905675276866,1.81135055373,338.
6.6,6277.,27.,11.,3695.,0.,0.,10010.,0.904432106355,1.74186924187,351.
6.62,6271.,27.,9.,3701.,0.,0.,10008.,0.903748155322,1.74055200284,351.
6.64,6272.,23.,17.,3695.,0.,0.,10007.,0.903982596798,2.04378674059,299.
6.66,6265.,23.,17.,3697.,0.,0.,10002.,0.903425084214,2.04252627735,299.
6.68,6261.,24.,14.,3705.,0.,0.,10004.,0.902667779042,1.95578018792,312.
6.7,6263.,25.,10.,3705.,0.,0.,10003.,0.903046393774,1.87833649905,325.
6.72,6268.,21.,13.,3699.,0.,0.,10001.,0.903948066732,2.23834759381,273.
6.74,6264.,23.,10.,3705.,0.,0.,10002.,0.903280882285,2.0422002556,299.
6.76,6260.,23.,12.,3704.,0.,0.,9999.,0.902974912876,2.04150849868,299.
6.78,6260.,17.,8.,3712.,0.,0.,9997.,0.903155562053,2.76259348393,221.
6.8,6256.,18.,9.,3716.,0.,0.,9999.,0.902397932101,2.6069273594,234.
6.82,6249.,16.,13.,3722.,0.,0.,10000.,0.901298076923,2.92921875,208.
6.84,6250.,16.,11.,3723.,0.,0.,10000.,0.901442307692,2.9296875,208.
6.86,6242.,21.,4.,3732.,0.,0.,9999.,0.900378499388,2.22950866515,273.
6.88,6240.,18.,3.,3734.,0.,0.,9995.,0.900450225113,2.60130065033,234.
6.9,6241.,12.,11.,3729.,0.,0.,9993.,0.90077477311,3.90335735015,156.
6.92,6238.,14.,11.,3730.,0.,0.,9993.,0.900341777706,3.34412660291,182.
6.94,6235.,14.,4.,3737.,0.,0.,9990.,0.900179025179,3.34352209352,182.
6.96,6234.,15.,5.,3735.,0.,0.,9989.,0.900124752612,3.12043247572,195.
6.98,6238.,18.,5.,3732.,0.,0.,9993.,0.900341777706,2.60098735782,234.
7.,6237.,11.,8.,3734.,0.,0.,9990.,0.900467775468,4.25675675676,143.
7.02,6236.,10.,9.,3736.,0.,0.,9991.,0.900233286881,4.68121309178,130.
7.04,6244.,10.,3.,3737.,0.,0.,9994.,0.901117593633,4.68581148689,130.
7.06,6245.,13.,5.,3730.,0.,0.,9993.,0.901352100316,3.60540840127,169.
7.08,6248.,10.,10.,3727.,0.,0.,9995.,0.901604648478,4.68834417209,130.
7.1,6247.,10.,4.,3735.,0.,0.,9996.,0.90137016345,4.68712484994,130.
7.12,6257.,12.,3.,3729.,0.,0.,10001.,0.902361686908,3.9102339766,156.
7.14,6254.,12.,4.,3728.,0.,0.,9998.,0.902199670703,3.90953190638,156.
7.16,6248.,15.,8.,3722.,0.,0.,9993.,0.901785095721,3.12618833183,195.
7.18,6243.,22.,6.,3722.,0.,0.,9993.,0.901063436713,2.12978630496,286.
7.2,6241.,20.,8.,3723.,0.,0.,9992.,0.900864922707,2.34224879904,260.
7.22,6244.,13.,6.,3729.,0.,0.,9992.,0.901297961446,3.60519184578,169.
7.24,6248.,13.,8.,3724.,0.,0.,9993.,0.901785095721,3.60714038288,169.
7.26,6244.,15.,11.,3725.,0.,0.,9995.,0.901027436795,3.12356178089,195.
7.28,6239.,20.,2.,3730.,0.,0.,9991.,0.900666368963,2.3417325593,260.
7.3,6242.,15.,9.,3727.,0.,0.,9993.,0.900919104912,3.12318623036,195.
7.32,6241.,18.,4.,3725.,0.,0.,9988.,0.901225701611,2.60354091577,234.
7.34,6242.,12.,14.,3720.,0.,0.,9988.,0.901370105665,3.90593712455,156.
7.36,6244.,16.,10.,3718.,0.,0.,9988.,0.901658913773,2.93039146976,208.
7.38,6243.,19.,12.,3713.,0.,0.,9987.,0.90160477852,2.46754992016,247.
7.4,6239.,14.,13.,3720.,0.,0.,9986.,0.901117333498,3.34700723871,182.
7.42,6237.,18.,4.,3727.,0.,0.,9986.,0.900828467547,2.60239335069,234.
7.44,6242.,16.,7.,3727.,0.,0.,9992.,0.901009268954,2.9282801241,208.
7.46,6253.,14.,8.,3720.,0.,0.,9995.,0.902326163082,3.35149717716,182.
7.48,6255.,15.,8.,3715.,0.,0.,9993.,0.902795418331,3.12969078355,195.
7.5,6259.,13.,4.,3714.,0.,0.,9990.,0.903644028644,3.61457611458,169.
7.52,6261.,13.,4.,3715.,0.,0.,9993.,0.90366140914,3.61464563656,169.
7.54,6263.,12.,5.,3713.,0.,0.,9993.,0.903950072743,3.91711698189,156.
7.56,6265.,12.,4.,3711.,0.,0.,9992.,0.904329232617,3.91876000801,156.
7.58,6262.,12.,7.,3710.,0.,0.,9991.,0.903986664922,3.91727554799,156.
7.6,6265.,12.,6.,3709.,0.,0.,9992.,0.904329232617,3.91876000801,156.
7.62,6269.,14.,7.,3702.,0.,0.,9992.,0.904906617602,3.36108172252,182.
7.64,6271.,13.,6.,3702.,0.,0.,9992.,0.905195310094,3.62078124038,169.
7.66,6270.,15.,6.,3701.,0.,0.,9992.,0.905050963848,3.13751000801,195.
7.68,6274.,12.,5.,3700.,0.,0.,9991.,0.905718993248,3.92478230407,156.
7.7,6281.,9.,7.,3695.,0.,0.,9992.,0.906638772557,5.23835735255,117.
7.72,6286.,6.,8.,3691.,0.,0.,9991.,0.907451321574,7.86457812031,78.
7.74,6292.,11.,4.,3681.,0.,0.,9988.,0.90859030837,4.29515418502,143.
7.76,6291.,16.,8.,3674.,0.,0.,9989.,0.908354959686,2.95215361898,208.
7.78,6291.,18.,6.,3676.,0.,0.,9991.,0.908173125043,2.62361125013,234.
7.8,6290.,14.,10.,3678.,0.,0.,9992.,0.907937888773,3.37234072973,182.
7.82,6294.,17.,13.,3672.,0.,0.,9996.,0.908151722227,2.77787585622,221.
7.84,6301.,21.,11.,3668.,0.,0.,10001.,0.908707206202,2.25013212964,273.
7.86,6290.,19.,10.,3677.,0.,0.,9996.,0.907574568289,2.48388829216,247.
7.88,6295.,17.,5.,3675.,0.,0.,9992.,0.908659620004,2.77942942589,221.
7.9,6295.,21.,8.,3669.,0.,0.,9993.,0.908568690391,2.24978913811,273.
7.92,6294.,19.,11.,3671.,0.,0.,9995.,0.90824258283,2.48571654248,247.
7.94,6291.,16.,12.,3676.,0.,0.,9995.,0.907809674068,2.95038144072,208.
7.96,6286.,22.,8.,3680.,0.,0.,9996.,0.90699741435,2.14381207028,286.
7.98,6282.,26.,6.,3680.,0.,0.,9994.,0.9066016533,1.8132033066,338.
8.,6286.,25.,9.,3676.,0.,0.,9996.,0.90699741435,1.88655462185,325.
8.02,6292.,25.,7.,3668.,0.,0.,9992.,0.908226581265,1.88911128903,325.
8.04,6293.,17.,12.,3667.,0.,0.,9989.,0.908643738882,2.77938084834,221.
8.06,6293.,10.,17.,3668.,0.,0.,9988.,0.908734712424,4.72542050461,130.
8.08,6282.,18.,10.,3679.,0.,0.,9989.,0.907055453306,2.62038242066,234.
8.1,6277.,23.,12.,3673.,0.,0.,9985.,0.906696583337,2.04992271015,299.
8.12,6270.,19.,15.,3680.,0.,0.,9984.,0.905776164941,2.47896634615,247.
8.14,6268.,17.,11.,3686.,0.,0.,9982.,0.905668665136,2.77028062277,221.
8.16,6260.,18.,7.,3695.,0.,0.,9980.,0.904694003391,2.61356045424,234.
8.18,6256.,17.,11.,3697.,0.,0.,9981.,0.904025340455,2.76525398257,221.
8.2,6250.,16.,9.,3705.,0.,0.,9980.,0.903248805303,2.93555861723,208.
8.22,6246.,17.,9.,3705.,0.,0.,9977.,0.902942151564,2.7619406989,221.
8.24,6235.,20.,10.,3711.,0.,0.,9976.,0.901442307692,2.34375,260.
8.26,6233.,15.,8.,3721.,0.,0.,9977.,0.901062829122,3.12368447429,195.
8.28,6232.,16.,1.,3727.,0.,0.,9976.,0.901008574425,2.92827786688,208.
8.3,6236.,13.,3.,3722.,0.,0.,9974.,0.901767672873,3.60707069149,169.
8.32,6242.,11.,8.,3715.,0.,0.,9976.,0.902454351983,4.26614784574,143.
8.34,6240.,16.,3.,3715.,0.,0.,9974.,0.90234609986,2.93262482454,208.
8.36,6240.,12.,7.,3715.,0.,0.,9974.,0.90234609986,3.91016643273,156.
8.38,6239.,9.,2.,3721.,0.,0.,9971.,0.902472940759,5.21428810216,117.
8.4,6253.,8.,3.,3711.,0.,0.,9975.,0.904135338346,5.87687969925,104.
8.42,6253.,5.,4.,3709.,0.,0.,9971.,0.904498044329,9.40677966102,65.
8.44,6261.,4.,5.,3702.,0.,0.,9972.,0.905564426548,11.7723375451,52.
8.46,6266.,2.,5.,3700.,0.,0.,9973.,0.906196731174,23.5611150105,26.
8.48,6273.,4.,5.,3691.,0.,0.,9973.,0.9072090799,11.7937180387,52.
8.5,6278.,3.,1.,3692.,0.,0.,9974.,0.907841156237,15.7359133748,39.
8.52,6282.,4.,2.,3688.,0.,0.,9976.,0.908237462217,11.8070870088,52.
8.54,6294.,5.,0.,3681.,0.,0.,9980.,0.909607676892,9.45991983968,65.
8.56,6294.,5.,0.,3680.,0.,0.,9979.,0.90969882908,9.46086782243,65.
8.58,6303.,2.,1.,3671.,0.,0.,9977.,0.911182257654,23.690738699,26.
8.6,6306.,2.,1.,3670.,0.,0.,9979.,0.911433240574,23.6972642549,26.
8.62,6310.,4.,1.,3660.,0.,0.,9975.,0.912377096588,11.8609022556,52.
8.64,6315.,3.,2.,3655.,0.,0.,9975.,0.913100057837,15.8270676692,39.
8.66,6329.,3.,2.,3645.,0.,0.,9979.,0.914757529273,15.8557971741,39.
8.68,6328.,3.,3.,3642.,0.,0.,9976.,0.914888038986,15.8580593424,39.
8.7,6333.,6.,2.,3636.,0.,0.,9977.,0.915519155596,7.9344993485,78.
8.72,6338.,8.,0.,3632.,0.,0.,9978.,0.916150145705,5.95497594708,104.
8.74,6342.,5.,5.,3628.,0.,0.,9980.,0.916544627717,9.53206412826,65.
8.76,6339.,12.,9.,3618.,0.,0.,9978.,0.916294694482,3.97061034275,156.
8.78,6334.,18.,12.,3616.,0.,0.,9980.,0.915388469246,2.64445557782,234.
8.8,6326.,17.,13.,3621.,0.,0.,9977.,0.914507212743,2.79731618016,221.
8.82,6317.,23.,10.,3628.,0.,0.,9978.,0.913114621398,2.06443305707,299.
8.84,6316.,20.,11.,3633.,0.,0.,9980.,0.912787112687,2.37324649299,260.
8.86,6311.,20.,11.,3639.,0.,0.,9981.,0.911973133569,2.37113014728,260.
8.88,6309.,23.,12.,3639.,0.,0.,9983.,0.911501475585,2.0607859448,299.
8.9,6303.,26.,8.,3641.,0.,0.,9978.,0.911090938526,1.82218187705,338.
8.92,6298.,26.,9.,3645.,0.,0.,9978.,0.910368194644,1.82073638929,338.
8.94,6292.,22.,14.,3650.,0.,0.,9978.,0.909500901984,2.14972940469,286.
8.96,6283.,21.,9.,3663.,0.,0.,9976.,0.908382039973,2.24932695612,273.
8.98,6275.,24.,11.,3667.,0.,0.,9977.,0.907134486241,1.96545805352,312.
9.,6280.,19.,12.,3666.,0.,0.,9977.,0.907857302565,2.48466209123,247.
9.02,6271.,29.,12.,3664.,0.,0.,9976.,0.906647106903,1.62571205376,377.
9.04,6269.,20.,15.,3669.,0.,0.,9973.,0.906630594914,2.35723954678,260.
9.06,6261.,20.,13.,3678.,0.,0.,9972.,0.905564426548,2.35446750903,260.
9.08,6263.,16.,13.,3683.,0.,0.,9975.,0.905581260844,2.94313909774,208.
9.1,6259.,21.,11.,3682.,0.,0.,9973.,0.905184382448,2.24140894701,273.
9.12,6258.,16.,10.,3688.,0.,0.,9972.,0.9051305193,2.94167418773,208.
9.14,6257.,19.,6.,3693.,0.,0.,9975.,0.904713707345,2.47605856747,247.
9.16,6251.,23.,9.,3696.,0.,0.,9979.,0.903483854556,2.04265914943,299.
9.18,6241.,29.,11.,3690.,0.,0.,9971.,0.902762241269,1.61874608779,377.
9.2,6246.,26.,12.,3690.,0.,0.,9974.,0.90321374034,1.80642748068,338.
9.22,6249.,22.,13.,3688.,0.,0.,9972.,0.903828797556,2.13632261241,286.
9.24,6250.,22.,9.,3692.,0.,0.,9973.,0.903882791229,2.13645023381,286.
9.26,6245.,20.,5.,3700.,0.,0.,9970.,0.903431448191,2.3489217653,260.
9.28,6249.,12.,12.,3698.,0.,0.,9971.,0.903919443309,3.91698425434,156.
9.3,6250.,10.,13.,3701.,0.,0.,9974.,0.903792167327,4.6997192701,130.
9.32,6247.,17.,7.,3704.,0.,0.,9975.,0.903267784847,2.76293675365,221.
9.34,6249.,19.,8.,3697.,0.,0.,9973.,0.903738169982,2.47338867574,247.
9.36,6254.,16.,4.,3702.,0.,0.,9976.,0.904189285053,2.93861517642,208.
9.38,6257.,10.,8.,3697.,0.,0.,9972.,0.904985883551,4.70592659446,130.
9.4,6258.,14.,1.,3695.,0.,0.,9968.,0.905493733794,3.36326243981,182.
9.42,6262.,11.,4.,3688.,0.,0.,9965.,0.906345285422,4.28454134927,143.
9.44,6261.,16.,6.,3678.,0.,0.,9961.,0.906564447499,2.94633445437,208.
9.46,6264.,11.,7.,3679.,0.,0.,9961.,0.906998833914,4.28763085123,143.
9.48,6260.,17.,4.,3678.,0.,0.,9959.,0.906601682282,2.77313455757,221.
9.5,6254.,16.,10.,3678.,0.,0.,9958.,0.905823690268,2.94392699337,208.
9.52,6251.,15.,12.,3678.,0.,0.,9956.,0.905571051086,3.1393129771,195.
9.54,6241.,21.,13.,3677.,0.,0.,9952.,0.904485762429,2.23967903078,273.
9.56,6243.,18.,13.,3680.,0.,0.,9954.,0.904593823898,2.61327104682,234.
9.58,6239.,15.,14.,3685.,0.,0.,9953.,0.904105063027,3.13423088516,195.
9.6,6232.,19.,9.,3693.,0.,0.,9953.,0.903090680042,2.47161659801,247.
9.62,6240.,18.,9.,3691.,0.,0.,9958.,0.90379594296,2.61096605744,234.
9.64,6235.,20.,8.,3691.,0.,0.,9954.,0.903434645523,2.34893007836,260.
9.66,6232.,14.,13.,3696.,0.,0.,9955.,0.902909245451,3.35366291167,182.
9.68,6218.,21.,9.,3701.,0.,0.,9949.,0.901424186428,2.23209798544,273.
9.7,6213.,20.,12.,3705.,0.,0.,9950.,0.900608813297,2.34158291457,260.
9.72,6215.,17.,11.,3705.,0.,0.,9948.,0.901079845968,2.75624423473,221.
9.74,6213.,19.,11.,3706.,0.,0.,9949.,0.900699335844,2.46507186652,247.
9.76,6202.,26.,13.,3708.,0.,0.,9949.,0.899104664558,1.79820932912,338.
9.78,6195.,28.,12.,3715.,0.,0.,9950.,0.897999613452,1.66771356784,364.
9.8,6190.,21.,12.,3725.,0.,0.,9948.,0.897455228728,2.22227009018,273.
9.82,6184.,17.,19.,3725.,0.,0.,9945.,0.896855783734,2.74332357377,221.
9.84,6176.,19.,16.,3736.,0.,0.,9947.,0.895515462722,2.45088442429,247.
9.86,6156.,31.,14.,3745.,0.,0.,9946.,0.892705223592,1.49744102022,403.
9.88,6145.,37.,15.,3748.,0.,0.,9945.,0.891199675136,1.25249684073,481.
9.9,6141.,28.,17.,3759.,0.,0.,9945.,0.890619561434,1.65400775695,364.
9.92,6129.,33.,14.,3766.,0.,0.,9942.,0.889147439766,1.40108081418,429.
9.94,6117.,29.,21.,3773.,0.,0.,9940.,0.887585126141,1.59153195032,377.
9.96,6115.,29.,7.,3789.,0.,0.,9940.,0.887294923386,1.59101158676,377.
9.98,6112.,21.,22.,3785.,0.,0.,9940.,0.886859619254,2.19603334291,273.
10.,6098.,33.,13.,3797.,0.,0.,9941.,0.884739192002,1.39413448437,429.
