t,s,e,i,r,c,o,n,reff,coal,reportr
5.,6250.,5.,3.,3734.,0.,0.,9992.,0.902164038923,9.3825060048,65.
5.02,6261.,4.,1.,3726.,0.,0.,9992.,0.903751847632,11.7487740192,52.
5.04,6270.,7.,0.,3714.,0.,0.,9991.,0.905141550472,6.72390866065,91.
5.06,6271.,5.,4.,3706.,0.,0.,9986.,0.90573918871,9.41968756259,65.
5.08,6279.,11.,3.,3694.,0.,0.,9987.,0.906803844998,4.28670908545,143.
5.1,6283.,11.,6.,3685.,0.,0.,9985.,0.907563267979,4.29029908499,143.
5.12,6284.,8.,7.,3684.,0.,0.,9983.,0.907889566109,5.90128217971,104.
5.14,6284.,8.,5.,3688.,0.,0.,9985.,0.907707715419,5.90010015023,104.
5.16,6286.,9.,5.,3688.,0.,0.,9988.,0.907723884045,5.2446268856,117.
5.18,6291.,5.,11.,3683.,0.,0.,9990.,0.908264033264,9.44594594595,65.
5.2,6295.,9.,7.,3682.,0.,0.,9993.,0.908568690391,5.24950798893,117.
5.22,6301.,9.,1.,3684.,0.,0.,9995.,0.909252703275,5.25346006337,117.
5.24,6302.,12.,3.,3679.,0.,0.,9996.,0.909306030104,3.94032613045,156.
5.26,6301.,14.,7.,3677.,0.,0.,9999.,0.90888896582,3.37587330162,182.
5.28,6303.,22.,4.,3675.,0.,0.,10004.,0.908723049242,2.14789084366,286.
5.3,6304.,24.,8.,3672.,0.,0.,10008.,0.908503966058,1.96842525979,312.
5.32,6308.,18.,11.,3673.,0.,0.,10010.,0.908898793514,2.62570762571,234.
5.34,6322.,11.,8.,3670.,0.,0.,10011.,0.91082501556,4.30571825537,143.
5.36,6320.,14.,5.,3671.,0.,0.,10010.,0.910627833705,3.38233195376,182.
5.38,6324.,14.,8.,3663.,0.,0.,10009.,0.911295218918,3.38481081313,182.
5.4,6325.,13.,5.,3663.,0.,0.,10006.,0.911712587832,3.64685035133,169.
5.42,6334.,13.,4.,3661.,0.,0.,10012.,0.912462737023,3.64985094809,169.
5.44,6340.,9.,4.,3658.,0.,0.,10011.,0.913418316775,5.27752805248,117.
5.46,6348.,13.,3.,3649.,0.,0.,10013.,0.914388218393,3.65755287357,169.
5.48,6351.,11.,12.,3640.,0.,0.,10014.,0.914728994792,4.32417342993,143.
5.5,6349.,17.,8.,3643.,0.,0.,10017.,0.914167069827,2.796275743,221.
5.52,6338.,21.,13.,3644.,0.,0.,10016.,0.912674336446,2.25995549977,273.
5.54,6329.,24.,10.,3653.,0.,0.,10016.,0.911378333129,1.97465305511,312.
5.56,6327.,21.,10.,3657.,0.,0.,10015.,0.911181304966,2.25625846944,273.
5.58,6318.,17.,13.,3662.,0.,0.,10010.,0.91033966034,2.7845683728,221.
5.6,6315.,14.,13.,3670.,0.,0.,10012.,0.909725636928,3.37898093716,182.
5.62,6315.,12.,18.,3672.,0.,0.,10017.,0.909271546064,3.94017669961,156.
5.64,6313.,19.,9.,3677.,0.,0.,10018.,0.908892839044,2.48749619107,247.
5.66,6313.,21.,11.,3669.,0.,0.,10014.,0.909255887911,2.25149077006,273.
5.68,6310.,17.,17.,3668.,0.,0.,10012.,0.909005347429,2.78048694508,221.
5.7,6307.,22.,10.,3675.,0.,0.,10014.,0.90839171314,2.1471076856,286.
5.72,6302.,19.,13.,3680.,0.,0.,10014.,0.907671567498,2.48415376368,247.
5.74,6299.,22.,14.,3678.,0.,0.,10013.,0.907330086272,2.14459838573,286.
5.76,6302.,20.,9.,3683.,0.,0.,10014.,0.907671567498,2.35994607549,260.
5.78,6306.,17.,6.,3687.,0.,0.,10016.,0.90806632465,2.77761464011,221.
5.8,6305.,20.,5.,3684.,0.,0.,10014.,0.908103654883,2.3610695027,260.
5.82,6302.,15.,8.,3687.,0.,0.,10012.,0.907852884231,3.147223332,195.
5.84,6301.,17.,4.,3687.,0.,0.,10009.,0.907980894118,2.77735332319,221.
5.86,6303.,18.,5.,3683.,0.,0.,10009.,0.908269096275,2.62388850035,234.
5.88,6301.,15.,9.,3681.,0.,0.,10006.,0.908253125048,3.1486108335,195.
5.9,6305.,17.,2.,3681.,0.,0.,10005.,0.90892053973,2.78022753329,221.
5.92,6314.,10.,9.,3671.,0.,0.,10004.,0.910308953342,4.73360655738,130.
5.94,6315.,15.,7.,3666.,0.,0.,10003.,0.910544144449,3.15655303409,195.
5.96,6319.,12.,10.,3664.,0.,0.,10005.,0.910938761389,3.94740129935,156.
5.98,6323.,9.,8.,3663.,0.,0.,10003.,0.911697644553,5.26758639075,117.
6.,6327.,17.,6.,3656.,0.,0.,10006.,0.912000876397,2.78964973957,221.
6.02,6330.,16.,7.,3653.,0.,0.,10006.,0.912433309245,2.96540825505,208.
6.04,6330.,17.,10.,3650.,0.,0.,10007.,0.91234212974,2.79069357332,221.
6.06,6335.,16.,13.,3647.,0.,0.,10011.,0.912697955326,2.96626835481,208.
6.08,6328.,13.,17.,3654.,0.,0.,10012.,0.911598389625,3.6463935585,169.
6.1,6319.,17.,16.,3660.,0.,0.,10012.,0.910301868527,2.78445277432,221.
6.12,6315.,21.,7.,3669.,0.,0.,10012.,0.909725636928,2.25265395811,273.
6.14,6316.,18.,7.,3674.,0.,0.,10015.,0.909597142747,2.62772507905,234.
6.16,6318.,14.,7.,3674.,0.,0.,10013.,0.910066913013,3.38024853405,182.
6.18,6322.,16.,8.,3672.,0.,0.,10018.,0.910188583626,2.95811289679,208.
6.2,6316.,25.,9.,3668.,0.,0.,10018.,0.909324753905,1.89139548812,325.
6.22,6307.,20.,16.,3674.,0.,0.,10017.,0.90811965812,2.36111111111,260.
6.24,6307.,20.,10.,3681.,0.,0.,10018.,0.908029009322,2.36087542424,260.
6.26,6303.,20.,13.,3681.,0.,0.,10017.,0.907543714147,2.35961365678,260.
6.28,6290.,22.,13.,3689.,0.,0.,10014.,0.905943217956,2.14132033335,286.
6.3,6290.,24.,10.,3689.,0.,0.,10013.,0.906033694658,1.96307300509,312.
6.32,6282.,27.,8.,3693.,0.,0.,10010.,0.905152539768,1.74325674326,351.
6.34,6286.,16.,14.,3692.,0.,0.,10008.,0.905909887475,2.94420713429,208.
6.36,6280.,20.,6.,3702.,0.,0.,10008.,0.905045194614,2.353117506,260.
6.38,6284.,10.,10.,3705.,0.,0.,10009.,0.905531175788,4.7087621141,130.
6.4,6280.,15.,13.,3702.,0.,0.,10010.,0.904864366403,3.13686313686,195.
6.42,6279.,22.,9.,3703.,0.,0.,10013.,0.904449216019,2.13778905605,286.
6.44,6269.,26.,12.,3703.,0.,0.,10010.,0.903279412895,1.80655882579,338.
6.46,6261.,28.,14.,3706.,0.,0.,10009.,0.902216850988,1.67554558041,364.
6.48,6270.,21.,13.,3707.,0.,0.,10011.,0.903333256495,2.23682520656,273.
6.5,6267.,23.,12.,3710.,0.,0.,10012.,0.90281085774,2.04113759141,299.
6.52,6263.,27.,13.,3712.,0.,0.,10015.,0.901964361151,1.7371165474,351.
6.54,6262.,32.,9.,3716.,0.,0.,10019.,0.901460302349,1.46487299132,416.
6.56,6252.,31.,7.,3728.,0.,0.,10018.,0.900110570204,1.50986289196,403.
6.58,6250.,27.,12.,3728.,0.,0.,10017.,0.899912456516,1.73316473107,351.
6.6,6236.,32.,14.,3733.,0.,0.,10015.,0.898075962979,1.45937343984,416.
6.62,6227.,35.,16.,3737.,0.,0.,10015.,0.896779830255,1.33235860495,455.
6.64,6211.,34.,13.,3755.,0.,0.,10013.,0.894654257158,1.36829474624,442.
6.66,6206.,32.,16.,3757.,0.,0.,10011.,0.894112629953,1.45293302367,416.
6.68,6199.,31.,15.,3766.,0.,0.,10011.,0.893104123925,1.49811014336,403.
6.7,6190.,33.,11.,3777.,0.,0.,10011.,0.891807473318,1.4052723822,429.
6.72,6189.,26.,16.,3778.,0.,0.,10009.,0.891841573353,1.78368314671,338.
6.74,6181.,30.,13.,3786.,0.,0.,10010.,0.890599784831,1.54370629371,390.
6.76,6180.,28.,14.,3787.,0.,0.,10009.,0.890544663649,1.65386866106,364.
6.78,6172.,34.,16.,3784.,0.,0.,10006.,0.889658512585,1.36065419572,442.
6.8,6168.,28.,20.,3790.,0.,0.,10006.,0.889081935454,1.65115216584,364.
6.82,6160.,35.,14.,3798.,0.,0.,10007.,0.887840050426,1.31907664635,455.
6.84,6164.,22.,18.,3802.,0.,0.,10006.,0.888505358323,2.10010357422,286.
6.86,6159.,28.,17.,3806.,0.,0.,10010.,0.887429877814,1.6480840588,364.
6.88,6153.,29.,15.,3816.,0.,0.,10013.,0.886299733423,1.58922710821,377.
6.9,6149.,27.,10.,3827.,0.,0.,10013.,0.885723559373,1.7058379662,351.
6.92,6139.,28.,9.,3835.,0.,0.,10011.,0.884459786542,1.64256817501,364.
6.94,6150.,23.,5.,3835.,0.,0.,10013.,0.885867602885,2.00283110218,299.
6.96,6150.,18.,12.,3835.,0.,0.,10015.,0.885690694727,2.55866200699,234.
6.98,6148.,17.,11.,3837.,0.,0.,10013.,0.88557951586,2.70883146028,221.
7.,6146.,17.,11.,3837.,0.,0.,10011.,0.88546829257,2.70849124786,221.
7.02,6151.,17.,9.,3837.,0.,0.,10014.,0.885923169102,2.7098826349,221.
7.04,6147.,9.,14.,3842.,0.,0.,10012.,0.88552390977,5.11636036756,117.
7.06,6145.,16.,10.,3842.,0.,0.,10013.,0.885147385322,2.8767290023,208.
7.08,6147.,22.,7.,3838.,0.,0.,10014.,0.885347052588,2.09263848794,286.
7.1,6146.,19.,10.,3837.,0.,0.,10012.,0.88537985187,2.42314485775,247.
7.12,6146.,20.,8.,3841.,0.,0.,10015.,0.885114635739,2.30129805292,260.
7.14,6148.,17.,5.,3844.,0.,0.,10014.,0.885491081716,2.70856095584,221.
7.16,6155.,18.,3.,3840.,0.,0.,10016.,0.886322268985,2.56048655485,234.
7.18,6159.,18.,6.,3832.,0.,0.,10015.,0.886986827451,2.56240639041,234.
7.2,6166.,11.,9.,3829.,0.,0.,10015.,0.887994930681,4.19779421776,143.
7.22,6162.,10.,5.,3837.,0.,0.,10014.,0.887507489515,4.61503894548,130.
7.24,6166.,11.,4.,3831.,0.,0.,10012.,0.888261009865,4.19905204663,143.
7.26,6168.,9.,3.,3832.,0.,0.,10012.,0.888549125665,5.13383939273,117.
7.28,6181.,12.,1.,3821.,0.,0.,10015.,0.890155151888,3.85733899151,156.
7.3,6181.,9.,3.,3820.,0.,0.,10013.,0.890332951778,5.14414594361,117.
7.32,6185.,7.,8.,3812.,0.,0.,10012.,0.89099810996,6.61884310256,91.
7.34,6198.,5.,4.,3808.,0.,0.,10015.,0.892603402588,9.28307538692,65.
7.36,6204.,9.,4.,3797.,0.,0.,10014.,0.89355671291,5.16277211903,117.
7.38,6207.,9.,4.,3796.,0.,0.,10016.,0.893810288154,5.16423722045,117.
7.4,6211.,9.,3.,3792.,0.,0.,10015.,0.894475594301,5.16808121152,117.
7.42,6224.,8.,6.,3780.,0.,0.,10018.,0.896079364836,5.82451587143,104.
7.44,6227.,6.,7.,3778.,0.,0.,10018.,0.896511279697,7.76976442404,78.
7.46,6222.,14.,4.,3776.,0.,0.,10016.,0.895970293684,3.32788966225,182.
7.48,6224.,11.,6.,3772.,0.,0.,10013.,0.896526822823,4.2381267988,143.
7.5,6236.,11.,0.,3770.,0.,0.,10017.,0.897896652614,4.24460235781,143.
7.52,6240.,10.,2.,3765.,0.,0.,10017.,0.898472596586,4.67205750225,130.
7.54,6242.,10.,4.,3759.,0.,0.,10015.,0.898940051461,4.6744882676,130.
7.56,6245.,14.,2.,3756.,0.,0.,10017.,0.899192526551,3.33985795576,182.
7.58,6251.,12.,1.,3754.,0.,0.,10018.,0.899966598584,3.89985526053,156.
7.6,6261.,10.,3.,3745.,0.,0.,10019.,0.901316345098,4.68684499451,130.
7.62,6267.,12.,2.,3737.,0.,0.,10018.,0.902270144509,3.90983729287,156.
7.64,6284.,8.,5.,3725.,0.,0.,10022.,0.904356569393,5.87831770106,104.
7.66,6296.,1.,2.,3722.,0.,0.,10021.,0.906173957766,47.1210458038,13.
7.68,6301.,4.,1.,3711.,0.,0.,10017.,0.907255742161,11.7943246481,52.
7.7,6305.,5.,1.,3701.,0.,0.,10012.,0.90828505793,9.44616460248,65.
7.72,6311.,4.,3.,3692.,0.,0.,10010.,0.909331053562,11.8213036963,52.
7.74,6312.,5.,0.,3687.,0.,0.,10004.,0.910020607142,9.46421431427,65.
7.76,6315.,3.,3.,3680.,0.,0.,10001.,0.910726235069,15.7859214079,39.
7.78,6321.,5.,1.,3673.,0.,0.,10000.,0.911682692308,9.4815,65.
7.8,6330.,8.,4.,3661.,0.,0.,10003.,0.912706957144,5.93259522143,104.
7.82,6335.,8.,2.,3660.,0.,0.,10005.,0.913245300427,5.93609445277,104.
7.84,6340.,10.,4.,3654.,0.,0.,10008.,0.913692123224,4.75119904077,130.
7.86,6343.,9.,7.,3645.,0.,0.,10004.,0.914489973241,5.2837198454,117.
7.88,6338.,10.,8.,3649.,0.,0.,10005.,0.913677776496,4.75112443778,130.
7.9,6339.,11.,9.,3647.,0.,0.,10006.,0.913730607789,4.31945378228,143.
7.92,6337.,16.,6.,3645.,0.,0.,10004.,0.913624934642,2.96928103758,208.
7.94,6345.,14.,8.,3637.,0.,0.,10004.,0.914778319441,3.39774804364,182.
7.96,6342.,17.,11.,3630.,0.,0.,10000.,0.914711538462,2.79794117647,221.
7.98,6342.,15.,11.,3629.,0.,0.,9997.,0.914986034272,3.17195158548,195.
8.,6340.,18.,6.,3632.,0.,0.,9996.,0.91478899252,2.64272375617,234.
8.02,6341.,14.,4.,3636.,0.,0.,9995.,0.915024820102,3.39866361752,182.
8.04,6344.,9.,8.,3636.,0.,0.,9997.,0.915274582375,5.28825314261,117.
8.06,6352.,9.,5.,3629.,0.,0.,9995.,0.91661215223,5.295981324,117.
8.08,6355.,8.,8.,3623.,0.,0.,9994.,0.917136820554,5.9613893336,104.
8.1,6353.,14.,7.,3623.,0.,0.,9997.,0.916573048838,3.4044141814,182.
8.12,6356.,11.,4.,3624.,0.,0.,9995.,0.917189363913,4.33580426577,143.
8.14,6356.,15.,4.,3621.,0.,0.,9996.,0.917097608274,3.17927170868,195.
8.16,6355.,14.,7.,3617.,0.,0.,9993.,0.91722859848,3.40684908007,182.
8.18,6356.,18.,7.,3616.,0.,0.,9997.,0.917005870992,2.64912807175,234.
8.2,6344.,21.,12.,3618.,0.,0.,9995.,0.915457728864,2.26684770957,273.
8.22,6337.,19.,11.,3630.,0.,0.,9997.,0.914264664015,2.50219802783,247.
8.24,6334.,14.,20.,3628.,0.,0.,9996.,0.913923261612,3.39457211456,182.
8.26,6324.,17.,11.,3644.,0.,0.,9996.,0.912480376766,2.79111644658,221.
8.28,6327.,22.,4.,3641.,0.,0.,9994.,0.913095934484,2.15822675423,286.
8.3,6338.,17.,12.,3631.,0.,0.,9998.,0.91431747888,2.79673581775,221.
8.32,6325.,22.,9.,3644.,0.,0.,10000.,0.912259615385,2.15625,286.
8.34,6319.,19.,11.,3649.,0.,0.,9998.,0.911576546078,2.49484107348,247.
8.36,6320.,18.,15.,3645.,0.,0.,9998.,0.9117208057,2.63386010535,234.
8.38,6316.,22.,9.,3652.,0.,0.,9999.,0.911052643726,2.1533971579,286.
8.4,6311.,22.,12.,3654.,0.,0.,9999.,0.910331417757,2.15169244197,286.
8.42,6304.,20.,17.,3657.,0.,0.,9998.,0.909412651761,2.36447289458,260.
8.44,6294.,27.,20.,3660.,0.,0.,10001.,0.907697691769,1.74815851748,351.
8.46,6277.,31.,21.,3675.,0.,0.,10004.,0.904974548642,1.51802182353,403.
8.48,6268.,28.,17.,3691.,0.,0.,10004.,0.903676990742,1.67825726852,364.
8.5,6265.,31.,13.,3695.,0.,0.,10004.,0.903244471442,1.51511975855,403.
8.52,6264.,26.,9.,3705.,0.,0.,10004.,0.903100298342,1.80620059668,338.
8.54,6248.,29.,17.,3707.,0.,0.,10001.,0.90106373978,1.61570049892,377.
8.56,6238.,34.,8.,3719.,0.,0.,9999.,0.899801518613,1.37616702847,442.
8.58,6230.,29.,15.,3728.,0.,0.,10002.,0.898378016704,1.61088471961,377.
8.6,6223.,23.,22.,3735.,0.,0.,10003.,0.897278893255,2.02863054127,299.
8.62,6209.,35.,18.,3743.,0.,0.,10005.,0.895081305501,1.32983508246,455.
8.64,6197.,40.,16.,3755.,0.,0.,10008.,0.893083610035,1.16100869305,520.
8.66,6184.,36.,23.,3765.,0.,0.,10008.,0.891210108836,1.28730349054,468.
8.68,6177.,40.,9.,3782.,0.,0.,10008.,0.890201300498,1.15726169065,520.
8.7,6177.,28.,15.,3786.,0.,0.,10006.,0.890379233998,1.65356143457,364.
8.72,6166.,31.,14.,3795.,0.,0.,10006.,0.888793646889,1.49087966575,403.
8.74,6164.,22.,21.,3800.,0.,0.,10007.,0.88841656994,2.09989371077,286.
8.76,6150.,32.,10.,3814.,0.,0.,10006.,0.886487338366,1.44054192485,416.
8.78,6151.,31.,12.,3815.,0.,0.,10009.,0.886365732379,1.48680703496,403.
8.8,6149.,28.,14.,3821.,0.,0.,10012.,0.885812025569,1.64507947606,364.
8.82,6149.,25.,10.,3829.,0.,0.,10013.,0.885723559373,1.8423050035,325.
8.84,6145.,30.,17.,3823.,0.,0.,10015.,0.884970620992,1.53394907639,390.
8.86,6138.,38.,12.,3832.,0.,0.,10020.,0.883521418701,1.2090293098,494.
8.88,6131.,40.,18.,3833.,0.,0.,10022.,0.882337703207,1.14703901417,520.
8.9,6121.,44.,16.,3842.,0.,0.,10023.,0.880810673912,1.04095806917,572.
8.92,6112.,44.,14.,3853.,0.,0.,10023.,0.879515575714,1.03942749857,572.
8.94,6100.,37.,27.,3857.,0.,0.,10021.,0.877963967975,1.23389530634,481.
8.96,6086.,40.,11.,3883.,0.,0.,10020.,0.876036388761,1.13884730539,520.
8.98,6085.,32.,16.,3884.,0.,0.,10017.,0.876154767664,1.42375149745,416.
9.,6072.,31.,23.,3888.,0.,0.,10014.,0.874544867954,1.46697848818,403.
9.02,6058.,37.,23.,3895.,0.,0.,10013.,0.87261559972,1.22637868069,481.
9.04,6048.,26.,29.,3909.,0.,0.,10012.,0.871262177694,1.74252435539,338.
9.06,6042.,32.,20.,3919.,0.,0.,10013.,0.870310903518,1.41425521822,416.
9.08,6037.,29.,19.,3927.,0.,0.,10012.,0.869677540797,1.55942179729,377.
9.1,6035.,26.,18.,3932.,0.,0.,10011.,0.869476268412,1.73895253682,338.
9.12,6033.,22.,13.,3944.,0.,0.,10012.,0.869101309198,2.0542394581,286.
9.14,6024.,27.,15.,3946.,0.,0.,10012.,0.8678047881,1.67132774005,351.
9.16,6018.,26.,12.,3956.,0.,0.,10012.,0.866940440702,1.7338808814,338.
9.18,6009.,23.,16.,3959.,0.,0.,10007.,0.866076438801,1.95808586164,299.
9.2,5994.,30.,18.,3962.,0.,0.,10004.,0.864173561345,1.49790083966,390.
9.22,5980.,32.,22.,3966.,0.,0.,10000.,0.8625,1.4015625,416.
9.24,5967.,35.,14.,3985.,0.,0.,10001.,0.860538946105,1.27851500564,455.
9.26,5963.,35.,15.,3993.,0.,0.,10006.,0.859532357509,1.27701950258,455.
9.28,5972.,29.,14.,3993.,0.,0.,10008.,0.860657627744,1.54324816009,377.
9.3,5975.,24.,13.,3996.,0.,0.,10008.,0.861089974175,1.86569494404,312.
9.32,5969.,31.,8.,3996.,0.,0.,10004.,0.860569233845,1.44353548903,403.
9.34,5967.,29.,7.,3999.,0.,0.,10002.,0.860452909418,1.54288107896,377.
9.36,5971.,25.,10.,3994.,0.,0.,10000.,0.861201923077,1.7913,325.
9.38,5972.,23.,12.,3994.,0.,0.,10001.,0.861260027843,1.94719658469,299.
9.4,5978.,23.,6.,3993.,0.,0.,10000.,0.862211538462,1.94934782609,299.
9.42,5978.,20.,8.,3993.,0.,0.,9999.,0.862297768238,2.24197419742,260.
9.44,5971.,16.,20.,3991.,0.,0.,9998.,0.861374197917,2.79946614323,208.
9.46,5963.,21.,9.,4004.,0.,0.,9997.,0.860306168774,2.13028194173,273.
9.48,5974.,11.,12.,4003.,0.,0.,10000.,0.861634615385,4.07318181818,143.
9.5,5971.,15.,6.,4008.,0.,0.,10000.,0.861201923077,2.9855,195.
9.52,5973.,18.,3.,4004.,0.,0.,9998.,0.861662717159,2.48924784957,234.
9.54,5968.,22.,6.,4001.,0.,0.,9997.,0.861027539031,2.03515600135,286.
9.56,5968.,21.,12.,3997.,0.,0.,9998.,0.860941419053,2.13185494242,273.
9.58,5963.,24.,16.,3995.,0.,0.,9998.,0.860220120947,1.86381026205,312.
9.6,5959.,26.,10.,4003.,0.,0.,9998.,0.859643082463,1.71928616493,338.
9.62,5960.,22.,11.,4001.,0.,0.,9994.,0.860131463493,2.03303800462,286.
9.64,5960.,23.,13.,3997.,0.,0.,9993.,0.860217536891,1.94483964862,299.
9.66,5965.,26.,8.,3997.,0.,0.,9996.,0.860680810786,1.72136162157,338.
9.68,5962.,26.,15.,3991.,0.,0.,9994.,0.860420098213,1.72084019643,338.
9.7,5966.,24.,9.,3996.,0.,0.,9995.,0.860911224843,1.86530765383,312.
9.72,5970.,22.,11.,3994.,0.,0.,9997.,0.861316087134,2.03583802413,286.
9.74,5975.,22.,14.,3991.,0.,0.,10002.,0.861606524849,2.03652451328,286.
9.76,5974.,16.,12.,3998.,0.,0.,10000.,0.861634615385,2.8003125,208.
9.78,5973.,17.,11.,3999.,0.,0.,10000.,0.861490384615,2.63514705882,221.
9.8,5974.,17.,9.,4002.,0.,0.,10002.,0.86146232292,2.63506122305,221.
9.82,5982.,17.,7.,3997.,0.,0.,10003.,0.862529702628,2.63832614921,221.
9.84,5981.,14.,10.,3998.,0.,0.,10003.,0.862385515115,3.203146199,182.
9.86,5982.,14.,10.,3994.,0.,0.,10000.,0.862788461538,3.20464285714,182.
9.88,5977.,12.,12.,4000.,0.,0.,10001.,0.861981109581,3.73525147485,156.
9.9,5986.,11.,7.,3996.,0.,0.,10000.,0.863365384615,4.08136363636,143.
9.92,5980.,12.,10.,3996.,0.,0.,9998.,0.862672534507,3.73824764953,156.
9.94,5978.,12.,3.,4002.,0.,0.,9995.,0.862642859891,3.73811905953,156.
9.96,5982.,8.,4.,4001.,0.,0.,9995.,0.863220071574,5.61093046523,104.
9.98,5992.,8.,5.,3991.,0.,0.,9996.,0.864576599871,5.61974789916,104.
10.,5991.,6.,0.,3998.,0.,0.,9995.,0.86451879786,7.49249624812,78.
