t,s,e,i,r,c,o,n,reff,coal,reportr
5.,6250.,5.,3.,3734.,0.,0.,9992.,0.902164038923,9.3825060048,65.
5.02,6257.,4.,5.,3728.,0.,0.,9994.,0.902993719309,11.738918351,52.
5.04,6258.,4.,3.,3728.,0.,0.,9993.,0.903228413736,11.7419693786,52.
5.06,6262.,7.,0.,3724.,0.,0.,9993.,0.903805740942,6.71398550414,91.
5.08,6269.,7.,2.,3718.,0.,0.,9996.,0.904544510112,6.71947350369,91.
5.1,6276.,9.,1.,3709.,0.,0.,9995.,0.905645130257,5.23261630815,117.
5.12,6275.,10.,4.,3707.,0.,0.,9996.,0.905410241019,4.7081332533,130.
5.14,6273.,11.,2.,3706.,0.,0.,9992.,0.905484002587,4.28046983041,143.
5.16,6273.,15.,5.,3698.,0.,0.,9991.,0.905574632554,3.13932539285,195.
5.18,6272.,13.,3.,3700.,0.,0.,9988.,0.905702227288,3.62280890915,169.
5.2,6274.,7.,8.,3696.,0.,0.,9985.,0.906263241015,6.73224121897,91.
5.22,6276.,11.,7.,3691.,0.,0.,9985.,0.906552135896,4.28551918787,143.
5.24,6284.,8.,11.,3681.,0.,0.,9984.,0.907798631657,5.90069110577,104.
5.26,6277.,15.,9.,3681.,0.,0.,9982.,0.906969082811,3.14415948708,195.
5.28,6276.,19.,7.,3676.,0.,0.,9978.,0.90718812156,2.48283064848,247.
5.3,6273.,21.,9.,3677.,0.,0.,9980.,0.906572760906,2.24484683653,273.
5.32,6263.,23.,9.,3680.,0.,0.,9975.,0.905581260844,2.04740111147,299.
5.34,6263.,13.,12.,3689.,0.,0.,9977.,0.905399727065,3.62159890826,169.
5.36,6254.,17.,10.,3692.,0.,0.,9973.,0.904461276215,2.76658743313,221.
5.38,6255.,18.,7.,3696.,0.,0.,9976.,0.904333862809,2.61252004812,234.
5.4,6253.,15.,4.,3705.,0.,0.,9977.,0.903954094417,3.13370752731,195.
5.42,6256.,13.,13.,3697.,0.,0.,9979.,0.904206526012,3.61682610405,169.
5.44,6257.,10.,8.,3701.,0.,0.,9976.,0.904623018321,4.70403969527,130.
5.46,6261.,9.,5.,3701.,0.,0.,9976.,0.905201329344,5.2300521251,117.
5.48,6264.,9.,5.,3693.,0.,0.,9971.,0.906089197133,5.23518202788,117.
5.5,6272.,5.,5.,3689.,0.,0.,9971.,0.907246399173,9.4353625514,65.
5.52,6271.,7.,6.,3685.,0.,0.,9969.,0.90728373342,6.73982201969,91.
5.54,6269.,8.,7.,3683.,0.,0.,9967.,0.907176374343,5.89664643323,104.
5.56,6271.,11.,2.,3682.,0.,0.,9966.,0.907556847126,4.29026873187,143.
5.58,6276.,13.,4.,3678.,0.,0.,9971.,0.907825000193,3.63130000077,169.
5.6,6280.,12.,4.,3676.,0.,0.,9972.,0.908312505785,3.9360208584,156.
5.62,6283.,11.,6.,3671.,0.,0.,9971.,0.908837551978,4.29632297299,143.
5.64,6280.,12.,6.,3671.,0.,0.,9969.,0.908585846895,3.93720533654,156.
5.66,6288.,11.,2.,3666.,0.,0.,9967.,0.909925832169,4.30146757025,143.
5.68,6292.,6.,7.,3662.,0.,0.,9967.,0.910504665396,7.89104043343,78.
5.7,6295.,10.,3.,3658.,0.,0.,9966.,0.911030194971,4.73735701385,130.
5.72,6294.,12.,4.,3655.,0.,0.,9965.,0.910976880621,3.94756648269,156.
5.74,6297.,12.,5.,3649.,0.,0.,9963.,0.911594051838,3.9502408913,156.
5.76,6301.,11.,7.,3645.,0.,0.,9964.,0.912081570577,4.31165833364,143.
5.78,6299.,16.,2.,3647.,0.,0.,9964.,0.911792066825,2.96332421718,208.
5.8,6300.,12.,6.,3645.,0.,0.,9963.,0.912028351053,3.95212285456,156.
5.82,6307.,13.,3.,3641.,0.,0.,9964.,0.912950081833,3.65180032733,169.
5.84,6308.,9.,9.,3639.,0.,0.,9965.,0.91300320352,5.27512962034,117.
5.86,6312.,4.,9.,3639.,0.,0.,9964.,0.913673841213,11.8777599358,52.
5.88,6312.,8.,6.,3639.,0.,0.,9965.,0.91358215292,5.93828399398,104.
5.9,6311.,11.,5.,3633.,0.,0.,9960.,0.913895968489,4.3202354874,143.
5.92,6309.,10.,8.,3634.,0.,0.,9961.,0.913514630134,4.7502760767,130.
5.94,6311.,13.,6.,3631.,0.,0.,9961.,0.913804221078,3.65521688431,169.
5.96,6322.,13.,6.,3620.,0.,0.,9961.,0.915396971265,3.66158788506,169.
5.98,6326.,10.,5.,3621.,0.,0.,9962.,0.915884206137,4.76259787191,130.
6.,6327.,14.,1.,3617.,0.,0.,9959.,0.916304927124,3.40341830075,182.
6.02,6329.,7.,8.,3615.,0.,0.,9959.,0.916594576224,6.80898828052,91.
6.04,6326.,9.,6.,3614.,0.,0.,9955.,0.916528223158,5.29549640047,117.
6.06,6321.,11.,7.,3615.,0.,0.,9954.,0.915895813048,4.32968929804,143.
6.08,6324.,10.,5.,3616.,0.,0.,9955.,0.916238457675,4.76443997991,130.
6.1,6331.,9.,5.,3609.,0.,0.,9954.,0.917344786016,5.3002143192,117.
6.12,6333.,11.,4.,3605.,0.,0.,9953.,0.917726777392,4.33834476585,143.
6.14,6337.,14.,2.,3597.,0.,0.,9950.,0.918583301121,3.41188083274,182.
6.16,6331.,16.,2.,3599.,0.,0.,9948.,0.917898069964,2.98316872738,208.
6.18,6335.,15.,6.,3594.,0.,0.,9950.,0.918293390027,3.18341708543,195.
6.2,6332.,19.,4.,3596.,0.,0.,9951.,0.917766285569,2.51178141313,247.
6.22,6334.,11.,5.,3602.,0.,0.,9952.,0.917963919119,4.33946579947,143.
6.24,6335.,11.,9.,3595.,0.,0.,9950.,0.918293390027,4.34102329831,143.
6.26,6334.,17.,4.,3597.,0.,0.,9952.,0.917963919119,2.80788963495,221.
6.28,6337.,14.,4.,3596.,0.,0.,9951.,0.918490990469,3.4115379646,182.
6.3,6339.,10.,3.,3599.,0.,0.,9951.,0.918780872429,4.77766053663,130.
6.32,6340.,10.,5.,3596.,0.,0.,9951.,0.918925813409,4.77841422973,130.
6.34,6333.,11.,6.,3599.,0.,0.,9949.,0.918095749863,4.34008899935,143.
6.36,6336.,9.,5.,3598.,0.,0.,9948.,0.918622993412,5.30759951749,117.
6.38,6336.,10.,8.,3593.,0.,0.,9947.,0.918715345176,4.77731979491,130.
6.4,6331.,19.,13.,3586.,0.,0.,9949.,0.917805809629,2.51188958425,247.
6.42,6325.,22.,17.,3587.,0.,0.,9951.,0.916751698708,2.16686765149,286.
6.44,6319.,23.,8.,3602.,0.,0.,9952.,0.915790022879,2.07048179086,299.
6.46,6325.,22.,7.,3600.,0.,0.,9954.,0.916475402235,2.1662145871,286.
6.48,6318.,18.,13.,3601.,0.,0.,9950.,0.915829145729,2.64572864322,234.
6.5,6314.,21.,13.,3601.,0.,0.,9949.,0.915341317643,2.26655945321,273.
6.52,6309.,16.,12.,3613.,0.,0.,9950.,0.914524545806,2.97220477387,208.
6.54,6308.,17.,9.,3614.,0.,0.,9948.,0.914563422103,2.79748811467,221.
6.56,6306.,20.,4.,3617.,0.,0.,9947.,0.914365367215,2.37734995476,260.
6.58,6300.,17.,11.,3615.,0.,0.,9943.,0.913862864481,2.79534523253,221.
6.6,6304.,13.,8.,3617.,0.,0.,9942.,0.914535072652,3.65814029061,169.
6.62,6306.,12.,9.,3616.,0.,0.,9943.,0.914733210067,3.96384391029,156.
6.64,6309.,13.,6.,3614.,0.,0.,9942.,0.915260433592,3.66104173437,169.
6.66,6307.,10.,10.,3614.,0.,0.,9941.,0.915062329281,4.75832411226,130.
6.68,6311.,10.,11.,3612.,0.,0.,9944.,0.915366436661,4.75990547064,130.
6.7,6318.,14.,12.,3605.,0.,0.,9949.,0.91592119811,3.40199302155,182.
6.72,6309.,17.,9.,3614.,0.,0.,9949.,0.914616467059,2.79765036983,221.
6.74,6313.,16.,14.,3611.,0.,0.,9954.,0.914736634673,2.97289406269,208.
6.76,6302.,23.,9.,3618.,0.,0.,9952.,0.913326273807,2.06491157556,299.
6.78,6300.,22.,5.,3626.,0.,0.,9953.,0.912944686179,2.15786925824,286.
6.8,6301.,22.,7.,3621.,0.,0.,9951.,0.913273115187,2.15864554499,286.
6.82,6297.,20.,3.,3629.,0.,0.,9949.,0.912876825657,2.37347974671,260.
6.84,6293.,11.,7.,3639.,0.,0.,9950.,0.912205257055,4.31224303335,143.
6.86,6298.,7.,4.,3639.,0.,0.,9948.,0.913113575206,6.78312941582,91.
6.88,6304.,5.,7.,3631.,0.,0.,9947.,0.914075368685,9.50638383432,65.
6.9,6308.,8.,3.,3628.,0.,0.,9947.,0.914655365746,5.94525987735,104.
6.92,6314.,11.,5.,3619.,0.,0.,9949.,0.915341317643,4.32706804704,143.
6.94,6312.,15.,1.,3621.,0.,0.,9949.,0.915051377409,3.17217810835,195.
6.96,6313.,14.,2.,3620.,0.,0.,9949.,0.915196347526,3.39930071938,182.
6.98,6314.,8.,9.,3619.,0.,0.,9950.,0.915249323541,5.94912060302,104.
7.,6311.,13.,0.,3626.,0.,0.,9950.,0.9148144569,3.6592578276,169.
7.02,6322.,7.,5.,3619.,0.,0.,9953.,0.916132746988,6.80555754905,91.
7.04,6333.,8.,3.,3611.,0.,0.,9955.,0.917542402349,5.96402561527,104.
7.06,6331.,9.,5.,3608.,0.,0.,9953.,0.917436953682,5.3007468435,117.
7.08,6336.,8.,9.,3603.,0.,0.,9956.,0.917884847174,5.96625150663,104.
7.1,6340.,7.,5.,3604.,0.,0.,9956.,0.918464319931,6.8228778052,91.
7.12,6348.,11.,2.,3597.,0.,0.,9958.,0.91943856505,4.34643685296,143.
7.14,6346.,12.,4.,3595.,0.,0.,9957.,0.919241198693,3.98337852767,156.
7.16,6356.,14.,6.,3585.,0.,0.,9961.,0.920320017298,3.41833149282,182.
7.18,6360.,8.,11.,3581.,0.,0.,9960.,0.920991658943,5.98644578313,104.
7.2,6363.,9.,7.,3582.,0.,0.,9961.,0.921333585599,5.3232607168,117.
7.22,6363.,14.,4.,3578.,0.,0.,9959.,0.92151861092,3.42278341199,182.
7.24,6369.,10.,8.,3572.,0.,0.,9959.,0.922387558219,4.79641530274,130.
7.26,6367.,11.,10.,3566.,0.,0.,9954.,0.9225610887,4.36119787386,143.
7.28,6371.,9.,13.,3562.,0.,0.,9955.,0.923047946529,5.33316591328,117.
7.3,6364.,19.,3.,3560.,0.,0.,9946.,0.922868103142,2.52574428228,247.
7.32,6363.,21.,5.,3558.,0.,0.,9947.,0.92263032534,2.28460842465,273.
7.34,6368.,18.,9.,3554.,0.,0.,9949.,0.923169703952,2.6669347003,234.
7.36,6366.,18.,6.,3560.,0.,0.,9950.,0.922787011983,2.66582914573,234.
7.38,6363.,18.,10.,3558.,0.,0.,9949.,0.922444853368,2.66484068751,234.
7.4,6362.,16.,12.,3561.,0.,0.,9951.,0.92211451497,2.99687217365,208.
7.42,6360.,20.,11.,3560.,0.,0.,9951.,0.921824633009,2.39674404582,260.
7.44,6357.,21.,6.,3565.,0.,0.,9949.,0.921575032667,2.28199531898,273.
7.46,6367.,19.,9.,3556.,0.,0.,9951.,0.92283921987,2.52566523333,247.
7.48,6374.,20.,9.,3548.,0.,0.,9951.,0.92385380673,2.4020198975,260.
7.5,6372.,21.,8.,3551.,0.,0.,9952.,0.923471122929,2.28669039963,273.
7.52,6363.,19.,12.,3556.,0.,0.,9950.,0.922352145342,2.52433218725,247.
7.54,6368.,17.,5.,3565.,0.,0.,9955.,0.922613298304,2.8221112654,221.
7.56,6368.,12.,10.,3565.,0.,0.,9955.,0.922613298304,3.99799095932,156.
7.58,6363.,15.,6.,3569.,0.,0.,9953.,0.922074133041,3.19652366121,195.
7.6,6359.,16.,11.,3568.,0.,0.,9954.,0.921401910326,2.99455620856,208.
7.62,6363.,13.,7.,3572.,0.,0.,9955.,0.921888884596,3.68755553838,169.
7.64,6360.,17.,4.,3574.,0.,0.,9955.,0.921454236371,2.81856589949,221.
7.66,6361.,17.,4.,3570.,0.,0.,9952.,0.921876932352,2.8198588519,221.
7.68,6367.,19.,3.,3562.,0.,0.,9951.,0.92283921987,2.52566523333,247.
7.7,6368.,14.,5.,3562.,0.,0.,9949.,0.923169703952,3.42891604325,182.
7.72,6368.,13.,10.,3558.,0.,0.,9949.,0.923169703952,3.69267881581,169.
7.74,6371.,11.,5.,3563.,0.,0.,9950.,0.923511789718,4.36569209685,143.
7.76,6370.,10.,5.,3560.,0.,0.,9945.,0.92383107089,4.80392156863,130.
7.78,6379.,10.,4.,3552.,0.,0.,9945.,0.92513632672,4.81070889894,130.
7.8,6376.,14.,1.,3554.,0.,0.,9945.,0.924701241443,3.43460461108,182.
7.82,6387.,13.,4.,3542.,0.,0.,9946.,0.926203421553,3.70481368621,169.
7.84,6392.,5.,9.,3539.,0.,0.,9945.,0.927021696252,9.64102564103,65.
7.86,6394.,2.,9.,3544.,0.,0.,9949.,0.926938926989,24.1004121017,26.
7.88,6397.,5.,1.,3547.,0.,0.,9950.,0.927280633939,9.64371859296,65.
7.9,6400.,3.,4.,3545.,0.,0.,9952.,0.927529062577,16.077170418,39.
7.92,6399.,8.,0.,3544.,0.,0.,9951.,0.927477331231,6.028602653,104.
7.94,6409.,6.,3.,3536.,0.,0.,9954.,0.928646775166,8.04827205144,78.
7.96,6408.,8.,2.,3528.,0.,0.,9946.,0.929248712277,6.0401166298,104.
7.98,6407.,14.,1.,3525.,0.,0.,9947.,0.929010293015,3.45060965977,182.
8.,6416.,15.,1.,3516.,0.,0.,9948.,0.930221768581,3.22476879775,195.
8.02,6417.,14.,3.,3509.,0.,0.,9943.,0.930834603393,3.45738566975,182.
8.04,6418.,13.,8.,3505.,0.,0.,9944.,0.93088603874,3.72354415496,169.
8.06,6417.,13.,10.,3504.,0.,0.,9944.,0.93074099573,3.72296398292,169.
8.08,6416.,20.,8.,3502.,0.,0.,9946.,0.930408823029,2.41906293988,260.
8.1,6413.,20.,12.,3499.,0.,0.,9944.,0.93016082369,2.41841814159,260.
8.12,6411.,19.,15.,3500.,0.,0.,9945.,0.929777236338,2.54465348893,247.
8.14,6406.,20.,14.,3506.,0.,0.,9946.,0.928958684589,2.41529257993,260.
8.16,6406.,25.,9.,3502.,0.,0.,9942.,0.92933243582,1.93301146651,325.
8.18,6402.,29.,8.,3505.,0.,0.,9944.,0.928565350579,1.66501373207,377.
8.2,6396.,24.,12.,3509.,0.,0.,9941.,0.927975052812,2.01061261443,312.
8.22,6401.,19.,7.,3511.,0.,0.,9938.,0.928980835023,2.54247386427,247.
8.24,6404.,16.,11.,3507.,0.,0.,9938.,0.92941622676,3.02060273697,208.
8.26,6410.,13.,8.,3505.,0.,0.,9936.,0.930474266072,3.72189706429,169.
8.28,6411.,16.,6.,3503.,0.,0.,9936.,0.930619425864,3.02451313406,208.
8.3,6413.,20.,3.,3502.,0.,0.,9938.,0.930722401969,2.41987824512,260.
8.32,6400.,20.,5.,3507.,0.,0.,9932.,0.929396821463,2.4164317358,260.
8.34,6402.,21.,5.,3504.,0.,0.,9932.,0.92968725797,2.30208273402,273.
8.36,6403.,15.,14.,3499.,0.,0.,9931.,0.929926105513,3.22374383244,195.
8.38,6398.,23.,11.,3496.,0.,0.,9928.,0.929480722742,2.1014346775,299.
8.4,6398.,18.,17.,3496.,0.,0.,9929.,0.92938711002,2.68489609561,234.
8.42,6386.,25.,10.,3506.,0.,0.,9927.,0.927830857568,1.92988818374,325.
8.44,6387.,22.,10.,3508.,0.,0.,9927.,0.927976148964,2.19339817028,286.
8.46,6385.,25.,8.,3512.,0.,0.,9930.,0.927405298629,1.92900302115,325.
8.48,6387.,17.,11.,3513.,0.,0.,9928.,0.927882678361,2.8382293691,221.
8.5,6387.,23.,6.,3513.,0.,0.,9929.,0.927789226586,2.09761042532,299.
8.52,6391.,25.,3.,3513.,0.,0.,9932.,0.928089857183,1.93042690294,325.
8.54,6398.,20.,7.,3507.,0.,0.,9932.,0.929106384956,2.41567660089,260.
8.56,6397.,20.,6.,3511.,0.,0.,9934.,0.928774140094,2.41481276424,260.
8.58,6401.,15.,12.,3511.,0.,0.,9939.,0.928887366784,3.22014287152,195.
8.6,6399.,18.,10.,3512.,0.,0.,9939.,0.92859713483,2.68261394506,234.
8.62,6396.,21.,15.,3510.,0.,0.,9942.,0.927881713941,2.29761186309,273.
8.64,6388.,27.,17.,3512.,0.,0.,9944.,0.926534748437,1.78443729329,351.
8.66,6383.,24.,15.,3521.,0.,0.,9943.,0.925902645077,2.00612239767,312.
8.68,6369.,32.,11.,3530.,0.,0.,9942.,0.923964764867,1.50144274291,416.
8.7,6361.,38.,12.,3532.,0.,0.,9943.,0.922711377931,1.26265767506,494.
8.72,6361.,28.,29.,3527.,0.,0.,9945.,0.92252581506,1.71326222797,364.
8.74,6334.,37.,20.,3549.,0.,0.,9940.,0.919072125058,1.29166893251,481.
8.76,6308.,48.,24.,3557.,0.,0.,9937.,0.915575819974,0.991873804971,624.
8.78,6288.,48.,24.,3572.,0.,0.,9932.,0.913132377087,0.989226741845,624.
8.8,6270.,43.,33.,3584.,0.,0.,9930.,0.910701835928,1.1013138481,559.
8.82,6253.,51.,31.,3593.,0.,0.,9928.,0.908415592264,0.926227662701,663.
8.84,6230.,43.,35.,3619.,0.,0.,9927.,0.905165399726,1.09461862292,559.
8.86,6211.,50.,17.,3654.,0.,0.,9932.,0.901950571579,0.938028594442,650.
8.88,6201.,54.,14.,3661.,0.,0.,9930.,0.900679758308,0.867321248741,702.
8.9,6186.,41.,24.,3675.,0.,0.,9926.,0.898863125591,1.14002152514,533.
8.92,6179.,39.,24.,3687.,0.,0.,9929.,0.897574703472,1.1967662713,507.
8.94,6166.,43.,12.,3710.,0.,0.,9931.,0.895505913883,1.08293738423,559.
8.96,6158.,37.,16.,3720.,0.,0.,9931.,0.894344050874,1.25691596339,481.
8.98,6147.,31.,18.,3732.,0.,0.,9928.,0.893016255501,1.49796275116,403.
9.,6138.,33.,19.,3740.,0.,0.,9930.,0.891529165698,1.40483383686,429.
9.02,6124.,39.,13.,3754.,0.,0.,9930.,0.889495700674,1.18599426757,507.
9.04,6125.,37.,10.,3758.,0.,0.,9930.,0.889640948176,1.25030619744,481.
9.06,6118.,41.,6.,3765.,0.,0.,9930.,0.888624215663,1.1270355906,533.
9.08,6106.,41.,16.,3769.,0.,0.,9932.,0.886702654977,1.12459848924,533.
9.1,6095.,42.,19.,3778.,0.,0.,9934.,0.884927057038,1.09562397538,546.
9.12,6093.,25.,29.,3788.,0.,0.,9935.,0.884547636561,1.83985908405,325.
9.14,6091.,34.,17.,3794.,0.,0.,9936.,0.884168292456,1.35225738846,442.
9.16,6079.,34.,20.,3802.,0.,0.,9935.,0.882515194921,1.34972912164,442.
9.18,6069.,44.,14.,3804.,0.,0.,9931.,0.881418324903,1.04167620216,572.
9.2,6051.,51.,21.,3811.,0.,0.,9934.,0.878538740301,0.895764990111,663.
9.22,6032.,45.,24.,3830.,0.,0.,9931.,0.876044708489,1.01231832981,585.
9.24,6016.,41.,32.,3845.,0.,0.,9934.,0.873457124715,1.10779928013,533.
9.26,5991.,49.,26.,3867.,0.,0.,9933.,0.869914968752,0.92317506888,637.
9.28,5977.,43.,29.,3885.,0.,0.,9934.,0.867794753063,1.04942621301,559.
9.3,5953.,42.,25.,3914.,0.,0.,9934.,0.864310216661,1.07009836348,546.
9.32,5942.,47.,15.,3928.,0.,0.,9932.,0.862886861427,0.954683336047,611.
9.34,5932.,41.,13.,3945.,0.,0.,9931.,0.861521420881,1.09266131429,533.
9.36,5930.,33.,18.,3950.,0.,0.,9931.,0.861230955129,1.35709120202,429.
9.38,5924.,34.,14.,3962.,0.,0.,9934.,0.860099735175,1.3154466538,442.
9.4,5917.,28.,15.,3974.,0.,0.,9934.,0.859083412058,1.59544062239,364.
9.42,5918.,23.,12.,3983.,0.,0.,9936.,0.859055648458,1.94221277043,299.
9.44,5918.,21.,14.,3986.,0.,0.,9939.,0.858796350043,2.12654334296,273.
9.46,5917.,23.,13.,3985.,0.,0.,9938.,0.858737634875,1.94149378319,299.
9.48,5916.,26.,7.,3990.,0.,0.,9939.,0.85850611809,1.71701223618,338.
9.5,5917.,20.,11.,3990.,0.,0.,9938.,0.858737634875,2.23271785067,260.
9.52,5918.,24.,11.,3993.,0.,0.,9946.,0.858191928723,1.85941584557,312.
9.54,5914.,24.,11.,3994.,0.,0.,9943.,0.857870631832,1.8587197023,312.
9.56,5910.,27.,9.,3998.,0.,0.,9944.,0.857204189616,1.65091177259,351.
9.58,5913.,20.,15.,3998.,0.,0.,9946.,0.857466859503,2.22941383471,260.
9.6,5913.,24.,16.,3995.,0.,0.,9948.,0.857294469704,1.85747135103,312.
9.62,5904.,27.,21.,3997.,0.,0.,9949.,0.855903569744,1.64840687506,351.
9.64,5901.,27.,18.,4001.,0.,0.,9947.,0.855640664754,1.64790053953,351.
9.66,5890.,24.,16.,4015.,0.,0.,9945.,0.854217426616,1.85080442433,312.
9.68,5874.,34.,12.,4026.,0.,0.,9946.,0.851811319587,1.30277025349,442.
9.7,5879.,22.,15.,4032.,0.,0.,9948.,0.852364990257,2.01468088606,286.
9.72,5877.,22.,18.,4031.,0.,0.,9948.,0.852075020878,2.01399550389,286.
9.74,5873.,19.,15.,4041.,0.,0.,9948.,0.851495082119,2.33040759317,247.
9.76,5870.,22.,10.,4049.,0.,0.,9951.,0.850803552793,2.01099021569,286.
9.78,5870.,27.,6.,4049.,0.,0.,9952.,0.850718062083,1.63841997142,351.
9.8,5874.,19.,17.,4044.,0.,0.,9954.,0.85112672138,2.32939944799,247.
9.82,5873.,28.,8.,4047.,0.,0.,9956.,0.850810875545,1.5800773403,364.
9.84,5875.,18.,18.,4046.,0.,0.,9957.,0.851015134308,2.45848816578,234.
9.86,5874.,18.,9.,4051.,0.,0.,9952.,0.851297767747,2.45930466238,234.
9.88,5866.,24.,8.,4056.,0.,0.,9954.,0.849967543006,1.84159634318,312.
9.9,5868.,21.,7.,4057.,0.,0.,9953.,0.850342764841,2.1056106558,273.
9.92,5872.,18.,1.,4064.,0.,0.,9955.,0.850751458486,2.45772643563,234.
9.94,5869.,15.,12.,4061.,0.,0.,9957.,0.850146012469,2.94717284323,195.
9.96,5865.,18.,6.,4067.,0.,0.,9956.,0.849651930031,2.45455002009,234.
9.98,5867.,15.,7.,4066.,0.,0.,9955.,0.850027044778,2.9467604219,195.
10.,5876.,15.,7.,4062.,0.,0.,9960.,0.850903614458,2.94979919679,195.
