t,s,e,i,r,c,o,n,reff,coal,reportr
5.,6250.,5.,3.,3734.,0.,0.,9992.,0.902164038923,9.3825060048,65.
5.02,6253.,6.,6.,3726.,0.,0.,9991.,0.902687418677,7.82329096187,78.
5.04,6258.,7.,3.,3722.,0.,0.,9990.,0.9034996535,6.71171171171,91.
5.06,6262.,7.,5.,3717.,0.,0.,9991.,0.903986664922,6.71532951085,91.
5.08,6258.,12.,4.,3715.,0.,0.,9989.,0.903590102959,3.91555711282,156.
5.1,6262.,12.,5.,3709.,0.,0.,9988.,0.904258186747,3.91845214257,156.
5.12,6274.,9.,4.,3702.,0.,0.,9989.,0.905900336524,5.23409083325,117.
5.14,6275.,8.,9.,3697.,0.,0.,9989.,0.906044726122,5.88929071979,104.
5.16,6275.,15.,7.,3692.,0.,0.,9989.,0.906044726122,3.14095505056,195.
5.18,6276.,13.,6.,3695.,0.,0.,9990.,0.906098406098,3.62439362439,169.
5.2,6279.,16.,2.,3695.,0.,0.,9992.,0.906350080064,2.94563776021,208.
5.22,6279.,16.,2.,3696.,0.,0.,9993.,0.906259381567,2.94534299009,208.
5.24,6279.,9.,10.,3697.,0.,0.,9995.,0.90607803902,5.23511755878,117.
5.26,6288.,11.,5.,3694.,0.,0.,9998.,0.907104497823,4.28813035334,143.
5.28,6289.,11.,5.,3693.,0.,0.,9998.,0.907248757444,4.28881230792,143.
5.3,6287.,9.,8.,3692.,0.,0.,9996.,0.907141702835,5.24126317194,117.
5.32,6289.,11.,9.,3688.,0.,0.,9997.,0.907339509545,4.28924131785,143.
5.34,6284.,19.,11.,3687.,0.,0.,10001.,0.906255528293,2.48027828796,247.
5.36,6285.,18.,6.,3691.,0.,0.,10000.,0.906490384615,2.61875,234.
5.38,6284.,17.,6.,3694.,0.,0.,10001.,0.906255528293,2.7720757336,221.
5.4,6281.,17.,8.,3695.,0.,0.,10001.,0.905822879251,2.77075233653,221.
5.42,6273.,24.,9.,3693.,0.,0.,9999.,0.904850100395,1.96050855086,312.
5.44,6271.,19.,7.,3701.,0.,0.,9998.,0.904652084263,2.47588991483,247.
5.46,6267.,19.,10.,3702.,0.,0.,9998.,0.904075045778,2.4743106516,247.
5.48,6273.,21.,11.,3698.,0.,0.,10003.,0.904488268904,2.23968523729,273.
5.5,6269.,24.,11.,3695.,0.,0.,9999.,0.90427311962,1.95925842584,312.
5.52,6262.,31.,10.,3699.,0.,0.,10002.,0.902992478427,1.51469706059,403.
5.54,6261.,25.,10.,3705.,0.,0.,10001.,0.902938552299,1.87811218878,325.
5.56,6258.,14.,14.,3711.,0.,0.,9997.,0.90286701395,3.35350605182,182.
5.58,6251.,20.,10.,3715.,0.,0.,9996.,0.901947317388,2.34506302521,260.
5.6,6251.,20.,10.,3713.,0.,0.,9994.,0.902127815151,2.34553231939,260.
5.62,6253.,17.,8.,3718.,0.,0.,9996.,0.902235894358,2.75978038274,221.
5.64,6249.,14.,8.,3724.,0.,0.,9995.,0.901748951399,3.34935324805,182.
5.66,6249.,13.,11.,3722.,0.,0.,9995.,0.901748951399,3.6069958056,169.
5.68,6236.,26.,11.,3719.,0.,0.,9992.,0.900143191476,1.80028638295,338.
5.7,6234.,22.,8.,3728.,0.,0.,9992.,0.899854498984,2.12692881578,286.
5.72,6233.,18.,13.,3726.,0.,0.,9990.,0.89989027489,2.59968301635,234.
5.74,6235.,17.,9.,3731.,0.,0.,9992.,0.89999884523,2.75293764423,221.
5.76,6238.,14.,8.,3730.,0.,0.,9990.,0.900612150612,3.34513084513,182.
5.78,6234.,22.,4.,3734.,0.,0.,9994.,0.899674420037,2.12650317463,286.
5.8,6240.,16.,10.,3729.,0.,0.,9995.,0.900450225113,2.92646323162,208.
5.82,6237.,17.,7.,3733.,0.,0.,9994.,0.900107372116,2.75326960882,221.
5.84,6238.,14.,9.,3735.,0.,0.,9996.,0.900071567088,3.34312296347,182.
5.86,6233.,9.,13.,3737.,0.,0.,9992.,0.899710152738,5.19832532693,117.
5.88,6224.,20.,11.,3736.,0.,0.,9991.,0.898500958555,2.33610249224,260.
5.9,6228.,14.,13.,3736.,0.,0.,9991.,0.89907840133,3.33943406208,182.
5.92,6222.,14.,15.,3734.,0.,0.,9985.,0.898751974115,3.33822161814,182.
5.94,6203.,30.,11.,3742.,0.,0.,9986.,0.895917746383,1.55292409373,390.
5.96,6190.,31.,11.,3752.,0.,0.,9984.,0.894219212278,1.49998061414,403.
5.98,6182.,33.,11.,3753.,0.,0.,9979.,0.89351098846,1.40795670909,429.
6.,6172.,32.,12.,3761.,0.,0.,9977.,0.892244469973,1.44989726371,416.
6.02,6175.,27.,17.,3760.,0.,0.,9979.,0.892499248422,1.7188874414,351.
6.04,6165.,29.,15.,3771.,0.,0.,9980.,0.890964621551,1.59759173519,377.
6.06,6153.,33.,22.,3777.,0.,0.,9985.,0.888785100728,1.40050985569,429.
6.08,6146.,31.,22.,3788.,0.,0.,9987.,0.88759618273,1.48887101619,403.
6.1,6139.,32.,18.,3797.,0.,0.,9986.,0.886674035958,1.44084530843,416.
6.12,6124.,35.,20.,3808.,0.,0.,9987.,0.884418975437,1.31399390636,455.
6.14,6104.,39.,22.,3819.,0.,0.,9984.,0.881795488166,1.17572731755,507.
6.16,6111.,36.,12.,3827.,0.,0.,9986.,0.882629912647,1.27490987382,468.
6.18,6100.,32.,17.,3834.,0.,0.,9983.,0.881305912359,1.43212210758,416.
6.2,6094.,35.,21.,3835.,0.,0.,9985.,0.880262701745,1.30781887116,455.
6.22,6078.,42.,22.,3847.,0.,0.,9989.,0.877599975358,1.08655235044,546.
6.24,6064.,43.,23.,3860.,0.,0.,9990.,0.875490875491,1.05873315176,559.
6.26,6046.,48.,18.,3879.,0.,0.,9991.,0.872804755049,0.945538484636,624.
6.28,6044.,44.,23.,3884.,0.,0.,9995.,0.872166852657,1.03074264405,572.
6.3,6025.,43.,21.,3903.,0.,0.,9992.,0.869686133522,1.05171346379,559.
6.32,6023.,42.,21.,3906.,0.,0.,9992.,0.86939744103,1.07639683175,546.
6.34,6012.,37.,26.,3917.,0.,0.,9992.,0.867809632321,1.21962434813,481.
6.36,5990.,42.,13.,3943.,0.,0.,9988.,0.864980284033,1.07092797071,546.
6.38,5982.,38.,16.,3950.,0.,0.,9986.,0.863998058821,1.18231313312,494.
6.4,5978.,38.,10.,3959.,0.,0.,9985.,0.86350679866,1.18164088238,494.
6.42,5973.,33.,9.,3967.,0.,0.,9982.,0.86304386357,1.35994790623,429.
6.44,5978.,26.,10.,3967.,0.,0.,9981.,0.863852858893,1.72770571779,338.
6.46,5979.,21.,12.,3969.,0.,0.,9981.,0.863997364223,2.13942204474,273.
6.48,5979.,20.,14.,3967.,0.,0.,9980.,0.864083937105,2.24661823647,260.
6.5,5982.,23.,9.,3968.,0.,0.,9982.,0.864344281245,1.95416967934,299.
6.52,5980.,20.,7.,3973.,0.,0.,9980.,0.864228456914,2.24699398798,260.
6.54,5981.,18.,10.,3971.,0.,0.,9980.,0.864372976723,2.49707748831,234.
6.56,5985.,14.,12.,3971.,0.,0.,9982.,0.864777753803,3.21203165698,182.
6.58,5983.,23.,8.,3967.,0.,0.,9981.,0.86457538554,1.954692176,299.
6.6,5983.,19.,9.,3968.,0.,0.,9979.,0.864748664503,2.36668055548,247.
6.62,5980.,21.,6.,3973.,0.,0.,9980.,0.864228456914,2.13999427426,273.
6.64,5982.,22.,8.,3969.,0.,0.,9981.,0.864430880211,2.04320026232,286.
6.66,5982.,15.,12.,3970.,0.,0.,9979.,0.864604130212,2.99729431807,195.
6.68,5980.,13.,8.,3976.,0.,0.,9977.,0.864488323143,3.45795329257,169.
6.7,5979.,16.,8.,3970.,0.,0.,9973.,0.864690433401,2.81024390855,208.
6.72,5975.,16.,12.,3971.,0.,0.,9974.,0.864025311965,2.80808226389,208.
6.74,5978.,19.,13.,3961.,0.,0.,9971.,0.864719224212,2.36659998205,247.
6.76,5969.,24.,16.,3963.,0.,0.,9972.,0.863330787744,1.87055004011,312.
6.78,5964.,22.,9.,3976.,0.,0.,9971.,0.862694120642,2.03909519425,286.
6.8,5966.,17.,9.,3981.,0.,0.,9973.,0.862810357195,2.63918462201,221.
6.82,5974.,16.,9.,3976.,0.,0.,9975.,0.863794100636,2.80733082707,208.
6.84,5977.,20.,10.,3969.,0.,0.,9976.,0.864141246684,2.24676724138,260.
6.86,5982.,13.,10.,3970.,0.,0.,9975.,0.864950838635,3.45980335454,169.
6.88,5981.,13.,11.,3967.,0.,0.,9972.,0.865066416736,3.46026566694,169.
6.9,5978.,13.,11.,3970.,0.,0.,9972.,0.864632509488,3.45853003795,169.
6.92,5958.,26.,1.,3982.,0.,0.,9967.,0.862172090977,1.72434418195,338.
6.94,5956.,13.,14.,3981.,0.,0.,9964.,0.862142173363,3.44856869345,169.
6.96,5956.,16.,10.,3985.,0.,0.,9967.,0.861882674364,2.80111869168,208.
6.98,5956.,20.,10.,3982.,0.,0.,9968.,0.861796209409,2.24067014446,260.
7.,5957.,21.,13.,3978.,0.,0.,9969.,0.861854441075,2.13411575885,273.
7.02,5957.,22.,10.,3980.,0.,0.,9969.,0.861854441075,2.03711049709,286.
7.04,5954.,22.,11.,3982.,0.,0.,9969.,0.86142040325,2.0360845895,286.
7.06,5950.,19.,12.,3987.,0.,0.,9968.,0.860928046672,2.35622412774,247.
7.08,5942.,29.,14.,3985.,0.,0.,9970.,0.859598024844,1.54134818248,377.
7.1,5938.,23.,16.,3992.,0.,0.,9969.,0.85910553485,1.94232555705,299.
7.12,5928.,28.,15.,3995.,0.,0.,9966.,0.85791691752,1.59327427539,364.
7.14,5923.,26.,13.,4004.,0.,0.,9966.,0.857193303385,1.71438660677,338.
7.16,5922.,24.,9.,4009.,0.,0.,9964.,0.857220609579,1.85731132075,312.
7.18,5923.,22.,11.,4011.,0.,0.,9967.,0.857107300245,2.0258899824,286.
7.2,5922.,20.,8.,4019.,0.,0.,9969.,0.856790666451,2.22765573277,260.
7.22,5915.,18.,15.,4021.,0.,0.,9969.,0.855777911526,2.47224729996,234.
7.24,5917.,18.,10.,4028.,0.,0.,9973.,0.855723916112,2.47209131321,234.
7.26,5919.,18.,10.,4025.,0.,0.,9972.,0.856099000278,2.47317488969,234.
7.28,5921.,18.,11.,4024.,0.,0.,9974.,0.856216547639,2.47351447096,234.
7.3,5920.,17.,13.,4026.,0.,0.,9976.,0.855900314601,2.61804802113,221.
7.32,5922.,17.,11.,4027.,0.,0.,9977.,0.856103653788,2.61866999982,221.
7.34,5926.,14.,11.,4027.,0.,0.,9978.,0.856596049771,3.18164247058,182.
7.36,5919.,19.,9.,4032.,0.,0.,9979.,0.855498469864,2.34136423331,247.
7.38,5926.,15.,8.,4033.,0.,0.,9982.,0.85625279349,2.96834301743,195.
7.4,5935.,13.,11.,4027.,0.,0.,9986.,0.857209708977,3.42883883591,169.
7.42,5938.,11.,4.,4032.,0.,0.,9985.,0.857728901044,4.0547184413,143.
7.44,5950.,12.,0.,4025.,0.,0.,9987.,0.859290154123,3.72359066787,156.
7.46,5960.,8.,1.,4018.,0.,0.,9987.,0.860734339256,5.59477320517,104.
7.48,5969.,8.,1.,4007.,0.,0.,9985.,0.862206771696,5.60434401602,104.
7.5,5977.,7.,7.,3995.,0.,0.,9986.,0.863275893944,6.41290664073,91.
7.52,5980.,9.,4.,3994.,0.,0.,9987.,0.863622709522,4.98982009946,117.
7.54,5978.,11.,6.,3991.,0.,0.,9986.,0.863420326919,4.08162336362,143.
7.56,5977.,9.,9.,3988.,0.,0.,9983.,0.863535317732,4.98931516912,117.
7.58,5973.,16.,9.,3985.,0.,0.,9983.,0.862957412216,2.8046115897,208.
7.6,5969.,18.,10.,3986.,0.,0.,9983.,0.8623795067,2.49131857491,234.
7.62,5962.,20.,10.,3993.,0.,0.,9985.,0.861195639613,2.23910866299,260.
7.64,5970.,21.,8.,3991.,0.,0.,9990.,0.86191961192,2.13427713428,273.
7.66,5965.,18.,15.,3989.,0.,0.,9987.,0.861456431823,2.48865191416,234.
7.68,5962.,20.,12.,3996.,0.,0.,9990.,0.860764610765,2.23798798799,260.
7.7,5948.,18.,16.,4004.,0.,0.,9986.,0.859087337657,2.48180786434,234.
7.72,5935.,20.,10.,4016.,0.,0.,9981.,0.857639129731,2.2298617373,260.
7.74,5937.,15.,9.,4022.,0.,0.,9983.,0.857756262569,2.97355504357,195.
7.76,5941.,13.,9.,4025.,0.,0.,9988.,0.857904485382,3.43161794153,169.
7.78,5943.,19.,7.,4022.,0.,0.,9991.,0.857935603582,2.34803428349,247.
7.8,5939.,20.,13.,4017.,0.,0.,9989.,0.857529821265,2.22957753529,260.
7.82,5930.,26.,11.,4020.,0.,0.,9987.,0.856401783857,1.71280356771,338.
7.84,5930.,21.,13.,4020.,0.,0.,9984.,0.856659116124,2.12125114469,273.
7.86,5915.,23.,13.,4029.,0.,0.,9980.,0.854834669339,1.9326696872,299.
7.88,5908.,29.,12.,4034.,0.,0.,9983.,0.853566447576,1.53053294048,377.
7.9,5912.,30.,16.,4033.,0.,0.,9991.,0.853460422072,1.47933139826,390.
7.92,5909.,34.,13.,4034.,0.,0.,9990.,0.853112728113,1.304760643,442.
7.94,5903.,35.,15.,4033.,0.,0.,9986.,0.852587853765,1.26670195416,455.
7.96,5900.,38.,14.,4035.,0.,0.,9987.,0.852069228459,1.16598947052,494.
7.98,5885.,32.,19.,4050.,0.,0.,9986.,0.849988060207,1.38123059784,416.
8.,5870.,39.,13.,4067.,0.,0.,9989.,0.847566939018,1.13008925202,507.
8.02,5861.,36.,19.,4071.,0.,0.,9987.,0.84643690644,1.22263108708,468.
8.04,5847.,33.,15.,4093.,0.,0.,9988.,0.844330504297,1.33046018859,429.
8.06,5845.,31.,14.,4099.,0.,0.,9989.,0.843957199073,1.41567014038,403.
8.08,5846.,22.,20.,4101.,0.,0.,9989.,0.844101588671,1.99514920959,286.
8.1,5845.,19.,13.,4110.,0.,0.,9987.,0.844126210227,2.31024015431,247.
8.12,5842.,20.,11.,4115.,0.,0.,9988.,0.843608484027,2.19338205847,260.
8.14,5849.,16.,8.,4118.,0.,0.,9991.,0.844365698359,2.74418851967,208.
8.16,5860.,10.,9.,4112.,0.,0.,9991.,0.845953665992,4.39895906316,130.
8.18,5854.,13.,10.,4113.,0.,0.,9990.,0.845172095172,3.38068838069,169.
8.2,5859.,15.,2.,4112.,0.,0.,9988.,0.846063352947,2.93301962355,195.
8.22,5864.,12.,8.,4104.,0.,0.,9988.,0.846785373217,3.66940328394,156.
8.24,5870.,13.,2.,4105.,0.,0.,9990.,0.847482097482,3.38992838993,169.
8.26,5877.,12.,8.,4097.,0.,0.,9994.,0.848153122643,3.67533019812,156.
8.28,5875.,15.,9.,4095.,0.,0.,9994.,0.847864487924,2.93926355813,195.
8.3,5875.,17.,7.,4095.,0.,0.,9994.,0.847864487924,2.59346784541,221.
8.32,5875.,16.,5.,4098.,0.,0.,9994.,0.847864487924,2.75555958575,208.
8.34,5878.,12.,11.,4092.,0.,0.,9993.,0.848382329169,3.6763234264,156.
8.36,5883.,16.,6.,4092.,0.,0.,9997.,0.848764244658,2.75848379514,208.
8.38,5880.,20.,7.,4091.,0.,0.,9998.,0.848246572391,2.20544108822,260.
8.4,5885.,17.,3.,4092.,0.,0.,9997.,0.849052792761,2.59710266021,221.
8.42,5885.,11.,4.,4096.,0.,0.,9996.,0.849137732016,4.01410564226,143.
8.44,5893.,14.,3.,4090.,0.,0.,10000.,0.849951923077,3.15696428571,182.
8.46,5901.,12.,4.,4083.,0.,0.,10000.,0.851105769231,3.688125,156.
8.48,5911.,8.,6.,4075.,0.,0.,10000.,0.852548076923,5.5415625,104.
8.5,5912.,12.,2.,4071.,0.,0.,9997.,0.85294819215,3.69610883265,156.
8.52,5925.,10.,2.,4060.,0.,0.,9997.,0.854823754819,4.44508352506,130.
8.54,5926.,10.,8.,4051.,0.,0.,9995.,0.855139108016,4.44672336168,130.
8.56,5932.,11.,6.,4046.,0.,0.,9995.,0.85600492554,4.04656873891,143.
8.58,5942.,9.,6.,4040.,0.,0.,9997.,0.857276413693,4.95315261245,117.
8.6,5948.,6.,5.,4036.,0.,0.,9995.,0.858313772271,7.43871935968,78.
8.62,5953.,10.,4.,4028.,0.,0.,9995.,0.859035286874,4.46698349175,130.
8.64,5952.,11.,5.,4024.,0.,0.,9992.,0.859148857548,4.06143096295,143.
8.66,5954.,6.,4.,4024.,0.,0.,9988.,0.859781738086,7.45144173008,78.
8.68,5964.,8.,8.,4015.,0.,0.,9995.,0.860622619002,5.59404702351,104.
8.7,5962.,12.,7.,4012.,0.,0.,9993.,0.860506200494,3.72886020214,156.
8.72,5958.,12.,11.,4013.,0.,0.,9994.,0.859842828774,3.72598559135,156.
8.74,5956.,12.,10.,4012.,0.,0.,9990.,0.859898359898,3.72622622623,156.
8.76,5947.,17.,9.,4016.,0.,0.,9989.,0.858684938047,2.62656569285,221.
8.78,5941.,23.,8.,4018.,0.,0.,9990.,0.857732732733,1.93922183053,299.
8.8,5944.,15.,14.,4015.,0.,0.,9988.,0.858337697545,2.97557068482,195.
8.82,5945.,16.,11.,4017.,0.,0.,9989.,0.858396158852,2.78978751627,208.
8.84,5935.,22.,15.,4016.,0.,0.,9988.,0.857038061058,2.02572632614,286.
8.86,5925.,27.,14.,4021.,0.,0.,9987.,0.855679691291,1.64797570175,351.
8.88,5917.,32.,14.,4020.,0.,0.,9983.,0.854866734988,1.38915844436,416.
8.9,5917.,29.,14.,4024.,0.,0.,9984.,0.854781111317,1.53271095822,377.
8.92,5915.,24.,9.,4038.,0.,0.,9986.,0.854321049469,1.85102894052,312.
8.94,5913.,24.,9.,4040.,0.,0.,9986.,0.854032183518,1.85040306429,312.
8.96,5913.,19.,11.,4046.,0.,0.,9989.,0.853775691722,2.33664926156,247.
8.98,5907.,20.,11.,4044.,0.,0.,9982.,0.853507467287,2.21911941495,260.
9.,5893.,28.,6.,4053.,0.,0.,9980.,0.851655233544,1.58164543372,364.
9.02,5887.,25.,7.,4058.,0.,0.,9977.,0.851043939522,1.77017139421,325.
9.04,5893.,18.,12.,4050.,0.,0.,9973.,0.852253006194,2.46206424011,234.
9.06,5889.,25.,15.,4045.,0.,0.,9974.,0.851589131743,1.77130539402,325.
9.08,5890.,22.,9.,4051.,0.,0.,9972.,0.851904563547,2.01359260475,286.
9.1,5883.,22.,7.,4057.,0.,0.,9969.,0.851148174726,2.01180477663,286.
9.12,5886.,19.,8.,4058.,0.,0.,9971.,0.851411400754,2.33017857049,247.
9.14,5889.,13.,15.,4056.,0.,0.,9973.,0.851674521207,3.40669808483,169.
9.16,5891.,15.,10.,4055.,0.,0.,9971.,0.852134652029,2.9540667937,195.
9.18,5884.,21.,8.,4057.,0.,0.,9970.,0.85120746856,2.10775182691,273.
9.2,5879.,28.,3.,4060.,0.,0.,9970.,0.850484144742,1.57947055452,364.
9.22,5886.,21.,5.,4059.,0.,0.,9971.,0.851411400754,2.10825680187,273.
9.24,5894.,11.,8.,4057.,0.,0.,9970.,0.852654116195,4.03072854928,143.
9.26,5905.,12.,4.,4052.,0.,0.,9973.,0.853988461153,3.700616665,156.
9.28,5914.,13.,3.,4043.,0.,0.,9973.,0.855290052372,3.42116020949,169.
9.3,5918.,11.,5.,4041.,0.,0.,9975.,0.855696934644,4.04511278195,143.
9.32,5915.,10.,7.,4044.,0.,0.,9976.,0.855177425822,4.44692261427,130.
9.34,5913.,13.,6.,4045.,0.,0.,9977.,0.854802584406,3.41921033762,169.
9.36,5908.,15.,5.,4045.,0.,0.,9973.,0.854422324893,2.96199739296,195.
9.38,5912.,14.,5.,4045.,0.,0.,9976.,0.854743692554,3.17476228663,182.
9.4,5910.,12.,8.,4046.,0.,0.,9976.,0.854454537043,3.70263632719,156.
9.42,5914.,16.,9.,4043.,0.,0.,9982.,0.854518903257,2.77718643558,208.
9.44,5925.,18.,1.,4041.,0.,0.,9985.,0.855851084319,2.47245868803,234.
9.46,5922.,18.,1.,4042.,0.,0.,9983.,0.855589116883,2.47170189322,234.
9.48,5938.,15.,3.,4028.,0.,0.,9984.,0.857814811391,2.97375801282,195.
9.5,5949.,14.,5.,4014.,0.,0.,9982.,0.859576083103,3.19271116581,182.
9.52,5950.,10.,9.,4010.,0.,0.,9979.,0.859979032892,4.47189097104,130.
9.54,5955.,11.,7.,4007.,0.,0.,9980.,0.860615461693,4.06836400073,143.
9.56,5945.,15.,12.,4005.,0.,0.,9977.,0.859428608877,2.97935251077,195.
9.58,5940.,18.,10.,4010.,0.,0.,9978.,0.858619732643,2.48045700541,234.
9.6,5952.,13.,13.,3999.,0.,0.,9977.,0.860440551731,3.44176220692,169.
9.62,5948.,17.,7.,4007.,0.,0.,9979.,0.85968996431,2.62963989083,221.
9.64,5948.,18.,7.,4006.,0.,0.,9979.,0.85968996431,2.48354878578,234.
9.66,5955.,21.,7.,3995.,0.,0.,9978.,0.860787964291,2.1314749592,273.
9.68,5968.,13.,11.,3988.,0.,0.,9980.,0.862494219208,3.44997687683,169.
9.7,5971.,13.,6.,3989.,0.,0.,9979.,0.863014253008,3.45205701203,169.
9.72,5980.,6.,6.,3985.,0.,0.,9977.,0.864488323143,7.49223213391,78.
9.74,5982.,8.,4.,3984.,0.,0.,9978.,0.864690781257,5.62049007817,104.
9.76,5988.,10.,3.,3977.,0.,0.,9978.,0.865558073916,4.50090198437,130.
9.78,5993.,8.,3.,3980.,0.,0.,9984.,0.865760216346,5.62744140625,104.
9.8,5992.,8.,4.,3979.,0.,0.,9983.,0.865702463419,5.62706601222,104.
9.82,5996.,9.,3.,3976.,0.,0.,9984.,0.866193602071,5.0046741453,117.
9.84,6005.,8.,5.,3965.,0.,0.,9983.,0.867580656347,5.63927426625,104.
9.86,6014.,8.,6.,3959.,0.,0.,9987.,0.868532938975,5.64546410333,104.
9.88,6029.,7.,1.,3953.,0.,0.,9990.,0.870437745438,6.46610896611,91.
9.9,6031.,7.,0.,3950.,0.,0.,9988.,0.870900850251,6.46954917329,91.
9.92,6043.,3.,4.,3939.,0.,0.,9989.,0.872546339435,15.1241365502,39.
9.94,6051.,3.,3.,3934.,0.,0.,9991.,0.873526558518,15.1411270143,39.
9.96,6056.,5.,3.,3927.,0.,0.,9991.,0.874248361987,9.09218296467,65.
9.98,6060.,5.,1.,3924.,0.,0.,9990.,0.874913374913,9.0990990991,65.
10.,6064.,6.,0.,3921.,0.,0.,9991.,0.875403247538,7.58682814533,78.
