t,neff
5.,0.106581333333
5.02,0.0638402555911
5.04,0.0850066464616
5.06,0.0848932781137
5.08,0.127334714035
5.1,0.105937234945
5.12,0.0846704810341
5.14,0.169223439733
5.16,0.1479357022
5.18,0.190252260828
5.2,0.274744463824
5.22,0.211023123218
5.24,0.253464342314
5.26,0.31676703645
5.28,0.359173405211
5.3,0.380202916931
5.32,0.295619651347
5.34,0.337549749274
5.36,0.295220603758
5.38,0.210696202532
5.4,0.23180849942
5.42,0.168430814627
5.44,0.126203411244
5.46,0.210375520093
5.48,0.252515802781
5.5,0.37891541502
5.52,0.400196140462
5.54,0.337074765369
5.56,0.46377876293
5.58,0.442742241924
5.6,0.315931023572
5.62,0.315767831726
5.64,0.273649588868
5.66,0.18927014218
5.68,0.315631420894
5.7,0.357843819159
5.72,0.294800527009
5.74,0.463697842486
5.76,0.443022813687
5.78,0.337589101853
5.8,0.506865387665
5.82,0.46427794498
5.84,0.421986377317
5.86,0.44304134326
5.88,0.400553005118
5.9,0.379525166191
5.92,0.295169066836
5.94,0.210677206851
5.96,0.316165770326
5.98,0.231544818148
6.,0.421207813405
6.02,0.463070120026
6.04,0.378805687204
6.06,0.484677955374
6.08,0.442399113784
6.1,0.336973531583
6.12,0.442520582648
6.14,0.379363420428
6.16,0.315936065833
6.18,0.48479070995
6.2,0.506218700474
6.22,0.464611313966
6.24,0.29570869059
6.26,0.338436423385
6.28,0.636149187121
6.3,0.572740315638
6.32,0.509875518673
6.34,0.659207920793
6.36,0.617467220979
6.38,0.575147928995
6.4,0.575343254922
6.42,0.511887215636
6.44,0.362572237355
6.46,0.405292735042
6.48,0.362644875287
6.5,0.298636752137
6.52,0.298612846388
6.54,0.32016025641
6.56,0.405495726496
6.58,0.426982855311
6.6,0.320012808198
6.62,0.405114593327
6.64,0.255805626598
6.66,0.341456232997
6.68,0.320211233798
6.7,0.277289002557
6.72,0.298595089738
6.74,0.277322255951
6.76,0.277178299526
6.78,0.320249520154
6.8,0.256117684682
6.82,0.1922112
6.84,0.320672538031
6.86,0.363428876435
6.88,0.320614596671
6.9,0.428386544734
6.92,0.471935293802
6.94,0.428782524896
6.96,0.429127149975
6.98,0.343109396764
7.,0.471822565091
7.02,0.214314008886
7.04,0.407720426649
7.06,0.429360356012
7.08,0.450601092897
7.1,0.36441305511
7.12,0.450518875503
7.14,0.450663667042
7.16,0.450673525157
7.18,0.429153269025
7.2,0.40761231593
7.22,0.429160640635
7.24,0.386066838046
7.26,0.343646503647
7.28,0.451053562812
7.3,0.343556913838
7.32,0.451426731079
7.34,0.408236493374
7.36,0.494708125234
7.38,0.429956514736
7.4,0.300775792693
7.42,0.300727389765
7.44,0.321870480476
7.46,0.36475012052
7.48,0.32174751044
7.5,0.321501925546
7.52,0.257144690407
7.54,0.32141138733
7.56,0.277915733334
7.58,0.299168266155
7.6,0.27752715655
7.62,0.298684546616
7.64,0.255734778451
7.66,0.277128891722
7.68,0.212913151891
7.7,0.298077944144
7.72,0.276775529712
7.74,0.191377664652
7.76,0.255149586251
7.78,0.212443031266
7.8,0.254900588516
7.82,0.297259765729
7.84,0.318125496426
7.86,0.360599512764
7.88,0.296953530221
7.9,0.25446578822
7.92,0.254355069015
7.94,0.275174562933
7.96,0.169060423916
7.98,0.211167298778
8.,0.211212983454
8.02,0.253335440038
8.04,0.189859510655
8.06,0.189478658056
8.08,0.210296739017
8.1,0.147035175879
8.12,0.167932224663
8.14,0.230969497201
8.16,0.209861437909
8.18,0.336008372579
8.2,0.335989117354
8.22,0.356805272242
8.24,0.504574752398
8.26,0.378431064298
8.28,0.357422194278
8.3,0.336325162372
8.32,0.357529078906
8.34,0.420754716981
8.36,0.336656707029
8.38,0.484240994179
8.4,0.484240994179
8.42,0.547308176099
8.44,0.33661270889
8.46,0.505575833857
8.48,0.421229284666
8.5,0.357784067086
8.52,0.378971212836
8.54,0.336787325569
8.56,0.421508086537
8.58,0.54882507626
8.6,0.485555555555
8.62,0.337390938715
8.64,0.464132092339
8.66,0.379766487852
8.68,0.253312282918
8.7,0.359014218009
8.72,0.168911349758
8.74,0.232299431459
8.76,0.338410589042
8.78,0.359632969466
8.8,0.444445148013
8.82,0.507717133365
8.84,0.444060079052
8.86,0.401768642952
8.88,0.317343873518
8.9,0.317256637168
8.92,0.253780025284
8.94,0.190184746566
8.96,0.168923934185
8.98,0.232430555555
9.,0.317106302322
9.02,0.295953659821
9.04,0.232457636038
9.06,0.274517350157
9.08,0.210997321569
9.1,0.168625970212
9.12,0.231655400095
9.14,0.189232941176
9.16,0.273344843823
9.18,0.189133709981
9.2,0.083958823222
9.22,0.0629224745498
9.24,0.0628106925123
9.26,0.0836691134364
9.28,0.0626993290684
9.3,0.0626539840948
9.32,0.0417367819675
9.34,0.
9.36,0.0833094867807
9.38,0.104057205037
9.4,0.0830963468903
9.42,0.124644520335
9.44,0.103769194974
9.46,0.0414324045408
9.48,0.0828126610989
9.5,0.186215213358
9.52,0.165362162162
9.54,0.144580246913
9.56,0.123837137569
9.58,0.144394102841
9.6,0.164893267652
9.62,0.16484997692
9.64,0.0823400440551
9.66,0.185333743464
9.68,0.0823325646939
9.7,0.308920332205
9.72,0.226435121152
9.74,0.185099723842
9.76,0.164364082133
9.78,0.0821486928105
9.8,0.164263399694
9.82,0.184691660291
9.84,0.123032711709
9.86,0.0409673641872
9.88,0.163910785212
9.9,0.245828623797
9.92,0.286740978266
9.94,0.307020757021
9.96,0.306863941427
9.98,0.327438832087
10.,0.327621374046
