t,prevalence
5.,3
5.02,1
5.04,4
5.06,1
5.08,0
5.1,0
5.12,0
5.14,1
5.16,1
5.18,2
5.2,3
5.22,6
5.24,1
5.26,1
5.28,3
5.3,4
5.32,2
5.34,3
5.36,7
5.38,4
5.4,5
5.42,9
5.44,4
5.46,3
5.48,5
5.5,6
5.52,6
5.54,11
5.56,10
5.58,6
5.6,12
5.62,7
5.64,6
5.66,8
5.68,8
5.7,6
5.72,8
5.74,7
5.76,9
5.78,5
5.8,6
5.82,12
5.84,15
5.86,4
5.88,10
5.9,5
5.92,8
5.94,3
5.96,4
5.98,6
6.,5
6.02,2
6.04,2
6.06,4
6.08,6
6.1,7
6.12,7
6.14,4
6.16,10
6.18,6
6.2,7
6.22,4
6.24,3
6.26,5
6.28,3
6.3,7
6.32,3
6.34,2
6.36,2
6.38,3
6.4,2
6.42,12
6.44,1
6.46,3
6.48,0
6.5,3
6.52,0
6.54,1
6.56,0
6.58,1
6.6,0
6.62,0
6.64,0
6.66,0
6.68,0
6.7,0
6.72,0
6.74,0
6.76,0
6.78,1
6.8,0
6.82,1
6.84,1
6.86,0
6.88,0
6.9,1
6.92,2
6.94,2
6.96,3
6.98,6
7.,5
7.02,5
7.04,3
7.06,4
7.08,4
7.1,9
7.12,7
7.14,5
7.16,11
7.18,10
7.2,9
7.22,7
7.24,4
7.26,4
7.28,8
7.3,3
7.32,8
7.34,5
7.36,7
7.38,4
7.4,2
7.42,7
7.44,3
7.46,1
7.48,5
7.5,4
7.52,3
7.54,5
7.56,4
7.58,4
7.6,2
7.62,1
7.64,2
7.66,3
7.68,5
7.7,6
7.72,1
7.74,3
7.76,10
7.78,5
7.8,6
7.82,4
7.84,10
7.86,5
7.88,10
7.9,7
7.92,2
7.94,6
7.96,10
7.98,7
8.,10
8.02,10
8.04,7
8.06,3
8.08,7
8.1,8
8.12,7
8.14,3
8.16,2
8.18,5
8.2,10
8.22,8
8.24,2
8.26,3
8.28,7
8.3,4
8.32,5
8.34,5
8.36,4
8.38,6
8.4,5
8.42,5
8.44,3
8.46,5
8.48,3
8.5,3
8.52,1
8.54,6
8.56,4
8.58,6
8.6,5
8.62,8
8.64,10
8.66,9
8.68,11
8.7,8
8.72,8
8.74,8
8.76,9
8.78,11
8.8,6
8.82,9
8.84,9
8.86,11
8.88,9
8.9,9
8.92,4
8.94,12
8.96,5
8.98,12
9.,9
9.02,10
9.04,12
9.06,6
9.08,6
9.1,11
9.12,9
9.14,5
9.16,4
9.18,5
9.2,7
9.22,6
9.24,10
9.26,4
9.28,10
9.3,5
9.32,10
9.34,9
9.36,7
9.38,11
9.4,8
9.42,10
9.44,9
9.46,3
9.48,7
9.5,6
9.52,5
9.54,1
9.56,4
9.58,4
9.6,3
9.62,3
9.64,4
9.66,3
9.68,5
9.7,5
9.72,2
9.74,1
9.76,3
9.78,2
9.8,0
9.82,2
9.84,0
9.86,1
9.88,1
9.9,0
9.92,0
9.94,3
9.96,3
9.98,0
10.,3
