t,cases
5.01,0.715
5.02,0.715
5.03,0.975
5.04,0.975
5.05,1.17
5.06,1.17
5.07,1.3
5.08,1.3
5.09,1.43
5.1,1.43
5.11,1.495
5.12,1.495
5.13,1.56
5.14,1.56
5.15,1.625
5.16,1.625
5.17,2.015
5.18,2.015
5.19,2.405
5.2,2.405
5.21,2.405
5.22,2.405
5.23,2.795
5.24,2.795
5.25,3.055
5.26,3.055
5.27,2.795
5.28,2.795
5.29,3.705
5.3,3.705
5.31,3.9
5.32,3.9
5.33,3.38
5.34,3.38
5.35,3.25
5.36,3.25
5.37,2.665
5.38,2.665
5.39,2.6
5.4,2.6
5.41,2.6
5.42,2.6
5.43,2.405
5.44,2.405
5.45,2.21
5.46,2.21
5.47,2.6
5.48,2.6
5.49,2.795
5.5,2.795
5.51,2.6
5.52,2.6
5.53,2.405
5.54,2.405
5.55,2.47
5.56,2.47
5.57,2.73
5.58,2.73
5.59,2.86
5.6,2.86
5.61,2.665
5.62,2.665
5.63,2.08
5.64,2.08
5.65,2.275
5.66,2.275
5.67,2.47
5.68,2.47
5.69,2.015
5.7,2.015
5.71,1.95
5.72,1.95
5.73,2.015
5.74,2.015
5.75,1.56
5.76,1.56
5.77,1.105
5.78,1.105
5.79,0.65
5.8,0.65
5.81,0.39
5.82,0.39
5.83,0.325
5.84,0.325
5.85,0.39
5.86,0.39
5.87,0.585
5.88,0.585
5.89,0.715
5.9,0.715
5.91,0.65
5.92,0.65
5.93,0.52
5.94,0.52
5.95,0.78
5.96,0.78
5.97,0.975
5.98,0.975
5.99,1.235
6.,1.235
6.01,1.625
6.02,1.625
6.03,2.08
6.04,2.08
6.05,2.34
6.06,2.34
6.07,2.015
6.08,2.015
6.09,1.755
6.1,1.755
6.11,1.43
6.12,1.43
6.13,1.43
6.14,1.43
6.15,1.365
6.16,1.365
6.17,0.975
6.18,0.975
6.19,0.845
6.2,0.845
6.21,0.78
6.22,0.78
6.23,0.585
6.24,0.585
6.25,0.65
6.26,0.65
6.27,0.78
6.28,0.78
6.29,0.585
6.3,0.585
6.31,0.52
6.32,0.52
6.33,0.52
6.34,0.52
6.35,0.65
6.36,0.65
6.37,0.65
6.38,0.65
6.39,0.455
6.4,0.455
6.41,0.455
6.42,0.455
6.43,0.455
6.44,0.455
6.45,0.52
6.46,0.52
6.47,0.585
6.48,0.585
6.49,0.585
6.5,0.585
6.51,0.65
6.52,0.65
6.53,0.585
6.54,0.585
6.55,0.585
6.56,0.585
6.57,0.585
6.58,0.585
6.59,0.325
6.6,0.325
6.61,0.26
6.62,0.26
6.63,0.715
6.64,0.715
6.65,1.04
6.66,1.04
6.67,1.105
6.68,1.105
6.69,1.17
6.7,1.17
6.71,1.365
6.72,1.365
6.73,1.365
6.74,1.365
6.75,0.975
6.76,0.975
6.77,0.975
6.78,0.975
6.79,1.235
6.8,1.235
6.81,1.625
6.82,1.625
6.83,1.885
6.84,1.885
6.85,2.145
6.86,2.145
6.87,2.08
6.88,2.08
6.89,1.755
6.9,1.755
6.91,2.08
6.92,2.08
6.93,2.795
6.94,2.795
6.95,3.51
6.96,3.51
6.97,3.315
6.98,3.315
6.99,2.86
7.,2.86
7.01,2.73
7.02,2.73
7.03,2.6
7.04,2.6
7.05,2.6
7.06,2.6
7.07,2.73
7.08,2.73
7.09,2.795
7.1,2.795
7.11,2.795
7.12,2.795
7.13,2.47
7.14,2.47
7.15,2.21
7.16,2.21
7.17,2.145
7.18,2.145
7.19,2.015
7.2,2.015
7.21,2.015
7.22,2.015
7.23,2.21
7.24,2.21
7.25,2.925
7.26,2.925
7.27,2.99
7.28,2.99
7.29,3.51
7.3,3.51
7.31,3.77
7.32,3.77
7.33,3.445
7.34,3.445
7.35,3.835
7.36,3.835
7.37,3.64
7.38,3.64
7.39,3.25
7.4,3.25
7.41,3.25
7.42,3.25
7.43,2.795
7.44,2.795
7.45,2.6
7.46,2.6
7.47,2.99
7.48,2.99
7.49,2.665
7.5,2.665
7.51,2.86
7.52,2.86
7.53,3.445
7.54,3.445
7.55,3.12
7.56,3.12
7.57,2.6
7.58,2.6
7.59,2.145
7.6,2.145
7.61,2.47
7.62,2.47
7.63,2.73
7.64,2.73
7.65,2.015
7.66,2.015
7.67,1.56
7.68,1.56
7.69,1.235
7.7,1.235
7.71,1.3
7.72,1.3
7.73,1.56
7.74,1.56
7.75,1.82
7.76,1.82
7.77,1.625
7.78,1.625
7.79,1.105
7.8,1.105
7.81,1.105
7.82,1.105
7.83,1.56
7.84,1.56
7.85,1.625
7.86,1.625
7.87,1.56
7.88,1.56
7.89,1.885
7.9,1.885
7.91,2.015
7.92,2.015
7.93,2.08
7.94,2.08
7.95,2.34
7.96,2.34
7.97,2.47
7.98,2.47
7.99,2.6
8.,2.6
8.01,2.73
8.02,2.73
8.03,3.055
8.04,3.055
8.05,3.12
8.06,3.12
8.07,3.055
8.08,3.055
8.09,3.315
8.1,3.315
8.11,3.185
8.12,3.185
8.13,3.055
8.14,3.055
8.15,2.73
8.16,2.73
8.17,2.665
8.18,2.665
8.19,2.34
8.2,2.34
8.21,1.755
8.22,1.755
8.23,1.43
8.24,1.43
8.25,1.56
8.26,1.56
8.27,1.82
8.28,1.82
8.29,1.82
8.3,1.82
8.31,1.82
8.32,1.82
8.33,1.625
8.34,1.625
8.35,1.17
8.36,1.17
8.37,1.04
8.38,1.04
8.39,1.69
8.4,1.69
8.41,1.82
8.42,1.82
8.43,2.08
8.44,2.08
8.45,2.73
8.46,2.73
8.47,3.12
8.48,3.12
8.49,2.86
8.5,2.86
8.51,2.99
8.52,2.99
8.53,3.12
8.54,3.12
8.55,2.925
8.56,2.925
8.57,2.99
8.58,2.99
8.59,2.47
8.6,2.47
8.61,2.6
8.62,2.6
8.63,3.185
8.64,3.185
8.65,3.445
8.66,3.445
8.67,3.445
8.68,3.445
8.69,3.445
8.7,3.445
8.71,4.095
8.72,4.095
8.73,4.94
8.74,4.94
8.75,4.81
8.76,4.81
8.77,4.29
8.78,4.29
8.79,4.095
8.8,4.095
8.81,4.03
8.82,4.03
8.83,4.55
8.84,4.55
8.85,4.94
8.86,4.94
8.87,4.81
8.88,4.81
8.89,5.07
8.9,5.07
8.91,4.68
8.92,4.68
8.93,3.835
8.94,3.835
8.95,3.64
8.96,3.64
8.97,3.38
8.98,3.38
8.99,2.925
9.,2.925
9.01,3.38
9.02,3.38
9.03,3.77
9.04,3.77
9.05,3.705
9.06,3.705
9.07,3.9
9.08,3.9
9.09,3.77
9.1,3.77
9.11,3.51
9.12,3.51
9.13,3.835
9.14,3.835
9.15,4.03
9.16,4.03
9.17,3.77
9.18,3.77
9.19,3.705
9.2,3.705
9.21,3.185
9.22,3.185
9.23,2.145
9.24,2.145
9.25,1.365
9.26,1.365
9.27,1.43
9.28,1.43
9.29,2.34
9.3,2.34
9.31,2.99
9.32,2.99
9.33,2.795
9.34,2.795
9.35,2.275
9.36,2.275
9.37,2.08
9.38,2.08
9.39,2.015
9.4,2.015
9.41,1.82
9.42,1.82
9.43,1.755
9.44,1.755
9.45,1.495
9.46,1.495
9.47,1.69
9.48,1.69
9.49,2.015
9.5,2.015
9.51,2.47
9.52,2.47
9.53,2.47
9.54,2.47
9.55,1.755
9.56,1.755
9.57,1.43
9.58,1.43
9.59,1.17
9.6,1.17
9.61,1.04
9.62,1.04
9.63,1.235
9.64,1.235
9.65,1.56
9.66,1.56
9.67,1.69
9.68,1.69
9.69,1.495
9.7,1.495
9.71,1.625
9.72,1.625
9.73,1.755
9.74,1.755
9.75,1.495
9.76,1.495
9.77,1.43
9.78,1.43
9.79,1.755
9.8,1.755
9.81,2.015
9.82,2.015
9.83,1.495
9.84,1.495
9.85,1.365
9.86,1.365
9.87,1.69
9.88,1.69
9.89,1.69
9.9,1.69
9.91,1.495
9.92,1.495
9.93,1.82
9.94,1.82
9.95,2.535
9.96,2.535
9.97,2.535
9.98,2.535
9.99,2.275
10.,2.275
