t,cases
5.01,0.78
5.02,0.78
5.03,0.78
5.04,0.78
5.05,0.455
5.06,0.455
5.07,0.39
5.08,0.39
5.09,0.455
5.1,0.455
5.11,0.455
5.12,0.455
5.13,0.52
5.14,0.52
5.15,0.65
5.16,0.65
5.17,0.78
5.18,0.78
5.19,0.715
5.2,0.715
5.21,0.52
5.22,0.52
5.23,0.78
5.24,0.78
5.25,1.105
5.26,1.105
5.27,1.17
5.28,1.17
5.29,1.105
5.3,1.105
5.31,1.17
5.32,1.17
5.33,1.235
5.34,1.235
5.35,0.845
5.36,0.845
5.37,0.65
5.38,0.65
5.39,0.715
5.4,0.715
5.41,0.975
5.42,0.975
5.43,1.105
5.44,1.105
5.45,1.235
5.46,1.235
5.47,1.43
5.48,1.43
5.49,1.235
5.5,1.235
5.51,1.365
5.52,1.365
5.53,1.56
5.54,1.56
5.55,1.56
5.56,1.56
5.57,1.3
5.58,1.3
5.59,0.78
5.6,0.78
5.61,1.105
5.62,1.105
5.63,1.755
5.64,1.755
5.65,1.95
5.66,1.95
5.67,2.405
5.68,2.405
5.69,2.795
5.7,2.795
5.71,2.86
5.72,2.86
5.73,2.34
5.74,2.34
5.75,1.885
5.76,1.885
5.77,2.015
5.78,2.015
5.79,1.755
5.8,1.755
5.81,2.275
5.82,2.275
5.83,2.275
5.84,2.275
5.85,2.405
5.86,2.405
5.87,2.925
5.88,2.925
5.89,2.275
5.9,2.275
5.91,2.015
5.92,2.015
5.93,2.34
5.94,2.34
5.95,2.145
5.96,2.145
5.97,1.755
5.98,1.755
5.99,1.82
6.,1.82
6.01,2.015
6.02,2.015
6.03,2.275
6.04,2.275
6.05,2.405
6.06,2.405
6.07,2.34
6.08,2.34
6.09,2.34
6.1,2.34
6.11,2.535
6.12,2.535
6.13,2.925
6.14,2.925
6.15,3.185
6.16,3.185
6.17,2.6
6.18,2.6
6.19,1.95
6.2,1.95
6.21,1.56
6.22,1.56
6.23,1.235
6.24,1.235
6.25,1.625
6.26,1.625
6.27,1.69
6.28,1.69
6.29,1.365
6.3,1.365
6.31,1.625
6.32,1.625
6.33,1.69
6.34,1.69
6.35,2.015
6.36,2.015
6.37,2.34
6.38,2.34
6.39,2.405
6.4,2.405
6.41,2.34
6.42,2.34
6.43,2.015
6.44,2.015
6.45,1.82
6.46,1.82
6.47,1.43
6.48,1.43
6.49,1.495
6.5,1.495
6.51,1.625
6.52,1.625
6.53,1.56
6.54,1.56
6.55,2.08
6.56,2.08
6.57,2.665
6.58,2.665
6.59,3.315
6.6,3.315
6.61,3.9
6.62,3.9
6.63,4.03
6.64,4.03
6.65,4.03
6.66,4.03
6.67,3.38
6.68,3.38
6.69,2.73
6.7,2.73
6.71,3.055
6.72,3.055
6.73,3.055
6.74,3.055
6.75,2.405
6.76,2.405
6.77,1.885
6.78,1.885
6.79,1.69
6.8,1.69
6.81,1.82
6.82,1.82
6.83,1.495
6.84,1.495
6.85,1.235
6.86,1.235
6.87,1.3
6.88,1.3
6.89,1.17
6.9,1.17
6.91,1.625
6.92,1.625
6.93,1.56
6.94,1.56
6.95,1.56
6.96,1.56
6.97,2.34
6.98,2.34
6.99,2.665
7.,2.665
7.01,2.405
7.02,2.405
7.03,2.145
7.04,2.145
7.05,2.275
7.06,2.275
7.07,2.275
7.08,2.275
7.09,2.275
7.1,2.275
7.11,2.145
7.12,2.145
7.13,2.145
7.14,2.145
7.15,2.145
7.16,2.145
7.17,1.95
7.18,1.95
7.19,2.145
7.2,2.145
7.21,2.6
7.22,2.6
7.23,3.25
7.24,3.25
7.25,2.99
7.26,2.99
7.27,2.665
7.28,2.665
7.29,2.535
7.3,2.535
7.31,3.055
7.32,3.055
7.33,3.835
7.34,3.835
7.35,3.77
7.36,3.77
7.37,3.705
7.38,3.705
7.39,4.16
7.4,4.16
7.41,4.355
7.42,4.355
7.43,4.095
7.44,4.095
7.45,4.615
7.46,4.615
7.47,4.485
7.48,4.485
7.49,4.81
7.5,4.81
7.51,5.005
7.52,5.005
7.53,4.485
7.54,4.485
7.55,4.485
7.56,4.485
7.57,3.77
7.58,3.77
7.59,3.77
7.6,3.77
7.61,4.095
7.62,4.095
7.63,3.965
7.64,3.965
7.65,4.745
7.66,4.745
7.67,4.94
7.68,4.94
7.69,4.68
7.7,4.68
7.71,4.81
7.72,4.81
7.73,4.42
7.74,4.42
7.75,4.03
7.76,4.03
7.77,3.77
7.78,3.77
7.79,3.77
7.8,3.77
7.81,3.445
7.82,3.445
7.83,3.185
7.84,3.185
7.85,2.86
7.86,2.86
7.87,1.95
7.88,1.95
7.89,1.95
7.9,1.95
7.91,2.795
7.92,2.795
7.93,3.25
7.94,3.25
7.95,2.925
7.96,2.925
7.97,3.51
7.98,3.51
7.99,4.03
8.,4.03
8.01,3.445
8.02,3.445
8.03,3.38
8.04,3.38
8.05,3.185
8.06,3.185
8.07,2.73
8.08,2.73
8.09,2.47
8.1,2.47
8.11,2.145
8.12,2.145
8.13,2.21
8.14,2.21
8.15,2.145
8.16,2.145
8.17,1.95
8.18,1.95
8.19,2.21
8.2,2.21
8.21,2.21
8.22,2.21
8.23,2.015
8.24,2.015
8.25,2.405
8.26,2.405
8.27,2.275
8.28,2.275
8.29,2.08
8.3,2.08
8.31,2.275
8.32,2.275
8.33,2.145
8.34,2.145
8.35,2.145
8.36,2.145
8.37,2.015
8.38,2.015
8.39,1.755
8.4,1.755
8.41,1.365
8.42,1.365
8.43,1.17
8.44,1.17
8.45,1.105
8.46,1.105
8.47,0.78
8.48,0.78
8.49,0.715
8.5,0.715
8.51,0.845
8.52,0.845
8.53,0.91
8.54,0.91
8.55,0.845
8.56,0.845
8.57,0.845
8.58,0.845
8.59,1.17
8.6,1.17
8.61,1.56
8.62,1.56
8.63,1.69
8.64,1.69
8.65,1.69
8.66,1.69
8.67,2.015
8.68,2.015
8.69,2.405
8.7,2.405
8.71,2.405
8.72,2.405
8.73,2.21
8.74,2.21
8.75,1.82
8.76,1.82
8.77,1.3
8.78,1.3
8.79,1.105
8.8,1.105
8.81,1.17
8.82,1.17
8.83,1.04
8.84,1.04
8.85,1.105
8.86,1.105
8.87,1.235
8.88,1.235
8.89,1.56
8.9,1.56
8.91,1.69
8.92,1.69
8.93,1.625
8.94,1.625
8.95,1.82
8.96,1.82
8.97,1.625
8.98,1.625
8.99,1.17
9.,1.17
9.01,0.975
9.02,0.975
9.03,0.91
9.04,0.91
9.05,0.845
9.06,0.845
9.07,1.105
9.08,1.105
9.09,0.975
9.1,0.975
9.11,0.585
9.12,0.585
9.13,0.52
9.14,0.52
9.15,0.585
9.16,0.585
9.17,0.78
9.18,0.78
9.19,0.715
9.2,0.715
9.21,0.65
9.22,0.65
9.23,0.975
9.24,0.975
9.25,0.975
9.26,0.975
9.27,0.91
9.28,0.91
9.29,1.17
9.3,1.17
9.31,1.105
9.32,1.105
9.33,0.975
9.34,0.975
9.35,1.235
9.36,1.235
9.37,1.755
9.38,1.755
9.39,1.885
9.4,1.885
9.41,1.82
9.42,1.82
9.43,2.21
9.44,2.21
9.45,2.405
9.46,2.405
9.47,1.625
9.48,1.625
9.49,1.235
9.5,1.235
9.51,1.625
9.52,1.625
9.53,1.82
9.54,1.82
9.55,1.755
9.56,1.755
9.57,1.885
9.58,1.885
9.59,2.21
9.6,2.21
9.61,2.34
9.62,2.34
9.63,2.535
9.64,2.535
9.65,2.47
9.66,2.47
9.67,2.47
9.68,2.47
9.69,2.86
9.7,2.86
9.71,3.12
9.72,3.12
9.73,3.25
9.74,3.25
9.75,2.795
9.76,2.795
9.77,2.21
9.78,2.21
9.79,2.47
9.8,2.47
9.81,2.535
9.82,2.535
9.83,2.275
9.84,2.275
9.85,2.795
9.86,2.795
9.87,3.12
9.88,3.12
9.89,2.86
9.9,2.86
9.91,3.445
9.92,3.445
9.93,3.185
9.94,3.185
9.95,2.6
9.96,2.6
9.97,2.795
9.98,2.795
9.99,2.73
10.,2.73
