t,prevalence
5.,1
5.02,0
5.04,0
5.06,1
5.08,2
5.1,2
5.12,0
5.14,0
5.16,1
5.18,4
5.2,0
5.22,2
5.24,2
5.26,0
5.28,0
5.3,2
5.32,1
5.34,3
5.36,2
5.38,1
5.4,0
5.42,0
5.44,1
5.46,1
5.48,2
5.5,5
5.52,1
5.54,2
5.56,1
5.58,1
5.6,1
5.62,2
5.64,1
5.66,0
5.68,2
5.7,0
5.72,1
5.74,3
5.76,3
5.78,1
5.8,2
5.82,3
5.84,2
5.86,3
5.88,2
5.9,4
5.92,1
5.94,2
5.96,6
5.98,0
6.,6
6.02,2
6.04,4
6.06,3
6.08,2
6.1,4
6.12,4
6.14,6
6.16,5
6.18,13
6.2,5
6.22,2
6.24,9
6.26,6
6.28,6
6.3,9
6.32,3
6.34,10
6.36,8
6.38,6
6.4,7
6.42,11
6.44,4
6.46,8
6.48,10
6.5,5
6.52,6
6.54,7
6.56,4
6.58,2
6.6,8
6.62,5
6.64,3
6.66,3
6.68,9
6.7,4
6.72,4
6.74,10
6.76,9
6.78,9
6.8,8
6.82,8
6.84,14
6.86,11
6.88,11
6.9,6
6.92,7
6.94,12
6.96,6
6.98,3
7.,6
7.02,3
7.04,5
7.06,7
7.08,4
7.1,4
7.12,4
7.14,10
7.16,8
7.18,4
7.2,6
7.22,7
7.24,1
7.26,1
7.28,1
7.3,3
7.32,3
7.34,0
7.36,2
7.38,2
7.4,1
7.42,3
7.44,0
7.46,0
7.48,0
7.5,3
7.52,1
7.54,0
7.56,0
7.58,0
7.6,3
7.62,1
7.64,3
7.66,3
7.68,1
7.7,4
7.72,1
7.74,2
7.76,2
7.78,4
7.8,4
7.82,3
7.84,9
7.86,2
7.88,7
7.9,7
7.92,7
7.94,7
7.96,2
7.98,3
8.,2
8.02,3
8.04,4
8.06,2
8.08,4
8.1,2
8.12,2
8.14,1
8.16,3
8.18,6
8.2,3
8.22,6
8.24,8
8.26,6
8.28,7
8.3,2
8.32,0
8.34,3
8.36,3
8.38,1
8.4,1
8.42,4
8.44,6
8.46,2
8.48,5
8.5,6
8.52,7
8.54,6
8.56,10
8.58,6
8.6,10
8.62,6
8.64,8
8.66,9
8.68,10
8.7,7
8.72,4
8.74,1
8.76,5
8.78,6
8.8,5
8.82,7
8.84,7
8.86,10
8.88,4
8.9,4
8.92,2
8.94,4
8.96,5
8.98,3
9.,5
9.02,5
9.04,8
9.06,5
9.08,4
9.1,6
9.12,9
9.14,7
9.16,7
9.18,5
9.2,7
9.22,8
9.24,9
9.26,4
9.28,4
9.3,10
9.32,5
9.34,8
9.36,12
9.38,6
9.4,9
9.42,12
9.44,10
9.46,8
9.48,12
9.5,14
9.52,7
9.54,14
9.56,17
9.58,11
9.6,16
9.62,15
9.64,17
9.66,12
9.68,13
9.7,10
9.72,11
9.74,5
9.76,8
9.78,2
9.8,9
9.82,2
9.84,2
9.86,5
9.88,8
9.9,2
9.92,4
9.94,6
9.96,4
9.98,4
10.,3
