t,s,e,i,r,c,o,n,reff,coal,reportr
5.,6250.,5.,3.,3734.,0.,0.,9992.,0.902164038923,9.3825060048,65.
5.02,6254.,8.,2.,3728.,0.,0.,9992.,0.902741423908,5.8678192554,104.
5.04,6268.,4.,3.,3721.,0.,0.,9996.,0.904400221627,11.7572028812,52.
5.06,6276.,7.,2.,3713.,0.,0.,9998.,0.905373382369,6.72563084045,91.
5.08,6277.,9.,0.,3710.,0.,0.,9996.,0.905698817989,5.23292650393,117.
5.1,6285.,5.,3.,3704.,0.,0.,9997.,0.906762413339,9.43032909873,65.
5.12,6290.,6.,3.,3699.,0.,0.,9998.,0.907393017065,7.86407281456,78.
5.14,6289.,9.,3.,3695.,0.,0.,9996.,0.907430279804,5.24293050554,117.
5.16,6285.,12.,7.,3695.,0.,0.,9999.,0.90658104272,3.92851785179,156.
5.18,6287.,8.,11.,3695.,0.,0.,10001.,0.906688177336,5.89347315268,104.
5.2,6282.,12.,12.,3694.,0.,0.,10000.,0.906057692308,3.92625,156.
5.22,6287.,12.,11.,3691.,0.,0.,10001.,0.906688177336,3.92898210179,156.
5.24,6291.,15.,8.,3688.,0.,0.,10002.,0.907174334364,3.14487102579,195.
5.26,6288.,21.,3.,3689.,0.,0.,10001.,0.906832393684,2.24548973674,273.
5.28,6287.,15.,10.,3688.,0.,0.,10000.,0.906778846154,3.1435,195.
5.3,6288.,16.,11.,3686.,0.,0.,10001.,0.906832393684,2.94720527947,208.
5.32,6295.,12.,10.,3684.,0.,0.,10001.,0.907841908117,3.93398160184,156.
5.34,6294.,16.,5.,3687.,0.,0.,10002.,0.90760694015,2.94972255549,208.
5.36,6297.,11.,8.,3689.,0.,0.,10005.,0.907767270211,4.29126345918,143.
5.38,6296.,9.,17.,3683.,0.,0.,10005.,0.907623111521,5.24404464434,117.
5.4,6288.,22.,8.,3684.,0.,0.,10002.,0.906741728577,2.14320772209,286.
5.42,6289.,18.,10.,3687.,0.,0.,10004.,0.906704625842,2.6193689191,234.
5.44,6290.,18.,7.,3689.,0.,0.,10004.,0.906848798942,2.61978541917,234.
5.46,6295.,12.,4.,3690.,0.,0.,10001.,0.907841908117,3.93398160184,156.
5.48,6294.,11.,6.,3687.,0.,0.,9998.,0.90797005555,4.29222208078,143.
5.5,6300.,10.,7.,3686.,0.,0.,10003.,0.908381331754,4.72358292512,130.
5.52,6302.,10.,4.,3686.,0.,0.,10002.,0.908760555581,4.72555488902,130.
5.54,6302.,14.,6.,3684.,0.,0.,10006.,0.908397269331,3.37404700037,182.
5.56,6304.,18.,7.,3677.,0.,0.,10006.,0.908685557896,2.6250916117,234.
5.58,6309.,15.,3.,3679.,0.,0.,10006.,0.909406279309,3.15260843494,195.
5.6,6311.,12.,8.,3676.,0.,0.,10007.,0.909603662052,3.94161586889,156.
5.62,6309.,11.,12.,3674.,0.,0.,10006.,0.909406279309,4.29901150219,143.
5.64,6308.,18.,10.,3674.,0.,0.,10010.,0.908898793514,2.62570762571,234.
5.66,6307.,17.,17.,3670.,0.,0.,10011.,0.908663931214,2.77944261313,221.
5.68,6299.,20.,7.,3683.,0.,0.,10009.,0.907692691962,2.3600009991,260.
5.7,6301.,14.,9.,3686.,0.,0.,10010.,0.907890186736,3.37216355073,182.
5.72,6298.,15.,5.,3693.,0.,0.,10011.,0.907367280607,3.1455399061,195.
5.74,6299.,12.,4.,3689.,0.,0.,10004.,0.908146356842,3.93530087965,156.
5.76,6299.,17.,1.,3687.,0.,0.,10004.,0.908146356842,2.77785944446,221.
5.78,6309.,11.,6.,3681.,0.,0.,10007.,0.909315402295,4.29858190176,143.
5.8,6313.,7.,10.,3674.,0.,0.,10004.,0.910164780242,6.7612240818,91.
5.82,6314.,13.,8.,3670.,0.,0.,10005.,0.910217967939,3.64087187176,169.
5.84,6307.,14.,14.,3668.,0.,0.,10003.,0.909390644345,3.377736679,182.
5.86,6292.,28.,7.,3677.,0.,0.,10004.,0.907137145142,1.68468326955,364.
5.88,6299.,25.,6.,3678.,0.,0.,10008.,0.907783388674,1.88818944844,325.
5.9,6300.,20.,10.,3681.,0.,0.,10011.,0.907655425186,2.35990410548,260.
5.92,6299.,24.,9.,3678.,0.,0.,10010.,0.907602013371,1.96647102897,312.
5.94,6298.,20.,8.,3685.,0.,0.,10011.,0.907367280607,2.35915492958,260.
5.96,6297.,19.,4.,3690.,0.,0.,10010.,0.907313840006,2.48317472002,247.
5.98,6304.,11.,13.,3680.,0.,0.,10008.,0.908503966058,4.29474602136,143.
6.,6309.,16.,7.,3678.,0.,0.,10010.,0.909042880197,2.95438936064,208.
6.02,6309.,17.,11.,3674.,0.,0.,10011.,0.908952075794,2.78032399654,221.
6.04,6304.,16.,10.,3678.,0.,0.,10008.,0.908503966058,2.95263788969,208.
6.06,6301.,18.,11.,3680.,0.,0.,10010.,0.907890186736,2.62279387279,234.
6.08,6295.,25.,8.,3683.,0.,0.,10011.,0.906935063738,1.88642493257,325.
6.1,6292.,22.,12.,3682.,0.,0.,10008.,0.906774580336,2.1432853717,286.
6.12,6285.,22.,15.,3686.,0.,0.,10008.,0.905765771998,2.14090091563,286.
6.14,6280.,24.,13.,3689.,0.,0.,10006.,0.905226095112,1.96132320608,312.
6.16,6283.,23.,11.,3688.,0.,0.,10005.,0.905749048553,2.0477804576,299.
6.18,6280.,26.,10.,3690.,0.,0.,10006.,0.905226095112,1.81045219022,338.
6.2,6282.,20.,8.,3698.,0.,0.,10008.,0.905333425567,2.35386690647,260.
6.22,6282.,25.,4.,3693.,0.,0.,10004.,0.905695414142,1.88384646142,325.
6.24,6288.,15.,11.,3693.,0.,0.,10007.,0.906288674851,3.14180073948,195.
6.26,6282.,17.,11.,3698.,0.,0.,10008.,0.905333425567,2.76925518409,221.
6.28,6284.,16.,5.,3706.,0.,0.,10011.,0.905350268551,2.94238837279,208.
6.3,6288.,14.,5.,3704.,0.,0.,10011.,0.90592655771,3.36487007149,182.
6.32,6289.,17.,4.,3704.,0.,0.,10014.,0.905799188828,2.77067987171,221.
6.34,6289.,17.,6.,3703.,0.,0.,10015.,0.905708744575,2.7704032187,221.
6.36,6297.,15.,1.,3703.,0.,0.,10016.,0.906770321332,3.14347044728,195.
6.38,6302.,9.,0.,3702.,0.,0.,10013.,0.90776221681,5.24484836379,117.
6.4,6317.,9.,1.,3688.,0.,0.,10015.,0.909741157495,5.2562822433,117.
6.42,6332.,9.,1.,3675.,0.,0.,10017.,0.911719307946,5.26771155702,117.
6.44,6335.,10.,2.,3669.,0.,0.,10016.,0.91224233534,4.74366014377,130.
6.46,6341.,2.,11.,3660.,0.,0.,10014.,0.913288703507,23.7455062912,26.
6.48,6340.,7.,8.,3657.,0.,0.,10012.,0.913327084422,6.78471548428,91.
6.5,6339.,15.,1.,3656.,0.,0.,10011.,0.913274244485,3.16601738088,195.
6.52,6347.,10.,8.,3646.,0.,0.,10011.,0.914426822803,4.75501947857,130.
6.54,6357.,8.,4.,3641.,0.,0.,10010.,0.915959040959,5.95373376623,104.
6.56,6362.,10.,4.,3633.,0.,0.,10009.,0.916771059892,4.76720951144,130.
6.58,6366.,6.,3.,3635.,0.,0.,10010.,0.917255821102,7.94955044955,78.
6.6,6375.,1.,4.,3632.,0.,0.,10012.,0.918369110913,47.7551937675,13.
6.62,6382.,2.,1.,3629.,0.,0.,10014.,0.919193897774,23.8990413421,26.
6.64,6388.,4.,0.,3620.,0.,0.,10012.,0.92024186361,11.9631442269,52.
6.66,6397.,2.,1.,3609.,0.,0.,10009.,0.921814597631,23.9671795384,26.
6.68,6411.,2.,0.,3597.,0.,0.,10010.,0.923739721817,24.0172327672,26.
6.7,6418.,3.,0.,3586.,0.,0.,10007.,0.925025559032,16.0337763566,39.
6.72,6427.,3.,1.,3574.,0.,0.,10005.,0.926507899896,16.0594702649,39.
6.74,6431.,2.,3.,3563.,0.,0.,9999.,0.927640841007,24.1186618662,26.
6.76,6435.,3.,1.,3560.,0.,0.,9999.,0.928217821782,16.0891089109,39.
6.78,6440.,3.,0.,3555.,0.,0.,9998.,0.929031960238,16.1032206441,39.
6.8,6451.,4.,2.,3546.,0.,0.,10003.,0.930153646214,12.0919974008,52.
6.82,6454.,3.,5.,3540.,0.,0.,10002.,0.930679248766,16.1317736453,39.
6.84,6453.,7.,0.,3539.,0.,0.,9999.,0.93081423527,6.91462003343,91.
6.86,6454.,9.,0.,3533.,0.,0.,9996.,0.931237879767,5.38048552754,117.
6.88,6461.,7.,4.,3524.,0.,0.,9996.,0.93224789916,6.92527010804,91.
6.9,6464.,5.,5.,3520.,0.,0.,9994.,0.932867412755,9.70182109266,65.
6.92,6467.,6.,1.,3521.,0.,0.,9995.,0.933206988109,8.08779389695,78.
6.94,6468.,6.,1.,3516.,0.,0.,9991.,0.933724967856,8.09228305475,78.
6.96,6473.,6.,2.,3509.,0.,0.,9990.,0.93454030954,8.09934934935,78.
6.98,6483.,6.,2.,3503.,0.,0.,9994.,0.935609442589,8.1086151691,78.
7.,6490.,6.,4.,3499.,0.,0.,9999.,0.936151307438,8.11331133113,78.
7.02,6490.,3.,5.,3501.,0.,0.,9999.,0.936151307438,16.2266226623,39.
7.04,6492.,7.,2.,3500.,0.,0.,10001.,0.936252528593,6.95501878384,91.
7.06,6500.,8.,2.,3490.,0.,0.,10000.,0.9375,6.09375,104.
7.08,6499.,11.,4.,3481.,0.,0.,9995.,0.937824681572,4.43335304016,143.
7.1,6505.,8.,9.,3473.,0.,0.,9995.,0.938690499096,6.10148824412,104.
7.12,6502.,12.,8.,3470.,0.,0.,9992.,0.938539292973,4.06700360288,156.
7.14,6500.,13.,7.,3473.,0.,0.,9993.,0.938156709697,3.75262683879,169.
7.16,6500.,11.,8.,3475.,0.,0.,9994.,0.938062837703,4.43447886914,143.
7.18,6504.,8.,13.,3469.,0.,0.,9994.,0.938640107141,6.10116069642,104.
7.2,6503.,9.,10.,3468.,0.,0.,9990.,0.938871563872,5.42459125792,117.
7.22,6506.,13.,7.,3464.,0.,0.,9990.,0.939304689305,3.75721875722,169.
7.24,6510.,9.,12.,3459.,0.,0.,9990.,0.939882189882,5.43043043043,117.
7.26,6504.,18.,7.,3461.,0.,0.,9990.,0.939015939016,2.71271271271,234.
7.28,6505.,20.,1.,3466.,0.,0.,9992.,0.938972331712,2.44132806245,260.
7.3,6506.,14.,9.,3461.,0.,0.,9990.,0.939304689305,3.48884598885,182.
7.32,6504.,17.,9.,3461.,0.,0.,9991.,0.938921952834,2.87199656161,221.
7.34,6506.,17.,5.,3465.,0.,0.,9993.,0.939022700506,2.87230473096,221.
7.36,6511.,12.,8.,3463.,0.,0.,9994.,0.939650328659,4.07181809085,156.
7.38,6509.,18.,9.,3460.,0.,0.,9996.,0.939173746422,2.71316860077,234.
7.4,6509.,14.,8.,3461.,0.,0.,9992.,0.939549716696,3.48975609059,182.
7.42,6504.,19.,6.,3463.,0.,0.,9992.,0.938827985465,2.56942396022,247.
7.44,6501.,19.,10.,3461.,0.,0.,9991.,0.938488870753,2.5684958568,247.
7.46,6497.,22.,11.,3464.,0.,0.,9994.,0.937629885624,2.21621609329,286.
7.48,6490.,24.,7.,3469.,0.,0.,9990.,0.936994686995,2.03015515516,312.
7.5,6486.,23.,8.,3471.,0.,0.,9988.,0.936604694865,2.11754104926,299.
7.52,6487.,20.,14.,3466.,0.,0.,9987.,0.936842895764,2.43579152899,260.
7.54,6490.,19.,13.,3464.,0.,0.,9986.,0.937370010322,2.56543371246,247.
7.56,6488.,22.,13.,3463.,0.,0.,9986.,0.937081144371,2.21491906851,286.
7.58,6483.,28.,8.,3469.,0.,0.,9988.,0.936171482702,1.73860418216,364.
7.6,6477.,24.,9.,3477.,0.,0.,9987.,0.935398710632,2.02669720637,312.
7.62,6479.,23.,11.,3470.,0.,0.,9983.,0.936062460028,2.11631512702,299.
7.64,6483.,18.,13.,3469.,0.,0.,9983.,0.936640365545,2.70584994491,234.
7.66,6486.,20.,12.,3467.,0.,0.,9985.,0.936886098378,2.43590385578,260.
7.68,6481.,15.,13.,3473.,0.,0.,9982.,0.936445216775,3.24634341815,195.
7.7,6476.,22.,11.,3475.,0.,0.,9984.,0.935535318047,2.2112652972,286.
7.72,6475.,21.,13.,3479.,0.,0.,9988.,0.93501625027,2.315278334,273.
7.74,6467.,21.,13.,3486.,0.,0.,9987.,0.933954525499,2.31264930123,273.
7.76,6457.,28.,9.,3489.,0.,0.,9983.,0.932883979689,1.73249881942,364.
7.78,6462.,23.,16.,3484.,0.,0.,9985.,0.933419359809,2.11033942218,299.
7.8,6461.,22.,7.,3494.,0.,0.,9984.,0.933368389423,2.20614346591,286.
7.82,6465.,15.,6.,3495.,0.,0.,9981.,0.93422695429,3.23865344154,195.
7.84,6474.,17.,3.,3490.,0.,0.,9984.,0.935246394231,2.86075367647,221.
7.86,6477.,17.,5.,3486.,0.,0.,9985.,0.935586071415,2.86179268903,221.
7.88,6482.,9.,13.,3479.,0.,0.,9983.,0.936495889165,5.4108651374,117.
7.9,6472.,24.,8.,3483.,0.,0.,9987.,0.934676618065,2.02513267247,312.
7.92,6472.,26.,9.,3481.,0.,0.,9988.,0.934583038107,1.86916607621,338.
7.94,6468.,25.,11.,3481.,0.,0.,9985.,0.934286044451,1.94331497246,325.
7.96,6470.,18.,15.,3481.,0.,0.,9984.,0.934668546598,2.70015357906,234.
7.98,6461.,30.,14.,3481.,0.,0.,9986.,0.933181454036,1.61751452033,390.
8.,6451.,26.,20.,3491.,0.,0.,9988.,0.931550552971,1.86310110594,338.
8.02,6446.,26.,18.,3501.,0.,0.,9991.,0.930549032591,1.86109806518,338.
8.04,6439.,25.,11.,3515.,0.,0.,9990.,0.929631554632,1.93363363363,325.
8.06,6436.,22.,16.,3519.,0.,0.,9993.,0.928919474401,2.19562784858,286.
8.08,6429.,25.,13.,3525.,0.,0.,9992.,0.928002016998,1.93024419536,325.
8.1,6424.,27.,6.,3536.,0.,0.,9993.,0.927187492783,1.78569443055,351.
8.12,6424.,19.,10.,3537.,0.,0.,9990.,0.927465927466,2.53832780149,247.
8.14,6411.,23.,6.,3543.,0.,0.,9983.,0.926238066251,2.09410345413,299.
8.16,6410.,20.,5.,3548.,0.,0.,9983.,0.926093589872,2.40784333367,260.
8.18,6407.,18.,9.,3549.,0.,0.,9983.,0.925660160735,2.67412935323,234.
8.2,6410.,15.,6.,3550.,0.,0.,9981.,0.926279161175,3.21110109207,195.
8.22,6416.,12.,9.,3546.,0.,0.,9983.,0.926960448146,4.01682860863,156.
8.24,6412.,8.,9.,3553.,0.,0.,9982.,0.926475347934,6.02208976157,104.
8.26,6411.,14.,4.,3555.,0.,0.,9984.,0.926145294009,3.43996823489,182.
8.28,6419.,11.,6.,3549.,0.,0.,9985.,0.927208119872,4.38316565758,143.
8.3,6416.,12.,4.,3555.,0.,0.,9987.,0.92658918132,4.01521978572,156.
8.32,6421.,8.,4.,3555.,0.,0.,9988.,0.927218431348,6.02691980376,104.
8.34,6433.,4.,6.,3549.,0.,0.,9992.,0.928579401983,12.0715322258,52.
8.36,6433.,7.,8.,3542.,0.,0.,9990.,0.928765303765,6.8993993994,91.
8.38,6435.,7.,7.,3540.,0.,0.,9989.,0.929147061768,6.90223531599,91.
8.4,6428.,13.,3.,3544.,0.,0.,9988.,0.928229259727,3.71291703891,169.
8.42,6424.,16.,4.,3541.,0.,0.,9985.,0.927930357074,3.01577366049,208.
8.44,6427.,19.,6.,3533.,0.,0.,9985.,0.928363699395,2.5407848615,247.
8.46,6420.,21.,4.,3537.,0.,0.,9982.,0.927631274756,2.29699172797,273.
8.48,6412.,21.,9.,3539.,0.,0.,9981.,0.926568171834,2.29435928264,273.
8.5,6415.,16.,11.,3538.,0.,0.,9980.,0.927094573763,3.01305736473,208.
8.52,6419.,12.,10.,3539.,0.,0.,9980.,0.927672652998,4.01991482966,156.
8.54,6421.,10.,13.,3535.,0.,0.,9979.,0.928054684067,4.82588435715,130.
8.56,6410.,18.,8.,3541.,0.,0.,9977.,0.926650526981,2.67699041128,234.
8.58,6399.,25.,9.,3541.,0.,0.,9974.,0.925338572596,1.924704231,325.
8.6,6395.,23.,12.,3541.,0.,0.,9971.,0.925038380534,2.09139112121,299.
8.62,6382.,24.,14.,3550.,0.,0.,9970.,0.923250520793,2.00037612839,312.
8.64,6378.,26.,3.,3563.,0.,0.,9970.,0.922671861739,1.84534372348,338.
8.66,6373.,17.,16.,3561.,0.,0.,9967.,0.922226038234,2.82092670519,221.
8.68,6363.,22.,9.,3571.,0.,0.,9965.,0.920963757768,2.17682342745,286.
8.7,6363.,16.,12.,3576.,0.,0.,9967.,0.920778955167,2.99253160429,208.
8.72,6362.,17.,17.,3575.,0.,0.,9971.,0.92026492212,2.81492799707,221.
8.74,6354.,23.,15.,3581.,0.,0.,9973.,0.918923400875,2.0775659498,299.
8.76,6352.,23.,9.,3589.,0.,0.,9973.,0.918634158381,2.07691201025,299.
8.78,6346.,21.,10.,3595.,0.,0.,9972.,0.917858465241,2.27279239012,273.
8.8,6342.,25.,14.,3592.,0.,0.,9973.,0.917187945916,1.9077509275,325.
8.82,6338.,25.,12.,3602.,0.,0.,9977.,0.91624197192,1.90578330159,325.
8.84,6333.,26.,15.,3603.,0.,0.,9977.,0.915519155596,1.83103831119,338.
8.86,6322.,30.,18.,3609.,0.,0.,9979.,0.913745789234,1.58382603467,390.
8.88,6311.,32.,12.,3624.,0.,0.,9979.,0.912155912031,1.48225335705,416.
8.9,6305.,27.,17.,3629.,0.,0.,9978.,0.911380036079,1.75525043986,351.
8.92,6297.,27.,11.,3646.,0.,0.,9981.,0.909950058958,1.75249640985,351.
8.94,6288.,29.,13.,3650.,0.,0.,9980.,0.908740558039,1.62946582821,377.
8.96,6272.,32.,12.,3661.,0.,0.,9977.,0.906700796447,1.47338879423,416.
8.98,6272.,19.,22.,3664.,0.,0.,9977.,0.906700796447,2.48149691659,247.
9.,6268.,14.,22.,3671.,0.,0.,9975.,0.906304222094,3.36627282492,182.
9.02,6258.,22.,12.,3684.,0.,0.,9976.,0.904767596077,2.13854159073,286.
9.04,6253.,25.,6.,3695.,0.,0.,9979.,0.903772923139,1.87984768013,325.
9.06,6248.,27.,12.,3692.,0.,0.,9979.,0.903050251682,1.73920789213,351.
9.08,6250.,20.,16.,3692.,0.,0.,9978.,0.90342985337,2.34891761876,260.
9.1,6247.,22.,12.,3697.,0.,0.,9978.,0.90299620704,2.13435467119,286.
9.12,6248.,19.,10.,3702.,0.,0.,9979.,0.903050251682,2.47150595197,247.
9.14,6250.,21.,10.,3698.,0.,0.,9979.,0.903339320265,2.23684022161,273.
9.16,6254.,18.,10.,3698.,0.,0.,9980.,0.903826884538,2.61105544422,234.
9.18,6253.,25.,5.,3697.,0.,0.,9980.,0.903682364729,1.87965931864,325.
9.2,6257.,26.,10.,3686.,0.,0.,9979.,0.904351060304,1.80870212061,338.
9.22,6255.,26.,14.,3684.,0.,0.,9979.,0.904061991721,1.80812398344,338.
9.24,6256.,22.,13.,3687.,0.,0.,9978.,0.904297146029,2.13742961789,286.
9.26,6256.,19.,16.,3685.,0.,0.,9976.,0.904478440565,2.47541467944,247.
9.28,6251.,23.,11.,3688.,0.,0.,9973.,0.904027412475,2.04388806299,299.
9.3,6245.,23.,16.,3691.,0.,0.,9975.,0.902978600347,2.04151683557,299.
9.32,6236.,26.,14.,3699.,0.,0.,9975.,0.901677270098,1.8033545402,338.
9.34,6232.,26.,13.,3704.,0.,0.,9975.,0.901098901099,1.8021978022,338.
9.36,6223.,29.,15.,3709.,0.,0.,9976.,0.899707374622,1.61326839587,377.
9.38,6216.,32.,14.,3715.,0.,0.,9977.,0.898605253622,1.46023353714,416.
9.4,6215.,27.,16.,3721.,0.,0.,9979.,0.898280620071,1.73002193495,351.
9.42,6215.,20.,17.,3725.,0.,0.,9977.,0.898460690357,2.33599779493,260.
9.44,6208.,21.,13.,3732.,0.,0.,9974.,0.897718683963,2.22292245553,273.
9.46,6210.,20.,13.,3734.,0.,0.,9977.,0.897737874033,2.33411847249,260.
9.48,6212.,15.,14.,3736.,0.,0.,9977.,0.898027000563,3.11316026862,195.
9.5,6207.,18.,15.,3737.,0.,0.,9977.,0.897304184239,2.5922120878,234.
9.52,6198.,17.,15.,3745.,0.,0.,9975.,0.896182764604,2.74126492702,221.
9.54,6190.,24.,7.,3753.,0.,0.,9974.,0.895115762521,1.93941748546,312.
9.56,6183.,22.,11.,3756.,0.,0.,9972.,0.894282838101,2.11375943551,286.
9.58,6176.,24.,8.,3757.,0.,0.,9965.,0.893897873326,1.93677872554,312.
9.6,6183.,22.,11.,3750.,0.,0.,9966.,0.894821238364,2.11503201795,286.
9.62,6173.,26.,7.,3760.,0.,0.,9966.,0.893374010096,1.78674802019,338.
9.64,6175.,18.,12.,3758.,0.,0.,9963.,0.893932550437,2.58247181237,234.
9.66,6171.,17.,8.,3769.,0.,0.,9965.,0.893174186576,2.73206221776,221.
9.68,6176.,14.,6.,3770.,0.,0.,9966.,0.893808178576,3.319858949,182.
9.7,6180.,16.,6.,3765.,0.,0.,9967.,0.894297335052,2.90646633892,208.
9.72,6182.,19.,7.,3760.,0.,0.,9968.,0.894497005803,2.44809706851,247.
9.74,6178.,18.,10.,3761.,0.,0.,9967.,0.894007918439,2.58268954216,234.
9.76,6175.,20.,8.,3764.,0.,0.,9967.,0.893573793519,2.32329186315,260.
9.78,6178.,17.,7.,3764.,0.,0.,9966.,0.89409762423,2.73488685059,221.
9.8,6173.,17.,11.,3762.,0.,0.,9963.,0.893643017627,2.73349628921,221.
9.82,6176.,15.,6.,3765.,0.,0.,9962.,0.894167065619,3.09977916081,195.
9.84,6177.,12.,8.,3763.,0.,0.,9960.,0.894491427247,3.87612951807,156.
9.86,6169.,15.,5.,3769.,0.,0.,9958.,0.893512367327,3.09750954007,195.
9.88,6173.,14.,8.,3764.,0.,0.,9959.,0.894001946442,3.32057865821,182.
9.9,6176.,13.,8.,3761.,0.,0.,9958.,0.894526240981,3.57810496393,169.
9.92,6180.,12.,6.,3761.,0.,0.,9959.,0.895015718291,3.87840144593,156.
9.94,6187.,9.,9.,3755.,0.,0.,9960.,0.89593952734,5.1765394913,117.
9.96,6192.,12.,2.,3748.,0.,0.,9954.,0.897204061761,3.88788426763,156.
9.98,6192.,10.,8.,3743.,0.,0.,9953.,0.897294205844,4.66592987039,130.
10.,6194.,16.,6.,3734.,0.,0.,9950.,0.897854657905,2.91802763819,208.
