t,cases
5.01,0.845
5.02,0.845
5.03,1.105
5.04,1.105
5.05,0.91
5.06,0.91
5.07,1.105
5.08,1.105
5.09,1.365
5.1,1.365
5.11,1.3
5.12,1.3
5.13,1.3
5.14,1.3
5.15,1.365
5.16,1.365
5.17,1.625
5.18,1.625
5.19,1.755
5.2,1.755
5.21,1.56
5.22,1.56
5.23,1.3
5.24,1.3
5.25,1.365
5.26,1.365
5.27,0.91
5.28,0.91
5.29,0.845
5.3,0.845
5.31,1.495
5.32,1.495
5.33,1.885
5.34,1.885
5.35,1.95
5.36,1.95
5.37,2.405
5.38,2.405
5.39,2.665
5.4,2.665
5.41,2.21
5.42,2.21
5.43,2.47
5.44,2.47
5.45,3.25
5.46,3.25
5.47,3.38
5.48,3.38
5.49,3.185
5.5,3.185
5.51,3.25
5.52,3.25
5.53,3.575
5.54,3.575
5.55,3.64
5.56,3.64
5.57,3.835
5.58,3.835
5.59,4.16
5.6,4.16
5.61,4.485
5.62,4.485
5.63,4.42
5.64,4.42
5.65,4.355
5.66,4.355
5.67,4.745
5.68,4.745
5.69,4.68
5.7,4.68
5.71,4.16
5.72,4.16
5.73,3.835
5.74,3.835
5.75,4.355
5.76,4.355
5.77,4.745
5.78,4.745
5.79,4.68
5.8,4.68
5.81,3.445
5.82,3.445
5.83,2.925
5.84,2.925
5.85,3.38
5.86,3.38
5.87,2.99
5.88,2.99
5.89,2.86
5.9,2.86
5.91,2.795
5.92,2.795
5.93,2.86
5.94,2.86
5.95,3.38
5.96,3.38
5.97,3.185
5.98,3.185
5.99,2.73
6.,2.73
6.01,2.665
6.02,2.665
6.03,2.6
6.04,2.6
6.05,2.73
6.06,2.73
6.07,1.95
6.08,1.95
6.09,1.17
6.1,1.17
6.11,1.625
6.12,1.625
6.13,2.34
6.14,2.34
6.15,2.925
6.16,2.925
6.17,2.925
6.18,2.925
6.19,2.86
6.2,2.86
6.21,3.315
6.22,3.315
6.23,3.835
6.24,3.835
6.25,4.03
6.26,4.03
6.27,3.445
6.28,3.445
6.29,3.38
6.3,3.38
6.31,3.575
6.32,3.575
6.33,3.315
6.34,3.315
6.35,2.795
6.36,2.795
6.37,2.73
6.38,2.73
6.39,3.38
6.4,3.38
6.41,3.38
6.42,3.38
6.43,3.445
6.44,3.445
6.45,3.38
6.46,3.38
6.47,3.055
6.48,3.055
6.49,2.6
6.5,2.6
6.51,2.665
6.52,2.665
6.53,2.925
6.54,2.925
6.55,3.12
6.56,3.12
6.57,2.99
6.58,2.99
6.59,2.08
6.6,2.08
6.61,2.015
6.62,2.015
6.63,2.665
6.64,2.665
6.65,2.405
6.66,2.405
6.67,1.95
6.68,1.95
6.69,2.21
6.7,2.21
6.71,2.73
6.72,2.73
6.73,2.6
6.74,2.6
6.75,2.015
6.76,2.015
6.77,1.755
6.78,1.755
6.79,1.3
6.8,1.3
6.81,1.105
6.82,1.105
6.83,1.04
6.84,1.04
6.85,0.975
6.86,0.975
6.87,0.91
6.88,0.91
6.89,0.91
6.9,0.91
6.91,0.975
6.92,0.975
6.93,0.78
6.94,0.78
6.95,0.78
6.96,0.78
6.97,0.715
6.98,0.715
6.99,0.715
7.,0.715
7.01,0.975
7.02,0.975
7.03,1.3
7.04,1.3
7.05,1.365
7.06,1.365
7.07,0.975
7.08,0.975
7.09,0.91
7.1,0.91
7.11,1.04
7.12,1.04
7.13,1.235
7.14,1.235
7.15,1.43
7.16,1.43
7.17,1.3
7.18,1.3
7.19,1.04
7.2,1.04
7.21,0.975
7.22,0.975
7.23,0.845
7.24,0.845
7.25,0.65
7.26,0.65
7.27,0.585
7.28,0.585
7.29,0.52
7.3,0.52
7.31,0.39
7.32,0.39
7.33,0.26
7.34,0.26
7.35,0.39
7.36,0.39
7.37,0.585
7.38,0.585
7.39,0.65
7.4,0.65
7.41,0.585
7.42,0.585
7.43,0.455
7.44,0.455
7.45,0.39
7.46,0.39
7.47,0.39
7.48,0.39
7.49,0.52
7.5,0.52
7.51,0.52
7.52,0.52
7.53,0.52
7.54,0.52
7.55,0.715
7.56,0.715
7.57,0.715
7.58,0.715
7.59,0.65
7.6,0.65
7.61,0.845
7.62,0.845
7.63,0.91
7.64,0.91
7.65,0.65
7.66,0.65
7.67,0.65
7.68,0.65
7.69,1.04
7.7,1.04
7.71,1.69
7.72,1.69
7.73,1.95
7.74,1.95
7.75,2.08
7.76,2.08
7.77,1.95
7.78,1.95
7.79,2.015
7.8,2.015
7.81,2.34
7.82,2.34
7.83,1.95
7.84,1.95
7.85,1.885
7.86,1.885
7.87,1.82
7.88,1.82
7.89,2.015
7.9,2.015
7.91,2.34
7.92,2.34
7.93,2.405
7.94,2.405
7.95,2.535
7.96,2.535
7.97,2.275
7.98,2.275
7.99,1.95
8.,1.95
8.01,2.015
8.02,2.015
8.03,2.015
8.04,2.015
8.05,1.69
8.06,1.69
8.07,1.885
8.08,1.885
8.09,2.08
8.1,2.08
8.11,2.08
8.12,2.08
8.13,2.21
8.14,2.21
8.15,2.795
8.16,2.795
8.17,3.445
8.18,3.445
8.19,2.925
8.2,2.925
8.21,2.405
8.22,2.405
8.23,1.885
8.24,1.885
8.25,1.625
8.26,1.625
8.27,1.82
8.28,1.82
8.29,1.56
8.3,1.56
8.31,1.43
8.32,1.43
8.33,1.755
8.34,1.755
8.35,2.21
8.36,2.21
8.37,2.015
8.38,2.015
8.39,1.755
8.4,1.755
8.41,1.95
8.42,1.95
8.43,2.21
8.44,2.21
8.45,2.21
8.46,2.21
8.47,1.95
8.48,1.95
8.49,1.69
8.5,1.69
8.51,1.69
8.52,1.69
8.53,1.95
8.54,1.95
8.55,1.82
8.56,1.82
8.57,1.365
8.58,1.365
8.59,1.365
8.6,1.365
8.61,1.365
8.62,1.365
8.63,1.365
8.64,1.365
8.65,1.495
8.66,1.495
8.67,1.69
8.68,1.69
8.69,2.08
8.7,2.08
8.71,2.47
8.72,2.47
8.73,2.47
8.74,2.47
8.75,2.08
8.76,2.08
8.77,2.21
8.78,2.21
8.79,2.47
8.8,2.47
8.81,2.6
8.82,2.6
8.83,2.665
8.84,2.665
8.85,2.275
8.86,2.275
8.87,2.21
8.88,2.21
8.89,2.6
8.9,2.6
8.91,2.405
8.92,2.405
8.93,2.405
8.94,2.405
8.95,2.535
8.96,2.535
8.97,2.535
8.98,2.535
8.99,2.795
9.,2.795
9.01,2.925
9.02,2.925
9.03,3.12
9.04,3.12
9.05,3.25
9.06,3.25
9.07,2.925
9.08,2.925
9.09,2.73
9.1,2.73
9.11,2.665
9.12,2.665
9.13,3.055
9.14,3.055
9.15,3.445
9.16,3.445
9.17,3.51
9.18,3.51
9.19,3.25
9.2,3.25
9.21,3.055
9.22,3.055
9.23,3.12
9.24,3.12
9.25,2.795
9.26,2.795
9.27,3.185
9.28,3.185
9.29,3.705
9.3,3.705
9.31,3.315
9.32,3.315
9.33,2.99
9.34,2.99
9.35,2.405
9.36,2.405
9.37,1.495
9.38,1.495
9.39,1.82
9.4,1.82
9.41,2.21
9.42,2.21
9.43,2.08
9.44,2.08
9.45,2.015
9.46,2.015
9.47,2.145
9.48,2.145
9.49,2.34
9.5,2.34
9.51,2.08
9.52,2.08
9.53,2.145
9.54,2.145
9.55,2.405
9.56,2.405
9.57,2.47
9.58,2.47
9.59,2.21
9.6,2.21
9.61,1.625
9.62,1.625
9.63,1.82
9.64,1.82
9.65,2.21
9.66,2.21
9.67,2.73
9.68,2.73
9.69,2.795
9.7,2.795
9.71,3.055
9.72,3.055
9.73,3.575
9.74,3.575
9.75,3.185
9.76,3.185
9.77,2.99
9.78,2.99
9.79,3.055
9.8,3.055
9.81,3.12
9.82,3.12
9.83,2.73
9.84,2.73
9.85,2.21
9.86,2.21
9.87,1.95
9.88,1.95
9.89,1.885
9.9,1.885
9.91,2.145
9.92,2.145
9.93,2.405
9.94,2.405
9.95,2.665
9.96,2.665
9.97,3.055
9.98,3.055
9.99,3.12
10.,3.12
