t,s,e,i,r,c,o,n,reff,coal,reportr
5.,6250.,5.,3.,3734.,0.,0.,9992.,0.902164038923,9.3825060048,65.
5.02,6256.,6.,1.,3727.,0.,0.,9990.,0.903210903211,7.82782782783,78.
5.04,6266.,4.,0.,3727.,0.,0.,9997.,0.904021206362,11.7522756827,52.
5.06,6275.,6.,2.,3714.,0.,0.,9997.,0.905319672825,7.84610383115,78.
5.08,6287.,5.,2.,3705.,0.,0.,9999.,0.906869533107,9.43144314431,65.
5.1,6286.,9.,2.,3701.,0.,0.,9998.,0.90681597858,5.23938120958,117.
5.12,6288.,11.,7.,3693.,0.,0.,9999.,0.907013778301,4.28770149742,143.
5.14,6292.,12.,10.,3689.,0.,0.,10003.,0.907227831651,3.93132060382,156.
5.16,6291.,14.,10.,3688.,0.,0.,10003.,0.907083644138,3.36916782108,182.
5.18,6290.,14.,7.,3690.,0.,0.,10001.,0.907120826379,3.36930592655,182.
5.2,6293.,11.,7.,3693.,0.,0.,10004.,0.907281318242,4.28896623169,143.
5.22,6296.,7.,8.,3693.,0.,0.,10004.,0.907713837542,6.74301707888,91.
5.24,6296.,13.,5.,3690.,0.,0.,10004.,0.907713837542,3.63085535017,169.
5.26,6298.,9.,5.,3689.,0.,0.,10001.,0.90827455716,5.24780855248,117.
5.28,6304.,10.,9.,3679.,0.,0.,10002.,0.909048959439,4.72705458908,130.
5.3,6303.,6.,5.,3688.,0.,0.,10002.,0.90890475751,7.87717456509,78.
5.32,6309.,7.,2.,3683.,0.,0.,10001.,0.909860936983,6.75896696045,91.
5.34,6319.,4.,2.,3677.,0.,0.,10002.,0.911211988372,11.8457558488,52.
5.36,6322.,4.,3.,3672.,0.,0.,10001.,0.911735749502,11.8525647435,52.
5.38,6320.,3.,7.,3667.,0.,0.,9997.,0.91181200514,15.8047414224,39.
5.4,6323.,6.,3.,3665.,0.,0.,9997.,0.912244827294,7.90612183655,78.
5.42,6329.,5.,6.,3660.,0.,0.,10000.,0.912836538462,9.4935,65.
5.44,6339.,6.,4.,3655.,0.,0.,10004.,0.913913280842,7.92058176729,78.
5.46,6335.,9.,4.,3652.,0.,0.,10000.,0.913701923077,5.27916666667,117.
5.48,6343.,9.,1.,3647.,0.,0.,10000.,0.914855769231,5.28583333333,117.
5.5,6353.,3.,5.,3637.,0.,0.,9998.,0.916481373198,15.8856771354,39.
5.52,6348.,7.,3.,3639.,0.,0.,9997.,0.91585167858,6.80346961231,91.
5.54,6357.,7.,2.,3628.,0.,0.,9994.,0.917425455273,6.81516052489,91.
5.56,6359.,6.,4.,3625.,0.,0.,9994.,0.917714089992,7.95352211327,78.
5.58,6362.,10.,5.,3618.,0.,0.,9995.,0.918055181437,4.77388694347,130.
5.6,6371.,9.,3.,3616.,0.,0.,9999.,0.918986129382,5.30969763643,117.
5.62,6376.,6.,4.,3612.,0.,0.,9998.,0.919799344484,7.97159431886,78.
5.64,6379.,7.,5.,3609.,0.,0.,10000.,0.920048076923,6.83464285714,91.
5.66,6383.,9.,7.,3604.,0.,0.,10003.,0.920348895331,5.31757139525,117.
5.68,6377.,13.,6.,3603.,0.,0.,9999.,0.919851600545,3.67940640218,169.
5.7,6378.,13.,4.,3605.,0.,0.,10000.,0.919903846154,3.67961538462,169.
5.72,6382.,12.,6.,3602.,0.,0.,10002.,0.920296709889,3.98795240952,156.
5.74,6382.,14.,4.,3600.,0.,0.,10000.,0.920480769231,3.41892857143,182.
5.76,6383.,10.,7.,3598.,0.,0.,9998.,0.920809161832,4.78820764153,130.
5.78,6378.,12.,11.,3598.,0.,0.,9999.,0.919995845738,3.98664866487,156.
5.8,6370.,23.,6.,3600.,0.,0.,9999.,0.918841884188,2.07738165121,299.
5.82,6373.,24.,4.,3597.,0.,0.,9998.,0.919366565621,1.99196089218,312.
5.84,6375.,16.,8.,3598.,0.,0.,9997.,0.91974707797,2.9891780034,208.
5.86,6366.,17.,6.,3603.,0.,0.,9992.,0.918908203486,2.81077803419,221.
5.88,6364.,17.,4.,3605.,0.,0.,9990.,0.918803418803,2.81045751634,221.
5.9,6364.,12.,7.,3606.,0.,0.,9989.,0.918895400325,3.98188006807,156.
5.92,6363.,19.,5.,3600.,0.,0.,9987.,0.918935000116,2.51498000032,247.
5.94,6366.,16.,7.,3598.,0.,0.,9987.,0.919368255655,2.98794683088,208.
5.96,6368.,17.,4.,3595.,0.,0.,9984.,0.919933431953,2.81391402715,221.
5.98,6366.,19.,7.,3591.,0.,0.,9983.,0.919736629193,2.51717393253,247.
6.,6364.,15.,12.,3592.,0.,0.,9983.,0.919447676435,3.18741861164,195.
6.02,6363.,20.,6.,3594.,0.,0.,9983.,0.919303200055,2.39018832014,260.
6.04,6358.,18.,11.,3597.,0.,0.,9984.,0.91848881287,2.65341212607,234.
6.06,6358.,19.,11.,3594.,0.,0.,9982.,0.918672841885,2.51426251463,247.
6.08,6347.,28.,15.,3591.,0.,0.,9981.,0.917175325426,1.70332560436,364.
6.1,6348.,26.,22.,3588.,0.,0.,9984.,0.917044193787,1.83408838757,338.
6.12,6337.,32.,15.,3600.,0.,0.,9984.,0.915455112796,1.48761455829,416.
6.14,6324.,32.,18.,3610.,0.,0.,9984.,0.913577107988,1.48456280048,416.
6.16,6313.,34.,18.,3620.,0.,0.,9985.,0.911896691191,1.3946655277,442.
6.18,6307.,35.,14.,3628.,0.,0.,9984.,0.911121255547,1.35366586538,455.
6.2,6303.,29.,21.,3631.,0.,0.,9984.,0.910543407914,1.63269852454,377.
6.22,6283.,37.,16.,3645.,0.,0.,9981.,0.907926984347,1.27600549151,481.
6.24,6268.,41.,17.,3655.,0.,0.,9981.,0.905759404407,1.1487680251,533.
6.26,6259.,41.,14.,3666.,0.,0.,9980.,0.904549483583,1.14723349137,533.
6.28,6252.,34.,18.,3674.,0.,0.,9978.,0.903718950923,1.38215839553,442.
6.3,6235.,37.,24.,3685.,0.,0.,9981.,0.900990728538,1.26625724011,481.
6.32,6219.,41.,9.,3711.,0.,0.,9980.,0.898768691229,1.13990175473,533.
6.34,6203.,40.,25.,3708.,0.,0.,9976.,0.896815819505,1.16586056536,520.
6.36,6186.,48.,9.,3731.,0.,0.,9974.,0.894537335534,0.969082113495,624.
6.38,6185.,39.,20.,3729.,0.,0.,9973.,0.8944824102,1.1926432136,507.
6.4,6175.,36.,25.,3739.,0.,0.,9975.,0.892857142857,1.28968253968,468.
6.42,6148.,49.,20.,3757.,0.,0.,9974.,0.889042279157,0.943473439105,637.
6.44,6129.,43.,29.,3773.,0.,0.,9974.,0.886294750968,1.0717983035,559.
6.46,6112.,49.,26.,3788.,0.,0.,9975.,0.883747831116,0.937854841185,637.
6.48,6087.,52.,32.,3806.,0.,0.,9977.,0.87995659247,0.87995659247,676.
6.5,6066.,56.,30.,3823.,0.,0.,9975.,0.877096587623,0.814446831364,728.
6.52,6037.,61.,26.,3848.,0.,0.,9972.,0.873166018699,0.744338245448,793.
6.54,6028.,52.,24.,3867.,0.,0.,9971.,0.87195173696,0.87195173696,676.
6.56,6004.,49.,26.,3888.,0.,0.,9967.,0.868828673083,0.922022265312,637.
6.58,5981.,50.,26.,3909.,0.,0.,9966.,0.865587227342,0.900210716436,650.
6.6,5963.,57.,18.,3932.,0.,0.,9970.,0.862635984878,0.786966161643,741.
6.62,5961.,37.,27.,3947.,0.,0.,9972.,0.86217370175,1.21170358084,481.
6.64,5945.,43.,22.,3961.,0.,0.,9971.,0.859945765798,1.03993441445,559.
6.66,5939.,39.,21.,3972.,0.,0.,9971.,0.859077864268,1.14543715236,507.
6.68,5934.,27.,18.,3989.,0.,0.,9968.,0.858612946043,1.65362493312,351.
6.7,5937.,29.,12.,3993.,0.,0.,9971.,0.858788563758,1.53989673501,377.
6.72,5936.,25.,11.,4000.,0.,0.,9972.,0.858557808016,1.78580024067,325.
6.74,5927.,35.,7.,4003.,0.,0.,9972.,0.857256086272,1.27363761389,455.
6.76,5930.,20.,14.,4005.,0.,0.,9969.,0.85794810065,2.23066506169,260.
6.78,5926.,21.,11.,4012.,0.,0.,9970.,0.857283388627,2.12279696232,273.
6.8,5924.,16.,10.,4020.,0.,0.,9970.,0.8569940591,2.78523069208,208.
6.82,5925.,14.,3.,4023.,0.,0.,9965.,0.857568798487,3.18525553724,182.
6.84,5934.,15.,5.,4014.,0.,0.,9968.,0.858612946043,2.97652487961,195.
6.86,5940.,8.,12.,4008.,0.,0.,9968.,0.859481108779,5.58662720706,104.
6.88,5948.,11.,4.,4008.,0.,0.,9971.,0.860379716563,4.06724956921,143.
6.9,5950.,6.,10.,4005.,0.,0.,9971.,0.860669017073,7.4591314813,78.
6.92,5953.,7.,10.,4001.,0.,0.,9971.,0.861102967837,6.39676490394,91.
6.94,5955.,9.,5.,4002.,0.,0.,9971.,0.861392268347,4.97693310601,117.
6.96,5962.,10.,1.,3997.,0.,0.,9970.,0.862491320114,4.48495486459,130.
6.98,5965.,11.,1.,3993.,0.,0.,9970.,0.862925314405,4.07928330446,143.
7.,5973.,9.,4.,3982.,0.,0.,9968.,0.864256003828,4.99347913323,117.
7.02,5976.,9.,2.,3980.,0.,0.,9967.,0.864776840497,4.99648841176,117.
7.04,5981.,8.,5.,3978.,0.,0.,9972.,0.865066416736,5.62293170878,104.
7.06,5979.,8.,5.,3980.,0.,0.,9972.,0.864777145237,5.62105144404,104.
7.08,5974.,13.,4.,3981.,0.,0.,9972.,0.864053966491,3.45621586596,169.
7.1,5978.,12.,7.,3974.,0.,0.,9971.,0.864719224212,3.74711663825,156.
7.12,5983.,7.,7.,3971.,0.,0.,9968.,0.865702941721,6.4309361385,91.
7.14,5985.,10.,4.,3967.,0.,0.,9966.,0.86616611865,4.50406381698,130.
7.16,5987.,8.,4.,3965.,0.,0.,9964.,0.866629481518,5.63309162987,104.
7.18,5990.,10.,0.,3967.,0.,0.,9967.,0.86680275679,4.50737433531,130.
7.2,6002.,9.,2.,3955.,0.,0.,9968.,0.868452123719,5.01772338149,117.
7.22,6014.,9.,2.,3942.,0.,0.,9967.,0.870275756149,5.02825992442,117.
7.24,6023.,7.,1.,3937.,0.,0.,9968.,0.871490693295,6.47393086448,91.
7.26,6027.,5.,3.,3927.,0.,0.,9962.,0.872594706037,9.07498494278,65.
7.28,6040.,5.,1.,3916.,0.,0.,9962.,0.874476858215,9.09455932544,65.
7.3,6049.,3.,4.,3909.,0.,0.,9965.,0.875516229882,15.1756146513,39.
7.32,6050.,4.,7.,3905.,0.,0.,9966.,0.875573102394,11.3824503311,52.
7.34,6058.,9.,1.,3900.,0.,0.,9968.,0.876554975923,5.06453986089,117.
7.36,6063.,10.,3.,3891.,0.,0.,9967.,0.877366463175,4.56230560851,130.
7.38,6059.,11.,6.,3891.,0.,0.,9967.,0.876787629948,4.14481425066,143.
7.4,6061.,13.,3.,3886.,0.,0.,9963.,0.877429180275,3.5097167211,169.
7.42,6065.,9.,7.,3882.,0.,0.,9963.,0.878008245894,5.07293653183,117.
7.44,6068.,9.,3.,3877.,0.,0.,9957.,0.878971886806,5.07850423488,117.
7.46,6074.,7.,4.,3866.,0.,0.,9951.,0.88037151272,6.53990266592,91.
7.48,6079.,12.,3.,3859.,0.,0.,9953.,0.880919166235,3.81731638702,156.
7.5,6085.,12.,0.,3858.,0.,0.,9955.,0.88161148244,3.82031642391,156.
7.52,6086.,9.,7.,3854.,0.,0.,9956.,0.881667799858,5.0940806214,117.
7.54,6092.,7.,6.,3852.,0.,0.,9957.,0.882448374163,6.55533077949,91.
7.56,6093.,11.,2.,3852.,0.,0.,9958.,0.882504596227,4.17183990944,143.
7.58,6105.,9.,3.,3842.,0.,0.,9959.,0.88415387705,5.10844462295,117.
7.6,6113.,7.,2.,3834.,0.,0.,9956.,0.885579240968,6.57858864719,91.
7.62,6114.,5.,5.,3833.,0.,0.,9957.,0.88563515424,9.2106056041,65.
7.64,6119.,10.,4.,3826.,0.,0.,9959.,0.886181420748,4.60814338789,130.
7.66,6124.,10.,3.,3824.,0.,0.,9961.,0.886727467894,4.61098283305,130.
7.68,6134.,8.,5.,3816.,0.,0.,9963.,0.887997127835,5.77198133092,104.
7.7,6147.,10.,4.,3805.,0.,0.,9966.,0.889611216598,4.62597832631,130.
7.72,6148.,16.,7.,3798.,0.,0.,9969.,0.889488182597,2.89083659344,208.
7.74,6149.,12.,12.,3797.,0.,0.,9970.,0.889543630893,3.8546890672,156.
7.76,6142.,14.,6.,3807.,0.,0.,9969.,0.888620106947,3.30058896866,182.
7.78,6141.,16.,14.,3798.,0.,0.,9969.,0.888475427672,2.88754513993,208.
7.8,6137.,17.,10.,3800.,0.,0.,9964.,0.888342262916,2.71728221598,221.
7.82,6140.,14.,10.,3799.,0.,0.,9963.,0.888865726264,3.30150126898,182.
7.84,6144.,11.,9.,3799.,0.,0.,9963.,0.889444791884,4.20464810709,143.
7.86,6136.,17.,11.,3799.,0.,0.,9963.,0.888286660644,2.71711213844,221.
7.88,6128.,21.,10.,3804.,0.,0.,9963.,0.887128529405,2.19669921567,273.
7.9,6124.,23.,6.,3810.,0.,0.,9963.,0.886549463785,2.00437270073,299.
7.92,6126.,15.,8.,3813.,0.,0.,9962.,0.886928018779,3.07468379843,195.
7.94,6130.,17.,7.,3809.,0.,0.,9963.,0.887418062215,2.71445524913,221.
7.96,6130.,15.,14.,3806.,0.,0.,9965.,0.887239955228,3.07576517812,195.
7.98,6130.,16.,18.,3799.,0.,0.,9963.,0.887418062215,2.8841087022,208.
8.,6123.,19.,15.,3802.,0.,0.,9959.,0.886760718948,2.42692407291,247.
8.02,6121.,21.,14.,3806.,0.,0.,9962.,0.886204114095,2.19441018728,273.
8.04,6111.,29.,10.,3811.,0.,0.,9961.,0.884845126764,1.58661884799,377.
8.06,6110.,26.,11.,3818.,0.,0.,9965.,0.884345208229,1.76869041646,338.
8.08,6113.,27.,8.,3823.,0.,0.,9971.,0.884247008633,1.70299423885,351.
8.1,6108.,27.,9.,3823.,0.,0.,9967.,0.883878336974,1.70228420454,351.
8.12,6099.,31.,17.,3820.,0.,0.,9967.,0.882575962214,1.48045000113,403.
8.14,6091.,34.,20.,3822.,0.,0.,9967.,0.881418295761,1.34805151116,442.
8.16,6081.,35.,24.,3829.,0.,0.,9969.,0.879794671173,1.30712351146,455.
8.18,6073.,36.,19.,3841.,0.,0.,9969.,0.878637236973,1.26914267563,468.
8.2,6064.,29.,18.,3861.,0.,0.,9972.,0.87707118393,1.57267936429,377.
8.22,6056.,27.,22.,3867.,0.,0.,9972.,0.875914097936,1.6869456701,351.
8.24,6038.,33.,22.,3878.,0.,0.,9971.,0.87339823951,1.37626389256,429.
8.26,6026.,41.,18.,3887.,0.,0.,9972.,0.871575025456,1.10541222741,533.
8.28,6023.,38.,18.,3900.,0.,0.,9979.,0.870530036153,1.19125162842,494.
8.3,6022.,31.,23.,3903.,0.,0.,9979.,0.870385501862,1.46000148699,403.
8.32,6011.,32.,19.,3918.,0.,0.,9980.,0.868708570988,1.41165142786,416.
8.34,6012.,25.,25.,3918.,0.,0.,9980.,0.868853090797,1.80721442886,325.
8.36,5999.,30.,18.,3933.,0.,0.,9980.,0.866974333282,1.50275551102,390.
8.38,5993.,29.,18.,3940.,0.,0.,9980.,0.866107214429,1.55301983277,377.
8.4,5991.,26.,16.,3949.,0.,0.,9982.,0.86564469892,1.73128939784,338.
8.42,5981.,33.,13.,3956.,0.,0.,9983.,0.864113223249,1.36163295785,429.
8.44,5985.,29.,13.,3958.,0.,0.,9985.,0.864517930742,1.55017008271,377.
8.46,5977.,30.,11.,3968.,0.,0.,9986.,0.863275893944,1.49634488284,390.
8.48,5983.,22.,20.,3968.,0.,0.,9993.,0.863537168326,2.04108785241,286.
8.5,5982.,21.,13.,3976.,0.,0.,9992.,0.863479244934,2.13813908269,273.
8.52,5977.,21.,15.,3976.,0.,0.,9989.,0.863016625981,2.13699355005,273.
8.54,5980.,20.,9.,3983.,0.,0.,9992.,0.863190552442,2.24429543635,260.
8.56,5969.,31.,6.,3986.,0.,0.,9992.,0.861602743733,1.44526911852,403.
8.58,5966.,25.,11.,3987.,0.,0.,9989.,0.861428340405,1.79177094804,325.
8.6,5963.,21.,16.,3988.,0.,0.,9988.,0.861081374573,2.13220149894,273.
8.62,5955.,23.,11.,3996.,0.,0.,9985.,0.860184507531,1.94476497355,299.
8.64,5955.,16.,20.,3996.,0.,0.,9987.,0.86001224669,2.79503980174,208.
8.66,5945.,25.,15.,4003.,0.,0.,9988.,0.858482101599,1.78564277133,325.
8.68,5943.,20.,12.,4012.,0.,0.,9987.,0.85827922453,2.23152598378,260.
8.7,5954.,13.,16.,4007.,0.,0.,9990.,0.85960960961,3.43843843844,169.
8.72,5947.,29.,2.,4012.,0.,0.,9990.,0.858598983599,1.53955679818,377.
8.74,5946.,24.,13.,4006.,0.,0.,9989.,0.858540548449,1.86017118831,312.
8.76,5939.,22.,12.,4015.,0.,0.,9988.,0.857615677274,2.02709160083,286.
8.78,5939.,23.,7.,4020.,0.,0.,9989.,0.857529821265,1.93876307416,299.
8.8,5932.,25.,13.,4016.,0.,0.,9986.,0.856776410051,1.78209493291,325.
8.82,5930.,24.,12.,4023.,0.,0.,9989.,0.856230314885,1.85516568225,312.
8.84,5926.,22.,15.,4027.,0.,0.,9990.,0.855567105567,2.02224952225,286.
8.86,5926.,19.,15.,4031.,0.,0.,9991.,0.855481471786,2.34131771226,247.
8.88,5922.,17.,10.,4039.,0.,0.,9988.,0.855160808355,2.61578600203,221.
8.9,5922.,20.,9.,4035.,0.,0.,9986.,0.855332080297,2.22386340877,260.
8.92,5924.,23.,11.,4032.,0.,0.,9990.,0.855278355278,1.93367280324,299.
8.94,5920.,25.,5.,4043.,0.,0.,9993.,0.854444264832,1.77724407085,325.
8.96,5926.,17.,10.,4039.,0.,0.,9992.,0.855395855146,2.61650496868,221.
8.98,5929.,15.,5.,4043.,0.,0.,9992.,0.855828893884,2.9668734988,195.
9.,5938.,11.,7.,4040.,0.,0.,9996.,0.856785021701,4.05025646622,143.
9.02,5931.,18.,9.,4039.,0.,0.,9997.,0.855689399127,2.47199159748,234.
9.04,5937.,13.,8.,4037.,0.,0.,9995.,0.856726440143,3.42690576057,169.
9.06,5938.,9.,5.,4041.,0.,0.,9993.,0.857042237258,4.95179959305,117.
9.08,5942.,9.,7.,4038.,0.,0.,9996.,0.857362175639,4.95364812592,117.
9.1,5951.,9.,7.,4028.,0.,0.,9995.,0.858746681033,4.96164749041,117.
9.12,5954.,13.,6.,4023.,0.,0.,9996.,0.859093637455,3.43637454982,169.
9.14,5961.,12.,6.,4022.,0.,0.,10001.,0.85967364802,3.72525247475,156.
9.16,5968.,13.,4.,4015.,0.,0.,10000.,0.860769230769,3.44307692308,169.
9.18,5969.,9.,7.,4014.,0.,0.,9999.,0.860999561495,4.97466413308,117.
9.2,5964.,16.,10.,4006.,0.,0.,9996.,0.860536522301,2.79674369748,208.
9.22,5971.,12.,15.,3998.,0.,0.,9996.,0.861546541694,3.73336834734,156.
9.24,5965.,12.,3.,4012.,0.,0.,9992.,0.861025358749,3.73110988791,156.
9.26,5964.,11.,4.,4010.,0.,0.,9989.,0.86113956121,4.07084156208,143.
9.28,5970.,14.,2.,4004.,0.,0.,9990.,0.86191961192,3.20141570142,182.
9.3,5977.,8.,9.,3995.,0.,0.,9989.,0.863016625981,5.60960806888,104.
9.32,5978.,10.,10.,3991.,0.,0.,9989.,0.863161015579,4.48843728101,130.
9.34,5974.,21.,2.,3993.,0.,0.,9990.,0.862497112497,2.13570713571,273.
9.36,5985.,19.,6.,3983.,0.,0.,9993.,0.863825831929,2.36415490844,247.
9.38,5985.,20.,7.,3978.,0.,0.,9990.,0.864085239085,2.24662162162,260.
9.4,5989.,20.,9.,3970.,0.,0.,9988.,0.864835879979,2.24857328795,260.
9.42,5990.,16.,11.,3967.,0.,0.,9984.,0.865326830621,2.81231219952,208.
9.44,5985.,19.,9.,3970.,0.,0.,9983.,0.864691128765,2.36652308925,247.
9.46,5988.,20.,6.,3973.,0.,0.,9987.,0.864778057629,2.24842294983,260.
9.48,5985.,13.,14.,3975.,0.,0.,9987.,0.864344802089,3.45737920836,169.
9.5,5975.,17.,10.,3982.,0.,0.,9984.,0.863159901997,2.64025381787,221.
9.52,5968.,18.,9.,3990.,0.,0.,9985.,0.862062324256,2.49040227007,234.
9.54,5980.,17.,5.,3987.,0.,0.,9989.,0.863449794774,2.64114054872,221.
9.56,5982.,12.,5.,3992.,0.,0.,9991.,0.863565670642,3.74211790612,156.
9.58,5982.,16.,3.,3991.,0.,0.,9992.,0.863479244934,2.80630754604,208.
9.6,5977.,19.,10.,3986.,0.,0.,9992.,0.862757513703,2.36123109014,247.
9.62,5975.,22.,11.,3979.,0.,0.,9987.,0.862900616956,2.03958327644,286.
9.64,5968.,18.,21.,3978.,0.,0.,9985.,0.862062324256,2.49040227007,234.
9.66,5971.,25.,6.,3984.,0.,0.,9986.,0.862409296091,1.79381133587,325.
9.68,5972.,24.,7.,3988.,0.,0.,9991.,0.862122063703,1.86793113802,312.
9.7,5972.,17.,13.,3989.,0.,0.,9991.,0.862122063703,2.63707925368,221.
9.72,5981.,14.,14.,3983.,0.,0.,9992.,0.863334898688,3.20667248084,182.
9.74,5979.,17.,6.,3986.,0.,0.,9988.,0.863391839438,2.64096327358,221.
9.76,5984.,15.,7.,3983.,0.,0.,9989.,0.864027353165,2.99529482431,195.
9.78,5980.,14.,10.,3982.,0.,0.,9986.,0.86370919287,3.20806271637,182.
9.8,5980.,16.,6.,3987.,0.,0.,9989.,0.863449794774,2.80621183302,208.
9.82,5983.,7.,14.,3984.,0.,0.,9988.,0.863969455654,6.41805881343,91.
9.84,5977.,11.,10.,3990.,0.,0.,9988.,0.86310303133,4.08012342083,143.
9.86,5985.,7.,10.,3986.,0.,0.,9988.,0.864258263763,6.42020424509,91.
9.88,5982.,13.,11.,3983.,0.,0.,9989.,0.86373857397,3.45495429588,169.
9.9,5981.,15.,11.,3983.,0.,0.,9990.,0.863507738508,2.99349349349,195.
9.92,5973.,22.,10.,3986.,0.,0.,9991.,0.862266424397,2.03808427585,286.
9.94,5972.,23.,13.,3984.,0.,0.,9992.,0.862035782472,1.94895046472,299.
9.96,5972.,22.,11.,3982.,0.,0.,9987.,0.862467361416,2.03855921789,286.
9.98,5978.,21.,8.,3984.,0.,0.,9991.,0.862988227867,2.13692323091,273.
10.,5975.,21.,13.,3981.,0.,0.,9990.,0.862641487641,2.13606463606,273.
