t,cases
5.01,0.65
5.02,0.65
5.03,0.715
5.04,0.715
5.05,0.845
5.06,0.845
5.07,0.845
5.08,0.845
5.09,0.715
5.1,0.715
5.11,0.715
5.12,0.715
5.13,1.04
5.14,1.04
5.15,1.365
5.16,1.365
5.17,1.3
5.18,1.3
5.19,1.105
5.2,1.105
5.21,1.04
5.22,1.04
5.23,1.365
5.24,1.365
5.25,1.3
5.26,1.3
5.27,1.43
5.28,1.43
5.29,1.625
5.3,1.625
5.31,1.365
5.32,1.365
5.33,1.56
5.34,1.56
5.35,1.495
5.36,1.495
5.37,1.3
5.38,1.3
5.39,1.365
5.4,1.365
5.41,1.235
5.42,1.235
5.43,1.105
5.44,1.105
5.45,1.04
5.46,1.04
5.47,0.975
5.48,0.975
5.49,0.975
5.5,0.975
5.51,1.04
5.52,1.04
5.53,1.43
5.54,1.43
5.55,1.625
5.56,1.625
5.57,1.3
5.58,1.3
5.59,1.17
5.6,1.17
5.61,1.625
5.62,1.625
5.63,1.755
5.64,1.755
5.65,1.43
5.66,1.43
5.67,1.235
5.68,1.235
5.69,1.235
5.7,1.235
5.71,1.17
5.72,1.17
5.73,1.235
5.74,1.235
5.75,1.3
5.76,1.3
5.77,1.04
5.78,1.04
5.79,0.975
5.8,0.975
5.81,0.78
5.82,0.78
5.83,0.715
5.84,0.715
5.85,1.235
5.86,1.235
5.87,1.43
5.88,1.43
5.89,1.105
5.9,1.105
5.91,1.04
5.92,1.04
5.93,1.105
5.94,1.105
5.95,1.3
5.96,1.3
5.97,1.69
5.98,1.69
5.99,1.82
6.,1.82
6.01,1.95
6.02,1.95
6.03,2.405
6.04,2.405
6.05,2.21
6.06,2.21
6.07,1.625
6.08,1.625
6.09,1.82
6.1,1.82
6.11,2.34
6.12,2.34
6.13,2.21
6.14,2.21
6.15,2.08
6.16,2.08
6.17,2.275
6.18,2.275
6.19,2.275
6.2,2.275
6.21,2.275
6.22,2.275
6.23,1.82
6.24,1.82
6.25,1.625
6.26,1.625
6.27,2.08
6.28,2.08
6.29,2.21
6.3,2.21
6.31,2.47
6.32,2.47
6.33,2.99
6.34,2.99
6.35,2.86
6.36,2.86
6.37,2.21
6.38,2.21
6.39,2.08
6.4,2.08
6.41,2.145
6.42,2.145
6.43,1.95
6.44,1.95
6.45,2.535
6.46,2.535
6.47,2.99
6.48,2.99
6.49,2.925
6.5,2.925
6.51,2.925
6.52,2.925
6.53,2.795
6.54,2.795
6.55,2.925
6.56,2.925
6.57,2.86
6.58,2.86
6.59,2.795
6.6,2.795
6.61,2.86
6.62,2.86
6.63,3.055
6.64,3.055
6.65,2.73
6.66,2.73
6.67,2.015
6.68,2.015
6.69,2.145
6.7,2.145
6.71,2.665
6.72,2.665
6.73,2.86
6.74,2.86
6.75,2.6
6.76,2.6
6.77,2.405
6.78,2.405
6.79,2.21
6.8,2.21
6.81,2.145
6.82,2.145
6.83,2.21
6.84,2.21
6.85,2.73
6.86,2.73
6.87,3.315
6.88,3.315
6.89,3.315
6.9,3.315
6.91,3.055
6.92,3.055
6.93,2.795
6.94,2.795
6.95,2.925
6.96,2.925
6.97,3.185
6.98,3.185
6.99,2.925
7.,2.925
7.01,2.535
7.02,2.535
7.03,2.535
7.04,2.535
7.05,3.055
7.06,3.055
7.07,3.25
7.08,3.25
7.09,2.99
7.1,2.99
7.11,3.25
7.12,3.25
7.13,3.77
7.14,3.77
7.15,4.03
7.16,4.03
7.17,4.095
7.18,4.095
7.19,4.875
7.2,4.875
7.21,5.2
7.22,5.2
7.23,4.55
7.24,4.55
7.25,4.42
7.26,4.42
7.27,4.355
7.28,4.355
7.29,4.485
7.3,4.485
7.31,5.07
7.32,5.07
7.33,5.46
7.34,5.46
7.35,5.59
7.36,5.59
7.37,5.46
7.38,5.46
7.39,5.005
7.4,5.005
7.41,5.07
7.42,5.07
7.43,5.135
7.44,5.135
7.45,4.94
7.46,4.94
7.47,4.55
7.48,4.55
7.49,4.095
7.5,4.095
7.51,3.705
7.52,3.705
7.53,3.51
7.54,3.51
7.55,3.965
7.56,3.965
7.57,3.835
7.58,3.835
7.59,3.315
7.6,3.315
7.61,3.185
7.62,3.185
7.63,3.055
7.64,3.055
7.65,2.925
7.66,2.925
7.67,2.86
7.68,2.86
7.69,2.73
7.7,2.73
7.71,2.795
7.72,2.795
7.73,2.6
7.74,2.6
7.75,2.145
7.76,2.145
7.77,2.275
7.78,2.275
7.79,2.925
7.8,2.925
7.81,2.86
7.82,2.86
7.83,2.405
7.84,2.405
7.85,2.145
7.86,2.145
7.87,1.82
7.88,1.82
7.89,1.755
7.9,1.755
7.91,1.95
7.92,1.95
7.93,2.015
7.94,2.015
7.95,2.08
7.96,2.08
7.97,2.275
7.98,2.275
7.99,1.95
8.,1.95
8.01,1.755
8.02,1.755
8.03,1.82
8.04,1.82
8.05,1.82
8.06,1.82
8.07,2.145
8.08,2.145
8.09,1.95
8.1,1.95
8.11,1.82
8.12,1.82
8.13,2.08
8.14,2.08
8.15,2.275
8.16,2.275
8.17,1.885
8.18,1.885
8.19,1.625
8.2,1.625
8.21,2.145
8.22,2.145
8.23,2.6
8.24,2.6
8.25,2.47
8.26,2.47
8.27,2.08
8.28,2.08
8.29,1.885
8.3,1.885
8.31,1.56
8.32,1.56
8.33,1.43
8.34,1.43
8.35,1.3
8.36,1.3
8.37,0.975
8.38,0.975
8.39,1.235
8.4,1.235
8.41,1.69
8.42,1.69
8.43,1.755
8.44,1.755
8.45,1.82
8.46,1.82
8.47,1.82
8.48,1.82
8.49,1.43
8.5,1.43
8.51,1.105
8.52,1.105
8.53,1.04
8.54,1.04
8.55,0.78
8.56,0.78
8.57,0.91
8.58,0.91
8.59,1.17
8.6,1.17
8.61,1.105
8.62,1.105
8.63,0.715
8.64,0.715
8.65,1.105
8.66,1.105
8.67,1.43
8.68,1.43
8.69,1.17
8.7,1.17
8.71,1.3
8.72,1.3
8.73,1.365
8.74,1.365
8.75,1.82
8.76,1.82
8.77,2.145
8.78,2.145
8.79,2.21
8.8,2.21
8.81,2.08
8.82,2.08
8.83,2.21
8.84,2.21
8.85,2.47
8.86,2.47
8.87,2.925
8.88,2.925
8.89,3.38
8.9,3.38
8.91,3.185
8.92,3.185
8.93,3.055
8.94,3.055
8.95,2.47
8.96,2.47
8.97,2.47
8.98,2.47
8.99,2.535
9.,2.535
9.01,2.86
9.02,2.86
9.03,3.315
9.04,3.315
9.05,2.86
9.06,2.86
9.07,2.795
9.08,2.795
9.09,2.73
9.1,2.73
9.11,2.795
9.12,2.795
9.13,2.795
9.14,2.795
9.15,2.925
9.16,2.925
9.17,2.795
9.18,2.795
9.19,2.73
9.2,2.73
9.21,3.575
9.22,3.575
9.23,3.12
9.24,3.12
9.25,3.25
9.26,3.25
9.27,3.9
9.28,3.9
9.29,3.185
9.3,3.185
9.31,3.38
9.32,3.38
9.33,3.9
9.34,3.9
9.35,4.355
9.36,4.355
9.37,4.68
9.38,4.68
9.39,4.81
9.4,4.81
9.41,4.81
9.42,4.81
9.43,4.095
9.44,4.095
9.45,3.575
9.46,3.575
9.47,3.835
9.48,3.835
9.49,4.03
9.5,4.03
9.51,4.225
9.52,4.225
9.53,4.16
9.54,4.16
9.55,3.575
9.56,3.575
9.57,3.835
9.58,3.835
9.59,3.9
9.6,3.9
9.61,3.51
9.62,3.51
9.63,3.315
9.64,3.315
9.65,2.405
9.66,2.405
9.67,1.82
9.68,1.82
9.69,2.015
9.7,2.015
9.71,1.95
9.72,1.95
9.73,1.69
9.74,1.69
9.75,1.43
9.76,1.43
9.77,1.495
9.78,1.495
9.79,1.495
9.8,1.495
9.81,1.56
9.82,1.56
9.83,1.43
9.84,1.43
9.85,0.975
9.86,0.975
9.87,0.975
9.88,0.975
9.89,1.235
9.9,1.235
9.91,1.17
9.92,1.17
9.93,0.78
9.94,0.78
9.95,1.43
9.96,1.43
9.97,1.755
9.98,1.755
9.99,1.235
10.,1.235
