t,s,e,i,r,c,o,n,reff,coal,reportr
5.,6250.,5.,3.,3734.,0.,0.,9992.,0.902164038923,9.3825060048,65.
5.02,6252.,7.,2.,3730.,0.,0.,9991.,0.902543057983,6.70460557359,91.
5.04,6254.,7.,4.,3724.,0.,0.,9989.,0.903012544568,6.70809318822,91.
5.06,6258.,4.,4.,3719.,0.,0.,9985.,0.903952081969,11.7513770656,52.
5.08,6270.,7.,2.,3708.,0.,0.,9987.,0.905504078379,6.7266017251,91.
5.1,6273.,8.,3.,3699.,0.,0.,9983.,0.906300325939,5.8909521186,104.
5.12,6282.,9.,4.,3693.,0.,0.,9988.,0.907146267829,5.24128954746,117.
5.14,6284.,8.,4.,3691.,0.,0.,9987.,0.907525937565,5.89891859417,104.
5.16,6287.,7.,6.,3685.,0.,0.,9985.,0.90814105774,6.74619071464,91.
5.18,6287.,10.,5.,3686.,0.,0.,9988.,0.9078682881,4.72091509812,130.
5.2,6296.,11.,3.,3678.,0.,0.,9988.,0.909167924586,4.29788473441,143.
5.22,6305.,6.,9.,3669.,0.,0.,9989.,0.910376414055,7.88992892181,78.
5.24,6299.,16.,2.,3672.,0.,0.,9989.,0.909510076469,2.95590774852,208.
5.26,6304.,15.,5.,3668.,0.,0.,9992.,0.90995873622,3.1545236189,195.
5.28,6306.,16.,9.,3661.,0.,0.,9992.,0.910247428712,2.95830414331,208.
5.3,6297.,27.,5.,3662.,0.,0.,9991.,0.909039289206,1.75074233477,351.
5.32,6296.,26.,12.,3655.,0.,0.,9989.,0.909076907675,1.81815381535,338.
5.34,6288.,28.,15.,3660.,0.,0.,9991.,0.907740042962,1.68580293693,364.
5.36,6288.,24.,12.,3665.,0.,0.,9989.,0.907921790893,1.96716388027,312.
5.38,6273.,26.,15.,3674.,0.,0.,9988.,0.905846631342,1.81169326268,338.
5.4,6271.,27.,12.,3682.,0.,0.,9992.,0.905195310094,1.74333911574,351.
5.42,6268.,26.,9.,3687.,0.,0.,9990.,0.904943404943,1.80988680989,338.
5.44,6271.,19.,20.,3682.,0.,0.,9992.,0.905195310094,2.47737663815,247.
5.46,6262.,21.,23.,3686.,0.,0.,9992.,0.903896193878,2.23821914675,273.
5.48,6252.,34.,15.,3692.,0.,0.,9993.,0.902362422927,1.38008370565,442.
5.5,6241.,36.,17.,3700.,0.,0.,9994.,0.900684641554,1.30098892669,468.
5.52,6228.,34.,22.,3709.,0.,0.,9993.,0.898898459691,1.37478587953,442.
5.54,6220.,27.,22.,3725.,0.,0.,9994.,0.897653977002,1.72881506682,351.
5.56,6201.,37.,22.,3731.,0.,0.,9991.,0.895180662596,1.25809174203,481.
5.58,6191.,38.,25.,3738.,0.,0.,9992.,0.893647610396,1.2228862037,494.
5.6,6186.,34.,15.,3754.,0.,0.,9989.,0.893194051919,1.36606149117,442.
5.62,6174.,29.,19.,3762.,0.,0.,9984.,0.891907821746,1.59928299072,377.
5.64,6162.,40.,9.,3775.,0.,0.,9986.,0.889995994392,1.15699479271,520.
5.66,6156.,30.,17.,3782.,0.,0.,9985.,0.889218443049,1.54131196795,390.
5.68,6143.,25.,21.,3795.,0.,0.,9984.,0.887429502589,1.84585336538,325.
5.7,6126.,35.,15.,3801.,0.,0.,9977.,0.885594559795,1.31574048884,455.
5.72,6109.,41.,20.,3806.,0.,0.,9976.,0.883225510456,1.12018845229,533.
5.74,6094.,45.,21.,3815.,0.,0.,9975.,0.881145170619,1.01821219716,585.
5.76,6084.,42.,21.,3827.,0.,0.,9974.,0.879787447363,1.08926064912,546.
5.78,6070.,42.,23.,3836.,0.,0.,9971.,0.878027047669,1.08708110664,546.
5.8,6057.,38.,15.,3860.,0.,0.,9970.,0.876234472649,1.19905769941,494.
5.82,6060.,26.,19.,3863.,0.,0.,9968.,0.876844363502,1.753688727,338.
5.84,6052.,29.,14.,3873.,0.,0.,9968.,0.875686813187,1.57019704433,377.
5.86,6060.,26.,9.,3876.,0.,0.,9971.,0.876580545119,1.75316109024,338.
5.88,6065.,23.,9.,3874.,0.,0.,9971.,0.877303796394,1.98346945272,299.
5.9,6067.,17.,14.,3874.,0.,0.,9972.,0.877505091178,2.68413322008,221.
5.92,6061.,24.,6.,3882.,0.,0.,9973.,0.876549375622,1.89919031385,312.
5.94,6065.,12.,12.,3884.,0.,0.,9973.,0.877127860608,3.80088739597,156.
5.96,6063.,16.,10.,3885.,0.,0.,9974.,0.876750705681,2.84943979346,208.
5.98,6059.,19.,7.,3890.,0.,0.,9975.,0.876084441874,2.39770478829,247.
6.,6062.,17.,5.,3889.,0.,0.,9973.,0.876693996868,2.68165222572,221.
6.02,6063.,16.,5.,3888.,0.,0.,9972.,0.876926548181,2.85001128159,208.
6.04,6070.,14.,6.,3883.,0.,0.,9973.,0.877850966841,3.26058930541,182.
6.06,6070.,13.,8.,3884.,0.,0.,9975.,0.877674956622,3.51069982649,169.
6.08,6067.,16.,8.,3884.,0.,0.,9975.,0.877241179873,2.85103383459,208.
6.1,6065.,17.,7.,3885.,0.,0.,9974.,0.877039919174,2.682710341,221.
6.12,6066.,17.,8.,3882.,0.,0.,9973.,0.877272481855,2.6834217092,221.
6.14,6069.,19.,7.,3881.,0.,0.,9976.,0.877442400222,2.40142130587,247.
6.16,6076.,16.,8.,3879.,0.,0.,9979.,0.878190353589,2.85411864916,208.
6.18,6065.,23.,11.,3877.,0.,0.,9976.,0.876864089199,1.9824753321,299.
6.2,6058.,25.,13.,3883.,0.,0.,9979.,0.875588736346,1.8212245716,325.
6.22,6062.,22.,1.,3896.,0.,0.,9981.,0.875991306559,2.07052490641,286.
6.24,6068.,17.,5.,3894.,0.,0.,9984.,0.876594859467,2.6813489819,221.
6.26,6068.,7.,10.,3896.,0.,0.,9981.,0.876858338536,6.51380480055,91.
6.28,6066.,8.,8.,3899.,0.,0.,9981.,0.876569327877,5.6977006312,104.
6.3,6066.,9.,4.,3900.,0.,0.,9979.,0.876745010676,5.06563783946,117.
6.32,6065.,8.,5.,3897.,0.,0.,9975.,0.876951995373,5.70018796992,104.
6.34,6073.,12.,1.,3891.,0.,0.,9977.,0.877932706764,3.80437506264,156.
6.36,6088.,8.,6.,3881.,0.,0.,9983.,0.87957219581,5.71721927276,104.
6.38,6090.,10.,8.,3876.,0.,0.,9984.,0.87977302145,4.57481971154,130.
6.4,6094.,15.,4.,3873.,0.,0.,9986.,0.880174552065,3.05127178049,195.
6.42,6092.,12.,4.,3878.,0.,0.,9986.,0.879885686114,3.81283797316,156.
6.44,6093.,9.,1.,3879.,0.,0.,9982.,0.880382765902,5.08665598077,117.
6.46,6095.,8.,4.,3873.,0.,0.,9980.,0.880848234931,5.72551352705,104.
6.48,6096.,11.,8.,3863.,0.,0.,9978.,0.881169341783,4.16552779752,143.
6.5,6090.,16.,8.,3861.,0.,0.,9975.,0.880566801619,2.86184210526,208.
6.52,6085.,20.,11.,3858.,0.,0.,9974.,0.87993205411,2.28782334069,260.
6.54,6086.,24.,3.,3859.,0.,0.,9972.,0.880253170416,1.90721520257,312.
6.56,6082.,18.,9.,3864.,0.,0.,9973.,0.8795864218,2.54102744076,234.
6.58,6087.,18.,10.,3859.,0.,0.,9974.,0.880221267603,2.54286143974,234.
6.6,6085.,18.,11.,3860.,0.,0.,9974.,0.87993205411,2.5420259341,234.
6.62,6090.,21.,8.,3857.,0.,0.,9976.,0.880478533095,2.18023255814,273.
6.64,6085.,21.,8.,3861.,0.,0.,9975.,0.87984384037,2.17866093806,273.
6.66,6082.,26.,11.,3854.,0.,0.,9973.,0.8795864218,1.7591728436,338.
6.68,6077.,27.,12.,3856.,0.,0.,9972.,0.878951448672,1.69279538263,351.
6.7,6074.,28.,13.,3854.,0.,0.,9969.,0.878781916248,1.63202355875,364.
6.72,6068.,17.,24.,3861.,0.,0.,9970.,0.877825785047,2.68511416603,221.
6.74,6064.,21.,10.,3873.,0.,0.,9968.,0.877423138659,2.17266681954,273.
6.76,6060.,20.,9.,3880.,0.,0.,9969.,0.876756406398,2.27956665664,260.
6.78,6053.,19.,18.,3880.,0.,0.,9970.,0.875655813595,2.39653170036,247.
6.8,6053.,17.,12.,3888.,0.,0.,9970.,0.875655813595,2.67847660629,221.
6.82,6049.,22.,7.,3895.,0.,0.,9973.,0.874813920663,2.06774199429,286.
6.84,6053.,20.,6.,3898.,0.,0.,9977.,0.875041441469,2.27510774782,260.
6.86,6051.,18.,9.,3896.,0.,0.,9974.,0.87501542472,2.52782233808,234.
6.88,6055.,9.,9.,3903.,0.,0.,9976.,0.87541831164,5.05797246725,117.
6.9,6056.,11.,4.,3904.,0.,0.,9975.,0.875650665124,4.13943950786,143.
6.92,6060.,10.,4.,3902.,0.,0.,9976.,0.876141200419,4.55593424218,130.
6.94,6065.,9.,9.,3894.,0.,0.,9977.,0.876776200646,5.06581804818,117.
6.96,6065.,15.,5.,3893.,0.,0.,9978.,0.87668832971,3.03918620966,195.
6.98,6066.,12.,5.,3894.,0.,0.,9977.,0.876920763911,3.79998997695,156.
7.,6073.,16.,1.,3887.,0.,0.,9977.,0.877932706764,2.85328129698,208.
7.02,6076.,14.,3.,3880.,0.,0.,9973.,0.878718694321,3.26381229319,182.
7.04,6081.,11.,8.,3873.,0.,0.,9973.,0.879441800554,4.15736123898,143.
7.06,6090.,14.,6.,3866.,0.,0.,9976.,0.880478533095,3.27034883721,182.
7.08,6091.,15.,4.,3866.,0.,0.,9976.,0.880623110851,3.05282678428,195.
7.1,6093.,18.,4.,3864.,0.,0.,9979.,0.88064743654,2.54409259445,234.
7.12,6088.,18.,8.,3864.,0.,0.,9978.,0.88001295157,2.54225963787,234.
7.14,6096.,16.,7.,3862.,0.,0.,9981.,0.880904487758,2.86293958521,208.
7.16,6100.,10.,10.,3863.,0.,0.,9983.,0.881305912359,4.58279074427,130.
7.18,6096.,13.,3.,3869.,0.,0.,9981.,0.880904487758,3.52361795103,169.
7.2,6098.,16.,6.,3857.,0.,0.,9977.,0.881546788383,2.86502706224,208.
7.22,6104.,9.,8.,3859.,0.,0.,9980.,0.882148913211,5.09686038744,117.
7.24,6104.,11.,5.,3858.,0.,0.,9978.,0.882325731995,4.17099436943,143.
7.26,6098.,19.,9.,3854.,0.,0.,9980.,0.881281794358,2.4119291214,247.
7.28,6101.,19.,11.,3850.,0.,0.,9981.,0.881627014404,2.41287393416,247.
7.3,6094.,20.,8.,3857.,0.,0.,9979.,0.880791970831,2.29005912416,260.
7.32,6098.,18.,5.,3856.,0.,0.,9977.,0.881546788383,2.54669072199,234.
7.34,6104.,14.,11.,3849.,0.,0.,9978.,0.882325731995,3.2772098617,182.
7.36,6099.,16.,8.,3852.,0.,0.,9975.,0.881868131868,2.86607142857,208.
7.38,6104.,11.,8.,3852.,0.,0.,9975.,0.882591093117,4.17224880383,143.
7.4,6105.,12.,3.,3851.,0.,0.,9971.,0.883089806593,3.82672249524,156.
7.42,6114.,10.,3.,3843.,0.,0.,9970.,0.884480364169,4.59929789368,130.
7.44,6118.,10.,1.,3845.,0.,0.,9974.,0.884704076753,4.60046119912,130.
7.46,6118.,11.,4.,3840.,0.,0.,9973.,0.884792786678,4.18265680975,143.
7.48,6124.,9.,4.,3835.,0.,0.,9972.,0.88574932889,5.11766278914,117.
7.5,6128.,8.,4.,3831.,0.,0.,9971.,0.886416762457,5.76170895597,104.
7.52,6135.,10.,3.,3828.,0.,0.,9976.,0.886984532108,4.61231956696,130.
7.54,6140.,8.,3.,3826.,0.,0.,9977.,0.887618445502,5.76951989576,104.
7.56,6138.,10.,5.,3824.,0.,0.,9977.,0.887329318972,4.61411245865,130.
7.58,6145.,10.,8.,3815.,0.,0.,9978.,0.888252231833,4.61891160553,130.
7.6,6145.,14.,3.,3811.,0.,0.,9973.,0.888697560336,3.30087665268,182.
7.62,6144.,13.,4.,3811.,0.,0.,9972.,0.888642043877,3.55456817551,169.
7.64,6150.,15.,2.,3809.,0.,0.,9976.,0.889153198445,3.08239775461,195.
7.66,6153.,9.,4.,3809.,0.,0.,9975.,0.88967611336,5.14035087719,117.
7.68,6156.,8.,5.,3809.,0.,0.,9978.,0.889842268375,5.78397474444,104.
7.7,6163.,11.,2.,3803.,0.,0.,9979.,0.890764836927,4.21088832002,143.
7.72,6165.,12.,4.,3797.,0.,0.,9978.,0.891143207364,3.86162056524,156.
7.74,6170.,10.,7.,3792.,0.,0.,9979.,0.891776576965,4.63723820022,130.
7.76,6171.,9.,8.,3794.,0.,0.,9982.,0.891653052417,5.15177319175,117.
7.78,6176.,14.,3.,3791.,0.,0.,9984.,0.892196745562,3.31387362637,182.
7.8,6186.,13.,2.,3784.,0.,0.,9985.,0.893551866261,3.57420746504,169.
7.82,6185.,11.,6.,3780.,0.,0.,9982.,0.893675924356,4.22464982423,143.
7.84,6192.,15.,4.,3770.,0.,0.,9981.,0.894776999376,3.10189359784,195.
7.86,6195.,14.,5.,3765.,0.,0.,9979.,0.895389934247,3.32573404149,182.
7.88,6197.,18.,7.,3756.,0.,0.,9978.,0.895768768213,2.5877764415,234.
7.9,6204.,19.,7.,3751.,0.,0.,9981.,0.896511063328,2.45360922595,247.
7.92,6201.,13.,10.,3757.,0.,0.,9981.,0.89607754734,3.58431018936,169.
7.94,6198.,14.,18.,3750.,0.,0.,9980.,0.895733775243,3.32701116519,182.
7.96,6197.,16.,12.,3754.,0.,0.,9979.,0.895679002829,2.91095675919,208.
7.98,6196.,17.,7.,3757.,0.,0.,9977.,0.895713988327,2.73983102312,221.
8.,6197.,17.,12.,3751.,0.,0.,9977.,0.895858551592,2.74027321663,221.
8.02,6199.,17.,9.,3751.,0.,0.,9976.,0.896237508482,2.74143237889,221.
8.04,6194.,22.,4.,3758.,0.,0.,9978.,0.895335121884,2.11624665172,286.
8.06,6198.,13.,8.,3758.,0.,0.,9977.,0.896003114856,3.58401245943,169.
8.08,6200.,13.,3.,3761.,0.,0.,9977.,0.896292241386,3.58516896554,169.
8.1,6202.,12.,2.,3762.,0.,0.,9978.,0.896491512096,3.88479655242,156.
8.12,6200.,12.,4.,3756.,0.,0.,9972.,0.896741645839,3.8858804653,156.
8.14,6211.,8.,7.,3748.,0.,0.,9974.,0.898152504203,5.83799127732,104.
8.16,6219.,8.,5.,3741.,0.,0.,9973.,0.899399532584,5.8460969618,104.
8.18,6225.,7.,5.,3734.,0.,0.,9971.,0.900447837189,6.68904107626,91.
8.2,6228.,5.,7.,3733.,0.,0.,9973.,0.900701123804,9.36729168756,65.
8.22,6234.,9.,1.,3731.,0.,0.,9975.,0.901388085599,5.20802005013,117.
8.24,6245.,6.,5.,3718.,0.,0.,9974.,0.903069133593,7.82659915781,78.
8.26,6255.,7.,5.,3708.,0.,0.,9975.,0.904424522846,6.71858216971,91.
8.28,6262.,8.,2.,3708.,0.,0.,9980.,0.904983043009,5.88238977956,104.
8.3,6264.,7.,4.,3703.,0.,0.,9978.,0.905453536241,6.72622626922,91.
8.32,6270.,6.,4.,3697.,0.,0.,9977.,0.906411669918,7.85556780595,78.
8.34,6267.,9.,6.,3697.,0.,0.,9979.,0.905796403216,5.23349032969,117.
8.36,6265.,14.,4.,3696.,0.,0.,9979.,0.905507334633,3.36331295721,182.
8.38,6269.,15.,1.,3697.,0.,0.,9982.,0.905813155988,3.14015227409,195.
8.4,6276.,8.,6.,3689.,0.,0.,9979.,0.907097211837,5.89613187694,104.
8.42,6278.,11.,4.,3686.,0.,0.,9979.,0.90738628042,4.28946241653,143.
8.44,6281.,11.,4.,3685.,0.,0.,9981.,0.907637973688,4.29065223925,143.
8.46,6282.,9.,4.,3683.,0.,0.,9978.,0.908055414219,5.24654239327,117.
8.48,6286.,10.,6.,3674.,0.,0.,9976.,0.90881577324,4.72584202085,130.
8.5,6298.,7.,9.,3668.,0.,0.,9982.,0.910003390719,6.7600251882,91.
8.52,6296.,10.,2.,3673.,0.,0.,9981.,0.909805553629,4.73098887887,130.
8.54,6298.,14.,3.,3665.,0.,0.,9980.,0.910185756128,3.38068995133,182.
8.56,6303.,15.,2.,3660.,0.,0.,9980.,0.910908355172,3.15781563126,195.
8.58,6309.,13.,6.,3654.,0.,0.,9982.,0.911592790099,3.6463711604,169.
8.6,6311.,15.,8.,3646.,0.,0.,9980.,0.912064513643,3.16182364729,195.
8.62,6316.,12.,7.,3638.,0.,0.,9973.,0.913427793504,3.95818710518,156.
8.64,6325.,10.,7.,3633.,0.,0.,9975.,0.914545980335,4.75563909774,130.
8.66,6327.,6.,2.,3637.,0.,0.,9972.,0.915110386004,7.9309566787,78.
8.68,6332.,7.,2.,3630.,0.,0.,9971.,0.915925414471,6.80401736464,91.
8.7,6334.,10.,5.,3621.,0.,0.,9970.,0.916306612144,4.76479438315,130.
8.72,6344.,12.,4.,3614.,0.,0.,9974.,0.917385201524,3.97533587327,156.
8.74,6349.,10.,4.,3610.,0.,0.,9973.,0.918200294642,4.77464153214,130.
8.76,6349.,10.,3.,3612.,0.,0.,9974.,0.918108235258,4.77416282334,130.
8.78,6350.,5.,4.,3614.,0.,0.,9973.,0.918344915888,9.55078712524,65.
8.8,6354.,9.,6.,3606.,0.,0.,9975.,0.918739155581,5.30827067669,117.
8.82,6355.,14.,5.,3600.,0.,0.,9974.,0.918975875738,3.41333896703,182.
8.84,6352.,10.,11.,3600.,0.,0.,9973.,0.918634158381,4.77689762358,130.
8.86,6341.,20.,6.,3604.,0.,0.,9971.,0.917227266766,2.38479089359,260.
8.88,6345.,18.,8.,3601.,0.,0.,9972.,0.917713829492,2.6511732852,234.
8.9,6349.,23.,5.,3593.,0.,0.,9970.,0.918476583597,2.07655575422,299.
8.92,6350.,26.,6.,3590.,0.,0.,9972.,0.918437008238,1.83687401648,338.
8.94,6348.,17.,13.,3590.,0.,0.,9968.,0.918516174836,2.80957888773,221.
8.96,6348.,19.,9.,3594.,0.,0.,9970.,0.918331918833,2.51332946207,247.
8.98,6356.,13.,9.,3596.,0.,0.,9974.,0.919120482485,3.67648192994,169.
9.,6354.,20.,4.,3595.,0.,0.,9973.,0.918923400875,2.38920084227,260.
9.02,6347.,20.,9.,3595.,0.,0.,9971.,0.918095168296,2.38704743757,260.
9.04,6352.,20.,5.,3593.,0.,0.,9970.,0.918910577888,2.38916750251,260.
9.06,6356.,14.,10.,3592.,0.,0.,9972.,0.919304822734,3.41456077016,182.
9.08,6356.,18.,9.,3588.,0.,0.,9971.,0.91939702059,2.65603583726,234.
9.1,6358.,19.,6.,3592.,0.,0.,9975.,0.919317524581,2.51602690938,247.
9.12,6367.,11.,8.,3591.,0.,0.,9977.,0.920434306597,4.35114399482,143.
9.14,6363.,14.,8.,3595.,0.,0.,9980.,0.919579543703,3.41558116232,182.
9.16,6362.,16.,4.,3599.,0.,0.,9981.,0.919342905366,2.98786444244,208.
9.18,6362.,15.,4.,3596.,0.,0.,9977.,0.919711490274,3.18833316628,195.
9.2,6366.,11.,7.,3591.,0.,0.,9975.,0.92047426258,4.35133287765,143.
9.22,6369.,8.,7.,3590.,0.,0.,9974.,0.921000370193,5.98650240626,104.
9.24,6374.,14.,0.,3587.,0.,0.,9975.,0.921631000578,3.42320085929,182.
9.26,6383.,5.,12.,3576.,0.,0.,9976.,0.922839815557,9.5975340818,65.
9.28,6379.,16.,8.,3577.,0.,0.,9980.,0.921891860644,2.99614854709,208.
9.3,6378.,12.,12.,3581.,0.,0.,9983.,0.921470345742,3.99303816488,156.
9.32,6381.,14.,7.,3584.,0.,0.,9986.,0.921626816004,3.42318531659,182.
9.34,6387.,10.,7.,3585.,0.,0.,9989.,0.922216361074,4.79552507759,130.
9.36,6394.,4.,10.,3581.,0.,0.,9989.,0.923227088259,12.0019521474,52.
9.38,6392.,8.,5.,3582.,0.,0.,9987.,0.923123137001,6.00030039051,104.
9.4,6394.,10.,2.,3579.,0.,0.,9985.,0.923596933862,4.80270405608,130.
9.42,6401.,11.,2.,3575.,0.,0.,9989.,0.924237815443,4.36912421846,143.
9.44,6400.,9.,2.,3574.,0.,0.,9985.,0.924463618505,5.34134535136,117.
9.46,6406.,10.,2.,3569.,0.,0.,9987.,0.925144996187,4.81075398017,130.
9.48,6406.,16.,3.,3562.,0.,0.,9987.,0.925144996187,3.00672123761,208.
9.5,6410.,14.,3.,3559.,0.,0.,9986.,0.92581537229,3.43874281136,182.
9.52,6412.,8.,11.,3557.,0.,0.,9988.,0.925918794862,6.0184721666,104.
9.54,6414.,12.,1.,3560.,0.,0.,9987.,0.926300344294,4.01396815861,156.
9.56,6417.,12.,4.,3556.,0.,0.,9989.,0.926548049008,4.0150415457,156.
9.58,6421.,10.,6.,3551.,0.,0.,9988.,0.927218431348,4.82153584301,130.
9.6,6427.,10.,8.,3547.,0.,0.,9992.,0.927713324506,4.82410928743,130.
9.62,6428.,9.,6.,3546.,0.,0.,9989.,0.928136334583,5.3625654887,117.
9.64,6432.,11.,5.,3542.,0.,0.,9990.,0.928620928621,4.38984438984,143.
9.66,6432.,11.,5.,3542.,0.,0.,9990.,0.928620928621,4.38984438984,143.
9.68,6428.,13.,8.,3542.,0.,0.,9991.,0.927950540101,3.71180216041,169.
9.7,6428.,13.,8.,3537.,0.,0.,9986.,0.928415165848,3.71366066339,169.
9.72,6422.,17.,7.,3539.,0.,0.,9985.,0.927641462193,2.83749153141,221.
9.74,6423.,17.,2.,3545.,0.,0.,9987.,0.927600110913,2.83736504515,221.
9.76,6427.,16.,9.,3536.,0.,0.,9988.,0.928084855673,3.01627578094,208.
9.78,6424.,18.,9.,3538.,0.,0.,9989.,0.927558776192,2.67961424233,234.
9.8,6418.,12.,12.,3543.,0.,0.,9985.,0.927063672432,4.01727591387,156.
9.82,6414.,22.,10.,3541.,0.,0.,9987.,0.926300344294,2.18943717742,286.
9.84,6406.,25.,10.,3547.,0.,0.,9988.,0.925052370537,1.92410893072,325.
9.86,6404.,30.,11.,3547.,0.,0.,9992.,0.924393360843,1.60228182546,390.
9.88,6395.,27.,16.,3556.,0.,0.,9994.,0.92290951494,1.77745536211,351.
9.9,6391.,25.,13.,3564.,0.,0.,9993.,0.922424543334,1.91864305014,325.
9.92,6393.,20.,11.,3565.,0.,0.,9989.,0.923082698661,2.40001501652,260.
9.94,6384.,21.,17.,3566.,0.,0.,9988.,0.921875481347,2.28273928714,273.
9.96,6377.,26.,10.,3577.,0.,0.,9990.,0.92068029568,1.84136059136,338.
9.98,6372.,27.,16.,3576.,0.,0.,9991.,0.919866341246,1.77159443499,351.
10.,6362.,32.,9.,3587.,0.,0.,9990.,0.918514668515,1.49258633634,416.
