t,s,e,i,r,c,o,n,reff,coal,reportr
5.,6250.,5.,3.,3734.,0.,0.,9992.,0.902164038923,9.3825060048,65.
5.02,6255.,5.,3.,3730.,0.,0.,9993.,0.902795418331,9.38907235065,65.
5.04,6255.,7.,6.,3727.,0.,0.,9995.,0.902614768923,6.70513828343,91.
5.06,6258.,5.,3.,3730.,0.,0.,9996.,0.902957336781,9.39075630252,65.
5.08,6259.,10.,0.,3726.,0.,0.,9995.,0.903191980606,4.69659829915,130.
5.1,6266.,3.,7.,3722.,0.,0.,9998.,0.903930786157,15.6681336267,39.
5.12,6276.,2.,3.,3721.,0.,0.,10002.,0.905011305431,23.5302939412,26.
5.14,6282.,2.,2.,3718.,0.,0.,10004.,0.905695414142,23.5480807677,26.
5.16,6290.,4.,1.,3707.,0.,0.,10002.,0.907030132435,11.7913917217,52.
5.18,6295.,0.,7.,3697.,0.,0.,9999.,0.908023494657,inf,0.
5.2,6292.,13.,3.,3691.,0.,0.,9999.,0.907590759076,3.6303630363,169.
5.22,6293.,12.,6.,3691.,0.,0.,10002.,0.907462738222,3.93233853229,156.
5.24,6295.,10.,11.,3687.,0.,0.,10003.,0.907660394189,4.71983404979,130.
5.26,6287.,16.,12.,3691.,0.,0.,10006.,0.906235105091,2.94526409155,208.
5.28,6289.,13.,15.,3690.,0.,0.,10007.,0.906432804729,3.62573121892,169.
5.3,6281.,20.,12.,3696.,0.,0.,10009.,0.905098872553,2.35325706864,260.
5.32,6282.,19.,11.,3700.,0.,0.,10012.,0.904971726236,2.47676472444,247.
5.34,6280.,18.,9.,3708.,0.,0.,10015.,0.904412611851,2.61274754535,234.
5.36,6277.,17.,11.,3707.,0.,0.,10012.,0.904251436737,2.7659455712,221.
5.38,6279.,20.,8.,3707.,0.,0.,10014.,0.904358897543,2.35133313361,260.
5.4,6280.,19.,16.,3704.,0.,0.,10019.,0.904051532857,2.47424630045,247.
5.42,6269.,21.,11.,3718.,0.,0.,10019.,0.902468003102,2.23468267435,273.
5.44,6269.,23.,9.,3717.,0.,0.,10018.,0.90255808775,2.04056611143,299.
5.46,6262.,26.,10.,3720.,0.,0.,10018.,0.901550286408,1.80310057282,338.
5.48,6267.,21.,11.,3722.,0.,0.,10021.,0.902000030705,2.23352388555,273.
5.5,6258.,21.,12.,3728.,0.,0.,10019.,0.900884473347,2.23076155305,273.
5.52,6257.,24.,8.,3732.,0.,0.,10021.,0.900560745511,1.95121494861,312.
5.54,6253.,24.,6.,3735.,0.,0.,10018.,0.900254541825,1.95055150729,312.
5.56,6247.,27.,10.,3730.,0.,0.,10014.,0.899749965433,1.73285178528,351.
5.58,6251.,28.,9.,3727.,0.,0.,10015.,0.900236184185,1.6718671992,364.
5.6,6245.,32.,11.,3726.,0.,0.,10014.,0.899461907176,1.46162559916,416.
5.62,6239.,32.,12.,3732.,0.,0.,10015.,0.89850800722,1.46007551173,416.
5.64,6231.,29.,14.,3739.,0.,0.,10013.,0.897535127411,1.60937333191,377.
5.66,6234.,26.,16.,3739.,0.,0.,10015.,0.897787933484,1.79557586697,338.
5.68,6225.,28.,7.,3753.,0.,0.,10013.,0.896670866335,1.66524589462,364.
5.7,6228.,23.,14.,3748.,0.,0.,10013.,0.897102996873,2.0282328625,299.
5.72,6224.,25.,15.,3750.,0.,0.,10014.,0.896437295479,1.8645895746,325.
5.74,6214.,28.,13.,3759.,0.,0.,10014.,0.894997004194,1.6621372935,364.
5.76,6216.,18.,18.,3764.,0.,0.,10016.,0.895106291472,2.58586261981,234.
5.78,6207.,24.,15.,3770.,0.,0.,10016.,0.893810288154,1.93658895767,312.
5.8,6204.,27.,12.,3773.,0.,0.,10016.,0.893378287048,1.72058040469,351.
5.82,6199.,25.,7.,3782.,0.,0.,10013.,0.892925735006,1.85728552881,325.
5.84,6196.,25.,6.,3784.,0.,0.,10011.,0.892671907056,1.85675756668,325.
5.86,6197.,22.,8.,3785.,0.,0.,10012.,0.892726804757,2.11008153852,286.
5.88,6194.,23.,11.,3786.,0.,0.,10014.,0.892116421625,2.01695886628,299.
5.9,6188.,23.,10.,3793.,0.,0.,10014.,0.891252246854,2.01500507984,299.
5.92,6192.,23.,11.,3788.,0.,0.,10014.,0.891828363368,2.01630760414,299.
5.94,6193.,16.,11.,3798.,0.,0.,10018.,0.891616244606,2.89775279497,208.
5.96,6201.,18.,8.,3794.,0.,0.,10021.,0.892500748428,2.57833549546,234.
5.98,6203.,16.,11.,3792.,0.,0.,10022.,0.892699522589,2.90127344841,208.
6.,6199.,20.,6.,3798.,0.,0.,10023.,0.892034858287,2.31929063155,260.
6.02,6209.,13.,9.,3792.,0.,0.,10023.,0.893473856284,3.57389542514,169.
6.04,6215.,15.,6.,3786.,0.,0.,10022.,0.894426492486,3.10067850728,195.
6.06,6221.,16.,8.,3779.,0.,0.,10024.,0.895111348149,2.90911188148,208.
6.08,6219.,13.,9.,3782.,0.,0.,10023.,0.894912854281,3.57965141713,169.
6.1,6217.,17.,5.,3780.,0.,0.,10019.,0.894982226078,2.73759269153,221.
6.12,6220.,12.,15.,3771.,0.,0.,10018.,0.895503478354,3.88051507287,156.
6.14,6214.,25.,5.,3776.,0.,0.,10020.,0.894461077844,1.86047904192,325.
6.16,6207.,25.,12.,3776.,0.,0.,10020.,0.89345347766,1.85838323353,325.
6.18,6197.,28.,13.,3781.,0.,0.,10019.,0.892103081069,1.65676286484,364.
6.2,6187.,31.,15.,3786.,0.,0.,10019.,0.890663508564,1.49401620791,403.
6.22,6182.,22.,15.,3798.,0.,0.,10017.,0.890121408989,2.10392333034,286.
6.24,6174.,25.,17.,3802.,0.,0.,10018.,0.88888078382,1.84887203035,325.
6.26,6165.,23.,16.,3811.,0.,0.,10015.,0.887850915934,2.00731511429,299.
6.28,6168.,24.,8.,3817.,0.,0.,10017.,0.888105605087,1.92422881102,312.
6.3,6167.,20.,9.,3822.,0.,0.,10018.,0.887872982478,2.30846975444,260.
6.32,6167.,20.,12.,3819.,0.,0.,10018.,0.887872982478,2.30846975444,260.
6.34,6164.,21.,8.,3824.,0.,0.,10017.,0.887529661115,2.19769249419,273.
6.36,6161.,20.,11.,3826.,0.,0.,10018.,0.887009152756,2.30622379717,260.
6.38,6157.,12.,14.,3832.,0.,0.,10015.,0.886698797957,3.84236145781,156.
6.4,6148.,17.,9.,3838.,0.,0.,10012.,0.88566796767,2.70910201875,221.
6.42,6140.,20.,9.,3842.,0.,0.,10011.,0.884603858832,2.29997003296,260.
6.44,6145.,16.,10.,3844.,0.,0.,10015.,0.884970620992,2.87615451822,208.
6.46,6149.,11.,9.,3841.,0.,0.,10010.,0.885989010989,4.18831168831,143.
6.48,6146.,16.,7.,3838.,0.,0.,10007.,0.88582223213,2.87892225442,208.
6.5,6150.,11.,1.,3848.,0.,0.,10010.,0.886133097672,4.18899282536,143.
6.52,6154.,4.,8.,3838.,0.,0.,10004.,0.887241257343,11.5341363455,52.
6.54,6164.,9.,5.,3831.,0.,0.,10009.,0.888239046397,5.13204782363,117.
6.56,6164.,12.,1.,3828.,0.,0.,10005.,0.888594164456,3.85057471264,156.
6.58,6173.,9.,2.,3823.,0.,0.,10007.,0.889713738844,5.14056826888,117.
6.6,6176.,3.,6.,3820.,0.,0.,10005.,0.890324068735,15.4322838581,39.
6.62,6183.,9.,5.,3810.,0.,0.,10007.,0.891155037628,5.14889577296,117.
6.64,6186.,12.,6.,3803.,0.,0.,10007.,0.891587427262,3.86354551814,156.
6.66,6189.,8.,9.,3798.,0.,0.,10004.,0.892287315843,5.79986755298,104.
6.68,6196.,9.,8.,3794.,0.,0.,10007.,0.893028726046,5.15972152826,117.
6.7,6188.,13.,9.,3792.,0.,0.,10002.,0.892321535693,3.56928614277,169.
6.72,6186.,17.,6.,3793.,0.,0.,10002.,0.892033131835,2.72857193267,221.
6.74,6189.,15.,5.,3794.,0.,0.,10003.,0.892376517814,3.09357192842,195.
6.76,6194.,12.,6.,3789.,0.,0.,10001.,0.89327605701,3.87086291371,156.
6.78,6196.,12.,1.,3791.,0.,0.,10000.,0.893653846154,3.8725,156.
6.8,6199.,10.,4.,3789.,0.,0.,10002.,0.89390775691,4.64832033593,130.
6.82,6205.,10.,5.,3785.,0.,0.,10005.,0.894504670742,4.65142428786,130.
6.84,6207.,7.,5.,3787.,0.,0.,10006.,0.894703562478,6.64636932126,91.
6.86,6207.,6.,10.,3783.,0.,0.,10006.,0.894703562478,7.75409754148,78.
6.88,6208.,7.,5.,3785.,0.,0.,10005.,0.894937146811,6.64810451917,91.
6.9,6215.,5.,4.,3781.,0.,0.,10005.,0.89594625764,9.31784107946,65.
6.92,6217.,9.,1.,3776.,0.,0.,10003.,0.896413768177,5.17927954947,117.
6.94,6224.,4.,4.,3771.,0.,0.,10003.,0.897423080768,11.66650005,52.
6.96,6231.,5.,1.,3770.,0.,0.,10007.,0.898073271787,9.33996202658,65.
6.98,6234.,6.,2.,3764.,0.,0.,10006.,0.89859545811,7.78782730362,78.
7.,6244.,2.,6.,3753.,0.,0.,10005.,0.900126859647,23.4032983508,26.
7.02,6246.,0.,4.,3750.,0.,0.,10000.,0.900865384615,inf,0.
7.04,6251.,3.,2.,3744.,0.,0.,10000.,0.901586538462,15.6275,39.
7.06,6260.,4.,2.,3735.,0.,0.,10001.,0.902794335951,11.7363263674,52.
7.08,6265.,5.,1.,3727.,0.,0.,9998.,0.903786526536,9.39937987598,65.
7.1,6276.,7.,0.,3717.,0.,0.,10000.,0.905192307692,6.72428571429,91.
7.12,6286.,4.,3.,3707.,0.,0.,10000.,0.906634615385,11.78625,52.
7.14,6288.,8.,1.,3704.,0.,0.,10001.,0.906832393684,5.89441055894,104.
7.16,6293.,5.,5.,3700.,0.,0.,10003.,0.907372019163,9.4366689993,65.
7.18,6293.,9.,3.,3694.,0.,0.,9999.,0.90773500427,5.24469113578,117.
7.2,6304.,6.,2.,3689.,0.,0.,10001.,0.909139855245,7.87921207879,78.
7.22,6308.,8.,3.,3682.,0.,0.,10001.,0.909716720636,5.91315868413,104.
7.24,6308.,7.,5.,3678.,0.,0.,9998.,0.909989690246,6.75992341325,91.
7.26,6300.,13.,6.,3673.,0.,0.,9992.,0.909381351235,3.63752540494,169.
7.28,6306.,16.,4.,3671.,0.,0.,9997.,0.90979216842,2.95682454736,208.
7.3,6310.,14.,6.,3668.,0.,0.,9998.,0.910278209488,3.38103334953,182.
7.32,6316.,11.,9.,3666.,0.,0.,10002.,0.910779382585,4.30550253586,143.
7.34,6303.,19.,5.,3672.,0.,0.,9999.,0.909177456207,2.4882751433,247.
7.36,6306.,17.,7.,3667.,0.,0.,9997.,0.90979216842,2.78289369164,221.
7.38,6309.,18.,7.,3663.,0.,0.,9997.,0.910224990574,2.62953886166,234.
7.4,6303.,16.,16.,3663.,0.,0.,9998.,0.90926839214,2.95512227445,208.
7.42,6289.,23.,5.,3676.,0.,0.,9993.,0.907702699582,2.05219740775,299.
7.44,6293.,20.,8.,3672.,0.,0.,9993.,0.908280026788,2.36152806965,260.
7.46,6287.,17.,17.,3675.,0.,0.,9996.,0.907141702835,2.77478638514,221.
7.48,6283.,24.,15.,3676.,0.,0.,9998.,0.906383199717,1.96383026605,312.
7.5,6277.,24.,14.,3685.,0.,0.,10000.,0.905336538462,1.9615625,312.
7.52,6271.,25.,6.,3693.,0.,0.,9995.,0.904923615654,1.88224112056,325.
7.54,6273.,22.,11.,3690.,0.,0.,9996.,0.90512166405,2.13937847866,286.
7.56,6267.,27.,11.,3696.,0.,0.,10001.,0.903803850384,1.74065926741,351.
7.58,6260.,24.,18.,3697.,0.,0.,9999.,0.902974912876,1.95644564456,312.
7.6,6248.,29.,9.,3715.,0.,0.,10001.,0.90106373978,1.61570049892,377.
7.62,6241.,33.,12.,3715.,0.,0.,10001.,0.900054225347,1.41826726418,429.
7.64,6245.,24.,12.,3723.,0.,0.,10004.,0.900361009442,1.95078218713,312.
7.66,6242.,16.,18.,3727.,0.,0.,10003.,0.900018456002,2.92505998201,208.
7.68,6232.,27.,8.,3738.,0.,0.,10005.,0.898396955368,1.73024598812,351.
7.7,6234.,16.,14.,3742.,0.,0.,10006.,0.89859545811,2.92043523886,208.
7.72,6231.,14.,13.,3750.,0.,0.,10008.,0.897983536248,3.33536742035,182.
7.74,6228.,13.,12.,3759.,0.,0.,10012.,0.89719259965,3.5887703986,169.
7.76,6234.,14.,7.,3760.,0.,0.,10015.,0.897787933484,3.3346408958,182.
7.78,6235.,15.,3.,3762.,0.,0.,10015.,0.897931948231,3.11283075387,195.
7.8,6238.,10.,4.,3761.,0.,0.,10013.,0.898543432,4.6724258464,130.
7.82,6240.,12.,1.,3756.,0.,0.,10009.,0.899190728344,3.89649315616,156.
7.84,6242.,11.,4.,3750.,0.,0.,10007.,0.899658700448,4.25293203848,143.
7.86,6242.,9.,9.,3750.,0.,0.,10010.,0.899389072466,5.19647019647,117.
7.88,6235.,16.,3.,3754.,0.,0.,10008.,0.898559998155,2.920319994,208.
7.9,6236.,11.,9.,3752.,0.,0.,10008.,0.898704113632,4.24841944626,143.
7.92,6235.,16.,6.,3750.,0.,0.,10007.,0.8986497913,2.92061182172,208.
7.94,6242.,13.,3.,3750.,0.,0.,10008.,0.899568806493,3.59827522597,169.
7.96,6242.,14.,6.,3745.,0.,0.,10007.,0.899658700448,3.34158945881,182.
7.98,6235.,20.,10.,3742.,0.,0.,10007.,0.8986497913,2.33648945738,260.
8.,6242.,12.,14.,3735.,0.,0.,10003.,0.900018456002,3.90007997601,156.
8.02,6237.,28.,15.,3723.,0.,0.,10003.,0.899297518437,1.67012396281,364.
8.04,6227.,29.,17.,3729.,0.,0.,10002.,0.897945410918,1.61010901268,377.
8.06,6226.,27.,10.,3742.,0.,0.,10005.,0.897532003229,1.72858015437,351.
8.08,6220.,24.,6.,3753.,0.,0.,10003.,0.896846330716,1.94316704989,312.
8.1,6219.,19.,8.,3756.,0.,0.,10002.,0.896791795487,2.45437754554,247.
8.12,6223.,19.,9.,3752.,0.,0.,10003.,0.897278893255,2.45571065522,247.
8.14,6219.,27.,10.,3749.,0.,0.,10005.,0.8965228924,1.72663668166,351.
8.16,6209.,27.,8.,3760.,0.,0.,10004.,0.895170777843,1.72403260918,351.
8.18,6208.,27.,11.,3762.,0.,0.,10008.,0.89466888028,1.72306599165,351.
8.2,6211.,20.,9.,3765.,0.,0.,10005.,0.895369622881,2.32796101949,260.
8.22,6208.,21.,1.,3777.,0.,0.,10007.,0.894758284585,2.21559194278,273.
8.24,6223.,14.,7.,3766.,0.,0.,10010.,0.896651425498,3.33041958042,182.
8.26,6221.,16.,5.,3768.,0.,0.,10010.,0.896363252132,2.91318056943,208.
8.28,6223.,11.,7.,3769.,0.,0.,10010.,0.896651425498,4.23871582962,143.
8.3,6225.,13.,3.,3769.,0.,0.,10010.,0.896939598863,3.58775839545,169.
8.32,6236.,8.,5.,3763.,0.,0.,10012.,0.898345062848,5.83924290851,104.
8.34,6241.,7.,4.,3763.,0.,0.,10015.,0.898796036714,6.67677055845,91.
8.36,6242.,8.,6.,3758.,0.,0.,10014.,0.899029819791,5.84369382864,104.
8.38,6242.,8.,6.,3760.,0.,0.,10016.,0.898850301057,5.84252695687,104.
8.4,6245.,12.,4.,3758.,0.,0.,10019.,0.899013029091,3.89572312606,156.
8.42,6253.,14.,6.,3749.,0.,0.,10022.,0.899895230493,3.34246799897,182.
8.44,6258.,15.,7.,3745.,0.,0.,10025.,0.90034529062,3.12119700748,195.
8.46,6252.,15.,9.,3748.,0.,0.,10024.,0.899571796918,3.11851556265,195.
8.48,6252.,12.,8.,3752.,0.,0.,10024.,0.899571796918,3.89814445331,156.
8.5,6252.,17.,4.,3747.,0.,0.,10020.,0.899930907416,2.75272983445,221.
8.52,6256.,10.,9.,3745.,0.,0.,10020.,0.90050667895,4.68263473054,130.
8.54,6258.,15.,7.,3741.,0.,0.,10021.,0.900704674031,3.12244286997,195.
8.56,6264.,13.,6.,3741.,0.,0.,10024.,0.901298422248,3.60519368899,169.
8.58,6267.,16.,5.,3735.,0.,0.,10023.,0.901820044666,2.93091514517,208.
8.6,6265.,11.,3.,3742.,0.,0.,10021.,0.901712173666,4.26263936642,143.
8.62,6262.,9.,10.,3739.,0.,0.,10020.,0.901370336251,5.20791749834,117.
8.64,6253.,13.,13.,3739.,0.,0.,10018.,0.900254541825,3.6010181673,169.
8.66,6239.,21.,13.,3742.,0.,0.,10015.,0.89850800722,2.22487697026,273.
8.68,6230.,28.,8.,3751.,0.,0.,10017.,0.897032736655,1.6659179395,364.
8.7,6229.,24.,14.,3750.,0.,0.,10017.,0.896888750662,1.94325895977,312.
8.72,6221.,20.,13.,3761.,0.,0.,10015.,0.895915741772,2.32938092861,260.
8.74,6219.,23.,12.,3763.,0.,0.,10017.,0.895448890732,2.02449314426,299.
8.76,6223.,20.,11.,3764.,0.,0.,10018.,0.895935393215,2.32943202236,260.
8.78,6222.,18.,10.,3772.,0.,0.,10022.,0.895433891592,2.58680902016,234.
8.8,6218.,14.,8.,3782.,0.,0.,10022.,0.89485823496,3.32375915842,182.
8.82,6224.,16.,4.,3776.,0.,0.,10020.,0.895900506679,2.91167664671,208.
8.84,6225.,11.,9.,3775.,0.,0.,10020.,0.896044449562,4.23584648884,143.
8.86,6227.,15.,1.,3781.,0.,0.,10024.,0.895974660814,3.10604549082,195.
8.88,6234.,6.,5.,3778.,0.,0.,10023.,0.897071351277,7.77461837773,78.
8.9,6236.,9.,4.,3774.,0.,0.,10023.,0.897359150876,5.18474176062,117.
8.92,6248.,7.,2.,3768.,0.,0.,10025.,0.898906579705,6.67759173495,91.
8.94,6257.,5.,6.,3757.,0.,0.,10025.,0.900201419528,9.36209476309,65.
8.96,6258.,5.,4.,3760.,0.,0.,10027.,0.900165706439,9.36172334696,65.
8.98,6271.,6.,0.,3748.,0.,0.,10025.,0.902215614809,7.81920199501,78.
9.,6272.,3.,4.,3743.,0.,0.,10022.,0.902629599496,15.6455797246,39.
9.02,6279.,4.,1.,3741.,0.,0.,10025.,0.903366583541,11.743765586,52.
9.04,6288.,3.,2.,3734.,0.,0.,10027.,0.904480978282,15.6776702902,39.
9.06,6295.,4.,0.,3732.,0.,0.,10031.,0.90512679923,11.76664839,52.
9.08,6307.,5.,2.,3718.,0.,0.,10032.,0.906761823703,9.43032296651,65.
9.1,6315.,4.,0.,3712.,0.,0.,10031.,0.908002499942,11.8040324993,52.
9.12,6322.,4.,2.,3704.,0.,0.,10032.,0.908918384247,11.8159389952,52.
9.14,6327.,5.,2.,3698.,0.,0.,10032.,0.909637237762,9.46022727273,65.
9.16,6334.,3.,8.,3691.,0.,0.,10036.,0.910280681853,15.7781984855,39.
9.18,6340.,8.,3.,3683.,0.,0.,10034.,0.911324573374,5.92360972693,104.
9.2,6346.,8.,1.,3679.,0.,0.,10034.,0.912187025651,5.92921566673,104.
9.22,6350.,5.,5.,3672.,0.,0.,10032.,0.912943963931,9.49461722488,65.
9.24,6353.,6.,7.,3665.,0.,0.,10031.,0.913466331296,7.91670820457,78.
9.26,6350.,10.,4.,3662.,0.,0.,10026.,0.91349030981,4.75014961101,130.
9.28,6355.,8.,6.,3656.,0.,0.,10025.,0.914300786495,5.94295511222,104.
9.3,6361.,9.,5.,3651.,0.,0.,10026.,0.915072733969,5.28708690737,117.
9.32,6359.,10.,8.,3649.,0.,0.,10026.,0.914785020485,4.75688210652,130.
9.34,6369.,7.,4.,3643.,0.,0.,10023.,0.916497824235,6.80826955146,91.
9.36,6373.,7.,3.,3640.,0.,0.,10023.,0.917073423434,6.81254543122,91.
9.38,6377.,7.,7.,3631.,0.,0.,10022.,0.917740586095,6.81750149671,91.
9.4,6374.,9.,4.,3634.,0.,0.,10021.,0.917400382274,5.30053554203,117.
9.42,6379.,8.,2.,3631.,0.,0.,10020.,0.918211653616,5.9683757485,104.
9.44,6386.,6.,3.,3628.,0.,0.,10023.,0.91894412083,7.96418238052,78.
9.46,6388.,8.,3.,3622.,0.,0.,10021.,0.919415381545,5.97619998004,104.
9.48,6398.,6.,3.,3619.,0.,0.,10026.,0.920395433412,7.9767604229,78.
9.5,6404.,8.,5.,3609.,0.,0.,10026.,0.921258573862,5.9881807301,104.
9.52,6404.,12.,6.,3606.,0.,0.,10028.,0.921074836611,3.99132429198,156.
9.54,6406.,11.,2.,3609.,0.,0.,10028.,0.921362492713,4.35553178373,143.
9.56,6413.,9.,1.,3605.,0.,0.,10028.,0.922369289068,5.32924478128,117.
9.58,6419.,6.,5.,3598.,0.,0.,10028.,0.923232257372,8.00134623055,78.
9.6,6417.,9.,6.,3598.,0.,0.,10030.,0.92276056446,5.33150548355,117.
9.62,6417.,13.,3.,3594.,0.,0.,10027.,0.923036647206,3.69214658883,169.
9.64,6422.,6.,9.,3588.,0.,0.,10025.,0.923940149626,8.00748129676,78.
9.66,6417.,17.,3.,3591.,0.,0.,10028.,0.92294460127,2.82312466271,221.
9.68,6411.,17.,5.,3592.,0.,0.,10025.,0.922357567619,2.82132903037,221.
9.7,6416.,12.,6.,3590.,0.,0.,10024.,0.923169009761,4.0003990423,156.
9.72,6413.,14.,7.,3590.,0.,0.,10024.,0.922737353429,3.42731016988,182.
9.74,6411.,21.,3.,3588.,0.,0.,10023.,0.922541615822,2.28438876299,273.
9.76,6422.,17.,10.,3576.,0.,0.,10025.,0.923940149626,2.82616986944,221.
9.78,6424.,17.,10.,3579.,0.,0.,10030.,0.923767160058,2.82564072488,221.
9.8,6431.,14.,10.,3583.,0.,0.,10038.,0.924036737321,3.43213645291,182.
9.82,6428.,18.,9.,3585.,0.,0.,10040.,0.923421697824,2.6676626826,234.
9.84,6432.,16.,12.,3583.,0.,0.,10043.,0.923720310358,3.00209100866,208.
9.86,6431.,22.,7.,3584.,0.,0.,10044.,0.923484744049,2.1827821223,286.
9.88,6432.,19.,12.,3583.,0.,0.,10046.,0.923444463162,2.52732168865,247.
9.9,6423.,24.,10.,3585.,0.,0.,10042.,0.922519648247,1.9987925712,312.
9.92,6420.,20.,10.,3594.,0.,0.,10044.,0.921905155776,2.39695340502,260.
9.94,6418.,23.,11.,3596.,0.,0.,10048.,0.921251071779,2.08282851011,299.
9.96,6408.,33.,11.,3593.,0.,0.,10045.,0.920090362599,1.44983935925,429.
9.98,6398.,34.,10.,3600.,0.,0.,10042.,0.918928959907,1.40542076221,442.
10.,6398.,33.,15.,3594.,0.,0.,10040.,0.919112013485,1.44829771822,429.
