t,s,e,i,r,c,o,n,reff,coal,reportr
5.,6250.,5.,3.,3734.,0.,0.,9992.,0.902164038923,9.3825060048,65.
5.02,6256.,7.,5.,3727.,0.,0.,9995.,0.902759071844,6.70621024798,91.
5.04,6262.,8.,4.,3717.,0.,0.,9991.,0.903986664922,5.87591332199,104.
5.06,6261.,9.,1.,3719.,0.,0.,9990.,0.903932778933,5.22272272272,117.
5.08,6268.,9.,4.,3709.,0.,0.,9990.,0.904943404943,5.22856189523,117.
5.1,6282.,12.,5.,3693.,0.,0.,9992.,0.906783118803,3.92939351481,156.
5.12,6283.,6.,11.,3692.,0.,0.,9992.,0.906927465049,7.86003803042,78.
5.14,6282.,10.,0.,3698.,0.,0.,9990.,0.906964656965,4.71621621622,130.
5.16,6286.,5.,4.,3693.,0.,0.,9988.,0.907723884045,9.44032839407,65.
5.18,6298.,4.,2.,3686.,0.,0.,9990.,0.909274659275,11.8205705706,52.
5.2,6311.,2.,2.,3677.,0.,0.,9992.,0.910969159943,23.6851981585,26.
5.22,6315.,7.,0.,3671.,0.,0.,9993.,0.911455326421,6.77081099627,91.
5.24,6320.,2.,5.,3666.,0.,0.,9993.,0.912176985428,23.7166016211,26.
5.26,6320.,3.,2.,3662.,0.,0.,9987.,0.912725004044,15.8205667368,39.
5.28,6325.,6.,1.,3651.,0.,0.,9983.,0.913813097651,7.91971351297,78.
5.3,6331.,3.,2.,3649.,0.,0.,9985.,0.914496745118,15.8512769154,39.
5.32,6337.,4.,1.,3642.,0.,0.,9984.,0.915455112796,11.9009164663,52.
5.34,6344.,4.,2.,3632.,0.,0.,9982.,0.916649969946,11.9164496093,52.
5.36,6345.,6.,3.,3628.,0.,0.,9982.,0.916794460799,7.94555199359,78.
5.38,6356.,5.,3.,3621.,0.,0.,9985.,0.918107931127,9.54832248373,65.
5.4,6360.,6.,3.,3616.,0.,0.,9985.,0.918685720889,7.96194291437,78.
5.42,6370.,6.,4.,3609.,0.,0.,9989.,0.919761737912,7.97126839523,78.
5.44,6371.,7.,4.,3604.,0.,0.,9986.,0.92018248625,6.83564132643,91.
5.46,6369.,6.,3.,3603.,0.,0.,9981.,0.920354442672,7.97640516982,78.
5.48,6381.,7.,4.,3595.,0.,0.,9987.,0.921534533355,6.84568510492,91.
5.5,6384.,10.,4.,3589.,0.,0.,9987.,0.921967788895,4.79423250225,130.
5.52,6384.,9.,6.,3588.,0.,0.,9987.,0.921967788895,5.3269250025,117.
5.54,6385.,12.,2.,3586.,0.,0.,9985.,0.922296906899,3.99661992989,156.
5.56,6392.,10.,3.,3586.,0.,0.,9991.,0.922753555123,4.79831848664,130.
5.58,6400.,6.,3.,3584.,0.,0.,9993.,0.923723529548,8.00560392275,78.
5.6,6404.,10.,1.,3575.,0.,0.,9990.,0.924578424578,4.80780780781,130.
5.62,6409.,7.,2.,3575.,0.,0.,9993.,0.925022515761,6.87159583137,91.
5.64,6412.,8.,0.,3574.,0.,0.,9994.,0.925362910054,6.01485891535,104.
5.66,6427.,6.,2.,3563.,0.,0.,9998.,0.927156585163,8.03535707141,78.
5.68,6433.,5.,3.,3558.,0.,0.,9999.,0.927929331395,9.6504650465,65.
5.7,6433.,7.,2.,3556.,0.,0.,9998.,0.92802214289,6.89387877576,91.
5.72,6441.,9.,2.,3544.,0.,0.,9996.,0.929362129467,5.36964785914,117.
5.74,6451.,9.,2.,3534.,0.,0.,9996.,0.930805014313,5.37798452714,117.
5.76,6456.,9.,3.,3527.,0.,0.,9995.,0.931619655982,5.38269134567,117.
5.78,6449.,11.,0.,3534.,0.,0.,9994.,0.930702652361,4.3996852657,143.
5.8,6455.,8.,6.,3527.,0.,0.,9996.,0.931382168252,6.05398409364,104.
5.82,6464.,9.,2.,3523.,0.,0.,9998.,0.932494191146,5.38774421551,117.
5.84,6468.,11.,0.,3520.,0.,0.,9999.,0.932977913176,4.4104410441,143.
5.86,6479.,8.,4.,3509.,0.,0.,10000.,0.934471153846,6.0740625,104.
5.88,6480.,12.,7.,3500.,0.,0.,9999.,0.934708855501,4.0504050405,156.
5.9,6486.,9.,7.,3499.,0.,0.,10001.,0.935387230508,5.40445955404,117.
5.92,6485.,14.,4.,3501.,0.,0.,10004.,0.93496255344,3.47271805563,182.
5.94,6490.,6.,6.,3501.,0.,0.,10003.,0.93577695922,8.11006697991,78.
5.96,6491.,8.,7.,3492.,0.,0.,9998.,0.936389200917,6.08652980596,104.
5.98,6485.,15.,5.,3489.,0.,0.,9994.,0.935898077308,3.244446668,195.
6.,6488.,13.,5.,3489.,0.,0.,9995.,0.936237349444,3.74494939778,169.
6.02,6490.,13.,5.,3485.,0.,0.,9993.,0.936713391682,3.74685356673,169.
6.04,6491.,11.,6.,3487.,0.,0.,9995.,0.936670258206,4.42789576606,143.
6.06,6482.,17.,8.,3484.,0.,0.,9991.,0.93574601757,2.8622819361,221.
6.08,6480.,18.,11.,3481.,0.,0.,9990.,0.935550935551,2.7027027027,234.
6.1,6474.,20.,8.,3490.,0.,0.,9992.,0.934497598078,2.429693755,260.
6.12,6464.,22.,4.,3498.,0.,0.,9988.,0.933427805675,2.20628390432,286.
6.14,6473.,21.,5.,3486.,0.,0.,9985.,0.935008281653,2.31525860219,273.
6.16,6470.,13.,9.,3492.,0.,0.,9984.,0.934668546598,3.73867418639,169.
6.18,6460.,21.,13.,3488.,0.,0.,9982.,0.933410908867,2.31130320291,273.
6.2,6459.,24.,13.,3486.,0.,0.,9982.,0.933266418014,2.02207723903,312.
6.22,6446.,32.,18.,3487.,0.,0.,9983.,0.931294739519,1.51335395172,416.
6.24,6442.,31.,13.,3499.,0.,0.,9985.,0.930530411001,1.56088972168,403.
6.26,6441.,31.,10.,3504.,0.,0.,9986.,0.930292794528,1.56049113921,403.
6.28,6437.,26.,17.,3506.,0.,0.,9986.,0.929715062626,1.85943012525,338.
6.3,6419.,25.,11.,3525.,0.,0.,9980.,0.927672652998,1.92955911824,325.
6.32,6424.,20.,18.,3520.,0.,0.,9982.,0.928209238167,2.41334401923,260.
6.34,6423.,18.,11.,3532.,0.,0.,9984.,0.927878836908,2.68053886218,234.
6.36,6417.,28.,4.,3532.,0.,0.,9981.,0.927290698481,1.72211129718,364.
6.38,6419.,25.,11.,3527.,0.,0.,9982.,0.927486783903,1.92917251052,325.
6.4,6412.,21.,17.,3530.,0.,0.,9980.,0.926661014336,2.29458917836,273.
6.42,6398.,30.,15.,3536.,0.,0.,9979.,0.924730395369,1.60286601864,390.
6.44,6390.,28.,17.,3544.,0.,0.,9979.,0.923574121039,1.71520908193,364.
6.46,6384.,32.,12.,3550.,0.,0.,9978.,0.922799389426,1.49954900782,416.
6.48,6366.,32.,20.,3555.,0.,0.,9973.,0.920658855834,1.49607064073,416.
6.5,6353.,42.,19.,3558.,0.,0.,9972.,0.918870915486,1.13764970489,546.
6.52,6344.,46.,11.,3575.,0.,0.,9976.,0.917201283079,1.03683623305,598.
6.54,6331.,48.,19.,3579.,0.,0.,9977.,0.915230029067,0.991499198156,624.
6.56,6310.,49.,20.,3601.,0.,0.,9980.,0.911919993834,0.967751830191,637.
6.58,6293.,45.,19.,3627.,0.,0.,9984.,0.909098788831,1.05051415598,585.
6.6,6276.,44.,24.,3639.,0.,0.,9983.,0.906733755076,1.07159443782,572.
6.62,6267.,49.,17.,3650.,0.,0.,9983.,0.905433467664,0.960868169766,637.
6.64,6258.,45.,19.,3659.,0.,0.,9981.,0.904314351113,1.0449854724,585.
6.66,6255.,52.,19.,3661.,0.,0.,9987.,0.903337800679,0.903337800679,676.
6.68,6244.,44.,26.,3672.,0.,0.,9986.,0.901839498375,1.06581031626,572.
6.7,6224.,46.,38.,3681.,0.,0.,9989.,0.898680856635,1.0159000988,598.
6.72,6203.,52.,20.,3710.,0.,0.,9985.,0.896007472748,0.896007472748,676.
6.74,6178.,57.,13.,3736.,0.,0.,9984.,0.892485669379,0.814197452767,741.
6.76,6171.,48.,18.,3749.,0.,0.,9986.,0.891295891171,0.965570548768,624.
6.78,6155.,36.,24.,3769.,0.,0.,9984.,0.889163045488,1.28434662126,468.
6.8,6157.,34.,16.,3777.,0.,0.,9984.,0.889451969305,1.360338306,442.
6.82,6151.,29.,16.,3789.,0.,0.,9985.,0.888496205847,1.59316561048,377.
6.84,6146.,23.,11.,3804.,0.,0.,9984.,0.887862888314,2.00734218227,299.
6.86,6140.,21.,16.,3806.,0.,0.,9983.,0.887084967522,2.19659134815,273.
6.88,6134.,34.,8.,3813.,0.,0.,9989.,0.885685792834,1.35457827139,442.
6.9,6135.,34.,9.,3813.,0.,0.,9991.,0.885652856802,1.35452789864,442.
6.92,6127.,26.,16.,3818.,0.,0.,9987.,0.884852230977,1.76970446195,338.
6.94,6116.,35.,11.,3825.,0.,0.,9987.,0.883263627331,1.31227738918,455.
6.96,6102.,38.,6.,3840.,0.,0.,9986.,0.881330015868,1.20603054803,494.
6.98,6107.,28.,14.,3840.,0.,0.,9989.,0.881787273693,1.63760493686,364.
7.,6107.,26.,7.,3850.,0.,0.,9990.,0.881699006699,1.7633980134,338.
7.02,6109.,21.,11.,3848.,0.,0.,9989.,0.882076052889,2.18418832144,273.
7.04,6109.,21.,10.,3850.,0.,0.,9990.,0.881987756988,2.18396968397,273.
7.06,6112.,19.,2.,3856.,0.,0.,9989.,0.882509221682,2.41528839618,247.
7.08,6114.,19.,2.,3852.,0.,0.,9987.,0.882974790304,2.41656258399,247.
7.1,6116.,15.,9.,3849.,0.,0.,9989.,0.883086780073,3.06136750425,195.
7.12,6122.,21.,1.,3849.,0.,0.,9993.,0.883599288733,2.18796014353,273.
7.14,6125.,17.,6.,3846.,0.,0.,9994.,0.883943827835,2.70382817926,221.
7.16,6131.,11.,9.,3845.,0.,0.,9996.,0.884632699234,4.18190003274,143.
7.18,6132.,16.,6.,3841.,0.,0.,9995.,0.884865509678,2.87581290645,208.
7.2,6131.,16.,10.,3839.,0.,0.,9996.,0.884632699234,2.87505627251,208.
7.22,6128.,19.,9.,3842.,0.,0.,9998.,0.884022958438,2.41943125467,247.
7.24,6119.,21.,15.,3843.,0.,0.,9998.,0.882724621847,2.18579430172,273.
7.26,6108.,25.,13.,3852.,0.,0.,9998.,0.881137766015,1.83276655331,325.
7.28,6102.,27.,10.,3863.,0.,0.,10002.,0.879920169812,1.69466106779,351.
7.3,6104.,19.,19.,3861.,0.,0.,10003.,0.880120579211,2.40875105889,247.
7.32,6103.,22.,15.,3868.,0.,0.,10008.,0.879536755211,2.07890505777,286.
7.34,6099.,22.,16.,3869.,0.,0.,10006.,0.87913597995,2.07795777079,286.
7.36,6089.,30.,15.,3875.,0.,0.,10009.,0.877431465527,1.52088120691,390.
7.38,6079.,32.,9.,3889.,0.,0.,10009.,0.875990454745,1.42348448896,416.
7.4,6075.,33.,18.,3882.,0.,0.,10008.,0.875501521859,1.37957815566,429.
7.42,6073.,26.,17.,3896.,0.,0.,10012.,0.874863625188,1.74972725038,338.
7.44,6069.,28.,20.,3898.,0.,0.,10015.,0.874025500211,1.62319021468,364.
7.46,6059.,31.,14.,3912.,0.,0.,10016.,0.872498233595,1.4635454241,403.
7.48,6054.,29.,15.,3919.,0.,0.,10017.,0.87169120188,1.56303249992,377.
7.5,6056.,20.,13.,3929.,0.,0.,10018.,0.871892132623,2.26691954482,260.
7.52,6047.,18.,7.,3942.,0.,0.,10014.,0.870944139743,2.51606084815,234.
7.54,6056.,7.,12.,3940.,0.,0.,10015.,0.872153308499,6.47885314885,91.
7.56,6056.,10.,6.,3943.,0.,0.,10015.,0.872153308499,4.53519720419,130.
7.58,6056.,10.,4.,3944.,0.,0.,10014.,0.872240401899,4.53565008987,130.
7.6,6058.,6.,4.,3946.,0.,0.,10014.,0.872528460156,7.56191332135,78.
7.62,6053.,10.,8.,3943.,0.,0.,10014.,0.871808314514,4.53340323547,130.
7.64,6057.,9.,10.,3939.,0.,0.,10015.,0.872297323246,5.03994008987,117.
7.66,6061.,13.,2.,3938.,0.,0.,10014.,0.872960547541,3.49184219016,169.
7.68,6062.,13.,5.,3934.,0.,0.,10014.,0.87310457667,3.49241830668,169.
7.7,6069.,12.,6.,3931.,0.,0.,10018.,0.873763763687,3.78630964264,156.
7.72,6075.,14.,5.,3926.,0.,0.,10020.,0.874453017043,3.24796834902,182.
7.74,6077.,11.,4.,3926.,0.,0.,10018.,0.874915536649,4.13596435507,143.
7.76,6074.,14.,4.,3925.,0.,0.,10017.,0.874570921741,3.24840628075,182.
7.78,6075.,10.,9.,3920.,0.,0.,10014.,0.874976955339,4.54988016777,130.
7.8,6078.,15.,4.,3918.,0.,0.,10015.,0.875321632935,3.03444832751,195.
7.82,6074.,18.,3.,3919.,0.,0.,10014.,0.874832926211,2.52729512017,234.
7.84,6093.,9.,11.,3910.,0.,0.,10023.,0.87678147952,5.06584854834,117.
7.86,6095.,6.,10.,3908.,0.,0.,10019.,0.877419441523,7.60430182653,78.
7.88,6103.,10.,6.,3900.,0.,0.,10019.,0.878571099526,4.56856971754,130.
7.9,6106.,14.,3.,3897.,0.,0.,10020.,0.87891524643,3.26454234388,182.
7.92,6109.,12.,7.,3888.,0.,0.,10016.,0.879698252028,3.81202575879,156.
7.94,6107.,16.,8.,3885.,0.,0.,10016.,0.87941025129,2.85808331669,208.
7.96,6111.,17.,8.,3883.,0.,0.,10019.,0.87972275753,2.69091667009,221.
7.98,6109.,22.,1.,3884.,0.,0.,10016.,0.879698252028,2.07928677752,286.
8.,6110.,13.,9.,3883.,0.,0.,10015.,0.879930104843,3.51972041937,169.
8.02,6114.,17.,7.,3881.,0.,0.,10019.,0.880154629281,2.69223768957,221.
8.04,6116.,16.,5.,3879.,0.,0.,10016.,0.880706254608,2.86229532748,208.
8.06,6114.,16.,13.,3873.,0.,0.,10016.,0.880418253871,2.86135932508,208.
8.08,6116.,19.,12.,3869.,0.,0.,10016.,0.880706254608,2.41035395998,247.
8.1,6120.,14.,12.,3870.,0.,0.,10016.,0.881282256083,3.27333409402,182.
8.12,6116.,18.,7.,3876.,0.,0.,10017.,0.880618333449,2.54400851885,234.
8.14,6125.,19.,0.,3876.,0.,0.,10020.,0.881650161216,2.41293728333,247.
8.16,6130.,13.,4.,3875.,0.,0.,10022.,0.882193789049,3.52877515619,169.
8.18,6130.,15.,2.,3875.,0.,0.,10022.,0.882193789049,3.05827180204,195.
8.2,6145.,9.,6.,3866.,0.,0.,10026.,0.883999677761,5.10755369373,117.
8.22,6156.,6.,3.,3862.,0.,0.,10027.,0.885493782173,7.6742794455,78.
8.24,6159.,8.,5.,3851.,0.,0.,10023.,0.8862788663,5.76081263095,104.
8.26,6162.,7.,5.,3849.,0.,0.,10023.,0.886710565699,6.58699277376,91.
8.28,6167.,11.,3.,3844.,0.,0.,10025.,0.887253021293,4.19428700975,143.
8.3,6171.,13.,2.,3841.,0.,0.,10027.,0.887651418094,3.55060567238,169.
8.32,6180.,11.,5.,3834.,0.,0.,10030.,0.888680113506,4.20103326384,143.
8.34,6182.,16.,5.,3829.,0.,0.,10032.,0.88879048583,2.88856907895,208.
8.36,6183.,18.,1.,3830.,0.,0.,10032.,0.888934256533,2.56803229665,234.
8.38,6185.,12.,7.,3824.,0.,0.,10028.,0.88957649351,3.85483147188,156.
8.4,6181.,17.,10.,3819.,0.,0.,10027.,0.889089842042,2.7195689286,221.
8.42,6189.,16.,9.,3817.,0.,0.,10031.,0.889885585454,2.89212815273,208.
8.44,6193.,15.,9.,3814.,0.,0.,10031.,0.890460725597,3.0869305154,195.
8.46,6196.,17.,5.,3814.,0.,0.,10032.,0.890803275672,2.7248100197,221.
8.48,6199.,13.,8.,3810.,0.,0.,10030.,0.891412301557,3.56564920623,169.
8.5,6192.,13.,11.,3812.,0.,0.,10028.,0.890583289865,3.56233315946,169.
8.52,6193.,11.,4.,3821.,0.,0.,10029.,0.890638302768,4.21029015854,143.
8.54,6202.,10.,1.,3816.,0.,0.,10029.,0.891932626153,4.638049656,130.
8.56,6205.,6.,6.,3811.,0.,0.,10028.,0.892453054524,7.73459313921,78.
8.58,6206.,10.,5.,3805.,0.,0.,10026.,0.892774939005,4.64242968282,130.
8.6,6213.,9.,2.,3800.,0.,0.,10024.,0.893960264596,5.165103751,117.
8.62,6217.,6.,8.,3793.,0.,0.,10024.,0.894535806372,7.75264365523,78.
8.64,6220.,9.,1.,3796.,0.,0.,10026.,0.894788933389,5.16989161513,117.
8.66,6223.,6.,5.,3789.,0.,0.,10023.,0.89548845348,7.76089993016,78.
8.68,6231.,6.,5.,3781.,0.,0.,10023.,0.896639651878,7.77087698294,78.
8.7,6230.,10.,3.,3779.,0.,0.,10022.,0.896585204857,4.66224306526,130.
8.72,6234.,4.,8.,3771.,0.,0.,10017.,0.897608680628,11.6689128482,52.
8.74,6236.,9.,0.,3773.,0.,0.,10018.,0.897807024279,5.18732947361,117.
8.76,6240.,6.,5.,3765.,0.,0.,10016.,0.898562300319,7.7875399361,78.
8.78,6246.,9.,1.,3760.,0.,0.,10016.,0.899426302531,5.19668530351,117.
8.8,6252.,8.,3.,3753.,0.,0.,10016.,0.900290304743,5.85188698083,104.
8.82,6257.,11.,4.,3745.,0.,0.,10017.,0.900920358468,4.25889624003,143.
8.84,6269.,7.,5.,3743.,0.,0.,10024.,0.902017849469,6.70070402463,91.
8.86,6275.,14.,1.,3733.,0.,0.,10023.,0.902971243064,3.35389318852,182.
8.88,6280.,9.,7.,3727.,0.,0.,10023.,0.903690742062,5.22132428747,117.
8.9,6284.,8.,11.,3719.,0.,0.,10022.,0.904356569393,5.87831770106,104.
8.92,6281.,17.,5.,3719.,0.,0.,10022.,0.903924826919,2.7649465294,221.
8.94,6286.,13.,4.,3720.,0.,0.,10023.,0.904554140861,3.61821656344,169.
8.96,6296.,9.,4.,3717.,0.,0.,10026.,0.905722045758,5.23306070882,117.
8.98,6294.,13.,9.,3711.,0.,0.,10027.,0.90534403265,3.6213761306,169.
9.,6288.,19.,10.,3712.,0.,0.,10029.,0.904300605168,2.47492797204,247.
9.02,6290.,9.,15.,3715.,0.,0.,10029.,0.904588232587,5.22650978828,117.
9.04,6286.,14.,14.,3714.,0.,0.,10028.,0.90410312663,3.35809732748,182.
9.06,6285.,12.,10.,3722.,0.,0.,10029.,0.90386916404,3.91676637751,156.
9.08,6278.,17.,7.,3725.,0.,0.,10027.,0.903042554334,2.76224781326,221.
9.1,6271.,15.,12.,3727.,0.,0.,10025.,0.902215614809,3.127680798,195.
9.12,6266.,19.,12.,3725.,0.,0.,10022.,0.901766114548,2.46799147139,247.
9.14,6269.,18.,7.,3728.,0.,0.,10022.,0.902197857022,2.60634936473,234.
9.16,6271.,14.,7.,3732.,0.,0.,10024.,0.902305620357,3.35142087561,182.
9.18,6275.,11.,6.,3733.,0.,0.,10025.,0.902791099175,4.26773974156,143.
9.2,6286.,8.,3.,3729.,0.,0.,10026.,0.904283478341,5.87784260922,104.
9.22,6291.,9.,2.,3726.,0.,0.,10028.,0.904822266883,5.22786198644,117.
9.24,6302.,6.,5.,3719.,0.,0.,10032.,0.906042970188,7.85237240829,78.
9.26,6304.,8.,5.,3718.,0.,0.,10035.,0.906059560768,5.88938714499,104.
9.28,6302.,6.,9.,3717.,0.,0.,10034.,0.905862375615,7.85080725533,78.
9.3,6302.,10.,7.,3712.,0.,0.,10031.,0.906133294479,4.71189313129,130.
9.32,6301.,13.,7.,3708.,0.,0.,10029.,0.906170183391,3.62468073356,169.
9.34,6302.,14.,8.,3707.,0.,0.,10031.,0.906133294479,3.36563795092,182.
9.36,6303.,15.,8.,3706.,0.,0.,10032.,0.906186740891,3.14144736842,195.
9.38,6309.,15.,5.,3707.,0.,0.,10036.,0.906687846828,3.14318453567,195.
9.4,6305.,14.,9.,3706.,0.,0.,10034.,0.906293601754,3.36623337794,182.
9.42,6299.,20.,7.,3707.,0.,0.,10033.,0.905521394782,2.35435562643,260.
9.44,6296.,19.,6.,3708.,0.,0.,10029.,0.905451114844,2.47807673536,247.
9.46,6299.,16.,8.,3706.,0.,0.,10029.,0.905882555972,2.94411830691,208.
9.48,6300.,13.,15.,3701.,0.,0.,10029.,0.906026369682,3.62410547873,169.
9.5,6292.,24.,8.,3705.,0.,0.,10029.,0.904875860006,1.96056436335,312.
9.52,6288.,24.,9.,3707.,0.,0.,10028.,0.904390782731,1.95951336258,312.
9.54,6287.,24.,9.,3709.,0.,0.,10029.,0.904156791459,1.95900638149,312.
9.56,6285.,23.,9.,3711.,0.,0.,10028.,0.903959298579,2.04373406635,299.
9.58,6279.,21.,8.,3717.,0.,0.,10025.,0.903366583541,2.23690773067,273.
9.6,6278.,17.,12.,3714.,0.,0.,10021.,0.903583244417,2.76390168881,221.
9.62,6282.,15.,11.,3714.,0.,0.,10022.,0.904068741077,3.13410496907,195.
9.64,6280.,17.,13.,3715.,0.,0.,10025.,0.903510454633,2.7636790377,221.
9.66,6274.,21.,15.,3713.,0.,0.,10023.,0.902827343264,2.23557246904,273.
9.68,6272.,19.,12.,3720.,0.,0.,10023.,0.902539543665,2.47010822477,247.
9.7,6270.,22.,11.,3717.,0.,0.,10020.,0.902521879318,2.13323353293,286.
9.72,6275.,21.,12.,3713.,0.,0.,10021.,0.903151458859,2.23637504099,273.
9.74,6260.,25.,10.,3725.,0.,0.,10020.,0.901082450484,1.87425149701,325.
9.76,6255.,27.,12.,3729.,0.,0.,10023.,0.90009324707,1.73351292028,351.
9.78,6252.,22.,17.,3729.,0.,0.,10020.,0.899930907416,2.12710941753,286.
9.8,6241.,27.,15.,3738.,0.,0.,10021.,0.898257889202,1.72997815698,351.
9.82,6241.,22.,17.,3742.,0.,0.,10022.,0.898168260596,2.12294316141,286.
9.84,6238.,29.,13.,3744.,0.,0.,10024.,0.8975574007,1.60941327022,377.
9.86,6249.,19.,11.,3746.,0.,0.,10025.,0.899050450796,2.46055912849,247.
9.88,6251.,18.,7.,3752.,0.,0.,10028.,0.899069144856,2.59731086292,234.
9.9,6251.,13.,11.,3750.,0.,0.,10025.,0.899338192979,3.59735277192,169.
9.92,6251.,19.,9.,3748.,0.,0.,10027.,0.899158809675,2.46085568964,247.
9.94,6243.,24.,8.,3750.,0.,0.,10025.,0.898187224247,1.9460723192,312.
9.96,6242.,12.,17.,3754.,0.,0.,10025.,0.898043353156,3.89152119701,156.
9.98,6235.,15.,16.,3758.,0.,0.,10024.,0.897125744367,3.11003591381,195.
10.,6230.,13.,19.,3762.,0.,0.,10024.,0.896406317147,3.58562526859,169.
