t,s,e,i,r,c,o,n,reff,coal,reportr
5.,6250.,5.,3.,3734.,0.,0.,9992.,0.902164038923,9.3825060048,65.
5.02,6255.,5.,3.,3726.,0.,0.,9989.,0.903156934166,9.39283211533,65.
5.04,6258.,11.,0.,3717.,0.,0.,9986.,0.90386156003,4.27280010196,143.
5.06,6271.,6.,5.,3708.,0.,0.,9990.,0.905376530377,7.8465965966,78.
5.08,6281.,6.,3.,3699.,0.,0.,9989.,0.906911063709,7.85989588547,78.
5.1,6283.,12.,1.,3694.,0.,0.,9990.,0.907109032109,3.93080580581,156.
5.12,6291.,7.,5.,3689.,0.,0.,9992.,0.908082235019,6.74575374585,91.
5.14,6296.,11.,6.,3680.,0.,0.,9993.,0.908713022192,4.29573428673,143.
5.16,6301.,12.,7.,3679.,0.,0.,9999.,0.90888896582,3.93851885189,156.
5.18,6297.,16.,6.,3678.,0.,0.,9997.,0.908493701957,2.95260453136,208.
5.2,6306.,13.,7.,3670.,0.,0.,9996.,0.909883184043,3.63953273617,169.
5.22,6309.,12.,4.,3669.,0.,0.,9994.,0.91049822201,3.94549229538,156.
5.24,6318.,10.,4.,3666.,0.,0.,9998.,0.911432286457,4.73944788958,130.
5.26,6319.,9.,6.,3664.,0.,0.,9998.,0.911576546078,5.26688671068,117.
5.28,6319.,10.,5.,3665.,0.,0.,9999.,0.911485379307,4.7397239724,130.
5.3,6320.,12.,3.,3663.,0.,0.,9998.,0.9117208057,3.95079015803,156.
5.32,6325.,11.,5.,3657.,0.,0.,9998.,0.912442103805,4.31336267253,143.
5.34,6331.,12.,8.,3646.,0.,0.,9997.,0.913399019706,3.95806241873,156.
5.36,6320.,15.,12.,3648.,0.,0.,9995.,0.911994458768,3.1615807904,195.
5.38,6314.,21.,11.,3646.,0.,0.,9992.,0.911402198682,2.25680544436,273.
5.4,6296.,28.,7.,3654.,0.,0.,9985.,0.909441084704,1.68896201445,364.
5.42,6292.,19.,18.,3656.,0.,0.,9985.,0.908863294942,2.48741533353,247.
5.44,6283.,22.,13.,3667.,0.,0.,9985.,0.907563267979,2.1451495425,286.
5.46,6281.,29.,4.,3673.,0.,0.,9987.,0.907092682025,1.62651101604,377.
5.48,6286.,20.,11.,3672.,0.,0.,9989.,0.907633011697,2.35984583041,260.
5.5,6280.,20.,9.,3681.,0.,0.,9990.,0.906675906676,2.35735735736,260.
5.52,6287.,12.,16.,3676.,0.,0.,9991.,0.907595682268,3.93291462316,156.
5.54,6282.,25.,10.,3682.,0.,0.,9999.,0.906148307138,1.88478847885,325.
5.56,6274.,26.,10.,3690.,0.,0.,10000.,0.904903846154,1.80980769231,338.
5.58,6273.,24.,14.,3691.,0.,0.,10002.,0.904578699645,1.9599205159,312.
5.6,6261.,23.,14.,3705.,0.,0.,10003.,0.902758018748,2.04101812934,299.
5.62,6254.,29.,9.,3713.,0.,0.,10005.,0.901568446546,1.61660549036,377.
5.64,6250.,24.,13.,3713.,0.,0.,10000.,0.901442307692,1.953125,312.
5.66,6247.,23.,11.,3720.,0.,0.,10001.,0.900919523432,2.03686153124,299.
5.68,6246.,27.,7.,3722.,0.,0.,10002.,0.900685247566,1.73465306939,351.
5.7,6250.,22.,15.,3717.,0.,0.,10004.,0.901081874942,2.12982988623,286.
5.72,6237.,30.,8.,3729.,0.,0.,10004.,0.899207624642,1.55862654938,390.
5.74,6238.,32.,8.,3724.,0.,0.,10002.,0.899531632135,1.46173890222,416.
5.76,6236.,28.,16.,3720.,0.,0.,10000.,0.899423076923,1.67035714286,364.
5.78,6232.,24.,20.,3723.,0.,0.,9999.,0.898936047451,1.94769476948,312.
5.8,6225.,23.,17.,3735.,0.,0.,10000.,0.897836538462,2.02989130435,299.
5.82,6214.,29.,9.,3747.,0.,0.,9999.,0.896339633963,1.60722968849,377.
5.84,6209.,26.,15.,3749.,0.,0.,9999.,0.895618407995,1.79123681599,338.
5.86,6203.,30.,11.,3755.,0.,0.,9999.,0.894752936832,1.55090509051,390.
5.88,6194.,29.,23.,3752.,0.,0.,9998.,0.893544093434,1.60221699512,377.
5.9,6180.,35.,15.,3769.,0.,0.,9999.,0.891435297376,1.3244181561,455.
5.92,6172.,29.,17.,3780.,0.,0.,9998.,0.890370381769,1.59652620179,377.
5.94,6170.,29.,21.,3779.,0.,0.,9999.,0.889992845438,1.5958492401,377.
5.96,6153.,33.,20.,3791.,0.,0.,9997.,0.887718238548,1.39882873953,429.
5.98,6147.,33.,11.,3810.,0.,0.,10001.,0.886497888673,1.39690576397,429.
6.,6143.,34.,7.,3821.,0.,0.,10005.,0.885566831969,1.35439633125,442.
6.02,6142.,27.,10.,3823.,0.,0.,10002.,0.885688246966,1.70576995712,351.
6.04,6136.,27.,16.,3823.,0.,0.,10002.,0.884823035393,1.70410362372,351.
6.06,6132.,22.,14.,3832.,0.,0.,10000.,0.884423076923,2.09045454545,286.
6.08,6133.,20.,11.,3839.,0.,0.,10003.,0.884302017087,2.29918524443,260.
6.1,6129.,23.,6.,3845.,0.,0.,10003.,0.883725267035,1.99798756025,299.
6.12,6143.,15.,6.,3842.,0.,0.,10006.,0.885478328388,3.06965820508,195.
6.14,6152.,13.,8.,3837.,0.,0.,10010.,0.886421271037,3.54568508415,169.
6.16,6147.,15.,8.,3839.,0.,0.,10009.,0.885789328066,3.0707363373,195.
6.18,6142.,16.,11.,3838.,0.,0.,10007.,0.885245712617,2.877048566,208.
6.2,6140.,21.,14.,3834.,0.,0.,10009.,0.884780620518,2.19088534605,273.
6.22,6144.,21.,11.,3834.,0.,0.,10010.,0.885268577576,2.19209362067,273.
6.24,6144.,13.,11.,3843.,0.,0.,10011.,0.885180147991,3.54072059196,169.
6.26,6144.,15.,10.,3844.,0.,0.,10013.,0.885003341809,3.06801158494,195.
6.28,6135.,17.,13.,3841.,0.,0.,10006.,0.884325174126,2.70499465027,221.
6.3,6125.,21.,13.,3848.,0.,0.,10007.,0.882795504685,2.18596982113,273.
6.32,6119.,15.,18.,3854.,0.,0.,10006.,0.882018865604,3.05766540076,195.
6.34,6119.,11.,15.,3863.,0.,0.,10008.,0.881842602841,4.16871048616,143.
6.36,6118.,9.,10.,3869.,0.,0.,10006.,0.881874721321,5.09527616763,117.
6.38,6121.,11.,6.,3867.,0.,0.,10005.,0.882395340791,4.17132342919,143.
6.4,6124.,13.,5.,3861.,0.,0.,10003.,0.88300432947,3.53201731788,169.
6.42,6122.,12.,13.,3854.,0.,0.,10001.,0.882892479983,3.82586741326,156.
6.44,6108.,18.,13.,3858.,0.,0.,9997.,0.881225906233,2.54576372912,234.
6.46,6104.,18.,12.,3862.,0.,0.,9996.,0.880736910149,2.54435107376,234.
6.48,6096.,23.,11.,3863.,0.,0.,9993.,0.879846661894,1.98921853993,299.
6.5,6097.,20.,13.,3859.,0.,0.,9989.,0.880343377715,2.28889278206,260.
6.52,6096.,20.,4.,3872.,0.,0.,9992.,0.879934717004,2.28783026421,260.
6.54,6097.,15.,4.,3878.,0.,0.,9994.,0.879902941765,3.05033019812,195.
6.56,6111.,12.,7.,3870.,0.,0.,10000.,0.881394230769,3.819375,156.
6.58,6119.,12.,9.,3862.,0.,0.,10002.,0.882371602603,3.82361027794,156.
6.6,6123.,11.,5.,3867.,0.,0.,10006.,0.882595442734,4.17226936565,143.
6.62,6124.,12.,6.,3860.,0.,0.,10002.,0.883092612247,3.82673465307,156.
6.64,6137.,11.,3.,3854.,0.,0.,10005.,0.884701879829,4.18222706828,143.
6.66,6146.,10.,6.,3847.,0.,0.,10009.,0.885645226988,4.60535518034,130.
6.68,6148.,7.,7.,3847.,0.,0.,10009.,0.885933429145,6.58121975936,91.
6.7,6149.,10.,5.,3847.,0.,0.,10011.,0.88590050944,4.60668264909,130.
6.72,6146.,9.,10.,3846.,0.,0.,10011.,0.88546829257,5.11603902374,117.
6.74,6142.,12.,7.,3851.,0.,0.,10012.,0.884803620271,3.83414902117,156.
6.76,6142.,16.,2.,3853.,0.,0.,10013.,0.884715254784,2.87532457805,208.
6.78,6146.,14.,7.,3847.,0.,0.,10014.,0.885203023459,3.28789694428,182.
6.8,6150.,16.,11.,3837.,0.,0.,10014.,0.885779139973,2.87878220491,208.
6.82,6151.,14.,5.,3840.,0.,0.,10010.,0.886277184354,3.29188668474,182.
6.84,6148.,18.,7.,3838.,0.,0.,10011.,0.88575643715,2.55885192954,234.
6.86,6153.,16.,7.,3834.,0.,0.,10010.,0.886565357719,2.88133741259,208.
6.88,6157.,19.,10.,3825.,0.,0.,10011.,0.887053087757,2.42772424018,247.
6.9,6149.,19.,7.,3833.,0.,0.,10008.,0.886166067146,2.42529660482,247.
6.92,6156.,11.,10.,3836.,0.,0.,10013.,0.886731863961,4.19182335691,143.
6.94,6164.,11.,6.,3832.,0.,0.,10013.,0.887884212063,4.19727082066,143.
6.96,6165.,7.,6.,3833.,0.,0.,10011.,0.888205666075,6.5980992337,91.
6.98,6166.,11.,7.,3828.,0.,0.,10012.,0.888261009865,4.19905204663,143.
7.,6176.,10.,6.,3823.,0.,0.,10015.,0.889435078152,4.62506240639,130.
7.02,6177.,11.,9.,3817.,0.,0.,10014.,0.889667926441,4.205702925,143.
7.04,6180.,16.,0.,3820.,0.,0.,10016.,0.889922278201,2.89224740415,208.
7.06,6183.,11.,7.,3816.,0.,0.,10017.,0.890265394982,4.20852732173,143.
7.08,6190.,9.,8.,3812.,0.,0.,10019.,0.891095380316,5.14855108627,117.
7.1,6185.,13.,7.,3813.,0.,0.,10018.,0.890464471643,3.56185788657,169.
7.12,6185.,20.,5.,3809.,0.,0.,10019.,0.890375594064,2.31497654457,260.
7.14,6188.,20.,9.,3802.,0.,0.,10019.,0.890807465815,2.31609941112,260.
7.16,6187.,19.,11.,3804.,0.,0.,10021.,0.890485749158,2.43711889243,247.
7.18,6190.,15.,7.,3806.,0.,0.,10018.,0.891184329745,3.08943900978,195.
7.2,6200.,11.,9.,3799.,0.,0.,10019.,0.89253495282,4.21925614061,143.
7.22,6206.,12.,6.,3797.,0.,0.,10021.,0.893220391025,3.87062169444,156.
7.24,6211.,10.,1.,3798.,0.,0.,10020.,0.894029249194,4.64895209581,130.
7.26,6211.,6.,7.,3796.,0.,0.,10020.,0.894029249194,7.74825349301,78.
7.28,6214.,5.,7.,3795.,0.,0.,10021.,0.89437181918,9.30146691947,65.
7.3,6221.,3.,6.,3788.,0.,0.,10018.,0.895647449975,15.5245557996,39.
7.32,6226.,10.,2.,3783.,0.,0.,10021.,0.896098961412,4.65971459934,130.
7.34,6223.,8.,5.,3782.,0.,0.,10018.,0.895935393215,5.8235800559,104.
7.36,6227.,9.,4.,3780.,0.,0.,10020.,0.896332335329,5.17880904857,117.
7.38,6234.,11.,4.,3773.,0.,0.,10022.,0.897160861489,4.2411240725,143.
7.4,6242.,6.,3.,3771.,0.,0.,10022.,0.898312174754,7.7853721812,78.
7.42,6247.,4.,5.,3765.,0.,0.,10021.,0.899121460318,11.6885789841,52.
7.44,6253.,3.,0.,3762.,0.,0.,10018.,0.900254541825,15.6044120583,39.
7.46,6259.,2.,1.,3756.,0.,0.,10018.,0.901118371547,23.4290776602,26.
7.48,6264.,3.,0.,3748.,0.,0.,10015.,0.902108375898,15.6365451822,39.
7.5,6268.,1.,1.,3742.,0.,0.,10012.,0.90295491564,46.9536556133,13.
7.52,6275.,1.,0.,3730.,0.,0.,10006.,0.904505373699,47.0342794323,13.
7.54,6287.,1.,0.,3717.,0.,0.,10005.,0.906325683312,47.1289355322,13.
7.56,6294.,3.,1.,3707.,0.,0.,10005.,0.907334794141,15.7271364318,39.
7.58,6302.,3.,1.,3704.,0.,0.,10010.,0.908034273419,15.7392607393,39.
7.6,6310.,3.,1.,3696.,0.,0.,10010.,0.909186966879,15.7592407592,39.
7.62,6322.,3.,1.,3687.,0.,0.,10013.,0.910643087064,15.7844801758,39.
7.64,6332.,3.,2.,3679.,0.,0.,10016.,0.911810334234,15.8047124601,39.
7.66,6341.,4.,2.,3669.,0.,0.,10016.,0.913106337552,11.8703823882,52.
7.68,6349.,5.,1.,3660.,0.,0.,10015.,0.914349629402,9.50923614578,65.
7.7,6354.,3.,2.,3655.,0.,0.,10014.,0.915161082177,15.8627920911,39.
7.72,6366.,2.,2.,3647.,0.,0.,10017.,0.916614831709,23.8319856244,26.
7.74,6373.,3.,1.,3644.,0.,0.,10021.,0.917256453755,15.8991118651,39.
7.76,6383.,3.,1.,3635.,0.,0.,10022.,0.918604071044,15.9224705648,39.
7.78,6383.,6.,2.,3630.,0.,0.,10021.,0.918695738948,7.96202973755,78.
7.8,6389.,7.,5.,3623.,0.,0.,10024.,0.919284102769,6.82896762057,91.
7.82,6393.,7.,5.,3617.,0.,0.,10022.,0.920043212625,6.83460672235,91.
7.84,6392.,12.,4.,3615.,0.,0.,10023.,0.919807519628,3.98583258505,156.
7.86,6396.,9.,1.,3617.,0.,0.,10023.,0.920383118827,5.317769131,117.
7.88,6395.,12.,3.,3611.,0.,0.,10021.,0.92042288118,3.98849915178,156.
7.9,6396.,12.,1.,3612.,0.,0.,10021.,0.9205668097,3.98912284203,156.
7.92,6402.,8.,6.,3605.,0.,0.,10021.,0.921430380816,5.9892974753,104.
7.94,6402.,18.,4.,3602.,0.,0.,10026.,0.920970860378,2.66058248554,234.
7.96,6405.,12.,11.,3600.,0.,0.,10028.,0.921218664662,3.99194754687,156.
7.98,6404.,18.,6.,3601.,0.,0.,10029.,0.920982995467,2.66061754246,234.
8.,6404.,19.,3.,3606.,0.,0.,10032.,0.920707581892,2.51983127676,247.
8.02,6406.,12.,7.,3605.,0.,0.,10030.,0.921178771378,3.99177467597,156.
8.04,6410.,11.,8.,3601.,0.,0.,10030.,0.921753968863,4.35738239826,143.
8.06,6411.,14.,3.,3602.,0.,0.,10030.,0.921897768234,3.42419171058,182.
8.08,6410.,14.,3.,3596.,0.,0.,10023.,0.922397716022,3.42604865951,182.
8.1,6410.,12.,8.,3593.,0.,0.,10023.,0.922397716022,3.99705676943,156.
8.12,6419.,17.,4.,3584.,0.,0.,10024.,0.923600666094,2.82513144923,221.
8.14,6419.,16.,8.,3582.,0.,0.,10025.,0.923508536351,3.00140274314,208.
8.16,6418.,13.,12.,3575.,0.,0.,10018.,0.924009859177,3.69603943671,169.
8.18,6411.,19.,9.,3582.,0.,0.,10021.,0.92272573749,2.52535464997,247.
8.2,6403.,19.,12.,3586.,0.,0.,10020.,0.921666282819,2.52245508982,247.
8.22,6388.,24.,16.,3587.,0.,0.,10015.,0.919966204539,1.99326010984,312.
8.24,6381.,27.,16.,3592.,0.,0.,10016.,0.918866352298,1.76966853035,351.
8.26,6374.,30.,12.,3601.,0.,0.,10017.,0.917766719654,1.5907956474,390.
8.28,6368.,25.,13.,3608.,0.,0.,10014.,0.917177489976,1.90772917915,325.
8.3,6365.,20.,15.,3614.,0.,0.,10014.,0.91674540259,2.38353804673,260.
8.32,6358.,22.,12.,3621.,0.,0.,10013.,0.91582865352,2.16468590832,286.
8.34,6354.,19.,13.,3625.,0.,0.,10011.,0.915435328831,2.50540195259,247.
8.36,6344.,20.,11.,3635.,0.,0.,10010.,0.914085914086,2.37662337662,260.
8.38,6347.,19.,17.,3629.,0.,0.,10012.,0.91433548972,2.5023918666,247.
8.4,6337.,23.,11.,3637.,0.,0.,10008.,0.913259776794,2.06476123449,299.
8.42,6336.,16.,14.,3639.,0.,0.,10005.,0.913389459117,2.96851574213,208.
8.44,6330.,23.,10.,3638.,0.,0.,10001.,0.912889480283,2.06392404238,299.
8.46,6330.,25.,8.,3640.,0.,0.,10003.,0.912706957144,1.89843047086,325.
8.48,6339.,23.,7.,3633.,0.,0.,10002.,0.914096026948,2.06665188701,299.
8.5,6339.,28.,5.,3635.,0.,0.,10007.,0.913639298645,1.69675869748,364.
8.52,6337.,17.,15.,3638.,0.,0.,10007.,0.913351038888,2.79377964836,221.
8.54,6329.,17.,16.,3649.,0.,0.,10011.,0.911833521588,2.78913783074,221.
8.56,6323.,24.,13.,3649.,0.,0.,10009.,0.91115111784,1.97416075532,312.
8.58,6319.,25.,8.,3656.,0.,0.,10008.,0.910665698211,1.89418465228,325.
8.6,6315.,21.,15.,3658.,0.,0.,10009.,0.909998309214,2.25332914663,273.
8.62,6310.,33.,7.,3661.,0.,0.,10011.,0.909096148083,1.43251514243,429.
8.64,6307.,34.,15.,3657.,0.,0.,10013.,0.908482434374,1.38944372316,442.
8.66,6298.,44.,9.,3663.,0.,0.,10014.,0.907095450984,1.07202189662,572.
8.68,6300.,33.,14.,3665.,0.,0.,10012.,0.907564768432,1.43010205935,429.
8.7,6294.,36.,15.,3671.,0.,0.,10016.,0.906338320226,1.30915535144,468.
8.72,6294.,37.,10.,3680.,0.,0.,10021.,0.905886100727,1.27313722264,481.
8.74,6288.,34.,12.,3683.,0.,0.,10017.,0.905383924252,1.38470482533,442.
8.76,6286.,28.,18.,3688.,0.,0.,10020.,0.904824965454,1.68038922156,364.
8.78,6275.,40.,13.,3697.,0.,0.,10025.,0.902791099175,1.17362842893,520.
8.8,6269.,32.,21.,3702.,0.,0.,10024.,0.902017849469,1.46577900539,416.
8.82,6263.,32.,12.,3717.,0.,0.,10024.,0.901154536804,1.46437612231,416.
8.84,6263.,25.,19.,3720.,0.,0.,10027.,0.900884918413,1.8738406303,325.
8.86,6247.,34.,11.,3736.,0.,0.,10028.,0.898493832653,1.37416703818,442.
8.88,6241.,27.,15.,3744.,0.,0.,10027.,0.897720385728,1.72894296511,351.
8.9,6237.,20.,20.,3749.,0.,0.,10026.,0.897234497998,2.33280969479,260.
8.92,6232.,28.,7.,3759.,0.,0.,10026.,0.896515214289,1.66495682654,364.
8.94,6232.,24.,11.,3756.,0.,0.,10023.,0.896783551677,1.94303102863,312.
8.96,6230.,19.,20.,3750.,0.,0.,10019.,0.896853670334,2.45454688723,247.
8.98,6232.,19.,10.,3757.,0.,0.,10018.,0.897231137798,2.45557995608,247.
9.,6232.,21.,4.,3762.,0.,0.,10019.,0.897141584835,2.22149344816,273.
9.02,6233.,15.,12.,3757.,0.,0.,10017.,0.897464694635,3.1112109414,195.
9.04,6237.,13.,8.,3760.,0.,0.,10018.,0.8979509959,3.5918039836,169.
9.06,6241.,13.,7.,3758.,0.,0.,10019.,0.898437200089,3.59374880036,169.
9.08,6243.,16.,4.,3761.,0.,0.,10024.,0.898276827921,2.91939969074,208.
9.1,6250.,15.,1.,3757.,0.,0.,10023.,0.899373748072,3.11782899332,195.
9.12,6256.,10.,4.,3751.,0.,0.,10021.,0.900416816992,4.68216744836,130.
9.14,6258.,10.,6.,3747.,0.,0.,10021.,0.900704674031,4.68366430496,130.
9.16,6259.,14.,4.,3744.,0.,0.,10021.,0.90084860255,3.34600909519,182.
9.18,6263.,16.,1.,3742.,0.,0.,10022.,0.901334372074,2.92933670924,208.
9.2,6261.,17.,5.,3739.,0.,0.,10022.,0.901046543758,2.75614236914,221.
9.22,6262.,16.,7.,3740.,0.,0.,10025.,0.900920774986,2.9279925187,208.
9.24,6266.,12.,6.,3741.,0.,0.,10025.,0.901496259352,3.90648379052,156.
9.26,6262.,12.,7.,3740.,0.,0.,10021.,0.901280388108,3.90554834847,156.
9.28,6261.,14.,6.,3739.,0.,0.,10020.,0.901226393367,3.34741231822,182.
9.3,6275.,10.,5.,3735.,0.,0.,10025.,0.902791099175,4.69451371571,130.
9.32,6279.,16.,4.,3726.,0.,0.,10025.,0.903366583541,2.93594139651,208.
9.34,6278.,17.,8.,3720.,0.,0.,10023.,0.903402942463,2.76335017695,221.
9.36,6274.,12.,11.,3726.,0.,0.,10023.,0.902827343264,3.91225182081,156.
9.38,6274.,12.,7.,3726.,0.,0.,10019.,0.903187789354,3.91381375387,156.
9.4,6277.,16.,6.,3720.,0.,0.,10019.,0.903619661105,2.93676389859,208.
9.42,6286.,13.,10.,3712.,0.,0.,10021.,0.904734672572,3.61893869029,169.
9.44,6283.,17.,7.,3716.,0.,0.,10023.,0.904122441462,2.76555099741,221.
9.46,6288.,16.,11.,3709.,0.,0.,10024.,0.904751672908,2.94044293695,208.
9.48,6278.,24.,12.,3709.,0.,0.,10023.,0.903402942463,1.957373042,312.
9.5,6265.,33.,4.,3723.,0.,0.,10025.,0.90135238826,1.42031285423,429.
9.52,6267.,25.,15.,3720.,0.,0.,10027.,0.901460287992,1.87503739902,325.
9.54,6264.,26.,12.,3727.,0.,0.,10029.,0.900849076141,1.80169815228,338.
9.56,6264.,26.,6.,3732.,0.,0.,10028.,0.900938909515,1.80187781903,338.
9.58,6269.,19.,12.,3730.,0.,0.,10030.,0.901478257535,2.4672036522,247.
9.6,6263.,18.,21.,3725.,0.,0.,10027.,0.900884918413,2.60255643097,234.
9.62,6256.,22.,7.,3742.,0.,0.,10027.,0.899878021649,2.12698441481,286.
9.64,6265.,14.,12.,3741.,0.,0.,10032.,0.900723454177,3.34554425837,182.
9.66,6263.,19.,3.,3746.,0.,0.,10031.,0.90052567809,2.46459659267,247.
9.68,6266.,14.,7.,3745.,0.,0.,10032.,0.90086722488,3.34607826384,182.
9.7,6264.,13.,12.,3741.,0.,0.,10030.,0.900759260679,3.60303704272,169.
9.72,6257.,15.,9.,3747.,0.,0.,10028.,0.89993211316,3.11976465895,195.
9.74,6264.,11.,13.,3744.,0.,0.,10032.,0.900579683474,4.25728577642,143.
9.76,6257.,15.,6.,3752.,0.,0.,10030.,0.899752665082,3.11914257228,195.
9.78,6257.,14.,8.,3749.,0.,0.,10028.,0.89993211316,3.34260499174,182.
9.8,6259.,16.,4.,3749.,0.,0.,10028.,0.900219769261,2.9257142501,208.
9.82,6260.,10.,7.,3748.,0.,0.,10025.,0.900633032803,4.68329177057,130.
9.84,6260.,11.,3.,3745.,0.,0.,10019.,0.901172387848,4.26008765164,143.
9.86,6273.,9.,4.,3736.,0.,0.,10022.,0.902773513655,5.21602474556,117.
9.88,6279.,8.,4.,3733.,0.,0.,10024.,0.903456703911,5.87246857542,104.
9.9,6282.,7.,2.,3734.,0.,0.,10025.,0.903798196816,6.71392946206,91.
9.92,6294.,4.,3.,3726.,0.,0.,10027.,0.90534403265,11.7694724245,52.
9.94,6300.,6.,2.,3719.,0.,0.,10027.,0.906207087019,7.85379475416,78.
9.96,6307.,4.,4.,3713.,0.,0.,10028.,0.907123515695,11.792605704,52.
9.98,6314.,4.,4.,3709.,0.,0.,10031.,0.907858714907,11.8021632938,52.
10.,6322.,7.,2.,3698.,0.,0.,10029.,0.90919027129,6.75398487244,91.
