t,cases
5.01,0.65
5.02,0.65
5.03,0.715
5.04,0.715
5.05,0.975
5.06,0.975
5.07,1.3
5.08,1.3
5.09,1.69
5.1,1.69
5.11,2.145
5.12,2.145
5.13,2.145
5.14,2.145
5.15,1.755
5.16,1.755
5.17,1.625
5.18,1.625
5.19,2.08
5.2,2.08
5.21,2.47
5.22,2.47
5.23,2.08
5.24,2.08
5.25,1.56
5.26,1.56
5.27,1.69
5.28,1.69
5.29,2.275
5.3,2.275
5.31,2.34
5.32,2.34
5.33,1.69
5.34,1.69
5.35,1.43
5.36,1.43
5.37,1.365
5.38,1.365
5.39,1.235
5.4,1.235
5.41,1.17
5.42,1.17
5.43,1.235
5.44,1.235
5.45,1.43
5.46,1.43
5.47,1.3
5.48,1.3
5.49,1.105
5.5,1.105
5.51,0.845
5.52,0.845
5.53,0.845
5.54,0.845
5.55,0.78
5.56,0.78
5.57,0.52
5.58,0.52
5.59,0.585
5.6,0.585
5.61,0.585
5.62,0.585
5.63,0.975
5.64,0.975
5.65,1.235
5.66,1.235
5.67,1.04
5.68,1.04
5.69,0.78
5.7,0.78
5.71,0.325
5.72,0.325
5.73,0.325
5.74,0.325
5.75,0.585
5.76,0.585
5.77,0.65
5.78,0.65
5.79,0.78
5.8,0.78
5.81,0.975
5.82,0.975
5.83,0.91
5.84,0.91
5.85,1.105
5.86,1.105
5.87,1.235
5.88,1.235
5.89,1.235
5.9,1.235
5.91,1.3
5.92,1.3
5.93,1.235
5.94,1.235
5.95,1.235
5.96,1.235
5.97,1.3
5.98,1.3
5.99,1.235
6.,1.235
6.01,1.235
6.02,1.235
6.03,1.755
6.04,1.755
6.05,2.47
6.06,2.47
6.07,2.535
6.08,2.535
6.09,1.95
6.1,1.95
6.11,1.625
6.12,1.625
6.13,1.82
6.14,1.82
6.15,1.755
6.16,1.755
6.17,1.495
6.18,1.495
6.19,1.43
6.2,1.43
6.21,1.105
6.22,1.105
6.23,1.235
6.24,1.235
6.25,1.43
6.26,1.43
6.27,1.56
6.28,1.56
6.29,2.275
6.3,2.275
6.31,2.535
6.32,2.535
6.33,2.34
6.34,2.34
6.35,2.665
6.36,2.665
6.37,2.99
6.38,2.99
6.39,2.86
6.4,2.86
6.41,2.99
6.42,2.99
6.43,2.99
6.44,2.99
6.45,2.99
6.46,2.99
6.47,3.445
6.48,3.445
6.49,3.445
6.5,3.445
6.51,3.25
6.52,3.25
6.53,3.51
6.54,3.51
6.55,4.03
6.56,4.03
6.57,4.16
6.58,4.16
6.59,4.03
6.6,4.03
6.61,4.485
6.62,4.485
6.63,4.485
6.64,4.485
6.65,4.03
6.66,4.03
6.67,4.16
6.68,4.16
6.69,3.705
6.7,3.705
6.71,3.12
6.72,3.12
6.73,2.795
6.74,2.795
6.75,2.73
6.76,2.73
6.77,2.99
6.78,2.99
6.79,2.795
6.8,2.795
6.81,2.99
6.82,2.99
6.83,3.9
6.84,3.9
6.85,4.03
6.86,4.03
6.87,3.705
6.88,3.705
6.89,3.64
6.9,3.64
6.91,3.9
6.92,3.9
6.93,4.16
6.94,4.16
6.95,3.445
6.96,3.445
6.97,3.445
6.98,3.445
6.99,4.03
7.,4.03
7.01,3.835
7.02,3.835
7.03,3.445
7.04,3.445
7.05,3.315
7.06,3.315
7.07,3.835
7.08,3.835
7.09,4.095
7.1,4.095
7.11,3.445
7.12,3.445
7.13,2.925
7.14,2.925
7.15,2.925
7.16,2.925
7.17,3.12
7.18,3.12
7.19,3.25
7.2,3.25
7.21,2.535
7.22,2.535
7.23,2.21
7.24,2.21
7.25,2.47
7.26,2.47
7.27,2.145
7.28,2.145
7.29,2.08
7.3,2.08
7.31,2.08
7.32,2.08
7.33,1.69
7.34,1.69
7.35,1.43
7.36,1.43
7.37,1.04
7.38,1.04
7.39,0.715
7.4,0.715
7.41,0.65
7.42,0.65
7.43,0.715
7.44,0.715
7.45,0.715
7.46,0.715
7.47,0.845
7.48,0.845
7.49,1.17
7.5,1.17
7.51,1.17
7.52,1.17
7.53,1.04
7.54,1.04
7.55,0.78
7.56,0.78
7.57,0.52
7.58,0.52
7.59,0.52
7.6,0.52
7.61,0.65
7.62,0.65
7.63,0.65
7.64,0.65
7.65,0.585
7.66,0.585
7.67,0.715
7.68,0.715
7.69,0.78
7.7,0.78
7.71,0.715
7.72,0.715
7.73,0.585
7.74,0.585
7.75,0.325
7.76,0.325
7.77,0.39
7.78,0.39
7.79,0.455
7.8,0.455
7.81,0.52
7.82,0.52
7.83,0.65
7.84,0.65
7.85,0.65
7.86,0.65
7.87,0.585
7.88,0.585
7.89,0.52
7.9,0.52
7.91,1.04
7.92,1.04
7.93,1.365
7.94,1.365
7.95,1.17
7.96,1.17
7.97,1.43
7.98,1.43
7.99,1.365
8.,1.365
8.01,1.04
8.02,1.04
8.03,1.17
8.04,1.17
8.05,1.365
8.06,1.365
8.07,1.17
8.08,1.17
8.09,1.235
8.1,1.235
8.11,1.365
8.12,1.365
8.13,1.235
8.14,1.235
8.15,1.17
8.16,1.17
8.17,0.845
8.18,0.845
8.19,0.78
8.2,0.78
8.21,1.04
8.22,1.04
8.23,0.975
8.24,0.975
8.25,1.04
8.26,1.04
8.27,1.3
8.28,1.3
8.29,0.975
8.3,0.975
8.31,0.845
8.32,0.845
8.33,1.755
8.34,1.755
8.35,2.275
8.36,2.275
8.37,2.47
8.38,2.47
8.39,2.925
8.4,2.925
8.41,3.185
8.42,3.185
8.43,3.055
8.44,3.055
8.45,2.6
8.46,2.6
8.47,2.145
8.48,2.145
8.49,2.08
8.5,2.08
8.51,2.21
8.52,2.21
8.53,2.34
8.54,2.34
8.55,2.73
8.56,2.73
8.57,2.925
8.58,2.925
8.59,2.47
8.6,2.47
8.61,2.405
8.62,2.405
8.63,2.99
8.64,2.99
8.65,2.86
8.66,2.86
8.67,2.405
8.68,2.405
8.69,2.535
8.7,2.535
8.71,2.665
8.72,2.665
8.73,2.21
8.74,2.21
8.75,2.21
8.76,2.21
8.77,2.665
8.78,2.665
8.79,2.535
8.8,2.535
8.81,2.015
8.82,2.015
8.83,1.625
8.84,1.625
8.85,2.145
8.86,2.145
8.87,2.6
8.88,2.6
8.89,3.055
8.9,3.055
8.91,2.99
8.92,2.99
8.93,2.535
8.94,2.535
8.95,2.34
8.96,2.34
8.97,2.6
8.98,2.6
8.99,2.99
9.,2.99
9.01,2.73
9.02,2.73
9.03,2.795
9.04,2.795
9.05,2.665
9.06,2.665
9.07,2.145
9.08,2.145
9.09,1.69
9.1,1.69
9.11,1.56
9.12,1.56
9.13,1.365
9.14,1.365
9.15,1.17
9.16,1.17
9.17,1.105
9.18,1.105
9.19,1.17
9.2,1.17
9.21,1.105
9.22,1.105
9.23,0.91
9.24,0.91
9.25,0.65
9.26,0.65
9.27,0.455
9.28,0.455
9.29,0.325
9.3,0.325
9.31,0.325
9.32,0.325
9.33,0.52
9.34,0.52
9.35,0.715
9.36,0.715
9.37,0.78
9.38,0.78
9.39,0.975
9.4,0.975
9.41,1.04
9.42,1.04
9.43,0.91
9.44,0.91
9.45,0.65
9.46,0.65
9.47,0.455
9.48,0.455
9.49,0.52
9.5,0.52
9.51,0.39
9.52,0.39
9.53,0.39
9.54,0.39
9.55,0.715
9.56,0.715
9.57,0.91
9.58,0.91
9.59,0.91
9.6,0.91
9.61,0.845
9.62,0.845
9.63,1.17
9.64,1.17
9.65,1.365
9.66,1.365
9.67,1.3
9.68,1.3
9.69,1.3
9.7,1.3
9.71,1.3
9.72,1.3
9.73,1.755
9.74,1.755
9.75,2.015
9.76,2.015
9.77,2.145
9.78,2.145
9.79,2.145
9.8,2.145
9.81,2.21
9.82,2.21
9.83,2.535
9.84,2.535
9.85,2.405
9.86,2.405
9.87,2.34
9.88,2.34
9.89,2.21
9.9,2.21
9.91,1.43
9.92,1.43
9.93,1.17
9.94,1.17
9.95,1.69
9.96,1.69
9.97,1.69
9.98,1.69
9.99,1.365
10.,1.365
