t,cases
5.01,0.52
5.02,0.52
5.03,0.52
5.04,0.52
5.05,0.715
5.06,0.715
5.07,0.585
5.08,0.585
5.09,0.585
5.1,0.585
5.11,0.78
5.12,0.78
5.13,0.715
5.14,0.715
5.15,0.65
5.16,0.65
5.17,0.585
5.18,0.585
5.19,0.52
5.2,0.52
5.21,0.585
5.22,0.585
5.23,0.715
5.24,0.715
5.25,1.04
5.26,1.04
5.27,1.17
5.28,1.17
5.29,0.845
5.3,0.845
5.31,1.04
5.32,1.04
5.33,1.82
5.34,1.82
5.35,2.275
5.36,2.275
5.37,2.665
5.38,2.665
5.39,2.99
5.4,2.99
5.41,2.99
5.42,2.99
5.43,2.665
5.44,2.665
5.45,2.21
5.46,2.21
5.47,2.405
5.48,2.405
5.49,2.73
5.5,2.73
5.51,2.6
5.52,2.6
5.53,2.34
5.54,2.34
5.55,2.34
5.56,2.34
5.57,2.275
5.58,2.275
5.59,2.21
5.6,2.21
5.61,2.275
5.62,2.275
5.63,1.95
5.64,1.95
5.65,1.755
5.66,1.755
5.67,1.95
5.68,1.95
5.69,1.885
5.7,1.885
5.71,1.755
5.72,1.755
5.73,1.755
5.74,1.755
5.75,1.43
5.76,1.43
5.77,1.3
5.78,1.3
5.79,1.95
5.8,1.95
5.81,2.21
5.82,2.21
5.83,1.755
5.84,1.755
5.85,1.625
5.86,1.625
5.87,2.145
5.88,2.145
5.89,2.47
5.9,2.47
5.91,2.535
5.92,2.535
5.93,2.925
5.94,2.925
5.95,3.64
5.96,3.64
5.97,3.38
5.98,3.38
5.99,2.795
6.,2.795
6.01,2.99
6.02,2.99
6.03,2.665
6.04,2.665
6.05,2.405
6.06,2.405
6.07,2.34
6.08,2.34
6.09,2.47
6.1,2.47
6.11,2.925
6.12,2.925
6.13,3.055
6.14,3.055
6.15,3.055
6.16,3.055
6.17,2.99
6.18,2.99
6.19,2.21
6.2,2.21
6.21,1.625
6.22,1.625
6.23,1.755
6.24,1.755
6.25,1.82
6.26,1.82
6.27,1.885
6.28,1.885
6.29,2.275
6.3,2.275
6.31,2.34
6.32,2.34
6.33,2.47
6.34,2.47
6.35,2.665
6.36,2.665
6.37,2.08
6.38,2.08
6.39,1.95
6.4,1.95
6.41,2.34
6.42,2.34
6.43,2.73
6.44,2.73
6.45,2.73
6.46,2.73
6.47,2.21
6.48,2.21
6.49,2.275
6.5,2.275
6.51,2.665
6.52,2.665
6.53,2.665
6.54,2.665
6.55,2.6
6.56,2.6
6.57,2.665
6.58,2.665
6.59,3.38
6.6,3.38
6.61,3.445
6.62,3.445
6.63,3.315
6.64,3.315
6.65,3.77
6.66,3.77
6.67,3.64
6.68,3.64
6.69,3.9
6.7,3.9
6.71,4.55
6.72,4.55
6.73,4.55
6.74,4.55
6.75,3.9
6.76,3.9
6.77,2.795
6.78,2.795
6.79,2.34
6.8,2.34
6.81,2.21
6.82,2.21
6.83,1.625
6.84,1.625
6.85,1.56
6.86,1.56
6.87,1.56
6.88,1.56
6.89,1.3
6.9,1.3
6.91,1.17
6.92,1.17
6.93,1.17
6.94,1.17
6.95,0.845
6.96,0.845
6.97,0.65
6.98,0.65
6.99,0.975
7.,0.975
7.01,1.235
7.02,1.235
7.03,1.3
7.04,1.3
7.05,1.365
7.06,1.365
7.07,1.755
7.08,1.755
7.09,2.145
7.1,2.145
7.11,2.21
7.12,2.21
7.13,1.82
7.14,1.82
7.15,1.04
7.16,1.04
7.17,0.78
7.18,0.78
7.19,0.845
7.2,0.845
7.21,0.78
7.22,0.78
7.23,0.715
7.24,0.715
7.25,0.715
7.26,0.715
7.27,0.845
7.28,0.845
7.29,1.04
7.3,1.04
7.31,1.3
7.32,1.3
7.33,1.495
7.34,1.495
7.35,1.625
7.36,1.625
7.37,1.95
7.38,1.95
7.39,1.755
7.4,1.755
7.41,2.08
7.42,2.08
7.43,2.86
7.44,2.86
7.45,2.925
7.46,2.925
7.47,2.73
7.48,2.73
7.49,2.665
7.5,2.665
7.51,2.47
7.52,2.47
7.53,1.755
7.54,1.755
7.55,1.56
7.56,1.56
7.57,1.82
7.58,1.82
7.59,1.755
7.6,1.755
7.61,1.755
7.62,1.755
7.63,2.08
7.64,2.08
7.65,2.6
7.66,2.6
7.67,2.795
7.68,2.795
7.69,2.08
7.7,2.08
7.71,2.08
7.72,2.08
7.73,2.47
7.74,2.47
7.75,2.47
7.76,2.47
7.77,2.535
7.78,2.535
7.79,2.665
7.8,2.665
7.81,2.6
7.82,2.6
7.83,2.665
7.84,2.665
7.85,2.535
7.86,2.535
7.87,2.145
7.88,2.145
7.89,2.21
7.9,2.21
7.91,2.015
7.92,2.015
7.93,1.69
7.94,1.69
7.95,1.69
7.96,1.69
7.97,2.08
7.98,2.08
7.99,2.08
8.,2.08
8.01,1.95
8.02,1.95
8.03,1.82
8.04,1.82
8.05,1.69
8.06,1.69
8.07,1.69
8.08,1.69
8.09,1.82
8.1,1.82
8.11,2.08
8.12,2.08
8.13,1.885
8.14,1.885
8.15,1.82
8.16,1.82
8.17,2.015
8.18,2.015
8.19,2.08
8.2,2.08
8.21,1.755
8.22,1.755
8.23,1.3
8.24,1.3
8.25,1.17
8.26,1.17
8.27,1.3
8.28,1.3
8.29,1.69
8.3,1.69
8.31,1.755
8.32,1.755
8.33,1.43
8.34,1.43
8.35,1.04
8.36,1.04
8.37,1.43
8.38,1.43
8.39,2.47
8.4,2.47
8.41,2.47
8.42,2.47
8.43,2.145
8.44,2.145
8.45,2.21
8.46,2.21
8.47,2.08
8.48,2.08
8.49,2.275
8.5,2.275
8.51,2.6
8.52,2.6
8.53,2.665
8.54,2.665
8.55,2.405
8.56,2.405
8.57,2.015
8.58,2.015
8.59,2.015
8.6,2.015
8.61,1.885
8.62,1.885
8.63,1.365
8.64,1.365
8.65,1.17
8.66,1.17
8.67,1.495
8.68,1.495
8.69,1.755
8.7,1.755
8.71,1.625
8.72,1.625
8.73,1.885
8.74,1.885
8.75,2.145
8.76,2.145
8.77,1.885
8.78,1.885
8.79,2.015
8.8,2.015
8.81,2.015
8.82,2.015
8.83,1.82
8.84,1.82
8.85,1.625
8.86,1.625
8.87,1.56
8.88,1.56
8.89,1.69
8.9,1.69
8.91,1.885
8.92,1.885
8.93,2.015
8.94,2.015
8.95,1.95
8.96,1.95
8.97,2.47
8.98,2.47
8.99,2.665
9.,2.665
9.01,2.47
9.02,2.47
9.03,2.47
9.04,2.47
9.05,2.405
9.06,2.405
9.07,2.665
9.08,2.665
9.09,2.99
9.1,2.99
9.11,3.25
9.12,3.25
9.13,3.12
9.14,3.12
9.15,3.12
9.16,3.12
9.17,3.575
9.18,3.575
9.19,3.64
9.2,3.64
9.21,3.38
9.22,3.38
9.23,3.055
9.24,3.055
9.25,3.64
9.26,3.64
9.27,4.29
9.28,4.29
9.29,3.835
9.3,3.835
9.31,3.25
9.32,3.25
9.33,2.86
9.34,2.86
9.35,2.795
9.36,2.795
9.37,3.185
9.38,3.185
9.39,3.12
9.4,3.12
9.41,2.08
9.42,2.08
9.43,1.56
9.44,1.56
9.45,1.95
9.46,1.95
9.47,2.015
9.48,2.015
9.49,1.69
9.5,1.69
9.51,1.43
9.52,1.43
9.53,1.3
9.54,1.3
9.55,1.69
9.56,1.69
9.57,2.21
9.58,2.21
9.59,2.08
9.6,2.08
9.61,1.82
9.62,1.82
9.63,1.69
9.64,1.69
9.65,1.43
9.66,1.43
9.67,1.495
9.68,1.495
9.69,1.625
9.7,1.625
9.71,2.015
9.72,2.015
9.73,2.08
9.74,2.08
9.75,2.015
9.76,2.015
9.77,2.405
9.78,2.405
9.79,2.145
9.8,2.145
9.81,1.755
9.82,1.755
9.83,1.755
9.84,1.755
9.85,1.95
9.86,1.95
9.87,1.69
9.88,1.69
9.89,1.3
9.9,1.3
9.91,1.56
9.92,1.56
9.93,1.43
9.94,1.43
9.95,0.715
9.96,0.715
9.97,0.52
9.98,0.52
9.99,0.715
10.,0.715
