t,s,e,i,r,c,o,n,reff,coal,reportr
5.,6250.,5.,3.,3734.,0.,0.,9992.,0.902164038923,9.3825060048,65.
5.02,6247.,6.,5.,3729.,0.,0.,9987.,0.902182452573,7.81891458897,78.
5.04,6249.,9.,4.,3723.,0.,0.,9985.,0.902652055006,5.21532298448,117.
5.06,6253.,4.,7.,3720.,0.,0.,9984.,0.9033203125,11.7431640625,52.
5.08,6257.,6.,6.,3718.,0.,0.,9987.,0.903626637706,7.83143086012,78.
5.1,6253.,13.,7.,3713.,0.,0.,9986.,0.903139395153,3.61255758061,169.
5.12,6254.,12.,7.,3710.,0.,0.,9983.,0.903555274736,3.91540619052,156.
5.14,6254.,12.,9.,3707.,0.,0.,9982.,0.903645793197,3.91579843719,156.
5.16,6254.,12.,8.,3711.,0.,0.,9985.,0.903374292208,3.9146219329,156.
5.18,6252.,14.,6.,3712.,0.,0.,9984.,0.903175850592,3.35465315934,182.
5.2,6251.,15.,7.,3711.,0.,0.,9984.,0.903031388683,3.1305088141,195.
5.22,6255.,19.,1.,3714.,0.,0.,9989.,0.903156934166,2.47179792509,247.
5.24,6260.,15.,7.,3710.,0.,0.,9992.,0.903607501386,3.1325060048,195.
5.26,6262.,15.,9.,3704.,0.,0.,9990.,0.904077154077,3.13413413413,195.
5.28,6261.,16.,6.,3706.,0.,0.,9989.,0.904023271753,2.9380756332,208.
5.3,6261.,17.,3.,3710.,0.,0.,9991.,0.903842304228,2.76469410705,221.
5.32,6267.,15.,6.,3703.,0.,0.,9991.,0.904708468391,3.13632269042,195.
5.34,6264.,14.,7.,3706.,0.,0.,9991.,0.904275386309,3.35873714915,182.
5.36,6275.,12.,5.,3701.,0.,0.,9993.,0.905682054361,3.92462223556,156.
5.38,6272.,13.,5.,3702.,0.,0.,9992.,0.90533965634,3.62135862536,169.
5.4,6265.,19.,5.,3702.,0.,0.,9991.,0.904419747003,2.47525404443,247.
5.42,6274.,14.,10.,3696.,0.,0.,9994.,0.905447114422,3.36308928214,182.
5.44,6274.,14.,9.,3701.,0.,0.,9998.,0.905084863126,3.36174377733,182.
5.46,6273.,22.,8.,3696.,0.,0.,9999.,0.904850100395,2.13873660093,286.
5.48,6277.,22.,5.,3698.,0.,0.,10002.,0.90515550736,2.13945847194,286.
5.5,6282.,20.,4.,3696.,0.,0.,10002.,0.905876517004,2.35527894421,260.
5.52,6285.,17.,10.,3688.,0.,0.,10000.,0.906490384615,2.77279411765,221.
5.54,6284.,18.,11.,3690.,0.,0.,10003.,0.906074331547,2.61754806891,234.
5.56,6278.,19.,11.,3693.,0.,0.,10001.,0.905390230208,2.47791010373,247.
5.58,6277.,19.,7.,3697.,0.,0.,10000.,0.905336538462,2.47776315789,247.
5.6,6277.,15.,10.,3695.,0.,0.,9997.,0.905608220928,3.13944183255,195.
5.62,6278.,14.,10.,3695.,0.,0.,9997.,0.905752494979,3.36422355278,182.
5.64,6268.,30.,5.,3697.,0.,0.,10000.,0.904038461538,1.567,390.
5.66,6269.,24.,18.,3691.,0.,0.,10002.,0.904001891929,1.95867076585,312.
5.68,6261.,27.,16.,3699.,0.,0.,10003.,0.902758018748,1.73864507314,351.
5.7,6255.,25.,9.,3711.,0.,0.,10000.,0.902163461538,1.8765,325.
5.72,6246.,27.,9.,3718.,0.,0.,10000.,0.900865384615,1.735,351.
5.74,6251.,23.,2.,3724.,0.,0.,10000.,0.901586538462,2.03836956522,299.
5.76,6260.,16.,7.,3721.,0.,0.,10004.,0.902523605942,2.93320171931,208.
5.78,6257.,14.,13.,3721.,0.,0.,10005.,0.902000922616,3.35028914114,182.
5.8,6245.,24.,10.,3729.,0.,0.,10008.,0.900001152924,1.950002498,312.
5.82,6247.,24.,8.,3727.,0.,0.,10006.,0.900469333784,1.95101688987,312.
5.84,6251.,16.,12.,3728.,0.,0.,10007.,0.900955869353,2.9281065754,208.
5.86,6259.,10.,8.,3731.,0.,0.,10008.,0.9020187696,4.69049760192,130.
5.88,6261.,15.,6.,3730.,0.,0.,10012.,0.901946510341,3.12674790252,195.
5.9,6262.,15.,10.,3723.,0.,0.,10010.,0.902270806117,3.12787212787,195.
5.92,6257.,15.,6.,3728.,0.,0.,10006.,0.901910776611,3.12662402558,195.
5.94,6257.,15.,7.,3726.,0.,0.,10005.,0.902000922616,3.12693653173,195.
5.96,6262.,11.,9.,3721.,0.,0.,10003.,0.902902206261,4.26826497505,143.
5.98,6264.,11.,8.,3719.,0.,0.,10002.,0.903280882285,4.27005507989,143.
6.,6258.,15.,7.,3721.,0.,0.,10001.,0.902505903256,3.12868713129,195.
6.02,6265.,14.,0.,3725.,0.,0.,10004.,0.903244471442,3.35490803679,182.
6.04,6274.,10.,6.,3714.,0.,0.,10004.,0.904542029342,4.70361855258,130.
6.06,6274.,9.,3.,3713.,0.,0.,9999.,0.904994345588,5.22885621896,117.
6.08,6273.,9.,5.,3709.,0.,0.,9996.,0.90512166405,5.22959183673,117.
6.1,6273.,14.,1.,3708.,0.,0.,9996.,0.90512166405,3.36188046647,182.
6.12,6275.,11.,7.,3699.,0.,0.,9992.,0.905772695079,4.28183455856,143.
6.14,6274.,14.,7.,3698.,0.,0.,9993.,0.90553772256,3.36342582665,182.
6.16,6277.,8.,7.,3700.,0.,0.,9992.,0.906061387572,5.88939901922,104.
6.18,6281.,9.,8.,3695.,0.,0.,9993.,0.90654804517,5.23783314987,117.
6.2,6275.,12.,5.,3701.,0.,0.,9993.,0.905682054361,3.92462223556,156.
6.22,6284.,8.,5.,3694.,0.,0.,9991.,0.907162600186,5.89655690121,104.
6.24,6288.,7.,4.,3697.,0.,0.,9996.,0.90728599132,6.73983879266,91.
6.26,6293.,5.,0.,3700.,0.,0.,9998.,0.907825795928,9.44138827766,65.
6.28,6299.,3.,3.,3693.,0.,0.,9998.,0.908691353655,15.75065013,39.
6.3,6304.,5.,1.,3687.,0.,0.,9997.,0.909503620317,9.4588376513,65.
6.32,6312.,4.,0.,3680.,0.,0.,9996.,0.910748914951,11.8397358944,52.
6.34,6315.,5.,0.,3673.,0.,0.,9993.,0.911455326421,9.47913539478,65.
6.36,6324.,4.,0.,3663.,0.,0.,9991.,0.912937027941,11.8681813632,52.
6.38,6332.,5.,0.,3652.,0.,0.,9989.,0.914274933196,9.50845930524,65.
6.4,6341.,4.,2.,3644.,0.,0.,9991.,0.915391159736,11.9000850766,52.
6.42,6353.,3.,2.,3633.,0.,0.,9991.,0.917123488062,15.8968071264,39.
6.44,6358.,4.,3.,3628.,0.,0.,9993.,0.917661593885,11.9296007205,52.
6.46,6359.,6.,2.,3622.,0.,0.,9989.,0.918173452336,7.95750325358,78.
6.48,6371.,7.,3.,3610.,0.,0.,9991.,0.919721980552,6.83222042696,91.
6.5,6375.,6.,1.,3609.,0.,0.,9991.,0.920299423327,7.9759283355,78.
6.52,6376.,6.,1.,3604.,0.,0.,9987.,0.920812440788,7.98037448683,78.
6.54,6385.,7.,0.,3595.,0.,0.,9987.,0.922112207408,6.84997639789,91.
6.56,6396.,6.,1.,3587.,0.,0.,9990.,0.923423423423,8.003003003,78.
6.58,6408.,4.,3.,3577.,0.,0.,9992.,0.924970745827,12.0246196958,52.
6.6,6416.,3.,1.,3573.,0.,0.,9993.,0.926032838371,16.0512358651,39.
6.62,6425.,4.,2.,3558.,0.,0.,9989.,0.92770316579,12.0601411553,52.
6.64,6434.,1.,5.,3552.,0.,0.,9992.,0.928723748229,48.2936349079,13.
6.66,6437.,0.,5.,3552.,0.,0.,9994.,0.928970844045,inf,0.
6.68,6436.,2.,6.,3546.,0.,0.,9990.,0.929198429198,24.1591591592,26.
6.7,6444.,4.,8.,3536.,0.,0.,9992.,0.930167210692,12.092173739,52.
6.72,6449.,2.,1.,3540.,0.,0.,9992.,0.930888941923,24.20311249,26.
6.74,6454.,5.,2.,3529.,0.,0.,9990.,0.931797181797,9.69069069069,65.
6.76,6462.,6.,1.,3521.,0.,0.,9990.,0.932952182952,8.08558558559,78.
6.78,6463.,8.,3.,3515.,0.,0.,9989.,0.933189970506,6.06573480829,104.
6.8,6473.,5.,4.,3510.,0.,0.,9992.,0.934353251832,9.71727381906,65.
6.82,6474.,6.,7.,3504.,0.,0.,9991.,0.934591132019,8.09978981083,78.
6.84,6477.,2.,9.,3503.,0.,0.,9991.,0.9350242141,24.3106295666,26.
6.86,6481.,5.,1.,3506.,0.,0.,9993.,0.935414405468,9.72830981687,65.
6.88,6487.,7.,1.,3498.,0.,0.,9993.,0.936280396277,6.95522580092,91.
6.9,6490.,5.,3.,3496.,0.,0.,9994.,0.936619664106,9.7408445067,65.
6.92,6491.,5.,7.,3491.,0.,0.,9994.,0.936763981466,9.74234540724,65.
6.94,6495.,5.,3.,3494.,0.,0.,9997.,0.937059964143,9.74542362709,65.
6.96,6496.,5.,2.,3491.,0.,0.,9994.,0.937485568264,9.74984990995,65.
6.98,6502.,1.,0.,3493.,0.,0.,9996.,0.938163727029,48.7845138055,13.
7.,6506.,1.,1.,3486.,0.,0.,9994.,0.938928741861,48.8242945767,13.
7.02,6513.,2.,2.,3480.,0.,0.,9997.,0.939656897069,24.4310793238,26.
7.04,6513.,6.,2.,3473.,0.,0.,9994.,0.939938963378,8.14613768261,78.
7.06,6515.,3.,5.,3471.,0.,0.,9994.,0.940227598097,16.297278367,39.
7.08,6518.,6.,4.,3466.,0.,0.,9994.,0.940660550176,8.15239143486,78.
7.1,6518.,8.,1.,3465.,0.,0.,9992.,0.940848832912,6.11551741393,104.
7.12,6526.,7.,3.,3458.,0.,0.,9994.,0.941815089053,6.99634066154,91.
7.14,6536.,8.,5.,3447.,0.,0.,9996.,0.943069535507,6.12995198079,104.
7.16,6543.,8.,4.,3442.,0.,0.,9997.,0.943985118613,6.13590327098,104.
7.18,6547.,11.,2.,3436.,0.,0.,9996.,0.944656708837,4.46564989632,143.
7.2,6546.,11.,4.,3431.,0.,0.,9992.,0.944890527807,4.46675522236,143.
7.22,6551.,8.,6.,3426.,0.,0.,9991.,0.945706905446,6.1470948854,104.
7.24,6555.,14.,5.,3419.,0.,0.,9993.,0.946094958779,3.51406698975,182.
7.26,6556.,9.,9.,3418.,0.,0.,9992.,0.946333990269,5.46770749933,117.
7.28,6558.,6.,3.,3425.,0.,0.,9992.,0.946622682762,8.2040632506,78.
7.3,6563.,3.,4.,3424.,0.,0.,9994.,0.94715483136,16.4173504102,39.
7.32,6574.,1.,2.,3421.,0.,0.,9998.,0.948362749473,49.3148629726,13.
7.34,6579.,4.,0.,3414.,0.,0.,9997.,0.949178984465,12.339326798,52.
7.36,6586.,3.,2.,3406.,0.,0.,9997.,0.950188902825,16.4699409823,39.
7.38,6593.,5.,2.,3399.,0.,0.,9999.,0.951008562395,9.8904890489,65.
7.4,6601.,11.,2.,3389.,0.,0.,10003.,0.95178177316,4.49933201858,143.
7.42,6605.,6.,5.,3388.,0.,0.,10004.,0.952263325439,8.25294882047,78.
7.44,6610.,7.,4.,3382.,0.,0.,10003.,0.953079460777,7.08001885149,91.
7.46,6609.,12.,3.,3378.,0.,0.,10002.,0.953030547737,4.12979904019,156.
7.48,6618.,10.,4.,3374.,0.,0.,10006.,0.953946862652,4.96052368579,130.
7.5,6622.,6.,2.,3374.,0.,0.,10004.,0.954714268139,8.27419032387,78.
7.52,6620.,7.,2.,3371.,0.,0.,10000.,0.954807692308,7.09285714286,91.
7.54,6627.,7.,1.,3365.,0.,0.,10000.,0.955817307692,7.10035714286,91.
7.56,6631.,9.,2.,3355.,0.,0.,9997.,0.95668123514,5.52749158081,117.
7.58,6630.,11.,3.,3352.,0.,0.,9996.,0.956632653061,4.52226345083,143.
7.6,6637.,12.,1.,3350.,0.,0.,10000.,0.957259615385,4.148125,156.
7.62,6649.,5.,7.,3342.,0.,0.,10003.,0.958702773783,9.97050884735,65.
7.64,6651.,11.,2.,3341.,0.,0.,10005.,0.958799446431,4.53250647404,143.
7.66,6646.,10.,6.,3340.,0.,0.,10002.,0.958366019104,4.98350329934,130.
7.68,6648.,12.,5.,3336.,0.,0.,10001.,0.958750278818,4.15458454155,156.
7.7,6649.,10.,10.,3331.,0.,0.,10000.,0.958990384615,4.98675,130.
7.72,6655.,16.,8.,3322.,0.,0.,10001.,0.959759793251,3.11921932807,208.
7.74,6657.,16.,2.,3326.,0.,0.,10001.,0.960048225947,3.12015673433,208.
7.76,6659.,16.,6.,3319.,0.,0.,10000.,0.960432692308,3.12140625,208.
7.78,6651.,21.,3.,3323.,0.,0.,9998.,0.959470740302,2.37583230932,273.
7.8,6662.,9.,10.,3315.,0.,0.,9996.,0.961249884569,5.55388822196,117.
7.82,6664.,15.,10.,3307.,0.,0.,9996.,0.961538461538,3.33333333333,195.
7.84,6659.,18.,8.,3310.,0.,0.,9995.,0.960913148882,2.77597131899,234.
7.86,6664.,15.,10.,3308.,0.,0.,9997.,0.961442278837,3.33299989997,195.
7.88,6656.,20.,7.,3313.,0.,0.,9996.,0.960384153661,2.49699879952,260.
7.9,6653.,20.,12.,3312.,0.,0.,9997.,0.959855264272,2.49562368711,260.
7.92,6646.,22.,9.,3322.,0.,0.,9999.,0.958653557663,2.26590840902,286.
7.94,6633.,26.,12.,3325.,0.,0.,9996.,0.957065518515,1.91413103703,338.
7.96,6635.,24.,15.,3319.,0.,0.,9993.,0.957641502898,2.07488992295,312.
7.98,6626.,28.,12.,3327.,0.,0.,9993.,0.956342516685,1.77606467384,364.
8.,6626.,23.,12.,3334.,0.,0.,9995.,0.956151152499,2.16173304043,299.
8.02,6615.,22.,18.,3336.,0.,0.,9991.,0.954945989852,2.25714506692,286.
8.04,6596.,31.,19.,3343.,0.,0.,9989.,0.952393787012,1.59756377176,403.
8.06,6585.,24.,16.,3360.,0.,0.,9985.,0.951186394977,2.06090385578,312.
8.08,6583.,27.,14.,3365.,0.,0.,9989.,0.950516722241,1.83062479839,351.
8.1,6573.,29.,18.,3372.,0.,0.,9992.,0.948787876455,1.70127481295,377.
8.12,6564.,29.,20.,3379.,0.,0.,9992.,0.947488760239,1.69894536319,377.
8.14,6549.,34.,19.,3390.,0.,0.,9992.,0.945323566546,1.44578898413,442.
8.16,6543.,31.,14.,3403.,0.,0.,9991.,0.944552019895,1.58440983982,403.
8.18,6538.,29.,20.,3407.,0.,0.,9994.,0.943546897369,1.69187719528,377.
8.2,6519.,40.,17.,3413.,0.,0.,9989.,0.941275787982,1.22365852438,520.
8.22,6506.,40.,15.,3428.,0.,0.,9989.,0.939398723211,1.22121834017,520.
8.24,6493.,43.,20.,3433.,0.,0.,9989.,0.93752165844,1.13374712183,559.
8.26,6481.,42.,18.,3451.,0.,0.,9992.,0.935508021802,1.15824802699,546.
8.28,6467.,45.,16.,3459.,0.,0.,9987.,0.933954525499,1.07923634058,585.
8.3,6463.,42.,23.,3461.,0.,0.,9989.,0.933189970506,1.15537805872,546.
8.32,6444.,45.,23.,3474.,0.,0.,9986.,0.930726093454,1.07550570799,585.
8.34,6427.,53.,20.,3484.,0.,0.,9984.,0.928456684541,0.91093863389,689.
8.36,6415.,47.,21.,3507.,0.,0.,9990.,0.926166551167,1.02469490767,611.
8.38,6402.,40.,25.,3519.,0.,0.,9986.,0.924659908487,1.20205788103,520.
8.4,6385.,42.,18.,3541.,0.,0.,9986.,0.922204547906,1.14177705931,546.
8.42,6371.,45.,16.,3554.,0.,0.,9986.,0.92018248625,1.06332198411,585.
8.44,6363.,43.,11.,3570.,0.,0.,9987.,0.918935000116,1.1112702327,559.
8.46,6355.,33.,22.,3576.,0.,0.,9986.,0.917871558644,1.44634306211,429.
8.48,6345.,35.,20.,3585.,0.,0.,9985.,0.916519009283,1.36168538522,455.
8.5,6340.,29.,22.,3594.,0.,0.,9985.,0.915796772081,1.64211834994,377.
8.52,6321.,37.,17.,3608.,0.,0.,9983.,0.913235192134,1.28346567543,481.
8.54,6308.,40.,10.,3621.,0.,0.,9979.,0.911722309157,1.1852390019,520.
8.56,6302.,33.,10.,3632.,0.,0.,9977.,0.911037694389,1.43557454873,429.
8.58,6306.,30.,9.,3631.,0.,0.,9976.,0.911707328357,1.58029270249,390.
8.6,6305.,27.,8.,3637.,0.,0.,9977.,0.911471384184,1.75542636954,351.
8.62,6303.,21.,14.,3640.,0.,0.,9978.,0.911090938526,2.25603470492,273.
8.64,6292.,32.,12.,3643.,0.,0.,9979.,0.909409760497,1.47779086081,416.
8.66,6290.,33.,8.,3649.,0.,0.,9980.,0.909029597657,1.4324102751,429.
8.68,6289.,29.,12.,3651.,0.,0.,9981.,0.908794016323,1.62956168444,377.
8.7,6289.,23.,19.,3654.,0.,0.,9985.,0.908429952621,2.05384163201,299.
8.72,6285.,26.,15.,3661.,0.,0.,9987.,0.907670356078,1.81534071216,338.
8.74,6282.,24.,19.,3663.,0.,0.,9988.,0.907146267829,1.9654835803,312.
8.76,6269.,33.,15.,3671.,0.,0.,9988.,0.905269015126,1.42648450868,429.
8.78,6255.,36.,15.,3683.,0.,0.,9989.,0.903156934166,1.30456001602,468.
8.8,6246.,25.,23.,3691.,0.,0.,9985.,0.902218712684,1.87661492238,325.
8.82,6234.,34.,10.,3704.,0.,0.,9982.,0.900755976142,1.37762678704,442.
8.84,6229.,28.,18.,3708.,0.,0.,9983.,0.899943365259,1.67132339262,364.
8.86,6226.,25.,14.,3716.,0.,0.,9981.,0.899690180574,1.87135557559,325.
8.88,6221.,27.,16.,3718.,0.,0.,9982.,0.898877595056,1.73117166455,351.
8.9,6211.,34.,5.,3732.,0.,0.,9982.,0.897432686528,1.37254410881,442.
8.92,6213.,24.,14.,3734.,0.,0.,9985.,0.897451947151,1.94447921883,312.
8.94,6210.,28.,8.,3740.,0.,0.,9986.,0.896928777211,1.66572487196,364.
8.96,6213.,20.,15.,3738.,0.,0.,9986.,0.897362076137,2.33314139796,260.
8.98,6210.,22.,5.,3750.,0.,0.,9987.,0.896838967581,2.1198011961,286.
9.,6210.,13.,13.,3749.,0.,0.,9985.,0.89701860483,3.58807441932,169.
9.02,6216.,20.,9.,3742.,0.,0.,9987.,0.897705478661,2.33403424452,260.
9.04,6208.,24.,13.,3742.,0.,0.,9987.,0.896550130554,1.94252528287,312.
9.06,6213.,21.,8.,3746.,0.,0.,9988.,0.897182388096,2.22159448481,273.
9.08,6211.,16.,6.,3754.,0.,0.,9987.,0.896983386094,2.91519600481,208.
9.1,6214.,12.,11.,3749.,0.,0.,9986.,0.897506509113,3.88919487282,156.
9.12,6214.,10.,9.,3754.,0.,0.,9987.,0.897416641634,4.6665665365,130.
9.14,6221.,11.,9.,3749.,0.,0.,9990.,0.898157773158,4.24583674584,143.
9.16,6221.,8.,7.,3757.,0.,0.,9993.,0.897888137081,5.83627289102,104.
9.18,6236.,8.,5.,3746.,0.,0.,9995.,0.89987301343,5.84917458729,104.
9.2,6237.,7.,5.,3744.,0.,0.,9993.,0.900197445904,6.68718102672,91.
9.22,6245.,0.,4.,3748.,0.,0.,9997.,0.900991451282,inf,0.
9.24,6249.,5.,0.,3746.,0.,0.,10000.,0.901298076923,9.3735,65.
9.26,6253.,4.,2.,3740.,0.,0.,9999.,0.90196519652,11.7255475548,52.
9.28,6264.,6.,1.,3728.,0.,0.,9999.,0.903551893651,7.83078307831,78.
9.3,6274.,6.,0.,3721.,0.,0.,10001.,0.904813364817,7.84171582842,78.
9.32,6287.,3.,2.,3714.,0.,0.,10006.,0.906235105091,15.7080751549,39.
9.34,6289.,7.,1.,3710.,0.,0.,10007.,0.906432804729,6.73350083513,91.
9.36,6294.,4.,2.,3707.,0.,0.,10007.,0.907153454121,11.7929949036,52.
9.38,6296.,5.,0.,3708.,0.,0.,10009.,0.907260388727,9.43550804276,65.
9.4,6305.,3.,2.,3700.,0.,0.,10010.,0.908466533467,15.7467532468,39.
9.42,6311.,4.,0.,3692.,0.,0.,10007.,0.909603662052,11.8248476067,52.
9.44,6320.,4.,1.,3683.,0.,0.,10008.,0.910809813688,11.8405275779,52.
9.46,6327.,6.,0.,3676.,0.,0.,10009.,0.911727522153,7.90163852533,78.
9.48,6340.,4.,2.,3668.,0.,0.,10014.,0.913144674379,11.8708807669,52.
9.5,6355.,0.,2.,3661.,0.,0.,10018.,0.914939647097,inf,0.
9.52,6353.,1.,4.,3656.,0.,0.,10014.,0.915017053049,47.5808867585,13.
9.54,6359.,2.,2.,3651.,0.,0.,10014.,0.91588122782,23.8129119233,26.
9.56,6360.,6.,0.,3650.,0.,0.,10016.,0.915842344556,7.93730031949,78.
9.58,6365.,7.,2.,3643.,0.,0.,10017.,0.916470845716,6.80806913961,91.
9.6,6371.,6.,3.,3638.,0.,0.,10018.,0.917243193022,7.94944100619,78.
9.62,6373.,7.,0.,3637.,0.,0.,10017.,0.91762273366,6.81662602148,91.
9.64,6380.,7.,0.,3631.,0.,0.,10018.,0.918538937605,6.82343210792,91.
9.66,6383.,6.,4.,3626.,0.,0.,10019.,0.918879129654,7.96361912367,78.
9.68,6383.,7.,4.,3622.,0.,0.,10016.,0.919154353035,6.8280037654,91.
9.7,6385.,7.,8.,3616.,0.,0.,10016.,0.919442353772,6.83014319945,91.
9.72,6382.,12.,9.,3617.,0.,0.,10020.,0.918643482266,3.98078842315,156.
9.74,6381.,10.,9.,3623.,0.,0.,10023.,0.918224621831,4.77476803352,130.
9.76,6382.,10.,4.,3626.,0.,0.,10022.,0.918460156886,4.77599281581,130.
9.78,6373.,6.,10.,3631.,0.,0.,10020.,0.917347996315,7.9503493014,78.
9.8,6385.,10.,2.,3629.,0.,0.,10026.,0.918525295769,4.776331538,130.
9.82,6390.,9.,3.,3626.,0.,0.,10028.,0.919061243902,5.31013163143,117.
9.84,6395.,6.,5.,3623.,0.,0.,10029.,0.919688672082,7.97063515804,78.
9.86,6397.,9.,2.,3622.,0.,0.,10030.,0.919884577038,5.31488866733,117.
9.88,6406.,10.,5.,3611.,0.,0.,10032.,0.920995123298,4.78917464115,130.
9.9,6412.,5.,3.,3614.,0.,0.,10034.,0.921674000705,9.58540960734,65.
9.92,6428.,4.,1.,3602.,0.,0.,10035.,0.923881798321,12.0104633782,52.
9.94,6436.,4.,1.,3595.,0.,0.,10036.,0.924939448754,12.0242128338,52.
9.96,6441.,3.,2.,3591.,0.,0.,10037.,0.925565791188,16.0431403806,39.
9.98,6449.,1.,3.,3587.,0.,0.,10040.,0.926438476862,48.1748007968,13.
10.,6449.,3.,4.,3584.,0.,0.,10040.,0.926438476862,16.0582669323,39.
