t,neff
5.,0.106581333333
5.02,0.0425405952191
5.04,0.085045505349
5.06,0.0637370352639
5.08,0.1060886197
5.1,0.148441613588
5.12,0.148338371785
5.14,0.105865522174
5.16,0.232937062937
5.18,0.190331693382
5.2,0.12675967026
5.22,0.189920810896
5.24,0.105455312863
5.26,0.232011394208
5.28,0.231754663295
5.3,0.189445760303
5.32,0.210432128007
5.34,0.31572962729
5.36,0.294646879276
5.38,0.273534396547
5.4,0.105172323073
5.42,0.231329230446
5.44,0.252055485498
5.46,0.209850871666
5.48,0.209649674848
5.5,0.251723595152
5.52,0.209739714526
5.54,0.209661683714
5.56,0.314708661417
5.58,0.167683757995
5.6,0.209350295796
5.62,0.272050638209
5.64,0.335195015968
5.66,0.31433060968
5.68,0.525031486147
5.7,0.630732860522
5.72,0.673050696085
5.74,0.589071038251
5.76,0.589417889255
5.78,0.568570526979
5.8,0.568797727991
5.82,0.696116290091
5.84,0.654482576836
5.86,0.591776194248
5.88,0.571579949237
5.9,0.700738148264
5.92,0.658544451517
5.94,0.744451523842
5.96,0.703030496566
5.98,0.533429302622
6.,0.769969546399
6.02,0.685858618289
6.04,0.751243301176
6.06,0.795273663879
6.08,0.731677953349
6.1,0.710343492985
6.12,0.603299435027
6.14,0.690514519691
6.16,0.647068324989
6.18,0.388279760944
6.2,0.431223083548
6.22,0.47484162896
6.24,0.474959034066
6.26,0.453053040104
6.28,0.388393983504
6.3,0.453262170468
6.32,0.388399612027
6.34,0.45319540973
6.36,0.388130448821
6.38,0.280129032258
6.4,0.517817242493
6.42,0.496802973979
6.44,0.497204788094
6.46,0.714073834196
6.48,0.454343042071
6.5,0.520272461887
6.52,0.651031346434
6.54,0.782989254312
6.56,0.674857422196
6.58,0.588466057441
6.6,0.720883218844
6.62,0.743160881905
6.64,0.568372093025
6.66,0.546278105217
6.68,0.45865227347
6.7,0.677815245268
6.72,0.744114497977
6.74,0.789100459622
6.76,0.767964514539
6.78,0.747201930457
6.8,0.792617007249
6.82,0.660906842539
6.84,0.506462349646
6.86,0.705062094737
6.88,0.72779006437
6.9,0.573617396091
6.92,0.3971456888
6.94,0.50841971629
6.96,0.420249613431
6.98,0.464995024876
7.,0.465319396051
7.02,0.555019946809
7.04,0.645238333058
7.06,0.690680000002
7.08,0.601941618013
7.1,0.737279411766
7.12,0.468927497493
7.14,0.37927804661
7.16,0.267636849132
7.18,0.290007790762
7.2,0.357003895381
7.22,0.289910480957
7.24,0.267413333333
7.26,0.334255248251
7.28,0.311825951826
7.3,0.222695743854
7.32,0.31177437264
7.34,0.534969161528
7.36,0.468394197098
7.38,0.513019895522
7.4,0.512387612387
7.42,0.333943427621
7.44,0.423178462393
7.46,0.691208534754
7.48,0.534719307012
7.5,0.445643844744
7.52,0.423375527425
7.54,0.51295111111
7.56,0.334321398834
7.58,0.289735731734
7.6,0.423361652508
7.62,0.4012
7.64,0.491043231515
7.66,0.513311088866
7.68,0.401413097817
7.7,0.26774258086
7.72,0.40176088044
7.74,0.379238762015
7.76,0.29001611917
7.78,0.379074598678
7.8,0.312241293118
7.82,0.379377570301
7.84,0.312262222222
7.86,0.356823281129
7.88,0.423360514784
7.9,0.200139511709
7.92,0.266737506226
7.94,0.199893846409
7.96,0.221846697592
7.98,0.221714411878
8.,0.354848685664
8.02,0.332373386296
8.04,0.331812923484
8.06,0.26490852151
8.08,0.176500823723
8.1,0.220604863055
8.12,0.154275684274
8.14,0.220270788796
8.16,0.264298635093
8.18,0.198100558659
8.2,0.242242314648
8.22,0.220075570889
8.24,0.242074706978
8.26,0.220010946908
8.28,0.396228646518
8.3,0.440602574637
8.32,0.44024290169
8.34,0.418078984793
8.36,0.35212429564
8.38,0.285630601093
8.4,0.351372549019
8.42,0.395785327424
8.44,0.219736482423
8.46,0.197730403411
8.48,0.263631294079
8.5,0.219534578827
8.52,0.306906631762
8.54,0.240974652494
8.56,0.175099929205
8.58,0.131268985791
8.6,0.0873929115028
8.62,0.130995600456
8.64,0.0653446033809
8.66,0.217858690941
8.68,0.239312023365
8.7,0.19566866591
8.72,0.152082523223
8.74,0.30438138479
8.76,0.34786443976
8.78,0.282477455586
8.8,0.217106470239
8.82,0.434228984568
8.84,0.41213257882
8.86,0.455339366515
8.88,0.303461497039
8.9,0.281831205903
8.92,0.325129198966
8.94,0.259825750242
8.96,0.216320171904
8.98,0.17300456621
9.,0.194760445233
9.02,0.237819314642
9.04,0.151051051051
9.06,0.237198735466
9.08,0.258704804757
9.1,0.431703131703
9.12,0.280342979636
9.14,0.215531276778
9.16,0.431184696993
9.18,0.344871176818
9.2,0.301531545994
9.22,0.258202824134
9.24,0.300802221866
9.26,0.279226867425
9.28,0.235886933333
9.3,0.171475497254
9.32,0.192774936061
9.34,0.256761418078
9.36,0.192371232658
9.38,0.106675156532
9.4,0.192007642095
9.42,0.191854915686
9.44,0.170415606446
9.46,0.255476076935
9.48,0.233990998147
9.5,0.233787085515
9.52,0.233814738401
9.54,0.297612019256
9.56,0.340107902253
9.58,0.170030153944
9.6,0.425658138672
9.62,0.233995444674
9.64,0.297936735018
9.66,0.31900222434
9.68,0.255196950445
9.7,0.447002703133
9.72,0.532273449921
9.74,0.361579588164
9.76,0.38309966619
9.78,0.425488638169
9.8,0.297404644766
9.82,0.275937433946
9.84,0.233277364169
9.86,0.296581764489
9.88,0.296423715415
9.9,0.338775897517
9.92,0.359751408859
9.94,0.444750158129
9.96,0.465928737087
9.98,0.232913900306
10.,0.296652957925
