t,prevalence
5.,0
5.02,4
5.04,0
5.06,0
5.08,1
5.1,2
5.12,1
5.14,3
5.16,0
5.18,1
5.2,3
5.22,5
5.24,1
5.26,2
5.28,3
5.3,5
5.32,0
5.34,2
5.36,1
5.38,5
5.4,3
5.42,1
5.44,3
5.46,1
5.48,4
5.5,2
5.52,1
5.54,3
5.56,3
5.58,3
5.6,1
5.62,1
5.64,2
5.66,3
5.68,1
5.7,3
5.72,0
5.74,1
5.76,4
5.78,0
5.8,1
5.82,1
5.84,1
5.86,1
5.88,2
5.9,0
5.92,0
5.94,1
5.96,1
5.98,0
6.,2
6.02,0
6.04,2
6.06,0
6.08,2
6.1,3
6.12,1
6.14,2
6.16,4
6.18,1
6.2,1
6.22,2
6.24,2
6.26,1
6.28,4
6.3,3
6.32,6
6.34,0
6.36,1
6.38,2
6.4,1
6.42,4
6.44,2
6.46,6
6.48,4
6.5,7
6.52,4
6.54,4
6.56,3
6.58,4
6.6,1
6.62,5
6.64,4
6.66,3
6.68,2
6.7,5
6.72,3
6.74,3
6.76,5
6.78,6
6.8,8
6.82,6
6.84,3
6.86,1
6.88,3
6.9,1
6.92,2
6.94,4
6.96,7
6.98,1
7.,5
7.02,1
7.04,3
7.06,1
7.08,1
7.1,1
7.12,2
7.14,3
7.16,0
7.18,0
7.2,2
7.22,0
7.24,1
7.26,1
7.28,3
7.3,1
7.32,1
7.34,0
7.36,0
7.38,1
7.4,2
7.42,1
7.44,0
7.46,1
7.48,2
7.5,2
7.52,1
7.54,0
7.56,4
7.58,6
7.6,6
7.62,4
7.64,6
7.66,8
7.68,6
7.7,1
7.72,4
7.74,3
7.76,4
7.78,4
7.8,6
7.82,2
7.84,10
7.86,1
7.88,6
7.9,10
7.92,12
7.94,10
7.96,13
7.98,8
8.,8
8.02,6
8.04,9
8.06,8
8.08,9
8.1,7
8.12,5
8.14,9
8.16,7
8.18,12
8.2,9
8.22,13
8.24,12
8.26,13
8.28,15
8.3,11
8.32,8
8.34,6
8.36,13
8.38,9
8.4,4
8.42,13
8.44,7
8.46,11
8.48,6
8.5,8
8.52,9
8.54,6
8.56,6
8.58,2
8.6,10
8.62,7
8.64,4
8.66,6
8.68,3
8.7,9
8.72,5
8.74,3
8.76,8
8.78,3
8.8,6
8.82,6
8.84,6
8.86,9
8.88,0
8.9,4
8.92,5
8.94,6
8.96,2
8.98,3
9.,2
9.02,2
9.04,1
9.06,4
9.08,2
9.1,2
9.12,6
9.14,3
9.16,6
9.18,7
9.2,1
9.22,1
9.24,3
9.26,2
9.28,3
9.3,1
9.32,3
9.34,2
9.36,2
9.38,3
9.4,4
9.42,0
9.44,0
9.46,0
9.48,2
9.5,1
9.52,0
9.54,0
9.56,0
9.58,0
9.6,1
9.62,0
9.64,0
9.66,0
9.68,1
9.7,0
9.72,1
9.74,1
9.76,0
9.78,3
9.8,1
9.82,1
9.84,2
9.86,3
9.88,1
9.9,2
9.92,4
9.94,1
9.96,2
9.98,3
10.,3
