t,s,e,i,r,c,o,n,reff,coal,reportr
5.,6250.,5.,3.,3734.,0.,0.,9992.,0.902164038923,9.3825060048,65.
5.02,6255.,6.,2.,3732.,0.,0.,9995.,0.902614768923,7.82266133067,78.
5.04,6263.,10.,3.,3725.,0.,0.,10001.,0.903226984994,4.69678032197,130.
5.06,6275.,7.,3.,3717.,0.,0.,10002.,0.904867103502,6.72186991173,91.
5.08,6281.,7.,5.,3713.,0.,0.,10006.,0.905370239395,6.72560749265,91.
5.1,6289.,4.,2.,3711.,0.,0.,10006.,0.906523393656,11.7848041175,52.
5.12,6297.,5.,3.,3701.,0.,0.,10006.,0.907676547917,9.43983609834,65.
5.14,6301.,6.,5.,3693.,0.,0.,10005.,0.908343904971,7.87231384308,78.
5.16,6308.,6.,6.,3686.,0.,0.,10006.,0.909262135027,7.8802718369,78.
5.18,6305.,11.,8.,3682.,0.,0.,10006.,0.908829702179,4.29628586484,143.
5.2,6307.,12.,8.,3679.,0.,0.,10006.,0.909117990744,3.93951129322,156.
5.22,6313.,10.,7.,3680.,0.,0.,10010.,0.909619226927,4.73001998002,130.
5.24,6311.,10.,4.,3684.,0.,0.,10009.,0.909421904901,4.72899390549,130.
5.26,6312.,14.,4.,3683.,0.,0.,10013.,0.909202651937,3.37703842148,182.
5.28,6312.,18.,4.,3680.,0.,0.,10014.,0.909111858782,2.62632314759,234.
5.3,6313.,15.,4.,3682.,0.,0.,10014.,0.909255887911,3.15208707809,195.
5.32,6316.,14.,5.,3680.,0.,0.,10015.,0.909597142747,3.37850367306,182.
5.34,6320.,9.,10.,3678.,0.,0.,10017.,0.909991476029,5.25772852817,117.
5.36,6323.,10.,5.,3684.,0.,0.,10022.,0.909969221559,4.73183995211,130.
5.38,6324.,10.,6.,3680.,0.,0.,10020.,0.910294795025,4.73353293413,130.
5.4,6330.,9.,2.,3683.,0.,0.,10024.,0.910794861563,5.26237031125,117.
5.42,6338.,11.,1.,3678.,0.,0.,10028.,0.911582185266,4.30929760308,143.
5.44,6345.,9.,2.,3670.,0.,0.,10026.,0.912771026101,5.27378815081,117.
5.46,6356.,9.,3.,3658.,0.,0.,10026.,0.91435345026,5.28293104595,117.
5.48,6355.,10.,5.,3650.,0.,0.,10020.,0.914757024413,4.75673652695,130.
5.5,6348.,9.,9.,3650.,0.,0.,10016.,0.914114340133,5.28154952077,117.
5.52,6352.,10.,6.,3648.,0.,0.,10016.,0.914690341607,4.75638977636,130.
5.54,6359.,7.,10.,3643.,0.,0.,10019.,0.915424155643,6.80029372763,91.
5.56,6351.,10.,6.,3650.,0.,0.,10017.,0.914455041814,4.75516621743,130.
5.58,6351.,12.,4.,3647.,0.,0.,10014.,0.914728994792,3.9638256441,156.
5.6,6354.,11.,4.,3646.,0.,0.,10015.,0.915069703138,4.3257840512,143.
5.62,6356.,6.,8.,3644.,0.,0.,10014.,0.915449140434,7.93389255043,78.
5.64,6351.,9.,5.,3647.,0.,0.,10012.,0.914911721319,5.28615661207,117.
5.66,6360.,8.,6.,3637.,0.,0.,10011.,0.916299762569,5.9559484567,104.
5.68,6364.,20.,0.,3627.,0.,0.,10011.,0.916876051728,2.38387773449,260.
5.7,6373.,16.,5.,3620.,0.,0.,10014.,0.917897635618,2.98316731576,208.
5.72,6378.,12.,6.,3619.,0.,0.,10015.,0.918526057068,3.98027958063,156.
5.74,6381.,14.,4.,3617.,0.,0.,10016.,0.918866352298,3.41293216568,182.
5.76,6389.,18.,0.,3610.,0.,0.,10017.,0.919926509549,2.65756547203,234.
5.78,6394.,14.,5.,3604.,0.,0.,10017.,0.920646439514,3.4195439182,182.
5.8,6391.,12.,10.,3604.,0.,0.,10017.,0.920214481535,3.98759608665,156.
5.82,6386.,12.,14.,3606.,0.,0.,10018.,0.919402767327,3.98407865841,156.
5.84,6386.,17.,2.,3614.,0.,0.,10019.,0.919311001405,2.81201012194,221.
5.86,6383.,20.,5.,3613.,0.,0.,10021.,0.918695738948,2.38860892127,260.
5.88,6380.,17.,5.,3615.,0.,0.,10017.,0.918630635612,2.80992900305,221.
5.9,6380.,18.,4.,3616.,0.,0.,10018.,0.918538937605,2.65355693086,234.
5.92,6383.,17.,7.,3612.,0.,0.,10019.,0.918879129654,2.81068910247,221.
5.94,6389.,16.,8.,3609.,0.,0.,10022.,0.919467555992,2.98826955697,208.
5.96,6391.,17.,4.,3610.,0.,0.,10022.,0.919755384308,2.81336941083,221.
5.98,6393.,14.,9.,3605.,0.,0.,10021.,0.920135024142,3.41764437538,182.
6.,6396.,11.,8.,3608.,0.,0.,10023.,0.920383118827,4.35090201627,143.
6.02,6394.,18.,6.,3607.,0.,0.,10025.,0.919911759064,2.65752285952,234.
6.04,6396.,22.,7.,3599.,0.,0.,10024.,0.920291300878,2.17523398389,286.
6.06,6386.,18.,16.,3603.,0.,0.,10023.,0.91894412083,2.65472746017,234.
6.08,6381.,20.,11.,3613.,0.,0.,10025.,0.918041434874,2.38690773067,260.
6.1,6382.,16.,12.,3613.,0.,0.,10023.,0.918368521631,2.9846976953,208.
6.12,6365.,28.,7.,3623.,0.,0.,10023.,0.915922225036,1.70099841792,364.
6.14,6366.,19.,3.,3635.,0.,0.,10023.,0.916066124836,2.50712834166,247.
6.16,6368.,13.,11.,3629.,0.,0.,10021.,0.916536811158,3.66614724463,169.
6.18,6364.,11.,3.,3640.,0.,0.,10018.,0.91623539168,4.33129457885,143.
6.2,6368.,9.,6.,3635.,0.,0.,10018.,0.916811278161,5.29713182937,117.
6.22,6368.,10.,6.,3634.,0.,0.,10018.,0.916811278161,4.76741864644,130.
6.24,6369.,15.,3.,3634.,0.,0.,10021.,0.916680739677,3.17782656422,195.
6.26,6377.,11.,6.,3628.,0.,0.,10022.,0.917740586095,4.33841004336,143.
6.28,6383.,9.,8.,3623.,0.,0.,10023.,0.918512421431,5.30696065716,117.
6.3,6380.,11.,8.,3619.,0.,0.,10018.,0.918538937605,4.34218406868,143.
6.32,6379.,12.,4.,3623.,0.,0.,10018.,0.918394965984,3.97971151927,156.
6.34,6383.,8.,7.,3620.,0.,0.,10018.,0.918970852466,5.97331054103,104.
6.36,6379.,10.,11.,3619.,0.,0.,10019.,0.918303300652,4.77517716339,130.
6.38,6376.,15.,6.,3619.,0.,0.,10016.,0.918146350455,3.18290734824,195.
6.4,6381.,14.,5.,3617.,0.,0.,10017.,0.918774621605,3.41259145168,182.
6.42,6385.,11.,10.,3612.,0.,0.,10018.,0.919258795706,4.34558703425,143.
6.44,6377.,14.,4.,3620.,0.,0.,10015.,0.918382042321,3.41113330005,182.
6.46,6384.,12.,9.,3613.,0.,0.,10018.,0.919114824086,3.98283090437,156.
6.48,6383.,21.,10.,3602.,0.,0.,10016.,0.919154353035,2.27600125513,273.
6.5,6386.,20.,11.,3597.,0.,0.,10014.,0.919770014288,2.39140203715,260.
6.52,6387.,18.,9.,3599.,0.,0.,10013.,0.920005915387,2.65779486667,234.
6.54,6383.,18.,7.,3607.,0.,0.,10015.,0.919246130804,2.65559993343,234.
6.56,6379.,21.,7.,3610.,0.,0.,10017.,0.918486649619,2.27434789429,273.
6.58,6384.,14.,12.,3606.,0.,0.,10016.,0.919298353404,3.41453674121,182.
6.6,6379.,16.,11.,3608.,0.,0.,10014.,0.918761810389,2.98597588376,208.
6.62,6373.,14.,12.,3616.,0.,0.,10015.,0.917805983333,3.40899365238,182.
6.64,6367.,21.,9.,3619.,0.,0.,10016.,0.916850347137,2.27029609767,273.
6.66,6361.,25.,6.,3624.,0.,0.,10016.,0.915986344925,1.90525159744,325.
6.68,6356.,25.,10.,3625.,0.,0.,10016.,0.915266343082,1.90375399361,325.
6.7,6348.,29.,7.,3631.,0.,0.,10015.,0.914205614655,1.63926524007,377.
6.72,6347.,29.,7.,3632.,0.,0.,10015.,0.914061599908,1.63900700673,377.
6.74,6348.,23.,11.,3629.,0.,0.,10011.,0.914570895092,2.06772550195,299.
6.76,6344.,18.,18.,3630.,0.,0.,10010.,0.914085914086,2.64069264069,234.
6.78,6338.,21.,10.,3640.,0.,0.,10009.,0.913312634014,2.26153604613,273.
6.8,6329.,20.,5.,3653.,0.,0.,10007.,0.912197999862,2.37171479964,260.
6.82,6335.,11.,12.,3650.,0.,0.,10008.,0.91297154584,4.31586548943,143.
6.84,6339.,13.,4.,3654.,0.,0.,10010.,0.913365480673,3.65346192269,169.
6.86,6347.,9.,6.,3647.,0.,0.,10009.,0.914609543718,5.28441069704,117.
6.88,6343.,9.,8.,3645.,0.,0.,10005.,0.914398569946,5.28319173746,117.
6.9,6339.,12.,6.,3647.,0.,0.,10004.,0.913913280842,3.96029088365,156.
6.92,6344.,9.,6.,3645.,0.,0.,10004.,0.914634146341,5.28455284553,117.
6.94,6348.,11.,6.,3639.,0.,0.,10004.,0.915210838741,4.32645123769,143.
6.96,6345.,15.,5.,3640.,0.,0.,10005.,0.914686887326,3.17091454273,195.
6.98,6355.,9.,4.,3639.,0.,0.,10007.,0.915945376698,5.29212884314,117.
7.,6363.,10.,5.,3632.,0.,0.,10010.,0.916823561054,4.76748251748,130.
7.02,6365.,10.,4.,3632.,0.,0.,10011.,0.917020124017,4.76850464489,130.
7.04,6367.,9.,7.,3628.,0.,0.,10011.,0.917308268597,5.30000332967,117.
7.06,6369.,10.,3.,3625.,0.,0.,10007.,0.917963194994,4.77340861397,130.
7.08,6372.,14.,4.,3620.,0.,0.,10010.,0.918120341197,3.4101612673,182.
7.1,6385.,9.,4.,3617.,0.,0.,10015.,0.919534160298,5.31286403728,117.
7.12,6395.,8.,6.,3609.,0.,0.,10018.,0.920698511909,5.98454032741,104.
7.14,6394.,8.,7.,3605.,0.,0.,10014.,0.920922247315,5.98599460755,104.
7.16,6400.,3.,8.,3603.,0.,0.,10014.,0.921786422086,15.9776313162,39.
7.18,6401.,6.,4.,3603.,0.,0.,10014.,0.921930451214,7.99006391053,78.
7.2,6403.,6.,3.,3597.,0.,0.,10009.,0.922679204101,7.99655310221,78.
7.22,6411.,4.,1.,3590.,0.,0.,10006.,0.924108996141,12.0134169498,52.
7.24,6415.,2.,3.,3586.,0.,0.,10006.,0.924685573271,24.0418249051,26.
7.26,6418.,7.,0.,3580.,0.,0.,10005.,0.925210471687,6.87299207539,91.
7.28,6424.,5.,3.,3575.,0.,0.,10007.,0.925890338302,9.62925951834,65.
7.3,6432.,7.,5.,3569.,0.,0.,10013.,0.926487873457,6.88248134568,91.
7.32,6439.,5.,5.,3564.,0.,0.,10013.,0.927496178045,9.64596025167,65.
7.34,6443.,6.,5.,3560.,0.,0.,10014.,0.927979674609,8.04249051328,78.
7.36,6443.,5.,9.,3554.,0.,0.,10011.,0.928257762615,9.6538807312,65.
7.38,6445.,7.,6.,3553.,0.,0.,10011.,0.928545907194,6.8977695963,91.
7.4,6450.,10.,5.,3550.,0.,0.,10015.,0.92889511886,4.83025461807,130.
7.42,6452.,10.,5.,3549.,0.,0.,10016.,0.929090378471,4.83126996805,130.
7.44,6451.,13.,6.,3545.,0.,0.,10015.,0.929039133607,3.71615653443,169.
7.46,6455.,14.,4.,3544.,0.,0.,10017.,0.92942958509,3.45216703033,182.
7.48,6451.,15.,5.,3540.,0.,0.,10011.,0.929410340933,3.22195584857,195.
7.5,6455.,13.,9.,3532.,0.,0.,10009.,0.93017246017,3.72068984068,169.
7.52,6453.,13.,8.,3533.,0.,0.,10007.,0.930070104773,3.72028041909,169.
7.54,6456.,13.,10.,3529.,0.,0.,10008.,0.930409518539,3.72163807416,169.
7.56,6448.,19.,9.,3533.,0.,0.,10009.,0.929163752623,2.54297448086,247.
7.58,6443.,19.,13.,3536.,0.,0.,10011.,0.928257762615,2.54049492926,247.
7.6,6437.,21.,13.,3544.,0.,0.,10015.,0.927022927148,2.29548534341,273.
7.62,6436.,27.,7.,3547.,0.,0.,10017.,0.926693851222,1.78474371346,351.
7.64,6436.,21.,8.,3551.,0.,0.,10016.,0.926786372573,2.29489958923,273.
7.66,6438.,22.,10.,3550.,0.,0.,10020.,0.92670428374,2.19039194339,286.
7.68,6435.,21.,8.,3556.,0.,0.,10020.,0.92627245509,2.29362703165,273.
7.7,6423.,22.,13.,3562.,0.,0.,10020.,0.924545140488,2.18528851388,286.
7.72,6417.,21.,12.,3569.,0.,0.,10019.,0.923773676169,2.28743957909,273.
7.74,6416.,19.,7.,3577.,0.,0.,10019.,0.923629718919,2.52782870441,247.
7.76,6417.,20.,8.,3574.,0.,0.,10019.,0.923773676169,2.40181155804,260.
7.78,6418.,22.,8.,3569.,0.,0.,10017.,0.924102103347,2.18424133518,286.
7.8,6417.,17.,15.,3564.,0.,0.,10013.,0.924327220767,2.82735385176,221.
7.82,6406.,22.,15.,3570.,0.,0.,10013.,0.922742742128,2.18102829957,286.
7.84,6404.,17.,11.,3580.,0.,0.,10012.,0.922546790006,2.82190782825,221.
7.86,6395.,22.,10.,3584.,0.,0.,10011.,0.921342292709,2.1777181464,286.
7.88,6393.,23.,7.,3586.,0.,0.,10009.,0.921238193318,2.08279939359,299.
7.9,6400.,16.,14.,3580.,0.,0.,10010.,0.922154768309,2.997002997,208.
7.92,6388.,15.,16.,3590.,0.,0.,10009.,0.920517687927,3.19112798481,195.
7.94,6365.,25.,16.,3601.,0.,0.,10007.,0.917386675481,1.908164285,325.
7.96,6351.,27.,15.,3615.,0.,0.,10008.,0.91527739347,1.7627564615,351.
7.98,6349.,27.,17.,3616.,0.,0.,10009.,0.914897745875,1.76202528835,351.
8.,6342.,27.,18.,3621.,0.,0.,10008.,0.913980354178,1.7602584599,351.
8.02,6337.,24.,17.,3632.,0.,0.,10010.,0.913077307308,1.97833416583,312.
8.04,6335.,20.,9.,3643.,0.,0.,10007.,0.913062779132,2.37396322574,260.
8.06,6332.,21.,7.,3647.,0.,0.,10007.,0.912630389497,2.25984667875,273.
8.08,6333.,17.,5.,3654.,0.,0.,10009.,0.912592128623,2.79145827579,221.
8.1,6347.,15.,0.,3652.,0.,0.,10014.,0.914152878278,3.16906331136,195.
8.12,6363.,12.,4.,3642.,0.,0.,10021.,0.915817168561,3.96854106377,156.
8.14,6368.,15.,1.,3637.,0.,0.,10021.,0.916536811158,3.17732761201,195.
8.16,6377.,14.,2.,3631.,0.,0.,10024.,0.917557477439,3.40807063049,182.
8.18,6379.,12.,7.,3622.,0.,0.,10020.,0.918211653616,3.97891716567,156.
8.2,6372.,11.,6.,3629.,0.,0.,10018.,0.917387164642,4.33673932376,143.
8.22,6375.,13.,5.,3626.,0.,0.,10019.,0.91772747165,3.6709098866,169.
8.24,6383.,11.,7.,3620.,0.,0.,10021.,0.918695738948,4.34292531139,143.
8.26,6381.,14.,4.,3620.,0.,0.,10019.,0.918591215153,3.41191022771,182.
8.28,6382.,15.,2.,3621.,0.,0.,10020.,0.918643482266,3.18463073852,195.
8.3,6383.,12.,5.,3620.,0.,0.,10020.,0.91878742515,3.98141217565,156.
8.32,6385.,8.,1.,3627.,0.,0.,10021.,0.918983595987,5.97339337391,104.
8.34,6389.,10.,1.,3619.,0.,0.,10019.,0.919742873156,4.78266294041,130.
8.36,6397.,7.,6.,3607.,0.,0.,10017.,0.921078397493,6.84229666709,91.
8.38,6406.,3.,9.,3600.,0.,0.,10018.,0.922282199733,15.9862247954,39.
8.4,6402.,11.,6.,3599.,0.,0.,10018.,0.921706313252,4.35715711719,143.
8.42,6402.,11.,6.,3597.,0.,0.,10016.,0.921890360039,4.35802715655,143.
8.44,6409.,9.,5.,3594.,0.,0.,10017.,0.92280622941,5.33176932548,117.
8.46,6410.,10.,3.,3596.,0.,0.,10019.,0.922765975416,4.79838307216,130.
8.48,6410.,11.,9.,3587.,0.,0.,10017.,0.922950215403,4.36303738191,143.
8.5,6414.,13.,8.,3585.,0.,0.,10020.,0.923249654537,3.69299861815,169.
8.52,6414.,13.,6.,3588.,0.,0.,10021.,0.923157523048,3.69263009219,169.
8.54,6419.,14.,5.,3585.,0.,0.,10023.,0.92369281422,3.43085902424,182.
8.56,6426.,13.,7.,3577.,0.,0.,10023.,0.924700112817,3.69880045127,169.
8.58,6422.,15.,4.,3579.,0.,0.,10020.,0.924401197605,3.20459081836,195.
8.6,6416.,18.,8.,3579.,0.,0.,10021.,0.923445380086,2.66773109803,234.
8.62,6422.,16.,8.,3576.,0.,0.,10022.,0.924216723209,3.00370435043,208.
8.64,6419.,19.,12.,3572.,0.,0.,10022.,0.923784980735,2.52825363148,247.
8.66,6416.,25.,9.,3575.,0.,0.,10025.,0.923076923077,1.92,325.
8.68,6417.,28.,7.,3577.,0.,0.,10029.,0.92285257369,1.71386906542,364.
8.7,6415.,31.,5.,3575.,0.,0.,10026.,0.922840998021,1.54799135152,403.
8.72,6418.,23.,17.,3571.,0.,0.,10029.,0.9229963874,2.08677444108,299.
8.74,6407.,22.,14.,3585.,0.,0.,10028.,0.921506320763,2.17810584908,286.
8.76,6391.,28.,13.,3594.,0.,0.,10026.,0.91938843622,1.70743566727,364.
8.78,6389.,29.,10.,3601.,0.,0.,10029.,0.918825789825,1.6475496921,377.
8.8,6380.,26.,10.,3614.,0.,0.,10030.,0.917439987729,1.83487997546,338.
8.82,6380.,25.,7.,3617.,0.,0.,10029.,0.91753146644,1.90846545019,325.
8.84,6369.,25.,12.,3620.,0.,0.,10026.,0.916223587902,1.90574506284,325.
8.86,6363.,30.,8.,3628.,0.,0.,10029.,0.915086633379,1.58615016452,390.
8.88,6367.,26.,6.,3631.,0.,0.,10030.,0.915570595905,1.83114119181,338.
8.9,6357.,28.,8.,3639.,0.,0.,10032.,0.913950358852,1.69733638072,364.
8.92,6361.,22.,11.,3641.,0.,0.,10035.,0.914252040934,2.16095936948,286.
8.94,6356.,21.,13.,3646.,0.,0.,10036.,0.913442376675,2.26185731367,273.
8.96,6361.,15.,13.,3648.,0.,0.,10037.,0.914069864578,3.16877553054,195.
8.98,6357.,18.,10.,3652.,0.,0.,10037.,0.913495068247,2.63898575271,234.
9.,6368.,17.,1.,3652.,0.,0.,10038.,0.914984596993,2.79877641433,221.
9.02,6364.,10.,8.,3648.,0.,0.,10030.,0.915139197791,4.75872382851,130.
9.04,6367.,12.,5.,3642.,0.,0.,10026.,0.915935874419,3.96905545581,156.
9.06,6366.,10.,2.,3644.,0.,0.,10022.,0.916157530356,4.76401915785,130.
9.08,6374.,10.,3.,3635.,0.,0.,10022.,0.917308843621,4.77000598683,130.
9.1,6381.,10.,2.,3634.,0.,0.,10027.,0.917858320995,4.77286326917,130.
9.12,6390.,7.,3.,3631.,0.,0.,10031.,0.918786377614,6.8252702337,91.
9.14,6397.,7.,1.,3627.,0.,0.,10032.,0.919701186971,6.83206596036,91.
9.16,6410.,8.,0.,3613.,0.,0.,10031.,0.921662078326,5.99080350912,104.
9.18,6419.,2.,3.,3606.,0.,0.,10030.,0.923048163203,23.9992522433,26.
9.2,6419.,4.,6.,3598.,0.,0.,10027.,0.923324331996,12.0032163159,52.
9.22,6424.,3.,3.,3597.,0.,0.,10027.,0.92404354397,16.0167547621,39.
9.24,6426.,3.,3.,3591.,0.,0.,10023.,0.924700112817,16.0281352888,39.
9.26,6422.,5.,8.,3589.,0.,0.,10024.,0.924032322426,9.60993615323,65.
9.28,6422.,7.,3.,3587.,0.,0.,10019.,0.924493462421,6.86766572084,91.
9.3,6435.,4.,2.,3584.,0.,0.,10025.,0.925810473815,12.0355361596,52.
9.32,6450.,5.,3.,3568.,0.,0.,10026.,0.92787598398,9.64991023339,65.
9.34,6457.,6.,0.,3562.,0.,0.,10025.,0.928975637829,8.05112219451,78.
9.36,6468.,3.,4.,3552.,0.,0.,10027.,0.930372609339,16.1264585619,39.
9.38,6474.,10.,4.,3541.,0.,0.,10029.,0.93104995513,4.84145976668,130.
9.4,6474.,10.,2.,3543.,0.,0.,10029.,0.93104995513,4.84145976668,130.
9.42,6469.,11.,6.,3543.,0.,0.,10029.,0.930330886583,4.39792782748,143.
9.44,6466.,14.,5.,3543.,0.,0.,10028.,0.929992175754,3.4542566528,182.
9.46,6469.,12.,3.,3544.,0.,0.,10028.,0.930423659906,4.03183585959,156.
9.48,6463.,16.,5.,3541.,0.,0.,10025.,0.929838864378,3.02197630923,208.
9.5,6468.,15.,7.,3534.,0.,0.,10024.,0.930651052858,3.22625698324,195.
9.52,6471.,9.,5.,3538.,0.,0.,10023.,0.931175603804,5.38012571087,117.
9.54,6470.,15.,5.,3531.,0.,0.,10021.,0.931217520131,3.22822073645,195.
9.56,6482.,10.,8.,3524.,0.,0.,10024.,0.932665449076,4.8498603352,130.
9.58,6475.,12.,9.,3524.,0.,0.,10020.,0.932030170428,4.03879740519,156.
9.6,6474.,11.,10.,3528.,0.,0.,10023.,0.931607303203,4.40396179696,143.
9.62,6478.,14.,6.,3528.,0.,0.,10026.,0.931903972748,3.46135761306,182.
9.64,6480.,11.,9.,3523.,0.,0.,10023.,0.932470702001,4.40804331855,143.
9.66,6478.,12.,5.,3527.,0.,0.,10022.,0.932275916062,4.03986230293,156.
9.68,6479.,14.,6.,3527.,0.,0.,10026.,0.932047829489,3.4618919381,182.
9.7,6478.,16.,10.,3524.,0.,0.,10028.,0.931718112362,3.02808386518,208.
9.72,6479.,10.,9.,3528.,0.,0.,10026.,0.932047829489,4.84664871335,130.
9.74,6476.,13.,9.,3529.,0.,0.,10027.,0.931523348498,3.72609339399,169.
9.76,6467.,21.,8.,3529.,0.,0.,10025.,0.930414348744,2.30388314927,273.
9.78,6456.,21.,11.,3535.,0.,0.,10023.,0.929017106808,2.3004233121,273.
9.8,6455.,24.,14.,3534.,0.,0.,10027.,0.928502658207,2.01175575945,312.
9.82,6449.,30.,13.,3533.,0.,0.,10025.,0.927824669096,1.60822942643,390.
9.84,6442.,35.,11.,3536.,0.,0.,10024.,0.926910031309,1.37712347509,455.
9.86,6440.,35.,11.,3538.,0.,0.,10024.,0.926622260421,1.37669592977,455.
9.88,6433.,33.,10.,3546.,0.,0.,10022.,0.925799778948,1.45883601531,429.
9.9,6430.,34.,15.,3547.,0.,0.,10026.,0.924998849146,1.41470412222,442.
9.92,6423.,26.,26.,3550.,0.,0.,10025.,0.924084020717,1.84816804143,338.
9.94,6420.,37.,13.,3562.,0.,0.,10032.,0.923007913139,1.29720031036,481.
9.96,6412.,28.,19.,3569.,0.,0.,10028.,0.922225461017,1.7127044276,364.
9.98,6400.,36.,15.,3579.,0.,0.,10030.,0.920315975151,1.32934529744,468.
10.,6393.,32.,21.,3585.,0.,0.,10031.,0.919217732721,1.49372881567,416.
