t,neff
5.,0.106581333333
5.02,0.0639206907578
5.04,0.106351739547
5.06,0.0850135544567
5.08,0.127405991077
5.1,0.233168973013
5.12,0.232872650252
5.14,0.211571647875
5.16,0.169333969162
5.18,0.296081732042
5.2,0.253487708168
5.22,0.211121683053
5.24,0.232123421567
5.26,0.2532255508
5.28,0.232013096747
5.3,0.210912163946
5.32,0.295545685279
5.34,0.295604906938
5.36,0.274490270728
5.38,0.295664128596
5.4,0.337966873049
5.42,0.147643359231
5.44,0.465046333069
5.46,0.444409799554
5.48,0.508190354926
5.5,0.44476357268
5.52,0.509151244415
5.54,0.403471778487
5.56,0.424885479919
5.58,0.16981537643
5.6,0.233612353568
5.62,0.169927038398
5.64,0.254875399361
5.66,0.276070915189
5.68,0.233551615823
5.7,0.25466155811
5.72,0.3185931255
5.74,0.318574168798
5.76,0.425181391378
5.78,0.40418974441
5.8,0.383238827486
5.82,0.340363791539
5.84,0.425752722613
5.86,0.468075117372
5.88,0.446539753639
5.9,0.48896923159
5.92,0.382625939549
5.94,0.40368168744
5.96,0.297349089748
5.98,0.254626675175
6.,0.339610596872
6.02,0.105963570708
6.04,0.212197586005
6.06,0.190684931507
6.08,0.169392781316
6.1,0.19036589246
6.12,0.275060471038
6.14,0.402507304116
6.16,0.402683250943
6.18,0.275503826531
6.2,0.296791068581
6.22,0.233159993619
6.24,0.254315789474
6.26,0.318103448276
6.28,0.275673317371
6.3,0.296749082788
6.32,0.31772394007
6.34,0.381360956175
6.36,0.381406025824
6.38,0.296820839979
6.4,0.360606060606
6.42,0.382115844901
6.44,0.382223640133
6.46,0.318513793654
6.48,0.38182165605
6.5,0.296825245293
6.52,0.466291288903
6.54,0.423599195
6.56,0.381064336775
6.58,0.466244631781
6.6,0.615647277556
6.62,0.808724174655
6.64,0.553592160622
6.66,0.618641896219
6.68,0.619360906274
6.7,0.834271034037
6.72,0.878411320148
6.74,0.987083333338
6.76,0.773763718526
6.78,0.775796796637
6.8,0.75527111687
6.82,0.669864243605
6.84,0.627171323371
6.86,0.649316851009
6.88,0.869684588982
6.9,1.02449322848
6.92,1.11295044306
6.94,0.785304247988
6.96,0.654587231249
6.98,0.721822968079
7.,0.678882301273
7.02,0.614094232778
7.04,0.813417066048
7.06,0.792559986762
7.08,0.770544431573
7.1,0.749347910109
7.12,0.839508468945
7.14,0.729240989871
7.16,0.684999446474
7.18,0.750668877832
7.2,0.641191187869
7.22,0.5085309421
7.24,0.486323480572
7.26,0.486017366297
7.28,0.463850107776
7.3,0.397625601062
7.32,0.309091310588
7.34,0.309080669206
7.36,0.441632157253
7.38,0.419801126948
7.4,0.375648040679
7.42,0.28711832588
7.44,0.530679933665
7.46,0.619516459197
7.48,0.48645660586
7.5,0.532038576653
7.52,0.665557404326
7.54,0.711443018279
7.56,0.689578467357
7.58,0.422095555555
7.6,0.534313397929
7.62,0.534456140351
7.64,0.579963179918
7.66,0.692515227718
7.68,0.670872483219
7.7,0.807485695052
7.72,0.988195100025
7.74,1.08091293322
7.76,1.01428329667
7.78,0.834981083068
7.8,0.699605716547
7.82,0.790925548767
7.84,0.723897575344
7.86,0.725653260625
7.88,0.795094189292
7.9,0.842915025963
7.92,0.776242923315
7.94,0.752927456697
7.96,0.684078834617
7.98,0.455395847592
8.,0.386908592947
8.02,0.386577732171
8.04,0.295466666666
8.06,0.341108071135
8.08,0.158993452889
8.1,0.15894389439
8.12,0.181415174766
8.14,0.113337877755
8.16,0.158409348763
8.18,0.135623193334
8.2,0.0677200135914
8.22,0.135366847826
8.24,0.112675260063
8.26,0.135168672656
8.28,0.15763244098
8.3,0.112385140087
8.32,0.15725443787
8.34,0.247197699983
8.36,0.157137387387
8.38,0.201937879811
8.4,0.269023444089
8.42,0.134384900573
8.44,0.290961765202
8.46,0.245991248738
8.48,0.178909090909
8.5,0.313112196218
8.52,0.290443360799
8.54,0.267993277311
8.56,0.29032605042
8.58,0.402111989239
8.6,0.379122453549
8.62,0.289741697417
8.64,0.312186608492
8.66,0.312102908278
8.68,0.245297968776
8.7,0.334631525936
8.72,0.334597951989
8.74,0.379503891595
8.76,0.37955525682
8.78,0.245306031107
8.8,0.200550150956
8.82,0.245264865469
8.84,0.244936037093
8.86,0.289101662761
8.88,0.177807516449
8.9,0.311621983914
8.92,0.490925583739
8.94,0.446310603516
8.96,0.379503891595
8.98,0.513584229391
9.,0.334698673829
9.02,0.35671251258
9.04,0.356437590793
9.06,0.244657182705
9.08,0.266836290592
9.1,0.222311468094
9.12,0.19982617416
9.14,0.221954887218
9.16,0.243848934869
9.18,0.199087730981
9.2,0.11042047532
9.22,0.154326806063
9.24,0.0880172270998
9.26,0.131881515803
9.28,0.0878628521033
9.3,0.0658535779212
9.32,0.0219229922992
9.34,0.087608373166
9.36,0.0437364927869
9.38,0.0873348669076
9.4,0.152820681345
9.42,0.130744506395
9.44,0.174240288477
9.46,0.217715159458
9.48,0.217501363884
9.5,0.15214570042
9.52,0.108480296103
9.54,0.195151712887
9.56,0.151624823389
9.58,0.173062110117
9.6,0.194575609756
9.62,0.237660058498
9.64,0.215979214031
9.66,0.23752950092
9.68,0.194216163583
9.7,0.107821198854
9.72,0.0861903990495
9.74,0.215559157212
9.76,0.279995679413
9.78,0.279876903142
9.8,0.215281602678
9.82,0.280159939483
9.84,0.301429188256
9.86,0.258127122756
9.88,0.193665480427
9.9,0.301452465738
9.92,0.322892735803
9.94,0.344599449749
9.96,0.409650629084
9.98,0.518092766786
10.,0.366945615742
