t,s,e,i,r,c,o,n,reff,coal,reportr
5.,6250.,5.,3.,3734.,0.,0.,9992.,0.902164038923,9.3825060048,65.
5.02,6255.,10.,2.,3725.,0.,0.,9992.,0.902885770155,4.6950060048,130.
5.04,6261.,7.,4.,3721.,0.,0.,9993.,0.90366140914,6.71291332504,91.
5.06,6264.,7.,1.,3721.,0.,0.,9993.,0.904094404545,6.71612986233,91.
5.08,6275.,5.,4.,3711.,0.,0.,9995.,0.905500827337,9.4172086043,65.
5.1,6285.,5.,1.,3707.,0.,0.,9998.,0.906671718959,9.42938587718,65.
5.12,6296.,3.,4.,3693.,0.,0.,9996.,0.908440299197,15.7462985194,39.
5.14,6301.,7.,2.,3688.,0.,0.,9998.,0.908979872898,6.75242191295,91.
5.16,6305.,4.,7.,3680.,0.,0.,9996.,0.909738895558,11.8266056423,52.
5.18,6305.,8.,7.,3673.,0.,0.,9993.,0.910012008406,5.91507805464,104.
5.2,6308.,9.,1.,3677.,0.,0.,9995.,0.91026282372,5.25929631482,117.
5.22,6313.,9.,4.,3669.,0.,0.,9995.,0.910984338323,5.26346506587,117.
5.24,6320.,6.,0.,3668.,0.,0.,9994.,0.912085712966,7.90474284571,78.
5.26,6323.,4.,1.,3664.,0.,0.,9992.,0.912701314898,11.8651170937,52.
5.28,6327.,1.,3.,3658.,0.,0.,9989.,0.913552985207,47.5047552308,13.
5.3,6326.,4.,0.,3656.,0.,0.,9986.,0.913683002357,11.8778790306,52.
5.32,6328.,3.,2.,3650.,0.,0.,9983.,0.914246526788,15.8469397977,39.
5.34,6330.,6.,3.,3644.,0.,0.,9983.,0.914535479546,7.92597415607,78.
5.36,6337.,9.,0.,3638.,0.,0.,9984.,0.915455112796,5.28929620726,117.
5.38,6344.,8.,3.,3628.,0.,0.,9983.,0.916558148853,5.95762796754,104.
5.4,6347.,9.,7.,3623.,0.,0.,9986.,0.91671609484,5.2965818813,117.
5.42,6343.,17.,4.,3618.,0.,0.,9982.,0.916505479093,2.80342852428,221.
5.44,6351.,12.,9.,3610.,0.,0.,9982.,0.917661405915,3.97653275897,156.
5.46,6352.,15.,7.,3610.,0.,0.,9984.,0.91762204142,3.18108974359,195.
5.48,6349.,18.,8.,3611.,0.,0.,9986.,0.917004960791,2.64912544229,234.
5.5,6344.,22.,8.,3608.,0.,0.,9982.,0.916649969946,2.16662720169,286.
5.52,6347.,17.,14.,3605.,0.,0.,9983.,0.91699157799,2.80491541503,221.
5.54,6341.,24.,12.,3610.,0.,0.,9987.,0.915757792823,1.98414188445,312.
5.56,6346.,16.,12.,3614.,0.,0.,9988.,0.916388127291,2.9782614137,208.
5.58,6341.,17.,7.,3622.,0.,0.,9987.,0.915757792823,2.80114148393,221.
5.6,6334.,18.,8.,3626.,0.,0.,9986.,0.91483846616,2.64286668002,234.
5.62,6333.,12.,9.,3628.,0.,0.,9982.,0.915060570565,3.96526247245,156.
5.64,6331.,13.,9.,3628.,0.,0.,9981.,0.914863240156,3.65945296063,169.
5.66,6337.,13.,7.,3624.,0.,0.,9981.,0.915730272132,3.66292108853,169.
5.68,6348.,12.,6.,3618.,0.,0.,9984.,0.917044193787,3.97385817308,156.
5.7,6351.,13.,8.,3610.,0.,0.,9982.,0.917661405915,3.67064562366,169.
5.72,6349.,12.,13.,3609.,0.,0.,9983.,0.917280530748,3.97488229991,156.
5.74,6350.,18.,4.,3616.,0.,0.,9988.,0.916965743508,2.64901214791,234.
5.76,6349.,17.,10.,3612.,0.,0.,9988.,0.916821339453,2.80439468539,221.
5.78,6346.,12.,16.,3617.,0.,0.,9991.,0.916112963205,3.96982284056,156.
5.8,6340.,16.,10.,3625.,0.,0.,9991.,0.915246799042,2.97455209689,208.
5.82,6339.,15.,9.,3628.,0.,0.,9991.,0.915102438348,3.17235511961,195.
5.84,6342.,19.,4.,3628.,0.,0.,9993.,0.915352285061,2.5051746749,247.
5.86,6344.,15.,5.,3629.,0.,0.,9993.,0.915640948664,3.17422195537,195.
5.88,6343.,12.,9.,3628.,0.,0.,9992.,0.915588239823,3.96754903923,156.
5.9,6340.,12.,5.,3632.,0.,0.,9989.,0.915430049978,3.9668635499,156.
5.92,6342.,6.,9.,3632.,0.,0.,9989.,0.915718829174,7.93622985284,78.
5.94,6353.,6.,5.,3624.,0.,0.,9988.,0.91739895567,7.95079094914,78.
5.96,6357.,6.,4.,3623.,0.,0.,9990.,0.917792792793,7.9542042042,78.
5.98,6362.,4.,4.,3621.,0.,0.,9991.,0.918422734307,11.939495546,52.
6.,6362.,4.,3.,3622.,0.,0.,9991.,0.918422734307,11.939495546,52.
6.02,6363.,6.,7.,3614.,0.,0.,9990.,0.918659043659,7.96171171171,78.
6.04,6364.,8.,3.,3614.,0.,0.,9989.,0.918895400325,5.97282010211,104.
6.06,6359.,9.,4.,3611.,0.,0.,9983.,0.918725294539,5.30819059067,117.
6.08,6368.,10.,2.,3604.,0.,0.,9984.,0.919933431953,4.78365384615,130.
6.1,6369.,10.,6.,3600.,0.,0.,9985.,0.919985747853,4.78392588883,130.
6.12,6373.,7.,6.,3599.,0.,0.,9985.,0.920563537614,6.8384719937,91.
6.14,6373.,10.,6.,3593.,0.,0.,9982.,0.920840204676,4.78836906432,130.
6.16,6379.,13.,4.,3588.,0.,0.,9984.,0.921522512944,3.68609005178,169.
6.18,6383.,13.,6.,3584.,0.,0.,9986.,0.921915681955,3.68766272782,169.
6.2,6387.,12.,8.,3580.,0.,0.,9987.,0.922401044435,3.99707119255,156.
6.22,6385.,16.,4.,3579.,0.,0.,9984.,0.922389284393,2.99776517428,208.
6.24,6383.,13.,8.,3579.,0.,0.,9983.,0.922192727637,3.68877091055,169.
6.26,6384.,13.,10.,3575.,0.,0.,9982.,0.922429604057,3.68971841623,169.
6.28,6387.,15.,5.,3575.,0.,0.,9982.,0.922863076615,3.1992586656,195.
6.3,6386.,18.,1.,3579.,0.,0.,9984.,0.922533746302,2.66509748932,234.
6.32,6387.,13.,2.,3578.,0.,0.,9980.,0.923048019115,3.69219207646,169.
6.34,6396.,13.,3.,3570.,0.,0.,9982.,0.92416349429,3.69665397716,169.
6.36,6405.,7.,7.,3565.,0.,0.,9984.,0.925278522559,6.87349759615,91.
6.38,6404.,16.,3.,3561.,0.,0.,9984.,0.925134060651,3.00668569712,208.
6.4,6410.,14.,3.,3558.,0.,0.,9985.,0.925908092909,3.43908720223,182.
6.42,6422.,7.,8.,3549.,0.,0.,9986.,0.927548567995,6.89036079082,91.
6.44,6423.,13.,3.,3547.,0.,0.,9986.,0.927693000971,3.71077200388,169.
6.46,6429.,14.,1.,3541.,0.,0.,9985.,0.928652594276,3.44928106445,182.
6.48,6429.,10.,7.,3540.,0.,0.,9986.,0.928559598823,4.82850991388,130.
6.5,6429.,9.,4.,3546.,0.,0.,9988.,0.928373663781,5.36393672407,117.
6.52,6428.,6.,5.,3548.,0.,0.,9987.,0.92832220348,8.04545909683,78.
6.54,6432.,5.,1.,3549.,0.,0.,9987.,0.928899877533,9.66055872634,65.
6.56,6442.,5.,2.,3541.,0.,0.,9990.,0.930064680065,9.67267267267,65.
6.58,6442.,5.,3.,3539.,0.,0.,9989.,0.930157788952,9.67364100511,65.
6.6,6441.,7.,3.,3535.,0.,0.,9986.,0.930292794528,6.91074647363,91.
6.62,6450.,6.,2.,3529.,0.,0.,9987.,0.931499410772,8.07299489336,78.
6.64,6460.,3.,4.,3520.,0.,0.,9987.,0.932943595905,16.171022329,39.
6.66,6466.,3.,0.,3521.,0.,0.,9990.,0.93352968353,16.1811811812,39.
6.68,6466.,5.,1.,3516.,0.,0.,9988.,0.933716613783,9.71065278334,65.
6.7,6474.,4.,1.,3506.,0.,0.,9985.,0.935152729094,12.1569854782,52.
6.72,6481.,6.,1.,3498.,0.,0.,9986.,0.936070113544,8.11260765071,78.
6.74,6500.,6.,2.,3481.,0.,0.,9989.,0.938532385624,8.13394734208,78.
6.76,6503.,4.,5.,3475.,0.,0.,9987.,0.939153591977,12.2089966957,52.
6.78,6513.,7.,0.,3471.,0.,0.,9991.,0.940221199079,6.98450033602,91.
6.8,6515.,7.,1.,3469.,0.,0.,9992.,0.940415794174,6.98594589958,91.
6.82,6520.,6.,3.,3463.,0.,0.,9992.,0.941137525405,8.15652522018,78.
6.84,6528.,7.,4.,3456.,0.,0.,9995.,0.942009466272,6.99778460659,91.
6.86,6530.,13.,3.,3449.,0.,0.,9995.,0.942298072113,3.76919228845,169.
6.88,6536.,14.,1.,3446.,0.,0.,9997.,0.942975200252,3.50247931522,182.
6.9,6543.,14.,4.,3436.,0.,0.,9997.,0.943985118613,3.50623044056,182.
6.92,6543.,13.,2.,3434.,0.,0.,9992.,0.944457489068,3.77782995627,169.
6.94,6549.,15.,3.,3430.,0.,0.,9997.,0.944850762921,3.27548264479,195.
6.96,6557.,12.,4.,3424.,0.,0.,9997.,0.946004955333,4.09935480644,156.
6.98,6558.,8.,5.,3426.,0.,0.,9997.,0.946149229384,6.149969991,104.
7.,6558.,10.,2.,3427.,0.,0.,9997.,0.946149229384,4.9199759928,130.
7.02,6566.,8.,4.,3420.,0.,0.,9998.,0.947208672504,6.15685637127,104.
7.04,6565.,14.,5.,3415.,0.,0.,9999.,0.94696969697,3.51731601732,182.
7.06,6565.,11.,11.,3411.,0.,0.,9998.,0.947064412883,4.47703176999,143.
7.08,6559.,13.,10.,3415.,0.,0.,9997.,0.946293503436,3.78517401374,169.
7.1,6555.,17.,10.,3414.,0.,0.,9996.,0.945811016714,2.8930689923,221.
7.12,6549.,21.,8.,3418.,0.,0.,9996.,0.944945285807,2.33986451724,273.
7.14,6556.,11.,12.,3421.,0.,0.,10000.,0.945576923077,4.47,143.
7.16,6560.,11.,10.,3424.,0.,0.,10005.,0.945681005651,4.47049202671,143.
7.18,6554.,10.,8.,3431.,0.,0.,10003.,0.94500496005,4.91402579226,130.
7.2,6553.,11.,4.,3434.,0.,0.,10002.,0.944955239721,4.46706113323,143.
7.22,6555.,11.,5.,3432.,0.,0.,10003.,0.945149147563,4.46797778848,143.
7.24,6561.,11.,1.,3430.,0.,0.,10003.,0.946014272641,4.47206747067,143.
7.26,6566.,4.,8.,3425.,0.,0.,10003.,0.946735210206,12.3075577327,52.
7.28,6569.,11.,1.,3422.,0.,0.,10003.,0.947167772745,4.47752038025,143.
7.3,6569.,9.,9.,3418.,0.,0.,10005.,0.94697843386,5.47143095119,117.
7.32,6566.,10.,6.,3420.,0.,0.,10002.,0.946829864796,4.92351529694,130.
7.34,6567.,12.,7.,3419.,0.,0.,10005.,0.94669011648,4.10232383808,156.
7.36,6565.,12.,11.,3416.,0.,0.,10004.,0.946496401439,4.10148440624,156.
7.38,6561.,15.,6.,3424.,0.,0.,10006.,0.94573063854,3.27853288027,195.
7.4,6565.,12.,9.,3424.,0.,0.,10010.,0.945929070929,4.09902597403,156.
7.42,6557.,19.,8.,3423.,0.,0.,10007.,0.945059612118,2.58647893843,247.
7.44,6558.,18.,12.,3417.,0.,0.,10005.,0.945392688271,2.73113443278,234.
7.46,6554.,16.,12.,3424.,0.,0.,10006.,0.944721628561,3.07034529282,208.
7.48,6549.,20.,12.,3427.,0.,0.,10008.,0.943812257886,2.4539118705,260.
7.5,6555.,15.,8.,3433.,0.,0.,10011.,0.944393859063,3.27389871142,195.
7.52,6553.,15.,8.,3436.,0.,0.,10012.,0.944011417069,3.2725729125,195.
7.54,6550.,16.,5.,3443.,0.,0.,10014.,0.943390791354,3.0660200719,208.
7.56,6547.,10.,10.,3445.,0.,0.,10012.,0.94314706967,4.90436476229,130.
7.58,6531.,20.,9.,3455.,0.,0.,10015.,0.940560313376,2.44545681478,260.
7.6,6524.,20.,11.,3460.,0.,0.,10015.,0.939552210146,2.44283574638,260.
7.62,6512.,21.,12.,3471.,0.,0.,10016.,0.93773040059,2.32199908717,273.
7.64,6497.,33.,8.,3477.,0.,0.,10015.,0.935663811974,1.47437934008,429.
7.66,6501.,26.,16.,3478.,0.,0.,10021.,0.93567930423,1.87135860846,338.
7.68,6500.,29.,16.,3479.,0.,0.,10024.,0.935255387071,1.67700965958,377.
7.7,6494.,37.,13.,3482.,0.,0.,10026.,0.934205680615,1.3129377133,481.
7.72,6489.,27.,19.,3496.,0.,0.,10031.,0.93302109614,1.79692951849,351.
7.74,6478.,38.,9.,3505.,0.,0.,10030.,0.931532326099,1.27472844624,494.
7.76,6465.,33.,14.,3515.,0.,0.,10027.,0.929941082155,1.46536170521,429.
7.78,6454.,35.,14.,3522.,0.,0.,10025.,0.928544024554,1.37955112219,455.
7.8,6454.,29.,14.,3529.,0.,0.,10026.,0.928451410947,1.66480942653,377.
7.82,6454.,22.,12.,3541.,0.,0.,10029.,0.928173680941,2.19386506404,286.
7.84,6454.,27.,12.,3536.,0.,0.,10029.,0.928173680941,1.78759375589,351.
7.86,6446.,33.,12.,3537.,0.,0.,10028.,0.92711561474,1.46090945353,429.
7.88,6438.,32.,14.,3545.,0.,0.,10029.,0.925872661589,1.50454307508,416.
7.9,6428.,32.,15.,3554.,0.,0.,10029.,0.924434524494,1.5022061023,416.
7.92,6422.,27.,12.,3569.,0.,0.,10030.,0.923479561316,1.7785532292,351.
7.94,6419.,24.,12.,3574.,0.,0.,10029.,0.923140201109,2.0001371024,312.
7.96,6409.,31.,14.,3575.,0.,0.,10029.,0.921702064014,1.54608088157,403.
7.98,6416.,20.,24.,3574.,0.,0.,10034.,0.92224896889,2.39784731912,260.
8.,6408.,30.,10.,3586.,0.,0.,10034.,0.92109903252,1.59657165637,390.
8.02,6409.,21.,18.,3588.,0.,0.,10036.,0.921059186927,2.28071798668,273.
8.04,6402.,27.,10.,3602.,0.,0.,10041.,0.919595044931,1.77107193839,351.
8.06,6399.,27.,12.,3603.,0.,0.,10041.,0.919164119418,1.77024200777,351.
8.08,6394.,31.,8.,3606.,0.,0.,10039.,0.918628885807,1.54092587297,403.
8.1,6394.,26.,9.,3611.,0.,0.,10040.,0.918537388906,1.83707477781,338.
8.12,6383.,25.,14.,3614.,0.,0.,10036.,0.917322638501,1.90803108808,325.
8.14,6369.,27.,20.,3618.,0.,0.,10034.,0.915493092716,1.76317188227,351.
8.16,6365.,26.,20.,3621.,0.,0.,10032.,0.915100524476,1.83020104895,338.
8.18,6354.,32.,19.,3626.,0.,0.,10031.,0.913610116332,1.48461643904,416.
8.2,6349.,32.,22.,3628.,0.,0.,10031.,0.912891191154,1.48344818562,416.
8.22,6334.,44.,16.,3643.,0.,0.,10037.,0.910189989347,1.07567907832,572.
8.24,6325.,27.,28.,3658.,0.,0.,10038.,0.908806152007,1.75029332979,351.
8.26,6313.,42.,14.,3669.,0.,0.,10038.,0.907081934802,1.12305382404,546.
8.28,6308.,38.,19.,3672.,0.,0.,10037.,0.906453813199,1.24041048122,494.
8.3,6299.,32.,23.,3683.,0.,0.,10037.,0.905160521455,1.47088584736,416.
8.32,6286.,41.,22.,3687.,0.,0.,10036.,0.903382438606,1.14575333677,533.
8.34,6260.,45.,27.,3704.,0.,0.,10036.,0.89964589018,1.03959080643,585.
8.36,6244.,42.,15.,3733.,0.,0.,10034.,0.897525336931,1.11122184572,546.
8.38,6237.,47.,10.,3742.,0.,0.,10036.,0.896340481957,0.991695852378,611.
8.4,6238.,35.,24.,3742.,0.,0.,10039.,0.896216294911,1.33152135244,455.
8.42,6224.,36.,29.,3752.,0.,0.,10041.,0.894026797821,1.2913720413,468.
8.44,6199.,46.,29.,3765.,0.,0.,10039.,0.890613147188,1.00678007943,598.
8.46,6173.,55.,25.,3785.,0.,0.,10038.,0.886966067405,0.838586100092,715.
8.48,6154.,49.,22.,3812.,0.,0.,10037.,0.884324154475,0.938466449647,637.
8.5,6136.,51.,21.,3828.,0.,0.,10036.,0.881825428458,0.899116123133,663.
8.52,6117.,50.,28.,3840.,0.,0.,10035.,0.879182476716,0.914349775785,650.
8.54,6105.,51.,26.,3857.,0.,0.,10039.,0.877108124468,0.894306322987,663.
8.56,6080.,67.,26.,3869.,0.,0.,10042.,0.873255404225,0.677750462981,871.
8.58,6058.,66.,25.,3894.,0.,0.,10043.,0.870008961466,0.685461606003,858.
8.6,6040.,59.,30.,3914.,0.,0.,10043.,0.867423923284,0.764509220521,767.
8.62,6026.,50.,27.,3937.,0.,0.,10040.,0.865671927674,0.900298804781,650.
8.64,6013.,49.,23.,3954.,0.,0.,10039.,0.863890442658,0.91678169425,637.
8.66,6002.,42.,34.,3959.,0.,0.,10037.,0.862481893916,1.0678347258,546.
8.68,5988.,46.,25.,3978.,0.,0.,10037.,0.860470106759,0.972705338075,598.
8.7,5979.,48.,13.,3997.,0.,0.,10037.,0.859176815015,0.930774882933,624.
8.72,5970.,31.,19.,4013.,0.,0.,10033.,0.858225547999,1.43960414503,403.
8.74,5954.,36.,20.,4022.,0.,0.,10032.,0.85601076555,1.23645999468,468.
8.76,5943.,32.,16.,4037.,0.,0.,10028.,0.854770105244,1.38900142102,416.
8.78,5930.,40.,10.,4048.,0.,0.,10028.,0.852900340585,1.10877044276,520.
8.8,5926.,28.,19.,4054.,0.,0.,10027.,0.852410031377,1.58304720113,364.
8.82,5919.,30.,16.,4064.,0.,0.,10029.,0.851233346372,1.47547113371,390.
8.84,5918.,21.,16.,4074.,0.,0.,10029.,0.851089532663,2.10745979517,273.
8.86,5913.,26.,9.,4083.,0.,0.,10031.,0.850200915623,1.70040183125,338.
8.88,5910.,24.,6.,4090.,0.,0.,10030.,0.849854283304,1.84135094716,312.
8.9,5912.,21.,10.,4085.,0.,0.,10028.,0.850311435672,2.10553307881,273.
8.92,5911.,19.,13.,4085.,0.,0.,10028.,0.850167607622,2.32677450507,247.
8.94,5916.,16.,8.,4087.,0.,0.,10027.,0.850971607429,2.76565772414,208.
8.96,5912.,18.,7.,4089.,0.,0.,10026.,0.850481056944,2.45694527562,234.
8.98,5920.,17.,9.,4084.,0.,0.,10030.,0.851292277015,2.60395284734,221.
9.,5922.,20.,6.,4083.,0.,0.,10031.,0.851494980944,2.21388695045,260.
9.02,5930.,20.,10.,4071.,0.,0.,10031.,0.852645261229,2.21687767919,260.
9.04,5930.,20.,9.,4074.,0.,0.,10033.,0.852475293071,2.21643576199,260.
9.06,5939.,19.,7.,4071.,0.,0.,10036.,0.853513888463,2.33593274737,247.
9.08,5938.,12.,12.,4072.,0.,0.,10034.,0.853540270772,3.69867450668,156.
9.1,5943.,17.,7.,4067.,0.,0.,10034.,0.854258981003,2.6130274713,221.
9.12,5934.,21.,7.,4068.,0.,0.,10030.,0.853305468211,2.11294687366,273.
9.14,5932.,17.,10.,4072.,0.,0.,10031.,0.8529328313,2.60897101339,221.
9.16,5935.,18.,6.,4077.,0.,0.,10036.,0.852939034859,2.4640461007,234.
9.18,5937.,10.,15.,4075.,0.,0.,10037.,0.853141453545,4.43633555843,130.
9.2,5947.,14.,10.,4068.,0.,0.,10039.,0.854408192664,3.17351614418,182.
9.22,5947.,11.,9.,4073.,0.,0.,10040.,0.854323092246,4.03861825426,143.
9.24,5942.,14.,7.,4074.,0.,0.,10037.,0.853859948958,3.17147981042,182.
9.26,5945.,11.,10.,4071.,0.,0.,10037.,0.854291046206,4.03846676388,143.
9.28,5944.,13.,3.,4076.,0.,0.,10036.,0.854232455468,3.41692982187,169.
9.3,5950.,13.,3.,4073.,0.,0.,10039.,0.854839204027,3.41935681611,169.
9.32,5955.,13.,6.,4068.,0.,0.,10042.,0.855301962527,3.42120785011,169.
9.34,5956.,14.,4.,4067.,0.,0.,10041.,0.855530785319,3.17768577404,182.
9.36,5967.,12.,5.,4059.,0.,0.,10043.,0.856940157324,3.7134073484,156.
9.38,5976.,12.,5.,4052.,0.,0.,10045.,0.858061798828,3.71826779492,156.
9.4,5978.,12.,4.,4049.,0.,0.,10043.,0.858519902879,3.72025291248,156.
9.42,5989.,12.,3.,4042.,0.,0.,10046.,0.859842800043,3.72598546685,156.
9.44,5996.,8.,1.,4038.,0.,0.,10043.,0.861104941061,5.5971821169,104.
9.46,5997.,6.,1.,4037.,0.,0.,10041.,0.861420100664,7.46564087242,78.
9.48,6003.,0.,4.,4032.,0.,0.,10039.,0.862453738114,inf,0.
9.5,6007.,5.,2.,4024.,0.,0.,10038.,0.863114396064,8.97638971907,65.
9.52,6017.,5.,3.,4016.,0.,0.,10041.,0.864292937418,8.98864654915,65.
9.54,6023.,2.,2.,4012.,0.,0.,10039.,0.865327147203,22.4985058273,26.
9.56,6034.,5.,0.,4000.,0.,0.,10039.,0.866907522202,9.0158382309,65.
9.58,6036.,4.,1.,3994.,0.,0.,10035.,0.867540531218,11.2780269058,52.
9.6,6045.,4.,0.,3988.,0.,0.,10037.,0.868660954468,11.2925924081,52.
9.62,6052.,1.,4.,3982.,0.,0.,10039.,0.869493590382,45.2136666999,13.
9.64,6060.,3.,0.,3977.,0.,0.,10040.,0.870556236592,15.0896414343,39.
9.66,6064.,3.,0.,3967.,0.,0.,10034.,0.871651768602,15.1086306558,39.
9.68,6072.,5.,0.,3956.,0.,0.,10033.,0.872888698066,9.07804245988,65.
9.7,6085.,6.,0.,3947.,0.,0.,10038.,0.874321807899,7.57745566846,78.
9.72,6091.,5.,2.,3940.,0.,0.,10038.,0.875183916502,9.10191273162,65.
9.74,6101.,4.,2.,3935.,0.,0.,10042.,0.876271582431,11.3915305716,52.
9.76,6108.,5.,0.,3928.,0.,0.,10041.,0.877364344648,9.12458918434,65.
9.78,6119.,5.,1.,3917.,0.,0.,10042.,0.878856878035,9.14011153157,65.
9.8,6131.,3.,2.,3908.,0.,0.,10044.,0.880405063873,15.2603544405,39.
9.82,6140.,8.,1.,3899.,0.,0.,10048.,0.881346460069,5.72875199045,104.
9.84,6147.,10.,2.,3891.,0.,0.,10050.,0.882175660161,4.58731343284,130.
9.86,6150.,10.,7.,3885.,0.,0.,10052.,0.882430591692,4.5886390768,130.
9.88,6151.,14.,3.,3880.,0.,0.,10048.,0.882925419525,3.27943727252,182.
9.9,6153.,15.,8.,3873.,0.,0.,10049.,0.883124612476,3.06149865658,195.
9.92,6161.,17.,11.,3868.,0.,0.,10057.,0.883569423517,2.70268294252,221.
9.94,6170.,14.,13.,3866.,0.,0.,10063.,0.884332551082,3.28466376116,182.
9.96,6168.,17.,12.,3866.,0.,0.,10063.,0.884045895474,2.70414038616,221.
9.98,6159.,24.,12.,3867.,0.,0.,10062.,0.882843676896,1.91282796661,312.
10.,6161.,20.,7.,3875.,0.,0.,10063.,0.883042600845,2.2959107622,260.
