t,s,e,i,r,c,o,n,reff,coal,reportr
5.,6250.,5.,3.,3734.,0.,0.,9992.,0.902164038923,9.3825060048,65.
5.02,6258.,8.,2.,3726.,0.,0.,9994.,0.903138036668,5.87039723834,104.
5.04,6256.,9.,2.,3723.,0.,0.,9990.,0.903210903211,5.21855188522,117.
5.06,6268.,5.,5.,3717.,0.,0.,9995.,0.904490706892,9.40670335168,65.
5.08,6264.,7.,7.,3716.,0.,0.,9994.,0.904003940826,6.71545784614,91.
5.1,6267.,7.,3.,3715.,0.,0.,9992.,0.904617925109,6.72001887224,91.
5.12,6270.,6.,8.,3708.,0.,0.,9992.,0.905050963848,7.84377502002,78.
5.14,6276.,8.,3.,3704.,0.,0.,9991.,0.906007714635,5.88905014513,104.
5.16,6283.,10.,2.,3695.,0.,0.,9990.,0.907109032109,4.71696696697,130.
5.18,6289.,5.,6.,3690.,0.,0.,9990.,0.907975282975,9.44294294294,65.
5.2,6294.,6.,5.,3680.,0.,0.,9985.,0.909152189823,7.87931897847,78.
5.22,6294.,10.,5.,3675.,0.,0.,9984.,0.90924325074,4.72806490385,130.
5.24,6291.,16.,5.,3673.,0.,0.,9985.,0.908718847502,2.95333625438,208.
5.26,6289.,11.,7.,3676.,0.,0.,9983.,0.908611948004,4.29525648147,143.
5.28,6284.,16.,7.,3677.,0.,0.,9984.,0.907798631657,2.95034555288,208.
5.3,6288.,16.,12.,3672.,0.,0.,9988.,0.908012692154,2.9510412495,208.
5.32,6285.,23.,9.,3671.,0.,0.,9988.,0.907579479991,2.05191882433,299.
5.34,6284.,21.,10.,3674.,0.,0.,9989.,0.907344232502,2.24675714715,273.
5.36,6285.,21.,8.,3674.,0.,0.,9988.,0.907579479991,2.24733966474,273.
5.38,6285.,22.,9.,3674.,0.,0.,9990.,0.907397782398,2.14475839476,286.
5.4,6279.,19.,11.,3680.,0.,0.,9989.,0.906622284513,2.48128204182,247.
5.42,6273.,23.,11.,3682.,0.,0.,9989.,0.905755946926,2.04779605392,299.
5.44,6276.,24.,14.,3677.,0.,0.,9991.,0.906007714635,1.96301671504,312.
5.46,6262.,32.,8.,3688.,0.,0.,9990.,0.904077154077,1.46912537538,416.
5.48,6262.,26.,14.,3688.,0.,0.,9990.,0.904077154077,1.80815430815,338.
5.5,6258.,35.,10.,3694.,0.,0.,9997.,0.90286701395,1.34140242073,455.
5.52,6262.,33.,11.,3692.,0.,0.,9998.,0.903353747673,1.42346651148,429.
5.54,6266.,27.,9.,3693.,0.,0.,9995.,0.904202101051,1.74142626869,351.
5.56,6264.,24.,6.,3698.,0.,0.,9992.,0.904184886371,1.9590672538,312.
5.58,6261.,23.,13.,3692.,0.,0.,9989.,0.904023271753,2.04387870135,299.
5.6,6255.,23.,10.,3699.,0.,0.,9987.,0.903337800679,2.04232894067,299.
5.62,6260.,17.,13.,3697.,0.,0.,9987.,0.904059893246,2.76535967346,221.
5.64,6254.,16.,14.,3698.,0.,0.,9982.,0.903645793197,2.93684882789,208.
5.66,6254.,19.,8.,3698.,0.,0.,9979.,0.90391745743,2.47387935718,247.
5.68,6256.,18.,9.,3698.,0.,0.,9981.,0.904025340455,2.61162876131,234.
5.7,6256.,16.,8.,3700.,0.,0.,9980.,0.904115924156,2.93837675351,208.
5.72,6259.,14.,9.,3699.,0.,0.,9981.,0.904458856443,3.35941860964,182.
5.74,6262.,13.,10.,3694.,0.,0.,9979.,0.90507373176,3.62029492704,169.
5.76,6259.,17.,8.,3694.,0.,0.,9978.,0.904730792359,2.76741183545,221.
5.78,6258.,16.,8.,3696.,0.,0.,9978.,0.904586243582,2.93990529164,208.
5.8,6250.,22.,9.,3698.,0.,0.,9979.,0.903339320265,2.13516566608,286.
5.82,6250.,25.,12.,3694.,0.,0.,9981.,0.903158308478,1.87856928164,325.
5.84,6240.,29.,14.,3699.,0.,0.,9982.,0.901622921258,1.61670316915,377.
5.86,6243.,28.,16.,3699.,0.,0.,9986.,0.901695065399,1.67457655003,364.
5.88,6245.,21.,10.,3710.,0.,0.,9986.,0.90198393135,2.23348402049,273.
5.9,6233.,23.,10.,3718.,0.,0.,9984.,0.900431074334,2.03575721154,299.
5.92,6228.,23.,9.,3723.,0.,0.,9983.,0.89979888888,2.03432792269,299.
5.94,6239.,19.,9.,3719.,0.,0.,9986.,0.901117333498,2.4662158601,247.
5.96,6242.,17.,7.,3726.,0.,0.,9992.,0.901009268954,2.75602835209,221.
5.98,6243.,14.,12.,3724.,0.,0.,9993.,0.901063436713,3.34680705065,182.
6.,6239.,15.,10.,3728.,0.,0.,9992.,0.900576230215,3.12199759808,195.
6.02,6241.,18.,9.,3725.,0.,0.,9993.,0.90077477311,2.60223823343,234.
6.04,6236.,21.,7.,3725.,0.,0.,9989.,0.900413531808,2.2295954121,273.
6.06,6240.,18.,9.,3718.,0.,0.,9985.,0.901352028042,2.60390585879,234.
6.08,6236.,22.,14.,3711.,0.,0.,9983.,0.900954699913,2.1295292907,286.
6.1,6226.,27.,16.,3714.,0.,0.,9983.,0.899509936122,1.73238950661,351.
6.12,6232.,22.,14.,3719.,0.,0.,9987.,0.900016174873,2.12731095879,286.
6.14,6228.,15.,12.,3731.,0.,0.,9986.,0.899528570768,3.118365712,195.
6.16,6230.,19.,7.,3731.,0.,0.,9987.,0.899727337847,2.46241166148,247.
6.18,6232.,18.,12.,3730.,0.,0.,9992.,0.899565806491,2.5987456632,234.
6.2,6227.,10.,9.,3742.,0.,0.,9988.,0.899204044854,4.67586103324,130.
6.22,6224.,12.,11.,3739.,0.,0.,9986.,0.898950838867,3.89545363509,156.
6.24,6235.,15.,8.,3733.,0.,0.,9991.,0.900088926187,3.12030827745,195.
6.26,6238.,13.,7.,3730.,0.,0.,9988.,0.900792489449,3.6031699578,169.
6.28,6230.,16.,7.,3732.,0.,0.,9985.,0.899907553638,2.92469954932,208.
6.3,6235.,17.,4.,3729.,0.,0.,9985.,0.90062979084,2.75486759551,221.
6.32,6237.,13.,8.,3724.,0.,0.,9982.,0.9011894487,3.6047577948,169.
6.34,6236.,16.,4.,3725.,0.,0.,9981.,0.901135233867,2.92868951007,208.
6.36,6240.,15.,6.,3720.,0.,0.,9981.,0.901713255185,3.12593928464,195.
6.38,6239.,11.,9.,3718.,0.,0.,9977.,0.901930208711,4.26367007754,143.
6.4,6237.,14.,8.,3717.,0.,0.,9976.,0.901731463204,3.3492882919,182.
6.42,6241.,13.,10.,3712.,0.,0.,9976.,0.902309774227,3.60923909691,169.
6.44,6246.,11.,12.,3707.,0.,0.,9976.,0.903032663007,4.26888167967,143.
6.46,6248.,12.,5.,3707.,0.,0.,9972.,0.903684161807,3.91596470116,156.
6.48,6243.,16.,10.,3703.,0.,0.,9972.,0.90296098306,2.93462319495,208.
6.5,6248.,19.,7.,3698.,0.,0.,9972.,0.903684161807,2.47324086389,247.
6.52,6258.,14.,9.,3691.,0.,0.,9972.,0.9051305193,3.3619133574,182.
6.54,6250.,18.,9.,3691.,0.,0.,9968.,0.904336183479,2.61252675227,234.
6.56,6247.,15.,7.,3698.,0.,0.,9967.,0.903992791597,3.13384167754,195.
6.58,6251.,17.,1.,3697.,0.,0.,9966.,0.90466239059,2.76720260651,221.
6.6,6253.,12.,6.,3692.,0.,0.,9963.,0.905224330021,3.92263876342,156.
6.62,6263.,13.,5.,3688.,0.,0.,9969.,0.90612629922,3.62450519688,169.
6.64,6264.,11.,10.,3681.,0.,0.,9966.,0.906543787338,4.28547972196,143.
6.66,6273.,16.,0.,3680.,0.,0.,9969.,0.90757309197,2.9496125489,208.
6.68,6282.,12.,4.,3668.,0.,0.,9966.,0.909148798222,3.93964479229,156.
6.7,6281.,13.,7.,3664.,0.,0.,9965.,0.909095295071,3.63638118028,169.
6.72,6285.,11.,5.,3665.,0.,0.,9966.,0.909582966702,4.29984675168,143.
6.74,6283.,17.,7.,3661.,0.,0.,9968.,0.909111078528,2.78081035785,221.
6.76,6282.,19.,10.,3656.,0.,0.,9967.,0.909057582329,2.48794706743,247.
6.78,6286.,13.,15.,3653.,0.,0.,9967.,0.909636415556,3.63854566222,169.
6.8,6293.,13.,12.,3650.,0.,0.,9968.,0.910558016422,3.64223206569,169.
6.82,6287.,20.,10.,3651.,0.,0.,9968.,0.909689853686,2.36519361958,260.
6.84,6297.,13.,16.,3649.,0.,0.,9975.,0.91049739734,3.64198958936,169.
6.86,6295.,19.,12.,3652.,0.,0.,9978.,0.909934548314,2.49034718486,247.
6.88,6288.,21.,11.,3654.,0.,0.,9974.,0.909287223705,2.25156836346,273.
6.9,6287.,20.,9.,3657.,0.,0.,9973.,0.909233777353,2.36400782112,260.
6.92,6276.,26.,5.,3663.,0.,0.,9970.,0.90791605586,1.81583211172,338.
6.94,6274.,16.,17.,3660.,0.,0.,9967.,0.907899915876,2.9506747266,208.
6.96,6266.,24.,11.,3661.,0.,0.,9962.,0.90719734993,1.96559425818,312.
6.98,6266.,19.,14.,3662.,0.,0.,9961.,0.907288424857,2.48310516277,247.
7.,6266.,21.,7.,3668.,0.,0.,9962.,0.90719734993,2.24639343792,273.
7.02,6269.,23.,13.,3661.,0.,0.,9966.,0.907267401473,2.0512132555,299.
7.04,6259.,30.,14.,3662.,0.,0.,9965.,0.905911073372,1.57024586051,390.
7.06,6252.,28.,11.,3674.,0.,0.,9965.,0.904897911922,1.68052469357,364.
7.08,6255.,24.,8.,3681.,0.,0.,9968.,0.905059652426,1.96096258026,312.
7.1,6251.,11.,19.,3686.,0.,0.,9967.,0.904571624823,4.27615677189,143.
7.12,6237.,25.,9.,3696.,0.,0.,9967.,0.90254570853,1.87729507374,325.
7.14,6241.,17.,16.,3690.,0.,0.,9964.,0.903396458018,2.76333034217,221.
7.16,6241.,18.,10.,3696.,0.,0.,9965.,0.903305801073,2.60955009199,234.
7.18,6241.,19.,12.,3696.,0.,0.,9968.,0.903033939375,2.47146130776,247.
7.2,6237.,25.,7.,3700.,0.,0.,9969.,0.90236463807,1.87691844719,325.
7.22,6239.,16.,14.,3700.,0.,0.,9969.,0.90265399662,2.93362548902,208.
7.24,6238.,17.,10.,3705.,0.,0.,9970.,0.902418794846,2.76033984306,221.
7.26,6234.,21.,6.,3707.,0.,0.,9968.,0.90202108285,2.23357601468,273.
7.28,6241.,15.,13.,3698.,0.,0.,9967.,0.903124541757,3.13083174476,195.
7.3,6235.,20.,8.,3704.,0.,0.,9967.,0.902256291917,2.34586635898,260.
7.32,6229.,21.,10.,3706.,0.,0.,9966.,0.901478488399,2.23223244746,273.
7.34,6227.,26.,9.,3701.,0.,0.,9963.,0.901460403493,1.80292080699,338.
7.36,6230.,22.,10.,3705.,0.,0.,9967.,0.901532750384,2.13089559182,286.
7.38,6228.,20.,6.,3713.,0.,0.,9967.,0.901243333771,2.3432326678,260.
7.4,6223.,21.,4.,3721.,0.,0.,9969.,0.900339128221,2.22941117464,273.
7.42,6223.,13.,10.,3721.,0.,0.,9967.,0.900519792237,3.60207916895,169.
7.44,6221.,12.,11.,3725.,0.,0.,9969.,0.900049769671,3.90021566857,156.
7.46,6225.,10.,11.,3724.,0.,0.,9970.,0.90053815292,4.68279839519,130.
7.48,6221.,13.,4.,3730.,0.,0.,9968.,0.900140063588,3.60056025435,169.
7.5,6222.,7.,10.,3728.,0.,0.,9967.,0.900375083931,6.68850062349,91.
7.52,6221.,18.,9.,3722.,0.,0.,9970.,0.899959493866,2.59988298228,234.
7.54,6221.,21.,7.,3719.,0.,0.,9968.,0.900140063588,2.22891825269,273.
7.56,6224.,16.,10.,3718.,0.,0.,9968.,0.900574144956,2.92686597111,208.
7.58,6218.,23.,11.,3717.,0.,0.,9969.,0.899615731846,2.03391382852,299.
7.6,6218.,20.,13.,3721.,0.,0.,9972.,0.899345089327,2.33829723225,260.
7.62,6214.,22.,8.,3729.,0.,0.,9973.,0.898676426351,2.12414428047,286.
7.64,6211.,24.,8.,3733.,0.,0.,9976.,0.897972441552,1.9456069567,312.
7.66,6215.,16.,9.,3742.,0.,0.,9982.,0.898010649939,2.9185346123,208.
7.68,6210.,17.,8.,3746.,0.,0.,9981.,0.897378095304,2.7449212327,221.
7.7,6212.,16.,10.,3744.,0.,0.,9982.,0.897577177381,2.91712582649,208.
7.72,6217.,7.,14.,3739.,0.,0.,9977.,0.898749816887,6.67642721116,91.
7.74,6232.,5.,8.,3738.,0.,0.,9983.,0.900376794397,9.36391866172,65.
7.76,6241.,4.,6.,3733.,0.,0.,9984.,0.901586769601,11.7206280048,52.
7.78,6242.,7.,1.,3733.,0.,0.,9983.,0.901821558187,6.69924586082,91.
7.8,6242.,7.,3.,3728.,0.,0.,9980.,0.902092646832,6.70125966218,91.
7.82,6245.,5.,5.,3725.,0.,0.,9980.,0.902526206259,9.38627254509,65.
7.84,6255.,4.,4.,3721.,0.,0.,9984.,0.903609236317,11.7469200721,52.
7.86,6262.,7.,1.,3715.,0.,0.,9985.,0.904529871731,6.71936476143,91.
7.88,6262.,6.,1.,3712.,0.,0.,9981.,0.904892372431,7.84240056107,78.
7.9,6265.,7.,0.,3704.,0.,0.,9976.,0.905779640368,6.72864875702,91.
7.92,6273.,7.,1.,3697.,0.,0.,9978.,0.90675447523,6.73589038742,91.
7.94,6274.,8.,2.,3692.,0.,0.,9976.,0.90708084017,5.89602546111,104.
7.96,6282.,6.,5.,3683.,0.,0.,9976.,0.908237462217,7.87139133921,78.
7.98,6285.,9.,3.,3679.,0.,0.,9976.,0.908671195485,5.25010024058,117.
8.,6296.,6.,4.,3671.,0.,0.,9977.,0.910170314801,7.88814272828,78.
8.02,6299.,9.,3.,3666.,0.,0.,9977.,0.910604004595,5.26126758211,117.
8.04,6306.,5.,5.,3663.,0.,0.,9979.,0.911433240574,9.47890570197,65.
8.06,6309.,6.,4.,3660.,0.,0.,9979.,0.911866843448,7.90284597655,78.
8.08,6317.,9.,4.,3651.,0.,0.,9981.,0.912840165545,5.27418762315,117.
8.1,6322.,11.,3.,3649.,0.,0.,9985.,0.913196718154,4.31692994037,143.
8.12,6330.,7.,3.,3647.,0.,0.,9987.,0.914169189177,6.7909711196,91.
8.14,6333.,10.,1.,3645.,0.,0.,9989.,0.914419322794,4.75498047853,130.
8.16,6331.,11.,3.,3642.,0.,0.,9987.,0.91431360769,4.32220978181,143.
8.18,6339.,5.,6.,3634.,0.,0.,9984.,0.915744036612,9.52373798077,65.
8.2,6337.,12.,2.,3629.,0.,0.,9980.,0.915822028673,3.96856212425,156.
8.22,6344.,14.,3.,3624.,0.,0.,9985.,0.916374561843,3.40367694399,182.
8.24,6348.,13.,6.,3622.,0.,0.,9989.,0.91658516676,3.66634066704,169.
8.26,6355.,9.,5.,3616.,0.,0.,9985.,0.917963483687,5.30378901686,117.
8.28,6354.,14.,4.,3611.,0.,0.,9983.,0.918002912644,3.40972510411,182.
8.3,6351.,17.,7.,3609.,0.,0.,9984.,0.917477579512,2.80640200792,221.
8.32,6361.,8.,12.,3606.,0.,0.,9987.,0.918646163089,5.97120006008,104.
8.34,6357.,15.,5.,3610.,0.,0.,9987.,0.918068489036,3.18263742866,195.
8.36,6355.,13.,6.,3613.,0.,0.,9987.,0.917779652009,3.67111860804,169.
8.38,6359.,12.,4.,3610.,0.,0.,9985.,0.918541273449,3.98034551828,156.
8.4,6364.,8.,8.,3603.,0.,0.,9983.,0.919447676435,5.97640989682,104.
8.42,6367.,8.,1.,3606.,0.,0.,9982.,0.91997325956,5.97982618714,104.
8.44,6383.,5.,2.,3597.,0.,0.,9987.,0.921823370381,9.58696305197,65.
8.46,6390.,1.,5.,3593.,0.,0.,9989.,0.922649529867,47.9777755531,13.
8.48,6397.,4.,2.,3587.,0.,0.,9990.,0.923567798568,12.0063813814,52.
8.5,6403.,5.,3.,3580.,0.,0.,9991.,0.924341522755,9.61315183665,65.
8.52,6403.,8.,3.,3578.,0.,0.,9992.,0.924249014596,6.00761859488,104.
8.54,6410.,9.,4.,3569.,0.,0.,9992.,0.92525943832,5.3459434214,117.
8.56,6416.,8.,6.,3560.,0.,0.,9990.,0.926310926311,6.02102102102,104.
8.58,6427.,7.,6.,3552.,0.,0.,9992.,0.927713324506,6.89158469633,91.
8.6,6431.,10.,8.,3545.,0.,0.,9994.,0.928104939887,4.82614568741,130.
8.62,6434.,14.,1.,3545.,0.,0.,9994.,0.928537891966,3.4488550273,182.
8.64,6441.,10.,6.,3537.,0.,0.,9994.,0.929548113483,4.83365019011,130.
8.66,6446.,10.,3.,3535.,0.,0.,9994.,0.930269700282,4.83740244146,130.
8.68,6452.,14.,6.,3524.,0.,0.,9996.,0.930949302798,3.45781169611,182.
8.7,6458.,8.,6.,3526.,0.,0.,9998.,0.931628633419,6.05558611722,104.
8.72,6462.,6.,3.,3525.,0.,0.,9996.,0.932392187644,8.08073229292,78.
8.74,6457.,10.,2.,3525.,0.,0.,9994.,0.931857191238,4.84565739444,130.
8.76,6461.,8.,4.,3521.,0.,0.,9994.,0.932434460676,6.0608239944,104.
8.78,6461.,12.,4.,3517.,0.,0.,9994.,0.932434460676,4.0405493296,156.
8.8,6459.,12.,3.,3513.,0.,0.,9987.,0.932799177392,4.0421297687,156.
8.82,6462.,11.,3.,3510.,0.,0.,9986.,0.933325887011,4.41208601132,143.
8.84,6465.,11.,5.,3505.,0.,0.,9986.,0.933759185937,4.41413433352,143.
8.86,6468.,10.,4.,3500.,0.,0.,9982.,0.934566835689,4.85974754558,130.
8.88,6472.,11.,4.,3496.,0.,0.,9983.,0.935051125375,4.42024168359,143.
8.9,6477.,11.,5.,3486.,0.,0.,9979.,0.936148604377,4.42542976615,143.
8.92,6482.,13.,3.,3482.,0.,0.,9980.,0.936777400956,3.74710960382,169.
8.94,6482.,13.,6.,3477.,0.,0.,9978.,0.936965169527,3.74786067811,169.
8.96,6491.,12.,3.,3471.,0.,0.,9977.,0.938360151425,4.06622732284,156.
8.98,6492.,12.,7.,3468.,0.,0.,9979.,0.938316618746,4.06603868123,156.
9.,6497.,11.,7.,3465.,0.,0.,9980.,0.938945198088,4.43865002733,143.
9.02,6494.,12.,8.,3466.,0.,0.,9980.,0.938511638662,4.06688376754,156.
9.04,6497.,15.,8.,3461.,0.,0.,9981.,0.938851124829,3.25468389941,195.
9.06,6504.,15.,11.,3455.,0.,0.,9985.,0.939486152305,3.25688532799,195.
9.08,6496.,17.,9.,3461.,0.,0.,9983.,0.938518558472,2.87076264945,221.
9.1,6497.,21.,8.,3461.,0.,0.,9987.,0.938287080897,2.32337753365,273.
9.12,6499.,21.,7.,3464.,0.,0.,9991.,0.938200149365,2.32316227462,273.
9.14,6498.,19.,8.,3468.,0.,0.,9993.,0.937868046094,2.56679675773,247.
9.16,6494.,23.,3.,3472.,0.,0.,9992.,0.937384523003,2.11930413896,299.
9.18,6495.,20.,11.,3467.,0.,0.,9993.,0.937435050689,2.43733113179,260.
9.2,6497.,13.,14.,3468.,0.,0.,9992.,0.937817561742,3.75127024697,169.
9.22,6496.,17.,5.,3475.,0.,0.,9993.,0.937579382491,2.86788987585,221.
9.24,6500.,15.,10.,3469.,0.,0.,9994.,0.938062837703,3.2519511707,195.
9.26,6501.,15.,10.,3471.,0.,0.,9997.,0.937925608452,3.25147544263,195.
9.28,6504.,22.,13.,3459.,0.,0.,9998.,0.938264575992,2.21771627053,286.
9.3,6496.,24.,9.,3469.,0.,0.,9998.,0.937110499023,2.03040608122,312.
9.32,6492.,19.,18.,3468.,0.,0.,9997.,0.936627141989,2.56340059913,247.
9.34,6484.,21.,18.,3475.,0.,0.,9998.,0.935379383569,2.31617752122,273.
9.36,6480.,26.,11.,3483.,0.,0.,10000.,0.934615384615,1.86923076923,338.
9.38,6473.,32.,13.,3483.,0.,0.,10001.,0.933512417989,1.51695767923,416.
9.4,6461.,26.,16.,3500.,0.,0.,10003.,0.931595521344,1.86319104269,338.
9.42,6452.,28.,16.,3509.,0.,0.,10005.,0.930111867143,1.72735061041,364.
9.44,6452.,25.,10.,3521.,0.,0.,10008.,0.929833056632,1.93405275779,325.
9.46,6451.,19.,17.,3524.,0.,0.,10011.,0.929410340933,2.54364935413,247.
9.48,6452.,17.,8.,3530.,0.,0.,10007.,0.929925974894,2.84447945262,221.
9.5,6445.,21.,9.,3531.,0.,0.,10006.,0.929009901751,2.300405471,273.
9.52,6441.,22.,9.,3532.,0.,0.,10004.,0.928618937041,2.19491748755,286.
9.54,6442.,21.,8.,3533.,0.,0.,10004.,0.928763110141,2.29979436797,273.
9.56,6439.,22.,8.,3535.,0.,0.,10004.,0.928330590841,2.19423594199,286.
9.58,6434.,22.,4.,3542.,0.,0.,10002.,0.927795210189,2.19297049681,286.
9.6,6431.,23.,4.,3544.,0.,0.,10002.,0.927362604402,2.09664588821,299.
9.62,6435.,21.,6.,3540.,0.,0.,10002.,0.927939412118,2.29775473477,273.
9.64,6435.,27.,5.,3535.,0.,0.,10002.,0.927939412118,1.78714257149,351.
9.66,6436.,19.,10.,3535.,0.,0.,10000.,0.928269230769,2.54052631579,247.
9.68,6433.,19.,6.,3541.,0.,0.,9999.,0.927929331395,2.53959606487,247.
9.7,6432.,20.,9.,3544.,0.,0.,10005.,0.927228693346,2.4107946027,260.
9.72,6427.,20.,5.,3554.,0.,0.,10006.,0.926415304663,2.40867979212,260.
9.74,6433.,14.,11.,3549.,0.,0.,10007.,0.927187507206,3.44383931248,182.
9.76,6429.,12.,12.,3553.,0.,0.,10006.,0.926703593229,4.01571557066,156.
9.78,6418.,17.,6.,3561.,0.,0.,10002.,0.925487979327,2.83090440735,221.
9.8,6417.,16.,7.,3563.,0.,0.,10003.,0.925251270773,3.00706663001,208.
9.82,6413.,16.,5.,3566.,0.,0.,10000.,0.924951923077,3.00609375,208.
9.84,6419.,15.,3.,3564.,0.,0.,10001.,0.925724735219,3.20917908209,195.
9.86,6415.,14.,2.,3568.,0.,0.,9999.,0.925332917907,3.43695083794,182.
9.88,6413.,14.,9.,3559.,0.,0.,9995.,0.925414630392,3.43725434146,182.
9.9,6412.,14.,10.,3559.,0.,0.,9995.,0.925270327471,3.43671835918,182.
9.92,6401.,17.,13.,3563.,0.,0.,9994.,0.923775419098,2.82566598783,221.
9.94,6395.,19.,2.,3575.,0.,0.,9991.,0.923186637204,2.52661605972,247.
9.96,6395.,17.,8.,3573.,0.,0.,9993.,0.92300187054,2.8232998393,221.
9.98,6392.,16.,6.,3577.,0.,0.,9991.,0.922753555123,2.99894905415,208.
10.,6395.,15.,4.,3576.,0.,0.,9990.,0.923279048279,3.2007007007,195.
