t,cases
5.01,0.845
5.02,0.845
5.03,1.235
5.04,1.235
5.05,1.04
5.06,1.04
5.07,0.845
5.08,0.845
5.09,0.975
5.1,0.975
5.11,0.91
5.12,0.91
5.13,0.78
5.14,0.78
5.15,0.455
5.16,0.455
5.17,0.195
5.18,0.195
5.19,0.26
5.2,0.26
5.21,0.455
5.22,0.455
5.23,0.52
5.24,0.52
5.25,0.455
5.26,0.455
5.27,0.39
5.28,0.39
5.29,0.195
5.3,0.195
5.31,0.26
5.32,0.26
5.33,0.325
5.34,0.325
5.35,0.13
5.36,0.13
5.37,0.195
5.38,0.195
5.39,0.78
5.4,0.78
5.41,1.43
5.42,1.43
5.43,1.17
5.44,1.17
5.45,0.78
5.46,0.78
5.47,1.105
5.48,1.105
5.49,1.235
5.5,1.235
5.51,1.17
5.52,1.17
5.53,1.105
5.54,1.105
5.55,1.04
5.56,1.04
5.57,0.975
5.58,0.975
5.59,1.235
5.6,1.235
5.61,1.82
5.62,1.82
5.63,2.21
5.64,2.21
5.65,2.47
5.66,2.47
5.67,2.21
5.68,2.21
5.69,2.275
5.7,2.275
5.71,2.275
5.72,2.275
5.73,2.275
5.74,2.275
5.75,2.47
5.76,2.47
5.77,2.665
5.78,2.665
5.79,2.86
5.8,2.86
5.81,2.47
5.82,2.47
5.83,2.08
5.84,2.08
5.85,1.885
5.86,1.885
5.87,1.69
5.88,1.69
5.89,1.56
5.9,1.56
5.91,1.625
5.92,1.625
5.93,2.08
5.94,2.08
5.95,2.6
5.96,2.6
5.97,2.86
5.98,2.86
5.99,2.795
6.,2.795
6.01,2.275
6.02,2.275
6.03,1.95
6.04,1.95
6.05,1.56
6.06,1.56
6.07,1.43
6.08,1.43
6.09,1.885
6.1,1.885
6.11,1.69
6.12,1.69
6.13,1.43
6.14,1.43
6.15,1.43
6.16,1.43
6.17,1.3
6.18,1.3
6.19,1.495
6.2,1.495
6.21,2.08
6.22,2.08
6.23,1.885
6.24,1.885
6.25,2.145
6.26,2.145
6.27,3.055
6.28,3.055
6.29,3.25
6.3,3.25
6.31,3.12
6.32,3.12
6.33,3.25
6.34,3.25
6.35,3.705
6.36,3.705
6.37,3.64
6.38,3.64
6.39,3.705
6.4,3.705
6.41,3.575
6.42,3.575
6.43,2.73
6.44,2.73
6.45,2.73
6.46,2.73
6.47,2.925
6.48,2.925
6.49,2.34
6.5,2.34
6.51,2.08
6.52,2.08
6.53,2.21
6.54,2.21
6.55,2.795
6.56,2.795
6.57,2.86
6.58,2.86
6.59,2.795
6.6,2.795
6.61,2.795
6.62,2.795
6.63,2.665
6.64,2.665
6.65,2.86
6.66,2.86
6.67,2.99
6.68,2.99
6.69,2.99
6.7,2.99
6.71,2.6
6.72,2.6
6.73,2.145
6.74,2.145
6.75,1.885
6.76,1.885
6.77,1.82
6.78,1.82
6.79,1.95
6.8,1.95
6.81,1.95
6.82,1.95
6.83,1.69
6.84,1.69
6.85,1.69
6.86,1.69
6.87,2.015
6.88,2.015
6.89,1.755
6.9,1.755
6.91,1.69
6.92,1.69
6.93,1.95
6.94,1.95
6.95,2.015
6.96,2.015
6.97,2.08
6.98,2.08
6.99,1.755
7.,1.755
7.01,1.56
7.02,1.56
7.03,1.56
7.04,1.56
7.05,1.755
7.06,1.755
7.07,1.95
7.08,1.95
7.09,1.885
7.1,1.885
7.11,2.535
7.12,2.535
7.13,2.99
7.14,2.99
7.15,2.795
7.16,2.795
7.17,3.315
7.18,3.315
7.19,4.03
7.2,4.03
7.21,4.29
7.22,4.29
7.23,4.42
7.24,4.42
7.25,4.29
7.26,4.29
7.27,3.835
7.28,3.835
7.29,3.38
7.3,3.38
7.31,3.77
7.32,3.77
7.33,4.745
7.34,4.745
7.35,4.81
7.36,4.81
7.37,5.005
7.38,5.005
7.39,5.785
7.4,5.785
7.41,5.915
7.42,5.915
7.43,5.395
7.44,5.395
7.45,4.81
7.46,4.81
7.47,3.965
7.48,3.965
7.49,2.795
7.5,2.795
7.51,2.535
7.52,2.535
7.53,2.21
7.54,2.21
7.55,1.755
7.56,1.755
7.57,2.275
7.58,2.275
7.59,2.535
7.6,2.535
7.61,2.015
7.62,2.015
7.63,1.625
7.64,1.625
7.65,1.56
7.66,1.56
7.67,1.755
7.68,1.755
7.69,2.08
7.7,2.08
7.71,1.885
7.72,1.885
7.73,1.56
7.74,1.56
7.75,1.17
7.76,1.17
7.77,0.975
7.78,0.975
7.79,1.365
7.8,1.365
7.81,1.69
7.82,1.69
7.83,1.495
7.84,1.495
7.85,1.365
7.86,1.365
7.87,1.56
7.88,1.56
7.89,1.3
7.9,1.3
7.91,1.365
7.92,1.365
7.93,1.495
7.94,1.495
7.95,0.975
7.96,0.975
7.97,0.975
7.98,0.975
7.99,1.04
8.,1.04
8.01,1.235
8.02,1.235
8.03,1.365
8.04,1.365
8.05,1.365
8.06,1.365
8.07,1.69
8.08,1.69
8.09,1.69
8.1,1.69
8.11,1.56
8.12,1.56
8.13,1.56
8.14,1.56
8.15,1.56
8.16,1.56
8.17,1.56
8.18,1.56
8.19,1.95
8.2,1.95
8.21,2.405
8.22,2.405
8.23,2.6
8.24,2.6
8.25,2.47
8.26,2.47
8.27,2.08
8.28,2.08
8.29,2.015
8.3,2.015
8.31,1.95
8.32,1.95
8.33,1.82
8.34,1.82
8.35,2.08
8.36,2.08
8.37,1.755
8.38,1.755
8.39,1.3
8.4,1.3
8.41,1.82
8.42,1.82
8.43,2.08
8.44,2.08
8.45,1.56
8.46,1.56
8.47,1.43
8.48,1.43
8.49,1.95
8.5,1.95
8.51,2.535
8.52,2.535
8.53,2.6
8.54,2.6
8.55,2.015
8.56,2.015
8.57,1.625
8.58,1.625
8.59,1.495
8.6,1.495
8.61,1.56
8.62,1.56
8.63,1.625
8.64,1.625
8.65,1.755
8.66,1.755
8.67,1.95
8.68,1.95
8.69,1.885
8.7,1.885
8.71,1.885
8.72,1.885
8.73,1.69
8.74,1.69
8.75,1.365
8.76,1.365
8.77,1.17
8.78,1.17
8.79,0.91
8.8,0.91
8.81,1.17
8.82,1.17
8.83,1.625
8.84,1.625
8.85,1.69
8.86,1.69
8.87,1.3
8.88,1.3
8.89,1.105
8.9,1.105
8.91,1.17
8.92,1.17
8.93,1.235
8.94,1.235
8.95,1.04
8.96,1.04
8.97,0.975
8.98,0.975
8.99,1.105
9.,1.105
9.01,0.91
9.02,0.91
9.03,0.91
9.04,0.91
9.05,0.91
9.06,0.91
9.07,0.975
9.08,0.975
9.09,1.17
9.1,1.17
9.11,0.91
9.12,0.91
9.13,0.715
9.14,0.715
9.15,1.105
9.16,1.105
9.17,0.91
9.18,0.91
9.19,0.65
9.2,0.65
9.21,0.52
9.22,0.52
9.23,0.455
9.24,0.455
9.25,0.585
9.26,0.585
9.27,0.52
9.28,0.52
9.29,0.52
9.3,0.52
9.31,0.455
9.32,0.455
9.33,0.52
9.34,0.52
9.35,0.65
9.36,0.65
9.37,0.65
9.38,0.65
9.39,0.455
9.4,0.455
9.41,0.39
9.42,0.39
9.43,0.52
9.44,0.52
9.45,0.52
9.46,0.52
9.47,0.52
9.48,0.52
9.49,0.455
9.5,0.455
9.51,0.325
9.52,0.325
9.53,0.845
9.54,0.845
9.55,1.105
9.56,1.105
9.57,1.17
9.58,1.17
9.59,1.755
9.6,1.755
9.61,1.625
9.62,1.625
9.63,1.56
9.64,1.56
9.65,2.015
9.66,2.015
9.67,1.885
9.68,1.885
9.69,1.755
9.7,1.755
9.71,1.69
9.72,1.69
9.73,1.69
9.74,1.69
9.75,1.82
9.76,1.82
9.77,1.365
9.78,1.365
9.79,1.17
9.8,1.17
9.81,0.91
9.82,0.91
9.83,0.715
9.84,0.715
9.85,1.105
9.86,1.105
9.87,1.43
9.88,1.43
9.89,1.235
9.9,1.235
9.91,1.17
9.92,1.17
9.93,1.365
9.94,1.365
9.95,1.495
9.96,1.495
9.97,2.08
9.98,2.08
9.99,2.47
10.,2.47
