t,s,e,i,r,c,o,n,reff,coal,reportr
5.,6250.,5.,3.,3734.,0.,0.,9992.,0.902164038923,9.3825060048,65.
5.02,6255.,6.,3.,3728.,0.,0.,9992.,0.902885770155,7.82501000801,78.
5.04,6252.,6.,3.,3725.,0.,0.,9986.,0.902994962178,7.82595633887,78.
5.06,6247.,10.,3.,3725.,0.,0.,9985.,0.902363160125,4.69228843265,130.
5.08,6252.,5.,7.,3721.,0.,0.,9985.,0.903085397327,9.3920881322,65.
5.1,6263.,9.,1.,3718.,0.,0.,9991.,0.904131025615,5.223868148,117.
5.12,6274.,9.,2.,3709.,0.,0.,9994.,0.905447114422,5.23147221666,117.
5.14,6278.,10.,3.,3706.,0.,0.,9997.,0.905752494979,4.70991297389,130.
5.16,6273.,9.,5.,3706.,0.,0.,9993.,0.905393390758,5.23116181327,117.
5.18,6274.,6.,8.,3700.,0.,0.,9988.,0.905991035396,7.85192230677,78.
5.2,6276.,8.,2.,3703.,0.,0.,9989.,0.90618911572,5.89022925218,104.
5.22,6275.,14.,0.,3699.,0.,0.,9988.,0.90613543945,3.36564591796,182.
5.24,6280.,12.,5.,3691.,0.,0.,9988.,0.906857459721,3.92971565879,156.
5.26,6280.,12.,9.,3690.,0.,0.,9991.,0.906585157411,3.92853568211,156.
5.28,6286.,14.,4.,3686.,0.,0.,9990.,0.907542157542,3.37087087087,182.
5.3,6284.,14.,5.,3686.,0.,0.,9989.,0.907344232502,3.37013572072,182.
5.32,6290.,15.,6.,3680.,0.,0.,9991.,0.908028764349,3.14783304974,195.
5.34,6290.,17.,6.,3683.,0.,0.,9996.,0.907574568289,2.77611044418,221.
5.36,6287.,21.,3.,3687.,0.,0.,9998.,0.906960238201,2.24580630412,273.
5.38,6289.,20.,9.,3680.,0.,0.,9998.,0.907248757444,2.35884676935,260.
5.4,6292.,13.,13.,3678.,0.,0.,9996.,0.907863145258,3.63145258103,169.
5.42,6291.,16.,8.,3681.,0.,0.,9996.,0.907718856773,2.95008628451,208.
5.44,6291.,20.,7.,3676.,0.,0.,9994.,0.907900509536,2.36054132479,260.
5.46,6286.,15.,14.,3678.,0.,0.,9993.,0.907269704178,3.14520164115,195.
5.48,6283.,20.,10.,3680.,0.,0.,9993.,0.906836708773,2.35777544281,260.
5.5,6273.,24.,12.,3681.,0.,0.,9990.,0.905665280665,1.96227477477,312.
5.52,6273.,20.,13.,3684.,0.,0.,9990.,0.905665280665,2.35472972973,260.
5.54,6273.,21.,6.,3691.,0.,0.,9991.,0.905574632554,2.24237528061,273.
5.56,6277.,20.,6.,3690.,0.,0.,9993.,0.905970717964,2.35552386671,260.
5.58,6273.,19.,13.,3688.,0.,0.,9993.,0.905393390758,2.47791875365,247.
5.6,6266.,21.,13.,3693.,0.,0.,9993.,0.904383068148,2.23942474018,273.
5.62,6266.,24.,13.,3691.,0.,0.,9994.,0.904292575545,1.95930058035,312.
5.64,6261.,23.,13.,3696.,0.,0.,9993.,0.90366140914,2.04306057719,299.
5.66,6264.,20.,14.,3696.,0.,0.,9994.,0.904003940826,2.35041024615,260.
5.68,6256.,32.,11.,3698.,0.,0.,9997.,0.902578465847,1.466690007,416.
5.7,6248.,32.,16.,3701.,0.,0.,9997.,0.901424273436,1.46481444433,416.
5.72,6237.,28.,12.,3715.,0.,0.,9992.,0.900287537722,1.67196257006,364.
5.74,6230.,30.,9.,3722.,0.,0.,9991.,0.899367122718,1.55890301271,390.
5.76,6213.,32.,17.,3728.,0.,0.,9990.,0.897002772003,1.4576295045,416.
5.78,6200.,40.,18.,3732.,0.,0.,9990.,0.895125895126,1.16366366366,520.
5.8,6189.,30.,25.,3744.,0.,0.,9988.,0.893716690798,1.54910893072,390.
5.82,6183.,39.,12.,3756.,0.,0.,9990.,0.892671517672,1.19022869023,507.
5.84,6175.,36.,20.,3755.,0.,0.,9986.,0.891873623072,1.28826189999,468.
5.86,6159.,43.,15.,3769.,0.,0.,9986.,0.889562695466,1.07575023638,559.
5.88,6144.,40.,17.,3784.,0.,0.,9985.,0.887485073764,1.15373059589,520.
5.9,6129.,41.,20.,3796.,0.,0.,9986.,0.885229706204,1.12273035909,533.
5.92,6121.,33.,26.,3801.,0.,0.,9981.,0.884517120991,1.39378455429,429.
5.94,6103.,44.,20.,3820.,0.,0.,9987.,0.881386186658,1.0416382206,572.
5.96,6094.,42.,18.,3835.,0.,0.,9989.,0.879910208922,1.08941263962,546.
5.98,6082.,42.,24.,3841.,0.,0.,9989.,0.878177533749,1.08726742274,546.
6.,6073.,39.,18.,3860.,0.,0.,9990.,0.87679025179,1.16905366905,507.
6.02,6072.,37.,15.,3869.,0.,0.,9993.,0.876382698658,1.2316729819,481.
6.04,6075.,33.,9.,3875.,0.,0.,9992.,0.876903445834,1.38178724798,429.
6.06,6076.,29.,10.,3877.,0.,0.,9992.,0.87704779208,1.57263742028,377.
6.08,6072.,28.,17.,3876.,0.,0.,9993.,0.876382698658,1.62756786894,364.
6.1,6060.,25.,17.,3890.,0.,0.,9992.,0.87473825214,1.81945556445,325.
6.12,6056.,25.,13.,3901.,0.,0.,9995.,0.873898487705,1.81770885443,325.
6.14,6058.,16.,19.,3905.,0.,0.,9998.,0.873924784957,2.84025555111,208.
6.16,6048.,26.,8.,3916.,0.,0.,9998.,0.872482188745,1.74496437749,338.
6.18,6050.,24.,8.,3916.,0.,0.,9998.,0.872770707988,1.89100320064,312.
6.2,6057.,18.,8.,3916.,0.,0.,9999.,0.873693138545,2.52400240024,234.
6.22,6062.,19.,5.,3912.,0.,0.,9998.,0.874501823442,2.39337341152,247.
6.24,6066.,15.,11.,3905.,0.,0.,9997.,0.875166396073,3.03391017305,195.
6.26,6059.,17.,19.,3904.,0.,0.,9999.,0.873981628932,2.67335557085,221.
6.28,6055.,15.,5.,3923.,0.,0.,9998.,0.873492006094,3.02810562112,195.
6.3,6060.,10.,8.,3920.,0.,0.,9998.,0.874213304199,4.54590918184,130.
6.32,6065.,9.,9.,3917.,0.,0.,10000.,0.874759615385,5.05416666667,117.
6.34,6065.,16.,3.,3916.,0.,0.,10000.,0.874759615385,2.84296875,208.
6.36,6063.,15.,9.,3911.,0.,0.,9998.,0.874646083063,3.03210642128,195.
6.38,6064.,17.,8.,3908.,0.,0.,9997.,0.87487784797,2.67609694673,221.
6.4,6069.,14.,5.,3911.,0.,0.,9999.,0.87542408087,3.25157515752,182.
6.42,6066.,15.,9.,3908.,0.,0.,9998.,0.875078861926,3.03360672134,195.
6.44,6071.,10.,11.,3907.,0.,0.,9999.,0.875712571257,4.55370537054,130.
6.46,6073.,14.,6.,3911.,0.,0.,10004.,0.875563236244,3.25209202033,182.
6.48,6071.,15.,8.,3908.,0.,0.,10002.,0.875449910018,3.0348930214,195.
6.5,6065.,18.,4.,3911.,0.,0.,9998.,0.874934602305,2.5275888511,234.
6.52,6060.,19.,7.,3911.,0.,0.,9997.,0.874300751764,2.39282311009,247.
6.54,6064.,9.,10.,3915.,0.,0.,9998.,0.874790342684,5.05434420217,117.
6.56,6060.,15.,4.,3917.,0.,0.,9996.,0.874388216825,3.03121248499,195.
6.58,6067.,13.,7.,3911.,0.,0.,9998.,0.875223121547,3.50089248619,169.
6.6,6075.,13.,3.,3911.,0.,0.,10002.,0.876026717733,3.50410687093,169.
6.62,6076.,13.,2.,3907.,0.,0.,9998.,0.876521458138,3.50608583255,169.
6.64,6087.,11.,2.,3899.,0.,0.,9999.,0.878020494357,4.15064233696,143.
6.66,6088.,10.,9.,3892.,0.,0.,9999.,0.878164739551,4.56645664566,130.
6.68,6089.,10.,7.,3891.,0.,0.,9997.,0.878484699256,4.56812043613,130.
6.7,6085.,11.,5.,3893.,0.,0.,9994.,0.878171133449,4.15135444903,143.
6.72,6092.,9.,4.,3890.,0.,0.,9995.,0.87909339285,5.0792062698,117.
6.74,6096.,11.,4.,3887.,0.,0.,9998.,0.879406650561,4.15719507538,143.
6.76,6100.,10.,5.,3883.,0.,0.,9998.,0.879983689046,4.57591518304,130.
6.78,6109.,8.,4.,3881.,0.,0.,10002.,0.880929583314,5.72604229154,104.
6.8,6115.,8.,5.,3874.,0.,0.,10002.,0.881794794887,5.73166616677,104.
6.82,6119.,8.,6.,3870.,0.,0.,10003.,0.882283391906,5.73484204739,104.
6.84,6125.,8.,4.,3865.,0.,0.,10002.,0.883236814176,5.74103929214,104.
6.86,6130.,6.,5.,3861.,0.,0.,10002.,0.88395782382,7.66096780644,78.
6.88,6138.,8.,3.,3854.,0.,0.,10003.,0.885022954652,5.75264920524,104.
6.9,6142.,10.,4.,3849.,0.,0.,10005.,0.885422673279,4.60419790105,130.
6.92,6146.,8.,3.,3845.,0.,0.,10002.,0.886265054681,5.76072285543,104.
6.94,6148.,8.,2.,3844.,0.,0.,10002.,0.886553458539,5.7625974805,104.
6.96,6155.,5.,5.,3835.,0.,0.,10000.,0.887740384615,9.2325,65.
6.98,6165.,4.,2.,3829.,0.,0.,10000.,0.889182692308,11.559375,52.
7.,6175.,7.,1.,3820.,0.,0.,10003.,0.890357892632,6.61408720241,91.
7.02,6187.,8.,0.,3807.,0.,0.,10002.,0.892177333764,5.79915266947,104.
7.04,6198.,5.,3.,3799.,0.,0.,10005.,0.893495559912,9.29235382309,65.
7.06,6204.,6.,2.,3794.,0.,0.,10006.,0.89427112963,7.75034979013,78.
7.08,6216.,6.,4.,3782.,0.,0.,10008.,0.895821804095,7.76378896882,78.
7.1,6223.,3.,4.,3776.,0.,0.,10006.,0.897009871,15.5481710973,39.
7.12,6224.,2.,0.,3779.,0.,0.,10005.,0.897243685849,23.3283358321,26.
7.14,6237.,3.,1.,3764.,0.,0.,10005.,0.899117748818,15.5847076462,39.
7.16,6242.,3.,4.,3756.,0.,0.,10005.,0.899838542267,15.5972013993,39.
7.18,6254.,2.,4.,3745.,0.,0.,10005.,0.901568446546,23.4407796102,26.
7.2,6248.,12.,4.,3741.,0.,0.,10005.,0.900703494407,3.90304847576,156.
7.22,6249.,12.,1.,3745.,0.,0.,10007.,0.900667609596,3.90289297492,156.
7.24,6256.,10.,4.,3734.,0.,0.,10004.,0.901946913542,4.69012395042,130.
7.26,6259.,11.,2.,3732.,0.,0.,10004.,0.902379432842,4.26579368253,143.
7.28,6261.,12.,2.,3730.,0.,0.,10005.,0.902577557375,3.91116941529,156.
7.3,6266.,11.,0.,3730.,0.,0.,10007.,0.903117817528,4.26928422831,143.
7.32,6271.,6.,3.,3728.,0.,0.,10008.,0.903748155322,7.83248401279,78.
7.34,6272.,3.,2.,3729.,0.,0.,10006.,0.904072940851,15.6705976414,39.
7.36,6275.,3.,0.,3725.,0.,0.,10003.,0.90477664393,15.6827951615,39.
7.38,6283.,3.,0.,3719.,0.,0.,10005.,0.905749048553,15.6996501749,39.
7.4,6285.,4.,0.,3713.,0.,0.,10002.,0.906309122791,11.7820185963,52.
7.42,6290.,2.,2.,3704.,0.,0.,9998.,0.907393017065,23.5922184437,26.
7.44,6295.,4.,0.,3700.,0.,0.,9999.,0.908023494657,11.8043054305,52.
7.46,6296.,4.,0.,3693.,0.,0.,9993.,0.908713022192,11.8132692885,52.
7.48,6302.,3.,1.,3686.,0.,0.,9992.,0.909670043727,15.7676140913,39.
7.5,6309.,2.,2.,3678.,0.,0.,9991.,0.910771617533,23.6800620559,26.
7.52,6321.,4.,1.,3666.,0.,0.,9992.,0.912412622406,11.8613640913,52.
7.54,6329.,6.,2.,3654.,0.,0.,9991.,0.91365883141,7.91837653888,78.
7.56,6334.,6.,3.,3650.,0.,0.,9993.,0.914197630649,7.92304613229,78.
7.58,6338.,7.,2.,3645.,0.,0.,9992.,0.914866508591,6.79615120668,91.
7.6,6347.,5.,4.,3638.,0.,0.,9994.,0.915982281677,9.52621572944,65.
7.62,6351.,5.,4.,3634.,0.,0.,9994.,0.916559551115,9.5322193316,65.
7.64,6359.,5.,5.,3624.,0.,0.,9993.,0.917805925686,9.54518162714,65.
7.66,6367.,6.,2.,3622.,0.,0.,9997.,0.918592885558,7.9611383415,78.
7.68,6368.,4.,1.,3620.,0.,0.,9993.,0.9191049119,11.9483638547,52.
7.7,6380.,5.,0.,3611.,0.,0.,9996.,0.920560531905,9.57382953181,65.
7.72,6383.,5.,3.,3605.,0.,0.,9996.,0.920993397359,9.57833133253,65.
7.74,6393.,7.,4.,3593.,0.,0.,9997.,0.922344010896,6.85169836665,91.
7.76,6390.,11.,5.,3590.,0.,0.,9996.,0.922003416751,4.35856160646,143.
7.78,6389.,11.,7.,3588.,0.,0.,9995.,0.921951360296,4.3583155214,143.
7.8,6398.,5.,5.,3591.,0.,0.,9999.,0.922880749613,9.59795979598,65.
7.82,6404.,5.,1.,3591.,0.,0.,10001.,0.923561490005,9.60503949605,65.
7.84,6414.,4.,1.,3582.,0.,0.,10001.,0.925003653481,12.0250474953,52.
7.86,6423.,4.,0.,3571.,0.,0.,9998.,0.926579546679,12.0455341068,52.
7.88,6427.,3.,2.,3564.,0.,0.,9996.,0.927342090682,16.0739295718,39.
7.9,6427.,7.,3.,3556.,0.,0.,9993.,0.927620488188,6.89089505511,91.
7.92,6427.,6.,1.,3558.,0.,0.,9992.,0.927713324506,8.04018214572,78.
7.94,6436.,7.,0.,3554.,0.,0.,9997.,0.928547795108,6.8977836208,91.
7.96,6446.,3.,4.,3544.,0.,0.,9997.,0.929990535622,16.1198359508,39.
7.98,6444.,5.,5.,3541.,0.,0.,9995.,0.929888020934,9.67083541771,65.
8.,6450.,6.,4.,3536.,0.,0.,9996.,0.930660725829,8.06572629052,78.
8.02,6459.,7.,8.,3527.,0.,0.,10001.,0.931493389123,6.91966517634,91.
8.04,6463.,8.,8.,3523.,0.,0.,10002.,0.931977066125,6.05785092981,104.
8.06,6458.,14.,6.,3526.,0.,0.,10004.,0.93106987974,3.45825955332,182.
8.08,6461.,9.,10.,3522.,0.,0.,10002.,0.931688662268,5.38309004866,117.
8.1,6466.,9.,2.,3525.,0.,0.,10002.,0.932409671912,5.38725588216,117.
8.12,6474.,6.,3.,3516.,0.,0.,9999.,0.933843384338,8.09330933093,78.
8.14,6484.,5.,3.,3506.,0.,0.,9998.,0.935379383569,9.72794558912,65.
8.16,6486.,9.,4.,3502.,0.,0.,10001.,0.935387230508,5.40445955404,117.
8.18,6486.,10.,6.,3500.,0.,0.,10002.,0.935293710489,4.86352729454,130.
8.2,6489.,9.,7.,3495.,0.,0.,10000.,0.935913461538,5.4075,117.
8.22,6485.,14.,9.,3492.,0.,0.,10000.,0.935336538462,3.47410714286,182.
8.24,6483.,21.,6.,3487.,0.,0.,9997.,0.935328675526,2.31605195844,273.
8.26,6489.,15.,9.,3485.,0.,0.,9998.,0.936100681675,3.24514902981,195.
8.28,6491.,14.,7.,3486.,0.,0.,9998.,0.936389200917,3.47801703198,182.
8.3,6489.,9.,8.,3490.,0.,0.,9996.,0.936287976729,5.40966386555,117.
8.32,6488.,8.,4.,3496.,0.,0.,9996.,0.936143688245,6.08493397359,104.
8.34,6489.,7.,4.,3495.,0.,0.,9995.,0.936381652365,6.95597798899,91.
8.36,6496.,2.,11.,3492.,0.,0.,10001.,0.936829393984,24.3575642436,26.
8.38,6495.,7.,3.,3496.,0.,0.,10001.,0.936685177636,6.95823274815,91.
8.4,6498.,8.,3.,3488.,0.,0.,9997.,0.937492786297,6.09370311093,104.
8.42,6497.,10.,5.,3485.,0.,0.,9997.,0.937348512246,4.87421226368,130.
8.44,6497.,12.,3.,3484.,0.,0.,9996.,0.937442284606,4.06224989996,156.
8.46,6509.,12.,6.,3473.,0.,0.,10000.,0.938798076923,4.068125,156.
8.48,6510.,13.,3.,3471.,0.,0.,9997.,0.939224074915,3.75689629966,169.
8.5,6512.,12.,1.,3473.,0.,0.,9998.,0.939418652961,4.07081416283,156.
8.52,6519.,9.,6.,3466.,0.,0.,10000.,0.940240384615,5.4325,117.
8.54,6523.,11.,0.,3464.,0.,0.,9998.,0.941005508794,4.44838967794,143.
8.56,6530.,10.,1.,3456.,0.,0.,9997.,0.942109555944,4.89896969091,130.
8.58,6538.,9.,3.,3443.,0.,0.,9993.,0.943641318153,5.45214983822,117.
8.6,6536.,13.,5.,3440.,0.,0.,9994.,0.94325826265,3.7730330506,169.
8.62,6541.,13.,7.,3437.,0.,0.,9998.,0.943602181975,3.7744087279,169.
8.64,6537.,17.,4.,3437.,0.,0.,9995.,0.943308192558,2.88541329488,221.
8.66,6537.,19.,3.,3433.,0.,0.,9992.,0.943591411591,2.58246070541,247.
8.68,6544.,13.,8.,3429.,0.,0.,9994.,0.944412801527,3.77765120611,169.
8.7,6543.,15.,12.,3423.,0.,0.,9993.,0.944362977161,3.27379165416,195.
8.72,6540.,17.,4.,3432.,0.,0.,9993.,0.943929981756,2.88731523831,221.
8.74,6547.,12.,10.,3427.,0.,0.,9996.,0.944656708837,4.09351240496,156.
8.76,6549.,14.,9.,3428.,0.,0.,10000.,0.944567307692,3.50839285714,182.
8.78,6552.,16.,9.,3424.,0.,0.,10001.,0.944905509449,3.07094290571,208.
8.8,6551.,12.,7.,3427.,0.,0.,9997.,0.945139311024,4.0956036811,156.
8.82,6557.,12.,4.,3430.,0.,0.,10003.,0.945437522589,4.09689593122,156.
8.84,6560.,14.,3.,3428.,0.,0.,10005.,0.945681005651,3.51252944956,182.
8.86,6560.,15.,3.,3426.,0.,0.,10004.,0.945775535939,3.27868852459,195.
8.88,6558.,11.,3.,3423.,0.,0.,9995.,0.946338553892,4.47360043658,143.
8.9,6562.,5.,7.,3418.,0.,0.,9992.,0.947200067747,9.85088070456,65.
8.92,6563.,7.,6.,3416.,0.,0.,9992.,0.947344413993,7.0374156468,91.
8.94,6572.,5.,3.,3416.,0.,0.,9996.,0.948263920953,9.86194477791,65.
8.96,6579.,4.,4.,3410.,0.,0.,9997.,0.949178984465,12.339326798,52.
8.98,6578.,8.,1.,3408.,0.,0.,9995.,0.949224612306,6.16995997999,104.
9.,6580.,10.,2.,3402.,0.,0.,9994.,0.949608226474,4.93796277767,130.
9.02,6579.,9.,5.,3400.,0.,0.,9993.,0.949558922015,5.48634043831,117.
9.04,6568.,20.,4.,3400.,0.,0.,9992.,0.948066145224,2.46497197758,260.
9.06,6569.,20.,7.,3395.,0.,0.,9991.,0.948305397935,2.46559403463,260.
9.08,6573.,22.,6.,3391.,0.,0.,9992.,0.948787876455,2.24258952617,286.
9.1,6577.,18.,6.,3394.,0.,0.,9995.,0.949080309385,2.74178756045,234.
9.12,6572.,18.,9.,3390.,0.,0.,9989.,0.948928436665,2.74134881703,234.
9.14,6570.,19.,15.,3385.,0.,0.,9989.,0.948639657469,2.59627695728,247.
9.16,6570.,20.,11.,3393.,0.,0.,9994.,0.948165052878,2.46522913748,260.
9.18,6566.,19.,12.,3393.,0.,0.,9990.,0.947967197967,2.5944365418,247.
9.2,6565.,17.,14.,3391.,0.,0.,9987.,0.948107539802,2.90009365116,221.
9.22,6560.,22.,12.,3399.,0.,0.,9993.,0.946816617786,2.23793018749,286.
9.24,6554.,29.,9.,3405.,0.,0.,9997.,0.945572133178,1.6955086526,377.
9.26,6548.,28.,13.,3408.,0.,0.,9997.,0.94470648887,1.7544549079,364.
9.28,6540.,24.,15.,3416.,0.,0.,9995.,0.94374110132,2.04477238619,312.
9.3,6525.,31.,9.,3426.,0.,0.,9991.,0.941953527405,1.58005107823,403.
9.32,6525.,27.,9.,3432.,0.,0.,9993.,0.941765004734,1.81376963875,351.
9.34,6534.,22.,12.,3429.,0.,0.,9997.,0.942686652149,2.22816845054,286.
9.36,6527.,20.,9.,3438.,0.,0.,9994.,0.941959406413,2.44909445667,260.
9.38,6521.,26.,4.,3445.,0.,0.,9996.,0.940905208237,1.88181041647,338.
9.4,6525.,17.,14.,3438.,0.,0.,9994.,0.941670771694,2.88040471342,221.
9.42,6529.,18.,12.,3440.,0.,0.,9999.,0.941776869995,2.72068873554,234.
9.44,6531.,22.,8.,3441.,0.,0.,10002.,0.941782797287,2.22603206631,286.
9.46,6528.,18.,14.,3440.,0.,0.,10000.,0.941538461538,2.72,234.
9.48,6524.,27.,15.,3434.,0.,0.,10000.,0.940961538462,1.81222222222,351.
9.5,6517.,27.,13.,3442.,0.,0.,9999.,0.94004592767,1.81045882366,351.
9.52,6510.,34.,9.,3445.,0.,0.,9998.,0.939130133719,1.4363166751,442.
9.54,6494.,32.,20.,3451.,0.,0.,9997.,0.936915690092,1.5224879964,416.
9.56,6473.,36.,19.,3468.,0.,0.,9996.,0.933979360975,1.34908129919,468.
9.58,6466.,35.,17.,3481.,0.,0.,9999.,0.932689422788,1.38570999957,455.
9.6,6457.,36.,13.,3494.,0.,0.,10000.,0.931298076923,1.34520833333,468.
9.62,6458.,27.,16.,3499.,0.,0.,10000.,0.931442307692,1.79388888889,351.
9.64,6444.,28.,14.,3511.,0.,0.,9997.,0.929701987519,1.72658940539,364.
9.66,6434.,30.,16.,3515.,0.,0.,9995.,0.928444991727,1.60930465233,390.
9.68,6430.,29.,14.,3524.,0.,0.,9997.,0.927682150799,1.6634300635,377.
9.7,6421.,32.,10.,3532.,0.,0.,9995.,0.926569053758,1.50567471236,416.
9.72,6416.,25.,16.,3534.,0.,0.,9991.,0.926218211775,1.92653388049,325.
9.74,6410.,29.,4.,3547.,0.,0.,9990.,0.925444675445,1.65941803873,377.
9.76,6421.,23.,10.,3537.,0.,0.,9991.,0.926940015244,2.09569046925,299.
9.78,6420.,18.,15.,3539.,0.,0.,9992.,0.926702900782,2.67714171337,234.
9.8,6415.,22.,10.,3545.,0.,0.,9992.,0.925981169551,2.18868276439,286.
9.82,6416.,23.,6.,3548.,0.,0.,9993.,0.926032838371,2.09363946067,299.
9.84,6414.,22.,9.,3551.,0.,0.,9996.,0.925466340382,2.18746589545,286.
9.86,6406.,26.,10.,3551.,0.,0.,9993.,0.924589520357,1.84917904071,338.
9.88,6398.,26.,9.,3562.,0.,0.,9995.,0.923250086582,1.84650017316,338.
9.9,6398.,25.,9.,3560.,0.,0.,9992.,0.923527283365,1.9209367494,325.
9.92,6396.,24.,9.,3560.,0.,0.,9989.,0.923515867454,2.00095104615,312.
9.94,6404.,16.,16.,3557.,0.,0.,9993.,0.924300856754,3.00397778445,208.
9.96,6400.,24.,10.,3559.,0.,0.,9993.,0.923723529548,2.00140098069,312.
9.98,6396.,24.,7.,3562.,0.,0.,9989.,0.923515867454,2.00095104615,312.
10.,6403.,20.,12.,3558.,0.,0.,9993.,0.924156524952,2.40280696488,260.
