t,s,e,i,r,c,o,n,reff,coal,reportr
0.,474.,0.,8.,18.,0.,0.,500.,2.59349856368,25.9349856368,1493.85517268
0.002738,468.,0.,13.,19.,0.,0.,500.,2.56066946794,15.7579659566,2396.78662199
0.005476,462.,0.,17.,21.,0.,0.,500.,2.5278403722,11.8957193986,3094.07661557
0.008214,439.,0.,35.,26.,0.,0.,500.,2.40199550518,5.49027544042,6053.02867306
0.010952,420.,0.,52.,28.,0.,0.,500.,2.298036702,3.53544108,8603.84941228
0.01369,387.,0.,77.,36.,0.,0.,500.,2.11747667541,2.19997576666,11739.2906885
0.016428,341.,0.,94.,65.,0.,0.,500.,1.86578694138,1.5879037799,12627.6460193
0.019166,303.,0.,115.,82.,0.,0.,500.,1.65786933501,1.15330040697,13727.1580939
0.021904,266.,0.,136.,98.,0.,0.,500.,1.4554232446,0.856131320352,14251.5044111
0.024642,217.,0.,136.,146.,0.,0.,499.,1.18969835942,0.699822564363,11649.5263354
0.02738,202.,0.,121.,176.,0.,0.,499.,1.10746114563,0.732205716121,9648.20150076
0.030118,182.,0.,121.,196.,0.,0.,499.,0.997811527254,0.659710100664,8692.93402543
0.032856,140.,0.,122.,237.,0.,0.,499.,0.767547328657,0.503309723709,6742.13573492
0.035594,123.,0.,118.,258.,0.,0.,499.,0.674345153034,0.457183154599,5729.23642018
0.038332,106.,0.,113.,280.,0.,0.,499.,0.581142977411,0.411428656575,4728.17926422
0.04107,97.,0.,97.,305.,0.,0.,499.,0.531800649141,0.438598473518,3714.0957336
0.043808,90.,0.,83.,326.,0.,0.,499.,0.493423282708,0.475588706224,2948.69753746
0.046546,88.,0.,74.,337.,0.,0.,499.,0.48245832087,0.521576563103,2570.53793359
0.049284,79.,0.,61.,359.,0.,0.,499.,0.433115992599,0.568020973901,1902.2454395
0.052022,71.,0.,64.,364.,0.,0.,499.,0.389256145247,0.486570181559,1793.6923173
0.05476,67.,0.,57.,376.,0.,0.,500.,0.366591569128,0.514514482987,1504.4917997
0.057498,55.,0.,54.,391.,0.,0.,500.,0.300933377643,0.445827226137,1170.02897227
0.060236,52.,0.,48.,400.,0.,0.,500.,0.284518829771,0.474198049619,983.297075689
0.062974,50.,0.,40.,410.,0.,0.,500.,0.273575797857,0.547151595714,787.898297828
0.065712,48.,0.,33.,419.,0.,0.,500.,0.262632765943,0.636685493194,624.01545188
0.06845,47.,0.,27.,426.,0.,0.,500.,0.257161249986,0.761959259216,499.921469972
0.071188,43.,0.,28.,429.,0.,0.,500.,0.235275186157,0.672214817591,474.314775292
0.073926,41.,0.,22.,437.,0.,0.,500.,0.224332154243,0.815753288155,355.34213232
0.076664,41.,0.,18.,441.,0.,0.,500.,0.224332154243,0.997031796634,290.734471899
0.079402,38.,0.,15.,447.,0.,0.,500.,0.207917606371,1.10889390065,224.551014881
0.08214,38.,0.,15.,447.,0.,0.,500.,0.207917606371,1.10889390065,224.551014881
