t,s,e,i,r,c,o,n,reff,coal,reportr
0.,465.,0.,8.,27.,0.,0.,500.,2.60491241106,26.0491241106,1500.42954877
0.002738,455.,0.,14.,31.,0.,0.,500.,2.54889278932,14.5651016533,2569.28393163
0.005476,447.,0.,20.,33.,0.,0.,500.,2.50407709192,10.0163083677,3605.87101237
0.008214,424.,0.,34.,42.,0.,0.,500.,2.37523196192,5.58878108686,5814.56784277
0.010952,399.,0.,53.,48.,0.,0.,500.,2.23518290756,3.37386099254,8529.45797524
0.01369,368.,0.,79.,53.,0.,0.,500.,2.06152208015,2.08761729636,11725.9375919
0.016428,320.,0.,99.,81.,0.,0.,500.,1.79262789579,1.44858819861,12777.8516412
0.019166,288.,0.,119.,94.,0.,0.,501.,1.61014481657,1.08245029686,13795.7207884
0.021904,255.,0.,135.,111.,0.,0.,501.,1.42564905634,0.844829070424,13857.3088276
0.024642,202.,0.,135.,164.,0.,0.,501.,1.12933768385,0.669237145983,10977.162287
0.02738,181.,0.,129.,191.,0.,0.,501.,1.01193129097,0.627554288975,9398.81783054
0.030118,163.,0.,121.,217.,0.,0.,501.,0.911297239936,0.602510571858,7939.22155432
0.032856,122.,0.,123.,256.,0.,0.,501.,0.682075234799,0.443626168975,6040.45827938
0.035594,106.,0.,117.,278.,0.,0.,501.,0.592622744989,0.405212133326,4992.25400379
0.038332,94.,0.,108.,299.,0.,0.,501.,0.525533377632,0.389283983431,4086.54754446
0.04107,76.,0.,97.,328.,0.,0.,501.,0.424899326596,0.350432434306,2967.49689695
0.043808,76.,0.,81.,344.,0.,0.,501.,0.424899326596,0.419653655897,2478.01287271
0.046546,70.,0.,74.,357.,0.,0.,501.,0.391354642917,0.423086100451,2085.13753746
0.049284,57.,0.,64.,380.,0.,0.,501.,0.318674494947,0.398343118684,1468.45207272
0.052022,52.,0.,62.,387.,0.,0.,501.,0.290720591881,0.375123344363,1297.77672216
0.05476,50.,0.,55.,396.,0.,0.,501.,0.279539030655,0.406602226407,1106.97456139
0.057498,44.,0.,51.,406.,0.,0.,501.,0.245994346977,0.385873485453,903.291242098
0.060236,42.,0.,46.,413.,0.,0.,501.,0.23481278575,0.408370062174,777.699946405
0.062974,40.,0.,40.,421.,0.,0.,501.,0.223631224524,0.447262449048,644.057926629
0.065712,36.,0.,36.,429.,0.,0.,501.,0.201268102072,0.447262449048,521.68692057
0.06845,36.,0.,29.,436.,0.,0.,501.,0.201268102072,0.555222350543,420.247797126
0.071188,35.,0.,25.,441.,0.,0.,501.,0.195677321459,0.626167428667,352.219178625
0.073926,35.,0.,23.,443.,0.,0.,501.,0.195677321459,0.680616770291,324.041644335
0.076664,35.,0.,19.,447.,0.,0.,501.,0.195677321459,0.823904511405,267.686575755
0.079402,34.,0.,16.,451.,0.,0.,501.,0.190086540845,0.950432704227,218.979695054
0.08214,33.,0.,15.,454.,0.,0.,502.,0.184128238798,0.982017273588,198.858497901
