t,s,e,i,r,c,o,n,reff,coal,reportr
0.,466.,0.,8.,26.,0.,0.,500.,3.39025596199,33.9025596199,1952.7874341
0.002738,458.,0.,13.,29.,0.,0.,500.,3.3320541429,20.5049485717,3118.80267775
0.005476,451.,0.,19.,30.,0.,0.,500.,3.28112755119,13.8152738998,4488.58249003
0.008214,421.,0.,34.,45.,0.,0.,500.,3.06287072961,7.20675465789,7497.90754607
0.010952,402.,0.,52.,46.,0.,0.,500.,2.92464140927,4.49944832195,10949.8574363
0.01369,373.,0.,76.,51.,0.,0.,500.,2.71365981507,2.85648401586,14849.146508
0.016428,310.,0.,98.,92.,0.,0.,500.,2.25532048973,1.8410779508,15913.5413756
0.019166,281.,0.,117.,102.,0.,0.,500.,2.04433889553,1.39783856105,17221.510856
0.021904,233.,0.,141.,126.,0.,0.,500.,1.69512798099,0.961774740989,17208.939263
0.024642,182.,0.,136.,182.,0.,0.,500.,1.32409138429,0.778877284879,12965.502835
0.02738,163.,0.,126.,211.,0.,0.,500.,1.18586206396,0.752928294575,10758.1406442
0.030118,139.,0.,120.,241.,0.,0.,500.,1.01125660669,0.674171071124,8737.25708177
0.032856,108.,0.,118.,274.,0.,0.,500.,0.785724557713,0.532694615399,6675.51584233
0.035594,93.,0.,117.,290.,0.,0.,500.,0.67659614692,0.462629844048,5699.64594165
0.038332,81.,0.,109.,310.,0.,0.,500.,0.589293418285,0.432508930851,4624.7747467
0.04107,63.,0.,93.,344.,0.,0.,500.,0.458339325333,0.394270387383,3069.04012243
0.043808,54.,0.,82.,364.,0.,0.,500.,0.392862278857,0.383280272055,2319.45889437
0.046546,51.,0.,75.,374.,0.,0.,500.,0.371036596698,0.395772369811,2003.59762217
0.049284,45.,0.,62.,393.,0.,0.,500.,0.327385232381,0.42243255791,1461.44767735
0.052022,42.,0.,60.,398.,0.,0.,500.,0.305559550222,0.407412733629,1320.01725696
0.05476,41.,0.,56.,403.,0.,0.,500.,0.298284322836,0.426120461194,1202.68238967
0.057498,35.,0.,52.,413.,0.,0.,500.,0.254632958518,0.391743013105,953.345796692
0.060236,31.,0.,49.,420.,0.,0.,500.,0.225532048973,0.36821559016,795.677068778
0.062974,29.,0.,38.,433.,0.,0.,500.,0.210981594201,0.444171777265,577.245641733
0.065712,26.,0.,30.,444.,0.,0.,500.,0.189155912042,0.504415765446,408.576770011
0.06845,25.,0.,26.,449.,0.,0.,500.,0.181880684656,0.559632875864,340.480641676
0.071188,22.,0.,25.,453.,0.,0.,500.,0.160055002497,0.512176007991,288.099004495
0.073926,21.,0.,23.,456.,0.,0.,500.,0.152779775111,0.531407913429,253.003307584
0.076664,20.,0.,19.,461.,0.,0.,500.,0.145504547725,0.612650727262,199.050221287
0.079402,21.,0.,15.,465.,0.,0.,501.,0.15247482546,0.81319906912,164.672811497
0.08214,20.,0.,16.,465.,0.,0.,501.,0.145214119486,0.726070597429,167.286665648
