t,s,e,i,r,c,o,n,reff,coal,reportr
0.,432.,0.,8.,60.,0.,0.,500.,3.04854521,30.4854521,1755.96204096
0.002738,428.,0.,11.,61.,0.,0.,500.,3.02031793954,21.9659486512,2392.09180811
0.005476,420.,0.,18.,62.,0.,0.,500.,2.96386339861,13.1727262161,3841.1669646
0.008214,401.,0.,33.,66.,0.,0.,500.,2.82978386391,6.86008209433,6723.56646066
0.010952,378.,0.,52.,70.,0.,0.,500.,2.66747705875,4.10381085962,9987.03410796
0.01369,348.,0.,77.,75.,0.,0.,500.,2.45577253028,2.55145197951,13614.8029079
0.016428,287.,0.,99.,114.,0.,0.,500.,2.02530665572,1.63661143896,14436.385842
0.019166,257.,0.,114.,129.,0.,0.,500.,1.81360212725,1.27270324719,14886.0462604
0.021904,214.,0.,132.,154.,0.,0.,500.,1.51015896977,0.915247860466,14352.5508487
0.024642,162.,0.,132.,206.,0.,0.,500.,1.14320445375,0.692851184091,10865.0151284
0.02738,143.,0.,120.,237.,0.,0.,500.,1.00912491905,0.672749946034,8718.8393006
0.030118,127.,0.,118.,255.,0.,0.,500.,0.896215837199,0.607603957423,7614.24975284
0.032856,90.,0.,119.,291.,0.,0.,500.,0.635113585417,0.426967116247,5441.65319985
0.035594,77.,0.,122.,301.,0.,0.,500.,0.543374956412,0.356311446828,4773.00561712
0.038332,67.,0.,114.,319.,0.,0.,500.,0.472806780255,0.331794231758,3880.79805233
0.04107,55.,0.,96.,349.,0.,0.,500.,0.388124968866,0.323437474055,2682.7197848
0.043808,52.,0.,83.,365.,0.,0.,500.,0.366954516019,0.353691099777,2192.92018773
0.046546,46.,0.,74.,380.,0.,0.,500.,0.324613610324,0.350933632783,1729.54131581
0.049284,39.,0.,59.,402.,0.,0.,500.,0.275215887014,0.373174084087,1169.11708804
0.052022,32.,0.,63.,405.,0.,0.,500.,0.225818163704,0.286753223751,1024.31119056
0.05476,31.,0.,58.,411.,0.,0.,500.,0.218761346088,0.301739787708,913.547381263
0.057498,30.,0.,51.,419.,0.,0.,500.,0.211704528472,0.332085534858,777.37902855
0.060236,29.,0.,49.,422.,0.,0.,500.,0.204647710857,0.334118711602,721.997123902
0.062974,29.,0.,36.,435.,0.,0.,500.,0.204647710857,0.454772690792,530.44686654
0.065712,24.,0.,31.,445.,0.,0.,500.,0.169363622778,0.43706741362,378.01960604
0.06845,24.,0.,27.,449.,0.,0.,500.,0.169363622778,0.501818141564,329.24288268
0.071188,22.,0.,25.,453.,0.,0.,500.,0.155249987546,0.496799960148,279.449977583
0.073926,22.,0.,22.,456.,0.,0.,500.,0.155249987546,0.564545409259,245.915980273
0.076664,21.,0.,20.,459.,0.,0.,500.,0.148193169931,0.592772679722,213.3981647
0.079402,21.,0.,15.,464.,0.,0.,500.,0.148193169931,0.790363572963,160.048623525
0.08214,21.,0.,15.,464.,0.,0.,500.,0.148193169931,0.790363572963,160.048623525
