t,s,e,i,r,c,o,n,reff,coal,reportr
0.,477.,0.,10.,13.,0.,0.,500.,2.45196373222,19.6157098578,1765.4138872
0.002738,469.,0.,14.,17.,0.,0.,500.,2.41084065076,13.77623229,2430.12737596
0.005476,463.,0.,19.,18.,0.,0.,500.,2.37999833966,10.0210456407,3255.83772865
0.008214,442.,0.,34.,24.,0.,0.,500.,2.27205025082,5.34600059016,5561.97901401
0.010952,422.,0.,52.,26.,0.,0.,500.,2.16924254716,3.3372962264,8121.64409658
0.01369,394.,0.,77.,29.,0.,0.,500.,2.02531176204,2.10422001251,11228.3284088
0.016428,345.,0.,101.,54.,0.,0.,500.,1.77343288808,1.40469931729,12896.4039621
0.019166,301.,0.,126.,73.,0.,0.,500.,1.54725594004,0.982384723834,14036.705888
0.021904,271.,0.,135.,94.,0.,0.,500.,1.39304438455,0.825507783439,13540.3914179
0.024642,222.,0.,135.,142.,0.,0.,499.,1.14345241542,0.677601431362,11114.3574779
0.02738,208.,0.,121.,170.,0.,0.,499.,1.07134280364,0.708325820589,9333.53850531
0.030118,192.,0.,116.,191.,0.,0.,499.,0.988931818745,0.682021943962,8259.55855016
0.032856,150.,0.,118.,230.,0.,0.,498.,0.774154395008,0.524850437293,6577.21573998
0.035594,132.,0.,124.,242.,0.,0.,498.,0.681255867607,0.439519914585,6082.25238599
0.038332,120.,0.,109.,269.,0.,0.,498.,0.619323516006,0.454549369546,4860.45095362
0.04107,106.,0.,94.,298.,0.,0.,498.,0.547069105805,0.465590728345,3702.56370809
0.043808,98.,0.,86.,314.,0.,0.,498.,0.505780871405,0.470493833865,3131.79515574
0.046546,90.,0.,79.,329.,0.,0.,498.,0.464492637005,0.470372290638,2642.03411928
0.049284,85.,0.,60.,353.,0.,0.,498.,0.438687490504,0.584916654006,1895.12995898
0.052022,78.,0.,61.,359.,0.,0.,498.,0.402560285404,0.527947915284,1768.04477349
0.05476,73.,0.,58.,367.,0.,0.,498.,0.376755138904,0.519662260557,1573.32946006
0.057498,64.,0.,53.,381.,0.,0.,498.,0.330305875203,0.498574905967,1260.44721978
0.060236,60.,0.,46.,392.,0.,0.,498.,0.309661758003,0.538542187831,1025.59974251
0.062974,57.,0.,39.,402.,0.,0.,498.,0.294178670103,0.603443425852,826.053705649
0.065712,55.,0.,31.,412.,0.,0.,498.,0.283856611503,0.732533190975,633.567956874
0.06845,53.,0.,25.,420.,0.,0.,498.,0.273534552903,0.875310569289,492.362195225
0.071188,46.,0.,26.,426.,0.,0.,498.,0.237407347802,0.730484147084,444.426555086
0.073926,44.,0.,20.,434.,0.,0.,498.,0.227085289202,0.908341156809,327.002816451
0.076664,43.,0.,18.,437.,0.,0.,498.,0.221924259902,0.98633004401,287.613840833
0.079402,42.,0.,15.,441.,0.,0.,498.,0.216763230602,1.15607056321,234.10428905
0.08214,40.,0.,16.,442.,0.,0.,498.,0.206441172002,1.03220586001,237.820230146
