t,s,e,i,r,c,o,n,reff,coal,reportr
0.,481.,0.,10.,9.,0.,0.,500.,2.8214356651,22.5714853208,2031.43367887
0.002738,472.,0.,14.,14.,0.,0.,500.,2.76864372958,15.8208213119,2790.79287942
0.005476,467.,0.,18.,15.,0.,0.,500.,2.73931487651,12.1747327845,3550.15207996
0.008214,440.,0.,34.,26.,0.,0.,500.,2.58093906995,6.07279781164,6318.13884323
0.010952,419.,0.,54.,27.,0.,0.,500.,2.45775788706,3.64112279565,9555.7626649
0.01369,393.,0.,76.,31.,0.,0.,500.,2.30524785111,2.42657668538,12614.3162413
0.016428,338.,0.,98.,64.,0.,0.,500.,1.98263046737,1.61847385091,13989.4405777
0.019166,307.,0.,110.,83.,0.,0.,500.,1.80079157835,1.30966660244,14262.2693005
0.021904,269.,0.,130.,101.,0.,0.,500.,1.57789229504,0.971010643099,14769.0718815
0.024642,218.,0.,138.,144.,0.,0.,500.,1.27873799375,0.741297387679,12705.5407059
0.02738,201.,0.,126.,173.,0.,0.,500.,1.17901989332,0.748584059249,10696.0684722
0.030118,174.,0.,121.,205.,0.,0.,500.,1.02064408675,0.67480600777,8891.85128378
0.032856,142.,0.,117.,241.,0.,0.,500.,0.832939427119,0.569531232218,7016.68173405
0.035594,124.,0.,121.,255.,0.,0.,500.,0.727355556076,0.480896235422,6336.72160453
0.038332,115.,0.,106.,279.,0.,0.,500.,0.674563620554,0.509104619286,5148.26955207
0.04107,95.,0.,97.,308.,0.,0.,500.,0.557248208284,0.459586151162,3891.82148666
0.043808,88.,0.,87.,325.,0.,0.,500.,0.516187813989,0.47465546114,3233.40046683
0.046546,83.,0.,72.,345.,0.,0.,500.,0.486858960922,0.540954401024,2523.87685342
0.049284,74.,0.,60.,366.,0.,0.,500.,0.4340670254,0.578756033867,1875.16954973
0.052022,64.,0.,65.,371.,0.,0.,500.,0.375409319265,0.462042239095,1756.91561416
0.05476,61.,0.,58.,381.,0.,0.,500.,0.357812007424,0.493533803344,1494.222943
0.057498,53.,0.,56.,391.,0.,0.,500.,0.310885842516,0.444122632166,1253.49171703
0.060236,49.,0.,47.,404.,0.,0.,500.,0.287422760062,0.489230229893,972.638620051
0.062974,49.,0.,35.,416.,0.,0.,500.,0.287422760062,0.656966308714,724.305355357
0.065712,45.,0.,29.,425.,0.,0.,499.,0.264488654918,0.729623875636,552.252311469
0.06845,44.,0.,25.,430.,0.,0.,499.,0.258611129253,0.82755561361,465.500032656
0.071188,41.,0.,25.,433.,0.,0.,499.,0.240978552259,0.771131367228,433.761394066
0.073926,41.,0.,19.,439.,0.,0.,499.,0.240978552259,1.01464653583,329.65865949
0.076664,38.,0.,19.,442.,0.,0.,499.,0.223345975264,0.940404106375,305.537294161
0.079402,37.,0.,14.,448.,0.,0.,499.,0.217468449599,1.24267685485,219.208197196
0.08214,34.,0.,16.,449.,0.,0.,499.,0.199835872605,0.999179363024,230.210925241
