t,s,e,i,r,c,o,n,reff,coal,reportr
0.,490.,0.,8.,2.,0.,0.,500.,2.6489509587,26.489509587,1525.79575221
0.002738,482.,0.,12.,6.,0.,0.,500.,2.60570277978,17.3713518652,2251.32720173
0.005476,476.,0.,18.,6.,0.,0.,500.,2.57326664559,11.4367406471,3334.95357269
0.008214,451.,0.,36.,13.,0.,0.,500.,2.43811608648,5.41803574773,6319.59689615
0.010952,431.,0.,54.,15.,0.,0.,500.,2.32999563918,3.45184539138,9059.02304514
0.01369,401.,0.,77.,22.,0.,0.,500.,2.16781496824,2.25227529168,12018.3661839
0.016428,353.,0.,101.,46.,0.,0.,500.,1.90832589474,1.51154526316,13877.3459065
0.019166,323.,0.,116.,61.,0.,0.,500.,1.7461452238,1.20423808538,14583.8049091
0.021904,290.,0.,134.,76.,0.,0.,500.,1.56774648576,0.935968051201,15125.6180946
0.024642,241.,0.,139.,120.,0.,0.,500.,1.30285138989,0.749842526556,13038.93671
0.02738,220.,0.,124.,156.,0.,0.,500.,1.18932492023,0.76730640015,10618.2928878
0.030118,207.,0.,116.,177.,0.,0.,500.,1.11904662949,0.771756296201,9346.27744951
0.032856,167.,0.,119.,214.,0.,0.,500.,0.902805734904,0.606928225145,7735.23953666
0.035594,149.,0.,117.,234.,0.,0.,500.,0.805497332339,0.550767406728,6785.50952763
0.038332,139.,0.,105.,256.,0.,0.,500.,0.751437108692,0.572523511385,5680.86454171
0.04107,119.,0.,93.,288.,0.,0.,500.,0.643316661399,0.553390676472,4307.64836472
0.043808,111.,0.,85.,304.,0.,0.,500.,0.600068482481,0.564770336453,3672.41911278
0.046546,105.,0.,76.,319.,0.,0.,500.,0.567632348293,0.597507735045,3106.08420986
0.049284,94.,0.,63.,343.,0.,0.,500.,0.508166102281,0.645290288611,2305.04143995
0.052022,85.,0.,63.,352.,0.,0.,500.,0.459511900999,0.583507175872,2084.34598293
0.05476,82.,0.,56.,362.,0.,0.,500.,0.443293833905,0.633276905578,1787.3607383
0.057498,75.,0.,53.,372.,0.,0.,500.,0.405451677352,0.612002531852,1547.20360078
0.060236,74.,0.,47.,379.,0.,0.,500.,0.400045654987,0.680928774447,1353.75449648
0.062974,71.,0.,37.,392.,0.,0.,500.,0.383827587893,0.829897487337,1022.51669415
0.065712,62.,0.,34.,404.,0.,0.,500.,0.335173386611,0.788643262614,820.504450424
0.06845,59.,0.,29.,412.,0.,0.,500.,0.318955319517,0.879876743495,665.978707151
0.071188,57.,0.,24.,419.,0.,0.,500.,0.308143274788,1.02714424929,532.471578833
0.073926,56.,0.,20.,424.,0.,0.,500.,0.302737252423,1.21094900969,435.941643489
0.076664,55.,0.,18.,427.,0.,0.,500.,0.297331230058,1.32147213359,385.341274155
0.079402,53.,0.,17.,430.,0.,0.,500.,0.286519185329,1.34832557802,350.699482842
0.08214,52.,0.,17.,431.,0.,0.,500.,0.281113162964,1.32288547277,344.082511468
