t,s,e,i,r,c,o,n,reff,coal,reportr
0.,393.,0.,8.,99.,0.,0.,500.,2.90041540199,29.0041540199,1670.63927155
0.002738,387.,0.,12.,101.,0.,0.,500.,2.85613425081,19.0408950054,2467.6999927
0.005476,377.,0.,19.,104.,0.,0.,500.,2.78233233219,11.715083504,3806.23063043
0.008214,363.,0.,28.,109.,0.,0.,500.,2.67900964611,7.65431327461,5400.88344656
0.010952,353.,0.,31.,116.,0.,0.,500.,2.60520772749,6.7231167161,5814.82364775
0.01369,339.,0.,41.,120.,0.,0.,500.,2.50188504141,4.88172691007,7385.56464225
0.016428,306.,0.,60.,134.,0.,0.,500.,2.25833870995,3.01111827993,9756.02322697
0.019166,285.,0.,70.,145.,0.,0.,500.,2.10335468083,2.40383392095,10600.9075914
0.021904,257.,0.,83.,160.,0.,0.,500.,1.89670930868,1.82815355054,11334.7348287
0.024642,187.,0.,129.,184.,0.,0.,500.,1.3800958783,0.8558734129,12818.3305177
0.02738,165.,0.,128.,207.,0.,0.,500.,1.21773165732,0.761082285827,11222.6149539
0.030118,150.,0.,121.,229.,0.,0.,500.,1.10702877939,0.731919854139,9644.43472601
0.032856,117.,0.,120.,263.,0.,0.,500.,0.863482447921,0.57565496528,7460.48835003
0.035594,100.,0.,122.,278.,0.,0.,500.,0.738019186257,0.483947007382,6482.76053208
0.038332,86.,0.,119.,295.,0.,0.,500.,0.634696500181,0.426686722811,5438.07961355
0.04107,69.,0.,95.,336.,0.,0.,500.,0.509233238517,0.42882799033,3483.15535146
0.043808,63.,0.,80.,357.,0.,0.,500.,0.464952087342,0.464952087342,2678.12402309
0.046546,58.,0.,74.,368.,0.,0.,500.,0.428051128029,0.462757976248,2280.65641014
0.049284,52.,0.,62.,386.,0.,0.,500.,0.383769976854,0.495187066908,1713.14917667
0.052022,45.,0.,60.,395.,0.,0.,500.,0.332108633816,0.442811511754,1434.70929808
0.05476,41.,0.,57.,402.,0.,0.,500.,0.302587866365,0.424684724723,1241.82060356
0.057498,35.,0.,53.,413.,0.,0.,501.,0.257791132924,0.389118691206,983.730963238
0.060236,33.,0.,46.,423.,0.,0.,502.,0.242576027355,0.421871351922,803.411802601
0.062974,33.,0.,38.,431.,0.,0.,502.,0.242576027355,0.51068637338,663.688010844
0.065712,31.,0.,30.,440.,0.,0.,501.,0.228329289161,0.60887810443,493.191264588
0.06845,30.,0.,27.,444.,0.,0.,501.,0.220963828221,0.654707639172,429.553682061
0.071188,26.,0.,24.,451.,0.,0.,501.,0.191501984458,0.638339948193,330.915429143
0.073926,25.,0.,21.,455.,0.,0.,501.,0.184136523517,0.701472470542,278.414423558
0.076664,24.,0.,18.,459.,0.,0.,501.,0.176771062577,0.785649167007,229.095297099
0.079402,22.,0.,17.,462.,0.,0.,501.,0.162040140695,0.762541838565,198.337132211
0.08214,20.,0.,18.,463.,0.,0.,501.,0.147309218814,0.654707639172,190.912747583
