t,s,e,i,r,c,o,n,reff,coal,reportr
0.,427.,0.,10.,63.,0.,0.,500.,2.64210354651,21.1368283721,1902.31455349
0.002738,420.,0.,13.,67.,0.,0.,500.,2.59879037361,15.9925561453,2432.4677897
0.005476,412.,0.,17.,71.,0.,0.,500.,2.54928960459,11.9966569628,3120.33047602
0.008214,390.,0.,34.,76.,0.,0.,500.,2.41316248979,5.67802938773,5907.42177499
0.010952,368.,0.,55.,77.,0.,0.,500.,2.27703537498,3.31205145451,9017.06008491
0.01369,340.,0.,79.,81.,0.,0.,500.,2.1037826834,2.13041284395,11966.3159032
0.016428,291.,0.,99.,110.,0.,0.,500.,1.80059047315,1.45502260456,12834.6088926
0.019166,257.,0.,117.,126.,0.,0.,500.,1.59021220481,1.08732458448,13395.9476133
0.021904,226.,0.,135.,139.,0.,0.,500.,1.39839672485,0.828679540652,13592.4161655
0.024642,171.,0.,139.,190.,0.,0.,500.,1.05807893783,0.608966295153,10589.2540098
0.02738,154.,0.,124.,222.,0.,0.,500.,0.952889803659,0.614767615264,8507.40016707
0.030118,141.,0.,121.,238.,0.,0.,500.,0.872451053999,0.57682714314,7600.79358244
0.032856,115.,0.,117.,268.,0.,0.,500.,0.71157355468,0.486546020294,5994.29562463
0.035594,99.,0.,117.,284.,0.,0.,500.,0.612572016638,0.418852660949,5160.30666816
0.038332,84.,0.,109.,307.,0.,0.,500.,0.519758074723,0.38147381631,4079.06137043
0.04107,67.,0.,95.,338.,0.,0.,500.,0.414568940553,0.349110686781,2835.65155338
0.043808,63.,0.,85.,352.,0.,0.,500.,0.389818556042,0.366888052746,2385.68956298
0.046546,56.,0.,77.,367.,0.,0.,500.,0.346505383149,0.360005592882,1921.02584418
0.049284,48.,0.,63.,389.,0.,0.,500.,0.297004614127,0.377148716352,1347.21292968
0.052022,39.,0.,64.,397.,0.,0.,500.,0.241316248979,0.301645311223,1111.98527529
0.05476,35.,0.,58.,407.,0.,0.,500.,0.216565864468,0.298711537197,904.379050018
0.057498,33.,0.,54.,413.,0.,0.,500.,0.204190672213,0.302504699574,793.893333563
0.060236,33.,0.,48.,419.,0.,0.,500.,0.204190672213,0.340317787021,705.682963167
0.062974,33.,0.,41.,426.,0.,0.,500.,0.204190672213,0.398420823829,602.770864372
0.065712,31.,0.,30.,439.,0.,0.,500.,0.191815479957,0.511507946553,414.321436708
0.06845,30.,0.,27.,443.,0.,0.,500.,0.18562788383,0.55000854468,360.860606165
0.071188,29.,0.,25.,446.,0.,0.,500.,0.179440287702,0.574208920646,322.992517864
0.073926,29.,0.,20.,451.,0.,0.,500.,0.179440287702,0.717761150808,258.394014291
0.076664,29.,0.,18.,453.,0.,0.,500.,0.179440287702,0.797512389787,232.554612862
0.079402,28.,0.,16.,456.,0.,0.,500.,0.173252691574,0.866263457872,199.587100694
0.08214,27.,0.,16.,457.,0.,0.,500.,0.167065095447,0.835325477233,192.458989955
