t,s,e,i,r,c,o,n,reff,coal,reportr
0.,466.,0.,8.,26.,0.,0.,500.,2.60823123011,26.0823123011,1502.34118854
0.002738,461.,0.,12.,27.,0.,0.,500.,2.58024591648,17.2016394432,2229.33247184
0.005476,453.,0.,18.,29.,0.,0.,500.,2.53546941468,11.2687529541,3285.96836142
0.008214,434.,0.,30.,36.,0.,0.,500.,2.42912522289,6.47766726105,5246.91048145
0.010952,413.,0.,50.,37.,0.,0.,500.,2.31158690566,3.69853904905,8321.71286036
0.01369,382.,0.,76.,42.,0.,0.,500.,2.13807796116,2.25060838017,11699.5626035
0.016428,339.,0.,95.,66.,0.,0.,500.,1.89740426396,1.59781411702,12978.2451655
0.019166,312.,0.,108.,80.,0.,0.,500.,1.74628357037,1.29354338546,13579.1010432
0.021904,269.,0.,138.,93.,0.,0.,500.,1.50560987318,0.872817317783,14959.7396999
0.024642,213.,0.,136.,151.,0.,0.,500.,1.19217436054,0.701279035614,11673.7713384
0.02738,188.,0.,131.,181.,0.,0.,500.,1.0522477924,0.642594071698,9924.80117796
0.030118,171.,0.,127.,202.,0.,0.,500.,0.95709772607,0.602896205399,8751.70160719
0.032856,136.,0.,127.,237.,0.,0.,500.,0.761200530676,0.479496397276,6960.4176525
0.035594,122.,0.,125.,253.,0.,0.,500.,0.682841652518,0.437018657612,6145.57487266
0.038332,114.,0.,114.,272.,0.,0.,500.,0.638065150714,0.447765018045,5237.23875706
0.04107,88.,0.,97.,315.,0.,0.,500.,0.492541519849,0.406219810185,3439.90997463
0.043808,81.,0.,87.,332.,0.,0.,500.,0.45336208077,0.416884671973,2839.86007394
0.046546,75.,0.,82.,343.,0.,0.,500.,0.419779704417,0.409541175041,2478.37937488
0.049284,69.,0.,66.,365.,0.,0.,500.,0.386197328063,0.46811797341,1835.20970296
0.052022,61.,0.,67.,372.,0.,0.,500.,0.341420826259,0.40766665822,1647.01406587
0.05476,59.,0.,57.,384.,0.,0.,500.,0.330226700808,0.463476071309,1355.25038012
0.057498,48.,0.,50.,402.,0.,0.,500.,0.268659010827,0.429854417323,967.172438976
0.060236,46.,0.,46.,408.,0.,0.,500.,0.257464885376,0.447765018045,852.723700364
0.062974,46.,0.,37.,417.,0.,0.,500.,0.257464885376,0.556680833245,685.886454641
0.065712,46.,0.,32.,422.,0.,0.,500.,0.257464885376,0.643662213439,593.199095906
0.06845,44.,0.,27.,429.,0.,0.,500.,0.246270759925,0.729691140517,478.750357293
0.071188,40.,0.,25.,435.,0.,0.,500.,0.223882509022,0.716424028871,402.98851624
0.073926,40.,0.,20.,440.,0.,0.,500.,0.223882509022,0.895530036089,322.390812992
0.076664,38.,0.,16.,446.,0.,0.,500.,0.212688383571,1.06344191786,245.017017874
0.079402,36.,0.,15.,449.,0.,0.,500.,0.20149425812,1.07463604331,217.61379877
0.08214,35.,0.,15.,450.,0.,0.,500.,0.195897195395,1.0447850421,211.568971026
