t,s,e,i,r,c,o,n,reff,coal,reportr
0.,468.,0.,8.,24.,0.,0.,500.,2.70701164924,27.0701164924,1559.23870996
0.002738,461.,0.,13.,26.,0.,0.,500.,2.66652215876,16.4093671308,2495.8647406
0.005476,451.,0.,20.,29.,0.,0.,500.,2.6086800295,10.434720118,3756.49924248
0.008214,431.,0.,34.,35.,0.,0.,500.,2.49299577098,5.86587240232,6102.85364737
0.010952,408.,0.,54.,38.,0.,0.,500.,2.35995887369,3.49623536843,9175.52010092
0.01369,375.,0.,78.,47.,0.,0.,500.,2.16907984714,2.22469727912,12181.5524216
0.016428,321.,0.,104.,75.,0.,0.,500.,1.85673234916,1.4282556532,13903.2118305
0.019166,293.,0.,113.,94.,0.,0.,500.,1.69477438724,1.19984027415,13788.6844145
0.021904,251.,0.,134.,115.,0.,0.,500.,1.45183744436,0.866768623496,14007.3276631
0.024642,203.,0.,131.,166.,0.,0.,500.,1.17419522392,0.7170657856,11075.009352
0.02738,182.,0.,124.,194.,0.,0.,500.,1.05272675248,0.679178549987,9398.74444615
0.030118,168.,0.,117.,215.,0.,0.,500.,0.971747771521,0.664442920698,8186.00322729
0.032856,125.,0.,124.,251.,0.,0.,500.,0.723026615715,0.466468784332,6455.1816251
0.035594,111.,0.,120.,269.,0.,0.,500.,0.642047634755,0.428031756503,5547.29156428
0.038332,96.,0.,109.,295.,0.,0.,500.,0.555284440869,0.407548213482,4357.87229194
0.04107,82.,0.,94.,324.,0.,0.,500.,0.474305459909,0.403664221199,3210.09935266
0.043808,79.,0.,84.,337.,0.,0.,500.,0.456952821132,0.435193162983,2763.6506622
0.046546,74.,0.,79.,347.,0.,0.,500.,0.428031756503,0.433449880003,2434.64463099
0.049284,68.,0.,62.,370.,0.,0.,500.,0.393326478949,0.507518037353,1755.80940203
0.052022,63.,0.,62.,375.,0.,0.,500.,0.36440541432,0.470200534607,1626.70576953
0.05476,59.,0.,54.,387.,0.,0.,500.,0.341268562617,0.505583055729,1326.85217146
0.057498,50.,0.,52.,398.,0.,0.,500.,0.289210646286,0.444939455824,1082.80465969
0.060236,47.,0.,46.,407.,0.,0.,500.,0.271858007509,0.472796534798,900.393720869
0.062974,44.,0.,39.,417.,0.,0.,500.,0.254505368732,0.522062294834,714.651075398
0.065712,42.,0.,31.,427.,0.,0.,500.,0.24293694288,0.626934046142,542.235256508
0.06845,41.,0.,26.,433.,0.,0.,500.,0.237152729954,0.729700707552,443.949910475
0.071188,39.,0.,24.,437.,0.,0.,500.,0.225584304103,0.751947680343,389.80967749
0.073926,39.,0.,20.,441.,0.,0.,500.,0.225584304103,0.902337216412,324.841397908
0.076664,38.,0.,18.,444.,0.,0.,500.,0.219800091177,0.976889294121,284.860918166
0.079402,36.,0.,15.,449.,0.,0.,500.,0.208231665326,1.11056888174,224.890198552
0.08214,35.,0.,15.,450.,0.,0.,500.,0.2024474524,1.07971974613,218.643248592
