t,s,e,i,r,c,o,n,reff,coal,reportr
0.,452.,0.,9.,39.,0.,0.,500.,2.74875990334,24.433421363,1781.19641736
0.002738,445.,0.,14.,41.,0.,0.,500.,2.7061906128,15.4639463589,2727.8401377
0.005476,439.,0.,18.,43.,0.,0.,500.,2.66970264948,11.8653451088,3459.93463373
0.008214,414.,0.,35.,51.,0.,0.,500.,2.51766946899,5.75467307197,6344.52706185
0.010952,397.,0.,50.,53.,0.,0.,500.,2.41428690625,3.86285905,8691.43286251
0.01369,364.,0.,78.,58.,0.,0.,500.,2.213603108,2.27036216205,12431.5950545
0.016428,320.,0.,97.,83.,0.,0.,500.,1.94602471033,1.60496883326,13591.0365769
0.019166,288.,0.,113.,99.,0.,0.,500.,1.7514222393,1.23994494817,14249.5713389
0.021904,249.,0.,135.,116.,0.,0.,500.,1.51425047772,0.89733361643,14718.5146435
0.024642,191.,0.,138.,171.,0.,0.,500.,1.16153349898,0.673352753031,11540.9968458
0.02738,173.,0.,123.,204.,0.,0.,500.,1.05206960902,0.684272916437,9317.1284575
0.030118,157.,0.,123.,220.,0.,0.,500.,0.954768373505,0.620987560003,8455.42871576
0.032856,123.,0.,114.,264.,0.,0.,501.,0.746510227578,0.52386682637,6127.35594796
0.035594,109.,0.,117.,275.,0.,0.,501.,0.661541583788,0.452336125667,5572.82630183
0.038332,98.,0.,114.,289.,0.,0.,501.,0.594780506525,0.417389829141,4881.95839756
0.04107,79.,0.,98.,324.,0.,0.,501.,0.479465918525,0.391400749817,3383.11152112
0.043808,74.,0.,88.,339.,0.,0.,501.,0.449119974315,0.408290885741,2845.62415726
0.046546,66.,0.,81.,354.,0.,0.,501.,0.400566463578,0.395621198596,2336.10361559
0.049284,60.,0.,63.,378.,0.,0.,501.,0.364151330526,0.462414387969,1651.79043526
0.052022,54.,0.,61.,386.,0.,0.,501.,0.327736197473,0.429817963899,1439.4173793
0.05476,50.,0.,58.,393.,0.,0.,501.,0.303459442105,0.418564747731,1267.24663023
0.057498,42.,0.,50.,409.,0.,0.,501.,0.254905931368,0.407849490189,917.661352925
0.060236,40.,0.,46.,415.,0.,0.,501.,0.242767553684,0.422204441189,804.046137801
0.062974,38.,0.,39.,424.,0.,0.,501.,0.230629176,0.47308548923,647.606726207
0.065712,37.,0.,32.,432.,0.,0.,501.,0.224559987158,0.561399967894,517.386210411
0.06845,36.,0.,27.,438.,0.,0.,501.,0.218490798315,0.647380143157,424.746111925
0.071188,34.,0.,27.,440.,0.,0.,501.,0.206352420631,0.611414579648,401.149105707
0.073926,34.,0.,22.,445.,0.,0.,501.,0.206352420631,0.750372438659,326.86223428
0.076664,34.,0.,17.,450.,0.,0.,501.,0.206352420631,0.971070214735,252.575362853
0.079402,33.,0.,14.,454.,0.,0.,501.,0.200283231789,1.14447561022,201.885497643
0.08214,31.,0.,15.,455.,0.,0.,501.,0.188144854105,1.00343922189,203.196442433
