t,s,e,i,r,c,o,n,reff,coal,reportr
0.,485.,0.,8.,7.,0.,0.,500.,3.09710690876,30.9710690876,1783.93357945
0.002738,480.,0.,11.,9.,0.,0.,500.,3.06517797156,22.2922034295,2427.62095347
0.005476,473.,0.,17.,10.,0.,0.,500.,3.02047745947,14.214011574,3697.06441039
0.008214,455.,0.,33.,12.,0.,0.,500.,2.90553328554,7.04371705585,6903.54708644
0.010952,430.,0.,55.,15.,0.,0.,500.,2.74588859952,3.99401978112,10873.7188541
0.01369,397.,0.,77.,26.,0.,0.,500.,2.53515761397,2.63392998855,14054.9138119
0.016428,345.,0.,101.,54.,0.,0.,500.,2.20309666706,1.74502706301,16020.9189628
0.019166,315.,0.,113.,72.,0.,0.,500.,2.01152304383,1.42408711068,16365.7514846
0.021904,269.,0.,134.,97.,0.,0.,500.,1.71777682156,1.02553840093,16573.1107744
0.024642,207.,0.,136.,156.,0.,0.,499.,1.32450701426,0.779121773095,12969.5726837
0.02738,184.,0.,127.,188.,0.,0.,499.,1.17733956823,0.741631224084,10765.5930119
0.030118,169.,0.,121.,209.,0.,0.,499.,1.08136079908,0.71494928865,9420.81528162
0.032856,127.,0.,121.,251.,0.,0.,499.,0.812620245465,0.537269583779,7079.54757849
0.035594,108.,0.,115.,276.,0.,0.,499.,0.691047137876,0.48072844374,5721.87030161
0.038332,97.,0.,109.,293.,0.,0.,499.,0.620662707166,0.45553226214,4870.96092584
0.04107,77.,0.,97.,325.,0.,0.,499.,0.492691014967,0.406343105128,3440.95404853
0.043808,72.,0.,84.,343.,0.,0.,499.,0.460698091917,0.43876008754,2786.30205992
0.046546,66.,0.,74.,359.,0.,0.,499.,0.422306584258,0.456547658657,2250.04948092
0.049284,55.,0.,63.,381.,0.,0.,499.,0.351922153548,0.446885274347,1596.31888849
0.052022,50.,0.,62.,387.,0.,0.,499.,0.319929230498,0.41281191032,1428.16408494
0.05476,49.,0.,52.,398.,0.,0.,499.,0.313530645888,0.482354839828,1173.85873821
0.057498,43.,0.,50.,406.,0.,0.,499.,0.275139138228,0.440222621165,990.500897622
0.060236,38.,0.,47.,414.,0.,0.,499.,0.243146215179,0.413865898176,822.806792164
0.062974,36.,0.,38.,425.,0.,0.,499.,0.230349045959,0.484945359913,630.234989743
0.065712,33.,0.,31.,435.,0.,0.,499.,0.211153292129,0.544911721623,471.294148031
0.06845,33.,0.,27.,439.,0.,0.,499.,0.211153292129,0.625639384085,410.481999898
0.071188,30.,0.,24.,445.,0.,0.,499.,0.191957538299,0.639858460996,331.70262618
0.073926,29.,0.,21.,449.,0.,0.,499.,0.185558953689,0.706891252148,280.565137978
0.076664,28.,0.,19.,452.,0.,0.,499.,0.179160369079,0.754359448753,245.0913849
0.079402,27.,0.,15.,457.,0.,0.,499.,0.172761784469,0.921396183835,186.582727227
0.08214,25.,0.,17.,457.,0.,0.,499.,0.159964615249,0.752774659996,195.796689065
