t,s,e,i,r,c,o,n,reff,coal,reportr
0.,484.,0.,8.,8.,0.,0.,500.,2.80693741008,28.0693741008,1616.7959482
0.002738,476.,0.,12.,12.,0.,0.,500.,2.76054175041,18.4036116694,2385.10807235
0.005476,469.,0.,17.,14.,0.,0.,500.,2.71994554819,12.7997437562,3329.21335099
0.008214,447.,0.,30.,23.,0.,0.,500.,2.5923574841,6.91295329093,5599.49216566
0.010952,423.,0.,50.,27.,0.,0.,500.,2.45317050509,3.92507280814,8831.41381832
0.01369,393.,0.,76.,32.,0.,0.,501.,2.27463750631,2.3943552698,12446.8164345
0.016428,333.,0.,102.,66.,0.,0.,501.,1.92736460458,1.5116585134,14154.5656561
0.019166,305.,0.,115.,81.,0.,0.,501.,1.76530391711,1.22803750756,14616.7164337
0.021904,271.,0.,136.,94.,0.,0.,501.,1.56851593947,0.92265643498,15358.9080793
0.024642,209.,0.,137.,155.,0.,0.,501.,1.20966727435,0.706375050714,11932.1579942
0.02738,192.,0.,126.,183.,0.,0.,501.,1.11127328553,0.705570340016,10081.4712463
0.030118,173.,0.,123.,205.,0.,0.,501.,1.00130353331,0.65125433061,8867.54409101
0.032856,129.,0.,123.,249.,0.,0.,501.,0.746636738713,0.485617391033,6612.21495804
0.035594,110.,0.,119.,272.,0.,0.,501.,0.636666986499,0.428011419495,5454.96274032
0.038332,93.,0.,114.,294.,0.,0.,501.,0.538272997676,0.377735436966,4418.14476493
0.04107,75.,0.,93.,333.,0.,0.,501.,0.434091127158,0.373411722287,2906.67418745
0.043808,72.,0.,83.,346.,0.,0.,501.,0.416727482072,0.401665042961,2490.36343286
0.046546,63.,0.,76.,362.,0.,0.,501.,0.364636546813,0.383827944014,1995.29118416
0.049284,53.,0.,62.,386.,0.,0.,501.,0.306757729859,0.395816425624,1369.36650609
0.052022,49.,0.,62.,390.,0.,0.,501.,0.283606203077,0.365943487841,1266.01809054
0.05476,47.,0.,55.,399.,0.,0.,501.,0.272030439686,0.395680639543,1077.24054116
0.057498,42.,0.,54.,405.,0.,0.,501.,0.243091031209,0.36013486105,945.13792934
0.060236,40.,0.,47.,414.,0.,0.,501.,0.231515267818,0.394068540967,783.447666296
0.062974,39.,0.,38.,424.,0.,0.,501.,0.225727386122,0.475215549731,617.590128431
0.065712,35.,0.,32.,434.,0.,0.,501.,0.202575859341,0.506439648352,466.734779921
0.06845,34.,0.,29.,438.,0.,0.,501.,0.196787977645,0.542863386607,410.893297323
0.071188,32.,0.,24.,445.,0.,0.,501.,0.185212214254,0.617374047514,320.046706231
0.073926,32.,0.,21.,448.,0.,0.,501.,0.185212214254,0.705570340016,280.040867952
0.076664,31.,0.,18.,452.,0.,0.,501.,0.179424332559,0.797441478039,232.533934996
0.079402,31.,0.,14.,457.,0.,0.,502.,0.17906691357,1.02323950611,180.499448878
0.08214,29.,0.,16.,457.,0.,0.,502.,0.167514209468,0.837571047342,192.976369308
