t,s,e,i,r,c,o,n,reff,coal,reportr
0.,478.,0.,9.,13.,0.,0.,500.,2.74847116715,24.4308548191,1781.00931632
0.002738,467.,0.,13.,20.,0.,0.,500.,2.68522183067,16.5244420349,2513.36763351
0.005476,460.,0.,18.,22.,0.,0.,500.,2.64497225291,11.7554322352,3427.88403977
0.008214,436.,0.,31.,32.,0.,0.,499.,2.51199769598,6.48257469929,5606.77885742
0.010952,414.,0.,49.,36.,0.,0.,499.,2.38524551866,3.8942783978,8415.14618982
0.01369,387.,0.,75.,37.,0.,0.,499.,2.22968602831,2.37833176353,12040.3045529
0.016428,340.,0.,96.,63.,0.,0.,499.,1.95889728585,1.63241440488,13539.8980398
0.019166,298.,0.,119.,82.,0.,0.,499.,1.71691585642,1.15422914718,14710.5350578
0.021904,258.,0.,140.,101.,0.,0.,499.,1.48645735221,0.84940420126,14983.4901102
0.024642,201.,0.,134.,164.,0.,0.,499.,1.1580539837,0.691375512654,11172.9048347
0.02738,180.,0.,122.,197.,0.,0.,499.,1.03706326898,0.680041487856,9109.56375473
0.030118,160.,0.,121.,218.,0.,0.,499.,0.921834016872,0.609477035948,8031.01795499
0.032856,129.,0.,121.,249.,0.,0.,499.,0.743228676103,0.491390860233,6475.00822621
0.035594,115.,0.,119.,265.,0.,0.,499.,0.662568199627,0.445423999749,5676.8843344
0.038332,104.,0.,112.,283.,0.,0.,499.,0.599192110967,0.427994364976,4831.88518283
0.04107,85.,0.,92.,321.,0.,0.,498.,0.490707703635,0.426702350987,3250.44782888
0.043808,84.,0.,86.,328.,0.,0.,498.,0.484934671827,0.451102020304,3002.71548795
0.046546,77.,0.,73.,348.,0.,0.,498.,0.444523449175,0.487148985397,2336.41524886
0.049284,67.,0.,63.,368.,0.,0.,498.,0.3867931311,0.491165880762,1754.49364267
0.052022,65.,0.,62.,371.,0.,0.,498.,0.375247067485,0.484189764497,1675.10290925
0.05476,60.,0.,57.,381.,0.,0.,498.,0.346381908448,0.486150046945,1421.55135227
0.057498,53.,0.,55.,390.,0.,0.,498.,0.305970685796,0.445048270248,1211.64391575
0.060236,50.,0.,49.,399.,0.,0.,498.,0.288651590373,0.47126790265,1018.36281084
0.062974,49.,0.,38.,411.,0.,0.,498.,0.282878558566,0.595533807507,773.955736236
0.065712,44.,0.,30.,424.,0.,0.,498.,0.254013399529,0.677369065409,548.668942982
0.06845,43.,0.,27.,428.,0.,0.,498.,0.248240367721,0.73552701547,482.57927485
0.071188,40.,0.,25.,433.,0.,0.,498.,0.230921272299,0.738948071356,415.658290138
0.073926,40.,0.,23.,435.,0.,0.,498.,0.230921272299,0.803204425387,382.405626927
0.076664,40.,0.,18.,440.,0.,0.,498.,0.230921272299,1.02631676577,299.273968899
0.079402,39.,0.,15.,444.,0.,0.,498.,0.225148240491,1.20079061595,243.160099731
0.08214,36.,0.,16.,446.,0.,0.,498.,0.207829145069,1.03914572534,239.419175119
