t,s,e,i,r,c,o,n,reff,coal,reportr
0.,470.,0.,9.,21.,0.,0.,500.,2.52800267212,22.4711348633,1638.14573153
0.002738,464.,0.,13.,23.,0.,0.,500.,2.49573029758,15.3583402928,2336.00355854
0.005476,458.,0.,18.,24.,0.,0.,500.,2.46345792304,10.9487018802,3192.64146826
0.008214,434.,0.,34.,32.,0.,0.,500.,2.33436842489,5.49263158798,5714.53390414
0.010952,415.,0.,53.,32.,0.,0.,500.,2.23217257219,3.3693170901,8517.97053548
0.01369,382.,0.,78.,40.,0.,0.,500.,2.05467451223,2.10735847408,11539.0520607
0.016428,326.,0.,104.,70.,0.,0.,500.,1.75346568321,1.34881975632,13129.9510359
0.019166,297.,0.,112.,91.,0.,0.,500.,1.59748253962,1.14105895687,12882.0991995
0.021904,255.,0.,135.,110.,0.,0.,500.,1.37157591785,0.812785729097,13331.7179215
0.024642,201.,0.,138.,161.,0.,0.,500.,1.08112454701,0.626738867833,10742.0534991
0.02738,185.,0.,124.,191.,0.,0.,500.,0.995064881579,0.641977342954,8883.93926273
0.030118,170.,0.,122.,208.,0.,0.,500.,0.914383945234,0.599596029662,8031.94857494
0.032856,130.,0.,121.,249.,0.,0.,500.,0.69923478165,0.462303987868,6091.73341773
0.035594,121.,0.,116.,263.,0.,0.,500.,0.650826219843,0.448845668857,5435.70058813
0.038332,109.,0.,111.,280.,0.,0.,500.,0.586281470768,0.422545204157,4685.56151438
0.04107,97.,0.,93.,310.,0.,0.,500.,0.521736721693,0.448805782101,3493.54908845
0.043808,90.,0.,81.,329.,0.,0.,500.,0.484085618065,0.47810925241,2823.18732456
0.046546,88.,0.,76.,336.,0.,0.,500.,0.473328159886,0.498240168301,2590.0516909
0.049284,76.,0.,67.,357.,0.,0.,500.,0.408783410811,0.488099594998,1971.97117375
0.052022,74.,0.,64.,362.,0.,0.,500.,0.398025952631,0.497532440789,1834.10358973
0.05476,69.,0.,56.,375.,0.,0.,500.,0.371132307183,0.530189010262,1496.40546256
0.057498,57.,0.,52.,391.,0.,0.,500.,0.306587558108,0.47167316632,1147.86381756
0.060236,56.,0.,48.,396.,0.,0.,500.,0.301208829018,0.502014715031,1040.97771309
0.062974,56.,0.,39.,405.,0.,0.,500.,0.301208829018,0.617864264653,845.794391884
0.065712,52.,0.,31.,417.,0.,0.,500.,0.27969391266,0.721790742348,624.276813057
0.06845,51.,0.,25.,424.,0.,0.,500.,0.27431518357,0.877808587425,493.767330427
0.071188,46.,0.,24.,431.,0.,0.,501.,0.246927682757,0.823092275856,426.691035804
0.073926,46.,0.,21.,434.,0.,0.,501.,0.246927682757,0.940676886692,373.354656328
0.076664,46.,0.,18.,437.,0.,0.,501.,0.246927682757,1.09745636781,320.018276853
0.079402,46.,0.,16.,439.,0.,0.,501.,0.246927682757,1.23463841378,284.460690536
0.08214,46.,0.,16.,439.,0.,0.,501.,0.246927682757,1.23463841378,284.460690536
