t,s,e,i,r,c,o,n,reff,coal,reportr
0.,475.,0.,10.,15.,0.,0.,500.,2.46741317351,19.7393053881,1776.53748493
0.002738,469.,0.,12.,19.,0.,0.,500.,2.43624584921,16.2416389948,2104.91641372
0.005476,463.,0.,17.,20.,0.,0.,500.,2.40507852492,11.3180165878,2943.8161145
0.008214,439.,0.,35.,26.,0.,0.,500.,2.28040922773,5.2123639491,5746.63125388
0.010952,422.,0.,50.,28.,0.,0.,500.,2.19210180889,3.50736289422,7891.566512
0.01369,390.,0.,78.,32.,0.,0.,500.,2.0258760793,2.0778216198,11377.3200614
0.016428,344.,0.,97.,59.,0.,0.,500.,1.78692659303,1.47375389116,12479.8953257
0.019166,312.,0.,113.,75.,0.,0.,500.,1.62070086344,1.14739884138,13186.022225
0.021904,269.,0.,136.,95.,0.,0.,500.,1.39733503931,0.821961787832,13682.704705
0.024642,223.,0.,135.,142.,0.,0.,500.,1.15838555304,0.686450698097,11259.5075755
0.02738,208.,0.,120.,172.,0.,0.,500.,1.0804672423,0.720311494864,9335.23697343
0.030118,187.,0.,121.,193.,0.,0.,501.,0.969442721813,0.640953865661,8445.78499243
0.032856,149.,0.,121.,231.,0.,0.,501.,0.772443666043,0.510706556062,6729.52921857
0.035594,137.,0.,114.,250.,0.,0.,501.,0.710233437905,0.498409430109,5829.59605833
0.038332,125.,0.,108.,268.,0.,0.,501.,0.648023209768,0.480017192421,5039.02847915
0.04107,108.,0.,95.,298.,0.,0.,501.,0.559892053239,0.471488044833,3829.66164416
0.043808,100.,0.,82.,319.,0.,0.,501.,0.518418567814,0.505774212502,3060.74322437
0.046546,98.,0.,77.,326.,0.,0.,501.,0.508050196458,0.527844359956,2816.63028916
0.049284,91.,0.,62.,348.,0.,0.,501.,0.471760896711,0.608723737691,2105.94064292
0.052022,84.,0.,64.,353.,0.,0.,501.,0.435471596964,0.544339496205,2006.65311881
0.05476,79.,0.,57.,365.,0.,0.,501.,0.409550668573,0.574807955892,1680.79594382
0.057498,68.,0.,51.,382.,0.,0.,501.,0.352524626114,0.552979805668,1294.47042709
0.060236,64.,0.,50.,387.,0.,0.,501.,0.331787883401,0.530860613442,1194.43638024
0.062974,62.,0.,41.,398.,0.,0.,501.,0.321419512045,0.627160023502,948.830399556
0.065712,57.,0.,31.,413.,0.,0.,501.,0.295498583654,0.762576990075,659.552838716
0.06845,56.,0.,27.,418.,0.,0.,501.,0.290314397976,0.860190808818,564.371189665
0.071188,54.,0.,24.,423.,0.,0.,501.,0.27994602662,0.933153422066,483.746733999
0.073926,53.,0.,22.,426.,0.,0.,501.,0.274761840942,0.99913396706,435.222756051
0.076664,52.,0.,18.,431.,0.,0.,501.,0.269577655263,1.19812291228,349.372641221
0.079402,52.,0.,14.,435.,0.,0.,501.,0.269577655263,1.54044374436,271.734276505
0.08214,50.,0.,16.,435.,0.,0.,501.,0.259209283907,1.29604641954,298.609095061
