t,s,e,i,r,c,o,n,reff,coal,reportr
0.,450.,0.,9.,41.,0.,0.,500.,2.68633806031,23.8785605361,1740.74706308
0.002738,446.,0.,11.,43.,0.,0.,500.,2.66245949978,19.3633418166,2108.66792382
0.005476,439.,0.,18.,43.,0.,0.,500.,2.62067201884,11.6474311948,3396.39093642
0.008214,422.,0.,33.,45.,0.,0.,500.,2.51918813656,6.1071227553,5985.59101247
0.010952,400.,0.,53.,47.,0.,0.,500.,2.38785605361,3.60431102432,9112.05870059
0.01369,372.,0.,74.,54.,0.,0.,500.,2.22070612986,2.40076338363,11831.9222599
0.016428,306.,0.,99.,94.,0.,0.,499.,1.83037062226,1.47908737152,13046.8817955
0.019166,277.,0.,112.,110.,0.,0.,499.,1.65690412538,1.1835029467,13361.274867
0.021904,239.,0.,130.,130.,0.,0.,499.,1.42960319843,0.879755814419,13381.0859373
0.024642,183.,0.,133.,183.,0.,0.,499.,1.09463341135,0.658426112091,10482.2095471
0.02738,164.,0.,123.,212.,0.,0.,499.,0.980982947877,0.638037689676,8687.5849864
0.030118,145.,0.,119.,235.,0.,0.,499.,0.867332484404,0.583080661784,7431.30472637
0.032856,110.,0.,118.,271.,0.,0.,499.,0.657976367479,0.446085672867,5590.1672181
0.035594,96.,0.,118.,285.,0.,0.,499.,0.574233920709,0.389311132684,4878.69139034
0.038332,86.,0.,112.,301.,0.,0.,499.,0.514417887301,0.367441348072,4148.2658432
0.04107,71.,0.,92.,336.,0.,0.,499.,0.424693837191,0.369298988862,2813.17197755
0.043808,67.,0.,82.,350.,0.,0.,499.,0.400767423828,0.390992608613,2366.13087028
0.046546,63.,0.,75.,361.,0.,0.,499.,0.376841010465,0.401963744496,2034.94145651
0.049284,52.,0.,59.,388.,0.,0.,499.,0.311043373717,0.421753727074,1321.31225155
0.052022,45.,0.,63.,391.,0.,0.,499.,0.269172150332,0.341805905184,1220.96487391
0.05476,43.,0.,59.,397.,0.,0.,499.,0.257208943651,0.348757889696,1092.62359263
0.057498,37.,0.,51.,411.,0.,0.,499.,0.221319323606,0.347167566441,812.684556283
0.060236,35.,0.,50.,414.,0.,0.,499.,0.209356116925,0.33496978708,753.68202093
0.062974,34.,0.,37.,428.,0.,0.,499.,0.203374513584,0.43972867802,541.789704189
0.065712,31.,0.,30.,438.,0.,0.,499.,0.185429703562,0.494479209499,400.528159694
0.06845,30.,0.,26.,443.,0.,0.,499.,0.179448100221,0.552148000681,335.926843615
0.071188,26.,0.,25.,448.,0.,0.,499.,0.155521686859,0.497669397947,279.939036345
0.073926,25.,0.,21.,453.,0.,0.,499.,0.149540083518,0.569676508639,226.104606279
0.076664,25.,0.,17.,457.,0.,0.,499.,0.149540083518,0.703718040084,183.037062226
0.079402,24.,0.,15.,460.,0.,0.,499.,0.143558480177,0.765645227611,155.043158591
0.08214,24.,0.,15.,460.,0.,0.,499.,0.143558480177,0.765645227611,155.043158591
