t,s,e,i,r,c,o,n,reff,coal,reportr
0.,485.,0.,8.,7.,0.,0.,500.,2.92651671379,29.2651671379,1685.67362714
0.002738,474.,0.,12.,14.,0.,0.,500.,2.86014210791,19.0676140527,2471.16278123
0.005476,467.,0.,18.,15.,0.,0.,500.,2.81790372235,12.5240165438,3652.00322416
0.008214,436.,0.,38.,26.,0.,0.,500.,2.63084801487,5.53862739973,7198.00016868
0.010952,413.,0.,54.,33.,0.,0.,500.,2.49206474803,3.69194777486,9689.14774034
0.01369,383.,0.,75.,42.,0.,0.,500.,2.31104309563,2.46511263534,12479.6327164
0.016428,325.,0.,102.,73.,0.,0.,500.,1.96106790099,1.53809247137,14402.0826649
0.019166,294.,0.,109.,97.,0.,0.,500.,1.77401219351,1.30202729799,13922.4476947
0.021904,257.,0.,136.,107.,0.,0.,500.,1.55075215555,0.912207150326,15184.9651072
0.024642,199.,0.,137.,163.,0.,0.,499.,1.20318332757,0.702588804421,11868.2003432
0.02738,184.,0.,123.,192.,0.,0.,499.,1.11249111695,0.723571458179,9852.22133171
0.030118,164.,0.,122.,213.,0.,0.,499.,0.991568169455,0.650208635708,8709.93480049
0.032856,124.,0.,117.,258.,0.,0.,499.,0.749722274466,0.51263061502,6315.6604401
0.035594,110.,0.,115.,274.,0.,0.,499.,0.66507621122,0.462661712153,5506.8310289
0.038332,95.,0.,109.,295.,0.,0.,499.,0.574384000599,0.421566238972,4507.7656367
0.04107,77.,0.,96.,326.,0.,0.,499.,0.465553347854,0.387961123212,3217.90474037
0.043808,69.,0.,85.,345.,0.,0.,499.,0.417184168856,0.392643923629,2553.1671134
0.046546,63.,0.,80.,356.,0.,0.,499.,0.380907284608,0.380907284608,2194.02595934
0.049284,52.,0.,67.,380.,0.,0.,499.,0.314399663486,0.375402583267,1516.66397666
0.052022,49.,0.,63.,387.,0.,0.,499.,0.296261221362,0.376204725539,1343.8409001
0.05476,44.,0.,60.,395.,0.,0.,499.,0.266030484488,0.354707312651,1149.25169299
0.057498,36.,0.,55.,408.,0.,0.,499.,0.21766130549,0.316598262531,861.938769741
0.060236,33.,0.,47.,419.,0.,0.,499.,0.199522863366,0.339613384453,675.18536963
0.062974,30.,0.,41.,428.,0.,0.,499.,0.181384421242,0.353920821935,535.446811506
0.065712,26.,0.,31.,442.,0.,0.,499.,0.157199831743,0.405676985143,350.87002445
0.06845,26.,0.,28.,444.,0.,0.,498.,0.157515494056,0.45004426873,317.551236016
0.071188,25.,0.,27.,446.,0.,0.,498.,0.151457205823,0.448762091327,294.432808119
0.073926,25.,0.,21.,452.,0.,0.,498.,0.151457205823,0.576979831706,229.003295204
0.076664,25.,0.,19.,454.,0.,0.,498.,0.151457205823,0.637714550832,207.193457565
0.079402,25.,0.,13.,460.,0.,0.,498.,0.151457205823,0.932044343524,141.76394465
0.08214,23.,0.,15.,461.,0.,0.,499.,0.139061389619,0.741660744633,150.186300788
