t,s,e,i,r,c,o,n,reff,coal,reportr
0.,474.,0.,8.,18.,0.,0.,500.,2.71359526011,27.1359526011,1563.03086983
0.002738,466.,0.,12.,22.,0.,0.,500.,2.66779618399,17.7853078933,2304.97590297
0.005476,458.,0.,17.,25.,0.,0.,500.,2.62199710787,12.3388099194,3209.32446004
0.008214,433.,0.,34.,33.,0.,0.,500.,2.478874995,5.83264704706,6068.28598776
0.010952,409.,0.,52.,39.,0.,0.,500.,2.34147776664,3.60227348714,8766.49275829
0.01369,378.,0.,80.,42.,0.,0.,500.,2.16400634667,2.16400634667,12464.6765568
0.016428,328.,0.,99.,73.,0.,0.,500.,1.87776212092,1.51738353206,13384.6883979
0.019166,299.,0.,118.,83.,0.,0.,500.,1.71174046999,1.16050201355,14542.947033
0.021904,264.,0.,131.,105.,0.,0.,500.,1.51136951196,0.922973747763,14255.2372368
0.024642,206.,0.,129.,165.,0.,0.,500.,1.17932621009,0.73136509153,10953.5818393
0.02738,180.,0.,126.,194.,0.,0.,500.,1.0304792127,0.654272516001,9348.50741763
0.030118,162.,0.,120.,218.,0.,0.,500.,0.927431291431,0.618287527621,8013.00635797
0.032856,128.,0.,117.,255.,0.,0.,500.,0.732785217921,0.501049721655,6172.98267577
0.035594,110.,0.,121.,269.,0.,0.,500.,0.629737296651,0.416355237455,5486.27132842
0.038332,92.,0.,112.,296.,0.,0.,500.,0.526689375381,0.376206696701,4247.22312307
0.04107,70.,0.,94.,336.,0.,0.,500.,0.400741916051,0.34105694983,2712.22128783
0.043808,64.,0.,81.,355.,0.,0.,500.,0.366392608961,0.361869243418,2136.80169546
0.046546,60.,0.,73.,367.,0.,0.,500.,0.3434930709,0.376430762631,1805.39958065
0.049284,46.,0.,64.,390.,0.,0.,500.,0.26334468769,0.329180859613,1213.49232088
0.052022,44.,0.,63.,393.,0.,0.,500.,0.25189491866,0.319866563378,1142.59535104
0.05476,42.,0.,58.,400.,0.,0.,500.,0.24044514963,0.331648482249,1004.09894486
0.057498,36.,0.,55.,409.,0.,0.,500.,0.20609584254,0.299775770968,816.13953646
0.060236,34.,0.,50.,416.,0.,0.,500.,0.19464607351,0.311433717616,700.725864637
0.062974,34.,0.,43.,423.,0.,0.,500.,0.19464607351,0.362132229787,602.624243588
0.065712,31.,0.,32.,437.,0.,0.,500.,0.177471419965,0.443678549913,408.8941516
0.06845,30.,0.,28.,442.,0.,0.,500.,0.17174653545,0.490704387001,346.241015468
0.071188,27.,0.,23.,450.,0.,0.,500.,0.154571881905,0.537641328366,255.971036435
0.073926,27.,0.,20.,453.,0.,0.,500.,0.154571881905,0.618287527621,222.583509944
0.076664,27.,0.,17.,456.,0.,0.,500.,0.154571881905,0.727397091319,189.195983452
0.079402,26.,0.,16.,458.,0.,0.,500.,0.14884699739,0.744234986951,171.471740994
0.08214,25.,0.,17.,458.,0.,0.,500.,0.143122112875,0.673515825295,175.181466159
