t,s,e,i,r,c,o,n,reff,coal,reportr
0.,464.,0.,8.,28.,0.,0.,500.,2.62852393536,26.2852393536,1514.02978677
0.002738,459.,0.,12.,29.,0.,0.,500.,2.60019932399,17.3346621599,2246.57221593
0.005476,452.,0.,17.,31.,0.,0.,500.,2.56054486807,12.0496229086,3134.10691852
0.008214,430.,0.,34.,37.,0.,0.,501.,2.43105446909,5.72012816257,5951.22134034
0.010952,412.,0.,50.,39.,0.,0.,501.,2.32928939829,3.72686303727,8385.44183386
0.01369,379.,0.,75.,47.,0.,0.,501.,2.14272010183,2.28556810862,11570.6885499
0.016428,335.,0.,94.,72.,0.,0.,501.,1.89396103987,1.61188173606,12818.3283179
0.019166,297.,0.,117.,87.,0.,0.,501.,1.67912366819,1.14811874748,14144.9377808
0.021904,259.,0.,141.,101.,0.,0.,501.,1.4642862965,0.830800735603,14865.4344821
0.024642,211.,0.,134.,156.,0.,0.,501.,1.19291277437,0.712186730966,11509.2224471
0.02738,195.,0.,114.,192.,0.,0.,501.,1.10245493366,0.773652585023,9048.95009547
0.030118,176.,0.,114.,211.,0.,0.,501.,0.995036247815,0.698271051098,8167.25752206
0.032856,137.,0.,119.,245.,0.,0.,501.,0.774545261083,0.520702696526,6636.30379696
0.035594,116.,0.,120.,265.,0.,0.,501.,0.655819345151,0.437212896767,5666.2791421
0.038332,106.,0.,111.,284.,0.,0.,501.,0.599283194707,0.431915816005,4789.4712921
0.04107,91.,0.,96.,314.,0.,0.,501.,0.514478969041,0.4287324742,3556.07863401
0.043808,83.,0.,85.,333.,0.,0.,501.,0.469250048685,0.441647104645,2871.81029795
0.046546,80.,0.,77.,344.,0.,0.,501.,0.452289203552,0.469910860833,2507.49134449
0.049284,70.,0.,65.,366.,0.,0.,501.,0.395753053108,0.487080680748,1852.12428855
0.052022,66.,0.,64.,371.,0.,0.,501.,0.373138592931,0.466423241163,1719.42263622
0.05476,62.,0.,56.,383.,0.,0.,501.,0.350524132753,0.500748761076,1413.31330326
0.057498,55.,0.,51.,395.,0.,0.,501.,0.310948827442,0.487762866576,1141.80409437
0.060236,51.,0.,46.,404.,0.,0.,501.,0.288334367265,0.501451073503,954.96342438
0.062974,48.,0.,39.,414.,0.,0.,501.,0.271373522131,0.556663635141,762.016850145
0.065712,47.,0.,32.,422.,0.,0.,501.,0.265719907087,0.664299767717,612.218665928
0.06845,47.,0.,25.,429.,0.,0.,501.,0.265719907087,0.850303702678,478.295832756
0.071188,44.,0.,24.,433.,0.,0.,501.,0.248759061954,0.829196873179,429.855659056
0.073926,43.,0.,21.,437.,0.,0.,501.,0.243105446909,0.926115988226,367.575435727
0.076664,42.,0.,19.,440.,0.,0.,501.,0.237451831865,0.9997971868,324.834105991
0.079402,39.,0.,15.,447.,0.,0.,501.,0.220490986732,1.17595192924,238.13026567
0.08214,38.,0.,16.,447.,0.,0.,501.,0.214837371687,1.07418685844,247.492652184
