t,s,e,i,r,c,o,n,reff,coal,reportr
0.,464.,0.,9.,27.,0.,0.,500.,3.36689888996,29.927990133,2181.7504807
0.002738,456.,0.,13.,31.,0.,0.,500.,3.3088489091,20.3621471329,3097.08257892
0.005476,449.,0.,19.,32.,0.,0.,500.,3.25805517585,13.7181270562,4457.01948056
0.008214,419.,0.,34.,47.,0.,0.,500.,3.04036774762,7.15380646498,7442.82024616
0.010952,396.,0.,56.,48.,0.,0.,500.,2.87347405264,4.10496293234,11585.8473802
0.01369,369.,0.,76.,55.,0.,0.,500.,2.67755536723,2.81847933393,14651.5829695
0.016428,311.,0.,96.,93.,0.,0.,500.,2.25669300599,1.88057750499,15598.2620574
0.019166,284.,0.,113.,103.,0.,0.,500.,2.06077432058,1.45895527121,16766.4598722
0.021904,241.,0.,132.,127.,0.,0.,500.,1.74875567345,1.0598519233,16620.1739205
0.024642,187.,0.,137.,175.,0.,0.,499.,1.35963757779,0.793948950535,13411.4650673
0.02738,167.,0.,128.,204.,0.,0.,499.,1.21422179407,0.758888621294,11190.2680541
0.030118,145.,0.,120.,234.,0.,0.,499.,1.05426443198,0.702842954651,9108.84469228
0.032856,105.,0.,124.,270.,0.,0.,499.,0.763432864535,0.492537331958,6815.92861457
0.035594,94.,0.,123.,282.,0.,0.,499.,0.683454183488,0.444523046171,6052.67024897
0.038332,79.,0.,110.,310.,0.,0.,499.,0.574392345698,0.41773988778,4549.18737793
0.04107,63.,0.,91.,345.,0.,0.,499.,0.458059718721,0.402689862612,3001.20727706
0.043808,56.,0.,85.,358.,0.,0.,499.,0.407164194419,0.383213359453,2491.84486984
0.046546,54.,0.,76.,369.,0.,0.,499.,0.392622616047,0.41328696426,2148.43095501
0.049284,52.,0.,62.,385.,0.,0.,499.,0.378081037674,0.487846500225,1687.75375218
0.052022,43.,0.,65.,391.,0.,0.,499.,0.312643935,0.384792535385,1463.1736158
0.05476,41.,0.,57.,401.,0.,0.,499.,0.298102356628,0.41838927246,1223.4120716
0.057498,36.,0.,53.,410.,0.,0.,499.,0.261748410698,0.395091940676,998.831935223
0.060236,34.,0.,50.,415.,0.,0.,499.,0.247206832326,0.395530931721,889.944596372
0.062974,32.,0.,39.,428.,0.,0.,499.,0.232665253954,0.477262059392,653.324033102
0.065712,30.,0.,32.,437.,0.,0.,499.,0.218123675581,0.545309188954,502.55694854
0.06845,28.,0.,27.,444.,0.,0.,499.,0.203582097209,0.603206213954,395.763596975
0.071188,27.,0.,23.,449.,0.,0.,499.,0.196311308023,0.682821940951,325.091526087
0.073926,27.,0.,20.,452.,0.,0.,499.,0.196311308023,0.785245232093,282.688283554
0.076664,25.,0.,18.,456.,0.,0.,499.,0.181769729651,0.807865465116,235.573569628
0.079402,25.,0.,15.,458.,0.,0.,498.,0.182134729108,0.971385221911,196.705507437
0.08214,25.,0.,15.,458.,0.,0.,498.,0.182134729108,0.971385221911,196.705507437
