t,s,e,i,r,c,o,n,reff,coal,reportr
0.,434.,0.,10.,56.,0.,0.,500.,2.5929768521,20.7438148168,1866.94333351
0.002738,424.,0.,13.,63.,0.,0.,500.,2.53323084168,15.5891128719,2371.10406781
0.005476,416.,0.,19.,65.,0.,0.,500.,2.48543403335,10.4649854036,3400.07375762
0.008214,397.,0.,32.,71.,0.,0.,500.,2.37191661355,5.92979153388,5464.89587763
0.010952,378.,0.,48.,74.,0.,0.,500.,2.25839919376,3.76399865627,7805.02761364
0.01369,348.,0.,75.,77.,0.,0.,500.,2.07916116251,2.21777190668,11227.4702776
0.016428,301.,0.,94.,104.,0.,0.,499.,1.80195883121,1.53358198401,12195.6573696
0.019166,271.,0.,108.,120.,0.,0.,499.,1.62236160551,1.20174933742,12615.4838445
0.021904,229.,0.,138.,132.,0.,0.,499.,1.37092548953,0.794739414219,13621.5156639
0.024642,185.,0.,133.,181.,0.,0.,499.,1.10751622516,0.666175173031,10605.5753722
0.02738,165.,0.,122.,212.,0.,0.,499.,0.987784741363,0.647727699254,8676.70116813
0.030118,149.,0.,121.,229.,0.,0.,499.,0.891999554321,0.589751771452,7771.10011725
0.032856,115.,0.,126.,258.,0.,0.,499.,0.688456031859,0.437114940863,6245.67312102
0.035594,105.,0.,117.,277.,0.,0.,499.,0.628590289958,0.429805326467,5295.24460261
0.038332,94.,0.,109.,296.,0.,0.,499.,0.562737973867,0.413018696416,4416.36761891
0.04107,76.,0.,98.,325.,0.,0.,499.,0.454979638446,0.371411949752,3210.33632887
0.043808,67.,0.,90.,342.,0.,0.,499.,0.401100470735,0.356533751765,2599.13105036
0.046546,58.,0.,79.,362.,0.,0.,499.,0.347221303024,0.351616509392,1974.9947716
0.049284,48.,0.,65.,386.,0.,0.,499.,0.287355561124,0.353668382921,1344.82402606
0.052022,46.,0.,61.,392.,0.,0.,499.,0.275382412743,0.361157262614,1209.47955677
0.05476,41.,0.,57.,401.,0.,0.,499.,0.245449541793,0.344490584973,1007.32491952
0.057498,36.,0.,50.,413.,0.,0.,499.,0.215516670843,0.344826673348,775.860015034
0.060236,33.,0.,45.,421.,0.,0.,499.,0.197556948273,0.351212352484,640.084512403
0.062974,33.,0.,37.,429.,0.,0.,499.,0.197556948273,0.427150158427,526.291710198
0.065712,28.,0.,31.,440.,0.,0.,499.,0.167624077322,0.432578264057,374.136940583
0.06845,28.,0.,26.,445.,0.,0.,499.,0.167624077322,0.51576639176,313.792272747
0.071188,25.,0.,26.,448.,0.,0.,499.,0.149664354752,0.460505706929,280.171672096
0.073926,25.,0.,21.,453.,0.,0.,499.,0.149664354752,0.570149922864,226.292504385
0.076664,25.,0.,19.,455.,0.,0.,499.,0.149664354752,0.630165704219,204.740837301
0.079402,25.,0.,16.,458.,0.,0.,499.,0.149664354752,0.74832177376,172.413336674
0.08214,25.,0.,15.,459.,0.,0.,499.,0.149664354752,0.79820989201,161.637503132
