t,s,e,i,r,c,o,n,reff,coal,reportr
0.,478.,0.,9.,13.,0.,0.,500.,2.45343063355,21.8082722982,1589.82305054
0.002738,472.,0.,13.,15.,0.,0.,500.,2.42263443313,14.9085195885,2267.58582941
0.005476,463.,0.,18.,19.,0.,0.,500.,2.3764401325,10.5619561444,3079.86641171
0.008214,439.,0.,34.,27.,0.,0.,500.,2.25325533081,5.30177724897,5515.96904983
0.010952,417.,0.,55.,27.,0.,0.,499.,2.14462517963,3.11945480673,8492.71571132
0.01369,388.,0.,78.,33.,0.,0.,499.,1.9954785844,2.04664470195,11206.60773
0.016428,337.,0.,99.,63.,0.,0.,499.,1.73318629624,1.40055458282,12354.1519196
0.019166,307.,0.,114.,78.,0.,0.,499.,1.57889671498,1.10799769472,12959.5842365
0.021904,273.,0.,136.,90.,0.,0.,499.,1.40403518954,0.82590305267,13748.312576
0.024642,220.,0.,139.,140.,0.,0.,499.,1.1314569293,0.65119823269,11323.6209484
0.02738,207.,0.,120.,172.,0.,0.,499.,1.06459811075,0.709732073833,9198.12767688
0.030118,185.,0.,120.,194.,0.,0.,499.,0.95145241782,0.63430161188,8220.54888996
0.032856,147.,0.,127.,225.,0.,0.,499.,0.756018948214,0.476232408323,6913.03726246
0.035594,132.,0.,116.,251.,0.,0.,499.,0.678874157579,0.468189074193,5669.9569641
0.038332,120.,0.,108.,271.,0.,0.,499.,0.617158325072,0.457154314868,4799.02313576
0.04107,101.,0.,94.,304.,0.,0.,499.,0.519441590269,0.442077949165,3515.58068294
0.043808,98.,0.,85.,316.,0.,0.,499.,0.504012632142,0.474364830252,3084.55730871
0.046546,93.,0.,73.,333.,0.,0.,499.,0.478297701931,0.52416186513,2513.93272135
0.049284,84.,0.,62.,353.,0.,0.,499.,0.432010827551,0.557433325872,1928.49633419
0.052022,73.,0.,65.,361.,0.,0.,499.,0.375437981086,0.462077515182,1757.04975148
0.05476,70.,0.,56.,373.,0.,0.,499.,0.360009022959,0.514298604227,1451.55638057
0.057498,64.,0.,52.,383.,0.,0.,499.,0.329151106705,0.506386318008,1232.3417435
0.060236,62.,0.,49.,388.,0.,0.,499.,0.318865134621,0.520596138156,1124.95619494
0.062974,61.,0.,39.,399.,0.,0.,499.,0.313722148578,0.643532612469,880.931793208
0.065712,57.,0.,35.,407.,0.,0.,499.,0.293150204409,0.670057610078,738.738515111
0.06845,57.,0.,28.,414.,0.,0.,499.,0.293150204409,0.837572012598,590.990812089
0.071188,56.,0.,26.,417.,0.,0.,499.,0.288007218367,0.886176056514,539.149512783
0.073926,56.,0.,19.,424.,0.,0.,499.,0.288007218367,1.21266197207,393.993874726
0.076664,54.,0.,17.,428.,0.,0.,499.,0.277721246283,1.30692351192,339.93080545
0.079402,51.,0.,15.,433.,0.,0.,499.,0.262292288156,1.3988922035,283.275671208
0.08214,51.,0.,15.,433.,0.,0.,499.,0.262292288156,1.3988922035,283.275671208
