t,s,e,i,r,c,o,n,reff,coal,reportr
0.,469.,0.,8.,23.,0.,0.,500.,2.94989363428,29.4989363428,1699.13873335
0.002738,459.,0.,15.,26.,0.,0.,500.,2.88699611543,15.3973126156,3117.95580466
0.005476,453.,0.,20.,27.,0.,0.,500.,2.84925760411,11.3970304165,4102.93094992
0.008214,424.,0.,34.,42.,0.,0.,500.,2.66685479943,6.27495246926,6528.46054902
0.010952,401.,0.,53.,46.,0.,0.,500.,2.52219050607,3.80708000916,9624.67897116
0.01369,369.,0.,79.,52.,0.,0.,500.,2.32091844573,2.35029716024,13201.3841193
0.016428,320.,0.,98.,82.,0.,0.,500.,2.01272060335,1.64303722722,14201.7565772
0.019166,282.,0.,117.,101.,0.,0.,500.,1.7737100317,1.21279318407,14941.733307
0.021904,245.,0.,138.,117.,0.,0.,500.,1.54098921194,0.893327079384,15311.2688098
0.024642,191.,0.,136.,173.,0.,0.,500.,1.20134261012,0.706672123602,11763.5468383
0.02738,174.,0.,128.,198.,0.,0.,500.,1.09441682807,0.684010517544,10086.1454875
0.030118,156.,0.,116.,228.,0.,0.,500.,0.981201294132,0.676690547677,8194.99320859
0.032856,117.,0.,122.,261.,0.,0.,500.,0.735900970599,0.482558013507,6464.15412574
0.035594,103.,0.,118.,279.,0.,0.,500.,0.647844444202,0.439216572341,5504.08639794
0.038332,84.,0.,112.,304.,0.,0.,500.,0.528339158379,0.377385113128,4260.52697316
0.04107,68.,0.,95.,337.,0.,0.,500.,0.427703128211,0.360171055336,2925.48939696
0.043808,65.,0.,85.,350.,0.,0.,500.,0.408833872555,0.384784821228,2502.06330004
0.046546,61.,0.,77.,362.,0.,0.,500.,0.383674865013,0.398623236377,2127.09345163
0.049284,49.,0.,60.,391.,0.,0.,500.,0.308197842388,0.410930456517,1331.41467911
0.052022,42.,0.,64.,394.,0.,0.,500.,0.264169579189,0.330211973987,1217.2934209
0.05476,37.,0.,61.,402.,0.,0.,500.,0.232720819762,0.305207632475,1022.10984039
0.057498,31.,0.,53.,416.,0.,0.,500.,0.194982308449,0.294312918414,744.052489042
0.060236,28.,0.,51.,421.,0.,0.,500.,0.176113052793,0.276255769087,646.687129855
0.062974,28.,0.,36.,436.,0.,0.,500.,0.176113052793,0.39136233954,456.485032839
0.065712,25.,0.,33.,442.,0.,0.,500.,0.157243797136,0.381197083967,373.611261996
0.06845,24.,0.,28.,448.,0.,0.,500.,0.150954045251,0.431297272146,304.323355226
0.071188,23.,0.,23.,454.,0.,0.,500.,0.144664293366,0.503180150837,239.564069813
0.073926,22.,0.,22.,456.,0.,0.,500.,0.13837454148,0.503180150837,219.185273704
0.076664,21.,0.,21.,458.,0.,0.,500.,0.132084789595,0.503180150837,199.712201867
0.079402,21.,0.,16.,463.,0.,0.,500.,0.132084789595,0.660423947973,152.161677613
0.08214,21.,0.,16.,463.,0.,0.,500.,0.132084789595,0.660423947973,152.161677613
