t,s,e,i,r,c,o,n,reff,coal,reportr
0.,464.,0.,8.,28.,0.,0.,500.,2.85174010526,28.5174010526,1642.60230063
0.002738,458.,0.,12.,30.,0.,0.,500.,2.81486415562,18.7657610375,2432.04263045
0.005476,452.,0.,17.,31.,0.,0.,500.,2.77798820598,13.0728856752,3400.25756412
0.008214,427.,0.,35.,38.,0.,0.,500.,2.62433841583,5.99848780761,6613.33280789
0.010952,404.,0.,53.,43.,0.,0.,500.,2.48298060889,3.7478952587,9475.05400351
0.01369,377.,0.,75.,48.,0.,0.,500.,2.31703883552,2.47150809122,12512.0097118
0.016428,325.,0.,102.,73.,0.,0.,500.,1.997447272,1.56662531137,14669.2527656
0.019166,296.,0.,114.,90.,0.,0.,500.,1.81921351542,1.27664106345,14932.1045346
0.021904,258.,0.,137.,105.,0.,0.,500.,1.58566583439,0.925936253657,15641.0077904
0.024642,212.,0.,134.,154.,0.,0.,500.,1.3029502205,0.777880728659,12570.8637274
0.02738,188.,0.,122.,190.,0.,0.,500.,1.15544642196,0.75766978489,10149.4413705
0.030118,171.,0.,117.,212.,0.,0.,500.,1.05096456465,0.718608249335,8853.32549263
0.032856,136.,0.,119.,245.,0.,0.,500.,0.835854858437,0.561919232563,7161.60442709
0.035594,116.,0.,123.,261.,0.,0.,500.,0.712935026314,0.46369757809,6313.75259303
0.038332,104.,0.,112.,284.,0.,0.,500.,0.63918312704,0.456559376457,5154.37273645
0.04107,81.,0.,96.,323.,0.,0.,500.,0.497825320098,0.414854433415,3440.96861252
0.043808,78.,0.,86.,336.,0.,0.,500.,0.47938734528,0.445941716539,2968.36644197
0.046546,74.,0.,77.,349.,0.,0.,500.,0.454803378855,0.472522991019,2521.42993237
0.049284,61.,0.,66.,373.,0.,0.,500.,0.374905487975,0.454430894516,1781.55087886
0.052022,56.,0.,63.,381.,0.,0.,500.,0.344175529945,0.437048291993,1561.18020383
0.05476,54.,0.,57.,389.,0.,0.,500.,0.331883546732,0.465801469098,1362.05007579
0.057498,42.,0.,53.,405.,0.,0.,500.,0.258131647458,0.389632675409,985.030366701
0.060236,36.,0.,50.,414.,0.,0.,500.,0.221255697822,0.354009116514,796.520512157
0.062974,36.,0.,41.,423.,0.,0.,500.,0.221255697822,0.431718434774,653.146819969
0.065712,31.,0.,34.,435.,0.,0.,500.,0.190525739791,0.448295858331,466.407011008
0.06845,30.,0.,25.,445.,0.,0.,500.,0.184379748185,0.590015194191,331.883546732
0.071188,30.,0.,23.,447.,0.,0.,500.,0.184379748185,0.641320863251,305.332862994
0.073926,30.,0.,21.,449.,0.,0.,500.,0.184379748185,0.702399040703,278.782179255
0.076664,30.,0.,18.,452.,0.,0.,500.,0.184379748185,0.819465547487,238.956153647
0.079402,29.,0.,16.,455.,0.,0.,500.,0.178233756578,0.891168782892,205.325287578
0.08214,30.,0.,16.,455.,0.,0.,501.,0.184011724735,0.920058623676,211.981506895
