t,s,e,i,r,c,o,n,reff,coal,reportr
0.,489.,0.,8.,3.,0.,0.,500.,2.89424507568,28.9424507568,1667.08516359
0.002738,479.,0.,14.,7.,0.,0.,500.,2.83505805981,16.2003317704,2857.73852429
0.005476,475.,0.,17.,8.,0.,0.,500.,2.81138325347,13.2300388398,3441.13310224
0.008214,456.,0.,32.,12.,0.,0.,500.,2.69892792333,6.74731980832,6218.32993535
0.010952,434.,0.,50.,16.,0.,0.,500.,2.56871648843,4.10994638149,9247.37935835
0.01369,404.,0.,78.,18.,0.,0.,500.,2.39115544084,2.45246711881,13428.7289558
0.016428,350.,0.,103.,46.,0.,0.,499.,2.07569694909,1.61219180511,15393.3685744
0.019166,311.,0.,118.,70.,0.,0.,499.,1.84440500333,1.25044407005,15670.0649083
0.021904,272.,0.,135.,92.,0.,0.,499.,1.61311305757,0.955918848933,15679.4589196
0.024642,217.,0.,132.,150.,0.,0.,499.,1.28693210843,0.779958853596,12231.0027585
0.02738,201.,0.,119.,179.,0.,0.,499.,1.19204310505,0.801373515997,10213.425324
0.030118,177.,0.,121.,201.,0.,0.,499.,1.04970959997,0.694022876011,9145.0700349
0.032856,137.,0.,123.,239.,0.,0.,499.,0.812487091499,0.52844688878,7195.38568232
0.035594,118.,0.,121.,260.,0.,0.,499.,0.699806399977,0.46268191734,6096.7133566
0.038332,108.,0.,107.,284.,0.,0.,499.,0.640500772861,0.478879082513,4934.41795412
0.04107,88.,0.,93.,318.,0.,0.,499.,0.521889518627,0.448937220324,3494.57221673
0.043808,82.,0.,80.,337.,0.,0.,499.,0.486306142357,0.486306142357,2801.12337998
0.046546,75.,0.,78.,346.,0.,0.,499.,0.444792203375,0.456197131667,2497.95301416
0.049284,65.,0.,65.,369.,0.,0.,499.,0.385486576259,0.474445016934,1804.07717689
0.052022,63.,0.,60.,376.,0.,0.,499.,0.373625450835,0.49816726778,1614.06194761
0.05476,55.,0.,58.,386.,0.,0.,499.,0.326180949142,0.449904757437,1362.13164362
0.057498,48.,0.,54.,397.,0.,0.,499.,0.28466701016,0.421728903941,1106.7853355
0.060236,43.,0.,52.,404.,0.,0.,499.,0.255014196602,0.392329533234,954.773152077
0.062974,41.,0.,39.,419.,0.,0.,499.,0.243153071179,0.498775530623,682.773823869
0.065712,40.,0.,30.,429.,0.,0.,499.,0.237222508467,0.632593355912,512.400618288
0.06845,39.,0.,26.,434.,0.,0.,499.,0.231291945755,0.711667525401,432.978522454
0.071188,36.,0.,24.,439.,0.,0.,499.,0.21350025762,0.711667525401,368.928445168
0.073926,35.,0.,20.,444.,0.,0.,499.,0.207569694909,0.830278779634,298.900360668
0.076664,35.,0.,19.,445.,0.,0.,499.,0.207569694909,0.873977662773,283.955342635
0.079402,34.,0.,15.,450.,0.,0.,499.,0.201639132197,1.07540870505,217.770262773
0.08214,33.,0.,16.,450.,0.,0.,499.,0.195708569485,0.978542847426,225.456272047
