t,s,e,i,r,c,o,n,reff,coal,reportr
0.,471.,0.,9.,20.,0.,0.,500.,2.738132761,24.3389578755,1774.31002913
0.002738,463.,0.,14.,23.,0.,0.,500.,2.69162519818,15.3807154181,2713.15819976
0.005476,455.,0.,17.,28.,0.,0.,500.,2.64511763536,12.4476124017,3237.62398568
0.008214,434.,0.,32.,34.,0.,0.,500.,2.52303528296,6.30758820739,5813.07329193
0.010952,408.,0.,50.,41.,0.,0.,499.,2.37663898176,3.80262237081,8555.90033432
0.01369,377.,0.,78.,44.,0.,0.,499.,2.19606101991,2.25237027683,12333.0786878
0.016428,320.,0.,97.,82.,0.,0.,499.,1.86403057393,1.53734480324,13018.3895283
0.019166,291.,0.,112.,96.,0.,0.,499.,1.69510280316,1.21078771655,13669.3090047
0.021904,256.,0.,133.,110.,0.,0.,499.,1.49122445914,0.89697711828,14279.9654207
0.024642,196.,0.,130.,173.,0.,0.,499.,1.14171872653,0.702596139403,10686.4872803
0.02738,179.,0.,121.,199.,0.,0.,499.,1.04269210229,0.689383208126,9083.93359515
0.030118,164.,0.,117.,218.,0.,0.,499.,0.955315669137,0.653207295137,8047.57919681
0.032856,123.,0.,121.,255.,0.,0.,499.,0.716486751853,0.473710249159,6242.03258214
0.035594,104.,0.,117.,278.,0.,0.,499.,0.605809936526,0.414229016428,5103.3429053
0.038332,92.,0.,112.,295.,0.,0.,499.,0.535908790004,0.38279199286,4321.56848259
0.04107,72.,0.,95.,332.,0.,0.,499.,0.419406879133,0.353184740323,2868.74305327
0.043808,71.,0.,85.,343.,0.,0.,499.,0.41358178359,0.389253443379,2531.12051557
0.046546,68.,0.,74.,357.,0.,0.,499.,0.396106496959,0.428223239956,2110.4554158
0.049284,59.,0.,64.,376.,0.,0.,499.,0.343680637068,0.429600796335,1583.68037561
0.052022,54.,0.,64.,381.,0.,0.,499.,0.31455515935,0.393193949188,1449.47017428
0.05476,50.,0.,56.,393.,0.,0.,499.,0.291254777176,0.416078253109,1174.33926157
0.057498,46.,0.,50.,403.,0.,0.,499.,0.267954395002,0.428727032003,964.635822007
0.060236,45.,0.,45.,409.,0.,0.,499.,0.262129299458,0.466007643482,849.298930245
0.062974,42.,0.,37.,420.,0.,0.,499.,0.244654012828,0.528981649357,651.758290173
0.065712,38.,0.,29.,432.,0.,0.,499.,0.221353630654,0.610630705252,462.186380805
0.06845,37.,0.,27.,435.,0.,0.,499.,0.21552853511,0.638603066993,418.987472254
0.071188,35.,0.,23.,441.,0.,0.,499.,0.203878344023,0.709142066168,337.622537702
0.073926,35.,0.,20.,444.,0.,0.,499.,0.203878344023,0.815513376093,293.584815393
0.076664,35.,0.,16.,448.,0.,0.,499.,0.203878344023,1.01939172012,234.867852315
0.079402,32.,0.,15.,452.,0.,0.,499.,0.186403057393,0.994149639427,201.315301984
0.08214,31.,0.,16.,452.,0.,0.,499.,0.180577961849,0.902889809245,208.02581205
