t,prevalence
2013.75,0
2013.77,0
2013.79,1
2013.81,0
2013.83,2
2013.85,4
2013.87,10
2013.89,15
2013.91,25
2013.93,50
2013.95,51
2013.97,45
2013.99,40
2014.01,21
2014.03,14
2014.05,9
2014.07,4
2014.09,3
2014.11,0
2014.13,0
2014.15,0
2014.17,0
2014.19,0
2014.21,0
2014.23,1
2014.25,0
