t,cases
2013.77,0.
2013.79,0.206538706892
2013.81,0.593247364193
2013.83,1.41354992824
2013.85,3.13917829812
2013.87,6.69986101965
2013.89,13.7516250776
2013.91,26.5748566102
2013.93,46.1953668484
2013.95,67.4658533135
2013.97,77.4508705303
2013.99,68.4797389609
2014.01,48.683381498
2014.03,29.947807347
2014.05,17.0022736356
2014.07,9.29228589967
2014.09,5.0088686205
2014.11,2.70071388764
2014.13,1.4710855134
2014.15,0.817415392419
2014.17,0.46913143831
2014.19,0.282820015628
2014.21,0.182769444445
2014.23,0.128937420568
2014.25,0.100047558499
