t,prevalence
2013.75,0
2013.77,0
2013.79,0
2013.81,1
2013.83,1
2013.85,6
2013.87,6
2013.89,11
2013.91,28
2013.93,29
2013.95,58
2013.97,44
2013.99,41
2014.01,18
2014.03,14
2014.05,5
2014.07,4
2014.09,2
2014.11,0
2014.13,1
2014.15,0
2014.17,0
2014.19,0
2014.21,0
2014.23,0
2014.25,0
