t,neff
2013.75,0.
2013.77,0.0173128523971
2013.79,0.0505338997298
2013.81,0.122777239752
2013.83,0.279254324188
2013.85,0.614702900895
2013.87,1.31769139236
2013.89,2.72077712463
2013.91,5.24979414834
2013.93,8.96345041482
2013.95,12.5954379769
2013.97,13.7417066366
2013.99,11.5928484546
2014.01,7.96489709304
2014.03,4.78621404441
2014.05,2.66985735964
2014.07,1.43837703817
2014.09,0.766983269854
2014.11,0.411529796231
2014.13,0.225407385043
2014.15,0.128125350073
2014.17,0.0771457102274
2014.19,0.0503174264224
2014.21,0.0361445173828
2014.23,0.0286467641915
2014.25,0.0246970566392
