t,s,e,i,r,c,o,n,reff,coal,reportr
2013.75,17000,0,0,0,0,0,17000,1.97671,inf,0
2013.77,16997.6,1.59037,0.595895,0.219879,0,0,17000,1.97643,123.96,5.17493
2013.79,16985.9,6.17306,3.78834,4.14333,0,0,17000,1.97507,31.9139,20.0866
2013.81,16954.8,16.3246,10.9852,17.8865,0,0,17000,1.97146,12.046,53.1188
2013.83,16880.6,38.8395,26.9926,53.5313,0,0,17000,1.96283,5.04089,126.381
2013.85,16712.3,87.994,62.165,137.572,0,0,17000,1.94326,2.2028,286.325
2013.87,16344.6,191.573,137.358,326.48,0,0,17000,1.9005,0.989539,623.361
2013.89,15584.8,393.519,288.731,732.921,0,0,17000,1.81216,0.459334,1280.48
2013.91,14165.3,727.243,557.012,1550.44,0,0,17000,1.6471,0.225912,2366.39
2013.93,11946.1,1118.49,924.473,3010.95,0,0,17000,1.38906,0.123876,3639.48
2013.95,9291.38,1318.7,1222.13,5167.8,0,0,17000,1.08038,0.0817197,4290.94
2013.97,6968.22,1158.09,1230.36,7643.33,0,0,17000,0.810245,0.0697868,3768.32
2013.99,5417.37,797.291,962.334,9823.01,0,0,17000,0.629917,0.0788069,2594.32
2014.01,4550.64,469.859,624.21,11355.3,0,0,17000,0.529136,0.112331,1528.88
2014.03,4115.36,255.258,360.127,12269.3,0,0,17000,0.478523,0.186991,830.59
2014.05,3916.92,133.831,194.905,12754.3,0,0,17000,0.455449,0.339454,435.474
2014.07,3841.89,69.4235,102.413,12986.3,0,0,17000,0.446725,0.641847,225.898
2014.09,3830.03,36.1358,53.3502,13080.5,0,0,17000,0.445346,1.2293,117.583
2014.11,3850.36,19.0686,27.9305,13102.6,0,0,17000,0.447709,2.34193,62.0477
2014.13,3887.06,10.3154,14.8638,13087.8,0,0,17000,0.451976,4.37046,33.5655
2014.15,3932.09,5.80879,8.14751,13054,0,0,17000,0.457212,7.85109,18.9013
2014.17,3981.32,3.47723,4.68356,13010.5,0,0,17000,0.462936,13.2796,11.3146
2014.19,4032.62,2.26627,2.88958,12962.2,0,0,17000,0.468902,20.638,7.37426
2014.21,4084.89,1.63699,1.95802,12911.5,0,0,17000,0.47498,28.9419,5.32662
2014.23,4137.55,1.31214,1.47517,12859.7,0,0,17000,0.481103,36.5725,4.26961
2014.25,4190.29,1.14808,1.22775,12807.3,0,0,17000,0.487236,42.3317,3.73575
