t,neff
2013.75,0.
2013.77,0.0169751942476
2013.79,0.0485308434916
2013.81,0.115339126535
2013.83,0.256275567247
2013.85,0.550832743616
2013.87,1.15425370124
2013.89,2.33947780018
2013.91,4.47519468299
2013.93,7.71978881584
2013.95,11.2632576704
2013.97,13.0910747072
2013.99,11.8924354558
2014.01,8.74407636341
2014.03,5.54453326221
2014.05,3.2193966909
2014.07,1.78680953574
2014.09,0.974132693378
2014.11,0.530971917748
2014.13,0.293365673621
2014.15,0.166632092904
2014.17,0.0989878065069
2014.19,0.0627614631363
2014.21,0.0432839915122
2014.23,0.0327828232298
2014.25,0.0271248348083
