t,s,e,i,r,c,o,n,reff,coal,reportr
2013.75,17000,0,0,0,0,0,17000,2.00567,inf,0
2013.77,16997.6,1.60661,0.600149,0.219602,0,0,17000,2.00539,123.603,5.00218
2013.79,16985.7,6.29514,3.85188,4.16557,0,0,17000,2.00399,31.5233,19.5999
2013.81,16953.7,16.8455,11.2973,18.1293,0,0,17000,2.00021,11.758,52.4486
2013.83,16876.5,40.6083,28.1163,54.7872,0,0,17000,1.9911,4.85535,126.434
2013.85,16698.8,93.2527,65.6291,142.363,0,0,17000,1.97013,2.09207,290.343
2013.87,16305.7,205.573,146.906,341.848,0,0,17000,1.92376,0.926671,640.053
2013.89,15485.9,425.982,312.008,776.09,0,0,17000,1.82704,0.424717,1326.3
2013.91,13953,787.182,604.135,1655.65,0,0,17000,1.64619,0.207084,2450.89
2013.93,11590.6,1192.32,994.119,3222.94,0,0,17000,1.36747,0.113571,3712.3
2013.95,8856.04,1361.2,1283.24,5499.52,0,0,17000,1.04484,0.07601,4238.1
2013.97,6567.12,1147.93,1248.37,8036.58,0,0,17000,0.774794,0.0668362,3574.09
2013.99,5102.76,761.619,942.687,10192.9,0,0,17000,0.602028,0.0782745,2371.31
2014.01,4311.58,436.376,593.531,11658.5,0,0,17000,0.508684,0.115433,1358.66
2014.03,3925.77,232.318,334.612,12507.3,0,0,17000,0.463165,0.197422,723.324
2014.05,3756.48,120.002,177.938,12945.6,0,0,17000,0.443193,0.365717,373.628
2014.07,3698.03,61.5379,92.2273,13148.2,0,0,17000,0.436297,0.702071,191.599
2014.09,3695.56,31.7415,47.5229,13225.2,0,0,17000,0.436005,1.36021,98.8274
2014.11,3721.29,16.6371,24.6664,13237.4,0,0,17000,0.439041,2.61318,51.7997
2014.13,3761.21,8.96713,13.0472,13216.8,0,0,17000,0.443751,4.90036,27.9192
2014.15,3808.28,5.05431,7.13372,13179.5,0,0,17000,0.449304,8.80278,15.7366
2014.17,3858.89,3.04795,4.11198,13134,0,0,17000,0.455275,14.7913,9.48981
2014.19,3911.22,2.01547,2.56128,13084.2,0,0,17000,0.461448,22.6719,6.27518
2014.21,3964.31,1.4845,1.76381,13032.4,0,0,17000,0.467713,31.199,4.622
2014.23,4017.69,1.21406,1.35514,12979.7,0,0,17000,0.47401,38.6624,3.77999
2014.25,4071.09,1.08025,1.14895,12926.7,0,0,17000,0.48031,44.0289,3.36338
