t,prevalence
2013.75,0
2013.77,0
2013.79,0
2013.81,0
2013.83,2
2013.85,3
2013.87,4
2013.89,19
2013.91,19
2013.93,38
2013.95,45
2013.97,33
2013.99,34
2014.01,21
2014.03,12
2014.05,5
2014.07,5
2014.09,5
2014.11,1
2014.13,0
2014.15,1
2014.17,0
2014.19,0
2014.21,0
2014.23,0
2014.25,0
