t,prevalence
2013.75,0
2013.77,0
2013.79,0
2013.81,2
2013.83,4
2013.85,5
2013.87,8
2013.89,15
2013.91,31
2013.93,42
2013.95,43
2013.97,57
2013.99,44
2014.01,24
2014.03,19
2014.05,2
2014.07,1
2014.09,1
2014.11,1
2014.13,0
2014.15,0
2014.17,1
2014.19,0
2014.21,0
2014.23,0
2014.25,0
