t,s,e,i,r,c,o,n,reff,coal,reportr
2013.75,17000,0,0,0,0,0,17000,1.99331,inf,0
2013.77,16997.6,1.56801,0.595052,0.215122,0,0,17000,1.99304,124.317,5.49777
2013.79,16986,6.0887,3.801,4.06861,0,0,17000,1.99168,31.9932,21.3482
2013.81,16955.1,16.1644,11.0746,17.6268,0,0,17000,1.98805,12.0291,56.6757
2013.83,16881,38.6539,27.3564,52.9685,0,0,17000,1.97936,5.00836,135.529
2013.85,16711.8,88.0658,63.3621,136.755,0,0,17000,1.95952,2.17624,308.777
2013.87,16340.2,192.826,140.828,326.187,0,0,17000,1.91595,0.97181,676.087
2013.89,15568.1,398.126,297.694,736.112,0,0,17000,1.82542,0.44844,1395.91
2013.91,14120.2,738.098,576.87,1564.81,0,0,17000,1.65565,0.21939,2587.93
2013.93,11856.9,1134.18,959.093,3049.85,0,0,17000,1.39026,0.119888,3976.69
2013.95,9164.57,1328.57,1264.85,5242.01,0,0,17000,1.07458,0.0791076,4658.23
2013.97,6833.16,1154.27,1265.55,7747.03,0,0,17000,0.801214,0.0678897,4047.11
2013.99,5295.36,785.501,982.152,9936.99,0,0,17000,0.620901,0.0773104,2754.13
2014.01,4445.07,458.339,632.274,11464.3,0,0,17000,0.521201,0.11122,1607.03
2014.03,4022.12,247.102,362.412,12368.4,0,0,17000,0.471609,0.186668,866.391
2014.05,3831.55,128.806,195.075,12844.6,0,0,17000,0.449264,0.341136,451.621
2014.07,3761.27,66.5152,102.029,13070.2,0,0,17000,0.441023,0.64849,233.216
2014.09,3752.27,34.4941,52.9355,13160.3,0,0,17000,0.439968,1.24749,120.944
2014.11,3774.36,18.1458,27.6127,13179.9,0,0,17000,0.442558,2.38538,63.6229
2014.13,3812.21,9.79124,14.6462,13163.4,0,0,17000,0.446996,4.46508,34.3301
2014.15,3858.05,5.50352,8.00448,13128.4,0,0,17000,0.452371,8.03927,19.2965
2014.17,3907.89,3.29177,4.59004,13084.2,0,0,17000,0.458216,13.6145,11.5416
2014.19,3959.71,2.14637,2.8271,13035.3,0,0,17000,0.464291,21.1567,7.52562
2014.21,4012.43,1.55294,1.91443,12984.1,0,0,17000,0.470473,29.6308,5.44493
2014.23,4065.51,1.24768,1.44286,12931.8,0,0,17000,0.476696,37.3683,4.37461
2014.25,4118.65,1.09423,1.2021,12879.1,0,0,17000,0.482928,43.1653,3.83661
