t,prevalence
2013.75,0
2013.77,0
2013.79,0
2013.81,0
2013.83,1
2013.85,6
2013.87,5
2013.89,11
2013.91,25
2013.93,31
2013.95,49
2013.97,49
2013.99,35
2014.01,20
2014.03,10
2014.05,9
2014.07,1
2014.09,2
2014.11,1
2014.13,1
2014.15,0
2014.17,0
2014.19,0
2014.21,0
2014.23,0
2014.25,0
