t,s,e,i,r,c,o,n,reff,coal,reportr
2013.75,17000,0,0,0,0,0,17000,2.03855,inf,0
2013.77,16997.5,1.64149,0.608168,0.222331,0,0,17000,2.03825,122.978,5.03511
2013.79,16985.3,6.52138,3.94798,4.24923,0,0,17000,2.03678,30.9322,20.0037
2013.81,16951.8,17.7275,11.7485,18.6837,0,0,17000,2.03277,11.3565,54.3776
2013.83,16869.6,43.4685,29.7224,57.1701,0,0,17000,2.02291,4.60902,133.336
2013.85,16677.2,101.556,70.5764,150.677,0,0,17000,1.99984,1.95027,311.514
2013.87,16244.8,227.347,160.546,367.26,0,0,17000,1.94799,0.848601,697.366
2013.89,15334.1,475.537,345.016,845.358,0,0,17000,1.83878,0.382958,1458.67
2013.91,13635.9,875.123,668.935,1820.07,0,0,17000,1.63514,0.185051,2684.36
2013.93,11083.9,1291.05,1082.17,3542.91,0,0,17000,1.32912,0.101959,3960.19
2013.95,8275.09,1403.99,1344.67,5976.25,0,0,17000,0.992304,0.069998,4306.62
2013.97,6067.18,1119.23,1244.19,8569.4,0,0,17000,0.727543,0.0643794,3433.12
2013.99,4731.7,707.694,895.074,10665.5,0,0,17000,0.5674,0.0794053,2170.79
2014.01,4040.65,391.497,541.759,12026.1,0,0,17000,0.484533,0.122575,1200.88
2014.03,3716.73,203.331,296.453,12783.5,0,0,17000,0.44569,0.217087,623.7
2014.05,3582.69,103.138,154.16,13160,0,0,17000,0.429617,0.412544,316.365
2014.07,3543.82,52.1508,78.541,13325.5,0,0,17000,0.424955,0.807027,159.968
2014.09,3552.22,26.607,39.9285,13381.2,0,0,17000,0.425963,1.58556,81.6144
2014.11,3584.1,13.8413,20.5141,13381.5,0,0,17000,0.429785,3.07526,42.4568
2014.13,3627.63,7.44059,10.7834,13354.1,0,0,17000,0.435005,5.79019,22.8233
2014.15,3676.92,4.21406,5.89368,13313,0,0,17000,0.440916,10.3624,12.9262
2014.17,3729.03,2.57915,3.42516,13265,0,0,17000,0.447164,17.1711,7.91129
2014.19,3782.44,1.74843,2.17379,13213.6,0,0,17000,0.45357,25.6922,5.36315
2014.21,3836.41,1.32761,1.5389,13160.7,0,0,17000,0.460041,34.3188,4.07232
2014.23,3890.53,1.11768,1.21896,13107.1,0,0,17000,0.466531,41.34,3.42837
2014.25,3944.61,1.01733,1.06149,13053.3,0,0,17000,0.473016,46.0488,3.12058
