t,prevalence
2013.75,0
2013.77,0
2013.79,0
2013.81,0
2013.83,3
2013.85,2
2013.87,4
2013.89,17
2013.91,28
2013.93,38
2013.95,59
2013.97,54
2013.99,46
2014.01,22
2014.03,17
2014.05,7
2014.07,5
2014.09,3
2014.11,2
2014.13,1
2014.15,1
2014.17,0
2014.19,0
2014.21,0
2014.23,0
2014.25,0
