t,cases
2013.77,0.
2013.79,0.217752511036
2013.81,0.630118746129
2013.83,1.51319693881
2013.85,3.38861032798
2013.87,7.29434296429
2013.89,15.09457115
2013.91,29.3621259318
2013.93,51.1814618276
2013.95,74.4653687967
2013.97,84.5340884555
2013.99,73.5965886103
2014.01,51.5450869202
2014.03,31.3313484174
2014.05,17.6291375626
2014.07,9.56963860479
2014.09,5.13060179428
2014.11,2.75392826328
2014.13,1.49426235541
2014.15,0.827494674465
2014.17,0.473569150094
2014.19,0.284887618278
2014.21,0.183891824834
2014.23,0.129727583894
2014.25,0.100763314414
