t,cases
2013.77,0.
2013.79,0.218688474292
2013.81,0.638486770729
2013.83,1.55273046787
2013.85,3.5264734388
2013.87,7.70022460557
2013.89,16.137271599
2013.91,31.6330329874
2013.93,54.9815954673
2013.95,78.4251516863
2013.97,85.7449850309
2013.99,71.2719663167
2014.01,47.8075741552
2014.03,28.081839454
2014.05,15.4031472509
2014.07,8.20303682321
2014.09,4.33308264874
2014.11,2.29864066878
2014.13,1.23620237995
2014.15,0.681007439021
2014.17,0.389761466756
2014.19,0.236252453722
2014.21,0.155028924481
2014.23,0.112015278722
2014.25,0.0893615654407
