t,neff
2013.75,0.
2013.77,0.0174138744433
2013.79,0.0509969172984
2013.81,0.124312413828
2013.83,0.283728283871
2013.85,0.626776717242
2013.87,1.34824286361
2013.89,2.7922834911
2013.91,5.39779719555
2013.93,9.21208901378
2013.95,12.8960321875
2013.97,13.9738380422
2013.99,11.6943683809
2014.01,7.97603213306
2014.03,4.7650415268
2014.05,2.64628552505
2014.07,1.42085781131
2014.09,0.755668181101
2014.11,0.40467846276
2014.13,0.221399612085
2014.15,0.125833209407
2014.17,0.0758624250313
2014.19,0.0496198260598
2014.21,0.035785180493
2014.23,0.0284828275082
2014.25,0.0246463865165
