t,s,e,i,r,c,o,n,reff,coal,reportr
2013.75,17000,0,0,0,0,0,17000,1.97272,inf,0
2013.77,16997.6,1.57801,0.593728,0.2182,0,0,17000,1.97244,124.17,5.32586
2013.79,16986,6.10584,3.76835,4.10773,0,0,17000,1.97109,32.0688,20.6076
2013.81,16955.3,16.1003,10.9008,17.7038,0,0,17000,1.96753,12.1397,54.3395
2013.83,16882.2,38.1927,26.7116,52.8751,0,0,17000,1.95905,5.09548,128.903
2013.85,16716.8,86.2763,61.3416,135.565,0,0,17000,1.93985,2.23357,291.188
2013.87,16356.5,187.357,135.181,320.923,0,0,17000,1.89805,1.00637,632.342
2013.89,15613.2,384.31,283.638,718.833,0,0,17000,1.81179,0.468325,1297.07
2013.91,14223.3,710.913,547.242,1518.51,0,0,17000,1.65051,0.230633,2399.38
2013.93,12040,1098.79,911.419,2949.77,0,0,17000,1.39715,0.126313,3708.5
2013.95,9403.27,1307.44,1214.02,5075.27,0,0,17000,1.09118,0.0829074,4412.69
2013.97,7067.3,1160.97,1234.79,7536.94,0,0,17000,0.820105,0.0701729,3918.34
2013.99,5490,807.122,975.766,9727.12,0,0,17000,0.637071,0.0784096,2724.09
2014.01,4600.7,479.092,638.343,11281.9,0,0,17000,0.533875,0.110698,1616.97
2014.03,4150.8,261.588,370.662,12216.9,0,0,17000,0.481668,0.182916,882.874
2014.05,3943.82,137.648,201.561,12717,0,0,17000,0.457649,0.330282,464.569
2014.07,3863.99,71.6012,106.287,12958.1,0,0,17000,0.448385,0.622088,241.658
2014.09,3849.45,37.349,55.5176,13057.7,0,0,17000,0.446699,1.18811,126.055
2014.11,3868.28,19.7381,29.1229,13082.9,0,0,17000,0.448883,2.25917,66.6173
2014.13,3904.13,10.6837,15.5166,13069.7,0,0,17000,0.453043,4.21247,36.0583
2014.15,3948.66,6.01133,8.50566,13036.8,0,0,17000,0.458211,7.57208,20.2886
2014.17,3997.58,3.58852,4.88135,12993.9,0,0,17000,0.463888,12.8416,12.1115
2014.19,4048.68,2.32718,2.99998,12946,0,0,17000,0.469818,20.0549,7.85439
2014.21,4100.81,1.66993,2.02061,12895.5,0,0,17000,0.475867,28.3079,5.63612
2014.23,4153.37,1.32946,1.51146,12843.8,0,0,17000,0.481965,36.0133,4.487
2014.25,4206.02,1.15658,1.2495,12791.6,0,0,17000,0.488075,41.9211,3.90352
