t,prevalence
2013.75,0
2013.77,1
2013.79,1
2013.81,1
2013.83,1
2013.85,7
2013.87,7
2013.89,4
2013.91,24
2013.93,41
2013.95,53
2013.97,36
2013.99,39
2014.01,12
2014.03,8
2014.05,5
2014.07,4
2014.09,1
2014.11,2
2014.13,0
2014.15,0
2014.17,0
2014.19,1
2014.21,0
2014.23,0
2014.25,0
