t,neff
2013.75,0.
2013.77,0.0170529232638
2013.79,0.0493571415271
2013.81,0.119072649759
2013.83,0.268965903398
2013.85,0.588119956
2013.87,1.25333548004
2013.89,2.57811024403
2013.91,4.9778985697
2013.93,8.57296531989
2013.95,12.2805476312
2013.97,13.7761069235
2013.99,11.9709390622
2014.01,8.43405881193
2014.03,5.163798001
2014.05,2.9188248273
2014.07,1.58723663498
2014.09,0.851858414563
2014.11,0.458858938577
2014.13,0.251539515663
2014.15,0.142484963466
2014.17,0.0850013152756
2014.19,0.0545774847054
2014.21,0.0384093603023
2014.23,0.0297982051501
2014.25,0.0252227114367
