t,neff
2013.75,0.
2013.77,0.0171679168073
2013.79,0.0499800581557
2013.81,0.12119201791
2013.83,0.275129441421
2013.85,0.604493001175
2013.87,1.29348036656
2013.89,2.66663704095
2013.91,5.14038201609
2013.93,8.77824888938
2013.95,12.3573473672
2013.97,13.5249911734
2013.99,11.4515334733
2014.01,7.89312816964
2014.03,4.75501157881
2014.05,2.65750015733
2014.07,1.43380558397
2014.09,0.765399581204
2014.11,0.411009116132
2014.13,0.225218433717
2014.15,0.128006952995
2014.17,0.0770159196302
2014.19,0.0501574178134
2014.21,0.0359557032901
2014.23,0.0284354091521
2014.25,0.0244691045165
