t,neff
2013.75,0.
2013.77,0.044070155914
2013.79,0.227288252472
2013.81,0.527038812109
2013.83,1.34010040109
2013.85,2.50250180165
2013.87,3.89993713644
2013.89,5.97842474642
2013.91,9.1537508989
2013.93,12.9715411599
2013.95,15.7004200112
2013.97,16.8325136751
2013.99,15.754566222
2014.01,13.1374926173
2014.03,7.66477415075
2014.05,3.61048095994
2014.07,1.88659319771
2014.09,0.998561588618
2014.11,0.640774167696
2014.13,0.375410145609
2014.15,0.356079373581
2014.17,0.372975538895
2014.19,0.203851113049
2014.21,0.110492080801
2014.23,0.054788867329
2014.25,0.0180999424141
