t,neff
2013.75,0.
2013.77,0.0407182592419
2013.79,0.204167847218
2013.81,0.45748494843
2013.83,0.943646787498
2013.85,1.62121590858
2013.87,2.67869200382
2013.89,3.85936924474
2013.91,6.26980597215
2013.93,8.88266993325
2013.95,11.9132785119
2013.97,12.3660451989
2013.99,11.4599511211
2014.01,9.74516600553
2014.03,6.38172024493
2014.05,3.23160303001
2014.07,1.83177574879
2014.09,1.12715503257
2014.11,0.750747158645
2014.13,0.610298833232
2014.15,0.0585052395603
2014.17,0.0965393017531
2014.19,0.0574271768647
2014.21,0.0189567371307
2014.23,0.0941094780683
2014.25,0.0747685197389
