t,cases
2013.77,0.
2013.79,0.230591961344
2013.81,1.53727974229
2013.83,4.30438327842
2013.85,7.84012668569
2013.87,12.2213739512
2013.89,22.2136922764
2013.91,37.2021697634
2013.93,46.963896127
2013.95,61.0300057689
2013.97,54.957750787
2013.99,51.575735354
2014.01,42.3520569002
2014.03,28.900859155
2014.05,13.5280617322
2014.07,9.60799838931
2014.09,6.14911896915
2014.11,2.53651157478
2014.13,1.998463665
2014.15,1.30668778095
2014.17,0.922367845375
2014.19,0.614911896915
2014.21,0.307455948458
2014.23,0.0768639871145
2014.25,0.0768639871145
