t,s,e,i,r,c,o,n,reff,coal,reportr
2013.75,17000,0,0,0,0,0,17000,1.69402,inf,0
2013.77,16997,0,7,0,0,0,17004,1.69332,inf,0
2013.79,16976,5,28,8,0,0,17017,1.68994,33.6027,18.7073
2013.81,16886,44,50,37,0,0,17017,1.68098,3.79824,164.624
2013.83,16680,116,78,144,0,0,17018,1.66037,1.42305,434.009
2013.85,16325,226,137,329,0,0,17017,1.62513,0.714913,845.568
2013.87,15733,378,229,680,0,0,17020,1.56592,0.411862,1414.27
2013.89,14904,534,358,1226,0,0,17022,1.48324,0.276148,1997.94
2013.91,13604,790,575,2057,0,0,17026,1.35354,0.170341,2955.75
2013.93,11934,966,839,3285,0,0,17024,1.18752,0.122219,3614.24
2013.95,9968,1081,956,5018,0,0,17023,0.991951,0.09123,4044.51
2013.97,8335,859,854,6975,0,0,17023,0.829445,0.0959992,3213.91
2013.99,7049,640,737,8601,0,0,17027,0.701306,0.108943,2394.53
2014.01,6212,376,521,9916,0,0,17025,0.618105,0.163436,1406.79
2014.03,5763,216,277,10769,0,0,17025,0.573429,0.263936,808.154
2014.05,5543,106,164,11211,0,0,17024,0.551571,0.517331,396.594
2014.07,5426,77,85,11431,0,0,17019,0.540087,0.697343,288.092
2014.09,5398,51,22,11551,0,0,17022,0.537206,1.04723,190.814
2014.11,5414,28,17,11570,0,0,17029,0.538576,1.91233,104.761
2014.13,5415,28,2,11580,0,0,17025,0.538802,1.91313,104.761
2014.15,5456,17,10,11545,0,0,17028,0.542786,3.17434,63.6047
2014.17,5489,12,1,11529,0,0,17031,0.545973,4.52338,44.8974
2014.19,5534,3,0,11499,0,0,17036,0.550288,18.2365,11.2244
2014.21,5571,0,5,11457,0,0,17033,0.554064,inf,0
2014.23,5622,2,1,11412,0,0,17037,0.559005,27.7881,7.48291
2014.25,5674,2,1,11362,0,0,17039,0.56411,28.0418,7.48291
