t,neff
2013.75,0.
2013.77,0.0129555142472
2013.79,0.0454298718572
2013.81,0.150066130063
2013.83,0.521067340282
2013.85,0.974740939115
2013.87,1.66554096985
2013.89,2.76696104037
2013.91,3.65422415062
2013.93,5.13173442121
2013.95,7.16043635115
2013.97,8.08121721001
2013.99,7.35109594172
2014.01,5.96957725486
2014.03,4.50924160493
2014.05,2.72651061147
2014.07,1.916876571
2014.09,1.22094805953
2014.11,0.463288993376
2014.13,0.337901116455
2014.15,0.283956378396
2014.17,0.123284527203
2014.19,0.052450376382
2014.21,0.0695022156248
2014.23,0.0172395310949
2014.25,0.0171285642745
