t,s,e,i,r,c,o,n,reff,coal,reportr
0.,952.,0.,18.,30.,0.,0.,1000.,2.39412774471,10.6405677543,3102.78955714
0.002738,936.,0.,29.,35.,0.,0.,1000.,2.35389030362,6.49349049275,4914.92295396
0.005476,920.,0.,42.,38.,0.,0.,1000.,2.31365286253,4.4069578334,6996.4862563
0.008214,871.,0.,75.,54.,0.,0.,1000.,2.1904256992,2.33645407915,11828.2987757
0.010952,835.,0.,102.,63.,0.,0.,1000.,2.09989145676,1.64697369157,15421.6028584
0.01369,790.,0.,136.,74.,0.,0.,1000.,1.9867236537,1.16866097276,19453.998017
0.016428,707.,0.,163.,130.,0.,0.,1000.,1.77799192806,0.87263407512,20866.5132677
0.019166,662.,0.,177.,161.,0.,0.,1000.,1.664824125,0.752462881355,21216.518649
0.021904,618.,0.,193.,189.,0.,0.,1000.,1.55417116201,0.644216025702,21596.7624672
0.024642,535.,0.,203.,262.,0.,0.,1000.,1.34543943636,0.530222437976,19664.9428019
0.02738,481.,0.,229.,290.,0.,0.,1000.,1.20963807269,0.422580986094,19944.5125426
0.030118,437.,0.,248.,315.,0.,0.,1000.,1.0989851097,0.354511325711,19623.4781189
0.032856,336.,0.,255.,409.,0.,0.,1000.,0.844986262839,0.265093729518,15513.9477857
0.035594,308.,0.,250.,442.,0.,0.,1000.,0.774570740935,0.247862637099,13942.2733368
0.038332,282.,0.,231.,487.,0.,0.,1000.,0.709184899168,0.245605159885,11795.163243
0.04107,230.,0.,206.,564.,0.,0.,1000.,0.578413215634,0.224626491508,8579.02481428
0.043808,204.,0.,201.,594.,0.,0.,999.,0.513540914781,0.204394393943,7431.96411871
0.046546,186.,0.,181.,632.,0.,0.,999.,0.468228481124,0.206951814861,6101.95356601
0.049284,159.,0.,145.,695.,0.,0.,999.,0.400259830638,0.220833010007,4178.71263186
0.052022,147.,0.,126.,726.,0.,0.,999.,0.370051541533,0.234953359704,3357.10758479
0.05476,144.,0.,109.,745.,0.,0.,998.,0.362862695178,0.266321244168,2847.74643176
0.057498,129.,0.,96.,773.,0.,0.,998.,0.325064497764,0.27088708147,2246.84580854
0.060236,127.,0.,84.,787.,0.,0.,998.,0.320024738109,0.304785464865,1935.50961608
0.062974,121.,0.,67.,810.,0.,0.,998.,0.304905459143,0.364066219872,1470.86393491
0.065712,109.,0.,57.,832.,0.,0.,998.,0.274666901211,0.385497405209,1127.23296257
0.06845,104.,0.,54.,840.,0.,0.,998.,0.262067502073,0.38824815122,1018.91844806
0.071188,96.,0.,53.,849.,0.,0.,998.,0.241908463452,0.365144850494,923.122696534
0.073926,93.,0.,43.,862.,0.,0.,998.,0.234348823969,0.435997812036,725.543959009
0.076664,91.,0.,39.,868.,0.,0.,998.,0.229309064314,0.470377567824,643.899852594
0.079402,91.,0.,29.,878.,0.,0.,998.,0.229309064314,0.632576729142,478.797326288
0.08214,90.,0.,26.,882.,0.,0.,998.,0.226789184486,0.697812875343,424.549353359
