t,s,e,i,r,c,o,n,reff,coal,reportr
0.,867.,0.,19.,114.,0.,0.,1000.,2.67052209969,11.2443035776,3653.27423238
0.002738,852.,0.,31.,118.,0.,0.,1001.,2.6216975976,6.76567121961,5851.62903784
0.005476,842.,0.,39.,120.,0.,0.,1001.,2.59092649904,5.31472102366,7275.32160929
0.008214,799.,0.,75.,127.,0.,0.,1001.,2.45861077521,2.62251816023,13276.4981862
0.010952,762.,0.,104.,135.,0.,0.,1001.,2.34475771053,1.80365977733,17557.5457364
0.01369,714.,0.,130.,157.,0.,0.,1001.,2.19705643742,1.35203473072,20564.4482543
0.016428,619.,0.,164.,218.,0.,0.,1001.,1.90473100107,0.929137073694,22491.0636607
0.019166,583.,0.,179.,239.,0.,0.,1001.,1.79395504624,0.801767618433,23120.492636
0.021904,541.,0.,194.,266.,0.,0.,1001.,1.66471643228,0.686481003001,23252.7591261
0.024642,456.,0.,201.,344.,0.,0.,1001.,1.40316209449,0.558472475419,20306.5618315
0.02738,403.,0.,233.,365.,0.,0.,1001.,1.2400752721,0.425776917461,20803.5027648
0.030118,352.,0.,255.,394.,0.,0.,1001.,1.08314266943,0.339809464919,19886.4994107
0.032856,281.,0.,253.,467.,0.,0.,1001.,0.864667869631,0.273412765101,15750.7899132
0.035594,244.,0.,254.,502.,0.,0.,1000.,0.751565619751,0.236713581024,13744.632054
0.038332,223.,0.,226.,551.,0.,0.,1000.,0.686881693461,0.243143962287,11176.938916
0.04107,164.,0.,213.,623.,0.,0.,1000.,0.505150662456,0.18972794834,7746.99055942
0.043808,147.,0.,198.,655.,0.,0.,1000.,0.45278748403,0.182944437992,6454.93837234
0.046546,139.,0.,181.,680.,0.,0.,1000.,0.428145988301,0.189235795934,5579.59851954
0.049284,116.,0.,151.,733.,0.,0.,1000.,0.357301688078,0.189298907591,3884.58395279
0.052022,110.,0.,125.,765.,0.,0.,1000.,0.338820566281,0.21684516242,3049.38509653
0.05476,104.,0.,107.,789.,0.,0.,1000.,0.320339444484,0.239506126717,2467.89508031
0.057498,87.,0.,95.,818.,0.,0.,1000.,0.267976266059,0.22566422405,1832.95765984
0.060236,84.,0.,85.,831.,0.,0.,1000.,0.25873570516,0.243515957798,1583.46251558
0.062974,80.,0.,70.,850.,0.,0.,1000.,0.246414957295,0.281617094052,1241.93138477
0.065712,75.,0.,63.,863.,0.,0.,1001.,0.230783239225,0.293058081556,1046.83277313
0.06845,72.,0.,60.,869.,0.,0.,1001.,0.221551909656,0.295402546208,957.104249715
0.071188,63.,0.,51.,887.,0.,0.,1001.,0.193857920949,0.304090856391,711.846285726
0.073926,63.,0.,42.,896.,0.,0.,1001.,0.193857920949,0.36925318276,586.22635295
0.076664,62.,0.,38.,901.,0.,0.,1001.,0.190780811093,0.401643812827,521.97629915
0.079402,61.,0.,28.,912.,0.,0.,1001.,0.187703701237,0.536296289247,378.410661693
0.08214,61.,0.,26.,914.,0.,0.,1001.,0.187703701237,0.577549849959,351.381328715
