t,s,e,i,r,c,o,n,reff,coal,reportr
0.,924.,0.,18.,58.,0.,0.,1000.,2.79551060269,12.4244915675,3622.98174109
0.002738,902.,0.,32.,66.,0.,0.,1000.,2.72895082644,6.8223770661,6287.50270411
0.005476,885.,0.,44.,71.,0.,0.,1000.,2.67751827206,4.86821504011,8482.37788588
0.008214,836.,0.,75.,89.,0.,0.,1000.,2.52927149767,2.69788959752,13658.0660874
0.010952,795.,0.,108.,97.,0.,0.,1000.,2.40522827829,1.78165057651,18703.055092
0.01369,757.,0.,130.,113.,0.,0.,1000.,2.29026139203,1.40939162587,21436.8466294
0.016428,669.,0.,169.,162.,0.,0.,1000.,2.02402228701,0.958117058942,24628.3031884
0.019166,624.,0.,191.,185.,0.,0.,1000.,1.88787729013,0.79073394351,25962.0884939
0.021904,580.,0.,194.,226.,0.,0.,1000.,1.75475773762,0.723611438194,24510.4560791
0.024642,494.,0.,208.,298.,0.,0.,1000.,1.49456952135,0.57483443129,22382.6731518
0.02738,438.,0.,230.,332.,0.,0.,1000.,1.32514463634,0.46091987351,21944.3951778
0.030118,385.,0.,249.,366.,0.,0.,1000.,1.16479608446,0.374231673721,20882.4642021
0.032856,291.,0.,254.,454.,0.,0.,999.,0.881285598784,0.277570267334,16116.9510306
0.035594,244.,0.,255.,500.,0.,0.,999.,0.738947374926,0.231826627428,13567.0738036
0.038332,213.,0.,238.,548.,0.,0.,999.,0.645064716636,0.21682847618,11053.8289843
0.04107,168.,0.,217.,614.,0.,0.,999.,0.508783438474,0.187569931234,7949.23244271
0.043808,149.,0.,201.,649.,0.,0.,999.,0.45124245436,0.17959898681,6530.3807995
0.046546,136.,0.,175.,688.,0.,0.,999.,0.411872307336,0.188284483353,5189.59107243
0.049284,110.,0.,150.,739.,0.,0.,999.,0.333132013286,0.177670407086,3597.82574349
0.052022,104.,0.,127.,768.,0.,0.,999.,0.314961176198,0.198400740912,2880.00499515
0.05476,98.,0.,112.,789.,0.,0.,999.,0.29679033911,0.211993099364,2393.31729458
0.057498,88.,0.,95.,816.,0.,0.,999.,0.266505610629,0.224425777372,1822.8983767
0.060236,83.,0.,82.,834.,0.,0.,999.,0.251363246389,0.245232435501,1484.04860668
0.062974,81.,0.,68.,850.,0.,0.,999.,0.245306300693,0.288595647874,1201.01964819
0.065712,77.,0.,60.,862.,0.,0.,999.,0.2331924093,0.3109232124,1007.39120818
0.06845,75.,0.,52.,872.,0.,0.,999.,0.227135463604,0.349439174776,850.395175734
0.071188,66.,0.,53.,880.,0.,0.,999.,0.199879207972,0.301704464863,762.73905762
0.073926,65.,0.,43.,891.,0.,0.,999.,0.196850735124,0.366233925812,609.449875943
0.076664,64.,0.,34.,901.,0.,0.,999.,0.193822262276,0.456052381825,474.476898051
0.079402,61.,0.,30.,909.,0.,0.,1000.,0.184552106888,0.492138951701,398.632550877
0.08214,59.,0.,27.,914.,0.,0.,1000.,0.178501218137,0.528892498185,347.006368059
