t,s,e,i,r,c,o,n,reff,coal,reportr
0.,965.,0.,20.,15.,0.,0.,1000.,2.3848766343,9.53950653721,3434.2223534
0.002738,950.,0.,30.,20.,0.,0.,1000.,2.34780601304,6.26081603479,5071.26098818
0.005476,931.,0.,45.,24.,0.,0.,1000.,2.30084989278,4.09039980939,7454.75365262
0.008214,882.,0.,76.,42.,0.,0.,1000.,2.17975253001,2.29447634737,11927.6058442
0.010952,844.,0.,102.,54.,0.,0.,1000.,2.08584028948,1.63595316822,15318.411086
0.01369,801.,0.,134.,65.,0.,0.,1000.,1.97957117521,1.18183353744,19098.9026984
0.016428,717.,0.,167.,116.,0.,0.,1000.,1.77197569616,0.848850632892,21306.2357706
0.019166,675.,0.,175.,150.,0.,0.,1000.,1.66817795664,0.76259563732,21019.0422536
0.021904,630.,0.,193.,177.,0.,0.,1000.,1.55696609286,0.645374546264,21635.6008264
0.024642,557.,0.,199.,244.,0.,0.,1000.,1.37655573607,0.553389240631,19723.2905864
0.02738,504.,0.,229.,267.,0.,0.,1000.,1.24557287429,0.435134628573,20537.0055513
0.030118,450.,0.,254.,296.,0.,0.,1000.,1.11211863776,0.350273586695,20338.4256473
0.032856,371.,0.,254.,375.,0.,0.,1000.,0.916880032463,0.288781112587,16767.9020337
0.035594,329.,0.,255.,416.,0.,0.,1000.,0.813082292939,0.255084640922,14928.1908984
0.038332,306.,0.,238.,456.,0.,0.,1000.,0.756240673675,0.254198545773,12958.9401841
0.04107,260.,0.,213.,528.,0.,0.,1001.,0.641915519629,0.241095030847,9844.41640904
0.043808,240.,0.,204.,557.,0.,0.,1001.,0.592537402735,0.232367608916,8703.18937137
0.046546,229.,0.,180.,592.,0.,0.,1001.,0.565379438443,0.251279750419,7327.31752222
0.049284,204.,0.,148.,649.,0.,0.,1001.,0.503656792325,0.27224691477,5366.96677901
0.052022,189.,0.,130.,682.,0.,0.,1001.,0.466623204654,0.287152741325,4367.59319556
0.05476,185.,0.,109.,707.,0.,0.,1001.,0.456747581275,0.335227582587,3584.55501784
0.057498,164.,0.,98.,739.,0.,0.,1001.,0.404900558535,0.330531068192,2856.97834103
0.060236,157.,0.,81.,763.,0.,0.,1001.,0.387618217622,0.382832807528,2260.58944517
0.062974,152.,0.,69.,780.,0.,0.,1001.,0.375273688399,0.435099928578,1864.35968397
0.065712,141.,0.,60.,800.,0.,0.,1001.,0.348115724107,0.464154298809,1503.85992814
0.06845,137.,0.,55.,809.,0.,0.,1001.,0.338240100728,0.491985601059,1339.43079888
0.071188,129.,0.,54.,819.,0.,0.,1002.,0.318171000822,0.471364445663,1237.0488512
0.073926,128.,0.,41.,833.,0.,0.,1002.,0.315704558955,0.616008895523,931.959858037
0.076664,125.,0.,36.,841.,0.,0.,1002.,0.308305233355,0.685122740789,799.127164856
0.079402,120.,0.,27.,855.,0.,0.,1002.,0.295973024021,0.87695710821,575.371558696
0.08214,118.,0.,27.,857.,0.,0.,1002.,0.291040140287,0.862341156406,565.782032718
