t,s,e,i,r,c,o,n,reff,coal,reportr
0.,946.,0.,19.,35.,0.,0.,1000.,2.47289199341,10.4121768144,3382.91624698
0.002738,933.,0.,28.,39.,0.,0.,1000.,2.43890933388,6.96831238251,4916.8412171
0.005476,912.,0.,45.,43.,0.,0.,1000.,2.38401426849,4.23824758842,7724.2062299
0.008214,861.,0.,77.,62.,0.,0.,1000.,2.2506976811,2.33838720115,12477.867944
0.010952,824.,0.,106.,70.,0.,0.,1000.,2.15397780398,1.62564362565,16439.1586
0.01369,782.,0.,132.,86.,0.,0.,1000.,2.0441876732,1.23890162012,19427.9596461
0.016428,695.,0.,163.,142.,0.,0.,1000.,1.81676525943,0.891663931008,21321.5570846
0.019166,642.,0.,181.,176.,0.,0.,999.,1.67990047105,0.742497445768,21892.4629387
0.021904,590.,0.,199.,210.,0.,0.,999.,1.54383376623,0.620636689942,22120.0502025
0.024642,503.,0.,205.,291.,0.,0.,999.,1.3161837024,0.51363266435,19426.8714474
0.02738,452.,0.,224.,323.,0.,0.,999.,1.18273366498,0.422404880349,19075.1285487
0.030118,406.,0.,250.,343.,0.,0.,999.,1.06236696456,0.339957428659,19122.6053621
0.032856,326.,0.,256.,418.,0.,0.,1000.,0.852180538955,0.266306418423,15707.391694
0.035594,290.,0.,255.,455.,0.,0.,1000.,0.758074712567,0.237827360805,13918.2517227
0.038332,256.,0.,237.,507.,0.,0.,1000.,0.669196987645,0.22588927853,11419.1773972
0.04107,212.,0.,215.,573.,0.,0.,1000.,0.554178755394,0.206206048519,8578.6871335
0.043808,197.,0.,200.,602.,0.,0.,999.,0.515483477877,0.206193391151,7422.96208143
0.046546,182.,0.,181.,636.,0.,0.,999.,0.476233466871,0.210489930109,6206.27454026
0.049284,159.,0.,142.,698.,0.,0.,999.,0.416050116662,0.234394431922,4253.69639275
0.052022,151.,0.,121.,727.,0.,0.,999.,0.395116777459,0.261234233031,3442.25736522
0.05476,141.,0.,109.,749.,0.,0.,999.,0.368950103455,0.270789066756,2895.52041191
0.057498,124.,0.,103.,772.,0.,0.,999.,0.324466757648,0.252013015649,2406.24547472
0.060236,120.,0.,85.,794.,0.,0.,999.,0.314000088047,0.295529494632,1921.68053885
0.062974,119.,0.,66.,815.,0.,0.,1000.,0.311072037226,0.377057014819,1478.2143209
0.065712,109.,0.,59.,832.,0.,0.,1000.,0.284931529896,0.386347837147,1210.389139
0.06845,107.,0.,58.,835.,0.,0.,1000.,0.27970342843,0.385797832317,1168.04151712
0.071188,98.,0.,53.,849.,0.,0.,1000.,0.256176971833,0.386682221635,977.571324515
0.073926,96.,0.,42.,862.,0.,0.,1000.,0.250948870367,0.477997848318,758.86938399
0.076664,96.,0.,35.,869.,0.,0.,1000.,0.250948870367,0.573597417982,632.391153325
0.079402,92.,0.,28.,881.,0.,0.,1001.,0.24025241502,0.686435471486,484.34886868
0.08214,90.,0.,26.,885.,0.,0.,1001.,0.235029536433,0.723167804408,439.975292202
