t,s,e,i,r,c,o,n,reff,coal,reportr
0.,957.,0.,19.,24.,0.,0.,1000.,2.38008111408,10.0213941645,3255.95096406
0.002738,941.,0.,30.,30.,0.,0.,1001.,2.33795079356,6.2345354495,5049.97371409
0.005476,925.,0.,40.,36.,0.,0.,1001.,2.29819817645,4.59639635291,6618.81074819
0.008214,882.,0.,75.,44.,0.,0.,1001.,2.19136301798,2.33745388585,11833.3602971
0.010952,842.,0.,104.,55.,0.,0.,1001.,2.09198147522,1.6092165194,15664.7572864
0.01369,794.,0.,136.,71.,0.,0.,1001.,1.9727236239,1.16042566112,19316.9097252
0.016428,720.,0.,165.,117.,0.,0.,1002.,1.78708247261,0.866464229142,21230.5397746
0.019166,676.,0.,180.,146.,0.,0.,1002.,1.67787187706,0.745720834248,21745.2195267
0.021904,633.,0.,194.,175.,0.,0.,1002.,1.5711433405,0.64789416103,21945.7301801
0.024642,545.,0.,205.,252.,0.,0.,1002.,1.3527221494,0.527891570499,19966.1789252
0.02738,494.,0.,233.,275.,0.,0.,1002.,1.22613714093,0.420991293022,20569.6766762
0.030118,447.,0.,249.,306.,0.,0.,1002.,1.10948036841,0.356459556115,19890.7640448
0.032856,364.,0.,256.,382.,0.,0.,1002.,0.903469472262,0.282334210082,16652.7493127
0.035594,324.,0.,256.,422.,0.,0.,1002.,0.804187112672,0.25130847271,14822.7768608
0.038332,304.,0.,237.,461.,0.,0.,1002.,0.754545932878,0.254699049073,12875.5717986
0.04107,251.,0.,213.,538.,0.,0.,1002.,0.622996806422,0.233989410863,9554.27902329
0.043808,224.,0.,199.,579.,0.,0.,1002.,0.555981213699,0.223510035658,7966.09882989
0.046546,215.,0.,183.,604.,0.,0.,1002.,0.533642682792,0.233286418707,7031.27598847
0.049284,192.,0.,140.,670.,0.,0.,1002.,0.476555326028,0.272317329159,4803.67768636
0.052022,187.,0.,125.,690.,0.,0.,1002.,0.464145031079,0.297052819891,4177.30527972
0.05476,175.,0.,111.,716.,0.,0.,1002.,0.434360323203,0.313052485191,3471.40770304
0.057498,157.,0.,98.,746.,0.,0.,1001.,0.390072555355,0.3184265758,2752.35195058
0.060236,153.,0.,86.,762.,0.,0.,1001.,0.380134401078,0.353613396352,2353.79221148
0.062974,149.,0.,75.,777.,0.,0.,1001.,0.370196246802,0.394875996589,1999.05973273
0.065712,144.,0.,60.,797.,0.,0.,1001.,0.357773553956,0.477031405275,1545.58175309
0.06845,141.,0.,57.,803.,0.,0.,1001.,0.350319938249,0.491677106314,1437.71302657
0.071188,132.,0.,51.,818.,0.,0.,1001.,0.327959091126,0.51444563314,1204.26578262
0.073926,129.,0.,46.,826.,0.,0.,1001.,0.320505475419,0.557400826816,1061.51413459
0.076664,127.,0.,36.,838.,0.,0.,1001.,0.315536398281,0.70119199618,817.870344344
0.079402,122.,0.,28.,851.,0.,0.,1001.,0.303113705435,0.866039158386,611.077230157
0.08214,122.,0.,26.,853.,0.,0.,1001.,0.303113705435,0.932657555185,567.428856574
