k,outcome,logprior,loglik,logu,p'p,qq',l'l,logv,prm,s0,i0,r0,beta,move_prm,move_s0,move_i0,move_r0,move_beta
0,accept,-31.0062910764,-14161.5779718,0.,inf,inf,inf,inf,1.02655252766,832.45600055,7.97631736312,159.567682087,246.353065366,1.02655252766,832.45600055,7.97631736312,159.567682087,246.353065366
0,accept,-1138.59354842,-14148.2034477,0.,-9.42187659425e-05,0.,13.3745240929,13.3744298741,1.02553538651,833.622432967,7.97611393607,158.401453097,246.365605412,1.02553538651,833.622432967,7.97611393607,158.401453097,246.365605412
100,accept,-1125.42084998,-13127.115792,-1.92003330609,-1.96421889018,1.96296356725,0.,-0.00125532292778,1.02556004473,837.565140952,7.98115151043,154.453707538,246.59910189,1.02556004473,837.565140952,7.98115151043,154.453707538,246.59910189
200,accept,-1152.96435747,-12100.4710475,-2.32848936417,-0.000160653310316,0.,-0.177158438072,-0.177319091383,1.01475797534,846.951132523,7.94171752719,145.10714995,247.479633204,1.01475797534,846.951132523,7.94171752719,145.10714995,247.479633204
300,reject,-1176.55841673,-11085.3407597,-0.0361890254866,5.61905788336,-5.61519426688,-7.45864730596,-7.45478368948,1.01434838472,856.022281279,7.95778645596,136.019932265,246.986968108,1.007258853,855.388189166,7.95673366431,136.65507717,246.595996642
400,reject,-1186.78550098,-11075.0968528,-0.882527768992,2.62096166127,-2.6156938987,-1989.83088783,-1989.82562007,1.02968548565,865.81939138,7.9638901859,126.216718434,245.839608926,1.02861065738,869.851618201,7.96126161214,122.187120187,245.32273684
500,accept,-1186.65196368,-10119.0440764,-0.307124179649,-0.000342919016883,0.,0.,-0.000342919016883,1.01873047304,879.920744238,7.93198887515,112.147266887,244.576466761,1.01873047304,879.920744238,7.93198887515,112.147266887,244.576466761
600,reject,-1173.6649371,-9104.99956004,-0.10322420816,2.86064876249,-2.8585989116,-13.1233538536,-13.1213040027,1.0128747954,882.920289334,7.94623533825,109.133475328,245.910023065,1.01338480285,888.423073459,7.94651559234,103.630410949,245.691716642
700,reject,-1169.11246493,-9083.4568944,-0.176456996849,0.611650939005,-0.61301589271,-991.940432389,-991.941797343,0.999991280355,877.513049311,7.9784304175,114.508520271,247.346239568,0.9958760899,875.146006654,7.97820583513,116.875787511,247.492284022
800,reject,-1169.84782651,-9083.4568944,-0.645336399186,1.89387751144,-1.89860159396,-2010.55038717,-2010.55511125,0.989752860537,877.504821443,8.01230173335,114.482876824,247.388729141,0.988736687169,873.590462386,8.01264650245,118.396891112,247.879549573
900,accept,-1175.04448102,-9084.15733904,-1.11401158194,-0.00100309825205,0.,0.,-0.00100309825205,1.00601139739,882.570845625,8.01654022214,109.412614153,245.644771474,1.00601139739,882.570845625,8.01654022214,109.412614153,245.644771474
1000,reject,-1174.28597258,-9084.28284145,-1.57321330213,1.0645095395,-1.06430794683,-2020.36838346,-2020.36818187,0.995614629972,890.371641259,8.00648421655,101.621874525,246.310850676,0.993610373042,889.011271283,8.00632187937,102.982406837,246.291859431
1100,reject,-1183.43454602,-9084.33568174,-2.25496869985,3.8198498773,-3.820390071,-2.81187727449,-2.81241746818,1.00141065156,879.645552843,8.0411277319,112.313319425,247.391603509,1.00089868292,880.418174337,8.03698032743,111.544845335,247.502316015
1200,reject,-1176.36844169,-9079.30765191,-2.43724071971,0.00185139342551,0.,-7.88114122434,-7.87928983092,0.994302572627,880.532614107,8.02919284831,111.438193045,249.318498979,0.994302572627,882.771241896,8.03221218359,109.19654592,249.08465807
1300,accept,-1169.58172255,-9076.6615076,0.,0.00223680442517,0.,0.,0.00223680442517,0.993587586492,888.636453296,8.08458261564,103.278964088,247.311952956,0.993587586492,888.636453296,8.08458261564,103.278964088,247.311952956
1400,accept,-1168.76793173,-9078.32395315,-1.77521783024,-1.49314486329,1.49313648586,-0.462035459597,-0.462043837034,0.993254649804,878.580595491,7.99681588772,113.422588621,250.160730426,0.993254649804,878.580595491,7.99681588772,113.422588621,250.160730426
1500,reject,-1165.95321814,-9075.95130688,-1.0857893798,-5.07588828764,5.07796048554,-8.10402574008,-8.10195354218,0.997277470547,898.62855171,7.86663457215,93.5048137176,251.62685261,0.998681660678,894.964647414,7.87195800674,97.1633945792,251.337735784
1600,accept,-1159.95317423,-9073.63896387,-3.53319415294,2.83108641194,-2.82731484584,-0.99412506578,-0.990353499677,1.0080707143,882.27338808,8.00210528312,109.724506637,252.549024995,1.0080707143,882.27338808,8.00210528312,109.724506637,252.549024995
1700,reject,-1159.68517906,-9071.37308607,-0.5306872342,0.00436625309256,0.,-3.35766868533,-3.35330243223,1.0062696776,887.986449837,8.0906849146,103.922865249,251.747480524,1.0062696776,890.161180559,8.09333289658,101.745486544,251.25378492
1800,accept,-1154.40678444,-9071.94568298,-1.08257672596,-0.00301840248836,0.,-0.266810497967,-0.269828900455,1.00371346128,870.687460984,8.0407246664,121.271814349,256.597884744,1.00371346128,870.687460984,8.0407246664,121.271814349,256.597884744
1900,accept,-1160.16268409,-9071.90631829,0.,-1.21804613756,1.21639532432,0.966974539234,0.965323725995,1.01267717105,874.70054016,8.10989037279,117.189569467,254.258748305,1.01267717105,874.70054016,8.10989037279,117.189569467,254.258748305
2000,accept,-1163.35490609,-9066.38123914,-1.10107840558,-3.82092605455,3.820390071,-0.371058285585,-0.371594269141,1.01955597294,876.736942228,8.05503660434,115.208021168,249.023508552,1.01955597294,876.736942228,8.05503660434,115.208021168,249.023508552
2100,accept,-1175.94973396,-9066.5503573,-1.8441130929,4.51202592993,-4.51353725156,-1.20123786752,-1.20274918915,1.02102531656,883.92401748,8.25499613798,107.820986382,245.116995313,1.02102531656,883.92401748,8.25499613798,107.820986382,245.116995313
2200,reject,-1174.54028436,-9064.45744682,-0.475709096337,-0.00329204847132,0.,-0.904751038464,-0.908043086935,1.02417579148,873.967202565,8.17390741168,117.858890023,247.654517657,1.02417579148,871.764227168,8.21487008094,120.020902751,247.475614788
2300,accept,-1165.02114549,-9064.49110185,0.,0.00121032931929,0.,0.570909567287,0.572119896606,1.03307339422,873.970814404,8.32382937413,117.705356222,247.880706784,1.03307339422,873.970814404,8.32382937413,117.705356222,247.880706784
2400,reject,-1169.00006487,-9065.80415802,-0.0675984510245,-6.24348465573,6.24090444915,-2998.21601339,-2998.2185936,1.03712123947,881.396940785,8.16480654372,110.438252671,247.119287262,1.04068173416,880.814369447,8.14466836284,111.04096219,247.648628811
2500,accept,-1161.45047723,-9065.00256326,-0.578499506569,-0.000196848856225,0.,-0.296909701555,-0.297106550412,1.03449150924,879.445589657,7.92285071167,112.631559631,246.857247641,1.03449150924,879.445589657,7.92285071167,112.631559631,246.857247641
2600,accept,-1168.19189933,-9066.17835939,0.,-0.00525524425956,0.,0.0922198306204,0.0869645863608,1.03590655981,881.448006196,7.85627118613,110.695722618,247.639731934,1.03590655981,881.448006196,7.85627118613,110.695722618,247.639731934
2700,accept,-1152.30550009,-9064.69117023,0.,0.00483026104373,0.,0.135046102582,0.139876363626,1.03540000404,879.881258985,7.85727907884,112.261461936,246.511215819,1.03540000404,879.881258985,7.85727907884,112.261461936,246.511215819
2800,reject,-1154.13734823,-9067.90475979,-1.00534713419,2.65673774094,-2.66521200562,-27.7571824683,-27.765656733,1.02152914427,873.965125141,7.68869956145,118.346175297,246.432422322,1.01641382557,864.907454649,7.71723396967,127.375311381,246.932213667
2900,accept,-1159.94368003,-9064.22936233,0.,0.013024519694,0.,0.451534586267,0.464559105961,1.02504768202,861.508494828,7.76724440695,130.724260765,248.916625821,1.02504768202,861.508494828,7.76724440695,130.724260765,248.916625821
3000,reject,-1161.4298832,-9064.97840219,-2.31145959444,15.0396012867,-15.0398956209,-58.9614173227,-58.961711657,1.01587172725,867.645987506,7.98843857946,124.365573915,245.891010077,1.00979169696,872.46348954,7.97377676643,119.562733693,246.11417915
3100,reject,-1142.42698334,-9066.47361594,-1.00523000954,-0.00677716590694,0.,-1011.78987546,-1011.79665263,1.02363789557,852.609337575,7.87375369281,139.516908732,250.514606031,1.02363789557,858.634028386,7.82242466245,133.543546952,251.915045923
3200,reject,-1146.06983081,-9064.54123365,-0.839252234504,0.0124787604601,0.,-1.5310992941,-1.51862053364,1.02108270977,850.72920709,7.91097255327,141.359820357,251.803489235,1.02108270977,847.300555069,7.92094407619,144.778500855,250.358889912
3300,reject,-1138.74246828,-9066.70881585,-1.39159911639,-2.57926221184,2.58695066923,-3998.31576658,-3998.30807813,1.02283833616,851.047582699,7.91030306499,141.042114236,249.916923965,1.02389063897,852.9333449,7.8755306108,139.191124489,249.572058417
3400,reject,-1141.21017275,-9067.42140266,-0.369177387526,1.29472945351,-1.30005056599,-4.574716061,-4.58003717348,1.0224083986,854.07326046,7.80385755275,138.122881987,251.243428019,1.01980817378,852.900346883,7.77269005071,139.326963066,252.224243599
3500,reject,-1164.65783321,-9065.68292469,-0.51500801201,0.0059154482847,0.,-2.13084276346,-2.12492731518,1.02159553873,853.858249054,7.74418567001,138.397565276,255.651551968,1.02159553873,859.085033198,7.78201857838,133.132948224,254.513276873
3600,reject,-1162.73051902,-9066.02880095,-2.0198769358,0.0190591214776,0.,-14.8551930467,-14.8361339252,1.01494553873,853.829926896,7.7949459886,138.375127115,255.975844055,1.01286436958,859.984184761,7.81496907218,132.200846167,253.694765308
3700,reject,-1159.14467035,-9065.92183924,-0.241548637526,-0.00904067581846,0.,-1996.7042689,-1996.71330958,1.01792997177,848.506100255,7.89530841023,143.598591334,259.586830995,1.01792997177,847.189326922,7.89204069585,144.918632383,260.58876306
3800,reject,-1152.19719392,-9068.5386128,-1.3490584087,0.00976632097476,0.,-5.90834220852,-5.89857588755,1.0161097131,849.009940925,8.07807141607,142.911987659,255.858120439,1.0161097131,848.614512937,8.08128593319,143.30420113,254.785489488
3900,reject,-1160.60342583,-9066.50615186,-0.366897684982,1.07051911068,-1.07079908218,-3039.18344768,-3039.18372765,1.01374913183,858.982000148,7.87245229013,133.145547562,254.841605957,1.00480119614,857.183793029,7.87330033067,134.942906641,254.859777922
4000,reject,-1132.56865266,-9070.80844609,-0.453261356651,3.89489987175,-3.91216468015,-1.40872335986,-1.42598816825,1.01284368722,847.368699231,7.90902420373,144.722276565,256.097260548,1.01444375624,843.94432316,7.94006247419,148.115614365,257.507748666
4100,accept,-1126.49855313,-9065.87209999,0.,0.00406766881505,0.,0.511013606096,0.515081274911,1.01025188211,853.680245135,7.77887211921,138.540882746,255.93189463,1.01025188211,853.680245135,7.77887211921,138.540882746,255.93189463
4200,reject,-1131.6633116,-9065.31973261,-1.24389360664,0.556944595397,-0.562473431693,-7.77648625806,-7.78201509436,1.01087977499,848.962441699,7.76531672779,143.272241573,256.672620842,1.00680881445,847.999359153,7.80524900988,144.195391837,256.714897937
4300,accept,-1115.86877438,-9067.72186209,0.,-0.00902034380814,0.,0.159956237508,0.1509358937,1.00687233439,843.242998541,7.95771263049,148.799288828,256.445494043,1.00687233439,843.242998541,7.95771263049,148.799288828,256.445494043
4400,reject,-1122.1943564,-9067.83822427,-0.949766800865,0.0105236757083,0.,-1.56814299261,-1.5576193169,1.00936941934,838.360182676,7.86498472112,153.774832603,260.149774939,1.00936941934,848.662884355,7.88764772853,143.449467917,258.73047416
4500,reject,-1123.65750362,-9065.86938783,-0.224060331662,3.60507380229,-3.60070798453,-3.08074850023,-3.07638268247,1.00521982732,837.938411791,8.12308332449,153.938504884,261.137655124,1.00629492874,840.003271796,8.13599856275,151.860729641,260.506242858
4600,accept,-1147.51508698,-9066.27943145,-1.9621799513,-0.00249034050249,0.,-0.0101533714645,-0.012643711967,1.00082405763,843.688278147,8.52807839758,147.783643456,262.529726269,1.00082405763,843.688278147,8.52807839758,147.783643456,262.529726269
4700,reject,-1144.20299681,-9066.26460336,-1.05187971091,3.0858814781,-3.08476273899,-27.5044793865,-27.5033606474,0.992807346494,844.389641096,8.47124685536,147.139112049,261.216944425,0.993841520814,846.687557503,8.40680364641,144.905638851,261.908467311
4800,reject,-1158.11232037,-9066.14045012,-0.258290621248,3.82778184348,-3.820390071,-2.62651038154,-2.61911860906,0.999487778549,853.271214576,8.53432850186,138.194456923,259.157348603,0.995774759673,854.240536607,8.62289879693,137.136564596,257.283097007
4900,accept,-1177.23913289,-9066.75559651,-3.4368792897,-0.00233340169131,0.,-1.00276978928,-1.00510319097,1.00198218675,850.574205054,8.67064895661,140.75514599,258.523067167,1.00198218675,850.574205054,8.67064895661,140.75514599,258.523067167
5000,accept,-1165.50303898,-9067.1239447,0.,4.5534112235e-05,0.,0.00781733866164,0.00786287277387,1.00094761557,853.872131537,9.01577789803,137.112090565,255.359252381,1.00094761557,853.872131537,9.01577789803,137.112090565,255.359252381
5100,reject,-1167.10224096,-9066.25534382,-1.22935884546,0.00869089474766,0.,-26.6647191478,-26.6560282531,0.989453892311,855.581719126,9.06946703707,135.348813837,254.477500831,0.989453892311,854.235787522,9.06577881341,136.698433665,253.604224254
5200,accept,-1163.94695187,-9065.39604799,0.,1.26998721052,-1.26981638669,1.633730445,1.63390126883,0.997542735297,848.562340982,9.10621919491,142.331439823,257.456317514,0.997542735297,848.562340982,9.10621919491,142.331439823,257.456317514
5300,accept,-1155.17434424,-9063.18386346,0.,-1.32598735322,1.33417835998,0.,0.00819100676289,0.997089742622,849.632129134,9.30287730976,141.064993556,257.356267001,0.997089742622,849.632129134,9.30287730976,141.064993556,257.356267001
5400,accept,-1157.28217907,-9064.68725012,0.,0.00899227414163,0.,0.286450864998,0.29544313914,0.996051107473,843.015554436,9.06166439109,147.922781173,259.716377929,0.996051107473,843.015554436,9.06166439109,147.922781173,259.716377929
5500,accept,-1166.4607609,-9064.25266418,-3.58111689315,-0.00479779356341,0.,0.,-0.00479779356341,0.994493154751,844.862832583,9.09213533427,146.045032083,257.425043898,0.994493154751,844.862832583,9.09213533427,146.045032083,257.425043898
5600,reject,-1172.25571552,-9063.20284242,-0.280545150639,0.047092097544,-0.0430269715741,-4.95754364505,-4.95347851908,0.984887116056,847.089682553,9.38039194478,143.529925503,256.699833567,0.984365459745,844.382587954,9.35912781146,146.258284235,256.51009857
5700,reject,-1169.74827386,-9064.62771469,-0.0211867573969,-5.45180578784,5.46082040383,-1995.79098182,-1995.7819672,0.982830350958,840.748840122,9.15376413005,150.097395748,259.531193495,0.986994886343,842.187462961,9.06187138909,148.75066565,259.644946913
5800,reject,-1168.43390196,-9061.96867252,-0.401469120605,1.14593245451,-1.16297426196,-2.76579007177,-2.78283187922,0.984601278323,846.201549283,9.09807255491,144.700378162,258.997206747,0.985115699054,844.550663448,9.11546645868,146.333870093,260.600378122
5900,accept,-1182.44438392,-9063.72353908,-1.94983931271,-0.00232145481552,0.,-1.12660679382,-1.12892824864,0.984229112544,851.054431134,8.80757291992,140.137995947,258.099713245,0.984229112544,851.054431134,8.80757291992,140.137995947,258.099713245
6000,reject,-1188.41647635,-9062.43164572,-3.03641187237,-2.52775143017,2.51648076344,-2043.18778335,-2043.19905401,0.983136562776,854.186178719,8.66590737894,137.147913902,261.787227157,0.987716391484,854.374734275,8.68436297152,136.940902754,262.758085613
6100,reject,-1203.99089861,-9063.51639937,-1.18979455195,-0.000564942785095,0.,-3.90036908759,-3.90093403038,0.9845317775,861.26750013,8.61877186281,130.113728008,259.749091127,0.9845317775,863.303411202,8.61361078797,128.08297801,259.872400548
6200,reject,-1189.26126275,-9064.40809101,-0.112395655724,-8.18135086717,8.17150291218,-0.258694535579,-0.268542490563,0.98370148071,846.977550114,8.66150791002,144.360941976,264.302688573,0.984218130648,843.754538039,8.69338334354,147.552078617,264.959752917
6300,reject,-1191.24461879,-9062.39941573,-2.84837197166,0.00771467115444,0.,-3.2155055599,-3.20779088874,0.980853761625,842.464274263,8.71970148809,148.816024249,264.0442499,0.980853761625,840.994456281,8.69583668722,150.309707032,263.515353827
6400,reject,-1170.90000685,-9061.70345191,-0.0696385834258,0.00890664577025,0.,-9.00822632187,-8.9993196761,0.989993413691,841.270570373,8.82005900842,149.909370619,266.142251564,0.98951912438,846.043787497,8.86709134956,145.089121153,264.627619732
6500,reject,-1188.9965013,-9063.61186037,-1.33339055574,-1.38421411155,1.37708584162,-10.0245004032,-10.0316286732,0.979857225002,842.57134476,9.22382615592,148.204829084,265.443947825,0.978911726244,842.479064258,9.2835904066,148.237345335,265.515347918
6600,reject,-1186.32485623,-9064.37561222,-0.27537567808,-0.407270416857,0.397836118624,-26.8082204721,-26.8176547704,0.981381621227,838.910091998,9.48782836274,151.602079639,266.697418805,0.976819413277,842.601725349,9.53549407354,147.862780577,267.169110393
6700,reject,-1188.92637171,-9063.76185741,-0.70993046881,0.00355267456126,0.,-2.02399365014,-2.02044097558,0.97492007685,837.641427842,9.5194093324,152.839162826,266.489608697,0.97492007685,838.614907627,9.5762116422,151.808880731,265.477335962
6800,reject,-1184.86817647,-9064.29438374,-0.9832655716,-0.00244557163195,0.,-8.01633121217,-8.0187767838,0.98241551159,837.735009341,9.11108398102,153.153906678,266.834001423,0.98241551159,839.961245849,9.11686702922,150.921887122,267.027125343
6900,accept,-1194.95272211,-9063.24570675,-0.537454964916,-3.81091358895,3.820390071,-0.221512831867,-0.212036349824,0.982825662156,834.198573276,9.22840607952,156.573020644,265.549441207,0.982825662156,834.198573276,9.22840607952,156.573020644,265.549441207
7000,reject,-1188.28661211,-9062.20158397,-0.118896533591,-0.00299635597774,0.,-1.39455215726,-1.39754851324,0.9811293419,831.194117718,9.28950327164,159.51637901,266.430687921,0.9811293419,833.729083863,9.31854467968,156.952371457,266.417395314
7100,accept,-1193.83036142,-9061.84767447,0.,0.010484143933,0.,0.,0.010484143933,0.986969846029,830.47266111,9.09658807378,160.430750817,267.012635873,0.986969846029,830.47266111,9.09658807378,160.430750817,267.012635873
7200,reject,-1191.418284,-9060.78730954,-0.447587562206,0.00414977468809,0.,-3.34120320546,-3.33705343077,0.985011022297,822.799921123,9.20571534079,167.994363537,269.45321341,0.985011022297,823.55210038,9.14032927103,167.307570349,269.771518874
7300,reject,-1181.49097936,-9059.12925774,-1.7145746885,0.00869740866373,0.,-3.76546133077,-3.75676392211,0.983669939034,819.098526357,8.97698830625,171.924485336,271.342904079,0.983669939034,819.229596044,8.97326494768,171.797139009,270.456432357
7400,reject,-1185.17316379,-9059.61837576,-2.25989903648,2.72852238903,-2.75201196163,-3.18576704048,-3.20925661308,0.98595108293,819.354893287,8.71906471681,171.926041996,272.575108252,0.98340076973,819.515837753,8.70327919224,171.780883055,275.290872122
7500,reject,-1197.71053885,-9060.07204746,-1.25936994796,-0.00646597402349,0.,-10.5442819938,-10.5507479678,0.984952388582,824.817640113,8.77271798357,166.409641904,269.900520047,0.982935808339,826.445796619,8.76890654536,164.785296835,270.638630249
7600,reject,-1188.38427185,-9058.73919164,-2.86354011969,-0.00231144619128,0.,-8.36086898285,-8.36318042904,0.980160203,822.668766612,8.78401620788,168.547217181,270.576011555,0.980160203,819.508320252,8.79443168952,171.697248058,270.696552843
7700,reject,-1186.83164429,-9058.74266028,-1.97191655758,-0.0184948596014,0.,-6.91787668838,-6.93637154798,0.980701524748,820.19345014,9.05053327315,170.756016587,271.529627239,0.980701524748,821.607700441,9.15184735303,169.240452206,272.318533786
7800,reject,-1181.7550917,-9062.61148139,-0.710543883498,-3.81144460944,3.820390071,-6.13661439523,-6.12766893367,0.977682564214,824.349326368,8.89731964713,166.753353985,268.463563599,0.978190715235,829.315899363,8.86654731223,161.817553324,267.878414582
7900,accept,-1173.84557502,-9059.89654708,-0.040340661149,-0.00235426720075,0.,0.,-0.00235426720075,0.982417663863,798.913018993,9.06405923887,192.022921768,276.41179719,0.982417663863,798.913018993,9.06405923887,192.022921768,276.41179719
8000,reject,-1177.93246605,-9061.1392235,-0.268211586264,0.00174401981451,0.,-1.03086414292,-1.02912012311,0.982659653246,802.936153622,8.59340917762,188.4704372,276.275126619,0.982659653246,808.889312265,8.63553776218,182.475149973,275.561707987
8100,reject,-1159.33003004,-9059.5994626,-2.34199213375,-0.0171122962657,0.,-8.23023614863,-8.2473484449,0.978595966256,785.287151022,8.78622822054,205.926620758,282.348618692,0.978595966256,779.384019134,8.7980786976,211.817902169,284.055993173
8200,accept,-1166.56658094,-9060.64682096,0.,0.0152845979797,0.,0.939174025707,0.954458623687,0.97652413052,794.322511396,8.71488920482,196.962599399,284.319450434,0.97652413052,794.322511396,8.71488920482,196.962599399,284.319450434
8300,reject,-1171.98673571,-9057.20073888,-0.0746228301271,0.00638237238996,0.,-5.58318269413,-5.57680032174,0.989404425223,793.308837721,8.50566126945,198.18550101,280.053007769,0.989404425223,797.075073171,8.5431717311,194.381755098,278.889492119
8400,reject,-1188.10159186,-9057.89207834,-1.19637459536,0.00156904999119,0.,-3.96894675807,-3.96737770808,0.989185048531,800.851882037,8.50166219702,190.646455766,277.107018654,0.989185048531,797.19145781,8.48266353982,194.32587865,277.178932118
8500,accept,-1179.14796178,-9056.87457594,-0.812312209958,-0.00151991003994,0.,-0.332406841761,-0.333926751801,0.975466141213,798.52891647,8.64986847583,192.821215055,278.992499795,0.975466141213,798.52891647,8.64986847583,192.821215055,278.992499795
8600,reject,-1171.69392201,-9059.7740151,-0.771421501532,0.000609723665161,0.,-996.09478298,-996.094173256,0.987397173338,792.652606402,8.1717794545,199.175614143,280.758106553,0.987397173338,793.380922378,8.21236847812,198.406709144,280.157129129
8700,accept,-1189.29014323,-9059.14136393,-2.19417214996,-0.000821138250806,0.,0.,-0.000821138250806,0.993232518197,804.52743112,8.64531668811,186.827252192,277.057967684,0.993232518197,804.52743112,8.64531668811,186.827252192,277.057967684
8800,reject,-1187.59341897,-9058.61946855,-0.176956790976,-0.0089044478646,0.,-3.80069117624,-3.8095956241,0.997780591519,795.21182273,8.67540450073,196.112772769,277.125142294,0.997780591519,791.44039489,8.75526865497,199.804336455,277.097329167
8900,reject,-1177.7676652,-9056.91207738,-0.919140611522,-0.27800219141,0.273194969259,-1003.08064469,-1003.08545192,1.00967563084,794.01162277,8.68507585076,197.30330138,279.124071633,1.0039000552,794.503214052,8.65728496616,196.839500982,279.988703349
9000,reject,-1175.86061749,-9057.46954806,-0.0474850913812,-0.00951684995369,0.,-5.07728064764,-5.08679749759,1.00344139072,802.813312689,8.26869231728,188.917994994,279.794174802,1.00344139072,802.673159528,8.32531877712,189.001521694,280.084862906
9100,reject,-1183.33122814,-9056.78119118,-0.080065309661,0.00748223385855,0.,-1.64249603613,-1.63501380227,0.999631204117,801.297483915,8.37535141568,190.32716467,282.121683218,0.999631204117,798.20848345,8.33221792,193.45929863,281.87078035
9200,reject,-1179.92226779,-9057.59606577,-0.292352926427,-0.000238856234512,0.,-1.04112175818,-1.04136061441,0.993135154168,811.235532805,8.61213352686,180.152333668,274.947624789,0.993135154168,813.705654444,8.65266866336,177.641676892,274.468940811
9300,reject,-1166.52679184,-9057.13722658,-0.138854241783,1.03752138098,-1.01800800928,-11.3457466379,-11.3262332662,0.992991637517,801.683500728,8.71770002692,189.598799245,278.699277475,0.9924668005,806.355492372,8.70763410995,184.936873518,276.721628484
9400,reject,-1171.40433849,-9056.05677917,-0.927392356883,0.00815328753707,0.,-10039.1895469,-10039.1813936,0.982419349758,800.053035903,8.943991418,191.002972679,279.798342578,0.982419349758,802.751162965,8.89536874836,188.353468287,279.506648499
9500,reject,-1175.40648924,-9060.58649843,-0.0740410845795,3.36855138685,-3.3505629896,-10036.2757151,-10036.2577267,0.984538679661,807.231983415,9.01725649141,183.750760094,276.97687096,0.983481173023,815.339080367,8.87796787111,175.782951762,276.716121366
9600,accept,-1142.31156324,-9058.30391435,-1.19634407132,-0.0201904239854,0.,-0.0776830699819,-0.0978734939673,0.986944759741,779.905447498,9.48252703973,210.612025462,285.611080732,0.986944759741,779.905447498,9.48252703973,210.612025462,285.611080732
9700,reject,-1186.2970275,-9058.67086246,-0.0444022618987,0.00935298568926,0.,-4.03180300227,-4.02245001658,0.980509534182,786.899487322,9.34376192636,203.756750752,282.154756274,0.980509534182,794.192801946,9.37038197462,196.436816079,280.83591185
9800,reject,-1195.0312499,-9060.71529954,-1.22622232992,0.0069418505496,0.,-3.34575534635,-3.3388134958,0.969682732106,776.721340486,9.34217375865,213.936485756,285.9165586,0.969682732106,777.491916127,9.38737229931,213.120711574,284.639437366
9900,reject,-1190.9045932,-9059.01315871,-0.659045607728,-4.85411231346,4.86624284137,-1.16559957694,-1.15346904903,0.976241105374,781.285987255,9.08233543578,209.631677309,285.485903665,0.982109221308,777.550278142,9.0225380421,213.427183816,284.886295083
