t,s,e,i,r,c,o,n,reff,coal,reportr
0.,871.,0.,21.,108.,0.,0.,1000.,2.49652389608,9.51056722318,3774.74413088
0.002738,858.,0.,29.,114.,0.,0.,1001.,2.45680553986,6.77739459271,5129.80996722
0.005476,841.,0.,43.,117.,0.,0.,1001.,2.40812757461,4.48023734812,7455.56297101
0.008214,791.,0.,75.,135.,0.,0.,1001.,2.26495708861,2.41595422785,12230.7682785
0.010952,757.,0.,102.,142.,0.,0.,1001.,2.16760115813,1.70007933971,15918.8629053
0.01369,706.,0.,137.,158.,0.,0.,1001.,2.0215672624,1.18047723352,19940.7394763
0.016428,627.,0.,169.,205.,0.,0.,1001.,1.79535789451,0.849873559532,21845.9148604
0.019166,581.,0.,184.,236.,0.,0.,1001.,1.66364104739,0.723322194515,22039.9165958
0.021904,530.,0.,208.,263.,0.,0.,1001.,1.51760715166,0.583695058331,22727.6847033
0.024642,463.,0.,201.,337.,0.,0.,1001.,1.32575870041,0.527665154393,19186.3799124
0.02738,406.,0.,232.,363.,0.,0.,1001.,1.16254434637,0.400877360816,19419.1407617
0.030118,350.,0.,255.,396.,0.,0.,1001.,1.00219340204,0.314413616326,18400.2708614
0.032856,277.,0.,250.,474.,0.,0.,1001.,0.793164492471,0.253812637591,14276.9608645
0.035594,247.,0.,255.,499.,0.,0.,1001.,0.707262200868,0.221886180664,12985.3340079
0.038332,224.,0.,236.,541.,0.,0.,1001.,0.641403777305,0.217425009256,10898.732984
0.04107,180.,0.,213.,608.,0.,0.,1001.,0.51541374962,0.193582628965,7904.38526418
0.043808,167.,0.,194.,640.,0.,0.,1001.,0.478189423259,0.197191514746,6679.34986408
0.046546,149.,0.,173.,679.,0.,0.,1001.,0.426648048297,0.197293895166,5314.32808958
0.049284,125.,0.,147.,729.,0.,0.,1001.,0.357926215014,0.194789776878,3788.29105971
0.052022,114.,0.,127.,760.,0.,0.,1001.,0.326428708093,0.205624383051,2984.8641068
0.05476,106.,0.,112.,783.,0.,0.,1001.,0.303521430332,0.216801021666,2447.5968142
0.057498,99.,0.,94.,808.,0.,0.,1001.,0.283477562291,0.241257499822,1918.57614159
0.060236,96.,0.,80.,825.,0.,0.,1001.,0.274887333131,0.274887333131,1583.35103883
0.062974,91.,0.,72.,838.,0.,0.,1001.,0.26057028453,0.289522538367,1350.796355
0.065712,81.,0.,61.,859.,0.,0.,1001.,0.231936187329,0.304178606333,1018.66373475
0.06845,76.,0.,56.,869.,0.,0.,1001.,0.217619138729,0.310884483898,877.440367354
0.071188,72.,0.,51.,878.,0.,0.,1001.,0.206165499848,0.323396862507,757.039715442
0.073926,70.,0.,42.,889.,0.,0.,1001.,0.200438680408,0.381787962682,606.126569553
0.076664,69.,0.,39.,893.,0.,0.,1001.,0.197575270688,0.405282606539,554.791360091
0.079402,66.,0.,30.,905.,0.,0.,1001.,0.188985041527,0.50396011074,408.207689699
0.08214,63.,0.,28.,910.,0.,0.,1001.,0.180394812367,0.51541374962,363.675941732
