t,s,e,i,r,c,o,n,reff,coal,reportr
0.,890.,0.,18.,92.,0.,0.,1000.,2.59590618162,11.5373608072,3364.29441138
0.002738,877.,0.,28.,95.,0.,0.,1000.,2.55798845088,7.30853843107,5156.90471697
0.005476,856.,0.,44.,100.,0.,0.,1000.,2.49673673198,4.53952133088,7909.66196693
0.008214,813.,0.,80.,107.,0.,0.,1000.,2.37131654568,2.37131654568,13658.7833031
0.010952,773.,0.,105.,122.,0.,0.,1000.,2.25464660493,1.71782598471,17045.1283333
0.01369,731.,0.,135.,134.,0.,0.,1000.,2.13214316715,1.2634922472,20724.4315847
0.016428,645.,0.,165.,190.,0.,0.,1000.,1.88130279454,0.912146809476,22349.8771992
0.019166,606.,0.,177.,217.,0.,0.,1000.,1.76754960232,0.798892475623,22525.6521319
0.021904,564.,0.,196.,240.,0.,0.,1000.,1.64504616453,0.671447414094,23214.8914739
0.024642,482.,0.,198.,320.,0.,0.,1000.,1.405872786,0.568029408485,20042.1224372
0.02738,427.,0.,230.,343.,0.,0.,1000.,1.24545161747,0.433200562599,20624.6787854
0.030118,375.,0.,249.,376.,0.,0.,1000.,1.0937806945,0.351415484177,19609.300291
0.032856,294.,0.,252.,454.,0.,0.,1000.,0.85752406449,0.272229861743,15558.9166261
0.035594,251.,0.,251.,498.,0.,0.,1000.,0.732103878187,0.233339881494,13230.5812866
0.038332,220.,0.,237.,543.,0.,0.,1000.,0.641684674108,0.21660242164,10949.707279
0.04107,172.,0.,219.,609.,0.,0.,1000.,0.501680745212,0.18326237268,7910.5019905
0.043808,153.,0.,202.,645.,0.,0.,1000.,0.446262523357,0.176737633013,6490.4421397
0.046546,140.,0.,190.,670.,0.,0.,1000.,0.408344792614,0.171934649522,5586.15676296
0.049284,122.,0.,146.,732.,0.,0.,1000.,0.355843319278,0.1949826407,3740.62497225
0.052022,116.,0.,121.,763.,0.,0.,1000.,0.338342828166,0.22369773763,2947.64271898
0.05476,107.,0.,110.,782.,0.,0.,999.,0.312404495994,0.227203269814,2474.24360827
0.057498,98.,0.,94.,807.,0.,0.,999.,0.286127482312,0.243512750904,1936.51080029
0.060236,94.,0.,86.,819.,0.,0.,999.,0.274448809565,0.2553012182,1699.38702883
0.062974,93.,0.,67.,839.,0.,0.,999.,0.271529141378,0.324213900153,1309.85657801
0.065712,84.,0.,60.,855.,0.,0.,999.,0.245252127696,0.327002836928,1059.48919165
0.06845,83.,0.,53.,863.,0.,0.,999.,0.242332459509,0.365784844542,924.740665488
0.071188,74.,0.,52.,873.,0.,0.,999.,0.216055445828,0.332392993581,808.911589179
0.073926,73.,0.,41.,885.,0.,0.,999.,0.213135777641,0.41587468808,629.176815596
0.076664,70.,0.,33.,895.,0.,0.,998.,0.204581559426,0.495955295578,486.085785196
0.079402,66.,0.,25.,906.,0.,0.,997.,0.193084656201,0.617870899843,347.552381162
0.08214,63.,0.,27.,906.,0.,0.,996.,0.184493129193,0.54664630872,358.654643152
