t,s,e,i,r,c,o,n,reff,coal,reportr
0.,934.,0.,17.,49.,0.,0.,1000.,2.81125705917,13.2294449843,3440.97864042
0.002738,911.,0.,30.,59.,0.,0.,1000.,2.74202910161,7.31207760428,5922.78285947
0.005476,896.,0.,40.,64.,0.,0.,1000.,2.69688043363,5.39376086726,7767.01564886
0.008214,848.,0.,73.,79.,0.,0.,1000.,2.55240469612,2.79715583136,13415.4390828
0.010952,808.,0.,105.,87.,0.,0.,1000.,2.43200824819,1.85295866528,18385.9823563
0.01369,769.,0.,127.,104.,0.,0.,1000.,2.31462171145,1.45802942454,21164.9009295
0.016428,674.,0.,170.,156.,0.,0.,1000.,2.02868014762,0.954673010645,24831.0450069
0.019166,629.,0.,184.,187.,0.,0.,1000.,1.8932341437,0.823145279869,25081.5659357
0.021904,579.,0.,195.,226.,0.,0.,1000.,1.74273858379,0.7149696754,24468.0497164
0.024642,489.,0.,203.,308.,0.,0.,1000.,1.47184657594,0.580038059485,21512.509554
0.02738,436.,0.,228.,336.,0.,0.,1000.,1.31232128244,0.460463607873,21543.0661725
0.030118,382.,0.,248.,370.,0.,0.,1000.,1.14978607773,0.370898734752,20530.580204
0.032856,288.,0.,253.,459.,0.,0.,1000.,0.866854425096,0.274104166038,15790.6202075
0.035594,251.,0.,249.,500.,0.,0.,1000.,0.755487710761,0.242726975345,13544.3836785
0.038332,225.,0.,234.,541.,0.,0.,1000.,0.677230019606,0.231531630635,11409.9713703
0.04107,177.,0.,215.,608.,0.,0.,1000.,0.53275428209,0.198234151475,8247.03628676
0.043808,159.,0.,196.,645.,0.,0.,1000.,0.478575880522,0.195337094091,6753.66282592
0.046546,138.,0.,183.,679.,0.,0.,1000.,0.415367745359,0.181581528026,5472.88541284
0.049284,116.,0.,152.,732.,0.,0.,1000.,0.349149698997,0.183762999472,3821.09430582
0.052022,108.,0.,126.,766.,0.,0.,1000.,0.325070409411,0.206393910737,2949.03875418
0.05476,101.,0.,114.,785.,0.,0.,1000.,0.304001031023,0.213334056858,2495.24046264
0.057498,91.,0.,95.,814.,0.,0.,1000.,0.273901919041,0.230654247613,1873.48912624
0.060236,88.,0.,83.,829.,0.,0.,1000.,0.264872185446,0.255298491996,1582.87618023
0.062974,85.,0.,69.,846.,0.,0.,1000.,0.255842451851,0.296628929683,1271.0253008
0.065712,79.,0.,61.,860.,0.,0.,1000.,0.237782984662,0.311846537261,1044.34286863
0.06845,77.,0.,55.,868.,0.,0.,1000.,0.231763162265,0.337110054204,917.78212257
0.071188,73.,0.,51.,876.,0.,0.,1000.,0.219723517472,0.344664341133,806.824756158
0.073926,71.,0.,43.,886.,0.,0.,1000.,0.213703695076,0.397588269908,661.626639955
0.076664,70.,0.,34.,896.,0.,0.,1000.,0.210693783878,0.495750079712,515.778382932
0.079402,66.,0.,28.,906.,0.,0.,1000.,0.198654139085,0.567583254527,400.486744394
0.08214,65.,0.,26.,909.,0.,0.,1000.,0.195644227886,0.60198223965,366.245994603
