t,s,e,i,r,c,o,n,reff,coal,reportr
0.,940.,0.,20.,40.,0.,0.,1000.,2.40756780175,9.63027120701,3466.89763452
0.002738,923.,0.,30.,47.,0.,0.,1000.,2.36402668193,6.30407115182,5106.29763297
0.005476,910.,0.,39.,51.,0.,0.,1000.,2.33073053148,4.78098570561,6544.6913324
0.008214,865.,0.,71.,64.,0.,0.,1000.,2.21547462608,2.49630943784,11325.5062885
0.010952,825.,0.,104.,71.,0.,0.,1000.,2.11302493239,1.62540379414,15822.3306937
0.01369,783.,0.,131.,86.,0.,0.,1000.,2.00545275401,1.22470397192,18915.4303758
0.016428,697.,0.,168.,135.,0.,0.,1000.,1.78518591258,0.850088529798,21593.6087985
0.019166,647.,0.,184.,169.,0.,0.,1000.,1.65712379546,0.720488606722,21953.5760423
0.021904,603.,0.,197.,200.,0.,0.,1000.,1.5444291324,0.627179343107,21906.182814
0.024642,528.,0.,204.,268.,0.,0.,1000.,1.35233595673,0.530327826168,19863.1105324
0.02738,472.,0.,226.,302.,0.,0.,1000.,1.20890638556,0.427931463915,19671.3247058
0.030118,415.,0.,252.,333.,0.,0.,1000.,1.06291557205,0.337433514936,19285.5401393
0.032856,329.,0.,255.,416.,0.,0.,1000.,0.842648730613,0.264360386075,15471.0306941
0.035594,295.,0.,253.,452.,0.,0.,1000.,0.755566490975,0.238914305447,13763.3991996
0.038332,262.,0.,234.,504.,0.,0.,1000.,0.67104549368,0.229417262796,11305.7744775
0.04107,205.,0.,214.,581.,0.,0.,1000.,0.525054680169,0.196282123428,8090.04251205
0.043808,183.,0.,196.,621.,0.,0.,1000.,0.468707348639,0.191309121893,6614.39810399
0.046546,172.,0.,174.,654.,0.,0.,1000.,0.440533682874,0.202544222011,5519.00597904
0.049284,153.,0.,144.,704.,0.,0.,1001.,0.39147859977,0.217488110984,4058.85012242
0.052022,147.,0.,128.,726.,0.,0.,1001.,0.376126497819,0.235079061137,3466.3818039
0.05476,145.,0.,109.,747.,0.,0.,1001.,0.371009130501,0.272300279267,2911.67965617
0.057498,130.,0.,96.,775.,0.,0.,1001.,0.332628875622,0.277190729685,2299.1307883
0.060236,125.,0.,81.,795.,0.,0.,1001.,0.319835457329,0.315886871436,1865.28038714
0.062974,123.,0.,73.,805.,0.,0.,1001.,0.314718090012,0.344896536999,1654.1582811
0.065712,116.,0.,60.,825.,0.,0.,1001.,0.296807304401,0.395743072535,1282.20755501
0.06845,114.,0.,53.,834.,0.,0.,1001.,0.291689937084,0.440286697485,1113.08879991
0.071188,107.,0.,52.,842.,0.,0.,1001.,0.273779151473,0.421198694575,1025.02914312
0.073926,104.,0.,43.,854.,0.,0.,1001.,0.266103100498,0.495075535809,823.85519914
0.076664,102.,0.,35.,864.,0.,0.,1001.,0.26098573318,0.596538818698,657.684047614
0.079402,100.,0.,24.,877.,0.,0.,1001.,0.255868365863,0.852894552877,442.140536211
0.08214,97.,0.,26.,878.,0.,0.,1001.,0.248192314887,0.763668661191,464.616013469
