t,s,e,i,r,c,o,n,reff,coal,reportr
0.,949.,0.,17.,34.,0.,0.,1000.,2.37087372907,11.1570528427,2901.94944438
0.002738,934.,0.,29.,37.,0.,0.,1000.,2.33339943409,6.43696395611,4872.13801838
0.005476,916.,0.,42.,42.,0.,0.,1000.,2.28843028011,4.35891481927,6920.21316707
0.008214,870.,0.,73.,57.,0.,0.,1000.,2.17350910884,2.38192779051,11423.9638761
0.010952,833.,0.,101.,66.,0.,0.,1000.,2.08107251456,1.64837426896,15133.5593259
0.01369,790.,0.,134.,76.,0.,0.,1000.,1.97364620228,1.17829624017,19041.7385596
0.016428,707.,0.,166.,127.,0.,0.,1000.,1.76628843673,0.851223343001,21110.6793958
0.019166,665.,0.,175.,160.,0.,0.,1000.,1.66136041078,0.759479044929,20933.1411759
0.021904,620.,0.,193.,187.,0.,0.,1000.,1.54893752584,0.642046642836,21524.0358591
0.024642,550.,0.,197.,253.,0.,0.,1000.,1.3740574826,0.557992886336,19489.6313332
0.02738,497.,0.,229.,274.,0.,0.,1000.,1.24164830701,0.433763600701,20472.2972859
0.030118,443.,0.,256.,301.,0.,0.,1000.,1.10674084508,0.345856514087,20399.4472565
0.032856,364.,0.,254.,382.,0.,0.,1000.,0.909376224849,0.286417708614,16630.6724
0.035594,323.,0.,254.,423.,0.,0.,1000.,0.806946485237,0.254156373303,14757.437322
0.038332,301.,0.,235.,464.,0.,0.,1000.,0.751984185933,0.255994616488,12723.572426
0.04107,257.,0.,212.,531.,0.,0.,1000.,0.642059587325,0.242286636726,9800.39754093
0.043808,240.,0.,198.,562.,0.,0.,1000.,0.599588719681,0.242258068558,8547.73678777
0.046546,229.,0.,175.,596.,0.,0.,1000.,0.572107570029,0.261534889156,7208.55538236
0.049284,201.,0.,144.,655.,0.,0.,1000.,0.502155552733,0.278975307074,5206.34877073
0.052022,190.,0.,127.,683.,0.,0.,1000.,0.474674403081,0.299007498004,4340.42274177
0.05476,181.,0.,111.,708.,0.,0.,1000.,0.452189826093,0.325902577364,3613.90109013
0.057498,163.,0.,101.,736.,0.,0.,1000.,0.407220672116,0.322551027419,2961.30872763
0.060236,155.,0.,84.,761.,0.,0.,1000.,0.38723438146,0.36879464901,2341.99353907
0.062974,151.,0.,71.,778.,0.,0.,1000.,0.377241236132,0.425060547755,1928.45719911
0.065712,141.,0.,60.,799.,0.,0.,1000.,0.352258372812,0.469677830417,1521.75617055
0.06845,137.,0.,55.,808.,0.,0.,1000.,0.342265227484,0.497840330886,1355.37030084
0.071188,128.,0.,54.,818.,0.,0.,1000.,0.319780650496,0.473749111846,1243.30716913
0.073926,127.,0.,39.,834.,0.,0.,1000.,0.317282364164,0.650835618799,890.928878574
0.076664,124.,0.,34.,842.,0.,0.,1000.,0.309787505168,0.728911776867,758.359812652
0.079402,119.,0.,25.,856.,0.,0.,1000.,0.297296073508,0.951347435227,535.132932315
0.08214,117.,0.,26.,857.,0.,0.,1000.,0.292299500844,0.899383079521,547.184665581
