t,s,e,i,r,c,o,n,reff,coal,reportr
0.,927.,0.,17.,56.,0.,0.,1000.,2.53639100474,11.9359576694,3104.5425898
0.002738,913.,0.,29.,58.,0.,0.,1000.,2.49808520747,6.89126953785,5216.0019132
0.005476,897.,0.,38.,65.,0.,0.,1000.,2.45430715345,5.16696242832,6714.98437184
0.008214,848.,0.,77.,75.,0.,0.,1000.,2.32023686302,2.41063570184,12863.3931686
0.010952,814.,0.,103.,83.,0.,0.,1000.,2.22720849823,1.72987067823,16516.9782229
0.01369,770.,0.,132.,98.,0.,0.,1000.,2.10681884967,1.27685990889,20023.2063473
0.016428,690.,0.,164.,145.,0.,0.,999.,1.88981839798,0.921862633159,22314.9756433
0.019166,642.,0.,181.,176.,0.,0.,999.,1.75835277029,0.777172495156,22914.8533024
0.021904,601.,0.,198.,200.,0.,0.,999.,1.64605921331,0.66507442962,23466.2201449
0.024642,514.,0.,194.,291.,0.,0.,999.,1.40777776313,0.580526912631,19663.8397954
0.02738,456.,0.,228.,315.,0.,0.,999.,1.24892346301,0.438218758951,20502.3275688
0.030118,410.,0.,249.,340.,0.,0.,999.,1.12293556981,0.360782512389,20131.9888956
0.032856,319.,0.,253.,426.,0.,0.,998.,0.874574100208,0.276545170026,15931.2418094
0.035594,282.,0.,252.,464.,0.,0.,998.,0.773134471031,0.245439514613,14027.7518424
0.038332,249.,0.,238.,511.,0.,0.,998.,0.68266128825,0.229465979244,11698.0838355
0.04107,207.,0.,207.,584.,0.,0.,998.,0.567513601076,0.219328927952,8458.22271043
0.043808,181.,0.,199.,618.,0.,0.,998.,0.496231699491,0.199490130449,7110.00779031
0.046546,169.,0.,176.,653.,0.,0.,998.,0.463332360298,0.210605618317,5871.3476697
0.049284,145.,0.,144.,709.,0.,0.,998.,0.397533681913,0.220852045507,4121.62921407
0.052022,133.,0.,125.,739.,0.,0.,997.,0.365000074257,0.233600047525,3285.00066832
0.05476,123.,0.,107.,767.,0.,0.,997.,0.337556459652,0.252378661422,2600.53496516
0.057498,107.,0.,94.,796.,0.,0.,997.,0.293646676282,0.249912064921,1987.40070508
0.060236,104.,0.,84.,809.,0.,0.,997.,0.285413591901,0.271822468477,1726.18140381
0.062974,101.,0.,69.,827.,0.,0.,997.,0.277180507519,0.32136870437,1377.03276135
0.065712,93.,0.,62.,842.,0.,0.,997.,0.255225615834,0.32932337527,1139.32714908
0.06845,89.,0.,57.,851.,0.,0.,997.,0.244248169992,0.342804449111,1002.39448965
0.071188,84.,0.,53.,860.,0.,0.,997.,0.230526362689,0.34796432104,879.688600021
0.073926,83.,0.,43.,871.,0.,0.,997.,0.227782001228,0.423780467402,705.213075803
0.076664,82.,0.,38.,877.,0.,0.,997.,0.225037639768,0.473763452143,615.702982405
0.079402,79.,0.,26.,892.,0.,0.,997.,0.216804555386,0.667090939649,405.858127683
0.08214,78.,0.,27.,892.,0.,0.,997.,0.214060193925,0.634252426446,416.133016991
