t,s,e,i,r,c,o,n,reff,coal,reportr
0.,946.,0.,20.,34.,0.,0.,1000.,2.63757704371,10.5503081748,3798.11094294
0.002738,930.,0.,26.,44.,0.,0.,1000.,2.59296686115,7.97835957276,4854.03396407
0.005476,911.,0.,40.,49.,0.,0.,1000.,2.53999226936,5.07998453872,7315.17773576
0.008214,867.,0.,73.,60.,0.,0.,1000.,2.41731426733,2.64911152584,12705.4037891
0.010952,824.,0.,107.,69.,0.,0.,1000.,2.29742440171,1.71770048726,17699.3575907
0.01369,781.,0.,131.,88.,0.,0.,1000.,2.17753453608,1.3297920831,20538.5057443
0.016428,700.,0.,161.,139.,0.,0.,1000.,1.95169548689,0.969786577334,22624.054084
0.019166,657.,0.,179.,164.,0.,0.,1000.,1.83180562126,0.818684076542,23608.3108468
0.021904,605.,0.,200.,195.,0.,0.,1000.,1.68682252795,0.67472901118,24290.2444025
0.024642,518.,0.,206.,276.,0.,0.,1000.,1.4442546603,0.560875596231,21421.1851215
0.02738,469.,0.,232.,299.,0.,0.,1000.,1.30763597621,0.450908957315,21842.7513467
0.030118,414.,0.,253.,333.,0.,0.,1000.,1.15428847367,0.364992402742,21026.5188364
0.032856,322.,0.,255.,423.,0.,0.,1000.,0.897779923967,0.281656446735,16483.239404
0.035594,285.,0.,251.,464.,0.,0.,1000.,0.794618876803,0.253264980654,14360.3523416
0.038332,250.,0.,233.,517.,0.,0.,1000.,0.697034102459,0.23932501372,11693.4441029
0.04107,193.,0.,218.,589.,0.,0.,1000.,0.538110327098,0.197471679669,8446.17969414
0.043808,179.,0.,194.,627.,0.,0.,1000.,0.499076417361,0.20580470819,6971.0993977
0.046546,162.,0.,177.,662.,0.,0.,1001.,0.451226871522,0.203944348711,5750.43525068
0.049284,122.,0.,148.,731.,0.,0.,1001.,0.339812829171,0.183682610363,3621.04550765
0.052022,116.,0.,127.,758.,0.,0.,1001.,0.323100722818,0.203528014374,2954.43300945
0.05476,111.,0.,105.,785.,0.,0.,1001.,0.309173967524,0.235561118114,2337.35519448
0.057498,100.,0.,94.,807.,0.,0.,1001.,0.278535105878,0.237051153939,1885.12559658
0.060236,98.,0.,85.,818.,0.,0.,1001.,0.27296440376,0.256907674127,1670.54215101
0.062974,95.,0.,68.,839.,0.,0.,1002.,0.264344270394,0.310993259287,1294.22954785
0.065712,89.,0.,61.,852.,0.,0.,1002.,0.24764884279,0.324785367593,1087.67371753
0.06845,86.,0.,53.,863.,0.,0.,1002.,0.239301128988,0.361209251303,913.173108218
0.071188,79.,0.,51.,872.,0.,0.,1002.,0.219823130117,0.344820596262,807.190533789
0.073926,78.,0.,44.,880.,0.,0.,1002.,0.21704055885,0.394619197908,687.584490435
0.076664,77.,0.,38.,887.,0.,0.,1002.,0.214257987582,0.451069447542,586.209854025
0.079402,76.,0.,29.,897.,0.,0.,1002.,0.211475416315,0.5833804588,441.560669266
0.08214,75.,0.,29.,898.,0.,0.,1002.,0.208692845048,0.575704400131,435.75066046
