t,s,e,i,r,c,o,n,reff,coal,reportr
0.,877.,0.,8.,115.,0.,0.,1000.,2.7299202125,27.299202125,1572.4340424
0.002738,869.,0.,12.,119.,0.,0.,1000.,2.70501786165,18.033452411,2337.13543246
0.005476,863.,0.,16.,121.,0.,0.,1000.,2.68634109851,13.4317054925,3094.66494548
0.008214,852.,0.,27.,122.,0.,0.,1001.,2.64945091516,7.85022493382,5150.53257908
0.010952,838.,0.,37.,126.,0.,0.,1001.,2.60591533675,5.63441153891,6942.15845709
0.01369,811.,0.,62.,128.,0.,0.,1001.,2.52195386408,3.25413401817,11258.0020493
0.016428,765.,0.,92.,143.,0.,0.,1000.,2.38128730053,2.07068460916,15773.6470787
0.019166,723.,0.,124.,153.,0.,0.,1000.,2.25054995854,1.45196771519,20092.9100298
0.021904,674.,0.,150.,176.,0.,0.,1000.,2.09802305955,1.11894563176,22658.6490432
0.024642,563.,0.,204.,233.,0.,0.,1000.,1.75250294144,0.687256055465,25740.7632038
0.02738,508.,0.,227.,265.,0.,0.,1000.,1.58129927931,0.557286089623,25844.755421
0.030118,445.,0.,251.,304.,0.,0.,1000.,1.38519326632,0.441495861776,25033.2127089
0.032856,344.,0.,267.,388.,0.,0.,999.,1.07187295973,0.321160437373,20605.6857779
0.035594,312.,0.,256.,431.,0.,0.,999.,0.9721638472,0.30380120225,17918.9240316
0.038332,283.,0.,242.,474.,0.,0.,999.,0.881802463967,0.291504946766,15364.5261322
0.04107,221.,0.,211.,567.,0.,0.,999.,0.688616058433,0.261086657226,10461.4551597
0.043808,196.,0.,199.,604.,0.,0.,999.,0.610718314267,0.245514900208,8750.37200681
0.046546,182.,0.,178.,639.,0.,0.,999.,0.567095577533,0.254874416869,7267.89692167
0.049284,158.,0.,142.,699.,0.,0.,999.,0.492313743133,0.277359855286,5033.4157098
0.052022,147.,0.,125.,727.,0.,0.,999.,0.4580387357,0.293144790848,4122.3486213
0.05476,141.,0.,115.,743.,0.,0.,999.,0.4393432771,0.305630105809,3637.76233439
0.057498,124.,0.,94.,781.,0.,0.,999.,0.386372811067,0.328827924312,2614.9711853
0.060236,118.,0.,84.,797.,0.,0.,999.,0.367677352467,0.350168907111,2223.71262772
0.062974,115.,0.,69.,815.,0.,0.,999.,0.358329623167,0.415454635556,1780.18156789
0.065712,102.,0.,61.,837.,0.,0.,1000.,0.317504973404,0.41639996512,1394.48184319
0.06845,99.,0.,55.,846.,0.,0.,1000.,0.308166591833,0.448242315394,1220.33970366
0.071188,92.,0.,51.,857.,0.,0.,1000.,0.286377034835,0.449218878172,1051.57647191
0.073926,90.,0.,44.,866.,0.,0.,1000.,0.280151447121,0.509366267493,887.519784479
0.076664,89.,0.,37.,874.,0.,0.,1000.,0.277038653264,0.599002493544,738.030972296
0.079402,86.,0.,26.,888.,0.,0.,1000.,0.267700271693,0.823693143672,501.13490861
0.08214,84.,0.,27.,889.,0.,0.,1000.,0.26147468398,0.774739804384,508.306785656
