t,s,e,i,r,c,o,n,reff,coal,reportr
0.,946.,0.,17.,37.,0.,0.,1000.,2.86621638901,13.4880771248,3508.24886015
0.002738,921.,0.,32.,47.,0.,0.,1000.,2.79047071277,6.97617678193,6429.24452223
0.005476,899.,0.,46.,55.,0.,0.,1000.,2.72381451768,4.7370687264,9021.27368255
0.008214,856.,0.,69.,75.,0.,0.,1000.,2.59353195454,3.00699357048,12884.6667502
0.010952,812.,0.,107.,81.,0.,0.,1000.,2.46021956435,1.83941649671,18953.5315238
0.01369,773.,0.,130.,97.,0.,0.,1000.,2.34205630942,1.44126542118,21921.6470561
0.016428,671.,0.,172.,157.,0.,0.,1000.,2.03301395035,0.945587883883,25176.8447611
0.019166,617.,0.,184.,199.,0.,0.,1000.,1.86940328966,0.812784038984,24765.8547815
0.021904,573.,0.,195.,232.,0.,0.,1000.,1.73609089948,0.712242420298,24374.7162287
0.024642,477.,0.,203.,320.,0.,0.,1000.,1.44522750271,0.569547784318,21123.4451796
0.02738,417.,0.,233.,350.,0.,0.,1000.,1.26343787972,0.433798413639,21195.4338703
0.030118,359.,0.,255.,386.,0.,0.,1000.,1.08770791084,0.341241697519,19970.3172431
0.032856,275.,0.,256.,469.,0.,0.,1000.,0.833202438667,0.260375762083,15357.5873495
0.035594,240.,0.,254.,506.,0.,0.,1000.,0.727158491928,0.22902629667,13298.2745004
0.038332,211.,0.,239.,550.,0.,0.,1000.,0.639293507486,0.213989458573,11000.9626768
0.04107,167.,0.,213.,619.,0.,0.,999.,0.506487604904,0.190230086349,7767.49390882
0.043808,152.,0.,199.,648.,0.,0.,999.,0.46099470626,0.185324505029,6605.1321513
0.046546,134.,0.,175.,690.,0.,0.,999.,0.406403227887,0.185784332749,5120.68067138
0.049284,114.,0.,145.,740.,0.,0.,999.,0.345746029695,0.190756430177,3609.58855002
0.052022,111.,0.,127.,761.,0.,0.,999.,0.336647449966,0.212061385806,3078.30428249
0.05476,104.,0.,111.,784.,0.,0.,999.,0.315417430599,0.227327877909,2520.81610535
0.057498,88.,0.,94.,817.,0.,0.,999.,0.266891672045,0.227141848549,1806.3228364
0.060236,85.,0.,85.,829.,0.,0.,999.,0.257793092317,0.242628792769,1577.69372498
0.062974,82.,0.,70.,847.,0.,0.,999.,0.248694512588,0.2842223001,1253.42034344
0.065712,77.,0.,59.,863.,0.,0.,999.,0.23353021304,0.316651136325,992.036344993
0.06845,75.,0.,51.,873.,0.,0.,999.,0.227464493221,0.356807048189,835.249619106
0.071188,67.,0.,51.,881.,0.,0.,999.,0.203201613944,0.318747629716,746.156326401
0.073926,67.,0.,41.,891.,0.,0.,999.,0.203201613944,0.396490954037,599.851164362
0.076664,67.,0.,36.,896.,0.,0.,999.,0.203201613944,0.451559142097,526.698583342
0.079402,68.,0.,26.,906.,0.,0.,1000.,0.206028239379,0.633933044245,385.684864118
0.08214,67.,0.,25.,908.,0.,0.,1000.,0.20299841233,0.649594919455,365.397142194
