t,s,e,i,r,c,o,n,reff,coal,reportr
0.,935.,0.,17.,48.,0.,0.,1000.,2.56159389541,12.0545595078,3135.39092798
0.002738,922.,0.,25.,53.,0.,0.,1000.,2.52597815141,8.0831300845,4546.76067253
0.005476,903.,0.,43.,54.,0.,0.,1000.,2.47392437171,4.60264999388,7659.26985482
0.008214,855.,0.,73.,72.,0.,0.,1000.,2.34242008617,2.56703571087,12311.7599729
0.010952,813.,0.,108.,79.,0.,0.,1000.,2.22735383633,1.64989173061,17319.9034313
0.01369,778.,0.,132.,90.,0.,0.,1000.,2.13146529479,1.29179714836,20257.4461617
0.016428,683.,0.,167.,150.,0.,0.,1000.,1.87119639632,0.896381507221,22499.2654694
0.019166,641.,0.,178.,181.,0.,0.,1000.,1.75613014648,0.789271975944,22506.5639572
0.021904,601.,0.,187.,212.,0.,0.,1000.,1.64654324186,0.704403525929,22169.0582084
0.024642,511.,0.,200.,289.,0.,0.,1000.,1.39997270647,0.559989082589,20159.6069732
0.02738,454.,0.,231.,315.,0.,0.,1000.,1.24381136739,0.430757183513,20687.0706625
0.030118,400.,0.,254.,346.,0.,0.,1000.,1.09586904616,0.345155605091,20041.2531162
0.032856,310.,0.,254.,436.,0.,0.,1000.,0.849298510776,0.267495593945,15531.9711651
0.035594,276.,0.,256.,469.,0.,0.,1001.,0.755394247605,0.236060702376,13923.4267719
0.038332,251.,0.,234.,516.,0.,0.,1001.,0.686970855612,0.234861830978,11574.0849753
0.04107,202.,0.,216.,584.,0.,0.,1002.,0.552309249813,0.204558981412,8589.51345309
0.043808,177.,0.,201.,624.,0.,0.,1002.,0.483954144638,0.19261856503,7003.7843812
0.046546,164.,0.,181.,657.,0.,0.,1002.,0.448409489947,0.198192039756,5843.67247299
0.049284,141.,0.,141.,720.,0.,0.,1002.,0.385522793186,0.218736336559,3913.82739642
0.052022,131.,0.,132.,739.,0.,0.,1002.,0.358180751116,0.217079243101,3404.14985861
0.05476,125.,0.,115.,762.,0.,0.,1002.,0.341775525874,0.237756887565,2829.90135424
0.057498,114.,0.,99.,789.,0.,0.,1002.,0.311699279597,0.251878205735,2221.79246497
0.060236,108.,0.,84.,811.,0.,0.,1003.,0.294999643533,0.28095204146,1784.15784409
0.062974,107.,0.,68.,829.,0.,0.,1004.,0.291977061602,0.343502425414,1429.5196936
0.065712,99.,0.,57.,848.,0.,0.,1004.,0.270147000922,0.379153685504,1108.68329178
0.06845,97.,0.,55.,852.,0.,0.,1004.,0.264689485751,0.385002888366,1048.17036358
0.071188,85.,0.,52.,867.,0.,0.,1004.,0.231944394731,0.356837530355,868.399813872
0.073926,82.,0.,43.,879.,0.,0.,1004.,0.223758121975,0.41629418042,692.755145636
0.076664,81.,0.,35.,888.,0.,0.,1004.,0.22102936439,0.50520997575,556.993998264
0.079402,79.,0.,26.,899.,0.,0.,1004.,0.21557184922,0.663297997601,403.55050174
0.08214,77.,0.,27.,900.,0.,0.,1004.,0.21011433405,0.622560989778,408.462265394
