t,s,e,i,r,c,o,n,reff,coal,reportr
0.,884.,0.,20.,96.,0.,0.,1000.,2.82408812979,11.2963525192,4066.6869069
0.002738,868.,0.,27.,105.,0.,0.,1000.,2.77297341251,8.21621751854,5390.66031392
0.005476,849.,0.,43.,108.,0.,0.,1000.,2.71227468574,5.04609243858,8397.20242704
0.008214,798.,0.,77.,125.,0.,0.,1000.,2.5493465244,2.64867171367,14133.5771313
0.010952,754.,0.,110.,136.,0.,0.,1000.,2.40878105188,1.751840765,19077.5459309
0.01369,705.,0.,134.,161.,0.,0.,1000.,2.25224223021,1.34462222699,21729.633037
0.016428,616.,0.,166.,218.,0.,0.,1000.,1.96791661533,0.948393549556,23520.5393864
0.019166,570.,0.,185.,245.,0.,0.,1000.,1.82096180314,0.787442941901,24255.2112179
0.021904,517.,0.,194.,289.,0.,0.,1000.,1.65164430215,0.681090433877,23070.1676124
0.024642,431.,0.,206.,363.,0.,0.,1000.,1.37690269676,0.534719493889,20422.2207984
0.02738,383.,0.,222.,395.,0.,0.,1000.,1.22355854492,0.440921998169,19557.359782
0.030118,328.,0.,256.,416.,0.,0.,1000.,1.04785170427,0.327453657583,19314.002613
0.032856,240.,0.,256.,504.,0.,0.,1000.,0.766720759219,0.239600237256,14132.1970339
0.035594,201.,0.,251.,548.,0.,0.,1000.,0.642128635846,0.204662513417,11604.548707
0.038332,171.,0.,236.,592.,0.,0.,999.,0.54683537632,0.185367924176,9291.82671443
0.04107,130.,0.,212.,657.,0.,0.,999.,0.415722800711,0.15687652857,6345.59283005
0.043808,115.,0.,201.,683.,0.,0.,999.,0.367754785244,0.146370063779,5322.14725206
0.046546,107.,0.,179.,713.,0.,0.,999.,0.342171843662,0.152925963648,4409.91072112
0.049284,86.,0.,149.,764.,0.,0.,999.,0.275016622009,0.14765993128,2950.37832091
0.052022,82.,0.,129.,788.,0.,0.,999.,0.262225151218,0.162620248817,2435.54720451
0.05476,77.,0.,113.,809.,0.,0.,999.,0.246235812729,0.1743262391,2003.37457236
0.057498,67.,0.,97.,835.,0.,0.,999.,0.214257135751,0.176706916083,1496.37183609
0.060236,61.,0.,83.,855.,0.,0.,999.,0.195069929564,0.188019209219,1165.73789908
0.062974,60.,0.,68.,871.,0.,0.,999.,0.191872061867,0.22573183749,939.405614899
0.065712,56.,0.,57.,886.,0.,0.,999.,0.179080591075,0.251341180457,734.946745774
0.06845,54.,0.,55.,890.,0.,0.,999.,0.17268485568,0.251177971898,683.832028493
0.071188,50.,0.,52.,897.,0.,0.,999.,0.159893384889,0.245989822906,598.640833024
0.073926,49.,0.,42.,908.,0.,0.,999.,0.156695517191,0.298467651792,473.847243986
0.076664,49.,0.,37.,912.,0.,0.,998.,0.156852526727,0.339140598329,417.855131202
0.079402,48.,0.,29.,921.,0.,0.,998.,0.153651454753,0.423866082078,320.824237525
0.08214,48.,0.,27.,923.,0.,0.,998.,0.153651454753,0.455263569639,298.69842804
