t,s,e,i,r,c,o,n,reff,coal,reportr
0.,967.,0.,21.,12.,0.,0.,1000.,2.4419495962,9.30266512837,3692.22778945
0.002738,947.,0.,31.,22.,0.,0.,1000.,2.39144391686,6.17146817253,5337.70282242
0.005476,934.,0.,42.,24.,0.,0.,1000.,2.35861522528,4.49260042911,7132.45244125
0.008214,888.,0.,73.,38.,0.,0.,999.,2.24469685966,2.45994176401,11798.1266943
0.010952,847.,0.,109.,43.,0.,0.,999.,2.14105657672,1.57141767099,16803.0120141
0.01369,808.,0.,131.,60.,0.,0.,999.,2.04247191734,1.24731109456,19264.5951244
0.016428,712.,0.,170.,118.,0.,0.,1000.,1.79800218458,0.846118675098,22007.5467393
0.019166,666.,0.,181.,153.,0.,0.,1000.,1.6818391221,0.743354308109,21917.7274392
0.021904,627.,0.,187.,186.,0.,0.,1000.,1.58335304738,0.677370287649,21318.2654299
0.024642,535.,0.,203.,262.,0.,0.,1000.,1.3510269224,0.532424402918,19746.6094979
0.02738,484.,0.,220.,296.,0.,0.,1000.,1.22223744008,0.444449978212,19360.2410509
0.030118,428.,0.,246.,326.,0.,0.,1000.,1.08082153792,0.351486679,19143.5110797
0.032856,345.,0.,251.,404.,0.,0.,1000.,0.871222968654,0.277680627459,15744.7414895
0.035594,304.,0.,255.,440.,0.,0.,999.,0.768454780783,0.241083852795,14108.8297752
0.038332,275.,0.,236.,488.,0.,0.,999.,0.695148239195,0.235643470914,11811.9588804
0.04107,220.,0.,213.,566.,0.,0.,999.,0.556118591356,0.208870832434,8528.63471704
0.043808,200.,0.,193.,606.,0.,0.,999.,0.505562355778,0.209559525711,7025.29449589
0.046546,179.,0.,178.,642.,0.,0.,999.,0.452478308421,0.203361037493,5798.96200073
0.049284,161.,0.,145.,693.,0.,0.,999.,0.406977696401,0.224539418704,4248.84715043
0.052022,153.,0.,126.,720.,0.,0.,999.,0.38675520217,0.245558858521,3508.64319409
0.05476,146.,0.,109.,744.,0.,0.,999.,0.369060519718,0.270870106215,2896.38695875
0.057498,127.,0.,96.,776.,0.,0.,999.,0.321032095919,0.267526746599,2218.97384699
0.060236,122.,0.,84.,793.,0.,0.,999.,0.308393037025,0.293707654309,1865.16108793
0.062974,121.,0.,72.,806.,0.,0.,999.,0.305865225246,0.339850250273,1585.60532767
0.065712,114.,0.,62.,824.,0.,0.,1000.,0.287882372251,0.371461125485,1285.10690973
0.06845,111.,0.,59.,830.,0.,0.,1000.,0.280306520349,0.380076637762,1190.74209844
0.071188,106.,0.,53.,841.,0.,0.,1000.,0.267680100514,0.404045434738,1021.46726356
0.073926,104.,0.,43.,853.,0.,0.,1000.,0.26262953258,0.488613083869,813.101032867
0.076664,102.,0.,36.,862.,0.,0.,1000.,0.257578964645,0.572397699212,667.644676361
0.079402,100.,0.,27.,873.,0.,0.,1000.,0.252528396711,0.748232286552,490.915203207
0.08214,99.,0.,28.,873.,0.,0.,1000.,0.250003112744,0.71429460784,504.006275292
