t,s,e,i,r,c,o,n,reff,coal,reportr
0.,914.,0.,17.,69.,0.,0.,1000.,2.61191083653,12.2913451131,3196.97886391
0.002738,898.,0.,29.,74.,0.,0.,1001.,2.56362448405,7.07206754221,5352.8479227
0.005476,877.,0.,46.,78.,0.,0.,1001.,2.50367335469,4.3542145299,8292.16615074
0.008214,830.,0.,78.,93.,0.,0.,1001.,2.36949701755,2.43025335134,13307.0952506
0.010952,790.,0.,107.,105.,0.,0.,1002.,2.25305358742,1.68452604667,17357.5248375
0.01369,748.,0.,131.,123.,0.,0.,1002.,2.13327099163,1.30276091092,20121.011993
0.016428,664.,0.,163.,175.,0.,0.,1002.,1.89370580006,0.929426159537,22224.5312695
0.019166,617.,0.,182.,203.,0.,0.,1002.,1.75966337144,0.773478405028,23058.6288193
0.021904,570.,0.,202.,230.,0.,0.,1002.,1.62562094282,0.643810274384,23643.0309924
0.024642,494.,0.,201.,308.,0.,0.,1003.,1.40746682627,0.560185801499,20368.8599097
0.02738,443.,0.,225.,335.,0.,0.,1003.,1.26216154663,0.448768549913,20447.0170554
0.030118,387.,0.,252.,364.,0.,0.,1003.,1.10261065135,0.350035127411,20005.767658
0.032856,312.,0.,255.,435.,0.,0.,1002.,0.889813568701,0.279157198024,16336.9771214
0.035594,264.,0.,255.,483.,0.,0.,1002.,0.752919173516,0.236209936789,13823.5960258
0.038332,239.,0.,239.,524.,0.,0.,1002.,0.681620009358,0.228157325308,11729.317121
0.04107,190.,0.,223.,589.,0.,0.,1002.,0.541873647606,0.19439413367,8700.32328597
0.043808,177.,0.,201.,624.,0.,0.,1002.,0.504798082244,0.2009146596,7305.43784623
0.046546,168.,0.,183.,651.,0.,0.,1002.,0.479130383147,0.209455905201,6313.02192834
0.049284,148.,0.,141.,713.,0.,0.,1002.,0.42209105182,0.23948428472,4285.06835807
0.052022,140.,0.,129.,733.,0.,0.,1002.,0.399275319289,0.247612601109,3708.46916556
0.05476,136.,0.,110.,756.,0.,0.,1002.,0.387867453024,0.282085420381,3071.91022795
0.057498,120.,0.,96.,786.,0.,0.,1002.,0.342235987962,0.285196656635,2365.53514879
0.060236,116.,0.,84.,802.,0.,0.,1002.,0.330828121697,0.315074401616,2000.84848002
0.062974,113.,0.,68.,821.,0.,0.,1002.,0.322272221997,0.379143790585,1577.8447989
0.065712,105.,0.,59.,838.,0.,0.,1002.,0.299456489467,0.406042697582,1272.09116725
0.06845,102.,0.,54.,847.,0.,0.,1003.,0.290610559269,0.430534161881,1129.89385444
0.071188,92.,0.,55.,856.,0.,0.,1003.,0.262119327968,0.381264477045,1037.99253876
0.073926,91.,0.,44.,868.,0.,0.,1003.,0.259270204838,0.471400372433,821.368008928
0.076664,90.,0.,34.,880.,0.,0.,1004.,0.256165682225,0.602742781705,627.093590086
0.079402,87.,0.,26.,891.,0.,0.,1004.,0.24762682615,0.761928695847,463.557418553
0.08214,85.,0.,25.,894.,0.,0.,1004.,0.241934255434,0.77418961739,435.481659782
