t,s,e,i,r,c,o,n,reff,coal,reportr
0.,976.,0.,18.,6.,0.,0.,1000.,2.52858321606,11.2381476269,3277.04384801
0.002738,957.,0.,30.,14.,0.,0.,1001.,2.47688186585,6.60501830893,5350.06483023
0.005476,940.,0.,41.,20.,0.,0.,1001.,2.43288291943,4.74708862328,7181.87037817
0.008214,895.,0.,74.,32.,0.,0.,1001.,2.3164151201,2.50423256227,12341.8597599
0.010952,856.,0.,105.,40.,0.,0.,1001.,2.21547636068,1.68798198909,16749.0012867
0.01369,809.,0.,137.,55.,0.,0.,1001.,2.0938322147,1.22267574581,20653.5609658
0.016428,722.,0.,171.,108.,0.,0.,1001.,1.86866113599,0.874227432042,23006.9559063
0.019166,675.,0.,179.,147.,0.,0.,1001.,1.74701699002,0.780789716209,22515.5549674
0.021904,622.,0.,198.,181.,0.,0.,1001.,1.60984380414,0.650441941065,22949.9332718
0.024642,534.,0.,201.,266.,0.,0.,1001.,1.3820845521,0.550083403822,20001.527638
0.02738,476.,0.,238.,287.,0.,0.,1001.,1.23197049963,0.414107730967,21111.0464816
0.030118,430.,0.,246.,325.,0.,0.,1001.,1.11291452697,0.361923423406,19711.9421018
0.032856,347.,0.,253.,402.,0.,0.,1002.,0.897199838001,0.283699553518,16343.392249
0.035594,314.,0.,249.,439.,0.,0.,1002.,0.81187535773,0.260843488427,14555.3014134
0.038332,281.,0.,243.,478.,0.,0.,1002.,0.726550877459,0.239193704513,12711.734152
0.04107,231.,0.,213.,558.,0.,0.,1002.,0.597271361897,0.224327272074,9159.75360605
0.043808,212.,0.,201.,589.,0.,0.,1002.,0.548145145983,0.218167222282,7932.75655267
0.046546,195.,0.,184.,623.,0.,0.,1002.,0.504190110692,0.219213091605,6679.51058645
0.049284,175.,0.,148.,679.,0.,0.,1002.,0.452478304467,0.24458286728,4821.6088124
0.052022,166.,0.,134.,702.,0.,0.,1002.,0.429207991666,0.256243577114,4140.99870359
0.05476,155.,0.,111.,736.,0.,0.,1002.,0.400766498242,0.288840719454,3202.92585395
0.057498,136.,0.,102.,764.,0.,0.,1002.,0.351640282329,0.275796299866,2582.44623342
0.060236,132.,0.,84.,786.,0.,0.,1002.,0.341297921084,0.325045639128,2064.16982672
0.062974,124.,0.,70.,808.,0.,0.,1002.,0.320613198594,0.366415084107,1615.89052091
0.065712,117.,0.,61.,824.,0.,0.,1002.,0.302514066415,0.396739759233,1328.6417797
0.06845,115.,0.,55.,832.,0.,0.,1002.,0.297342885793,0.432498742971,1177.47782774
0.071188,105.,0.,52.,845.,0.,0.,1002.,0.27148698268,0.417672281047,1016.44726316
0.073926,103.,0.,45.,854.,0.,0.,1002.,0.266315802058,0.47345031477,862.863198668
0.076664,100.,0.,36.,866.,0.,0.,1002.,0.258559031124,0.57457562472,670.185008674
0.079402,100.,0.,25.,877.,0.,0.,1002.,0.258559031124,0.827388899597,465.406256024
0.08214,98.,0.,27.,877.,0.,0.,1002.,0.253387850502,0.750778816301,492.585981375
