t,s,e,i,r,c,o,n,reff,coal,reportr
0.,953.,0.,18.,29.,0.,0.,1000.,2.56117601139,11.3830044951,3319.28411077
0.002738,938.,0.,30.,32.,0.,0.,1000.,2.52086369222,6.72230317926,5445.0655752
0.005476,920.,0.,42.,38.,0.,0.,1000.,2.47248890922,4.70950268422,7476.80646147
0.008214,870.,0.,77.,53.,0.,0.,1000.,2.33811451198,2.42920988257,12962.5068544
0.010952,828.,0.,110.,62.,0.,0.,1000.,2.22524001829,1.61835637694,17623.9009449
0.01369,780.,0.,140.,80.,0.,0.,1000.,2.09624059694,1.19785176968,21130.1052172
0.016428,699.,0.,168.,132.,0.,0.,999.,1.88043450792,0.895445003773,22745.7358078
0.019166,663.,0.,179.,157.,0.,0.,999.,1.7835880955,0.797134344357,22986.8833748
0.021904,616.,0.,192.,191.,0.,0.,999.,1.65714972372,0.69047905155,22908.4377807
0.024642,524.,0.,201.,274.,0.,0.,999.,1.40965333641,0.561056054293,20400.5030846
0.02738,468.,0.,225.,306.,0.,0.,999.,1.25900336153,0.447645639654,20395.8544568
0.030118,411.,0.,253.,335.,0.,0.,999.,1.10566320852,0.349616824829,20140.7610064
0.032856,332.,0.,256.,410.,0.,0.,998.,0.894034065805,0.279385645564,16478.8359009
0.035594,299.,0.,256.,443.,0.,0.,998.,0.805169233963,0.251615385614,14840.8793204
0.038332,276.,0.,240.,482.,0.,0.,998.,0.743233139043,0.247744379681,12843.0686427
0.04107,219.,0.,215.,564.,0.,0.,998.,0.589739338589,0.219437893428,9129.16496135
0.043808,195.,0.,195.,608.,0.,0.,998.,0.525110369976,0.215429895375,7372.54959446
0.046546,179.,0.,177.,642.,0.,0.,998.,0.482024390901,0.217864131481,6142.91883764
0.049284,153.,0.,144.,701.,0.,0.,998.,0.412009674904,0.228894263836,4271.71630941
0.052022,146.,0.,125.,727.,0.,0.,998.,0.393159559059,0.251622117798,3538.43603153
0.05476,139.,0.,107.,752.,0.,0.,998.,0.374309443214,0.279857527636,2883.67995052
0.057498,123.,0.,96.,779.,0.,0.,998.,0.331223464139,0.276019553449,2289.41658413
0.060236,117.,0.,83.,798.,0.,0.,998.,0.315066221986,0.303678286251,1882.83574259
0.062974,113.,0.,69.,816.,0.,0.,998.,0.304294727217,0.352805480831,1511.73620481
0.065712,106.,0.,60.,832.,0.,0.,998.,0.285444611372,0.380592815162,1233.12072113
0.06845,104.,0.,54.,840.,0.,0.,998.,0.280058863987,0.414902020722,1088.86886318
0.071188,100.,0.,50.,848.,0.,0.,998.,0.269287369218,0.43085979075,969.434529187
0.073926,96.,0.,42.,860.,0.,0.,998.,0.25851587445,0.492411189428,781.752004336
0.076664,96.,0.,32.,870.,0.,0.,998.,0.25851587445,0.646289686124,595.620574732
0.079402,93.,0.,26.,879.,0.,0.,998.,0.250437253373,0.770576164225,468.818538315
0.08214,91.,0.,27.,881.,0.,0.,999.,0.244806209186,0.725351730922,475.903270658
