t,s,e,i,r,c,o,n,reff,coal,reportr
0.,921.,0.,17.,62.,0.,0.,1000.,2.66209594864,12.5275103465,3258.40544113
0.002738,906.,0.,27.,67.,0.,0.,1000.,2.61873933709,7.75922766547,5090.82927131
0.005476,885.,0.,41.,74.,0.,0.,1000.,2.55804008094,4.9912977189,7551.33431893
0.008214,837.,0.,72.,91.,0.,0.,1000.,2.419298924,2.68810991556,12541.645622
0.010952,799.,0.,104.,97.,0.,0.,1000.,2.30946217477,1.77650936521,17293.2527647
0.01369,752.,0.,134.,114.,0.,0.,1000.,2.1736114586,1.29767848275,20971.0033526
0.016428,667.,0.,158.,175.,0.,0.,1000.,1.9279239932,0.976164047192,21932.0633467
0.019166,615.,0.,177.,208.,0.,0.,1000.,1.77762107319,0.803444552856,22654.0029568
0.021904,562.,0.,193.,245.,0.,0.,1000.,1.62442771241,0.673337911882,22573.0474917
0.024642,480.,0.,201.,319.,0.,0.,1000.,1.38741156932,0.55220360968,20078.6202312
0.02738,429.,0.,221.,349.,0.,0.,999.,1.24124033041,0.449317766665,19750.6161375
0.030118,376.,0.,254.,369.,0.,0.,999.,1.08789362293,0.342643660764,19895.3985761
0.032856,295.,0.,256.,448.,0.,0.,999.,0.85353356054,0.266729237669,15732.3305879
0.035594,257.,0.,252.,490.,0.,0.,999.,0.743586864606,0.236059322097,13491.6400714
0.038332,233.,0.,230.,536.,0.,0.,999.,0.674146846121,0.23448585952,11163.8717718
0.04107,184.,0.,213.,602.,0.,0.,999.,0.532373475048,0.199952478891,8164.47961334
0.043808,164.,0.,196.,639.,0.,0.,999.,0.474506792978,0.193676242032,6696.2398625
0.046546,149.,0.,183.,667.,0.,0.,999.,0.431106781425,0.188461980951,5680.26295206
0.049284,128.,0.,153.,719.,0.,0.,1000.,0.369976418486,0.193451722084,4075.66022604
0.052022,123.,0.,125.,751.,0.,0.,999.,0.355880094733,0.227763260629,3202.9208526
0.05476,115.,0.,108.,777.,0.,0.,1000.,0.332400688483,0.24622273221,2584.74775365
0.057498,103.,0.,97.,800.,0.,0.,1000.,0.29771539925,0.245538473608,2079.24434836
0.060236,97.,0.,83.,820.,0.,0.,1000.,0.280372754634,0.270238799647,1675.50758169
0.062974,92.,0.,71.,837.,0.,0.,1000.,0.265920550787,0.299628789619,1359.38585562
0.065712,83.,0.,59.,858.,0.,0.,1000.,0.239906583862,0.325297062864,1019.12316825
0.06845,81.,0.,55.,864.,0.,0.,1000.,0.234125702323,0.340546476106,927.137781199
0.071188,72.,0.,52.,876.,0.,0.,1000.,0.208111735398,0.320171900613,779.170337331
0.073926,72.,0.,43.,885.,0.,0.,1000.,0.208111735398,0.387184623997,644.313932793
0.076664,71.,0.,35.,894.,0.,0.,1000.,0.205221294629,0.469077244866,517.157662465
0.079402,71.,0.,28.,902.,0.,0.,1001.,0.20501627835,0.585760795287,413.312817155
0.08214,70.,0.,26.,905.,0.,0.,1001.,0.202128725134,0.621934538875,378.384973451
