t,s,e,i,r,c,o,n,reff,coal,reportr
0.,919.,0.,19.,62.,0.,0.,1000.,2.81301238687,11.8442626815,3848.20094523
0.002738,904.,0.,27.,68.,0.,0.,999.,2.76986801571,8.20701634283,5384.62342253
0.005476,883.,0.,45.,71.,0.,0.,999.,2.70552373658,4.80981997614,8765.89690652
0.008214,836.,0.,75.,88.,0.,0.,999.,2.56151511187,2.73228278599,13832.1816041
0.010952,797.,0.,104.,98.,0.,0.,999.,2.44201859349,1.87847584115,18285.8352281
0.01369,754.,0.,133.,112.,0.,0.,999.,2.31026602195,1.38963369741,22123.1074262
0.016428,661.,0.,169.,170.,0.,0.,1000.,2.02328747304,0.957769218005,24619.3619719
0.019166,623.,0.,176.,201.,0.,0.,1000.,1.90697140046,0.866805182025,24165.1415866
0.021904,569.,0.,202.,229.,0.,0.,1000.,1.74168013942,0.689774312642,25330.9959477
0.024642,484.,0.,200.,316.,0.,0.,1000.,1.48149945075,0.592599780302,21333.5920909
0.02738,429.,0.,227.,344.,0.,0.,1000.,1.31314724044,0.462783168438,21462.0784978
0.030118,372.,0.,251.,377.,0.,0.,1000.,1.13867313157,0.362923707274,20578.1008338
0.032856,288.,0.,254.,458.,0.,0.,1000.,0.881553392185,0.277654611712,16121.8484363
0.035594,243.,0.,255.,502.,0.,0.,1000.,0.743810674656,0.233352368519,13656.3639867
0.038332,215.,0.,238.,547.,0.,0.,1000.,0.65810409486,0.221211460457,11277.2717695
0.04107,161.,0.,219.,620.,0.,0.,1000.,0.492812833825,0.180022952996,7770.67276376
0.043808,142.,0.,200.,658.,0.,0.,1000.,0.434654797536,0.173861919014,6259.02908451
0.046546,133.,0.,175.,692.,0.,0.,1000.,0.40710625403,0.186105716128,5129.53880077
0.049284,112.,0.,141.,747.,0.,0.,1000.,0.342826319183,0.19451138677,3480.37279235
0.052022,106.,0.,124.,770.,0.,0.,1000.,0.324460623512,0.209329434524,2896.78444672
0.05476,99.,0.,112.,789.,0.,0.,1000.,0.303033978563,0.216452841831,2443.66600314
0.057498,91.,0.,95.,814.,0.,0.,1000.,0.278546384336,0.234565376283,1905.25726886
0.060236,89.,0.,77.,834.,0.,0.,1000.,0.272424485779,0.283038426784,1510.32134916
0.062974,86.,0.,69.,845.,0.,0.,1000.,0.263241637944,0.305207696167,1307.78445731
0.065712,79.,0.,59.,861.,0.,0.,999.,0.242057050045,0.328212949214,1028.25834859
0.06845,77.,0.,56.,866.,0.,0.,999.,0.235929023462,0.337041462088,951.265822598
0.071188,72.,0.,52.,875.,0.,0.,999.,0.220608957003,0.33939839539,825.95993502
0.073926,70.,0.,42.,887.,0.,0.,999.,0.21448093042,0.408535105561,648.590333589
0.076664,68.,0.,38.,893.,0.,0.,999.,0.208352903836,0.438637692287,570.053544896
0.079402,64.,0.,26.,909.,0.,0.,999.,0.196096850669,0.603374925137,367.093304453
0.08214,64.,0.,25.,910.,0.,0.,999.,0.196096850669,0.627509922142,352.974331205
