t,s,e,i,r,c,o,n,reff,coal,reportr
0.,810.,0.,17.,173.,0.,0.,1000.,2.85672252892,13.4434001361,3496.6283754
0.002738,793.,0.,28.,179.,0.,0.,1000.,2.79676662399,7.99076178283,5638.28151397
0.005476,770.,0.,48.,182.,0.,0.,1000.,2.71564981144,4.52608301907,9385.28574834
0.008214,716.,0.,82.,202.,0.,0.,1000.,2.52520164285,2.46361135888,14908.7904994
0.010952,681.,0.,99.,220.,0.,0.,1000.,2.40176301505,1.94081859802,17119.7667713
0.01369,641.,0.,126.,233.,0.,0.,1000.,2.26069029758,1.4353589191,20508.9823796
0.016428,562.,0.,155.,283.,0.,0.,1000.,1.98207168056,1.02300473835,22119.919955
0.019166,523.,0.,175.,302.,0.,0.,1000.,1.84452578102,0.843211785609,23241.0248408
0.021904,468.,0.,192.,340.,0.,0.,1000.,1.65055079449,0.687729497703,22817.214183
0.024642,379.,0.,212.,409.,0.,0.,1000.,1.3366639981,0.504401508717,20402.839267
0.02738,327.,0.,237.,436.,0.,0.,1000.,1.15326946538,0.389289271014,19679.3901572
0.030118,282.,0.,252.,466.,0.,0.,1000.,0.994562658217,0.315734177212,18045.3448707
0.032856,210.,0.,250.,540.,0.,0.,1000.,0.740631766757,0.237002165362,13331.3718016
0.035594,181.,0.,249.,570.,0.,0.,1000.,0.638354046586,0.205093669586,11444.4113472
0.038332,157.,0.,236.,607.,0.,0.,1000.,0.553710416099,0.187698446135,9408.64739036
0.04107,109.,0.,217.,674.,0.,0.,1000.,0.384423155126,0.141722822166,6006.22737569
0.043808,92.,0.,209.,699.,0.,0.,1000.,0.324467250198,0.124197990507,4882.58318098
0.046546,84.,0.,180.,735.,0.,0.,999.,0.296549255959,0.131799669315,3843.27835723
0.049284,71.,0.,149.,779.,0.,0.,999.,0.250654728251,0.134579719866,2689.02392468
0.052022,67.,0.,127.,805.,0.,0.,999.,0.23653333511,0.148997376447,2162.86081625
0.05476,62.,0.,116.,821.,0.,0.,999.,0.218881593684,0.15095282323,1828.09907045
0.057498,57.,0.,100.,842.,0.,0.,999.,0.201229852258,0.160983881806,1448.85493626
0.060236,57.,0.,82.,860.,0.,0.,999.,0.201229852258,0.196321807081,1188.06104773
0.062974,55.,0.,72.,872.,0.,0.,999.,0.194169155687,0.215743506319,1006.57290308
0.065712,48.,0.,62.,889.,0.,0.,999.,0.169456717691,0.218653829278,756.454787771
0.06845,46.,0.,59.,894.,0.,0.,999.,0.16239602112,0.220197994739,689.858297719
0.071188,42.,0.,53.,904.,0.,0.,999.,0.148274627979,0.223810759214,565.815980369
0.073926,42.,0.,44.,913.,0.,0.,999.,0.148274627979,0.26959023269,469.734021439
0.076664,40.,0.,38.,921.,0.,0.,999.,0.141213931409,0.297292487177,386.361316335
0.079402,38.,0.,27.,934.,0.,0.,999.,0.134153234838,0.397491066188,260.793888526
0.08214,37.,0.,27.,935.,0.,0.,999.,0.130622886553,0.387030774973,253.93089146
