t,s,e,i,r,c,o,n,reff,coal,reportr
0.,939.,0.,18.,43.,0.,0.,1000.,2.39573671462,10.6477187317,3104.87478215
0.002738,924.,0.,29.,48.,0.,0.,1001.,2.35511104903,6.49685806629,4917.47187037
0.005476,908.,0.,44.,49.,0.,0.,1001.,2.31432990532,4.20787255513,7331.79714006
0.008214,860.,0.,75.,66.,0.,0.,1001.,2.1919864742,2.33811890582,11836.7269607
0.010952,824.,0.,102.,75.,0.,0.,1001.,2.10022890087,1.64723835362,15424.081048
0.01369,779.,0.,135.,87.,0.,0.,1001.,1.98553193419,1.17661151656,19299.3704003
0.016428,699.,0.,162.,140.,0.,0.,1001.,1.78162621566,0.879815415141,20780.8881795
0.019166,654.,0.,177.,170.,0.,0.,1001.,1.66692924899,0.753414349825,21243.3463491
0.021904,610.,0.,195.,196.,0.,0.,1001.,1.5547811038,0.637858914378,21829.1266973
0.024642,526.,0.,205.,270.,0.,0.,1001.,1.34068009934,0.523192233888,19788.4382662
0.02738,471.,0.,230.,300.,0.,0.,1001.,1.20049491785,0.417563449687,19880.1958396
0.030118,427.,0.,249.,325.,0.,0.,1001.,1.08834677266,0.349669645834,19511.8809402
0.032856,329.,0.,256.,416.,0.,0.,1001.,0.838562267457,0.26205070858,15456.3797138
0.035594,296.,0.,250.,455.,0.,0.,1001.,0.754451158563,0.24142437074,13580.1208541
0.038332,270.,0.,234.,497.,0.,0.,1001.,0.688181800041,0.235275829074,11594.4869671
0.04107,211.,0.,208.,582.,0.,0.,1001.,0.537801332625,0.206846666394,8054.11275739
0.043808,189.,0.,199.,613.,0.,0.,1001.,0.481727260029,0.193659200012,6902.18818169
0.046546,173.,0.,181.,647.,0.,0.,1001.,0.440946116322,0.194893311082,5746.40978791
0.049284,145.,0.,146.,710.,0.,0.,1001.,0.369579114837,0.20250910402,3885.01565516
0.052022,136.,0.,124.,741.,0.,0.,1001.,0.346639721502,0.223638530001,3094.79943357
0.05476,133.,0.,109.,759.,0.,0.,1001.,0.338993257057,0.248802390501,2660.41908138
0.057498,113.,0.,102.,786.,0.,0.,1001.,0.288016827425,0.225895550921,2115.19558061
0.060236,111.,0.,87.,803.,0.,0.,1001.,0.282919184461,0.260155571918,1772.20577147
0.062974,107.,0.,68.,826.,0.,0.,1001.,0.272723898535,0.320851645335,1335.25620723
0.065712,95.,0.,57.,849.,0.,0.,1001.,0.242138040755,0.339842864218,993.734519259
0.06845,92.,0.,52.,857.,0.,0.,1001.,0.23449157631,0.360756271246,877.936461705
0.071188,85.,0.,52.,864.,0.,0.,1001.,0.216649825939,0.333307424521,811.136948315
0.073926,83.,0.,40.,878.,0.,0.,1001.,0.211552182976,0.423104365951,609.27028697
0.076664,81.,0.,37.,883.,0.,0.,1001.,0.206454540012,0.446388194621,549.994894593
0.079402,81.,0.,29.,890.,0.,0.,1000.,0.206660994552,0.570099295317,431.508156625
0.08214,81.,0.,25.,894.,0.,0.,1000.,0.206660994552,0.661315182567,371.989790194
