t,s,e,i,r,c,o,n,reff,coal,reportr
0.,895.,0.,21.,84.,0.,0.,1000.,2.49743899837,9.51405332712,3776.12776554
0.002738,876.,0.,33.,91.,0.,0.,1000.,2.4444207403,5.92586846134,5807.94367896
0.005476,860.,0.,44.,96.,0.,0.,1000.,2.39977378614,4.36322506571,7602.4833545
0.008214,806.,0.,80.,114.,0.,0.,1000.,2.24909031585,2.24909031585,12954.7602193
0.010952,771.,0.,104.,125.,0.,0.,1000.,2.15142510362,1.6549423874,16109.8711759
0.01369,730.,0.,130.,140.,0.,0.,1000.,2.03701728359,1.25354909759,19066.4817744
0.016428,653.,0.,161.,186.,0.,0.,1000.,1.82215381669,0.905418045559,21122.407043
0.019166,612.,0.,175.,213.,0.,0.,1000.,1.70774599665,0.780683884183,21517.5995578
0.021904,571.,0.,199.,230.,0.,0.,1000.,1.59333817661,0.640537960448,22829.3493945
0.024642,481.,0.,203.,316.,0.,0.,1000.,1.34219905946,0.528945442151,19617.5814531
0.02738,427.,0.,230.,343.,0.,0.,1000.,1.19151558917,0.414440204927,19731.4981566
0.030118,378.,0.,254.,368.,0.,0.,1000.,1.05478429205,0.332215525055,19289.895133
0.032856,284.,0.,253.,462.,0.,0.,999.,0.793276713067,0.250838486345,14450.3286052
0.035594,252.,0.,248.,499.,0.,0.,999.,0.703893421454,0.227062394017,12568.7209335
0.038332,221.,0.,230.,548.,0.,0.,999.,0.617303357704,0.214714211375,10222.5436036
0.04107,173.,0.,207.,619.,0.,0.,999.,0.483228420284,0.186754945037,7202.03637591
0.043808,157.,0.,198.,644.,0.,0.,999.,0.438536774477,0.177186575546,6251.78025695
0.046546,147.,0.,177.,675.,0.,0.,999.,0.410604495848,0.185583952926,5232.74369509
0.049284,126.,0.,147.,726.,0.,0.,999.,0.351946710727,0.191535624885,3725.00398634
0.052022,120.,0.,128.,751.,0.,0.,999.,0.33518734355,0.209492089718,3089.08655815
0.05476,117.,0.,105.,777.,0.,0.,999.,0.326807659961,0.248996312351,2470.6659093
0.057498,97.,0.,94.,808.,0.,0.,999.,0.270943102703,0.23058987464,1833.74291909
0.060236,93.,0.,86.,819.,0.,0.,998.,0.260030482024,0.241888820487,1610.10874469
0.062974,92.,0.,64.,842.,0.,0.,998.,0.257234455335,0.321543069169,1185.33637019
0.065712,87.,0.,57.,854.,0.,0.,998.,0.243254321893,0.341409574587,998.31573705
0.06845,87.,0.,50.,861.,0.,0.,998.,0.243254321893,0.389206915029,875.715558815
0.071188,78.,0.,50.,870.,0.,0.,998.,0.218090081697,0.348944130716,785.12429411
0.073926,77.,0.,43.,878.,0.,0.,998.,0.215294055009,0.400547079086,666.550394308
0.076664,75.,0.,35.,888.,0.,0.,998.,0.209702001632,0.479318860873,528.449044113
0.079402,72.,0.,27.,899.,0.,0.,998.,0.201313921567,0.596485693531,391.354263526
0.08214,71.,0.,27.,900.,0.,0.,998.,0.198517894878,0.58820117001,385.918787643
