t,s,e,i,r,c,o,n,reff,coal,reportr
0.,981.,0.,17.,2.,0.,0.,1000.,2.62885380107,12.3710767109,3217.71705252
0.002738,962.,0.,31.,7.,0.,0.,1000.,2.57793818209,6.65274369572,5753.95802243
0.005476,948.,0.,42.,10.,0.,0.,1000.,2.54042141021,4.83889792421,7682.23434448
0.008214,896.,0.,79.,25.,0.,0.,1000.,2.40107340037,2.43146673455,13657.3055013
0.010952,854.,0.,112.,34.,0.,0.,1000.,2.28852308473,1.63465934623,18454.6501552
0.01369,810.,0.,140.,50.,0.,0.,1000.,2.17061323024,1.24035041728,21879.7813609
0.016428,718.,0.,169.,113.,0.,0.,1000.,1.9240744436,0.910804470343,23412.1378297
0.019166,677.,0.,178.,145.,0.,0.,1000.,1.81420389738,0.815372538147,23250.8371488
0.021904,628.,0.,195.,177.,0.,0.,1000.,1.68289519579,0.690418541865,23627.848549
0.024642,547.,0.,202.,251.,0.,0.,1000.,1.46583387277,0.580528266444,21319.0878456
0.02738,499.,0.,231.,270.,0.,0.,1000.,1.33720494061,0.463101278133,22240.3925722
0.030118,446.,0.,255.,299.,0.,0.,1000.,1.19517716134,0.374957540814,21943.4526823
0.032856,355.,0.,256.,389.,0.,0.,1000.,0.95131814412,0.297286920037,17534.6960324
0.035594,307.,0.,252.,441.,0.,0.,1000.,0.822689211957,0.261171178399,14926.8730617
0.038332,274.,0.,237.,489.,0.,0.,1000.,0.734256821095,0.247850403745,12529.3583952
0.04107,216.,0.,219.,565.,0.,0.,1000.,0.578830194732,0.211444819993,9126.99451053
0.043808,196.,0.,190.,614.,0.,0.,1000.,0.525234806331,0.221151497402,7185.21215061
0.046546,184.,0.,180.,636.,0.,0.,1000.,0.49307757329,0.219145588129,6390.28534984
0.049284,160.,0.,150.,690.,0.,0.,1000.,0.428763107209,0.228673657178,4630.64155786
0.052022,151.,0.,125.,724.,0.,0.,1000.,0.404645182428,0.258972916754,3641.80664186
0.05476,147.,0.,105.,748.,0.,0.,1000.,0.393926104748,0.300134175046,2978.0813519
0.057498,128.,0.,100.,772.,0.,0.,1000.,0.343010485767,0.274408388614,2469.67549752
0.060236,119.,0.,86.,795.,0.,0.,1000.,0.318892560987,0.296644242778,1974.58273763
0.062974,116.,0.,72.,812.,0.,0.,1000.,0.310853252726,0.345392503029,1611.46326213
0.065712,114.,0.,59.,827.,0.,0.,1000.,0.305493713886,0.414228764592,1297.73729659
0.06845,112.,0.,55.,833.,0.,0.,1000.,0.300134175046,0.436558800067,1188.53133318
0.071188,104.,0.,51.,845.,0.,0.,1000.,0.278696019686,0.437170226958,1023.37178429
0.073926,103.,0.,41.,856.,0.,0.,1000.,0.276016250266,0.538568293201,814.799970784
0.076664,101.,0.,35.,864.,0.,0.,1000.,0.270656711426,0.61864391183,682.054912793
0.079402,99.,0.,26.,875.,0.,0.,1000.,0.265297172585,0.816298992571,496.63630708
0.08214,97.,0.,26.,877.,0.,0.,1000.,0.259937633745,0.799808103832,486.603250371
