t,s,e,i,r,c,o,n,reff,coal,reportr
0.,976.,0.,17.,7.,0.,0.,1000.,2.48565534795,11.6972016374,3042.44214589
0.002738,963.,0.,28.,9.,0.,0.,1000.,2.45254723368,7.00727781052,4944.3352231
0.005476,944.,0.,42.,14.,0.,0.,1000.,2.40415845129,4.57934943104,7270.17515671
0.008214,896.,0.,74.,30.,0.,0.,1000.,2.28191310631,2.46693308791,12158.0330304
0.010952,858.,0.,102.,40.,0.,0.,1000.,2.18513554154,1.71383179728,16047.635417
0.01369,814.,0.,133.,53.,0.,0.,1000.,2.07307730864,1.24696379467,19851.7883075
0.016428,728.,0.,165.,107.,0.,0.,1000.,1.85405439888,0.898935466123,22026.1662587
0.019166,679.,0.,180.,141.,0.,0.,1000.,1.72926227588,0.768561011501,22411.2390954
0.021904,632.,0.,194.,174.,0.,0.,1000.,1.60956370892,0.663737611925,22482.3858862
0.024642,551.,0.,200.,249.,0.,0.,1000.,1.40327468926,0.561309875705,20207.1555254
0.02738,491.,0.,233.,276.,0.,0.,1000.,1.25046800804,0.429345238811,20977.8513028
0.030118,442.,0.,253.,305.,0.,0.,1000.,1.12567588503,0.355944943884,20505.3119218
0.032856,351.,0.,260.,389.,0.,0.,1000.,0.893919085174,0.275052026207,16734.1652745
0.035594,318.,0.,250.,432.,0.,0.,1000.,0.8098754105,0.25916013136,14577.757389
0.038332,294.,0.,233.,473.,0.,0.,1000.,0.748752738009,0.257082485153,12561.0759328
0.04107,237.,0.,211.,552.,0.,0.,1000.,0.603586390844,0.228847920699,9169.6844497
0.043808,218.,0.,202.,580.,0.,0.,1000.,0.555197608456,0.219880240973,8074.79401738
0.046546,198.,0.,179.,623.,0.,0.,1000.,0.504262048047,0.225368513094,6498.92927523
0.049284,173.,0.,145.,682.,0.,0.,1000.,0.440592597536,0.243085571054,4599.78671828
0.052022,163.,0.,126.,711.,0.,0.,1000.,0.415124817332,0.263571312591,3766.01234283
0.05476,159.,0.,109.,732.,0.,0.,1000.,0.40493770525,0.297201985504,3177.9511108
0.057498,143.,0.,99.,758.,0.,0.,1000.,0.364189256923,0.294294349029,2595.94102335
0.060236,135.,0.,82.,783.,0.,0.,1000.,0.343815032759,0.335429300253,2029.88395341
0.062974,129.,0.,70.,801.,0.,0.,1000.,0.328534364637,0.375467845299,1655.81319777
0.065712,121.,0.,62.,817.,0.,0.,1000.,0.308160140473,0.397625987707,1375.62686707
0.06845,120.,0.,57.,823.,0.,0.,1000.,0.305613362453,0.428931035021,1254.23723951
0.071188,112.,0.,54.,834.,0.,0.,1000.,0.285239138289,0.422576501169,1109.00976967
0.073926,111.,0.,43.,846.,0.,0.,1000.,0.282692360269,0.525939274919,875.215547392
0.076664,108.,0.,40.,852.,0.,0.,1000.,0.275052026207,0.550104052415,792.149835477
0.079402,105.,0.,30.,865.,0.,0.,1000.,0.267411692146,0.713097845723,577.609255036
0.08214,104.,0.,28.,868.,0.,0.,1000.,0.264864914126,0.756756897502,533.967666877
