t,prevalence
2013.75,0
2013.77,0
2013.79,0
2013.81,3
2013.83,3
2013.85,12
2013.87,7
2013.89,18
2013.91,36
2013.93,47
2013.95,49
2013.97,44
2013.99,35
2014.01,17
2014.03,24
2014.05,20
2014.07,3
2014.09,2
2014.11,4
2014.13,0
2014.15,0
2014.17,0
2014.19,0
2014.21,0
2014.23,0
2014.25,0
