t,prevalence
2013.75,0
2013.77,0
2013.79,1
2013.81,2
2013.83,0
2013.85,8
2013.87,11
2013.89,17
2013.91,16
2013.93,33
2013.95,46
2013.97,42
2013.99,31
2014.01,26
2014.03,16
2014.05,9
2014.07,5
2014.09,4
2014.11,2
2014.13,0
2014.15,0
2014.17,0
2014.19,0
2014.21,0
2014.23,0
2014.25,0
