t,s,e,i,r,c,o,n,reff,coal,reportr
2013.75,17000,0,0,0,0,0,17000,1.69393,inf,0
2013.77,16989,2,8,0,0,0,16999,1.69293,83.8513,8.15654
2013.79,16964,4,33,12,0,0,17013,1.68905,41.8295,16.3131
2013.81,16886,29,54,47,0,0,17016,1.68099,5.74205,118.27
2013.83,16730,44,125,117,0,0,17016,1.66546,3.74957,179.444
2013.85,16400,155,165,302,0,0,17022,1.63203,1.04303,632.132
2013.87,15800,354,234,637,0,0,17025,1.57205,0.439908,1443.71
2013.89,14915,516,395,1200,0,0,17026,1.4839,0.284876,2104.39
2013.91,13636,653,639,2096,0,0,17024,1.35682,0.20583,2663.11
2013.93,12045,829,756,3394,0,0,17024,1.19851,0.143214,3380.89
2013.95,10342,889,891,4901,0,0,17023,1.02911,0.114673,3625.58
2013.97,8599,839,873,6710,0,0,17021,0.855772,0.101041,3421.67
2013.99,7258,635,702,8423,0,0,17018,0.722443,0.112702,2589.7
2014.01,6332,425,531,9729,0,0,17017,0.630309,0.146914,1733.27
2014.03,5794,241,328,10655,0,0,17018,0.57672,0.237055,982.863
2014.05,5563,93,238,11130,0,0,17024,0.553532,0.589603,379.279
2014.07,5457,35,132,11401,0,0,17025,0.542953,1.53672,142.739
2014.09,5403,36,50,11538,0,0,17027,0.537517,1.47907,146.818
2014.11,5396,11,42,11579,0,0,17028,0.536789,4.83405,44.861
2014.13,5412,19,12,11583,0,0,17026,0.538444,2.80729,77.4871
2014.15,5447,10,13,11549,0,0,17019,0.542149,5.37055,40.7827
2014.17,5478,11,0,11529,0,0,17018,0.545267,4.91039,44.861
2014.19,5524,0,8,11488,0,0,17020,0.549781,inf,0
2014.21,5565,2,2,11454,0,0,17023,0.553764,27.428,8.15654
2014.23,5612,3,4,11409,0,0,17028,0.558277,18.4344,12.2348
2014.25,5646,3,0,11381,0,0,17030,0.561593,18.5439,12.2348
