t,s,e,i,r,c,o,n,reff,coal,reportr
2013.75,17000,0,0,0,0,0,17000,1.58481,inf,0
2013.77,16988,6,2,0,0,0,16996,1.58407,24.8276,25.3665
2013.79,16951,36,0,14,0,0,17001,1.58015,4.12771,152.199
2013.81,16860,93,24,43,0,0,17020,1.56992,1.58747,393.181
2013.83,16652,159,60,149,0,0,17020,1.55055,0.917065,672.212
2013.85,16329,204,139,345,0,0,17017,1.52074,0.701031,862.461
2013.87,15784,342,207,686,0,0,17019,1.46981,0.404155,1445.89
2013.89,15014,491,341,1175,0,0,17021,1.39794,0.267744,2075.82
2013.91,13917,641,469,1988,0,0,17015,1.29626,0.190172,2709.99
2013.93,12414,898,678,3027,0,0,17017,1.15613,0.121072,3796.52
2013.95,10810,819,953,4432,0,0,17014,1.00693,0.115618,3462.53
2013.97,9220,698,932,6165,0,0,17015,0.858771,0.1157,2950.97
2013.99,7962,561,766,7724,0,0,17013,0.741685,0.124328,2371.77
2014.01,7104,364,556,8995,0,0,17019,0.661527,0.170906,1538.9
2014.03,6612,220,366,9824,0,0,17022,0.615603,0.263142,930.105
2014.05,6321,91,260,10348,0,0,17020,0.588579,0.608241,384.725
2014.07,6181,53,93,10690,0,0,17017,0.575644,1.02139,224.071
2014.09,6173,14,67,10765,0,0,17019,0.574832,3.86122,59.1885
2014.11,6185,0,54,10791,0,0,17030,0.575577,inf,0
2014.13,6190,9,20,10811,0,0,17030,0.576042,6.019,38.0497
2014.15,6233,2,10,10787,0,0,17032,0.579976,27.2704,8.4555
2014.17,6263,4,8,10755,0,0,17030,0.582836,13.7025,16.911
2014.19,6300,3,1,10725,0,0,17029,0.586313,18.3789,12.6832
2014.21,6332,0,2,10695,0,0,17029,0.589291,inf,0
2014.23,6384,2,2,10641,0,0,17029,0.594131,27.936,8.4555
2014.25,6416,6,0,10611,0,0,17033,0.596969,9.35648,25.3665
