t,neff
2013.75,0.
2013.77,0.0130089355469
2013.79,0.
2013.81,0.0458577765181
2013.83,0.152354868232
2013.85,0.547746671574
2013.87,1.11012147221
2013.89,1.53279000803
2013.91,2.31856042247
2013.93,3.95971483476
2013.95,5.23984010619
2013.97,5.77793170871
2013.99,5.21768430153
2014.01,3.61965449733
2014.03,2.10792640459
2014.05,0.666100729076
2014.07,0.349462133434
2014.09,0.158729350807
2014.11,0.
2014.13,0.0355400240888
2014.15,0.0710572258794
2014.17,0.
2014.19,0.0877122465034
2014.21,0.122143541792
2014.23,0.0693631966935
2014.25,0.0344744225321
