t,neff
2013.75,0.
2013.77,0.00616422662902
2013.79,0.117348129423
2013.81,0.33537366733
2013.83,0.987115920978
2013.85,1.78157445646
2013.87,2.60090640824
2013.89,3.64415575843
2013.91,5.88552425455
2013.93,8.17267841899
2013.95,10.152684297
2013.97,11.0687623204
2013.99,9.96426903083
2014.01,8.2716428431
2014.03,6.34743037418
2014.05,3.29360805719
2014.07,1.78686197014
2014.09,0.696133075969
2014.11,0.531506012832
2014.13,0.475995330361
2014.15,0.254675309315
2014.17,0.162891877013
2014.19,0.144015204302
2014.21,0.0178508674699
2014.23,0.035448445604
2014.25,0.0175888954888
