t,prevalence
2013.75,0
2013.77,0
2013.79,1
2013.81,2
2013.83,4
2013.85,3
2013.87,8
2013.89,12
2013.91,24
2013.93,29
2013.95,33
2013.97,32
2013.99,22
2014.01,18
2014.03,14
2014.05,10
2014.07,0
2014.09,2
2014.11,1
2014.13,2
2014.15,0
2014.17,0
2014.19,0
2014.21,0
2014.23,0
2014.25,0
