t,s,e,i,r,c,o,n,reff,coal,reportr
2013.75,17000,0,0,0,0,0,17000,1.64094,inf,0
2013.77,16993,4,10,0,0,0,17007,1.63959,40.4088,15.2191
2013.79,16959,8,31,12,0,0,17010,1.63602,20.1604,30.4382
2013.81,16863,22,76,47,0,0,17008,1.62695,7.29043,83.7051
2013.83,16712,36,133,128,0,0,17009,1.61228,4.41511,136.972
2013.85,16399,84,221,302,0,0,17006,1.58237,1.85708,319.601
2013.87,15857,160,372,612,0,0,17001,1.53052,0.943019,608.764
2013.89,15105,227,552,1117,0,0,17001,1.45793,0.633161,863.684
2013.91,13956,374,761,1908,0,0,16999,1.34719,0.355108,1422.99
2013.93,12467,507,1026,3007,0,0,17007,1.20289,0.233895,1929.02
2013.95,10749,586,1160,4513,0,0,17008,1.03707,0.174466,2229.6
2013.97,9124,551,1095,6237,0,0,17007,0.880338,0.157507,2096.43
2013.99,7794,477,904,7836,0,0,17011,0.751835,0.155384,1814.88
2014.01,6842,387,637,9143,0,0,17009,0.660079,0.168146,1472.45
2014.03,6242,244,427,10097,0,0,17010,0.602159,0.24329,928.366
2014.05,5905,144,250,10708,0,0,17007,0.56975,0.390053,547.888
2014.07,5723,87,114,11082,0,0,17006,0.552222,0.625744,331.016
2014.09,5676,34,78,11215,0,0,17003,0.547783,1.5883,129.362
2014.11,5654,12,72,11264,0,0,17002,0.545692,4.483,45.6573
2014.13,5654,11,25,11308,0,0,16998,0.54582,4.89169,41.8525
2014.15,5673,14,11,11300,0,0,16998,0.547655,3.85639,53.2669
2014.17,5707,10,12,11261,0,0,16990,0.551196,5.43386,38.0478
2014.19,5737,15,6,11235,0,0,16993,0.553996,3.64097,57.0717
2014.21,5779,7,7,11204,0,0,16997,0.55792,7.85736,26.6334
2014.23,5807,3,4,11184,0,0,16998,0.560591,18.4216,11.4143
2014.25,5859,1,1,11137,0,0,16998,0.565611,55.7596,3.80478
