t,prevalence
2013.75,0
2013.77,1
2013.79,3
2013.81,1
2013.83,4
2013.85,8
2013.87,6
2013.89,17
2013.91,18
2013.93,27
2013.95,31
2013.97,32
2013.99,17
2014.01,25
2014.03,16
2014.05,7
2014.07,5
2014.09,6
2014.11,3
2014.13,1
2014.15,0
2014.17,0
2014.19,1
2014.21,0
2014.23,0
2014.25,0
