t,s,e,i,r,c,o,n,reff,coal,reportr
0.,7127.,0.,160.,713.,0.,0.,8000.,2.52427483764,1.26213741882,29079.6461296
0.002738,6976.,0.,255.,767.,0.,0.,7998.,2.47141079045,0.775344561711,45375.1021127
0.005476,6856.,0.,335.,807.,0.,0.,7998.,2.42889799016,0.580035340934,58585.0195226
0.008214,6590.,0.,481.,926.,0.,0.,7997.,2.33495322498,0.388349808728,80864.1000875
0.010952,6368.,0.,640.,989.,0.,0.,7997.,2.25629470966,0.282036838708,103970.060221
0.01369,6095.,0.,840.,1062.,0.,0.,7997.,2.15956599488,0.205672951893,130610.55137
0.016428,5490.,0.,1137.,1369.,0.,0.,7996.,1.94544709687,0.13688282124,159262.081138
0.019166,5146.,0.,1318.,1532.,0.,0.,7996.,1.82354658661,0.110685680523,173047.276883
0.021904,4746.,0.,1524.,1724.,0.,0.,7994.,1.68222257326,0.0883056468905,184586.918519
0.024642,3961.,0.,1741.,2291.,0.,0.,7993.,1.40415449907,0.0645217460802,176013.574767
0.02738,3557.,0.,1853.,2582.,0.,0.,7992.,1.26109631415,0.0544456044963,168250.425848
0.030118,3167.,0.,1934.,2891.,0.,0.,7992.,1.12282598451,0.0464457491007,156351.272691
0.032856,2501.,0.,1940.,3551.,0.,0.,7992.,0.886702806208,0.0365650641735,123854.647971
0.035594,2226.,0.,1894.,3872.,0.,0.,7992.,0.789204496849,0.0333349312291,107622.238826
0.038332,1984.,0.,1826.,4183.,0.,0.,7993.,0.703317981862,0.0308134931812,92466.6217114
0.04107,1558.,0.,1675.,4762.,0.,0.,7995.,0.552164970799,0.0263720583068,66591.0954784
0.043808,1406.,0.,1549.,5039.,0.,0.,7994.,0.498357551203,0.0257382854075,55580.8209706
0.046546,1288.,0.,1399.,5307.,0.,0.,7994.,0.456532379765,0.0261062118522,45985.593549
0.049284,1081.,0.,1182.,5731.,0.,0.,7994.,0.383161104446,0.0259330696748,32608.5426327
0.052022,1003.,0.,1053.,5938.,0.,0.,7994.,0.355513957224,0.0270096073864,26953.6461809
0.05476,957.,0.,922.,6115.,0.,0.,7994.,0.339209229375,0.0294324710955,22518.0654828
0.057498,856.,0.,771.,6366.,0.,0.,7993.,0.303447677658,0.0314861403536,16844.9874822
0.060236,820.,0.,665.,6508.,0.,0.,7993.,0.290685859439,0.0349697274513,13918.0389499
0.062974,784.,0.,582.,6627.,0.,0.,7993.,0.27792404122,0.0382026173498,11646.1290233
0.065712,727.,0.,481.,6785.,0.,0.,7993.,0.257717829039,0.0428636721895,8925.28385528
0.06845,707.,0.,433.,6853.,0.,0.,7993.,0.250627930028,0.0463053912293,7813.57634657
0.071188,662.,0.,373.,6957.,0.,0.,7992.,0.234705021075,0.0503388785148,6303.238046
0.073926,650.,0.,313.,7029.,0.,0.,7992.,0.230450549394,0.0589010988867,5193.43358115
0.076664,639.,0.,285.,7068.,0.,0.,7992.,0.22655061702,0.0635931556547,4648.81866125
0.079402,619.,0.,228.,7146.,0.,0.,7993.,0.219432374381,0.0769938155724,3602.20185784
0.08214,606.,0.,205.,7182.,0.,0.,7993.,0.214823940024,0.0838337326924,3170.80135476
