t,s,e,i,r,c,o,n,reff,coal,reportr
0.,7148.,0.,153.,699.,0.,0.,8000.,2.50293295509,1.30872311377,27572.3094332
0.002738,6997.,0.,249.,754.,0.,0.,8000.,2.45005902165,0.787167557156,43924.6581401
0.005476,6868.,0.,340.,792.,0.,0.,8000.,2.4048885752,0.565856135342,58871.6723209
0.008214,6611.,0.,475.,916.,0.,0.,8002.,2.31431926099,0.389780086062,79149.7187259
0.010952,6403.,0.,631.,968.,0.,0.,8002.,2.24150449677,0.284184405295,101836.032297
0.01369,6132.,0.,831.,1039.,0.,0.,8002.,2.14663526069,0.206655620764,128437.480917
0.016428,5558.,0.,1125.,1319.,0.,0.,8002.,1.94569451711,0.138360498994,157601.255886
0.019166,5204.,0.,1303.,1496.,0.,0.,8003.,1.82154175372,0.111836792247,170889.761167
0.021904,4795.,0.,1512.,1696.,0.,0.,8003.,1.67838061282,0.0888032070273,182715.227034
0.024642,4016.,0.,1761.,2226.,0.,0.,8003.,1.40570939334,0.0638595976532,178232.7054
0.02738,3635.,0.,1832.,2536.,0.,0.,8003.,1.27234901514,0.0555610923641,167827.924493
0.030118,3247.,0.,1910.,2845.,0.,0.,8002.,1.13668047806,0.0476096535312,156316.299342
0.032856,2560.,0.,1938.,3506.,0.,0.,8004.,0.895957780067,0.0369848412824,125018.364799
0.035594,2299.,0.,1878.,3827.,0.,0.,8004.,0.804612084521,0.034275275166,108796.427621
0.038332,2070.,0.,1831.,4104.,0.,0.,8005.,0.724375359557,0.0316493876377,95495.8524011
0.04107,1639.,0.,1686.,4681.,0.,0.,8006.,0.573479671079,0.0272113722932,69615.8442316
0.043808,1502.,0.,1539.,4965.,0.,0.,8006.,0.525543908457,0.0273187216872,58234.4694083
0.046546,1377.,0.,1407.,5222.,0.,0.,8006.,0.481806898765,0.0273948485438,48808.9660725
0.049284,1160.,0.,1193.,5653.,0.,0.,8006.,0.40587944994,0.0272173981519,34863.421232
0.052022,1079.,0.,1069.,5857.,0.,0.,8005.,0.377585030416,0.0282570649516,29061.9646211
0.05476,1023.,0.,931.,6050.,0.,0.,8004.,0.358033128519,0.0307654675419,23999.6766709
0.057498,923.,0.,771.,6309.,0.,0.,8003.,0.323075141946,0.0335227125235,17934.5472797
0.060236,883.,0.,676.,6444.,0.,0.,8003.,0.309074052371,0.0365768109314,15043.252277
0.062974,851.,0.,571.,6581.,0.,0.,8003.,0.29787318071,0.0417335454586,12246.1622054
0.065712,786.,0.,485.,6732.,0.,0.,8003.,0.275121410151,0.0453808511589,9607.23964247
0.06845,762.,0.,425.,6817.,0.,0.,8004.,0.266687432973,0.0501999873832,8160.63544897
0.071188,716.,0.,362.,6925.,0.,0.,8003.,0.250619503394,0.055385525612,6532.14673647
0.073926,701.,0.,310.,6992.,0.,0.,8003.,0.245369094804,0.0633210567236,5476.63819602
0.076664,690.,0.,283.,7031.,0.,0.,8004.,0.241488620409,0.0682653343911,4920.57212945
0.079402,672.,0.,223.,7109.,0.,0.,8004.,0.235188917268,0.0843727057462,3776.19325565
0.08214,657.,0.,205.,7142.,0.,0.,8004.,0.22993916465,0.0897323569366,3393.90207023
