t,s,e,i,r,c,o,n,reff,coal,reportr
0.,7290.,0.,153.,557.,0.,0.,8000.,2.56223358285,1.33972997796,28225.5651487
0.002738,7148.,0.,248.,606.,0.,0.,8002.,2.51169658206,0.81022470389,44848.8541692
0.005476,7032.,0.,342.,630.,0.,0.,8004.,2.47031855192,0.577852292847,60829.1240225
0.008214,6764.,0.,483.,757.,0.,0.,8004.,2.37617103032,0.393568700673,82633.7237503
0.010952,6539.,0.,640.,825.,0.,0.,8004.,2.29712926778,0.287141158472,105851.716659
0.01369,6256.,0.,836.,912.,0.,0.,8004.,2.19771229534,0.210307396683,132284.698481
0.016428,5631.,0.,1143.,1231.,0.,0.,8005.,1.9779047293,0.138436026548,162773.647603
0.019166,5239.,0.,1336.,1430.,0.,0.,8005.,1.84021361691,0.11019243215,177013.828238
0.021904,4848.,0.,1516.,1644.,0.,0.,8008.,1.70223581763,0.0898277476324,185802.443966
0.024642,4068.,0.,1727.,2212.,0.,0.,8007.,1.42853963208,0.066174389442,177630.332011
0.02738,3648.,0.,1847.,2512.,0.,0.,8007.,1.28105028953,0.0554867477871,170359.191703
0.030118,3261.,0.,1932.,2813.,0.,0.,8006.,1.14529243173,0.0474241172559,159314.758423
0.032856,2583.,0.,1966.,3457.,0.,0.,8006.,0.907172754111,0.036914455915,128412.11769
0.035594,2309.,0.,1913.,3784.,0.,0.,8006.,0.810941497965,0.0339128697528,111695.838164
0.038332,2048.,0.,1835.,4123.,0.,0.,8006.,0.719275958351,0.0313580799281,95030.7396173
0.04107,1678.,0.,1653.,4675.,0.,0.,8006.,0.589328641657,0.0285216523488,70139.5376154
0.043808,1507.,0.,1540.,4959.,0.,0.,8006.,0.529271908806,0.0274946446133,58685.6692484
0.046546,1390.,0.,1396.,5219.,0.,0.,8005.,0.488241444456,0.0279794524043,49074.1240651
0.049284,1201.,0.,1178.,5625.,0.,0.,8004.,0.421907363603,0.0286524525367,35784.4949513
0.052022,1128.,0.,1065.,5811.,0.,0.,8004.,0.396262702868,0.029766212422,30385.4240559
0.05476,1061.,0.,931.,6011.,0.,0.,8003.,0.37277239573,0.032031999633,24987.6792305
0.057498,948.,0.,770.,6283.,0.,0.,8001.,0.333154163212,0.0346134195544,18470.0668084
0.060236,908.,0.,664.,6429.,0.,0.,8001.,0.319097025523,0.0384454247618,15255.3905962
0.062974,874.,0.,568.,6559.,0.,0.,8001.,0.307148458488,0.043260346266,12561.1433583
0.065712,813.,0.,484.,6704.,0.,0.,8001.,0.285711323514,0.047225012151,9956.46820181
0.06845,793.,0.,437.,6771.,0.,0.,8001.,0.27868275467,0.0510174379258,8768.47419292
0.071188,749.,0.,375.,6876.,0.,0.,8000.,0.2632528057,0.0561605985494,7107.82575391
0.073926,731.,0.,322.,6946.,0.,0.,7999.,0.25695842283,0.0638406019452,5957.32407488
0.076664,717.,0.,291.,6991.,0.,0.,7999.,0.252037194485,0.0692885758035,5280.68329886
0.079402,687.,0.,231.,7079.,0.,0.,7997.,0.241552100751,0.0836544071865,4017.49453969
0.08214,673.,0.,205.,7119.,0.,0.,7997.,0.236629641638,0.0923432747856,3492.65351058
