t,s,e,i,r,c,o,n,reff,coal,reportr
0.,6046.,0.,36.,1918.,0.,0.,8000.,3.01592649485,6.70205887744,7817.28147465
0.002738,6003.,0.,72.,1926.,0.,0.,8001.,2.99410253979,3.32678059977,15521.4275663
0.005476,5963.,0.,99.,1939.,0.,0.,8001.,2.97415183155,2.40335501539,21199.7542553
0.008214,5834.,0.,199.,1968.,0.,0.,8001.,2.90981079746,1.16977318491,41691.769106
0.010952,5725.,0.,281.,1995.,0.,0.,8001.,2.85544511749,0.812938111742,57771.3656171
0.01369,5586.,0.,386.,2029.,0.,0.,8001.,2.78611640634,0.577433452092,77431.7471651
0.016428,5133.,0.,715.,2152.,0.,0.,8000.,2.5604946573,0.286488912705,131814.264958
0.019166,4842.,0.,893.,2266.,0.,0.,8001.,2.415033233,0.216352361299,155276.976749
0.021904,4478.,0.,1128.,2395.,0.,0.,8001.,2.23348178797,0.158402963686,181394.456892
0.024642,3549.,0.,1646.,2806.,0.,0.,8001.,1.77012658899,0.0860328840337,209781.242315
0.02738,3090.,0.,1841.,3070.,0.,0.,8001.,1.54119221189,0.0669719592346,204288.11007
0.030118,2627.,0.,1996.,3379.,0.,0.,8002.,1.31009902205,0.0525089788396,188276.950656
0.032856,1883.,0.,2019.,4101.,0.,0.,8003.,0.938944883727,0.0372043539862,136492.539858
0.035594,1614.,0.,1903.,4485.,0.,0.,8002.,0.804910476431,0.0338375397344,110285.613839
0.038332,1394.,0.,1826.,4782.,0.,0.,8002.,0.69519529377,0.0304576251378,91398.7156625
0.04107,1020.,0.,1659.,5324.,0.,0.,8003.,0.508615922146,0.024526385637,60753.1546685
0.043808,900.,0.,1513.,5588.,0.,0.,8001.,0.448890935501,0.0237351453008,48900.3829498
0.046546,791.,0.,1402.,5808.,0.,0.,8001.,0.394525255535,0.0225121401161,39824.9573947
0.049284,633.,0.,1163.,6205.,0.,0.,8001.,0.315719957969,0.021717623936,26437.1264005
0.052022,567.,0.,1058.,6376.,0.,0.,8001.,0.282801289366,0.0213838404057,21542.6710187
0.05476,525.,0.,909.,6567.,0.,0.,8001.,0.261853045709,0.0230453725596,17137.7581356
0.057498,431.,0.,768.,6802.,0.,0.,8001.,0.214968881334,0.0223925918057,11886.9192623
0.060236,408.,0.,677.,6915.,0.,0.,8000.,0.203522661247,0.024049945199,9920.50859982
0.062974,378.,0.,590.,7032.,0.,0.,8000.,0.188557759685,0.0255671538555,8009.9336314
0.065712,338.,0.,482.,7181.,0.,0.,8001.,0.168583484666,0.0279806613554,5850.52125185
0.06845,325.,0.,429.,7247.,0.,0.,8001.,0.162099504487,0.030228345825,5006.92949458
0.071188,294.,0.,359.,7350.,0.,0.,8003.,0.146601059913,0.0326687598691,3789.34419663
0.073926,281.,0.,315.,7407.,0.,0.,8003.,0.140118700121,0.035585701618,3177.89211874
0.076664,273.,0.,283.,7447.,0.,0.,8003.,0.136129555633,0.0384818531826,2773.77582558
0.079402,260.,0.,218.,7524.,0.,0.,8002.,0.12966339769,0.047582898235,2035.19669015
0.08214,252.,0.,203.,7548.,0.,0.,8003.,0.125658051354,0.0495204143266,1836.61807859
