t,s,e,i,r,c,o,n,reff,coal,reportr
0.,7073.,0.,160.,767.,0.,0.,8000.,2.6002282195,1.30011410975,29954.6290887
0.002738,6915.,0.,252.,834.,0.,0.,8001.,2.54182537063,0.80692868909,46118.8795248
0.005476,6789.,0.,345.,867.,0.,0.,8001.,2.49551011442,0.57866901204,61988.4712423
0.008214,6521.,0.,482.,998.,0.,0.,8001.,2.39699829962,0.397842041431,83185.4289902
0.010952,6311.,0.,639.,1051.,0.,0.,8001.,2.31980620594,0.290429571949,106729.643923
0.01369,6040.,0.,831.,1130.,0.,0.,8001.,2.22019164695,0.213736861318,132838.50662
0.016428,5399.,0.,1146.,1456.,0.,0.,8001.,1.98457197051,0.138539055533,163751.00243
0.019166,5050.,0.,1310.,1640.,0.,0.,8000.,1.85651809819,0.113375151034,175106.787021
0.021904,4630.,0.,1519.,1850.,0.,0.,7999.,1.70232740372,0.0896551628029,186180.14349
0.024642,3861.,0.,1736.,2402.,0.,0.,7999.,1.41958663191,0.0654187387979,177436.972296
0.02738,3481.,0.,1823.,2695.,0.,0.,7999.,1.27987077588,0.0561654756285,167990.71856
0.030118,3118.,0.,1916.,2965.,0.,0.,7999.,1.14640536605,0.047866612361,158148.913057
0.032856,2458.,0.,1956.,3584.,0.,0.,7998.,0.903853980395,0.0369674429609,127291.563767
0.035594,2163.,0.,1894.,3941.,0.,0.,7998.,0.795376793977,0.0335956407171,108463.942641
0.038332,1920.,0.,1827.,4251.,0.,0.,7998.,0.70602100991,0.0309149867503,92872.8277276
0.04107,1525.,0.,1691.,4781.,0.,0.,7997.,0.560842018675,0.0265330345914,68283.6374577
0.043808,1377.,0.,1553.,5067.,0.,0.,7997.,0.506412760469,0.026086941943,56625.0492246
0.046546,1263.,0.,1421.,5313.,0.,0.,7997.,0.46448752104,0.0261498956251,47522.6472527
0.049284,1055.,0.,1184.,5757.,0.,0.,7996.,0.388040870651,0.0262189777467,33079.7081412
0.052022,975.,0.,1050.,5971.,0.,0.,7996.,0.358615970507,0.0273231215624,27111.3673703
0.05476,930.,0.,921.,6146.,0.,0.,7997.,0.342021690077,0.0297087244367,22680.1423124
0.057498,818.,0.,767.,6410.,0.,0.,7995.,0.300907236194,0.0313853701376,16617.3012116
0.060236,781.,0.,670.,6544.,0.,0.,7995.,0.287296517687,0.0343040618134,13859.1840132
0.062974,757.,0.,570.,6670.,0.,0.,7997.,0.278398300418,0.0390734456727,11425.4662491
0.065712,711.,0.,483.,6802.,0.,0.,7996.,0.261513800031,0.043314915119,9094.40390988
0.06845,689.,0.,431.,6876.,0.,0.,7996.,0.253421952491,0.0470388774926,7864.19002971
0.071188,651.,0.,378.,6967.,0.,0.,7996.,0.239445124923,0.0506762169149,6516.7385199
0.073926,638.,0.,314.,7042.,0.,0.,7994.,0.234722288577,0.0598018569622,5306.60150014
0.076664,628.,0.,280.,7086.,0.,0.,7994.,0.23104325584,0.0660123588115,4657.83203774
0.079402,610.,0.,220.,7164.,0.,0.,7994.,0.224420996915,0.0816076352418,3554.82859113
0.08214,599.,0.,201.,7194.,0.,0.,7994.,0.220374060905,0.0877110690169,3189.25340942
