t,s,e,i,r,c,o,n,reff,coal,reportr
0.,7231.,0.,157.,612.,0.,0.,8000.,2.59312726317,1.32133873282,29312.7105828
0.002738,7080.,0.,248.,672.,0.,0.,8000.,2.53897676991,0.819024764487,45335.9692035
0.005476,6966.,0.,333.,701.,0.,0.,8000.,2.49809494056,0.600142928664,59894.3242949
0.008214,6686.,0.,475.,839.,0.,0.,8000.,2.39768342989,0.403820367139,82000.7733022
0.010952,6462.,0.,630.,908.,0.,0.,8000.,2.31735422135,0.294267202711,105115.18748
0.01369,6195.,0.,826.,977.,0.,0.,7998.,2.22216021372,0.215221328206,132156.312231
0.016428,5577.,0.,1130.,1291.,0.,0.,7998.,2.00048224567,0.141627061641,162759.235508
0.019166,5218.,0.,1315.,1469.,0.,0.,8002.,1.87077253079,0.113811256626,177124.743215
0.021904,4805.,0.,1518.,1679.,0.,0.,8002.,1.72270257004,0.0907880142312,188284.500095
0.024642,4020.,0.,1735.,2248.,0.,0.,8003.,1.4410819975,0.0664475848993,180019.963128
0.02738,3619.,0.,1848.,2536.,0.,0.,8003.,1.29733227586,0.0561615703837,172617.843297
0.030118,3209.,0.,1934.,2860.,0.,0.,8003.,1.15035625124,0.0475845398652,160184.807273
0.032856,2537.,0.,1952.,3513.,0.,0.,8002.,0.909572616064,0.0372775662321,127834.973752
0.035594,2241.,0.,1898.,3864.,0.,0.,8003.,0.803349441893,0.033860882693,109782.521331
0.038332,2025.,0.,1798.,4179.,0.,0.,8002.,0.726008887477,0.0323029538366,93986.2065372
0.04107,1606.,0.,1681.,4715.,0.,0.,8002.,0.575787789278,0.0274021553493,69688.7477119
0.043808,1486.,0.,1530.,4985.,0.,0.,8001.,0.532831627697,0.0278604772652,58696.7321071
0.046546,1340.,0.,1403.,5258.,0.,0.,8001.,0.480480740992,0.02739733377,48536.242532
0.049284,1132.,0.,1199.,5669.,0.,0.,8000.,0.405949393155,0.0270858644307,35044.7992123
0.052022,1070.,0.,1059.,5870.,0.,0.,7999.,0.383763386215,0.0289906240767,29261.1906721
0.05476,1016.,0.,929.,6054.,0.,0.,7999.,0.364395888219,0.0313796243891,24373.7121712
0.057498,903.,0.,773.,6322.,0.,0.,7998.,0.32390809895,0.0335221835912,18027.4291551
0.060236,877.,0.,660.,6461.,0.,0.,7998.,0.314581841394,0.0381311322902,14948.929103
0.062974,848.,0.,559.,6591.,0.,0.,7998.,0.304179477197,0.0435319466472,12242.6155982
0.065712,774.,0.,484.,6740.,0.,0.,7998.,0.277635513385,0.0458901675017,9675.04237045
0.06845,748.,0.,434.,6816.,0.,0.,7998.,0.26830925583,0.0494579273419,8384.12762617
0.071188,704.,0.,374.,6921.,0.,0.,7999.,0.252494788687,0.0540095804678,6799.17966976
0.073926,688.,0.,318.,6993.,0.,0.,7999.,0.246756270762,0.0620770492484,5649.73157537
0.076664,675.,0.,288.,7035.,0.,0.,7998.,0.242123994231,0.0672566650643,5020.68314438
0.079402,655.,0.,229.,7114.,0.,0.,7998.,0.234949949958,0.0820785851381,3873.85477491
0.08214,642.,0.,212.,7144.,0.,0.,7998.,0.23028682118,0.0869006872378,3515.09803849
