k,outcome,logprior,loglik,logu,p'p,qq',l'l,logv,prm,s0,i0,r0,beta,move_prm,move_s0,move_i0,move_r0,move_beta
0,accept,-1006.47187436,-inf,0.,inf,inf,inf,inf,,7200.,160.,640.,240.,,7200.,160.,640.,240.
0,accept,-35.3095083684,-31000.,0.,971.162365996,-971.162365996,inf,inf,1.1222015209,935.60330248,1.38522193733,7063.01147558,12.4182381759,1.1222015209,935.60330248,1.38522193733,7063.01147558,12.4182381759
