t,s,e,i,r,c,o,n,reff,coal,reportr
0.,7078.,0.,151.,771.,0.,0.,8000.,2.59901724541,1.37696277903,28256.5154921
0.002738,6922.,0.,249.,827.,0.,0.,7998.,2.54237017474,0.816825758951,45579.6124927
0.005476,6798.,0.,341.,860.,0.,0.,7999.,2.49651427315,0.585692498099,61294.4184343
0.008214,6525.,0.,483.,990.,0.,0.,7998.,2.3965566874,0.396945207022,83342.6553609
0.010952,6317.,0.,636.,1046.,0.,0.,7999.,2.31987064776,0.291807628649,106231.516702
0.01369,6044.,0.,821.,1134.,0.,0.,7999.,2.21961345497,0.216283893298,131205.79055
0.016428,5424.,0.,1130.,1445.,0.,0.,7999.,1.99192312703,0.141021106338,162062.865615
0.019166,5039.,0.,1325.,1635.,0.,0.,7999.,1.85053477823,0.111730401704,176541.017843
0.021904,4617.,0.,1537.,1844.,0.,0.,7998.,1.69577045605,0.0882639144331,187660.741748
0.024642,3827.,0.,1746.,2426.,0.,0.,7999.,1.40543691135,0.0643957347696,176680.284999
0.02738,3429.,0.,1853.,2717.,0.,0.,7999.,1.25927441051,0.0543669470267,168007.354752
0.030118,3060.,0.,1911.,3028.,0.,0.,7999.,1.12376194113,0.0470439326482,154620.653004
0.032856,2402.,0.,1939.,3658.,0.,0.,7999.,0.882116399543,0.0363946941534,123150.506307
0.035594,2131.,0.,1909.,3959.,0.,0.,7999.,0.782593691685,0.0327959640308,107565.937735
0.038332,1885.,0.,1830.,4284.,0.,0.,7999.,0.692252045437,0.0302623845,91211.1295068
0.04107,1483.,0.,1685.,4832.,0.,0.,8000.,0.544552497167,0.0258541244946,66065.1089563
0.043808,1342.,0.,1528.,5130.,0.,0.,8000.,0.492777782332,0.0257998838917,54213.440501
0.046546,1218.,0.,1399.,5383.,0.,0.,8000.,0.447245409002,0.0255751484776,45050.1355579
0.049284,1022.,0.,1181.,5796.,0.,0.,7999.,0.37532179864,0.0254239999079,31914.363182
0.052022,957.,0.,1061.,5981.,0.,0.,7999.,0.351451038453,0.0264996070464,26848.0477295
0.05476,909.,0.,919.,6171.,0.,0.,7999.,0.33382340016,0.0290597083926,22088.4267418
0.057498,812.,0.,775.,6412.,0.,0.,7999.,0.298200881111,0.0307820264373,16639.609166
0.060236,789.,0.,669.,6540.,0.,0.,7998.,0.289790532775,0.0346535764155,13958.6303827
0.062974,769.,0.,572.,6657.,0.,0.,7998.,0.28244476515,0.0395027643567,11632.205208
0.065712,704.,0.,495.,6801.,0.,0.,8000.,0.258506377617,0.0417788085037,9213.16729826
0.06845,681.,0.,437.,6882.,0.,0.,8000.,0.250060856757,0.0457777312141,7867.91479701
0.071188,641.,0.,362.,6997.,0.,0.,8000.,0.235372994393,0.0520161313575,6134.76172585
0.073926,632.,0.,317.,7051.,0.,0.,8000.,0.23206822536,0.0585661136556,5296.72517563
0.076664,621.,0.,279.,7100.,0.,0.,8000.,0.22802906321,0.065384677623,4580.64782177
0.079402,597.,0.,226.,7175.,0.,0.,7998.,0.219271163582,0.0776181110026,3567.98037381
0.08214,583.,0.,205.,7210.,0.,0.,7998.,0.214129126245,0.0835625858519,3160.54590338
