t,s,e,i,r,c,o,n,reff,coal,reportr
0.,7158.,0.,157.,685.,0.,0.,8000.,2.5454308291,1.29703481738,28773.5500921
0.002738,7011.,0.,254.,735.,0.,0.,8000.,2.49315668383,0.78524619963,45594.8494338
0.005476,6889.,0.,342.,769.,0.,0.,8000.,2.44977269931,0.573046245453,60323.2029478
0.008214,6613.,0.,479.,908.,0.,0.,8000.,2.35162532451,0.392755795325,81102.8541917
0.010952,6396.,0.,644.,960.,0.,0.,8000.,2.2744587291,0.282541457032,105462.102351
0.01369,6133.,0.,836.,1032.,0.,0.,8001.,2.18066165519,0.208675756478,131258.386349
0.016428,5525.,0.,1130.,1345.,0.,0.,8000.,1.96472552819,0.139095612615,159850.068973
0.019166,5143.,0.,1315.,1542.,0.,0.,8000.,1.82888387176,0.111262897141,173158.724978
0.021904,4713.,0.,1518.,1770.,0.,0.,8001.,1.67576363622,0.0883142891286,183154.262384
0.024642,3919.,0.,1734.,2346.,0.,0.,7999.,1.39379582538,0.0643043056691,174012.621207
0.02738,3516.,0.,1855.,2628.,0.,0.,7999.,1.250468518,0.053928561423,167012.575264
0.030118,3121.,0.,1938.,2939.,0.,0.,7998.,1.11012520071,0.0458256016804,154902.430006
0.032856,2463.,0.,1929.,3607.,0.,0.,7999.,0.875968134194,0.0363283829629,121661.462222
0.035594,2197.,0.,1868.,3934.,0.,0.,7999.,0.781364998305,0.0334631690923,105090.466812
0.038332,1966.,0.,1805.,4228.,0.,0.,7999.,0.699209643453,0.0309899010949,90869.2852632
0.04107,1549.,0.,1670.,4780.,0.,0.,7999.,0.550903223657,0.0263905735883,66240.6036125
0.043808,1393.,0.,1538.,5068.,0.,0.,7999.,0.495421685316,0.025769658534,54861.0157451
0.046546,1275.,0.,1398.,5326.,0.,0.,7999.,0.453454880673,0.0259487771487,45642.954469
0.049284,1073.,0.,1175.,5750.,0.,0.,7998.,0.381661115142,0.0259854376267,32288.5303411
0.052022,998.,0.,1052.,5947.,0.,0.,7997.,0.355028353213,0.0269983538565,26891.2675858
0.05476,948.,0.,911.,6139.,0.,0.,7998.,0.337199195857,0.0296113454101,22117.5696547
0.057498,831.,0.,779.,6388.,0.,0.,7998.,0.295582839407,0.030355105459,16578.6502966
0.060236,802.,0.,669.,6526.,0.,0.,7997.,0.285303345969,0.0341169920441,13742.4915686
0.062974,775.,0.,579.,6643.,0.,0.,7997.,0.275698370481,0.0380930390993,11493.3136686
0.065712,716.,0.,480.,6801.,0.,0.,7997.,0.254709720341,0.0424516200569,8802.76793499
0.06845,690.,0.,432.,6875.,0.,0.,7997.,0.245460484686,0.0454556453123,7634.80291568
0.071188,640.,0.,369.,6988.,0.,0.,7997.,0.227673493042,0.0493601068927,6048.82936315
0.073926,627.,0.,319.,7050.,0.,0.,7996.,0.223076770272,0.0559440176231,5123.62725961
0.076664,616.,0.,284.,7095.,0.,0.,7995.,0.219190555249,0.06174381838,4482.00847373
0.079402,606.,0.,226.,7163.,0.,0.,7995.,0.215632267014,0.0763300060228,3508.76824886
0.08214,597.,0.,205.,7193.,0.,0.,7995.,0.212429807603,0.0828994371135,3135.46396022
