t,s,e,i,r,c,o,n,reff,coal,reportr
0.,7244.,0.,148.,608.,0.,0.,8000.,2.58359042054,1.39653536246,27530.7395213
0.002738,7089.,0.,254.,658.,0.,0.,8001.,2.52799329008,0.796218359079,46231.9412889
0.005476,6962.,0.,342.,697.,0.,0.,8001.,2.4827040888,0.580749494457,61134.1054827
0.008214,6673.,0.,483.,844.,0.,0.,8000.,2.37994186586,0.394193269708,82764.8583272
0.010952,6457.,0.,643.,900.,0.,0.,8000.,2.30290493449,0.286520054058,106615.286847
0.01369,6184.,0.,823.,993.,0.,0.,8000.,2.2055388129,0.214390164073,130691.407897
0.016428,5606.,0.,1111.,1283.,0.,0.,8000.,1.999393691,0.143970742826,159935.50013
0.019166,5219.,0.,1327.,1454.,0.,0.,8000.,1.86136918896,0.112215173411,177842.65779
0.021904,4829.,0.,1511.,1660.,0.,0.,8000.,1.72227472954,0.0911859552372,187369.712376
0.024642,4057.,0.,1739.,2203.,0.,0.,7999.,1.44711992038,0.0665725092757,181190.990991
0.02738,3670.,0.,1833.,2495.,0.,0.,7998.,1.30924183881,0.0571409422287,172788.500919
0.030118,3265.,0.,1913.,2820.,0.,0.,7998.,1.16476147241,0.0487093140577,160429.586163
0.032856,2608.,0.,1965.,3424.,0.,0.,7997.,0.930498552747,0.0378828927327,131646.935243
0.035594,2344.,0.,1878.,3775.,0.,0.,7997.,0.836306981457,0.03562543052,113082.084805
0.038332,2089.,0.,1819.,4090.,0.,0.,7998.,0.745233297352,0.0327755161013,97601.7144876
0.04107,1668.,0.,1669.,4660.,0.,0.,7997.,0.595119473153,0.0285257985933,71514.3168498
0.043808,1514.,0.,1531.,4952.,0.,0.,7997.,0.5401743899,0.0282259642012,59544.5033475
0.046546,1380.,0.,1404.,5212.,0.,0.,7996.,0.492426608162,0.0280584961916,49778.4209659
0.049284,1183.,0.,1177.,5636.,0.,0.,7996.,0.422130925693,0.0286919915509,35773.0631669
0.052022,1094.,0.,1051.,5851.,0.,0.,7996.,0.390372977775,0.0297144036365,29540.3039742
0.05476,1033.,0.,918.,6045.,0.,0.,7996.,0.368606294371,0.0321225528863,24363.4016327
0.057498,905.,0.,773.,6317.,0.,0.,7995.,0.322972334047,0.0334253385818,17975.3482237
0.060236,872.,0.,671.,6453.,0.,0.,7996.,0.311156523418,0.0370976480976,15032.5939594
0.062974,845.,0.,570.,6581.,0.,0.,7996.,0.30152208978,0.0423188897937,12374.4665646
0.065712,778.,0.,486.,6733.,0.,0.,7997.,0.277579706303,0.0456921327247,9713.06908294
0.06845,752.,0.,431.,6814.,0.,0.,7997.,0.268303263676,0.0498010698238,8325.98687838
0.071188,710.,0.,367.,6921.,0.,0.,7998.,0.253286568272,0.0552123309585,6692.84428002
0.073926,695.,0.,327.,6976.,0.,0.,7998.,0.24793544359,0.0606569892575,5837.39208389
0.076664,675.,0.,288.,7035.,0.,0.,7998.,0.240800610681,0.0668890585225,4993.24146308
0.079402,646.,0.,230.,7122.,0.,0.,7998.,0.230455102963,0.0801582966828,3816.33650507
0.08214,635.,0.,208.,7155.,0.,0.,7998.,0.226530944863,0.0871272864857,3392.52743027
