t,s,e,i,r,c,o,n,reff,coal,reportr
0.,7047.,0.,160.,793.,0.,0.,8000.,2.61255743263,1.30627871631,30096.6616239
0.002738,6903.,0.,246.,851.,0.,0.,8000.,2.55917184013,0.832251004922,45328.0516325
0.005476,6775.,0.,349.,877.,0.,0.,8001.,2.51140405463,0.575680012524,63106.5610848
0.008214,6499.,0.,484.,1018.,0.,0.,8001.,2.40909445772,0.398197431028,83952.1236627
0.010952,6272.,0.,639.,1089.,0.,0.,8000.,2.3252391397,0.291109751449,106979.602339
0.01369,5985.,0.,836.,1179.,0.,0.,8000.,2.21883868799,0.212329061052,133556.338308
0.016428,5359.,0.,1116.,1525.,0.,0.,8000.,1.98675965396,0.142420046879,159640.111715
0.019166,4990.,0.,1323.,1687.,0.,0.,8000.,1.8499590732,0.111864494222,176219.701476
0.021904,4606.,0.,1525.,1869.,0.,0.,8000.,1.70759749321,0.0895788848899,187494.204755
0.024642,3851.,0.,1743.,2406.,0.,0.,8000.,1.42769386591,0.0655281177697,179169.869396
0.02738,3450.,0.,1834.,2716.,0.,0.,8000.,1.27902982015,0.0557919223619,168893.329691
0.030118,3074.,0.,1914.,3013.,0.,0.,8001.,1.13949166995,0.0476276560065,157031.068053
0.032856,2408.,0.,1940.,3655.,0.,0.,8003.,0.892391094473,0.0367996327618,124649.188076
0.035594,2133.,0.,1879.,3990.,0.,0.,8002.,0.790576444692,0.0336594548033,106955.506049
0.038332,1917.,0.,1818.,4267.,0.,0.,8002.,0.710518070546,0.0312659216962,93003.9733622
0.04107,1532.,0.,1683.,4787.,0.,0.,8002.,0.567821431443,0.0269909177156,68806.3297765
0.043808,1386.,0.,1531.,5085.,0.,0.,8002.,0.51370790077,0.0268429993871,56627.0493177
0.046546,1244.,0.,1422.,5337.,0.,0.,8003.,0.46101931957,0.0259363892866,47201.0020148
0.049284,1058.,0.,1182.,5763.,0.,0.,8003.,0.392088778219,0.0265373115546,33368.3233816
0.052022,978.,0.,1059.,5966.,0.,0.,8003.,0.362441233553,0.0273798854431,27635.4191759
0.05476,927.,0.,936.,6141.,0.,0.,8004.,0.343498002673,0.0293588036472,23149.0173961
0.057498,812.,0.,772.,6419.,0.,0.,8003.,0.300922578369,0.0311836868776,16726.4805961
0.060236,780.,0.,677.,6546.,0.,0.,8003.,0.289063560502,0.0341581755394,14090.1141931
0.062974,756.,0.,572.,6675.,0.,0.,8003.,0.280169297102,0.0391845170772,11538.4923318
0.065712,705.,0.,480.,6819.,0.,0.,8004.,0.261236345075,0.0435393908458,9028.32808578
0.06845,688.,0.,431.,6886.,0.,0.,8005.,0.254905181728,0.0473141868637,7910.21759939
0.071188,647.,0.,370.,6988.,0.,0.,8005.,0.239714611305,0.0518301862282,6385.99724517
0.073926,631.,0.,323.,7051.,0.,0.,8005.,0.233786583823,0.057903797851,5436.94079339
0.076664,621.,0.,285.,7099.,0.,0.,8005.,0.230081566647,0.0645842994097,4721.2737476
0.079402,596.,0.,223.,7187.,0.,0.,8006.,0.220791442015,0.0792076922026,3545.02739299
0.08214,588.,0.,197.,7220.,0.,0.,8005.,0.217855009965,0.0884690395798,3090.05546135
