t,s,e,i,r,c,o,n,reff,coal,reportr
0.,7003.,0.,155.,842.,0.,0.,8000.,2.68246661081,1.3844988959,29936.3273766
0.002738,6854.,0.,248.,899.,0.,0.,8001.,2.62506472004,0.846795070981,46873.155641
0.005476,6724.,0.,351.,926.,0.,0.,8001.,2.57527504779,0.586957275849,65082.3510077
0.008214,6445.,0.,483.,1074.,0.,0.,8002.,2.46811027596,0.408796733079,85831.002957
0.010952,6221.,0.,626.,1155.,0.,0.,8002.,2.38232956195,0.30445106223,107376.358016
0.01369,5934.,0.,837.,1232.,0.,0.,8003.,2.27213907572,0.217169804131,136928.189259
0.016428,5311.,0.,1111.,1582.,0.,0.,8004.,2.03333720402,0.146414920182,162650.709624
0.019166,4933.,0.,1314.,1756.,0.,0.,8003.,1.88885440859,0.114998746337,178700.737887
0.021904,4534.,0.,1534.,1936.,0.,0.,8004.,1.73585970308,0.0905272335372,191722.232485
0.024642,3765.,0.,1747.,2492.,0.,0.,8004.,1.44144503354,0.0660077863099,181310.722099
0.02738,3372.,0.,1843.,2789.,0.,0.,8004.,1.2909834404,0.0560383479284,171308.338607
0.030118,2990.,0.,1943.,3071.,0.,0.,8004.,1.14473324045,0.0471326089737,160143.601406
0.032856,2303.,0.,1960.,3741.,0.,0.,8004.,0.881712592895,0.0359882690978,124427.281109
0.035594,2047.,0.,1881.,4076.,0.,0.,8004.,0.783701987693,0.0333312913426,106138.327597
0.038332,1809.,0.,1822.,4373.,0.,0.,8004.,0.692582753168,0.0304097806002,90855.7758917
0.04107,1416.,0.,1684.,4904.,0.,0.,8004.,0.542121160026,0.025753974348,65731.1064108
0.043808,1286.,0.,1516.,5202.,0.,0.,8004.,0.492350149571,0.025981538236,53741.003526
0.046546,1175.,0.,1408.,5422.,0.,0.,8005.,0.449797167174,0.0255566572258,45598.6376195
0.049284,968.,0.,1198.,5839.,0.,0.,8005.,0.370556304532,0.0247449952943,31962.7046037
0.052022,911.,0.,1049.,6045.,0.,0.,8005.,0.348736356847,0.0265957183487,26339.35956
0.05476,857.,0.,925.,6223.,0.,0.,8005.,0.328064827462,0.028373174267,21849.117509
0.057498,750.,0.,766.,6489.,0.,0.,8005.,0.287104574792,0.0299848119887,15834.3915089
0.060236,721.,0.,679.,6604.,0.,0.,8004.,0.276037681058,0.0325228490201,13494.9301516
0.062974,698.,0.,573.,6733.,0.,0.,8004.,0.267232040747,0.0373098835249,11024.9250731
0.065712,641.,0.,486.,6876.,0.,0.,8003.,0.245440031604,0.0404016512929,8588.43758589
0.06845,617.,0.,431.,6956.,0.,0.,8004.,0.236220872695,0.0438461016603,7330.40612147
0.071188,570.,0.,368.,7066.,0.,0.,8004.,0.218226738146,0.0474405952491,5782.13565392
0.073926,558.,0.,317.,7129.,0.,0.,8004.,0.213632491027,0.0539135624043,4875.9479752
0.076664,550.,0.,281.,7174.,0.,0.,8005.,0.210543354848,0.0599411686399,4259.71315528
0.079402,535.,0.,220.,7248.,0.,0.,8003.,0.204852444475,0.0744917979908,3244.86272048
0.08214,522.,0.,206.,7275.,0.,0.,8003.,0.199874721525,0.0776212510776,2964.54186966
