t,s,e,i,r,c,o,n,reff,coal,reportr
0.,6913.,0.,155.,932.,0.,0.,8000.,2.48645508041,1.2833316544,27748.8386973
0.002738,6770.,0.,249.,981.,0.,0.,8000.,2.43502110435,0.782336097782,43655.0583588
0.005476,6652.,0.,334.,1014.,0.,0.,8000.,2.39257908215,0.573072834047,57536.7417674
0.008214,6371.,0.,483.,1146.,0.,0.,8000.,2.2915095208,0.379546090401,79689.5350953
0.010952,6156.,0.,646.,1198.,0.,0.,8000.,2.21417871763,0.274201698778,102985.880514
0.01369,5886.,0.,844.,1270.,0.,0.,8000.,2.11706561598,0.200669726633,128649.843352
0.016428,5311.,0.,1136.,1553.,0.,0.,8000.,1.91025067728,0.134524695583,156243.223396
0.019166,4934.,0.,1341.,1725.,0.,0.,8000.,1.77465201312,0.105870366182,171346.201171
0.021904,4532.,0.,1515.,1952.,0.,0.,7999.,1.63026517826,0.0860866100731,177829.325644
0.024642,3768.,0.,1759.,2472.,0.,0.,7999.,1.35543671485,0.0616457857803,171663.349062
0.02738,3383.,0.,1852.,2764.,0.,0.,7999.,1.21694331378,0.0525677457356,162272.089233
0.030118,3008.,0.,1923.,3068.,0.,0.,7999.,1.08204714391,0.0450149617851,149815.919357
0.032856,2405.,0.,1935.,3658.,0.,0.,7998.,0.865242271566,0.0357722902973,120545.553275
0.035594,2137.,0.,1885.,3975.,0.,0.,7997.,0.768920560866,0.0326332333524,104357.898521
0.038332,1904.,0.,1829.,4268.,0.,0.,8001.,0.684741613012,0.0299504259382,90172.2535343
0.04107,1485.,0.,1665.,4851.,0.,0.,8001.,0.534055302165,0.0256603148187,64022.5496235
0.043808,1357.,0.,1531.,5113.,0.,0.,8001.,0.488022252551,0.0255008361882,53795.6689432
0.046546,1229.,0.,1410.,5362.,0.,0.,8001.,0.441989202937,0.0250774015851,44870.7438821
0.049284,1047.,0.,1195.,5759.,0.,0.,8001.,0.376535960516,0.0252074283191,32397.1540428
0.052022,978.,0.,1061.,5962.,0.,0.,8001.,0.351721269709,0.0265199826359,26868.6912356
0.05476,932.,0.,923.,6146.,0.,0.,8001.,0.335178142504,0.0290511932831,22274.5986382
0.057498,834.,0.,771.,6396.,0.,0.,8001.,0.299934088893,0.0311215656439,16649.9411426
0.060236,799.,0.,677.,6525.,0.,0.,8001.,0.287346926889,0.0339553237092,14006.4386043
0.062974,762.,0.,578.,6660.,0.,0.,8000.,0.274074753547,0.0379342219442,11405.8949436
0.065712,707.,0.,485.,6807.,0.,0.,7999.,0.254324245593,0.0419503910257,8881.00265612
0.06845,695.,0.,437.,6867.,0.,0.,7999.,0.250007568158,0.0457679758641,7866.23812451
0.071188,660.,0.,366.,6973.,0.,0.,7999.,0.23741725897,0.0518944828349,6256.41960837
0.073926,644.,0.,316.,7039.,0.,0.,7999.,0.231661689055,0.0586485288748,5270.76674939
0.076664,636.,0.,281.,7082.,0.,0.,7999.,0.228783904098,0.0651342075724,4628.75594771
0.079402,614.,0.,230.,7154.,0.,0.,7998.,0.220897611119,0.0768339516936,3658.06444013
0.08214,607.,0.,202.,7189.,0.,0.,7998.,0.218379234445,0.0864868255228,3176.10758577
