t,s,e,i,r,c,o,n,reff,coal,reportr
0.,7009.,0.,160.,831.,0.,0.,8000.,2.61415332609,1.30707666305,30115.0463166
0.002738,6852.,0.,253.,894.,0.,0.,7999.,2.55591637789,0.8081949021,46558.5727396
0.005476,6722.,0.,343.,934.,0.,0.,7999.,2.50742409401,0.584821946125,61923.3454257
0.008214,6455.,0.,486.,1058.,0.,0.,7999.,2.40782840328,0.39635035445,84254.7314876
0.010952,6229.,0.,635.,1136.,0.,0.,8000.,2.32323599204,0.292691148604,106218.349556
0.01369,5945.,0.,830.,1225.,0.,0.,8000.,2.21731224477,0.21371684287,132506.579748
0.016428,5338.,0.,1133.,1532.,0.,0.,8003.,1.99017256882,0.140524100182,162350.317474
0.019166,4961.,0.,1328.,1715.,0.,0.,8004.,1.84938414667,0.111408683534,176830.714568
0.021904,4551.,0.,1522.,1931.,0.,0.,8004.,1.69654248166,0.0891743748571,185913.91131
0.024642,3752.,0.,1758.,2492.,0.,0.,8002.,1.39903721166,0.0636649470609,177084.534104
0.02738,3361.,0.,1854.,2787.,0.,0.,8002.,1.25324202249,0.054077325674,167292.771099
0.030118,2980.,0.,1921.,3102.,0.,0.,8003.,1.11103676566,0.0462691000795,153669.717132
0.032856,2306.,0.,1959.,3739.,0.,0.,8004.,0.859641169567,0.0351053055464,121250.667685
0.035594,2030.,0.,1894.,4080.,0.,0.,8004.,0.756752634094,0.0319642084095,103196.843206
0.038332,1803.,0.,1829.,4374.,0.,0.,8006.,0.671962634808,0.0293914766455,88489.4154525
0.04107,1434.,0.,1663.,4911.,0.,0.,8008.,0.534306023498,0.0257032362477,63975.6660296
0.043808,1293.,0.,1528.,5187.,0.,0.,8008.,0.481769657171,0.0252235422603,53002.3706033
0.046546,1186.,0.,1393.,5429.,0.,0.,8008.,0.441901634497,0.0253784140415,44320.9663335
0.049284,1003.,0.,1184.,5821.,0.,0.,8008.,0.373716137775,0.0252510903902,31858.553313
0.052022,948.,0.,1064.,5995.,0.,0.,8007.,0.353267343227,0.026561454378,27063.1046299
0.05476,896.,0.,929.,6182.,0.,0.,8007.,0.333889809632,0.028752620851,22333.2215867
0.057498,794.,0.,776.,6437.,0.,0.,8007.,0.295880032197,0.0305030961027,16531.4091589
0.060236,757.,0.,674.,6576.,0.,0.,8007.,0.282092171754,0.0334827503566,13689.3689109
0.062974,733.,0.,573.,6699.,0.,0.,8005.,0.273216939231,0.0381454714459,11271.8380449
0.065712,689.,0.,490.,6826.,0.,0.,8005.,0.256816468118,0.0419292192845,9060.4849952
0.06845,670.,0.,442.,6893.,0.,0.,8005.,0.249734446501,0.0452008047965,7947.54902544
0.071188,631.,0.,375.,6999.,0.,0.,8005.,0.235197665286,0.0501755019278,6350.33696273
0.073926,620.,0.,327.,7057.,0.,0.,8004.,0.231126420265,0.0565446899731,5441.64043872
0.076664,611.,0.,291.,7102.,0.,0.,8004.,0.227771359326,0.0626175558284,4772.26552059
0.079402,587.,0.,228.,7187.,0.,0.,8002.,0.218879222614,0.0767997272329,3593.12131843
0.08214,580.,0.,207.,7216.,0.,0.,8003.,0.216242055061,0.0835718087192,3222.87158863
