t,s,e,i,r,c,o,n,reff,coal,reportr
0.,7090.,0.,151.,759.,0.,0.,8000.,2.69406958494,1.4273216344,29289.9245274
0.002738,6926.,0.,254.,820.,0.,0.,8000.,2.63175260159,0.828898457194,48129.4915779
0.005476,6799.,0.,338.,863.,0.,0.,8000.,2.58349493766,0.611478091753,62871.9328028
0.008214,6524.,0.,477.,998.,0.,0.,7999.,2.47930990981,0.415817175649,85149.4195424
0.010952,6298.,0.,646.,1055.,0.,0.,7999.,2.39342333108,0.296399174128,111322.905975
0.01369,6007.,0.,842.,1151.,0.,0.,8000.,2.28254950588,0.216869311723,138377.281245
0.016428,5423.,0.,1122.,1455.,0.,0.,8000.,2.06064024811,0.146926220899,166466.761803
0.019166,5042.,0.,1317.,1642.,0.,0.,8001.,1.91562780284,0.116363116345,181647.490776
0.021904,4630.,0.,1508.,1865.,0.,0.,8003.,1.75865533898,0.0932973654632,190947.762085
0.024642,3814.,0.,1742.,2446.,0.,0.,8002.,1.44888762252,0.0665390412177,181725.281166
0.02738,3395.,0.,1861.,2745.,0.,0.,8001.,1.28987631706,0.0554487401209,172833.107476
0.030118,3026.,0.,1926.,3048.,0.,0.,8000.,1.14982433907,0.0477600971577,159448.440748
0.032856,2380.,0.,1955.,3666.,0.,0.,8001.,0.904243191343,0.0370022789296,127281.271613
0.035594,2127.,0.,1887.,3988.,0.,0.,8002.,0.808018870763,0.0342562319349,109780.675857
0.038332,1914.,0.,1807.,4282.,0.,0.,8003.,0.72701216389,0.0321864820759,94587.1905707
0.04107,1513.,0.,1672.,4818.,0.,0.,8003.,0.574696658289,0.027497447765,69184.2825115
0.043808,1350.,0.,1526.,5127.,0.,0.,8003.,0.512782874217,0.0268824573639,56340.479956
0.046546,1225.,0.,1397.,5381.,0.,0.,8003.,0.465302978456,0.0266458398543,46802.034785
0.049284,1045.,0.,1187.,5770.,0.,0.,8002.,0.396981532651,0.0267552844246,33927.6297064
0.052022,964.,0.,1068.,5969.,0.,0.,8001.,0.366256485905,0.0274349427644,28163.6587402
0.05476,904.,0.,923.,6174.,0.,0.,8001.,0.343460439065,0.02976905214,22825.0069385
0.057498,785.,0.,771.,6444.,0.,0.,8000.,0.298285560533,0.0309505121175,16558.4280363
0.060236,759.,0.,665.,6578.,0.,0.,8002.,0.288333955294,0.0346867916143,13805.4297795
0.062974,729.,0.,571.,6702.,0.,0.,8002.,0.27693735627,0.0388003301254,11385.448591
0.065712,658.,0.,482.,6863.,0.,0.,8003.,0.249934171285,0.0414828500058,8673.71548027
0.06845,635.,0.,428.,6941.,0.,0.,8004.,0.241167735799,0.0450780814577,7431.82494637
0.071188,594.,0.,365.,7046.,0.,0.,8005.,0.225568093771,0.0494395821964,5927.9295043
0.073926,577.,0.,317.,7111.,0.,0.,8005.,0.219112441256,0.0552965151434,5001.02235922
0.076664,568.,0.,283.,7155.,0.,0.,8006.,0.215667801229,0.0609661628915,4394.44711784
0.079402,545.,0.,223.,7237.,0.,0.,8005.,0.206960624756,0.0742459640381,3322.95979109
0.08214,535.,0.,208.,7262.,0.,0.,8005.,0.2031631821,0.0781396854232,3042.57181513
