t,s,e,i,r,c,o,n,reff,coal,reportr
0.,7220.,0.,154.,626.,0.,0.,8000.,2.57448187908,1.33739318394,28545.8550752
0.002738,7077.,0.,250.,673.,0.,0.,8000.,2.52349144851,0.807517263523,45422.8460732
0.005476,6948.,0.,352.,699.,0.,0.,7999.,2.47780281342,0.56313700305,62797.4345033
0.008214,6689.,0.,476.,836.,0.,0.,8001.,2.38484168553,0.400813728661,81733.2942465
0.010952,6465.,0.,643.,892.,0.,0.,8000.,2.30526666873,0.286813893466,106724.625696
0.01369,6186.,0.,836.,978.,0.,0.,8000.,2.20578184266,0.211079602168,132770.420673
0.016428,5590.,0.,1134.,1276.,0.,0.,8000.,1.99326228588,0.140618150679,162745.879118
0.019166,5228.,0.,1295.,1477.,0.,0.,8000.,1.86418161549,0.11516179864,173816.293828
0.021904,4825.,0.,1520.,1655.,0.,0.,8000.,1.72048131116,0.0905516479557,188289.474693
0.024642,4022.,0.,1746.,2232.,0.,0.,8000.,1.43415043181,0.0657113599912,180289.919083
0.02738,3609.,0.,1857.,2534.,0.,0.,8000.,1.2868843631,0.0554392832785,172061.586884
0.030118,3270.,0.,1931.,2799.,0.,0.,8000.,1.16600495077,0.0483067820103,162112.000316
0.032856,2609.,0.,1942.,3450.,0.,0.,8001.,0.9301916516,0.038318914587,130063.117493
0.035594,2308.,0.,1878.,3815.,0.,0.,8001.,0.82287555841,0.0350532719238,111265.941506
0.038332,2061.,0.,1821.,4119.,0.,0.,8001.,0.734812186258,0.032281699561,96342.6953647
0.04107,1670.,0.,1655.,4675.,0.,0.,8000.,0.595482650701,0.0287846598526,70957.7126575
0.043808,1514.,0.,1546.,4941.,0.,0.,8001.,0.539789252787,0.0279321734948,60085.0213063
0.046546,1398.,0.,1402.,5201.,0.,0.,8001.,0.498431555744,0.0284411729383,50313.674963
0.049284,1202.,0.,1179.,5622.,0.,0.,8003.,0.428444211351,0.0290717022121,36369.7722131
0.052022,1134.,0.,1053.,5816.,0.,0.,8003.,0.404206102888,0.030708915699,30645.2898966
0.05476,1075.,0.,915.,6013.,0.,0.,8003.,0.383175979369,0.0335017249722,25243.6335208
0.057498,960.,0.,762.,6280.,0.,0.,8002.,0.342227823088,0.0359294302455,18775.9872859
0.060236,928.,0.,670.,6405.,0.,0.,8003.,0.330778891958,0.0394959870994,15956.773748
0.062974,900.,0.,569.,6534.,0.,0.,8003.,0.320798494356,0.0451034789955,13142.4727168
0.065712,821.,0.,491.,6691.,0.,0.,8003.,0.292639515407,0.047680572775,10345.3921487
0.06845,801.,0.,436.,6766.,0.,0.,8003.,0.285510659977,0.0523872770599,8962.75063798
0.071188,766.,0.,364.,6873.,0.,0.,8003.,0.273035162974,0.0600077281261,7155.70555122
0.073926,750.,0.,309.,6944.,0.,0.,8003.,0.26733207863,0.069212188642,5947.60408535
0.076664,735.,0.,281.,6987.,0.,0.,8003.,0.261985437057,0.0745866012974,5300.48936254
0.079402,713.,0.,221.,7069.,0.,0.,8003.,0.254143696084,0.0919977180394,4043.93449209
0.08214,704.,0.,198.,7101.,0.,0.,8003.,0.25093571114,0.101388166117,3577.33949802
