t,s,e,i,r,c,o,n,reff,coal,reportr
0.,7177.,0.,157.,666.,0.,0.,8000.,2.61135799921,1.33062827985,29518.7908231
0.002738,7020.,0.,251.,728.,0.,0.,7999.,2.55455272503,0.814200071724,46165.8768468
0.005476,6894.,0.,343.,763.,0.,0.,8000.,2.50838819096,0.585046808388,61947.1547641
0.008214,6611.,0.,484.,905.,0.,0.,8000.,2.40541838272,0.397589815326,83824.019801
0.010952,6389.,0.,645.,967.,0.,0.,8001.,2.32435293602,0.288291837026,107942.950349
0.01369,6116.,0.,831.,1055.,0.,0.,8002.,2.22475599202,0.214176268787,133111.600515
0.016428,5507.,0.,1136.,1360.,0.,0.,8003.,2.00297585934,0.141054637982,163827.401487
0.019166,5124.,0.,1315.,1564.,0.,0.,8003.,1.86367319834,0.113379358074,176452.578419
0.021904,4723.,0.,1506.,1774.,0.,0.,8003.,1.71782367599,0.0912522537046,186267.056835
0.024642,3943.,0.,1755.,2303.,0.,0.,8001.,1.43448483749,0.0653896222218,181261.504065
0.02738,3549.,0.,1851.,2600.,0.,0.,8000.,1.29130688856,0.0558101302457,172095.051652
0.030118,3168.,0.,1913.,2920.,0.,0.,8001.,1.15253562393,0.0481980396836,158745.646698
0.032856,2508.,0.,1960.,3533.,0.,0.,8001.,0.912424035615,0.037241797372,128761.279906
0.035594,2243.,0.,1882.,3876.,0.,0.,8001.,0.81601559485,0.0346871666249,110573.377165
0.038332,2017.,0.,1804.,4181.,0.,0.,8002.,0.733703864602,0.0325367567451,95299.3275654
0.04107,1614.,0.,1666.,4722.,0.,0.,8002.,0.58710859567,0.028192489588,70424.8502679
0.043808,1468.,0.,1539.,4995.,0.,0.,8002.,0.53399963968,0.0277582658703,59171.4320737
0.046546,1327.,0.,1414.,5261.,0.,0.,8002.,0.482709483553,0.0273102960992,49143.6871016
0.049284,1127.,0.,1189.,5686.,0.,0.,8002.,0.409957489046,0.0275833466137,35095.6407223
0.052022,1062.,0.,1061.,5880.,0.,0.,8003.,0.386264819797,0.0291245858471,29507.5421139
0.05476,1011.,0.,927.,6065.,0.,0.,8003.,0.367715379298,0.0317337975662,24542.7952759
0.057498,909.,0.,777.,6316.,0.,0.,8002.,0.330657815034,0.0340445626804,18498.3208042
0.060236,871.,0.,669.,6461.,0.,0.,8001.,0.316874535495,0.0378923211354,15263.2126257
0.062974,838.,0.,588.,6575.,0.,0.,8001.,0.304868956079,0.0414787695345,12906.9321245
0.065712,778.,0.,494.,6729.,0.,0.,8001.,0.283040629868,0.0458365392498,10067.1891231
0.06845,761.,0.,433.,6808.,0.,0.,8002.,0.276821339099,0.0511448201568,8630.18206774
0.071188,713.,0.,372.,6919.,0.,0.,8004.,0.259296052606,0.0557625919582,6944.98547299
0.073926,699.,0.,325.,6980.,0.,0.,8004.,0.254204685514,0.0625734610496,5948.38964103
0.076664,684.,0.,296.,7024.,0.,0.,8004.,0.248749649344,0.0672296349579,5301.35252682
0.079402,668.,0.,224.,7112.,0.,0.,8004.,0.242930944096,0.086761051463,3917.99026639
0.08214,660.,0.,200.,7144.,0.,0.,8004.,0.240021591472,0.096008636589,3456.3109172
