t,s,e,i,r,c,o,n,reff,coal,reportr
0.,7266.,0.,152.,582.,0.,0.,8000.,2.48555057816,1.30818451482,27201.8655274
0.002738,7122.,0.,253.,626.,0.,0.,8001.,2.43598661338,0.770272446919,44373.9321493
0.005476,6993.,0.,339.,669.,0.,0.,8001.,2.39186385669,0.564451647597,58380.6130142
0.008214,6725.,0.,480.,798.,0.,0.,8003.,2.29962314065,0.383270523442,79474.975741
0.010952,6521.,0.,632.,850.,0.,0.,8003.,2.22986505579,0.282261399467,101467.779499
0.01369,6257.,0.,825.,921.,0.,0.,8003.,2.13958988715,0.207475382996,127091.639297
0.016428,5691.,0.,1129.,1181.,0.,0.,8001.,1.94653184734,0.137929626029,158229.680807
0.019166,5319.,0.,1318.,1364.,0.,0.,8001.,1.81929413038,0.110427564818,172643.735797
0.021904,4949.,0.,1502.,1550.,0.,0.,8001.,1.69274048717,0.0901592802753,183059.727244
0.024642,4179.,0.,1732.,2090.,0.,0.,8001.,1.42937209454,0.0660218057525,178248.417678
0.02738,3779.,0.,1857.,2365.,0.,0.,8001.,1.29255734512,0.0556836766881,172820.087272
0.030118,3383.,0.,1920.,2698.,0.,0.,8001.,1.1571107432,0.0482129476333,159958.98914
0.032856,2741.,0.,1929.,3331.,0.,0.,8001.,0.937523070384,0.0388812056147,130210.7042
0.035594,2457.,0.,1881.,3664.,0.,0.,8002.,0.840279576478,0.0357375683776,113800.743602
0.038332,2215.,0.,1805.,3982.,0.,0.,8002.,0.75751699711,0.0335741605367,98446.9089444
0.04107,1775.,0.,1650.,4577.,0.,0.,8002.,0.607039580077,0.0294322220643,72116.3021131
0.043808,1611.,0.,1535.,4856.,0.,0.,8002.,0.550952542819,0.0287141390394,60891.2750324
0.046546,1474.,0.,1424.,5105.,0.,0.,8003.,0.504036358264,0.0283166493406,51677.83974
0.049284,1281.,0.,1199.,5523.,0.,0.,8003.,0.438039738762,0.0292270050884,37815.0945679
0.052022,1210.,0.,1071.,5722.,0.,0.,8003.,0.413761189619,0.0309065314375,31905.9528539
0.05476,1149.,0.,933.,5921.,0.,0.,8003.,0.39290215444,0.0336893594375,26393.5951267
0.057498,1020.,0.,762.,6220.,0.,0.,8002.,0.348834012213,0.0366229934082,19138.4292461
0.060236,980.,0.,681.,6340.,0.,0.,8001.,0.335196136073,0.0393769322847,16435.3369439
0.062974,948.,0.,587.,6466.,0.,0.,8001.,0.32425095612,0.0441909309874,13704.1424094
0.065712,885.,0.,486.,6630.,0.,0.,8001.,0.302702633086,0.0498275939237,10592.170537
0.06845,869.,0.,427.,6705.,0.,0.,8001.,0.29723004311,0.0556871275147,9138.04044537
0.071188,820.,0.,365.,6815.,0.,0.,8000.,0.280505295086,0.0614806126215,7371.67915485
0.073926,798.,0.,320.,6882.,0.,0.,8000.,0.272979543266,0.0682448858166,6289.44867686
0.076664,785.,0.,278.,6937.,0.,0.,8000.,0.2685325081,0.0772755418994,5374.94668214
0.079402,767.,0.,224.,7009.,0.,0.,8000.,0.262375074794,0.0937053838548,4231.58520627
0.08214,763.,0.,191.,7048.,0.,0.,8002.,0.260941520901,0.109294877864,3588.46779543
