t,s,e,i,r,c,o,n,reff,coal,reportr
0.,7299.,0.,157.,544.,0.,0.,8000.,2.68853846716,1.36995590683,30391.2388328
0.002738,7138.,0.,250.,613.,0.,0.,8001.,2.62890656665,0.841250101328,47320.3181997
0.005476,7007.,0.,338.,654.,0.,0.,7999.,2.58130485785,0.610959729668,62818.6350206
0.008214,6731.,0.,476.,792.,0.,0.,7999.,2.47962937037,0.416744431995,84981.8577813
0.010952,6505.,0.,644.,849.,0.,0.,7998.,2.39667297683,0.29772335116,111128.93259
0.01369,6214.,0.,844.,940.,0.,0.,7998.,2.28945824413,0.217010260107,139125.798579
0.016428,5635.,0.,1119.,1245.,0.,0.,7999.,2.07587453603,0.148409260842,167249.059619
0.019166,5254.,0.,1320.,1424.,0.,0.,7998.,1.93576015685,0.117318797385,183974.645307
0.021904,4837.,0.,1518.,1641.,0.,0.,7996.,1.7825683037,0.0939429936073,194827.585321
0.024642,4012.,0.,1742.,2243.,0.,0.,7997.,1.47834809615,0.0678919906383,185420.331611
0.02738,3602.,0.,1849.,2545.,0.,0.,7996.,1.32743664046,0.0574337107826,176718.985072
0.030118,3198.,0.,1920.,2878.,0.,0.,7996.,1.1785514648,0.0491063110332,162922.954494
0.032856,2500.,0.,1965.,3531.,0.,0.,7996.,0.921319156346,0.0375091768487,130348.23424
0.035594,2229.,0.,1917.,3850.,0.,0.,7996.,0.821448159798,0.034280570049,113379.560808
0.038332,1985.,0.,1825.,4186.,0.,0.,7996.,0.731527410139,0.032066954965,96122.7016922
0.04107,1587.,0.,1672.,4736.,0.,0.,7995.,0.584926552844,0.027986916404,70415.7981375
0.043808,1421.,0.,1534.,5040.,0.,0.,7995.,0.523743309131,0.0273138622754,57846.4010069
0.046546,1287.,0.,1418.,5290.,0.,0.,7995.,0.474354425652,0.0267618857914,48429.6894414
0.049284,1097.,0.,1188.,5711.,0.,0.,7996.,0.404274845805,0.0272238953404,34580.0532107
0.052022,1033.,0.,1056.,5906.,0.,0.,7995.,0.380736691297,0.0288436887346,28948.1721127
0.05476,965.,0.,935.,6095.,0.,0.,7995.,0.3556736758,0.0304319722609,23943.9518548
0.057498,864.,0.,763.,6368.,0.,0.,7995.,0.318447726312,0.0333890145543,17494.2442927
0.060236,826.,0.,667.,6502.,0.,0.,7995.,0.304441923534,0.0365147734374,14620.5189358
0.062974,796.,0.,576.,6623.,0.,0.,7995.,0.293384710815,0.0407478765021,12167.2507269
0.065712,734.,0.,482.,6780.,0.,0.,7996.,0.270499304303,0.0448961500918,9387.40785654
0.06845,709.,0.,430.,6857.,0.,0.,7996.,0.26128611274,0.048611369812,8089.41805042
0.071188,657.,0.,372.,6967.,0.,0.,7996.,0.242122674288,0.0520693923199,6485.01370812
0.073926,642.,0.,317.,7038.,0.,0.,7997.,0.23656517391,0.0597009902613,5399.36352933
0.076664,626.,0.,289.,7082.,0.,0.,7997.,0.230669468641,0.0638531401084,4799.77030349
0.079402,594.,0.,228.,7174.,0.,0.,7996.,0.218905431548,0.0768089233501,3593.55156429
0.08214,584.,0.,201.,7211.,0.,0.,7996.,0.215220154922,0.0856597631532,3114.66608204
