t,s,e,i,r,c,o,n,reff,coal,reportr
0.,7026.,0.,149.,825.,0.,0.,8000.,2.57346660705,1.38172703734,27608.1497604
0.002738,6877.,0.,253.,871.,0.,0.,8001.,2.51857641858,0.796387800341,45878.3880408
0.005476,6748.,0.,340.,912.,0.,0.,8000.,2.47164142675,0.581562688648,60505.7821269
0.008214,6491.,0.,472.,1037.,0.,0.,8000.,2.37750807662,0.402967470614,80797.2344759
0.010952,6272.,0.,639.,1089.,0.,0.,8000.,2.29729327632,0.287611051808,105693.869057
0.01369,5994.,0.,835.,1171.,0.,0.,8000.,2.19546809602,0.210344248721,131991.541933
0.016428,5354.,0.,1153.,1494.,0.,0.,8001.,1.9608053141,0.136048937665,162778.213955
0.019166,4994.,0.,1331.,1677.,0.,0.,8002.,1.82873328574,0.109916350758,175251.168239
0.021904,4579.,0.,1518.,1905.,0.,0.,8002.,1.67676606235,0.0883671179105,183263.823551
0.024642,3820.,0.,1768.,2413.,0.,0.,8001.,1.39900565929,0.0633034234975,178087.824406
0.02738,3445.,0.,1842.,2714.,0.,0.,8001.,1.2616687163,0.0547956011423,167327.551831
0.030118,3061.,0.,1921.,3019.,0.,0.,8001.,1.12103568668,0.046685504911,155052.687895
0.032856,2421.,0.,1948.,3632.,0.,0.,8001.,0.886647303967,0.0364126202861,124357.604265
0.035594,2157.,0.,1900.,3943.,0.,0.,8000.,0.790060841361,0.0332657196363,108080.323098
0.038332,1924.,0.,1807.,4269.,0.,0.,8000.,0.704718154279,0.031199475563,91686.6507443
0.04107,1548.,0.,1663.,4789.,0.,0.,8000.,0.56699776654,0.0272758997734,67890.0445744
0.043808,1384.,0.,1542.,5074.,0.,0.,8000.,0.506928235718,0.0262997787662,56281.2004424
0.046546,1263.,0.,1410.,5327.,0.,0.,8000.,0.462608642855,0.0262472988854,46964.0294227
0.049284,1087.,0.,1199.,5713.,0.,0.,7999.,0.398193554704,0.0265683772947,34375.2531905
0.052022,1025.,0.,1053.,5922.,0.,0.,8000.,0.375434567638,0.0285230440751,28463.94718
0.05476,966.,0.,912.,6122.,0.,0.,8000.,0.353824187647,0.0310372094427,23233.5114577
0.057498,846.,0.,769.,6389.,0.,0.,8004.,0.309716014404,0.0322201315375,17148.3562855
0.060236,821.,0.,664.,6519.,0.,0.,8004.,0.300563649912,0.0362124879413,14369.346975
0.062974,787.,0.,566.,6651.,0.,0.,8004.,0.288116434203,0.0407231709122,11741.3209267
0.065712,728.,0.,482.,6794.,0.,0.,8004.,0.266516854003,0.0442351624901,9249.20090131
0.06845,700.,0.,440.,6864.,0.,0.,8004.,0.256266205772,0.0465938555949,8118.51339885
0.071188,664.,0.,368.,6972.,0.,0.,8004.,0.243086800904,0.0528449567182,6440.82787674
0.073926,651.,0.,315.,7038.,0.,0.,8004.,0.238327571368,0.0605276371728,5405.26931862
0.076664,635.,0.,284.,7085.,0.,0.,8004.,0.232470058093,0.0654845234065,4753.54774789
0.079402,612.,0.,229.,7162.,0.,0.,8003.,0.224077878497,0.0782804815712,3694.59606067
0.08214,605.,0.,207.,7191.,0.,0.,8003.,0.221514896227,0.0856096217303,3301.45801337
