t,s,e,i,r,c,o,n,reff,coal,reportr
0.,7298.,0.,156.,546.,0.,0.,8000.,2.43700158484,1.24974440248,27372.4018009
0.002738,7153.,0.,254.,593.,0.,0.,8000.,2.38858212337,0.752309330196,43682.3898722
0.005476,7030.,0.,346.,624.,0.,0.,8000.,2.34750906295,0.542776661954,58481.1457763
0.008214,6754.,0.,490.,756.,0.,0.,8000.,2.2553451225,0.368219611837,79568.5759218
0.010952,6541.,0.,648.,812.,0.,0.,8001.,2.18394561004,0.269622914819,101894.166382
0.01369,6271.,0.,842.,887.,0.,0.,8000.,2.09405822671,0.198960401588,126950.185936
0.016428,5656.,0.,1141.,1204.,0.,0.,8001.,1.88845686751,0.132407142332,155140.50858
0.019166,5287.,0.,1332.,1382.,0.,0.,8001.,1.76525308673,0.10602120641,169294.832029
0.021904,4893.,0.,1519.,1588.,0.,0.,8000.,1.63390637909,0.0860516855349,178697.072869
0.024642,4154.,0.,1720.,2124.,0.,0.,7998.,1.3874809595,0.0645339981163,171825.642025
0.02738,3748.,0.,1837.,2413.,0.,0.,7998.,1.25187256529,0.0545181302249,165577.672975
0.030118,3353.,0.,1926.,2719.,0.,0.,7998.,1.11993829013,0.0465187244084,155304.082569
0.032856,2688.,0.,1954.,3356.,0.,0.,7998.,0.897821092715,0.0367582842463,126312.653892
0.035594,2398.,0.,1920.,3680.,0.,0.,7998.,0.800957953992,0.033373248083,110724.42756
0.038332,2171.,0.,1807.,4020.,0.,0.,7998.,0.725137497129,0.0321034863145,94343.2889265
0.04107,1759.,0.,1679.,4561.,0.,0.,7999.,0.587451588167,0.0279905461902,71015.8475904
0.043808,1623.,0.,1549.,4825.,0.,0.,7997.,0.542167353892,0.028000896263,60466.8406448
0.046546,1502.,0.,1388.,5106.,0.,0.,7996.,0.501809740226,0.0289227515981,50148.8581993
0.049284,1308.,0.,1171.,5518.,0.,0.,7997.,0.436940787979,0.0298507797082,36839.3517161
0.052022,1233.,0.,1051.,5713.,0.,0.,7997.,0.411886843714,0.0313519957156,31168.3012376
0.05476,1171.,0.,921.,5905.,0.,0.,7997.,0.391175583122,0.0339783351246,25939.635268
0.057498,1045.,0.,769.,6186.,0.,0.,8000.,0.348954049898,0.036302111823,19320.8878348
0.060236,1006.,0.,676.,6318.,0.,0.,8000.,0.3359308844,0.0397551342485,16350.4280055
0.062974,980.,0.,575.,6445.,0.,0.,8000.,0.327248774067,0.0455302642181,13548.0992464
0.065712,923.,0.,485.,6591.,0.,0.,7999.,0.308253448481,0.0508459296464,10764.210421
0.06845,899.,0.,434.,6666.,0.,0.,7999.,0.300238190883,0.055343445324,9381.8429887
0.071188,854.,0.,375.,6770.,0.,0.,7999.,0.285209582885,0.0608447110155,7700.6587379
0.073926,842.,0.,327.,6830.,0.,0.,7999.,0.281201954086,0.0687955850974,6620.61880699
0.076664,822.,0.,292.,6885.,0.,0.,7999.,0.274522572754,0.0752116637681,5771.56256957
0.079402,799.,0.,228.,6970.,0.,0.,7997.,0.266908019568,0.0936519366906,4381.56204923
0.08214,791.,0.,205.,7001.,0.,0.,7997.,0.264235598847,0.103116331257,3900.11743898
