t,s,e,i,r,c,o,n,reff,coal,reportr
0.,7127.,0.,168.,705.,0.,0.,8000.,2.61595767445,1.24569413069,31642.6240301
0.002738,6979.,0.,254.,768.,0.,0.,8001.,2.56131426955,0.806713155765,46841.3153616
0.005476,6853.,0.,344.,804.,0.,0.,8001.,2.51507188555,0.5849004385,62293.3004613
0.008214,6603.,0.,477.,922.,0.,0.,8002.,2.42301828421,0.406376232152,83216.1399528
0.010952,6385.,0.,631.,986.,0.,0.,8002.,2.34302161815,0.297055038751,106448.158156
0.01369,6102.,0.,825.,1076.,0.,0.,8003.,2.23889294348,0.217104770277,132990.240843
0.016428,5506.,0.,1120.,1377.,0.,0.,8003.,2.02021379004,0.144300985003,162910.040029
0.019166,5120.,0.,1319.,1564.,0.,0.,8003.,1.87858601617,0.113940016143,178405.556783
0.021904,4724.,0.,1506.,1774.,0.,0.,8004.,1.73307257611,0.0920622882397,187920.525573
0.024642,3922.,0.,1722.,2358.,0.,0.,8002.,1.43920607461,0.0668620708298,178438.525955
0.02738,3521.,0.,1850.,2630.,0.,0.,8001.,1.29221773078,0.0558796856553,172123.40174
0.030118,3143.,0.,1927.,2932.,0.,0.,8002.,1.15334642848,0.0478815330973,160019.896873
0.032856,2503.,0.,1953.,3544.,0.,0.,8000.,0.918723454348,0.0376333212227,129187.217257
0.035594,2227.,0.,1915.,3858.,0.,0.,8000.,0.817417951591,0.0341480084216,112705.587165
0.038332,1992.,0.,1817.,4191.,0.,0.,8000.,0.731161454679,0.0321920288246,95653.4661469
0.04107,1580.,0.,1667.,4753.,0.,0.,8000.,0.57993729839,0.0278314240379,69606.3943019
0.043808,1425.,0.,1526.,5047.,0.,0.,7998.,0.523175509197,0.0274272875071,57482.3395465
0.046546,1298.,0.,1387.,5312.,0.,0.,7997.,0.476608230181,0.0274900204863,47596.0042988
0.049284,1083.,0.,1186.,5727.,0.,0.,7996.,0.397712840063,0.0268271730228,33961.4948387
0.052022,1016.,0.,1061.,5920.,0.,0.,7997.,0.373061603902,0.0281290559021,28498.9220452
0.05476,961.,0.,913.,6123.,0.,0.,7997.,0.352866339911,0.0309192849867,23196.0217204
0.057498,852.,0.,769.,6377.,0.,0.,7998.,0.312803883394,0.0325413662828,17319.3254157
0.060236,809.,0.,667.,6522.,0.,0.,7998.,0.297016832941,0.035624207849,14263.9363851
0.062974,778.,0.,570.,6649.,0.,0.,7997.,0.285671188814,0.0400942019389,11723.9455889
0.065712,721.,0.,480.,6794.,0.,0.,7995.,0.264807778367,0.0441346297279,9151.75682037
0.06845,704.,0.,437.,6854.,0.,0.,7995.,0.258564044342,0.0473343788269,8135.45909117
0.071188,657.,0.,373.,6965.,0.,0.,7995.,0.241301956154,0.051753770757,6480.40533448
0.073926,642.,0.,327.,7025.,0.,0.,7994.,0.235822275293,0.0576935230074,5552.19964949
0.076664,628.,0.,289.,7076.,0.,0.,7993.,0.230708593683,0.0638639705698,4800.58441736
0.079402,606.,0.,230.,7156.,0.,0.,7992.,0.222654301659,0.07744497449,3687.15523547
0.08214,597.,0.,212.,7183.,0.,0.,7992.,0.219347554604,0.0827726621149,3348.12107348
