t,s,e,i,r,c,o,n,reff,coal,reportr
0.,7240.,0.,155.,605.,0.,0.,8000.,2.60114526778,1.34252658982,29028.7811885
0.002738,7089.,0.,250.,661.,0.,0.,8000.,2.54689486234,0.815006355948,45844.1075221
0.005476,6963.,0.,339.,698.,0.,0.,8000.,2.5016263121,0.59035429194,61059.6950257
0.008214,6683.,0.,476.,841.,0.,0.,8000.,2.40102953379,0.403534375426,82288.0841819
0.010952,6468.,0.,635.,897.,0.,0.,8000.,2.32378557901,0.292760387907,106243.476672
0.01369,6181.,0.,841.,977.,0.,0.,7999.,2.22095150018,0.211267681349,134483.055239
0.016428,5575.,0.,1133.,1291.,0.,0.,7999.,2.00320411155,0.141444244417,163413.378604
0.019166,5195.,0.,1327.,1478.,0.,0.,8000.,1.8664295119,0.112520241863,178326.141285
0.021904,4772.,0.,1517.,1712.,0.,0.,8001.,1.71424224152,0.0904017002782,187236.394588
0.024642,4014.,0.,1738.,2249.,0.,0.,8001.,1.44194642864,0.0663726779582,180439.408295
0.02738,3592.,0.,1859.,2550.,0.,0.,8001.,1.2903516621,0.0555288504402,172710.989269
0.030118,3221.,0.,1946.,2834.,0.,0.,8001.,1.1570775901,0.0475674240534,162120.455304
0.032856,2552.,0.,1950.,3499.,0.,0.,8001.,0.916753185325,0.0376103870903,128712.14722
0.035594,2265.,0.,1899.,3834.,0.,0.,7998.,0.813959571596,0.0342900293458,111291.064305
0.038332,2027.,0.,1802.,4169.,0.,0.,7998.,0.72843092787,0.0323387759321,94509.5423056
0.04107,1615.,0.,1670.,4714.,0.,0.,7999.,0.580300383884,0.0277988207849,69775.3181582
0.043808,1482.,0.,1523.,4994.,0.,0.,7999.,0.532510940505,0.0279716843338,58393.019692
0.046546,1349.,0.,1407.,5243.,0.,0.,7999.,0.484721497127,0.0275605684223,49104.2265449
0.049284,1140.,0.,1174.,5685.,0.,0.,7999.,0.409623800389,0.0279130358016,34624.6805993
0.052022,1063.,0.,1047.,5888.,0.,0.,7998.,0.382003984374,0.0291884610792,28796.988358
0.05476,1016.,0.,920.,6062.,0.,0.,7998.,0.365113874058,0.0317490325268,24185.1430176
0.057498,892.,0.,782.,6323.,0.,0.,7997.,0.320592816072,0.0327972190355,18050.6579161
0.060236,857.,0.,672.,6468.,0.,0.,7997.,0.30801350154,0.0366682739928,14902.9252585
0.062974,829.,0.,573.,6594.,0.,0.,7996.,0.297987312302,0.0416038132358,12293.7645563
0.065712,768.,0.,485.,6745.,0.,0.,7998.,0.275991589839,0.0455243859529,9637.62631719
0.06845,735.,0.,424.,6839.,0.,0.,7998.,0.264132576213,0.0498363351346,8063.43928664
0.071188,693.,0.,373.,6933.,0.,0.,7999.,0.249008152342,0.0534065742287,6687.36293928
0.073926,679.,0.,324.,6996.,0.,0.,7999.,0.243977684617,0.0602414036092,5691.51142676
0.076664,670.,0.,290.,7039.,0.,0.,7999.,0.240743812509,0.0664120862094,5026.73080519
0.079402,651.,0.,225.,7122.,0.,0.,7998.,0.233945996075,0.0831807986043,3789.92513641
0.08214,643.,0.,203.,7152.,0.,0.,7998.,0.231071083681,0.0910624960317,3377.33495907
