t,s,e,i,r,c,o,n,reff,coal,reportr
0.,7178.,0.,154.,668.,0.,0.,8000.,2.65767507695,1.38061042958,29468.3012532
0.002738,7014.,0.,250.,736.,0.,0.,8000.,2.59695360682,0.831025154181,46745.1649227
0.005476,6894.,0.,343.,763.,0.,0.,8000.,2.55252326282,0.595340702698,63037.1144985
0.008214,6624.,0.,481.,897.,0.,0.,8002.,2.45194200331,0.407807401799,84915.6554588
0.010952,6409.,0.,643.,949.,0.,0.,8001.,2.37265404073,0.295198014398,109844.391469
0.01369,6132.,0.,827.,1041.,0.,0.,8000.,2.27039057841,0.21962665813,135188.136601
0.016428,5506.,0.,1133.,1361.,0.,0.,8000.,2.03861228388,0.14394438015,166301.83567
0.019166,5131.,0.,1319.,1550.,0.,0.,8000.,1.89976745888,0.1152247132,180417.116035
0.021904,4712.,0.,1529.,1759.,0.,0.,8000.,1.74463150774,0.0912822240808,192062.993425
0.024642,3919.,0.,1748.,2335.,0.,0.,8002.,1.4506583199,0.0663916851211,182574.053509
0.02738,3537.,0.,1857.,2608.,0.,0.,8002.,1.30925707514,0.0564031050141,175052.907974
0.030118,3152.,0.,1921.,2929.,0.,0.,8002.,1.1667453494,0.0485890827445,161374.882767
0.032856,2472.,0.,1926.,3604.,0.,0.,8002.,0.915036327324,0.0380077394527,126889.917583
0.035594,2177.,0.,1873.,3952.,0.,0.,8002.,0.805839030981,0.0344191791129,108672.228362
0.038332,1936.,0.,1818.,4248.,0.,0.,8002.,0.716630392273,0.0315348907491,93804.051827
0.04107,1523.,0.,1656.,4823.,0.,0.,8002.,0.563754177392,0.0272345013233,67217.5380789
0.043808,1369.,0.,1532.,5101.,0.,0.,8002.,0.506749487098,0.0264621142088,55896.4954249
0.046546,1240.,0.,1421.,5341.,0.,0.,8002.,0.458998804968,0.0258408897941,46961.0857339
0.049284,1039.,0.,1197.,5765.,0.,0.,8001.,0.384644647888,0.0257072446375,33150.2143336
0.052022,964.,0.,1060.,5977.,0.,0.,8001.,0.356879153575,0.0269342757415,27237.0170008
0.05476,916.,0.,928.,6157.,0.,0.,8001.,0.339109237214,0.0292335549322,22657.9227937
0.057498,822.,0.,763.,6417.,0.,0.,8002.,0.304271788455,0.0319026776886,16715.4749705
0.060236,794.,0.,661.,6547.,0.,0.,8002.,0.29390729931,0.035571231384,13987.6361888
0.062974,761.,0.,571.,6670.,0.,0.,8002.,0.281692008533,0.0394664810554,11580.9218548
0.065712,714.,0.,492.,6797.,0.,0.,8003.,0.264261448758,0.0429693412615,9361.19756081
0.06845,689.,0.,425.,6889.,0.,0.,8003.,0.255008596911,0.0480016182421,7803.26306548
0.071188,660.,0.,365.,6975.,0.,0.,8000.,0.244366892001,0.0535598667401,6421.9619218
0.073926,649.,0.,314.,7037.,0.,0.,8000.,0.240294110468,0.0612214294186,5432.56924946
0.076664,639.,0.,274.,7086.,0.,0.,7999.,0.236621159446,0.0690864699113,4668.06223356
0.079402,615.,0.,225.,7157.,0.,0.,7997.,0.227790934602,0.0809923323029,3690.21314055
0.08214,605.,0.,206.,7186.,0.,0.,7997.,0.224087016966,0.0870240842587,3323.65863564
