t,s,e,i,r,c,o,n,reff,coal,reportr
0.,7091.,0.,157.,752.,0.,0.,8000.,2.59940347407,1.32453680207,29383.6568709
0.002738,6926.,0.,251.,821.,0.,0.,7998.,2.53955301848,0.809419288758,45894.8021499
0.005476,6807.,0.,336.,854.,0.,0.,7997.,2.49623145388,0.594340822352,60388.8313323
0.008214,6534.,0.,483.,980.,0.,0.,7997.,2.39611816067,0.396872573195,83327.4051553
0.010952,6315.,0.,640.,1042.,0.,0.,7997.,2.31580749688,0.28947593711,106712.409456
0.01369,6053.,0.,832.,1112.,0.,0.,7997.,2.21972807262,0.213435391598,132970.590462
0.016428,5459.,0.,1130.,1408.,0.,0.,7997.,2.00189914892,0.141727373375,162874.514757
0.019166,5100.,0.,1313.,1584.,0.,0.,7997.,1.87024833477,0.113952678432,176805.796576
0.021904,4707.,0.,1493.,1796.,0.,0.,7996.,1.72634507247,0.0925034198244,185575.189911
0.024642,3928.,0.,1756.,2312.,0.,0.,7996.,1.44063808045,0.0656327143712,182142.753787
0.02738,3529.,0.,1866.,2601.,0.,0.,7996.,1.29430035283,0.0554898329186,173891.841003
0.030118,3162.,0.,1910.,2924.,0.,0.,7996.,1.15969898431,0.0485737794476,159481.804323
0.032856,2447.,0.,1962.,3586.,0.,0.,7995.,0.897576963751,0.0365984490826,126795.312207
0.035594,2197.,0.,1885.,3912.,0.,0.,7994.,0.805975999773,0.0342058779745,109387.062689
0.038332,1965.,0.,1826.,4203.,0.,0.,7994.,0.720866108127,0.0315823048467,94773.7089677
0.04107,1561.,0.,1684.,4749.,0.,0.,7994.,0.572657503708,0.0272046320051,69433.5770096
0.043808,1436.,0.,1530.,5029.,0.,0.,7995.,0.526734989761,0.0275416988111,58025.1264721
0.046546,1326.,0.,1394.,5275.,0.,0.,7995.,0.486386209209,0.0279131253491,48817.6110458
0.049284,1106.,0.,1184.,5706.,0.,0.,7996.,0.405637911654,0.0274079670036,34579.8206927
0.052022,1029.,0.,1053.,5914.,0.,0.,7996.,0.377397297551,0.0286721593581,28612.7535112
0.05476,989.,0.,913.,6094.,0.,0.,7996.,0.362726848667,0.0317832945163,23844.212124
0.057498,899.,0.,769.,6328.,0.,0.,7996.,0.329718338677,0.0343009975217,18255.8449759
0.060236,863.,0.,682.,6451.,0.,0.,7996.,0.316514934681,0.0371278515755,15542.1493526
0.062974,838.,0.,561.,6597.,0.,0.,7996.,0.307345904128,0.0438282929238,12414.3157596
0.065712,770.,0.,480.,6746.,0.,0.,7996.,0.282406141025,0.0470676901708,9759.95623382
0.06845,746.,0.,430.,6819.,0.,0.,7995.,0.273638093567,0.0509094127566,8471.83537683
0.071188,709.,0.,362.,6924.,0.,0.,7995.,0.260066231017,0.0574732002248,6778.36624523
0.073926,689.,0.,321.,6983.,0.,0.,7993.,0.252793326954,0.0630014522004,5842.55937256
0.076664,676.,0.,282.,7035.,0.,0.,7993.,0.24802364154,0.0703613167489,5035.87201782
0.079402,654.,0.,223.,7118.,0.,0.,7995.,0.239891840741,0.0860598531806,3851.70339494
0.08214,646.,0.,203.,7145.,0.,0.,7994.,0.236987025878,0.0933939018238,3463.80237023
