t,s,e,i,r,c,o,n,reff,coal,reportr
0.,7232.,0.,154.,614.,0.,0.,8000.,2.59387276308,1.34746637043,28760.861197
0.002738,7076.,0.,256.,669.,0.,0.,8001.,2.53760366121,0.793001144127,46773.1106833
0.005476,6955.,0.,340.,706.,0.,0.,8001.,2.49421049515,0.586873057683,61058.2729213
0.008214,6683.,0.,477.,841.,0.,0.,8001.,2.39666552683,0.401956482487,82311.0808534
0.010952,6465.,0.,637.,899.,0.,0.,8001.,2.31848610369,0.291175648815,106335.04666
0.01369,6186.,0.,831.,984.,0.,0.,8001.,2.21843078692,0.213567344107,132733.150843
0.016428,5603.,0.,1114.,1283.,0.,0.,8000.,2.00960579252,0.144316394436,161186.461407
0.019166,5255.,0.,1301.,1444.,0.,0.,8000.,1.88479001244,0.115897925438,176552.050045
0.021904,4841.,0.,1491.,1667.,0.,0.,7999.,1.73651933899,0.093173405177,186418.824079
0.024642,4049.,0.,1744.,2207.,0.,0.,8000.,1.45223877457,0.0666164575492,182354.718446
0.02738,3637.,0.,1863.,2501.,0.,0.,8001.,1.3043053301,0.056008817181,174954.299759
0.030118,3258.,0.,1911.,2832.,0.,0.,8001.,1.16838789262,0.0489121043485,160760.826922
0.032856,2590.,0.,1933.,3477.,0.,0.,8000.,0.928945029919,0.038445733261,129286.853484
0.035594,2314.,0.,1884.,3803.,0.,0.,8001.,0.829849473153,0.0352377695606,112567.421334
0.038332,2064.,0.,1820.,4115.,0.,0.,7999.,0.740379243063,0.0325441425522,97019.296011
0.04107,1625.,0.,1679.,4695.,0.,0.,7999.,0.582905169563,0.0277739211227,70466.2401381
0.043808,1483.,0.,1544.,4972.,0.,0.,7999.,0.531968225515,0.027563120493,59137.843694
0.046546,1348.,0.,1412.,5239.,0.,0.,7999.,0.483542257582,0.0273961619027,49158.8400748
0.049284,1137.,0.,1178.,5684.,0.,0.,7999.,0.407854263257,0.0276980823944,34592.5671924
0.052022,1047.,0.,1056.,5896.,0.,0.,7999.,0.375570284635,0.0284522942905,28555.3598814
0.05476,985.,0.,920.,6094.,0.,0.,7999.,0.353330210473,0.0307243661281,23404.5931418
0.057498,884.,0.,771.,6344.,0.,0.,7999.,0.317100412242,0.0329027665102,17602.8780844
0.060236,860.,0.,671.,6468.,0.,0.,7999.,0.308491351276,0.0367798928496,14903.8341629
0.062974,836.,0.,584.,6579.,0.,0.,7999.,0.29988229031,0.0410797657959,12609.450543
0.065712,786.,0.,483.,6729.,0.,0.,7998.,0.281981998788,0.0467050929669,9806.20598985
0.06845,763.,0.,431.,6804.,0.,0.,7998.,0.273730617144,0.0508084672193,8494.40851121
0.071188,723.,0.,366.,6909.,0.,0.,7998.,0.259380388198,0.0566951668192,6835.1919898
0.073926,710.,0.,322.,6966.,0.,0.,7998.,0.254716563791,0.0632836183331,5905.34881492
0.076664,695.,0.,294.,7008.,0.,0.,7997.,0.249366406531,0.0678548044983,5278.58809346
0.079402,669.,0.,223.,7105.,0.,0.,7997.,0.240037591323,0.0861121403849,3854.04356628
0.08214,660.,0.,199.,7138.,0.,0.,7997.,0.236808386059,0.0951993511793,3392.99055545
