t,s,e,i,r,c,o,n,reff,coal,reportr
0.,7187.,0.,155.,658.,0.,0.,8000.,2.53585198321,1.30882683004,28300.1081326
0.002738,7032.,0.,248.,721.,0.,0.,8001.,2.48085187292,0.800274797715,44298.0910428
0.005476,6903.,0.,337.,761.,0.,0.,8001.,2.43534136501,0.57812257923,59091.1228806
0.008214,6634.,0.,480.,888.,0.,0.,8002.,2.34014712638,0.390024521063,80875.4846876
0.010952,6430.,0.,632.,940.,0.,0.,8002.,2.26818601486,0.28711215378,103211.53642
0.01369,6163.,0.,828.,1011.,0.,0.,8002.,2.17400161891,0.210048465595,129605.280513
0.016428,5569.,0.,1123.,1310.,0.,0.,8002.,1.96446779421,0.139944277415,158839.007969
0.019166,5204.,0.,1314.,1484.,0.,0.,8002.,1.83571384469,0.111763399981,173673.215418
0.021904,4778.,0.,1530.,1693.,0.,0.,8001.,1.68565276576,0.0881387067062,185691.508676
0.024642,4018.,0.,1739.,2245.,0.,0.,8002.,1.41735169638,0.0652030682636,177463.7712
0.02738,3608.,0.,1868.,2526.,0.,0.,8002.,1.27272397226,0.0545063799683,171176.283373
0.030118,3231.,0.,1915.,2856.,0.,0.,8002.,1.13973701618,0.0476130346184,157146.939791
0.032856,2580.,0.,1948.,3475.,0.,0.,8003.,0.909982690912,0.0373709523989,127630.532297
0.035594,2315.,0.,1884.,3804.,0.,0.,8003.,0.816515476536,0.0346715701289,110758.691361
0.038332,2081.,0.,1818.,4104.,0.,0.,8003.,0.733982162709,0.0322984450037,96075.3291699
0.04107,1695.,0.,1663.,4646.,0.,0.,8004.,0.597762773204,0.0287558760411,71573.7234124
0.043808,1538.,0.,1536.,4930.,0.,0.,8004.,0.542394775922,0.0282497279126,59984.5230588
0.046546,1396.,0.,1411.,5197.,0.,0.,8004.,0.492316714686,0.0279130667434,50015.4396784
0.049284,1199.,0.,1185.,5622.,0.,0.,8006.,0.42273658995,0.0285391790683,36067.8858545
0.052022,1132.,0.,1055.,5819.,0.,0.,8006.,0.399114111612,0.0302645771839,30316.7079181
0.05476,1063.,0.,928.,6015.,0.,0.,8006.,0.374786484667,0.0323091797127,25041.7337595
0.057498,943.,0.,776.,6286.,0.,0.,8005.,0.33251910198,0.0342803197917,18578.5072658
0.060236,905.,0.,672.,6428.,0.,0.,8005.,0.319119604763,0.0379904291385,15440.2829569
0.062974,881.,0.,577.,6547.,0.,0.,8005.,0.310656764416,0.0430719950663,12905.9246209
0.065712,816.,0.,480.,6709.,0.,0.,8005.,0.287736571808,0.0479560953014,9944.1759217
0.06845,790.,0.,442.,6774.,0.,0.,8006.,0.2785336998,0.0504133393303,8864.05646243
0.071188,748.,0.,372.,6887.,0.,0.,8007.,0.263692642173,0.0567080950911,7062.74372797
0.073926,739.,0.,322.,6947.,0.,0.,8008.,0.26048733729,0.0647173508794,6039.13842772
0.076664,720.,0.,287.,7001.,0.,0.,8008.,0.253790098577,0.0707428846208,5244.318597
0.079402,698.,0.,224.,7086.,0.,0.,8008.,0.246035401121,0.0878697861145,3968.05894927
0.08214,688.,0.,202.,7117.,0.,0.,8007.,0.242540825956,0.096055772656,3527.51377271
