t,s,e,i,r,c,o,n,reff,coal,reportr
0.,7049.,0.,156.,795.,0.,0.,8000.,2.52995722185,1.29741395992,28416.4795158
0.002738,6901.,0.,255.,845.,0.,0.,8001.,2.47652896247,0.776950262734,45469.0717509
0.005476,6778.,0.,345.,879.,0.,0.,8002.,2.43208456642,0.56396163859,60412.9806298
0.008214,6509.,0.,476.,1016.,0.,0.,8001.,2.33585379172,0.392580469197,80054.38115
0.010952,6288.,0.,633.,1080.,0.,0.,8001.,2.25654457557,0.285187308128,102844.275576
0.01369,6015.,0.,833.,1153.,0.,0.,8001.,2.15857436737,0.207306061692,129462.656257
0.016428,5412.,0.,1142.,1447.,0.,0.,8001.,1.94217863279,0.136054545204,159693.695902
0.019166,5050.,0.,1318.,1633.,0.,0.,8001.,1.81226941899,0.110001178694,171977.118784
0.021904,4644.,0.,1531.,1826.,0.,0.,8001.,1.66657013501,0.0870840044419,183709.359122
0.024642,3843.,0.,1753.,2404.,0.,0.,8000.,1.37929147448,0.0629454181164,174088.652742
0.02738,3456.,0.,1858.,2686.,0.,0.,8000.,1.24039326979,0.0534076757712,165934.850059
0.030118,3077.,0.,1929.,2995.,0.,0.,8001.,1.10422831727,0.045794849861,153364.062529
0.032856,2456.,0.,1953.,3592.,0.,0.,8001.,0.881373008523,0.0361033490434,123935.146966
0.035594,2197.,0.,1893.,3911.,0.,0.,8001.,0.788426913568,0.0333196793901,107459.434612
0.038332,1955.,0.,1822.,4223.,0.,0.,8000.,0.70166922524,0.0308087475407,92047.7756439
0.04107,1582.,0.,1654.,4763.,0.,0.,7999.,0.567866745149,0.027466348012,67626.1149463
0.043808,1435.,0.,1539.,5025.,0.,0.,7999.,0.515100366175,0.0267758474945,57077.2413751
0.046546,1315.,0.,1408.,5277.,0.,0.,8000.,0.471966767873,0.0268162936291,47846.1030599
0.049284,1133.,0.,1198.,5668.,0.,0.,7999.,0.406695968555,0.0271583284511,35079.9674637
0.052022,1067.,0.,1044.,5889.,0.,0.,8000.,0.382957065643,0.0293453690148,28786.1167102
0.05476,997.,0.,924.,6078.,0.,0.,7999.,0.35787809413,0.0309851163749,23808.9138463
0.057498,890.,0.,760.,6349.,0.,0.,7999.,0.319469913516,0.0336284119491,17481.3936676
0.060236,849.,0.,680.,6470.,0.,0.,7999.,0.304752760197,0.0358532659055,14920.6951392
0.062974,829.,0.,574.,6596.,0.,0.,7999.,0.297573661017,0.0414736809779,12298.1242625
0.065712,762.,0.,489.,6746.,0.,0.,7997.,0.273592085335,0.0447594413637,9632.63014049
0.06845,741.,0.,441.,6816.,0.,0.,7998.,0.266018881141,0.0482573934043,8446.631514
0.071188,704.,0.,362.,6931.,0.,0.,7997.,0.252767490914,0.0558602189864,6588.13188317
0.073926,693.,0.,322.,6982.,0.,0.,7997.,0.248817998868,0.0618181363647,5768.59648576
0.076664,681.,0.,282.,7034.,0.,0.,7997.,0.244509462091,0.0693643864088,4964.5201183
0.079402,658.,0.,225.,7114.,0.,0.,7997.,0.236251433269,0.0840005096066,3827.27321895
0.08214,647.,0.,203.,7146.,0.,0.,7996.,0.232330993492,0.0915590122136,3395.74980088
